FitMethod,TemporalRes,errKt,errVe,errKep,errVp,qt25Kt,qt75Kt,qt25Ve,qt75Ve,qt25Kep,qt75Kep,qt25Vp,qt75Vp
ETM,5.385000,0.000000,0.000000,0.000000,0.000000,0.000000,0.000000,0.000000,0.000000,0.000000,0.000000,0.000000,0.000000
ERTM,5.385000,0.000000,0.000000,0.000000,0.000000,0.000000,0.000000,0.000000,0.000000,0.000000,0.000000,0.000000,0.000000
CERRM,5.385000,0.000000,0.000000,0.000000,0.000000,0.000000,0.000000,0.000000,0.000000,0.000000,0.000000,0.000000,0.000000
ETM,10.770000,0.240913,-0.094347,0.158643,-0.340755,-3.940591,4.445142,-3.875761,3.303280,-6.355261,6.211148,-14.406529,13.523506
ERTM,10.770000,-2.671465,-0.097077,-3.276601,6.684045,-7.892741,1.971034,-3.264221,2.949941,-9.494631,2.118150,-15.758453,27.573995
CERRM,10.770000,0.229925,-0.164903,1.200405,-1.928194,-4.753874,5.269588,-3.906564,3.119473,-5.093213,6.899190,-20.350717,16.163609
ETM,16.156000,-10.680032,1.434094,-15.762731,-4.539601,-26.753843,6.349009,-10.294203,10.532471,-40.641259,6.606426,-32.726874,109.153788
ERTM,16.156000,-2.487551,-0.458947,-3.250775,15.767270,-12.231409,5.745757,-5.972924,4.877848,-14.964868,6.342962,-29.432335,53.629314
CERRM,16.156000,1.044122,0.458526,-2.127032,-3.294021,-6.936139,8.324200,-5.415620,5.861842,-12.019687,6.650378,-34.582499,29.134714
ETM,21.542000,-22.826125,3.349560,-31.754003,14.067886,-41.271531,-12.867719,-21.340378,16.513850,-56.011243,-16.635558,-28.867541,195.284437
ERTM,21.542000,-3.119797,-0.737822,-3.552482,30.381675,-16.675378,9.705950,-9.070599,7.427563,-19.179171,7.770146,-65.760177,98.486512
CERRM,21.542000,0.505574,0.133469,-0.603654,-2.715048,-10.971839,11.149252,-8.469939,7.281766,-13.556887,10.706943,-57.221519,49.002940
ETM,26.927000,-27.219837,1.909059,-36.347271,81.028196,-45.145570,-15.558499,-27.327799,19.124103,-60.128043,-19.071791,-31.040725,196.841606
ERTM,26.927000,0.537434,-0.660041,0.403798,1.229798,-14.056628,12.937594,-8.611417,6.757911,-17.280380,13.273639,-60.750198,81.178423
CERRM,26.927000,1.636330,0.702939,-3.548246,-8.208452,-12.413451,15.780737,-8.888942,9.069957,-20.356305,10.305561,-69.412052,52.740696
ETM,32.313000,-30.156848,0.690740,-40.246743,100.528413,-48.824921,-14.870477,-32.493642,20.358767,-68.549941,-17.444358,-30.876412,195.736087
ERTM,32.313000,2.305113,-1.243473,2.804249,-6.888010,-12.467334,15.079441,-9.899302,6.644361,-17.348134,16.826720,-63.054338,76.069628
CERRM,32.313000,1.244314,0.166657,1.160082,-18.924929,-14.607999,16.604965,-10.826795,9.486921,-18.037709,17.687444,-73.721453,56.246427
ETM,37.699000,-35.169000,-5.816060,-43.630080,117.551921,-53.436054,-14.480327,-45.252632,20.132004,-71.073738,-13.797867,-26.316072,226.039375
ERTM,37.699000,3.923644,-1.936227,4.818771,-11.259535,-10.510020,16.688369,-11.217509,5.843130,-14.837926,19.138397,-62.426197,69.748176
CERRM,37.699000,4.417954,0.809810,5.728883,-33.006030,-13.026737,18.291699,-12.027130,10.599090,-16.129993,21.703464,-79.571139,52.877860
ETM,43.084000,-29.688112,-6.985444,-35.545104,119.289634,-51.222334,-9.180128,-40.179449,15.439427,-66.339110,-7.996498,-3.020484,217.996527
ERTM,43.084000,3.753731,-2.505721,4.831212,-12.270350,-11.675835,17.836344,-13.665010,6.112059,-14.597539,21.390106,-65.497748,89.461220
CERRM,43.084000,3.750548,-0.864007,17.113342,-33.999513,-10.195828,20.429312,-12.022874,9.683034,-2.195958,36.764419,-81.779938,23.834226
ETM,48.469000,-27.130545,-9.157099,-33.757954,128.548430,-53.024528,-8.813002,-44.329278,12.257535,-69.395434,-6.849413,23.049833,230.331196
ERTM,48.469000,1.984387,-3.515315,3.763019,-5.453517,-20.989593,17.159316,-20.369202,5.421680,-24.220386,22.112927,-63.584576,160.680778
CERRM,48.469000,6.583023,-0.272226,25.134652,-42.759930,-8.443370,23.938582,-12.622000,10.488020,2.800258,47.978157,-87.581070,1.366473
ETM,53.855000,-29.721185,-11.904166,-35.834650,142.520282,-55.419890,-9.985496,-54.803776,11.577994,-71.646613,-5.872497,28.446223,252.623887
ERTM,53.855000,1.347845,-5.834767,4.402812,8.316784,-32.917599,17.981832,-28.321319,4.251364,-35.042739,24.635797,-62.153672,273.343772
CERRM,53.855000,6.881629,-0.689776,29.798323,-50.096971,-8.680352,25.582639,-13.569739,11.208078,7.150319,52.881574,-94.944185,0.765432
ETM,59.240000,-32.114500,-15.474307,-39.363394,148.759395,-57.707780,-9.494553,-62.882922,11.867741,-78.344619,-2.756119,36.146886,267.241603
ERTM,59.240000,0.540924,-8.315277,4.607086,26.077659,-39.649377,19.916035,-35.417996,3.339750,-42.145458,27.451757,-58.336247,353.725407
CERRM,59.240000,6.764392,-1.970664,41.209826,-56.895254,-10.127461,26.414601,-16.228991,11.195243,14.316137,68.476098,-98.504798,-5.290251
ETM,64.625000,-31.122410,-17.293933,-37.733698,161.800747,-57.596012,-7.883671,-64.009687,11.396875,-77.145521,0.352136,39.563059,279.757643
ERTM,64.625000,-6.176142,-10.000887,-1.094621,60.558053,-53.226230,18.668134,-51.377797,3.067681,-54.451177,26.588795,-57.920792,467.410773
CERRM,64.625000,8.370048,-1.518705,42.201816,-66.279642,-10.339166,29.908722,-16.652894,12.998656,13.211355,73.684898,-102.886931,-8.435366
