{
"KTrans": [[-42.418,-68.146,-71.335,-84.418,-64.305,-36.043,-58.403,-66.475,-69.568,-65.269,-29.328,-48.799,-58.568,-45.829,-58.016,73.826,42.949,11.454,11.764,18.001,148.826,104.355,71.808,75.038,72.803,305.395,294.848,255.283,201.237,181.386],[-59.81,-50.932,-49.611,-71.052,-55.472,-57.446,-34.415,-40.383,-51.918,-50.522,-53.019,-33.998,-36.398,-57.934,-47.124,-20.444,3.093,13.812,8.77,-6.509,-2.576,29.756,51.447,38.762,17.961,50.183,65.899,105.065,109.4,63.674],[-69.609,-54.11,-40.732,-42.944,-63.408,-68.325,-46.297,-36.49,-33.351,-37.295,-67.115,-46.507,-33.964,-30.07,-32.832,-54.591,-26.536,-11.59,-1.319,7.492,-46.459,-11.046,5.412,13.371,28.979,-12.481,3.954,16.999,35.704,62.147],[-77.968,-54.495,-44.366,-45.702,-42.375,-75.107,-51.55,-50.453,-35.054,-43.145,-75.024,-51.294,-41.287,-40.623,-34.282,-69.012,-41.571,-14.904,-7.58,-7.834,-58.136,-32.561,-6.865,1.932,5.625,-39.934,-20.57,5.517,6.698,11.377],[-81.749,-58.978,-47.154,-42.472,-44.302,-81.89,-58.51,-45.697,-43.938,-31.161,-80.735,-57.089,-42.998,-36.302,-39.029,-74.874,-49.739,-32.167,-19.275,-16.966,-66.232,-43.86,-18.382,-9.562,0.697,-53.293,-34.876,-10.68,6.744,9.384],[-86.903,-67.876,-48.266,-47.537,-47.398,-85.551,-67.662,-48.16,-49.115,-42.36,-83.879,-66.738,-49.535,-40.42,-39.742,-79.951,-62.394,-39.044,-25.536,-21.482,-72.783,-56.047,-29.461,-16.142,-2.862,-58.366,-46.639,-21.758,-0.369,6.161]],
"ve": [[265.534,-79.771,-53.172,-51.636,-39.646,-49.704,25.318,-383.892,-10.71,-8.143,-32.754,-40.516,-60.651,-310.517,-88.195,72.006,-1.555,45.427,-29.607,14.138,139.788,37.836,14.048,-64.032,-74.23,1031.514,105.705,-18103.265,13.925,-18.108],[-522.4,-55.734,-50.083,-51.898,-263.423,-63.745,-35.614,-44.235,-52.311,74.548,-23.028,-40.381,-103.35,-50.799,-29.013,55.492,14.691,14.511,10.666,17.209,78.567,62.639,51.799,40.41,-379.229,260.335,377.377,-186.339,65.448,16.13],[-20.182,-68.066,-50.123,-56.233,-63.909,-8.542,-59.876,-7.878,-27.547,-29.787,-15.736,-54.33,-45.325,-25.826,-34.476,65.818,-16.237,-4.53,10.692,5.942,42.343,17.336,18.492,20.845,30.442,208.32,-4.423,52.205,55.33,62.834],[-37.134,-54.994,-52.252,-67.739,-54.487,19.075,-38.078,-78.496,-46.908,-53.456,16.443,-34.145,-61.81,-59.705,-45.504,61.17,23.108,-17.494,-10.004,5.764,109.261,7.293,-1.023,0.613,2.898,185.111,23.96,7.049,11.635,14.845],[-2.558,-36.25,-71.609,-68.254,-73.243,1.79,-31.915,-65.542,-75.601,-48.84,18.56,-14.508,-59.46,-53.535,-61.588,62.956,-23.159,-35.915,-39.125,-25.485,154.127,14.295,-4.162,-4.226,1.423,298.42,28.639,10.925,3.153,12.31],[-7.319,-25.749,-59.389,-91.184,-84.528,17.864,-29.356,-51.95,-84.23,-76.977,49.179,-23.395,-56.853,-72.989,-66.094,76.688,-7.479,-21.276,-37.495,-38.737,141.728,24.791,-5.525,-13.2,-2.389,317.768,19.115,3.563,3.408,7.889]],
"kep": [[-146.833,-37.776,-6.083,6.428,-15.49,-147.138,-79.985,-26.929,-17.346,-12.864,-141.57,-108.339,-56.136,-45.107,-29.402,-143.147,-120.192,-47.786,-19.479,-58.106,-127.006,-115.267,-62.637,-86.165,-70.273,-140.676,-213.054,-186.49,-135.452,-109.207],[-91.467,-94.772,-142.243,-78.918,-18.655,-90.998,-87.987,-149.111,-71.447,-27.348,-87.403,-94.401,-144.222,-70.041,-10.32,-88.966,-73.128,-127.906,-84.733,-21.397,-80.019,-82.872,-131.714,-111.522,-39.819,-89.237,-68.019,-144.622,-183.091,-85.881],[-94.36,-50.893,-48.734,-87.879,-148.018,-91.327,-59.073,-48.462,-90.783,-136.701,-95.645,-57.786,-49.258,-90.741,-151.797,-91.678,-50.235,-40.55,-81.551,-130.094,-90.946,-46.277,-42.251,-71.622,-152.501,-86.985,-44.099,-27.575,-72.835,-151.254],[-98.419,-54.788,-37.244,-31.411,-37.236,-95.88,-55.556,-34.732,-25.741,-38.81,-97.139,-58.987,-28.726,-29.5,-35.151,-93.961,-52.779,-21.668,-15.405,-43.391,-93.749,-52.516,-17.795,-10.501,-22.414,-88.653,-48.184,-11.78,-21.694,-19.047],[-96.94,-66.492,-31.693,-21.867,-16.155,-99.713,-65.462,-36.53,-22.377,-10.046,-97.421,-66.889,-30.549,-23.663,-11.634,-93.623,-58.916,-30.703,-11.314,-15.14,-98.683,-60.022,-29.716,-19.754,-11.804,-96.207,-55.164,-26.421,-4.502,-10.53],[-100.477,-74.396,-39.889,-21.012,-13.743,-98.122,-71.423,-37.491,-25.474,-14.835,-101.036,-74.23,-40.081,-20.444,-16.961,-99.787,-71.261,-39.004,-19.864,-8.534,-97.703,-74.044,-36.817,-17.751,-9.038,-100.695,-63.295,-33.377,-9.595,-0.578]],
"vp": [[228.019,-77.396,208.943,-243.617,301.896,-16.21,-79.46,-16.816,-14.343,109.136,-30.611,-37.628,-76.395,-12.286,-12.569,-13.936,-17.979,-4.06,-4.334,-14.314,-10.547,-9.73,-7.583,-10.881,-7.352,-7.805,-10.893,-11.651,-9.561,-10.131],[2056.563,397.713,-111.346,-739.601,654.714,424.479,297.39,16.493,-161.618,-5.493,235.89,78.469,-29.707,-91.991,7.824,43.483,6.049,-5.172,-20.003,3.081,16.602,0.751,-10.292,-11.336,-14.177,3.402,-2.969,-10.971,-15.635,-12.368],[4193.01,2285.48,1626.845,944.774,-574.236,902.343,550.344,278.873,169.144,14.861,461.707,239.474,162.282,66.077,-15.361,82.239,45.027,9.333,-2.791,-9.647,35.848,14.353,-2.41,3.326,-10.301,11.092,5.669,-0.561,-2.353,-6.77],[5726,3999.339,3251.07,2147.881,1329.45,1146.099,837.4,445.856,479.673,134.773,539.143,468.124,184.89,167.603,99.241,106.789,70.302,18.523,13.273,22.636,46.22,38.737,9.586,3.071,-3.083,12.909,12.071,0.257,0.136,0.958],[6304.867,6170.067,3651.511,2227.589,1039.326,1258.238,1164.14,700.775,346.959,377.877,665.341,639.996,347.695,288.087,90.306,105.096,108.68,50.351,12.626,14.454,56.659,54.324,28.479,13.454,1.63,22.099,21.989,8.53,-3.585,-3.887],[7103.007,8512.634,4481.554,2765.171,2082.418,1306.378,1603.168,1095.773,669.217,413.971,690.758,762.441,483.555,216.378,203.46,131.002,153.208,116.267,32.53,24.773,56.675,74.052,36.879,14.174,2.215,27.448,25.818,16.522,2.836,-3.811]]
}