{
"KTrans": [[-42.654,-53.207,-53.961,-58.223,-56.017,-34.435,-45.836,-45.072,-36.267,-43.863,-17.985,-40.324,-32.345,-39.107,-36.975,-1.374,33.163,22.365,30.199,34.968,-67.466,108.722,79.067,95.139,116.917,-155.853,101.886,195.959,285.382,252.376],[-52.555,-43.627,-47.64,-51.704,-55.342,-46.804,-40.515,-31.672,-56.111,-49.165,-43.666,-37.353,-24.738,-30.738,-39.566,-31.485,-24.568,-25.014,12.758,-10.52,-29.382,-11.278,-36.16,10.741,20.108,-29.744,51.078,-47.908,50.098,43.797],[-50.68,-39.242,-40.768,-51.695,-40.394,-57.765,-45.347,-37.705,-31.81,-35.759,-51.695,-35.796,-39.362,-37.128,-21.513,-37.124,-9.48,-10.058,-17.082,-20.395,-44.033,-0.942,-34.925,-32.306,-26.2,-23.628,-47.021,27.878,9.97,-12.554],[-67.008,-50.921,-50.215,-40.911,-48.093,-69.421,-49.117,-33.191,-41.33,-39.61,-64.255,-46.481,-43.673,-38.52,-32.227,-63.243,-37.046,-16.484,-19.14,-15.364,-56.15,-48.485,-12.879,-16.785,-1.398,-60.866,-80.578,-7.811,-48.003,-16.867],[-67.575,-47.738,-41.946,-38.61,-34.656,-75.324,-42.949,-35.274,-36.022,-23.911,-74.475,-53.196,-44.602,-35.28,-32.839,-69.527,-38.582,-16.687,-29.965,-16.22,-58.272,-48.326,-22.427,12.055,6.267,-72.668,-74.18,-32.916,-33.503,-8.028],[-80.626,-65.653,-42.87,-37.225,-30.503,-79.27,-51.593,-52.369,-45.194,-34.688,-76.602,-54.672,-51.576,-36.879,-36.491,-81.569,-53.371,-32.547,-23.328,-29.688,-73.694,-59.6,-33.982,13.926,-12.256,-77.207,-119.475,-22.306,-24.367,-4.083]],
"ve": [[-41.676,-17.914,-11.829,-6.55,-1.421,-42.142,-30.071,10.478,-10.654,8.672,-26.171,-2.717,-61.871,11.746,-224.602,13.433,20.237,-77.791,-1.79,144.381,-4.99,27.578,-30.461,153.489,-44.778,20.76,96.77,38.665,6.886,-19.036],[-129.795,-63.354,-53.78,-35.344,-31.705,-107.127,-66.823,-30.763,-42.302,-28.708,-113.423,-60.369,-25.306,-26.711,-22.938,-90.342,-25.394,-10.878,569.241,3.076,-88.286,5.376,-19.352,11.841,13.647,-23.978,29.827,-20.378,32.604,45.339],[-85.207,-83.645,-65.67,-66.107,-40.488,-146.659,-103.989,-63.594,-41.235,-34.917,-115.02,-72.864,-68.097,-48.047,-20.761,28.086,11.09,-12.77,-14.937,-10.19,-128.748,-36.35,-55.204,-9.947,-24.929,-161.806,18.881,18.339,13.381,-15.19],[-92.52,-152.621,-107.01,-69.002,-66.411,-144.795,-119.669,-68.835,-73.969,-56.326,-98.184,-127.212,-99.012,-66.16,-45.364,-64.225,-133.723,-46.974,-33.151,-27.748,-177.705,-96.656,26.747,-0.182,24.697,-188.803,-188.855,79.32,40.213,31.627],[-91.117,-181.439,-117.294,-81.961,-58.25,-79.647,-149.448,-93.453,-71.805,-39.619,-139.009,-215.815,-113.434,-80.928,-55.522,-36.091,-82.95,-62.855,-74.466,-25.639,-136.977,-42.372,-12.273,-20.5,9.6,-139.828,-65.789,50.553,2.953,6.048],[-52.875,-206.556,-133.581,-83.507,-56.417,47.526,-121.948,-159.206,-111.692,-67.174,-33.961,-154.31,-147.033,-85.189,-74.019,-95.473,-144,-116.574,-77.139,-61.089,-180.463,-114.113,-103.512,-51.855,-30.161,14.475,-258.077,-69.786,-69.833,-3.401]],
"kep": [[-121.592,1.091,4.126,6.35,8.576,-106.045,-13.432,2.152,4.735,-3.069,-105.253,4.946,-7.843,-13.165,4.064,26.189,-80.535,-49.654,-46.3,-50.694,56.872,-203.937,-129.469,-115.16,-142.692,50.269,-271.814,-295.089,-330.416,-336.737],[-14.801,-5.669,-87.063,-2.54,3.583,-16.319,2.599,-143.266,-7.594,0.768,-14.764,-2.584,-136.395,-6.718,-2.1,-19.242,-14.688,6.024,-59.431,-23.206,-32.067,-0.535,66.659,-136.78,-58.2,-28.772,28.073,77.393,-119.143,-165.004],[-38.023,-6.727,-3.877,4.009,-102.243,-36.027,-2.794,1.871,7.581,-114.241,-40.563,-11.761,2.769,-3.637,-100.317,-61.345,-35.11,-20.736,-28.005,-47.081,-45.856,-10.286,-22.028,-22.077,103.938,-42.869,-42.673,11.151,32.469,83.744],[-57.274,-8.467,-5.271,-2.296,0.671,-59.214,-16.561,-2.631,2.647,2.629,-57.788,-12.12,-2.955,-2.236,0.51,-66.464,-22.7,-12.376,-20.195,-8.326,-56.769,-33.415,-33.711,-24.715,-25.183,-59.922,-38.989,-32.682,-37.163,-22.172],[-63.693,-10.948,-4.123,-0.551,-2.62,-74.524,-16.58,-5.694,-5.362,-3.368,-66.617,-14.065,-8.897,0.328,-2.66,-75.585,-43.732,-14.569,-3.091,-15.302,-64.463,-52.693,-39.19,2.17,-24.509,-69.738,-62.598,-51.76,-26.928,-19.1],[-79.895,-31.973,-7.94,-7.039,-4.391,-80.674,-34.867,-10.915,-6.435,-5.121,-76.955,-37.361,-14.805,-7.189,-3.811,-77.264,-47.963,-16.048,-1.846,-7.519,-73.521,-53.504,-29.908,-4.812,-19.066,-78.222,-56.095,-31.272,-12.929,-12.922]],
"vp": [[-12.428,26.956,-39.978,-87.584,-75.28,-18.113,-49.806,-19.447,-13.994,-14.543,-16.643,0.972,-20.603,-35.318,-3.268,-17.363,-14.51,-14.111,-6.945,-27.891,-31.281,-24.781,-8.785,-16.143,-29.31,-39.447,-30.081,-20.797,-44.722,-27.212],[705.003,204.575,-47.045,-60.049,-84.765,73.187,1.479,-37.078,-75.763,-44.163,60.666,-4.275,-31.634,-16.582,-36.957,-34.789,-63.863,-25.234,-36.499,3.854,-41.929,-65.632,-42.995,-1.972,-16.474,-56.572,-46.882,-70.48,-32.541,-18.575],[2217.286,550.385,344.244,13.834,94.793,365.103,119.89,-0.986,-0.003,-6.387,96.392,96.386,-4.194,21.381,7.769,0.967,-43.619,-36.643,-58.764,-48.335,-46.46,-64.345,-32.17,-63.993,-35.351,-37.66,-47.781,-76.961,-42.752,-61.25],[3011.454,603.056,745.851,337.271,191.813,655.387,269.871,125.173,-8.263,28.835,189.441,108.722,41.268,14.077,11.158,24.395,3.671,5.265,-6.145,-28.003,-29.111,-43.487,-3.848,-56.115,-49.991,-34.258,-69.907,-48.028,-17.114,-39.957],[3541.092,1522.847,695.989,1093.395,832.637,765.531,298.121,214.252,234.575,150.404,362.848,116.161,130.215,30.786,66.659,-21.26,-18.141,16.648,-25.269,14.964,-21.909,-40.738,-31.88,-54.427,-33.798,-4.607,-14.659,-60.418,-37.337,-63.3],[5212.002,3191.824,1946.645,1384.018,1365.499,974.865,691.809,288.508,170.87,174.448,358.258,298.792,182.888,108.826,37.028,27.491,46.094,8.154,-41.97,0.98,-48.533,-19.316,-40.142,-37.505,-19.194,-36.038,-1.53,-35.47,-44.233,-80.687]]
}