{
"KTrans": [[-11.955,4.348,3.132,8.999,3.477,-22.538,6.104,-0.184,7.953,-6.704,-8.115,11.509,8.193,-3.165,5.4,-7.135,2.23,10.484,18.61,2.96,27.197,27.932,18.372,15.719,5.268,75.779,68.172,70.303,54.221,31.148],[-75.325,-15.672,-7.553,2.338,1.796,-84.64,-12.909,4.328,2.562,1.629,-83.915,-17.43,-0.653,5.646,-0.652,-79.47,-19.917,0.216,6.029,2.48,-66.875,8.368,6.644,-6.683,8.418,-62.004,28.15,21.233,18.013,9.614],[-94.463,-44.808,-5.573,4.786,8.71,-97.073,-54.267,-5.706,2.663,0.117,-94.946,-54.592,-0.367,1.296,0.52,-91.392,-48.733,-6.823,8.118,-1.561,-87.042,-37.058,-10.893,3.344,1.853,-76.614,-16.643,15.326,12.756,-0.009],[-98.053,-74.285,-21.182,-5.027,-0.932,-97.623,-70.123,-20.642,-7.433,-0.471,-96.459,-73.12,-20.647,-5.364,-0.883,-95.746,-70.483,-21.214,-4.649,0.25,-94.003,-62.977,-17.452,1.874,-3.818,-97.493,-52.043,2.618,-5.713,6.918],[-98.321,-84.653,-44.189,-5.573,-6.099,-99.27,-84.468,-46.74,-20.452,4.077,-96.567,-87.732,-43.418,-14.159,0.509,-98.217,-77.315,-41.943,-9.431,-2.677,-100.34,-76.026,-38.369,-12.829,-1.872,-100.722,-64.609,-28.266,-1.124,2.272],[-98.608,-91.326,-61.259,-20.442,-4.136,-98.77,-91.567,-66.915,-18.534,-5.696,-98.859,-90.241,-60.834,-22.037,-10.849,-98.383,-86.011,-64.486,-29.839,-4.908,-100.085,-87.868,-54.66,-18.804,-7.342,-111.575,-83.889,-47.833,-13.114,-7.519]],
"ve": [[53.612,9.854,29.885,1.085,19.681,3.892,-79.584,13.446,5.121,92.803,-31.455,24.026,-553.328,-65.339,16.069,-9.789,-6.048,-13.074,-62.696,0.051,-19.348,-85.356,-72.593,19.817,-250.209,21.218,-43.643,-12.014,-25.439,-24.942],[-43.247,-5.976,0.156,0.658,2.111,-53.257,-4.712,2.908,0.587,1.89,-42.466,-5.1,-0.323,1.198,3.311,-51.497,4.903,2.631,4.065,3.276,-46.371,4.899,-56.82,10.433,12.743,-40.218,9.478,-0.446,4.254,-13.14],[-40.259,-24.33,-4.715,0.766,1.397,-503.94,67.05,-4.855,-0.051,0.761,-32.942,-32.3,-0.342,-0.356,-0.002,-81.428,-25.059,-1.551,1.952,-0.329,-63.601,-75.224,128.597,3.292,91.871,-93.456,-11.705,4.687,5.009,-72.793],[-184.895,-42.776,-10.99,-4.755,-1.407,-84.86,-42.133,-9.205,-2.757,-1.533,-68.476,-39.208,-11.068,-4.948,-1.594,-82.875,-49.45,-8.32,-4.055,0.381,-83.34,-39.938,-2.479,-1.368,-3.53,-87.296,-32.224,-11.009,-10.2,8.821],[-75.79,-65.256,-19.833,-4.804,-3.436,-224.718,-58.269,-27.384,-9.747,-0.83,-62.871,-66.905,-24.296,-8.085,-1.279,-101.902,-53.261,-22.446,-7.489,-4.114,-252.56,-54.765,-22.642,-7.597,-2.07,-74.924,-3.367,-19.97,5.767,-4.576],[-95.712,-72.441,-40.268,-12.742,-4.435,-96.798,-71.144,-41.388,-11.854,-3.778,-108.818,-58.747,-36.152,-12.233,-5.676,-111.488,-70.771,-42.855,-14.868,-5.042,-78.225,-68.456,-31.635,-22.664,-8.796,-106.998,-81.906,-39.69,-12.312,-10.28]],
"kep": [[-34.062,-5.73,-5.133,4.008,-1.655,-38.455,3.419,-8.899,10.387,-26.763,-26.098,3.656,1.926,-17.006,-2.564,-39.434,-17.192,-5.623,18.016,-4.376,-19.684,-4.141,-7.271,-8.38,-28.867,29.718,31.039,6.738,26.718,-16.339],[-82.833,-13.726,-8.141,2.71,0.529,-87.175,-12.348,0.685,2.031,1.051,-85.053,-13.693,-1.418,4.15,-2.54,-81.861,-24.213,-4.063,1.429,0.118,-67.613,-14.642,-6.997,-14.777,-0.621,-50.92,-22.568,-12.838,-7.867,-9.93],[-98.181,-40.982,-2.855,3.426,6.891,-99.495,-43.536,-3.383,1.33,-0.802,-97.713,-47.291,-2.126,0.851,0.236,-92.858,-47.914,-8.487,3.198,-2.487,-84.293,-45.874,-23.512,-3.857,-2.518,-70.087,-38.688,-17.497,-8.755,-13.301],[-100.962,-65.031,-16.257,-2.601,-0.466,-98.862,-63.278,-15.635,-6.068,0.469,-97.733,-64.772,-15.115,-2.86,-0.552,-96.748,-67.042,-19.988,-4.667,-2.088,-92.655,-61.849,-25.155,-5.13,-6.527,-82.39,-58.442,-29.485,-27.188,-9.774],[-99.325,-81.823,-31.986,-4.27,-3.969,-101.089,-80.832,-37.521,-14.546,3.567,-97.269,-84.813,-33.123,-9.375,-0.258,-97.374,-78.963,-38.025,-7.438,-0.177,-94.46,-78.414,-39.032,-16.909,-5.024,-90.256,-67.272,-41.789,-21.702,-12.108],[-100.038,-90.522,-47.672,-13.291,-1.339,-99.542,-91.946,-56.666,-12.073,-4.972,-99.906,-89.892,-50.23,-14.094,-7.156,-97.295,-88.031,-56.555,-24.133,-3.911,-95.248,-83.461,-55.737,-22.489,-9.675,-92.044,-77.184,-56.379,-31.919,-25.428]],
"vp": [[622.527,-106.537,160.13,-283.207,89.56,262.795,42.323,117.253,-22.422,127.221,122.423,28.296,-15.581,82.502,-9.728,10.902,7.944,-2.176,-8.278,8.964,-6.481,-10.911,-9.156,2.713,2.09,-10.154,-13.019,-16.603,-13.989,-2.253],[5499.287,1926.495,1249.956,235.08,166.683,1180.989,385.101,25.373,-42.775,26.458,614.916,216.84,28.508,19.155,16.201,104.315,57.669,24.933,-12.497,8.42,51.09,-11.989,7.629,30.31,-11.996,23.604,-11.277,-5.274,-6.327,-5.573],[8140.659,5096.417,1844.171,-110.597,-728.267,1745.304,1283.141,296.296,38.919,21.018,801.849,680.251,54.676,78.553,59.779,148.32,117.102,42.426,-9.655,18.188,61,44.762,33.453,-6.443,11.134,27.497,10.332,-7.336,-6.261,9.667],[8900.095,10262.956,3426.183,2083.271,1240.924,1828.058,1870.802,689.849,353.972,260.14,818.195,916.525,388.391,214.769,111.794,169.557,195.912,63.707,32.533,9.615,77.211,86.014,23.513,9.845,30.489,45.148,32.15,4.954,23.384,-4.331],[9123.074,13167.497,7775.252,1815.909,2100.779,1971.317,2567.487,1772.253,910.1,78.476,879.168,1324.903,758.651,365.719,79.138,184.021,235.751,148.138,68.563,51.953,106.796,113.538,69.038,34.899,19.491,37.203,39.324,28.559,7.477,7.187],[9214.109,14792.044,12225.938,5865.575,1847.478,1882.293,3132.569,2754.571,1018.068,468.196,914.758,1433.06,1157.888,509.077,327.686,196.753,262.624,260.521,128.469,60.44,108.723,143.134,105.858,44.486,39.724,70.796,75.97,51.534,25.516,28.668]]
}