{
"KTrans": [[0.083,1.24,1.548,0.875,0.656,0.726,0.382,0.325,2.268,1.731,3.292,1.496,2.293,2.104,2.613,13.339,8.707,4.59,6.119,9.867,38.553,23.851,18.86,13.752,13.481,-67.949,51.533,49.538,51.644,41.786],[-4.656,-2.366,-0.432,0.517,1.245,-4.867,-2.512,-0.817,0.616,0.918,-12.535,-2.319,-0.268,0.632,0.997,-5.778,3.407,4.404,1.75,2.183,0.336,9.106,0.877,6.273,3.772,-5.131,47.031,22.436,15.831,18.634],[-30.628,-4.494,-1.248,-0.261,0.322,-25.597,-4.097,-1.151,-0.402,0.09,-29.176,-6.762,-2.128,-0.475,-0.116,-31.097,-2.841,1.077,-0.299,1.132,-27.008,-1.564,-0.127,4.04,4.667,-27.246,-0.694,4.591,9.953,9.028],[-54.15,-9.45,-3.944,-1.817,-1.008,-58.91,-11.301,-3.866,-2.025,-1.147,-60.3,-12.157,-4.332,-2.451,-0.911,-56.701,-2.739,-2.836,-1.977,-0.116,-61.389,3.479,-2.678,-2.586,0.657,-63.247,29.205,4.866,12.115,5.808],[-78.432,-11.152,-8.508,-5.139,-2.779,-79.236,-14.922,-7.295,-3.32,-2.903,-78.443,-11.451,-6.134,-3.752,-2.236,-73.502,-8.806,-5.135,-3.051,-2.805,-73.105,-15.499,-1.308,-4.696,2.017,-71.632,-20.152,2.96,4.975,-3.118],[-86.432,-17.031,-10.952,-5.832,-3.704,-83.819,-16.4,-7.788,-4.834,-3.809,-86.79,-18.355,-11.101,-6.174,-4.355,-76.213,-25.683,-9.726,-7.822,-4.522,-79.933,-29.967,6.262,-0.281,-3.609,-81.935,-20.361,12.944,-0.236,1.695]],
"ve": [[0.046,1.061,0.686,2.461,3.537,0.111,0.841,1.421,1.186,1.677,1.565,0.691,0.84,1.388,2.136,5.928,7.566,13.475,41.968,-69.161,13.124,-25.028,37.377,-60.323,-53.157,-1.86,-7.034,-29.716,-73.75,-17.039],[-2.74,-0.937,-0.089,-0.003,0.466,-1.468,-0.985,-0.064,0.179,0.517,-7.724,-0.471,0.013,0.336,0.527,-6.119,1.464,1.883,0.646,0.877,8.416,4.253,-0.019,2.66,2.086,13.791,25.298,4.328,17.614,17.098],[-15.174,-1.82,-0.453,-0.02,0.15,-15.269,-1.663,-0.474,-0.137,0.162,-16.035,-3.327,-0.865,-0.227,0.072,-14.971,-0.632,1.346,-0.334,0.555,-8.404,-2.125,-0.08,1.983,2.264,7.077,8.74,1.553,4.991,4.074],[-31.9,-4.072,-1.526,-0.858,-0.532,-35.884,-3.878,-1.312,-0.962,-0.446,-36.717,-4.234,-1.317,-0.694,-0.144,-30.085,-0.794,-0.455,-0.466,0.228,-30.253,0.677,-0.151,-1.614,0.394,-28.313,32.457,3.022,7.775,2.773],[-53.788,-6.504,-3.401,-1.911,-0.851,-56.947,-6.812,-3.232,-1.398,-1.183,-57.928,-5.371,-2.483,-1.569,-0.932,-46.234,-6.595,-1.662,-0.616,-1.563,-42.341,-10.265,2.538,-3.137,1.974,-34.161,-15.876,-5.524,3.891,-3.688],[-69.195,-9.874,-4.435,-1.963,-1.412,-59.263,-9.529,-3.825,-1.944,-1.281,-66.796,-10.705,-4.934,-2.224,-1.54,-47.809,-15.543,-6.137,-3.302,-2.244,-39.994,-24.863,-0.583,0.717,-1.37,-53.623,7.906,7.101,1.182,1.487]],
"kep": [[-2.253,-1.867,-0.996,-3.246,-4.24,-1.764,-2.465,-2.812,-0.693,-1.445,-0.933,-1.41,-0.483,-0.804,-0.314,-1.845,0.196,-2.419,1.291,9.876,-16.109,-1.177,2.723,0.001,3.917,48.471,-29.216,-8.219,6.854,4.887],[-5.281,-3.722,-2.545,-1.681,-1.426,-6.846,-3.781,-2.966,-1.772,-1.795,-9.511,-4.156,-2.526,-1.939,-1.747,-14.753,-2.079,-0.743,-1.716,-1.304,-20.363,-5.908,-5.245,-1.281,-1.796,-31.166,-16.345,-7,-4.023,1.703],[-23.176,-5.156,-3.02,-2.439,-2.037,-18.246,-4.997,-2.912,-2.485,-2.271,-20.9,-5.914,-3.547,-2.484,-2.398,-44.345,-5.387,-3.181,-2.729,-1.987,-44.371,-7.748,-5.804,-2.101,-1.103,-49.487,-26.978,-15.021,-5.727,-2.86],[-41.738,-8.237,-4.68,-3.175,-2.675,-51.977,-10.544,-4.856,-3.283,-2.905,-53.452,-10.958,-5.353,-3.993,-2.974,-60.599,-5.669,-5.305,-4.171,-2.841,-64.888,-13.516,-7.061,-5.003,-3.264,-66.294,-20.994,-14.063,-3.558,-4.917],[-71.324,-8.631,-7.613,-5.481,-4.113,-74.882,-12.24,-6.577,-4.187,-3.931,-74.678,-10.297,-6.16,-4.492,-3.534,-71.719,-8.512,-5.996,-5.025,-3.772,-71.253,-32.346,-7.525,-5.813,-3.049,-70.05,-39.349,-22.13,-7.283,-7.163],[-81.329,-13.542,-9.378,-6.18,-4.496,-78.897,-12.468,-6.814,-5.15,-4.747,-81.701,-14.326,-9.341,-6.321,-5.059,-75.012,-29.608,-6.959,-7.257,-4.775,-77.922,-44.046,3.364,-4.026,-5.748,-76.761,-44.258,-18.226,-7.463,-5.726]],
"vp": [[-2.527,-25.943,-53.151,-45.511,-33.155,2.502,8.922,4.8,-24.919,-17.902,-14.628,-1.655,-3.811,-10.043,-17.507,-6.311,-8.732,-2.411,-6.71,-17.78,-12.214,-11.23,-9.626,-5.579,-7.148,0.361,-7.748,-11.775,-15.503,-12.37],[219.579,165.706,22.507,2.845,-127.723,15.547,35.636,20.165,-1.146,-15.436,83.575,14.673,2.584,-4.826,-7.542,16.016,-5.384,-9.852,-1.368,-3.705,-7.45,-6.145,6.548,-5.703,-1.413,-3.884,-25.906,-10.062,-7.264,-13.667],[1547.556,345.356,81.243,-17.565,-71.478,317.321,64.389,22.568,16.379,-6.685,170.08,67.269,22.507,10.584,0.017,30.725,2.894,-8.859,4.769,-2.47,9.471,8.019,2.716,-6.408,-10.428,-2.664,-5.067,4.598,-6.291,-5.862],[3290.648,779.766,447.175,324.537,230.526,728.985,148.219,66.354,74.71,28.049,375.3,82.834,40.727,27.456,9.494,62.935,5.248,3.108,5.428,-0.889,33.734,0.161,1.413,9.755,0.05,16.643,-35.385,-2.992,-15.758,-4.252],[5652,1361.735,958.365,735.315,390.182,1222.807,261.532,204.258,99.928,95.383,598.327,111.397,73.53,67.953,54.003,97.179,27.912,11.96,4.446,17.88,44.771,18.861,-7.903,16.257,-10.511,19.45,20.55,13.691,-6.635,13.726],[6641.861,1959.92,1325.72,735.515,615.386,1264.512,391.248,224.373,146.101,114.264,671.653,218.172,149.581,88.075,71.476,100.071,65.124,40.029,28.38,26.054,40.85,58.723,4.722,-0.719,8.798,29.563,-9.536,-10.679,-0.979,-2.06]]
}