{
"KTrans": [[12.1,14.641,21.549,25.653,20.005,13.865,8.341,25.934,22.2,22.768,24.848,21.509,24.166,23.563,19.235,44.225,40.292,34.275,26.261,35.538,92.429,77.61,64.739,69.803,59.083,126.43,123.242,130.825,140.181,80.978],[-47.895,-4.282,7.189,4.584,9.626,-48.417,-7.57,2.561,7.728,12.752,-44.775,-7.835,1.452,8.081,9.362,-33.023,13.785,9.844,15.707,13.735,-22.364,15.406,16.511,22.432,25.865,-11.171,42.849,47.147,41.096,36.218],[-75.049,-27.602,-14.753,-3.385,0.124,-70.313,-33.304,-15.517,-5.693,6.736,-66.368,-27.287,-11.767,-7.188,1.046,-55.946,-19.896,-4.269,-1.202,5.472,-51.539,-15.802,1.514,8.298,11.832,-31.52,-1.04,10.263,20.517,38.093],[-83.136,-51.079,-31.795,-18.99,-9.55,-79.378,-49.309,-24.103,-20.008,-7.822,-79.84,-43.493,-25.252,-18.315,-7.237,-80.042,-46.243,-27.175,-16.676,-7.893,-61.256,-37.741,-21.224,-7.637,0.848,-53.129,-54.594,-11.082,-11.521,1.459],[-89.158,-64.317,-41.741,-28.54,-16.899,-87.71,-61.708,-41.853,-25.228,-18.945,-87.73,-61.151,-43.554,-27.948,-19.399,-77.588,-57.359,-40.254,-27.795,-15.705,-76.529,-57.721,-36.653,-21.14,-11.292,-82.588,-48.772,-32.003,-14.358,-0.575],[-90.384,-65.889,-53.747,-40.026,-29.524,-90.636,-68.021,-48.897,-40.715,-28.391,-90.271,-66.11,-52.913,-41.064,-26.541,-86.6,-67.239,-48.972,-40.823,-27.853,-83.475,-64.727,-50.753,-35.255,-26.481,-91.661,-62.725,-44.901,-27.226,-17.838]],
"ve": [[31.663,76.444,50.511,-1788.534,-785.118,-7.742,171.082,-4653.778,-599.298,113.296,15.648,84.539,27.347,127.103,185.966,27.984,19.917,-167.674,-9.322,-152.681,44.644,16.481,4.479,46.052,-13.396,86.294,30.652,12.522,-1.599,-24.315],[-14.122,2.047,0.362,7.339,10.107,-23.418,-0.881,2.597,6.572,8.479,-29.364,0.749,4.268,6.912,11.623,3.581,12.937,104.302,10.717,12.495,31.39,13.446,18.172,42.381,41.58,60.806,42.208,23.964,40.096,2.336],[-57.897,-10.504,-3.616,-0.91,1.3,-27.67,-9.593,-3.686,-1.338,1.964,-30.258,-10.06,-3.8,-0.55,2.219,11.988,2.147,3.762,3.123,3.873,21.601,-1.333,14.4,12.082,10.854,83.952,34.067,14.064,27.778,24.437],[-45.2,-21.57,-10.936,-7.163,-4.095,-29.121,-17.556,-9.621,-6.71,-2.934,-1.063,-15.295,-9.695,-4.586,-2.013,-28.525,-12.989,-6.736,-2.318,-0.34,18.789,-0.111,3.129,3.006,5.586,71.787,15.034,11.214,-47.878,1.193],[257.893,-23.321,-13.743,-9.231,-6.224,-40.901,-22.022,-13.929,-9.296,-6.681,-107.179,-23.208,-14.529,-9.165,-7.307,-15.455,-19.024,-8.567,-6.173,-3.739,9.475,-12.214,-4.632,-0.951,-0.29,52.957,-19.77,7.873,11.231,4.463],[-33.365,-25.067,-19.608,-13.422,-9.768,-46.368,-24.409,-18.38,-14.812,-8.823,-50.02,-23.082,-18.653,-13.476,-9.278,-94.51,-26.758,-12.388,-12.438,-8.16,45.686,-12.02,-12.739,-6.278,-3.691,22.154,11.081,-33.128,7.254,4.608]],
"kep": [[-33.938,-33.38,-30.282,-26.388,-42.159,-28.915,-36.8,-24.05,-35.884,-42.032,-23.704,-30.942,-26.644,-36.811,-46.706,-29.508,-29.028,-25.739,-34.558,-32.618,-26.771,-18.029,-18.244,-2.781,-10.534,-30.972,-17.03,1.44,29.837,-59.934],[-61.818,-34.595,-26.002,-31.782,-29.953,-63.777,-35.894,-30.28,-29.329,-27.036,-61.132,-37.102,-32.405,-29.509,-30.822,-67.32,-31.629,-29.378,-27.68,-29.056,-69.245,-40.154,-32.988,-27.062,-23.525,-59.646,-45.097,-32.105,-27.937,-29.405],[-80.921,-45.524,-39.298,-32.77,-31.928,-80.549,-50.28,-39.596,-34.084,-27.722,-78.411,-45.567,-37.118,-35.864,-31.805,-75.819,-46.992,-37.221,-34.204,-30.112,-78.278,-53.15,-40.238,-34.104,-30.877,-73.76,-59.742,-50.487,-36.345,-23.524],[-88.025,-58.672,-47.675,-40.191,-35.157,-85.809,-58.259,-43.098,-41.13,-34.618,-85.56,-55.681,-43.177,-41.076,-34.853,-89.393,-62.726,-47.665,-41.906,-36.743,-82.064,-64.315,-50.255,-39.559,-35.023,-83.282,-75.328,-57.216,-52.219,-41.135],[-91.961,-69.464,-54.091,-46.455,-39.138,-89.706,-66.917,-54.009,-43.586,-40.411,-91.996,-67.867,-55.259,-45.754,-40.327,-87.557,-68.317,-56.396,-48.137,-40.08,-86.814,-76.17,-56.89,-47.408,-39.689,-90.102,-75.981,-64.976,-53.437,-42.026],[-92.387,-70.69,-60.941,-52.855,-46.426,-92.986,-71.644,-58.026,-52.65,-46.028,-93.509,-70.867,-61.142,-53.829,-44.34,-92.251,-75.599,-61.082,-53.892,-46.556,-90.746,-78.413,-65.472,-53.904,-49.011,-89.031,-77.229,-72.788,-57.227,-50.66]],
"vp": [[-342.482,-89.056,-1215.838,-869.308,-747.483,7.382,-50.458,-250.397,-211.4,-156.278,-45.09,-87.188,-90.821,-85.871,-60.385,-15.438,-18.847,-3.546,6.802,-26.347,-32.445,-25.278,-19.293,-31.427,-30.196,-27.503,-27.185,-29.802,-36.558,6.44],[3190.524,668.683,-951.879,-434.388,-1084.958,546.439,187.753,130.9,-84.083,-223.701,298.452,68.014,31.187,-67.247,-34.849,18.703,-29.123,-3.63,-23.506,1.3,10.98,-6.717,-4.194,-20.588,-13.625,-5.555,-26.886,-24.161,-6.412,-0.8],[5619.733,2712.128,1700.497,356.557,68.15,950.657,596.005,221.234,169.672,-233.597,418.477,277.902,115.801,111.746,-0.14,46.125,20.948,-5.967,-3.378,-9.8,6.425,-0.159,-6.807,-20.057,-20.47,-27.581,-13.109,0.213,-11.492,-41.898],[5540.227,5489.801,3938.844,3306.758,1610.441,1005.696,1046.238,682.398,616.129,284.632,536.592,461.944,329.494,241.103,135.938,106.593,101.824,88.103,64.451,40.469,3.659,30.035,25.841,14.406,-1.688,-16.089,39.211,-1.208,35.971,11.869],[7211.518,6909.416,5260.374,4486.324,2961.424,1313.694,1353.556,1020.01,817.123,669.843,630.008,689.262,631.831,457.043,404.812,58.557,141.225,110.107,97.54,71.771,32.804,75.464,57.841,39.448,28.774,7.577,1.91,14.604,6.197,-6.481],[7152.011,7612.263,7160.242,7004.07,5912.017,1449.814,1748.017,1440.432,1407.321,939.729,643.258,795.517,771.066,743.809,511.832,96.986,150.089,120.65,167.41,125.907,38.57,65.944,89.107,63.02,58.279,25.255,23.979,13.122,8.747,22.918]]
}