{
"KTrans": [[2.945,0.973,1.377,0.618,1.056,13.79,7.023,6.369,5.589,4.919,29.236,17.318,13.088,10.398,9.565,150.351,92.769,76.116,64.099,58.172,-52.458,180.129,156.905,142.605,127.46,-3.794,218.737,145.07,314.399,253.276],[3.756,0.945,0.834,0.182,0.355,9.892,5.049,4.269,3.334,2.658,24.305,11.527,8.163,6.764,5.798,-14.754,76.431,41.8,33.673,32.636,27.818,163.822,102.484,77.307,69.731,40.48,-133.328,140.534,177.625,137.896],[2.348,0.495,0.498,0.59,0.627,10.986,6.576,3.629,3.386,2.376,31.733,10.892,8.175,6.091,5.346,-30.798,72.006,38.792,31.863,26.301,-4.92,5.549,98.694,64.771,54.277,-12.059,0.109,0.885,157.289,122.942],[5.208,2.004,0.933,0.475,0.713,7.989,6.744,4.122,2.514,2.192,13.122,13.502,8.776,6.052,4.805,-47.551,102.967,41.264,30.407,25.608,-36.143,27.025,89.184,66.006,49.877,-39.374,19.556,-23.243,159.736,129.623],[-14.825,2.188,1.985,0.225,0.532,-23.574,10.605,3.631,2.968,1.655,-55.146,14.131,7.265,5.594,4.502,-71.085,107.358,41.751,30.696,23.979,-45.727,-20.287,111.86,68.355,49.165,-48.83,-62.307,6.358,145.599,107.112],[-58.786,5.103,3.409,1.278,0.55,-54.155,12.057,6.179,3.152,2.196,-59.647,12.317,9.769,6.813,4.645,-63.438,26.097,57.532,35.605,26.099,-72.126,-10.204,128.441,80.047,59.998,-46.875,-45.854,-42.748,-88.124,132.615]],
"ve": [[1.205,0.776,-0.57,-0.391,-1.273,4.1,0.938,-1.247,-2.923,-4.583,9.512,0.762,-1.665,-4.129,-7.241,46.639,14.594,-1.073,-10.479,-17.547,90.555,40.245,10.905,-5.427,-16.29,201.063,76.753,35.511,4.858,-14.595],[1.084,0.578,0.288,0.237,-0.015,5.066,2.4,1.475,0.915,0.411,10.392,4.427,2.877,1.69,0.93,49.456,24.833,14.149,9.298,5.561,98.182,48.104,30.198,20.194,13.118,201.035,99.834,57.81,44.879,30.85],[1.033,0.611,0.333,0.397,0.109,5.003,2.68,1.521,1.23,0.853,10.733,4.95,3.357,2.36,1.64,49.447,24.876,16.162,11.542,8.535,97.724,49.932,32.498,23.179,17.657,204.88,84.257,64.075,48.375,37.014],[1.733,0.474,0.395,0.298,0.165,5.576,2.819,1.742,1.099,0.91,9.559,5.137,3.487,2.456,1.838,48.16,25.643,16.226,12.193,9.608,98.464,50.271,32.748,24.323,18.798,201.422,101.597,66.285,51.936,38.978],[2.405,0.948,0.513,0.461,0.36,5.621,2.939,1.669,1.237,1.045,11.723,5.434,3.3,2.538,2.039,51.969,26.116,16.4,12.434,9.712,101.339,49.617,33.553,24.65,19.304,205.214,100.751,68.587,49.351,39.113],[2.64,0.874,0.774,0.533,0.326,5.133,2.849,1.741,1.272,1.105,8.889,4.959,3.498,2.711,2.005,51.576,24.735,17.027,12.963,10.076,102.077,50.85,33.398,25.148,19.978,200.81,102.942,70.163,51.169,39.339]],
"kep": [[2.742,1.215,3.045,2.218,3.696,10.411,7.093,8.882,10.021,11.324,19.077,17.566,16.213,16.552,19.526,70.583,69.504,79.79,85.261,94.129,-61.97,106.378,134.474,159.368,174.893,-39.557,84.31,75.323,271.358,261.436],[3.493,1.267,1.44,0.836,1.268,5.439,3.496,3.673,3.308,3.149,13.305,7.732,6.079,5.928,5.763,-37.572,41.786,25.189,23.338,26.767,-27.778,76.648,55.822,48.423,51.141,-42.789,-97.479,49.013,92.688,82.762],[1.639,0.721,1.042,1.081,1.406,5.9,4.672,2.976,3.034,2.407,18.675,6.522,5.567,4.553,4.564,-49.669,37.554,20.296,19.124,17.328,-47.709,-25.514,49.688,34.351,32.003,-64.619,-40.379,-31.752,72.956,62.75],[3.027,2.286,1.397,1.051,1.429,1.763,4.552,3.215,2.288,2.16,1.799,8.635,5.985,4.41,3.814,-62.501,59.701,22.135,17.04,15.511,-63.982,-12.403,42.019,33.934,26.895,-74.938,-33.356,-44.767,70.376,64.521],[-16.941,1.714,2.253,0.617,1.044,-27.73,7.914,2.714,2.582,1.478,-58.325,8.75,4.62,3.858,3.301,-78.005,61.528,22.07,16.949,13.868,-69.437,-42.391,56.863,35.033,25.632,-78.685,-73.927,-30.716,60.59,48.477],[-59.406,4.381,3.344,1.571,1.081,-56.19,8.999,5.087,2.677,1.945,-62.156,6.892,6.744,4.827,3.456,-73.544,0.75,34.303,20.701,15.331,-82.794,-37.761,67.153,43.237,33.61,-79.455,-68.097,-59.358,-82.907,64.629]],
"vp": [[30.682,23.57,8.957,-23.469,19.716,-8.58,-20.723,-6.36,-20.025,-27.415,19.656,3.058,-7.952,-25.453,-1.485,-22.324,1.833,3.354,-11.72,-11.486,-28.163,-7.206,-7.144,-7.897,-19.716,-22.778,-4.073,11.077,-13.676,-0.892],[303.051,79.179,-74.46,-40.387,-30.237,52.374,-17.189,9.998,24.856,-23.683,29.196,5.252,-13.628,-6.318,8.337,-4.069,4.771,-31.384,-21.435,12.196,-37.896,-38.823,-24.019,-0.116,8.999,-24.3,-26.904,-31.314,9.546,-5.713],[1102.855,168.598,85.944,157.865,25.686,306.621,87.766,17.015,28.289,0.153,147.902,40.497,35.474,14.256,-0.5,3.253,-17.305,-18.422,-8.149,-14.421,-29.146,-4.158,-14.862,-31.962,-25.922,-17.244,-21.046,-43.34,-32.486,-27.394],[3304.429,953.689,426.366,124.463,145.967,534.38,113.596,121.057,60.992,-33.754,288.049,73.035,45.658,27.194,18.326,50.697,14.641,-23.829,-2.743,6.593,-9.972,-18.803,-17.476,-8.176,-23.025,-12.288,-23.591,-30.782,-19.153,-16.02],[4572.382,953.1,459.284,307.882,349.214,751.904,219.262,106.186,81.127,49.95,414.654,106.241,39.569,68.433,10.23,84.78,61.131,-3.581,-0.991,-4.106,-10.314,-16.892,-9.054,-11.622,-20.727,9.84,-21.035,-29.256,-11.166,-23.697],[5385.25,1721.625,1024.092,885.581,411.73,945.754,394.175,218.025,91.336,75.393,342.064,147.012,98.958,66.862,55.738,68.931,-2.686,25.486,17.302,28.823,28.655,7.664,-11.172,-0.67,1.287,0.714,-3.23,-1.399,-13.485,-22.69]]
}