{
"KTrans": [[-48.607,-61.234,-87.262,-100.65,-92.795,-59.978,-60.418,-78.172,-69.851,-83.643,-44.989,-47.317,-56.609,-80.281,-82.004,23.674,-8.053,-47.718,-23.862,-25.916,86.827,68.51,53.224,25.713,49.507,270.066,156.358,154.532,175.97,170.402],[-61.295,-44.455,-51.099,-59.758,-72.145,-51.89,-48.611,-44.311,-56.005,-73.46,-55.99,-35.281,-48.442,-41.219,-54.18,-41.086,-14.077,-1.786,-21.602,-34.634,3.769,21.442,4.187,-2.296,-7.718,32.144,50.076,58.037,28.509,47.88],[-71.221,-52.583,-44.916,-44.709,-62.244,-70.982,-54.315,-43.211,-45.437,-38.047,-70.102,-49.013,-33.568,-39.61,-44.038,-57.212,-34.747,-19.069,-13.206,-11.4,-40.395,-16.312,-4.795,-6.08,-8.876,-0.632,8.793,16.107,18.969,17.941],[-77.385,-60.845,-52.864,-42.013,-43.429,-78.528,-59.714,-42.621,-38.92,-35.887,-77.84,-58.815,-45.211,-42.653,-39.224,-66.866,-46.486,-29.851,-29.493,-28.476,-59.523,-36.55,-19.278,-14.959,-6.415,-31.598,-15.146,2.162,2.244,11.005],[-82.336,-65.311,-54.624,-46.968,-42.2,-84.39,-67.842,-49.573,-49.504,-49.488,-84.138,-64.654,-51.252,-47.969,-37.33,-78.039,-56.404,-37.692,-32.185,-27.054,-68.14,-43.051,-38.003,-20.355,-17.72,-53.636,-24.667,-13.485,2.11,9.392],[-88.391,-74.181,-56.957,-52.673,-42.46,-85.909,-69.083,-54.412,-48.635,-41.134,-86.988,-69.996,-50.192,-43,-45.98,-82.912,-63.276,-53.101,-42.178,-30.153,-76.705,-57.538,-40.777,-33.427,-22.241,-70.217,-33.414,-10.211,-17.558,-3.537]],
"ve": [[-69.214,-56.301,-32.221,-62.003,-62.572,-43.94,-47.199,-57.263,-35.742,-13.878,-41.732,-59.542,-55.493,-113.15,-95.633,-14.175,-3.579,-39.3,-14.311,2.572,86.423,15.029,1.331,-33.185,-63.926,301.79,85.967,87.002,74.368,-17.928],[-24.002,-35.733,-46.141,-35.483,-46.068,-2.325,-38.135,-42.673,-59.395,-53.29,-1.096,-11.768,-56.824,-28.712,-28.295,-6.369,19.685,-5.238,-22.575,-34.627,132.355,68.715,20.114,-1.079,141.353,246.434,38.119,83.67,41.767,23.811],[-39.785,-39.267,-53.165,-67.211,-57.325,-14.537,-39.646,-65.498,-44.492,-38.052,-5.247,-48.851,-61.785,-32.785,-54.272,72.001,-18.703,-75.074,-29.181,-15.085,91.775,48.478,4.058,-1.866,-2.291,206.386,71.732,110.776,13.309,33.836],[-9.878,-27.426,-78.537,-52.862,-42.954,-16.42,-24.017,-35.913,-50.561,-169.275,-54.192,-54.616,-48.211,-51.872,-45.596,56.059,-502.74,-28.342,-56.678,1.814,219.351,2.689,-434.968,-28.767,7.134,366.835,-42.905,30.841,-1.739,28.064],[43.992,-24.228,-60.433,-82.293,-58.772,8.557,-4.041,-43.049,-80.763,-24.837,1.761,-44.067,-56.739,-71.505,-48.432,49.739,-2.153,-34.086,-40.89,-30.758,104.59,33.529,-34.096,-23.422,-15.647,279.763,90.288,21.541,30.285,38.247],[583.09,-44.638,-46.277,-74.124,-57.875,6.523,48.092,-43.772,-61.783,-60.073,1.759,-26.097,-28.654,-45.464,-70.784,-4.883,12.382,-48.04,-23.154,-41.539,123.549,7.896,-24.484,-34.465,-26.891,299.273,230.044,122.559,-5.728,-11.971]],
"kep": [[-121.575,-98.533,-51.396,1.344,-5.175,-144.644,-128.752,-49.853,-33.438,4.778,-122.048,-92.185,-92.443,8.371,-3.624,-123.923,-131.743,-28.977,-37.678,-41.488,-115.226,-136.629,-147.761,-89.761,-148.06,-97.394,-234.357,-232.52,-228.532,-245.855],[-97.45,-96.013,-119.834,-84.38,-0.422,-104.167,-87.765,-125.769,-80.822,-45.326,-97.307,-94.039,-127.97,-75.725,-26.236,-92.629,-87.896,-120.1,-99.565,-45.883,-96.437,-92.119,-143.501,-140.521,-57.152,-86.703,-71.3,-112.493,-138.153,-108.816],[-98.564,-76.974,-68.522,-97.916,-119.677,-93.055,-69.547,-59.052,-97.619,-111.152,-101.428,-64.254,-67.34,-95.53,-120.661,-98.919,-75.416,-76.134,-102.521,-139.448,-91.482,-85.299,-78.59,-92.216,-115.239,-98.671,-59.771,-87.552,-49.612,-119.327],[-98.295,-80.368,-46.277,-52.246,-58.969,-100.243,-75.276,-58.462,-50.602,-63.284,-100.492,-79.153,-51.41,-49.909,-64.316,-96.029,-80.539,-52.357,-64.032,-49.437,-93.541,-75.893,-46.178,-60.405,-75.298,-97.269,-70.491,-57.753,-43.134,-56.375],[-101.424,-83.881,-57.539,-28.695,-33.521,-99.849,-86.183,-56.347,-33.144,-36.599,-98.209,-77.152,-59.622,-41.013,-37.589,-96.913,-80.894,-49.88,-39.815,-38.91,-96.432,-78.023,-59.49,-40.618,-46.687,-94.109,-81.835,-56.53,-57.899,-48.555],[-98.935,-86.274,-60.751,-43.073,-36.791,-101.143,-88.872,-56.245,-41.068,-27.462,-99.696,-86.708,-60.513,-45.893,-24.188,-96.333,-87.133,-57.67,-51.367,-31.032,-99.171,-81.995,-59.486,-48.456,-37.719,-96.726,-95.04,-75.999,-52.145,-39.594]],
"vp": [[46.666,375.469,-340.808,342.308,428.853,-126.21,-10.156,136.535,-54.86,69.236,-56.948,-23.647,28.134,0.11,-17.028,-31.747,-4.387,11.761,-9.041,-1.872,-32.312,-22.955,-21.108,-9.591,-13.114,-20.687,-31.473,-6.272,-19.892,0.261],[2948.213,922.164,182.01,-107.723,563.612,687.231,217.271,-11.064,-88.65,-57.813,291.133,75.525,-32.182,-23.519,26.063,38.312,11.015,-0.786,4.156,-34.079,-0.303,-11.18,-24.726,-25.634,-0.698,-9.959,-22.886,-38.985,5.571,-6.247],[4301.908,3125.476,2182.103,1084.566,-313.461,822.033,560.694,152.259,169.425,130.224,484.868,240.469,185.52,50.004,-55.615,68.355,50.407,28.027,23.678,-19.237,27.036,31.882,3.86,-17.557,7.704,-12.536,-17.516,-18.711,-25.164,-51.201],[5500.542,5429.831,2974.716,2502.361,1193.121,1129.056,1046.481,826.262,441.135,227.141,606.575,604.894,360.091,199.839,131.76,120.245,79.634,58.094,43.001,-9.64,15.715,14.52,2.704,13.177,16.778,-2.248,-10.926,-21.233,-28.295,-37.351],[7422.594,8249.786,6024.683,3410.136,2892.569,1288.732,1609.615,1083.487,649.506,341.098,623.864,647.691,604.165,268.829,249.819,95.28,112.061,92.783,71.005,36.343,56.313,25.803,33.878,12.706,18.277,-5.096,7.327,-3.779,7.982,-18.014],[6004.012,8805.612,7277.966,5954.783,4339.529,1274.504,1950.117,1415.672,942.757,856.358,684.134,961.879,708.786,573.032,304.407,85.954,153.664,115.9,115.953,55.85,54.004,43.151,49.484,55.057,45.595,1.929,7.867,5.12,3.696,-25.603]]
}