{
"KTrans": [[-43.053,-70.391,-66.627,-66.902,-63.566,-35.325,-51.701,-51.346,-42.012,-59.498,-9.77,-52.291,-48.405,-41.623,-32.673,70.088,12.243,15.291,7.636,9.144,138.69,51.911,43.865,21.245,36.91,220.265,147.956,138.339,133.915,105.936],[-56.07,-47.973,-51.602,-53.122,-53.739,-48.55,-36.699,-36.941,-48.109,-48.839,-44.293,-29.588,-10.136,-40.365,-33.927,-26.459,-2.704,19.615,1.009,1.049,-10.694,15.462,34.94,17.629,0.074,33.808,51.553,82.942,26.226,20.187],[-64.081,-46.482,-44.953,-43.589,-48.893,-61.658,-39.601,-39.907,-35.787,-45.523,-60.586,-38.389,-28.04,-31.752,-19.59,-51.559,-12.185,-2.178,2.845,12.959,-41.444,-3.317,2.514,9.012,24.254,-17.488,2.286,15.335,25.828,38.479],[-77.534,-43.645,-50.716,-49.672,-55.527,-76.197,-40.52,-39.746,-37.407,-35.911,-74.461,-34.932,-37.2,-35.263,-27.488,-69.115,-21.554,-5.418,-6.589,-0.926,-60.552,-18.775,-0.721,-0.661,4.513,-39.753,-8.448,-2.999,4.837,8.849],[-82.743,-50.218,-47.9,-46.496,-45.557,-83.678,-47.833,-43.814,-39.831,-39.467,-81.421,-44.637,-39.722,-34.26,-31.622,-78.206,-34.229,-10.501,-9.784,-6.401,-70.112,-29.109,-8.048,-1.496,0.375,-54.929,-24.41,-8.8,3.58,7.556],[-86.317,-51.737,-46.207,-50.689,-42.776,-85.382,-55.96,-40.316,-37.401,-37.768,-85.941,-50.684,-35.6,-40.361,-31.319,-80.4,-50.243,-16.687,-10.046,-8.638,-77.202,-44.186,-5.328,-3.401,-0.274,-65.238,-43.813,-2.254,1.88,4.512]],
"ve": [[-101.714,-38.132,-33.924,26.67,77.53,-37.733,-58.949,-13.442,-63.649,-4.153,1.387,-13.127,-11.669,-5.027,59.003,20.303,-3.644,2.485,-42.51,-17.581,135.694,19.21,39.581,64.723,-30.924,186.449,46.009,-53.81,20.082,-80.686],[-72.443,-67.749,-64.825,-51.56,-26.577,-53.492,-45.819,-23.706,-43.473,180.691,-47.553,-80.955,-11.29,25.029,-8.202,13.978,4.6,23.64,16.301,4.762,46.794,41.286,40.347,10.213,-45.004,157.31,68.569,74.622,8.76,13.352],[-55.639,-84.227,-73.945,-98.416,-54.808,-46.626,-73.045,-13.666,-46.097,-45.439,-46.061,-71.163,-45.669,-34.064,-18.376,12.053,-5.039,-7.569,2.207,12.993,61.034,0.225,1.628,-1.386,21.078,151.655,8.563,20.921,1255.75,35.762],[1.161,-85.789,-109.239,-88.489,-78.49,-29.491,-85.1,-88.198,-63.528,-56.675,-1.805,-70.409,-84.734,-58.398,-42.919,5.46,-19.209,-4.254,-10.574,-2.063,65.84,-4.781,1.362,0.512,0.366,151.269,7.677,-0.248,3.577,-33.929],[-5.667,-59.608,-125.225,-100.359,-80.658,-10.296,-80.981,-110.175,-86.522,-72.768,-6.025,-57.846,-104.098,-70.952,-51.906,35.626,-18.437,-16.841,-19.166,-8.493,60.732,-6.603,-11.106,-1.187,-1.612,157.45,5.84,-2.7,1.805,2.052],[2.4,-37.571,-142.39,-134.487,-89.351,1.03,-65.677,-95.876,-97.964,-79.309,5.57,-31.572,-86.603,-102.493,-66.141,56.799,-22.993,-23.902,-27.85,-18.69,79.563,-12.928,-2.217,-7.103,0.134,151.734,1.761,2.578,1.45,2.295]],
"kep": [[-131.59,-19.91,7.94,-1.418,-1.121,-116.282,-24.744,-13.193,-11.604,-6.229,-144.227,-17.084,0.107,-2.398,-0.057,-139.39,-29.582,-32.446,-12.556,-1.986,-137.001,-59.745,-29.465,-0.556,-18.267,-90.241,-82.824,-62.295,-57.924,-32.657],[-56.614,-32.614,-119.779,-6.544,-1.9,-55.333,-45.787,-123.892,-9.51,6.722,-47.898,-42.301,-132.728,-4.351,-11.014,-53.032,-30.535,-120.725,-28.045,-13.013,-53.261,-26.78,-104.118,-48.873,-10.632,-58.008,-32.378,-109.1,-51.22,-31.554],[-63.18,-20.202,-6.185,-24.452,-131.631,-67.779,-19.811,-8.476,-25.387,-131.312,-70.412,-16.42,-6.21,-17.818,-133.391,-66.831,-17.373,-3.668,-17.315,-124.809,-68.679,-7.636,-4.559,-14.683,-110.868,-71.609,-23.472,0.445,-20.501,-71.235],[-83.938,-21.672,-7.148,-4.824,-2.804,-80.448,-16.893,-1.35,-3.129,-9.428,-83.521,-17.351,-1.298,-7.323,-7.144,-80.297,-19.818,-8.955,-5.858,-3.532,-82.316,-20.865,-5.427,-6.96,9.278,-78.526,-21.713,-7.006,-1.983,1.995],[-92.731,-35.956,-7.781,-3.906,-4.089,-91.559,-29.857,-10.323,-2.812,-0.19,-88.347,-31.099,-6.096,-5.308,-9.039,-92.097,-31.744,-6.583,-2.658,-6.784,-85.46,-31.705,-5.559,-2.034,-0.932,-83.919,-35.298,-10.902,-0.521,9.634],[-95.361,-42.753,-6.225,-2.72,-4.592,-93.557,-40.183,-14.187,-1.173,-3.782,-94.491,-43.517,-11.498,-3.479,-3.952,-92.234,-42.27,-12.949,-1.041,-0.516,-92.414,-41.263,-6.148,-2.73,-2.667,-88.464,-46.649,-8.024,-2.126,2.631]],
"vp": [[67.101,12.521,175.162,-41.502,231.048,-1.895,-12.507,-42.175,36.603,-42.764,-12.634,28.715,1.12,-22.419,26.876,-3.257,-1.403,-3.614,-2.53,-10.545,-1.368,-2.726,0.784,3.454,-0.93,0.593,-2.946,-4.967,-2.962,3.038],[1573.957,322.282,10.908,-30.82,69.937,367.678,164.836,-49.78,22.475,-0.854,167.585,69.882,18.514,7.61,8.862,27.471,7.228,-1.654,-10.632,-8.624,14.575,0.687,-1.278,-12.278,-0.145,4.333,-3.762,-1.776,-2.351,-5.52],[3234.664,1131.15,447.503,173.806,107.2,726.741,213.503,77.485,72.312,-51.265,361.465,98.236,26.397,-2.149,4.022,66.35,18.695,-3.663,2.644,1.457,33.554,4.649,3.889,1.545,-3.831,12.979,4.527,-1.857,-3.403,-5.153],[5489.02,1861.59,353.475,-119.059,-186.744,1023.361,338.406,98.293,85.704,44.355,539.583,140.683,41.351,46.091,20.61,97.803,28.878,12.856,2.971,-3.221,44.939,21.299,1.067,3.141,-5.308,16.997,2.558,7.894,-0.149,-1.596],[6556.219,4291.722,943.285,339.543,268.097,1295.025,604.422,197.014,128.648,2.4,587.643,336.06,57.887,47.632,56.417,128.846,62.332,12.946,11.732,1.869,54.911,28.718,9.894,6.75,-1.286,21.936,14.111,11.464,-0.24,-5.68],[7289.137,5253.248,1289.035,463.042,564.201,1409.459,978.905,392.893,136.474,118.297,705.908,542.667,201.71,57.679,44.944,126.07,111.638,34.129,2.855,6.519,63.8,46.89,7.737,1.653,0.555,26.557,27.052,-1.426,0.298,-4.915]]
}