{
"KTrans": [[-0.923,5.151,5.135,0.271,1.837,5.496,4.954,6.156,4.521,4.237,13.754,21.662,15.927,14.463,10.549,132.151,93.904,73.546,65.534,62.849,311.063,229.43,177.95,148.013,147.175,302.167,539.482,416.169,381.414,348.843],[-35.517,-2.306,4.682,1.647,-0.081,-33.332,5.571,7.709,5.209,3.652,-33.221,12.122,6.289,4.543,9.059,21.7,61.683,40.931,35.05,30.827,81.235,143.483,93.096,77.884,70.914,5.012,294.136,217.75,176.393,150.853],[-65.839,-3.766,2.182,-0.951,0.782,-68.268,6.306,1.072,3.155,2.142,-57.987,5.223,6.905,9.126,4.794,-34.014,50.277,39.914,33.793,24.911,9.598,105.293,84.806,73.331,57.803,-58.014,188.695,217.187,162.317,121.064],[-77.28,-15.733,0.815,1.296,1.225,-73.544,-1.556,2.227,2.729,1.574,-71.147,-3.94,0.765,4.485,2.943,-49.919,36.096,38.815,33.1,24.318,-56.861,89.307,86.051,61.154,54.787,-90.729,115.142,171.781,147.877,116.475],[-88.56,-15.275,1.62,-0.042,-0.889,-82.644,-17.453,-1.72,4.52,1.709,-79.402,-10.096,2.388,6.984,4.023,-73.626,25.848,39.246,26.606,21.77,-73.061,37.215,75.208,62.575,49.908,-39.022,51.446,156.099,130.485,117.646],[-83.347,-32.886,-3.481,-1.784,1.167,-85.849,-32.967,1.572,-0.054,1.479,-84.091,-23.984,3.558,5.017,5.991,-80.485,-7.759,29.32,24.148,23.951,-72.013,26.255,72.566,53.772,47.169,-73.796,18.231,133.153,119.877,111.43]],
"ve": [[17.244,-12.492,18.35,7.562,37.427,13.458,7.204,18.541,41.26,-44.028,20.579,10.509,9.765,8.726,14.776,52.685,17.475,3.465,-7.762,-15.322,94.222,36.335,10.193,-5.117,-15.627,210.094,-38.23,38.328,12.709,-4.001],[9.7,2.89,0.646,0.393,0.693,15.657,3.456,2.042,1.435,0.826,15.574,5.962,3.022,3.257,1.563,57.809,25.268,15.828,9.668,6.437,104.782,47.979,30.86,20.732,12.85,199.145,98.327,61.977,42.523,29.467],[-12.789,1.276,1.569,2.063,0.575,2.963,3.262,1.893,1.322,1.465,18.524,5.919,2.786,2.407,2.197,55.337,26.142,16.374,11.586,8.913,100.558,52.097,33.19,23.325,17.181,198.634,99.997,66.849,48.104,35.831],[23.226,3.052,1.114,0.421,0.415,2.411,4.671,2.861,1.931,1.276,127.796,7.897,3.977,2.742,2.001,52.216,24.904,17.877,12.075,9.877,103.295,54.859,33.999,23.735,18.364,200.976,96.14,62.314,49.775,37.307],[-4.619,3.077,0.95,0.797,1.01,10.236,6.453,2.903,1.977,1.818,12.014,6.875,3.97,3.135,2.208,47.965,26.382,17.092,12.671,9.583,108.444,52.341,34.651,25.55,19.361,193.011,99.364,72.179,48.716,39.167],[-96.538,2.898,1.8,0.748,0.327,-11.466,2.99,2.871,1.142,1.092,12.246,8.886,4.272,2.394,2.417,54.393,28.793,18.032,12.901,10.547,97.508,50.656,34.746,24.69,19.847,199.85,123.716,73.077,50.194,40.135]],
"kep": [[-7.657,4.43,4.029,-3.979,1.265,-2.798,-1.803,4.491,5.519,4.842,-4.167,20.004,17.897,23.653,15.973,53.393,69.668,73.171,86.873,101.395,108.429,145.025,156.146,165.975,199.817,32.034,247.701,274.565,329.832,371.171],[-40.743,-4.06,5.048,1.734,-0.144,-43.17,2.714,6.137,4.447,3.559,-42.608,6.827,3.723,1.809,8.165,-22.14,29.622,22.068,23.567,23.58,-13.379,64.141,47.896,47.781,51.912,-60.534,97.08,95.731,94.084,93.883],[-69.717,-4.507,1.066,-2.76,0.438,-73.716,3.378,-0.391,2.216,0.953,-65.706,-0.262,4.486,6.809,2.849,-60.136,19.245,20.333,20.009,14.899,-48.481,35.271,39.008,40.433,34.82,-85.128,43.12,89.15,76.591,62.496],[-79.853,-18.049,-0.051,1.098,0.946,-78.212,-5.785,-0.339,0.975,0.427,-75.786,-10.625,-3.053,1.971,1.127,-68.336,9.649,17.939,18.902,13.211,-78.904,23.74,38.761,30.146,30.802,-95.758,5.178,62.739,65.106,57.257],[-90.721,-17.515,0.637,-0.713,-1.699,-85.369,-22.462,-4.496,2.625,0.003,-83.587,-15.319,-1.495,3.858,1.854,-83.799,-0.763,18.92,12.475,11.202,-86.864,-9.718,29.897,29.32,25.516,-78.522,-24.143,50.489,54.299,55.96],[-86.066,-35.069,-4.955,-2.49,0.83,-88.227,-36.454,-1.358,-1.126,0.399,-87.627,-30.233,-0.641,2.724,3.622,-88.443,-28.587,10.225,9.983,12.142,-86.419,-17.998,27.653,23.213,22.603,-90.505,-40.574,37.068,45.457,50.372]],
"vp": [[690.035,411.005,-334.231,6.141,-56.487,133.311,-13.229,4.54,-80.412,-79.377,45.488,-4.529,10.158,-6.379,2.046,-7.46,-8.375,-15.917,-14.893,-21.748,-10.056,-11.611,-11.468,-14.98,-4.46,-3.077,-8.551,-12.915,-11.829,-12.817],[2999.628,627.779,629.844,-49.165,-1.789,630.164,164.636,-15.658,61.003,11.505,348.156,61.898,25.261,29.495,23.749,41.424,12.922,-6.135,-9.233,-2.115,20.397,-6.343,-24.44,-17.144,-8.478,-6.121,-12.718,-21.456,-18.521,-12.142],[5392.836,1807.652,736.194,918.613,582.642,1110.406,578.422,108.405,75.677,13.758,557.074,248.753,88.725,75.064,27.825,95.067,35.174,-8.503,0.072,-12.394,38.814,19.653,-0.415,-8.318,-15.091,10.907,0.003,1.23,-0.85,-17.794],[6652.333,4596.107,1585.47,379.677,536.772,1278.154,984.353,391.002,91.285,78.911,602.163,520.734,154.265,50.454,46.945,109.68,64.976,31.917,24.829,2.481,43.689,43.03,12.398,-7.564,-3.749,11.319,7.732,-6.991,-3.83,-12.099],[7139.349,6072.926,3288.878,1020.456,711.329,1520.884,1493.347,480.903,349.511,155.798,709.65,687.422,270.039,166.848,81.322,129.37,140.317,56.375,7.396,13.117,53.749,58.686,28.549,-3.499,-0.661,11.346,18.401,21.968,-9.419,2.72],[7146.665,8816.365,4122.554,2101.24,1428.958,1574.131,1604.984,1018.089,384.824,288.879,746.229,788.366,439.228,225.832,110.101,144.626,172.6,91.332,34.574,10.096,56.129,75.221,47.894,15.034,-14.099,16.665,15.799,23.791,-4.265,-4.538]]
}