{
"KTrans": [[-61.574,-63.231,-85.96,-85.792,-101.435,-44.638,-63.616,-85.346,-81.706,-87.02,-40.777,-78.085,-90.751,-84.761,-82.071,8.027,0.347,-2.276,-27.984,-53.957,92.211,35.387,30.682,88.874,44.185,309.676,188.737,206.955,218.383,202.087],[-56.969,-40.323,-59.195,-58.401,-78.266,-63.987,-47.01,-54.717,-56.448,-53.523,-59.895,-44.793,-46.663,-46.894,-56.733,-36.142,-18.459,-19.302,-19.377,-26.705,-20.174,18.457,10.677,5.117,-6.86,46.158,78.59,64.444,54.358,48.584],[-73.361,-57.668,-49.178,-52.77,-55.447,-71.158,-58.429,-47.359,-42.211,-51.182,-72.391,-49.335,-35.099,-40.237,-49.098,-59.729,-37.291,-21.003,-14.684,-21.753,-41.36,-7.193,-8.853,0.313,2.308,-13.721,1.92,21.132,31.201,33.874],[-80.942,-60.657,-48.295,-48.781,-43.256,-80.5,-60.54,-51.226,-44.328,-44.177,-78.537,-59.356,-44.572,-35.595,-35.541,-67.682,-45.289,-38.382,-34.741,-24.872,-54.409,-32.35,-24.286,-19.213,-5.108,-39.151,-0.707,7.422,11.283,20.736],[-84.158,-67.949,-54.234,-46.192,-43.819,-82.491,-66.807,-53.693,-46.293,-39.126,-83.463,-61.893,-53.326,-50.184,-36.397,-74.853,-59.874,-41.261,-40.713,-36.418,-68.683,-41.356,-37.68,-25.893,-16.808,-56.1,-34.99,-11.822,1.142,-1.417],[-88.561,-73.83,-60.124,-48.518,-49.309,-87.842,-74.931,-62.278,-48.914,-52.327,-85.85,-68.957,-56.964,-46.345,-46.172,-81.591,-67.327,-53.13,-44.326,-36.745,-74.956,-56.202,-41.457,-36.689,-32.343,-56.931,-41.744,-15.645,-7.539,-8.782]],
"ve": [[-90.188,-36.213,-51.646,-113.785,-15.997,-46.321,-45.124,-45.489,-115.581,-106.187,-83.449,-73.734,-75.896,-49.811,83.927,50.191,579.039,-67.175,-33.696,-70.736,82.766,5.234,-42.343,4.667,-43.387,186.811,47.172,64.442,13.739,-15.635],[-36.742,-3.267,-52.872,-49.393,-41.83,144.256,-91.271,-63.99,-62.586,-108.532,-46.719,-95.948,-38.177,-101.97,-48.279,64.121,13.631,-31.112,-37.066,-22.244,61.592,8.705,15.614,-42.519,-15.19,266.562,171.762,-70.083,405.214,15.008],[-1672.577,-53.892,1.681,-66.809,-53.345,-115.787,-39.258,-67.642,-23.879,-46.016,62.333,22.226,-31.128,-60.504,-57.146,-2734.004,-14.386,-17.303,-15.788,-159.032,166.608,68.99,13.579,17.47,12.326,641.781,54.455,-423.961,74.23,45.106],[-23.532,-48.639,-53.518,-66.117,-49.538,-57.518,-24.633,-63.086,13.284,-48.438,6.867,-33.308,-38.697,-30.762,-29.389,60.861,14.774,-28.188,-29.539,-28.687,290.928,57.561,-42.892,-6.519,-0.816,241.933,174.042,76.309,49.061,38.493],[-1.944,-29.628,-41.899,-51.147,-68.002,16.386,-26.039,-36.697,-51.839,-46.2,-1.834,1.439,-35.459,-57.956,-43.983,73.424,3.003,-3.834,-47.935,-47.374,-1822.544,-142.676,27.35,-152.394,2.776,292.452,258.723,128.336,39.754,16.77],[25.958,-13.292,-232.227,-59.485,-61.653,-34.762,-29.322,-10535.376,-48.306,-72.822,-236.876,-18.021,-46.716,-40.396,-65.61,99.445,-11.472,-4.878,-41.04,-35.616,115.715,80.697,23.248,-88.284,-17.223,358.911,190.672,112.643,58.213,23.531]],
"kep": [[-107.654,-102.259,-52.099,-59.517,-11.167,-97.099,-104.15,-84.037,-42.477,-47.092,-107.559,-87.358,-128.043,-9.695,-43.312,-122.618,-143.89,-118.112,-89.131,-9.858,-141.602,-144.193,-130.634,-227.132,-125.396,-114.385,-179.651,-213.481,-284.175,-267.941],[-102.463,-101.078,-106.936,-112.788,-46.116,-98.517,-91.103,-110.245,-93.104,-56.477,-111.137,-98.012,-136.31,-102.176,-67.886,-101.578,-105.648,-122.805,-155.36,-77.937,-98.66,-103.738,-133.547,-133.621,-80.295,-96.373,-110.01,-119.643,-146.83,-164.043],[-101.471,-95.383,-85.062,-114.129,-133.002,-99.286,-87.58,-88.576,-90.041,-131.076,-103.544,-83.215,-90.521,-112.514,-126.277,-100.473,-90.131,-86.263,-95.524,-124.922,-99.009,-87.579,-85.824,-104.678,-135.116,-101.627,-82.987,-77.287,-115.387,-135.852],[-100.273,-81.106,-78.136,-73.824,-84.899,-98.248,-92.323,-71.989,-71.694,-87.317,-101.106,-90.726,-70.466,-74.71,-72.214,-103.335,-89.938,-77.239,-69.67,-83.2,-103.125,-90.262,-71.266,-77.601,-77.5,-100.436,-90.53,-70.668,-79.118,-94.47],[-101.507,-92.778,-76.13,-53.897,-67.569,-101.138,-92.582,-78.442,-61.14,-63.072,-101.425,-94.528,-73.477,-57.342,-51.545,-100.952,-89.497,-74.163,-51.757,-59.911,-101.198,-91.423,-81.176,-53.349,-71.868,-100.538,-93.076,-85.815,-69.086,-56.326],[-101.068,-92.745,-75.178,-56.629,-54.297,-101.21,-92.554,-73.96,-60.279,-50.456,-101.513,-91.475,-71.45,-65.294,-43.974,-101.552,-90.261,-76.833,-60.334,-53.695,-100.547,-92.478,-79.992,-58.45,-58.86,-98.098,-93.319,-83.573,-75.025,-55.638]],
"vp": [[-328.178,-91.72,1457.154,42.268,10.254,49.502,70.24,176.006,148.184,144.26,-14.859,-125.776,-116.533,156.707,-3.422,-13.841,-21.015,14.106,-5.345,4.499,-19.007,-26.523,-2.177,-2.324,3.068,-10.17,-3.978,-8.55,-14.666,-18.072],[3296.039,1452.244,-191.516,84.445,-497.865,547.473,154.542,97.546,86.942,16.726,361.492,138.418,37.864,31.641,71.97,42.067,2.048,-7.881,-31.821,-3.963,9.594,0.6,-18.27,-17.487,-6.82,-22.614,-11.238,-45.927,-14.747,-24.43],[4863.898,3711.454,1569.887,-45.153,-415.308,794.39,497.823,351.247,330.117,156.044,419.114,424.834,302.806,116.444,-49.295,94.58,57.979,32.21,14.465,17.703,13.104,27.815,-15.463,2.016,-8.871,-5.497,0.524,-35.833,-14.977,-22.925],[5428.308,5858.974,4448.386,2970.512,2191.425,951.482,1106.135,892.717,625.737,480.509,588.777,606.256,445.445,380.589,226.404,98.691,137.137,55.668,25.494,-3.246,39.422,24.21,13.226,0.457,-18.694,-5.775,5.781,2.16,-27.311,-15.257],[6172.533,7594.496,6393.336,5451.447,4093.551,1470.762,1541.704,1314.398,859.679,789.581,657.087,855.227,672.417,494.907,350.412,133.396,99.425,96.84,55.752,49.777,49.2,58.44,57.886,5.785,28.162,-13.197,3.955,10.037,1.823,-34.389],[7575.875,8810.26,8261.048,6761.675,5455.865,1474.744,1650.536,1399.147,1429.056,1015.642,683.367,851.793,777.571,848.999,525.912,134.06,143.9,159.422,111.614,106.541,47.723,82.921,69.752,40.285,35.62,-18.077,4.528,20.858,5.4,5.152]]
}