{
"KTrans": [[7.857,13.398,6.376,8.497,10.719,10.183,12.906,10.35,12.277,14.328,7.782,9.758,10.408,13.416,8.885,27.348,22.661,20.905,23.822,24.653,38.838,41.832,30.203,31.248,27.555,73.031,59.067,58.132,55.647,44.669],[-43.374,-4.66,-1.902,5.566,6.007,-38.863,-9.169,0.849,5.087,6.861,-37.813,-2.173,2.242,3.524,7.503,-33.288,-3.185,5.32,7.929,10.915,-30.392,6.201,13.403,14.398,14.404,-10.012,13.688,18.977,20.373,22.531],[-71.832,-22.898,-7.606,-4.117,-0.144,-72.245,-21.686,-9.047,-5.6,1.106,-64.775,-26.819,-13.59,-4.952,1.013,-61.78,-20.976,-4.989,0.857,3.816,-55.211,-17.309,-9.9,2.724,5.671,-51.961,-12.952,1.333,7.807,11.016],[-79.779,-40.717,-23.237,-11.81,-6.402,-83.958,-41.169,-23.696,-13.849,-5.858,-84.185,-44.237,-26.914,-11.701,-6.665,-80.354,-38.744,-17.521,-8.738,-4.092,-76.321,-38.197,-15.43,-8.323,-1.626,-69.244,-39.574,-14.848,-2.393,0.743],[-90.676,-58.35,-33.425,-20.501,-13.061,-90.586,-60.149,-35.343,-21.988,-13.279,-89.254,-52.567,-33.39,-24.267,-12.56,-85.577,-53.849,-32.848,-19.705,-11.888,-81.554,-47.214,-29.793,-21.063,-9.693,-78.384,-53.114,-30.555,-13.977,-5.819],[-94.235,-63.758,-46.411,-31.892,-19.964,-93.141,-64.266,-43.27,-31.284,-23.925,-91.178,-67.859,-41.817,-28.732,-21.464,-89.767,-64.563,-45.896,-27.994,-19.402,-85.822,-61.013,-45.997,-25.65,-18.55,-82.195,-61.824,-42.955,-28.408,-16.641]],
"ve": [[13.432,5.296,-70.664,6.253,124.382,8.923,14.861,30.08,-76.603,59.441,6.663,29.411,25.775,-56.07,27.984,20.557,15.837,18.928,95.796,27.996,30.888,26.862,26.176,36.35,2.003,48.237,26.515,13.305,8.667,29.849],[-15.736,-1.898,0.562,2.935,4.52,-14.462,-3.15,0.43,4.147,3.713,-11.141,0.49,0.756,2.513,5.037,-0.695,1.61,5.294,4.956,6.705,20.159,10.037,8.076,8.324,7.633,33.974,20.857,14.861,13.951,10.995],[-34.317,-9.153,-2.992,-0.744,0.104,-37.759,-8.657,-3.353,-1.542,0.823,-30.678,-8.958,-3.885,-1.198,1.155,-16.985,-4.146,1.267,1.905,3.127,-2.332,2.479,1.388,3.948,4.463,12.246,12.549,12.717,9.926,8.522],[-37.083,-15.61,-8.504,-3.829,-2.509,-48.131,-16.286,-8.833,-4.837,-2.262,-46.703,-17.528,-9.124,-3.874,-2.094,-27.524,-10.824,-2.729,-1.034,-0.377,-18.5,-5.458,-0.456,1.356,2.131,9.388,2.945,7.692,7.293,6.097],[-50.196,-26.2,-12.197,-6.884,-5.262,-41.461,-28.358,-13.846,-7.768,-4.221,35.397,-21.551,-12.288,-7.909,-3.756,-36.071,-19.108,-9.471,-4.283,-2.077,-18.671,-9.987,-5.156,-2.705,0.356,0.201,-4.236,1.572,4.141,4.421],[-62.946,-28.223,-18.64,-12.357,-7.466,-106.273,-31.283,-16.846,-11.429,-8.303,-56.947,-32.233,-15.979,-10.685,-7.288,-50.026,-24.326,-14.932,-7.9,-5.518,-24.621,-16.757,-11.56,-4.591,-3.156,1.683,-8.665,-4.745,-1.573,1.237]],
"kep": [[-20.645,-18.106,-29.125,-30.125,-27.549,-18.146,-17.336,-25.674,-21.797,-23.263,-24.472,-19.776,-23.402,-24.165,-34.181,-14.733,-11.83,-14.248,-11.038,-11.487,-13.386,-3.121,-9.219,-4.31,-9.59,-7.558,0.65,12.753,17.718,9.736],[-51.451,-24.232,-23.233,-19.179,-19.933,-46.285,-26.694,-21.129,-20.428,-18.712,-47.525,-23.987,-20.275,-20.459,-19.205,-49.041,-25.647,-21.321,-19.056,-18.047,-49.79,-24.826,-17.621,-16.838,-16.101,-48.811,-26.401,-18.704,-16.766,-12.986],[-72.491,-34.433,-25.57,-24.206,-21.571,-70.506,-33.543,-26.503,-24.791,-21.205,-67.038,-37.939,-29.685,-24.565,-21.557,-67.915,-36.051,-26.552,-22.328,-20.88,-66.529,-37.169,-30.373,-22.427,-20.621,-69.54,-40.254,-29.696,-22.978,-19.629],[-77.654,-46.279,-34.699,-28.101,-24.595,-81.97,-46.437,-34.842,-29.08,-24.382,-82.625,-49.503,-37.223,-28.059,-25.168,-80.488,-47.856,-34.022,-27.731,-24.48,-78.996,-49.966,-34.003,-29.221,-24.47,-79.367,-54.66,-38.318,-28.714,-25.493],[-88.697,-57.32,-41.321,-33.161,-27.994,-88.259,-58.116,-41.951,-33.837,-28.976,-87.542,-54.101,-41.305,-35.61,-28.856,-85.13,-56.721,-42.301,-34.343,-29.477,-82.787,-55.854,-42.946,-36.602,-29.533,-83.706,-62.778,-46.697,-35.488,-29.29],[-92.632,-62.391,-48.89,-39.285,-32.26,-91.933,-61.561,-47.46,-39.465,-34.954,-89.337,-65.388,-46.62,-37.824,-33.675,-88.188,-64.732,-50.843,-39.056,-33.233,-87.136,-64.837,-52.719,-39.245,-34.107,-87.129,-68.727,-53.887,-43.254,-35.565]],
"vp": [[-72.16,-431.795,-213.078,-251.954,-258.06,-31.42,-28.133,-48.088,-40.689,-82.875,9.94,-13.222,-0.103,-48.014,10.404,-6.227,-9.189,-6.156,-12.443,-19.816,-2.838,-7.81,-3.072,-3.973,-0.988,-3.733,-1.459,-3.482,-3.496,-0.174],[2553.244,440.985,473.945,-443.249,-455.585,403.18,178.302,-30.805,-75.708,-72.539,182.983,-13.908,-6.503,16.899,-70.995,32.07,10.303,-4.556,-7.084,-16.325,20.717,-2.931,-4.827,-9.51,-6.33,2.804,-2.189,-1.614,-3.351,-4.194],[4491.917,1902.797,493.632,520.177,68.739,987.179,353.389,202.835,177.289,-28.642,387.821,224.762,135.458,85.659,-25.919,70.905,31.871,6.013,-3.297,-9.258,28.143,13.197,18.302,-0.251,0.336,14.9,6.1,-1.236,0.203,-0.578],[5117.785,3518.603,2982.508,1169.801,949.955,1271.461,791.476,539.746,396.637,145.698,628.516,433.059,313.328,136.429,101.164,111.54,69.349,32.596,20.794,13.459,52.647,33.962,16.651,10.77,3.666,20.363,19.425,7.458,3.295,3.945],[7322.628,6216.651,3708.746,2619.779,2234.687,1421.752,1367.705,951.556,637.883,359.247,698.908,532.348,434.344,344.73,161.639,126.916,114.118,83.097,44.887,35.819,56.472,45.699,36.833,32.464,11.289,26.095,28.004,18.632,10.544,5.326],[8060.504,7003.753,6381.472,5237.273,3313.633,1540.955,1535.339,1136.547,981.982,845.123,694.617,811.855,550.096,451.33,372.582,134.977,141.104,123.082,81.938,69.796,59.275,63.739,62.191,38.288,33.486,26.497,34.906,29.334,24.967,16.414]]
}