{
"KTrans": [[-43.212,-69.663,-65.695,-68.646,-69.46,-42.822,-61.624,-53.951,-63.555,-57.774,-15.421,-46.824,-52.961,-50.577,-49.931,52.311,6.542,7.221,8.148,3.224,121.214,53.248,48.911,44.876,46.797,252.797,142.147,83.787,135.284,127.408],[-62.727,-41.418,-51.704,-53.75,-41.137,-53.422,-38.341,-40.715,-48.946,-48.707,-47.962,-36.261,-22.466,-40.92,-41.474,-26.549,0.158,19.667,-9.879,-16.889,1.045,27.903,39.063,11.68,-2.614,65.927,86.76,79.479,9.844,27.495],[-70.267,-49.081,-46.288,-39.042,-53.105,-66.867,-44.869,-40.54,-41.263,-34.388,-64.289,-48.605,-32.644,-34.807,-29.324,-53.212,-13.76,-11.412,-4.394,11.615,-41.71,-3.636,3.797,10.803,23.246,-0.254,20.622,28.096,47.052,42.318],[-76.026,-47.446,-48.729,-47.494,-51.657,-76.286,-46.511,-41.22,-40.184,-36.734,-74.393,-44.192,-39.466,-42.392,-34.951,-65.461,-29.879,-15.49,-7.311,-8.137,-55.769,-11.807,-3.643,-0.888,2.38,-19.663,2.285,10.145,13.329,16.096],[-82.032,-51.067,-47.522,-45.662,-50.83,-81.734,-45.909,-43.932,-33.733,-46.788,-82.522,-48.69,-33.232,-40.213,-33.611,-74.407,-39.102,-24.401,-10.233,-7.836,-67.885,-40.861,-6.817,-4.924,-1.436,-49.896,-26.507,0.162,6.061,10.739],[-86.512,-56.494,-43.822,-51.571,-46.231,-85.806,-56.046,-38.93,-48.462,-37.303,-85.404,-56.935,-37.08,-32.416,-39.874,-79.949,-49.623,-24.584,-11.765,-12.588,-75.191,-53.16,-20.375,-11.722,-6.378,-54.144,-26.449,-7.565,3.45,7.178]],
"ve": [[-31.591,-25.095,-457.79,1866.592,-177.148,-45.409,-109.861,-49.857,-107.018,24.765,-10.72,893.652,6.235,-58.743,-65.214,68.655,-36.549,27.931,-5.394,-115.423,103.169,-23.881,46.354,145.599,-24.126,209.241,55.028,-16.205,-30.519,228.856],[-91.202,-53.055,-19.393,-41.884,-41.017,-59.085,-111.847,-42.774,-38.218,-25.241,-41.102,-112.887,-19.034,-78.511,-25.707,19.345,0.341,16.911,-5.39,-18.079,1478.709,40.149,36.861,5.672,-10.471,192.394,108.312,63.309,9.831,283.531],[-46.325,-96.694,-73.897,-46.528,-53.281,-31.589,-78.26,-64.294,-48.138,-33.916,-37.524,-102.002,-55.691,-69.609,-49.818,2.117,-16.421,-16.601,-3.987,11.555,38.674,-2.511,6.15,8.376,21.842,178.965,35.412,38.556,44.621,43.95],[8.884,-86.012,-106.454,-80.112,-74.789,-143.977,-100.973,-87.274,-68.563,-52.734,3.371,-72.996,-89.764,-75.132,-50.069,32.377,-36.34,-30.675,-16.972,-11.696,70.78,3.026,-9.178,-7.338,-4.958,248.739,24.39,12.104,11.319,12.418],[6.606,-64.11,-120.496,-98.089,-90.465,-0.289,-47.31,-112.872,-68.678,-84.888,9.34,-57.529,-74.137,-86.263,-59.959,35.641,-23.584,-48.353,-21.989,-18.082,109.587,-30.769,-8.148,-7.991,-5.9,197.373,17.183,7.143,4.81,4.48],[-5.022,-61.697,-101.608,-127.192,-94.834,18.421,-47.235,-94.702,-124.624,-71.016,23.02,-61.979,-69.052,-76.54,-85.775,46.501,-22.202,-36.596,-21.33,-32.377,81.362,-9.391,-21.82,-29.707,-16.414,217.168,67.209,-0.439,3.617,2.963]],
"kep": [[-130.171,-8.645,0.569,-9.514,11.095,-126.267,-21.941,-8.516,-6.595,5.465,-124.123,-15.302,10.749,-29.572,-4.846,-119.404,-24.978,-10.579,-22.987,-10.316,-101.487,-64.951,-47.688,-29.704,-30.453,-43.622,-93.307,-36.514,-76.92,-58.195],[-60.609,-39.993,-134.802,-27.416,7.709,-55.226,-34.573,-125.296,-2.959,-6.281,-66.942,-40.639,-134.09,-25.854,5.475,-60.69,-34.227,-135.237,-33.921,3.595,-59.607,-51.911,-93.324,-61.027,-9.683,-52.5,-39.732,-38.18,-52.421,-48.875],[-77.007,-21.644,-13.87,-31.461,-142.396,-73.739,-21.955,-12.088,-35.522,-127.575,-73.547,-15.575,-4.134,-32.11,-129.459,-68.824,-13.198,-9.828,-39.908,-141.143,-66.147,-16.847,-8.516,-28.466,-115.151,-71.125,-24.388,-26.628,-28.152,-82.303],[-83.992,-26.076,-7.799,-7.046,-1.629,-86.018,-19.461,-8.477,-7.814,-8.192,-87.418,-26.08,-4.642,-4.93,-1.385,-81.568,-24.789,-4.257,-0.065,-3.293,-80.425,-20.379,-0.859,-5.058,0.551,-82.247,-26.997,-6.284,-3.512,-14.397],[-93.07,-36.971,-8.937,-6.385,-1.37,-90.919,-37.103,-7.848,-5.213,-1.763,-93.495,-36.437,-10.608,-2.51,-1.689,-87.559,-35.405,-11.064,-3.47,2.853,-92.032,-40.158,-9.615,-3.645,-0.733,-87.106,-43.956,-11.325,-3.507,5.178],[-95.348,-43.478,-17.149,-7.979,-7.286,-94.665,-46.387,-11.522,-6.311,-8.889,-95.58,-46.848,-20.916,-5.535,-0.874,-93.534,-48.117,-15.249,-5.874,0.631,-90.918,-55.339,-15.253,-1.618,-0.507,-87.087,-56.63,-13.796,-6.433,2.763]],
"vp": [[127.361,318.839,130.795,45.765,-163.428,-13.029,-42.142,29.138,-17.442,38.62,-20.128,15.111,-2.973,-13.177,19.682,-1.353,0.841,1.444,-10.79,1.439,0.327,-7.253,-0.762,-5.424,-2.087,-14.224,-6.055,5.193,-1.315,-5.834],[1647.221,847.239,-190.03,78.67,585.315,343.423,55.185,-33.548,23.862,2.064,224.168,30.758,13.662,-3.205,27.839,35.853,13.549,-9.27,-7.318,-0.142,8.374,-2.427,-3.086,-3.422,0.848,-3.866,-7.877,-13.234,5.976,-7.434],[3814.638,992.702,613.569,291.308,-28.314,776.217,259.186,111.179,24.444,33.848,363.571,61.102,38.844,-2.453,-19.221,68.296,20.29,4.499,9.726,-7.584,25.525,9.579,4.37,-5.544,-5.93,10.119,-1.834,2.063,-9.534,-0.536],[5332.856,2218.861,389.066,561.117,7.567,1102.629,352.741,93.171,78.806,67.703,552.352,267.146,29.6,19.047,11.959,95.227,36.794,17.388,-1.87,-1.303,46.405,4.706,1.821,-8.344,-8.644,18.68,-1.967,-6.613,-4.909,-7.251],[6007.236,4208.131,1118.058,418.859,141.627,1257.16,740.33,239.391,198.797,43.756,677.588,402.22,129.221,43.065,43.367,117.735,77.963,21.381,-0.214,0.471,61.907,36.996,2.273,10.781,-3.02,21.384,10.608,-2.765,-2.29,-4.922],[7053.951,4985.728,2252.137,920.02,553.876,1372.013,1104.918,433.882,108.134,189.198,716.233,539.193,252.76,102.165,38.916,132.988,102.927,54.345,18.381,-2.138,56.254,66.27,27.794,8.465,-1.022,10.36,17.571,10.43,0.237,-4.681]]
}