{
"KTrans": [[17.149,17.307,12.783,17.004,12.392,6.382,16.216,13.555,14.829,19.162,18.187,24.501,13.535,20.839,18.851,41.761,40.288,23.058,28.989,26.645,55.802,49.49,43.076,61.709,42.054,127.653,93.878,82.425,93.218,85.582],[-50.86,-4.208,-0.116,4.129,7.265,-46.892,-6.822,1.026,3.52,7.195,-44.779,-8.301,5.687,5.106,9.933,-27.162,-1.893,2.823,14.368,12.521,-27.308,3.418,14.974,22.812,20.495,7.457,9.167,32.711,40.062,31.328],[-73.947,-28.867,-14.065,-6.04,0.612,-70.863,-30.958,-13.067,-3.419,0.907,-72.146,-29.431,-12.251,-4.252,1.38,-68.849,-21.368,-8.926,0.972,3,-61.406,-24.288,-6.07,2.214,6.609,-47.205,-13.475,0.365,15.056,23.927],[-85.711,-50.866,-28.616,-16.152,-6.238,-81.136,-46.424,-24.092,-16.755,-8.934,-79.824,-51.634,-25.417,-17.998,-8.419,-76.523,-45.665,-27.089,-15.369,-5.16,-75.755,-46.585,-24.649,-8.947,-4.637,-68.789,-44.533,-17.764,-0.767,6.346],[-89.469,-62.723,-42.328,-29.127,-15.475,-86.265,-54.877,-43.016,-27.436,-18.008,-87.116,-60.411,-41.97,-26.805,-16.616,-84.244,-61.692,-42.542,-29.22,-17.062,-82.928,-56.192,-40.984,-23.082,-14.663,-75.887,-51.865,-35.201,-14.988,-13.927],[-92.532,-69.169,-52.612,-37.472,-27.131,-93.548,-67.043,-49.87,-36.272,-27.153,-91.056,-66.62,-49.981,-35.95,-25.561,-89.532,-70.302,-50.522,-35.533,-25.346,-86.528,-65.437,-46.664,-37.977,-25.686,-79.214,-68.349,-50.751,-33.034,-19.975]],
"ve": [[7.595,16.944,90.168,127.363,128.803,38.673,99.046,43.476,54.402,927.159,46.465,73.842,32.778,44.698,271.934,7.702,12.409,-78.949,12.34,-85.978,40.168,7.893,33.43,-507.168,130.653,205.179,-85.81,-81.208,-25.518,-35.316],[-20.247,-0.277,0.386,4.741,7.268,-13.845,-2.03,1.797,4.002,6.518,-11.755,-0.711,1.97,4.578,7.82,6.054,5.179,4.691,7.491,9.839,16.19,14.574,11.943,12.752,13.131,72.054,27.144,0.34,24.417,36.996],[82.793,-9.361,-4.815,-2.351,0.806,-40.994,-10.166,-3.284,-0.649,1.142,26.415,-9.803,-2.664,-2.335,0.552,12.892,2.674,0.539,3.85,3.358,7.576,5.143,3.75,6.995,6.408,47.03,19.697,17.044,15.726,16.568],[-50.37,-19.586,-9.279,-6.166,-2.449,-41.418,-16.765,-9.279,-5.091,-3.161,-65.369,-15.929,-8.344,-6.208,-2.003,-23.381,-11.197,-5.984,-2.429,-0.792,-15.026,-7.289,-2.437,2.639,2.164,41.075,2.801,18.392,12.145,11.06],[-41.993,-25.59,-15.971,-10.622,-5.18,-41.17,-24.12,-17.082,-8.859,-5.94,0.008,-21.013,-13.247,-9.6,-5.452,3283.839,-19.05,-12.429,-8.394,-3.073,2.444,-11.108,-6.927,-2.627,-0.44,23.442,4.407,3.877,9.454,3.411],[-44.861,-30.869,-20.894,-13.541,-9.882,-56.748,-29.635,-19.142,-13.226,-9.938,-177.269,-27.566,-19.025,-13.192,-8.613,-25.028,-25.399,-16.296,-10.081,-6.536,-12.039,-25.62,-7.118,-8.875,-3.763,19.642,-6.833,-8.635,-0.686,2.237]],
"kep": [[-25.327,-23.431,-34.454,-30.136,-46.289,-32.512,-24.818,-32.653,-38.818,-33.135,-25.902,-20.368,-34.585,-28.359,-37.695,-22.127,-16.208,-32.472,-29.725,-28.139,-29.455,-17.974,-19.155,1.82,-20.094,-30.28,-18,-10.587,10.768,6.369],[-60.786,-31.898,-28.775,-28.888,-28.503,-59.429,-32.561,-29.127,-28.789,-27.868,-58.407,-34.637,-26.363,-28.055,-26.949,-54.004,-34.25,-30.289,-24.265,-26.816,-61.95,-37.816,-28.04,-22.784,-23.738,-68.528,-46.18,-28.783,-20.699,-24.836],[-76.326,-45.479,-36.252,-31.645,-28.946,-75.892,-46.333,-36.335,-31.029,-29.027,-75.731,-45.195,-36.281,-30.367,-28.272,-78.366,-46.823,-36.039,-31.184,-29.269,-78.967,-50.669,-36.982,-32.651,-29.111,-83.277,-56.635,-42.503,-31.333,-25.365],[-87.375,-57.533,-44.302,-36.671,-31.776,-82.818,-56.314,-41.023,-37.741,-33.179,-83.693,-60.135,-42.848,-38.04,-33.605,-83.597,-57.66,-45.466,-38.648,-32.258,-86.451,-63.493,-46.224,-37.558,-34.059,-90.295,-68.093,-51.064,-38.815,-33.157],[-90.199,-65.898,-51.809,-43.995,-36.76,-87.46,-60.321,-51.709,-43.826,-38.23,-88.382,-64.582,-52.896,-42.835,-37.415,-88.873,-67.744,-54.123,-45.328,-39.413,-90.304,-68.422,-55.944,-44.624,-39.535,-92.486,-73.565,-57.894,-46.508,-42.464],[-92.862,-70.654,-58.314,-48.894,-42.712,-93.873,-68.232,-56.633,-48.328,-42.602,-91.06,-68.392,-56.748,-48.081,-42.299,-92.755,-73.18,-58.824,-49.401,-43.506,-92.729,-74.683,-60.544,-52.686,-45.727,-92.431,-81.166,-66.136,-54.451,-45.954]],
"vp": [[-356.374,-629.342,-355.126,-103.216,-117.893,21.003,-67.894,-70.365,-23.009,-86.025,-34.482,-86.499,-12.692,-84.59,-77.509,-10.322,-27.793,-7.426,-27.707,0.626,-9.098,-2.658,-3.508,-22.292,-5.238,-19.212,-6.788,-3.565,-12.813,-6.015],[2922.988,435.128,646.794,259.871,-633.7,481.069,92.214,40.537,20.994,-83.079,238.037,58.448,-38.603,-12.294,-94.211,21.798,18.943,10.51,-14.03,-8.362,13.702,0.735,-3.578,-19.318,-9.898,-18.392,14.934,-6.124,-21.367,-8.731],[4778.861,2048.476,1473.668,833.735,92.485,952.548,553.56,125.238,62.259,-23.476,452.618,267.647,106.684,89.95,17.048,90.527,14.672,16.678,-6.195,5.764,40.291,25.013,15.202,-1.118,1.966,12.517,6.343,4.889,-5.474,-20.749],[6958.687,5546.831,3082.957,2387.133,900.613,1108.439,915.497,598.762,412.513,269.061,515.34,462.111,271.491,293.836,65.865,103.364,93.393,69.085,45.926,24.715,51.33,54.428,39.467,11.475,17.3,19.303,33.817,11.047,-4.691,-8.281],[7128.916,6829.872,5688.575,4694.194,2201.653,1138.444,1226.977,1190.965,840.765,629.143,609.066,672.956,526.808,412.976,241.331,115.281,140.862,125.571,114.855,57.974,53.058,67.032,57.277,37.12,27.604,18.633,22.662,31.754,1.504,23.676],[7393.928,8276.567,7660.459,6091.846,5354.61,1558.246,1547.758,1442.252,1274.37,1073.761,683.914,734.986,716.461,585.334,454.13,142.668,174.593,161.163,120.211,94.679,62.408,69.329,53.922,70.676,48.817,22.202,48.81,54.138,33.68,23.202]]
}