{
"KTrans": [[-24.448,-4.747,-10.922,-6.82,-3.585,-24.935,-15.008,-6.222,-9.975,-6.494,-21.768,-8.184,-7.15,-3.466,-10.412,-27.124,-13.789,-11.967,-6.323,-4.951,-8.777,-8.995,-6.057,-5.788,-6.117,-31.988,-15.9,-4.363,-8.88,-1.372],[-82.936,-31.413,-19.511,-19.559,-14.241,-77.206,-33.33,-23.491,-17.799,-15.689,-84.099,-34.495,-24.528,-17.89,-18.062,-83.874,-34.237,-17.889,-19.046,-10.368,-81.31,-36.304,-21.115,-19.387,-14.241,-79.254,-30.401,-18.359,-19.125,-16.555],[-90.458,-63.935,-26.583,-23.691,-21.555,-95.165,-62.139,-36.405,-31.161,-19.311,-98.87,-51.882,-42.461,-29.084,-23.054,-98.683,-66.958,-35.513,-27.126,-20.466,-95.912,-61.778,-47.171,-23.962,-22.72,-96.026,-44.981,-45.448,-27.92,-21.972],[-103.028,-78.352,-37.754,-35.62,-31.435,-103.972,-81.049,-42.348,-37.447,-25.116,-99.159,-88.402,-56.65,-39.884,-35.581,-106.346,-87.515,-27.606,-37.346,-38.248,-100.863,-57.676,-2.409,-38.505,-28.195,-105.474,-82.294,-58.562,-34.238,-29.379],[-104.402,-99.024,-76.114,-47.787,-36.957,-109.56,-97.084,-14.751,-24.408,-32.786,-103.696,-81.623,-53.319,-23.001,-37.738,-106.165,-73.62,-76.415,-57.768,-40.009,-106.304,-94.343,-87.295,-18.015,-44.448,-104.996,-96.513,-66.223,-45.346,-40.497],[-106.204,-93.341,-84.397,-58.446,-14.926,-108.351,-100.674,-73.228,-44.004,-40.235,-107.611,-92.764,-74.971,-61.123,-41.653,-105.436,-101.701,-70.932,-31.052,-14.113,-105.265,-97.14,-83.461,-59.925,-24.769,-109.143,-102.107,-90.387,-61.896,3.931]],
"ve": [[-16.523,1.184,14.883,8.784,75.662,-16.068,-1.299,10.021,15.274,21.185,-20.469,0.315,18.427,-10.207,108.94,-20.172,-0.51,20.45,-2223.032,248.941,-15.287,-0.097,12.033,41.883,50.619,-1.358,2.922,16.404,61.263,26.211],[-106.518,-29.369,-17.919,-10.882,-7.546,-74.791,-29.216,-19.308,-12.276,-7.391,-76.678,-28.957,-19.739,-11.952,-6.664,-68.032,-30.701,-19.352,-12.328,-7.24,-75.001,-30.343,-17.097,-12.373,-7.558,-75.663,-25.678,-16.207,-12.831,-7.617],[-84.99,-62.83,-30.339,-24.347,-18.562,-138.082,-58.186,-35.667,-25.837,-18.092,-38.354,-53.701,-35.766,-23.594,-17.844,-101.658,-64.212,-29.781,-23.421,-18.179,-100.125,-59.841,-40.825,-24.504,-19.774,-82.087,-59.729,-40.447,-23.383,-18.241],[-106.682,-80.957,-46.622,-36.409,-27.883,-108.491,-73.6,-60.351,-35.908,-26.58,-104.743,-76.997,-58.822,-34.525,-29.446,-118.907,-234.788,-55.316,-37.463,-31.06,-100.573,-71.513,-57.647,-36.38,-28.196,-117.607,-87.527,-57.75,-35.594,-27.485],[-111.379,-100.488,-73.283,-49.919,-37.807,-131.558,-96.329,-67.47,-46.775,-35.056,-109.935,-83.116,-61.75,-46.502,-35.844,-122.144,-86.083,-69.548,-49.914,-35.457,-119.78,-106.152,-78.239,-44.684,-38.268,-119.275,-102.575,-65.876,-51.284,-39.764],[-131.722,-97.826,-78.542,-62.711,-45.644,-126.183,-100.349,-78.202,-34.062,-43.702,-120.607,-104.946,-72.433,-67.723,-47.517,-114.62,-104.846,-78.551,-61.144,-42.629,-127.306,-85.514,-79.276,-70.801,-47.269,-127.616,-102.197,-84.195,-64.597,-45.179]],
"kep": [[-9.894,-4.004,-13.515,-13.274,-10.597,-11.684,-11.525,-7.518,-20.507,-16.205,-6.363,-5.9,-7.725,-7.554,-22.701,-14.144,-10.338,-15.965,-11.595,-13.554,-3.453,-6.435,-7.85,-12.595,-14.464,-18.774,-14.563,-5.167,-16.129,-8.361],[-81.226,-7.033,-2.596,-10.341,-7.072,-85.675,-9.636,-5.635,-6.586,-8.812,-85.348,-11.903,-6.528,-7.092,-11.984,-85.147,-7.844,0.973,-8.107,-3.393,-84.168,-10.74,-6.529,-8.022,-7.103,-85.952,-14.122,-4.502,-7.363,-9.496],[-82.807,-63.835,-1.531,-1.746,-4.758,-84.356,-49.542,-5.765,-7.013,-2.61,-87.835,-43.542,-10.59,-7.668,-6.857,-86.457,-58.497,-10.869,-6.313,-4.189,-83.342,-61.041,-9.907,-2.588,-4.808,-85.464,-45.98,-10.289,-7.75,-5.657],[-83.783,-85.212,-21.361,-2.308,-6.182,-82.463,-78.588,-46.293,-6.163,-2.034,-83.456,-81.052,-40.383,-9.394,-8.207,-83.273,-86.596,-34.557,-2.685,-9.931,-85.382,-69.845,-24.788,-5.874,-3.634,-86.273,-78.089,-32.047,-2.678,-4.919],[-87.745,-76.939,-76.343,-19.853,-0.62,-84.957,-75.366,-62.673,-16.124,-3.982,-87.334,-68.087,-61.911,-18.591,-6.523,-86.064,-64.85,-68.202,-23.089,-8.455,-88.158,-80.199,-73.684,-6.954,-10.734,-85.682,-82.222,-68.68,-12.228,-7.185],[-91.123,-72.12,-71.603,-49.89,-4.68,-87.8,-72.025,-73.458,-39.282,-8.668,-87.053,-74.122,-71.244,-54.941,-16.953,-90.765,-72.731,-70.499,-49.324,-1.857,-88.115,-74.296,-73.808,-58.851,-18.167,-88.433,-75.925,-79.936,-56.399,-8.635]],
"vp": [[2555.623,2052.985,1618.507,1725.426,1960.436,460.568,430.446,422.481,463.687,384.665,237.043,229.249,205.195,257.058,171.635,53.845,46.407,39.347,41.163,36.743,20.1,18.402,21.452,21.325,17.804,13.179,10.176,13.836,11.919,10.623],[7466.651,6931.459,7302.683,5921.598,7016.851,1554.23,1289.952,1478.611,1562.764,1455.97,768.687,674.004,733.426,663.938,576.65,151.595,138.399,160.769,140.069,153.091,77.184,70.838,63.34,75.294,67.798,38.284,27.529,30.076,38.625,36.738],[8772.06,13319.793,10420.43,11448.072,11904.679,1945.407,2420.645,2408.788,2350.86,2350.124,1074.899,1185.828,1195.241,1065.645,1099.642,202.777,274.157,195.862,230.562,235.593,97.663,129.124,137.824,116.705,125.559,48.658,64.99,67.063,55.816,55.723],[11087.63,16853.462,14335.596,17095.893,15822.562,2232.015,3091.68,3632.931,3181.732,3091.431,1059.314,1640.745,1802.682,1457.195,1610.186,232.738,339.11,357.129,349.563,340.88,100.938,155.326,191.108,160.529,162.359,61.271,82.624,83.228,80.783,78.44],[11098.062,20577.294,22728.876,21630.866,22047.89,2657.887,4008.542,4218.66,4023.155,3921.257,1135.745,1673.695,1945.533,1896.049,1987.947,245.209,362.265,443.584,420.65,383.608,120.279,197.665,251.693,191.306,196.621,60.009,101.099,114.664,110.395,108.83],[11990.34,19522.694,23912.182,26356.815,24512.953,2553.293,4021.67,5103.581,4861.227,4680.782,1204.599,2169.545,2202.497,2882.883,2469.456,234.091,423.311,475.154,502.885,480.65,121.443,196.542,241.119,291.071,248.453,64.813,103.879,129.874,132.317,123.315]]
}