{
"KTrans": [[-36.563,-1.398,-6.981,-1.797,4.468,-38.725,-9.655,-5.387,-5.042,4.205,-44.801,-5.398,-1.075,-4.052,-5.983,-44.433,-6.853,-3.773,-6.591,-0.871,-37.772,5.357,8.368,0.675,-4.447,-43.439,7.065,-2.062,6.887,2.16],[-88.145,-51.742,-21.882,-15.182,-9.955,-85.145,-50.007,-20.198,-13.348,-8.708,-85.773,-45.31,-21.886,-13.166,-13,-88.091,-49.886,-19.208,-13.437,-10.438,-85.801,-42.755,-14.592,-15.541,-10.021,-87.755,-45.22,-15.777,-9.176,-7.631],[-94.757,-82.473,-42.741,-23.084,-15.392,-95.943,-76.799,-45.602,-22.55,-20.881,-94.588,-71.004,-41.186,-30.899,-17.709,-96.127,-74.261,-42.061,-22.162,-22.247,-96.083,-71.937,-51.111,-21.973,-15.496,-95.039,-69.474,-50.281,-23.718,-11.476],[-98.987,-87.823,-66.183,-46.673,-32.337,-97.68,-84.364,-67.916,-39.545,-28.449,-96.687,-88.749,-65.362,-38.522,-25.369,-97.424,-87.7,-72.191,-31.689,-33.552,-97.651,-86.453,-72.878,-40.634,-26.883,-98.137,-86.339,-73.728,-39.299,-26.66],[-98.965,-90.901,-75.526,-58.176,-32.393,-99.489,-89.825,-82.341,-64.243,-43.005,-98.827,-92.28,-78.897,-63.294,-41.721,-99.294,-88.234,-81.66,-61.219,-36.048,-100.47,-95.728,-79.725,-60.916,-36.244,-100.204,-91.228,-78.739,-65.927,-41.121],[-101.735,-97.537,-81.442,-72.545,-44.074,-101.077,-94.719,-82.571,-74.866,-53.936,-101.688,-96.847,-77.217,-74.18,-51.648,-100.517,-90.752,-87.708,-70.838,-44.357,-100.409,-92.855,-88.371,-73.185,-56.205,-100.395,-95.262,-83.638,-70.3,-53.453]],
"ve": [[41.94,34.304,-33.038,402.185,39.198,-18.182,-15.394,-12.311,-317.782,-43.645,-16.72,-66.584,-50.301,103.995,-83.225,-56.752,-9.091,-83.031,-140.564,-40.204,-51.656,-4.392,57.823,-302.738,-408.559,-20.07,-15.702,120.426,14.142,-17.303],[-23.463,18.022,-14.385,-6.179,-4.668,-65.846,-38.057,-13.121,-5.715,-3.506,-74.007,-27.882,-9.91,-7.21,-3.28,-36.604,-34.004,-6.075,-5.476,-5.021,-52.469,-19.654,-10.947,-5.113,-2.504,-76.95,-42.449,-11.118,-4.343,-3.56],[-96.175,-48.134,-30.292,-18.01,-14.338,-87.907,-57.302,-36.884,-17.012,-14.957,-103.766,-68.846,-33.513,-21.396,-12.624,-61.725,-52.299,-66.287,-20.559,-15.31,-116.892,-221.028,-34.828,-20.075,-13.39,-94.665,-49.905,-24.101,-17.574,-12.415],[-83.547,-65.501,-53.087,-48.597,-24.754,-95.978,-67.445,-55.385,-29.308,-23.732,-59.734,-70.241,-58.114,-31.488,-21.538,-119.983,-71.561,-55.258,-25.292,-22.637,-99.97,-86.535,-48.026,-31.566,-20.159,-27.699,-80.514,-61.717,-30.732,-21.635],[-90.493,-76.846,-64.579,-42.399,-32.15,-104.983,-116.337,-68.436,-48.46,-36.56,-109.143,-89.569,-58.1,-46.853,-32.762,-119.642,-104.852,231.03,-47.789,-31.404,-132.667,-99.173,-58.93,-47.57,-34.619,-97.812,-86.828,-57.441,-45.609,-33.544],[-122.874,-93.541,-69.267,-58.553,-37.195,-332.514,-86.364,-68.13,-66.615,-44.37,-294.581,-100.722,-59.432,-51.966,-39.231,-182.056,-84.271,-77.675,-47.809,-89.082,-145.978,-114.915,-77.227,-53.671,-43.586,-100.648,-104.208,-71.504,-54.365,-53.405]],
"kep": [[-51.554,-4.07,-17.364,-5.848,-0.07,-49.166,-18.026,-11.799,-18.53,-3.653,-56.918,-7.779,-6.506,-17.986,-20.575,-54.294,-12.211,-10.527,-20.829,-13.387,-49.26,-2.652,7.217,-7.97,-21.613,-52.063,-6.775,-9.851,4.518,-4.916],[-87.71,-38.634,-12.392,-9.033,-4.833,-90.409,-38.117,-10.371,-7.146,-4.646,-89.434,-38.577,-9.701,-5.06,-9.056,-94.077,-40.218,-11.164,-7.527,-4.824,-88.96,-31.505,-4.865,-9.731,-5.132,-89.321,-35.152,-5.956,-5.483,-3.259],[-94.57,-81.517,-24.796,-8.103,-1.367,-95.868,-74.781,-29.084,-7.94,-7.186,-96.611,-72.993,-21.275,-11.791,-6.36,-96.998,-71.682,-27.071,-2.603,-7.819,-96.568,-72.339,-27.276,-11.825,-4.021,-94.35,-72.261,-34.373,-8.515,-0.488],[-95.736,-84.63,-60.153,-25.219,-11.364,-96.896,-86.195,-63.081,-17.261,-5.855,-94.767,-92.322,-56.661,-17.386,-8.234,-95.019,-87.106,-64.485,-12.686,-15.43,-94.918,-86.629,-62.149,-17.088,-8.236,-96.63,-85.075,-66.487,-21.876,-7.196],[-95.413,-89.352,-77.598,-42.933,-8.568,-97.302,-86.593,-81.23,-45.101,-13.244,-95.976,-87.941,-76.862,-47.012,-16.173,-94.844,-82.411,-83.916,-47.819,-7.427,-97.883,-92.607,-76.227,-44.708,-6.403,-96.85,-92.496,-75.886,-49.776,-14.604],[-95.803,-91.793,-80.557,-67.175,-27.368,-97.33,-90.259,-83.053,-69.087,-33.775,-96.173,-90.321,-77.496,-66.66,-31.321,-95.956,-87.534,-86.164,-61.866,-28.652,-98.2,-86.668,-87.845,-66.956,-33.704,-96.886,-90.335,-87.251,-66.208,-36.488]],
"vp": [[2410.646,1578.98,2193.245,1888.726,1621.529,536.374,361.765,334.091,228.339,317.619,283.42,158.639,153.875,164.442,126.389,56.604,44.14,44.516,21.248,32.918,24.822,11.655,14.819,11.911,18.005,15.325,7.675,8.496,5.27,7.638],[7049.451,8329.498,5896.61,5362.343,5298.592,1515.784,1471.681,1155.876,1075.469,1130.349,698.213,676.495,553.471,534.474,457.758,143.99,167.404,110.46,108.293,107.37,76.345,66.416,49.853,59.978,53.776,35.124,36.341,27.173,20.241,30.225],[9291.677,13182.018,12485.764,10037.37,9512.37,1804.977,2385.758,2438.979,1756.722,1779.561,841.017,1178.552,1158.474,1145.427,834.299,182.168,216.016,208.22,212.078,192.263,87.775,120.311,122.645,65.958,87.521,41.411,57.43,57.58,45.886,42.768],[9656.384,14847.693,16432.328,13686.337,13439.663,1827.202,2721.128,3366.922,2693.585,2666.69,916.957,1484.808,1693.463,1482.008,1246.644,202.518,303.758,361.044,216.364,232.398,97.3,133.34,184.991,131.726,111.751,48.507,72.922,90.255,72.255,61.44],[9489.984,16092.069,18353.631,18329.546,17696.096,2139.439,2978.54,4101.726,4246.515,4055.419,943.819,1566.485,1937.006,2120.757,1747.106,190.518,300.94,426.927,450.759,349.045,113.839,204.231,183.304,218,200.826,55.219,87.69,92.402,96.329,88.508],[11520.342,19297.626,21421.937,24150.145,19089.078,2377.729,3453.167,4074.139,5164.037,4703.509,1042.73,1786.065,1806.111,2539.852,2109.161,202.424,334.235,468.466,436.964,409.39,106.968,165.163,249.5,237.148,224.562,48.617,96.956,109.577,111.558,120.291]]
}