{
"KTrans": [[7.345,-1.844,-0.224,-3.018,2.475,7.291,1.353,3.567,1.354,3.364,3.395,-4.388,-0.327,2.353,-0.517,34.252,21.214,14.036,13.344,13.351,93.754,61.805,49.875,32.53,23.532,44.898,132.062,111.42,75.95,86.412],[-47.463,2.895,2.618,1.982,1.251,-42.472,-1.963,1.29,2.162,-0.132,-31.707,2,-0.38,1.796,0.178,-7.312,17.856,7.34,4.608,6.11,-0.052,43.513,23.049,12.876,14.506,75.653,47.832,72.271,41.657,36.846],[-68.658,-2.024,0.879,0.237,-1.33,-70.901,-9.758,1.736,1.182,-0.435,-69.106,-1.406,2.396,0.329,-0.12,-47.412,9.766,14.082,3.468,3.761,-7.79,41.125,17.361,17.07,11.214,2.83,63.361,57.841,32.963,36.445],[-81.287,-14.649,4.242,1.857,0.353,-83.329,-11.07,5.903,-1.139,1.028,-78.661,-13.32,-0.035,1.683,-0.012,-68.548,-4.99,16.887,6.207,7.164,-46.531,8.156,23.407,19.814,13.879,-5.276,22.912,42.492,57.108,28.675],[-89.295,-39.583,0.132,-4.081,2.373,-86.766,-32.479,-1.545,0.863,-1.967,-87.919,-39.673,2.768,1.407,1.789,-78.594,-31.884,10.597,11.64,2.813,-61.541,-10.817,-4.252,27.162,9.036,-31.672,3.998,22.73,25.503,37.451],[-91.587,-50.832,-2.997,-1.112,0.42,-92.058,-49.962,-3.593,1.354,0.354,-88.381,-52.761,-4.071,6.563,0.392,-84.26,-51.922,-4.539,10.911,6.949,-72.391,-25.995,2.048,15.996,22.178,-35.954,-30.676,23.335,28.634,42.092]],
"ve": [[-0.265,2.45,7.169,39.939,13.409,2.476,4.341,5.935,8.335,16.941,-2.437,10.115,10.99,7.292,25.711,4.588,-50.922,44.745,-58.004,10.507,-78.915,6.187,-4.212,-36.667,-38.568,49.725,15.962,-10.03,-7.91,-57.223],[-34.937,-2.412,-1.971,-2.432,-1.268,7.448,-3.516,-2.46,-1.782,-2.041,-25.509,-2.132,-3.074,-1.379,-0.615,-1.121,2.14,-0.393,-0.606,-0.633,-2.696,12.247,-1.108,-10.922,5.057,46.383,23.657,23.18,-1.41,-2.795],[-45.542,-7.382,-3.539,-3.419,-2.526,-49.524,-10.949,-4.203,-2.798,-2.68,-46.541,-6.506,-3.4,-3.137,-2.147,-31.617,-2.854,1.426,-2.176,-1.514,17.426,3.825,-1.549,4.222,1.855,49.113,27.773,15.673,1.983,12.668],[-61.874,-17.391,-5.424,-3.691,-3.465,-66.849,-15.403,-2.87,-3.482,-2.75,-45.023,-15.345,-5.644,-3.664,-3.503,-406.949,-18.281,-4.06,-1.546,-0.956,-22.161,1.996,2.263,2.416,1.742,13.67,24.865,13.837,11.032,5.039],[-59.818,-32.555,-8.464,-7.123,-2.695,-65.173,-29.474,-8.057,-5.215,-4.665,-64.836,-34.112,-4.853,-4.101,-3.418,-41.687,-28.906,-7.876,-0.006,-3.035,-49.759,-17.356,-11.749,1.256,-4.859,40.073,-7.186,-0.751,3.456,9.329],[-81.831,-36.629,-12.391,-5.166,-3.873,-82.029,-40.453,-11.819,-5.254,-4.588,-74.195,-43.706,-13.281,-4.379,-5.325,-63.849,-37.607,-8.277,-2.15,-3.051,-24.401,-16.997,-7.854,-5.337,6.456,49.254,-21.959,7.174,4.604,9.684]],
"kep": [[3.462,-0.623,-0.048,-6.507,6.336,3.957,0.976,3.651,2.254,6.211,1.156,-6.063,-1.235,3.182,-1.434,9.318,13.218,7.357,14.426,15.422,37.038,31.091,37.596,26.643,16.149,56.572,74.452,97.703,50.797,88.728],[-36.514,4.639,4.315,4.664,2.728,-30.401,1.152,3.668,4.118,2.093,-28.495,2.799,2.502,3.333,0.963,-20.081,11.664,6.232,4.066,6.163,-22.568,14.584,9.301,6.028,10.105,-3.505,19.727,30.124,14.173,17.049],[-57.62,3.763,4.035,3.494,1.182,-56.081,-0.803,5.48,3.997,2.286,-56.404,2.909,5.194,3.367,2.015,-44.844,6.772,10.651,4.579,4.707,-37.617,18.127,15.925,10.035,6.355,-36.568,7.633,21.686,13.569,15.323],[-74.729,-1.552,9.071,5.43,3.828,-75.116,1.411,7.807,2.265,3.68,-68.49,-0.368,4.299,5.162,3.377,-62.578,-1.451,17.793,6.706,7.548,-55.372,-10.058,18.554,12.824,9.572,-49.193,-9.452,6.893,38.072,10.728],[-82.8,-19.078,6.99,2.663,5.021,-79.55,-15.653,5.359,5.84,2.528,-80.793,-22.842,5.955,5.297,5.087,-74.929,-27.622,16.551,10.809,4.764,-64.79,-18.81,-6.953,22.417,11.361,-62.583,-23.209,-0.021,7.869,22.273],[-84.504,-33.202,7.317,3.123,4.161,-86.08,-30.611,6.424,5.935,4.879,-82.773,-32.884,6.39,10.688,5.567,-77.401,-42.933,0.392,12.078,8.637,-71.418,-34.767,-8.806,17.848,14.173,-66.909,-43.446,-5.461,5.6,24.404]],
"vp": [[58.795,403.695,199.976,248.132,93.141,-14.982,61.739,-27.358,-38.034,14.244,28.051,30.805,32.17,4.7,28.922,-13.997,-17.388,-3.153,-16.167,-9.65,-31.354,-32.151,-30.155,-19.179,-9.137,-29.993,-30.492,-24.411,-21.568,-25.667],[3372.591,576.301,388.954,573.159,408.636,608.778,132.855,94.688,87.403,160.028,274.824,49.741,64.158,34.25,39.386,1.287,-12.056,0.517,4.061,-1.704,3.385,-35.437,-17.078,-1.648,-11.999,-25.024,-25.492,-38.53,-20.006,-21.519],[4838.196,1413.809,1025.47,1082.364,921.501,1052.245,446.116,189.677,174.068,232.56,496.293,113.843,81.313,103.645,87.89,64.112,6.409,-15.914,14.585,6.854,-25.05,-8.633,10.296,-13.033,-11.837,-28.574,-31.817,-31.363,-11.923,-30.37],[6630.523,3544.208,1477.812,1185.814,1231.582,1381.69,633.351,170.531,255.483,208.575,545.214,309.546,163.241,135.126,150.493,91.256,83.279,22.28,7.694,3.018,20.345,-6.27,-8.904,-12.945,-16.313,-7.976,-28.46,-24.836,-23.881,-15.879],[6896.628,6825.091,2382.672,2708.31,1175.572,1295.382,1197.97,460.362,376.09,380.572,701.944,698.646,133.326,146.433,144.743,84.255,118.339,49.598,-7.01,22.487,50.493,35.275,37.988,-5.315,22.613,-26.233,6.786,1.468,-9.225,-26.089],[7870.029,7396.824,3741.042,1906.664,1713.123,1585.721,1623.199,719.643,332.077,367.37,679.239,884.14,386.203,168.654,233.294,134.426,151.848,45.679,8.777,23.617,24.303,31.728,22.955,20.372,-43.805,-29.522,25.815,-14.073,-12.398,-28.387]]
}