{
"KTrans": [[7.568,36.318,35.53,23.411,30.513,18.979,36.72,36.185,31.977,23.472,34.749,52.71,46.785,46.208,40.643,184.592,145.713,127.252,91.343,98.87,370.64,316.327,236.627,219.195,181.216,1140.854,758.743,554.5,481.899,459.344],[-84.019,52.556,71.886,47.85,37.23,-77.201,39.056,65.825,46.105,32.544,-61.019,86.145,59.372,52.199,42.406,-49.015,141.278,131.479,95.934,69.377,-31.921,283.898,227.943,124.887,108.539,133.034,538.439,380.187,259.119,219.426],[-98.459,-16.061,76.587,78.46,51.857,-105.941,9.45,87.718,81.009,60.722,-110.31,-19.61,82.716,80.53,65.588,-98.376,23.902,134.69,105.877,88.105,-85.927,162.794,208.232,188.082,136.717,-52.044,155.821,374.545,332.458,212.744],[-111.078,-92.516,102.699,125.568,87.986,-111.583,-97.369,38.462,119.879,89.343,-110.087,-67.464,49.868,107.287,72.063,-127.086,-87.944,93.53,184.752,138.408,-112.126,-51.368,217.407,213.809,162.991,-136.288,-103.505,306.717,338.59,244.287],[-106.64,-101.337,-34.549,109.495,112.936,-109.053,-123.096,-28.709,137.313,130.143,-109.393,-116.434,-27.768,127.327,165.529,-111.796,-116.966,-15.466,168.041,163.724,-112.559,-161.482,53.468,224.088,221.399,-103.722,-168.651,-5.043,300.39,251.381],[-107.604,-129.808,-109.784,50.488,157.436,-107.4,-129.105,-107.52,52.343,157.66,-104.593,-115.379,-105.365,31.876,153.635,-109.985,-171.72,-87.02,123.325,212.097,-118.416,-160.044,-107.999,105.753,203.538,-95.413,-226.277,-107.711,214.035,252.397]],
"ve": [[-15.425,7.683,-4.922,33.738,37.53,12.186,6.404,38.265,-136.857,-8.834,23.094,13.817,11.617,93.316,-86.347,60.046,16.983,2.742,-8.466,-14.583,105.268,38.207,10.544,-6.499,-17.848,198.126,82.638,38.649,10.034,-4.088],[-60.382,3.724,4.818,3.091,3.412,1.958,7.664,3.899,2.743,2.503,22.944,9.555,5.964,3.628,2.466,61.25,22.082,16.44,12.474,7.152,96.2,51.972,31.405,20.725,13.605,197.944,103.963,64.046,40.686,32.06],[6.576,-421.807,2.284,4.505,0.808,17.992,7.702,5.145,3.846,3.165,91.888,11.742,4.501,3.69,5.265,52.615,29.006,19.485,11.922,12.046,96.798,58.719,32.998,27.154,20.11,31.193,107.813,66.814,51.128,37.268],[59.383,6.717,7.328,3.277,4.525,9.965,2.613,2.753,4.203,3.115,10.693,7.354,7.377,4.729,1.838,60.706,27.512,16.545,15.509,13.275,113.744,76.795,34.81,26.389,20.242,197.44,100.026,61.811,52.391,37.937],[151.393,4.261,3.258,2.731,3.914,11.921,8.952,1.724,6.721,3.952,37.108,6.648,1.253,5.523,4.199,48.683,34.17,24.393,17.269,14.186,101.169,48.862,21.529,28.349,23.14,199.318,97.034,67.323,50.744,36.779],[11.955,-3.826,-2.627,5.443,5.476,8.459,54.978,2.789,-1.084,6.62,18.484,-3.409,-1.612,0.853,6.226,60.252,27.337,15.059,15.901,12.254,115.135,52.106,38.257,24.583,19.573,205.744,97.853,64.716,53.81,39.612]],
"kep": [[-17.997,34.179,36.173,21.315,44.853,-4.729,29.367,36.119,41.391,31.361,6.033,48.02,47.36,60.95,58.036,83.979,110.913,127.284,117.516,147.905,127.226,200.53,204.833,241.955,245.594,310.597,369.57,370.765,423.692,484.133],[-88.01,39.252,59.316,41.666,32.55,-81.187,24.096,55.417,39.988,27.785,-71.169,64.21,46.26,42.407,37.592,-68.692,83.744,90.266,70.65,54.879,-66.557,143.754,143.529,81.08,79.164,-21.761,207.06,187.904,148.915,138.472],[-101.3,-25.956,61.802,65.45,43.763,-105.288,-7.578,68.945,66.84,49.91,-106.898,-33.805,64.284,66.554,51.996,-97.13,-8.749,88.273,75.853,62.394,-89.305,62.126,122.536,118.652,89.837,-82.975,21.967,173.948,178.817,120.703],[-108.332,-93.794,78.905,105.416,72.168,-109.742,-95.908,26.019,99.753,74.005,-107.842,-70.372,31.065,85.612,59.216,-115.477,-90.534,56.144,134.498,102.915,-104.691,-69.618,123.557,136.444,107.807,-109.835,-99.41,130.181,178.099,139.12],[-105.339,-101.057,-40.664,92.878,92.546,-107.24,-122.407,-39.253,110.042,108.317,-107.67,-110.086,-35.902,101.331,138.827,-105.992,-111.555,-34.947,118.28,121.795,-105.026,-136.092,7.438,140.322,150.332,-100.318,-129.359,-44.467,152.757,141.773],[-106.212,-126.049,-109.506,33.558,131.575,-106.233,-122.566,-105.022,35.7,132.683,-103.551,-112.278,-100.621,17.264,126.739,-104.461,-151.533,-88.122,82.724,159.538,-107.548,-133.534,-103.27,51.342,135.659,-97.744,-156.518,-101.696,95.536,138.389]],
"vp": [[3411.045,2003.502,2517.024,2230.155,2189.789,866.015,383.896,380.988,464.231,229.289,328.215,133.218,209.288,201.581,202.189,54.134,41.677,40.208,35.294,39.174,31.603,16.035,20.654,21.575,16.404,15.803,14.346,9.458,8.961,10.2],[7415.139,8865.796,7516.919,6614.468,6602.819,1499.397,1433.771,1629.381,1315.39,1155.291,746.986,875.39,659.494,632.759,610.223,159.404,182.279,147.792,149.09,129.022,74.226,93.883,70.19,53.254,55.577,37.038,41.784,33.776,29.165,28.623],[9930.511,14834.308,11202.718,12176.63,11061.526,1877.335,2916.701,2604.695,2302.516,2422.382,905.13,1472.212,1071.736,1181.952,1115.184,170.028,264.189,234.868,222.488,231.503,84.885,132.064,107.293,115.771,115.292,38.589,68.836,63.001,61.196,52.718],[10482.894,16741.927,21020.226,17101.615,16112.539,2079.597,2965.847,3220.713,3473.202,3247.342,1031.666,1478.862,1945.43,1701.009,1199.529,231.014,290.897,317.076,347.709,342.734,96.881,148.662,175.476,152.92,144.15,51.116,75.665,100.092,97.98,71.175],[10045.144,18861.742,21633.342,22934.953,21316.659,2214.787,3880.769,4357.518,5007.77,3721.121,1147.837,1593.156,2296.046,2202.617,2325.064,223.972,346.559,469.023,493.13,420.672,108.695,184.371,210.511,246.258,226.726,53.403,92.984,106.965,97.47,94.043],[11334.842,18944.742,25664.964,29233.515,30563.883,2201.005,3369.476,5314.61,5589.034,5338.916,1128.951,2046.026,1948.459,2610.207,2711.741,209.043,425.703,467.483,566.48,534.673,112.258,193.93,254.1,305.412,242.984,51.303,89.41,111.561,135.619,125.771]]
}