{
"KTrans": [[2.61,0.369,1.72,1.374,-0.144,1.441,-0.519,0.684,0.58,-1.032,0.173,-0.944,2.259,-1.144,-0.653,16.105,-1.671,-7.643,1.258,-4.37,30.997,16.208,6.813,7.827,2.483,-558.793,45.843,42.405,38.09,29.264],[7.298,2.364,1.87,1.41,1.26,-6.9,1.639,1.298,0.762,0.311,9.872,0.019,-0.762,-0.796,-0.573,13.796,-2.252,-0.903,3.164,-0.775,6.3,-0.845,0.65,0.23,-0.882,-77.352,3.703,32.781,10.51,10.632],[-40.607,5.782,1.565,1.651,1.382,-35.022,7.957,2.913,1,1.561,-45.183,4.91,0.458,2.433,0.545,-16.481,-0.583,1.984,-2.535,-0.553,-12.697,25.712,-9.557,-1.111,-3.668,-122.132,-1.442,9.096,4.017,2.523],[-76.585,7.384,6.739,3.94,3.089,-75.276,12.359,6.018,4.032,2.06,-68.149,13.025,2.466,3.289,2.175,-68.752,23.757,-5.249,-0.968,0.866,-62.336,61.913,0.885,-3.739,5.417,-67.155,37.931,22.366,12.472,-1.019],[-83.924,12.777,14.373,6.163,5.223,-83.954,-3.863,11.805,5.214,3.305,-84.354,-13.256,13.084,4.543,4.174,-76.055,28.486,-7.573,-0.172,0.239,-99.497,18.267,9.141,-1.304,2.6,-135.842,-21.379,31.346,13.49,9.101],[-83.361,-6.454,18.28,10.945,8.107,-87.305,-25.476,22.514,6.342,4.697,-82.428,-28.981,15.655,9.943,3.916,-96.506,-29.473,16.178,0.377,1.824,-94.961,18.217,32.322,1.924,3.854,-102.052,3.355,2.235,20.579,8.683]],
"ve": [[-0.398,-0.819,-1.227,-1.049,0.351,-0.678,-0.45,-0.56,-0.683,2.064,-0.557,-0.031,-1.142,2.321,1.652,162.837,32.895,-69.992,-57.285,-239.698,24.76,-23.353,6.02,-6.509,-42.422,-98.958,-12.714,-20.729,-35.99,-44.661],[-1.534,-0.352,-0.589,-0.759,-0.781,-5.629,-1.135,-0.582,-0.923,-0.809,1.113,-1.291,-1.396,-1.243,-1.086,-13.449,-3.384,-1.311,0.652,-0.262,-26.841,-12.714,57.367,4.613,4.688,-46.816,-12.719,0.274,-18.175,3.222],[-42.024,0.412,-0.945,-0.519,-0.701,-38.313,0.194,-0.537,-0.823,-0.608,-48.19,-0.262,-1.833,-0.41,-0.974,-17.765,-4.873,-0.06,-2.749,-1.509,-66.011,-3.877,-14.124,-1.902,-2.306,-80.571,-15.734,-12.118,-8.655,-17.272],[-81.409,0.328,0.707,0.076,-0.287,-69.953,0.483,0.764,0.114,-0.641,-83.02,2.434,-1.391,-0.261,-0.495,-67.496,-10.486,-6.49,-2.438,-0.921,-80.285,-21.227,-5.815,-5.195,1.581,-42.379,-68.521,3.73,-0.423,0.09],[-87.418,-0.733,3.418,0.63,0.293,-69.58,-8.941,2.625,0.518,-0.283,-80.533,-18.372,3.629,0.137,-0.058,-118.48,-29.293,-9.67,-2.679,-1.727,-110.647,-24.404,-3.99,-3.014,0.114,-135.311,-51.96,-3.287,-0.142,-1.305],[-85.459,-54.963,3.918,2.066,0.897,-89.857,-52.729,6.028,0.858,0.367,-92.275,-58.473,2.212,1.941,-0.27,-130.944,-46.762,-19.294,-2.919,-1.879,-115.928,-67.138,-8.699,-10.499,-0.104,-142.342,-63.016,-22.198,-14.366,0.307]],
"kep": [[2.863,1.329,3.305,3.041,0.239,1.837,0.024,1.537,1.927,-2.119,-0.323,-0.845,3.865,-2.008,-0.929,-9.152,-10.275,-19.559,-5.323,-17.595,13.594,-16.568,-17.324,-18.725,-25.562,104.725,15.763,-3.937,2.748,-25.876],[6.26,2.659,2.456,2.185,2.062,-3.148,2.609,1.851,1.695,1.133,5.188,1.009,0.51,0.397,0.501,-33.367,-6.275,-1.983,1.518,-1.113,-27.95,-27.645,-9.992,-4.838,-4.721,-24.068,-2.848,-2.87,-12.845,-7.216],[-48.827,4.872,2.47,2.172,2.092,-49.179,7.172,3.393,1.821,2.171,-64.023,4.567,2.185,2.775,1.495,-37.647,-7.998,-0.334,-1.381,0.005,-56.472,-28.735,-19.578,-5.231,-5.26,-38.553,-9.798,-22.274,-15.872,-13.135],[-96.61,5.294,5.819,3.823,3.37,-77.842,8.948,4.949,3.863,2.691,-96.944,7.415,3.553,3.437,2.629,-72.024,-29.339,-4.971,-0.506,0.948,-72.187,-41.178,-19.213,-6.976,0.605,-60.824,-37.338,-6.783,-16.727,-15.303],[-96.987,4.24,10.002,5.39,4.892,-94.448,-7.667,7.954,4.539,3.554,-88.551,-19.272,8.296,4.171,4.139,-90.617,-54.657,-6.501,0.134,0.912,-73.28,-41.183,-21.947,-7.713,-0.989,-70.435,-55.04,-16.028,-19.759,-13.138],[-95.106,-71.973,11.215,8.342,7.063,-91.51,-66.134,13.385,5.159,4.196,-96.151,-78.424,10.126,7.381,4.03,-90.513,-62.022,-29.716,-0.022,2.115,-82.708,-72.513,-32.568,-18.114,-2.046,-82.95,-59.463,-19.114,-31.797,-20.737]],
"vp": [[2.822,66.977,-41.512,-25.674,73.254,9.384,26.521,9.805,0.149,33.679,7.982,13.355,-8.645,18.174,17.274,-5.561,11.639,26.022,2.533,18.569,-3.027,1.853,3.714,4.424,8.604,49.132,-1.898,-4.872,-8.849,-1.382],[171.775,17.007,60.396,96.319,69.521,112.232,22.858,15.862,26.959,44.349,-15.308,18.806,41.255,44.333,42.933,21.917,16.297,9.074,-7.797,8.688,30.986,21.887,10.329,6.864,8.187,22.876,11.466,-19.848,0.862,-2.608],[4133.798,-131.172,171.024,93.743,141.525,754.069,-15.223,8.8,35.944,18.969,479.394,-0.044,41.926,0.029,31.412,32.691,15.493,-3.114,22.35,12.857,66.349,3.783,39.47,11.202,18.823,40.094,13.005,11.155,8.449,9.22],[8230.035,-145.037,-300.171,-127.029,-75.909,1279.762,-16.113,-66.578,-38.966,24.885,818.387,-57.606,34.865,-6.119,4.437,133.447,40.003,40.221,18.571,6.288,79.159,41.093,14.978,23.893,-11.694,18.222,68.985,-8.223,-3.109,15.146],[8724.896,128.843,-1082.706,-352.056,-313.289,1667.368,365.356,-182.126,-64.81,-13.278,806.829,369.855,-124.008,-19.252,-17.101,193.051,114.603,60.322,20.246,13.935,111.674,50.977,9.426,13.135,-2.784,66.542,52.871,2.989,-1.414,-1.79],[8724.624,11034.139,-1272.253,-896.542,-580.767,1611.04,2114.894,-380.652,-92.962,-77.196,913.797,1171.412,-76.811,-92.449,-3.242,267.335,180.549,117.46,21.73,17.581,121.591,134.571,23.111,39.429,-2.055,71.04,62.43,33.478,26.638,5.351]]
}