{
"KTrans": [[-4.845,4.216,5.398,6.206,5.247,0.574,3.317,4.713,4.165,3.105,7.388,3.973,4.692,5.404,5.384,6.625,7.319,10.902,8.76,9.544,15.899,15.94,14.296,12.542,12.233,30.73,22.801,24.515,18.351,20.057],[-27.213,-5.523,-1.088,2.278,1.944,-16.944,-4.836,0.182,1.794,3.091,-19.651,-2.788,-0.718,2.861,3.571,-23.243,-1.543,4.091,4.262,5.224,-22.138,-0.654,4.444,5.618,6.105,-23.515,2.883,9.506,11.043,7.97],[-55.31,-17.539,-6.797,-1.956,1.779,-62.435,-17.559,-6.02,-2.446,-0.325,-54.497,-15.317,-6.154,-1.782,0.728,-55.529,-13.275,-4.511,0.778,1.529,-49.869,-11.415,-2.705,-0.964,1.414,-54.8,-11.642,1.834,4.469,6.195],[-75.125,-29.348,-13.851,-6.748,-2.603,-76.751,-27.864,-12.221,-7.221,-2.462,-80.376,-29.281,-9.956,-7.131,-3.381,-77.065,-22.17,-11.611,-5.624,-2.583,-70.947,-31.666,-11.638,-5.723,-1.116,-71.3,-33.343,-12.861,-4.237,2.027],[-88.923,-35.422,-18.528,-12.955,-7.584,-86.781,-36.341,-19.719,-13.36,-6.159,-86.085,-40.505,-23.082,-13.3,-6.801,-84.65,-39.799,-20.255,-13.263,-7.311,-82.064,-42.144,-21.483,-12.558,-6.194,-82.222,-43.964,-21.54,-12.925,-3.587],[-93.309,-53.155,-29.78,-17.507,-12.094,-91.004,-48.365,-32.35,-17.035,-12.394,-90.995,-47.461,-29.327,-18.415,-10.797,-88.203,-54.512,-30.065,-19.068,-12.167,-89.49,-53.062,-30.43,-20.113,-10.833,-85.068,-59.194,-34.065,-20.113,-9.147]],
"ve": [[0.148,4.107,6.215,9.833,17.452,1.52,5.561,7.369,14.86,22.676,5.182,4.252,8.717,9.867,11.904,6.094,6.171,5.227,6.701,10.552,12.779,8.685,4.962,6.27,6.612,22.829,13.024,6.07,9.797,4.253],[-12.278,-2.18,-0.181,0.843,1.829,-8.755,-0.903,0.739,1.328,1.617,-6.376,-0.596,0.013,1.624,2.027,-6.706,1.141,2.078,2.348,2.381,2.108,3.477,3.439,3.921,3.283,6.796,8.135,8.333,6.173,5.051],[-28.597,-7.051,-2.651,-0.579,0.38,-35.356,-6.904,-1.903,-0.414,0.261,-23.113,-5.302,-1.927,-0.622,0.23,-23.811,-2.478,-0.162,1.239,0.875,-13.161,-0.022,1.207,1.138,1.878,-11.915,4.384,5.936,5.109,4.62],[-42.451,-13.035,-4.399,-2.163,-1.12,-44.579,-11.507,-3.898,-2.589,-1.129,-47.708,-11.423,-2.577,-2.62,-0.986,-42.377,-6.113,-2.587,-0.875,-0.261,-30.765,-8.585,-1.145,0.137,0.814,-22.268,-5.345,1.084,2.643,3.291],[-59.036,-15.428,-6.759,-4.89,-2.502,-56.057,-15.908,-6.935,-4.916,-1.931,-53.102,-18.371,-9.126,-4.676,-2.348,-50.627,-15.369,-7.168,-3.705,-1.596,-42.947,-15.359,-5.403,-2.488,-0.563,-32.611,-10.774,-2.341,-0.459,2.31],[-66.792,-25.841,-11.945,-6.314,-4.812,-64.295,-23.424,-12.897,-6.006,-4.314,-61.273,-21.675,-11.908,-6.876,-3.523,-45.027,-24.405,-10.043,-5.662,-3.348,-51.598,-20.669,-9.53,-5.423,-2.252,-36.254,-20.501,-8.457,-3.531,0.189]],
"kep": [[-14.539,-8.717,-7.766,-9.275,-12.732,-11.48,-10.336,-10.001,-13.712,-17.113,-8.118,-9.322,-10.549,-10.555,-10.963,-10.156,-7.755,-3.382,-5.719,-5.79,-7.848,-3.05,-0.292,-2.34,-1.254,-5.403,-1.192,7.52,0.543,7.478],[-28.234,-13.24,-10.767,-8.579,-9.707,-20.829,-13.799,-10.445,-9.423,-8.506,-25.171,-12.236,-10.596,-8.789,-8.452,-29.42,-12.499,-8.159,-8.224,-7.353,-33.634,-13.967,-9.04,-8.431,-7.386,-38.167,-14.675,-9.104,-5.803,-7.354],[-49.687,-20.77,-13.928,-11.18,-8.649,-53.863,-21.017,-13.923,-11.745,-10.433,-49.603,-20.106,-14.006,-11.025,-9.457,-51.47,-20.668,-14.089,-10.369,-9.337,-52.012,-21.024,-13.607,-11.893,-10.333,-57.903,-24.632,-13.611,-10.563,-8.615],[-65.541,-28.372,-19.258,-14.224,-11.303,-68.401,-27.933,-18.003,-14.337,-11.149,-70.595,-29.775,-17.083,-14.195,-12.116,-68.473,-26.887,-18.685,-14.348,-12.074,-66.734,-33.759,-19.852,-15.27,-11.681,-70.721,-37.935,-22.795,-16.137,-11.091],[-80.737,-33.439,-21.999,-17.756,-14.676,-79.581,-34.092,-22.863,-18.132,-13.92,-78.014,-36.397,-24.159,-18.246,-14.128,-77.288,-37.992,-23.228,-19.032,-15.22,-75.748,-40.732,-25.741,-19.393,-15.121,-78.478,-45.567,-28.283,-21.445,-15.208],[-87.746,-45.025,-28.877,-21.002,-16.973,-84.298,-41.774,-30.709,-20.755,-17.625,-84.287,-41.994,-28.451,-21.377,-16.798,-82.221,-48.197,-30.757,-22.98,-18.223,-83.442,-48.817,-31.59,-24.18,-17.941,-83.117,-55.246,-36.017,-25.671,-18.504]],
"vp": [[287.483,35.275,-139.605,-293.469,-227.974,26.34,-22.365,-21.672,-19.166,0.329,-27.602,-4.871,-10.993,-14.335,-7.115,1.051,0.328,-6.388,-1.386,-4.411,-2.414,-3.228,-1.982,-0.537,-0.85,-1.005,-0.395,-0.643,0.016,-0.286],[1352.764,459.739,126.422,-151.787,-125.78,177.632,80.28,-8.291,-26.834,-43.22,84.191,8.414,8.944,-27.873,-25.774,25.285,4.418,-3.175,-3.253,-6.381,8.248,1.794,-0.655,-3.355,-2.325,6.339,1.113,-2.789,-2.938,0.163],[3188.154,1466.628,747.573,153.351,-298.67,771.586,295.1,112.534,55.95,6.086,305.747,110.396,51.505,28.144,2.248,62.058,17.011,8.69,-1.715,0.012,25.534,9.278,4.752,5.45,2.28,16.571,5.065,-1.053,-1.413,-2.086],[4780.882,2757.462,1319.315,738.938,280.648,1022.911,476.225,209.562,170.393,80.282,550.016,246.561,71.658,95.953,43.323,105.952,32.706,23.319,12.262,9.875,45.865,27.568,11.817,7.658,3.137,23.041,15.171,7.357,3.741,-0.535],[6578.913,3144.683,1896.095,1828.764,1064.466,1285.679,690.767,424.202,388.564,155.82,610.445,395.552,279.837,181.155,101.093,121.225,72.103,50.042,38.559,21.559,58.329,42.545,25.534,17.608,9.979,29.129,21.585,12.829,9.592,2.183],[7390.442,5544.611,3740.631,2322.635,2097.643,1408.366,1004.667,815.492,423.77,407.475,700.322,473.808,372.454,266.883,156.374,131.937,114.588,71.814,53.169,40.434,66.504,53.706,39.538,32.027,17.232,27.729,32.043,23.889,16.137,8.137]]
}