{
"KTrans": [[28.32,16.091,7.324,5.906,10.85,35.693,23.632,17.648,12.58,14.035,52.747,38.307,24.503,28.73,22.19,206.381,100.152,94.22,81.65,73.168,489.613,247.195,196.667,167.979,168.614,1250.944,653.752,489.198,428.91,394.683],[86.123,47.911,30.784,11.794,18.462,105.529,57.22,39.234,20.276,30.57,218.308,57.66,41.668,29.308,28.286,191.722,110.089,78.095,54.985,46.311,729.734,226.008,143.336,104.208,89.997,1882.888,507.784,299.615,213.435,190.74],[-138.182,134.186,63.323,28.642,30.253,-62.002,162.583,63.087,31.735,32.903,-128.659,165.711,67.021,38.697,36.903,-83.284,306.974,101,70.969,54.551,-49.562,523.407,177.491,129.726,93.623,96.262,806.1,303.542,226.711,164.66],[-118.794,-34.685,124.193,63.648,30.469,-98.634,-34.042,118.817,54.511,42.393,-104.223,-57.44,101.673,71.001,53.096,-127.488,-185.121,194.262,102.572,71.843,-125.541,11.796,265.982,141.252,103.964,-50.759,169.985,551.005,261.617,168.249],[-100.355,-106.7,168.735,95.428,62.901,-110.515,-81.775,297.605,90.479,60.379,-99.908,-87.126,265.169,125.518,61.394,-132.429,-112.717,391.676,135.904,76.219,-79.57,-134.527,685.468,219.166,138.678,-10.427,-187.607,926.389,412.702,209.418],[-96.039,-93.188,-45.608,300.136,80.398,-105.693,-101.502,-106.918,206.737,119.15,-90.546,-109.666,-130.805,338.57,135.44,-84.393,-102.725,-74.615,357.234,153.028,-138.652,-88.993,-91.197,536.409,189.559,-63.64,-47.243,-261.848,714.868,308.977]],
"ve": [[1.814,1.18,1.675,6.427,5.464,4.757,0.981,-0.096,0.733,2.197,9.291,2.417,-1.538,-4.493,-5.376,45.709,11.46,-1.277,-11.65,-18.687,94.043,32.721,8.155,-8.022,-18.424,191.553,79.47,35.11,10.579,-6.04],[2.495,1.34,2.17,0.168,1.088,4.95,3.843,3.414,1.208,1.598,11.863,5.585,4.853,2.488,1.899,50.289,23.019,15.331,9.092,5.42,98.101,48.793,30.205,19.718,13.093,201.046,98.219,61.945,41.791,30.185],[5.644,1.514,2.659,0.603,1.315,5.231,3.568,3.214,1.654,2.245,10.865,4.239,4.335,3.165,3.198,49.478,25.651,16.665,12.37,9.213,101.433,51.479,33.24,24.961,18.269,197.758,98.855,64.326,48.067,36.082],[2.914,0.936,1.996,2.242,0.465,5.34,3.824,2.178,1.936,1.972,10.75,5.712,2.674,3.805,3.444,51.908,27.555,16.933,13.034,10.122,100.866,49.054,32.649,25.207,19.509,199.601,101.128,67.481,49.367,37.805],[1.816,-0.721,0.444,1.936,1.218,4.869,3.244,2.399,2.176,1.575,12.292,7.039,4.147,3.31,1.688,53.041,26.063,17.902,12.48,8.962,101.245,50.891,34.765,25.87,20.44,211.897,100.961,67.69,51.662,39.43],[0.676,-0.423,3.697,2.272,0.448,4.796,1.571,3.523,0.53,3.058,11.822,5.119,6.293,4.515,4.575,55.063,24.992,15.201,13.849,11.53,101.451,52.005,48.847,27.311,20.452,200.211,100.387,68.059,51.139,40.499]],
"kep": [[22.893,14.691,8.278,7.152,16.037,26.592,21.917,20.353,17.108,22.56,36.323,34.114,27.69,38.887,36.164,106.586,77.051,95.28,104.679,113.173,200.39,158.785,171.699,188.587,226.658,359.527,316.72,332.786,374.994,422.706],[71.843,40.079,25.577,9.942,16.403,82.78,45.726,31.843,16.655,27.608,166.32,43.631,32.52,24.309,24.752,88.464,64.964,51.002,39.425,36.614,300.011,113.715,82.864,67.615,65.734,542.773,200.847,142.527,118.248,120.597],[-128.181,115.675,53.154,23.889,25.388,-60.652,136.865,51.601,25.676,26.902,-117.808,135.002,53.237,30.53,29.683,-82.83,205.361,66.223,48.119,38.292,-68.168,293.197,101.61,79.141,59.954,-28.785,337.936,138.962,115.827,90.554],[-112.414,-32.974,107.178,54.035,25.315,-93.848,-35.123,100.875,45.091,34.802,-98.511,-55.561,83.235,57.633,43.006,-112.578,-153.524,137.493,71.776,50.781,-106.347,-21.462,161.363,86.04,65.278,-77.99,35.898,273.685,134.714,89.493],[-96.309,-99.358,147.867,82.366,53.389,-105.546,-76.902,256.305,76.815,50.625,-95.832,-82.212,221.363,104.942,50.564,-116.911,-102.322,287.739,98.502,54.122,-85.496,-113.588,447.303,142.014,90.231,-65.99,-133.941,482.224,225.266,114.484],[-92.333,-88.161,-44.394,262.927,68.992,-101.572,-95.046,-98.571,178.315,101.658,-88.043,-102.417,-119.494,288.61,113.803,-86.416,-95.597,-71.361,274.171,115.443,-115.064,-86.594,-85.847,370.722,127.944,-84.758,-67.849,-182.674,410.797,178.209]],
"vp": [[1180.755,1286.423,844.857,890.697,1043.767,194.827,236.261,245.15,154.693,216.637,118.139,134.728,111.37,146.006,112.264,20.708,15.367,22.386,24.732,19.988,10.857,9.015,10.828,9.857,12.887,4.645,6.354,5.5,5.896,6.315],[4024.006,3508.183,3222.297,2446.332,3322.509,641.484,744.206,810.091,681.908,902.595,437.893,313.363,349.422,342.832,392.075,66.282,48.377,67.483,61.903,70.11,38.364,25.196,36.383,34.4,36.623,19.577,16.421,18.36,13.391,18.935],[6888.403,3548.368,5828.72,5030.457,6666.563,1065.795,932.591,1092.059,914.845,1248.751,722.6,440.559,541.25,531.043,635.325,123.105,89.141,92.587,106.166,108.204,55.402,60.285,49.912,65.889,62.14,24.679,19.534,20.161,28.317,27.261],[8774.94,6829.116,6054.696,6988.167,6093.109,1383.641,1672.92,1035.659,1388.668,1494.346,824.874,835.413,465.862,819.493,869.193,172.866,163.787,114.542,150.548,160.083,85.062,68.017,58.553,67.122,73.664,39.768,42.021,40.614,38.879,31.436],[9092.982,9807.508,8476.531,7183.748,8705.603,2082.595,1970.961,2300.849,962.159,1708.247,1012.447,1172.579,1286.891,964.593,970.122,227.442,203.299,213.942,128.038,132.948,105.446,109.18,116.538,78.592,99.751,38.321,56.35,45.377,53.341,44.833],[9562.25,11560.509,14320.472,10357.89,6557.384,1874.236,2206.953,2883.076,1203.13,2384.167,1086.675,1274.231,1708.515,1267.061,1268.299,219.382,241.545,188.497,210.054,219.874,115.157,125.635,124.81,104.504,117.216,53.618,58.245,66.729,39.142,49.811]]
}