{
"KTrans": [[0.171,5.216,-4.118,-5.498,-17.021,1.012,7.938,-4.379,3.078,4.685,0.196,-0.654,9.624,3.463,-11.627,5.159,29.116,63.549,64.128,65.607,12.48,-3.454,10.277,45.081,53.545,-69.006,142.516,-11.102,-68.976,60.736],[-49.21,-20.428,-7.518,-0.924,-2.859,-40.884,-4.237,2.647,4.38,-0.1,-33.441,-11.697,3.673,5.873,5.472,-31.446,15.656,8.386,5.002,17.482,-27.89,-28.738,-0.71,-16.283,30.743,-44.386,26.576,29.563,-60.207,17.465],[-53.877,-28.343,-11.737,-7.622,-2.301,-62.079,-27.982,-16.359,-6.775,-2.042,-53.434,-22.047,-10.411,-10.612,-2.855,-44.521,-26.147,0.641,-4.178,5.855,-47.022,6.42,-7.042,9.917,3.16,-3.504,10.21,-0.303,9.503,-30.063],[-69.336,-38.433,-17.605,-16.005,-7.076,-68.48,-35.317,-16.499,-10.708,-10.196,-63.118,-27.745,-19.193,-8.173,-3.449,-60.004,-26.277,-12.19,-5.767,1.147,-70.407,-43.35,-18.664,6.762,4.387,-38.79,-33.529,-17.128,-4.501,-37.884],[-72.844,-41.699,-27.38,-8.731,-10.847,-80.384,-40.963,-26.108,-17.153,-7.86,-76.087,-40.385,-28.027,-10.869,-6.479,-68.186,-54.832,-17.266,-1.44,-3.139,-86.773,-30.184,-38.704,-5.965,-3.119,-80.936,-51.275,-5.649,-17.808,-0.897],[-79.898,-48.911,-28.545,-18.614,-10.816,-80.004,-57.851,-25.952,-18.797,-14.251,-79.371,-55.48,-25.06,-10.868,-9.514,-78.568,-45.486,-29.636,-16.416,-10.778,-77.706,-53.89,-25.869,-0.332,-1.369,-75.404,-59.752,-41.838,-41.692,-6.195]],
"ve": [[-46.149,8.152,-32.496,2.687,16.876,-196.939,-124.177,-19.052,-40.691,-21.759,15.843,-17.595,-9.689,-20.948,-41.22,50.461,-117.59,-32.534,-43.25,90.313,83.581,36.591,-15.926,20.171,-40.208,153.023,76.491,34.888,-3.634,-27.077],[-77.404,-4.092,-8.2,128.203,-81.526,-39.262,3.143,10.068,-3.997,-17.083,26.35,16.241,-12.054,-223.01,12.869,93.105,34.94,11.766,5.383,1.966,81.672,30.441,86.707,29.338,25.127,167.762,95.455,63.349,38.844,83.508],[-1.69,-20.477,-7.811,3.401,-1.093,90.415,-0.537,-39.122,0.429,27.976,-62.882,-31.843,34.625,4.978,48.426,131.519,42.091,25.444,11.554,-28.862,112.063,33.458,34.286,23.306,-233.153,191.4,103.37,64.986,51.868,37.779],[8.992,-1.613,21.959,-18.688,16.395,2.422,-78.877,-9.521,-16.428,-14.861,21.601,-19.173,63.673,-6.857,7.37,5.006,19.076,-74.609,31.49,-0.177,101.46,38.09,26.215,20.435,13.355,219.274,95.206,57.461,26.836,38.45],[-7.805,-24.897,-8.693,-3.108,15.121,63.602,-17.766,29.926,-8.947,2.16,9.283,8.144,-3.46,-12.489,2.559,31.356,-0.178,22.724,4.36,6.948,94.93,52.15,30.061,87.455,19.632,178.605,100.856,63.53,46.106,47.001],[-8.942,-21.394,-4.692,-3.807,-5.58,1.377,1.015,1.958,1.811,-4.175,-93.304,-15.568,30.85,-4.674,-7.092,12.21,17.425,20.703,92.537,6.253,123.388,50.102,30.88,21.431,18.694,182.876,99.535,64.582,6.53,72.302]],
"kep": [[-127.855,-83.347,-72.369,-53.346,-22.833,-117.779,-83.08,-41.633,-15.463,-47.844,-117.884,-97.485,-46.515,-52.074,-0.095,-132.117,-197.532,-155.908,-226.467,-193.616,-123.22,-250.565,-369.736,-376.57,-317.754,-74.301,-65.298,-354.55,-524.216,-482.956],[-99.5,-114.544,-114.58,-86.249,-30.389,-90.595,-81.442,-116.439,-86.527,-37.335,-92.179,-101.892,-128.022,-89.242,-56.904,-93.637,-86.347,-139.59,-154.926,-127.024,-85.865,-103.831,-134.314,-208.855,-171.967,-80.114,-56.425,-58.25,-213.639,-220.139],[-87.179,-72.014,-62.92,-95.387,-112.972,-94.198,-75.39,-80.617,-93.839,-111.399,-89.876,-70.29,-71.266,-111.374,-107.594,-86.49,-80.327,-53.285,-105.034,-146.461,-88.366,-55.313,-73.027,-89.345,-140.456,-73.387,-51.619,-62.65,-62.475,-114.345],[-94.672,-68.13,-49.893,-60.763,-67.149,-95.34,-68.281,-51.866,-51.73,-77.632,-89.283,-62.162,-56.06,-46.76,-59.57,-89.54,-67.359,-53.246,-63.689,-61.946,-94.262,-77.018,-63.142,-46.807,-59.252,-86.192,-65.17,-65.498,-61.378,-87.609],[-93.243,-70.106,-54.044,-30.309,-45.241,-98.781,-69.414,-50.794,-47.156,-35.931,-95.67,-68.897,-57.861,-37.215,-35.896,-91.636,-85.966,-53.35,-39.023,-40.625,-96.61,-69.145,-61.143,-40.026,-44.776,-92.979,-78.518,-51.497,-57.347,-44.471],[-95.263,-71.083,-49.789,-38.256,-29.094,-96.865,-82.4,-50.577,-43.582,-41.55,-96.528,-77.406,-48.884,-37.071,-34.938,-95.414,-73.104,-58.278,-51.551,-44.355,-94.555,-79.22,-60.834,-38.833,-40.113,-92.625,-82.294,-68.451,-70.846,-49.8]],
"vp": [[-380.668,644.369,106.303,1427.546,852.837,44.715,-123.039,54.798,202.802,142.156,-61.478,7.639,93.325,-24.223,53.02,-9.088,-12.5,-26.329,-19.011,-13.512,-33.694,-30.13,-20.615,-4.622,1.015,-29.065,-47.298,-26.404,4.957,-26.994],[2556.011,1044.07,523.618,-329.976,398.027,565.172,92.649,-115.374,-197.237,35.303,193.697,134.942,9.883,30.344,-29.162,-13.057,16.529,-14.006,-8.555,-5.44,-28.156,-22.669,-40.941,-15.291,-19.172,-20.339,-31.619,-46.624,-53.627,-28.448],[3193.656,2624.303,2767.173,1404.216,447.324,953.38,690.756,264.914,360.897,-108.486,378.029,315.824,53.487,108.599,-119.674,39.055,83.356,-1.922,17.02,-21.727,-14.864,-31.657,-25.359,-37.243,-15.847,-21.76,-45.17,-17.194,-41.748,-55.142],[5600.76,5354.51,3619.223,2764.358,1370.043,1227.025,1167.038,738.686,467.882,451.004,546.57,539.737,358.387,298.247,61.291,91.656,79.229,26.007,22.521,-3.058,-3.864,-11.77,4.688,-30.33,-34.212,-9.915,-5.005,-20.869,-32.083,-15.721],[5215.508,8687.828,6558.759,4634.054,2960.635,1190.194,1215.428,806.27,953.069,581.25,600.43,564.607,565.466,480.058,212.787,50.112,131.079,94.101,34.403,51.72,35.151,39.047,12.683,-7.148,-3.307,-18.865,9.591,-15.888,-31.903,-4.426],[4989.185,7450.027,7665.428,5758.921,3623.319,1380.723,1786.986,1462.481,1165.646,1135.479,627.161,870.933,803.918,465.664,430.41,91.851,115.962,113.625,119.418,79.587,33.739,80.861,47.028,8.818,7.898,-1.334,13.143,-19.824,-1.421,-18.778]]
}