{
"KTrans": [[45.472,33.499,21.228,23.695,23.529,78.719,44.381,40.399,32.013,22.913,85.586,55.426,48.547,38.977,23.599,264.633,135.952,120.443,96.145,95.866,527.079,318.44,226.143,201.983,200.92,1575.499,731.057,540.757,456.207,435.25],[-60.708,84.428,54.966,27.44,31.863,-23.04,107.346,63.658,45.795,30.006,-45.992,130.592,56.369,44.348,40.693,-4.151,171.886,112.098,95.32,63.178,181.179,344.59,162.097,154.658,120.391,488.431,652.119,368.024,298.894,236.1],[-115.754,114.263,110.852,79.009,56.912,-129.511,130.033,113.42,77.422,57.283,-118.129,105.503,131.925,85.73,55.048,-152.05,150.82,167.987,119.162,95.269,-155.032,243.43,268.535,169.647,135.523,-244.501,413.262,461.413,253.656,217.663],[-126.744,-118.464,216.156,111.758,92.457,-135.587,-76.595,192.56,130.966,99.993,-128.687,-91.081,221.622,119.299,85.396,-163.847,-46.495,334.372,194.271,137.393,-171.349,9.526,364.433,256.434,149.748,-379.314,-79.43,604.553,423.485,236.957],[-119.527,-171.724,24.282,249.528,134.317,-130.139,-178.539,3.824,199.179,169.798,-116.794,-200.785,55.295,220.145,136.017,-146.467,-260.125,85.806,274.512,171.108,-164.194,-165.857,150.533,353.443,266.425,-209.808,-474.265,120.967,563.81,339.153],[-122.506,-172.486,-147.286,174.737,217.894,-115.282,-181.419,-93.345,170.912,273.688,-110.879,-176.867,-218.787,213.724,219.323,-123.381,-201.37,-273.058,281.335,258.971,-118.018,-214.93,-230.473,410.098,310.171,-157.309,-258.275,-279.731,451.068,493.74]],
"ve": [[2.374,3.362,-72.444,-66.907,-376.176,6.55,6.231,1.776,19.282,2005.015,11.106,-2.207,2.72,2.455,-45.47,47.899,11.718,-2.345,-11.002,-19.4,97.356,33.462,7.558,-7.047,-17.797,196.426,80.695,35.885,10.909,-6.586],[0.599,2.359,1.861,-0.398,0.947,-19.273,4.865,4.582,2.568,1.706,14.668,9.316,2.961,1.797,1.332,51.316,23.82,15.387,10.922,4.609,105.423,52.554,29.287,22.321,13.516,205.027,99.896,62.015,46.064,31.054],[5.897,4.48,2.819,3.499,1.767,10.223,5.29,4.266,4.335,2.618,11.328,6.559,5.763,5.318,3.235,27.78,32.702,16.239,13.739,10.851,104.187,50.177,34.067,25.038,19.587,199.486,101.02,65.267,45.053,36.905],[35.292,2.283,4.371,1.838,3.241,6.037,29.996,7.409,4.538,4.365,10.655,5.223,6.541,5.99,3.094,55.028,20.993,21.855,15.721,11.467,105.456,51.772,35.28,27.896,19.711,205.582,105.002,69.286,51.741,37.746],[-9.15,2.862,3.52,5.257,1.62,6.938,6.643,6.478,4.051,8.042,1.225,5.734,9.227,5.661,2.252,282.849,27.687,13.383,14.97,10.856,102.32,51.65,38.816,26.673,24.236,198.533,104.358,74.943,51.731,40.164],[5.6,4.991,0.04,4.43,2.299,15.806,4.598,4.363,3.851,7.831,11.791,6.948,4.551,4.353,5.344,50.86,26.365,17.587,16.046,10.545,102.41,53.578,31.833,28.235,23.369,196.966,102.811,67.088,47.053,40.888]],
"kep": [[36.315,32.189,24.414,32.642,34.147,63.03,38.52,44.456,44.956,33.223,62.199,47.501,53.993,48.716,34.871,140.77,105.403,122.21,121.473,143.899,213.242,209.18,197.253,220.398,263.231,459.038,355.026,366.524,396.352,466.593],[-63.063,70.673,46.34,24.305,28.442,-33.493,86.759,51.378,38.628,25.949,-56.742,103.49,44.32,37.257,36.744,-40.11,106.104,77.009,71.243,51.206,35.78,183.879,95.229,103.146,89.663,87.161,267.584,181.071,168.763,150.718],[-114.974,91.612,92.465,67.016,48.793,-123.463,103.083,94.307,63.217,47.547,-113.674,78.364,108.453,69.556,44.731,-129.804,84.064,117.313,84.684,69.968,-123.798,114.437,161.265,106.898,89.716,-143.524,150.679,225.491,133.692,124.366],[-122.191,-116.48,181.821,95.153,76.961,-129.262,-78.668,159.865,108.967,82.823,-124.058,-91.629,183.661,97.87,70.329,-138.63,-55.085,241.468,141.373,101.952,-130.674,-30.039,225.446,167.367,98.469,-187.712,-86.907,300.5,231.05,132.896],[-115.531,-161.308,12.18,214.756,114.862,-124.895,-169.286,-7.621,168.762,141.635,-112.467,-183.879,32.946,182.575,113.198,-127.28,-213.264,46.613,206.502,128.304,-129.187,-136.996,73.732,236.939,183.791,-133.482,-273.326,28.721,315.609,197.114],[-119.577,-161.944,-139.835,147.066,188.447,-112.066,-168.728,-89.182,142.63,234.2,-107.793,-163.75,-198.581,177.677,184.211,-113.177,-171.41,-230.083,209.02,198.914,-106.458,-168.599,-184.821,274.562,215.748,-117.188,-172.125,-197.216,243.552,296.131]],
"vp": [[2337.485,2502.423,1734.135,1931.54,1959.436,412.369,447.051,454.363,452.373,380.297,265.373,223.768,217.528,207.911,158.169,40.746,38.132,40.152,40.421,43.657,19.997,20.74,20.214,19.645,23.079,13.608,11.71,9.462,8.232,9.431],[6293.507,6345.418,7015.252,4761.269,6825.607,1401.963,1505.815,1344.044,1400.373,1087.775,814.562,825.299,640.789,628.997,632.355,144.362,122.023,123.569,154.403,109.96,69.304,69.223,53.209,75.777,64.903,41.507,28.756,32.62,38.38,39.083],[10247.057,13880.551,11120.49,12188.848,11385.084,2011.409,2772.36,2224.475,2212.938,2164.693,915.909,1254.205,1155.807,1159.422,1041.407,183.579,260.009,226.068,214.036,235.615,92.669,124.971,107.099,105.165,114.374,45.452,62.076,55.768,47.728,53.418],[11580.165,16851.488,18099.624,14601.591,16534.946,2212.45,3223.864,4026.364,3072.82,3539.409,1097.636,1450.207,1726.917,1479.851,1484.023,243.076,241.904,400.531,326.576,333.364,103.02,156.49,164.253,165.264,127.936,58.39,87.115,85.027,79.967,68.896],[11488.726,18063.42,22206.649,24361.48,21333.853,2417.232,3865.454,5220.002,4241.445,4736.766,1147.935,1843.163,2492.602,2034.891,1966.526,259.284,360.331,441.174,375.431,381.401,113.904,179.369,232.384,201.021,204.74,53.295,101.087,117.2,113.95,92.658],[13239.637,21058.793,22337.628,25717.557,25137.034,2501.927,4146.679,4614.69,5803.278,6105.444,1060.274,1953.318,2332.016,2305.387,2364.238,221.664,416.531,461.41,564.385,439.967,121.2,219.081,214.211,264.085,262.005,53.692,94.246,116.932,138.143,124.024]]
}