{
"KTrans": [[-52.197,-66.651,-75.667,-79.782,-69.604,-37.307,-64.646,-74.891,-66.946,-72.202,-35.028,-60.598,-67.032,-67.49,-54.941,51.787,8.639,-14.824,-15.581,-2.114,88.615,85.809,47.55,53.669,51.217,263.563,239.574,195.569,159.522,120.53],[-59.118,-42.109,-55.643,-69.307,-69.678,-56.29,-38.953,-34.988,-63.496,-59.685,-49.4,-28.601,-37.508,-51.4,-60.45,-36.012,-15.639,5.644,-9.596,-27.34,-3.531,26.206,32.004,17.667,-0.82,70.272,83.428,62.899,56.133,32.619],[-68.201,-55.491,-40.226,-36.044,-52.831,-70.547,-53.223,-36.552,-42.547,-38.059,-68.499,-48.882,-41.556,-31.794,-32.409,-55.162,-30.058,-22.155,-4.571,1.618,-37.471,-14.886,-1.262,8.586,18.807,-7.819,27.147,37.547,44.719,44.981],[-78.993,-57.488,-49.241,-42.381,-47.505,-76.893,-58.954,-50.104,-42.754,-42.839,-76.006,-58.591,-41.066,-39.591,-45.964,-66.955,-48.087,-30.882,-20.245,-15.351,-51.39,-36.877,-17.217,-5.014,3.549,-31.138,6.437,7.06,13.95,22.578],[-83.376,-65.239,-50.325,-40.724,-44.375,-82.561,-62.134,-47.951,-47.52,-43.667,-81.489,-65.892,-48.917,-46.255,-43.397,-77.691,-58.128,-42.622,-27.539,-25.729,-65.731,-48.608,-27.654,-21.139,-14.197,-56.128,-13.547,-10.695,-5.329,4.756],[-86.856,-71.184,-54.93,-47.611,-43.224,-85.583,-70.234,-48.419,-49.315,-43.487,-85.464,-69.201,-49.319,-46.345,-47.773,-78.479,-60.378,-48.152,-31.73,-26.184,-73.616,-57.595,-39.75,-22.46,-20.629,-55.271,-32.568,-20.431,-11.812,-5.409]],
"ve": [[-62.462,-35.651,-38.749,-18.321,795.024,-40.717,24.77,-65.084,-58.317,-499.675,-8.962,-104.534,-22.479,-51.537,-133.41,48.871,-16.79,-55.376,-178.505,-60.88,119.17,19.838,-273.918,4.347,-7.907,17.944,113.383,22.745,14.553,-10.223],[-38.48,-48.01,-53.11,-58.533,-27.686,-43.878,-42.922,-35.886,-56.662,-35.991,14.651,-20.134,0.543,-39.52,-56.13,30.303,1.633,14.416,-18.844,-27.293,113.731,33.557,28.742,9.229,-9.505,259.924,98.66,51.556,35.723,55.069],[-63.592,-76.524,-59.9,-36.812,-43.935,24.744,-62.781,-54.33,-34.028,-39.881,-1.606,-39.646,-52.325,-35.097,-38.049,39.845,-20.759,-10.531,4.057,1.727,116.795,38.494,14.024,1.391,21.571,175.638,100.112,33.335,37.485,42.725],[7.436,-49.152,-86.454,-62.321,-63.287,-94.88,-42.725,-76.266,-65.624,-53.678,15.395,-56.264,-40.439,-795.626,-63.104,46.411,-12.912,-49.465,-23.532,-1.809,398.245,4.789,-34.67,-8.821,7.13,293.101,127.843,14.128,32.577,26.783],[10.483,-28.602,-84.643,-71.086,-102.87,-12.93,-36.008,-61.152,-92.305,-53.012,52.138,-26.803,-71.092,-75.297,-66.747,82.309,-23.185,-57.257,-36.858,-39.399,144.632,28.645,-21.57,-36.576,-20.449,195.002,109.037,15.844,11.097,294.072],[16.903,-43.596,-60.515,-79.901,-76.476,-16.678,-35.835,-47.642,-84.051,-76.342,-24.121,-31.205,-53.268,-79.895,-92.416,96.282,17.8,-45.516,-44.707,-40.905,151.388,24.578,-38.641,-25.15,-14.245,293.723,126.543,27.87,1.616,-9.453]],
"kep": [[-132.493,-75.736,-48.048,-2.723,-9.702,-129.819,-44.917,-40.151,-21.864,-10.474,-142.754,-55.29,-35.345,-31.301,-18.933,-128.983,-96.074,-34.922,-16.628,-64.447,-102.291,-121.048,-56.534,-103.975,-87.052,-97.314,-175.443,-155.398,-143.413,-105.328],[-94.522,-86.43,-134.137,-49.833,-6.014,-85.099,-81.414,-124.586,-53.359,-12.745,-91.213,-96.175,-141.587,-85.977,-10.132,-92.39,-80.15,-126.661,-74.454,-46.704,-90.806,-73.698,-109.873,-90.687,-31.562,-81.303,-57.85,-86.954,-111.576,-76.748],[-95.931,-60.668,-54.385,-86.929,-137.593,-93.919,-60.809,-51.728,-86.327,-119.73,-95.101,-63.385,-63.202,-89.848,-133.886,-91.829,-59.589,-52.902,-82.268,-128.153,-94.137,-57.434,-45.737,-70.017,-107.659,-85.268,-64.196,-48.062,-66.139,-102.998],[-95.237,-68.044,-29.514,-23.122,-45.996,-95.979,-69.222,-37.859,-26.289,-44.148,-99.473,-66.38,-32.767,-26.533,-35.895,-94.612,-68.035,-29.087,-29.814,-48.155,-96.773,-66.448,-28.139,-30.401,-61.581,-89.423,-73.631,-45.618,-45.969,-51.625],[-100.267,-79.563,-31.821,-23.241,-20.544,-99.655,-73.896,-41.328,-15.91,-24.953,-100.142,-75.106,-37.682,-26.643,-18.823,-98.892,-71.212,-38.874,-27.373,-17.885,-96.288,-75.522,-36.4,-25.291,-19.126,-91.746,-70.447,-47.887,-42.187,-27.376],[-100.089,-76.13,-47.195,-27.755,-13.656,-98.393,-77.978,-45.401,-26.736,-17.3,-98.945,-76.758,-42.756,-24.262,-13.941,-100.036,-81.303,-45.672,-25.072,-18.126,-97.604,-78.402,-43.635,-27.364,-17.193,-96.7,-80.32,-52.589,-38.286,-25.572]],
"vp": [[-145.455,211.025,270.586,359.312,581.936,-84.085,31.65,-28.082,31.242,27.982,-14.034,-20.641,-44.63,9.853,-5.631,-4.081,-12.312,13.244,-6.811,-4.51,-17.571,3.223,-1.529,-6.497,3.989,-13.281,-12.29,-20.069,2.186,0.751],[2678.987,1068.544,-77.078,-349.697,191.947,520.953,242.965,82.928,-59.863,22.762,279.266,143.045,-37.798,-32.952,22.622,26.219,9.152,11.357,16.825,-18.993,28.829,4.255,-11.103,-19.371,-16.876,4.109,-12.565,-28.436,-7.596,-3.907],[5187.856,2462.784,1814.811,1319.828,-328.318,882.637,577.825,356.333,154.089,73.336,451.191,315.041,102.866,107.531,22.204,79.565,51.079,27.992,18.421,-18.66,38.512,10.301,-0.301,2.992,-10.263,0.677,7.226,-12.102,-19.402,0.45],[5517.735,4909.854,1976.958,1397.709,667.607,1036.134,1095.338,388.219,352.005,262.006,613.333,514.557,229.535,135.064,32.661,94.445,86.81,37.216,50.777,32.756,56.883,41.573,-7.207,0.608,11.457,7.101,3.752,-0.182,0.685,-8.268],[6427.05,6822.382,3957.657,2179.58,1551.855,1232.317,1328.593,893.818,273.334,356.034,677.86,747.321,416.475,286.043,128.239,134.538,127.394,76.972,29.029,6.307,60.621,57.399,24.972,-6.284,5.573,26.222,13.53,8.793,5,7.809],[7360.39,7568.719,6289.553,3950.654,2167.985,1415.135,1739.565,1227.941,678.447,515.628,695.02,934.69,632.349,329.779,146.067,129.75,172.517,125.061,69.961,50.218,58.671,74.969,43.264,31.076,16.453,14.99,23.564,23.114,16.993,-1.636]]
}