{
"KTrans": [[2.795,4.173,3.953,3.862,1.957,2.769,4.325,4.1,5.403,4.379,0.8,2.157,5.263,3.739,5.439,9.141,4.936,9.207,8.858,6.285,15.108,9.394,12.114,9.039,9.517,27.232,20.071,17.866,14.984,15.622],[-16.34,-3.44,-0.628,-0.283,2.188,-21.44,-2.542,1.708,0.581,1.657,-12.988,-3.656,0.396,2.623,2.443,-19.17,-1.656,2.014,3.398,3.976,-12.06,0.222,4.178,4.878,5.515,-3.524,5.186,7.853,7.674,7.679],[-53.932,-10.417,-4.654,-1.538,-1.127,-50.938,-9.803,-5.451,-0.665,-0.086,-49.135,-9.077,-1.864,-2.268,0.929,-50.843,-9.362,-4.231,-0.455,0.577,-46.541,-8.841,-0.185,1.441,2.97,-35.12,-5.83,1.779,4.001,3.806],[-71.404,-21.996,-11.258,-5.449,-2.759,-70.473,-21.643,-8.855,-6.161,-2.559,-76.151,-20.13,-12.234,-5.19,-1.468,-68.243,-21.212,-10.109,-2.925,-1.324,-66.728,-20.071,-9.426,-2.705,-0.209,-63.794,-25.272,-8.455,-0.857,1.472],[-84.936,-31.936,-15.858,-10.2,-5.701,-86.433,-30.857,-15.456,-8.063,-4.878,-83.022,-31.125,-17.521,-7.661,-4.822,-81.035,-35.359,-16.644,-9.403,-3.718,-79.47,-31.238,-13.239,-9.424,-4.571,-81.644,-34.256,-15.105,-8.349,-2.791],[-91.091,-42.807,-20.768,-15.998,-10.063,-87.529,-46.267,-21.141,-14.673,-8.974,-88.9,-45.616,-24.422,-14.803,-9.146,-86.457,-46.697,-24.425,-14.424,-8.363,-85.527,-39.244,-24.196,-11.722,-9.52,-84.119,-45.869,-25.603,-11.595,-6.633]],
"ve": [[2.67,3.214,3.73,7.347,16.569,2.364,3.142,5.591,6.832,10.201,2.042,2.614,3.437,7.935,8.937,6.268,3.737,2.858,2.326,9.018,9.431,4.924,3.989,6.476,4.457,18.05,7.713,5.256,4.675,1.905],[-6.7,-1.101,0.263,1.104,1.256,-9.697,-0.663,0.27,0.991,0.962,-3.638,-1.491,0.073,1.232,1.164,-5.311,1.297,1.479,2.01,1.9,0.662,2.48,2.136,2.598,2.477,10.922,7.508,6.448,3.979,3.967],[-27.963,-3.747,-1.469,-0.62,-0.191,-30.681,-3.602,-1.469,-0.407,-0.093,-24.804,-3.408,-0.55,-0.654,0.584,-26.079,-1.682,-0.701,0.473,0.73,-16.008,0.503,1.86,1.826,1.938,-2.016,4.355,5.47,3.806,2.885],[-42.286,-9.327,-4.238,-1.709,-1.141,-43.737,-8.926,-2.915,-2.057,-0.761,-46.383,-8.925,-4.237,-1.645,-0.28,-36.179,-6.784,-2.705,-0.424,0.048,-29.467,-4.495,-1.027,0.718,0.659,-18.728,-3.354,0.818,2.541,2.511],[-53.917,-14.049,-5.542,-3.73,-1.778,-59.59,-14.234,-5.539,-2.491,-1.359,-53.201,-13.216,-6.591,-2.448,-1.874,-48.944,-14.465,-5.196,-2.265,-0.703,-39.515,-9.644,-1.918,-1.713,-0.563,-37.063,-7.341,-1.325,0.193,1.441],[-63.467,-20.332,-8.105,-5.771,-3.659,-58.637,-22.904,-8.077,-5.492,-3.127,-62.724,-22.279,-9.604,-5.465,-3.239,-48.477,-20.216,-8.635,-4.602,-2.661,-49.217,-15.017,-7.886,-2.771,-2.198,-37.58,-15.453,-5.561,-0.626,0.543]],
"kep": [[-7.731,-5.689,-5.78,-7.524,-14.893,-7.711,-5.644,-7.048,-5.943,-8.445,-8.816,-7.246,-4.83,-8.693,-6.344,-5.292,-5.697,-0.739,0.644,-5.777,-2.959,-2.763,1.104,-3.061,-0.129,-0.669,3.673,4.631,4.002,7.805],[-19.703,-9.881,-8.264,-8.649,-6.496,-23.342,-9.386,-6.095,-7.77,-6.711,-18.54,-9.777,-7.192,-6.099,-6.165,-23.63,-10.42,-6.938,-6.122,-5.453,-21.77,-9.783,-5.557,-5.31,-4.599,-23.167,-9.645,-6.244,-4.089,-4.045],[-45.681,-14.588,-10.583,-8.298,-8.278,-43.734,-14.196,-11.291,-7.654,-7.394,-42.213,-13.795,-8.774,-8.939,-7.096,-43.68,-15.49,-10.823,-8.283,-7.545,-44.946,-16.627,-9.482,-7.811,-6.476,-43.801,-17.253,-10.847,-7.295,-6.577],[-62.258,-21.876,-14.376,-11.003,-8.956,-60.143,-21.666,-13.283,-11.39,-9.118,-65.484,-20.15,-15.431,-10.843,-8.534,-59.27,-23.332,-14.694,-9.836,-8.709,-60.669,-23.36,-15.527,-10.61,-8.253,-62.297,-29.736,-16.211,-10.578,-8.385],[-74.033,-28.518,-18.16,-13.758,-11.158,-77.569,-27.444,-17.489,-12.912,-10.81,-73.044,-28.409,-18.682,-12.521,-10.224,-72.005,-31.931,-19.047,-14.301,-10.292,-72.45,-31.632,-18.728,-14.897,-11.226,-76.113,-35.675,-20.945,-15.44,-11.349],[-82.307,-35.754,-20.874,-17.666,-13.656,-78.519,-38.042,-21.293,-16.602,-13.079,-80.198,-37.707,-23.254,-16.797,-13.139,-78.694,-39.892,-24.171,-17.275,-12.953,-78.52,-37.001,-24.414,-16.27,-14.452,-78.701,-43.113,-27.882,-17.937,-14.199]],
"vp": [[-64.273,-233.15,-118.629,-61.117,38.764,-9.632,-15.866,-11.433,-56.274,-34.868,1.047,7.477,-16.681,-13.922,-22.295,-3.138,0.935,-4.104,-3.406,-2.856,-2.17,-0.525,-2.879,-1.279,-1.056,-2.032,-1.461,-1.158,-0.536,-0.572],[677.804,197.981,41.093,64.842,-205.078,205.01,34.363,-16.556,-3.807,-0.171,44.559,30.856,7.739,-27.946,-6.234,21.194,2.98,-1.816,-4.521,-5.503,6.13,1.961,-0.722,-2.818,-3.054,1.126,-0.56,-1.872,-0.793,-1.702],[3048.57,711.22,363.116,102.469,131.616,592.467,142.357,91.502,12.372,24.141,270.071,68.582,7.344,35.509,-13.922,61.469,11.35,10.792,2.734,1.3,24.777,5.439,0.312,-1.181,-1.687,8.129,2.078,-1.826,-1.061,-0.448],[4640.175,1954.657,1223.762,557.718,456.339,899.983,341.549,162.347,137.35,67.603,541.28,186.16,129.259,67.348,1.839,84.7,34.608,22.018,8.125,3.098,39.608,14.988,9.182,3.149,1.642,17.249,10.385,5.26,0.82,-0.591],[6038.085,2968.52,1623.731,1379.259,727.859,1294.88,595.165,329.026,169.965,109.805,590.009,277.129,199.278,83.625,77.112,114.074,67.442,37.187,22.061,8.605,50.693,26.225,11.427,12.022,7.698,27.768,14.539,8.01,5.359,2.476],[7006.607,4319.87,2376.275,2233.092,1762.026,1295.274,974.337,461.449,412.878,288.803,684.318,467.979,306.63,209.246,150.826,124.251,92.421,58.216,41.173,27.986,61.781,37.362,29.599,15.794,16.072,28.021,22.808,15.228,7.083,4.336]]
}