{
"KTrans": [[5.95,20.391,25.241,12.824,18.402,26.879,22.327,17.709,17.948,21.157,26.379,17.425,26.13,21.441,19.985,59.477,28.932,32.414,37.847,36.535,75.076,70.908,62.273,50.709,54.697,23.513,117.03,98.929,102.765,102.459],[-47.018,-7.21,1.042,6.438,11.307,-46.117,-2.785,0.466,10.327,9.046,-45.754,-2.87,6.569,7.464,12.248,-41.147,0.065,12.851,11.572,14.624,-16.099,15.073,16.663,23.331,25.724,19.677,26.484,44.641,44.743,42.675],[-75.557,-31.041,-12.885,-2.16,-0.351,-75.766,-30.667,-12.2,-7.303,2.625,-67.247,-31.774,-14.854,-2.668,1.44,-61.807,-19.117,-5.765,3.898,6.022,-48.019,-22.392,5.019,7.206,7.199,-58.098,-1.189,22.81,17.891,25.088],[-85.233,-47.31,-27.164,-13.123,-8.706,-84.888,-44.765,-28.918,-21.733,-7.063,-85.093,-49.524,-30.688,-17.129,-11.359,-77.339,-50.441,-27.24,-12.713,-3.503,-73.753,-41.078,-26.123,-11.828,-2.972,-68.14,-33.584,-17.583,6.677,7.102],[-88.062,-62.451,-44.03,-28.035,-16.664,-91.803,-60.345,-39.606,-24.994,-18.019,-87.124,-62.834,-41.345,-31.451,-17.106,-81.857,-60.78,-41.721,-22.852,-12.577,-76.389,-50.729,-31.816,-27.61,-12.312,-79.612,-45.351,-18.88,-13.553,-1.978],[-90.847,-71.834,-49.58,-35.934,-30.756,-90.682,-70.081,-50.955,-40.336,-25.996,-90.465,-72.624,-52.458,-40.836,-31.165,-85.634,-65.359,-50.701,-35.904,-26.669,-82.623,-60.525,-49.492,-32.708,-24.131,-80.566,-56.812,-37.594,-30.633,-13.467]],
"ve": [[-7.684,409.59,487.784,0.493,-90.961,17.696,18.188,656.617,-39.145,275.826,7.178,-28.001,83.671,20.186,13.59,350.734,9.042,-18.35,36.052,-55.757,42.193,41.317,-17.887,90.303,-73.531,78.986,30.728,-10.79,-12.544,-31.235],[-337.368,-0.235,4.477,5.925,8.279,-22.978,0.216,4.012,5.368,11.381,47.73,8.628,3.914,5.634,7.339,-6.865,8.759,7.684,9.992,12.809,38.82,21.209,15.409,18.206,2.041,83.832,6.738,39.194,12.145,-45.079],[-33.002,-9.271,-4.163,-2.686,1.8,-32.207,-9.108,-4.295,-0.96,1.122,-33.001,-3.502,-4.734,-1.141,0.985,-11.381,-0.218,1.127,3.129,4.62,4.454,-1.058,41.252,8.902,7.945,58.831,31.157,38.363,29.6,21.061],[-43.784,-17.726,-9.046,-5.19,-3.005,-41.482,-14.564,-9.628,-6.639,-2.275,-47.369,-25.865,-10.093,-6.176,-3.07,-27.303,-13.38,-4.899,-2.467,0.467,-0.119,-1.736,-1.028,1.807,5.878,66.756,14.705,-7.968,17.399,14.366],[-55.2,-22.365,-16.952,-10.662,-5.92,-67.336,-19.258,-14.376,-9.212,-7.025,-82.527,-24.142,-14.509,-8.775,-5.602,-7.381,-22.064,-10.763,-4.841,-3.018,9.147,-4.749,2.03,-4.562,2.196,38.418,23.067,19.06,4.991,11.469],[24.431,-30.85,-18.03,-14.739,-11.149,-59.352,-18.237,-19.422,-14.925,-9.919,-53.628,-6.79,-18.303,-15.75,-9.97,-14.045,-8.036,-17.061,-11.638,-7.023,6.356,-12.517,-24.258,-5.279,-2.679,35.526,2.659,9.777,1.2,8.097]],
"kep": [[-38.605,-25.001,-26.006,-51.388,-48.051,-20.147,-21.665,-31.057,-41.819,-41.445,-24.136,-28.857,-24.733,-37.483,-43.304,-20.909,-29.356,-29.425,-25.794,-29.115,-35.799,-19.039,-14.301,-28.466,-15.963,-21.943,-33.784,-28.376,-18.425,-8.371],[-61.547,-35.769,-33.3,-30.18,-28.093,-63.244,-33.334,-33.311,-27.553,-31.326,-65.086,-34.169,-29.024,-29.026,-27.437,-68.837,-36.888,-27.783,-29.835,-29.006,-66.583,-39.443,-33.337,-26.973,-26.636,-57.652,-52.554,-29.606,-26.635,-24.24],[-81.077,-48.846,-38.081,-31.096,-32.755,-80.978,-48.572,-37.358,-35.744,-30.288,-77.738,-49.922,-38.944,-32.558,-31.022,-78.927,-47.457,-37.138,-31.254,-30.587,-76.538,-56.658,-37.033,-33.082,-32.278,-81.943,-60.833,-40.781,-35.957,-31.069],[-88.432,-56.496,-45.717,-37.495,-35.571,-88.407,-56.802,-46.516,-42.687,-34.765,-88.663,-60.005,-47.444,-39.502,-37.342,-89.523,-63.909,-48.913,-39.218,-34.377,-86.388,-66.736,-51.821,-42.046,-37.66,-81.668,-72.438,-58.309,-40.974,-37.302],[-91.477,-67.621,-54.433,-45.088,-39.375,-93.78,-66.385,-52.417,-43.646,-39.653,-90.526,-68.741,-53.915,-48.577,-39.857,-89.001,-70.937,-56.961,-44.963,-38.563,-86.264,-71.725,-56.117,-49.915,-42.055,-88.668,-74.957,-56.819,-51.638,-42.078],[-93.052,-74.448,-58.729,-49.088,-46.862,-93.151,-72.463,-59.103,-52.346,-43.87,-93.175,-74.66,-60.879,-52.397,-47.84,-91.203,-73.492,-60.898,-50.835,-46.545,-90.111,-75.915,-65.023,-52.6,-47.605,-88.818,-77.56,-67.075,-59.351,-47.938]],
"vp": [[335.115,-933.507,-678.045,-665.252,-1041.949,-119.317,-105.578,-40.82,-9.028,-161.633,-56.641,-2.544,-72.033,-42.322,-47.186,-35.511,-8.443,-15.663,-34.87,-27.828,-22.207,-27.39,-17.513,-2.311,-18.911,-20.913,-16.754,-3.938,-14.244,-12.686],[2690.333,590.212,139.713,-112.857,-690.945,620.573,42.824,32.205,-171.823,-155.28,297.788,40.962,-33.271,-58.925,-66.603,73.672,-3.796,-16.58,-14.052,-8.683,-10.774,-12.452,-6.414,-15.744,-30.803,-24.962,-12.427,-15.518,-18.16,-11.274],[5065.343,2459.933,736.409,178.75,-99.758,1075.517,599.701,301.215,186.736,-12.799,426.668,343.596,153.22,28.8,64.853,64.968,38.521,16.941,-4.493,-21.794,12.787,30.037,-12.482,-11.418,7.487,-7.814,-17.386,-26.394,1.984,-14.67],[7181.951,4758.471,2981.732,1287.189,1197.151,1211.496,777.157,737.315,657.786,130.852,664.591,465.382,416.065,271.296,188.445,121.549,113.055,72.426,38.16,4.578,43.7,36.198,32.416,28.504,9.759,-3.218,11.076,4.795,-21.444,-1.421],[6611.855,6429.993,6328.842,4264.46,2780.563,1607.049,1217.227,989.828,784.668,598.664,672.813,706.663,616.402,455.404,291.431,111.71,136.11,121.238,63.466,42.795,30.37,37.264,23.023,59.234,15.351,9.649,1.241,-12.727,13.677,-2.154],[6616.529,8285.133,6549.157,6848.057,5995.868,1652.704,1682.116,1479.001,1405.586,1081.432,727.59,920.145,733.526,776.537,578.044,97.053,149.004,167.986,133.611,113.137,29.087,49.301,72.67,53.484,42.121,15.834,-3.43,4.102,43.743,-2.308]]
}