{
"KTrans": [[-20.085,-11.73,-3.135,-6.906,-3.515,-8.035,-4.152,-4.1,2.286,-5.503,-28.449,-8.272,-8.357,-0.377,-6.999,-20.084,-13.296,-7.176,-3.912,-1.52,-16.75,-13.413,-6.58,-4.305,-3.46,-26.625,-8.734,-8.088,-1.122,-0.638],[-79.134,-30.336,-19.57,-16.812,-11.325,-78.901,-33.062,-15.012,-14.38,-15.808,-81.476,-29.906,-20.425,-9.185,-4.877,-78.388,-27.527,-17.698,-17.608,-14.402,-74.269,-25.932,-19.929,-14.021,-6.454,-83.671,-35.333,-19.128,-11.745,-13.879],[-96.077,-63.545,-27.295,-20.356,-19.217,-87.743,-64.596,-26.823,-23.989,-17.565,-95.624,-59.579,-32.365,-25.299,-19.903,-85.674,-68.193,-31.946,-24.533,-16.148,-93.352,-61.189,-29.24,-25.695,-20.692,-88.917,-61.816,-31.501,-23.235,-14.063],[-99.202,-70.086,-45.937,-34.633,-24.545,-101.99,-76.331,-56.493,-23.624,-28.801,-97.435,-73.564,-52.716,-28.838,-23.454,-98.374,-76.828,-47.955,-25.826,-20.708,-92.446,-69.992,-40.29,-23.941,-24.878,-98.016,-70.48,-45.607,-23.036,-25.558],[-100.73,-76.108,-63.32,-37.957,-34.451,-95.99,-93.202,-54.141,-50.861,-23.337,-102.071,-76.021,-69.398,-42.863,-32.438,-98.723,-82.333,-72.207,-32.237,-33.94,-102.212,-83.363,-71.368,-42.643,-30.939,-100.151,-79.141,-67.043,-42.176,-34.92],[-101.482,-89.417,-75.66,-50.9,-25.758,-100.857,-85.032,-69.449,-59.235,-37.565,-103.184,-91.56,-73.961,-56.313,-35.577,-104.248,-93.153,-68.565,-51.832,-41.668,-104.244,-89.642,-66.083,-42.757,-31.422,-102.264,-86.838,-77.879,-54.69,-39.697]],
"ve": [[-11.405,16.744,24.374,23.769,137.664,-9.452,4.328,20.221,13.763,-68.889,-15.251,2.361,12.04,18.515,368.097,-10.204,2.737,16.852,15.732,24.144,-12.671,2.648,16.679,41.169,2.553,-20.394,2.57,45.353,26.173,37.207],[-66.723,-25.004,-13.886,-9.062,-5.942,-67.557,-26.158,-12.567,-9.545,-5.809,-63.014,-20.195,-14.509,-8.251,-5.395,-57.834,-26.755,-13.727,-8.903,-4.655,-53.997,-23.771,-14.355,-9.304,-4.674,-61.452,-24.963,-12.604,-8.309,-5.22],[-94.183,-49.685,-26.687,-19.905,-14.444,-60.932,-52.637,-25.057,-19.068,-14.125,-86.236,-46.818,-28.622,-18.955,-15.754,-62.371,-55.346,-27.964,-19.67,-14.415,-86.711,-49.776,-28.619,-21.372,-14.548,-84.021,-41.924,-26.891,-16.437,-13.741],[-94.185,-60.197,-44.531,-27.532,-20.701,-104.849,-75.088,-44.625,-26.027,-20.433,-90.724,-78.522,-48.376,-26.358,-21.386,-101.858,-70.016,-40.982,-27.076,-20.042,-91.649,-56.866,-40.148,-26.122,-22.104,-104.165,-62.939,-43.937,-29.905,-21.595],[-231.801,-81.491,-55.26,-38.789,-30.03,-100.946,-85.256,-51.379,-44.618,-27.397,-102.583,-70.073,-60.234,-38.905,-30.016,-98.374,-74.175,-52.769,-34.679,-30.047,-94.724,-76.262,-60.291,-40.216,-28.894,-108.333,-77.015,-60.102,-39.459,-33.991],[-118.951,-81.882,-71.837,-52.86,-32.034,-105.735,-82.323,-65.363,-53.833,-35.53,-109.621,-86.562,-69.952,-54.791,-35.759,-123.333,-85.585,-72.841,-52.122,-36.402,-108.566,-83.651,-20.532,-48.177,-33.002,-111.227,-87.319,-73.673,-50.281,-35.103]],
"kep": [[-14.895,-9.504,-4.209,-11.073,-12.111,-7.22,-1.987,-6.233,0.158,-10.557,-20.526,-6.903,-10.739,-3.246,-14.521,-11.878,-12.085,-9.553,-8.946,-6.373,-5.858,-11.289,-9.557,-9.901,-8.667,-18.341,-6.798,-12.294,-4.618,-7.804],[-81.049,-7.503,-6.899,-8.662,-5.867,-79.356,-8.796,-3.161,-5.269,-10.479,-82.34,-14.913,-7.294,-0.725,0.476,-80.847,-2.985,-5.428,-9.57,-9.994,-76.761,-3.999,-6.198,-5.307,-1.501,-81.995,-12.472,-7.604,-3.737,-8.848],[-86.846,-50.715,-4.098,-0.608,-5.835,-79.673,-50.9,-3.311,-5.641,-4.06,-87.85,-48.575,-5.94,-7.718,-5.368,-79.656,-52.142,-4.065,-5.709,-2.172,-88.221,-44.561,-0.922,-5.295,-7.003,-85.104,-49.857,-6.855,-8.674,-0.613],[-87.668,-71.006,-11.358,-8.006,-5.109,-86.543,-76.627,-22.513,1.939,-10.323,-84.236,-81.641,-20.183,-3.267,-2.582,-86.795,-81.931,-20.335,1.507,-1.244,-85.672,-74.426,-15.505,1.739,-3.245,-85.324,-73.721,-19.986,7.737,-4.071],[-88.181,-73.344,-61.871,-3.418,-5.428,-85.31,-81.168,-52.856,-10.078,1.753,-84.955,-73.467,-67.673,-8.357,-2.682,-90.037,-75.102,-65.633,-2.423,-4.924,-87.142,-76.869,-65.419,-4.802,-2.338,-85.838,-70.542,-61.283,-8.488,-0.39],[-90.982,-72.71,-75.355,-41.27,2.004,-89.442,-71.368,-66.597,-34.064,-3.451,-88.512,-79.695,-73.754,-40.332,0.618,-90.338,-74.432,-78.704,-40.756,-6.113,-89.827,-75.961,-72.031,-31.332,1.644,-91.067,-71.193,-75.27,-37.733,-4.163]],
"vp": [[2024.237,2045.796,1348.802,1697.432,2159.761,332.469,324.542,409.299,361.293,342.269,232.686,169.836,131.629,213.08,163.588,35.309,40.087,33.633,37.226,32.377,21.72,18.185,21.066,19.172,17.497,10.626,9.558,9.348,9.208,9.327],[6950.583,5870.196,5096.841,5560.042,5280.7,1326.548,1159.718,1003.179,1155.229,1114.983,689.692,446.828,546.35,552.417,558.348,124.388,127.23,107.234,94.111,80.353,57.225,58.62,55.332,47.968,41.253,34.711,26.073,23.267,27.476,26.807],[9436.333,11009.512,9291.08,9900.105,8407.376,1418.606,2265.728,1694.485,1616.556,1788.23,974.37,1003.19,914.771,824.377,1007.15,141.324,222.653,184.991,191.635,194.78,92.434,105.828,100.569,98.307,88.502,43.238,50.55,43.587,33.014,47.333],[9910.117,12866.385,14517.323,11261.868,11084.979,2237.488,2966.891,2815.915,2320.341,2074.439,992.76,1460.421,1589.521,1061.436,1156.032,206.157,290.707,259.352,244.016,227.982,87.762,125.989,125.782,113.332,129.114,50.498,63.853,72.469,69.581,56.667],[11034.009,16949.8,17757.021,16829.718,15721.346,1977.617,3269.539,3232.736,3797.619,2959.34,1015.929,1383.755,1853.504,1642.207,1616.046,190.782,308.883,385.335,297.202,322.338,112.49,145.941,188.765,175.893,157.861,52.814,74.152,91.744,84.235,93.83],[10706.296,15960.92,22157.335,22590.409,17784.841,2041.647,3214.706,3974.471,4661.049,3731.731,1084.233,1663.76,2201.435,2294.756,1889.639,240.943,359.22,458.299,429.717,372.75,116.266,172.769,210.418,203.518,173.153,56.492,89.172,111.434,98.601,90.722]]
}