{
"KTrans": [[2.38,1.296,0.246,0.74,0.301,-0.009,1.508,1.761,0.654,1.084,-0.325,0.933,-0.684,0.037,-0.675,-0.284,-0.772,0.357,1.39,1.017,-2.267,0.086,0.313,1.207,0.693,0.815,1.445,2.074,0.562,0.394],[-11.082,-0.469,0.873,-0.354,0.183,-14.218,-0.179,0.078,0.03,0.733,-11.916,-2.343,0.273,-0.297,0.009,-10.691,-0.606,0.059,-0.318,-0.444,-9.943,-0.402,-0.392,-0.253,0.582,-10.175,1.195,0.847,-0.138,0.898],[-27.474,-1.315,-0.411,0.497,-0.525,-28.987,-0.845,0.117,-0.339,-0.293,-30.232,-2.642,-1.245,0.589,0.596,-24.319,-1.522,-0.761,-0.165,0.192,-33.017,-0.647,0.301,0.311,0.179,-30.099,-1.605,-0.112,1.461,-0.202],[-48.14,-4.315,-0.207,-0.887,0.312,-44.455,-2.693,-0.618,-0.529,0.429,-47.646,-2.877,-0.678,-0.666,-0.37,-47.331,-1.77,-1.1,0.378,0.55,-47.942,-3.314,-0.616,-0.605,-0.176,-48.494,-6.847,-0.867,-1.031,0.524],[-60.014,-9.251,-0.766,-0.427,0.275,-62.317,-7.906,-1.771,0.979,-0.077,-62.069,-4.533,0.002,0.484,0.699,-63.922,-7.442,-0.517,-1.238,0.249,-59.699,-6.024,-1.534,-0.049,-0.124,-64.648,-7.698,-0.66,0.026,0.471],[-70.563,-10.995,-1.408,-0.946,-0.197,-70.762,-13.569,-1.463,-0.876,-0.245,-72.28,-12.86,-3.317,-0.272,-0.477,-71.204,-11.331,-0.493,0.149,-0.125,-70.527,-12.043,-2.155,0.013,0.291,-70.48,-14.08,-1.713,-0.694,-0.096]],
"ve": [[0.578,-0.42,1.328,2.104,3.552,1.083,0.348,1.162,1.244,1.391,1.41,0.624,1.816,1.392,5.725,2.469,0.937,1.492,0.072,2.898,0.745,2.712,2.373,2.004,2.31,1.73,0.265,1.194,2.327,4.305],[-2.671,0.03,0.417,0.103,0.193,-4.697,-0.108,0.108,0.065,0.06,-4.144,0.235,0.116,-0.185,0.158,-3.513,0.39,-0.281,-0.244,-0,-2.927,0.054,-0.059,0.182,-0.079,-1.844,0.121,0.337,0.133,0.065],[-10.038,-0.357,0.209,-0.183,-0.038,-12.231,-0.555,-0.117,-0.066,0.226,-9.527,-0.486,-0.002,-0.116,-0.067,-9.1,-0.376,-0.175,0.024,0.121,-10.553,-0.35,-0.131,-0.28,-0.199,-10.896,-0.525,0.016,0.358,0.439],[-18.874,-1.363,-0.076,-0.396,0.038,-18.445,-1.265,-0.385,-0.438,0.124,-18.76,-1.372,-0.278,-0.407,-0.206,-17.565,-1.919,-0.001,-0.137,0.14,-18.546,-1.67,-0.329,-0.271,0.106,-19.07,-1.232,-0.527,-0.382,-0.081],[-25.848,-2.847,-0.745,-0.62,0.051,2512.526,-2.863,-0.61,-0.258,-0.199,-27.12,-2.292,-0.325,-0.118,0.108,-27.734,-2.488,0.006,-0.109,-0.027,-24.71,-2.765,-0.245,-0.02,0.166,-27.696,-2.441,-0.57,-0.163,0.036],[-32.991,-4.052,-0.769,-0.091,-0.227,-33.845,-4.454,-0.352,-0.322,0.035,-31.922,-4.584,-1.112,-0.183,-0.125,-36.387,-4.242,-0.463,-0.291,0.027,-33.819,-3.407,-0.53,-0.442,-0.063,-33.198,-4.822,-0.623,-0.423,-0.07]],
"kep": [[2.195,2.372,0.373,0.64,-1.116,-0.917,1.754,1.771,1.578,2.613,-1.464,1.078,-1.257,0.657,-2.721,-2.088,-0.867,0.223,3.068,1.158,-3.003,-1.633,-0.865,1.047,0.868,-0.74,1.994,2.413,0.853,-0.992],[-8.652,-0.51,0.483,-0.4,0.041,-9.976,-0.075,0.001,0.03,0.747,-8,-2.507,0.225,-0.07,-0.06,-7.396,-0.954,0.379,-0.029,-0.382,-7.227,-0.391,-0.281,-0.355,0.769,-8.384,1.133,0.581,-0.215,0.908],[-19.772,-0.933,-0.603,0.695,-0.469,-20.4,-0.301,0.264,-0.25,-0.498,-23.188,-2.173,-1.254,0.714,0.687,-17.082,-1.199,-0.574,-0.177,0.1,-25.246,-0.291,0.457,0.611,0.399,-22.231,-1.05,-0.118,1.11,-0.622],[-37.869,-3.007,-0.133,-0.486,0.284,-33.589,-1.446,-0.237,-0.082,0.325,-36.931,-1.543,-0.395,-0.252,-0.148,-37.039,0.171,-1.12,0.535,0.419,-37.565,-1.68,-0.313,-0.329,-0.274,-37.196,-5.663,-0.309,-0.629,0.616],[-47.706,-6.577,-0.021,0.199,0.216,-50.863,-5.208,-1.154,1.243,0.124,-50.656,-2.315,0.36,0.599,0.587,-52.222,-5.012,-0.542,-1.113,0.278,-48.799,-3.404,-1.329,-0.023,-0.288,-53.471,-5.477,-0.107,0.21,0.445],[-58.487,-7.234,-0.633,-0.831,0.026,-58.345,-9.608,-1.171,-0.546,-0.277,-61.098,-8.689,-2.198,-0.098,-0.347,-59.37,-7.473,-0.043,0.437,-0.155,-58.429,-9.028,-1.644,0.465,0.362,-58.033,-9.783,-1.072,-0.281,-0.031]],
"vp": [[16.174,-27.969,17.266,-12.032,-84.353,-10.204,-5.732,-11.703,7.903,0.788,-3.12,-1.951,2.618,3.286,-0.481,-0.945,0.136,0.345,-0.231,-1.336,0.688,0.415,-0.417,-0.264,-1.274,-0.066,-0.048,-0.501,-0.16,-0.381],[412.756,30.881,-50.897,35.025,-73.368,98.223,11.449,9.201,19.828,-19.407,43.839,9,-2.496,8.307,-1.364,6.73,-0.779,1.343,1.411,1.624,4.32,0.947,0.176,0.57,-0.822,1.595,-0.355,-0.121,-0.04,-0.114],[1068.102,37.321,44.591,0.69,8.511,276.27,23.63,8.266,7.015,-6.917,110.347,11.212,3.183,4.137,-1.125,18.238,2.22,-0.329,-0.09,-0.354,12.087,0.83,0.78,-0.13,0.295,6.039,0.683,0.455,-0.405,-0.453],[2032.855,323.962,55.788,171.648,18.828,396.271,69.212,30.423,16.45,1.97,207.777,35.646,7.189,9.965,9.282,40.255,7.707,1.42,0.205,-2.108,19.419,2.939,1.348,1.019,0.077,10.235,1.7,0.871,0.278,-0.379],[2700.294,633.704,236.305,165.686,-50.715,558.523,128.28,28.768,18.008,17.48,284.93,48.275,1.786,2.483,-5.335,57.159,10.523,0.581,0.739,-0.299,26.292,6.157,1.206,0.602,0.191,14.773,3.201,0.627,0.08,-0.077],[3452.988,780.727,176.345,112.524,77.542,715.368,186.075,4,23.671,9.488,356.622,87.521,32.359,12.992,4.812,69.752,18.02,4.48,0.744,0.466,36.109,8.208,1.916,1.134,-0.238,17.186,5.086,1.195,0.372,0.358]]
}