{
"KTrans": [[17.422,7.04,17.813,14.318,20.749,5.3,20.853,24.041,14.234,12.66,26.943,14.897,14.318,18.625,15.828,29.283,51.719,31.06,34.59,26.922,43.839,66.051,54.099,58.358,55.66,62.514,104.149,95.562,101.401,94.238],[-42.961,-3.656,-2.936,5.347,8.545,-38.467,-0.749,5.219,6.695,8.75,-48.198,1.405,1.924,5.915,10.734,-32.226,4.455,7.34,10.689,13.994,-12.728,14.975,17.781,26.817,18.282,-61.749,28.319,32.566,38.744,53.76],[-70.329,-29.021,-12.583,-5.813,3.208,-67.093,-26.605,-15.109,-3.771,2.294,-73.756,-26.901,-11.329,-4.036,-0.488,-64.235,-23.521,-11.182,-0.879,6.29,-62.865,-13.254,-4.721,4.14,11.5,-72.337,-16.881,18.834,13.228,29.29],[-83.152,-48.522,-23.958,-13.794,-6.943,-82.606,-43.435,-26.037,-14.717,-7.885,-82.263,-51.847,-26.81,-14.406,-6.007,-71.707,-41.481,-26.985,-14.12,-6.641,-73.43,-39.384,-20.479,-10.726,-4.172,-71.902,-18.852,-4.231,4.954,-1.785],[-90.288,-62.389,-35.178,-23.993,-18.032,-86.174,-60.232,-40.746,-25.157,-19.874,-90.243,-58.336,-40.493,-24.666,-16.536,-85.246,-61.266,-34.285,-25.406,-15.98,-80.479,-53.887,-32.183,-27.493,-10.058,-76.956,-50.127,-29.151,-11.833,-1.217],[-91.608,-71.347,-48.883,-35.735,-25.351,-89.382,-67.065,-49.71,-35.782,-26.092,-90.474,-70.705,-49.531,-34.969,-25.332,-86.549,-63.681,-40.218,-34.917,-25.71,-89.09,-64.637,-46.022,-33.78,-19.824,-88.933,-68.993,-35.225,-29.954,-21.343]],
"ve": [[9.534,53.772,-248.28,52.559,-7.051,9.348,1.448,57.993,-191.424,29.239,50.168,35.26,64.061,44.775,134.978,4.868,16.933,33.629,-32.132,-22.615,36.735,1.617,-15.013,10.604,8.456,69.538,41.513,-6.91,-19.519,-17.547],[-8.681,-0.493,1.984,4.005,6.026,-9.266,-2.209,1.589,3.581,7.49,-16.841,3.13,1.575,4.31,7.791,1.855,9.804,8.721,7.192,10.292,12.45,8.584,13.16,13.526,25.211,52.284,27.732,26.423,-97.04,22.504],[-33.74,-9.166,-3.447,-2.203,0.024,-12561.248,-7.117,-3.927,-0.863,0.503,-30.401,-7.218,-4.514,-0.224,0.968,-9.457,-1.892,-1.548,3.689,3.383,11.699,8.529,3.921,7.958,7.558,17.718,35.779,18.803,0.694,20.495],[-44.15,-17.131,-9.734,-5.704,-3.829,-36.565,-14.796,-8.175,-4.343,-2.743,-55.373,-22.06,-8.03,-3.296,-2.345,-13.93,-10.476,-6.952,-2.978,-0.737,-0.799,-34.604,0.696,1.956,1.255,17.86,30.795,16.785,10.877,4.366],[-52.262,-23.938,-13.201,-9.074,-6.571,-36.217,-21.803,-14.972,-9.455,-6.726,-68.389,-23.846,-14.368,-7.903,-4.865,-33.878,-22.568,-7.273,-6.017,-4.402,-0.005,-16.655,-3.405,-5.887,0.033,27.937,18.483,0.342,-1.605,4.039],[-53.586,-31.924,-17.947,-13.19,-8.382,-28.296,-27.219,-17.707,-13.745,-8.908,-53.773,-29.212,-20.367,-12.129,-9.047,-29.547,-23.428,-9.721,-13.702,-7.236,-10.257,-19.393,-8.726,-6.388,-2.366,26.867,-205.841,12.109,-0.031,5.415]],
"kep": [[-21.05,-29.294,-23.57,-33.11,-29.462,-31.779,-20.779,-18.082,-32.169,-41.832,-17.742,-22.396,-27.8,-25.984,-35.509,-29.995,-1.422,-17.482,-14.649,-25.441,-31.78,-16.145,-14.65,0.939,1.94,-23.222,-36.438,-32.858,-12.689,-4.74],[-53.613,-29.092,-29.753,-24.893,-24.054,-53.837,-25.93,-23.596,-23.794,-24.295,-58.435,-28.33,-25.836,-24.648,-22.978,-60.435,-31.274,-27.494,-23.77,-23.381,-55.336,-34.735,-25.715,-17.748,-22.81,-61.606,-53.083,-36.01,-26.042,-8.392],[-77.186,-43.434,-33.639,-29.22,-24.067,-73.872,-42.804,-35.351,-28.891,-25,-79.773,-42.675,-32.067,-29.259,-27.377,-78.77,-45.28,-34.527,-29.892,-24.536,-75.651,-48.057,-36.811,-29.772,-24.783,-74.654,-65.464,-35.228,-34.484,-22.525],[-85.949,-55.589,-38.509,-32.999,-28.904,-85.202,-52.12,-41.199,-34.56,-30.414,-84.857,-56.341,-41.889,-35.154,-29.243,-82.811,-56.314,-44.064,-35.419,-31.192,-81.04,-61.864,-45.496,-37.645,-32.007,-80.337,-59.171,-51.595,-38.018,-36.865],[-90.452,-64.857,-46.241,-38.919,-35.548,-88.757,-63.019,-49.561,-39.554,-37.021,-92.633,-61.892,-49.81,-40.24,-35.652,-90.406,-69.065,-49.192,-42.395,-35.831,-89.361,-70.974,-52.677,-45.414,-35.235,-86.064,-72.08,-62.649,-46.039,-37.479],[-91.636,-70.671,-55.547,-46.023,-40.309,-90.527,-68.973,-55.983,-45.746,-40.642,-91.533,-71.195,-54.407,-46.01,-39.852,-90.423,-71.7,-52.998,-46.143,-41.838,-88.974,-76.012,-61.337,-50.177,-40.541,-88.243,-80.784,-63.279,-58.891,-49.164]],
"vp": [[-271.298,82.244,-686.871,-299.227,-892.532,28.615,-95.856,-167.386,-79.929,-112.715,-47.419,-7.159,-1.9,-65.71,-42.344,-12.827,-34.505,-21.38,-18.609,-15.171,-20.377,-24.35,-16.041,-23.059,-23.64,-14.288,-18.938,-9.476,-15.014,-14.546],[2356.514,140.783,377.785,-436.717,-648.073,519.241,44.334,-64.895,-73.393,-169.148,324.389,-48.918,-22.888,-2.036,-93.168,29.443,-28.495,4.08,-1.969,-19.358,6.733,-6.494,-0.922,-26.387,-4.892,-1.12,-8.651,-3.334,-9.925,-38.1],[4291.308,2228.862,952.876,934.962,-376.925,890.758,416.595,385.307,158.277,-34.773,466.974,219.879,151.635,54.016,-2.23,87.431,36.306,36.604,-6.536,-8.482,30.006,0.377,2.893,1.733,-15.242,21.128,-19.931,-10.609,0.471,-31.386],[5876.507,4715.337,2918.518,2040.014,1214.138,1194.062,788.667,616.281,375.469,270.336,527.048,648.707,281.71,131.378,86.396,73.837,88.353,80.259,52.094,38.476,41.302,46.281,26.71,26.078,25.174,22.146,-21.514,-14.669,-11.188,20.757],[7322.929,6857.125,4444.974,3540.937,3027.997,1126.301,1181.886,1029.754,813.046,746.355,692.994,624.544,524.033,359.631,234.55,128.959,159.922,71.514,74.267,70.584,32.508,72.759,47.693,66.596,24.239,11.951,1.178,33.401,0.259,-3.977],[7259.578,8889.161,6485.653,5586.295,4050.349,1224.687,1489.735,1300.885,1245.357,916.948,721.833,847.187,776.29,562.781,461.133,107.13,147.662,90.752,154.592,96.994,53.146,78.777,59.988,66.866,33.661,15.374,16.32,-4.013,31.958,38.518]]
}