{
"KTrans": [[-21.894,-9.053,-7.488,-6.72,-4.534,-20.988,-13.567,-8.132,-4.96,-5.9,-22.608,-10.09,-8.658,-6.886,-5.776,-18.636,-12.268,-5.147,-8.272,-8.248,-14.681,-10.575,-6.767,-5.639,-2.455,-18.339,-6.346,-8.106,-3.556,-4.505],[-73.491,-25.975,-21.63,-15.328,-11.33,-58.904,-30.329,-18.496,-13.069,-11.193,-52.524,-25.565,-22.572,-16.124,-14.672,-64.072,-26.504,-18.822,-14.311,-13.317,-57.477,-34.036,-17.922,-12.222,-11.98,-62.611,-26.012,-20.201,-16.351,-9.897],[-94.362,-41.287,-34.186,-25.198,-17.948,-77.402,-34.65,-22.112,-20.072,-14.14,-84.524,-56.119,-30.69,-22.425,-23.247,-93.37,-0.755,-31.498,-18.74,-18.817,-86.191,-35.683,-22.53,-22.062,-20.001,-92.562,-48.205,-29.237,-26.529,-22.173],[-110.617,-71.419,-25.92,-27.235,-27.231,-107.18,-58.338,-28.801,-30.802,-29.346,-103.728,-67.248,-38.443,-29.258,-24.626,-104.555,-69.43,-39.593,-32.264,-26.876,-101.737,-32.038,-38.175,-27.363,-30.041,-103.903,-39.198,-43.85,-32.496,-19.746],[-111.602,-86.974,-27.769,-38.044,-21.874,-109.499,-87.968,77.399,-29.91,-34.107,-112.121,-57.941,54.812,-22.689,-38.478,-107.919,-80.937,49.702,-24.039,-29.866,-110.812,-68.974,-10.505,-40.908,-32.266,-111.711,-78.419,-58.053,-30.46,-29.978],[-106.513,-97.385,-70.011,9.897,-33.177,-116.472,-97.873,-77.08,38.438,-30.301,-108.773,-92.579,-63.042,-30.003,-35.988,-114.579,-98.51,-47.808,-44.252,-39.681,-110.254,-91.13,-67.337,3.726,-36.503,-114.188,-102.161,-71.879,12.415,-25.133]],
"ve": [[-14.338,-3.186,5.473,20.222,-38.358,-15.425,-3.497,6.764,12.558,43.012,-14.122,-3.15,4.179,18.238,39.578,-16.502,-3.255,3.474,22.785,78.407,-12.994,-2.459,4.4,13.145,24.611,-15.705,-2.096,5.638,15.692,37.991],[-72.21,-22.857,-16.077,-10.095,-5.643,-54.73,-23.536,-15.981,-9.559,-6.288,-66.608,-23.756,-15.319,-10.284,-6.322,-61.908,-25.021,-15.007,-10.109,-5.937,-59.139,-24.935,-14.644,-9.717,-6.32,-61.241,-25.089,-14.968,-9.946,-6.271],[-93.063,-50.71,-27.493,-20.353,-14.566,-85.109,-43.64,-23.326,-20.848,-14.073,-88.13,-47.846,-27.491,-18.786,-16.91,-88.511,-36.373,-27.418,-18.769,-14.498,-83.297,-45.842,-26.716,-19.333,-14.935,-87.525,-44.73,-27.917,-22.59,-16.14],[-119.697,-70.734,-36.814,-29.122,-24.439,-110.8,-64.811,-38.269,-28.684,-22.724,-111.303,-72.847,-38.256,-28.133,-24.965,-107.418,-70.422,-41.648,-30.319,-23.298,-105.649,-57.67,-37.492,-31.85,-24.623,-107.784,-53.652,-43.399,-31.324,-21.925],[-121.055,-81.883,-57.631,-42.203,-29.317,-119.523,-88.233,-46.211,-35.367,-33.884,-126.368,-72.811,-73.704,-32.447,-31.672,-114.957,-84.617,-51.618,-37.76,-29.174,-124.396,-74.564,-52.634,-41.817,-31.906,-124.836,-79.626,-67.031,-37.181,-32.659],[-115.381,-93.53,-78.03,-48.606,-35.632,-141.86,-95.926,-72.301,-49.544,-38.383,-122.611,-97.894,-70.73,-53.389,-37.828,-136.338,-98.681,-61.966,-61.949,-39.632,-125.085,-95.912,-83.768,-42.262,-36.805,-133.552,-100.676,-80.471,-51.635,-34.052]],
"kep": [[-9.613,-5.577,-8.529,-12.201,-11.783,-7.304,-9.611,-9.461,-8.269,-13.921,-10.359,-6.31,-10.012,-11.98,-13.014,-2.361,-8.562,-5.675,-13.488,-16.849,-2.511,-7.264,-7.493,-9.636,-8.776,-3.948,-3.651,-10.131,-8.239,-11.239],[-73.143,-3.856,-6.594,-6.117,-6.023,-53.719,-8.832,-3.577,-3.936,-5.258,-70.122,-2.632,-8.575,-6.729,-8.944,-71.332,-2.545,-4.646,-4.747,-7.847,-66.489,-11.301,-3.963,-3.248,-5.969,-65.383,-2.722,-6.448,-7.156,-3.914],[-72.316,-10.028,-8.323,-5.939,-4.376,-65.327,3.29,-1.239,0.625,-0.591,-67.136,-14.794,-2.676,-4.549,-7.707,-72.496,9.407,-4.024,-0.582,-5.519,-74.394,-9.71,3.261,-4.073,-6.338,-70.37,-14.358,-1.709,-4.892,-7.081],[-68.682,-62.591,5.975,1.475,-3.097,-73.524,-56.048,8.241,-2.148,-8.77,-71.854,-70.655,0.128,-2.474,-0.319,-70.207,-71.968,1.54,-1.455,-4.857,-72.883,-50.811,-1.496,5.603,-6.823,-70.122,-45.783,3.425,-1.568,0.879],[-74.803,-63.06,-51.071,8.26,7.518,-76.609,-66.148,-27.737,3.182,0.185,-76.282,-60.568,-61.274,9.078,-6.473,-74.997,-66.585,-44.652,14.342,-0.371,-75.621,-64.844,-39.166,2.823,0.456,-75.628,-62.833,-49.677,8.269,3.281],[-76.107,-63.714,-61.752,0.742,1.172,-79.19,-64.57,-63.288,-2.85,10.506,-80.118,-59.892,-57.012,-19.616,2.915,-78.388,-66.477,-55.103,-21.696,4.254,-79.708,-62.313,-65.935,10.062,2.36,-80.263,-63.982,-62.982,-8.081,8.33]],
"vp": [[1883.194,2098.649,2001.776,1984.383,2048.285,394.32,418.01,347.575,376.047,383.902,163.444,221.639,162.964,188.95,179.896,46.787,35.226,41.058,36.703,33.227,17.131,17.666,20.928,20.145,19.223,9.354,9.689,8.976,11.324,10.064],[7425.636,5112.764,5852.736,5603.411,5276.639,1148.39,953.979,1204.145,1151.206,1175.842,706.068,543.035,508.27,572.523,501.452,128.507,113.259,109.581,123.069,99.743,62.636,51.994,55.268,56.104,60.205,31.649,27.85,26.646,27.459,28.963],[9252.615,11102.637,8145.039,8975.355,8778.892,1710.564,1902.253,1436.005,2031.179,1823.897,911.241,982.1,884.999,845.609,972.578,173.84,160.264,178.568,180.077,173.79,86.188,96.93,92.682,89.41,87.295,42.986,45.386,46.168,52.256,48.086],[12199.368,14288.799,11593.976,12745.22,13651.857,2365.118,2716.551,2427.257,2453.448,2363.108,1132.39,1553.172,1184.636,1195.867,1502.569,214.897,284.14,264.472,263.665,258.407,108.484,116.702,113.93,147.9,131.324,54.434,54.554,68.91,67.507,62.591],[12102.468,16861.622,18408.4,18616.699,17067,2426.93,3627.725,2846.826,2890.748,3806.049,1280.303,1515.657,2309.466,1415.571,1608.761,231.36,354.79,327.972,342.32,321.039,126.508,149.231,168.28,177.874,178.287,63.467,82.888,101.011,81.028,92.887],[11542.695,19000.535,24375.361,20539.952,18487.116,2847.136,3862.669,4473.211,4231.275,4274.075,1256.086,2002.083,2187.155,2194.762,1969.002,279.738,405.636,383.644,524.204,425.177,126.078,195.735,231.323,176.877,193.787,68.227,101.232,126.124,107.295,91.379]]
}