{
"KTrans": [[3.841,5.031,-3.106,-4.412,-1.427,2.57,20.101,9.27,-0.872,12.818,13.686,17.379,12.173,5.6,15.105,-41.525,34.686,57.586,83.454,78.721,9.868,-0.419,9.186,71.889,96.999,89.71,-40.561,-189.294,10.94,64.562],[-30.672,-4.109,1.331,2.853,-3.016,-22.896,-9.74,2.52,7.254,3.019,-22.254,-4.446,4.206,7.667,6.78,-47.209,5.326,-22.101,14.881,29.947,-44.677,-26.074,-9.118,15.595,41.378,62.833,-93.911,1.41,-9.335,-9.063],[-40.794,-12.211,-2.75,-2.198,0.27,-34.315,-2.8,-4.527,-2.392,0.287,-31.829,1.392,2.814,-0.996,2.394,-44.24,-49.414,16.725,-4.185,9.1,-49.835,5.105,15.839,16.858,3.619,-67.684,36.138,-53.777,-3.497,-39.719],[-57.835,-14.332,-4.522,-2.045,-3.507,-47.879,-9.05,-1.224,2.447,-3.286,-54.556,-9.31,1.272,3.44,1.938,-53.507,-21.243,10.308,-0.641,8.685,-37.867,7.384,-13.989,-9.801,-19.993,-4.034,1.889,-51.418,-36.791,40.348],[-69.033,-20.99,-1.386,-6.056,1.062,-70.39,-11.465,-1.027,0.994,-0.312,-57.807,-21.51,-0.651,1.625,2.174,-59.129,-3.352,0.332,7.694,-2.504,-56.025,-38.729,-24.462,5.004,-19.735,-42.793,-23.358,2.154,31.556,-7.813],[-73.675,-28.923,-5.401,-2.555,-3.044,-62.421,-20.707,-2.486,-3.499,0.57,-73.114,-33.533,2.983,2.64,1.596,-57.613,-33.2,-17.076,4.038,19.542,-78.888,-28.901,-20.676,14.464,12.838,-51.302,-18.751,2.02,7.602,-59.89]],
"ve": [[8.961,-20.051,5.066,-20.924,50.598,-20.362,-21.496,-117.541,-23.366,-130.967,-5.971,-50.065,-89.469,-276.956,-90.836,60.559,-24.733,59.513,31.972,-65.669,100.64,26.383,-0.427,-43.001,-31.824,187.798,57.449,32.391,2.155,-7.132],[-245.357,-35.532,5.835,-1.027,-0.017,-36.398,6.515,-3.074,-3.457,-1.214,-65.232,-0.28,6.963,27.8,6.071,66.652,17.66,16.522,7.079,6.291,92.318,98.116,29.274,12.738,-11.397,189.494,101.106,8.638,17.101,28.197],[-10.647,-5.367,0.093,-0.039,-0.655,-5.409,-0.967,-1.849,-19.639,3.615,3.174,0.99,-0.053,-128.257,17.462,47.458,24.535,12.213,7.817,26.929,101.634,42.552,29,18.675,19.31,203.968,98.66,68.811,45.503,38.669],[-15.655,-3.257,-1.728,-1.968,-5.638,-19.916,0.341,-0.482,-0.786,-3.041,-6.915,-0.233,0.123,-0.532,1.881,47.025,24.789,16.247,6.679,11.07,98.865,61.591,32.718,23.295,20.274,177.219,11.354,66.73,51.404,38.645],[-7.965,-4.614,-0.303,-2.702,0.003,-4.374,0.369,-1.544,0.715,-0.489,6.152,1.067,1.967,1.152,0.074,58.859,24.248,5.033,13.404,11.158,86.833,47.369,29.728,27.092,20.129,195.991,94.372,65.22,48.951,40.942],[-38.517,-2.877,-1.344,-0.754,-1.107,-4.293,1.02,0.79,0.932,0.052,12.885,-3.317,0.632,1.297,0.707,47.845,23.381,-108.653,14.606,9.52,96.301,45.271,32.934,-47.296,15.608,204.162,94.87,67.516,49.327,39.899]],
"kep": [[-111.773,-68.195,-1.08,-10.537,-11.886,-117.007,-62.502,-22.373,6.532,-59.119,-128.494,-58.728,-20.555,-4.163,-27.111,-168.931,-210.785,-201.362,-190.907,-217.624,-74.418,-298.83,-406.933,-357.199,-398.312,-3.945,-132.89,-495.566,-574.526,-671.142],[-64.267,-51.227,-115.578,-36.488,3.229,-59.611,-71.802,-105.997,-46.404,-9.695,-60.461,-54.564,-120.387,-52.933,-30.845,-79.744,-52.049,-173.22,-164.682,-83.274,-67.347,-57.694,-88.798,-174.394,-160.159,-35.243,-52.727,8.497,-132.844,-277.821],[-66.996,-35.087,-19.056,-56.051,-122.319,-63.144,-19.118,-23.732,-50.546,-106.327,-56.687,-17.246,-22.128,-66.744,-115.097,-69.644,-75.564,-21.416,-63.508,-114.462,-74.791,-41.659,-30.278,-27.779,-76.63,-75.314,-27.266,-49.739,-13.129,-35.829],[-77.755,-29.324,-9.125,-7.267,-25.918,-70.447,-23.608,-8.59,-1.848,-23.396,-76.206,-30.735,-8.23,-3.314,-9.566,-78.172,-49.302,-17.755,-34.313,-22.405,-71.592,-36.296,-36.553,-40.727,-61.697,-64.265,-46.892,-56.073,-47.959,10.832],[-83.659,-34.522,-7.277,-17.141,1.373,-84.567,-26.045,-10.074,-4.795,-3.451,-78.576,-41.767,-12.304,-6.488,-5.476,-79.885,-37.223,-29.651,-17.693,-32.739,-83.183,-58.655,-49.474,-27.703,-56.705,-77.826,-53.556,-36.555,-22.648,-36.35],[-86.707,-43.42,-14.401,-7.659,-6.283,-78.61,-38.525,-13.263,-8.893,-4.038,-88.31,-47.928,-11.058,-5.316,-5.302,-79.532,-53.455,-43.12,-19.314,0.458,-84.518,-58.207,-45.038,-20.831,-17.162,-80.197,-58.276,-36.857,-27.243,-74.851]],
"vp": [[294.625,25.856,361.854,190.84,233.059,16.371,23.954,53.853,12.788,90.717,28.702,-42.777,-44.004,-3.236,-0.294,-23.722,-14.402,3.032,-22.819,-5.934,-57.2,-23.656,-14.797,-19.636,-15.248,-55.901,-27.711,-4.383,-21.265,-25.217],[2074.908,1138.868,-240.512,-192.68,189.947,448.382,128.897,-3.723,-12.977,28.802,177.824,27.387,9.443,15.871,-40.473,26.409,-26.315,-1.336,-20.936,-37.208,-31.48,-49.812,-35.447,-35.501,-35.027,-39.68,-39.555,-42.703,-18.483,-7.012],[3872.481,2221.149,1218.652,591.237,314.273,1004.382,355.581,197.814,92.748,86.965,352.706,252.289,86.997,111.033,-10.556,28.386,38.344,-26.005,-14.013,-37.267,-11.456,-10.819,-39.665,-50.408,-37.766,0.358,-38.044,-20.201,-27.592,-17.6],[4971.19,3691.124,2110.261,920.491,465.587,1018.981,810.353,399.697,260.164,52.603,494.068,440.835,159.326,99.721,105.765,67.179,65.152,13.739,-5.703,-16.823,-6.299,-3.379,5.139,-43.634,-25.29,-20.047,-9.146,-48.221,-33.022,-48.74],[5396.992,5394.236,4115.193,1182.228,1084.659,1129.549,1070.809,655.96,324.701,262.887,577.529,509.386,334.165,122.119,105.64,54.457,79.987,48.682,24,23.121,-14.137,25.99,-8.838,-24.407,-2.191,-1.476,-35.733,-30.543,-27.282,-40.838],[6017.156,6472.507,4196.596,2233.651,978.475,1329.332,1596.62,988.192,639.495,236.94,637.084,481.737,519.953,292.177,218.46,57.496,71.864,75.801,58.263,32.303,12.66,5.664,14.391,-1.671,-17.763,-19.727,-23.667,-43.776,-27.313,-32.353]]
}