{
"KTrans": [[-4.43,1.747,-2.13,-1.589,-1.241,-8.026,-5.189,-0.55,-1.599,-0.808,-4.831,-0.525,-0.125,0.263,0.556,-3.418,-2.336,-1.449,-2.374,-2.842,-6.061,1.419,-0.775,-0.26,-1.085,-3.979,0.658,0.967,-2.647,-1.224],[-47.854,-5.88,-0.224,-2.621,-1.676,-43.441,-3.562,-3.451,-2.438,0.548,-45.859,-4.606,-4.555,-2.654,-4.343,-47.224,-1.01,-4.418,0.207,-1.081,-48.388,-2.986,-3.58,-1.479,-2.502,-38.931,1.153,-1.222,-2.513,0.323],[-70.494,-7.264,3.683,0.999,-0.239,-67.511,-11.024,-1.852,0.902,-3.113,-70.07,-8.581,-5.082,1.802,-1.604,-67.908,-10.862,-1.539,-1.445,-3.265,-64.463,-8.068,-0.178,-0.176,-1.2,-67.691,-15.437,-5.992,-1.134,0.95],[-81.41,-28.233,1.033,-4.044,-3.305,-79.982,-28.694,-2.523,1.535,-3.505,-77.571,-25.201,-4.379,1.848,2.168,-78.852,-33.175,3.749,-6.031,0.638,-81.347,-31.676,3.35,-6.684,-5.839,-77.865,-32.613,0.037,-3.585,2.439],[-85.179,-49.144,-9.102,4.346,0.746,-85.489,-52.896,0.002,-1.519,-5.929,-87.23,-43.304,4.448,-2.329,2.56,-86.645,-42.25,-1.352,1.254,-2.568,-87.325,-39.602,-0.975,4.905,-1.058,-84.214,-43.435,-5.645,1.328,-0.768],[-87.91,-47.182,-20.006,10.215,4.65,-89.453,-52.935,-14.795,7.044,3.734,-90.408,-60.886,-12.463,-0.013,6.553,-89.654,-55.994,-14.566,-0.103,9.93,-91.403,-53.039,-9.042,5.203,-0.879,-91.393,-50.888,-11.863,-3.51,0.924]],
"ve": [[0.5,1.826,5.06,8.75,15.901,-1.795,0.629,7.636,9.539,23.027,0.48,3.393,3.354,9.514,6.137,-1.152,3.789,5.681,9.981,21.227,0.394,0.737,7.226,11.228,21.452,-2.171,3.655,2.076,7.331,18.32],[-20.85,-5.361,-1.387,-1.009,-0.337,-22.57,-2.51,-1.745,-1.874,-0.376,-24.465,-4.365,-1.835,-1.215,-0.983,-28.193,-4.03,-2.833,-0.91,-0.422,-24.067,-3.301,-2.493,-1.123,-0.812,-16.425,-2.247,-1.172,-1.451,-1.032],[-29.398,-7.364,-2.339,-2.855,-1.78,-38.172,-9.206,-3.687,-2.63,-1.903,-52.546,-6.636,-5.795,-2.307,-1.813,-40.11,-7.994,-1.803,-2.304,-2.479,-65.905,-4.945,-4.709,-3.259,-2.41,-37.87,-12.079,-3.036,-1.573,-1.512],[144.766,-19.041,-4.569,-3.102,-3.309,-48.476,-20.221,-5.956,-3.949,-2.21,-54.097,-21.133,-5.432,-3.565,-2.111,262.645,-21.158,-3.928,-4.351,-3.687,-44.88,-18.192,-5.303,-4.632,-3.446,-51.324,-18.028,-5.426,-3.703,-2.878],[-56.407,-31.359,-9.319,-2.913,-3.541,-65.726,-32.5,-9.639,-3.425,-3.567,-50.809,-28.556,-4.107,-4.599,-3.516,-59.522,-25.852,-8.367,-4.12,-3.47,-58.105,-23.833,-8.654,-1.112,-4.362,-50.548,-24.004,-9.676,-3.8,-3.746],[-76.642,-25.581,-15.072,-3.532,-4.441,-65.655,-33.497,-15.096,-4.644,-4.096,-69.239,-41.605,-12.561,-3.938,-3.702,-59.755,-32.914,-16.166,-4.357,-2.207,-62.303,-34.822,-9.096,-5.029,-3.489,-75.42,-32.629,-13.69,-5.207,-4.898]],
"kep": [[-4.157,1.667,-3.767,-2.596,-4.951,-6.081,-3.712,-3.546,-4.035,-3.785,-5.281,-1.454,0.541,-2.023,2.854,-1.968,-3.452,-2.73,-5.792,-6.431,-6.422,2.542,-2.371,-2.549,-4.276,-1.389,-0.866,2.828,-4.572,-3.812],[-43.07,-0.46,1.241,-1.701,-1.215,-36.497,-1.277,-1.787,-0.538,1.055,-37.248,-0.758,-2.866,-1.235,-3.225,-37.812,2.799,-1.455,1.108,-0.567,-40.906,0.295,-1.233,-0.415,-1.481,-32.035,2.672,-0.017,-1.077,1.435],[-62.882,-0.759,5.477,3.876,1.614,-61.215,-3.102,1.359,3.561,-1.256,-64.835,-3.106,0.853,3.93,0.09,-61.695,-5.68,-0.131,0.653,-0.677,-58.786,-4.784,4.771,2.773,1.232,-62.279,-4.376,-3.661,0.28,2.426],[-76.595,-16.863,4.94,-1.033,-0.186,-75.622,-15.826,2.991,5.207,-1.606,-72.805,-14.949,0.429,5.027,3.831,-74.827,-20.991,6.94,-1.61,4.306,-78.046,-22.388,8.248,-2.315,-2.584,-73.327,-24.127,5.743,-0.03,5.309],[-81.413,-39.198,-0.092,6.508,4.164,-81.73,-43.262,9.195,0.553,-2.536,-84.3,-34.523,5.233,1.627,5.742,-82.918,-33.168,4.476,5.618,0.847,-83.403,-29.563,7.731,4.613,3.304,-79.377,-35.995,2.302,4.565,2.58],[-83.631,-41.374,-9.604,11.925,8.506,-84.863,-46.224,-4.429,10.026,7.449,-85.977,-53.463,-4.682,2.81,9.779,-85.144,-48.955,-5.074,3.284,10.852,-88.179,-44.855,-2.179,9.382,1.953,-87.115,-44.498,-2.836,1.131,5.622]],
"vp": [[561.638,62.655,343.688,295.7,314.576,94.947,66.621,30.889,92.913,35.49,32.588,30.75,41.021,40.753,21.699,6.2,8.467,5.404,9.527,5.504,2.954,2.35,2.708,3.902,1.805,2.324,1.361,1.182,1.531,1.458],[2788.46,1381.06,510.86,1100.976,662.009,467.15,131.903,135.173,230.523,188.762,264.529,115.91,56.323,82.66,97.528,57.346,22.188,22.201,16.373,11.942,27.335,7.894,12.095,10.833,5.687,9.298,3.627,2.927,3.454,5.187],[4265.021,1698.83,876.195,1607.09,1272.768,811.318,453.583,223.859,278.97,228.569,454.796,142.734,196.098,133.605,100.217,78.801,36.998,14.118,24.029,34.954,33.312,12.071,16.129,15.57,19.193,19.754,12.447,3.651,5.147,4.526],[5483.432,4099.562,1684.569,1123.428,1778.286,1019.585,868.701,404.805,393.692,210.867,469.648,452.556,189.46,177.862,156.319,105.496,88.195,29.992,32.739,47.375,58.484,38.753,20.645,17.071,17.117,23.328,18.381,9.221,8.531,9.729],[5697.237,6744.038,2919.519,1402.892,2094.734,1154.26,1362.551,682.232,236.828,264.11,664.31,582.588,140.27,163.914,211.737,125.743,108.319,51.372,39.959,35.012,60.369,52.253,29.647,5.961,26.647,24.883,24.337,15.755,7.805,10.945],[6203.837,5439.195,4533.791,1615.59,2898.938,1339.897,1276.062,948.353,454.126,524.19,714.316,912.905,374.49,150.432,232.707,121.159,143.138,105.781,34.436,27.296,68.992,72.269,28.472,23.773,16.291,35.699,33.672,21.356,8.106,13.85]]
}