{
"KTrans": [[34.033,21.589,24.592,22.426,20.503,27.79,21.07,22.065,27.583,27.115,25.055,34.83,24.38,31.305,23.38,40.954,45.891,47.529,49.975,44.018,75.91,61.097,58.408,52.711,66.531,113.547,118.001,118.469,103.073,103.635],[-46.598,-10.128,1.487,10.849,12.695,-44.111,-8.377,5.595,8.433,13.482,-48.181,0.478,6.103,8.658,13.29,-41.927,2.287,14.709,18.716,22.924,-37.146,5.061,16.402,27.93,26.045,-8.494,29.3,46.945,47.768,46.477],[-72.091,-34.589,-13.288,-5.055,0.468,-73.345,-32.987,-19.326,-5.595,1.291,-71.724,-38.292,-9.814,-5.616,2.964,-57.138,-29.7,-11.305,-6.579,6.146,-55.439,-30.175,-9.244,3.01,8.544,-39.53,-16.209,7.763,22.661,23.57],[-82.421,-49.597,-29.824,-18.146,-13.907,-81.065,-55.816,-35.67,-20.17,-10.842,-78.961,-47.824,-32.939,-20.862,-9.798,-79.419,-46.994,-31.168,-17.766,-9.101,-71.184,-42.157,-33.675,-12.554,-3.957,-58.501,-39.119,-23.473,-1.28,5.18],[-88.219,-66.685,-49.812,-36.984,-20.773,-87.342,-63.86,-50.307,-30.589,-21.642,-88.637,-67.523,-47.812,-32.501,-24.01,-84.801,-63.381,-46.299,-33.201,-21.136,-78.019,-62.461,-45.913,-28.475,-16.849,-72.748,-58.679,-33.553,-15.455,-10.62],[-90.893,-74.254,-57.828,-39.864,-32.348,-92.736,-73.271,-53.447,-43.696,-31.925,-90.216,-67.61,-59.04,-42.764,-30.341,-87.922,-70.399,-55.693,-41.605,-26.018,-84.32,-72.226,-52.787,-38.956,-26.475,-77.794,-63.143,-50.767,-36.87,-23.317]],
"ve": [[31.838,-339.047,104.188,-8.585,631.171,19.902,-13.293,-61.731,1.662,-92.095,-40.347,83.813,29.108,-10.569,85.611,-0.124,37.043,83.459,63.892,75.523,120.528,357.769,2456.104,-83.088,-96.946,100.611,17.286,34.06,-39.971,-133.44],[-148.256,3.555,6.794,9.823,12.693,1.478,0.147,4.952,9.765,13.324,-26.275,1.952,5.724,12.268,14.159,-70.152,9.199,14.016,12.209,14.775,-79.504,19.633,19.004,20.331,25.496,53.938,27.967,36.431,37.05,35.034],[-44.388,-10.913,-4.003,-2.305,1.393,1.193,-10.896,-6.88,-0.05,-0.052,-17.626,-8.053,-1.452,-0.117,1.657,64.33,5.825,0.889,2.352,5.168,31.649,8.502,10.353,8.202,8.832,83.844,32.256,26.174,24.788,18.96],[-67.506,-14.451,-11.03,-7.407,-4.21,-33.948,-16.191,-11.281,-7.795,-3.162,-22.638,-15.334,-9.632,-5.121,-3.356,-18.346,-5.062,-2.714,-2.832,-1.14,-7.394,2.878,2.848,4.241,3.547,69.001,23.884,16.868,16.407,12.311],[-45.904,-20.128,-18.779,-12.178,-7.554,-26.799,-11.843,-16.361,-12.005,-7.754,-51.387,-23.731,-16.743,-10.299,-7.529,-21.54,-4.59,-10.243,-6.534,-4.627,27.558,-6.247,-4.739,-1.128,0.229,-1.024,-169.182,13.885,13.704,9.903],[-37.589,-24.37,-20.781,-13.798,-10.966,-43.851,-29.441,-20.513,-16.317,-11.197,-17.73,-21.497,-19.994,-13.938,-10.833,904.354,-28.461,-3.509,-9.267,-6.843,-62.673,2.48,-4.922,-3.828,-3.287,70.51,-7.032,12.58,5.217,4.689]],
"kep": [[-32.206,-41.81,-48.829,-58.956,-72.831,-37.268,-43.168,-50.489,-53.233,-58.838,-41.571,-35.023,-50.286,-45.69,-70.545,-42.418,-32.778,-30.784,-34.416,-46.439,-38.384,-37.042,-38.198,-46.798,-31.064,-43.568,-28.584,-18.256,-21.054,-14.546],[-68.643,-47.671,-42.854,-39.818,-39.997,-68.869,-45.406,-40.724,-41.409,-40.119,-71.574,-42.012,-40.622,-42.003,-40.476,-70.154,-45.503,-40.797,-37.348,-36.605,-76.306,-50.106,-42.773,-36.75,-39.379,-77.605,-50.088,-37.827,-34.413,-33.794],[-80.849,-58.366,-47.837,-43.437,-42.525,-84.214,-56.225,-49.691,-45.065,-41.156,-83.196,-60.632,-47.107,-44.933,-40.865,-79.29,-59.813,-49.252,-46.961,-41.39,-81.606,-62.743,-52.826,-44.952,-42.236,-83.428,-65.447,-51.53,-43.341,-40.295],[-90.444,-66.002,-54.775,-48.776,-47.894,-87.82,-70.244,-58.004,-50.02,-46.793,-87.303,-65.326,-57.366,-51.821,-45.92,-89.421,-68.526,-59.318,-51.147,-46.918,-88.195,-67.779,-62.717,-51.805,-46.482,-89.431,-74.021,-63.458,-51.826,-46.505],[-93.058,-76.387,-64.623,-58.719,-50.462,-91.622,-74.711,-65.976,-54.636,-50.873,-92.981,-75.474,-63.815,-56.528,-52.525,-92.884,-76.133,-65.79,-58.877,-52.297,-91.798,-78.519,-67.489,-58.496,-52.172,-93.712,-81.358,-67.337,-57.655,-53.665],[-94.322,-79.451,-69.363,-59.899,-56.235,-94.619,-78.648,-66.563,-61.327,-55.792,-94.079,-76.226,-70.781,-61.745,-54.894,-94.145,-80.334,-71.547,-63.074,-54.357,-94.026,-83.683,-71.539,-63.464,-56.324,-94.554,-83.698,-74.898,-66.284,-58.522]],
"vp": [[-896.672,-290.691,-1350.267,-391.654,-209.145,-127.867,-61.646,-141.64,-181.625,-184.44,-32.596,-76.169,-53.521,-94.495,-77.051,-16.781,-12.158,-8.474,-28.958,-18.75,-5.477,-6.3,1.084,3.995,-15.495,7.046,-1.554,-2.436,-1.327,-2.468],[3049.804,809.473,31.426,-1038.481,-185.134,514.582,141.18,-133.847,-99.421,-227.525,348.376,31.097,-7.313,-43.164,-97.695,54.115,5.604,-9.437,-36.261,-29.001,36.656,3.377,1.565,-11.847,-15.125,8.945,5.703,-15.707,-13.462,-5.838],[4570.037,3529.443,591.439,263.904,100.579,1042.689,561.206,439.32,155.313,-39.702,490.022,370.242,31.1,60.486,8.674,52.421,61.248,27.856,47.974,-9.974,13.99,36.712,11.987,19.968,17.011,0.315,14.544,-0.678,-16.702,-2.348],[5815.764,4995.752,3206.302,2482.011,2962.506,1077.583,1092.466,921.404,683.792,195.747,604.128,491.303,405.058,251.123,155.296,108.047,94.781,75.205,64.16,62.529,43.754,47.725,57.72,17.902,21.348,5.379,18.464,21.145,3.357,8.398],[7133.528,7469.635,7469.962,6181.291,3273.013,1262.038,1374.582,1570.602,1039.078,834.466,740.128,842.938,703.6,582.214,419.636,124.404,141.677,131.23,126.441,87.724,49.761,80.603,79.226,42.079,33.344,28.041,47.194,25.725,2.297,13.629],[6957.32,8568.426,9208.919,6340.923,6314.172,1613.671,1815.565,1645.835,1665.881,1277.567,637.41,812.823,982.033,769.257,525.465,133.85,185.211,164.654,137.643,97.251,62.569,102.068,82.194,63.082,59.164,22.438,31.452,41.084,43.585,34.172]]
}