{
"KTrans": [[40.772,23.466,20.547,8.443,17.932,65.034,35.043,19.934,29.608,18.312,71.694,39.019,33.585,30.071,31.574,247.986,136.136,97.876,82.157,83.815,526.67,273.436,201.49,178.299,178.405,1442.687,645.324,505.55,440.468,420.811],[-14.57,63.995,38.062,28.614,31.012,-11.731,80.537,50.242,31.925,23.235,3.818,113.665,59.462,42.804,32.675,109.263,158.305,90.206,81.399,65.033,249.269,252.106,145.723,127.095,94.202,511.12,587.477,320.499,251.677,213.741],[-146.093,269.048,108.263,49.2,22.365,-108.786,206.546,65.022,44.267,33.375,-144.583,187.832,100.113,50.564,37.788,-198.402,297.19,156.796,97.01,68.744,-158.39,551.34,237.732,142.373,102.821,-108.768,994.135,433.674,257.41,170.498],[-121.923,-104.653,200.262,73.731,64.897,-124.703,-182.961,180.797,85.429,50.145,-120.754,-116.039,170.485,93.004,70.941,-125.816,-152.054,244.816,137.766,95.368,-132.83,-220.723,375.561,195.164,116.133,-89.529,-65.815,690.379,336.472,188.066],[-123.669,-134.179,13.713,206.56,88.384,-119.288,-132.227,68.715,231.186,79.164,-119.868,-138.018,85.082,168.791,98.247,-99.446,-184.522,131.774,244.32,126.12,-157.276,-198.2,177.537,321.496,197.564,-170.559,-351.218,197.032,483.778,262.214],[-114.792,-90.909,-184.99,399.22,161.023,-115.34,-152.474,-211.318,299.581,176.219,-120.12,-132.112,-146.518,362.514,189.746,-127.766,-123.358,-172.24,387.538,216.222,-123.585,-187.44,-160.321,446.013,292.31,-144.369,-277.397,-48.936,718.422,441.961]],
"ve": [[3.447,2.481,6.46,22.074,50.882,7.85,2.736,2.571,2.261,7.446,10.257,2.448,0.284,-1.599,3.187,46.785,14.503,-1.405,-11.613,-19.044,93.184,33.385,7.027,-7.672,-18.245,193.431,78.861,35.286,9.796,-4.677],[1.528,1.728,1.39,1.324,1.523,3.466,4.672,3.618,1.858,1.883,8.705,9.391,5.584,3.797,2.406,50.635,24.545,15.431,11.312,6.592,102.217,46.391,28.954,20.931,12.309,197.128,99.01,62.63,43.487,31.136],[4.527,4.555,4.777,1.453,-0.184,6.901,4.423,0.927,1.345,1.345,9.657,8.48,5.961,2.642,1.629,50.643,26.909,17.036,13.063,9.31,101.035,50.339,34.39,24.872,17.64,197.023,101.757,68.016,48.238,34.213],[3.943,3.417,1.051,-0.35,2.575,8.546,3.747,3.653,1.934,1.159,10.403,7.377,3.757,4.565,4.479,48.599,26.226,15.871,15.018,10.808,101.075,51.073,31.531,25.77,19.403,198.548,102.64,66.533,51.557,36.863],[3.19,0.02,0.4,4.864,1.902,5.488,1.758,2.357,5.106,1.367,12.314,4.712,4.922,3.407,3.714,49.158,27.522,16.105,12.457,11.028,102.305,52.135,33.805,27.071,21.517,200.035,100.278,63.241,50.783,38.413],[2.972,0.398,4.416,-0.496,1.8,12.419,6.661,5.825,1.922,2.337,12.397,6.135,5.228,2.757,5.126,51.64,23.452,18.867,13.381,12.19,100.035,51.369,35.88,24.731,21.757,201.595,99.537,67.832,49.481,40.894]],
"kep": [[32.368,21.993,22.078,9.065,25.331,49.957,31.64,22.148,37.562,27.953,51.464,34.52,35.949,39.761,47.819,131.571,103.37,97.938,104.24,126.741,219.296,175.801,177.278,197.3,236.727,420.44,312.665,343.728,387.516,442.305],[-21.499,53.635,32.067,24.33,27.88,-21.484,65.067,41.191,26.88,19.577,-9.986,88.529,47.09,34.944,28.016,32.126,98.766,60.142,59.343,51.979,68.656,129.544,84.489,83.912,69.027,102.239,237.172,153.418,140.478,135.312],[-136.602,230.13,91.226,40.737,18.29,-103.37,174.125,53.174,36.027,26.956,-132.42,152.003,80.54,40.524,30.276,-156.575,195.425,107.907,67.744,49.164,-120.955,308.703,141.589,87.519,66.561,-96.084,422.52,208.782,133.991,94.973],[-116.078,-98.075,173.429,62.336,53.958,-118.506,-168.366,152.538,71.36,41.31,-113.604,-107.901,141.623,75.757,57.485,-111.293,-130.942,174.83,98.66,68.978,-110.882,-167.219,234.857,123.937,74.038,-91.15,-76.021,349.947,178.944,102.327],[-119.081,-124.187,6.167,177.622,74.847,-113.793,-121.885,53.942,196.743,66.03,-113.934,-126.115,65.078,141.455,81.63,-95.487,-155.629,83.731,183.574,92.951,-124.749,-154.649,96.658,214.826,132.928,-118.428,-211.696,71.912,267.706,148.287],[-110.815,-85.873,-167.316,347.822,138.207,-111.111,-141.381,-192.997,256.476,150.419,-113.671,-122.339,-132.952,306.365,158.932,-114.805,-110.643,-148.551,296.529,166.694,-108.18,-148.052,-134.175,303.676,203.366,-110.984,-177.776,-62.02,410.366,263.466]],
"vp": [[1563.681,1637.828,1665.137,1185.896,1819.979,414.057,348.408,317.521,412.617,301.077,162.25,153.556,161.999,160.931,199.673,33.266,36.624,32.982,29.896,30.882,14.497,16.136,13.848,13.507,18.86,8.274,6.699,6.916,7.763,8.954],[6071.177,4490.147,4877.777,5114.114,5645.256,1188.344,1092.261,1026.697,964.465,945.236,530.606,674.247,591.308,557.51,515.464,124.766,99.606,92.172,116.913,111.531,66.89,46.573,42.479,50.831,41.379,29.736,23.163,22.463,28.992,28.993],[8853.98,10276.929,10047.881,8794.419,6245.285,1549.899,1889.413,1300.372,1442.662,1579.76,832.352,783.693,850.663,791.435,814.21,175.954,171.416,180.031,180.98,161.483,81.86,95.566,93.812,86.305,80.257,35.561,50.239,42.492,42.79,34.248],[10412.61,12666.57,11202.767,10289.764,12144.176,2099.426,2775.526,2015.874,2164.74,2120.66,867.612,1164.891,937.406,1071.559,1223.162,181.282,233.831,165.367,232.346,236.329,96.93,128.368,106.856,110.548,102.807,44.397,58.74,63.783,61.436,48.097],[12023.911,14143.331,14196.092,15263.073,13615.916,2260.527,2653.715,2930.493,3594.531,2495.051,1126.072,1342.73,1570.901,1184.051,1313.225,178.08,308.084,313.665,287.474,273.585,123.959,159.784,147.271,140.174,165.91,53.778,73.972,85.264,68.677,70.028],[10836.923,15659.031,19773.249,19459.474,17216.761,2274.268,4040.153,3771.669,3034.598,3532.535,1180.785,1695.448,1763.188,1881.384,1835.882,234.855,274.375,366.001,307.584,335.349,106.968,176.913,186.579,144.564,189.329,62.001,85.81,97.565,71.553,96.274]]
}