{
"KTrans": [[-15.195,5.3,3.085,2.94,3.798,7.075,0.462,2.658,6.017,-2.44,16.31,2.851,8.325,5.827,3.761,42.734,23.016,19.507,10.6,13.408,59.657,52.243,45.074,32.285,31.043,191.156,154.014,132.183,78.025,63.233],[-52.466,-5.61,-1.127,-0.571,1.96,-54.46,5.23,0.753,1.616,-2.32,-53.035,3.247,-1.325,-0.42,0.36,-40.984,17.912,10.356,3.011,7.893,8.441,39.441,29.758,19.99,14.585,27.186,26.022,49.436,45.693,25.269],[-76.746,-13.94,1.223,-1.12,-1.17,-79.82,-17.948,-3.219,-1.871,0.759,-72.999,-1.172,2.324,0.818,-0.636,-56.654,8.538,12.36,4.55,2.307,-42.745,24.127,19.293,12.334,16.182,-38.411,18.224,32.163,52.003,37.937],[-84.959,-34.49,-3.196,0.49,-1.411,-85.826,-29.481,2.819,-0.757,-1.027,-81.416,-28.145,-0.321,-2.387,0.305,-74.767,-13.409,11.375,7.34,8.601,-56.473,-15.159,12.839,16.943,9.18,-26.271,24.48,22.289,40.216,31.639],[-90.014,-49.059,-7.092,-2.22,0.948,-92.424,-45.941,-2.428,4.194,-1.067,-88.76,-42.077,-2.423,-2.9,1.36,-78.563,-32.402,9.019,10.425,4.577,-65.857,-24.068,8.453,20.727,19.233,-51.721,-3.876,34.219,31.279,32.368],[-92.652,-56.869,-15.487,1.161,2.757,-93.529,-67.338,-16.13,1.722,5.113,-92.634,-65.109,-15.313,-2.946,3.355,-86.918,-52.374,-7.565,12.604,11.246,-91.706,-34.103,-5.238,6.247,6.693,-62.167,-22.043,-1.826,37.904,29.267]],
"ve": [[-6.793,10.452,2.653,19.071,33.731,0.069,27.171,12.993,3.76,-334.63,11.411,5.956,-2.974,-0.826,-390.949,10.4,-13.9,-2.367,-28.855,-23.853,19.38,-44.559,-24.408,-13.803,-26.531,40.958,25.057,2.901,-18.972,-18.901],[-29.924,-4.807,-2.392,-1.64,-0.509,-35.065,-1.701,-1.699,-1.263,-2.011,-30.104,-2.78,-3.06,-2.211,-1.043,-18.162,0.754,0.856,-0.133,0.271,17.934,14.637,7.828,3.419,-94.149,38.628,27.328,10.212,30.879,-1.273],[-45.019,-10.524,-3.858,-2.969,-3.03,-57.422,-13.723,-3.65,-3.478,-2.378,-30.962,-8.338,-4.203,-3.039,-3.349,-40.873,-0.842,0.903,-2.973,-2.767,-33.89,8.36,-7.525,-2.85,2.097,22.932,21.803,9.054,14.842,8.714],[-61.511,-16.391,-7.956,-4.25,-3.468,-82.026,-24.696,-3.959,-4.455,-4.006,-59.604,-42.487,-5.979,-5.099,-3.124,-60.589,-11.104,-1.824,-2.749,-0.441,-7.469,-13.745,-3.752,0.466,-1.695,15.805,20.125,6.992,7.241,-6.453],[-66.577,-36.341,-10.858,-6.462,-4.348,-67.734,-31.267,-10.341,-3.816,-5.1,72.255,-30.021,-9.558,-6.633,-4.627,-37.444,-25.996,-4.966,-0.955,-2.819,-32.761,-27.105,-4.581,1.012,-1.069,50.554,-14.258,7.563,7.601,3.791],[-71.635,-40.383,-15.432,-6.677,-4.594,-908.422,-49.769,-19.3,-7.316,-4.81,-69.603,-55.406,-18.241,-7.85,-5.02,-57.524,-41.962,-11.493,-1.835,-1.409,-41.098,-15.03,-20.446,-9.547,-3.6,5.995,-13.91,6.535,9.213,0.296]],
"kep": [[-19.813,0.911,2.633,3.317,5.839,2.335,-3.271,2.959,10.773,-6.784,5.421,2.528,11.314,6.751,6.771,8.773,10.591,18.838,5.573,15.985,30.088,25.085,32.113,25.58,21.903,99.095,88.892,109.639,66.557,48.533],[-47.867,-1.988,1.092,1.016,2.782,-47.644,5.247,2.032,3.127,0.104,-45.384,5.348,1.425,2.022,1.931,-42.829,12.248,7.632,2.609,7.55,-20.34,7.342,17.436,10.574,9.13,-15.455,10.744,20.403,14.542,5.335],[-69.023,-7.015,4.722,1.614,1.896,-71.626,-7.393,-0.497,1.473,3.172,-66.612,3.03,5.978,3.94,2.742,-64.297,2.705,9.806,6.161,3.836,-46.431,0.77,5.888,6.794,12.825,-51.29,3.098,12.959,24.649,18.523],[-77.773,-21.086,3.88,4.56,1.93,-79.492,-14.17,4.771,2.876,2.996,-74.885,-12.868,4.475,2.052,3.375,-71.175,-10.665,12.804,7.291,8.738,-60.559,-25.164,5.625,10.991,7.543,-57.206,-18.204,-2.408,18.056,16.785],[-86.19,-34.58,2.59,3.977,5.211,-87.603,-30.478,5.191,7.658,3.583,-83.292,-29.578,5.263,2.799,5.977,-76.263,-21.913,9.422,9.489,6.922,-69.695,-29.257,-0.423,20.095,18.642,-67.865,-28.16,3.806,8.277,20.184],[-88.822,-36.693,-3.285,7.105,7.144,-90.005,-46.898,-2.595,8.704,9.753,-88.82,-52.381,-2.138,3.413,8.163,-81.186,-41.436,-1.385,14.727,12.077,-77.842,-39.828,-5.871,9.837,9.415,-74.418,-40.27,-20.481,8.126,20.547]],
"vp": [[708.86,21.869,-165.059,246.698,198.901,81.829,28.023,71.09,-18.613,76.32,-37.829,5.616,-34.44,-0.967,41.031,-34.185,-14.823,-24.787,-9.021,-14.675,-17.661,-22.562,-27.327,-20.97,-21.299,-23.003,-43.543,-42.543,-26.504,-28.481],[3288.672,1440.946,781.934,512.946,359.534,685.189,166.618,151.741,83.058,196.755,327.425,59.955,94.824,94.136,68.468,44.813,-2.327,1.464,8.907,-13.176,-17.173,-32.255,-25.69,-14.365,-19.192,-21.203,-30.201,-23.21,-27.025,-7.038],[4966.011,2326.722,987.407,1410.002,1465.061,1175.339,530.869,208.593,285.033,186.052,573.105,173.906,123.432,91.018,124.453,78.106,9.006,-8.595,14.964,26.15,35.375,-19.801,-0.702,-8.018,-13.938,-11.77,-22.538,-15.702,-34.723,-26.146],[6386.958,5288.486,2583.609,1530.814,1714.214,1297.256,975.653,246.557,359.827,360.67,549.19,521.39,174.328,204.749,124.713,111.96,38.502,19.358,11.822,-7.707,2.089,27.733,4.418,14.081,11.329,-11.587,-20.726,-7.777,-17.758,-16.042],[6455.579,7680.432,3065.322,2332.423,1963.696,1407.226,1308.092,650.459,264.457,473.772,606.104,617.841,270.061,260.683,203.505,74.779,100.052,27.306,-0.924,18.645,33.307,51.977,14.267,0.784,6.353,-36.007,14.649,-14.897,-15.927,-10.341],[6073.714,8150.156,4530.634,2688.934,1991.528,1430.237,2086.209,1111.526,520.363,457.453,650.589,885.398,535.637,314.361,229.544,130.767,173.338,82.823,13.304,4.588,39.022,32.614,62.497,34.977,27.261,-3.57,12.358,-11.834,-20.838,-1.517]]
}