{
"KTrans": [[42.053,18.379,26.095,14.049,21.743,53.727,39.427,27.066,21.973,21.675,71.693,45.251,34.723,32.08,27.24,213.114,132.795,110.606,99.168,87.516,576.499,271.668,214.399,185.076,171.668,1372.842,718.128,533.226,457.299,412.418],[-60.327,66.201,37.384,29.246,29.816,-45.261,69.947,54.249,29.665,28.129,-51.052,73.774,40.785,29.689,24.141,-22.736,153.962,120.052,75.213,65.547,136,293.997,145.979,129.368,91.133,355.165,577.801,312.888,241.851,212.02],[-110.022,76.736,68.124,57.821,37.228,-101.106,60.428,92.823,62.941,40.043,-88.285,104.067,93.495,62.268,46.677,-83.88,225.057,144.64,99.147,74.255,-170.43,282.387,213.481,140.126,119.349,-1.344,442.159,397.84,247.326,196.439],[-100.338,-82.405,148.261,107.508,63.067,-118.897,-54.331,137.986,88.881,56.734,-120.992,-55.89,142.308,84.22,54.643,-123.784,-99.375,229.158,160.262,97.577,-131.476,13.766,270.124,209.618,114.16,-97.537,17.107,543.689,356.291,215.118],[-110.844,-124.856,88.807,121.686,98.609,-108.182,-125.284,27.564,165.616,78.249,-117.332,-128.048,16.281,207.28,114.699,-108.345,-126.646,119.881,221.345,140.337,-135.008,-125.839,69.756,178.873,160.039,-135.458,-122.303,305.287,406.005,310.631],[-106.958,-142.907,-74.188,112.574,163.352,-114.608,-150.546,-94.646,188.523,185.094,-115.424,-131.713,-69.101,178.713,164.42,-111.414,-135.944,-80.461,212.805,197.576,-100.517,-152.799,-68.708,178.149,300.833,-155.694,-163.927,0.859,449.26,422.983]],
"ve": [[9.201,12.199,14.255,32.214,258.589,10.144,5.864,10.05,9.221,75.742,16.263,5.81,8.242,2.892,-5.484,49.162,15.018,0.27,-10.635,-18.167,99.354,35.898,9.129,-6.136,-18.223,192.852,83.549,37.434,11.232,-5.185],[-9.15,3.554,1.627,2.132,1.848,5.821,4.276,4.326,2.613,2.272,18.366,4.818,3.386,2.611,1.676,56.776,25.776,18.837,10.42,6.457,-621.856,51.004,27.042,20.902,12.514,200.314,97.54,62.116,42.861,30.976],[40.446,4.733,1.359,2.317,1.575,1.752,6.873,4.215,3.914,2.565,3.743,7.303,5.066,4.316,3.414,51.218,32.215,17.613,13.134,9.749,101.657,50.638,32.97,24.269,20.065,200.134,100.94,65.623,48.159,37.526],[6.141,1.243,2.822,3.564,1.879,7.127,4.832,3.362,1.974,1.86,16.44,6.969,5.646,3.903,2.417,46.807,26.727,18.424,15.196,11.385,99.297,56.46,31.884,25.153,18.006,196.252,100.671,66.888,52.288,40.064],[6.348,1.011,0.774,1.352,2.718,13.615,0.428,6.863,3.717,1.275,13.205,-79.434,8.128,7.011,3.799,46.443,24.586,28.916,14.075,11.254,99.774,50.143,33.67,21.519,19.585,192.841,103.926,34.212,49.073,43.061],[0.031,3.501,0.371,2.068,2.811,7.176,4.914,2.781,4.447,3.902,11.287,6.547,6.782,5.917,3.887,50.283,27.161,18.155,15.386,11.113,114.891,49.957,51.248,26.951,23.422,201.256,99.692,47.311,51.405,42.51]],
"kep": [[29.646,13.621,30,17.004,25.971,38.292,34.55,28.91,29.379,32.018,49.044,39.921,39.01,40.929,40.429,105.636,100.55,109.726,123.198,132.125,235.566,170.285,185.674,201.507,229.908,397.783,343.606,357.654,397.174,437.089],[-64.91,53.403,31.032,24.347,26.897,-51.854,55.417,44.529,24.331,24.197,-59.545,57.215,30.864,23.599,20.573,-53.781,93.416,81.612,55.342,52.743,16.389,152.796,86.114,84.832,66.478,49.59,234.992,149.21,134.311,133.918],[-107.528,60.749,57.933,48.396,30.554,-98.605,41.32,76.564,52.103,31.968,-88.316,80.367,74.812,49.806,37.655,-86.638,139.109,98.415,68.559,53.701,-131.11,142.802,125.802,86.06,77.668,-64.796,163.059,190.809,127.97,110.14],[-97.915,-82.122,126.014,91.412,53.032,-114.227,-56.695,115.243,74.535,46.946,-114.88,-59.331,116.009,67.9,43.983,-113.245,-96.389,162.669,115.622,70.251,-112.343,-26.399,162.537,136.119,73.341,-96.017,-38.649,269.809,190.894,117.595],[-108.706,-117.22,73.963,103.632,82.966,-104.83,-118.222,14.343,140.808,65.291,-112.032,-120.721,3.173,174.364,95.251,-103.371,-116.13,75.429,165.072,104.592,-115.714,-111.839,20.592,112.985,106.543,-109.242,-104.122,129.333,221.719,178.824],[-104.75,-135.486,-71.684,93.814,140.292,-111.968,-141.262,-91.209,157.437,158.793,-112.022,-124.623,-67.72,148.105,138.387,-105.487,-123.171,-81.383,154.78,150.828,-97.714,-129.099,-73.269,109.656,209.086,-117.271,-126.051,-41.454,243.525,251.44]],
"vp": [[2425.971,1587.595,1834.148,1510.372,2074.223,414.16,420.281,400.397,371.019,317.432,207.028,154.809,147.336,167.732,100.171,45.947,34.05,36.89,38.431,28.878,29.438,16.143,13.366,17.388,16.708,8.745,10.826,8.49,7.552,6.31],[7010.511,6052.175,4937.064,5334.667,5880.707,1228.151,1017.27,1236.144,883.571,1100.561,680.755,486.825,501.418,438.55,419.641,144.388,102.809,128.88,102.768,109.52,62.199,59.841,45.317,57.212,37.837,34.804,28.316,22.923,24.043,27.865],[8255.739,11916.448,8478.124,9905.422,7414.88,1556.436,2334.176,1749.704,1814.904,1708.693,767.787,1047.965,881.575,942.249,884.615,163.623,267.575,168.182,191.722,173.958,90.244,108.27,83.619,89.957,101.754,41.621,50.427,39.113,38.813,40.989],[8640.883,13305.361,13396.889,12738.504,11991.214,1993.977,2558.898,2598.867,2177.896,2405.952,1048.451,1214.071,1344.463,1130.937,968.784,180.984,316.627,259.218,279.203,241.052,95.529,131.398,121.515,116.802,98.964,45.895,57.032,72.506,68.04,53.304],[10860.573,14159.786,13600.912,15762.53,16871.688,1784.442,3071.017,3837.342,3347.637,2925.122,1018.27,1646.443,1922.248,1819.911,1687.41,207.515,311.367,368.016,364.674,324.337,112.198,155.294,180.55,110.818,135.174,50.268,69.886,103.219,73.941,85.586],[10616.552,18082.037,20380.236,19766.187,22171.849,2400.31,3694.77,4133.89,4683.602,4360.475,1161.385,1723.09,2078.916,2131.051,2044.851,199.996,361.259,398.637,439.682,375.218,108.437,158.468,232.487,199.529,226.006,53.8,87.049,115.646,109.918,115.263]]
}