{
"KTrans": [[-4.254,1.511,1.25,1.24,2.552,13.211,6.646,3.865,6.528,4.881,24.623,14.859,13.358,13.304,12.391,158.325,92.704,76.129,65.554,61.115,402.951,223.81,172.245,157.526,142.292,1143.659,586.012,454.373,398.075,360.212],[-7.476,-0.199,0.049,-0.596,0.42,3.983,6.711,5.998,4.038,3.315,7.739,13.013,8.557,7.188,5.278,118.145,65.459,46.765,35.802,31.352,287.325,142.813,97.237,78.315,64.666,755.741,342.479,237.014,182.05,150.408],[-23.605,-0.406,1.828,0.668,-0.032,-19.737,4.676,2.49,2.969,2.526,-10.647,10.5,8.154,4.369,5.212,69.968,60.585,39.415,32.62,25.381,200.435,139.703,84.609,67.716,55.096,577.525,325.834,207.834,152.302,123.374],[-39.048,-2.501,1.375,0.839,0.635,-31.398,2.134,4.933,3.225,2.392,-23.64,12.609,7.212,6.48,5.372,40.983,52.834,39.447,28.462,24.401,155.952,135.601,87.128,61.003,50.68,425.551,297.286,193.176,140.102,115.509],[-52.394,-4.679,-0.394,0.879,0.8,-42.209,0.117,4.12,3.849,2.181,-40.938,5.438,5.376,4.112,4.322,8.705,54.768,37.89,28.967,23.715,116.742,123.072,79.376,58.764,49.496,313.757,299.59,194.773,135.811,107.869],[-58.972,-7.34,-0.684,0.314,0.05,-58.099,-0.777,4.743,2.544,3.364,-51.507,3.275,8.307,5.297,5.196,-10.627,46.09,36.243,29.008,23.976,50.042,110.993,81.29,60.052,45.819,217.157,276.105,186.18,136.739,105.866]],
"ve": [[2.517,3.226,1.19,7.367,2.376,6.652,3.991,5.974,-1.304,3.02,9.947,5.427,-0.27,-4.375,-5.776,46.629,14.705,-0.727,-10.153,-17.629,94.229,33.595,9.26,-8.332,-18.107,194.883,78.289,35.673,9.997,-5.936],[2.577,1.661,0.111,1.245,0.395,5.748,2.534,1.125,0.599,0.628,12.296,5.609,2.195,1.825,1.873,49.408,24.108,14.967,9.805,5.43,99.04,48.273,29.487,19.599,12.66,200.342,97.463,60.945,41.586,28.942],[2.182,0.555,0.811,0.32,0.087,7.194,2.471,1.39,0.945,0.914,13.03,5.726,3.409,2.37,1.88,53.469,24.654,15.47,11.25,8.574,102.591,50.243,32.121,22.597,17.175,204.46,99.007,64.427,47.323,35.596],[3.906,0.313,0.827,0.398,0.189,12.896,2.819,1.431,1.304,0.856,12.543,5.676,3.32,2.283,2.058,53.663,25.704,16.685,12.183,9.161,106.015,49.972,33.117,24.021,18.623,223.343,99.984,65.11,48.353,37.724],[4.578,0.945,0.644,0.41,0.122,7.166,3.286,2.089,1.36,1.13,12.903,6.068,3.44,2.651,1.688,47.88,24.949,17.19,12.278,9.771,102.158,50.233,33.325,24.449,19.351,197.923,99.216,66.172,48.998,38.651],[2.739,0.856,0.609,0.332,0.347,-14.047,3.036,1.92,1.151,0.97,15.418,5.436,3.716,2.515,1.941,49.386,25.105,17.055,12.474,9.818,100.621,50.336,33.526,24.315,19.385,211.953,101.286,66.284,49.176,38.744]],
"kep": [[-5.383,0.094,2.213,0.24,4.928,7.221,4.263,1.337,11.393,8.011,14.592,10.418,15.271,21.165,23.635,77.826,68.95,78.55,86.22,97.933,159.812,143.056,149.963,182.229,197.265,322.451,285.455,309.489,353.544,389.831],[-9.579,-1.451,0.081,-1.677,0.175,-1.166,4.27,5.002,3.568,2.85,-3.676,7.175,6.326,5.444,3.554,46.256,33.517,27.778,23.804,24.794,95.065,63.896,52.466,49.229,46.32,185.51,124.32,109.551,99.333,94.303],[-25.028,-0.746,1.129,0.467,-0.082,-24.347,2.315,1.141,2.078,1.651,-20.31,4.607,4.656,2.024,3.345,11.774,28.958,20.809,19.304,15.549,48.668,59.743,39.859,36.867,32.433,123.553,114.312,87.308,71.335,64.8],[-41.248,-2.813,0.65,0.473,0.49,-36.602,-0.459,3.514,1.923,1.553,-32.229,6.654,3.837,4.125,3.269,-7.297,21.638,19.605,14.57,13.997,26.515,57.181,40.609,29.875,27.054,74.7,98.81,77.681,61.896,56.515],[-54.333,-5.527,-0.986,0.529,0.731,-46.417,-3.067,2.073,2.488,1.078,-47.713,-0.29,1.892,1.455,2.621,-28.082,24.03,17.745,14.897,12.732,7.825,48.544,34.604,27.589,25.296,36.439,100.827,77.483,58.331,49.982],[-60.952,-7.959,-1.243,0.019,-0.271,-61.637,-3.566,2.843,1.4,2.379,-57.178,-1.876,4.486,2.723,3.218,-41.344,16.935,16.478,14.742,12.939,-26.323,40.625,35.765,28.778,22.187,4.225,87.031,72.083,58.764,48.432]],
"vp": [[34.055,-53.791,-87.983,38.857,141.86,25.667,6.011,1.233,-5.06,-1.629,8.479,-2.464,1.446,6.377,3.169,-1.052,1.145,2.364,-3.006,-0.213,0.963,-1.461,-0.059,-0.564,0.574,0.248,-0.947,-0.106,-0.235,-0.481],[930.351,186.33,44.314,-55.796,-18.863,164.436,11.634,-13.501,0.816,3.606,89.011,13.795,6.856,-3.9,2.832,15.86,1.158,-0.387,0.737,-0.685,10.272,-0.44,0.607,0.12,-0.502,4.371,-0.402,0.123,-0.279,-0.419],[2032.911,225.919,93.133,-18.199,48.928,422.56,29.454,17.245,2.742,7.409,192.901,30.501,10.281,-3.943,2.733,44.62,3.988,-1.166,-0.193,0.564,20.776,2.936,1.728,-0.884,0.794,10.389,1.287,-0.363,0.31,-0.199],[3350.668,518.573,164.623,81.223,19.06,572.407,143.482,46.76,28.543,7.884,305.013,88.062,23.65,-3.551,3.058,59.577,14.84,3.626,1.213,0.288,29.993,6.821,2.464,-0.132,-0.112,14.337,2.927,0.227,0.171,-0.076],[3955.436,1188.879,432.471,236.896,92.314,774.91,275.063,93.523,14.821,16.248,374.865,113.329,27.282,2.929,-6.754,76.931,28.311,6.469,5.222,1.95,35.227,13.141,4.831,1.5,1.541,19.217,5.592,0.736,0.577,0.503],[4364.607,1797.501,531.666,420.871,96.342,859.825,361.189,105.969,45.643,11.657,461.404,170.328,57.883,27.759,21.146,95.228,32.652,9.989,5.885,2.549,45.564,15.885,5.314,4.183,1.199,22.728,9.224,1.603,0.901,0.144]]
}