{
"KTrans": [[-47.234,-76.908,-83.486,-86.184,-80.325,-51.342,-70.863,-76.434,-94.622,-84.562,-40.299,-73.22,-77.556,-74.395,-75.618,0.501,-23.108,-21.589,-13.815,-40.552,88.281,44.077,29.146,45.011,43.482,110.52,187.452,226.849,264.133,167.523],[-64.241,-51.68,-50.259,-66.85,-68.709,-58.488,-49.176,-46.061,-51.971,-66.187,-55.742,-35.981,-37.289,-55.203,-58.899,-33.533,-15.779,-16.093,-28.273,-29.408,-15.504,14.537,17.771,15.454,-2.142,14.241,73.18,56.051,65.883,34.023],[-69.172,-46.19,-45.885,-46.312,-55.828,-71.903,-48.03,-46.671,-43.456,-36.791,-67.099,-44.837,-45.532,-39.312,-46.635,-61.377,-30.441,-14.617,-20.134,-24.553,-35.993,-15.67,2.555,-5.984,-1.62,-9.692,23.11,36.088,35.063,0.005],[-77.25,-60.211,-47.092,-43.017,-51.637,-80.224,-56.989,-47.868,-45.777,-38.118,-77.624,-58.001,-52.399,-43.162,-34.941,-66.46,-45.497,-33.939,-30.087,-24.024,-57.21,-31.068,-18.791,-9.135,-12.006,-35.479,-5.122,9.155,-2.092,19.443],[-84.484,-67.652,-54.43,-45.836,-37.993,-83.268,-66.713,-51.501,-42.866,-45.214,-83.319,-66.375,-50.65,-38.508,-43.083,-73.924,-58.223,-42.385,-37.582,-36.361,-60.919,-42.228,-22.231,-24.688,-13.712,-52.389,-26.415,-10.017,7.429,6.808],[-86.529,-70.861,-54.136,-47.957,-44.003,-86.332,-69.593,-58.85,-42.08,-43.642,-88.664,-69.987,-58.019,-42.97,-43.747,-79.474,-61.734,-48.192,-36.393,-35.159,-72.622,-49.406,-36.305,-29.865,-22.441,-61.185,-37.887,-13.475,-8.657,2.933]],
"ve": [[-65.522,-68.169,-75.599,-51.224,-87.389,-69.569,-347.442,-51.867,-58.33,-79.167,-75.86,-40.003,-18.935,47.052,-94.214,8.259,-29.577,-49.793,-68.123,-51.603,282.276,-56.078,-32.437,-126.118,-36.154,137.77,146.153,52.198,47.941,-8.536],[-28.75,-60.539,-54.421,-53.453,-46.655,-28.01,-68.055,-45.458,-49.216,-40.513,-53.42,-37.733,-35.861,-43.893,182.359,29.288,-39.285,-22.455,-69.072,-79.355,36.131,19.927,24.048,2.933,-34.051,440.833,99.583,53.016,47.966,-18.274],[-8.362,-277.752,-28.653,-102.605,-56.681,-68.693,-35.744,-72.371,-54.224,-30.258,-44.316,-51.642,-49.685,-38.989,-50.765,-31.426,-5.973,-18.201,-16.995,-26.127,89.315,51.57,35.629,23.691,0.219,214.19,118.47,77.527,56.731,30.552],[-23.411,-56.055,-56.204,-59.414,-16.428,-26.015,-14.534,-64.571,-62.252,-50.302,-7.171,-3428.593,-72.069,-62.289,20.264,50.628,11.002,-518.029,-41.84,-40.008,136.544,27.295,-3.928,0.694,3.322,240.106,120.725,81.012,1.507,45.348],[-37.497,-36.716,-63.667,-66.663,-60.512,-4.873,-37.688,-76.493,-64.768,-70.219,3.329,-21.944,-58.825,-31.234,-62.491,240.452,-19.101,-42.887,-55.032,-79.08,209.762,92.84,25.322,-32.111,-5.854,308.497,107.984,24.968,35.686,22.411],[-9.974,36.869,-35.932,-51.607,-70.931,-8.467,-14.96,-57.948,-56.82,-70.274,6.49,-17.431,-56.258,-59.964,-64.32,54.854,48.254,-23.278,-43.278,-51.547,83.702,36.835,8.827,-25.966,-34.027,149.209,80.757,87.57,43.099,40.188]],
"kep": [[-123.743,-98.5,-63.238,-20.665,-63.512,-129.029,-76.243,-53.563,4.798,-1.074,-127.365,-52.907,-57.662,-35.976,6.081,-133.342,-94.637,-73.533,-107.668,-12.782,-128.567,-135.74,-117.89,-134.319,-77.643,-68.555,-197.779,-217.565,-309.589,-245.594],[-92.408,-83.985,-111.691,-75.95,-28.093,-93.006,-89.487,-122.198,-95.922,-4.736,-101.336,-86.92,-141.801,-74.444,7.631,-96.178,-89.214,-110.827,-100.339,-61.046,-83.954,-97.308,-121.527,-126.446,-91.432,-105.973,-70.664,-103.94,-151.423,-145.377],[-100.07,-76.744,-67.166,-102.549,-114.278,-96.436,-73.389,-51.331,-96.4,-122.144,-98.25,-64.186,-75.024,-80.845,-124.512,-94.72,-69.421,-74.705,-86.202,-104.576,-91.759,-71.09,-76.414,-82.286,-108.105,-85.436,-67.454,-46.531,-72.056,-144.002],[-98.961,-74.346,-55.062,-54.765,-47.757,-94.944,-77.448,-45.014,-54.859,-60.318,-96.088,-77.235,-51.025,-53.751,-56.771,-97.707,-84.319,-56.252,-44.24,-48.122,-96.247,-75.216,-58.947,-49.03,-60.981,-89.295,-73.172,-64.471,-53.231,-71.244],[-100.239,-80.159,-57.13,-39.497,-29.65,-99.793,-83.573,-52.921,-34.723,-21.897,-101.985,-82.782,-52.81,-46.789,-25.89,-98.256,-80.985,-53.388,-40.121,-29.87,-98.441,-89.621,-63.918,-47.795,-50.03,-94.033,-76.577,-51.11,-45.291,-45.484],[-98.524,-85.826,-58.755,-42.689,-26.31,-99.415,-86.535,-56.202,-37.499,-31.979,-97.538,-83.501,-60.405,-34.792,-32.023,-99.547,-90.119,-63.806,-44.551,-34.562,-94.886,-78.401,-61.122,-48.812,-29.187,-93.247,-73.685,-65.577,-62.73,-59.722]],
"vp": [[-212.836,24.385,133.265,550.572,511.435,-39.943,-33.152,144.737,65.821,-83.632,-22.645,-16.906,-20.397,69.74,15.403,-29.303,-4.502,-18.818,-17.373,-15.831,-19.996,-20.48,1.255,-20.335,-4.614,-25.603,-32.082,-11.242,-28.282,3.498],[2288.305,822.677,16.095,-255.417,-575.182,500.982,125.496,-49.878,-56.89,71.239,283.749,116.07,0.982,-44.836,10.01,24.89,6.166,-5.045,-18.679,-3.628,-7.65,-23.752,-22.748,-6.935,-22.703,-18.2,-24.647,-14.916,-45.66,-4.531],[5428.497,3693.92,1888.103,402.479,-395.631,854.775,688.728,221.962,186.622,105.499,514.271,319.78,149.24,58.292,-75.848,81.619,53.838,39.256,5.156,-17.814,7.494,15.598,-6.417,-10.758,-3.54,-23.954,-9.67,1.038,-33.255,-23.621],[5599.063,5080.848,3500.671,2353.317,1071.649,1132.823,1183.309,641.559,473.414,265.914,484.204,513.582,290.842,156.953,234.148,81.236,98.732,58.936,14.816,-2.257,49.147,41.315,20.938,5.624,-13.929,-13.589,-14.861,-16.577,-19.889,-37.348],[7039.078,7531.356,5455.214,4363.574,3009.074,1197.716,1491.945,906.359,612.928,351.573,691.326,763.016,529.428,472.652,194.06,105.694,110.309,100.151,54.343,17.474,28.766,45.464,18.149,11.811,9.599,-18.016,-14.866,-8.68,-31.84,-15.482],[6145.967,8353.459,8015.537,5626.076,3374.652,1400.557,1831.252,1275.495,883.542,798.326,680.121,947.857,747.729,461.858,357.292,74.33,177.026,154.888,95.695,71.561,31.399,54.664,36.505,24.455,38.48,-19.326,6.106,11.43,12.805,9.164]]
}