{
"KTrans": [[2.12,4.221,-0.942,2.763,0.777,4.525,2.506,0.616,0.69,0.59,0.73,3.823,1.954,5.413,1.767,44.426,26.439,16.726,11.125,9.576,74.314,63.447,37.98,27.697,37.472,8.013,143.511,121.429,74.803,79.988],[-20.167,3.076,0.401,-1.562,-0.218,-24.565,1.463,2.63,-1.212,-0.074,-14.37,2.722,1.924,0.188,-1.657,24.199,18.16,8.588,8.058,7.286,52.127,30.566,22.421,19.487,14.301,-110.369,92.437,68.659,55.609,39.374],[-54.716,1.044,-0.478,-0.526,0.185,-50.774,4.235,-1.505,-0.733,0.106,-58.383,3.056,1.986,1.172,-0.461,-26.061,15.485,17.795,4.399,3.527,-20.612,30.809,22.81,24.726,12.605,-110.687,-18.734,53.609,49.123,29.611],[-75.451,2.052,2.567,-0.652,-0.238,-68.491,1.612,4.934,1.219,-0.001,-68.497,-1.066,5.382,2.092,0.256,-54.324,-7.266,21.11,10.83,7.433,-42.383,3.415,36.145,24.975,11.046,-42.868,-3.041,24.986,40.141,27.662],[-82.062,-13.979,3.445,-1.979,-0.484,-80.655,-10.037,9.735,5.499,-0.662,-80.752,-17.318,5.374,3.547,2.791,-67.936,-8.73,21.918,11.904,6.942,-58.368,2.428,23.394,15.781,15,-53.355,-18.642,30.485,52.597,25.452],[-86.615,-44.484,9.416,2.519,0.879,-84.155,-43.971,7.978,5.285,4.664,-81.927,-39.377,5.716,9.744,4.013,-71.89,-28.575,1.198,20.362,17.662,-66.787,-22.915,17.631,26.655,23.031,-100.895,1.689,16.983,27.843,43.261]],
"ve": [[-2.691,-1.461,2.431,-0.328,48.024,-2.628,-1.349,1.537,1.541,3.968,5.382,-0.062,0.575,-0.197,5.472,10.473,-18.019,98.707,0.652,-18.346,31.536,0.843,-3.653,-28.463,-30.83,85.957,16.914,8.812,-43.049,-118.954],[-18.99,-2.943,-2.952,-2.998,-2.611,-16.236,-4.663,-3.208,-2.86,-2.561,-14.576,-3.235,-2.325,-2.892,-2.045,4.276,4.452,-0.817,-0.408,-1.099,26.835,-1.833,3.094,3.227,63.31,126.204,23.684,21.173,9.222,2.911],[-45.967,-6.961,-4.557,-3.507,-3.479,-25.593,-7.619,-5.005,-3.767,-3.157,-42.516,-4.469,-4.051,-3.384,-3.26,-17.352,-0.404,2.364,-3.423,-2.644,7.029,7.069,-1.628,6.692,1.241,53.304,49.157,17.961,10.474,1.467],[-58.166,-11.738,-5.227,-4.903,-3.934,-46.281,-12.778,-4.462,-4.72,-3.902,-31.784,-12.041,-4.098,-4.404,-4.185,-29.473,-16.956,1.115,-0.438,-0.746,-22.943,-8.042,1.147,-1.753,-0.602,7.367,31.059,5.026,6.653,4.524],[-58.336,-21.467,-7.275,-6.049,-5.002,-61.13,-18.362,-6.103,-4.763,-4.692,-49.826,-22.67,-7.214,-5.046,-4.378,-18.09,-8.962,-3.008,-2.095,-2.203,25.414,2.614,-3.416,-3.517,0.073,22.406,32.986,11.657,14.288,-0.734],[-62.343,-30.782,-9.65,-6.003,-5.708,-58.391,-33.194,-9.183,-5.286,-5.352,-57.615,-28.617,-7.71,-4.333,-4.103,-30.594,-26.122,-11.377,-2.037,0.218,-52.555,-18.878,2.458,-0.04,0.712,39.548,12.256,7.37,5.811,7.17]],
"kep": [[4.587,6.802,-0.811,6.579,3.689,7.126,4.82,1.695,3.859,1.994,0.364,5.129,4.074,9.582,3.984,17.588,15.801,13.912,10.233,9.556,29.669,35.473,18.274,14.317,41.914,77.411,84.209,99.335,55.264,77.26],[-4.792,5.344,3.329,1.538,2.617,-12.514,6.077,6.073,1.719,2.667,-6.12,5.481,4.246,3.125,0.531,-0.196,10.235,7.112,7.52,8.003,-1.598,13.777,9.377,11.353,9.62,-16.29,45.587,26.539,28.563,15.894],[-37.045,7.479,3.976,2.981,3.759,-31.013,11.08,3.426,3.143,3.384,-43.386,6.532,5.926,4.601,2.86,-35.291,9.754,14.827,6.486,5.414,-32.745,4.409,21.966,13.201,7.83,-48.775,-8.763,17.28,24.098,10.724],[-64.714,14.292,7.819,4.325,3.759,-51.999,13.86,9.192,6.04,4.002,-55.731,8.116,9.278,6.651,4.558,-53.515,-2.107,18.769,10.277,7.542,-52.422,-9.54,29.228,24.453,8.528,-54.583,-13.86,-1.694,18.564,8.596],[-70.715,7.067,10.617,4.006,4.72,-69.433,7.798,15.518,10.378,4.151,-73.375,1.884,11.496,8.731,7.41,-66.564,-10.67,23.864,12.069,8.709,-64.083,-16.985,9.884,13.155,13.163,-62.368,-28.511,2.507,22.956,6.261],[-77.475,-23.606,19.14,8.06,6.651,-74.68,-23.99,16.846,10.22,10.326,-74.092,-24.503,12.715,13.908,8.083,-71.506,-23.258,7.153,21.444,17.045,-69.585,-28.822,5.867,23.7,18.972,-72.538,-28.147,-8.516,7.218,22.841]],
"vp": [[290.84,132.127,359.796,186.464,257.693,27.22,19.311,48.026,36.897,55.017,24.928,11.766,11.415,-4.406,8.817,-34.822,-22.04,-14.199,-6.753,-7.665,-34.93,-30.92,-18.757,-12.012,-27.956,-47.576,-44.343,-35.156,-22.091,-29.816],[1846.311,584.584,768.016,959.939,746.311,311.351,144.647,104.563,169.669,161.479,134.158,55.929,41.657,75.775,95.811,-17.237,-13.316,-0.264,-11.588,-7.357,-31.601,4.266,-9.895,-19.659,-12.043,-66.131,-26.007,-41.804,-36.17,-27.499],[4475.66,1238.301,1193.275,1206.269,1180.433,785.146,297.156,281.011,240.005,219.534,415.203,88.652,94.701,103.18,123.077,34.872,-1.065,-21.112,17.441,18.38,-8.774,-14.982,3.664,-35.843,-9.363,-32.526,-51.538,-31.951,-32.154,-12.056],[5778.033,2288.514,1300.909,1516.438,1597.031,964.427,485.144,227.332,271.723,300.875,461.934,236.676,96.98,138.406,167.27,57.896,69.134,-18.877,-10.278,-10.13,21.881,13.997,-5.993,6.553,-2.155,-2.239,-34.676,-7.343,-17.572,-17.011],[6266.014,4349.714,2139.002,2009.343,2126.467,1220.611,714.801,330.17,304.971,377.576,553.109,456.984,194.195,167.912,178.078,31.689,31.416,13.95,6.626,10.979,-14.945,-10.867,11.458,13.375,-6.97,-10.901,-35.046,-18.161,-33.233,-10.174],[6287.585,5906.953,2625.753,2197.702,2428.568,1146.295,1332.362,536.847,388.127,444.75,575.459,557.414,194.775,148.208,166.644,57.05,101.408,61.964,7.84,-10.923,55.458,36.004,-14.509,-3.116,-9.728,-19.301,-10.087,-12.16,-13.841,-22.248]]
}