{
"KTrans": [[-27.537,46.3,23.463,33.861,28.829,-3.316,41.567,40.956,34.39,31.811,-13.361,45.638,46.393,42.21,20.328,73.447,153.211,103.52,96.241,87.99,319.588,278.02,239.65,189.562,181.468,759.479,709.511,549.277,480.285,408.848],[-80.494,26.423,45.493,45.462,36.654,-83.264,26.407,53.932,57.152,31.615,-90.424,32.113,66.797,41.796,47.915,-48.968,135.51,114.18,97.267,72.87,-39.421,162.136,185.61,138.084,124.647,75.303,451.059,354.576,244.99,218.933],[-93.902,-36.037,55.405,79.098,63.737,-106.059,-50.737,73.071,86.086,40.661,-102.428,-19.596,64.09,79.772,46.222,-93.915,8.455,148.512,104.692,92.679,-84.164,10.794,174.351,127.246,119.481,3.731,168.633,359.857,304.663,210.018],[-104.809,-85.975,26.265,78.783,64.834,-105.452,-85.66,17.344,83.111,99.276,-98.128,-77.422,23.255,97.575,89.786,-117.396,-82.908,63.479,145.394,135.403,-98.905,-100.253,112.551,203.703,170.447,-56.896,-13.013,233.712,297.655,269.223],[-102.948,-140.309,-75.169,67.649,101.653,-100.914,-121.67,-56.186,82.77,118.124,-104.998,-114.848,-30.251,89.7,121.803,-108.47,-112.716,-26.907,116.565,154.793,-111.059,-100.995,22.764,173.003,196.226,-88.424,-166.628,39.068,224.653,296.832],[-104.425,-114.36,-70.794,-12.274,82.158,-105.155,-125.683,-69.752,16.796,127.139,-105.741,-107.824,-91.873,1.901,112.394,-108.643,-123.93,-83.454,8.038,166.161,-103.902,-142.542,-111.726,23.739,148.177,-106.155,-169.06,-110.379,74.466,232.879]],
"ve": [[-9.004,-12.215,28.405,-170.537,77.134,252.079,50.39,48.549,6.307,-5.011,69.278,1.897,-14.417,-78.216,110.594,40.573,23.927,13.499,-3.207,-3.01,91.707,38.062,9.367,-2.297,-15.722,198.641,86.048,37.079,13.591,-4.395],[2.991,5.774,4.489,4.107,2.537,15.419,9.572,4.992,4.69,0.515,19.448,9.544,6.365,4.427,3.055,52.656,38.173,17.714,12.36,8.265,87.283,52.098,32.161,19.316,12.735,213.585,97.968,58.458,42.388,29.118],[6.789,0.663,5.315,4.764,2.909,20.294,9.247,7.523,5.318,1.933,19.525,-34.077,6.723,6.218,2.559,42.469,24.836,15.811,13.14,12.159,86.311,48.391,35.45,22.485,16.133,199.712,102.658,68.798,51.7,38.458],[7.41,3.816,3.141,1.421,1.895,46.598,12.578,-31.708,3.622,5.483,9.563,7.52,8.903,5.929,2.117,49.748,30.322,16.89,16.729,12.177,103.884,56.355,37.903,29.166,23.116,207.953,80.17,65.774,52.259,41.987],[3.3,7.65,5.119,2.135,1.672,11.225,2.095,1.274,7.074,5.455,44.863,1.336,6.568,10.369,5.313,120.345,25.849,22.89,19.419,14.176,110.2,47.828,39.9,28.892,21.705,204.78,107.839,49.871,51.885,44.902],[9.449,5.668,5.067,3.207,2.892,12.665,3.339,6.482,2.92,6.543,16.061,5.195,3.469,4.032,7.02,79.308,25.387,9.398,-23.842,15.982,108.259,44.552,33.836,25.927,20.322,246.221,84.328,70.534,109.896,43.956]],
"kep": [[-43.579,39.55,21.707,43.183,40.571,-25.255,37.094,49.195,45.649,52.636,-39.43,39.492,43.173,57.197,21.837,3.927,117.841,98.336,110.222,133.212,104.034,175.572,214.174,202.758,246.561,188.585,338.068,374.434,413.489,431.999],[-87.163,13.887,36.839,39.656,33.44,-87.399,9.711,43.742,48.75,29.723,-93.288,14.353,53.097,34.886,43.562,-67.804,74.475,77.687,72.766,58.135,-74.648,68.434,111.333,93.561,95.423,-44.662,168.084,178.269,136.511,141.963],[-97.207,-45.176,39.523,66.365,54.29,-104.97,-59.26,53.193,70.649,31.837,-101.987,-32.221,48.597,64.37,37.048,-95.422,-21.005,95.831,71.643,67.831,-92.285,-34.273,95.146,77.343,82.508,-64.938,28.904,167.321,158.755,118.537],[-105.012,-90.653,13.497,66.035,53.809,-105.728,-87.701,4.855,66.991,81.169,-98.565,-82.949,7.556,79.202,74.493,-110.563,-86.183,29.553,101.54,101.449,-100.639,-97.787,50.806,124.963,112.943,-85.146,-56.814,89.799,153.832,153.155],[-102.614,-134.626,-78.657,51.566,84.908,-101.874,-116.453,-60.366,59.742,97.415,-103.922,-112.028,-37.269,65.111,98.984,-105.619,-108.63,-45.944,75.661,114.567,-106.067,-100.547,-13.343,101.496,128.826,-95.446,-129.991,-20.861,104.352,165.783],[-104.284,-112.14,-74.153,-22.603,63.571,-104.987,-120.944,-74.066,3.558,101.979,-104.108,-104.982,-92.362,-10.93,89.263,-105.416,-116.913,-85.745,-14.515,120.401,-102.175,-124.565,-106.365,-8.584,93.33,-101.837,-130.894,-102.311,9.221,123.216]],
"vp": [[3179.232,2388.723,1706.192,1618.766,2111.472,547.322,506.315,391.84,332.252,293.444,316.311,191.478,233.642,196.489,167.701,57.112,46.072,32.913,37.201,36.798,28.274,15.049,23.057,22.621,18.505,15.246,9.294,4.398,8.611,9.654],[8219.467,7909.563,6230.133,6400.933,5677.428,1670.573,1783.047,1194.95,1388.59,1155.876,799.048,828.172,652.574,583.108,723.114,140.545,192.378,132.445,126.647,105.804,82.122,79.677,61.107,64.659,56.702,33.788,38.621,34.163,24.066,27.254],[9441.67,13088.859,12780.633,12945.449,13082.717,1749.73,3335.117,2433.977,2399.359,1924.988,901.494,1159.069,1331.447,1007.687,761.053,165.299,251.114,319.139,187.702,220.4,96.507,137.584,113.954,89.846,90.839,41.388,61.872,65.656,54.616,49.513],[10111.713,16279.41,19725.094,16701.192,14221.622,2113.989,3554.58,3576.574,3261.163,3789.661,920.347,1576.574,1914.932,1626.91,1496.687,205.563,303.735,337.99,328.589,359.947,105.612,165.402,187.799,188.011,153.316,51.674,72.832,88.365,99.114,77.325],[10104.097,18819.519,23806.159,22424.919,20461.284,2233.221,3503.966,4166.729,5078.81,4949.964,1079.391,1742.41,2182.695,2571.2,2020.311,226.262,345.595,438.266,498.899,440.516,105.563,181.009,216.706,246.636,222.627,50.718,87.888,113.37,114.283,119.697],[11832.057,18122.057,24437.559,29883.105,23869.034,2200.815,3963.817,5158.979,4975.528,5879.928,1017.735,1782.517,2405.526,2851.929,2952.142,231.361,386.056,446.635,555.696,636.343,111.123,195.582,240.908,258.085,228.795,59.914,96.063,109.425,127.444,148.12]]
}