{
"KTrans": [[14.357,6.008,6.971,7.528,10.467,1.265,7.596,8.044,8.436,11.998,13.207,10.174,9.466,7.168,10.576,18.877,20.053,19.74,17.409,18.55,27.523,26.441,25.643,26.209,24.075,51.465,48.796,44.446,45.978,42.82],[-30.606,-5.451,1.656,4.597,5.372,-35.216,-2.618,3.733,3.074,4.487,-35.971,-7.696,4.704,4.271,6.086,-24.92,-2.547,7.108,7.163,9.072,-29.443,7.117,8.044,11.299,10.916,-21.986,11.603,18.51,17.642,20.364],[-71.102,-20.321,-10.72,-3.437,-0.164,-62.823,-23.419,-11.301,-1.721,0.735,-65.461,-22.45,-9.075,-5.771,1.344,-63.032,-17.771,-5.87,-2.404,3.238,-55.588,-18.362,-3.538,-0.736,5.599,-58.263,-16.504,-4.176,7.324,8.457],[-81.13,-41.496,-21.717,-11.305,-6.733,-80.935,-34.405,-25.327,-12.791,-5.718,-82.709,-40.321,-20.485,-10.087,-5.388,-79.099,-41.272,-16.476,-9.871,-5.026,-77.115,-39.525,-20.536,-8.217,-2.356,-69.02,-39.872,-16.771,-3.62,1.236],[-90.713,-53.49,-31.755,-20.213,-13.749,-90.562,-50.993,-34.304,-22.989,-12.397,-89.447,-55.493,-32.402,-21.243,-13.404,-85.724,-55.332,-33.917,-19.102,-10.723,-85.058,-56.199,-31.66,-17.096,-9.452,-81.421,-53.56,-34.208,-15.209,-9.683],[-93.203,-61.512,-41.43,-29.941,-20.777,-92.153,-61.514,-40.29,-27.989,-18.139,-91.756,-62.952,-43.335,-31.478,-20.193,-90.011,-61.443,-42.784,-29.667,-17.202,-88.203,-65.263,-40.328,-28.031,-19.717,-84.907,-66.501,-42.486,-26.004,-16.087]],
"ve": [[7.304,7.46,-3894.236,108.317,23.822,6.826,11.27,23.46,29.788,7.864,6.598,11.552,17.203,40.164,-22.625,16.815,16.356,15.616,-37.434,-166.583,25.094,15.312,20.131,-109.356,19.068,27.12,24.923,-321.304,34.888,5.908],[-11.058,-2.077,1.29,2.849,3.115,-14.443,-2.154,1.416,1.825,4.169,-14.936,-2.698,2.11,1.855,3.907,-1.502,2.629,4.455,3.874,5.286,5.032,9.039,7.257,6.097,6.264,21.095,16.929,13.454,11.26,10.164],[-35.292,-8.657,-4.298,-1.268,0.559,-28.623,-7.864,-4.661,-0.705,0.602,-27.907,-8.135,-2.974,-0.989,0.763,-22.868,-1.44,0.381,1.2,2.269,-6.608,0.742,3.885,2.916,3.681,3.431,9.014,6.576,9.012,7.365],[-41.782,-16.177,-7.155,-4.094,-2.62,-40.26,-14.525,-9.587,-4.334,-2.065,-51.1,-16.438,-6.292,-4.066,-1.953,-33.804,-11.769,-3.168,-1.737,-0.117,-23.199,-8.882,-1.509,0.284,1.186,3.929,-1.551,3.831,6.377,5.127],[-57.181,-23.39,-12.036,-7.48,-5.065,-55.872,-20.828,-12.921,-8.053,-3.717,-53.285,-21.974,-12.295,-7.342,-4.533,-83.257,-22.268,-10.51,-5.105,-2.445,-73.761,-17.663,-8.129,-2.012,-0.307,-1.776,-5.4,-4.004,3.047,2.319],[-60.371,-30.469,-16.94,-11.67,-7.307,-46.195,-28.476,-16.424,-10.501,-6.453,-46.422,-27.641,-16.887,-11.388,-7.186,-53.037,-25.363,-15.33,-8.881,-5.06,-54.938,-22.494,-10.744,-6.119,-4.271,-28.994,-15.749,-6.442,-1.803,0.356]],
"kep": [[-13.087,-19.451,-21.029,-25.114,-26.125,-21.118,-18.246,-20.338,-23.755,-18.831,-14.071,-16.313,-17.646,-24.5,-24.299,-16.059,-12.219,-10.524,-12.065,-9.711,-17.306,-9.211,-6.618,-2.731,-7.951,-15.343,-0.826,1.723,12.248,14.677],[-40.909,-21.919,-18.245,-17.001,-16.577,-42.857,-19.706,-16.787,-17.352,-18.035,-42.563,-23.454,-16.476,-16.501,-16.624,-40.738,-23.101,-16.571,-15.893,-15.447,-47.292,-20.335,-18.126,-14.533,-14.85,-51.824,-23.263,-15.356,-14.071,-10.964],[-68.045,-30.29,-24.328,-20.429,-19.172,-64.328,-33.297,-24.601,-19.453,-18.471,-64.205,-32.637,-24.019,-22.547,-18.088,-64.374,-32.955,-23.854,-21.559,-17.75,-63.674,-35.293,-24.663,-21.589,-17.096,-70.197,-38.55,-27.403,-20.053,-17.939],[-76.992,-44.348,-31.847,-24.934,-22.021,-75.985,-39.495,-33.309,-25.936,-21.639,-79.696,-43.221,-31.285,-23.865,-21.473,-78.77,-47.181,-30.222,-25.454,-22.673,-78.399,-47.378,-34.769,-25.637,-21.536,-77.227,-51.553,-35.495,-26.535,-21.726],[-87.757,-52.64,-37.557,-29.967,-26.143,-86.317,-51.263,-39.306,-32.097,-26.022,-86.35,-55.239,-37.804,-30.997,-26.25,-84.54,-54.801,-40.34,-30.816,-25.654,-84.455,-57.996,-39.895,-31.51,-26.193,-85.11,-61.318,-45.249,-33.507,-28.377],[-90.125,-57.745,-43.775,-35.919,-30.608,-89.105,-58.463,-42.765,-34.813,-28.914,-89.009,-60.283,-45.572,-37.416,-30.154,-88.506,-60.51,-46.141,-37.584,-29.172,-87.443,-65.418,-46.686,-37.962,-31.887,-86.681,-68.824,-50.754,-39.079,-32.227]],
"vp": [[-361.034,85.228,-185.755,-322.784,-373.696,31.786,3.949,-7.577,-65.373,-86.612,-25.226,-27.903,-9.537,-11.305,-12.657,-4.002,-5.232,-7.013,-4.083,-7.989,-0.636,-1.878,-1.273,-1.113,-1.239,-0.558,-2.83,-2.742,-2.925,-1.774],[1351.542,294.858,-254.365,-536.435,-325.849,363.813,60.693,-68.152,-18.517,-48.979,207.299,65.076,-55.148,-8.878,-38.181,29.294,7.534,-12.913,-5.56,-7.175,16.055,-2.665,-2.144,-3.506,-2.421,9.901,0.186,-2.446,-2.056,-4.953],[4622.987,1677.083,1167.542,453.145,-83.844,697.127,381.424,296.195,35.205,-58.333,382.74,194.764,89.99,74.414,-37.698,77.217,19.494,12.095,7.731,-3.837,33.466,15.303,2.415,7.36,-1.255,19.244,7.681,9.059,-1.609,0.079],[5417.766,3817.059,2294.7,1490.464,1216.322,1091.474,640.197,608.113,316.731,175.301,598.831,395.735,190.022,149.758,77.282,107.029,70.626,30.505,26.658,18.383,54.124,37.065,22.739,13.824,7.606,19.406,21.737,11.828,3.284,3.268],[7044.242,5564.346,3851.715,2942.895,2338.831,1456.937,952.905,831.596,719.403,324.934,712.449,533.579,402.03,299.004,219.535,129.365,122.365,85.634,52.236,34.678,63.062,60.476,43.38,22.261,14.805,28.136,26.33,26.06,10.441,11.756],[7406.017,6996.136,5622.267,4975.2,3388.082,1445.408,1363.472,1049.713,895.003,602.934,718.449,694.922,581.959,502.151,368.453,138.736,137.083,116.849,91.243,60.162,69.337,72.533,53.187,42.302,37.911,31.71,39.062,30.433,20.649,16.479]]
}