{
"KTrans": [[1.052,1.174,0.471,0.954,1.216,3.938,2.313,0.259,0.998,-0.133,0.306,1.829,1.512,1.162,0.823,15.009,6.629,12.029,5.019,1.221,64.307,22.135,4.681,16.404,13.813,-36.626,54.775,52.364,32.499,33.807],[11.216,1.509,1.499,1.062,0.855,-0.505,2.786,1.424,0.85,0.705,18.809,2.942,2.819,1.188,1.319,27.577,7.938,5.708,-0.82,0.21,25.853,19.23,12.044,1.712,2.389,78.082,53.832,34.18,21.865,14.903],[-37.11,8.266,3.247,1.844,0.736,-38.279,8.996,5.07,2.286,1.622,-33.505,9.235,3.692,2.545,1.382,-29.737,28.576,4.638,4.978,1.205,-39.723,56.073,16.071,9.913,3.456,-27.643,48.602,32.293,19.442,13.787],[-71.596,31.224,7.893,4.25,2.649,-74.152,13.626,10.174,4.445,2.521,-80.151,21.788,11.315,5.19,2.727,-51.015,56.469,16.325,7.134,1.46,-63.011,10.887,27.625,5.83,5.253,-35.352,72.755,45.103,20.863,5.462],[-83.543,10.896,8.827,6.013,3.577,-80.986,19.828,18.909,6.315,4.256,-83.472,29.952,16.499,6.123,5.231,-57.616,-5.275,28.682,13.155,6.904,-77.24,9.512,40.941,15.493,6.017,3.888,11.291,45.084,23.455,18.274],[-86.158,-8.971,23.305,12.339,5.676,-84.692,-21.998,23.991,11.957,6.046,-85.554,-0.893,32.548,13.306,6.23,-77.996,-45.899,69.341,17.996,10.853,-77.198,45.154,36.904,28.066,9.556,-93.403,35.216,115.29,63.766,27.391]],
"ve": [[-0.042,-0.403,-0.379,-0.692,-1.629,0.264,-0.39,-0.051,-0.624,0.415,-0.77,-0.65,0.207,-0.519,0.219,75.319,-4.402,-106.03,43.853,-35.819,24.112,-8.863,-19.731,1157.86,-21.416,-17.757,-7.01,-52.005,-53.662,-41.238],[-0.11,-1.133,-0.852,-1.035,-0.962,-4.177,-0.869,-0.821,-1.047,-1.088,1.19,-1.024,-0.813,-0.823,-0.941,9.248,0.165,0.654,-2.124,-1.447,6.453,5.288,3.116,-0.048,0.903,39.178,24.378,7.873,-3.427,-37.486],[-46.524,0.664,-0.801,-0.989,-1.085,-44.395,0.894,0.177,-1.016,-0.964,-43.545,0.465,-0.916,-0.858,-0.938,-37.146,6.136,-0.103,-0.054,-1.874,-35.961,2.454,3.927,2.519,-0.712,-30.654,9.181,4.623,-0.941,5.707],[-79.981,6.203,0.614,-0.28,-0.715,-79.079,1.057,1.374,-0.198,-1.059,-50.45,3.199,2.17,0.016,-0.568,-78.991,-4.771,3.385,1.412,-2.263,-82.762,-6.281,2.198,-0.571,-0.39,-78.532,-40.086,-0.923,3.89,-0.026],[-93.84,-34.626,1.008,0.439,-0.517,-89.767,-33.477,4.235,0.554,-0.318,-96.394,-24.78,2.262,0.171,-0.259,-114.613,-40.346,4.324,4.063,0.494,-89.971,-15.456,1.947,1.325,-1.681,-85.4,-25.561,-21.35,-5.873,-0.6],[-88.414,-50.671,5.362,2.384,0.055,-97.517,-58.472,5.24,2.151,-0.143,-96.989,-70.953,7.632,2.674,-0.251,-83.597,-60.505,2.844,4.121,1.424,-97.828,-77.329,-3.243,1.276,-0.341,-96.048,-88.308,-27.28,-10.62,-4.153]],
"kep": [[0.883,1.753,1.322,2.224,3.662,3.369,2.901,0.786,2.343,0.638,0.62,2.534,1.896,2.408,1.842,-2.185,1.48,12.087,5.399,-2.414,20.26,-0.128,-11.362,11.207,10.647,35.387,19.044,19.563,4.422,10.134],[7.95,2.554,2.343,2.113,1.858,1.178,3.536,2.21,1.917,1.816,13.004,3.708,3.581,1.996,2.28,11.162,5.517,3.917,0.419,1.109,-22.618,5.216,4.897,-1.469,0.217,-25.103,1.398,6.334,3.759,3.595],[-55.138,7.066,3.991,2.83,1.832,-44.56,7.465,4.765,3.307,2.594,-36.364,7.766,4.509,3.378,2.314,-57.325,23.121,3.642,4.361,2.676,-52.407,29.875,10.685,4.889,2.006,-47.219,-31.433,12.837,1.885,2.465],[-80.614,20.009,7.062,4.479,3.363,-85.116,10.612,8.274,4.602,3.581,-89.298,15.044,8.694,5.102,3.277,-88.81,53.023,11.853,5.088,3.173,-78.322,-15.402,31.916,3.338,3.203,-81.729,-53.669,7.734,16.824,-2.708],[-97.034,-35.096,6.799,5.315,4.08,-94.735,-38.062,12.862,5.623,4.509,-99.494,-23.64,13.067,5.771,5.44,-101.29,-34.076,23.374,8.266,5.94,-83.909,-34.576,28.561,11.972,6.415,-88.804,-48.121,-36.051,25.941,15.412],[-94.549,-50.999,13.236,9.237,5.537,-100.383,-62.498,14.319,9.075,6.046,-94.662,-78.185,19.127,9.854,6.364,-92.682,-64.271,30.639,12.52,9.053,-91.613,-86.753,-1.709,29.787,8.357,-86.536,-74.483,-48.731,40.188,34.78]],
"vp": [[49.97,42.066,11.317,47.4,38.785,-15.998,-13.973,16.383,9.924,26.977,4.724,-2.157,0.177,1.057,-1.297,-5.928,-1.569,-18.998,-5.099,3.378,-25.429,-9.783,3.663,-12.662,-10.079,4.903,-7.446,-15.427,-6.25,-11.008],[-18.145,183.274,84.168,170.631,120.255,82.646,6.936,24.964,34.838,34.702,-15.115,9.724,-1.421,8.121,5.223,-20.591,-1.599,-10.266,18.539,12.537,-7.489,-7.336,-11.957,8.148,3.03,-23.022,-25.324,-21.798,-13.688,-7.32],[4654.423,-235.937,138.778,177.37,315.329,894.247,-53.123,-46.558,29.85,37.646,440.829,-15.39,20.505,11.542,23.054,74.468,-26.883,-3.595,-5.066,13.216,36.643,-5.931,-14.495,-13.489,2.605,14.296,-12.719,-8.161,-10.585,-10.153],[8130.735,-1173.779,-333.406,-91.468,172.965,1602.736,-50.258,-85.157,-9.025,60.754,839.717,-69.579,-84.005,-19.103,-1.492,155.123,21.833,-23.325,-16.187,19.998,83.847,12.357,-7.044,1.43,0.392,34.062,42.856,2.012,-3.934,1.98],[9332.724,6911.458,-399.264,-376.851,45.158,1759.108,1336.063,-282.001,-82.658,-2.05,973.046,487.604,-72.146,-30.383,-11.747,231.913,162.453,-25.858,-38.4,-10.184,89.077,28.53,-7.663,-6.147,7.965,40.513,25.31,24.454,13.061,2.837],[8839.149,9844.937,-1850.133,-1151.035,-288.805,1964.857,2349.056,-321.578,-210.041,-9.178,952.904,1430.09,-235.097,-125.502,-0.16,187.797,246.696,-18.131,-35.471,-18.435,97.358,155.066,5.983,-5.971,0.533,46.27,90.295,40.193,23.743,9.85]]
}