{
"KTrans": [[2.384,1.153,0.482,0.448,0.992,13.306,7.589,6.758,5.531,5.342,25.749,16.004,12.831,11.671,10.898,157.65,93.197,73.145,65.24,60.155,49.12,232.418,161.255,154.748,130.443,153.355,119.138,250.421,272.635,299.306],[3.526,0.88,0.519,0.739,0.677,8.799,5.691,4.458,3.078,2.568,25.972,11.125,8.592,6.376,5.556,126.075,67.711,45.932,37.199,30.242,7.154,184.865,98.536,74.176,65.541,43.847,23.563,221.331,183.236,151.929],[1.182,0.974,0.814,0.678,0.607,10.232,5.973,3.368,2.977,2.413,22.948,11.3,7.696,6.018,5.289,-9.742,66.011,45.16,33.199,26.27,-38.189,196.019,90.098,65.309,58.464,-31.987,-89.897,132.789,184.25,126.569],[3.584,2.922,1.187,0.778,0.628,20.014,5.797,3.113,3.239,2.285,15.937,14.277,6.951,6.275,4.675,-63.961,85.522,43.801,31.981,22.851,-56.954,42.319,123.053,73.441,49.917,-68.818,-30.267,-14.24,173.012,128.594],[-4.75,3.404,1.198,0.519,0.57,2.255,9.451,5.367,3.155,2.449,-14.717,9.683,10.005,5.539,4.789,-43.011,96.688,41.944,33.971,22.592,-65.311,-60.895,113.302,85.842,55.562,-76.742,-55.966,-89.453,182.969,128.758],[-35.678,2.594,0.836,0.855,0.711,-45.314,4.889,5.669,3.301,2.748,-50.855,17.888,8.202,6.803,4.887,-56.958,81.587,47.483,32.043,23.379,-61.123,-6.38,113.233,65.042,47.802,-90.93,-76.581,57.136,221.68,143.302]],
"ve": [[1.119,0.241,0.091,-0.139,-1.27,4.703,0.861,-1.584,-3.159,-4.16,8.648,1.621,-2.446,-5.397,-8.135,46.079,13.796,-0.939,-10.838,-18.291,238.812,38.226,9.758,-5.574,-17.26,213.804,78.386,28.926,12.771,2.204],[1.458,0.569,0.322,0.185,0.026,4.934,2.345,1.468,0.941,0.456,10.71,4.876,2.793,1.707,0.857,46.752,23.613,14.439,9.334,5.74,98.917,49.865,29.65,19.489,12.957,206.147,93.547,67.776,43.596,30.114],[1.023,0.556,0.408,0.392,0.226,5.333,2.584,1.682,1.284,0.84,10.283,4.971,3.209,2.374,1.72,50.54,24.659,16.278,11.561,8.597,99.58,49.788,32.16,23.231,17.711,187.446,99.352,64.523,49.241,36.599],[1.799,0.647,0.436,0.308,0.285,6.035,2.519,1.668,1.339,0.973,10.147,5.372,3.284,2.535,1.89,51.169,25.363,16.641,12.165,9.198,100.231,50.096,33.627,24.599,18.76,205.964,100.81,67.356,49.611,38.668],[2.258,0.879,0.485,0.29,0.325,7.058,3.102,1.774,1.246,0.964,10.22,5.191,3.633,2.583,1.981,49.636,25.6,16.729,12.585,9.594,99.809,50.552,33.378,25.396,19.566,206.765,102.509,67.348,49.15,39.148],[1.753,0.64,0.556,0.485,0.276,7.587,2.403,2.035,1.516,1.076,13.881,5.782,3.488,2.597,1.964,51.468,25.308,16.88,12.517,9.785,43.975,49.567,33.279,24.34,19.515,207.738,102.284,69.133,56.458,40.156]],
"kep": [[1.971,1.689,1.198,1.461,3.312,8.972,7.42,9.284,9.825,10.803,16.463,14.98,16.565,19.006,21.773,75.789,70.676,76.01,86.817,97.832,-16.549,141.482,139.396,171.874,180.561,5.9,24.957,145.459,218.295,320.921],[2.592,0.909,0.797,1.157,1.255,4.216,3.889,3.567,2.733,2.717,14.263,6.572,6.276,5.216,5.291,46.344,35.931,28.167,26.2,23.932,-38.922,88.116,53.256,46.394,47.329,-41.31,-28.174,92.638,96.831,93.919],[0.396,0.993,1.002,0.882,0.981,4.778,3.888,2.26,2.274,2.166,11.516,6.585,4.956,4.171,4.121,-38.084,33.072,25.273,19.994,16.923,-62.991,93.231,43.537,34.528,35.173,-71.19,-83.05,41.129,88.918,65.804],[1.332,2.763,1.318,1.06,0.935,12.591,3.678,2.007,2.474,1.9,4.261,8.93,4.119,4.254,3.338,-72.895,47.039,23.557,18.222,13.105,-74.294,-3.952,65.521,39.273,26.648,-84.302,-57.131,-41.941,79.891,63.989],[-7.475,2.862,1.249,0.801,0.834,-4.811,6.506,4.072,2.471,2.065,-23.498,4.553,6.704,3.462,3.353,-59.871,54.752,21.832,19.467,12.435,-78.949,-69.756,58.03,47.889,30.387,-88.222,-71.236,-84.368,85.793,62.905],[-37.05,2.092,0.739,0.922,1.007,-49.066,2.529,4.018,2.315,2.239,-54.989,11.507,5.041,4.669,3.448,-69.506,42.367,26.045,17.701,12.915,-77.702,-36.103,57.351,32.204,23.886,-93.296,-82.756,-3.148,107.601,71.62]],
"vp": [[25.923,-26.237,14.688,-70.28,56.213,0.912,10.083,-11.373,-14.132,-24.13,-8.574,-16.647,0.671,5.606,4.796,-19.854,-6.903,-10.792,-5.385,-6.868,-7.875,26.356,-15.254,10.835,-22.314,-34.668,1.737,0.443,7.441,-26.023],[362.216,87.037,-105.423,-51.575,-28.644,34.363,3.939,8.27,-28.159,-4.464,65.716,5.064,-3.166,-19.327,-14.177,19.455,-13.047,-11.448,5.089,-9.03,-15.762,-5.908,-21.057,-18.221,-5.126,-7.528,-30.717,8.36,5.269,-0.041],[1224.013,107.628,142.311,105.487,5.514,213.838,34.548,10.39,16.17,-23.237,102.741,18.953,-3.532,12.739,13.426,25.131,-13.305,4.973,4.872,-8.726,-2.863,-16.193,-18.74,-23.117,-5.617,0.699,-23.719,-40.121,-6.988,-19.985],[2593.094,699.362,227.914,207.354,96.468,630.743,94.046,34.34,48.534,44.176,254.005,89.171,26.02,35.108,6.483,71.197,14.874,15.22,4.49,-24.308,5.015,-9.013,2.202,3.65,-16.997,-2.731,-11.699,-21.027,-13.315,-17.075],[4112.894,742.27,432.112,353.935,237.187,862.342,153.138,143.96,101.07,50.339,429.006,49.184,91.182,13.077,24.331,55.373,10.206,-8.571,28.127,-17.022,17.577,24.89,-0.398,26.081,-4.267,16.521,-3.417,-10.408,-19.64,-12.768],[4557.491,1700.011,764.103,734.082,418.741,1205.512,285.652,169.725,87.28,69.333,460.358,212.539,61.172,63.261,65.065,64.261,20.955,-2.197,-2.539,4.593,19.265,2.488,-14.443,-21.837,-7.661,14.409,2.936,-21.965,-12.257,0.994]]
}