{
"KTrans": [[-4.624,7.046,6.728,7.267,1.776,-0.286,13.931,19.82,11.514,17.984,4.886,24.915,16.63,23.369,19.881,14.682,78.921,91.26,60.98,72.856,43.001,75.089,84.944,82.53,87.596,219.939,157.621,100.101,144.028,166.292],[-58.182,-2.936,6.406,9.247,8.527,-53.311,12.48,10.775,12.597,9.215,-56.525,16.07,17.076,12.585,10.17,-41.013,13.518,60.294,43.915,37.128,13.082,55.359,32.343,82.646,71.909,108.626,63.497,49.044,41.833,59.137],[-76.156,-7.526,11.752,12.196,12.077,-73.233,-2.158,17.378,9.862,9.245,-78.63,4.346,18.894,14.89,14.7,-55.052,11.461,40.35,49.835,33.546,-49.691,28.939,27.34,56.989,60.794,20.093,57.942,70.654,11.1,51.034],[-87.005,-21.011,0.023,10.74,8.932,-87.306,-14.165,7.892,14.336,10.135,-85.274,-23.181,20.44,15.769,16.78,-84.041,-26.336,36.774,47.045,31.842,-72.205,7.783,23.248,47.794,66.443,-24.475,25.886,36.093,42.16,38.069],[-92.177,-39.623,3.571,17.16,7.97,-93.29,-41.636,7.158,15.01,14.873,-91.237,-34.451,13.597,23.879,13.543,-83.117,-49.702,36.075,41.012,39.082,-73.16,-21.435,-25.653,49.05,73.539,-20.13,-0.459,28.715,13.48,37.185],[-100.144,-62.329,-2.82,16.39,16.852,-94.414,-53.671,-5.395,30.634,10.557,-96.166,-56.668,-0.5,24.462,25.215,-88.942,-56.857,-10.464,31.76,51.833,-74.495,-36.514,16.083,44.606,53.185,-39.093,-8.07,16.725,34.059,8.816]],
"ve": [[49.336,101.987,219.293,-131.012,1865.374,27.705,19.034,37.245,-7.627,-53.4,-64.101,27.767,-51.016,19.703,32.564,80.731,-51.2,0.301,8.679,6.266,102.677,40.621,28.79,2.103,-15.89,205.969,78.431,36.316,10.544,-6.547],[3.215,3.237,1.445,2.071,-0.287,1050.542,5.153,2.505,0.411,-0.184,0.009,8.008,2.795,2.242,-0.038,53.564,31.137,16.084,7.769,6.339,106.084,55.595,31.437,23.925,12.751,205.711,98.197,60.761,41.798,26.785],[6.774,-2.431,0.68,0.651,-0.697,10.047,2.638,1.164,2.385,1.259,29.601,8.882,5.293,3.03,1.013,58.239,25.5,18.778,11.962,7.913,102.959,52.494,32.451,23.218,15.982,215.225,104.387,63.11,24.097,38.436],[10.705,0.946,1.823,0.502,0.006,17.706,4.863,2.377,2.551,1.218,21.154,20.786,3.822,1.8,2.487,55.644,27.71,16.707,11.375,8.409,109.113,47.574,34.59,22.082,17.777,221.026,103.426,64.587,49.725,37.618],[9.595,3.88,0.74,0.357,-0.794,15.094,110.537,3.068,0.237,0.421,27.246,4.647,5.283,1.494,1.196,51.51,29.164,16.796,11.149,8.712,103.986,50.353,35.098,23.958,19.795,198.612,104.527,71.556,50.936,37.979],[-41.283,-5.243,1.969,0.868,-0.021,10.019,0.046,2.572,2.142,0.892,24.532,-127.139,-4.893,1.076,2.25,55.472,-58.394,15.325,12.551,9.797,101.713,60.107,32.045,24.713,21.154,203.861,106.034,72.015,49.949,40.174]],
"kep": [[-21.982,2.706,9.096,11.491,2.213,-16.181,13.269,26.082,14.282,34.085,-16.322,20.178,14.853,30.483,38.335,-21.396,48.497,92.14,69.039,116.403,-10.445,36.577,57.177,77.742,92.75,36.406,74.868,72.28,140.358,187.753],[-66.19,-3.944,7.25,10.48,11.756,-62.873,10.14,10.558,14.089,11.634,-69.136,10.772,15.846,11.616,12.153,-61.355,-9.973,40.251,34.879,30.093,-38.082,11.883,2.774,49.69,53.023,-22.496,-7.334,3.317,8.048,24.484],[-81.991,-8.362,12.057,12.342,13.582,-80.776,-8.029,16.994,8.382,8.604,-84.03,-3.07,14.233,12.211,14.539,-71.448,-9.978,21.626,34.553,24.23,-71.124,-11.225,-0.796,28.406,39.158,-55.801,-10.559,9.799,-15.155,13.343],[-90.932,-22.319,-1.061,10.571,9.254,-90.834,-18.418,6.482,11.98,9.429,-90.437,-27.487,16.455,14.968,14.781,-90.268,-42.005,17.63,31.39,21.841,-83.346,-23.776,-4.831,22.93,41.252,-70.599,-28.745,-13.454,2.785,3.872],[-94.275,-44.372,2.473,17.165,9.359,-95.62,-46.223,4.144,14.857,14.617,-94.293,-38.537,7.895,22.528,12.869,-89.628,-58.142,16.124,26.293,28.125,-85.939,-42.169,-38.831,19.621,45.278,-70.419,-44.554,-16.151,-16.413,3.418],[-100.92,-64.909,-4.895,15.71,17.217,-96.572,-57.656,-8.707,27.726,9.917,-97.682,-60.75,-5.325,23.684,22.651,-92.584,-64.942,-23.917,17.001,38.102,-86.691,-53.79,-10.115,16.734,28.927,-77.601,-48.878,-24.387,-5.033,-14.621]],
"vp": [[1618.759,67.225,470.491,-88.102,108.978,310.313,34.193,78.902,-24.056,67.278,174.477,-16.844,39.551,13.716,13.144,-9.262,-0.432,-25.351,10.412,-20.818,-19.3,-31.078,-34.975,-29.708,-14.374,-55.623,-40.617,-40.461,-42.325,-44.083],[4501.23,1942.898,964.243,449.427,860.707,999.213,549.192,268.373,171.562,61.43,500.041,274.29,1.768,117.205,9.655,59.671,40.045,15.666,-32.849,-4.855,-5.24,-18.016,-21.662,-10.139,-16.148,-33.017,-35.81,-35.809,-34.193,-22.767],[5634.74,5775.2,2497.702,2364.64,1084.032,1318.826,1270.758,590.971,207.371,289.92,581.907,557.424,279.676,130.085,56.174,94.83,79.567,9.078,20.859,-5.637,34.785,10.419,1.424,-17.64,-26.422,-8.435,-20.876,-49.419,-8.495,-12.029],[6765.066,8432.911,3746.556,2653.291,1795.742,1247.564,1636.462,864.553,599.671,365.615,608.07,761.977,417.002,275.961,156.184,105.551,138.785,71.792,8.309,22.933,51.051,38.618,7.212,-18.119,1.309,-4.008,11.702,-17.862,-27.414,-15.177],[6647.14,10193.895,7340.143,4983.846,2727.998,1484.287,1950.303,1445.083,918.562,605.677,727.1,1034.337,767.46,547.773,349.872,110.833,190.282,135.389,64.769,34.981,24.302,71.09,60.348,12.181,-0.475,-26.518,-11.202,20.263,0.264,-21.361],[7988.32,11281.848,10624.897,7327.978,4806.85,1341.342,2213.138,1696.264,1500.456,853.812,689.374,1208.924,1033.624,755.597,468.601,113.841,189.143,202.855,125.406,56.237,23.468,94.06,27.584,39.041,5.525,-26.43,29.862,13.532,-10.757,7.311]]
}