{
"KTrans": [[-61.176,-84.26,-85.735,-89.665,-90.269,-51.174,-70.422,-69.836,-88.905,-80.051,-44.016,-44.589,-62.283,-82.226,-70.961,22.674,-7.278,-37.728,-31.092,-39.903,87.6,63.913,5.835,24.147,26.919,197.462,199.06,176.629,177.82,196.343],[-58.883,-49.188,-58.751,-65.249,-66.916,-61.59,-48.378,-50.819,-55.236,-64.824,-57.422,-42.372,-45.973,-60.386,-61.931,-38.524,-15.633,-12.71,-23.923,-40.342,-1.439,11.332,2.314,9.357,-19.186,40.666,27.698,34.022,70.911,26.721],[-71.3,-52.91,-50.872,-49.191,-53.29,-73.389,-50.075,-41.898,-51.402,-41.121,-68.787,-45.917,-40.742,-41.944,-46.151,-60.458,-30.982,-21.344,-14.828,-15.014,-45.275,-16.337,-2.057,4.019,-2.675,-13.394,-0.737,11.62,39.242,12.314],[-79.937,-57.828,-46.965,-46.176,-43.574,-77.158,-57.019,-51.46,-34.677,-40.229,-78.875,-60.103,-46.176,-41.644,-34.11,-68.313,-47.571,-36.707,-26.519,-31.995,-54.239,-41.017,-16.892,-14.083,-12.3,-40.656,-5.609,3.421,14.543,17.46],[-85.21,-66.361,-53.183,-51.846,-48.559,-83.198,-65.575,-51.391,-49.479,-44.528,-81.153,-66.662,-51.986,-40.754,-47.012,-77.269,-52.586,-45.91,-34.916,-24.964,-67.71,-47.336,-32.296,-33.782,-23.436,-45.065,-31.19,-15.503,-5.94,-2.263],[-87.699,-72.429,-54.235,-50.302,-49.014,-87.175,-70.605,-59.202,-48.179,-40.186,-83.919,-68.46,-54.281,-45.985,-42.199,-82.224,-68.281,-52.792,-38.459,-30.742,-71.147,-55.508,-38.61,-30.15,-32.759,-63.145,-59.945,-21.858,-14.084,-6.738]],
"ve": [[-61.232,-31.091,-73.319,-179.744,67.995,-44.768,-38.379,-53.674,-366.57,-35.654,-37.256,-22.748,-59.736,-83.288,-74.537,-21.76,-22.316,-36.204,-17.87,-63.306,45.596,27.726,-22.9,-52.766,-91.801,216.855,89.456,30.482,41.165,-7.237],[-16.71,-54.555,-55.599,-77.886,-53.706,254.632,-51.476,-44.61,-46.482,-40.915,-29.38,116.584,-44.648,-51.096,486.358,16.267,-9.397,-25.749,3.467,-33.485,142.772,31.738,21.081,6.912,-13.192,-130.574,218.734,74.261,72.413,4.583],[930.864,-3.942,-45.838,-37.244,-54.388,50.581,24.218,43.959,-24.959,63.913,-62.511,-29.875,-18.204,50.06,-74.156,0.602,108.022,-10.167,-1.687,-11.981,71.753,35.936,33.348,-43.825,-2.127,349.044,66.784,91.345,50.204,59.312],[-522.038,-30.969,-44.701,-59.283,-44.809,27.544,-39.547,-38.596,-114.505,-34.085,-0.475,-60.279,-43.082,-41.067,-27.435,39.634,322.67,-35.952,-16.989,-35.86,132.853,61.762,36.354,82.79,-4.97,308.94,138.98,59.252,81.438,52.57],[-5.638,-24.922,-53.682,-58.846,-97.86,10.139,1.038,-51.006,-80.393,-70.815,-483.175,17.23,-27.735,-28.383,-60.989,61.719,32.239,-36.797,-23.96,-21.668,214.636,24.722,27.303,-42.266,-15.336,344.651,61.615,24.832,38.07,-2.934],[122.144,-39.32,-39.667,-49.072,-83.013,455.232,-17.013,-30.709,-65.198,-57.717,26.889,30.631,-45.06,-48.252,-72.922,24.898,3.317,-34.068,-11.729,-38.519,181.219,58.17,7.696,-10.139,-27.351,349.525,202.301,44.906,36.936,12.125]],
"kep": [[-115.387,-107.48,-11.847,-24.357,-41.631,-113.361,-131.245,-78.324,-35.206,16.124,-115.091,-98.715,-97.283,-86.217,-24.422,-134.764,-138.178,-71.916,-65.534,-1.508,-127.889,-152.4,-84.346,-153.452,-122.487,-106.659,-161.268,-290.672,-191.806,-351.18],[-96.499,-104.358,-112.975,-99.242,-9.225,-93.873,-91.901,-126.271,-93.894,-25.154,-95.984,-93.092,-143.699,-90.473,-25.64,-97.298,-102.884,-138.806,-107.453,-56.385,-100.555,-104.452,-153.355,-144.373,-52.891,-90.97,-88.467,-117.358,-193.092,-151.825],[-99.482,-80.354,-91.175,-99.946,-122.632,-98.009,-92.006,-77.382,-114.016,-98.274,-97.966,-87.03,-77.166,-89.607,-118.847,-96.165,-79.984,-77.266,-110.687,-139.098,-93.804,-81.341,-77.492,-95.377,-138.62,-90.806,-72.7,-80.093,-73.045,-117.843],[-100.094,-86.686,-62.345,-68.244,-79.132,-100.383,-77.71,-58.092,-59.617,-78.53,-97.853,-79.944,-72.003,-63.975,-74.796,-98.281,-79.61,-60.443,-73.356,-59.745,-96.92,-80.062,-82.091,-75.132,-79.809,-96.063,-84.214,-68.491,-54.227,-95.227],[-100.534,-87.98,-62.775,-45.584,-45.128,-100.293,-82.544,-64.915,-50.393,-40.892,-100.279,-81.607,-70.692,-45.328,-49.897,-98.887,-89.14,-65.008,-55.983,-49.932,-102.149,-81.427,-81.327,-56.957,-44.776,-98.105,-74.822,-59.35,-64.574,-34.687],[-99.534,-89.085,-62.348,-57.81,-32.687,-99.221,-87.137,-72.292,-45.422,-39.065,-100.358,-91.654,-67.166,-43.327,-36.778,-98.573,-88.592,-68.036,-52.272,-40.337,-98.371,-89.128,-71.747,-56.162,-56.549,-97.848,-93.465,-66.981,-64.425,-68.677]],
"vp": [[-1015.399,-681.885,-78.702,869.455,575.828,96.119,-55.576,-153.461,-74.982,-6.522,50.843,-15.509,15.608,-81.086,104.204,-41.26,-6.671,-12.506,4.094,14.597,-28.47,-5.118,3.155,-11.566,-4.225,-39.434,-17.289,-13.119,4.573,-26.138],[2849.081,1258.953,-144.687,-397.692,1253.14,581.44,248.074,76.047,-115.889,37.765,306.351,97.955,-72.99,-62.345,-88.49,29.289,-2.325,-33.889,-13.839,-2.321,-11.517,-23.182,-30.858,-32.848,-0.521,-20.888,-23.366,-36.757,-45.39,-2.098],[4763.539,3557.14,1659.816,620.686,-196.397,797.941,750.727,471.584,168.72,252.986,469.298,363.959,172.072,50.99,-47.033,62.497,58.599,18.61,-1.467,-14.798,16.933,-11.968,7.577,-10.051,-3.995,-7.263,4.394,-47.066,-32.707,-7.498],[6014.33,6341.172,4966.642,2295.108,1902.022,1200.501,1022.227,573.438,634.187,311.29,535.445,422.559,389.34,266.919,237.614,79.292,92.754,49.866,64.316,22.809,0.826,33.826,13.399,1.286,0.688,3.264,15.582,-6.391,-7.591,-11.134],[5813.029,7851.324,5643.834,4638.325,3046.618,1352.701,1422.443,1219.085,716.79,348.542,598.767,613.91,637.746,443.444,285.605,95.018,133.248,79.336,77.417,69.833,53.188,16.838,37.145,0.427,-7.508,-6.315,4.09,-18.257,-28.037,-34.736],[6453.888,8637.351,7325.165,7245.253,3876.267,1403.021,1797.557,1894.906,1134.331,917.712,650.11,984.308,732.693,586.745,324.288,123.743,148.406,187.238,117.103,82.335,37.222,49.436,42.498,49.837,27.294,-5.142,35.105,-3.284,3.068,-1.572]]
}