{
"KTrans": [[-11.038,3.94,3.324,3.736,2.848,-9.892,3.096,2.627,2.543,4.032,-4.608,3.729,-0.785,5.977,3.756,21.981,17.041,12.343,11.285,12.427,51.736,34.852,35.799,28.823,24.138,100.926,78.042,68.273,57.579,51.791],[-52.731,-5.073,0.025,-1.51,0.36,-44.868,-3.838,1.406,0.067,1.151,-53.338,1.71,2.819,2.046,-0.692,-39.058,9.529,9.067,6.316,6.228,-31.256,27.566,20.384,15.013,9.227,0.589,59.954,38.837,31.083,27.497],[-72.604,-10.484,-6.738,-2.22,-0.287,-71.414,-14.411,-3.153,1.181,1.139,-76.41,-14.055,-0.174,0.374,0.313,-61.967,-1.329,6.9,5.429,3.674,-59.267,16.221,16.706,12.666,12.678,-41.31,33.051,29.384,26.246,25.126],[-84.992,-26.701,-5.057,-2.098,-2.15,-83.584,-21.7,-8.479,-1.298,-1.984,-85.217,-21.734,-1.685,-0.259,-0.439,-78.183,-19.648,3.827,5.372,3.263,-78.175,-8.903,8.798,12.092,11.222,-72.489,2.829,24.773,28.922,20.442],[-91.147,-38.332,-10.478,-4.401,-0.479,-92.753,-36.608,-13.162,-5.049,-1.693,-89.364,-39.527,-11.252,-2.27,-1.68,-89.759,-32.123,-4.041,0.921,3.528,-84.77,-31.56,1.112,9.823,7.942,-80.912,-22.749,14.362,18.092,20.575],[-94.919,-52.339,-17.107,-6.273,-2.119,-94.907,-55.764,-17.76,-6.893,-0.898,-94.151,-52.795,-14.829,-7.397,-3.032,-93.386,-51.013,-6.041,-1.786,2.79,-91.346,-44.881,-7.548,2.879,4.76,-85.938,-39.311,4.112,15.748,17.829]],
"ve": [[-1.708,9.56,8.859,12.26,35.106,6.363,7.412,11.456,8.861,-3.656,8.872,7.298,18.577,42.082,5.637,16.456,6.3,7.834,11.296,7.573,21.496,9.568,1.603,2.654,-2.432,-53.766,24.42,8.976,-0.432,-7.06],[-12.679,-1.043,1.326,0.95,0.921,-9.89,-0.447,-0.053,0.573,0.923,-12.432,0.71,2.206,1.731,0.354,-5.474,5.053,3.612,2.462,1.604,-39.934,10.857,6.643,6.147,3.716,36.086,24.917,13.695,9.214,6.578],[-25.831,-3.33,-1.462,-0.357,0.667,-12.692,-3.673,0.256,0.068,0.734,-27.233,-4.628,1.304,-0.037,0.598,-22.359,5.054,3.951,2.718,2.56,-4.9,11.13,7.337,4.958,4.47,24.274,22.504,15.108,11.473,9.727],[-24.269,-7.865,-1,-0.092,-0.141,-31.789,-6.823,-2.171,-0.68,-0.36,-33.717,-6.132,-0.609,0.073,-0.074,-29.954,-4.688,1.156,2.594,2.69,-26.63,4.812,5.807,4.889,4.992,8.472,20.257,14.574,12.928,9.223],[-43.102,-14.626,-2.997,-0.916,-0.459,-44.138,-12.285,-3.807,-0.46,-0.646,-36.765,-12.461,-2.756,0.01,-0.214,-29.222,-10.565,0.217,1.921,1.86,-18.794,-5.16,4.001,5.871,4.542,-4.785,1306.189,10.672,10.148,9.594],[-71.408,-19.247,-7.917,-2.073,-0.406,-53.604,-20.453,-6.309,-2.783,-0.543,-46.878,-20.161,-4.425,-2.056,-0.548,-13.282,-16.147,0.149,0.713,1.902,-31.249,-9.295,1.727,4.421,3.981,-2.168,9.508,8.161,10.147,9.184]],
"kep": [[-11.352,1.598,4.592,2.857,5.386,-14.524,1.475,-0.057,2.977,7.153,-8.319,4.27,-5.38,5.435,3.335,5.662,14.022,12.628,17.23,22.7,21.164,25.332,38.69,40.192,38.454,35.506,52.685,63.32,71.188,77.817],[-47.852,-3.692,-0.887,-2.062,-0.257,-41.571,-3.144,1.678,-0.162,0.494,-49.483,1.244,0.813,0.521,-0.701,-41.24,4.259,5.488,4.113,5.014,-42.267,14.702,12.749,8.544,5.598,-35.421,26.684,21.59,20.154,19.712],[-66.665,-7.347,-5.378,-1.756,-0.826,-66.017,-11.005,-3.445,1.193,0.489,-71.467,-9.565,-1.462,0.46,-0.204,-62.358,-5.876,2.842,2.747,1.143,-62.996,4.14,8.823,7.308,7.879,-60.683,7.623,11.986,13.155,13.859],[-80.424,-21.017,-4.134,-1.998,-1.972,-79.238,-16.112,-6.3,-0.633,-1.612,-80.614,-16.785,-0.942,-0.321,-0.336,-77.476,-16.145,2.677,2.669,0.593,-80.197,-14.256,2.803,6.812,5.947,-80.968,-12.683,8.28,13.484,10.11],[-87.9,-28.162,-7.67,-3.527,-0.012,-90.67,-28.366,-9.861,-4.58,-1.061,-85.815,-31.921,-8.776,-2.24,-1.423,-87.734,-26.466,-4.265,-0.865,1.58,-86.918,-29.24,-3.009,3.634,3.233,-86.27,-30.906,2.766,6.968,9.904],[-92.857,-41.712,-10.093,-4.148,-1.724,-93.223,-46.121,-12.213,-4.248,-0.365,-91.488,-42.706,-11.023,-5.454,-2.463,-92.442,-43.87,-6.346,-2.43,0.849,-92.473,-40.709,-9.271,-1.418,0.715,-90.93,-44.864,-4.695,4.661,7.709]],
"vp": [[284.569,-223.235,-116.912,-290.797,-25.31,-6.067,6.757,-2.171,-15.137,-31.972,3.782,-20.637,-4.238,-44.143,-17.77,-21.234,-20.941,-19.643,-21.404,-22.914,-17.821,-20.906,-23.558,-23.595,-21.477,-19.629,-21.433,-23.925,-20.743,-21.711],[1884.339,418.249,37.763,-54.797,117.605,293.57,44.603,29.597,-2.176,-30.928,191.661,17.401,-40.02,-40.846,4.688,16.132,-18.591,-16.411,-16.468,-21.949,-1.982,-20.002,-23.196,-23.227,-20.474,-15.496,-24.546,-22.251,-21.189,-23.765],[3080.082,1165.696,704.066,259.113,13.793,578.955,160.765,8.722,20.14,-44.484,337.001,115.651,4.247,-3.835,-21.892,34.795,-13.659,-21.051,-21.25,-20.742,9.655,-21.172,-19.522,-19.825,-20.952,-8.899,-20.862,-22.013,-21.903,-24.82],[4292.878,1991.259,666.007,278.247,243.74,791.396,345.114,183.338,64.229,54.374,405.24,148.023,34.174,13.85,20.203,55.629,27.048,-5.698,-16.188,-22.889,22.53,-5.274,-20.463,-19.724,-25.81,1.566,-12.217,-22.301,-26.498,-23.19],[4733.468,3114.732,1002.687,552.555,308.972,960.167,601.403,286.528,100.277,60.166,470.944,270.889,90.867,7.785,19.622,81.338,50.367,-1.988,-12.868,-14.443,27.315,16.961,-10.556,-20.001,-21.699,3.487,-1.826,-15.212,-19.65,-24.429],[5372.108,4363.281,2538.511,877.941,415.237,1071.253,932.13,443.776,265.409,122.89,540.915,450.986,171.84,107.005,32.952,91.793,71.312,4.235,-3.554,-16.548,32.408,27.149,-3.134,-14.983,-19.176,3.321,4.702,-10.163,-20.423,-21.917]]
}