{
"KTrans": [[6.003,14.315,13.429,3.736,9.345,16.876,5.065,8.501,10.131,7.433,14.682,8.338,9.278,11.64,5.673,22.378,24.278,16.058,17.231,18.342,41.663,33.096,32.74,26.496,20.06,112.258,75.331,50.924,61.266,64.959],[-41.144,-5.907,-0.155,4.213,5.519,-32.391,-4.521,0.442,4.091,5.135,-31.026,-2.897,1.268,5.281,3.818,-31.299,2.092,5.683,6.171,9.15,-19.973,3.055,15.672,12.705,10.506,8.757,36.053,24.404,26.951,22.76],[-66.323,-21.12,-10.356,-2.331,-0.986,-65.292,-18.672,-9.137,-2.623,0.896,-69.945,-18.583,-9.145,-0.844,1.587,-63.091,-19.201,-6.345,-1.233,2.537,-54.903,-19.402,-3.705,2,7.946,-47.555,-23.15,7.972,11.92,10.06],[-81.972,-40.412,-20.141,-9.03,-5.166,-81.116,-40.062,-19.154,-11.364,-3.664,-81.031,-35.104,-20.15,-12.081,-5.48,-77.644,-40.844,-17.234,-9.982,-3.295,-67.959,-37.872,-19.867,-8.594,-0.777,-71.026,-32.934,-13.277,0.504,2.562],[-89.774,-53.233,-29.093,-20.116,-12.834,-86.959,-48.717,-27.4,-19.875,-12.915,-89.236,-48.214,-30.766,-20.46,-11.759,-82.548,-49.894,-31.108,-15.855,-9.747,-79.198,-47.611,-28.265,-21.155,-12.856,-72.88,-50.691,-29.041,-10.89,-6.134],[-92.595,-61.292,-43.489,-28.966,-18.346,-92.558,-63.981,-36.851,-26.758,-18.086,-92.305,-61.187,-35.913,-27.563,-20.186,-87.204,-60.118,-38.088,-25.369,-18.103,-80.497,-61.3,-39.769,-25.282,-15.826,-86.291,-57.784,-39.727,-24.887,-11.666]],
"ve": [[6.224,5.385,6.199,34.031,36.854,15.411,10.809,20.99,27.936,47.276,7.243,14.919,23.83,43.673,44.109,18.551,18.734,52.843,-125.609,16.2,-23.983,52.364,299.711,-2.639,125.897,-1286.315,26.265,-4.588,1.444,-52.35],[-15.317,-2.605,0.765,0.338,2.267,-11.981,-0.508,1.199,2.163,3.503,-10.183,-1.728,0.843,2.323,4.122,-9.14,6.271,4.173,4.688,5.911,4.816,7.694,9.565,6.802,6.848,64.895,32.144,16.239,17.23,14.23],[-30.979,-6.7,-3.717,-0.53,0.16,-29.331,-7.528,-3.272,-1.003,0.595,-37.537,-5.838,-2.329,-0.375,0.419,-24.252,-4.4,0.357,0.501,1.081,-23.273,-0.895,4.129,3.213,4.459,22.087,-0.247,11.813,10.757,8.069],[-48.063,-15.426,-6.996,-2.8,-1.996,-42.235,-15.432,-6.027,-4.588,-1.289,-42.447,-14.071,-7.726,-3.882,-1.131,-31.576,-14.263,-3.177,-1.667,0.55,-15.567,-9.83,-2.607,-0.447,1.862,-2.698,7.608,3.877,6.86,5.749],[-55.205,-23.285,-11.346,-6.446,-4.885,-52.894,-21.183,-10.261,-6.892,-4.093,-39.648,-18.948,-11.852,-6.103,-3.94,-39.264,-17.425,-9.048,-3.609,-1.974,-26.919,-14.292,-6.546,-7.004,-2.631,1.882,-15.344,-2.293,3.003,3.086],[-64.81,-30.769,-18.064,-10.841,-6.506,-63.514,-31.754,-14.211,-9.663,-6.532,-59.748,-28.108,-13.492,-9.391,-7.268,-46.276,-25.67,-11.931,-7.568,-5.337,-15.281,-23.999,-11.194,-5.691,-3.236,-28.409,-4.324,-6.123,-1.807,2.72]],
"kep": [[-14.367,-7.378,-11.506,-25.848,-20.92,-11.253,-17.137,-16.807,-18.316,-23.599,-10.966,-16.068,-16.482,-17.27,-29.314,-13.993,-7.678,-12.688,-10.445,-9.738,-17.782,-10.692,-5.16,-7.521,-19.524,-21.586,-13.364,-19.439,0.56,19.332],[-45.397,-19.886,-17.372,-13.392,-13.953,-38.284,-20.878,-17.416,-15.045,-15.173,-39.316,-18.269,-16.43,-14.224,-16.735,-46.445,-21.517,-16.114,-15.639,-14.058,-57.592,-24.249,-13.759,-12.934,-14.099,-54.431,-25.104,-17.611,-11.616,-11.378],[-63.152,-30.587,-22.858,-18.294,-17.713,-62.038,-27.71,-22.096,-18.174,-16.479,-67.946,-29.216,-22.969,-17.263,-15.758,-68.299,-30.83,-23.03,-18.632,-15.725,-71.178,-36.42,-24.968,-18.834,-14.77,-73.173,-50.644,-25.466,-19.476,-18.035],[-78.302,-42.636,-29.019,-22.278,-19.506,-78.14,-43.208,-29.121,-22.897,-18.886,-79.543,-38.937,-28.702,-24.008,-20.521,-80.187,-44.404,-29.635,-24.202,-20.175,-80.531,-47.525,-33.366,-24.817,-19.575,-80.87,-58.519,-35.596,-25.557,-21.568],[-86.572,-51.661,-34.439,-29.123,-23.785,-85.49,-48.872,-33.589,-28.641,-24.52,-86.031,-49.303,-35.139,-29.762,-23.707,-84.83,-51.695,-38.066,-27.945,-23.656,-86.102,-56.974,-38.109,-30.646,-26.185,-82.522,-70.722,-44.619,-30.642,-26.592],[-91.24,-57.029,-43.516,-33.983,-27.521,-90.712,-58.559,-39.391,-32.963,-27.22,-90.342,-58.31,-39.658,-33.872,-28.594,-89.173,-58.127,-42.356,-33.339,-28.397,-86.998,-65.304,-46.462,-34.922,-28.305,-85.257,-72.632,-52.887,-39.373,-30.347]],
"vp": [[161.213,-468.583,-654.842,0.106,-451.008,-90.929,36.435,-42.988,-103.811,-4.198,-27.417,-10.478,-27.108,-52.468,7.707,3.218,-19.281,-1.25,-3.51,-9.976,-2.92,-6.353,-9.676,-1.407,3.54,-18.918,-7.664,1.996,-9.025,-11.586],[2106.501,566.547,26.567,42.848,-109.982,364.388,31.877,-12.351,-36.966,-107.02,134.39,20.297,-7.952,-40.302,-9.442,38.88,-11.231,-7.355,-4.404,-14.723,14.849,1.446,-14.646,-6.474,0.223,-12.38,-17.508,-8.038,-10.32,-5.627],[4030.589,1399.284,1112.799,66.777,120.006,762.5,282.822,143.111,81.422,-8.869,444.765,136.432,90.723,16.643,-24.418,82.461,35.472,7.164,11.567,0.062,27.631,19.852,2.273,4.42,-9.326,3.632,22.459,-1.782,-6.33,0.097],[5893.806,3392.648,1905.993,892.737,726.277,1176.207,710.117,360.949,316.962,85.018,561.779,308.329,249.296,147.218,66.895,101.195,79.667,33.909,26.046,6.838,31.492,39.765,24.673,18.958,3.983,19.803,21.059,11.514,1.197,1.192],[6736.425,5430.358,3609.48,2548.245,2364.409,1304.997,978.149,671.597,543.694,418.811,718.032,442.807,390.781,261.949,187.839,116.095,93.716,73.318,37.045,24.26,54.319,52.504,39.057,48.441,31.412,17.38,25.42,20.056,7.287,8.453],[7257.003,7144.524,6064.606,4569.849,3107.031,1491.584,1488.741,939.917,814.163,600.606,763.743,656.361,433.273,397.773,371.594,117.704,133.166,90.932,74.696,65.886,34.494,70.748,52.867,38.16,31.757,32.889,21.668,28.142,19.479,6.761]]
}