{
"KTrans": [[8.946,18.089,13.996,16.26,14.448,19.358,18.822,10.583,16.739,21.173,18.777,15.466,16.718,17.703,14.63,52.49,39.899,34.524,31.583,28.11,66.675,58.19,64.916,48.594,43.597,93.457,121.913,100.034,103.406,73.011],[-48.69,-10.724,-0.034,3.888,6.766,-41.29,-8.384,6.208,6.71,11.074,-38.272,-6.17,1.933,7.308,9.085,-20.338,-6.22,2.496,13.947,15.059,-5.26,20.616,27.04,25.887,18.625,-26.881,29.758,35.303,41.069,34.519],[-71.848,-29.956,-13.207,-1.236,1.115,-71.428,-30.387,-10.405,-6.204,-0.727,-73.096,-30.332,-13.518,-3.915,1.921,-58.826,-21.874,-17.202,4.834,5.448,-55.421,-12.109,-0.603,5.122,11.606,-61.095,6.838,12.238,21.736,16.648],[-83.752,-41.261,-30.5,-15.98,-10.332,-82.895,-42.168,-31.374,-14.115,-9.076,-81.2,-42.31,-25.249,-12.378,-8.825,-74.998,-48.104,-17.131,-11.733,-3.978,-64.585,-36.352,-20.098,-5.927,-2.79,-65.615,-34.133,-15.059,-3.437,11.48],[-89.318,-60.217,-37.737,-26.47,-17.254,-88.247,-55.125,-35.537,-25.422,-15.205,-86.353,-55.275,-36.104,-28.119,-15.679,-81.754,-53.895,-34.389,-23.121,-17.207,-81.981,-57.793,-30.814,-24.444,-7.744,-74.992,-58.051,-34.96,-15.742,-3.055],[-89.391,-65.915,-45.364,-36.332,-23.993,-92.075,-68.121,-47.951,-34.878,-26.408,-90.428,-70.69,-47.408,-36.532,-24.171,-85.414,-66.293,-43.748,-34.48,-23.155,-80.948,-62.403,-43.264,-35.705,-18.412,-97.097,-66.955,-34.637,-30.083,-8.301]],
"ve": [[16.593,26.268,72.681,18.701,13.405,13.729,-42.645,43.694,-73.025,-310.957,41.441,94.921,44.937,-274.422,2087.195,58.589,17.686,-11.721,18.718,-36.777,6.342,33.426,-33.467,-6.941,-8.415,86.156,62.106,31.683,0.565,-45.306],[-21.719,1.283,2.337,4.053,7.792,-8.911,1.342,2.778,3.61,5.445,30.755,-0.793,3.086,5,6.343,5.601,6.288,7.005,7.094,8.859,27.826,22.946,19.735,12.924,17.831,68.061,45.668,15.717,25.228,7.849],[7.055,-9.617,-4.659,0.262,0.829,-32.583,-8.85,-3.741,-1.202,0.931,-50.446,-10.144,-3.341,-1.133,1.936,-301.575,-1.565,-3.582,2.802,3.315,12.928,5.412,3.551,6.818,8.002,43.847,31.97,19.421,15.274,57.827],[-39.556,-15.192,-11.594,-6.119,-3.768,-35.543,-16.442,-11.202,-5.033,-2.972,-46.35,-15.617,-7.886,-3.086,-2.675,-16.019,-14.43,-1.279,-2.12,-0.452,-3.719,-3.801,-2.561,3.304,2.619,53.043,13.594,8.312,-2.236,13.539],[-61.88,-26.295,-14.2,-9.008,-6.323,-44.831,-23.874,-13.551,-9.77,-4.935,-46.799,-20.684,-13.107,-9.541,-5.789,-21.683,-14.737,-7.386,-3.996,-3.58,-3.223,-16.757,5.141,-2.778,1.669,63.743,7.353,11.222,2.719,7.329],[-33.232,-28.875,-18.674,-13.947,-8.069,-52.974,-30.122,-18.242,-12.808,-9.704,-247.256,-29.226,-18.236,-13.165,-8.771,-29.38,-15.803,-13.282,-9.376,-6.267,-4.438,-12.341,-9.045,-9.523,-0.211,2.15,15.248,4.817,7.438,7.879]],
"kep": [[-28.159,-20.818,-27.996,-30.125,-36.564,-19.882,-19.624,-32.297,-28.065,-25.484,-20.93,-24.171,-26.193,-29.705,-33.473,-20.115,-15.646,-16.631,-20.196,-19.08,-35.036,-19.969,-0.607,-19.059,-21.925,-12.649,-20.512,-28.594,-8.133,-56.939],[-56.502,-34.841,-27.123,-25.221,-25.666,-56.339,-33.232,-23.163,-23.363,-20.895,-53.285,-30.011,-26.521,-23.878,-23.205,-51.165,-35.867,-29.622,-21.202,-20.841,-58.447,-30.995,-21.174,-18.772,-21.896,-56.29,-51.338,-32.916,-23.794,-23.378],[-76.588,-43.633,-32.708,-27.023,-25.631,-75.153,-44.824,-31.702,-29.691,-27.113,-78.417,-43.525,-34.073,-28.096,-25.9,-75.279,-43.445,-37.353,-24.882,-24.579,-75.784,-49.054,-35.483,-28.164,-24.392,-75.315,-47.338,-42.715,-27.653,-28.782],[-86.215,-50.275,-42.383,-33.987,-31.119,-85.72,-50.568,-43.38,-33.261,-30.691,-85.161,-51.133,-40.683,-33.253,-30.699,-83.784,-59.163,-39.006,-33.964,-28.75,-80.812,-60.277,-44.761,-34.442,-30.994,-81.887,-59.708,-55.392,-43.217,-30.522],[-90.202,-63.462,-46.892,-40.537,-34.854,-90.909,-57.639,-45.412,-39.124,-34.12,-89.538,-59.847,-46.878,-41.615,-33.965,-88.059,-64.776,-48.838,-41.545,-37.005,-88.331,-76.148,-50.245,-44.451,-33.825,-83.92,-74.016,-66.856,-50.472,-37.84],[-91.124,-66.698,-51.666,-46.016,-38.9,-94.28,-68.967,-53.621,-45.391,-39.999,-91.799,-70.889,-53.531,-46.389,-38.71,-89.075,-72.918,-54.197,-47.423,-39.998,-87.089,-77.295,-58.632,-50.388,-40.578,-88.217,-78.349,-64.261,-57.819,-40.856]],
"vp": [[156.1,-519.949,-487.967,-544.896,-490.559,-21.105,-113.854,7.163,-34.962,-178.926,-11.89,-53.453,-54.955,-64.242,-13.614,-36.361,-20.374,-14.416,-21.113,-11.27,-16.56,-16.306,-31.902,-7.051,-11.541,-30.73,-22.139,-11.868,-19.702,2.746],[3208.112,727.212,-100.452,-450.739,-490.059,499.986,88.345,-169.577,-83.745,-162.115,190.513,44.687,-27.421,-33.184,-84.367,9.498,10.306,15.726,-21.51,-17.902,-10.88,-23.454,-22.256,-25.429,-6.198,-17.822,-11.015,-6.847,-15.273,-5.705],[5543.744,2280.906,1491.174,-273.718,-49.595,872.134,446.877,155.551,142.307,-24.147,544.94,289.307,126.023,64.238,-43.314,65.99,32.015,58.778,-7.884,-2.07,12.521,12.43,-0.505,-1.872,-15.78,2.198,-16.591,-7.757,-13.134,-2.268],[5961.24,4112.299,4005.685,2048.016,1863.103,1215.332,822.038,769.05,358.986,328.266,554.882,392.314,318.645,129.733,127.435,70.643,107.346,30.077,38.675,17.904,22.652,30.706,27.608,10.037,10.927,-5.991,6.328,10.177,21.324,-9.442],[6776.41,7416.834,4831.491,3934.958,2904.454,1284.754,1148.461,956.491,835.116,477.757,583.737,594.991,487.883,480.721,289.367,100.338,86.349,81.647,50.384,69.046,31.276,69.101,25.143,40.114,2.079,-16.213,18.741,19.257,19.888,-3.37],[6763.093,7607.427,6586.731,6565.853,4084.142,1440.76,1645.301,1293.279,1150.578,1100.636,611.172,785.62,674.131,596.414,487.677,100.004,128.909,125.421,109.734,86.796,40.266,64.892,57.082,73.466,21.136,45.75,9.078,17.419,34.036,-3.924]]
}