{
"KTrans": [[-4.061,7.658,-5.66,-3.806,-6.149,3.749,14.052,14.328,-6.328,4.286,7.306,15.382,15.046,13.681,10.662,41.285,54.357,66.311,70.124,70.052,-19.252,30.688,31.372,95.254,115.507,-80.222,-16.838,35.466,-76.956,72.367],[-52.721,-17.189,-2.09,4.405,-4.038,-38.588,-15.898,2.45,5.896,4.63,-45.809,-12.185,3.129,3.886,10.299,-35.986,1.003,12.328,17.983,28.912,-55.702,8.564,-10.808,32.118,34.839,-1.565,28.419,-20.982,-44.697,50.692],[-61.388,-33.929,-20.626,-8.839,-2.346,-60.508,-32.034,-16.464,-9.729,-0.117,-55.408,-32.534,-14.106,-7.609,-3.465,-41.261,-18.73,-12.933,-1.029,-1.289,-68.003,-24.059,-6.204,-12.904,-10.067,-53.279,-9.706,-82.99,-47.476,-20.525],[-71.666,-41.031,-19.22,-16.671,-10.943,-66.9,-42.216,-20.328,-15.619,-9.858,-68.99,-31.087,-20.892,-13.569,-7.645,-70.073,-21.875,-7.864,-12.716,-7.005,-50.102,-21.422,8.926,-16.504,-12.301,-93.093,-17.222,-29.677,6.702,18.066],[-78.373,-45.21,-27.74,-14.441,-16.084,-74.748,-40.036,-30.66,-18.542,-9.777,-78.964,-44.19,-22.783,-15.648,-9.852,-76.829,-42.589,-14,-8.303,-7.895,-78.383,-42.207,-8.377,-16.401,-23.778,-96.259,-15.092,-48.372,3.31,5.216],[-78.659,-60.989,-33.529,-25.414,-13.968,-83.789,-48.515,-36.45,-21.63,-12.648,-78.619,-52.425,-30.062,-17.309,-12.903,-71.817,-53.894,-25.175,-18.009,-12.624,-75.374,-43.663,-14.13,-1.466,-8.834,-81.774,-39.451,-14.257,-6.621,-11.921]],
"ve": [[59.825,34.49,-43.932,-121.607,-41.107,570.401,84.688,-13070.79,15.663,-77.8,30.507,-153.969,69.151,-44.625,-27.135,-8.023,12.647,-9.181,679.287,14.748,101.192,-17.761,-25.084,-7.565,34.412,169.136,78.757,33.858,1.026,-16.249],[1.047,45.304,-4.421,-1.142,-4.604,36.064,22.537,14.759,-18.745,3.317,-17.916,-77.037,-20.445,-21.476,-11.433,17.85,10.4,-9.869,-4.548,94.121,-177.829,74.231,41.898,19.691,9.589,-21.956,273.273,59.85,42.96,43.052],[2.489,21.88,-11.439,4.376,19.112,-24.237,2.813,-11.195,-11.248,5.428,21.124,-5.937,25.35,12.578,-1.347,46.467,38.13,26.212,14.025,-7495.496,51.622,39.649,26.394,30.552,18.873,217.946,96.805,62.455,47.292,35.158],[-42.212,-2.915,-13.221,-31.67,-178.41,-29.236,-7.853,2.359,-68.972,123.225,-17.057,15.156,-0.066,-57.583,-3.953,-53.367,22.229,16.112,35.074,12.582,87.901,-9.123,27.71,11.457,4.079,148.561,125.294,54.355,45.337,30.623],[128.787,-3.165,-10.449,10.888,6.951,-15.81,-9.725,-14.484,6.552,3.603,-3.609,12.457,-1.223,-9.815,1.238,25.853,21.571,7.27,24.58,0.623,77.98,44.657,33.257,30.164,32.413,162.812,97.248,64.879,46.009,25.851],[141.699,0.806,-12.343,-9.926,-4.666,-8.891,-2.924,1.491,-8.486,-2.081,-694.144,20.493,-114.994,16.785,-42.421,19.174,19.692,8.91,94.425,13.082,-31.08,48.377,34.836,18.374,15.466,178.24,210.822,65.821,45.903,38.481]],
"kep": [[-126.47,-96.114,-63.564,-62.695,-47.549,-116.099,-97.14,-68.346,-9.668,-75.376,-126.934,-118.435,-98.176,-47.967,-58.18,-130.04,-171.882,-243.562,-259.922,-150.4,-158.886,-275.916,-347.379,-288.245,-396.285,-112.883,-245.256,-406.322,-584.592,-609.272],[-103.613,-107.682,-119.382,-113.518,-12.162,-93.09,-100.45,-127.853,-97.122,-36.9,-98.966,-104.758,-125.43,-104.082,-72.744,-99.885,-97.184,-132.301,-154.096,-110.457,-102.228,-98.251,-165.415,-169.883,-180.513,-80.971,-85.662,-137.195,-235.894,-224],[-92.891,-81.591,-87.122,-107.885,-117.926,-92.354,-79.072,-76.291,-109.764,-118.107,-91.817,-81.118,-73.876,-117.615,-127.068,-87.158,-80.13,-98.217,-109.315,-166.364,-98.344,-82.201,-83.918,-128.667,-178.391,-91.939,-71.143,-122.273,-121.175,-164.839],[-94.669,-73.692,-52.81,-67.497,-79.881,-91.356,-76.146,-58.711,-62.856,-78.508,-96.021,-68.875,-61.225,-66.537,-80.116,-100.172,-68.148,-62.277,-78.01,-94.388,-90.917,-71.114,-53.158,-79.684,-105.317,-100.421,-76.822,-74.576,-60.942,-59.065],[-96.3,-73.411,-57.818,-40.762,-54.816,-93.52,-69.196,-60.453,-47.268,-44.672,-98.085,-75.674,-53.449,-45.933,-46.197,-99.065,-76.985,-55.95,-51.182,-58.16,-98.677,-81.696,-55.322,-71.576,-90.348,-98.248,-70.297,-81.294,-56.747,-57.181],[-95.085,-84.984,-55.08,-50.971,-36.832,-98.807,-74.156,-61.41,-45.916,-37.445,-96.737,-78.012,-56.66,-41.09,-39.908,-93.529,-83.34,-62.246,-52.927,-51.909,-96.6,-78.207,-58.346,-44.809,-54.512,-96.088,-78.42,-62.502,-56.026,-65.839]],
"vp": [[681.767,-47.843,385.882,1286.05,889.763,87.153,84.572,32.53,90.361,146.447,-87.209,-38.929,36.615,-28.833,45.113,-30.525,-23.395,8.059,14.936,9.534,-13.347,-19.856,-1.02,-1.182,-22.654,-8.841,-31.856,-32.178,4.425,-3.538],[2887.281,1056.969,266.915,-735.323,-460.072,541.129,287.055,-23.855,94.382,35.216,310.279,92.167,21.792,30.493,55.176,38.312,9.275,-34.248,-22.064,-22.096,-2.797,-15.812,2.593,-16.788,-17.165,-15.102,-22.643,-25.487,-17.677,-28.496],[4450.385,3831.314,2724.569,1299.086,1161.784,1133.766,605.084,497.36,414.948,-71.981,411.474,434.362,164.481,124.293,82.564,48.877,62.444,26.829,4.1,7.465,11.482,21.592,-24.309,-20.011,-0.368,3.421,-21.638,-6.313,-27.823,-15.054],[5728.625,5754.653,4337.035,2981.201,1560.797,1047.201,1101.665,971.375,780.478,131.471,581.827,546.804,502.889,314.882,178.233,103.109,86.198,76.03,55.778,36.719,4.095,21.028,12.93,17.965,19.738,1.737,0.027,-11.78,-17.464,-39.482],[6152.12,8430.332,5030.265,5711.483,4113.476,1199.053,1624.405,1145.632,844.548,557.238,723.568,734.117,768.278,351.464,399.8,74.791,138.41,96.76,82.519,53.523,19.222,44.275,26.786,33.535,52.136,4.701,14.388,-2.398,-16.721,-10.791],[5755.11,9580.181,7365.06,6572.615,4023.184,1472.599,1701.144,1939.898,1273.745,1123.473,701.836,902.813,684.437,792.964,504.182,125.419,189.04,167.346,110.095,91.334,32.328,75.031,69.95,27.583,32.941,7.074,8.342,8.899,3.237,4.575]]
}