{
"KTrans": [[2.775,6.868,6.213,8.542,9.612,11.028,10.725,11.358,15.764,15.002,19.287,19.227,18.668,20.739,19.633,133.485,94.455,78.338,70.388,71.461,286.434,195.362,169.749,151.986,147.972,675.76,485.616,410.562,364.278,341.569],[-21.928,-7.052,-0.237,1.852,3.743,-14.371,-2.91,2.015,6.331,6.788,-9.315,3.988,8.457,8.096,8.46,51.288,38.788,37.523,36.065,30.929,117.613,103.085,83.511,73.479,64.995,299.678,225.819,190.589,157.689,138.882],[-39.818,-12.909,-7.507,-2.056,-0.21,-35.608,-11.119,-5.262,-0.244,1.119,-32.494,-8.303,-0.239,0.241,4.075,12.964,27.92,23.38,21.91,21.191,61.523,72.806,59.282,51.898,48.768,160.18,159.485,130.431,113.366,102.45],[-50.231,-20.425,-13.474,-8.611,-5.195,-51.857,-18.207,-11.751,-5.624,-3.131,-47.517,-16.36,-9.095,-5.09,-1.146,-14.936,8.872,15.453,13.823,14.655,29.621,41.579,42.343,36.583,35.309,98.046,124.072,103.611,89.383,82.36],[-59.952,-27.276,-18.537,-12.612,-8.431,-58.185,-26.552,-16.059,-10.361,-6.118,-54.382,-24.93,-13.773,-9.452,-5.793,-30.617,1.86,3.371,8.17,9.681,-2.483,27.622,28.813,31.27,27.128,45.978,87.502,86.259,78.799,70.523],[-69.957,-32.899,-23.771,-15.666,-12.799,-63.89,-32.554,-21.343,-13.984,-11.51,-62.052,-29.701,-19.394,-13.741,-8.469,-37.298,-7.996,-1.942,2.878,3.636,-17.793,15.406,23.2,21.418,22.858,19.574,65.032,66.719,61.784,57.448]],
"ve": [[2.893,-13.678,28.9,35.585,-413.112,6.159,13.95,23.248,22.732,41.383,15.713,11.41,19.787,17.422,33.231,45.11,15.049,5.711,-0.611,-8.666,91.114,36.596,12.817,-1.393,-12.197,189.992,77.557,35.961,12.175,-2.606],[0.313,0.525,1.407,2.695,4.793,3.443,1.029,1.494,2.726,5.172,11.591,3.871,3.071,4.374,6.576,47.271,22.936,14.473,10.595,9.841,95.652,45.663,29.05,20.231,14.524,192.054,94.034,60.031,41.716,29.66],[0.212,-0.91,-0.642,-0.496,0.863,4.026,0.065,0.578,0.554,1.171,8.79,2.373,2.001,1.86,1.934,46.431,21.608,14.247,10.507,8.524,97.774,46.143,29.661,21.638,16.609,193.232,94.935,60.191,44.366,34.525],[-0.444,-0.935,-1.706,-1.853,-1.208,4.779,0.008,-0.376,-0.901,0.202,9.033,1.918,0.299,0.2,0.811,47.383,21.229,13.166,9.603,7.506,98.205,46.09,29.179,21.743,16.777,198.289,94.489,61.416,44.929,35.696],[4.576,-2.502,-2.167,-3.248,-1.645,4.044,-1.021,-0.806,-1.097,-1.574,12.16,1.586,0.831,-0.351,-0.008,47.149,20.879,13.017,9.456,7.231,96.648,45.01,29.105,21.327,17.155,194.241,92.645,61.326,45.466,36.001],[9.41,-2.156,-2.909,-2.295,-2.437,5.561,-1.178,-0.869,-1.292,-1.318,6.648,2.782,0.301,0.05,-0.456,48.67,21.455,13.052,9.706,6.652,94.878,45.611,29.236,20.938,16.796,193.829,95.384,60.878,45.108,35.608]],
"kep": [[-21.511,-24.448,-29.585,-31.602,-31.619,-17.396,-22.629,-22.907,-17.825,-24.304,-18.592,-15.073,-17.469,-14.102,-19.094,24.456,31.337,31.597,34.751,49.286,55.065,66.686,84.597,98.336,120.858,104.887,153.192,188.105,218.13,249.482],[-39.889,-28.788,-24.324,-23.762,-23.899,-35.94,-26.147,-22.855,-20.513,-21.931,-37.264,-22.888,-19.137,-20.478,-21.592,-20.954,-13.36,-7.702,-5.62,-8.414,-14.604,6.754,9.052,10.605,10.481,4.469,28.204,39.029,39.296,41.221],[-53.631,-32.469,-28.555,-24.538,-24.198,-52.035,-31.739,-27.805,-23.939,-23.399,-51.726,-31.155,-24.948,-24.576,-21.735,-40.265,-19.14,-17.254,-15.471,-14.448,-37.174,-9.502,-5.915,-4.334,-2.24,-32.245,1.664,10.043,13.08,15.204],[-61.636,-38.263,-32.434,-28.614,-26.498,-64.325,-37.066,-32.055,-27.066,-25.924,-62.784,-37.038,-30.491,-27.414,-24.873,-55.677,-31.15,-21.8,-20.46,-18.311,-49.717,-25.738,-15.619,-14.052,-11.281,-48.49,-11.992,-3.588,-0.091,2.868],[-69.276,-42.774,-36.219,-30.817,-28.686,-69.142,-42.865,-35.075,-30.536,-26.914,-68.279,-43.313,-34.476,-30.364,-27.843,-63.738,-35.313,-29.945,-24.269,-21.674,-62.333,-32.615,-23.606,-17.167,-16.903,-62.419,-25.752,-11.797,-6.055,-4.037],[-76.568,-47.343,-39.79,-33.89,-31.536,-73.462,-47.477,-39.207,-33.25,-31.302,-73.254,-47.502,-38.329,-33.941,-29.565,-67.452,-41.842,-33.516,-28.177,-25.592,-67.581,-39.266,-26.994,-23.114,-19.487,-69.002,-35.517,-20.784,-14.812,-11.172]],
"vp": [[-50.128,76.02,-84.649,-155.615,-136.969,-31.107,23.209,37.037,36.042,-29.423,-21.44,-47.283,63.43,31.099,28.33,-4.454,-9.272,-4.644,-0.021,-13.623,-19.231,-9.675,-10.482,-0.761,-1.432,-7.754,-10.069,-4.222,-4.586,-2.729],[2225.578,1195.583,-154.07,-458.067,-177.335,484.964,107.156,-86.286,-49.147,33.289,301.255,123.738,9.361,-60.796,-12.351,50.522,2.479,-1.146,-3.778,-12.563,6.459,9.701,-1.112,-5.202,1.131,5.742,-6.166,-2.125,-0.967,-2.886],[4526.027,3386.746,1439.794,921.101,217.877,890.022,376.018,264.373,177.57,-84.442,470.418,229.581,115.769,61.032,-9.895,79.892,47.087,11.443,10.112,-10.44,38.975,20.344,5.511,5.793,-8.044,9.605,12.563,-5.378,-3.993,-1.667],[5983.477,4271.718,1809.663,1095.817,1092.367,1144.364,874.584,270.48,186.176,173.123,545.518,316.881,131.286,90.187,106.642,117.19,73.083,37.943,10.848,12.319,57.436,34.191,11.395,11.786,7.599,21.551,15.915,-0.048,-9.216,-0.791],[6600.198,5741.03,3274.024,840.237,1536.974,1297.537,1274.163,749.871,388.061,306.574,625.858,525.892,318.75,168.705,127.876,126.412,112.634,36.284,44.173,21.565,52.62,46.124,24.251,18.995,5.259,20.94,18.486,13.544,3.167,9.859],[7301.949,7489.928,4568.663,3156.539,1385.153,1420.191,1504.277,909.429,546.717,290.029,664.368,823.836,480.053,249.225,212.948,144.386,136.671,87.342,53.308,21.134,58.499,65.458,48.897,17.993,10.091,25.422,33.543,14.639,6.35,1.598]]
}