{
"KTrans": [[5.29,5.154,4.54,2.846,3.731,15.454,11.732,12.311,14.689,7.612,37.724,27.456,19.605,18.933,13.911,122.888,93.679,77.495,70.638,68.822,10.434,120.739,151.261,142.153,132.885,217.139,-19.882,132.96,110.268,148.079],[-21.899,5.266,0.636,3.308,2.592,-19.239,11.341,6.914,4.902,6.709,-28.059,15.926,15.462,13.552,7.874,-4.674,76.269,61.928,42.7,35.006,36.479,66.182,104.836,91.145,69.13,136.118,-20.228,7.671,124.037,125.732],[-63.917,2.745,4.577,5.325,4.036,-61.725,6.893,9.679,10.45,3.972,-62.924,16.293,17.759,9.789,5.966,-51.584,66.608,52.227,39.444,29.922,-43.556,43.642,100.203,78.567,61.434,-6.282,120.234,80.671,73.492,144.593],[-75.296,0.34,9.235,6.673,2.838,-74.949,-1.904,12.088,7.135,6.556,-79.754,13.091,15.298,8.298,9.428,-73.359,24.552,60.007,41.588,28.103,-58.399,-8.183,65.379,96.096,62.781,-17.699,36.184,45.307,63.936,131.639],[-85.452,-7.037,9.097,10.688,3.757,-85.92,-15.759,10.283,8.265,6.435,-89.012,-8.136,16.238,9.567,12.584,-80.936,-0.972,50.215,40.765,31.861,-65.221,-29.105,48.29,83.699,66.464,-14.548,16.58,10.835,53.388,135.812],[-92.637,-30.779,7.382,5.72,7.029,-93.091,-24.471,12.228,8.161,6.637,-88.699,-25.084,18.846,15.027,11.917,-81.146,-47.011,24.971,44.713,28.862,-74.262,-37.038,16.461,65.352,71.934,-46.708,-19.407,-10.463,47.905,48.371]],
"ve": [[1.208,12.058,13.986,29.949,36.765,14.876,8.907,0.641,-48.142,54.103,16.224,15.569,5.209,156.62,2.899,47.091,18.993,3.683,-6.419,-15.488,93.926,35.667,22.131,-6.639,-14.996,193.318,82.33,37.278,9.497,-6.466],[5.717,4.258,-0.414,-0.153,0.797,13.666,3.026,0.977,0.952,0.012,17.714,6.346,2.947,0.027,1.04,52.044,22.4,13.811,9.607,5.434,100.679,45.085,28.402,19.538,12.881,198.095,98.449,49.195,37.683,25.351],[6.654,2.613,0.448,-0.04,0.385,0.491,3.703,1.731,1.175,-0.005,-532.73,7.001,3.376,1.181,1.585,62.986,26.034,15.922,10.637,8.888,107.237,52.874,31.457,22.334,17.375,203.801,91.61,56.595,48.511,37.307],[24.367,4.159,0.919,0.48,-0.416,35.447,8.141,1.277,1.891,0.431,14.758,5.719,3.021,2.539,0.998,39.255,24.985,16.794,12.213,8.884,107.723,56.547,34.198,24.234,18.198,201.646,101.337,64.971,46.977,37.545],[-2.144,2.373,0.625,0.025,-0.31,9.771,5.888,1.491,1.175,1.128,18.032,6.079,3.139,2.777,1.559,54.868,28.888,16.004,11.323,8.355,105.761,49.836,32.22,24.322,19.609,198.53,98.924,65.673,48.876,39.238],[-2.666,-0.667,0.342,-0.535,-0.427,50.213,-0.648,2.582,-0.224,1.346,15.458,6.504,3.909,2.725,2.051,45.702,27.411,16.396,11.09,9.704,259.482,48.871,32.512,23.119,19.333,197.498,100.004,67.114,49.784,38.949]],
"kep": [[-0.115,3.263,6.205,5.295,4.073,5.011,11.48,18.022,26.739,11.696,26.939,25.483,24.801,36.164,30.101,52.545,68.184,77.838,91.617,113.93,-25.383,59.658,124.227,160.027,181.024,29.418,-29.495,77.57,84.447,151.369],[-27.903,1.956,1.652,4.236,2.604,-29.901,9.127,6.826,4.576,7.329,-38.203,10.347,12.88,14.235,7.62,-36.845,44.153,42.528,30.619,28.671,-25.912,16.106,58.098,59.898,49.869,-13.673,-46.553,-27.961,55.551,71.044],[-68.289,0.72,4.521,5.741,3.83,-66.9,3.283,8.393,9.615,4.167,-69.468,9.019,14.444,8.938,4.586,-68.029,31.774,31.512,25.962,19.531,-68.884,-1.34,51.063,45.045,37.073,-61.326,15.243,13.645,15.977,76.638],[-79.089,-3.255,8.493,6.342,3.505,-79.066,-3.466,10.808,5.365,6.389,-84.077,7.631,12.137,5.845,8.509,-81.088,-1.428,36.32,26.067,17.6,-76.121,-36.364,22.971,56.307,37.12,-67.733,-26.091,-7.692,12.913,64.498],[-88.015,-9.457,8.617,10.678,4.297,-87.847,-20.469,8.545,6.961,5.332,-92.241,-13.845,12.664,6.718,10.887,-86.549,-21.434,28.843,25.97,21.576,-80.719,-49.581,10.937,45.779,38.43,-68.195,-37.319,-27.086,6.368,65.606],[-94.051,-31.809,7.122,6.308,7.62,-93.965,-28.564,8.93,8.475,5.393,-91.017,-30.284,14.271,12.007,9.763,-87.169,-58.179,6.729,29.542,17.408,-84.991,-55.958,-10.556,32.792,42.748,-79.13,-55.239,-40.581,0.165,7.971]],
"vp": [[1190.886,-280.995,-417.975,184.759,-110.598,145.535,-41.637,17.542,10.219,-12.943,123.663,25.628,-8.203,-7.449,13.364,3.646,-12.295,-14.2,-1.216,-3.579,-14.565,-12.384,-18.002,-33.631,-29.111,-30.355,-13.135,-22.038,-15.861,-21.738],[5457.143,1047.449,-196.86,-35.18,-143.795,1087.695,243.031,-30.94,97.701,84.849,529.473,59.025,55.823,-25.215,-16.747,88.068,15.991,-18.772,4.644,6.657,23.38,-15.984,-23.495,-6.546,-12.604,-13.081,-8.796,-5.728,-20.219,-15.716],[7323.692,3944.662,979.255,906.969,374.675,1507.116,816.098,194.684,144.323,30.894,629.105,389.681,82.532,-49.013,6.657,144.565,55.961,-3.21,37.481,20.436,62.653,14.205,-27.421,-33.643,-12.59,27.06,-35.016,-25.163,-7.006,-10.703],[8119.075,7402.429,2651.917,1533.076,1036.658,1566.181,1576.877,516.148,229.882,-13.814,847.661,776.67,294.894,115.857,9.264,162.211,143.638,22.232,-1.55,-18.858,79.698,48.04,-13.85,-7.955,-16.646,28.954,4.653,-27.8,-32.75,-19.131],[9297.939,11091.24,5340.246,1703.701,700.335,1742.801,2610.396,1004.823,446.911,384.33,909.996,1255.211,567.498,178.985,-47.889,173.691,219.548,90.677,11.177,3.793,83.955,80.377,29.118,-10.523,-1.48,19.207,14.575,2.469,-25.197,-17.875],[9139.858,12920.707,9071.26,3594.682,1215.663,1725.93,2682.07,1997.916,640.893,152.067,945.227,1291.534,1032.59,266.608,85.748,170.497,277.287,169.233,47.741,9.116,94.009,103.537,75.141,6.795,-20.865,32.847,35.095,19.578,-9.042,2.997]]
}