{
"KTrans": [[-39.503,-4.882,-7.644,-4.227,-4.753,-24.483,-10.078,-0.737,-1.049,-1.533,-40.42,-12.145,4.513,0.769,5.838,-37.901,2.203,-6.417,-0.597,-11.564,-43.648,3.411,-1.714,8.811,1.558,-29.044,-14.273,-6.469,5.631,-0.762],[-82.361,-50.399,-18.974,-14.804,-8.55,-88.268,-51.571,-23.155,-12.975,-8.767,-94.052,-51.335,-15.148,-19.008,-14.988,-89.686,-47.041,-12.239,-14.448,-11.781,-86.479,-52.84,-14.564,-5.38,-7.975,-87.421,-45.37,-23.222,-14.707,-7.408],[-95.205,-76.141,-40.992,-18.635,-18.827,-94.968,-72.222,-37.842,-27.084,-22.872,-94.516,-77.64,-47.124,-18.815,-17.884,-94.845,-77.876,-46.157,-25.783,-13.745,-94.753,-72.271,-40.921,-26.344,-21.736,-94.916,-75.872,-45.988,-23.937,-20.812],[-96.996,-86.136,-71.181,-42.472,-22.661,-97.55,-84.232,-73.315,-45.569,-24.727,-99.078,-77.977,-73.477,-42.289,-26.445,-99.387,-86.595,-72.304,-41.476,-21.044,-96.336,-86.233,-62.117,-47.942,-21.78,-97.464,-86.24,-58.118,-30.698,-28.708],[-100.635,-92.893,-84.342,-66.783,-29.262,-100.656,-90.099,-76.063,-56.692,-37.047,-97.508,-92.625,-77.383,-66.603,-39.685,-101.57,-90.237,-81.831,-47.41,-38.826,-99.397,-90.585,-75.227,-54.986,-44.378,-100.4,-93.239,-73.824,-49.143,-45.243],[-101.08,-91.623,-87.226,-77.573,-57.789,-100.882,-95.223,-86.617,-73.093,-45.622,-100.398,-96.015,-84.667,-74.13,-49.887,-100.205,-96.999,-89.054,-71.167,-50.112,-100.449,-91.578,-85.077,-68.496,-46.333,-98.968,-92.178,-79.373,-66.107,-53.42]],
"ve": [[72.597,-355.311,157.838,1.806,1732.465,-0.419,42.491,26.508,-198.869,5.574,25.551,-45.581,7.354,-35.416,-210.697,-37.087,54.436,14.877,-11.928,-1.941,-9.315,-169.457,-53.618,91.374,83.793,-7.707,66.145,69.65,-13.697,-67.154],[-232.135,-27.808,-7.243,-5.984,-3.39,-127.478,-32.928,-11.397,-5.433,-3.724,-44.57,-34.853,-6.906,-7.182,-0.863,-215.787,-22.392,-9.61,-6.026,-4.335,-78.795,-29.224,-12.893,-6.266,-2.913,-63.475,-27.149,-11.985,-6.703,-2.078],[-91.578,-23.25,-25.459,-15.894,-12.864,-91.657,-45.026,-29.989,-19.66,-14.097,-97.867,-49.254,-30.105,-17.969,-12.545,-82.823,-50.085,-32.983,-17.634,-12.035,1056.089,-51.905,-23.113,-17.604,-13.796,-93.191,-50.223,-30.569,-18.226,-16.95],[-74.619,-92.217,-52.654,-30.117,-21.868,-105.855,-64.703,-46.62,-31.263,-23.345,-23.167,-58.807,-61.202,-29.823,-23.254,-104.134,-132.202,-52.808,-32.245,-20.345,-93.675,-57.814,-48.304,-34.449,-19.91,-209.826,-62.397,-49.019,-25.712,-24.748],[-96.589,-84.567,-67.194,-47.73,-29.514,-100.794,-76.338,-60.889,-45.862,-30.086,-98.369,-79.295,-55.767,-49.633,-34.173,-107.734,5.946,-63.705,-34.64,-32.248,-91.131,-85.795,-57.5,-46.691,-34.618,-107.925,-79.516,-52.778,-32.686,-38.516],[-109.797,-84.857,-65.032,-59.835,-40.893,-96.298,-94.941,-219.593,-56.675,-38.609,-78.269,-97.416,-69.231,37.835,-40.831,-88.223,-99.225,-77.067,-60.096,-38.782,-97.999,-443.438,-59.528,-50.963,-39.503,-99.102,-85.504,-72.41,-53.656,-38.434]],
"kep": [[-54.873,-13.568,-16.927,-12.099,-14.186,-43.302,-24.379,-4.794,-12.969,-14.911,-55.969,-22.575,1.46,-6.164,-3.115,-47.867,-4.238,-14.332,-18.542,-33.864,-53.121,-3.049,-10.196,2.429,-7.79,-42.785,-23.317,-16.102,-13.53,-13.993],[-87.815,-40.504,-9.793,-8.782,-3.699,-88.381,-37.056,-13.402,-7.455,-3.43,-96.081,-38.289,-5.365,-12.139,-13.046,-90.054,-36.529,-4.392,-9.184,-6.861,-90.424,-41.992,-4.855,1.85,-4.159,-88.761,-33.012,-13.546,-6.515,-3.923],[-96.347,-72.733,-19.488,-3.823,-7.086,-94.388,-68.237,-22.339,-10.07,-10.32,-95.222,-74.832,-24.81,-3.414,-7.028,-91.276,-72.796,-25.357,-10.937,-2.776,-94.254,-69.434,-26.422,-10.713,-9.52,-97.06,-74.439,-26.248,-7.398,-8.694],[-92.258,-91.671,-59.784,-23.955,-3.723,-94.331,-84.223,-60.672,-21.435,-4.231,-93.861,-82.692,-58.44,-17.134,-4.058,-96.71,-89.703,-59.533,-14.826,-2.564,-95.284,-84.035,-53.021,-23.467,-4.466,-94.5,-88.908,-57.776,-9.376,-6.315],[-96.83,-87.657,-83.085,-46.998,-4.506,-96.072,-90.099,-75.889,-38.695,-13.438,-93.395,-93.646,-74.128,-47.983,-10.767,-95.517,-90.046,-80.662,-31.611,-11.972,-96.028,-86.302,-76.242,-43.925,-15.938,-95.52,-88.467,-72.991,-34.896,-16.225],[-97.1,-91.238,-87.151,-71.866,-33.24,-97.36,-89.788,-84.91,-66.384,-22.443,-95.903,-88.426,-84.929,-67.982,-27.918,-95.536,-89.673,-88.757,-69.259,-31.343,-97.736,-85.983,-80.264,-66.173,-27.496,-96.75,-87.027,-83.604,-64.956,-32.88]],
"vp": [[2629.781,1984.938,1236.131,1761.209,1688.552,351.649,447.865,259.323,431.281,327.583,325.691,235.649,158.081,129.109,153.709,50.222,20.9,54.235,29.951,34.116,26.563,19.565,19.409,15.595,6.597,11.78,8.035,6.696,3.833,8.149],[6775.738,7860.114,5407.836,5533.214,5805.396,1448.984,1615.386,1132.869,854.634,1015.987,783.836,739.518,550.546,549.34,426.874,141.745,139.172,84.837,94.62,112.378,63.204,74.333,63.645,58.444,50.121,36.101,31.978,27.744,28.59,24.554],[8544.565,12360.216,10632.117,8482.808,8508.239,1700.413,1993.812,2016.365,2002.045,1773.846,839.811,1284.98,1134.18,910.562,827.297,165.027,248.822,228.115,164.04,164.016,84.964,113.728,90.768,80.949,84.125,44.334,52.591,58.766,41.13,45.863],[9027.789,15719.638,16872.946,12457.851,13201.201,2049.183,2985.68,3130.422,2787.396,2807.477,931.991,1323.888,1917.613,1588.968,1418.376,207.182,302.189,351.419,290.853,239.084,83.657,139.142,159.835,156.195,107.086,43.777,70.119,75.387,60.99,75.901],[9767.648,17869.854,23146.359,19075.742,16669.921,2138.468,3186.393,3794.511,4130.138,3156.842,907.314,1701.431,1709.852,2199.306,1819.347,218.395,322.542,411.618,307.737,339.983,102.651,156.554,191.851,204.53,185.063,50.22,87.337,90.162,91.141,98.97],[11198.55,16764.613,22735.719,25759.139,22380.421,2249.351,3944.286,4472.406,4825.676,4206.049,1028.031,1884.285,2035.712,2391.307,2305.805,214.653,378.272,494.385,515.393,442.081,105.14,165.451,219.463,254.08,217.247,44.088,83.22,113.215,107.637,99.904]]
}