{
"KTrans": [[17.688,7.642,8.476,7.87,13.5,40.891,22.212,25.417,21.474,19.848,66.305,33.486,34.021,15.889,15.663,211.187,110.426,101.266,85.458,81.001,473.855,252.49,195.415,180.072,160.648,1368.324,624.831,472.99,433.967,402.981],[-29.708,43.756,34.118,26.216,20.175,-20.787,51.698,40.183,28.005,18.914,-25.237,51.113,37.692,27.359,22.029,35.227,140.361,94.676,61.977,47.256,106.402,247.707,155.516,115.26,84.335,470.126,507.616,303.632,214.575,153.731],[-88.239,60.245,61.08,34.67,24.916,-91.066,59.568,43.838,44.004,25.758,-84.738,100.562,61.017,44.06,32.469,-46.562,137.029,107.175,62.051,57.465,4.114,214.751,164.644,121.478,90.505,169.049,560.963,347.12,224.731,161.47],[-100.978,-37.647,111.865,46.093,31.855,-103.619,-36.579,141.251,78.393,45.845,-99.469,-63.582,100.971,81.214,44.554,-100.677,8.268,137.011,94.494,75.371,-69.074,-19.932,313.084,146.976,115.384,-46.783,176.284,423.166,258.908,216.126],[-99.79,-119.283,-3.505,151.272,65.051,-109.172,-112.859,39.231,137.132,58.192,-100.935,-107.671,20.461,105.185,67.911,-95.988,-100.453,85.687,140.215,101.744,-99.217,-98.261,84.962,257.808,139.816,29.027,-45.011,216.047,362.107,271.58],[-104.918,-102.862,-114.286,120.151,109.589,-103.834,-95.606,-110.759,188.273,81.949,-105.439,-94.254,-85.416,128.617,114.791,-103.741,-108.487,-16.71,203.109,164.57,-84.461,-77.819,7.732,249.352,183.513,-147.223,-65.677,-17.626,408.876,275.833]],
"ve": [[5.261,2.224,8.6,10.664,14.943,9.277,4.544,2.403,0.805,7.443,11.275,3.347,-0.315,2.489,2.59,49.373,13.728,-0.291,-10.766,-16.984,92.345,32.891,8.397,-6.825,-18.231,191.901,78.422,33.505,10.124,-5.931],[0.73,1.669,1.812,2.097,1.323,5.775,3.065,3.732,1.911,1.3,11.764,5.766,3.602,2.762,2.032,49.159,25.5,16.492,10.157,6.016,112.478,49.256,31.154,21.25,12.683,192.823,98.003,62.684,41.549,26.656],[0.782,1.8,1.556,1.117,1.405,5.982,4.457,0.639,2.153,1.217,7.599,8.699,4.634,3.866,2.571,47.261,25.219,16.458,10.365,9.171,107.256,48.659,33.115,23.889,18.335,195.391,99.388,66.817,47.493,35.371],[0.676,4.269,1.788,0.642,0.02,5.714,4.271,4.334,3.488,1.79,13.78,2.969,2.568,4.134,1.917,50.837,25.343,16.611,12.264,10.326,98.019,49.891,36.056,24.348,20.257,206.526,100.018,65.643,48.053,40.794],[0.163,3.344,0.989,2.768,0.277,7.897,4.304,2.998,2.898,0.429,3.779,11.403,10.644,2.346,2.929,52.396,26.201,16.489,15.066,10.382,102.088,50.071,33.795,26.045,20.369,195.309,100.91,71.452,50.684,42.414],[3.576,-0.074,2.4,-0.674,1.65,6.208,6.017,4.906,2.508,0.555,12.499,4.493,10.678,3.625,3.202,50.099,225.636,13.761,11.307,11.666,94.422,49.665,30.8,25.324,19.922,202.327,99.475,68.188,49.553,39.757]],
"kep": [[10.822,6.461,7.376,7.663,19.079,27.826,17.782,27.745,29.026,30.845,45.668,30.194,38.891,20.061,26.717,105.28,83.514,101.096,108.353,121.261,195.786,163.019,170.042,199.147,217.435,398.152,303.288,326.242,382.143,431.971],[-33.712,35.81,28.304,21.754,18.022,-28.073,41.147,32.107,23.67,15.984,-36.269,37.616,29.483,21.804,18.491,-14.475,84.704,63.412,44.322,36.925,5.492,125.773,90.825,74.584,60.964,88.091,200.262,143.764,118.393,97.253],[-87.416,49.531,51.681,28.919,20.05,-87.314,45.058,36.296,36.106,21.268,-83.67,76.034,47.75,34.343,25.8,-62.651,79.652,70.588,41.619,40.198,-45.966,103.098,92.439,73.8,57.619,-7.97,220.395,161.679,114.674,88.754],[-98.139,-39.003,94.327,38.21,26.42,-100.552,-40.187,118.21,65.214,37.786,-95.039,-62.804,82.453,65.801,35.843,-97.761,-14.124,92.414,65.798,53.226,-80.309,-43.708,190.032,91.098,73.393,-79.018,36.958,202.554,133.43,119.391],[-96.399,-112.036,-9.567,130.326,56.2,-105.992,-105.891,28.861,116.935,48.73,-98.555,-102.302,10.654,87.109,55.399,-94.67,-96.079,51.531,100.136,73.726,-96.439,-92.791,35.022,168.373,90.871,-53.709,-67.047,83.559,194.634,153.275],[-102.71,-97.144,-108.075,103.277,93.508,-100.787,-91.57,-102.477,158.814,69.115,-102.029,-89.59,-80.98,107.411,95.816,-100.166,-102.789,-29.912,151.14,124.725,-89.384,-81.262,-17.03,161.436,123.01,-112.362,-78.666,-48.982,222.835,156.899]],
"vp": [[1074.559,693.971,972.978,1089.701,1315.907,296.029,252.742,266.721,272.089,224.196,174.841,126.047,132.583,95.85,78.112,37.245,24.276,28.263,29.841,30.324,10.697,13.131,12.666,13.192,10.903,9.135,4.5,4.004,5.982,5.028],[4376.209,4235.526,4270.581,4811.908,4182.14,885.39,821.981,873.627,815.485,772.781,530.149,356.676,360.126,362.699,325.861,114.626,87.531,100.865,74.496,73.705,43.908,35.235,40.237,44.61,33.461,23.416,18.357,18.938,17.477,12.588],[7056.706,6291.353,6631.115,5794.788,5490.8,1202.051,1707.371,854.06,1298.726,1014.165,656.62,945.787,567.859,603.79,644.326,120.848,144.435,113.275,104.005,124.739,63.463,58.964,49.668,55.182,54.005,27.485,39.277,30.406,30.734,26.98],[7202.111,9681.266,10289.679,6682.36,6811.653,1612.607,2037.354,2011.339,1932.297,1718.202,766.432,885.937,691.478,1023.816,798.374,169.072,152.243,151.021,141.611,170.958,71,84.917,118.434,70.796,86.698,37.802,52.978,42.202,40.077,49.605],[7224.854,13871.409,14346.694,14086.188,10174.641,1854.608,2673.244,2434.088,2503.214,1881.054,908.134,1363.835,1341.72,1102.732,937.847,169.603,266.5,199.797,162.042,200.048,87.875,133.766,110.72,124.157,98.635,34.233,55.793,57.55,56.239,67.028],[10629.835,12126.972,17416.012,10235.873,12917.506,2058.573,2738.449,3454.448,3767.861,2137.765,1039.15,1304.363,1465.244,1250.034,1251.246,209.563,293.466,320.133,275.291,277.96,86.143,136.741,107.666,131.704,108.088,51.615,61.705,80.333,63.024,58.744]]
}