{
"KTrans": [[2.069,0.918,0.67,2.364,0.942,12.583,8.191,5.713,5.374,3.429,26.286,15.205,12.542,13.734,9.687,158.625,95.867,73.834,66.415,61.324,400.369,227.682,170.491,156.97,138.461,1137.859,592.206,459.778,398.923,358.32],[-10.386,-0.138,-0.771,1.649,-0.129,-3.47,7.425,4.265,3.347,3.598,9.373,9.384,8.592,4.697,5.594,98.897,63.424,45.317,35.525,29.562,260.539,145.21,99.929,79.479,67.914,730.367,354.751,227.868,179.749,151.477],[-23.425,2.802,2.565,-0.625,0.266,-22.146,6.266,3.761,2.584,1.621,-13.143,13.045,9.166,5.518,5.076,62.955,62.664,40.696,30.28,26.431,175.697,132.71,89.138,65.55,54.392,550.322,309.571,203.577,150.866,122.58],[-46.537,-5.27,0.333,0.582,0.093,-41.03,-1.94,2.723,2.245,2.279,-32.387,8.073,8.057,5.915,4.112,25.909,54.403,41.716,29.764,22.356,115.651,124.746,85.954,61.855,51.89,379.672,309.656,197.533,142.253,110.627],[-58.407,-3.458,-0.09,-0.843,-0.186,-54.338,0.314,3.044,2.38,1.847,-45.895,4.806,6.292,4.722,4.147,4.187,54.673,36.824,29.26,23.342,78.384,119.859,83.829,58.597,49.672,252.088,284.82,186.087,136.759,105.639],[-65.13,-6.774,-0.147,0.714,0.296,-59.011,-4.163,4.297,3.432,2.32,-53.669,0.042,5.248,6.536,3.493,-11.11,48.921,38.658,28.321,22.173,27.987,115.442,79.815,61.07,47.386,223.957,284.859,185.871,133.198,104.036]],
"ve": [[3.825,3.011,5.18,2.225,3.67,7.031,4.066,2.183,0.252,2.65,10.77,4.894,2.63,-3.363,4.858,47.412,13.593,0.217,-9.533,-16.922,94.197,33.548,9.711,-7.263,-17.193,192.376,79.018,35.593,10.763,-6.631],[1.552,0.895,0.358,0.667,0.566,5.081,2.307,1.466,1.232,0.239,12.143,5.582,2.883,2.458,1.42,49.542,23.285,14.641,9.633,5.73,101.41,47.435,29.946,19.338,12.623,200.482,96.743,60.96,41.434,29.071],[5.023,0.571,0.311,0.408,0.408,8.694,2.955,1.388,1.086,1.275,11.63,5.13,2.934,1.948,2.193,51.521,24.533,16.237,11.295,8.696,101.212,49.788,32.446,23.153,17.675,202.858,99.915,64.857,46.95,35.609],[4.659,1.558,0.421,0.278,0.271,8.692,2.644,1.294,1.471,1.049,11.175,4.562,3.339,2.734,2.268,51.729,25.173,16.223,11.721,9.68,103.899,50.245,33.015,23.672,18.36,205.737,98.85,65.861,48.197,37.665],[9.519,0.919,0.515,0.538,0.199,8.117,3.292,1.796,1.401,1.243,14.799,5.137,3.353,2.582,2.011,55.161,25.682,16.904,12.246,10.024,92.055,50.883,33.206,24.392,19.336,203.866,99.225,65.819,48.99,38.566],[5.131,1.671,0.268,0.607,0.29,12.364,3.434,2.523,1.396,1.249,6.948,5.281,3.733,2.619,1.589,55.929,25.75,17.034,11.991,9.956,102.453,49.581,33.229,24.346,19.156,201.61,99.623,66.183,50.011,38.916]],
"kep": [[-0.213,0.459,-1.335,4.281,1.922,6.963,5.743,6.344,8.835,5.796,15.555,12.116,12.833,22.541,16.424,75.962,73.866,74.848,87.036,97.738,158.657,146.049,147.554,178.432,189.891,324.462,287.759,313.751,351.08,391.704],[-11.445,-0.943,-0.953,1.13,-0.454,-7.913,5.328,2.91,2.262,3.547,-2.166,3.83,5.675,2.338,4.282,31.442,32.897,26.967,23.782,22.715,79.782,66.634,53.999,50.532,49.283,176.937,131.417,103.827,97.932,94.952],[-27.279,2.27,2.349,-0.94,-0.066,-27.58,3.319,2.41,1.54,0.408,-22.151,7.539,6.163,3.532,2.91,7.328,30.741,21.176,17.127,16.383,36.707,55.504,42.934,34.544,31.253,115.316,105.044,84.294,70.785,64.242],[-48.478,-6.656,0.038,0.367,-0.113,-45.563,-4.322,1.552,0.853,1.256,-38.781,3.61,4.733,3.143,1.849,-17.935,23.561,22.027,16.165,11.628,6.208,49.731,39.886,30.92,28.388,58.204,106.327,79.519,63.551,53.056],[-60.588,-4.269,-0.504,-1.324,-0.369,-58.217,-2.721,1.317,0.993,0.68,-52.555,-0.161,2.926,2.134,2.149,-32.097,23.17,17.103,15.215,12.148,-11.885,45.857,38.1,27.577,25.475,16.231,93.432,72.627,59.001,48.454],[-66.53,-8.304,-0.402,0.14,0.029,-62.222,-7.338,1.764,2.081,1.086,-59.389,-4.796,1.528,3.89,1.902,-42.32,18.393,18.563,14.628,11.18,-37.084,44.06,35.01,29.607,23.747,6.755,92.895,72.197,55.507,46.933]],
"vp": [[-47.353,139.214,-51.602,112.556,-66.199,23.337,3.724,3.985,8.776,-23.375,3.856,3.257,-6.155,6.699,3.138,0.4,-1.955,0.433,-0.209,-0.856,1.53,1.456,0.724,-1.185,-0.046,-0.428,-0.643,-0.374,-0.953,-0.793],[867.2,97.301,36.406,-11.146,-114.865,177.717,19.767,18.362,22.333,43.395,103.124,11.682,15.045,-3.684,5.245,21.875,-1.47,1.882,-2.083,-1.765,10.271,0.698,0.243,-0.341,0.202,4.162,0.385,-0.578,-0.311,-1.446],[2158.496,288.149,52.836,-36.941,-48.968,445.643,71.706,27.867,37.95,-12.843,212.346,24.352,10.846,15.288,14.664,40.671,5.611,1.848,1.001,0.684,23.028,5.044,0.873,-0.105,-0.118,11.228,1.715,-0.551,-0.588,-0.257],[3087.777,554.361,139.617,118.512,-124.169,671.39,149.055,35.674,14.654,20.934,303.844,82.35,7.594,-3.502,-4.526,56.704,14.138,0.234,-1.832,1.142,33.454,7.97,1.011,-1.317,0.022,16.138,2.375,1.006,0.15,-0.637],[4093.407,1404.768,387.385,255.641,24.272,774.98,262.579,95.407,33.635,10.846,404.962,126.458,21.125,14.628,9.953,81.151,26.209,9.955,4.475,3.104,38.206,12.051,4.503,0.56,0.889,19.758,4.195,2.037,-0.54,-0.91],[4817.238,2111.967,644.296,290.04,87.123,928.573,385.119,146.558,61.174,18.779,455.37,193.139,77.599,24.725,6.426,92.918,35.069,12.661,5.388,2.312,47.774,21.045,4.393,0.94,-0.926,23.048,8.934,2,0.71,-0.992]]
}