{
"KTrans": [[-61.378,-73.051,-81.125,-76.948,-75.291,-43.084,-74.647,-81.99,-70.961,-86.059,-42.664,-52.936,-77.672,-56.997,-67.505,-28.583,-24.746,-34.001,-23.182,-28.429,35.462,-21.936,45.153,73.9,26.754,-100.289,85.796,242.498,192.381,183.089],[-59.174,-47.455,-58.043,-62.292,-62.679,-53.925,-45.016,-50.445,-61.149,-62.155,-54.635,-37.608,-45.04,-56.719,-57.185,-20.333,-7.571,-15.417,-25.32,-49.979,-55.369,-10.209,6.249,-7.49,-3.345,-40.298,-21.82,-37.22,32.391,39.271],[-73.134,-54.076,-47.435,-48.205,-47.238,-68.924,-48.422,-42.841,-45.753,-44.133,-67.239,-48.202,-40.341,-38.142,-45.119,-56.505,-30.631,-21.392,-13.988,-25.239,-49.681,-16.438,-14.39,-24.008,-4.509,-73.796,-10.492,-34.355,-33.864,-58.734],[-76.759,-60.021,-48.213,-40.075,-46.949,-80.634,-51.683,-47.97,-46.711,-45.069,-73.397,-55.592,-41.935,-44.589,-39.089,-69.883,-48.332,-30.623,-20.039,-26.066,-73.893,-36.824,-19.45,-30.213,-22.774,-47.737,-25.303,-8.58,-21.103,-27.295],[-85.091,-63.989,-50.307,-41.192,-43.677,-86.441,-64.368,-47.024,-39.195,-41.899,-78.885,-59.522,-48.889,-39.079,-45.232,-78.367,-52.336,-38.027,-31.219,-34.248,-64.982,-55.707,-32.459,-35.851,-30.577,-78.573,-69.626,-15.776,-28.601,0.918],[-84.462,-67.535,-51.873,-40.826,-38.869,-86.565,-71.232,-55.342,-50.654,-38.179,-85.426,-65.771,-50.048,-47.37,-46.508,-80.962,-59.839,-44.524,-34.495,-38.154,-73.818,-48.15,-40.147,-20.02,-24.802,-92.135,-78.483,-17.694,-6.112,-14.878]],
"ve": [[-66.038,-61.453,-57.73,-24.393,-29.257,-45.911,-115.055,-83.148,-63.659,57.581,-51.364,-32.094,-250.129,-18.05,-74.244,42.342,-9.147,0.891,8.834,-46.432,110.685,10.793,-6.31,22.969,-113.278,405.934,113,76.259,28.492,19.844],[31.157,-45.747,-51.981,-51.28,-77.139,-129.455,-54.058,-32.913,-65.439,-34.838,-35.382,-33.943,-54.108,-49.718,-30.246,57.417,14.18,-10.112,-19.873,-31.625,148.879,20.819,15.906,-1.091,2.701,175.791,45.178,29.222,35.657,390.83],[-32.861,-71.941,-64.649,-53.795,-43.902,-9.035,-22.795,45.439,-53.051,-44.741,30.216,-126.81,-61.339,-47.525,-46.402,45.009,-6.296,-24.923,17.251,-25.588,76.307,7.078,-3.978,-50.649,-3.445,658.324,51.45,1.773,10.824,25.319],[-10.178,-72.697,-84.64,-48.766,-69.008,-12.858,-56.342,-82.356,-66.586,-24.312,-13.544,-50.204,-64.595,-70.628,-53.552,-29.031,-54.154,-41.65,-25.031,-27.584,60.478,36.546,16.465,-29.472,-21.125,-11.613,16.867,55.843,-79.792,-6.777],[-113.657,-5.509,-90.754,-68.828,-70.561,-71.12,-60.475,-59.673,-60.247,-13.665,7.854,-243.364,-96.933,-68.102,-75.621,73.23,18.033,-31.061,-42.707,-58.831,125.773,-9.662,-40.519,-31.548,-23.528,158.078,76.09,12.518,-32.989,41.66],[-27.069,-36.414,-60.227,-73.422,-69.77,72.755,-70.435,-80.961,-100.285,-70.669,20.003,-49.327,-70.182,-86.8,-83.371,57.222,14.368,-28.219,-46.085,-84.622,74.166,81.92,-3.549,10.897,-30.894,246.406,110.633,77.055,33.336,-30.348]],
"kep": [[-110.565,-67.659,11.207,-67.801,-10.105,-112.147,-37.805,-10.274,-70.148,6.037,-101.025,-96.42,-40.527,1,-2.836,-106.256,-124.655,-100.768,-51.728,-42.633,-108.86,-171.98,-209.546,-210.481,-108.852,-66.253,-192.043,-315.113,-395.303,-364.722],[-98.592,-82.982,-96.077,-32.116,-18.648,-87.64,-78.698,-116.116,-61.764,-2.431,-90.358,-82.894,-114.979,-63.577,-0.752,-90.905,-77.977,-123.936,-108.826,-18.91,-95.464,-81.134,-107.619,-124.391,-105.132,-66.374,-52.182,-48.801,-132.53,-196.005],[-87.321,-57.428,-47.597,-93.478,-117.914,-92.766,-59.6,-46.778,-91.498,-102.173,-90.631,-63.53,-44.561,-89.345,-118.343,-92.684,-69.538,-65.377,-90.808,-101.981,-83.203,-53.725,-45.422,-69.673,-99.504,-75.854,-44.023,-30.485,-43.265,-92.34],[-100.95,-66.788,-38.433,-23.885,-38.916,-95.894,-67.131,-33.255,-16.866,-46.047,-99.259,-62.78,-29.175,-32.291,-32.275,-92.427,-57.749,-44.176,-36.305,-56.217,-89.749,-62.303,-52.117,-51.487,-42.528,-77.116,-54.559,-52.492,-32.55,-24.055],[-97.708,-65.526,-31.654,-21.258,-11.847,-97.96,-74.433,-41.414,-26.415,-19.685,-97.509,-72.869,-31.332,-19.998,-23.919,-94.632,-73.761,-44.752,-40.432,-21.579,-94.226,-74.729,-45.792,-46.86,-48.901,-91.068,-74.129,-45.973,-30.744,-40.255],[-97.194,-75.406,-44.656,-20.989,-14.883,-97.006,-78.621,-48.38,-20.69,-12.541,-97.794,-77.282,-46.303,-32.564,-18.71,-98.487,-78.697,-57.559,-43.557,-9.785,-93.359,-80.738,-54.58,-50.805,-40.261,-92.96,-78.852,-52.116,-42.53,-26.049]],
"vp": [[-585.114,-449.1,621.754,-168.919,121.607,-15.474,19.296,78.281,-73.678,-66.988,-9.155,-36.201,58.888,16.587,-24.26,-42.646,-16.984,-26.418,-6.784,27.268,-54.152,-0.216,-22.1,-20.423,7.73,-32.538,-25.715,-34.28,-25.167,-18.493],[2124.958,620.263,-68.75,231.457,-60.972,496.265,209.428,-134.339,-42.969,120.083,203.009,81.571,-31.914,-28.879,17.683,24.671,-15.529,-41.109,-21.846,49.733,-20.895,-18.228,-39.333,-14.213,-16.615,-34.103,-59.28,-35.046,-50.386,-34.053],[3448.924,2515.781,1123.498,336.159,425.253,789.259,648.834,171.849,49.746,-7.934,382.554,269.14,74.266,54.562,-10.784,42.463,35.403,3.824,-27.598,-29.961,-5.078,-18.519,-20.288,-44.88,-22.984,-0.653,-32.37,-57.775,-62.803,-36.582],[5147.617,4566.292,2561.447,1775.583,703.498,1105.538,706.989,427.309,227.889,209.083,551.53,424.365,189.428,131.206,57.715,63.382,26.041,23.436,23.218,-16.044,-2.183,-12.651,-21.267,-20.841,-18.982,-32.996,-31.436,-30.205,-45.564,-28.826],[6412.483,5589.244,3607.607,2590.947,2556.333,1034.454,1228.908,847.484,626.624,383.272,648.346,649.625,254.527,232.537,96.751,67.422,94.446,54.084,14.121,-7.907,32.232,24.363,-9.519,-10.971,-25.92,-21.416,-43.624,-21.027,-51.551,-25.269],[5545.944,8513.089,6031.621,3931.548,3670.775,1268.561,1323.777,941.179,591.698,433.776,685.036,770.352,561.65,303.721,228.341,93.093,118.252,73.61,82.561,19.415,9.728,21.524,-13.144,6.463,-12.681,-16.869,-0.814,-39.791,-43.886,-62.03]]
}