{
"KTrans": [[-46.147,-1.003,-2.659,2.933,-4.966,-41.923,-13.122,-9.437,1.638,-0.807,-51.171,2.368,-11.289,-7.584,-0.203,-29.166,-13.313,8.87,10.448,-3.923,-39.46,-24.001,-6.427,14.114,-1.394,-43.531,-3.758,9.489,14.051,7.755],[-85.698,-45.73,-24.132,-14.638,-11.682,-91,-53.169,-31.704,-9.079,-8.711,-90.434,-48.79,-25.216,-15.551,-13.255,-83.009,-48.617,-18.097,-11.635,-6.537,-90.25,-47.033,-19.554,-13.032,-6.424,-87.445,-51.458,-19.341,-2.755,0.334],[-94.791,-77.554,-53.721,-17.539,-14.522,-96.342,-77.742,-41.122,-18.301,-28.823,-92.826,-79.255,-51.937,-34.109,-17.84,-96.726,-77.907,-49.167,-22.153,-16.558,-94.37,-75.881,-50.819,-24.428,-16.927,-94.372,-79.886,-56.659,-22.922,-20.087],[-97.789,-86.079,-64.451,-41.624,-23.764,-97.455,-82.831,-67.483,-41.52,-30.61,-97.77,-86.09,-68.243,-43.412,-25.382,-96.619,-86.501,-66.879,-49.63,-25.474,-98.133,-83.402,-69.007,-42.087,-30.404,-97.544,-86.731,-67.122,-41.581,-28.586],[-100.282,-90.737,-74.981,-68.838,-47.075,-99.8,-91.72,-80.24,-59.985,-40.808,-98.045,-92.004,-80.114,-61.569,-45.914,-100.413,-88.165,-81.538,-66.612,-39.97,-100.138,-91.337,-79.106,-69.349,-43.407,-97.039,-90.778,-75.551,-59.734,-43.033],[-98.947,-93.609,-84.671,-73.006,-63.953,-98.946,-91.117,-82.653,-71.999,-53.162,-100.211,-89.433,-82.158,-72.16,-54.036,-98.614,-93.767,-84.27,-73.644,-53.154,-99.746,-92.874,-84.168,-73.465,-59.511,-98.994,-93.394,-83.261,-69.717,-57.646]],
"ve": [[-15.144,-979.473,193.989,60.819,-149.351,2.332,116.409,302.721,-3.894,-129.248,-30.585,26.48,-61.172,311.552,-15.937,12.536,33.958,8.656,122.297,-71.73,-8.104,48.882,69.779,18.172,-4414.59,31.107,-23.416,-8.911,0.826,-35.318],[-478.487,-26.916,-23.432,-0.267,-2.207,-55.337,-25.825,-4.28,13.54,2.142,-73.124,8.241,-13.681,-6.426,8.827,-54.932,-29.639,0.109,-2.81,-1.854,-245.155,-15.262,-1.936,-0.375,-1.07,-53.771,-13.856,-51.05,-0.844,0.216],[-95.978,-299.28,-36.207,-12.168,-11.639,-576.552,-93.162,-25.909,-15.584,-14.061,-67.156,-46.172,-30.628,-22.627,-10.042,99.576,-17.607,-28.203,-14.973,-10.081,-108.236,-50.341,-37.746,-14.74,-6.125,-62.831,-50.184,-33.906,-16.551,-9.107],[1207.171,-62.973,-41.635,-28.577,-16.199,-79.693,-45.051,-45.682,-30.4,-21.721,-110.289,-58.264,-42.626,-29.928,-18.379,-91.114,-60.66,-45.959,-35.039,-21.41,-106.692,-61.437,269.515,-32.557,-23.67,-93.194,-72.902,-65.783,-18.348,-20.994],[-120.73,-72.365,-54.286,-46.91,-32.841,-103.254,-67.856,-62.018,-49.794,-25.207,-60.515,-87.212,-48.469,-37.289,-28.609,-93.042,63.144,-62.569,-39.633,-29.661,-119.372,-70.621,-56.769,-43.807,-29.018,234.153,-77.112,-51.467,-48.529,-30.302],[-84.212,-92.832,-24.648,-49.034,-47.053,-154.723,-70.028,-117.027,-53.788,-34.547,-108.037,-74.246,-33.828,-51.261,-31.484,-104.802,-83.736,-61.679,-57.745,-38.234,-103.629,-64.529,-65.756,-56.294,-42.116,-77.395,-55.064,-4.27,-49.522,-35.158]],
"kep": [[-60.968,-11.564,-16.938,-18.429,-23.568,-70.205,-27.272,-25.713,-24.02,-27.133,-73.685,-12.674,-28.979,-34.545,-18.813,-54.384,-33.375,-1.558,-3.433,-34.666,-65.941,-40.545,-19.752,3.897,-7.89,-71.266,-23.512,-0.595,8.093,-13.761],[-90.098,-41.237,-14.65,-8.648,-7.631,-94.606,-43.691,-21.067,-3.982,-6.836,-93.53,-42.487,-11.721,-8.429,-14.048,-89.749,-43.086,-10.404,-8.244,-4.389,-90.76,-45.571,-14.65,-8.021,-2.309,-90.092,-50.214,-14.304,0.077,1.752],[-95.127,-77.843,-40.999,-7.925,-3.909,-96.413,-75.019,-32.796,-4.144,-16.25,-95.511,-76.067,-38.181,-18.588,-8.281,-95.45,-74.472,-37.356,-9.517,-8.169,-92.593,-77.782,-38.209,-11.855,-5.833,-93.197,-81.329,-42.206,-9.476,-12.849],[-94.427,-83.904,-62.766,-25.794,-10.436,-96.777,-83.825,-63.101,-17.487,-11.828,-96.677,-87.737,-62,-25.946,-8.073,-97.475,-84.895,-62.515,-28.66,-6.659,-97.606,-84.32,-64.632,-24.501,-11.513,-97.536,-85.505,-63.702,-30.598,-9.973],[-97.465,-86.936,-72.329,-59.941,-25.539,-99.602,-90.017,-77.862,-48.976,-21.242,-98.045,-90.209,-76.445,-48.796,-25.679,-97.773,-87.324,-79.182,-58.469,-17.787,-96.874,-92.282,-78.666,-57.118,-23.886,-98.303,-88.244,-72.595,-53.557,-22.103],[-96.998,-91.194,-86.291,-68.319,-44.916,-97.992,-87.466,-80.553,-67.572,-39.214,-97.808,-89.406,-81.469,-66.653,-37.594,-98.777,-90.312,-81.954,-67.853,-40.135,-98.79,-92.315,-82.665,-65.995,-43.973,-98.835,-90.98,-81.907,-66.316,-45.877]],
"vp": [[2732.264,1332.188,1742.411,1439.969,2128.79,503.427,408.531,406.233,393.636,290.399,337.534,111.816,193.184,169.964,249.447,40.363,51.447,15.027,25.559,27.14,23.059,25.009,14.485,10.843,6.15,13.953,7.373,6.224,2.99,7.509],[6510.343,5759.674,6388.475,5786.549,5955.684,1469.982,1505.481,1170.406,1023.069,668.392,638.789,668.772,631.848,471.53,467.957,118.102,128.128,125.172,87.547,108.739,64.849,64.838,51.399,55.099,46.95,28.275,38.524,28.507,17.869,18.564],[8330.157,11885.015,12410.998,7043.281,7517.215,1674.482,2270.024,1840.71,1676.128,2098.618,719.212,1210.51,1028.822,1021.588,746.087,177.539,228.633,207.093,175.848,162.996,80.159,117.197,104.46,91.658,77.074,36.425,61.148,59.662,41.89,36.195],[8678.66,13809.634,14274.156,11964.376,10080.06,1746.336,2515.2,2916.888,2794.797,2802.722,879.965,1279.648,1417.702,1314.132,1171.751,172.939,273.538,309.554,328.964,276.265,86.503,132.219,154.15,144.021,148.261,43.402,72.375,76.926,57.141,62.07],[9552.193,14192.143,15529.934,20426.942,18867.244,1928.101,3033.304,3966.34,3588.854,2990.799,914.841,1670.116,1822.275,1710.716,1448.462,196.243,278.897,409.212,411.893,349.278,98.067,163.929,182.853,201.115,167.786,43.778,75.384,79.155,94.204,87.695],[9134.317,16699.031,21038.806,24142.507,27076.283,1765.279,3183.63,3926.522,4678.428,4042.933,1001.176,1522.114,2006.32,2346.176,2000.629,178.239,348.889,439.52,493.242,397.187,93.736,171.033,205.575,232.788,238.045,42.893,82.739,103.513,104.651,95.433]]
}