{
"KTrans": [[0.453,0.942,-5.876,-2.343,-3.751,5.984,22.738,8.926,11.658,9.593,10.331,22.571,19.473,19.129,17.079,29.638,52.349,76.574,83.629,86.692,-18.173,20.766,91.644,128.67,128.014,-230.218,-219.368,4.924,61.522,39.315],[-37.203,-12.274,-0.897,5.969,0.481,-36.356,-9.08,0.381,5.145,2.588,-30.573,-7.332,4.905,9.265,8.598,2.577,9.456,-1.705,17.655,34.459,-3.29,19.377,-14.702,12.666,39.979,-85.094,-21.492,-56.772,-30.712,14.256],[-53.48,-18.153,-10.987,-7.016,-1.704,-47.069,-16.793,-10.584,-5.683,0.167,-45.924,-12.958,-4.504,-4.486,0.955,-30.164,11.828,17.903,16.41,-0.77,-66.304,3.295,1.317,-6.512,-10.159,-102.687,-5.385,-14.67,-14.301,-74.592],[-60.832,-20.994,-13.798,-6.306,-5.351,-56.803,-20.487,-5.686,-6.452,-2.723,-58.552,-16.626,-6.796,0.264,-3.638,-38.386,13.024,20.644,16.165,14.439,-32.491,24.32,23.383,37.045,5.666,-73.525,-34.554,6.653,8.466,-45.666],[-71.426,-29.064,-15.032,-4.885,-4.362,-70.43,-28.475,-10.909,-6.713,-4.483,-63.398,-23.361,-7.097,-5.315,-1.75,-59.861,-11.379,16.805,20.886,11.16,-51.861,-31.709,32.161,32.388,34.35,-88.738,-35.115,-18.973,26.188,22.398],[-73.58,-36.674,-13.508,-9.959,-6.556,-74.879,-30.655,-13.149,-9.965,-4.197,-69.976,-29.642,-11.752,-4.582,-2.191,-63.598,-10.1,8.263,13.583,14.882,-60.163,-12.576,17.206,31.565,32.286,-59.454,-52.343,29.086,42.1,37.93]],
"ve": [[40.451,10.021,-26.072,-99.136,-74.719,-18.929,-0.236,-40.954,-786.44,-36.952,-51.108,1928.884,39.966,-102.413,60.802,43.155,-15.27,-30.735,-28.287,-85.752,90.355,89.967,54.24,-33.143,14.48,197.977,81.06,31.06,2.899,-18.08],[-34.246,19.718,0.981,2.497,14.55,-5.217,3.963,-22.599,-9.14,-31.947,4.487,-13.81,1.713,19.083,-118.895,38.49,24.034,16.122,102.309,185.573,88.386,46.919,29.172,16.282,-1.89,195.725,95.812,65.551,43.436,25.49],[-18.25,-6.143,-17.811,-1.963,0.931,-28.254,-8.114,88.863,-87.945,-15.805,-3.795,3.098,-0.656,0.79,1.609,45.15,15.55,15.317,10.821,10.635,95.714,45.533,30.918,34.104,31.238,204.404,97.26,65.686,48.03,39.289],[-2.886,-4.248,200.327,-1.687,-1.575,-9.324,-2.302,-1.145,-13.251,-4.154,13.14,0.959,-0.261,-0.638,-4.512,36.298,20.979,14.425,5.737,3.54,91.494,43.565,-4.776,20.756,17.996,189.127,91.197,67.443,47.434,40.704],[-12.788,-3.269,-3.04,-1.246,-2.638,-12.756,-2.625,-0.506,-1.123,-2.36,-7.464,-0.733,0.953,1.273,-0.42,72.377,16.903,8.145,10.175,8.323,87.241,54.888,30.926,10.335,17.478,193.536,103.272,102.613,51.235,34.504],[-32.587,-5.783,-1.148,-1.443,-1.764,4.405,-2.251,-0.89,-1.398,-0.455,-0.818,2.876,0.904,1.333,1.211,31.924,20.786,14.922,10.563,8.89,80.382,47.581,30.236,31.599,28.1,193.409,98.798,87.739,47.457,22.917]],
"kep": [[-118.249,-54.262,0.407,-24.73,-7.468,-117.629,-98.301,-30.515,-16.233,-28.96,-125.797,-90.202,-53.872,-58.477,-35.656,-144.421,-224.522,-217.752,-160.014,-192.307,-166.862,-349.397,-371.864,-349.077,-381.858,-194.024,-476.583,-518.229,-653.488,-796.344],[-76.618,-78.966,-129.646,-66.713,-7.767,-77.094,-77.442,-126.393,-52.488,-10.243,-76.215,-81.1,-121.888,-70.191,-21.73,-67.816,-77.671,-171.267,-185.499,-105.712,-77.932,-67.268,-183.669,-259.584,-233.953,-101.609,-80.081,-140.256,-276.859,-341.138],[-79.606,-43.629,-45.928,-82.848,-129.283,-72.934,-43.629,-49.945,-85.038,-131.773,-74.436,-41.065,-38.661,-81.13,-124.945,-75.649,-39.362,-35.591,-47.876,-177.345,-94.959,-62.789,-71.041,-107.16,-196.082,-102.362,-68.076,-82.528,-93.708,-226.929],[-80.118,-38.545,-33.042,-23.811,-39.332,-77.354,-40.509,-23.696,-25.933,-29.757,-81.895,-37.102,-22.523,-19.078,-38.515,-74.428,-29.486,-12.9,-17.745,-17.067,-79.067,-38.987,-30.026,-8.921,-65.589,-91.917,-75.856,-58.441,-53.69,-119.999],[-86.566,-45.521,-29.586,-15.376,-18.746,-86.404,-44.429,-22.12,-19.123,-22.437,-83.029,-43.4,-22.564,-16.578,-16.587,-86.609,-43.33,-11.415,-0.786,-18.962,-84.926,-68.75,-16.019,-8.479,-1.987,-96.076,-74.357,-68.113,-33.909,-42.126],[-86.607,-49.273,-24.93,-19.596,-19.111,-89.948,-45.932,-24.747,-23.232,-15.169,-86.55,-46.619,-26.48,-15.8,-12.988,-86.81,-42.257,-17.7,-9.294,-1.256,-86.625,-58.758,-28.129,-10.893,1.238,-88.711,-82.029,-40.111,-22.553,-18.446]],
"vp": [[-88.842,-74.63,387.367,143.066,177.799,-48.744,55.537,7.555,-39.918,151.768,3.605,-69.541,42.681,71.926,24.4,0.756,-2.172,7.808,-14.608,-18.832,-8.471,-9.269,2.033,-23.127,-7.276,-7.51,-3.911,-7.803,-13.482,3.77],[2478.652,846.841,31.063,124.121,61.453,499.147,90.366,7.82,-14.965,-50.413,233.012,147.973,-2.349,-12.971,22.528,38.341,24.75,-7.459,-4.45,-5.726,6.312,-7.276,-17.519,-1.4,7.879,-1.149,-16.66,-2.94,-9.863,-0.699],[4479.775,2704.348,1194.6,1045.268,-180.303,842.148,388.368,433.216,95.869,11.413,457.602,317.437,139.719,52.162,43.838,84.133,58.631,19.897,19.917,-10.878,35.773,22.407,7.92,-14.26,-13.306,8.114,-4.092,-16.276,-24.833,-15.093],[5752.413,5692.636,2411.081,1727.146,1164.489,1265.926,1093.644,510.149,327.222,202.728,617.475,490.614,159.399,162.619,80.686,93.588,84.478,51.221,13.241,5.492,33.922,37.396,-6.086,-15,9.948,-2.655,-2.76,-16.04,-26.555,-5.956],[5981.251,6709.089,3950.9,2199.122,1943.849,1179.308,1331.196,604.853,300.525,288.757,654.528,706.108,427.593,97.531,86.659,130.134,108.913,60.737,42.518,23.889,45.014,55.429,22.263,1.266,11.706,13.055,17.505,9.842,-29.405,3.414],[6831.811,7125.633,4900.396,3495.312,2154.389,1466.584,1793.404,1110.368,591.298,692.242,725.946,828.506,489.397,288.559,250.432,133.497,148.666,102.67,66.784,47.332,42.422,82.2,35.689,49.75,6.54,9.635,18.839,1.131,-13.638,-23.056]]
}