{
"KTrans": [[4.908,3.473,3.122,3.101,1.66,17.976,9.663,8.567,7.477,7.511,31.547,18.764,15.229,12.476,12.767,74.654,103.702,81.623,69.679,66.358,169.408,173.464,150.535,139.707,125.639,275.288,164.972,128.228,89.206,151.507],[8.471,5.863,3.631,3.478,2.957,23.111,10.363,7.362,6.03,5.301,52.808,17.918,11.92,9.741,8.726,20.096,96.941,55.636,43.625,35.884,32.75,29.535,116.223,84.101,70.699,63.923,38.633,33.909,148.516,143.178],[23.022,10.431,5.816,4.486,3.636,46.291,14.117,9.931,6.803,6.012,48.735,19.951,13.001,9.682,8.23,-18.086,158.089,60.047,38.213,29.688,7.362,-37.157,130.249,82.168,60.487,31.853,128.262,109.114,22.707,130.986],[-14.036,14.269,8.678,4.799,4.966,-6.02,17.387,11.582,7.633,6.334,-38.011,30.719,16.365,10.288,8.332,-39.186,23.892,62.738,33.622,26.575,-7.393,-33.784,64.068,74.259,62.744,15.884,55.173,4.714,35.988,132.753],[-59.723,26.308,8.35,8.642,6.267,-76.374,24.966,13.388,8.219,6.719,-65.383,31.944,20.125,12.898,9.028,-55.513,-11.715,86.945,46.139,30.157,-40.813,-7.57,-31.163,114.975,65.183,-40.589,12.47,20.837,53.425,107.677],[-73.171,28.391,13.107,9.037,7.683,-71.317,42.27,15.791,8.409,8.77,-84.917,58.471,26.683,13.639,11.976,-57.484,-27.055,113.995,60.358,37.342,-62.881,1.375,-12.237,159.343,65.868,-24.608,-22.392,23.572,2.454,82.228]],
"ve": [[1.06,-0.671,-2.062,-2.544,-1.515,3.56,-0.427,-2.741,-4.603,-6.617,7.75,0.185,-3.662,-5.983,-9.166,52.405,13.45,-1.401,-11.562,-18.97,89.492,33.346,-9.114,0.504,-14.465,184.605,77.186,19.715,6.986,-2.257],[0.681,-0.253,-0.365,-0.765,-0.938,4.459,1.744,0.545,-0.144,-0.657,10.113,4.206,2.107,0.88,-0.099,50.141,23.975,13.819,8.469,4.683,99.933,48.562,29.822,19.044,12.405,202.365,97.659,59.278,42.736,58.728],[1.753,0.188,-0.124,-0.674,-0.713,5.449,2.26,1.118,0.453,0.027,10.001,4.592,2.591,1.483,0.886,49.309,25.026,15.501,10.795,7.789,101.032,48.567,32.01,22.48,16.714,203.884,99.609,62.535,49.345,37.054],[2.642,0.247,-0.039,-0.384,-0.552,4.086,2.212,1.305,0.554,0.127,8.605,4.689,3.09,1.73,1.067,51.549,24.764,15.808,11.038,8.446,98.406,50.069,32.954,23.01,18.055,202.881,102.676,68.18,73.555,36.54],[3.289,0.475,-0.319,-0.104,-0.234,3.308,2.342,1.207,0.626,0.267,6.873,4.224,2.894,1.915,1.298,49.627,24.646,15.941,11.812,8.834,100.671,49.148,33.745,24.277,18.495,204.6,100.505,68.02,49.187,38.753],[1.251,0.432,-0.13,-0.17,-0.304,4.446,2.625,1.151,0.493,0.492,9.397,5.346,2.999,1.959,1.428,49.521,24.288,16.146,12.503,9.291,102.472,49.141,34.032,24.806,18.509,198.383,103.961,65.152,49.262,38.915]],
"kep": [[4.001,4.329,5.7,6.166,4.016,14.043,10.35,11.955,13.131,15.906,22.19,18.73,19.811,20.066,24.742,19.501,79,84.326,92.28,106.191,51.07,101.532,127.408,151.236,167.001,50.245,66.078,75.283,67.367,158.438],[7.618,6.155,4.033,4.296,3.958,17.594,8.478,6.794,6.208,6.011,37.695,13.136,9.632,8.8,8.855,-16.356,56.806,36.304,32.319,29.849,-25.42,-9.706,64.392,54.071,51.568,-34.213,-16.701,-8.855,72.102,83.337],[19.547,10.147,5.947,5.199,4.391,36.717,11.504,8.695,6.327,5.989,33.207,14.476,10.129,8.08,7.282,-40.226,100.122,37.789,24.53,20.249,-40.826,-49.542,70.771,47.464,37.065,-48.267,20.649,31.558,-13.261,67.229],[-15.735,13.468,8.646,5.187,5.553,-11.582,14.482,10.08,7.029,6.198,-42.366,24.187,12.727,8.399,7.185,-55.71,0.257,39.286,20.101,16.61,-49.584,-48.756,22.615,39.993,37.022,-56.012,-16.664,-28.466,-3.204,65.088],[-59.122,24.468,8.473,8.666,6.497,-75.046,20.867,11.789,7.471,6.411,-66.727,24.93,16.403,10.7,7.6,-67.487,-26.743,58.504,30.043,19.374,-66.654,-34.277,-42.591,69.172,38.314,-75.743,-38.008,-20.562,6.536,48.838],[-71.858,25.447,12.732,9.059,7.95,-71.332,36.254,13.909,7.708,8.181,-84.394,47.266,22.256,11.252,10.315,-68.775,-39.412,79.064,41.363,25.236,-78.406,-29.015,-30.154,101.001,38.433,-71.469,-55.346,-21.014,-24.173,30.318]],
"vp": [[97.229,70.357,156.327,117.288,80.185,44.54,5.738,24.568,13.724,14.103,-1.029,6.394,3.922,-6.214,-5.871,-10.671,-2.964,-3.668,-3.811,6.308,-40.05,-21.846,-21.89,-11.927,-16.514,-16.228,-25.791,-16.216,-14.904,-22.873],[314.113,432.723,177.7,399.242,273.586,40.761,31.565,59.063,51.896,61.113,25.553,10.209,30.835,35.759,36.429,2.494,9.164,2.178,8.725,1.176,-15.925,5.035,-9.016,-14.773,-8.494,-20.663,-7.368,-27.223,-17.42,-6.304],[3648.984,-88.691,399.122,423.301,540.974,731.543,-2.737,61.089,94.79,109.609,404.299,-5.602,33.801,30.038,35.93,42.332,0.865,5.208,-7.019,-10.012,6.706,-15.573,-15.81,-14.667,-17.445,0.852,-18.4,-43.849,-3.703,-13.333],[7639.369,262.785,324.809,315.452,534.537,1489.887,-18.547,30.177,40.123,83.385,772.148,-16.559,23.879,33.78,35.156,148.135,25.54,-33.027,-28.117,-20.387,15.443,3.417,-11.231,-34.118,-16.512,0.163,0.982,-3.13,-18.061,-17.251],[7991.173,2007.823,184.797,650.614,819.762,1536.555,640.159,-51.041,51.343,71.136,805.812,139.476,-29.837,-16.477,27.585,181.119,46.037,-23.55,25.751,-26.635,61.576,5.246,15.576,-16.415,-26.818,4.887,-10.819,-6.663,-21.072,-29.193],[8601.963,6998.945,72.453,-14.166,233.058,1661.319,2307.664,-59.729,-28.826,54.032,917.765,790.963,-20.572,-26.579,19.972,148.149,188.98,-17.759,-3.94,-1.998,72.11,47.143,23.678,-7.936,-36.02,6.489,20.915,-24.592,-14.529,-14.32]]
}