{
"KTrans": [[-2.828,2.751,1.491,1.101,3.372,-1.738,-1.075,-0.239,-0.317,-0.108,-3.917,-0.905,1.37,-0.865,0.374,-12.039,3.033,4.745,3.766,3.598,10.638,22.499,-0.147,7.148,-0.188,-20.394,64.935,59.803,28.961,33.618],[-30.816,-0.906,-0.399,0.412,1.169,-27.701,-0.284,-0.137,-0.654,0.506,-27.34,-0.171,-2.543,-0.162,0.197,-31.302,-2.599,1.474,-5.237,-1.829,-4.231,0.68,-2.642,1.047,-0.495,-37.598,19.397,3.993,0.524,6.152],[-63.386,0.139,0.408,1.337,1.383,-64.241,-1.89,-0.448,0.321,-0.204,-69.027,-1.412,-0.5,0.829,0.965,-56.595,-10.176,-4.822,-0.41,-2.536,-46.843,-11.545,-3.567,1.275,-1.718,-69.039,4.284,5.514,3.1,0.274],[-83.897,-8.272,2.594,4.071,0.833,-88.381,-7.905,-0.013,0.2,1.58,-86.43,-12.718,-2.956,3.346,-0.118,-79.779,-6.718,-2.463,-1.825,-2.586,-71.148,-11.063,-1.337,-1.505,-3.281,-79.841,2.339,10.005,4.386,-2.542],[-94.877,-29.391,2.924,1.544,1.233,-93.488,-21.476,1.176,2.064,0.904,-94.104,-21.519,0.571,0.994,1.871,-85.587,-35.676,-4.678,0.312,-3.363,-83.749,-33.673,-16.663,-4.795,-6.882,-88.956,-34.565,0.951,-16.329,-8.061],[-96.86,-39.166,-0.28,1.639,3.871,-97.161,-44.285,2.397,3.77,1.52,-95.482,-44.966,-0.672,3.578,-0.053,-92.483,-37.727,-11.512,-3.908,-0.912,-88.072,-48.42,-20.821,-5.637,2.609,-93.543,-37.821,-12.416,-7.636,-8.161]],
"ve": [[0.603,1.196,0.025,2.412,0.77,0.539,1.319,4.022,2.251,7.275,0.094,1.974,1.631,7.087,13.531,-22.822,-9.846,28.506,-29.459,25.139,-15.847,-41.764,-40.778,-15.341,-18.2,3.302,-50.648,-22.154,-39.511,-136.533],[-14.617,-1.286,-0.356,0.091,0.068,-13.238,-0.195,-0.322,-0.392,-0.556,-14.455,-1.091,-1.101,-0.245,-0.1,-32.847,-1.827,0.363,-1.656,-0.466,-4.831,1.415,-1.22,2.081,2.389,-24.23,-6.541,-17.722,-121.236,103.669],[-36.843,-2.297,-1.118,-0.707,0.136,-38.738,-1.436,-0.826,-0.819,-0.661,-47.25,-2.118,-1.182,-0.253,-0.104,-39.214,-8.095,-3.04,-0.777,-1.337,-35.363,-10.765,-3.755,-0.03,-1.473,-59.754,-11.854,-2.678,-4.605,0.651],[-61.86,-4.689,-0.747,0.303,0.094,-68.615,-6.548,-1.388,-0.779,0.42,-65.2,-7.088,-2.451,-0.048,-0.487,-70.632,-3.124,-2.47,-2.755,-2.359,-54.785,-15.868,-0.112,-1.996,-2.37,-73.202,-12.079,0.924,2.569,-3.143],[-77.699,-16.969,-0.625,-0.312,-0.455,-78.569,-13.236,-0.665,-0.404,-0.556,-78.185,-14.138,-2.104,-0.542,-0.73,-67.242,-24.166,-4.548,-0.378,-3.099,-69.674,-25.259,-12.534,-3.179,-5.458,-84.74,-29.46,-4.965,-18.399,-7.011],[-86.151,-24.956,-2.715,-0.102,0.318,-86.321,-27.972,-0.965,0.007,-0.27,-88.524,-26.94,-2.736,-0.061,-1.376,-66.255,-34.301,-10.062,-3.158,-1.9,-73.188,-37.989,-19.96,-4.854,0.077,-77.62,-41.965,-15.98,-11.138,-8.21]],
"kep": [[-3.51,2.703,3.104,2.024,7.155,-2.464,-1.134,-2.014,0.289,-1.349,-4.499,-1.797,1.777,-2.54,-1.038,-24.345,-4.595,0.681,1.41,0.171,-37.299,-5.629,-24.913,-11.495,-24.816,27.4,-12.454,2.041,-22.813,-12.085],[-21.107,0.051,-0.064,0.361,1.158,-19.082,-0.379,0.117,-0.215,1.151,-19.229,0.341,-1.517,0.094,0.3,-48.753,-4.171,-0.236,-4.482,-1.761,-36.264,-11.787,-7.415,-3.589,-4.077,-13.005,-31.619,-23.608,-15.628,-8.561],[-51.189,1.528,1.36,2.007,1.236,-52.117,-1.044,0.195,1.07,0.431,-58.179,-0.267,0.446,1.009,1.023,-63.461,-7.623,-3.905,-0.297,-1.87,-57.852,-29.015,-7.61,-2.397,-2.653,-45.803,-28.857,-17.839,-11.984,-9.595],[-76.024,-5.448,3.015,3.679,0.725,-83.648,-2.92,0.902,0.902,1.098,-81.148,-7.553,-0.865,3.306,0.329,-77.673,-12.924,-1.719,-0.22,-0.935,-66.865,-40.527,-8.632,-3.282,-3.53,-67.578,-31.243,-27.851,-9.414,-9.709],[-94.577,-17.667,3.025,1.611,1.643,-91.269,-13.567,1.345,2.285,1.369,-93.298,-14.132,2.07,1.371,2.471,-82.508,-37.99,-3.567,-0.365,-1.08,-77.739,-50.515,-20.676,-6.306,-3.807,-70.768,-43.427,-35.74,-29.176,-11.334],[-97.284,-26.756,1.304,1.439,3.454,-96.679,-29.109,2.108,3.493,1.685,-97.998,-32.029,0.613,3.234,1.182,-88.804,-51.487,-8.091,-1.77,0.331,-81.64,-56.442,-28.258,-5.55,0.102,-74.593,-53.121,-42.833,-32.629,-14.35]],
"vp": [[197.87,-65.401,-12.538,-74.359,-201.856,26.935,31.035,3.443,-6.014,20.412,28.006,1.947,2.546,8.245,0.526,33.851,-0.312,-5.052,-5.625,-5.574,13.927,-7.584,11.696,2.294,11.923,8.371,-6.661,-11.563,-0.422,-2.242],[1619.591,260.821,78.426,40.351,-45.501,288.15,22.275,16.856,43.962,7.143,155.182,32.088,44.59,15.396,-0.409,59.462,7.081,-2.081,27.624,10.697,4.051,7.882,11.785,0.865,7.718,15.865,8.88,12.095,11.203,1.888],[3941.497,380.601,264.487,127.39,-94.692,808.592,69.894,44.891,31.344,39.412,466.995,44.014,33.097,-0.271,10.099,79.521,35.608,20.203,4.596,16.536,31.151,28.921,13.224,-0.071,9.231,30.534,11.827,5.474,5.507,6.223],[6343.722,1066.348,269.596,-234.012,-21.433,1403.999,275.805,94.691,60.909,-27.276,697.999,158.191,68.291,-12.921,23.578,129.407,11.882,14.552,21.465,24.358,53.654,31.704,0.603,7.103,13.359,37.422,9.866,-2.517,-2.688,11.999],[8408.67,3300.943,162.321,102.842,163.059,1579.022,549.597,35.118,26.203,42.732,827.297,285.275,56.558,18.525,26.563,136.236,92.352,29.119,2.318,32.871,70.107,53.523,39.01,13.064,28.434,41.939,28.505,9.377,36.991,21.135],[9165.999,5100.718,837.25,-61.908,-364.68,1843.578,1150.409,74.747,-41.876,18.877,920.649,548.914,87.743,-11.654,59.167,151.33,141.49,61.963,24.482,19.56,73.094,75.529,60.594,19.392,-2.84,37.756,41.787,26.059,22.945,20.673]]
}