{
"KTrans": [[-48.665,-77.841,-82.735,-82.512,-80.066,-44.622,-58.934,-70.505,-74.704,-79.501,-35.817,-46.112,-66.204,-62.592,-57.776,-26.495,-0.761,-24.614,-15.189,-12.231,56.481,37.989,54.859,31.924,31.921,85.391,204.086,138.69,168.357,184.153],[-57.917,-39.569,-48.121,-59.097,-63.521,-55.185,-38.855,-46.127,-54.286,-52.273,-52.868,-37.85,-44.683,-47.015,-54.187,-18.066,-11.755,-17.783,-21.666,-36.812,6.171,25.061,1.285,-1.784,-12.247,54.449,12.03,-25.155,27.844,47.575],[-67.873,-47.05,-48.278,-42.151,-42.817,-67.738,-44.453,-38.196,-35.218,-45.553,-69.409,-39.648,-36.608,-32.807,-34.68,-56.052,-28.933,-20.028,-12.838,-16.456,-46.805,-3.851,5.992,5.879,-5.532,-14.215,9.326,22.194,15.659,-14.795],[-77.105,-52.574,-41.787,-40.264,-41.995,-77.474,-53.758,-42.577,-44.867,-47.562,-76.801,-53.856,-47.541,-38.928,-37.065,-65.688,-33.005,-29.065,-35.639,-31.554,-54.775,-21.352,-17.364,-3.696,0.938,-40.383,-9.916,22.547,4.711,-3.967],[-83.803,-60.481,-45.936,-46.014,-51.367,-83.204,-60.598,-42.223,-33.621,-43.18,-81.858,-60.062,-45.862,-37.875,-41.75,-73.479,-46.09,-38.198,-28.565,-35.869,-64.075,-36.599,-21.787,-11.654,-20.997,-47.433,-26.811,-12.531,11.838,1.733],[-87.756,-66.852,-55.99,-40.365,-36.789,-85.654,-64.247,-49.251,-38.143,-46.614,-86.222,-65.553,-42.91,-44.957,-31.676,-79.439,-51.67,-42.954,-32.809,-32.561,-72.648,-40.622,-31.431,-35.928,-21.599,-74.529,-30.664,-8.474,-6.396,-1.404]],
"ve": [[-54.369,-31.948,-69.338,-56.201,1.206,-34.058,-106.153,-31.24,-89.073,-40.707,4.464,-45.529,-285.945,-437.784,-29.646,-364.937,-486.881,-22.932,-49.74,572.295,128.389,8.282,26.593,-28.485,148.967,153.889,92.343,22.869,4.4,-23.047],[-52.15,-42.238,-50.615,-63.87,119.908,-61.308,-41.475,-41.243,-39.486,-24.358,-52.223,-53.134,-46.874,-26.813,-9.568,34.601,-5.028,-15.166,-50.385,-18.134,138.36,52.418,8.206,-0.809,21.119,110.295,36.209,32.265,26.722,-8.105],[-10.017,-67.467,-70.241,-61.279,-44.73,-12.154,-75.155,-46.673,-40.209,-47.357,-39.478,-216.275,-46.445,-38.754,-35.607,-3.37,-34.675,-29.736,-10.776,-14.814,108.508,15.848,31.55,26.477,9.25,245.096,49.053,41.908,30.738,24.484],[-30.934,-56.916,-76.418,-60.665,-56.37,-11.283,-65.863,-76.189,-58.854,-65.264,-0.628,-65.945,-94.937,-60.541,-53.962,40.178,-9.129,-48.093,-61.786,-45.99,11.904,25.414,-25.614,-7.833,0.953,128.55,147.315,54.436,7.986,31.17],[-23.341,-75.043,-82.448,-90.569,-96.155,-14.458,-53.786,-69.141,-59.714,-71.015,-14.528,-63.949,-82.319,-74.591,-67.645,66.97,-19.127,-59.784,-48.13,-72.956,160.215,3.982,-2.779,-14.635,-36.919,402.136,48.821,28.641,18.652,16.373],[-13.022,-52.293,-99.826,-83.297,-69.215,36.671,-35.79,-76.619,-76.958,-97.213,640.923,-79.422,-73.15,-106.35,-55.988,85.211,3.128,-78.364,-52.32,-71.546,166.83,81.527,-29.577,-89.494,-53.212,192.925,208.351,53.149,40.341,-16.62]],
"kep": [[-124.078,16.443,-5.598,25.372,-14.169,-124.023,-49.466,14.484,6.645,17.443,-113.156,-66.197,27.445,-13.074,-7.951,-97.603,-102.878,-27.285,-19.793,-31.182,-134.469,-148.48,-122.535,-49.206,-76.988,-6.626,-156.263,-210.044,-219.965,-248.004],[-77.561,-54.562,-154.886,-40.082,-11.828,-85.96,-66.005,-114.799,-17.676,4.486,-79.064,-71.568,-115.984,-29.257,-10.02,-74.251,-71.105,-114.043,-109.656,2.937,-79.103,-66.376,-95.917,-106.246,-21.128,-41.662,-9.848,-25.431,-82.322,-124.551],[-84.24,-40.486,-32.196,-53.734,-122.61,-89.069,-32.035,-18.489,-55.912,-119.769,-84.658,-34.172,-26.053,-71.481,-111.217,-80.133,-43.426,-38.663,-68.931,-105.456,-82.366,-48.929,-65.821,-71.16,-110.727,-73.594,-43.604,-23.318,-44.077,-50.133],[-91.401,-49.307,-17.226,-18.026,-29.1,-92.226,-49.41,-15.861,-7.131,-19.144,-91.26,-49.88,-15.915,-9.728,-18.574,-86.015,-55.83,-25.024,-19.24,-16.447,-81.012,-72.56,-31.607,-30.792,-44.149,-77.387,-61.676,-35.475,-29.934,-40.728],[-93.602,-53.491,-22.914,-13.994,0.832,-93.259,-59.174,-26.975,-13.851,-6.655,-93.2,-52.46,-24.052,-12.386,-16.728,-94.514,-61.611,-33.441,-23.498,-0.298,-91.446,-60.865,-47.791,-36.462,-16.233,-90.135,-55.101,-46.41,-25.728,-35.368],[-96.562,-64.347,-33.477,-12.049,-9.5,-96.751,-65.439,-32.686,-13.828,-9.594,-97.485,-68.015,-23.906,-7.031,-12.713,-95.729,-68.694,-35.899,-24.192,-9.404,-92.762,-74.65,-49.683,-20.101,-15.5,-88.582,-75.096,-51.183,-51.789,-18.207]],
"vp": [[15.6,268.174,-101.958,281.938,-185.298,8.244,3.908,42.015,-30.919,-69.32,-47.497,-15.356,35.518,-2.595,-1.026,2.282,3.94,-4.127,-1.633,8.634,-31.749,-1.876,-5.686,0.337,-3.687,-17.027,-26.359,8.403,-9.576,-10.917],[2284.217,923.425,44.445,-569.92,30.53,453.852,166.143,-44.564,20.333,-2.647,236.657,40.766,-67.984,-11.904,18.397,4.995,9.254,-10.733,-3.494,10.669,-8.432,-19.39,-31.42,-17.751,6.397,-48.153,-31.533,1.387,-12.642,-11.232],[3709.893,2089.679,811.282,793.284,136.187,908.362,409.041,178.919,152.619,-51.998,415.399,179.078,130.185,93.454,-11.932,49.752,25.695,-8.851,-12.975,-17.138,-9.786,-14.555,-22.864,-17.171,-14.337,-19.981,-23.203,-15.603,-28.285,-11.76],[5040.595,4069.118,1748.851,1236.161,783.597,1019.988,697.369,355.613,149.934,192.879,470.076,351.712,77.823,71.316,20.659,70.2,85.229,15.523,10.042,-11.088,18.192,28.308,-7.531,-3.797,-7.156,9.018,-38.679,-19.002,-22.981,-12.954],[6108.652,5333.365,2744.807,1401.375,445.649,1144.956,1069.827,616.716,382.668,276.079,529.053,529.214,324.16,143.104,100.403,75.618,102.342,56.092,38.81,-3.769,30.54,14.015,7.714,2.567,-24.003,-1.792,-23.464,-13.331,-14.366,-24.321],[6047.451,7025.391,4239.095,1989.303,1952.375,1334.362,1579.121,1057.084,577.765,238.928,668.304,667.795,436.894,168.474,214.417,106.371,111.026,41.026,47.851,23.944,24.359,40.975,10.179,-8.05,6.21,41.655,1.997,-4.577,-15.456,-21.306]]
}