{
"KTrans": [[-7.211,1.516,-10.072,-10.811,3.699,0.008,5.47,19.939,2.352,3.104,-1.391,17.553,18.553,15.499,12.695,30.642,51.73,60.145,81.499,73.442,-16.943,-1.618,40.433,102.251,118.751,-65.227,46.783,-23.55,-57.253,67.73],[-45.863,-14.438,-4.06,1.26,2.661,-47.148,-12.319,-3.164,3.022,6.545,-40.432,-12.928,0.174,10.378,10.941,-18.887,6.74,3.876,17.509,29.991,-14.822,-9.531,-6.349,7.605,37.374,-119.195,25.253,-23.249,-23.961,20.121],[-61.443,-26.507,-17.803,-10.159,-3.98,-58.887,-31.505,-21.353,-9.3,-2.79,-62.848,-24.623,-19.407,-5.25,2.59,-44.122,-12.339,-20.361,-4.041,2.49,-50.983,11.257,-3.351,-29.715,0.423,-58.095,-28.029,-12.517,-25.667,-27.573],[-73.164,-40.201,-22.99,-15.773,-13.412,-71.488,-35.66,-21.105,-16.103,-10.463,-72.971,-38.69,-18.337,-11.207,-12.265,-62.664,-27.86,-8.943,5.023,-3.92,-61.957,-33.301,10.929,-10.098,-10.135,-65.702,-12.34,-2.722,8.085,-25.903],[-80.186,-44.797,-29.048,-21.391,-13.123,-78.059,-42.425,-26.211,-14.973,-14.325,-77.613,-40.649,-25.423,-16.816,-10.203,-76.36,-27.62,-13.973,-6.838,-8.903,-60.559,-32.654,-13.574,-15.687,8.938,-96.736,-6.624,-42.868,2.561,13.217],[-84.573,-55.713,-33.442,-22.196,-15.139,-82.582,-51.971,-30.312,-17.86,-14.537,-80.093,-53.075,-29.588,-19.594,-15.485,-82.218,-42.531,-25.411,-10.133,-5.374,-92.476,-44.928,-25.892,-9.925,2.488,-61.137,-64.852,-42.298,11.686,-1.003]],
"ve": [[-37.096,-67.636,28.314,-57.364,-69.38,-50.966,-25.709,-30.985,-577.892,-34.192,-213.96,19.492,-93.66,1376.487,8.32,179.908,5.803,-33.122,-58.142,-52.22,174.288,24.411,-3.821,-117.143,-19.521,153.424,74.276,30.866,-1.091,-17.28],[1.599,-876.675,-6.38,-2.66,-14.893,153.751,7.714,3.649,-8.301,17.02,-16.663,-41.315,11.642,-8.469,-0.445,45.049,19.634,16.247,-2.684,14.067,62.057,105.286,3.877,29.219,-16.611,172.784,94.401,64.101,30.288,26.448],[-5.066,-18.01,-7.106,70.561,1.827,211.089,-13.469,-297.676,-5.255,4.037,1.973,159.68,-3.915,-0.954,-0.058,429.044,17.397,12.676,3.033,7.459,28.148,45.778,28.136,17.702,21.529,156.057,94.284,62.51,51.848,60.553],[-9.763,-12.316,10.787,76.37,-14.674,-62.71,-36.474,-8.871,-5.955,12.178,-22.294,0.775,-3.85,-3.702,2.139,31.171,13.161,15.704,-157.801,41.696,72.824,45.409,17.462,43.22,20.647,1287.95,115.199,64.085,17.801,40.151],[117.059,-636.221,-6.701,-6.889,0.418,-57.659,-7.449,19.021,-20.704,-6.133,-4.672,2.787,-37.268,-1.483,1.112,-73.241,-37.225,13.023,-1.832,-3.327,169.928,45.433,37.272,-520.305,17.817,193.753,92.457,61.231,41.874,68.298],[413.756,-16.589,-6.807,17.64,53.215,-39.568,-34.142,-4.609,-15.475,-10.262,-7.766,-8.936,-4.127,-0.444,-3.629,-245.022,74.257,5.19,5.174,-4.486,105.876,158.329,68.208,47.009,19.527,188.694,85.588,38.776,35.63,34.694]],
"kep": [[-109.335,-96.555,-39.595,-13.776,-11.668,-120.193,-96.819,-84.19,-48.575,-41.453,-121.274,-123.981,-101.562,-74.417,-83.552,-154.822,-219.12,-262.156,-194.365,-194.2,-179.584,-299.031,-369.952,-319.295,-338.496,-145.093,-250.696,-469.81,-634.18,-674.762],[-99.417,-104.013,-115.069,-97.522,-39.093,-100.14,-92.257,-130.338,-82.279,-59.081,-97.172,-102.634,-127.53,-110.124,-56.849,-90.216,-101.997,-154.256,-183.491,-114.667,-91.331,-110.022,-181.728,-230.214,-199.75,-112.378,-91.043,-159.973,-251.39,-285.563],[-93.17,-68.956,-80.23,-108.808,-131.203,-90.971,-79.215,-87.659,-107.052,-129.262,-95.541,-70.465,-87.094,-101.564,-122.311,-93.109,-70.344,-105.015,-122.413,-163.55,-95.248,-61.313,-86.617,-156.41,-179.513,-94.724,-85.023,-87.762,-123.838,-179.302],[-95.333,-74.796,-58.2,-64.155,-88.224,-94.836,-66.066,-58.428,-60.472,-78.186,-96.888,-73.484,-55.087,-56.015,-97.123,-93.052,-74.233,-56.138,-48.91,-88.559,-94.802,-84.068,-48.249,-77.263,-106.85,-91.623,-72.594,-72.377,-70.693,-116.49],[-97.087,-72.579,-55.528,-51.808,-49.752,-95.829,-70.887,-54.273,-45.267,-51.423,-96.719,-69.087,-56.242,-49.444,-48.381,-97.319,-66.561,-53.564,-48.949,-60.708,-92.614,-76.07,-66.089,-69.629,-47.084,-100.09,-67.168,-87.947,-57.66,-52.023],[-98.522,-76.958,-54.079,-47.079,-38.026,-97.124,-74.589,-52.675,-38.884,-39.211,-95.756,-77.97,-52.363,-45.498,-44.639,-98.419,-75.376,-61.284,-44.993,-42.624,-103.16,-81.826,-67.618,-55.963,-44.022,-91.558,-91.868,-79.106,-52.249,-56.28]],
"vp": [[397.786,137.405,-160.399,527.058,557.145,-122.614,-42.972,21.613,181.829,123.891,34.76,34.494,56.758,16.076,74.804,6.827,8.024,15.618,8.528,-9.58,-5.936,8.091,11.877,-13.92,-24.801,-28.853,-37.623,-10.171,1.049,-5.72],[2063.053,949.94,447.96,-118.121,-24.5,646.975,171.112,115.377,-110.263,205.356,162.771,197.13,-19.694,-42.437,-39.686,48.339,-1.811,6.241,-12.946,-9.049,-0.342,3.212,-2.544,-10.458,-18.61,0.697,-30.838,-17.124,-7.913,-15.627],[4402.876,2988.416,1750.211,1312.456,9.552,800.877,897.687,296.809,129.908,109.168,396.197,309.964,262.525,-22.161,-81.077,83.266,54.791,39.251,1.281,-17.963,21.526,4.507,-13.372,8.071,-25.853,-9.671,-5.22,-11.541,-22.747,-15.974],[4806.133,6016.966,5159.681,1913.522,2063.083,1063.311,987.079,759.463,411.513,196.849,538.088,425.909,421.497,332.91,219.459,74.56,102.461,101.117,53.807,14.985,23.595,52.516,2.558,3.248,3.115,1.425,-8.248,-10.057,-15.053,-9.721],[5509.73,7328.903,6379.184,4271.616,2516.269,1137.852,1261.662,1400.037,897.583,482.431,619.873,745.336,572.466,484.982,312.175,109.552,150.55,146.194,38.331,2.741,39.895,56.718,46.229,55.759,0.38,7.269,-2.926,18.625,-24.445,-19.26],[6204.522,8822.145,6904.126,4906.349,4926.921,1280.414,1806.677,1480.035,1401.437,1082.509,681.674,1017.491,745.919,716.444,500.273,124.226,160.421,182.269,96.943,45.177,61.497,84.884,63.948,59.457,37.694,-8.898,23.59,14.003,15.996,2.628]]
}