{
"KTrans": [[2.164,3.727,3.287,2.053,4.058,6.472,2.9,2.23,4.523,4.995,5.107,8.046,3.239,7.463,2.968,20.102,13.147,9.165,8.138,7.221,48.627,28.918,23.005,20.662,19.704,-92.86,52.997,48.746,60.738,47.914],[-22.897,-4.101,2.588,1.84,1.932,-18.308,0.482,2.466,2.066,2.407,-16.361,-1.129,1.116,2.152,1.944,-19.082,2.184,-1.609,6.432,5.897,-6.333,17.317,8.169,6.484,9.426,-42.353,39.361,33.777,24.139,22.02],[-53.78,-13.682,-4.664,-0.389,-0.56,-59.351,-8.91,-6.065,-1.282,0.086,-47.147,-9.021,-4.495,-1.414,0.311,-53.24,-8.732,-4.623,0.346,2.298,-33.395,-4.847,5.019,2.729,3.168,-73.49,-1.281,8.615,19.249,16.867],[-75.152,-21.263,-11.692,-6.523,-2.817,-76.802,-24.291,-11.788,-6.05,-3.655,-72.828,-28.11,-8.283,-7.08,-2.74,-61.67,-21.357,-12.075,-5.028,-1.665,-63.552,-25.463,-6.79,1.154,-3.911,-48.241,-29.437,5.62,-1.363,6.993],[-87.841,-33.546,-16.634,-10.208,-6.309,-84.436,-31.653,-19.408,-10.407,-5.9,-86.016,-32.442,-18.236,-14.02,-7.856,-80.026,-31.825,-21.314,-10.44,-5.834,-69.636,-38.663,-15.336,-12.917,-2.376,-87.543,-39.084,6.597,-5.775,0.989],[-88.399,-42.191,-25.459,-17.701,-10.558,-89.461,-40.165,-29.097,-15.139,-10.634,-86.831,-42.508,-22.742,-15.318,-10.108,-84.721,-51.005,-24.588,-13.876,-10.799,-85.691,-49.269,-22.21,-13.477,-6.915,-76.341,-56.346,-23.118,-9.066,-2.219]],
"ve": [[0.467,1.804,5.404,11.044,8.394,1.108,3.429,8.241,8.291,8.199,2.93,2.128,6.804,4.332,14.649,14.824,433.047,19.369,11.816,354.946,5.252,21.943,-27.034,-42.526,-40.588,12.08,29.887,-10.363,-38.466,-61.213],[-9.525,-1.342,1.105,0.629,1.06,-8.017,0.217,0.642,1.203,1.238,-8.363,0.265,0.602,0.695,1.915,-4.914,3.131,0.005,3.187,2.934,13.078,12.599,5.032,5.466,5.133,46.969,10.818,-9.357,-14.863,-57.386],[-26.063,-5.159,-1.51,-0.408,0.016,-31.122,-3.688,-2.171,-0.37,-0.172,-21.455,-2.833,-0.81,-0.569,0.281,-21.569,-0.309,-1.382,0.816,1.565,5.43,-2.712,4.562,2.597,1.95,-13.263,23.124,3.098,13.014,9.598],[-47.727,-7.809,-4.216,-2.371,-0.68,-46.755,-9.786,-4.649,-1.68,-1.335,-45.048,-12.032,-2.809,-2.462,-1.073,-19.113,-8.479,-4.979,-0.55,0.077,-43.99,-7.671,0.952,2.432,-2.13,21.317,4.14,9.807,1.263,4.288],[-76.457,-15.794,-7.136,-3.42,-2.275,-57.906,-15.505,-8.052,-3.732,-2.225,-57.161,-16.95,-6.976,-5.352,-2.575,-44.558,-12.737,-8.989,-3.665,-1.938,-8.063,-14.445,-3.956,-5.485,0.909,-39.215,-31.953,11.874,0.857,2.587],[-53.08,-22.682,-10.398,-5.991,-3.828,-61.505,-21.37,-11.414,-5.462,-3.404,-59.308,-21.348,-9.017,-4.897,-3.972,-47.108,-23.694,-8.06,-3.556,-3.288,-49.748,-16.945,-6.214,-3.264,-0.653,5.781,-22.803,-7.982,1.385,2.913]],
"kep": [[-5.811,-4.751,-7.294,-12.179,-7.635,-2.713,-6.609,-9.902,-7.326,-6.289,-5.973,-1.406,-8.575,-1.819,-10.157,-10.939,-3.412,-4.77,-7.901,-9.232,-22.896,-5.447,-5.657,-7.061,-2.32,53.621,-49.789,-32.911,5.896,-17.143],[-23.949,-9.993,-5.939,-6.066,-6.355,-20.443,-7.132,-5.621,-6.424,-6.082,-19.676,-8.8,-6.826,-5.878,-7.168,-39.459,-10.659,-10.108,-4.905,-4.782,-34.655,-9.536,-8.201,-8.335,-4.283,-50.269,-20.505,-8.202,-8.561,-4.277],[-47.539,-16.376,-10.376,-7.239,-7.776,-50.249,-13.05,-11.092,-8.134,-6.988,-44.418,-14.08,-10.894,-8.081,-7.228,-62.034,-17.342,-11.576,-8.221,-6.949,-56.985,-24.972,-10.281,-9.46,-7.765,-57.698,-28.312,-24.603,-9.431,-5.952],[-68.838,-21.53,-14.757,-11.246,-9.291,-70.431,-23.827,-14.635,-11.441,-9.439,-69.555,-25.515,-12.853,-11.743,-8.824,-65.276,-23.703,-15.349,-12.2,-9.251,-71.351,-41.758,-17.722,-10.599,-10.667,-67.02,-39.589,-31.404,-18.766,-10.578],[-83.453,-29.071,-17.326,-13.898,-11.122,-82.24,-27.258,-19.308,-13.864,-10.765,-81.59,-28.192,-19.233,-15.955,-12.362,-78.6,-35.037,-21.096,-14.47,-11.416,-75.577,-49.037,-21.405,-17.575,-11.601,-78.013,-54.222,-21.539,-25.335,-14.222],[-85.069,-34.186,-23.605,-19.008,-13.809,-85.997,-35.584,-26.393,-17.04,-14.28,-83.391,-36.932,-22.119,-17.649,-13.349,-82.013,-50.159,-25.428,-17.714,-14.979,-82.109,-58.101,-27.235,-19.564,-14.511,-80.732,-57.244,-41.312,-23.89,-17.517]],
"vp": [[47.541,-25.545,-117.33,-131.356,-152.864,-19.102,-1.901,1.242,-47.494,-44.286,-12.657,-36.379,-14.684,-33.839,-4.202,-11.804,-7.137,-0.538,-4.187,-0.032,-12.176,-11.153,-7.027,-5.543,-5.112,-6.516,-7.072,-5.484,-16.143,-8.482],[1030.477,228.344,-270.476,-155.419,-124.016,181.498,-24.77,-36.798,-30.641,-51.946,88.043,0.117,-11.943,-1.911,-9.116,17.735,-8.839,17.932,-17.38,-16.29,-6.946,-19.72,-5.246,-0.472,-9.794,-19.284,-20.138,-18.628,-10.149,-12.899],[2973.203,1113.355,387.527,-11.103,85.173,696.476,141.465,132.302,11.898,33.391,243.305,51.867,23.686,33.884,2.416,54.866,4.648,16.607,0.509,-7.987,0.017,2.909,-9.968,-3.715,-0.002,17.382,-18.85,-1.176,-18.573,-15.326],[5311.366,1506.007,1219.008,849.262,389.839,1028.083,419.47,271.427,127.934,119.348,481.853,257.473,71.506,99.431,56.349,49.983,43.214,39.336,10.848,3.054,43.373,22.506,1.492,-5.138,22.973,-7.182,1.721,-11.081,9.058,-2.878],[6824.831,3315.99,2086.826,1225.814,991.156,1273.405,653.344,497.896,276.605,211.536,632.978,360.443,210.757,218.941,143.023,108.047,60.746,64.028,34.95,23.994,11.701,37.264,18.116,31.576,-2.011,16.318,7.947,-15.779,5.709,0.155],[6293.611,4824.573,3246.392,2236.169,1680.918,1353.829,919.905,720.994,419.846,296.548,597.499,459.089,277.696,185.674,197.475,107.522,108.056,54.975,32.056,37.173,57.271,40.714,24.405,19.078,6.539,2.588,34.007,22.349,-2.45,-1.501]]
}