{
"KTrans": [[-53.541,-77.685,-79.174,-73.583,-70.292,-51.211,-66.246,-65.516,-71.752,-66.44,-38.427,-75.856,-50.218,-65.619,-53.583,28.323,-12.605,-15.836,0.656,-16.103,117.563,26.505,26.174,16.706,20.854,263.836,196.207,168.193,159.411,144.748],[-57.084,-48.108,-39.198,-56.21,-70.36,-54.059,-37.751,-39.437,-49.143,-61.632,-53.277,-35.491,-39.792,-43.995,-59.592,-27.192,-7.918,-1.087,-19.249,-24.051,2.348,19.104,8.325,5.626,-12.146,69.929,69.219,66.741,48.642,44.142],[-70.404,-55.984,-46.404,-37.599,-45.382,-67.646,-50.187,-41.347,-42.641,-40.766,-68.52,-43.226,-39.019,-29.118,-34.739,-57.907,-39.324,-22.516,-14.212,-1.357,-42.658,-16.288,-2.027,5.393,7.075,-11.097,30.035,39.606,43.906,36.67],[-78.668,-56.366,-46.574,-46.176,-44.035,-79.228,-54.557,-45.689,-38.579,-39.572,-76.31,-57.239,-42.428,-37.367,-38.481,-68.96,-47.193,-34.888,-27.004,-18.194,-60.654,-34.685,-22.526,-8.662,-4.953,-27.72,-1.233,12.009,15.849,34.028],[-82.413,-63.677,-46.578,-41.231,-47.788,-82.662,-59.142,-45.636,-41.609,-47.509,-81.547,-62.518,-44.701,-40.72,-40.575,-74.484,-57.262,-44.753,-28.601,-27.276,-69.622,-47.149,-35.165,-19.517,-18.418,-43.268,-21.424,-6.037,1.609,11.66],[-87.196,-69.896,-56.247,-43.965,-40.485,-86.479,-68.21,-55.58,-42.501,-39.823,-85.302,-66.04,-51.624,-43.507,-41.115,-79.761,-63.459,-44.625,-32.707,-25.622,-71.06,-49.846,-36.605,-38.399,-25.572,-53.649,-36.008,-8.347,-14.426,-3.279]],
"ve": [[-60.427,-44.05,-25.249,-53.31,-61.958,-28.253,-68.397,-75.134,-123.338,-84.243,-39.75,-34.136,-74.93,-75.936,-202.577,58.131,-19.889,-16.234,-61.246,-126.359,85.032,11.181,-30.694,-63.275,-77.375,250.155,40.131,-9.277,-15.912,-38.204],[-21.378,-55.603,-29.604,-36.638,-44.762,-110.41,-48.214,-38.197,-44.055,-64.76,-29.93,-44.712,-45.052,-50.756,-34.797,19.4,5.89,67.264,-20.588,1313.147,107.578,6.392,9.291,-1.729,-34.592,209.356,119.846,73.23,27.974,47.64],[-35.227,-96.764,-70.732,-38.917,-42.829,20.164,-60.636,-54.471,-55.887,-40.223,-8.085,-44.337,-79.562,-11.053,-40.47,40.902,-59.03,-28.931,-10.99,-3.865,115.301,4.264,14.086,9.058,7.927,231.356,107.322,66.878,53.572,32.261],[-9.467,-154.009,-75.157,-72.089,-59.938,-9.372,-45.582,-76.572,-99.696,-66.825,29.471,-40.506,-29.333,-61.539,-45.632,78.623,1.214,73.753,-45.354,-13.046,139.77,18.549,-28.629,-15.881,-5.569,324.862,77.418,24.351,18.226,38.077],[-1.722,-42.336,-65.164,-73.608,-79.337,-1.119,-32.926,-61.155,-74.186,-81.418,29.37,-31.486,-60.487,-60.706,-62.852,57.807,9.464,20.875,-43.322,-20.674,94.354,-24.504,-43.91,-29.997,-26.507,348.957,94.745,34.47,-9.092,14.158],[13.549,-38.895,-82.552,-73.016,-64,33.286,-31.476,-72.512,-69.409,-76.228,20.662,-35.488,-77.91,-66.971,-76.57,-5.013,-0.418,-34.729,-49.396,-47.473,64.243,18.186,-24.529,-47.606,-40.777,288.161,132.946,69.995,-12.122,-13.104]],
"kep": [[-120.426,-56.73,-1.484,-0.223,7.421,-110.208,-74.749,-43.544,-28.588,21.804,-121.771,-62.948,-26.002,8.976,-47.816,-97.81,-46.2,-58.597,-42.727,-22.013,-108.051,-77.606,-55.99,-57.465,-30.474,-96.554,-155.174,-172.634,-151.363,-157.641],[-88.945,-73.631,-129.881,-73.411,7.864,-93.866,-75.237,-136.394,-54.281,-31.158,-88.284,-94.101,-120.254,-56.304,16.76,-83.123,-78.468,-120.252,-80.74,-32.081,-82.166,-68.306,-88.663,-86.734,-44.68,-69.317,-79.134,-81.885,-107.516,-102.744],[-92.335,-60.344,-47.731,-79.395,-139.352,-94.258,-56.948,-51.689,-83.228,-113.172,-91.35,-56.093,-46.156,-78.152,-124.569,-93.998,-46.845,-47.288,-80.925,-126.125,-93.818,-54.049,-60.266,-65.256,-98.092,-86.711,-58.638,-59.059,-65.773,-67.661],[-98.579,-68.313,-32.203,-24.147,-40.175,-94.612,-63.867,-32.831,-26.024,-35.284,-94.376,-65.224,-29.482,-16.734,-49.29,-95.313,-63.152,-30.407,-16.324,-41.133,-93.928,-69.962,-33.351,-25.848,-47.806,-94.621,-63.066,-38.349,-35.232,-41.758],[-97.778,-69.639,-32.865,-13.812,-23.079,-96.923,-69.678,-35.506,-23.184,-25.16,-97.609,-68.84,-33.456,-27.156,-19.216,-96.856,-70.785,-34.84,-18.81,-13.827,-95.73,-64.388,-41.127,-20.142,-18.146,-97.46,-72.998,-50.208,-22.017,-38.478],[-100.79,-76.362,-40.182,-23.979,-18.86,-100.688,-74.188,-45.979,-26.775,-9.114,-98.256,-72.802,-41.825,-29.922,-14.357,-99.048,-78.132,-45.286,-24.819,-9.377,-100.447,-74.035,-42.195,-34.254,-17.072,-94.358,-81.946,-60.761,-39.551,-23.473]],
"vp": [[10.391,-105.894,432.691,509.351,611.006,44.66,6.735,12.76,56.576,60.631,-14.442,-29.696,34.061,-23.436,-57.22,-3.34,-16.096,-1.63,-24.19,11.435,-11.148,5.567,1.359,-17.968,1.861,-24.397,-6.949,-0.227,-11.576,-2.751],[2716.546,883.742,464.074,362.049,532.425,550.806,147.079,29.289,43.897,-10.861,256.138,105.382,-24.593,11.875,20.099,32.12,20.232,7.263,-17.071,-0.885,9.902,-4.145,-2.481,-17.165,-7.051,-27.533,6.207,-14.082,-21.4,-8.805],[4660.182,2539.45,1468.994,1133.609,162.205,930.033,568.494,205.536,99.102,27.995,433.506,290.458,124.517,112.522,4.413,86.563,4.689,15.606,-1.141,-4.248,43.479,15.809,10.221,-7.503,-0.913,13.487,-4.515,-6.995,-16.037,-26.283],[6572.87,5767.948,2143.689,1548.686,834.151,1115.697,940.098,470.875,282.485,242.675,514.932,467.73,204.296,165.941,71.511,105.597,93.588,44.539,13.927,17.008,53.914,50.189,23.741,-0.269,10.078,14.374,20.449,-9.52,-16.801,-22.172],[6530.186,6772.845,3870.238,2248.438,1097.833,1144.984,1316.389,861.522,488.218,417.101,587.124,674.442,351.928,286.265,112.474,112.174,133.76,82.072,65.507,17.511,53.01,51.633,36.324,11.678,10.098,11.137,8.882,15.118,-18.532,4.562],[7291.318,8225.474,5563.039,3286.559,3184.724,1489.246,1602.931,1178.669,796.629,377.636,669.91,715.073,529.656,374.789,155.897,141.62,166.688,126.784,58.881,24.798,58.264,51.532,28.258,44.785,16.262,19.414,37.557,29.882,11.633,1.044]]
}