{
"KTrans": [[2.632,9.546,-4.841,-10.676,-0.197,0.332,15.601,14.57,9.833,12.525,10.076,27.048,20.899,23.914,16.894,26.59,65.232,84.989,91.279,90.762,17.662,50.724,117.122,130.624,147.41,18.109,-52.783,66.043,71.952,101.958],[-39.153,-18.743,-1.219,4.372,0.295,-35.03,-10.995,-0.508,5.93,1.695,-34.972,-5.274,2.324,10.559,7.154,0.035,13.319,3.05,26.895,35.866,14.678,38.808,-22.791,12.439,48.528,53.792,-4.777,-67.867,-49.686,19.672],[-55.592,-21.743,-10.371,-10.564,-2.376,-48.138,-19.755,-8.751,-6.495,-0.252,-48.646,-13.958,-4.897,-8.304,-0.221,-24.482,11.28,14.174,4.722,3.12,-14.533,28.411,28.754,-5.059,-4.415,-64.625,-13.542,22.562,11.965,-29.835],[-63.698,-23.796,-14.655,-9.911,-8.982,-59.154,-25.962,-12.91,-8.728,-7.373,-60.339,-20.509,-8.484,-4.653,-5.462,-45.365,1.303,14.909,16.863,13.325,-39.851,31.422,47.407,41.433,14.478,-65.377,58.228,42.53,59.765,24.14],[-67.161,-33.575,-16.708,-9.18,-8.341,-71.691,-30.275,-13.868,-8.255,-6.079,-66.043,-28.294,-8.921,-6.511,-4.56,-55.483,-10.132,6.049,12.347,18.105,-54.499,1.14,33.07,30.814,36.685,-31.939,-19.466,29.232,60.029,56.026],[-76.253,-35.376,-19.845,-10.308,-7.27,-75.476,-38.104,-19.101,-10.27,-5.033,-71.332,-32.432,-15.002,-8.607,-5.931,-70.488,-16.979,5.769,9.225,10.796,-68.864,-7.842,22.621,29.351,29.008,-51.251,-23.141,37.92,65.341,36.138]],
"ve": [[3.461,-44.69,166.511,9.531,-10.189,-2.33,-12.393,-273.222,-103.695,30.971,-47.939,-51.403,-90.623,-25.725,492.544,16.941,15.662,48.096,6.882,-148.712,95.62,27.995,-9.396,-46.956,-32.814,178.449,86.719,30.561,2.154,-19.836],[23.819,-4.048,-7.442,-16.049,-6.826,-16.244,-27.71,0.097,-7.748,11.116,18.104,19.701,4.154,-1.859,16.879,20.79,30.294,12.509,9.524,-0.303,101.095,50.839,26.986,18.643,3.678,207.444,100.047,62.972,44.422,25.595],[8.649,-6.37,-8.22,13.906,1.826,3.639,-11.211,0.106,-4.659,-2.977,0.14,6.806,0.082,90.979,2.252,-7.951,4.075,15.12,0.639,8.789,47.543,51.514,31.797,25.062,20.947,188.864,98.241,95.193,51.931,39.631],[-65.237,-5.237,-4.895,-5.37,-12.982,-17.605,-10.893,-2.881,-13.429,102.72,-24.123,-1.143,-3.251,-20.581,2799.794,30.335,20.189,12.941,9.358,6.224,69.428,45.71,35.373,55.553,20.52,205.743,106.315,64.659,51.716,56.906],[-3.211,-4.182,-2.883,-2.006,-3.868,-6.223,-2.95,-1.511,-0.869,-2.751,3.406,-6.995,-0.335,0.583,-0.804,42.477,21.036,12.874,8.936,7.825,95.102,42.48,37.451,17.048,91.698,177.806,106.561,54.942,42.815,35.643],[-18.696,-3.844,-1.873,-2.08,-2.265,-12.867,-2.29,-1.069,-1.072,-0.555,21.333,0.079,0.226,0.358,0.421,44.936,20.374,12.995,10.374,7.986,92.894,54.276,32.805,21.543,20.042,200.275,119.321,60.094,41.903,21.029]],
"kep": [[-119.558,-69.562,0.819,15.056,-11.915,-128.523,-95.016,-64.993,-34.818,-23.853,-115.3,-85.434,-68.763,-66.886,-43.047,-156.469,-212.525,-194.912,-193.11,-167.754,-168.352,-326.248,-325.783,-400.684,-362.594,-159.861,-384.025,-548.064,-686.335,-744.169],[-80.601,-94.154,-114.667,-60.888,-9.736,-78.987,-82.098,-131.59,-63.737,-2.522,-80.284,-69.541,-128.115,-86.569,-21.493,-70.839,-73.103,-172.735,-174.409,-102.957,-74.76,-65.373,-229.249,-281.883,-213.723,-72.04,-119.065,-237.85,-372.303,-362.832],[-80.679,-52.127,-48.797,-104.02,-121.68,-74.905,-53.354,-46.858,-89.981,-122.186,-78.415,-46.018,-42.537,-102.592,-132.375,-73.754,-38.525,-39.096,-88.983,-165.54,-77.401,-43.9,-50.207,-130.438,-205.725,-101.205,-91.485,-75.305,-97.941,-235.615],[-82.768,-45.454,-37.42,-37.721,-58.321,-79.701,-45.128,-33.773,-36.096,-55.426,-82.865,-45.127,-26.58,-31.663,-56.411,-79.302,-39.313,-18.119,-18.651,-27.511,-84.082,-36.295,-7.329,-3.499,-54.672,-98.731,-44.939,-43.887,-27.456,-64.611],[-83.345,-50.459,-32.792,-24.457,-27.877,-86.833,-47.61,-30.488,-23.146,-25.757,-83.714,-46.396,-25.493,-23.38,-22.628,-84.737,-44.828,-23.502,-13.653,0.865,-89.075,-54.298,-18.038,-12.926,-0.527,-82.977,-77.451,-48.879,-19.512,-14.693],[-89.823,-49.858,-31.74,-22.557,-22.237,-88.743,-52.774,-32.23,-24.871,-18.61,-86.6,-49.696,-31.826,-20.357,-20.294,-91.334,-48.407,-23.89,-15.69,-9.749,-92.647,-55.552,-25.568,-11.393,-4.462,-90.773,-76.448,-35.63,-10.416,-27.534]],
"vp": [[-186.46,284.12,158.014,9.136,193.725,-1.665,40.984,98.235,89.624,33.338,6.447,-42.355,-41.925,21.154,-30.117,-3.618,-21.497,-19.758,6.753,-11.847,-23.55,-5.821,-8.741,1.253,-11.263,-13.577,-8.112,-21.763,-6.442,-2.91],[2971.36,938.985,-299.841,63.289,556.78,508.815,211.575,0.359,-25.875,62.285,271.733,65.805,-19.83,-61.121,-17.665,61.474,22.963,-3.557,-16.136,-13.921,15.497,-0.721,-6.827,-3.169,-6.187,-9.918,-7.442,2.005,0.777,-4.897],[5271.426,2875.161,1186.772,1972.796,-8.958,876.333,431.532,274.81,45.734,9.478,466.426,266.07,194.156,191.603,-33.357,75.17,38.328,29.545,6.049,-0.114,23.051,23.462,15.79,7.184,-3.136,11.481,1.246,-11.158,-7.624,-14.296],[5299.872,4995.626,2319.267,1347.373,1420,988.277,839.772,459.299,256.961,325.082,636.998,459.988,202.822,117.913,142.082,93.492,110.336,8.952,43.145,25.488,31.129,45.929,10.333,-1.076,-8.553,1.721,13.32,-8.635,-8.217,2.764],[6381.01,7357.418,4455.86,2662.63,1700.373,1321.426,1312.273,1089.107,464.927,435.203,648.952,666.039,376.991,263.64,206.283,119.677,119.99,61.918,13.238,8.893,49.302,62.917,22.462,8.115,18.759,12.279,20.378,28.508,6.356,-2.689],[7560.8,8647.237,5745.216,3941.721,3271.853,1412.04,1567.265,997.896,657.518,557.616,726.659,842.57,630.534,287.873,202.567,123.989,153.337,87.953,64.75,27.936,58.963,82.6,51.196,8.952,0.372,17.983,31.83,12.843,3.178,-0.501]]
}