{
"KTrans": [[-1.12,-0.47,0.028,0.533,0.216,-0.385,1.456,1.197,0.012,0.473,2.06,0.765,1.26,2.191,2.409,17.301,9.922,6.995,6.853,6.777,36.138,22.158,17.877,14.54,13.846,75.362,45.374,36.041,28.524,29.373],[-8.045,-1.599,0.144,0.472,-0.621,-3.273,0.286,0.323,0.502,0.692,-6.186,2.56,0.321,1.429,0.872,9.696,8.023,5.774,4.174,3.637,27.578,15.419,12.442,8.969,7.898,57.866,34.445,23.311,19.044,15.699],[-19.533,-0.73,-0.071,-0.167,0.087,-14.834,0.52,-0.752,0.254,-0.52,-14.322,1.295,0.233,-0.024,0.594,-2.695,6.454,5.539,4.14,3.811,5.974,16.724,10.697,8.794,7.648,28.834,31.28,22.767,17.715,14.114],[-35.55,-3.183,-1.012,0.023,0.085,-31.402,-2.897,-0.258,0.499,0.187,-28.957,-0.912,1.186,0.228,0.983,-22.424,4.83,6.502,3.838,3.193,-15.936,14.732,10.576,7.983,7.278,-7.104,33.197,22.722,16.482,14.446],[-47.395,-4.611,-1.436,-1.004,0.091,-45.925,-4.292,-2.07,-0.092,0.655,-46.795,-4.504,-0.396,-0.088,0.41,-42.028,2.13,3.781,3.636,2.787,-36.068,11.379,11.404,9.031,6.344,-31.431,27.739,22.93,17.288,14.25],[-60.412,-7.741,-0.774,-0.953,0.157,-58.755,-6.73,-0.764,0.721,0.396,-60.435,-5.68,-1.08,0.101,1.03,-57.145,0.499,3.323,4.308,3.342,-57.383,5.172,9.833,7.501,7.094,-51.52,18.687,19.659,16.769,13.945]],
"ve": [[-0.116,1.273,1.629,-0.097,2.132,0.363,0.269,1.029,0.594,1.417,1.198,1.172,1.21,-1.261,-1.553,5.794,1.197,0.026,-2.522,-3.574,11.935,2.703,-2.297,-5.027,-6.702,24.713,7.05,-2.907,-6.593,-13.27],[-2.159,-0.11,0.278,-0.044,0.106,-2.313,0.185,-0.12,0.053,-0.066,-0.909,0.807,0.582,0.264,0.019,6.796,3.62,2.056,1.094,0.676,14.323,7.142,4.216,2.348,1.712,27.11,14.335,8.03,5.035,2.686],[-5.711,0.045,0.085,0.21,0.068,-5.574,0.258,0.144,0.08,-0.164,-4.706,0.413,0.126,0.215,0.112,1.403,3.65,2.526,1.54,1.429,8.13,6.646,4.769,3.235,2.465,22.377,14.383,9.576,6.664,5.064],[-13.821,-1.184,-0.16,0.102,-0.076,-11.892,-1.116,0.117,0.211,-0.094,-10.052,-0.379,0.407,0.25,0.352,-5.576,3.043,2.745,2.137,1.412,0.399,6.984,5.02,3.6,2.892,13.184,15.825,10.481,6.775,5.137],[-20.165,-1.528,-0.245,-0.152,-0.153,-18.541,-2.224,-0.117,0.143,0.028,-19.606,-1.028,0.069,0.175,0.355,-13.681,2.401,2.079,1.507,1.156,-5.857,7.032,5.145,3.838,3.052,0.618,14.872,10.488,7.639,6.163],[-27.526,-2.814,-0.438,-0.614,0.055,-24.985,-2.312,-0.472,-0.354,0.225,-25.522,-2.361,-0.372,0.212,0.235,-21.435,1.264,1.812,1.874,1.665,-16.842,5.147,5.174,3.49,2.942,-5.869,11.76,10.2,7.884,6.078]],
"kep": [[-0.815,-1.382,-0.977,1.461,-0.521,-0.482,1.498,0.74,0.633,0.357,1.258,0.099,0.594,4.294,5.041,11.003,8.916,7.529,10.497,11.794,21.536,19.416,21.317,21.448,23.651,40.257,35.976,40.88,39.002,50.359],[-5.968,-1.464,-0.103,0.526,-0.691,-0.811,0.12,0.47,0.491,0.803,-5.441,1.774,-0.233,1.187,0.891,2.771,4.272,3.67,3.067,2.991,11.515,7.711,7.873,6.494,6.114,23.842,17.474,14.103,13.343,12.703],[-14.69,-0.744,-0.131,-0.382,0.032,-9.67,0.256,-0.889,0.176,-0.347,-10.318,0.875,0.105,-0.227,0.488,-4.047,2.66,2.965,2.56,2.361,-2.024,9.445,5.655,5.392,5.069,4.054,14.617,11.974,10.338,8.609],[-25.718,-2.036,-0.862,-0.08,0.166,-22.503,-1.816,-0.359,0.294,0.279,-21.665,-0.507,0.796,-0.017,0.629,-18.483,1.737,3.674,1.668,1.755,-16.985,7.206,5.257,4.224,4.254,-19.222,14.894,11.023,9.058,8.838],[-35.596,-3.091,-1.207,-0.852,0.242,-34.787,-2.063,-1.951,-0.241,0.632,-35.136,-3.505,-0.491,-0.273,0.055,-34.458,-0.296,1.692,2.089,1.612,-33.173,3.983,5.928,5.017,3.199,-35.245,11.096,11.16,8.907,7.599],[-46.879,-5.03,-0.318,-0.348,0.103,-47.67,-4.503,-0.291,1.078,0.165,-47.988,-3.401,-0.735,-0.108,0.793,-47.599,-0.795,1.483,2.386,1.653,-50.592,0.008,4.413,3.859,4.023,-50.945,5.949,8.504,8.164,7.39]],
"vp": [[43.714,23.104,-39.909,-63.201,-37.089,2.556,-12.239,-13.858,-3.873,-22.789,-11.479,-9.131,-12.283,-12.685,-15.011,-12.529,-13.404,-13.192,-12.638,-12.983,-13.936,-13.746,-13.275,-12.854,-13.187,-13.562,-14.049,-12.955,-12.342,-12.721],[306.295,49.213,-35.093,-12.414,25.02,58.307,-5.978,-15.942,-6.907,-16.851,13.501,-18.459,-12.986,-16.504,-8.45,-12.309,-15.116,-13.949,-12.544,-12.426,-13.87,-14.819,-13.943,-13.389,-13.507,-13.326,-14.556,-14.497,-13.697,-12.972],[688.713,45.966,12.409,10.36,19.289,126.264,-17.444,8.943,-10.142,8.318,53.707,-12.087,-12.413,-11.94,-8.154,-2.525,-13.381,-15.962,-13.731,-15.773,-6.694,-14.004,-14.221,-14.589,-14.407,-10.871,-14.631,-15.3,-15.134,-13.862],[1445.871,284.233,30.358,-45.179,33.638,261.583,50.383,7.904,-18.38,-2.135,106.365,12.525,-5.924,-9.962,-19.803,11.691,-11.738,-15.719,-16.087,-14.267,1.074,-14.107,-13.982,-15.291,-14.677,-6.06,-15.342,-15.958,-14.304,-14.049],[2096.97,383.011,85.8,87.877,64.147,403.226,93.825,10.576,2.802,2.477,203.899,19.359,2.488,-5.839,-7.93,27.925,-8.806,-11.712,-12.348,-13.798,7.1,-13.995,-15.117,-14.79,-15.465,0.382,-14.818,-15.565,-15.71,-15.849],[2874.444,621.968,220.063,228.189,58.023,500.005,105.052,15.915,13.842,-7.838,281.255,45.745,13.796,-11.987,-4.113,44.749,-4.161,-10.282,-14.919,-14.561,20.749,-9.514,-15.381,-13.612,-15.128,4.19,-11.696,-14.883,-15.545,-15.576]]
}