{
"KTrans": [[-41.932,-11.638,0.384,1.579,2.77,-52.048,-13.355,-5.849,16.313,-11.166,-52.607,1.709,11.872,4.232,-7.308,-49.919,-4.729,15.467,10.478,8.128,-53.691,-5.056,20.197,3.159,-1.881,-33.438,-3.354,6.18,12.566,4.458],[-88.425,-54.897,-23.18,-9.103,-9.94,-93.68,-59.561,-24.402,-10.466,-15.727,-95.852,-51.527,-26.602,-7.683,-7.499,-88.934,-57.942,-20.566,-8.041,-3.942,-91.299,-65.706,-19.837,-16.068,-7.412,-85.673,-49.017,-14.698,-18.55,-6.243],[-97.095,-78.499,-44.279,-24.008,-21.22,-97.851,-75.079,-59.222,-23.888,-19.521,-95.373,-78.114,-57.141,-33.484,-17.076,-98.791,-79.568,-50.148,-26.968,-25.107,-96.162,-75.922,-50.101,-22.209,-20.014,-92.213,-80.124,-54.372,-20.72,-15.687],[-97.745,-89.531,-75.587,-50.532,-31.429,-99.429,-87.188,-72.803,-48.842,-28.42,-98.616,-90.795,-66.549,-46.719,-34.078,-100.127,-87.782,-65.181,-53.688,-30.061,-98.038,-87.896,-72.969,-53.155,-27.554,-99.325,-83.456,-69.412,-57.373,-35.115],[-97.56,-92.623,-80.995,-61.297,-47.779,-100.253,-92.28,-82.828,-71.226,-46.451,-99.415,-93.023,-83.025,-67.387,-50.657,-100.101,-91.428,-78.072,-68.065,-47.543,-100.688,-92.498,-82.957,-66.975,-43.191,-99.766,-92.423,-79.848,-60.731,-43.632],[-100.043,-94.664,-81.648,-71.598,-66.733,-101.142,-92.322,-86.408,-78.055,-57.109,-99.841,-97.213,-85.23,-61.468,-53.839,-99.697,-94.373,-90.2,-77.286,-68.393,-99.431,-96.358,-89.414,-66.792,-59.089,-98.571,-93.868,-87.807,-75.962,-54.111]],
"ve": [[-9.182,-101.579,-9.959,-9.937,-76.488,-27.681,-117.739,-116.028,4.413,2.55,-178.374,53.223,41.187,-63.424,58.194,-57.201,-133.378,-67.383,-113.813,-53.883,3.935,31.279,-10.446,-204.24,-74.74,24.901,48.576,-44.999,-45.751,-35.452],[-38.542,-28.69,-13.989,-5.717,-1.515,-74.963,-34.175,-9.151,7.949,11.117,-38.904,-32.897,-18.318,-5.415,26.961,-96.404,-30.756,33.92,-12.25,-2.383,-60.008,-26.822,-12.595,-4.732,-0.304,-45.541,127.218,-4.607,-16.328,-1.007],[-64.276,-37.561,-41.442,-21.335,-13.551,-42.257,12.581,-35.709,-19.113,-12.169,-86.43,-55.827,-35.913,-19.131,-7.903,-90.992,-180.327,-32.409,-20.277,-13.243,-51.619,-59.002,-33.857,-20.229,-11.88,-102.749,-24.267,-47.374,-15.582,-29.309],[-97.653,-73.493,-54.487,-29.266,-19.579,-123.146,-57.232,-56.899,-33.389,-19.797,-103.707,-71.686,-54.902,-30.662,-25.744,-106.704,-81.482,-44.327,-35.743,-25.32,-101.911,-59.898,6.177,-28.038,-21.028,-152.565,-61.949,-49.693,-11.903,-26.954],[-101.031,-77.697,-60.94,-82.577,-32.164,-98.066,-83.594,-106.179,-52.148,-33.105,-171.775,-64.633,-81.102,-47.925,-42.509,-111.933,-100.133,-65.146,-54.336,-34.336,-105.221,-66.616,-59.879,-48.997,-29.519,-263.902,-82.195,-67.403,-40.202,-43.024],[-92.258,-79.161,-62.712,-53.106,-44.7,-114.884,-86.106,-27.199,-65.101,-52.781,-88.418,-49.4,-28.677,-42.098,-38.312,-75.908,-65.954,-69.993,-58.494,-46.489,-76.491,-88.457,-75.416,-54.849,-434.207,-65.384,-306.204,-66.983,-53.695,-40.329]],
"kep": [[-57.865,-24.218,-21.611,-6.101,-8.747,-74.055,-31.721,-24.214,1.328,-44.795,-74.278,-29.375,-3.045,-13.838,-28.99,-76.168,-14.296,0.494,-2.362,-18.606,-76.975,-24.705,14.319,-18.744,-31.604,-63.936,-15.725,-8.178,4.228,-22.109],[-95.558,-49.781,-13.999,-4.964,-5.029,-98.718,-55.613,-16.694,-5.825,-15.129,-102.49,-49.552,-21.665,-4.785,-3.758,-91.471,-54.585,-12.937,-2.687,0.964,-96.472,-66.606,-8.825,-9.788,-1.651,-91.479,-49.751,-10.416,-10.491,-4.483],[-96.424,-75.361,-36.376,-11.2,-9.973,-100.179,-78.959,-47.004,-9.242,-7.482,-96.799,-75.952,-42.846,-18.329,-8.975,-95.426,-83.141,-37.392,-11.548,-13.912,-96.748,-81.966,-40.878,-9.093,-9.591,-95.051,-80.282,-44.771,-12.648,-9.45],[-98.714,-93.345,-76.283,-34.364,-15.224,-97.975,-88.461,-62.798,-32.365,-14.204,-99.334,-92.847,-61.428,-31.579,-15.566,-99.257,-89.578,-62.535,-36.979,-14.558,-99.092,-90.664,-68.099,-37.715,-9.055,-96.988,-85.365,-69.527,-41.685,-17.828],[-97.943,-93.479,-79.485,-51.99,-27.519,-98.843,-91.439,-84.336,-58.016,-24.293,-98.931,-90.795,-84.472,-58.957,-28.962,-99.7,-91.807,-82.151,-59.541,-26.026,-96.792,-92.236,-80.599,-64.946,-20.827,-97.702,-92.068,-83.236,-54.243,-26.317],[-98.209,-92.952,-83.837,-71.493,-50.077,-97.893,-91.122,-89.063,-74.187,-44.385,-98.731,-93.052,-82.69,-65.22,-39.582,-97.816,-93.335,-90.001,-74.295,-51.784,-98.282,-95.371,-90.795,-70.424,-45.13,-98.197,-89.054,-88.939,-75.748,-40.844]],
"vp": [[2210.647,2599.895,1659.646,1793.777,1084.407,503.477,456.213,364.842,201.184,449.374,311.396,214.15,130.237,121.56,229.808,48.298,36.274,34.74,29.32,33.669,31.506,15.001,7.958,19.739,15.091,10.815,8.579,6.208,3.338,7.183],[6647.414,7501.66,5975.211,5127.659,5121.048,1608.83,1697.984,1256.527,1099.085,1065.805,824.765,760.246,633.715,440.605,574.2,134.079,152.985,132.506,117.724,78.793,78.149,78.786,66.544,62.963,59.647,27.818,39.024,27.482,30.603,25.821],[7666.673,12045.368,11173.162,10987.64,9573.903,1795.297,2286.969,2549.262,1987.698,1897.864,739.846,1145.529,1353.292,968.591,842.939,170.189,225.914,238.285,201.71,199.254,78.002,121.134,109.523,107.497,86.388,39.31,60.143,58.982,43.476,40.542],[9652.229,14737.415,18004.344,15982.295,12572.272,1995.146,2815.981,3295.428,3126.186,2472.872,901.107,1580.975,1543.469,1455.039,1381.807,187.517,303.215,297.832,364.326,284.624,94.541,146.515,153.571,174.728,147.771,45.566,70.12,86.695,85.09,62.893],[8771.546,16278.616,19651.273,17582.459,20106.686,2022.904,3293.79,4379.333,4330.847,4307.47,1021.712,1580.9,2006.921,2177.316,2223.992,206.988,308.992,409.001,487.884,375.066,102.528,157.235,190.538,213.303,160.208,50.067,79.551,99.039,87.44,88.639],[10796.264,18374.117,19681.25,24398.595,25338.574,2296.418,3006.53,4382.604,4881.233,5339.106,935.303,1873.775,1876.433,2396.527,2196.526,193.049,359.963,456.258,507.086,568.19,105.126,176.114,230.588,219.344,248.071,45.353,80.965,115.775,124.06,108.488]]
}