{
"KTrans": [[-58.923,16.828,22.153,-1.598,18.984,-43.373,3.357,-1.898,8.539,4.034,-51.364,-1.445,1.426,13.759,6.606,-27.406,-1.507,4.55,10.329,10.194,-40.107,-18.336,2.189,23.131,13.478,-60.692,1.674,10.857,-7.517,3.636],[-97.709,-62.44,-28.589,-13.232,-10.883,-92.272,-61.176,-24.058,-18.777,-13.513,-93.433,-51.549,-24.169,-7.19,-9.851,-91.424,-64.184,-20.434,-24.381,0.887,-95.24,-63.269,-24.77,-8.267,-14.303,-90.433,-58.7,-27.96,-5.375,1.152],[-103.759,-90.688,-54.891,-33.886,-14.168,-97.188,-82.475,-66.195,-28.221,-16.395,-98.1,-85.423,-61.285,-29.109,-29.991,-97.42,-88.891,-55.079,-25.552,-23.329,-101.431,-81.578,-56.995,-30.76,-18.275,-99.27,-82.501,-64.957,-37.82,-13.812],[-103.792,-94.826,-75.906,-57.953,-44.634,-99.332,-94.851,-74.103,-54.537,-42.294,-99.962,-89.254,-77.008,-65.958,-43.427,-102.215,-93.445,-89.079,-54.043,-44.844,-102.63,-92.03,-81.37,-51.57,-25.719,-100.376,-92.313,-77.818,-63.774,-40.087],[-102.421,-98.52,-89.186,-80.951,-56.876,-102.077,-93.712,-92.606,-76.976,-62.635,-99.108,-95.175,-87.418,-76.529,-59.658,-102.5,-93.563,-88.367,-79.16,-53.321,-100.67,-96.599,-89.67,-79.276,-65.096,-100.887,-99.994,-88.73,-73.161,-56.857],[-102.528,-100.341,-92.635,-76.504,-70.303,-100.517,-99.568,-94.496,-80.7,-68.558,-100.57,-98.005,-89.516,-82.901,-72.345,-103.343,-99.91,-91.234,-82.502,-77.893,-102.241,-99.505,-95.286,-75.945,-66.891,-100.951,-96.018,-89.421,-88.015,-73.72]],
"ve": [[-10.615,-174.015,-1231.315,1.089,15.769,-25.389,-45.567,598.621,181.002,-205.456,-59.09,6.122,93.658,-26.507,-56.698,-19.077,11.686,-64.387,94.187,-126.047,-408.054,-111.11,275.978,-120.695,27.517,-25.908,18.159,238.559,1.844,-62.945],[-188.054,-27.21,-15.718,-4.075,-0.069,-71.603,-42.929,-8.941,-6.109,13.724,-250.259,-19.648,-38.023,-21.225,1.106,-83.21,-49.532,-25.085,0.372,1.609,-61.587,4.898,-12.398,-5.145,15.637,-68.683,-48.236,-19.155,-11.422,-118.456],[-117.237,-96.84,-46.861,-21.558,-17.57,-334.764,-66.135,-50.938,-22.095,-18.703,-83.017,-73.988,-58.265,-19.064,-26.284,-54.869,-22.264,-33.384,-17.171,-14.241,-75.087,-67.69,-63.621,-25.361,-19.686,-84.303,-51.023,-39.575,-20.797,-15.241],[-154.625,-81.436,-60.225,-46.111,-32.623,-111.499,-54.376,-58.26,-48.282,-28.167,-194.543,-76.085,-67.827,-50.809,-29.861,-108.565,-48.445,-78.135,-35.515,-31.425,-99.548,-85.301,-57.083,-31.46,-21.095,-1.05,-76.863,-62.854,-36.603,-31.144],[55.857,-110.213,-70.667,-86.132,-45.775,-89.92,-8576.071,-73.65,-62.634,-47.738,-146.674,-72.992,-74.834,-59.738,-46.559,85.205,-88.258,-68.226,-75.871,-41.936,-127.342,-80.729,-70.679,-62.131,-74.349,-182.746,-129.792,-61.162,-66.266,-47.13],[-55.06,-99.637,-163.056,-62.6,-53.879,-381.932,-97.557,-81.287,-67.05,-55.423,-48.128,-78.359,-76.833,-72.617,-57.182,-129.159,-88.132,-86.967,-75.829,-61.57,-107.479,57.515,-89.351,-62.766,-71.452,-77.143,-90.618,-107.591,-59.055,-47.629]],
"kep": [[-85.22,-10.547,7.39,-38.928,22.296,-74.203,-32.349,-11.612,-8.19,-34.556,-76.643,-21.673,-18.701,1.243,-17.948,-68.566,-22.962,-26.983,-18.8,-9.893,-61.016,-32.661,-19.979,11.995,-6.454,-71.128,-33.253,-6.513,-55.454,-24.22],[-94.381,-58.518,-22.981,-8.838,-6.215,-92.964,-59.767,-15.762,-14.144,-12.375,-94.723,-55.975,-11.216,-2.268,-5.162,-97.8,-69.187,-12.126,-18.099,4.209,-97.898,-66.649,-22.281,-5.626,-13.254,-94.618,-65.264,-22.144,-3.311,3.553],[-99.853,-90.917,-41.694,-16.556,1.35,-96.698,-82.671,-59.238,-14.429,-2.181,-98.915,-86.191,-50.829,-12.897,-11.737,-97.051,-88.344,-42.693,-12.715,-12.446,-100.181,-80.799,-52.771,-16.102,-2.711,-95.74,-83.738,-58.367,-25.509,-4.698],[-97.553,-94.926,-70.339,-41.571,-24.841,-98.852,-93.58,-70.492,-44.209,-23.436,-98.776,-89.705,-75.145,-48.925,-25.758,-98.449,-92.107,-86.548,-46.749,-23.397,-95.561,-90.942,-75.95,-39.27,-15.449,-99.232,-95.006,-79.309,-53.156,-23.541],[-98.214,-95.965,-85.593,-74.424,-39.747,-98.119,-92.269,-85.672,-70.702,-39.821,-98.845,-96.266,-87.131,-65.736,-39.373,-96.427,-94.728,-89.52,-68.654,-32.407,-98.541,-93.853,-87.529,-76.764,-48.564,-98.796,-95.938,-90.501,-67.811,-41.13],[-98.466,-92.078,-90.749,-72.296,-60.088,-97.144,-92.527,-89.91,-82.004,-55.519,-98.881,-91.858,-91.67,-86.273,-62.267,-96.156,-91.898,-91.241,-81.949,-60.487,-97.062,-95.53,-97.737,-81.321,-53.358,-99.1,-93.124,-90.105,-87.148,-61.252]],
"vp": [[3451.583,2047.007,1497.951,2644.51,1049.581,634.29,431.901,392.209,381.325,583.131,353.162,217.278,249.208,221.375,271.667,50.233,51.578,40.61,40.927,32.625,29.568,34.874,26.042,13.698,20.978,17.328,10.71,11.86,13.878,8.799],[9301.626,9365.071,7718.1,7246.139,6830.499,1562.602,1885.694,1510.918,1131.798,1285.432,827.482,927.12,903.834,645.938,780.218,151.742,222.889,146.976,190.84,160.868,79.87,100.85,65.555,59.883,79.892,41.637,45.737,37.192,30.7,32.331],[11374.468,16371.06,12105.869,12242.543,13312.575,1873.862,2682.666,2861.307,2410.091,2359.53,993.566,1546.028,1634.864,1376.501,1286.963,182.663,317.34,293.411,242.695,248.975,102.661,131.158,142.521,132.773,135.988,50.277,68.34,72.493,65.58,58.033],[11555.315,17728.051,19913.308,19701.275,19638.169,1986.535,3615.931,3467.104,4273.382,3563.4,1123.787,1609.272,2119.064,2268.036,1999.808,210.835,331.337,470.968,382.548,409.794,107.191,180.303,208.669,192.146,173.15,47.536,92.359,91.59,104.876,98.318],[11320.743,20118.676,21637.968,28087.77,27652.574,2398.45,3357.725,4986.738,5665.127,5501.61,1053.665,1834.133,2529.353,2602.283,2654.121,218.149,385.496,449.784,529.846,496.659,98.541,180.377,227.788,291.401,284.469,52.349,106.84,119.297,128.176,137.496],[11279.48,19987.806,25969.167,27091.871,31529.101,2289.942,4109.289,5118.258,5988.883,5894.095,1137.126,1926.511,2808.487,2965.914,3332.069,257.691,403.216,534.069,594.206,723.61,106.864,216.84,277.028,271.991,300.551,53.016,100.206,120.899,155.372,158.689]]
}