{
"KTrans": [[-18.513,35.869,20.111,47.663,26.812,-28.643,23.79,24.797,19.96,35.927,8.268,25.261,46.231,24.35,23.968,50.252,128.255,131.177,88.726,98.614,214.416,222.37,238.592,195.847,181.725,698.368,660.145,520.9,459.65,422.423],[-90.223,28.883,49.768,29.606,38.076,-84.732,33.41,46.243,56.271,41.808,-88.012,20.589,60.906,44.714,41.457,-71.707,47.841,92.619,89.91,63.272,-17.063,192.739,171.468,144.57,114.543,-3.377,325.342,328.793,254.406,243.203],[-91.695,-60.493,69.001,60.11,51.086,-107.102,-50.44,56.886,68.67,54.424,-99.106,-56.225,70.7,58.111,61.868,-91.569,-34.302,107.984,131.627,86.271,-97.86,19.373,197.396,156.758,138.452,-86.112,140.189,285.254,286.955,205.497],[-107.463,-97.561,-12.627,65.728,84.948,-104.625,-87.921,40.514,61.335,80.431,-105.461,-88.09,2.41,91.304,86.397,-112.687,-94.867,29.987,113.985,94.017,-109.718,-81.466,63.168,167.68,151.116,-76.206,-41.066,167.718,297.772,265.988],[-100.596,-122.891,-67.814,38.95,85.382,-104.433,-110.396,-59.634,62.673,110.019,-104.812,-116.716,-68.352,73.495,110.018,-106.396,-108.779,-73.941,63.027,123.968,-118.261,-126.518,-30.439,133.442,199.02,-117.938,-64.245,46.055,206.762,244.461],[-101.511,-113.158,-102.001,-10.499,86.979,-104.334,-119.613,-91.696,-12.113,70.95,-103.983,-124.728,-88.316,-19.768,92.466,-106.054,-107.194,-111.82,-18.705,96.724,-115.347,-140.801,-80.703,79.853,147.869,-127.125,-140.294,-56.2,36.461,254.463]],
"ve": [[3.23,-37.762,-39.138,-1.876,-31.006,46.249,82.475,13.057,136.059,-44.878,75.164,-36.854,7.983,-42.93,42.97,29.985,19.209,8.752,7.46,-5.094,102.019,42.147,19.763,1.541,-2.547,215.564,83.52,29.829,14.224,-1.921],[83.445,5.856,8.374,4.033,7.612,-40.012,16.752,7.438,5.814,3.393,-169.934,20.953,7.093,6.527,6.464,49.63,26.184,16.732,11.651,6.337,117.61,59.344,37.311,22.674,14.11,200.645,75.364,65.869,43.827,33.592],[-26.476,2.963,6.567,4.016,3.501,13.704,6.873,7.15,3.945,3.254,32.726,9.827,8.082,3.283,4.673,52.212,45.834,22.497,13.504,12.404,103.59,57.342,37.579,24.513,20.964,210.524,105.871,64.213,52.208,39.375],[5.98,4.305,3.908,4.689,5.892,20.268,-20.943,12.683,4.492,5.364,-10.779,-6.505,1.448,5.703,7.601,58.956,41.56,22.402,13.671,10.53,91.747,56.497,37.332,27.144,22.08,209.504,110.35,70.551,58.723,43.34],[29.336,0.844,66.219,1.43,3.688,-1.391,50.221,4.661,8.575,6.857,10.408,5.677,6.991,6.438,6.365,50.797,44.715,33.756,17.677,10.897,99.024,52.641,36.988,26.74,25.424,227.446,118.735,68.453,51.495,41.911],[-4.748,-3.364,-1.704,6.367,6.6,11.762,7.066,6.946,1.646,3.681,-16.995,12.081,9.769,5.998,3.823,-205.913,32.395,21.58,15.436,16.694,94.497,50.969,45.088,32.558,20.803,203.026,120.578,65.342,56.147,42.128]],
"kep": [[-43.282,26.137,14.789,66.333,40.072,-51.712,11.367,16.95,15.979,56.447,-21.628,9.286,48.068,22.432,31.105,-8.564,84.343,132.56,108.429,149.716,46.65,127.607,194.931,213.414,230.918,165.098,319.15,351.746,397.432,439.412],[-92.577,14.138,37.079,24.301,33.198,-90.34,15.047,34.025,47.594,38.3,-92.697,4.174,45.343,34.423,34.792,-82.686,12.059,63.786,67.61,49.844,-62.881,79.015,96.396,94.577,83.854,-69.369,105.883,155.6,142.011,154.809],[-95.686,-65.264,54.466,49.515,42.541,-104.947,-58.34,40.959,55.651,44.079,-100.313,-62.989,50.526,45.85,49.541,-95.492,-49.998,63.201,95.505,62.333,-98.571,-23.568,108.534,99.345,93.247,-94.542,15.203,123.366,149.952,113.703],[-107.146,-96.39,-21.765,50.765,69.204,-104.446,-90.318,27.275,45.349,64.518,-104.281,-90.062,-8.392,71.009,68.069,-108.741,-94.113,3.188,75.491,67.268,-103.675,-89.053,11.8,101.145,98.607,-92.44,-69.891,51.717,147.943,148.739],[-101.195,-118.496,-71.765,24.787,68.086,-105.171,-108.798,-65.732,45.511,88.52,-103.374,-113.908,-75.407,55.605,87.812,-103.529,-105.785,-78.415,28.777,91.049,-108.423,-114.191,-50.519,70.863,128.015,-107.001,-81.643,-16.436,93.562,131.942],[-101.759,-111.705,-100.978,-20.04,66.348,-103.927,-113.953,-91.44,-21.496,53.727,-103.322,-120.429,-88.954,-31.057,73.196,-104.466,-104.003,-108.272,-33.515,61.665,-107.482,-124.489,-88.001,30.988,91.86,-109.062,-119.949,-73.041,-12.58,136.647]],
"vp": [[3078.86,2179.975,1225.062,2810.225,1815.237,581.456,345.182,356.614,351.577,295.214,403.799,207.311,183.83,253.224,160.354,51.47,37.708,39.017,33.235,32.421,28.732,15.738,20.414,17.589,20.595,16.845,4.159,6.162,10.019,6.529],[7094.49,7754.061,7328.913,5177.169,7190.061,1630.827,1671.514,1492.27,1527.099,1401.253,808.025,871.515,741.643,598.589,602.555,166.083,156.797,149.919,146.588,101.232,79.381,99.279,75.995,63.26,68.312,41.78,42.141,36.118,28.827,29.342],[8582.289,11955.674,15912.869,11675.455,11358.558,1739.603,2596.732,2721.455,2111.301,2310.173,1027.297,1268.855,1300.833,901.152,1018.615,172.415,260.11,283.74,280.326,219.352,93.634,122.164,140.641,123.897,114.481,49.176,61.248,70.458,59.195,54.399],[10288.017,13955.408,16639.157,17643.247,16156.01,2208.133,2941.68,3475.293,3349.957,3391.337,920.769,1441.811,1730.391,1914.69,1811.168,233.323,333.149,351.682,344.393,318.819,97.094,168.287,178.049,155.076,159.644,46.642,75.012,98.997,107.16,83.598],[9703.656,17875.568,21933.931,23735.119,23202.823,2094.943,3468.573,4252.22,5204.453,4916.308,972.619,1722.822,2367.777,2692.008,2302.009,210.294,326.689,466.505,545.037,401.765,105.44,171.024,204.147,215.829,254.963,50.548,81.614,104.4,110.903,115.718],[11210.875,18268.851,23039.498,28932.374,31325.08,2082.144,3487.761,4771.812,5079.838,5418.644,1077.763,1896.577,2467.006,3142.085,2638.335,201.894,389.76,487.215,520.282,643.02,117.54,193.955,268.995,314.316,248.777,51.452,106.198,106.96,133.317,153.459]]
}