{
"KTrans": [[-43.488,-0.966,-3.302,-7.232,3.577,-52.538,-5.522,-1.134,-5.11,3.889,-38.984,8.761,1.716,4.516,3.617,-13.752,-10.966,1.872,-3.886,2.888,-37.523,14.892,0.302,2.759,1.571,-41.982,-16.625,4.458,2.463,6.087],[-84.214,-53.209,-18.87,-6.154,-12.501,-90.232,-33.188,-29.791,-15.474,-13.367,-90.757,-53.776,-26.018,-14.597,-10.934,-89.51,-55.367,-21.101,-16.203,-16.88,-89.962,-54.61,-10.647,-14.062,-11.771,-93.797,-43.739,-18.124,-16.497,-5.409],[-96.615,-87.892,-43.73,-29.607,-26.39,-96.171,-78.22,-43.695,-29.123,-25.456,-97.586,-82.552,-38.221,-33.713,-17.993,-97.549,-80.293,-47.485,-34.566,-23.562,-96.823,-77.083,-42.077,-22.966,-20.466,-95.49,-81.426,-50.04,-25.13,-22.828],[-99.876,-89.397,-73.595,-38.573,-31.436,-100.204,-86.112,-68.727,-46.638,-34.262,-100.133,-84.913,-73.902,-46.844,-25.494,-101.475,-86.99,-68.568,-41.603,-29.214,-98.585,-90.003,-72.572,-41.718,-28.92,-100.501,-84.35,-76.318,-56.899,-31.332],[-99.826,-97.322,-83.725,-60.151,-43.539,-101.443,-95.364,-84.731,-69.035,-32.887,-101.629,-90.437,-84.412,-60.585,-54.271,-100.921,-93.408,-89.124,-65.319,-34.378,-101.016,-96.277,-83.805,-66.96,-46.575,-100.658,-96.267,-77.16,-64.935,-53.606],[-102.233,-97.727,-88.82,-81.074,-58.645,-100.926,-91.542,-89.971,-75.57,-41.038,-100.812,-100.105,-82.34,-71.621,-60.265,-101.036,-100.376,-86.315,-72.906,-60.31,-102.528,-97.448,-85.8,-83.917,-61.06,-100.192,-96.208,-87.94,-78.156,-63.285]],
"ve": [[-374.837,1.324,-43.637,-336.53,-70.882,171.085,20.607,1.464,-168.89,-221.443,-39.923,-22.312,-14.296,22.831,-691.096,-17.365,12.87,-6.5,-54.651,-37.838,15.247,2.516,-13.5,152.946,-100.197,-53.616,-15.956,-31.415,-123.106,-59.844],[-72.269,-60.272,-11.23,-4.371,-3.241,-64.3,-27.203,-16.725,-5.871,-3.081,-81.996,-36.797,-13.096,-7.714,-3.19,-91.24,-43.652,-16.981,-8.679,-12.342,-68.58,-40.766,-18.967,-5.348,-4.09,-102.326,-31.611,-14.122,-10.539,-1.186],[-46.804,-64.821,-34.771,-22.746,-18.912,-103.71,-61.465,-36.188,-25.431,-11.041,74.183,-56.125,-35.919,-25.13,-15.762,-59.473,-61.406,-32.789,-23.796,-16.001,-97.858,-72.774,-25.087,-22.613,-16.928,-122.423,-51.541,-32.926,-23.662,-16.336],[-97.664,-82.378,-63.843,-36.239,-26.14,-98.171,-102.278,-50.44,-27.417,-27.987,-92.138,-80.65,-52.426,-37.853,-22.81,-104.547,-69.914,-55.059,-39.606,-28.352,-320.96,-66.043,-34.763,-36.963,-26.516,-66.982,-80.819,-62.843,-27.579,-26.252],[-90.145,-93.276,-97.256,-52.857,-38.137,-426.666,-99.13,-57.983,-55.847,-33.379,-121.639,-79.948,-74.705,-50.92,-42.782,-105.295,-79.252,-79.996,-59.988,-35.145,-42.154,-89.529,-65.352,4.826,-41.06,-162.285,-91.374,-66.422,-45.609,-45.299],[-102.879,-95.811,-81.796,-68.894,-56.229,-90.667,-95.219,-72.958,-66.759,-46.762,-102.399,-95.994,-68.03,-38.269,-48.09,-171.741,-78.318,-75.98,-66.758,-48.313,306.921,-3080.404,-81.248,-70.28,-47.133,-42.514,-92.112,-79.354,-55.728,-48.521]],
"kep": [[-59.721,-5.373,-13.073,-24.92,-8.555,-71.544,-15.467,-10.241,-15.353,-5.195,-49,2.086,-12.164,-3.365,-10.447,-36.192,-20.26,-2.871,-16.157,-4.428,-52.573,7.673,-7.451,-3.317,-8.587,-60.088,-22.649,-6.408,2.151,6.073],[-90.501,-40.531,-2.914,-1.655,-7.453,-89.762,-35.708,-17.879,-6.973,-10.464,-87.916,-38.128,-13.533,-6.979,-5.389,-92.801,-42.053,-8.269,-7.934,-12.101,-88.451,-41.067,3.679,-8.228,-7.654,-92.774,-32.856,-5.042,-7.767,-2.968],[-96.976,-88.355,-27.907,-9.574,-9.78,-92.915,-81.161,-30.477,-9.23,-8.659,-95.967,-80.611,-26.846,-12.634,-3.887,-91.793,-80.813,-31.393,-16.123,-9.884,-93.272,-75.169,-23.661,-2.587,-5.692,-93.405,-78.498,-38.133,-5.576,-8.849],[-96.371,-90.615,-63.913,-14.16,-9.002,-93.935,-81.71,-56.435,-20.699,-10.614,-93.98,-86.09,-68.538,-23.806,-5.737,-95.275,-86.928,-59.767,-16.129,-6.439,-97.114,-92.529,-58.15,-19.91,-7.514,-94.011,-86.911,-67.389,-33.114,-7.941],[-95.085,-87.52,-82.686,-44.28,-22.035,-96.312,-88.803,-80.764,-50.403,-10.145,-96.827,-85.748,-88.535,-39.034,-23.761,-97.154,-90.457,-89.092,-51.585,-10.434,-96.566,-94.051,-82.291,-54.197,-16.005,-93.529,-92.813,-80.375,-46.098,-29.465],[-97.503,-91.17,-92.633,-74.252,-39.148,-97.319,-88.36,-88.924,-71.229,-28.986,-96.872,-91.437,-82.978,-66.955,-35.453,-96.15,-91.437,-85.793,-64.785,-34.089,-97.412,-89.526,-86.282,-85.359,-38.802,-96.708,-89.06,-86.108,-74.793,-43.55]],
"vp": [[3411.045,2003.502,2517.024,2230.155,2189.789,866.015,383.896,380.988,464.231,229.289,328.215,133.218,209.288,201.581,202.189,54.134,41.677,40.208,35.294,39.174,31.603,16.035,20.654,21.575,16.404,15.803,14.346,9.458,8.961,10.2],[7415.139,8865.796,7516.919,6614.468,6602.819,1499.397,1433.771,1629.381,1315.39,1155.291,746.986,875.39,659.494,632.759,610.223,159.404,182.279,147.792,149.09,129.022,74.226,93.883,70.19,53.254,55.577,37.038,41.784,33.776,29.165,28.623],[9930.511,14834.308,11202.718,12176.63,11061.526,1877.335,2916.701,2604.695,2302.516,2422.382,905.13,1472.212,1071.736,1181.952,1115.184,170.028,264.189,234.868,222.488,231.503,84.885,132.064,107.293,115.771,115.292,38.589,68.836,63.001,61.196,52.718],[10482.894,16741.927,21020.226,17101.615,16112.539,2079.597,2965.847,3220.713,3473.202,3247.342,1031.666,1478.862,1945.43,1701.009,1199.529,231.014,290.897,317.076,347.709,342.734,96.881,148.662,175.476,152.92,144.15,51.116,75.665,100.092,97.98,71.175],[10045.144,18861.742,21633.342,22934.953,21316.659,2214.787,3880.769,4357.518,5007.77,3721.121,1147.837,1593.156,2296.046,2202.617,2325.064,223.972,346.559,469.023,493.13,420.672,108.695,184.371,210.511,246.258,226.726,53.403,92.984,106.965,97.47,94.043],[11334.842,18944.742,25664.964,29233.515,30563.883,2201.005,3369.476,5314.61,5589.034,5338.916,1128.951,2046.026,1948.459,2610.207,2711.741,209.043,425.703,467.483,566.48,534.673,112.258,193.93,254.1,305.412,242.984,51.303,89.41,111.561,135.619,125.771]]
}