{
"KTrans": [[3.524,0.818,0.836,0.676,0.55,12.473,7.74,5.57,4.846,4.648,26.814,15.04,12.728,11.135,9.971,165.069,92.031,75.519,63.767,59.977,407.54,221.191,175.521,152.636,140.912,1248.517,587.466,469.553,393.539,362.565],[3.264,1.514,0.63,0.369,-0.038,11.955,6.011,3.794,3.132,2.576,23.992,12.009,8.012,6.504,5.396,146.7,64.943,44.222,35.837,30.505,373.173,148.901,98.674,78.023,65.532,1068.042,377.995,233.385,179.095,151.497],[4.057,2.193,1.154,0.853,0.48,13.855,6.659,4.15,3.223,2.458,23.97,12.292,8.47,6.101,4.893,131.941,63.34,41.855,31.638,25.593,361.84,138.857,91.431,68.046,55.026,705.979,350.357,208.191,154.066,125.189],[4.005,1.861,1.862,0.893,0.782,12.593,6.387,4.505,3.328,2.665,23.278,12.667,8.4,6.571,5.034,139.331,61.122,41.424,30.507,24.664,356.922,139.526,86.746,63.787,51.534,226.575,377.797,209.957,150.524,117.024],[4.108,2.999,1.702,1.498,0.98,11.635,7.785,5.354,3.748,2.783,21.481,14.064,8.74,6.329,5.038,132.97,65.914,41.532,30.728,24.189,263.903,139.131,86.258,62.21,50.061,72.31,380.704,204.316,141.834,110.767],[2.407,2.629,2.083,1.824,1.282,12.078,6.889,5.04,3.758,3.178,21.315,13.591,8.854,6.627,5.163,133.044,62.127,40.31,30.948,24.092,189.538,152.05,89.005,61.929,49.674,-69.852,352.059,196.456,142.509,109.005]],
"ve": [[1.046,0.104,-0.974,-1.339,-2.245,4.331,0.282,-1.402,-3.15,-4.999,8.501,1.301,-2.863,-5.67,-8.424,45.504,13.138,-1.77,-11.425,-19.129,93.293,33.34,7.755,-7.214,-18.592,193.417,79.075,35.442,10.181,-5.935],[1.285,0.74,0.312,0.182,0.054,5.075,2.422,1.402,0.743,0.244,10.217,4.794,2.832,1.498,0.792,50.24,23.715,14.454,9.116,5.498,99.863,47.964,29.568,19.208,12.426,200.055,97.463,60.657,41.573,28.716],[1.412,0.698,0.369,0.303,0.197,5.302,2.732,1.693,1.212,0.784,10.505,4.992,3.268,2.295,1.699,50.193,24.68,16.144,11.436,8.464,101.022,49.686,32.241,23.118,17.39,200.928,99.372,64.691,46.956,35.789],[1.512,0.823,0.47,0.385,0.284,5.571,2.749,1.775,1.344,1.062,10.378,5.157,3.43,2.508,1.954,50.51,25.037,16.631,12.203,9.436,101.167,49.898,32.878,24.236,18.835,202.926,100.431,66.106,48.929,38.049],[1.37,0.706,0.507,0.414,0.258,5.284,2.812,1.922,1.394,1.177,10.579,5.177,3.466,2.629,2.061,50.732,25.344,16.732,12.381,9.679,101.494,50.122,33.318,24.545,19.4,184.075,100.552,66.588,49.331,39.068],[1.327,0.752,0.651,0.417,0.343,5.381,2.863,1.83,1.393,1.187,10.422,5.213,3.631,2.577,2.085,51.085,25.313,16.705,12.552,9.903,101.705,50.626,33.571,24.824,19.695,202.295,100.324,66.6,49.717,39.424]],
"kep": [[4.384,2.626,3.785,4.045,4.911,9.83,9.469,9.125,10.345,12.347,19.066,15.694,18.244,20.097,22.436,85.536,72.9,82.044,88.388,101.585,167.196,145.329,160.503,177.438,201.545,366.735,290.69,328.299,356.33,401.123],[3.847,2.635,2.172,2.042,1.756,8.547,5.421,4.252,4.266,4.22,14.582,8.865,6.983,6.874,6.504,67.07,35.767,28.335,26.791,25.993,140.28,71.225,56.149,52.095,49.96,292.57,146.186,111.219,100.731,98.996],[4.491,3.363,2.646,2.407,2.136,10.125,5.743,4.308,3.872,3.54,14.243,8.929,6.979,5.637,5.047,57.023,33.389,24.387,20.308,17.931,132.914,62.383,47.392,38.998,34.496,169.791,129.413,90.366,75.971,68.858],[4.351,2.897,3.259,2.364,2.353,8.618,5.455,4.581,3.841,3.462,13.714,9.125,6.741,5.883,4.924,61.552,31.194,23.484,18.457,16.015,129.609,62.563,43.074,34.245,29.859,10.133,141.967,89.743,71.227,60.059],[4.607,4.163,3.058,2.947,2.581,7.964,6.774,5.277,4.21,3.464,11.878,10.449,7.04,5.519,4.817,56.995,34.739,23.463,18.467,15.316,83.255,61.951,42.206,32.613,27.979,-40.623,142.951,85.704,64.805,54.293],[2.897,3.744,3.295,3.274,2.799,8.257,5.83,5.059,4.222,3.85,11.813,9.954,6.981,5.868,4.918,56.569,31.684,22.425,18.485,14.991,46.01,70.021,44.005,32.071,27.332,-88.756,128.45,80.891,64.813,52.58]],
"vp": [[30.592,-4.934,9.088,-37.288,6.353,-3.175,-0.068,0.242,-7.243,-7.292,-1.924,-7.496,8.301,-2.008,-1.248,-0.243,-4.251,3.57,-6.509,-0.89,-4.062,-3.383,-3.602,0.691,-0.699,-0.99,-3.204,2.179,-3.511,2.072],[156.333,-14.762,6.683,-17.615,-49.965,7.071,4.11,-6.834,0.664,-23.749,13.148,3.326,1.449,-5.009,-1.833,2.272,-5.871,-4.366,-0.362,1.446,-0.155,-2.283,-5.192,-2.773,-3.03,-4.788,-1.663,-8.394,-3.493,-1.931],[607.953,36.682,23.682,5.017,3.006,131.497,13.417,-18.166,-0.083,-2.14,68.741,-4.239,4.497,0.234,2.292,4.645,-3.564,0.879,-2.13,-5.053,7.044,-0.275,0.16,-1.419,-3.588,3.411,-2.415,-5.99,-3.946,-2.728],[1422.929,175.526,157.326,-50.379,-75.915,299.758,32.29,3.099,8.707,14.327,132.236,20.976,6.643,13.732,8.217,26.878,-1.954,4.859,0.98,-1.697,18.031,-4.19,-2.973,-3.508,-3.256,14.293,-1.164,-1.879,2.389,-0.621],[2454.526,528.877,101.165,73.116,7.805,549.668,87.886,59.242,-1.703,20.677,272.641,33.05,22.808,-3.274,3.969,55.8,7.796,4.964,0.572,0.233,24.137,-4.385,0.951,-4.876,-3.698,14.678,-2.663,-2.698,-2.568,-0.238],[3520.224,561.517,357.724,119.058,28.213,731.358,131.392,34.416,55.365,22.783,390.095,51.804,49.978,9.572,7.213,81.966,0.504,1.823,3.443,2.106,36.594,7.089,3.917,-2.996,-3.161,25.311,-2.643,-5.269,-2.391,-1.563]]
}