{
"KTrans": [[10.947,9.742,10.426,9.577,8.784,13.53,8.734,11.431,11.893,10.76,14.68,4.96,8.358,12.006,12.254,20.104,25.78,18.926,24.544,16.063,44.544,33.49,31.997,29.188,21.028,88.433,74.149,61.5,73.122,63.986],[-35.57,-6.143,-0.517,5.601,4.935,-36.992,-8.498,1.868,2.028,5.173,-35.533,-5.776,1.605,5.429,6.437,-36.761,0.742,3.603,9.719,9.947,-24.632,8.955,6.5,12.528,16.215,-18.536,19.538,22.202,21.585,20.342],[-71.801,-29.195,-10.601,-3.698,0.368,-68.718,-25.965,-8.848,-4.14,0.397,-69.689,-23.999,-13.146,-1.037,1.538,-58.309,-20.675,-8.326,-1.36,2.141,-57.367,-18.445,-6.477,2.147,5.514,-48.232,-8.362,1.092,10.157,12.015],[-79.196,-38.772,-21.01,-10.277,-4.718,-84.033,-41.632,-24.026,-13.046,-5.695,-79.529,-41.915,-21.679,-12.666,-6.524,-77.285,-42.856,-24.94,-10.837,-4.693,-71.071,-36.404,-21.025,-12.787,-1.298,-61.564,-40.308,-11.703,-0.189,8.072],[-90.208,-54.891,-31.322,-20.252,-14.283,-87.528,-57.8,-38.109,-20.103,-13.776,-90.168,-57.918,-35.497,-22.273,-11.745,-85.469,-51.901,-32.443,-20.055,-12.689,-81.942,-61.621,-33.497,-17.895,-11.658,-77.65,-56.004,-28.564,-20.077,-10.009],[-93.297,-67.864,-46.268,-30.905,-19.928,-92.362,-64.299,-45.914,-28.683,-18.537,-90.636,-63.876,-42.942,-33.982,-21.012,-90.321,-63.477,-39.688,-32.489,-21.19,-87.003,-66.52,-45.255,-27.909,-19.214,-77.748,-64.851,-43.501,-22.795,-13.976]],
"ve": [[6.856,28.523,23.205,51.374,76.396,8.027,12.393,20.275,17.718,-849.686,7.055,17.104,41.044,83.179,-150.111,24.858,16.937,71.749,32.474,101.175,8.131,52.726,48.024,58.828,-45.67,-61.228,112.209,74.566,-37.857,10.915],[-16.334,-1.114,0.268,2.439,3.754,-15.118,-2.667,1.42,2.382,3.409,-12.325,-2.733,1.787,2.544,4.37,-10.26,3.801,3.662,5.284,5.942,6.817,11.167,7.141,7.254,7.881,23.713,25.939,16.521,14.527,13.576],[-37.126,-10.173,-4.257,-1.07,0.468,-33.152,-7.82,-3.112,-1.111,0.699,-32.613,-7.856,-4.205,-0.706,0.615,-10.627,-5.081,-0.396,1.845,2.141,-1.011,2.638,1.663,4.096,4.397,19.232,18.061,10.602,10.016,9.469],[-41.042,-14.755,-7.24,-3.302,-1.959,-40.504,-16.081,-7.309,-4.325,-2.395,-33.963,-14.952,-7.053,-4.394,-2.474,-34.009,-12.62,-7.216,-1.673,-1.031,-18.504,-4.402,-0.82,-0.838,2.654,12.445,-6.271,8.525,9.026,10.011],[-52.757,-23.438,-12.398,-7.06,-5.225,-21.615,-26.123,-14.726,-6.808,-5.033,-50.818,-24.248,-13.609,-8.51,-4.049,-43.956,-18.023,-8.602,-4.69,-2.963,-7.299,-20.602,-6.765,-3.361,-1.683,-5.224,-24.745,1.486,-1.124,1.602],[-73.766,-31.096,-18.184,-11.125,-7.062,-40.196,-29.132,-18.787,-9.151,-6.183,-53.443,-29.291,-15.791,-11.709,-7.295,-44.531,-14.764,-12.061,-10.179,-5.393,-36.846,-24.479,-12.341,-6.411,-2.98,8.533,-15.147,-3.961,2.361,3.262]],
"kep": [[-14.264,-17.717,-19.58,-25.58,-30.552,-18.062,-18.271,-18.944,-20.992,-26.811,-16.034,-22.361,-22.784,-20.645,-21.833,-19.993,-9.219,-16.658,-10.786,-25.001,-19.328,-10.123,-9.054,-10.64,-22.248,-26.544,-6.78,-0.702,20.2,15.094],[-41.978,-24.35,-20.652,-17.455,-18.861,-43.871,-25.493,-19.689,-20.163,-18.43,-45.319,-23.108,-20.098,-17.656,-18.249,-49.139,-23.122,-20.39,-16.594,-16.93,-49.988,-23.128,-21.49,-16.387,-13.841,-63.657,-29.67,-19.293,-16.762,-15.918],[-70.571,-37.964,-25.694,-22.275,-20.13,-67.708,-36.79,-25.056,-22.608,-20.311,-70.314,-35.343,-27.713,-20.452,-19.344,-67.142,-35.179,-27.11,-22.809,-20.106,-72.822,-38.688,-27.472,-22.31,-19.611,-75.914,-43.554,-29.529,-22.016,-19.458],[-78.501,-44.296,-32.338,-26.091,-22.418,-82.143,-45.619,-34.923,-27.583,-22.866,-78.54,-46.85,-32.88,-27.146,-23.453,-79.32,-49.47,-36.026,-27.845,-23.166,-81.221,-48.741,-37.331,-30.311,-23.511,-83.143,-56.098,-37.824,-28.628,-22.715],[-87.861,-55.505,-38.114,-31.725,-27.858,-86.235,-56.547,-42.457,-31.798,-27.589,-87.87,-57.563,-41.006,-32.441,-26.626,-86.683,-55.906,-41.847,-33.436,-28.385,-88.121,-62.866,-44.417,-32.687,-28.63,-89.817,-67.307,-46.719,-37.349,-30.551],[-91.147,-64.123,-48.414,-38.202,-31.427,-90.773,-62.05,-47.523,-37.592,-30.722,-89.259,-61.32,-46.723,-40.581,-32.024,-90.037,-63.096,-46.354,-40.503,-33.722,-90.313,-68.193,-51.568,-39.246,-33.879,-90.148,-74.179,-55.412,-41.127,-34.371]],
"vp": [[-301.83,-351.847,-375.334,-327.126,-203.305,-91.163,-4.924,-79.746,-74.232,-78.82,-25.968,14.834,-14.933,-8.685,-27.194,-3.055,-12.899,-6.587,-22.739,-5.137,-7.919,-4.158,-0.864,0.019,2.57,-8.632,-6.579,-5.714,-12.98,-9.494],[1941.653,431.049,250.893,-370.385,-37.316,386.701,146.739,-41.665,20.546,-43.601,197.026,47.204,1.455,-30.396,-35.208,47.129,-1.617,2.355,-14.268,-8.789,17.68,-6.937,0.415,-6.864,-7.336,7.518,-4.881,-4.814,-3.042,0.219],[4461.682,2518.62,1047.567,446.545,-132.424,819.384,377.594,183.051,96.11,1.271,421.92,185.233,146.571,-5.289,-20.634,60.897,37.844,18.609,5.516,-3.695,33.023,10.774,13.536,2.412,-0.072,12.767,-1.064,2.633,-2.737,-3.847],[5342.144,3339.337,2214.927,1073.294,665.097,1238.542,768.442,484.611,340.013,185.677,543.044,356.4,228.136,185.051,114.907,93.87,79.829,67.781,27.071,22.466,43.166,28.736,22.744,26.254,1.149,10.408,24.412,4.219,-2.455,-12.21],[7078.999,5527.95,3800.079,2672.502,2546.319,1336.447,1283.007,1040.572,540.164,437.433,692.517,596.067,459.251,349.991,172.594,122.426,102.927,74.994,55.043,47.562,61.847,75.864,41.406,31.256,29.744,23.873,39.785,18.16,24.012,14.749],[7647.23,7686.927,6175.448,4785.806,3184.649,1391.598,1373.087,1289.203,751.504,588.183,670.579,719.85,566.617,540.553,354.894,144.085,144.011,94.095,106.462,72.698,62.669,84.687,63.024,43.208,30.755,14.524,37.4,28.205,12.26,6.91]]
}