{
"KTrans": [[14.057,48.153,31.982,43.234,39.935,9.186,57.328,44.976,33.914,19.082,33.681,74.315,45.693,59.521,51.719,146.828,152.486,124.558,134.714,95.295,384.885,333.342,247.993,217.777,193.966,1025.91,743.472,666.64,518.471,462.131],[-82.15,81.165,75.399,52.364,45.549,-68.199,91.223,64.584,63.273,38.913,-82.787,43.359,70.216,70.475,55.45,-64.122,156.341,117.958,89.461,88.694,-6.39,279.227,201.247,150.514,127.741,84.571,498.432,399.627,282.119,238.208],[-119.118,-41.84,113.003,75.956,80.604,-109.017,-14.676,100.174,127.645,61.58,-118.935,17.941,160.826,122.365,59.804,-92.566,4.704,180.189,148.645,95.366,-109.152,82.062,284.717,176.768,146.178,-67.604,181.406,462.289,319.9,240.382],[-113.972,-100.397,33.178,125.543,111.226,-111.74,-108.435,63.945,158.663,126.687,-118.249,-124.94,16.235,155.113,123.015,-114.949,-118.078,84.439,206.069,154.99,-123.401,-93.025,84.861,244.526,178.084,-180.434,-127.012,220.835,367.442,309.386],[-109.135,-113.633,-35.861,91.423,147.489,-115.403,-135.899,-50.97,104.96,156.565,-115.111,-113.581,-117.206,134.891,124.386,-123.79,-128.042,-57.05,132.658,206.843,-118.979,-127.598,9.994,232.985,230.284,-142.856,-152.229,70.382,263.825,469.629],[-103.748,-149.05,-102.937,-1.113,118.69,-104.095,-129.767,-130.518,37.764,150.669,-108.845,-139.205,-129.596,63.553,116.298,-107.875,-142.599,-118.032,-34.113,157.524,-122.607,-157.894,-209.146,47.673,238.012,-109.026,-171.983,-87.851,201.901,273.519]],
"ve": [[154.408,7.744,-5.232,19.708,-88.948,35.81,239.026,44.571,-15.599,-11.862,19.958,14.814,-33.441,-25.214,-4.19,52.989,15.953,-0.343,-24.499,-15.982,104.79,39.639,12.634,-4.779,-17.862,199.569,79.752,37.647,12.767,-3.117],[2.5,11.243,2.292,5.037,4.829,18.897,13.097,5.348,4.867,5.422,33.162,7.826,4.365,3.503,4.013,68.131,27.106,15.435,8.739,8.055,106.572,54.165,31.562,21.103,14.767,205.188,101.204,66.662,40.115,30.368],[-26.662,9.738,4.356,1.925,4.762,-28.521,7.338,7.281,7.119,2.253,31.804,6.503,10.963,9.103,2.205,51.905,28.048,28.536,14.055,8.595,110.922,66.996,38.325,23.773,18.341,217.652,103.095,66.529,52.585,36.852],[35.361,4.09,5.071,7.108,3.571,-28.628,12.366,7.513,7.019,4.927,12.036,6.253,5.527,4.537,4.893,60.5,28.504,22.323,16.97,13.314,108.036,69.019,34.184,26.273,22.547,196.378,101.763,72.84,52.574,41.237],[11.906,5.674,-1.162,4.94,0.791,8.272,9.538,2.812,5.071,4.973,11.816,10.219,6.12,7.872,3.981,447.516,31.519,20.848,17.619,13.565,101.881,55.718,39.473,28.085,22.11,207.942,103.566,71.775,54.366,42.343],[6.945,2.767,5.341,5.664,6.031,7.343,-1.333,3.694,4.012,6.621,14.782,3.891,6.713,8.621,7.102,54.452,22.855,20.634,9.472,13.476,103.209,55.106,34.452,36.937,25.439,203.114,103.398,70.29,51.621,38.992]],
"kep": [[-4.016,43.237,29.608,53.225,63.463,-7.866,52.675,44.472,37.001,26.47,8.706,61.67,42.76,73.395,79.612,55.726,116.028,124.562,158.156,137.296,136.598,213.784,210.668,235.726,260.65,273.56,365.291,459.034,450.034,484.885],[-87.207,59.324,66.18,43.558,42.098,-78.181,63.128,51.777,53.15,31.198,-91.931,25.561,55.989,62.04,48.876,-81.58,95.172,81.482,67.162,70.832,-58.336,141.298,121.661,99.664,94.345,-38.801,191.116,194.418,165.256,154.387],[-116.911,-48.568,93.465,63.812,67.363,-109.397,-30.703,81.461,105.333,51.441,-115.666,-1.654,122.967,98.532,49.301,-95.816,-27.407,121.456,108.275,70.27,-104.541,16.091,170.166,111.352,98.568,-87.552,32.155,224.494,166.747,139.4],[-112.157,-101.252,19.254,101.711,93.837,-109.12,-110.409,40.765,130.573,106.073,-115.413,-122.792,2.15,127.462,102.837,-110.329,-111.989,42.832,150.249,115.272,-112.842,-97.26,29.671,157.318,118.569,-126.479,-113.15,81.067,194.669,178.258],[-107.448,-112.506,-43.296,74.764,127.215,-113.322,-131.769,-56.528,83.751,129.021,-111.741,-109.343,-113.452,105.606,103.659,-114.153,-118.983,-65.171,86.069,156.906,-108.18,-116.487,-25.211,144.809,155.712,-114.77,-123.313,-7.092,126.437,282.152],[-103.509,-142.994,-104.413,-14.777,94.709,-102.816,-124.357,-125.222,21.418,121.874,-106.396,-131.435,-126.844,42.299,90.427,-103.793,-130.869,-116.426,-44.005,112.047,-109.62,-133.653,-175.679,11.385,158.935,-103.101,-132.411,-92.848,87.207,149.257]],
"vp": [[2817.167,2660.275,2103.059,2278.716,2830.995,657.351,519.111,486.909,439.882,303.568,268.373,245.648,220.883,244.591,184.012,69.287,56.507,58.309,61.324,37.734,28.193,31.472,25.609,21.761,23.488,12.881,11.02,14.279,12.172,8.139],[7855.318,10325.705,7613.89,7649.053,7480.659,1682.753,2118.641,1399.046,1642.504,1463.645,906.903,898.173,805.323,753.124,886.523,185.863,162.566,123.096,129.593,166.49,87.379,87.914,81.177,62.308,58.078,38.821,45.09,36.861,35.228,37.906],[9741.795,15399.027,15111.444,11172.646,15175.854,1814.711,3100.988,2698.564,3102.752,2328.269,1017.963,1331.5,1824.698,1474.854,1102.254,200.977,291.236,317.944,316.245,249.17,96.158,133.247,146.16,132.016,127.81,46.208,72.765,69.315,71.781,59.108],[11936.188,16750.133,19509.311,21514.639,20458.396,2105.453,3616.176,4319.122,4550.304,4270.223,1177.547,1733.663,2048.979,1754.404,1760.46,218.951,354.821,429.255,403.401,375.771,102.506,164.477,194.783,207.844,177.157,52.602,76.594,102.32,98.74,94.456],[11226.828,18844.518,23049.327,27587.888,22282.339,2282.659,4137.886,4631.972,5736.071,5437.152,1113.598,1855.282,2323.033,2643.279,2231.536,221.266,369.873,452.694,576.412,542.919,112.135,199.33,244.773,276.453,238.312,60.111,96.951,131.813,119.472,134.815],[11230.797,22493.151,26002.535,31444.394,31445.884,2120.474,3716.073,5492.927,6407.348,6603.531,1112.961,2036.87,2695.088,2962.767,3077.53,217.212,413.804,549.372,599.198,686.024,114.517,187.267,294.416,347.017,321.325,56.42,97.991,127.95,141.03,138.048]]
}