{
"KTrans": [[1.325,1.592,2.484,1.882,1.198,12.223,8.168,6.011,6.292,5.287,28.191,14.069,13.563,13.207,10.588,162.341,93.019,75.369,65.461,61.25,79.072,211.969,173.682,150.126,130.343,-301.609,137.791,304.653,274.315,306.253],[3.167,2.284,1.948,1.035,1.373,4.291,5.198,4.121,3.561,3.353,18.825,9.769,7.499,6.376,5.918,79.94,66.623,48.793,37.399,32.178,-21.158,164.057,99.078,79.749,67.938,108.144,-96.969,221.252,171.598,145.358],[-4.753,-0.314,0.346,0.298,-0.067,-1.639,3.966,3.02,2.222,2.536,12.821,10.045,6.803,5.594,4.666,-45.821,62.976,41.937,27.848,25.347,-56.022,155.066,86.655,68.923,58.059,-23.789,-26.055,222.035,142.124,135.663],[-13.458,-0.212,-1.475,0.026,-0.186,-2.304,2.429,2.492,1.12,2.585,-4.657,9.863,6.64,5.728,3.653,-48.82,47.729,42.684,25.222,24.154,-46.72,65.023,91.984,64.723,50.078,-42.461,-112.965,71.984,141.25,123.645],[-23.796,-3.85,-1.103,-0.741,-0.673,-18.37,1.366,0.524,2.221,0.813,-21.816,7.177,4.531,2.95,3.737,-39.443,77.896,42.405,24.927,24.006,-105.743,-40.325,83.156,62.159,52.586,-62.508,-55.908,-69.109,167.477,119.95],[-44.768,0.006,-1.405,-0.841,-0.471,-53.625,2.414,0.998,0.031,1.898,-52.791,11.209,5.909,1.353,3.58,-71.278,65.844,31.877,25.848,22.29,-73.376,-31.305,104.605,68.397,49.206,-89.849,-4.724,-28.526,231.609,131.682]],
"ve": [[1.933,1.44,-0.054,1.861,3.548,5.487,0.937,1.115,-0.329,-0.074,9.451,2.754,-0.923,-3.966,-4.831,47.416,14.344,-0.303,-9.434,-16.969,90.733,36.355,10.481,-4.903,-16.073,193.673,86.605,32.722,18.573,-60.581],[0.783,0.062,0.132,0.619,0.255,4.63,2.262,1.539,1.02,0.98,9.409,4.372,2.425,2.248,0.877,49.546,24.391,14.647,9.779,5.87,101.366,49.107,30.289,20.128,13.271,200.376,101.419,65.463,42.822,30.153],[1.259,0.626,0.206,0.34,0.152,5.637,2.643,1.549,1.279,0.905,10.626,4.835,3.212,2.142,1.681,49.765,24.494,16.179,11.229,8.393,103.466,57.709,32.223,23.594,17.736,213.628,99.329,69.004,46.982,37.385],[0.983,0.803,-0.012,0.169,-0.14,5.928,2.59,1.354,1.039,0.926,11.312,5.11,3.377,2.445,1.922,51.062,23.45,16.639,11.489,9.272,96.152,50.974,32.473,24.202,18.751,201.503,110.523,64.427,47.744,38.447],[2.669,0.38,0.432,0.15,0.078,6.426,2.634,1.743,1.066,0.845,11.034,4.928,2.917,2.199,1.837,49.66,25.602,16.527,11.895,9.61,102.521,49.274,32.49,24.178,19.444,221.525,99.039,67.348,49.283,38.878],[1.546,0.394,0.509,0.093,0.19,5.591,2.35,1.793,0.915,0.76,11.494,4.874,3.198,2.297,1.796,50.468,25.599,15.888,12.155,9.805,104.697,53.987,33.335,24.299,19.843,195.838,95.883,67.863,51.716,39.964]],
"kep": [[-2.113,-1.439,1.188,-0.849,-2.574,4.67,5.545,3.709,5.68,4.662,14.994,9.11,13.133,16.566,15.249,72.859,65.468,72.825,79.935,91.537,-6.186,123.987,142.632,158.026,169.69,-133.855,30.679,182.518,214.426,307.182],[0.317,0.21,-0.191,-1.565,-0.861,-2.277,0.865,0.529,0.496,0.348,6.238,3.126,2.871,1.992,2.931,17.095,30.82,27.062,22.643,22.37,-55.134,71.321,48.936,46.344,45.165,-25.04,-87.146,90.06,85.224,84.114],[-7.934,-2.941,-1.856,-2.041,-2.215,-9.001,-0.753,-0.584,-1.092,-0.412,-0.441,2.818,1.413,1.318,0.876,-61.956,27.526,19.475,12.564,13.284,-73.362,63.444,37.403,33.437,31.312,-69.562,-56.353,84.32,59.639,66.96],[-16.472,-3.031,-3.44,-2.144,-2.054,-10.393,-2.267,-0.909,-1.919,-0.39,-15.978,2.311,1.049,1.129,-0.342,-63.907,16.217,19.445,9.942,11.288,-69.837,6.414,40.211,29.341,23.576,-76.67,-96.291,2.619,57.292,56.737],[-27.503,-6.258,-3.537,-2.889,-2.755,-25.999,-3.418,-3.233,-0.906,-2.049,-31.65,-0.145,-0.539,-1.318,-0.19,-58.634,36.512,19.161,9.247,10.772,-99.179,-57.336,33.578,27.101,24.777,-83.553,-72.739,-73.643,71.693,53.239],[-47.26,-2.835,-3.974,-2.967,-2.667,-57.844,-2.455,-2.875,-2.895,-0.922,-58.591,3.352,0.442,-2.955,-0.311,-79.736,26.536,10.866,9.713,8.987,-84.399,-52.583,47.467,31.506,21.542,-93.479,-49.633,-52.43,108.68,59.736]],
"vp": [[5.399,123.201,202.696,-106.739,69.218,-31.077,5.683,-11.612,23.877,-35.174,4.815,-13.256,-3.074,12.419,15.499,-2.162,-9.552,-4.734,-3.505,-1.595,-8.88,2.98,6.328,0.979,-16.358,-3.88,-2.38,-4.38,2.376,2.046],[1238.009,89.266,42.917,-32.135,-39.916,279.334,42.385,-15.085,-4.911,22.973,108.136,-20.744,-19.479,-16.775,-19.31,-1.302,1.026,6.798,7.891,8.007,-3.179,-4.464,-9.961,11.393,3.808,-21.409,-0.195,-7.675,-2.379,-7.117],[2805.191,457.392,256.115,152.559,84.245,560.682,118.8,-9.357,38.655,-40.774,269.443,83.335,24.488,10.37,-8.91,35.491,5.851,6.104,-26.196,-13.114,7.512,-11.391,-20.246,-16.012,4.43,-0.25,-23.408,-5.738,-30.145,5.801],[4925.555,856.048,154.298,305.584,-164.288,980.483,227.942,29.818,32.674,64.038,425.064,156.519,41.697,51.656,-6.007,55.485,-16.082,11.95,-33.796,-3.645,11.411,20.014,-2.033,-3.687,-10.374,-6.852,10.976,-16.856,-30.771,-12.714],[5798.047,1975.543,507.356,573.893,331.866,1125.328,425.966,108.994,102.781,26.899,543.885,234.832,54.57,9.348,1.528,64.164,54.583,28.808,-8.027,4.959,41.146,4.488,-16.045,-5.321,2.368,6.038,11.658,-17.941,-16.111,-13.725],[6299.96,3154.512,1027.019,776.338,1010.905,1313.071,642.568,209.049,167.314,133.198,618.254,367.56,162.795,44.492,-9.403,121.067,84.973,25.555,-3.765,4.61,34.647,29.221,-1.569,2.488,4.549,14.028,-10.89,8.106,11.955,4.197]]
}