{
"KTrans": [[2.813,0.004,0.004,0.004,0.004,11.401,0.011,0.009,0.01,0.009,24.354,0.026,0.019,0.019,0.018,196.015,0.219,0.201,0.165,0.176,408.893,0.954,0.917,1.122,1.466,757.887,12.538,36.56,52.226,61.724],[-0.03,-0.004,0.667,0.002,0.003,-0.021,0.001,3.325,0.005,0.005,-0.011,0.005,10.873,0.01,0.008,0.066,0.037,43.13,0.064,0.048,0.157,0.041,90.367,0.159,0.131,0.379,0.047,251.319,0.535,0.409],[-0.099,-0.02,-0.006,-0.001,0.701,-0.09,-0.015,-0.004,0.001,2.336,-0.078,-0.011,-0.001,0.003,4.961,0.011,0.028,0.02,0.017,25.621,0.154,0.073,0.054,0.015,49.149,0.335,0.172,0.074,-0.02,116.527],[-0.206,-0.045,-0.017,-0.007,-0.003,-0.196,-0.041,-0.014,-0.005,-0.001,-0.187,-0.033,-0.01,-0.003,0,-0.107,0.002,0.017,0.019,0.013,0.002,0.056,0.049,0.04,0.031,0.27,0.171,0.101,0.083,0.023],[-0.349,-0.08,-0.032,-0.015,-0.008,-0.342,-0.075,-0.029,-0.013,-0.006,-0.331,-0.07,-0.025,-0.011,-0.005,-0.276,-0.022,0.002,0.009,0.014,-0.183,0.029,0.041,0.03,0.027,0.002,0.159,0.105,0.082,0.071],[-0.528,-0.124,-0.051,-0.026,-0.015,-0.526,-0.119,-0.047,-0.024,-0.013,-0.52,-0.113,-0.044,-0.021,-0.011,-0.486,-0.071,-0.015,-0.001,0.006,-0.444,-0.015,0.023,0.032,0.026,-0.381,0.092,0.092,0.074,0.055]],
"ve": [[2.814,0.001,0.001,0.002,0.002,11.406,0.005,0.005,0.006,0.007,24.364,0.012,0.01,0.013,0.014,196.136,0.107,0.09,0.08,0.092,409.13,0.472,0.348,0.361,0.417,758.003,6.259,12.274,13.22,12.568],[-0.013,-0.001,0.667,0.001,0.001,-0.009,0,3.325,0.002,0.002,-0.006,0.001,10.882,0.004,0.003,0.016,-0,43.154,0.034,0.023,0.031,-0.036,90.391,0.096,0.067,0.082,-0.157,251.409,0.357,0.225],[-0.045,-0.008,-0.002,-0.001,0.702,-0.041,-0.006,-0.002,0,2.337,-0.036,-0.005,-0.001,0.001,4.963,-0.002,0.006,0.002,-0.002,25.632,0.067,0.014,0.004,-0.025,49.163,0.108,0.028,-0.032,-0.124,116.588],[-0.096,-0.02,-0.007,-0.003,-0.001,-0.092,-0.018,-0.006,-0.002,-0,-0.088,-0.014,-0.004,-0.002,-0,-0.058,-0.004,0.004,0.005,0.002,-0.012,0.014,0.012,0.007,0,0.134,0.051,0.013,0.002,-0.035],[-0.166,-0.036,-0.014,-0.006,-0.003,-0.163,-0.034,-0.012,-0.005,-0.002,-0.155,-0.032,-0.011,-0.005,-0.002,-0.14,-0.012,-0.002,0.002,0.004,-0.09,0.005,0.013,0.006,0.004,0.011,0.061,0.028,0.016,0.009],[-0.253,-0.057,-0.022,-0.011,-0.006,-0.253,-0.054,-0.021,-0.01,-0.005,-0.25,-0.052,-0.02,-0.009,-0.005,-0.227,-0.037,-0.009,-0.002,0.001,-0.205,-0.015,0.006,0.011,0.007,-0.174,0.023,0.027,0.018,0.008]],
"kep": [[-281.31,-0.004,-0.003,-0.003,-0.003,-227.749,-0.017,-0.011,-0.013,-0.013,-243.062,-0.036,-0.025,-0.025,-0.025,-329.753,-0.162,-0.133,-0.118,-0.132,-311.762,-0.321,-0.234,-0.246,-0.288,-238.101,-0.642,-0.475,-0.5,-0.514],[-0.019,-0.003,-199.911,-0.004,-0.002,-0.012,0.006,-199.173,-0.014,-0.008,-0.003,0.016,-326.286,-0.026,-0.014,0.067,0.107,-256.808,-0.129,-0.072,0.153,0.197,-230.757,-0.231,-0.142,0.337,0.428,-292.194,-0.453,-0.267],[-0.056,-0.013,-0.005,-0.001,-351.037,-0.05,-0.009,-0.001,0.007,-233.482,-0.043,-0.005,0.004,0.017,-247.962,0.017,0.035,0.048,0.104,-255.656,0.096,0.084,0.112,0.199,-233.444,0.239,0.187,0.212,0.43,-236.594],[-0.112,-0.027,-0.012,-0.006,-0.004,-0.106,-0.024,-0.009,-0.003,0.001,-0.1,-0.02,-0.005,0,0.006,-0.048,0.012,0.023,0.034,0.048,0.017,0.054,0.059,0.073,0.109,0.143,0.138,0.126,0.156,0.185],[-0.186,-0.046,-0.02,-0.011,-0.007,-0.181,-0.043,-0.018,-0.009,-0.004,-0.177,-0.039,-0.015,-0.006,-0.002,-0.136,-0.008,0.009,0.016,0.024,-0.09,0.03,0.04,0.042,0.051,-0.004,0.11,0.098,0.1,0.118],[-0.278,-0.069,-0.031,-0.017,-0.011,-0.276,-0.066,-0.028,-0.015,-0.009,-0.273,-0.063,-0.026,-0.013,-0.007,-0.26,-0.033,-0.004,0.006,0.012,-0.239,0.003,0.024,0.031,0.035,-0.206,0.075,0.077,0.076,0.076]],
"vp": [[-0.108,-0.172,-0.203,-0.222,-0.224,-0.117,-0.07,-0.059,-0.079,-0.074,-0.103,-0.073,-0.055,-0.063,-0.058,-0.109,-0.049,-0.055,-0.04,-0.049,-0.115,-0.047,-0.035,-0.044,-0.06,-0.125,-0.046,-0.036,-0.045,-0.042],[1.328,0.31,-0.107,-0.241,-0.339,0.191,-0.003,-0.122,-0.091,-0.109,0.057,-0.019,-0.11,-0.077,-0.065,-0.043,-0.057,-0.1,-0.067,-0.058,-0.053,-0.035,-0.105,-0.045,-0.055,-0.077,-0.055,-0.113,-0.041,-0.044],[4.539,1.663,0.695,0.227,-0.094,0.83,0.259,0.117,0.005,-0.108,0.358,0.114,0.032,-0.022,-0.11,0.001,-0.034,-0.03,-0.055,-0.112,-0.076,-0.049,-0.063,-0.044,-0.118,-0.064,-0.066,-0.046,-0.061,-0.112],[9.656,4.007,2.104,1.164,0.611,1.843,0.729,0.349,0.186,0.043,0.89,0.286,0.13,0.078,0.009,0.117,0.017,-0.031,-0.054,-0.037,0.01,-0.035,-0.051,-0.058,-0.064,-0.075,-0.068,-0.052,-0.07,-0.026],[16.619,7.214,4.068,2.544,1.613,3.271,1.374,0.753,0.44,0.259,1.559,0.652,0.336,0.188,0.118,0.283,0.045,0.011,-0.019,-0.05,0.089,-0.014,-0.047,-0.033,-0.041,-0.01,-0.071,-0.059,-0.062,-0.072],[25.394,11.404,6.729,4.382,3.019,5.085,2.181,1.248,0.811,0.541,2.506,1.039,0.602,0.378,0.259,0.455,0.148,0.052,0.02,-0.016,0.204,0.029,-0.023,-0.053,-0.042,0.085,-0.027,-0.05,-0.052,-0.042]]
}