{
"KTrans": [[-22.807,-9.767,-5.413,-6.984,-3.69,-23.781,-14.196,-4.04,-8.021,-6.494,-26.159,-14.966,-9.348,-2.812,-0.993,-20.257,-4.951,-5.997,-7.412,-3.814,-29.667,-9.926,-6.861,-7.777,-5.333,-21.252,-16.505,-2.875,-10.504,-6.261],[-77.483,-30.925,-21.438,-18.339,-16.527,-64.469,-27.802,-24.886,-17.026,-14.732,-56.862,-34.493,-24.783,-21.433,-13.536,-81.424,-26.396,-25.864,-24.189,-11.62,-74.527,-32.915,-25.751,-18.171,-13.508,-82.123,-30.345,-26.29,-18.024,-14.423],[-94.152,-21.503,-32.554,-31.498,-26.678,-96.128,-9.063,-37.149,-28.89,-25.457,-100.992,-27.963,-39.695,-27.99,-25.953,-98.733,-4.358,-38.525,-30.08,-20.251,-93.545,-58.373,-40.977,-30.573,-17.862,-90.438,-45.25,-44.377,-28.767,-26.467],[-108.218,-76.962,-11.856,-47.491,-33.102,-100.269,-72.597,-29.244,-31.201,-31.926,-103.972,-82.789,-20.636,-35.119,-40.152,-107.503,-76.71,-46.191,-25.98,-37.533,-106.722,-81.844,-40.937,-35.37,-35.921,-111.429,-65.592,-24.612,-36.678,-37.057],[-102.17,-87.394,-38.258,-55.142,-45.905,-107.969,-75.41,-12.686,-48.14,-47.354,-105.045,-97.39,-41.564,-34.369,-34.11,-106.263,-77.988,-55.593,-49.164,-42.263,-111.719,-74.829,-43.447,-41.155,-37.688,-106.342,-98.114,-56.342,-46.006,-43.962],[-110.449,-102.857,-71.5,-55.544,-41.482,-115.451,-102.696,-81.603,-39.152,-26.84,-105.215,-97.662,-89.617,-45.076,-41.806,-106.53,-100.74,-69.438,-62.709,-35.865,-108.852,-96.791,-83.503,26.983,-50.597,-114.795,-99.983,-47.334,1.301,-33.112]],
"ve": [[-16.499,-3.212,4.68,22.175,-171.203,-17.49,-4.535,4.524,24.833,255.257,-17.831,-4.124,4.73,21.336,-54.28,-17.958,-4.698,4.642,19.288,60.778,-20.309,-3.35,6.357,26.638,147.597,-17.801,-3.958,3.351,23.389,-102.64],[-73.66,-30.065,-18.273,-12.796,-8.756,-73.531,-28.681,-18.568,-12.533,-7.312,-70.701,-32.067,-20.8,-12.511,-7.951,-75.974,-28.513,-20.231,-13.985,-7.258,-69.818,-31.2,-18.119,-12.014,-7.802,-74.756,-31.284,-19.291,-12.96,-8.242],[-98.028,-65.133,-33.742,-27.14,-19.397,-98.392,-50.611,-37.486,-24.844,-18.99,-107.658,-55.84,-36.798,-23.468,-19.793,-101.303,-50.929,-37.145,-25.469,-15.783,-101.249,-64.506,-39.933,-27.629,-17.809,-96.721,-57.799,-37.732,-26.851,-19.41],[-120.708,-78.14,-46.431,-37.752,-28.298,-113.609,-81.456,-54.28,-34.369,-30.055,-109.116,-83.556,-53.603,-35.598,-32.605,-115.604,-82.529,-49.667,-35.309,-29.965,-113.073,-77.741,-55.087,-36.276,-29.333,-123.651,-77.893,-52.617,-38.299,-31.428],[-114.829,-87.369,-82.386,-47.819,-42.439,-122.145,-95.673,-65.712,-57.912,-42.528,-117.819,-93.863,-63.821,-49.878,-38.396,-122.994,-85.69,-66.615,-49.607,-41.936,-127.714,-96.461,-74.712,-53.788,-36.112,-114.953,-98.558,-60.504,-48.149,-41.452],[-119.776,-109.09,-71.291,-59.326,-52.137,-148.092,-109.027,-85.674,-67.149,-45.98,-119.676,-102.731,-85.538,-60.679,-43.209,-120.931,-106.536,-76.254,-65.357,-48.778,-132.22,-100.185,-85.347,-49.301,-48.547,-145.935,-102.068,-68.23,-56.039,-48.575]],
"kep": [[-7.848,-6.358,-6.399,-11.822,-9.573,-9.27,-9.834,-6.011,-14.329,-13.282,-11.453,-10.638,-9.704,-6.449,-5.492,-4.48,-0.204,-6.689,-12.099,-11.863,-12.073,-6.193,-8.829,-11.69,-12.929,-4.523,-12.347,-2.846,-16.446,-13.323],[-75.449,-7.448,-4.749,-7.294,-8.445,-76.293,-3.682,-9.232,-5.603,-8.546,-70.09,-5.296,-5.592,-10.557,-6.07,-76.251,-3.359,-7.322,-12.162,-5.13,-72.496,-7.587,-10.028,-7.912,-6.904,-74.828,-2.534,-9.142,-5.999,-7.348],[-70.185,-44.711,-6.062,-7.161,-9.995,-72.253,-15.999,-4.936,-7.23,-9.212,-79.241,-36.869,-5.19,-7.684,-7.692,-72.27,-16.459,-4.667,-7.603,-7.264,-71.029,-42.714,-4.076,-4.113,-1.148,-68.083,-35.088,-9.682,-2.9,-9.497],[-77.407,-63.059,-19.909,-12.75,-7.682,-71.271,-67.81,-16.666,-0.833,-4.971,-76.224,-67.403,-21.13,-4.231,-10.435,-73.65,-67.051,-13.099,1.543,-10.79,-74.079,-63.966,-17.462,-6.533,-10.106,-74.271,-72.089,-10.697,-4.448,-8.375],[-80.051,-59.583,-74.959,-16.624,-7.804,-78.183,-65.583,-34.794,-24.625,-10.204,-77.574,-62.778,-41.945,-1.492,-1.456,-80.104,-60.593,-59.512,-22.82,-4.34,-78.311,-62.112,-62.565,-7.305,-7.399,-78.595,-69.072,-52.335,-10.322,-6.407],[-85.68,-62.322,-53.519,-47.75,-5.133,-82.704,-58.358,-47.601,-46.139,-2.44,-83.139,-62.277,-47.072,-43.065,-12.03,-85.042,-62.779,-53.817,-38.554,-7.712,-86.978,-66.942,-66.901,-30.718,-8.164,-82.486,-61.779,-43.86,-30.795,-10.896]],
"vp": [[1899.017,1980.514,2792.039,2059.416,2090.833,477.344,466.322,532.431,492.51,421.133,233.937,235.209,213.631,258.186,237.601,50.043,45.425,49.381,44.258,50.234,26.012,25.75,24.073,23.667,23.695,11.163,12.045,13.705,11.677,11.688],[7489.675,6732.193,6860.352,7050.728,7362.893,1484.515,1270.088,1258.505,1431.836,1125.834,719.953,734.389,810.598,637.059,730.216,153.719,129.014,155.591,138.93,132.875,72.86,68.933,59.564,62.299,64.404,39.341,36.333,34.773,38.612,35.206],[10006.66,13682.659,10999.57,12299.286,10599.36,1986.393,2144.6,2496.568,2282.589,2146.625,1091.262,1163.949,1241.467,991.709,1176.13,209.298,219.443,253.182,223.195,180.653,103.312,137.975,137.796,135.951,120.933,50.453,60.979,63.886,66.667,55.567],[12027.866,16424.013,14800.007,15692.258,15798.215,2341.12,3465.153,3463.342,3210.226,3463.686,1078.482,1710.695,1716.229,1596.284,1823.019,234.412,302.559,306.372,320.689,321.794,113.649,156.532,176.945,154.366,155.168,63.302,81.236,87.174,85.292,89.06],[11535.636,17803.069,24787.224,19404.022,23644.212,2449.321,3997.986,3697.118,4910.686,4596.412,1174.73,1950.375,2049.007,2132.373,2167.261,251.573,345.544,430.657,406.163,474.423,130.556,201.174,240.419,235.603,191.138,58.136,101.216,92.486,100.348,115.965],[13422.044,22159.357,21190.242,23702.915,28857.237,3058.735,4534.9,5434.789,5633.775,5037.465,1166.249,2127.322,2635.485,2538.275,2261.177,241.689,437.246,460.576,539.261,529.008,133.869,202.248,265.854,201.913,256.089,74.496,103.598,103.373,118.206,127.351]]
}