{
"KTrans": [[-8.98,1.581,0.703,4.332,-0.275,-7.09,4.237,1.413,-1.171,-0.096,-5.817,2.985,3.963,-4.105,6.071,-5.793,1.102,9.771,1.662,6.543,16.785,20.148,12.617,6.751,8.241,106.278,55.766,22.742,21.768,9.678],[-56.803,-1.633,0.072,0.889,-0.023,-60.094,-2.538,-0.513,1.215,-0.583,-58.971,-2.683,1.303,-1.769,-0.022,-53.439,-0.743,-0.39,1.427,-1.756,-44.153,6.478,5.582,4.036,5.305,3.102,18.223,9.008,9.239,21.689],[-84.449,-15.922,-2.003,-1.372,-0.673,-83.024,-17.895,-3.403,-0.452,1.461,-83.431,-15.938,-1.747,-2.068,2.19,-80.662,-17.9,0.383,-2.852,-0.341,-74.422,-8.155,-3.973,2.103,1.516,-44.09,-0.997,-1.273,5.864,6.127],[-93.462,-29.257,-6.663,-0.674,0.769,-92.029,-31.122,-5.599,-1.935,1.313,-92.553,-37.991,-5.691,0.716,0.033,-88.669,-35.502,-9.076,-3.579,2.228,-78.895,-25.392,-2.673,3.502,4.705,-64.431,-18.958,0.249,11.723,5.577],[-95.999,-48.079,-16.199,-3.105,-1.089,-95.904,-51.139,-13.775,-3.171,-0.106,-97.263,-50.179,-13.145,-3.447,-1.417,-94.959,-47.685,-13.986,-0.442,1.789,-90.292,-49.925,-14.115,2.826,1.246,-80.036,-32.875,-16.409,-4.08,2.462],[-97.383,-65.543,-18.627,-6.432,-3.61,-97.034,-64.248,-22.376,-5.44,-2.178,-96.79,-62.002,-20.674,-4.185,-3.119,-96.771,-61.783,-19.851,-6.256,-1.053,-92.455,-58.111,-20.066,-6.008,-1.444,-88.824,-51.723,-24.532,-1.54,0.59]],
"ve": [[-19.088,7.926,4.666,19.856,22.857,9.942,8.128,25.472,33.947,18.043,3.679,-2.387,19.079,34.293,257.268,11.773,-136.572,128.505,-489.92,3.947,34.686,45.821,-22.943,-28.29,118.392,26.283,-2.267,-4.983,-113.596,-88.224],[-20.119,0.611,0.314,1.05,0.578,540.281,0.192,0.923,0.647,0.203,-28.796,0.394,1.152,0.904,0.816,-19.346,0.541,0.657,0.631,-0.187,-17.504,1.441,3.183,1.616,2.506,-28.292,-88.8,3.977,4.371,8.431],[-45.083,-4.176,-1.537,-0.788,-1.003,-51.498,-7.017,-0.931,-0.406,-0.538,-42.55,-7.18,-1.98,-0.346,0.728,2421.604,-8.231,0.289,-0.269,0.474,-48.997,-0.834,-2.602,-0.512,0.069,-8.071,3.365,-7.771,1.652,2.519],[-64.146,-15.163,-2.439,-0.198,-0.282,-53.341,-13.467,-3.969,-0.358,0.435,-54.681,-16.505,-2.433,-0.546,-0.484,-48.804,-15.691,-5.759,-0.004,0.672,-15.683,-9.849,-1.046,1.249,3.103,-16.193,-5.958,1.268,6.721,1.696],[-34.533,-24.285,-6.033,-1.829,-1.208,-61.479,-25.877,-5.005,-1.356,-0.734,-80.867,-23.67,-4.711,-2.287,-0.77,-73.601,-73.142,-5.308,-0.824,0.359,-52.55,-63.291,-8.132,-0.019,-0.02,165.18,-8.674,-9.59,-1.764,0.615],[-77.727,-35.816,-8.497,-2.456,-2.301,-69.187,-34.255,-9.349,-3.116,-0.536,-80.137,-31.957,-10.17,-3.72,-1.545,-80.003,-34.012,-11.352,-3.876,-1.359,-64.614,-26.289,-6.939,-3.488,-1.521,-60.891,-15.693,-9.429,-0.906,-0.389]],
"kep": [[-9.786,0.898,-2.445,6.257,-0.45,-11.899,1.901,0.176,-3.426,-2.254,-6.819,0.64,0.249,-12.602,11.02,-15.726,-4.378,10.97,-3.243,7.363,-19.564,10.063,2.835,-0.108,4.185,1.352,1.315,-9.533,2.685,-24.745],[-49.181,-2.868,-0.004,-0.018,-0.097,-53.785,-2.945,-1.16,0.962,-0.38,-53.152,-3.518,0.216,-2.346,-0.523,-53.24,-2.757,-1.432,0.812,-1.411,-56.45,-0.038,0.077,1.378,2.481,-47.701,-10.246,-2.856,1.583,12.49],[-78.803,-12.756,-0.738,-0.682,0.457,-76.809,-12.479,-2.839,-0.068,2.051,-76.709,-10.279,0.065,-1.85,1.41,-79.499,-12.176,-0.629,-3.014,-0.832,-80.763,-10.899,-4.843,1.399,0.462,-69.917,-25.874,-9.826,0.421,0.9],[-89.604,-18.231,-4.633,-0.419,0.98,-88.936,-21.269,-2.133,-1.776,0.78,-88.575,-27.959,-3.697,1.095,0.484,-87.455,-27.246,-4.377,-3.873,1.339,-82.422,-30.133,-4.102,1.141,0.765,-76.8,-43.865,-10.02,-0.089,0.683],[-94.557,-33.335,-11.201,-1.679,0.062,-94.226,-37.655,-9.775,-2.073,0.556,-96.087,-38.384,-9.676,-1.362,-0.807,-94.262,-39.354,-9.885,-0.13,1.15,-90.682,-47.815,-10.378,1.369,0.504,-86.293,-52.66,-22.954,-7.024,-1.206],[-96.089,-50.859,-12.363,-4.333,-1.428,-95.702,-49.353,-15.246,-2.736,-1.791,-96.076,-49.443,-12.394,-0.78,-1.772,-97.041,-52.924,-11.702,-3.009,-0.038,-92.138,-57.12,-18.687,-4.102,-0.891,-90.894,-62.132,-27.924,-5.734,-2.164]],
"vp": [[419.851,90.588,27.136,-267.192,175.005,101.313,-18.634,4.597,59.359,33.354,45.041,-4.418,-27.219,19.414,-36.363,7.418,-2.963,-7.673,-4.385,-7.995,-4.469,-6.802,-4.73,-2.19,-2.837,-17.806,-9.715,1.191,-1.866,3.257],[2525.201,164.422,217.382,-84.765,-57.23,601.161,76.153,32.569,15.975,31.895,282.533,35.082,2.247,18.511,0.613,51.565,1.968,3.291,-0.707,17.734,19.707,-2.581,-4.396,-1.918,-9.306,-6.958,-7.306,-1.905,-4.134,-17.304],[5120.938,1286.061,544.902,349.848,287.559,989.512,332.626,106.756,90.045,20.012,494.607,180.026,48.885,51.648,-20.316,93.42,40.192,3.333,9.264,-0.583,53.838,2.202,11.369,2.908,3.096,5.218,-1.144,7.396,-1.938,-4.572],[6731.326,3144.734,1000.836,232.391,203.248,1288.712,593.094,272.969,82.822,4.632,653.197,366.658,96.352,26.997,31.365,122.809,67.03,39.56,10.167,-10.732,41.524,24.352,2.844,-1.846,-14.556,10.687,8.785,0.958,-13.536,-3.933],[7308.474,4936.459,2169.871,846.809,516.582,1441.878,1088.319,304.503,119.571,112.091,768.789,512.354,168.534,91.321,55.418,143.215,83.558,35.433,6.444,-0.982,57.471,56.268,27.863,1.147,0.209,17.599,8.888,15.832,6.185,-0.857],[7907.515,7621.329,2687.498,1212.599,1334.044,1530.174,1439.44,591.528,243.347,113.21,744.889,674.882,327.908,173.274,95.902,148.192,144.212,72.87,36.495,18.171,65.1,60.031,22.709,12.871,8.504,31.513,19.854,17.282,2.67,2.512]]
}