{
"KTrans": [[8.107,5.355,4.464,3.767,3.598,19.439,11.649,8.196,10.265,6.926,37.558,20.39,14.948,12.961,12.295,97.774,94.46,74.558,71.677,62.276,96.498,82.299,92.756,110.068,121.097,362.102,47.196,50.659,132.81,91.591],[18.719,7.734,4.42,5.093,4.341,22.437,13.713,10.052,8.637,6.978,33.219,22.459,12.779,11.279,9.703,7.113,82.427,55.009,43.763,37.335,21.756,45.327,90.696,85.455,75.158,78.401,127.193,100.885,56.176,97.457],[4.869,9.953,9.525,6.216,4.205,-5.791,16.28,14.264,9.004,7.252,9.104,26.506,16.287,11.244,10.55,2.43,80.408,74.452,42.805,31.227,29.755,45.531,47.338,82.846,71.257,41.05,68.286,62.291,56.533,67.092],[-46.271,23.654,11.515,7.622,6.412,-56.542,26.735,12.411,9.407,8.546,-51.474,39.873,15.574,15.438,10.562,-14.852,6.231,75.129,52.737,35.816,-16.355,-17.152,15.062,79.414,60.253,5.751,57.024,49.016,27.367,59.339],[-67.771,28.705,14.71,10.684,8.418,-79.782,48.939,19.177,12.958,9.908,-72.278,46.612,22.162,17.759,10.881,-42.071,12.354,100.083,54.48,36.205,-36.819,19.657,-5.326,56.167,90.943,-6.227,28.18,57.58,25.957,81.419],[-80.687,5.353,22.903,14.357,10.365,-77.128,20.516,31.789,21.889,11.693,-79.688,2.914,36.276,19.402,13.535,-56.139,6.124,71.492,59.498,34.315,-41.687,14.581,30.345,34.712,90.206,-23.611,22.043,-26.623,28.465,7.927]],
"ve": [[1.311,-0.666,-1.75,-0.457,-2.128,2.46,-0.01,-0.077,-4.705,-4.932,8.571,0.593,-2.416,-5.491,-6.748,43.872,15.442,-1.202,-10.697,-19.008,90.784,205.147,44.968,-0.137,-26.983,187.638,77.513,19.301,7.276,-6.659],[1.814,-0.487,-0.865,-1.167,-1.521,4.244,2.064,0.318,-0.573,-1.484,10.518,4.372,1.491,0.12,-0.23,48.76,23.969,13.761,8.714,4.358,99.954,45.593,38.722,19.029,12.33,206.668,92.966,58.55,39.949,29.019],[2.792,-0.033,-0.287,-0.901,-0.799,5.503,1.392,0.565,-0.031,-0.29,14.562,4.513,2.248,0.942,0.493,50.834,23.709,16.033,10.596,7.17,98.161,48.594,22.519,22.459,17.188,199.163,99.467,62.252,45.199,32.322],[8.916,-0.241,-0.585,-0.739,-0.488,5.596,1.292,0.635,0.572,-0.248,7.786,5.274,2.639,1.487,0.787,49.604,23.933,15.705,11.65,8.402,99.8,50.217,33.809,23.022,17.566,203.083,99.622,66.216,47.601,37.012],[-2.492,-0.022,-0.563,-0.217,-0.525,4.104,3.217,1.48,0.142,0.041,10.701,6.061,2.772,1.671,1.064,48.85,25.297,15.984,11.687,8.762,97.469,51.899,31.147,19.901,19.396,202.786,101.287,65.213,49.187,37.353],[-2.598,-0.578,-0.469,-0.305,-0.765,7.067,2.058,1.21,1.004,0.016,12.723,-0.042,2.885,1.805,1.178,47.93,24.928,22.012,11.686,8.854,98.578,48.111,33.906,20.676,18.51,203.036,100.442,66.374,48.77,39.127]],
"kep": [[7.997,7.295,7.553,7.184,8.572,17.088,12.814,10.098,17.391,15.597,27.343,20.754,18.778,21.266,23.245,37.49,69.107,77.256,93.332,101.79,17.686,37.954,66.197,116.473,162.201,82.185,13.731,32.36,123.969,106.846],[16.493,8.471,5.443,6.432,6.071,17.02,11.593,9.793,9.353,8.734,20.303,17.433,11.187,11.202,10.041,-20.682,46.097,35.84,32.196,31.604,-29.778,6.263,45.104,54.82,55.248,-28.101,26.543,32.195,12.842,50.872],[0.885,9.853,9.881,7.236,5.071,-12.673,14.562,13.662,9.081,7.601,-3.562,20.769,13.785,10.25,10.046,-27.6,43.391,48.838,28.853,22.359,-30.369,2.828,13.429,47.48,45.098,-45.837,-5.917,6.72,12.672,23.942],[-47.674,23.167,12.095,8.423,6.97,-57.894,24.181,11.615,8.778,8.841,-54.204,31.68,12.454,13.76,9.714,-40.457,-12.052,49.002,35.824,25.042,-53.701,-37.461,-10.389,43.946,35.407,-58.475,-13.671,-1.48,-6.939,19.434],[-66.904,26.533,14.943,10.888,8.985,-79.22,42.104,16.995,12.667,9.844,-72.667,36.434,18.299,15.65,9.673,-59.236,-8.812,68.461,37.207,24.805,-64.88,-16.303,-24.614,26.021,57.493,-64.028,-29.819,0.345,-8.223,32.954],[-78.684,3.783,22.465,14.37,11.146,-76.476,15.123,28.947,20.293,11.593,-79.047,-4.064,31.532,16.985,12.113,-68.171,-14.1,45.489,41.374,22.94,-67.846,-19.455,1.32,10.121,56.813,-70.442,-33.735,-47.902,-7.621,-16.15]],
"vp": [[187.138,233.883,174.755,142.233,392.111,-1.734,86.734,2.675,23.928,36.167,19.235,-0.131,25.211,10.536,-25.795,-16.652,-18.571,-29.657,-7.897,-23.966,-33.57,-20.546,-10.485,-20.397,-19.37,-37.941,-17.301,-31.589,-27.536,-26.684],[2340.303,563.842,657.184,900.075,828.474,401.708,99.25,125.952,77.626,105.016,154.326,79.939,46.387,53.994,44.161,-4.993,-14.272,-4.089,4.169,2.828,-23.736,-41.016,-9.073,-22.318,-7.101,-16.375,-52.486,-44.633,-21.812,-18.3],[4524.857,1025.798,946.333,802.038,802.117,809.507,174.672,153.984,180.115,166.465,391.697,114.2,60.6,60.616,97.382,34.188,13.387,25.823,7.251,-5.201,-22.901,-16.869,-2.141,-12.657,-3.439,-20.729,-19.824,-28.278,-24.351,-19.145],[6055.359,2145.539,1255.203,1456.668,1372.941,1215.977,331.134,229.2,219.405,275.5,519.958,164.332,87.188,129.324,100.659,60.693,22.487,-12.222,32.074,19.69,3.617,23.184,8.187,-33.039,-24.295,-11.588,-19.051,-13.68,-30.788,-20.978],[5892.326,3980.324,1414.189,1618.002,1761.354,1368.107,817.748,320.079,234.716,350.989,644.44,455.771,135.801,160.053,140.664,46.873,82.743,18.035,6.499,-5.764,6.136,25.407,23.353,-26.534,14.925,-13.867,4.497,-40.59,-10.448,-35.557],[6050.159,6274.226,2329.808,1649.661,1834.121,1176.512,1461.77,377.865,271.059,292.028,595.124,721.589,234.043,162.63,154.926,66.939,107.41,46.985,-21.511,-17.327,8.154,6.477,5.381,-1.42,-29.995,-16.326,-20.157,2.182,0.288,-6.055]]
}