{
"KTrans": [[5.758,6.886,-6.748,-3.624,-8.755,2.178,8.614,5.633,4.12,8.021,8.35,21.322,19.936,20.678,17.394,45.122,25.983,62.039,68.017,82.755,4.329,49.948,34.794,12.967,94.248,-131.836,-73.648,-106.727,66.451,9.495],[-30.397,-9.051,-0.226,-3.501,-1.029,-27.304,-4.241,1.582,5.035,2.344,-24.391,-1.848,5.237,7.067,8.318,-14.031,-0.786,8.992,15.702,29.792,56.418,-19.608,-0.111,18.094,29.723,38.536,45.265,-30.681,11.867,3.568],[-41.116,-9.575,-4.85,-4.399,0.2,-35.096,-6.057,-3.363,-1.947,0.909,-42.142,-7.194,2.035,0.604,0.668,-39.531,6.665,7.197,2.657,0.129,-46.378,11.077,-42.882,-0.727,3.738,9.813,-9.482,56.766,59.271,18.537],[-59.104,-16.113,-3.148,-4.189,-2.198,-53.025,-17.035,-3.807,-0.375,0.242,-66.553,-11.075,0.772,3.453,3.86,-47.789,-9.391,6.469,23.43,16.626,-56.806,-5.021,25.804,-33.718,18.279,-56.62,24.804,4.862,-39.232,-33.717],[-61.043,-21.907,-7.553,-2.639,-0.463,-66.458,-20.26,-5.629,-0.694,1.682,-63.84,-18.468,-3.105,1.438,3.467,-66.708,-26.511,1.447,12.242,8.972,-61.035,-9.79,8.892,-15.027,5.145,-94.942,-24.152,-12.803,-39.509,29.037],[-69.505,-27.684,-8.665,1.734,-1.75,-77.321,-21.441,-4.891,1.066,-0.064,-76.742,-24.729,1.304,-3.899,-0.148,-61.263,-35.16,-5.632,4.945,21.925,-55.257,-2.919,-15.397,16.038,-3.796,-57.965,-13.229,-12.917,-19.457,-24.4]],
"ve": [[13.909,-36.4,-12.037,56.464,-38.423,12.159,5.654,-52.436,-233.731,-11.409,-24.648,7.532,-52.293,-126.111,-32.231,67.99,-52.749,-21.472,-63.413,-66.756,143.55,49.471,-20.386,-17.701,116.437,248.616,84.328,30.646,-0.852,-17.98],[-44.513,25.861,-7.266,-9.909,-15.434,-4.471,-5.055,-24.522,24.204,1.756,-0.721,-1.006,-73.69,4.015,44.896,44.808,-43.802,15.797,6.631,-44.15,95.574,19.956,37.355,-43.382,19.261,151.657,73.009,61.492,43.079,26.452],[-3.494,-8.646,-386.022,7.868,3.265,-5.719,2.238,5.428,18.703,-0.335,-4.595,-6.432,1.246,6.003,2.291,41.711,22.139,15.336,21.523,8.412,94.899,55.148,24.672,24.406,16.739,193.595,100.337,68.648,47.189,39.466],[-13.151,-3.33,-0.773,-3.546,-6.216,3.691,0.404,-0.223,0.012,-24.721,3.059,-1.763,0.966,-0.222,-6.179,44.542,352.962,9.345,33.207,10.022,94.646,54.657,-94.85,28.657,18.805,194.523,101.069,65.216,48.859,41.024],[-6.825,-1.946,-1.909,-1.454,-0.537,-1.329,-8.992,-0.934,-0.503,-0.513,14.67,1.944,1.68,0.924,0.613,32.088,22.903,-0.147,10.756,12.943,92.511,48.046,29.977,25.388,19.568,205.399,93.978,64.756,51.47,38.938],[11.788,-3.898,-0.739,1.183,-1.127,-23.403,23.817,-0.513,0.59,0.402,47.631,2.367,2.012,1.777,0.627,605.888,43.407,15.161,9.872,10.043,91.189,49.734,33.393,24.767,20.005,197.043,94.22,66.918,51.177,43.703]],
"kep": [[-112.186,-47.639,-7.049,-11.61,26.375,-106.168,-43.132,-23.595,-5.748,-16.811,-118.86,-84.096,-39.893,-51.554,-36.604,-95.623,-235.433,-181.486,-212.46,-198.149,-66.989,-221.819,-372.681,-469.256,-375.107,-16.93,-121.593,-429.255,-518.361,-714.262],[-66.388,-69.109,-124.497,-16.364,-4.576,-69.195,-54.155,-117.736,-49.192,-4.343,-63.775,-56.653,-104.934,-64.189,-26.504,-63.17,-63.159,-119.305,-161.311,-92.733,-43.005,-56.745,-72.484,-188.207,-200.609,-50.843,-2.91,-17.816,-95.499,-291.701],[-63.627,-30.157,-27.924,-58.665,-89.755,-60.769,-23.091,-31.36,-55.809,-129.098,-70.704,-29.348,-23.994,-43.09,-132.196,-70.146,-27.984,-28.834,-54.076,-146.891,-69.284,-36.524,-77.53,-31.315,-85.92,-60.948,-44.915,-0.657,38.918,25.179],[-75.626,-27.379,-9.187,-13.109,-23.031,-74.618,-34.603,-11.753,-7.628,-16.045,-81.604,-28.679,-13.206,-3.073,-13.147,-74.448,-40.64,-19.846,1.851,-1.563,-77.898,-40.115,-20.475,-57.7,-2.004,-76.481,-35.771,-39.154,-61.095,-52.952],[-79.528,-34.121,-17.983,-7.77,-4.019,-82.069,-36.918,-16.01,-7.18,-2.861,-81.964,-35.787,-12.531,-5.824,-0.062,-83.32,-51.854,-25.62,-12.395,-18.087,-81.367,-48.172,-28.864,-50.405,-20.881,-85.118,-58.246,-43.945,-53.965,-4.347],[-85.384,-41.801,-17.027,0.995,-5.498,-89.228,-38.581,-16.251,-4.431,-2,-90.57,-41.753,-12.556,-11.476,-8.162,-82.377,-57.826,-31.894,-19.299,5.934,-79.507,-45.929,-38.756,-17.207,-32.299,-84.408,-58.999,-46.233,-50.37,-51.238]],
"vp": [[-130.54,91.668,281.684,912.73,-24.845,-58.701,-54.793,57.031,-4.086,41.777,-27.147,4.101,29.083,30.524,9.793,-33.716,-3.227,9.578,2.471,-24.783,-42.068,-32.478,3.229,26.174,-10.765,-35.37,-19.207,-2.067,-35.472,-16.712],[2714.94,891.521,-10.382,26.994,-91.321,450.433,190.749,9.646,-66.705,23.202,163.775,82.823,36.619,-38.55,9.565,11.063,-22.741,-27.628,-12.958,-29.405,-18.24,-26.003,-42.383,-42.856,-14.353,-31.676,-47.718,-24.761,-45.801,-31.39],[3704.417,3052.672,527.654,210.915,-96.998,696.391,454.761,234.253,142.244,-4.736,329.423,200.187,138.203,67.477,-4.621,35.959,33.49,-19.799,-20.979,-34.567,-15.718,-21.711,-16.24,-33.559,-24.842,-38.269,-42.256,-37.048,-54.084,-37.555],[4488.441,3336.498,1906.213,1146.914,490.077,955.158,720.121,331.359,79.439,110.832,577.45,409.396,197.751,75.729,63.793,55.101,72.54,-14.51,40.1,-25.375,14.702,-8.963,-32.708,-20.591,-49.6,-33.458,-39.314,-52.239,-40.618,-24.096],[5362.591,4960.363,2728.58,2511.842,1133.635,971.547,1173.366,759.244,486.33,263.084,521.235,528.805,327.49,268.379,46.677,101.546,39.892,38.784,1.275,49.918,0.988,-2.657,-25.441,-0.183,-33.176,-5.983,-18.195,-46.975,-24.213,-64.005],[6417.111,6384.265,4787.612,4550.629,1601.572,1344.42,1463.558,1028.287,583.466,480.575,781.21,643.327,377.603,320.418,169.05,91.71,90.688,77.146,58.838,9.773,-7.426,24.027,-2.493,-14.2,-9.584,-13.987,-37.263,-41.892,-34.69,-30.36]]
}