{
"KTrans": [[-35.436,5.796,9.932,8.04,8.392,-14.275,0.521,-1.687,-0.02,0.249,-14.832,3.98,5.917,10.996,0.552,-3.555,13.641,17.424,12.878,9.138,26.508,36.288,37.626,21.924,20.556,135.333,94.958,70.912,35.926,64.672],[-76.664,-19.544,1.368,2.885,2.61,-79.869,-6.402,1.523,7.855,1.757,-78.873,-8.023,-0.871,3.588,2.152,-73.433,5.341,6.769,3.156,8.788,-51.588,11.715,18.443,11.495,18.158,-3.62,63.375,32.529,36.795,19.024],[-93.446,-54.375,-6.183,0.508,4.723,-94.892,-49.789,-7.71,-4.669,3.288,-93.137,-47.765,-5.533,-1.991,-2.028,-90.17,-36.432,-4.183,4.016,4.47,-89.325,-23.554,5.36,8.733,7.961,-81.6,-2.806,38.125,19.153,19.15],[-96.763,-70.678,-25.817,1.347,-0.421,-94.302,-70.571,-27.682,-12.906,4.553,-96.482,-71.479,-18.273,-4.816,0.892,-93.497,-62.93,-17.529,-0.398,4.928,-88.487,-49.291,-4.357,9.173,9.614,-78.307,-41.054,-0.49,24.035,34.323],[-98.302,-85.542,-44.213,-16.808,-6.815,-97.646,-87.612,-38.466,-6.283,1.073,-96.799,-85.345,-38.675,-11.346,0.047,-96.85,-78.969,-43.86,-11.492,5.609,-98.147,-77.896,-38.743,-4.023,5.557,-84.149,-55.593,-16.224,12.776,21.184],[-98.546,-88.304,-62.195,-17.997,-6.053,-98.584,-87.66,-60.096,-25.245,-7.073,-98.276,-88.705,-58.9,-24.482,-0.865,-96.849,-86.303,-60.851,-18.017,-1.28,-95.638,-82.686,-55.315,-10.225,4.818,-87.333,-71.565,-37.1,2.632,16.944]],
"ve": [[-68.262,63.999,9.749,-18.492,-70.696,-2.174,-1.977,77.498,66.261,69.486,47.307,35.152,74.658,39.912,80.338,6.187,-289.861,30.907,-20.132,-16.093,-22.341,23.261,23.773,-137.483,-43.255,37.596,41.092,-4.434,-2.281,-13.997],[-150.912,0.717,3.779,1.494,1.825,-56.9,-4.603,2.547,0.437,2.845,-52.487,-0.39,1.085,1.845,2.44,-52.174,13.099,2.781,3.052,8.076,-2.944,7.583,6.785,3.781,8.367,22.694,59.405,9.988,-72.839,11.53],[-35.245,-19.867,-4.759,-1.035,-0.047,-109.155,-21.89,-5.469,-2.778,-2.586,-61.579,-25.998,-1.546,-1.585,-1.958,-67.1,-10.566,-3.369,0.339,-0.518,-134.037,-16.671,-3.825,4.38,3.724,-55.382,-4.604,23.717,4.403,2.525],[-49.618,-40.569,-16.55,-2.426,-2.126,-73.889,-20.558,-15.773,-6.816,-0.733,-78.009,-33.338,-9.023,-4.336,-2.31,-84.648,82.668,-10.388,-2.663,1.004,-42.914,-26.231,0.407,1.282,2.841,-20.428,-22.162,-5.135,4.558,8.958],[-83.626,-69.658,-24.969,-9.9,-4.422,-91.306,-60.538,-24.04,-3.684,-2.096,-61.16,-51.114,-26.4,-8.203,-1.943,-87.644,-69.124,-24.761,-7.252,-0.82,-98.59,-57.44,-19.56,-5.339,-1.549,-274.611,-33.189,-11.718,8.589,1.849],[-98.47,-66.501,-43.303,-10.713,-5.726,-78.023,-63.654,-31.597,-13.486,-4.984,-71.171,-72.123,-37.181,-14.15,-3.468,-81.549,-60.915,-36.096,-9.996,-2.921,-90.884,-69.26,-36.448,-8.69,-1.716,57.568,-38.229,-27.319,-3.041,5.771]],
"kep": [[-46.872,-0.665,2.29,4.484,10.047,-31.598,-5.439,-10.679,-11.584,-7.877,-34.901,-3.611,2.223,8.84,-16.389,-21.801,0.303,10.441,7.65,6.142,-18.283,0.944,18.927,10.38,15.87,35.237,55.734,36.495,-8.607,55.971],[-82.832,-19.429,-2.807,2.375,2.674,-82.256,-3.645,-0.298,7.778,-0.12,-83.124,-10.451,-2.658,2.203,0.861,-78.356,-8.784,2.292,0.409,5.334,-65.457,-3.54,2.782,4.987,10.782,-50.482,5.274,7.77,14.024,3.323],[-95.107,-47.318,-3.562,0.676,4.696,-98.845,-43.25,-3.289,-2.935,5.378,-94.807,-39.64,-6.056,-2.316,-0.413,-95.21,-34.11,-5.405,1.952,4.436,-87.926,-33.551,1.776,1.793,2.215,-77.407,-25.973,0.173,9.93,9.519],[-98.89,-67.356,-15.094,1.278,0.444,-96.185,-62.66,-19.476,-8.289,4.388,-99.08,-68.785,-15.207,-2.041,2.667,-96.308,-57.427,-12.416,-0.15,2.205,-91.097,-53.697,-9.769,4.444,6.341,-83.213,-50.94,-17.303,7.001,15.212],[-99.348,-81.059,-34.764,-11.099,-3.849,-99.611,-81.563,-29.377,-4.995,1.708,-99.01,-78.676,-28.244,-5.659,-0.489,-96.937,-72.99,-33.574,-9.171,4.794,-95.235,-75.71,-36.119,-3.439,3.023,-90.495,-61.451,-31.962,-5.882,7.977],[-99.777,-87.183,-49.547,-12.523,-2.467,-98.615,-83.411,-49.813,-17.445,-4.679,-99.245,-84.206,-46.871,-15.514,0.473,-96.68,-83.445,-53.16,-12.516,-0.255,-96.269,-80.801,-47.705,-9.131,2.702,-91.355,-75.438,-45.613,-10.374,-0.589]],
"vp": [[1818.752,311.146,-436.99,15.468,18.268,273.762,100.951,60.887,6.096,101.989,88.017,30.498,26.263,-24.836,32.322,20.73,-2.401,-10.901,-6.191,-7.086,-5.957,-7.398,-22.757,-17.008,-9.899,-20.384,-20.844,-20.559,-8.772,-22.946],[5436.066,1931.02,361.231,184.603,-214.028,1102.456,201.269,125.39,-137.62,43.505,521.512,120.495,88.949,2.393,-27.243,81.493,-12.553,-0.957,-3.658,-20.11,17.733,7.686,-16.522,-6.369,-27.434,-12.778,-30.488,-16.6,-18.194,-2.617],[8171.793,6993.292,1995.807,350.441,-225.613,1620.68,1092.056,384.146,329.624,110.249,767.103,610.674,109.088,79.213,91.864,167.236,65.113,31.073,2.682,11.82,64.9,28.777,15.331,-14.737,-12.39,23.009,6.554,-37.169,1.37,-12.144],[8540.512,9783.309,5226.003,886.528,1317.569,1595.939,1893.285,981.298,530.509,-32.482,860.407,1084.089,336.564,211.173,119.999,152.809,167.91,76.001,25.346,0.734,66.564,56.778,8.126,-5.789,-2.172,11.437,24.622,6.9,-8.049,-23.539],[9196.06,13851.731,8216.758,3930.41,2541.195,1849.076,2686.814,1462.212,347.114,201.693,802.54,1225.621,727.148,351.719,108.843,169.904,232.823,165.276,66.637,5.612,97.11,106.013,67.246,25.899,13.111,19.835,36.267,13.837,-11.74,-13.838],[9005.429,14744.698,13683.348,4875.801,2630.763,1840.752,2800.504,2542.062,1364.435,625.827,880.743,1388.012,1208.485,539.619,225.397,179.201,254.212,243.971,94.618,31.029,80.766,130.098,125.528,40.71,8.92,18.379,37.508,41.667,7.794,-11.493]]
}