{
"KTrans": [[8.027,14.793,14.882,19.053,13.9,10.471,18.208,14.59,17.07,17.59,17.612,12.407,11.807,18.415,18.284,29.752,27.038,22.677,29.388,28.011,38.997,41.995,45.891,42.293,36.315,77.487,73.598,64.969,67.18,63.879],[-43.23,-12.008,2.317,4.252,9.308,-43.735,-6.08,4.059,4.188,9.359,-42.408,-5.786,4.443,4.749,7.768,-36.65,-2.692,6.837,12.176,12.986,-30.523,3.199,12.702,16,14.588,-7.246,20.053,23.13,26.515,25.65],[-74.668,-27.856,-17.654,-5.037,2.529,-70.245,-22.939,-8.523,-3.675,1.92,-73.105,-32.617,-13.245,-3.385,-0.407,-59.518,-22.5,-9.938,0.453,3.691,-62.269,-23.595,-5.735,5.099,8.124,-49.774,-14.443,-0.508,8.479,16.846],[-84.315,-42.765,-29.032,-15.31,-9.239,-82.525,-50.227,-28.52,-13.358,-8.605,-82.167,-47.521,-26.251,-14.917,-8.282,-78.701,-48.899,-25.99,-15.032,-4.429,-77.079,-44.005,-22.169,-11.504,-2.653,-74.174,-37.383,-18.929,-2.704,1.468],[-90.191,-59.18,-38.757,-25.69,-16.816,-91.346,-58.963,-40.459,-23.807,-17.029,-88.076,-58.172,-37.901,-24.539,-15.034,-85.426,-57.622,-36.423,-21.674,-14.444,-82.823,-57.043,-38.633,-22.012,-12.915,-77.244,-55.051,-34.326,-19.585,-8.921],[-93.42,-66.862,-46.713,-34.322,-23.997,-91.796,-66.817,-51.011,-39.065,-23.899,-91.038,-66.198,-51.392,-36.413,-22.999,-89.227,-69.896,-47.848,-36.552,-22.068,-87.538,-68.916,-48.291,-33.8,-22.268,-82.409,-65.505,-48.59,-30.448,-18.992]],
"ve": [[13.074,-1.69,205.66,72.237,-55.487,9.599,-7.068,53.298,-1129.654,78.818,17.534,13.94,-1028.437,27.603,113.812,36.558,20.839,32.414,27.518,-133.139,31.221,32.596,11.263,24.299,112.212,71.517,37.652,42.596,18.373,59.791],[-11.712,-3.759,2.433,4.133,6.483,-3.731,-1.248,0.494,4.048,6.17,-5.607,-1.886,2.562,4.794,6.369,0.976,4.148,5.733,6.878,7.739,12.681,9.933,9.522,11.697,12.074,47.832,27.527,19.104,16.867,16.267],[-37.125,-10.627,-5.349,-1.928,1.24,73.885,-7.218,-1.295,-1.791,0.639,-33.062,-12.119,-3.668,-1.351,0.546,-13.382,-0.828,0.555,2.665,4.187,2.153,2.722,5.086,6.054,5.978,32.097,18.921,14.39,13.419,13.026],[-56.445,-15.268,-10.693,-5.129,-2.764,-128.083,-19.014,-9.534,-5.071,-2.811,-14.311,-17.638,-9.84,-5.045,-2.688,-18.884,-14.924,-6.627,-3.21,1.062,-15.775,-5.179,-0.717,0.272,3.003,17.182,11.969,7.844,9.625,8.638],[-56.45,-25.141,-14.147,-9.13,-6.64,-56.124,-22.503,-13.96,-7.341,-6.126,-48.733,-20.747,-12.596,-8.172,-4.781,-26.222,-19.953,-9.855,-4.33,-3.026,-30.349,-12.605,-6.353,-2.271,-0.259,17.775,0.915,2.038,4.736,5.402],[-58.689,-28.096,-19.423,-13.242,-8.57,-50.781,-26.013,-20.113,-14.737,-8.501,-36.445,-27.519,-18.835,-12.633,-7.543,-38.283,-24.69,-14.199,-10.857,-5.266,-26.704,-17.998,-10.79,-5.258,-3.113,14.566,-4.576,-3.645,0.62,2.637]],
"kep": [[-27.856,-24.587,-26.786,-29.014,-37.996,-31.39,-20.487,-30.138,-31.562,-31.997,-24.751,-23.611,-33.585,-31.818,-35.209,-25.233,-19.018,-24.433,-18.935,-20.498,-23.504,-16.307,-5.492,-6.055,-15.018,-22.933,-5.136,-2.253,9.117,10.854],[-55.932,-34.114,-27.394,-27.159,-25.211,-55.95,-31.641,-24.987,-27.174,-25.087,-56.464,-31.025,-26.218,-27.396,-26.219,-56.074,-32.456,-26.686,-23.701,-23.761,-56.532,-32.742,-25.545,-24.517,-25.433,-55.802,-32.422,-25.281,-21.447,-21.44],[-77.214,-42.584,-37.25,-30.022,-26.654,-73.951,-40.893,-33.209,-29.1,-26.68,-74.531,-44.974,-35.341,-29.203,-28.3,-70.792,-44.563,-35.402,-29.216,-27.996,-74.374,-46.878,-35.336,-28.368,-26.133,-73.493,-48.54,-37.525,-30.851,-25.238],[-83.971,-52.32,-42.913,-35.603,-32.483,-84.772,-56.337,-43.358,-34.132,-32.055,-82.784,-54.7,-41.468,-35.331,-31.839,-83.005,-57.274,-42.88,-36.677,-31.682,-82.066,-58.287,-43.763,-36.3,-31.768,-83.936,-60.384,-46.105,-36.132,-32.575],[-89.449,-61.771,-48.776,-41.17,-35.616,-91.468,-62.892,-50.544,-40.772,-36.155,-88.222,-63.21,-49.253,-40.712,-35.508,-87.071,-62.593,-49.677,-40.99,-36.336,-85.887,-65.503,-53.279,-42.461,-36.934,-86.637,-68.69,-54.127,-44.775,-37.634],[-93.309,-69.149,-53.379,-45.649,-40.16,-92.033,-68.82,-56.573,-48.716,-39.966,-90.54,-67.068,-57.347,-47.682,-39.84,-90.549,-72.044,-56.534,-48.856,-40.736,-89.944,-73.383,-58.573,-49.702,-42.21,-89.019,-74.594,-61.882,-50.377,-43.091]],
"vp": [[-162.835,-603.825,-444.988,-969.286,-169.182,-135.586,-57.813,-55.702,-90.203,-69.417,-44.964,-14.706,-16.784,-73.211,-60.441,-13.08,-7.908,-2.031,-19.231,-12.645,3.144,-5.086,-6.633,-8.982,-1.89,-2.599,-3.521,-2.454,-1.311,-2.554],[2125.604,957.321,-271.601,-425.456,-791.907,410.103,40.818,-6.346,-17.506,-137.262,221.109,71.273,-33.857,-17.787,-57.605,43.26,9.417,2.194,-9.538,-12.9,19.246,8.665,-3.698,-7.142,-5.091,1.679,-2.807,-1.533,-2.758,-2.222],[4832.826,2704.895,1909.879,557.902,-450.672,822.727,268.023,-21.927,124.086,-26.618,512.562,316.371,164.655,42.518,23.666,65.32,31.578,19.553,-0.716,-5.381,37.282,21.569,10.467,-2.084,1.325,13.944,6.51,4.057,0.368,-5.947],[6048.244,3739.612,3805.243,1882.724,1100.149,1134.206,1033.517,631.505,322.154,206.882,586.792,457.536,350.466,219.448,133.655,102.386,108.071,65.195,52.74,8.402,59.084,45.207,22.157,21.545,6.806,27.805,16.217,13.098,1.347,3.778],[6802.613,6191.421,4649.767,3772.429,2961.772,1483.906,1272.124,1001.288,602.342,545.077,654.195,542.662,429.629,336.201,210.214,119.664,128.412,88.276,51.845,48.866,61.757,63.806,51.146,37.563,22.905,24.742,31.491,24.725,16.459,9.279],[7695.954,7569.306,6645.037,5699.333,4319.79,1472.365,1465.936,1494.73,1353.146,856.874,700.163,756.574,719.045,581.724,349.74,137.877,160.661,127.497,124.928,70.734,65.732,83.567,67.633,50.654,38.956,27.54,39.112,37.689,24.749,17.617]]
}