{
"KTrans": [[-6.677,7.681,-5.585,1.441,-7.196,6.238,8.495,9.119,13.918,8.989,10.588,11.845,21.17,17.472,20.321,9.051,36.356,72.091,78.618,82.131,-18.892,19.988,51.372,80.555,86.784,64.725,-149.824,-161.143,-0.777,-65.379],[-26.457,-8.276,-0.433,2.187,-2.109,-23.396,-1.804,1.325,5.065,3.648,-24.9,0.939,4.352,9.741,7.01,-28.568,-2.956,-10.945,14.817,29.025,-9.57,-40.866,-6.81,-2.917,36.833,106.305,37.58,36.911,-42.986,21.461],[-35.4,-11.977,-4.355,-4.544,-0.356,-39.906,-9.427,-3.013,-1.403,0.616,-36.412,0.877,1.458,-2.609,2.268,-36.695,19.396,-3.242,-8.434,-8.756,-45.665,-19.021,-36.773,15.268,-14.148,-93.111,-21.15,5.718,-9.886,-41.999],[-54.058,-13.379,-3.917,-3.549,-3.467,-51.378,-10.876,2.036,-2.294,-1.092,-46.063,-7.067,1.9,1.77,2.077,-43.756,-4.512,19.148,9.126,18.354,-48.065,3.808,-6.124,2.251,-10.919,-78.921,52.804,-25.776,-36.837,14.871],[-66.403,-28.625,-5.916,-3.967,-2.278,-58.058,-12.615,-2.048,-2.183,-0.112,-54.745,-14.424,0.5,2.456,2.05,-62.127,-9.896,8.985,18.237,15.113,-68.995,9.965,-25.139,22.793,19.632,-37.903,-23.624,56.314,33.131,32.491],[-67.782,-27.746,-10.638,-5.616,-0.43,-72.814,-21.765,-4.383,-1.738,0.094,-70.828,-28.173,-0.694,2.449,4.204,-63.597,-18.632,-0.184,25.547,20.009,-48.84,-38.705,-6.409,-7.906,9.732,-51.515,-39.957,13.43,38.167,19.331]],
"ve": [[53.071,-12.302,-20.897,-221.226,-72.564,1893.131,-7.204,386.592,27819.84,-140.429,-7.922,312.399,-65.434,-44.155,-223.168,50.769,-13.646,-2.698,-72.222,-60.787,96.767,23.607,-7.24,-31.676,-49.165,185.825,84.63,25.348,2.923,-16.91],[-0.697,-4.377,-3.123,-19.93,8.885,-0.259,-4.104,5.427,-191.695,-22.189,-5.334,5.115,-7.711,1.793,20.536,37.35,17.982,20.816,-16.226,45.165,99.468,52.03,29.095,14.227,-22.651,189.039,98.751,63.939,42.398,24.078],[-6.158,-2.415,-5.487,39.158,4.118,-15.98,-1.403,-2.594,-24.872,-2.708,0.35,43.693,-2.077,15.84,0.475,53.936,22.849,14.518,10.641,7.197,89.76,47.506,35.203,22.631,11.587,199.082,96.78,67.016,52.122,39.061],[7.419,-1.036,-1.11,-2.045,-1.78,-1.674,0.24,-0.082,-1.825,-3.841,5.9,2.302,1.449,-0.046,-5.848,59.605,21.634,20.337,16.623,5.891,96.325,-33.275,31.17,24.814,20.614,192.558,94.856,82.131,49.336,40.152],[-6.91,-4.12,-0.927,-2.035,-1.161,-1.739,1.184,0.927,-0.884,-0.598,8.83,2.252,2.263,1.432,1.451,48.634,26.634,14.943,11.651,1.539,95.289,47.451,34.912,24.622,21.003,199.28,95.751,65.521,59.029,37.766],[-55.095,-3.581,-1.297,-0.81,-0.104,-1.026,1.346,0.158,-1.894,0.162,0.936,3.37,2.867,2.393,1.444,46.481,19.925,17.507,12.191,6.303,88.482,50.619,32.643,26.7,22.027,214.778,96.699,65.982,48.05,42.834]],
"kep": [[-113.901,-49.091,9.049,-26.554,25.882,-122.844,-40.299,-5.658,-31.956,-35.232,-114.382,-61.129,-49.977,-44.129,-44.876,-143.61,-244.68,-185.839,-192.712,-202.781,-95.581,-275.682,-380.55,-418.322,-438.898,-14.732,-183.869,-533.206,-635.84,-833.49],[-58.196,-62.266,-120.068,-38.854,1.891,-58.785,-49.973,-136.442,-46.413,-14.535,-62.639,-50.957,-133.714,-62.691,-16.324,-77.346,-69.702,-156.909,-186.299,-107.53,-61.184,-82.068,-108.332,-243.909,-183.397,-34.084,-4.788,31.22,-135.911,-275.569],[-61.473,-22.831,-21.769,-62.931,-110.744,-65.991,-28.066,-24.519,-49.02,-118.521,-63.165,-17.828,-17.055,-68.347,-119.821,-68.001,-21.498,-46.566,-91.497,-188.911,-71.567,-50.42,-83.963,-34.724,-148.401,-81.233,-58.091,-42.459,-32.002,-74.123],[-72.051,-25.046,-9.21,-14.537,-22.605,-72.172,-25.63,-4.489,-16.293,-21.907,-68.765,-24.709,-9.529,-6.176,-16.863,-71.12,-43.111,-11.344,-14.452,1.328,-73.518,-41.57,-46.166,-40.973,-56.093,-82.295,-30.799,-54.014,-59.285,-14.486],[-81.822,-41.928,-13.437,-9.605,-7.038,-75.648,-26.131,-12.059,-10.162,-5.165,-73.659,-31.786,-9.11,-3.072,-4.298,-80.204,-42.803,-17.038,-3.122,-0.936,-82.465,-35.987,-57.143,-12.952,-17.95,-78.029,-57.488,-12.934,-21.839,-7.463],[-81.18,-41.167,-16.393,-11.091,-3.627,-85.891,-33.643,-14.065,-6.452,-4.972,-85.939,-45.132,-10.787,-4.043,0.362,-81.078,-44.925,-30.145,2.585,3.848,-79.39,-63.916,-39.53,-38.117,-24.206,-82.094,-69.078,-36.924,-16.15,-29.54]],
"vp": [[639.448,76.777,202.675,-347.741,123.562,-52.237,33.849,-3.459,29.361,47.557,-19.89,-24.205,-9.816,-15.979,-22.116,-19.87,3.347,-11,-20.471,-2.422,-11.32,-15.65,3.373,2.913,13.985,-50.555,-7.592,3.874,-12.1,10.213],[1994.207,615.049,-45.168,-423.253,-131.515,489.772,211.187,-20.39,-20.078,60.765,172.902,31.129,-17.138,-17.716,-23.175,25.234,8.365,-0.732,-26.449,-2.299,-12.158,-33.914,-24.448,-8.402,-19.777,-54.731,-47.115,-41.9,-22.063,-16.935],[4665.458,1973.598,1368.699,759.458,-191.023,862.013,267.797,174.806,71.059,-2.264,464.71,167.452,79.751,36.315,-6.499,57.76,21.317,14.924,7.098,2.265,-0.334,-22.123,4.193,-26.324,-11.066,-3.661,-29.172,-49.647,-31.556,-8.837],[5502.836,3427.603,1447.376,1317.992,409.611,1089.112,720.697,418.095,235.189,2.356,527.213,312.224,194.21,59.587,123.884,82.136,75.424,15.025,-23.159,7.207,28.251,-2.396,-8.869,-35.081,-29.253,-23.475,-37.559,-26.841,-39.193,-38.606],[6524.249,5267.844,2486.012,1663.22,653.935,1132.054,1180.305,649.137,361.463,149.983,550.403,483.555,252.929,116.537,128.885,99.828,78.432,9.59,37.005,-14.245,24.633,10.269,19.239,-10.517,-5.766,-29.16,-24.749,-30.14,-26.71,-53.803],[6243.194,7593.105,3712.266,3254.9,2131.733,1243.182,1444.46,916.445,547.372,159.259,602.662,714.089,487.852,257.256,171.33,74.566,93.116,115.417,58.927,28.622,14.008,42.148,18.246,29.971,3.763,10.171,4.385,-28.033,-29.302,0.225]]
}