{
"KTrans": [[-1.134,6.14,13.7,15.07,15.975,13.754,20.947,19.299,21.456,14.733,31.751,30.087,26.104,25.974,24.914,114.212,85.766,77.411,84.656,75.903,233.326,174.183,152.591,163.442,143.105,226.137,284.533,336.552,265.987,315.026],[-34.197,-8.254,-1.634,4.429,7.103,-30.619,-3.331,3.007,5.422,8.31,-19.299,2.48,3.704,12.88,9.413,12.599,40.006,40.653,32.431,35.007,21.784,77.587,75.235,73.684,60.373,-73.458,140.173,154.817,139.078,119.928],[-52.8,-23.046,-8.392,-4.238,1.508,-48.004,-16.927,-8.642,-1.914,-0.341,-46.138,-12.801,-5.679,1.601,3.995,-18.148,11.153,17.687,18.801,19.57,-11.316,44.337,48.252,39.939,44.032,10.681,93.622,95.824,91.316,91.142],[-65.282,-32.143,-19.77,-11.437,-6.341,-57.942,-29.964,-18.369,-11.173,-4.499,-60.288,-28.679,-15.43,-8.528,-4.109,-43.298,-3.156,-0.664,5.991,9.653,-31.707,20.342,19.905,29.486,31.186,-78.267,41.858,61.842,80.042,62.676],[-71.456,-38.087,-25.92,-19.341,-12.692,-68.832,-35.937,-24.157,-17.948,-10.257,-68.988,-36.621,-22.723,-13.603,-9.194,-53.915,-18.496,-8.392,0.155,4.598,-59.095,-0.77,8.46,14.579,18.951,-51.071,9.302,47.139,49.404,50.782],[-79.452,-45.869,-30.583,-21.073,-17.005,-75.265,-41.625,-30.508,-21.61,-17.736,-75.69,-43.394,-31.058,-20.984,-15.936,-68.576,-28.856,-15.731,-12.22,-2.96,-54.698,-14.378,-1.303,1.259,11.212,-72.79,-41.862,34.149,40.435,43.308]],
"ve": [[23.385,27.437,442.659,34.83,-48.478,15.264,149.325,308.521,8.08,38.979,28.09,-226.603,-128.464,-153.362,1572.883,43.53,33.495,69.236,20.648,19.394,97.704,40.313,23.481,-24.946,2.9,177.612,80.344,36.304,-28.679,-2.363],[2.04,0.596,4.401,5.595,12.072,8.355,2.62,5.49,5.573,10.089,10.115,2.686,3.521,6.823,13.868,42.994,22.858,16.993,13.165,13.646,97.657,41.125,27.551,24.477,20.311,186.813,84.249,61.897,43.872,34.104],[-11.185,-3.716,-2.504,-0.719,1.011,9.28,-0.753,-2.417,-0.214,2.84,8.761,-0.49,0.783,1.95,3.338,39.299,19.096,12.787,9.622,9.203,85.693,42.653,28.006,20.85,17.619,150.226,93.375,61.353,43.55,35.372],[0.364,-1.45,-4.777,-3.121,-1.044,4.255,-2.398,-1.536,-0.979,-0.564,11.554,0.358,-0.732,-1.535,-0.257,435.943,17.22,12.238,7.189,7.492,86.757,42.732,27.898,19.191,15.93,187.151,86.133,61.468,44.851,34.287],[-14.664,-4.218,-4.61,-4.991,-2.978,2.057,-2.119,-2.798,-2.28,-2.922,8.182,-1.559,-2.404,-1.781,-1.583,55.736,19.618,11.45,7.44,5.838,98.282,42.213,26,18.704,15.535,166.422,102.401,56.638,42.654,32.983],[2.144,-3.964,-5.966,-3.867,-5.221,-48.064,-1.196,-3.214,-3.671,-2.914,8.308,0.711,-2.749,-2.905,-1.935,56.624,19.107,9.795,5.975,5.05,95.991,44.153,27.128,17.321,13.27,188.911,101.589,63.484,41.823,33.86]],
"kep": [[-43.669,-43.794,-46.996,-52.629,-60.613,-35.194,-27.319,-39.92,-39.852,-65.29,-24.557,-24.443,-34.59,-42.361,-50.853,-4.507,-4.36,-1.585,17.167,13.128,6.903,26.029,33.091,59.726,61.325,-23.85,31.429,94.826,87.242,159.496],[-59.489,-41.352,-40.224,-36.839,-38.997,-56.314,-39.524,-37.361,-36.865,-37.421,-52.537,-36.543,-36.358,-33.099,-38.459,-51.909,-27.825,-23.968,-26.157,-24.705,-60.289,-21.219,-13.648,-12.115,-16.166,-88.919,-21.794,-1.435,4.295,2.911],[-70.281,-49.072,-40.744,-39.229,-36.779,-69.443,-46.985,-40.974,-38.387,-38.965,-68.001,-44.475,-41.2,-37.356,-36.783,-63.785,-41.348,-34.494,-31.903,-31.316,-70.733,-36.822,-27.451,-27.432,-23.237,-74.174,-37.111,-24.067,-16.982,-11.786],[-77.81,-56.475,-47.019,-42.597,-40.557,-74.362,-54.589,-47.799,-43.709,-39.641,-77.078,-54.879,-46.473,-41.63,-39.768,-76.2,-47.97,-44.519,-38.024,-36.081,-76.569,-47.612,-41.357,-32.095,-29.163,-92.187,-53.138,-37.403,-22.837,-24.459],[-82.836,-59.114,-51.307,-46.679,-43.605,-80.497,-58.746,-50.911,-47.281,-42.029,-82.596,-59.335,-50.238,-44.891,-42.184,-80.269,-57.264,-48.484,-41.67,-38.044,-85.575,-56.293,-46.108,-39.687,-35.635,-88.267,-63.685,-41.926,-34.798,-29.324],[-87.172,-64.213,-53.828,-48.478,-45.079,-85.549,-62.516,-54.817,-48.993,-46.911,-86.241,-64.396,-55.484,-48.986,-46.374,-86.876,-62.641,-52.017,-48.091,-42.126,-85.285,-63.032,-51.477,-46.012,-38.637,-92.343,-80.146,-48.07,-38.421,-33.305]],
"vp": [[-256.462,-380.284,466.931,205.249,296.683,62.74,-71.156,125.946,-10.679,124.815,4.902,39.254,-37.092,116.4,53.14,-23.437,9.667,-4.024,-18.402,4.061,-18.162,-23.418,-16.755,1.136,-0.847,-22.813,-15.19,-19.746,-6.4,-1.909],[2719.393,1282.37,912.115,-373.442,304.075,561.922,219.228,-33.208,-104.165,-69.591,315.319,122.549,-38.977,15.407,-25.974,46.085,15.774,-2.79,-31.63,-20.158,20.443,-29.674,-8.164,13.019,-18.308,-2.834,-29.327,-17.471,-12.697,-11.674],[4762.508,2964.366,1800.653,290.462,-632.412,1146.146,824.146,369.236,84.282,-97.727,484.673,312.921,64.889,149.032,60.354,74.093,74.017,28.804,-12.901,-7.396,23.159,20.241,13.022,-22.741,-8.695,-4.258,-8.917,-20.367,-22.3,-17.872],[5870.592,6710.616,3083.751,3343.304,2006.788,948.183,1013.251,722.582,469.628,487.867,509.495,442.745,298.063,272.553,108.73,95.784,83.925,35.503,27.002,2.438,22.898,37.034,2.554,0.047,8.395,10.778,-1.377,-5.719,1.284,-28.569],[6346.957,7551.013,6158.437,3622.857,3043.806,1321.523,1509.293,1289.791,940.881,442.107,623.979,807.301,568.148,440.227,271.784,101.375,131.701,89.829,70.589,51.029,49.902,56.447,37.04,23.079,9.542,10.203,12.353,4.734,-9.116,-13.607],[6536.902,9217.603,7745.66,5154.409,3267.516,1361.146,1845.773,1650.825,1050.362,565.402,676.579,837.584,700.11,535.835,442.215,132.487,167.182,174.308,77.176,59.75,66.433,77.467,56.467,21.092,31.786,16.411,21.89,20.271,7.8,5.405]]
}