{
"KTrans": [[-0.412,5.869,16.282,11.422,15.575,12.272,17.789,21.519,14.375,19.577,25.346,19.918,23.679,24.288,21.655,94.339,86.913,80.064,70.031,77.894,18.007,163.631,152.629,154.213,131.318,-127.71,48.129,86.304,138.324,183.455],[-32.153,-4.939,0.69,3.912,5.048,-22.529,1.754,-0.543,5.84,8.052,-20.925,-1.769,6.103,10.56,9.929,-16.472,35.909,39.346,34.473,37.087,-3.654,71.895,67.746,69.199,62.588,11.928,89.582,100.978,125.414,115.55],[-54.829,-18.878,-10.164,-1.818,1.728,-53.183,-16.12,-4.144,-0.896,2.037,-51.133,-6.961,-4.014,1.65,3.309,-40.558,14.094,18.124,19.95,22.858,-36.007,38.964,56.091,52.079,44.467,-52.397,-14.626,71.017,64.78,82.025],[-63.848,-24.495,-16.007,-8.252,-4.195,-62.725,-21.502,-14.756,-7.994,-3.523,-60.292,-16.066,-12.366,-4.758,-2.567,-67.906,-5.786,5.584,11.593,12.618,-40.472,-7.71,26.697,31.61,28.634,-97.375,-31.751,-6.825,55.329,67.196],[-69.872,-36.22,-22.142,-17.559,-10.646,-69.327,-32.655,-20.779,-12.926,-12.452,-74.076,-32.638,-19.619,-12.452,-6.672,-72.447,-14.685,-5.88,1.872,7.245,-69.181,-40.131,19.154,17.927,23.908,-66.426,-80.416,-14.909,54.822,54.509],[-81.878,-43.545,-28.95,-20.395,-16.191,-81.091,-43.581,-25.248,-21.191,-14.027,-77.564,-37.616,-26.846,-17.039,-13.765,-81.571,-30.878,-8.272,-6.358,0.291,-67.175,-35.596,8.069,9.56,16.753,-86.011,-50.808,-19.539,21.205,29.603]],
"ve": [[27.049,25.33,-265.612,15.47,-95.196,22.214,12.011,-47.495,10.052,18.948,11.039,-8.984,-177.073,-6.672,41.926,48.333,23.646,63.329,-25.001,10.272,105.094,60.964,17.307,-7.955,-5.175,437.834,77.434,35.361,16.278,4.947],[0.165,2.595,1.931,7.313,8.827,8.787,-0.012,3.257,8.325,10.064,6.831,5.899,5.48,5.543,9.636,38.299,23.908,13.207,11.884,11.708,95.98,54.528,31.518,22.542,17.489,172.98,94.152,53.677,44.555,56.178],[3.76,-1.271,-1.828,-0.94,0.802,10.714,-0.438,-0.776,0.524,2.382,13.345,1.933,0.756,0.776,2.417,44.139,18.379,13.221,10.144,9.151,100.547,44.215,33.951,22.382,18.955,187.246,88.968,57.708,40.745,38.354],[9.34,-2.912,-3.251,-3.265,-1.881,13.665,-2.089,-1.818,-1.597,-1.239,14.388,1.002,1.85,0.846,1.229,45.259,20.607,12.368,7.883,7.148,98.784,55.238,27.921,20.845,15.557,205.004,92.332,57.712,43.682,35.697],[6.742,-3.172,-2.256,-3.919,-3.094,7.524,-1.482,-2.857,-2.477,-2.246,2.794,1.543,-1.594,-1.162,-0.171,44.769,19.349,12.056,8.823,7.442,89.262,61.028,29.825,21.91,15.354,232.576,90.692,73.576,44.287,51.501],[1.066,-4.243,-3.582,-4.248,-3.659,14.491,-2.644,-2.776,-1.898,-2.145,9.261,1.419,-0.627,-1.66,-1.802,47.835,22.158,11.352,8.172,5.87,89.657,40.293,26.311,21.238,15.685,187.834,85.025,54.538,42.674,24.293]],
"kep": [[-37.297,-36.711,-33.098,-48.681,-44.677,-30.065,-25.463,-31.27,-41.999,-47.566,-27.57,-29.533,-30.858,-32.274,-40.759,-13.309,5.089,11.241,9.129,26.78,-50.23,25.313,46.319,66.868,62.017,-78.524,-29.215,-11.057,34.648,82.496],[-54.461,-36.585,-32.608,-33.233,-33.835,-50.661,-29.816,-33.593,-32.757,-32.457,-50.339,-36.258,-31.115,-28.193,-31.088,-59.629,-25.057,-16.605,-18.387,-16.237,-62.737,-23.024,-13.481,-6.159,-6.188,-66.539,-30.053,-17.494,3.51,6.237],[-70.037,-43.769,-37.881,-32.726,-31.839,-70.358,-42.109,-34.37,-33.405,-32.505,-70.643,-37.873,-35.456,-31.827,-31.675,-70.905,-35.047,-29.692,-26.357,-23.992,-75.203,-36.083,-20.732,-16.645,-17.983,-83.367,-63.458,-27.693,-24.684,-10.322],[-76.837,-47.187,-41.183,-35.931,-34.072,-76.616,-45.531,-41.195,-36.848,-34.055,-76.771,-43.588,-41.819,-36.237,-35.033,-84.533,-47.427,-36.65,-30.243,-29.239,-77.193,-55.876,-33.54,-26.909,-25.252,-93.668,-71.878,-58.037,-27.287,-17.505],[-80.932,-55.283,-46.071,-42.093,-37.78,-81.194,-53.7,-44.961,-39.75,-39.613,-84.634,-54.714,-44.842,-40.31,-36.934,-86.193,-52.223,-43.231,-36.919,-32.823,-87.346,-71.711,-38.515,-35.081,-27.863,-88.767,-86.233,-60.928,-27.97,-24.865],[-87.885,-60.081,-50.248,-44.018,-41.292,-89.126,-61.132,-48.089,-45.946,-40.815,-86.386,-58.974,-50.367,-43.225,-40.791,-90.427,-60.934,-44.85,-41.89,-36.224,-87.421,-68.954,-43.177,-39.282,-32.358,-93.839,-79.917,-64.156,-43.031,-35.174]],
"vp": [[-433.594,-468.23,843.263,434.512,1122.697,-33.291,27.072,-75.229,71.906,149.331,4.215,-63.287,85.826,13.602,-0.75,-17.186,-28.442,-19.944,-12.156,22.295,-28.064,-20.091,-22.296,-10.343,5.892,-6.993,-30.816,-17.338,-21.286,-31.622],[2665.762,257.277,-87.065,-703.174,107.266,533.062,130.071,-146.554,-146.813,-131.813,223.153,66.018,-8.64,-38.062,51.06,25.29,-18.331,-41.075,-25.442,-22.386,-6.012,9.522,-39.525,-21.831,-24.674,-31.505,-23.418,-4.664,-15.338,-17.098],[4001.511,3961.972,1278.166,796.532,193.416,790.089,776.065,342.526,151.222,-88.268,396.228,314.259,168.628,131.972,-17.329,34.854,23.438,-2.057,-22.345,-5.363,18.877,16.589,11.411,0.113,-23.988,-22.141,-30.225,-50.687,-25.577,-40.346],[5989.315,5384.161,3416.713,2139.188,843.322,1004.041,1191.675,783.681,539.281,213.223,557.48,556.217,422.241,257.201,127.743,110.435,55.185,52.998,17.066,-0.702,18.024,3.974,-16.359,-5.324,-27.212,18.606,-17.362,-26.691,-44.797,-36.932],[6569.146,7328.068,5377.53,3174.204,3357.714,1361.797,1510.683,1016.509,683.657,651.514,520.574,627.51,506.503,342.406,243.467,102.025,129.36,82.667,40.882,72.735,12.209,70.318,37.014,16.207,-7.919,-17.996,2.239,-4.197,-36.382,-11.201],[6839.943,8817.589,7723.574,4469.682,2773.595,1399.471,1461.399,1704.505,881.367,573.637,618.092,788.999,752.645,584.306,450.574,128.617,137.652,144.716,80.594,39.454,26.495,48.214,43.794,36.114,20.991,13.253,-13.849,-4.234,-22.88,-40.582]]
}