{
"KTrans": [[7.077,-1.124,0.698,-1.314,1.666,1.437,5.039,2.049,1.209,0.598,14.711,7.469,1.351,1.328,1.37,46.916,28.701,18.113,25.26,12.958,96.383,49.546,56.429,46.226,44.688,-202.185,148.215,89.507,106.116,60.474],[-18.181,3.157,0.629,-0.345,0.141,-23.493,1.153,1.379,-0.487,-0.967,-4.664,1.179,-1.63,1.101,1.175,29.581,19.073,10.956,10.499,0.282,54.326,48.988,28.223,22.48,20.983,-17.47,52.174,68.236,51.86,51.648],[-52.779,0.926,1.338,1.583,-0.609,-57.02,5.289,2.638,1.701,0.016,-49.226,5.203,2.293,0.713,0.531,-26.782,20.668,11.3,8.293,3.516,-18.236,22.192,26.978,16.967,6.301,65.95,53.598,37.879,34.483,34.531],[-77.476,-3.49,4.093,-2.171,-1.313,-71.492,-0.235,1.923,2.202,-0.51,-72.015,-0.3,2.184,1.865,2.213,-57.824,13.052,20.203,12.127,8.692,-36.117,16.26,31.978,15.974,11.236,-126.487,48.09,35.001,52.507,28.397],[-75.828,-19.96,4.91,3.738,0.492,-80.99,-21.782,2.427,3.421,2.935,-73.921,-26.915,15.214,6.613,1.463,-66.053,-14.491,15.444,12.523,9.931,-62.473,-5.458,17.339,30.161,15.718,-27.591,38.037,35.456,21.951,43.537],[-86.121,-44.46,5.404,8.131,4.046,-84.446,-47.584,19.993,10.818,3.322,-83.858,-36.671,8.249,7.35,2.22,-77.958,-30.824,6.25,20.629,11.207,-69.465,-16.031,9.377,25.525,24.897,-57.342,-44.584,-51.914,32.403,28.738]],
"ve": [[-1.738,1.782,-0.085,5.167,1.897,-2.123,-1.186,0.25,0.324,0.246,-0.314,-0.291,19.971,170.208,36.667,10.384,-22.403,-11.896,-20.05,-57.794,22.594,6.323,-13.903,-30.439,-24.87,80.239,20.844,-5.23,-14.234,-31.82],[78.377,-3.221,-3.181,-3.184,-3.098,-21.565,-4.521,-3.326,-2.865,-2.316,-15.638,-4.987,-4.214,-3.379,-2.741,11.37,3.765,0.266,0.039,-2.264,48.791,13.629,-2.865,3.188,15.691,69.548,41.047,-5.257,16.42,6.859],[-40.832,-5.476,-4.437,-3.991,-3.837,-44.495,-6.736,-4.553,-3.971,-3.648,-34.946,-6.453,-4.645,-4.677,-3.354,-21.303,-3.626,-1.702,-1.201,-2.62,12.546,0.416,3.284,-1.49,-1.343,99.459,17.259,1.374,11.06,11.441],[-58.064,-11.704,-5.421,-5.518,-4.934,-47.549,-11.869,-6.475,-4.677,-4.555,-47.014,-12.542,-6.93,-4.709,-4.009,-41.73,-5.954,-2.354,0.178,-1.038,-11.641,17.13,28.498,-1.72,-0.77,89.699,23.541,24.373,15.803,2.131],[-50.186,-21.263,-7.654,-5.412,-5.568,-54.853,-26.15,-8.492,-5.433,-4.656,-41.345,-28.894,-5.246,-5.031,-4.908,-28.234,-19.986,-5.594,-2.15,-1.364,24.848,-8.957,-1.316,4.131,-1.34,30.321,34.188,23.176,8.597,12.211],[-62.879,-32.456,-11.242,-5.26,-5.286,-60.9,-38.276,-10.232,-4.954,-5.576,-62.741,-28.815,-12.106,-5.843,-4.402,-39.913,-16.289,-11.714,-3.337,-4.485,-12.634,-5.583,-6.68,-3.22,0.506,42.167,10.532,16.889,9.523,7.457]],
"kep": [[8.94,-0.458,3.304,-1.744,5.064,2.151,7.581,5.036,4.338,0.685,14.455,8.645,2.299,1.735,3.365,15.707,18.006,16.088,35.707,14.19,46.294,15.32,43.386,47.297,58.752,54.076,97.942,75.308,97.077,53.012],[-6.696,6.137,3.87,3.005,3.455,-8.483,5.346,4.805,2.484,1.494,3.92,5.953,2.433,4.613,4.142,4.911,10.546,8.629,9.636,2.049,4.177,24.031,10.777,13.973,14.34,-12.484,16.21,35.085,28.356,30.63],[-34.927,5.43,5.84,5.738,3.307,-36.903,11.667,7.129,5.822,3.761,-33.116,10.743,7.016,5.527,4.003,-31.473,21.025,11.215,8.981,5.56,-25.43,6.389,14.082,10.687,3.357,-20.613,10.12,18.991,10.436,13.632],[-61.319,8.146,9.449,3.405,3.711,-58.69,11.011,8.144,6.964,4.087,-59.906,13.24,8.101,6.718,6.378,-52.924,5.034,19.768,11.686,9.286,-50.456,-6.409,18.685,12.838,9.036,-65.397,-0.391,12.013,21.017,15.012],[-66.109,-1.248,12.221,9.213,6.27,-71.447,4.906,10.16,8.939,7.778,-64.532,-1.132,19.365,11.839,6.538,-64.65,-12.411,21.599,13.244,11.061,-64.593,-19.985,1.578,21.51,14.533,-57.132,-13.297,-3.288,4.916,20.558],[-77.981,-23.708,16.81,13.039,9.485,-76.817,-23.837,30.387,15.309,9.124,-75.095,-18.615,19.32,12.53,6.496,-74.494,-27.186,9.54,26.545,14.566,-69.912,-25.989,-2.968,21.576,26.918,-67.577,-38.046,-23.035,4.98,17.772]],
"vp": [[247.852,424.62,290.019,367.019,90.679,68.187,6.504,33.422,33.845,52.334,-17.415,-18.524,9.615,9.769,4.595,-28.296,-27.177,-15.392,-39.189,-15.342,-34.33,-25.89,-44.271,-37.329,-40.463,-30.532,-42.658,-29.308,-41.497,-24.388],[2090.152,504.789,725.6,816.45,871.786,433.382,151.182,139.352,160.872,164.958,136.537,75.395,99.727,66.795,63.597,-27.941,-20.044,-9.949,-17.215,28.814,-43.462,-31.595,-21.824,-20.581,-24.747,-35.222,-45.569,-34.305,-30.25,-41.819],[4078.822,1103.558,958.777,1099.042,1428.039,866.04,239.589,224.544,274.762,245.171,356.681,112.984,97.883,143.414,117.974,47.669,12.899,4.584,-5.78,14.513,-12.613,0.741,-15.202,-4.684,16.637,-56.325,-37.767,0.986,-27.203,-24.574],[5965.739,2320.748,1390.929,1967.094,2080.574,909.095,424.244,300.856,320.729,385.068,506.543,238.306,202.915,147.137,139.939,83.933,23.713,11.742,-14.483,-3.265,10.011,-37.793,-0.621,8.09,-0.139,-45.851,-25.487,-41.675,-36.175,-11.631],[4757.291,4037.878,2216.857,1972.053,2376.876,1074.402,1069.092,473.985,349.602,325.984,396.034,599.257,138.227,162.732,196.395,50.369,78.237,24.405,7.987,2.78,-26.658,16.886,1.155,-22.682,1.695,-18.087,-41.718,-41.227,-18.202,-38.618],[6341.876,6339.788,3082.151,1964.361,2184.361,1214.41,1590.368,629.569,340.359,468.775,619.786,560.43,364.765,201.82,180.951,73.22,52.289,67.528,22.954,38.457,9.434,7.955,22.805,15.153,-10.908,-25.078,-11.353,-25.886,-22.637,-2.526]]
}