{
"KTrans": [[-42.843,-76.415,-87.646,-88.754,-81.328,-40.24,-72.183,-78.919,-69.593,-80.588,-40.421,-52.197,-52.407,-56.641,-62.726,45.67,-20.989,-9.008,-30.682,-17.947,92.369,63.599,39.709,38.348,57.998,282.384,182.657,180.485,153.697,170.519],[-57.012,-44.596,-51.116,-56.826,-67.964,-58.944,-36.833,-45.171,-61.7,-58.301,-47.217,-34.744,-33.676,-55.755,-57.477,-31.086,-5.729,-11.2,-10.744,-26.265,-11.619,20.896,21.767,23.448,-5.177,61.131,94.873,86.776,50.403,41.506],[-74.186,-51.575,-43.647,-37.683,-57.179,-67.072,-47.369,-50.899,-45.17,-43.725,-71.614,-49.588,-36.577,-34.384,-34.355,-58.149,-35.555,-24.703,-9.064,-13.004,-42.059,-16.889,-0.448,4.417,20.458,3.981,20.706,48.929,40.984,48.31],[-76.646,-57.508,-51.291,-43.77,-47.786,-78.007,-59.971,-42.472,-47.211,-42.302,-77.886,-58.349,-44.409,-44.802,-33.425,-68.923,-42.89,-30.497,-24.691,-15.085,-56.028,-36.233,-23.914,-11.734,-5.526,-29.064,-3.528,12.85,23.159,19.874],[-83.912,-68.561,-54.356,-44.608,-44.19,-81.798,-65.698,-49.4,-48.223,-41.901,-81.395,-62.517,-47.174,-44.448,-40.335,-75.644,-57.571,-41.018,-30.901,-33.595,-64.474,-48.617,-32.171,-25.709,-20.204,-56.256,-25.412,-6.199,-4.94,0.787],[-85.124,-70.273,-53.449,-48.508,-41.035,-85.58,-71.229,-55.052,-44.008,-43.279,-86.441,-70.375,-51.296,-42.892,-41.69,-78.708,-62.496,-47.016,-41.661,-34.905,-72.901,-54.215,-39.179,-25.992,-25.861,-56.222,-36.977,-30.68,-7.544,-13.602]],
"ve": [[-39.181,-52.864,-76.824,-27.246,-1834.997,-31.139,221.834,-54.488,35.679,-111.71,-27.533,-63.587,-20.454,-53.274,-250.342,47.507,-2.77,8.973,-18.46,-597.953,84.625,4.201,-45.692,67.317,1302.29,278.482,164.524,2.412,-266.307,-23.701],[-62.513,-49.478,-43.518,-48.596,-53.347,-46.414,-49.562,-43.184,-49.15,-28.562,-8.864,-58.382,-33.482,-49.129,-34.208,30.395,-4.424,-14.892,4.998,-3.671,85.472,61.094,28.298,-18.564,19.972,292.097,126.353,80.552,44.46,-8.556],[-47.517,-66.208,-58.3,-26.681,-60.957,-9.015,-36.038,-58.382,-50.284,-46.364,-30.732,-54.892,-43.159,-56.646,-22.672,37.942,-20.301,7.552,-11.089,-7.673,55.346,11.054,17.806,8.563,28.527,251.422,91.373,78.834,46.353,18.105],[-3.127,-61.41,-7.313,-67.781,-88.347,-62.602,-43.691,-57.834,-210.554,-57.59,-11.458,-50.322,-138.725,-57.114,-38.272,95.578,-1.536,-31.16,-37.905,-14.039,138.921,-3.632,-34.403,-7.216,7.7,293.877,77.057,53.691,35.457,29.982],[-59.889,93.645,-77.739,-65.52,-68.164,52.652,-47.14,-42.735,-100.977,-62.371,5.084,-5.993,-53.759,-80.932,-58.796,27.009,-26.732,-41.936,-43.989,-50.407,149.633,-1.546,-26.601,-39.294,-33.398,176.182,68.033,62.937,-18.718,-1.639],[23.021,-24.771,-52.13,-76.166,-63.737,-6.14,-6.984,-70.478,-68.871,-100.551,37.153,-207.34,-49.673,-70.241,-71.289,24.747,-7.355,-41.363,-69.173,-56.043,92.423,-1.462,-17.691,-46.149,-44.246,270.536,103.773,7.835,56.779,-24.314]],
"kep": [[-134.193,-94.077,-52.079,48.673,-26.12,-132.416,-56.306,-4.166,-18.846,7.027,-120.566,-75.695,-88.475,-26.259,-28.165,-126.386,-80.213,-84.625,4.163,-33.803,-92.223,-139.278,-66.791,-74.521,-109.525,-111.785,-111.238,-180.677,-164.484,-188.845],[-92.183,-88.872,-124.689,-64.862,-30.925,-93.208,-89.36,-128.378,-67.578,-14.645,-93.115,-89.578,-122.481,-52.379,-14.664,-85.043,-87.409,-123.909,-97.548,-29.947,-88.147,-75.952,-113.182,-114.821,-41.648,-86.37,-94.285,-110.986,-122.331,-92.797],[-95.611,-58.131,-63.104,-90.599,-115.643,-94.442,-69.427,-54.959,-76.337,-125.55,-96.309,-65.322,-47.602,-90.729,-129.349,-92.337,-61.033,-59.484,-79.67,-137.904,-88.089,-59.522,-62.76,-77.72,-135.864,-92.156,-73.916,-45.814,-78.078,-102.076],[-97.709,-60.608,-43.973,-37.549,-47.151,-101.107,-69.354,-42.441,-32.333,-47.867,-96.128,-67.064,-41.263,-43.161,-51.038,-97.731,-70.91,-40.923,-33.335,-41.039,-95.669,-73.138,-33.299,-43.926,-34.089,-93.125,-67.196,-48.355,-35.153,-47.643],[-97.461,-76.421,-41.536,-33.616,-20,-99.672,-77.159,-53.09,-28.411,-25.863,-98.742,-75.156,-47.172,-29.711,-25.762,-96.734,-72.707,-43.301,-23.571,-23.313,-97.117,-74.595,-44.482,-22.844,-20.237,-92.462,-69.774,-65.261,-30.899,-31.795],[-100.604,-82.486,-49.852,-31.611,-21.124,-99.177,-79.902,-47.354,-29.343,-24.31,-99.157,-80.998,-50.702,-27.076,-12.814,-98.928,-80.63,-48.945,-27.779,-19.242,-96.976,-72.564,-52.518,-31.265,-18.577,-95.417,-80.799,-51.237,-32.307,-27.38]],
"vp": [[327.165,-160.851,-368.505,742.792,-80.404,-9.79,86.845,-39.836,155.965,3.933,-27.592,-16.813,-9.539,13.515,23.097,-17.96,-0.601,-12.016,-11.775,-17.73,-16.427,-20.662,-3.997,-10.146,-7.606,-16.004,-6.36,4.39,-6.482,2.248],[2803.391,1173.948,13.329,-300.578,-326.469,484.273,256.527,-1.222,-80.85,-70.906,308.613,124.479,22.9,-50.867,35.254,41.613,21.114,-37.082,-24.177,5.315,22.124,-12.493,-0.715,-19.392,-2.253,-6.55,-0.318,-7.801,-9.007,-3.699],[4178.224,2829.377,1785.319,1314.515,-178.199,936.377,544.966,207.505,126.295,-30.109,501.445,267.163,174.096,83.11,35.921,81.781,37.161,29.401,19.337,-14.772,27.589,5.354,1.985,-16.817,0.742,15.137,8.678,-2.597,-14.091,-21.06],[5830.88,4362.725,3306.764,1815.13,1223.822,1285.884,935.205,458.172,179.516,84.523,509.239,521.928,300.475,225.527,132.709,109.361,100.452,50.59,16.626,30.424,51.09,31.987,0.274,9.194,-4.427,16.811,-3.225,-4.024,-14.316,2.054],[5829.632,6481.195,4349.002,3283.079,1974.262,1250.065,1414.433,1120.528,479.6,472.861,680.016,714.696,491.263,277.451,190.14,101.026,105.643,78.567,50.038,20.049,56.373,69.526,28.934,6.761,12.576,21.781,13.148,29.544,-0.551,-9.109],[7419.987,8944.254,6629.484,4195.049,3655.12,1268.014,1820.624,1196.31,839.669,534.226,633.233,850.549,623.477,303.392,315.86,119.12,189.02,93.775,50.574,54.629,53.634,43.878,65.415,20.079,17.07,12.901,43.465,8.24,-0.047,0.194]]
}