{
"KTrans": [[-1.074,10.137,12.457,13.074,4.844,5.459,23.978,23.681,17.306,13.393,9.298,32.74,28.687,24.188,27.552,119.564,119.434,92.144,79.98,63.132,300.235,233.816,210.288,165.791,159.357,828.695,682.086,500.639,402.186,406.052],[-68.872,15.97,16.329,16.73,21.695,-71.835,16.304,19.39,16.674,14.827,-68.014,27.903,28.831,14.732,18.457,-25.511,95.366,85.101,59.1,47.386,20.689,167.001,130.684,109.494,78.159,206.757,393.205,300.103,219.772,196.392],[-83.165,-13.065,41.072,46.933,21.356,-97.88,-15.383,54.709,39.3,24.343,-89.614,-7.104,42.773,29.946,29.128,-61.027,43.294,81.292,45.496,46.99,-40.387,68.345,142.783,110.943,93.306,72.807,200.467,285.273,234.094,154.006],[-96.236,-53.301,15.125,34.553,39.53,-88.209,-49.172,17.012,35.18,40.611,-93.111,-43.876,10.525,48.577,38.531,-85.253,-25.75,41.669,79.952,68.055,-42.248,33.755,83.358,101.033,87.353,-0.486,94.79,189.556,217.644,160.455],[-93.324,-71.053,-6.383,37.373,46.841,-101.951,-65.81,-10.684,60.72,56.526,-94.138,-79.358,-18.66,67.741,53.842,-93.812,-74.709,-13.41,86.239,53.744,-75.013,-30.838,23.801,109.617,114.455,-33.548,23.856,125.549,215.566,181.547],[-101.352,-80.618,-53.502,9.368,68.249,-99.184,-85.684,-54.572,10.849,52.932,-99.633,-87.236,-52.89,24.315,52.108,-96.014,-73.259,-41.692,46.177,107.662,-90.891,-47.477,-6.903,82.766,100.487,-35.642,-8.136,42.593,158.606,241.416]],
"ve": [[-8.209,25.876,18.512,32.238,76.138,-59.266,8.194,17.274,10.654,3.643,-40.157,25.176,12.119,4.431,-37.038,43.735,24.143,5.365,-8.297,-20.808,94.66,37.763,11.482,-2.087,-14.149,297.721,83.261,38.747,11.212,-2.978],[16.658,4.716,3.154,3.156,4.118,5.886,4.991,2.476,2.019,1.671,20.468,8.749,4.301,1.66,2.259,54.5,26.064,17.787,10.76,7.966,107.173,49.833,31.513,21.549,13.005,184.109,100.11,63.373,43.663,30.65],[1.383,3.597,2.555,3.194,0.59,16.154,6.398,4.811,4.62,2.561,24.115,-13.166,5.018,2.119,3.003,57.888,29.153,19.224,10.723,11.087,102.789,50.987,34.051,25.185,18.461,206.642,102.68,65.959,49.129,36.622],[-1.399,8.098,9.135,2.197,2.181,31.269,5.036,3.244,2.195,2.768,-203.819,3.326,4.018,4.395,3.052,54.926,39.313,16.304,14.067,10.697,102.146,48.933,32.403,25.341,19.215,202.609,90.492,68.701,49.305,37.673],[3.991,4.91,7.73,-0.355,2.253,-0.685,5.655,4.879,3.697,2.738,15.886,4.695,4.556,4.944,3.557,53.216,28.465,-22.71,13.398,8.492,106.102,52.12,32.243,24.152,21.031,188.389,103.567,59.788,50.079,40.044],[5.641,6.695,2.095,2.519,2.052,-15.722,3.863,10.505,2.411,4.013,39.647,5.868,19.491,3.481,2.179,48.437,29.376,19.712,11.891,11.936,97.633,49.945,39.185,25.469,19.414,224.857,110.26,70.004,149.541,42.331]],
"kep": [[-13.855,1.543,8.857,19.64,3.376,-14.085,18.608,26.704,23.555,21.47,-12.749,26.922,31.092,31.888,42.222,46.467,86.662,90.333,95.538,98.507,96.779,145.634,181.551,180.539,212.7,211.276,328.544,335.1,353.285,426.888],[-72.745,8.005,10.991,13.523,17.748,-76.268,5.967,15.138,13.487,13.519,-75.624,14.546,22.117,11.933,16.302,-54.244,52.001,54.996,42.547,35.868,-43.698,75.453,73.076,70.157,55.673,-0.634,143.914,141.576,120.624,124.462],[-86.118,-20.834,33.59,38.915,18.302,-97.607,-23.42,44.373,30.501,19.444,-90.192,-16.502,31.543,23.401,23.161,-75.67,8.139,48.214,27.897,29.728,-71.311,11.477,76.855,65.118,60.096,-44.152,50.145,128.848,119.83,83.468],[-97.02,-55.877,6.716,27.418,32.64,-89.902,-52.113,8.945,28.361,33.454,-95.075,-46.974,2.764,36.969,31.312,-90.588,-43.85,17.589,52.866,46.938,-72.157,-11.286,34.547,56.369,52.572,-68.109,-5.591,68.886,106.313,84.166],[-93.53,-71.474,-11.945,29.988,38.275,-101.51,-66.819,-16.963,47.219,46.278,-94.99,-78.977,-26.161,51.735,43.672,-96.495,-78.627,-27.139,57.858,36.076,-87.67,-56.071,-8.49,62.844,72.132,-77.521,-39.326,32.651,104.775,95.671],[-101.038,-78.68,-56.286,2.456,57.785,-99.438,-85.279,-56.523,4.766,41.118,-99.882,-86.151,-54.761,14.18,41.531,-96.533,-78.148,-49.783,25.401,78.966,-95.398,-63.913,-30.13,41.248,60.822,-79.396,-52.737,-15.443,67.594,132.817]],
"vp": [[2011.706,1353.921,1119.447,1187.632,588.754,458.672,371.33,254.944,127.841,109.056,230.434,114.809,71.403,80.339,144.482,36.027,29.584,18.02,14.096,17.405,9.495,10.983,8.464,7.241,5.913,7.679,6.408,6.008,1.421,4.413],[5218.972,4728.729,3097.276,2771.69,3669.13,1168.338,889.244,614.396,660.048,477.751,579.905,538.629,308.854,234.905,298.917,100.928,84.403,69.03,66.841,66.816,63.227,39.638,37.732,33.833,23.876,24.486,26.73,15.556,16.086,19.208],[5318.628,9101.073,7926.158,7247.922,5690.86,1407.032,1698.887,1450.161,1180.488,943.432,782.771,707.625,728.247,522.401,411.997,140.624,179.076,122.59,60.336,100.821,66.759,70.19,75.443,51.602,56.276,35.523,29.198,40.245,33.594,19.129],[7141.934,10193,11752.185,8022.517,7638.574,1384.461,1847.982,2184.187,1381.835,1470.379,812.136,928.606,898.23,876.087,800.006,156.114,236.303,169.954,148.21,137.336,70.305,89.362,94.625,46.297,76.238,35.056,51.683,56.463,39.198,26.935],[6953.172,11913.153,14188.973,10887.91,9981.417,1630.865,2369.72,2889.989,2874.467,1810.925,773.096,1231.493,1334.159,1129.692,1098.87,158.247,254.902,267.942,220.451,155.253,76.093,139.925,116.64,103.48,105.391,36.107,59.285,57.801,53.509,44.146],[8523.847,11840.991,15105.488,18457.762,12401.346,1663.891,2613.023,3204.3,2842.221,2675.623,1014.453,1245.401,1397.191,1425.444,1311.758,164.048,275.602,298.214,259.942,272.64,76.405,124.017,135.247,112.634,109.472,44.295,57.811,78.06,67.858,87.021]]
}