{
"KTrans": [[-27.013,-49.176,-49.754,-34.748,-43.786,5.621,-13.294,-3.858,-6.163,-5.16,13.386,-1.721,-0.369,-0.541,-1.784,63.854,-4.691,-0.62,1.27,-2.929,128.332,13.888,9.782,12.913,11.732,298.228,57.555,68.984,72.797,79.698],[-39.141,-46.449,-38.816,-35.508,-39.016,-13.974,-10.683,-0.093,-3.38,-6.337,-9.961,-0.861,4.566,-0.584,-0.762,-1.707,1.236,21.478,0.553,0.374,2.518,1.952,42.95,1.996,1.192,-0.028,2.491,93.337,8.692,4.548],[-41.421,-34.947,-44.836,-42.653,-24.004,-21.694,-17.004,-15.087,-8.266,-1.671,-11.756,-3.842,-0.912,0.008,2.788,-6.041,0.997,0.613,0.126,14.299,-5.056,1.42,0.831,0.822,24.636,-3.315,1.825,1.49,0.027,52.624],[-40.756,-39.495,-39.48,-45.246,-43.679,-32.724,-22.115,-13.483,-11.557,-10.206,-20.828,-4.923,-3.667,-3.958,-1.141,-17.267,-0.302,0.142,-0.154,-0.019,-19.026,0.303,0.576,0.818,0.391,-18.936,1.452,1.843,1.784,0.869],[-43.555,-48.145,-38.99,-39.852,-38.957,-44.594,-18.088,-18.808,-21.805,-18.587,-36.89,-8.958,-9.637,-3.157,-1.946,-31.829,-2.029,0.121,0.188,0.301,-36.273,-0.509,1.188,0.57,0.792,-34.591,-1.118,0.872,1.408,0.665],[-48.789,-34.568,-39.266,-43.203,-37.898,-52.899,-31.745,-19.721,-24.026,-17.582,-50.319,-14.773,-8.488,-6.797,-1.795,-50.82,-3.613,-0.725,0.045,0.026,-48.182,-3.663,-0.564,0.591,0.142,-49.737,-1.452,0.216,0.385,1.095]],
"ve": [[-26.738,-23.201,-15.73,-8.201,-6.365,7.336,-5.017,-0.219,-1.529,1.355,13.211,0.443,1.332,2.133,2.416,64.137,-0.649,1.236,3.243,1.176,127.78,8.356,5.208,7.411,6.367,291.543,30.875,27.274,24.133,23.353],[-110.97,-70.28,-43.011,-26.215,-23.435,-40.491,-16.29,-0.454,-2.329,-3.645,-31.43,-0.073,2.952,-0.117,-0.177,-0.147,0.301,21.178,0.58,0.183,1.69,-0.055,44.143,1.374,0.88,0.789,-1.87,94.432,6.159,2.645],[-173.433,-84.756,-75.345,-53.939,-28.111,-73.397,-43.057,-26.288,-10.509,-1.799,-16.091,-11.392,-1.707,-0.127,1.283,-2.547,0.303,0.149,0.132,14.028,-2.681,0.588,0.274,-0.472,32.233,-0.241,0.418,-0.355,-1.621,45.896],[-152.81,-135.151,-91.65,-78.721,-61.298,-116.98,-72.289,-29.513,-20.17,-14.51,-10.191,-12.409,-7.943,-7.368,-1.531,-8.202,-0.34,0.039,-0.021,0.008,-9.621,0.186,0.183,0.169,-0.043,-8.757,0.8,0.362,0.317,-0.171],[-112.456,-217.55,-114.597,-89.791,-69.797,-77.714,-60.014,-54.336,-49.304,-33.347,-19.1,-27.001,-29.349,-7.346,-3.783,-16.069,-0.994,-0.017,0.062,0.069,-18.531,-0.512,0.329,0.112,0.315,-17.135,-0.928,0.362,0.237,0.012],[-34.684,-170.78,-140.715,-118.699,-82.937,-60.379,-157.06,-66.126,-66.034,-38.679,-50.313,-70.039,-28.437,-17.874,-4.615,-27.537,-1.366,-0.4,0.05,-0.051,-25.432,-1.605,-0.122,0.156,0.079,-24.932,-0.478,-0.021,-0.039,0.098]],
"kep": [[-135.483,-0.675,0.011,2.225,-1.268,-129.99,-0.964,-0.611,2.586,-0.072,-130.472,-0.467,-0.903,-2.038,-0.421,-126.23,0.272,-2.045,-3.2,1.423,-127.606,-6.914,-3.257,-5.162,-3.693,-146.247,-11.968,-10.835,-8.713,-10.135],[-1.834,-0.164,-133.536,0.265,0.749,-0.229,-0.107,-116.401,0.914,-0.093,-1.079,-3.891,-142.792,0.877,1.373,-2.897,1.821,-128.793,-2.347,-0.757,0.313,4.756,-128.591,-3.967,-1.956,-1.504,9.078,-137.778,-10.035,-4.044],[-5.55,-1.377,1.413,1.194,-113.637,-5.442,0.776,1.036,0.546,-123.816,-6.449,0.761,-0.496,-0.924,-134.151,-4.786,0.895,0.705,-0.021,-143.189,-3.289,1.055,0.907,4.982,-120.818,-4.699,1.797,3.938,6.938,-130.412],[-14.332,-0.384,0.079,-0.883,0.61,-12.416,-1.936,-1.408,0.144,1.182,-13.515,-1.167,-0.612,0.625,-0.916,-11.327,0.4,0.352,-0.734,-0.074,-12.135,-0.138,0.555,1.468,1.008,-13.062,0.523,2.129,2.411,2.804],[-23.446,0.213,-0.997,0.116,-0.226,-26.732,-4.121,-0.415,0.355,-0.283,-25.212,-2.235,0.306,0.194,0.712,-21.752,-1.486,0.268,-0.233,0.643,-24.637,0.052,1.102,0.798,0.886,-24.38,-0.368,0.621,1.671,1.445],[-34.506,-2.803,-0.832,-0.026,-0.328,-36.094,-2.105,-1.271,-0.071,0.101,-34.584,-1.547,-0.647,-0.143,0.881,-36.108,-2.972,-0.551,0.116,0.47,-34.777,-2.359,-0.643,0.442,0.299,-36.277,-1.369,0.282,0.609,1.819]],
"vp": [[4.61,-20.143,-85.499,33.217,-36.667,1.604,7.823,-7.765,-5.693,3.942,-1.907,2.995,0.779,4.448,2.492,-0.952,-0.655,-0.688,-1.017,-0.201,-0.554,-0.962,-0.438,-0.618,-0.311,-0.615,-0.651,-0.938,-0.886,-0.747],[137.407,-50.327,-9.892,14.568,-31.76,10.813,8.845,-9.056,-1.217,-1.382,-4.848,4.483,0.594,2.807,6.409,1.903,-1.577,-1.368,-0.82,-0.348,-0.831,-1.576,-1.094,-0.601,-0.778,0.443,-0.943,-0.577,-0.796,-0.858],[351.406,131.639,0.327,-38.224,54.514,71.715,8.316,-9.65,6.991,-6.072,45.612,-1.178,-2.191,3.908,-2.042,6.085,-1.207,-0.95,-0.38,-0.8,2.966,-1.24,-0.794,-0.987,-0.535,0.853,-0.502,-0.852,-0.666,-0.591],[942.197,152.344,75.338,36.88,-27.998,163.021,21.922,19.987,11.558,1.762,104.489,15.553,5.958,-0.398,-0.371,17.021,1.178,0.128,0.404,0.13,10.242,-0.194,-0.669,-1.085,-0.349,5.094,-0.803,-1.025,-1.527,-0.875],[1606.331,2.703,94.331,-19.583,21.626,405.874,85.074,32.123,2.681,5.479,196.276,32.121,-1.493,3.723,1.976,33.491,3.936,0.442,-0.678,-1.021,19.417,1.091,-1.082,-0.525,-1.689,9.212,0.994,-0.616,-0.783,-0.583],[2618.735,356.636,128.77,-11.165,49.86,568.781,71.404,53.741,1.137,1.48,263.444,24.419,12.102,7.42,-0.596,58.171,5.987,2.277,-0.163,0.666,26.822,3.522,0.505,-0.577,-0.325,13.389,0.617,0.041,0.049,-0.761]]
}