{
"KTrans": [[-45.685,-75.312,-72.335,-72.066,-75.251,-36.466,-64.421,-53.777,-68.709,-67.003,-22.887,-48.355,-49.216,-54.17,-55.524,39.8,-7.841,-21.842,-14.711,-15.837,89.918,50.726,21.342,65.539,42.998,196.95,85.233,156.399,138.487,141.957],[-54.28,-49.466,-43.163,-62.111,-61.126,-55.686,-37.792,-44.69,-52.411,-60.213,-48.769,-31.89,-28.771,-52.28,-46.899,-26.142,-6.957,3.354,-31.04,-26.046,18.329,28.564,17.895,-5.877,-14.5,61.833,73.247,18.314,34.004,15.442],[-68.745,-44.816,-46.757,-45.694,-46.024,-68.798,-42.247,-43.805,-40.89,-46.196,-67.074,-44.511,-38.39,-35.262,-29.92,-57.208,-28.723,-20.752,-6.583,-2.465,-33.374,-8.299,0.966,1.845,9.38,2.806,44.757,56.216,56.205,25.54],[-77.501,-50.369,-46.116,-34.212,-51.645,-77.582,-50.688,-45.789,-43.439,-35.778,-76.097,-48.878,-37.235,-36.317,-40.815,-63.351,-39.763,-32.896,-20.542,-13.886,-56.471,-32.27,-14.976,-10.948,-2.923,-24.947,12.176,26.65,16.61,22.543],[-83.416,-56.765,-40.629,-42.649,-59.43,-81.896,-54.414,-36.78,-41.938,-46.568,-80.565,-52.643,-40.842,-35.875,-38.204,-76.235,-45.806,-37.035,-28.954,-17.055,-64.997,-41.669,-21.715,-21.977,-10.92,-43.458,-21.948,-3.794,2.815,6.482],[-85.915,-62.207,-47.159,-42.389,-36.104,-85.829,-63.451,-48.776,-45.118,-42.383,-84.483,-64.593,-45.822,-37.511,-32.511,-81.155,-60.91,-39.454,-28.522,-24.248,-74.027,-49.206,-39.912,-27.578,-17.028,-55.317,-19.842,-4.786,-18.701,-4.682]],
"ve": [[-37.1,-92.834,-36.393,50.124,-7.991,-63.67,-37.58,-44.37,-125.742,13.307,-290.519,-38.847,-63.38,-77.027,-138.3,32.849,15.916,15.45,-30.106,54.66,116.359,18.96,-26.963,-35.462,-30.935,149.802,164.498,43.054,-29.824,-22.971],[-47.236,-60.752,-40.835,13.844,-12.867,-43.092,-50.3,-44.74,-45.25,-26.295,-79.794,-29.675,-22.502,-39.97,-27.365,-3.438,-13.258,-2.35,-22.432,-22.682,121.332,56.377,11.428,2.809,-7.323,176.619,90.639,13.445,24.27,1.592],[7.465,-73.655,-67.022,-49.086,-47.839,-8.243,-75.1,-51.354,-55.566,-48.717,-43.339,-81.018,-55.342,-24.855,-31.617,19.411,-42.748,-32.841,-1.956,2.206,65.698,-1.4,-5.144,-0.195,16.542,226.818,86.294,79.366,58.789,17.397],[-16.69,-86.839,-93.526,-54.548,-76.301,-21.714,-79.891,-90.45,-74.416,-53.299,-6.649,-60.314,-70.127,-59.413,-58.151,53.811,1346.888,-70.35,-32.853,9.299,86.502,-27.93,-30.939,-21.011,-12.139,245.571,103.632,33.265,22.614,21.669],[-2.194,-64.71,-73.906,-80.03,-109.437,14.439,-83.643,-61.976,-85.934,-82.915,150.036,-68.966,-83.318,-70.309,-67.227,15.306,-30.043,-82.804,-63.087,-27.325,177.86,-33.763,-44.338,-39.108,-24.238,231.545,60.337,-28.416,3.387,5.29],[34.21,-41.884,-111.336,-93.608,-69.653,-2.125,-46.466,-95.62,-109.13,-88.412,14.707,-41.315,-94.966,-84.692,-59.471,26.515,-41.664,-69.811,-59.87,-51.469,135.01,9.431,-79.481,-63.147,-38.153,214.306,109.177,11.257,-45.347,-46.831]],
"kep": [[-122.825,-11.537,1.738,-2.402,-3.826,-119.075,-11.167,-1.536,-4.133,-23.774,-115.728,-46.633,-13.118,-2.682,-2.479,-120.108,-46.473,2.21,-14.449,-11.077,-71.333,-99.659,-36.611,-77.647,-72.7,-31.029,-61.391,-135.854,-130.079,-104.649],[-75.811,-56.344,-125.853,-39.089,-10.903,-73.315,-56.904,-108.972,-21.587,-13.03,-71.523,-63.403,-127.113,-23.758,-6.61,-63.738,-51.596,-110.702,-38.21,-19.292,-70.091,-60.277,-74.493,-59.769,-24.046,-63.326,-43.487,-12.797,-91.389,-56.877],[-86.802,-25.105,-24.979,-46.532,-118.017,-84.699,-22.132,-19.417,-46.658,-116.571,-83.934,-24.505,-23.745,-52.322,-123.679,-81.018,-30.392,-20.502,-51.427,-90.02,-76.762,-38.841,-26.801,-33.583,-109.963,-75.357,-41.982,-48.717,-32.7,-58.872],[-87.236,-33.337,-12.484,-4.757,-11.691,-89.721,-36.038,-13.172,-12.098,-20.915,-89.513,-43.461,-17.844,-14.257,-15.172,-87.509,-41.805,-9.637,-12.699,-11.297,-85.565,-46.006,-17.149,-18.869,-21.304,-85.264,-58.909,-27.344,-20.616,-40.875],[-94.54,-49.223,-18.815,-10.466,-3.298,-93.523,-42.214,-19.66,-6.99,-5.921,-92.082,-44.7,-16.211,-8.746,-4.295,-88.375,-47.713,-16.749,-6.082,-4.614,-86.248,-53.887,-14.743,-18.475,-2.751,-87.163,-60.936,-22.531,-27.286,-19.689],[-96.14,-59.61,-17.418,-8.303,-4.646,-94.783,-59.41,-23.845,-7.151,-5.063,-96.183,-59.966,-21.228,-8.133,-11.004,-93.237,-60.739,-27.024,-10.076,-2.404,-95.015,-63.915,-29.941,-11.315,-5.606,-89.213,-67.016,-38.048,-25.44,-1.12]],
"vp": [[200.926,350.888,152.917,96.259,-221.211,7.503,2.021,75.491,-47.558,-40.884,28.865,-31.526,1.395,-8.562,-5.409,-0.306,-1.724,4.081,-6.394,-6.834,-5.802,-1.306,5.469,-11.788,-3.974,-15.714,2.356,-8.688,-5.887,-8.317],[2645.127,663.819,117.553,-253.798,-101.994,465.104,134.089,1.397,-3.898,-30.299,199.782,81.457,4.245,-21.969,-9.804,22.512,7.211,-15.967,8.83,-19.018,2.693,4.612,-10.589,3.119,1.218,-8.104,-17.483,-1.035,-12.775,-0.963],[4183.749,1730.999,951.434,800.328,278.409,875.03,287.591,194.149,30.544,-27.385,374.138,125.082,105.588,51.812,-16.132,79.903,23.895,-3.329,10.17,-4.503,18.813,4.81,-6.378,-0.046,15.068,5.984,-26.626,-9.041,-12.524,-21.746],[5315.807,2593.37,1064.534,1057.964,188.162,1097.455,619.77,207.162,61.561,168.056,536.041,415.519,131.142,73.2,3.842,95.317,60.026,17.873,9.651,6.771,52.051,23.512,5.527,3.104,-16.93,-1.914,3.825,-8.344,-14.859,-5.992],[6230.006,5439.641,2308.457,1523.53,-146.022,1264.14,828.45,444.25,235.497,90.012,559.603,401.48,200.736,91.858,25.911,105.63,96.374,30.728,-6.171,42.259,38.457,35.511,18.455,-1.637,-7.713,-2.953,15.054,-14.005,-0.649,0.157],[6932.15,6990.661,2673.205,1930.318,1472.343,1280.738,1337.527,689.466,275.34,164.966,735.393,713.103,315.569,148.484,146.756,127.318,128.506,45.337,29.809,16.392,71.952,75.05,23.372,7.851,3.038,14.638,16.274,-1.203,-6.414,-5.819]]
}