{
"KTrans": [[-7.491,1.549,7.186,1.87,4.918,-9.898,-1.27,3.37,3.251,-0.599,-18.939,8.221,1.406,-3.013,3.019,-0.932,6.277,-2.691,10.725,5.528,38.478,17.142,8.35,15.664,7.477,-17.368,47.542,55.711,52.4,34.153],[-74.185,-4.817,1.848,1.957,2.685,-69.576,3.178,0.424,-0.549,2.942,-70.272,-7.76,2.781,0.311,0.967,-63.46,-10.511,-3.249,-1.174,2.412,-47.941,5.529,8.483,-1.942,-3.412,-49.286,23.22,8.433,13.003,2.593],[-90.333,-18.916,-2.63,0.972,1.479,-90.05,-18.242,-9.669,3.193,0.645,-90.641,-28.837,-3.038,-0.494,-1.15,-87.194,-31.138,-1.319,-3.044,0.099,-76.383,-23.674,-6.583,-0.838,1.592,-81.104,-1.348,10.136,14.28,4.464],[-96.784,-53.387,-10.712,-2.469,0.714,-97.223,-56.055,-5.616,-4.914,0.036,-96.3,-49.325,-7.247,1.036,-1.727,-93.105,-46.038,-9.538,0.937,1.679,-89.09,-49.189,-4.373,5.551,-4.088,-83.17,-27.609,5.657,15.131,-3.962],[-97.577,-70.542,-20.514,0.609,-0.122,-97.697,-72.113,-18.91,0.913,2.61,-97.907,-74.271,-18.497,-3.478,3.13,-98.025,-63.632,-22.638,-3.587,2.406,-95.122,-65.153,-22.202,-6.713,-5.267,-99.724,-58.024,-18.011,13.154,-6.665],[-98.783,-83.083,-32.547,-7.085,1.757,-99.055,-89.35,-31.625,-2.815,-3.41,-98.573,-79.022,-29.01,-6.018,-2.332,-98.755,-78.933,-40.87,-8.273,-7.903,-96.557,-81.593,-30.919,-20.067,-6.293,-97.742,-63.264,-20.45,1.464,8.937]],
"ve": [[1.903,9.974,36.112,16.107,59.955,-10.299,13.529,-5.251,56.174,-20.176,0.537,9.863,11.724,34.623,-15.743,-70.834,38.409,-1115.682,15.418,50.453,-0.174,-7.043,-1.268,-66.148,24.667,-43.073,10.647,-76.058,64.875,-1138.546],[-48.877,-2.201,-0.019,-0.466,0.189,-28.291,0.839,0.555,0.32,0.469,-2.217,-4.259,-0.985,-0.803,-0.03,-32.227,-101.963,-0.782,-0.95,0.73,-14.698,3.681,10.643,3.209,2.421,-48.512,29.864,-13.967,-60.01,-7.659],[-54.323,-9.377,-1.564,0.149,-0.289,-69.289,-8.062,-3.203,0.371,-0.55,-70.257,-14.508,-1.894,-0.466,-0.05,-40.599,-18.83,-3.45,-2.545,-0.139,-57.885,-18.329,-1.159,0.449,-0.193,-57.526,-6.817,2.159,-3.654,48.077],[-4166.441,-31.17,-5.274,-2.316,-0.234,-92.068,-31.971,-4.437,-2.639,-1.355,-88.301,-26.027,-3.418,-1.177,-0.959,-87.235,-25.458,-6.9,-1.297,-0.695,-73.767,-20.466,-0.239,-0.054,-3.926,-41.207,-22.001,812.721,7.128,-1.779],[-93.201,-45.865,-11.962,-2.272,-2.014,-31.068,-54.735,-10.303,-0.976,-0.194,-83.262,-48.683,-12.754,-1.096,-0.222,-81.336,-35.882,-12.18,-4.427,-1.298,-81.649,-40.831,-14.673,-4.287,-4.479,-1.632,-38.983,-13.89,6.424,-6.299],[-87.953,-57.945,-18.758,-4.45,-0.753,-8.207,-70.74,-18.204,-3.132,-3.053,-90.986,-45.738,-16.867,-4.324,-2.003,-123.994,-57.536,-21.922,-5.999,-4.345,-78.469,-59.923,-20.365,-13.746,-3.1,-83.123,-37.866,-8.882,-2.162,7.765]],
"kep": [[-15.02,-1.254,5.996,-1.461,5.705,-18.234,-5.633,2.036,3.914,-6.701,-21.401,-0.169,-0.012,-10.324,3.522,-27.864,-6.325,-11.614,5.797,0.883,-10.202,-13.696,-15.758,-0.097,-14.645,29.111,-3.537,-2.335,8.962,-36.679],[-69.054,-4.085,1.288,2.808,2.857,-65.418,0.683,-0.514,-0.838,2.757,-65.179,-5.352,3.605,1.161,1.403,-69.094,-12.64,-4.41,-0.812,1.675,-59.081,-14.483,-0.711,-6.354,-5.766,-47.291,-15.001,-25.743,-9.809,-13.539],[-88.106,-13.178,-2.126,0.635,1.701,-88.817,-14.648,-8.05,2.604,1.035,-89.925,-19.358,-2.433,-0.273,-1.184,-86.02,-27.969,-1.923,-1.706,-0.856,-73.604,-39.939,-13.933,-6.104,-1.106,-59.819,-26.755,-19.495,-7.72,-9.288],[-97.043,-37.92,-6.493,-1.143,0.604,-99.166,-42.578,-2.872,-3.296,1.118,-96.741,-38.479,-5.47,1.633,-1.108,-92.802,-47.494,-6.29,0.565,1.83,-85.818,-56.361,-13.503,1.48,-4.195,-71.347,-45.491,-20.766,-7.383,-12.981],[-99.698,-60.864,-12.81,1.765,1.505,-97.155,-59.57,-11.828,1.102,2.388,-98.931,-63.835,-10.277,-3.208,2.607,-97.46,-58.639,-20.097,-2.026,2.17,-91.14,-65.626,-27.563,-9.018,-4.387,-80.895,-59.961,-34.711,-12.733,-15.156],[-99.405,-72.352,-21.042,-3.91,1.7,-98.596,-81.69,-20.965,-1.035,-1.025,-98.21,-71.468,-18.654,-3.447,-1.184,-96.041,-77.143,-33.637,-4.956,-5.264,-91.774,-78.512,-40.387,-19.296,-6.199,-84.401,-63.198,-44.415,-28.181,-9.411]],
"vp": [[326.012,17.974,-291.518,-119.942,-295.174,89.874,60.99,1.255,28.641,52.765,82.471,-31.59,10.501,38.392,-14.902,12.499,1.793,12.895,-11.031,-9.42,-1.716,-5.007,3.884,-11.936,-2.537,5.563,-3.835,-10.195,-15.306,0.387],[4536.816,760.653,51.818,294.65,-72.31,817.013,26.549,25.747,86.335,-34.856,415.391,139.604,31.731,31.823,24.501,88.1,37.634,15.936,13.887,2.769,24.931,5.443,-7.378,9.575,15.746,18.948,-3.378,9.128,-2.708,6.915],[6880.601,2066.059,528.604,184.412,-62.06,1361.963,390.252,265.282,-14.892,34.91,680.631,311.965,69.118,23.946,46.805,135.019,78.401,28.218,30.673,12.71,58.064,38.477,19.641,1.682,2.334,31.461,5.493,-1.614,-8.404,3.257],[8342.495,6428.528,1737.717,1062.669,266.562,1749.111,1391.427,340.458,243.156,92.333,869.452,558.483,98.639,74.873,40.389,148.512,122.48,49.944,7.637,-3.851,71.692,67.534,5.508,-3.11,26.129,20.881,22.718,-1.694,-14.637,17.579],[8886.432,9698.713,3750.83,1101.066,1109.437,1702.872,1853.012,666.219,51.179,28.159,942.834,1047.01,405.418,62.364,13.084,187.557,149.753,79.485,34.442,9.4,90.75,85.593,47.858,19.89,23.684,44.194,41.829,18.364,-16.348,20.923],[9622.52,11697.337,6023.87,1846.928,585.088,1877.373,2765.947,1112.902,232.698,327.834,949.388,1139.687,520.641,197.239,124.17,198.821,243.294,138.749,50.218,47.614,80.812,133.074,66.183,62.974,15.904,40.851,40.488,18.619,3.799,-12.682]]
}