{
"KTrans": [[-10.792,5.364,6.687,11.164,8.717,-14.953,10.052,5.211,9.635,6.484,-19.954,15.226,10.912,14.792,8.736,15.111,38.347,28.182,28.142,12.831,80.462,48.804,83.901,23.703,36.59,14.135,132.2,90.017,76.334,73.488],[-79.096,-21.395,3.199,5.297,8.176,-74.927,-15.645,5.472,-3.838,1.499,-76.398,-14.28,-0.516,-1.448,0.391,-55.039,2.847,18.87,10.839,9.621,-37.518,18.603,30.981,16.673,12.804,-6.795,71.802,78.646,47.719,28.536],[-86.329,-40.867,-9.954,2.319,-0.766,-87.913,-49.168,-5.425,0.239,2.33,-86.446,-53.781,-10.317,-2.79,3.61,-85.427,-30.435,1.82,5.586,6.173,-67.689,-7.266,28.998,10.489,7.684,-50.721,35.263,35.991,43.967,31.632],[-93.183,-64.002,-23.123,-9.945,2.644,-91.749,-57.401,-26.509,-6.041,-3.727,-92.25,-60.894,-18.38,-2.913,-6.555,-84.035,-53.497,-5.014,7.323,3.761,-74.956,-40.881,5.574,10.842,18.63,-57.966,-14.698,20.314,20.965,30.977],[-95.278,-75.191,-31.438,-4.777,-5.149,-96.515,-73.463,-33.236,-18.468,-3.168,-96.141,-75.128,-34.906,-8.022,0.314,-90.942,-66.091,-31.121,-3.696,7.228,-88.599,-62.944,-14.735,-1.931,16.079,-75.016,-29.433,-1.928,9.577,36.599],[-97.702,-80.501,-49.597,-22.399,-6.532,-97.112,-83.55,-48.659,-21.899,-7.36,-95.84,-83.927,-47.098,-18.085,-8.73,-90.302,-68.401,-42.566,-12.167,-2.549,-92.659,-64.247,-27.798,-6.835,22.065,-82.8,-46.429,-21.311,5.748,30.772]],
"ve": [[-30.611,-2293.536,-102.068,11.392,-81.454,2.849,-149.034,-14.1,240.741,-1.999,-29.749,10.796,-263.438,22.779,-259.21,37.571,-2.427,74.258,-157.173,-52.073,13.492,3.967,7.722,-10.781,17.317,87.957,11.359,16.27,-8.687,-11.807],[-64.081,5.912,-30.898,-0.481,2.106,-40.461,-7.111,-8.095,0.577,0.118,-25.015,1.577,1.291,4.92,2.11,-15.922,12.181,2.056,1.867,0.701,-1.078,9.654,9.542,30.351,-16.882,30.855,21.304,21.622,5.225,-8.161],[-41.232,-21.471,-7.106,-2.422,-2.99,-28.345,-41.939,-7.915,-1.526,-0.799,-224.761,-21.452,-6.016,-3.701,-2.435,-74.241,-19.905,-5.451,0.416,-0.182,-30.005,-0.625,3.703,-1.554,1.708,-11.864,28.755,14.502,12.058,6.05],[-816.075,-36.037,-17.634,-6.296,-2.545,-96.757,-38.503,-20.911,-6.255,-2.402,-31.008,-37.468,-13.744,-3.593,-4.701,-22.678,94.361,-4.887,-1.078,-1.642,-28.888,-22.888,-3.038,1.702,-20.586,-71.236,8.992,8.37,2.145,7.313],[-60.779,-45.915,-23.614,-7.772,-6.606,-73.238,-53.344,-19.366,-11.783,-6.568,-65.806,-61.973,572.23,-9.045,-3.314,-56.643,-48.65,-22.177,-6.965,-3.088,-61.39,-35.851,-12.54,-9.797,0.677,-47.998,-6.706,-6.202,-2.345,5.833],[-95.304,-60.001,-37.323,-16.118,-7.793,-61.71,-188.296,-35.691,-14.344,-9.156,-48.731,117.289,-67.142,-13.231,-9.886,-62.586,-35.011,-22.355,-11.389,-6.52,-2.574,-35.987,-12.581,-8.848,3.215,2.626,-8.974,-1.983,9.149,9.088]],
"kep": [[-34.794,-3.541,-5.329,11.54,8.014,-35.254,-0.813,-5.478,1.869,2.5,-37.58,6.505,10.78,14.335,0.139,-22.163,15.349,3.384,28.834,6.348,14.415,15.193,73.896,-11.114,36.928,16.988,92.807,72.917,64.673,99.649],[-83.171,-17.794,0.628,6.915,7.744,-78.776,-10.329,2.179,-3.422,3.037,-77.071,-14.323,-0.953,-2.772,0.207,-63.163,-6.766,9.531,9.647,10.57,-53.434,-5.547,6.903,5.476,6.09,-44.747,18.552,30.604,14.902,2.554],[-89.758,-35.541,-5.516,2.977,2.29,-87.772,-42.093,-4.562,1.177,2.58,-86.891,-39.117,-4.287,0.342,5.645,-84.659,-30.942,2.589,4.139,5.527,-77.241,-19.305,14.847,1.869,3.606,-64.966,-13.765,6.447,14.446,10.106],[-92.169,-56.027,-13.37,-4.737,4.351,-92.929,-58.999,-17.502,-1.635,-1.68,-92.811,-52.674,-10.955,-0.657,-2.753,-84.586,-51.82,-7.636,6.278,4.344,-78.949,-44.127,-6.266,5.484,9.738,-72.755,-35.902,-9.368,3.618,9.333],[-95.008,-69.348,-18.505,-2.876,-0.034,-96.982,-64.924,-20.664,-10.46,2.255,-96.08,-68.509,-25.345,-1.162,2.139,-91.046,-59.521,-24.779,0.183,8.642,-86.553,-61.111,-19.335,-2.243,9.709,-80.341,-44.389,-20.886,-8.726,12.011],[-96.671,-74.301,-38.558,-12.87,-1.482,-96.215,-78.259,-33.396,-8.711,-1.541,-95.157,-77.202,-36.028,-7.719,-0.129,-92.357,-65.09,-36.579,-4.431,0.883,-90.617,-60.57,-30.983,-7.106,18.589,-86.301,-52.219,-34.388,-14.687,5.587]],
"vp": [[690.228,56.867,147.149,55.768,-150.346,229.053,-24.548,85.243,-65.381,90.268,67.218,-3.609,15.086,-37.34,-4.092,-1.08,-31.058,-11.654,-25.061,-17.954,-27.802,-28.595,-56.648,-5.275,-22.936,-34.998,-31.213,-32.662,-24.495,-39.359],[5515.527,2727.351,904.352,469.039,-187.006,895.843,489.456,73.693,277.546,77.454,497.764,153.643,60.886,87.601,59.377,52.461,16.696,-17.749,-7.353,1.162,10.699,-11.333,-28.368,-14.903,-1.053,-16.436,-27.771,-38.928,-28.924,-18.575],[5491.616,5741.965,2547.314,1181.589,1869.674,1207.153,1338.5,289.089,314.228,199.722,609.729,693.547,265.547,179.389,116.075,131.177,66.504,46.379,18.996,2.667,27.244,-1.684,-19.767,-1.64,4.072,4.698,-28.594,-22.401,-26.432,-19.896],[7082.389,8696.442,4797.265,2811.066,2072.41,1377.103,1908.363,1018.217,542.223,384.71,706.893,781.536,478.026,189.3,293.751,101.373,134.568,48.746,0.104,42.597,25.211,47.182,4.25,-1.559,-17.832,18.706,-4.796,-16.368,-4.425,-24.338],[7348.025,10854.32,7552.628,3444.255,3734.677,1571.418,1974.383,1286.192,1094.477,677.144,794.288,1054.996,766.529,345.191,177.63,134.184,164.774,127.924,64.067,36.154,65.822,66.351,39.947,40.382,-8.006,16.381,0.646,12.619,3.884,-28.311],[8176.498,11771.58,11411.783,6982.27,4119.232,1533.263,2433.292,2193.446,1250.765,1042.924,742.493,1211.937,952.668,546.2,502.599,87.276,181.466,155.587,106.311,87.064,62.492,76.903,39.587,35.269,-21.718,5.766,5.391,16.82,-14.546,-18.772]]
}