{
"KTrans": [[0.004,0.013,0.012,0.012,0.011,0.023,0.021,0.02,0.019,0.016,0.045,0.033,0.03,0.028,0.024,0.243,0.119,0.095,0.086,0.076,0.445,0.258,0.201,0.192,0.154,0.94,0.472,0.404,0.289,0.299],[-0.198,-0.024,0.001,0.008,0.011,-0.172,-0.014,0.008,0.013,0.014,-0.13,-0.003,0.015,0.019,0.019,0.172,0.092,0.073,0.059,0.052,0.591,0.219,0.178,0.124,0.099,1.459,0.498,0.262,0.233,0.208],[-0.674,-0.125,-0.037,-0.01,0.001,-0.633,-0.111,-0.029,-0.005,0.005,-0.565,-0.094,-0.018,-0,0.009,-0.146,0.048,0.047,0.057,0.04,0.25,0.198,0.153,0.113,0.096,1.739,0.641,0.321,0.236,0.204],[-1.431,-0.296,-0.105,-0.044,-0.019,-1.398,-0.278,-0.095,-0.039,-0.015,-1.34,-0.259,-0.085,-0.032,-0.012,-0.791,-0.117,-0.006,0.02,0.037,-0.225,0.184,0.123,0.087,0.075,0.88,0.536,0.316,0.285,0.167],[-2.465,-0.532,-0.203,-0.095,-0.049,-2.412,-0.515,-0.192,-0.089,-0.045,-2.337,-0.494,-0.179,-0.082,-0.037,-2.071,-0.26,-0.094,-0.021,0.006,-1.654,-0.086,0.052,0.061,0.072,-0.191,0.631,0.266,0.238,0.18],[-3.771,-0.846,-0.332,-0.163,-0.089,-3.694,-0.822,-0.321,-0.155,-0.084,-3.762,-0.791,-0.308,-0.147,-0.078,-3.507,-0.569,-0.189,-0.086,-0.028,-3.582,-0.326,-0.033,0.017,0.026,-2.883,0.199,0.215,0.187,0.159]],
"ve": [[0.001,-0.001,-0.007,-0.013,-0.019,0.005,-0.003,-0.011,-0.02,-0.026,0.009,-0.005,-0.017,-0.028,-0.037,0.058,-0.021,-0.056,-0.087,-0.114,0.094,-0.039,-0.113,-0.182,-0.219,0.207,-0.077,-0.219,-0.296,-0.423],[-0.091,-0.009,0,0.002,0.001,-0.081,-0.006,0.002,0.002,0,-0.062,-0.003,0.003,0.003,0,0.06,0.024,0.015,0.006,-0.002,0.25,0.066,0.044,0.015,-0.004,0.619,0.166,0.048,0.024,-0.002],[-0.323,-0.056,-0.015,-0.004,0,-0.304,-0.05,-0.012,-0.002,0.001,-0.272,-0.044,-0.008,-0.001,0.002,-0.093,0.012,0.013,0.018,0.007,0.102,0.073,0.051,0.032,0.021,0.81,0.265,0.106,0.07,0.05],[-0.697,-0.138,-0.046,-0.018,-0.007,-0.683,-0.13,-0.042,-0.016,-0.006,-0.656,-0.123,-0.038,-0.014,-0.005,-0.393,-0.064,-0.008,0.004,0.012,-0.152,0.081,0.046,0.027,0.021,0.346,0.221,0.116,0.108,0.049],[-1.212,-0.253,-0.093,-0.042,-0.02,-1.187,-0.246,-0.088,-0.039,-0.019,-1.151,-0.237,-0.083,-0.037,-0.016,-1.012,-0.127,-0.051,-0.013,-0.001,-0.833,-0.061,0.014,0.018,0.024,-0.212,0.288,0.097,0.095,0.061],[-1.871,-0.408,-0.156,-0.074,-0.039,-1.829,-0.397,-0.151,-0.071,-0.037,-1.875,-0.381,-0.145,-0.067,-0.035,-1.757,-0.282,-0.095,-0.045,-0.016,-1.82,-0.176,-0.023,0.003,0.005,-1.473,0.048,0.08,0.063,0.057]],
"kep": [[0.014,0.025,0.03,0.035,0.04,0.028,0.034,0.041,0.049,0.053,0.046,0.049,0.057,0.067,0.071,0.195,0.15,0.162,0.183,0.2,0.361,0.308,0.324,0.385,0.384,0.741,0.56,0.635,0.598,0.736],[-0.097,-0.004,0.012,0.017,0.02,-0.081,0.002,0.016,0.021,0.024,-0.057,0.011,0.022,0.027,0.029,0.121,0.078,0.069,0.064,0.064,0.349,0.163,0.144,0.12,0.113,0.841,0.341,0.224,0.219,0.221],[-0.342,-0.059,-0.011,0.004,0.011,-0.32,-0.05,-0.007,0.008,0.014,-0.283,-0.04,0,0.011,0.017,-0.043,0.046,0.044,0.05,0.043,0.155,0.135,0.112,0.092,0.085,0.921,0.384,0.225,0.176,0.164],[-0.729,-0.148,-0.048,-0.016,-0.001,-0.709,-0.137,-0.042,-0.012,0.001,-0.678,-0.126,-0.036,-0.008,0.004,-0.391,-0.043,0.013,0.027,0.035,-0.067,0.114,0.087,0.071,0.065,0.522,0.323,0.209,0.186,0.129],[-1.258,-0.269,-0.1,-0.043,-0.018,-1.23,-0.259,-0.093,-0.039,-0.016,-1.19,-0.248,-0.086,-0.035,-0.011,-1.063,-0.123,-0.033,0.002,0.017,-0.829,-0.014,0.049,0.054,0.058,-0.014,0.35,0.178,0.153,0.129],[-1.926,-0.429,-0.166,-0.079,-0.04,-1.89,-0.417,-0.16,-0.074,-0.037,-1.914,-0.401,-0.152,-0.07,-0.033,-1.776,-0.278,-0.084,-0.031,-0.002,-1.8,-0.141,0,0.025,0.032,-1.491,0.158,0.144,0.134,0.112]],
"vp": [[-0.159,-0.919,-1.152,-1.318,-1.378,-0.161,-0.253,-0.329,-0.374,-0.349,-0.154,-0.198,-0.234,-0.257,-0.23,-0.185,-0.126,-0.124,-0.127,-0.116,-0.158,-0.143,-0.133,-0.148,-0.118,-0.17,-0.127,-0.135,-0.096,-0.112],[9.427,2.153,-0.155,-1.343,-2.023,1.669,0.286,-0.166,-0.37,-0.486,0.638,0.06,-0.159,-0.28,-0.325,-0.132,-0.125,-0.15,-0.159,-0.154,-0.269,-0.165,-0.209,-0.17,-0.144,-0.329,-0.204,-0.13,-0.154,-0.161],[32.634,11.765,5.053,1.81,-0.162,6.143,2.108,0.816,0.194,-0.168,2.744,0.912,0.268,0.04,-0.156,0.181,-0.059,-0.1,-0.189,-0.133,-0.115,-0.164,-0.184,-0.171,-0.174,-0.421,-0.288,-0.189,-0.189,-0.198],[70.102,28.275,14.735,8.089,4.264,13.746,5.328,2.68,1.448,0.687,6.592,2.505,1.203,0.61,0.304,0.781,0.252,0.044,-0.044,-0.151,0.146,-0.176,-0.157,-0.128,-0.136,-0.182,-0.235,-0.193,-0.251,-0.159],[121.68,51.35,28.802,17.739,11.176,23.824,9.983,5.462,3.328,2.073,11.541,4.793,2.567,1.568,0.854,2.017,0.503,0.308,0.095,0.001,0.826,0.117,-0.051,-0.084,-0.141,0.101,-0.302,-0.16,-0.214,-0.178],[187.599,82.376,47.702,30.834,20.799,36.658,16.016,9.242,5.882,3.906,18.793,7.688,4.449,2.788,1.833,3.514,1.132,0.575,0.366,0.161,1.815,0.349,0.061,-0.021,-0.035,0.728,-0.055,-0.132,-0.137,-0.163]]
}