{
"KTrans": [[-9.194,12.773,1.699,5.279,-0.155,-4.492,12.42,6.139,2.962,2.391,-9.357,5.407,10.358,-0.362,5.213,9.515,-2.033,7.115,7.398,8.814,-3.392,13.72,20.599,20.401,14.23,-30.205,45.059,44.028,40.68,11.44],[-71.549,-10.547,2.865,6.109,1.604,-76.495,3.786,4.061,-3.026,-0.825,-72.762,4.507,-2.176,-0.166,-0.59,-60.524,-10.243,-4.219,-4.415,0.527,-59.393,7.259,13.955,6.881,-3.139,-62.578,21.327,10.77,13.475,15.857],[-92.46,-31.617,0.09,3.459,2.215,-95.094,-32.156,-2.296,2.784,1.543,-93.162,-31.364,-3.134,1.337,-1.266,-88.964,-22.651,-9.157,-2.356,-2.183,-87.521,-10.06,-2.42,-0.329,-0.778,-109.952,-8.347,32.984,7.28,-2.599],[-97.818,-50.839,-9.606,-0.021,4.165,-98.159,-62.087,-9.137,-1.19,-2.676,-96.325,-64.847,-16.335,-4.094,5.382,-95.445,-66.533,-15.856,-3.294,0.816,-97.559,-43.39,-14.489,-8.206,7.276,-105.85,-44.307,-3.964,13.999,16.765],[-97.819,-80.596,-26.29,-7.45,1.771,-97.208,-82.358,-32.011,-2.818,0.05,-97.806,-77.401,-25.516,3.351,0.551,-98.629,-77.816,-39.569,-7.325,-3.375,-97.83,-67.193,-20.408,6.563,0.187,-140.375,-64.464,-15.549,-0.804,7.616],[-98.402,-90.918,-41.393,-10.571,2.046,-99.203,-88.986,-47.608,-9.809,-0.992,-98.93,-84.417,-48.901,-6.927,-0.287,-98.385,-84.487,-52.797,-16.864,2.441,-104.915,-82.755,-39.517,-22.646,2.313,-109.171,-68.129,-31.626,-10.764,-8.929]],
"ve": [[-25.117,-4.607,116.526,26.154,-90.447,20.788,26.089,63.89,35.833,122.279,7.18,-3.858,115.754,42.787,30.424,3.289,-0.033,-53.229,-86.642,-4.286,-15.206,-19.14,-19.721,-11.051,-35.897,5.906,-120.698,-35.91,-45.221,-46.408],[-38.522,-4.285,1.045,0.847,-0.26,-57.985,-0.375,0.203,0.484,1.456,-40.431,0.835,-1.021,-0.29,-1.319,-42.249,-2.024,5.636,0.063,1.003,-35.305,6.005,50.067,6.63,3.574,-48.869,4.161,-13.242,0.277,-5.581],[-54.745,-15.941,-2.615,-0.459,0.527,-77.058,-16.314,-1.118,-0.61,-0.799,-81.395,-17.109,-3.356,-0.543,-0.857,-76.772,-11.791,-5.272,-3.1,-1.243,-101.367,-5.199,-38.875,-0.405,-1.309,-105.62,-11.037,19.078,-10.969,-16.216],[-95.547,-29.486,-5.93,-1.975,0.421,-66.954,-37.229,-7.471,-1.934,-1.4,-105.42,-38.731,-10.071,-3.324,0.636,1.522,-65.004,-9.323,-5.393,-0.739,-16.901,-25.038,-12.101,-7.172,1.684,-110.843,-42.26,-4.915,2.097,150.701],[-582.928,-27.741,-15.835,-5.737,-0.667,-117.124,-67.058,-17.814,-2.79,-1.593,56.314,-51.048,-16.55,-0.908,-1.258,-52.34,-38.682,-29.292,-6.384,-4.669,-82.149,-44.4,-13.331,0.911,-3.205,-204.757,-59.652,-12.572,-8.539,-1.983],[-87.333,-66.753,-29.565,-7.75,0.035,-109.441,-70.822,-21.27,-6.964,-2.455,-89.03,-65.094,-30.649,-4.916,-1.452,-93.809,-68.028,-36.939,-12.444,-1.165,-105.602,-72.009,-35.468,-17.276,-0.219,-114.821,-50.241,-36.917,-17.5,-13.984]],
"kep": [[-19.558,10.145,-3.252,4.79,-1.294,-14.364,7.314,1.816,-1.021,1.116,-19.674,-0.528,9.847,-5.985,7.29,-18.683,-13.99,-1.362,-1.383,9.197,-0.875,-24.176,-3.934,3.986,-3.518,45.897,19.576,-8.026,12.531,-66.917],[-73.067,-10.061,1.382,5.413,2.453,-75.544,1.278,3.121,-3.334,-1.791,-72.879,0.151,-1.371,0.158,1.068,-71.559,-16.125,-6.167,-4.951,0.008,-55.958,-18.513,-0.731,-0.32,-6.598,-37.038,-1.83,-29.726,-12.243,-5.867],[-93.706,-24.094,1.267,3.245,1.372,-95.291,-26.191,-2.533,2.441,2.104,-94.378,-26.101,-1.133,0.895,-0.614,-87.692,-28.181,-8.928,-1.611,-2.18,-82.534,-30.666,-15.76,-5.659,-2.517,-69.122,-25.349,-9.068,-20.103,-19.602],[-101.096,-41.347,-6.262,0.728,3.012,-100.307,-50.733,-5.437,-0.622,-1.892,-100.075,-53.601,-10.615,-1.882,3.991,-94.028,-68.745,-13.579,-1.604,-0.019,-89.108,-49.956,-21.914,-10.958,0.768,-80.334,-45.406,-25.958,-16.656,-2.855],[-98.715,-72.91,-17.575,-2.909,1.455,-98.46,-75.593,-22.083,-1.048,0.641,-100.428,-71.311,-17.338,2.136,0.977,-96.636,-76.958,-34.5,-6.761,-0.808,-92.585,-65.872,-33.371,-2.277,-1.9,-84.132,-58.004,-36.435,-26.767,-14.052],[-99.228,-89.753,-33.935,-6.135,0.978,-99.72,-86.955,-35.546,-5.719,0.314,-100.001,-80.055,-37.418,-5.209,-0.186,-95.728,-84.611,-47.328,-14.943,0.959,-91.516,-77.908,-52.191,-25.056,-3.88,-89.484,-64.012,-41.47,-32.153,-29.099]],
"vp": [[734.024,-569.712,180.768,-50.908,361.721,102.606,-88.615,-34.201,-9.744,73.185,28.6,20.523,-42.038,28.754,17.046,8.627,11.046,3.112,1.217,-1.071,12.386,0.679,-4.352,-8.971,-7.25,-6.199,-0.193,0.885,-3.421,15.561],[4711.47,1335.208,54.458,-274.747,238.335,952.032,45.684,-32.958,103.239,68.417,502.608,34.881,67.309,50.675,62.64,91.837,23.423,25.763,31.378,10.333,44.171,5.008,-1.551,0.912,18.841,23.994,-2.52,18.708,2.186,-8.815],[7475.829,3586.558,661.965,-79.494,-46.188,1660.786,679.233,141.531,24.058,36.407,797.016,400.879,126.656,18.233,80.612,138.121,58.453,40.537,35.818,27.421,80.794,14.713,19.886,7.808,13.554,54.68,10.705,-22.855,9.643,15.499],[9728.745,6463.016,1995.091,705.079,-181.971,1834.404,1573.962,497.158,145.461,196.13,878.825,824.174,366.476,163.725,-52.223,157.834,210.36,59.705,46.766,12.564,91.796,67.711,34.187,32.479,-6.399,49.242,36.736,8.04,-5.306,-14.878],[9137.945,11886.603,4923.956,2469.834,590.43,1695.958,2481.446,1166.635,214.964,167.524,930.076,1173.037,511.767,18.974,83.848,195.252,247.82,176.749,57.425,47.195,92.277,90.914,47.693,2.029,17.118,106.754,62.873,18.773,15.204,-0.61],[8976.846,15505.287,7975.937,3172.452,321.955,2095.743,2886.948,1834.015,618.532,265.787,986.118,1325.048,964.638,203.808,53.51,189.637,274.971,218.135,101.687,6.066,112.022,124.678,102.654,76.005,1.386,53.48,49.278,37.687,34.982,34.431]]
}