{
"KTrans": [[2.341,1.104,0.93,0.557,0.458,12.931,7.465,6.195,5.346,4.816,24.247,15.282,12.585,10.877,9.63,160.897,92.259,72.104,64.327,59.739,-1.216,197.437,162.52,146.647,131.441,-62.137,31.938,144.239,175.036,192.329],[3.281,1.452,0.829,0.637,0.461,11.969,6.108,3.8,3.012,2.58,26.112,11.685,8.454,6.569,5.146,-168.211,69.763,47.596,36.783,30.418,35.513,163.498,99.879,85.312,69.325,-7.018,-126.958,145.23,174.135,145.477],[8.513,1.636,1.136,0.531,0.471,14.732,6.633,3.877,2.818,2.455,36.503,11.932,7.981,6.091,5.009,-60.551,86.791,41.793,33.174,27.054,-43.556,15.902,105.163,76.777,57.727,-32.505,40.081,-50.521,130.139,136.407],[11.283,2.755,1.302,0.937,0.542,29.018,9.25,3.645,3.795,2.473,21.859,11.683,8.809,5.162,4.474,-44.922,109.306,40.45,34.1,25.78,-44.455,-13.483,122.219,64.443,55.687,-36.765,-3.938,-46.092,152.58,121.019],[-24.118,5.935,2.384,1.025,1.083,-21.261,9.308,4.038,2.677,2.96,-56.783,18.907,8.754,5.852,4.629,-59.99,82.243,45.433,30.009,22.799,-71.073,-37.308,138.63,66.33,60.404,-36.772,-8.802,-72.662,-64.684,141.655],[-58.693,4.531,0.602,0.177,0.028,-61.568,11.435,4.499,4.894,2.734,-73.63,24.208,8.544,7.599,5.493,-64.965,-20.873,48.786,33.727,25.829,-58.23,-10.047,96.381,81.839,52.612,-45.768,-59.292,-8.126,21.323,160.04]],
"ve": [[0.825,-0.126,-0.77,-1.227,-1.712,4.249,0.457,-1.778,-3.545,-5.069,8.513,1.363,-2.607,-5.536,-7.837,48.331,14.06,-0.818,-10.76,-18.352,93.426,39.648,11.674,-6.03,-16.884,200.174,77.518,32.559,7.241,-12.604],[1.147,0.565,0.276,0.099,-0.061,5.118,2.438,1.375,0.725,0.316,10.18,4.751,2.809,1.639,0.8,50.448,24.068,14.615,9.377,5.685,100.73,51.321,30.247,20.448,13.385,198.29,99.821,50.529,46.406,31.034],[1.388,0.628,0.428,0.256,0.164,5.116,2.632,1.665,1.153,0.835,10.265,5.074,3.275,2.312,1.671,50.109,25.343,16.064,11.711,8.721,104.182,70.328,33.228,24.015,17.779,201.582,101.154,65.142,48.381,37.37],[1.548,0.731,0.468,0.352,0.244,5.85,2.852,1.7,1.375,0.992,10.183,5.075,3.516,2.424,1.888,50.304,25.838,16.388,12.391,9.472,100.266,50.828,33.39,24.464,19.178,208.202,100.809,66.682,52.94,38.479],[1.334,0.935,0.548,0.362,0.339,6.964,2.727,1.77,1.306,1.111,5.131,5.342,3.495,2.548,2.019,50.782,25.695,16.729,12.343,9.64,102.856,51.428,33.475,24.816,20.058,202.002,83.386,67.142,49.981,40.03],[0.823,0.581,0.364,0.271,0.218,6.477,2.915,1.779,1.548,1.113,22.567,5.728,3.459,2.79,2.138,50.874,26.895,16.759,12.673,10.054,101.886,50.853,34.198,25.217,19.771,198.851,104.314,67.418,49.13,41.238]],
"kep": [[2.942,2.666,3.159,3.26,3.678,9.851,8.497,9.661,10.782,12.003,16.071,15.357,17.275,19.091,20.692,77.256,70.627,76.019,86.957,98.9,-33.036,121.069,139.714,166.958,183.139,-58.865,-12.637,79.627,133.487,191.571],[3.438,2.308,1.977,1.962,1.946,7.87,5.042,3.843,3.72,3.706,15.723,8.104,6.981,6.337,5.792,-131.362,37.995,30.393,26.77,25.147,-25.194,74.567,54.726,55.549,51.224,-57.846,-96.086,51.376,89.362,89.161],[7.931,2.385,2.125,1.695,1.728,9.895,5.302,3.615,3.085,3.047,24.019,7.938,6.019,5.159,4.746,-68.562,49.272,23.525,20.764,18.459,-66.119,-18.644,54.471,43.748,35.468,-71.202,-21.157,-59.207,56.311,72.966],[9.509,3.276,2.227,2.001,1.717,21.106,7.499,3.317,3.828,2.902,9.848,7.519,6.546,4.114,3.987,-59.705,65.182,21.859,20.746,16.41,-67.831,-36.984,65.317,33.251,31.966,-73.703,-43.201,-56.969,67.882,59.818],[-24.784,6.017,3.148,2.053,2.161,-25.49,7.377,3.558,2.761,3.261,-59.567,13.737,6.43,4.64,4,-70.253,43.72,25.483,17.075,13.458,-81.366,-53.27,76.526,34.044,34.837,-74.88,-48.856,-74.525,-68.402,72.245],[-58.418,4.471,1.481,1.253,1.197,-62.616,8.864,3.924,4.686,3.016,-74.916,17.899,6.136,6.089,4.715,-74.193,-35.849,27.936,19.907,15.758,-76.557,-37.263,44.341,45.333,28.515,-78.573,-73.849,-38.457,-13.491,82.373]],
"vp": [[-41.778,-41.749,-28.818,-36.442,-53.574,-16.907,-11.036,-6.212,-6.336,0.793,-39.735,-19.623,-5.06,-9.736,-34.211,-23.351,-5.49,-11.217,-7.802,-8.523,-22.238,-11.598,0.406,-11.995,-14.319,-22.627,4.143,-7.978,7.708,2.712],[193.006,35.629,-15.003,-29.03,-50.274,28.38,11.212,-43.107,-15.958,-20.784,0.681,-6.509,-19.397,-7.864,-25.152,-20.569,-12.854,-15.165,3.54,-6.193,-21.954,-20.901,-35.294,18.861,12.896,-35.216,-25.536,-30.544,13.15,-0.873],[535.785,243.777,111.022,18.208,-36.002,104.721,75.553,9.408,-19.129,-20.966,23.337,25.708,-0.488,0.649,-27.407,-3.867,10.489,-13.845,0.906,-12.969,4.644,-21.963,-7.974,-18.367,-16.68,-20.838,-35.234,-41.131,-45.09,-16.195],[1147.432,431.125,349.451,186.034,83.4,174.197,127.079,58.332,61.104,25.514,105.649,13.084,15.834,-22.506,-0.926,16.788,16.533,-13.495,17.176,2.58,-12.58,-15.955,-7.105,-10.882,-5.42,-1.012,-28.164,-42.292,-24.427,-28.076],[2351.313,628.026,559.296,470.096,295.627,659.329,114.03,69.274,64.444,56.906,352.894,55.018,59.17,33.587,12.229,34.979,3.646,0.629,-5.973,-12.212,-0.486,-13.352,-16.651,-4.204,13.183,-11.172,-30.272,-20.72,-15.971,-11.053],[4281.846,875.854,913.83,580.292,361.7,779.873,41.08,189.846,114.317,105.984,513.659,29.74,82.754,40.597,60.536,38.723,67.915,13.925,13.145,9.094,7.86,-0.373,9.237,-4.29,-11.933,-22.153,5.03,-20.069,-46.601,5.204]]
}