{
"KTrans": [[-4.216,2.966,-1.508,2.087,-0.79,3.254,6.228,9.37,4.279,7.813,18.034,18.013,16.515,12.871,9.855,151.499,101.474,71.836,65.1,58.994,280.927,222.064,167.077,156.829,140.794,255.779,530.84,404.524,398.354,352.728],[-33.479,1.678,1.016,1.046,0.962,-22.679,4.663,3.713,3.967,3.779,-15.055,14.841,7.295,6.702,6.836,42.711,67.449,44.835,37.394,28.404,84.796,150.174,105.516,80.627,65.231,60.723,330.28,236.608,179.726,145.108],[-49.593,0.943,2.905,2.966,-0.51,-59.194,0.742,6.376,3.272,2.141,-45.428,9.748,9.597,6.193,5.283,-10.182,53.493,42.327,32.554,28.441,26.026,115.66,87.474,67.359,58.123,-46.527,245.577,192.692,164.229,118.97],[-70.132,-11.667,0.352,1.459,1.279,-69.336,1.879,2.046,2.92,2.955,-71.265,1.847,7.29,8.307,4.997,-47.812,45.794,39.001,29.354,24.865,-50.568,96.271,86.712,62.101,55.409,-29.259,126.465,218.789,152.483,128.444],[-83.139,-11.989,1.235,0.627,-0.395,-80.325,-12.797,0.848,2.37,1.93,-78.642,-11.164,12.256,6.865,2.536,-60.123,31.686,36.934,30.648,25.097,-45.755,55.403,76.929,64.677,51.03,-85.175,53.123,182.398,155.031,114.337],[-85.549,-22.479,1.917,-0.557,-0.248,-86.161,-24.591,3.378,3.744,1.794,-79.368,-7.758,2.47,3.368,2.433,-69.434,8.819,31.296,26.478,24.139,-82.137,39.825,67.89,60.404,48.182,-100.636,-22.799,130.146,143.837,128.659]],
"ve": [[34.203,5.267,18.125,14.466,15.036,19.152,10.924,9.542,11.397,-19.269,18.309,5.183,18.26,2.138,-377.959,53.764,14.914,1.8,-7.981,-13.634,70.851,36.094,11.039,-4.023,-15.129,290.104,82.395,39.289,12.757,-3.734],[6.958,2.037,1.413,1.033,1.127,9.041,3.589,2.437,1.649,1.155,16.751,6.34,2.857,2.742,1.641,55.102,23.69,15.515,10.155,7.139,96.872,49.83,29.995,19.922,12.943,201.376,97.631,60.823,42.065,28.71],[2.626,1.624,0.843,0.142,0.024,58.361,2.307,2.794,2.245,1.727,11.075,6.53,4.004,2.702,1.933,16.512,26.594,16.475,11.468,8.982,112.927,50.576,33.028,23.275,16.91,198.935,103.59,64.724,47.7,35.336],[-2.324,1.449,1.326,0.972,0.751,6.442,4.951,1.447,1.537,1.091,14.71,6.529,2.924,2.842,1.728,69.952,26.806,15.801,12.633,9.292,98.493,51.832,33.188,23.368,19.002,196.353,113.16,67.476,48.886,38.923],[-12.64,2.82,0.756,0.385,0.51,62.724,4.355,1.525,1.728,1.091,14.618,6.445,4.187,3.183,2.063,133.301,27.509,16.894,13.255,9.913,81.733,50.44,33.071,25.405,19.701,200.314,102.939,67.474,50.071,38.538],[8.582,4.496,0.476,0.052,0.459,2.453,5.958,2.889,1.29,1.044,-2.16,9.73,3.523,3.049,2.049,54.042,28.056,17.068,12.831,9.842,103.979,51.746,33.755,25.378,20.261,199.233,100.713,67.482,49.873,39.474]],
"kep": [[-8.971,3.081,-2.65,0.88,-3.184,-6.108,1.626,12.634,5.189,17.128,3.935,16.866,19.193,19.154,16.129,65.849,78.312,71.799,85.747,91.96,87.834,138.511,144.013,171.061,189.203,17.758,247.779,265.408,344.953,372.768],[-37.714,0.137,0.148,0.646,0.547,-30.831,2.029,1.857,2.669,3.248,-26.701,8.702,5.109,4.294,5.677,-8.465,35.886,25.724,25.132,20.219,-10.337,66.883,58.467,50.938,46.551,-44.515,116.202,108.809,96.7,90.404],[-52.894,-0.521,2.381,2.971,-0.333,-63.364,-1.013,3.682,1.179,0.513,-54.15,3.38,5.568,3.543,3.503,-43.129,21.614,22.273,19.017,17.983,-38.804,42.798,41.018,35.785,35.302,-80.19,70.391,77.406,78.28,61.653],[-73.894,-12.938,-0.916,0.675,0.679,-73.173,-2.641,0.717,1.513,1.876,-75.947,-4.238,4.448,5.467,3.363,-67.232,15.206,19.994,14.881,14.35,-75.635,28.763,40.166,31.442,30.522,-75.65,10.75,89.219,68.848,64.037],[-84.683,-14.22,0.65,0.345,-0.818,-83.359,-16.036,-0.606,0.681,0.87,-83.194,-16.209,7.982,3.714,0.629,-74.813,3.772,17.163,15.49,13.862,-72.957,2.871,32.721,31.299,26.073,-93.354,-22.686,67.101,68.794,54.077],[-87.038,-25.404,1.616,-0.64,-0.732,-88.348,-27.774,0.526,2.437,0.865,-82.795,-14.991,-0.927,0.477,0.372,-80.81,-14.436,11.999,12.053,13.051,-91.102,-8.467,25.229,27.661,23.174,-98.505,-59.515,36.859,61.575,63.212]],
"vp": [[267.888,9.564,73.183,-298.662,368.724,88.977,-23.812,6.236,27.237,-16.607,73.004,-13.865,5.175,-26.441,-29.696,3.549,2.099,-5.734,-12.37,-7.728,3.799,-4.693,-9.199,1.76,-1.936,-2.007,-12.564,-12.263,-3.921,-0.928],[3353.663,336.709,260.548,129.477,151.145,678.577,130.495,21.601,57.291,-7.206,333.926,116.362,22.373,18.954,-23.917,47.475,5.339,5.323,1.286,-9.945,29.354,8.15,-6.173,-0.123,-12.318,-4.862,-12.316,-8.871,-10.683,-12.59],[5221.823,2007.732,1015.014,483.457,39.49,1071.896,445.827,109.407,65.13,43.114,557.436,202.167,72.265,21.658,-5.464,96.686,49.41,-4.272,5.936,3.906,35.137,0.948,-1.148,-9.495,3.495,4.597,9.129,-14.273,-0.193,-16.657],[6421.019,4191.686,1299.825,666.724,688.545,1270.986,925.697,300.614,71.015,51.816,649.845,367.54,140.977,86.861,-36.805,127.886,60.958,8.671,13.536,-4.593,47.758,39.696,-4.132,-8.38,1.69,14.841,22.203,4.858,-0.197,0.337],[7487.583,6215.742,3053.842,697.323,448.804,1517.034,1149.282,441.775,340.211,132.015,719.547,575.525,295.525,134.318,50.093,126.243,126.667,44.661,10.344,2.909,52.574,39.682,12.978,16.281,-5.919,20.055,6.493,17.346,6.202,-4.979],[8141.901,9195.697,4118.3,2175.011,431.711,1575.855,1691.635,733.399,375.461,150.617,765.362,903.586,340.437,181.581,139.864,130.742,163.931,57.449,38.459,7.95,63.52,74.3,23.918,1.329,-1.168,20.444,23.809,3.837,3.118,11.771]]
}