{
"KTrans": [[2.326,1.2,0.967,0.613,0.419,12.448,7.492,6.057,4.855,4.954,26.28,15.795,12.696,10.433,9.876,165.069,88.861,72.857,62.642,60.665,20.101,197.144,162.656,141.953,133.677,-87.873,131.867,190.021,210.535,215.813],[0.736,1.477,0.789,0.567,0.379,10.512,6.324,4.08,3.104,2.688,29.997,12.754,8.43,6.382,5.489,-40.904,71.466,41.766,36.474,29.782,62.839,173.475,107.885,74.063,62.309,41.355,-45.601,157.293,161.335,149.673],[4.067,2.494,0.929,0.698,0.516,23.036,6.399,4.52,3.242,2.582,37.261,10.813,8.055,6.079,5.005,-47.332,79.968,42.231,31.979,26.022,-41.108,-314.841,112.99,68.05,53.767,9.83,34.448,-30.809,165.41,148.108],[11.39,4.534,1.399,1.376,0.805,16.76,8.429,5.067,3.337,2.454,48.776,17.405,8.73,5.61,4.8,-48.633,110.231,44.54,32.856,25.224,-53.011,34.511,102.043,66.521,56.275,-21.678,-20.461,-60.844,172.693,119.469],[-9.298,8.13,2.724,1.288,0.486,-17.257,11.233,5.252,2.94,2.597,-47.23,22.227,8.648,5.908,5.441,-26.563,118.752,42.9,29.897,24.341,-58.303,-35.302,116.828,72.036,48.539,-31.219,-53.138,-23.99,228.443,144.719],[-53.292,3.34,4.09,1.619,1.511,-52.256,15.631,5.681,1.934,2.348,-78.48,24.427,10.626,6.661,5.755,-66.816,23.94,55.945,34.698,26.766,-65.548,-93.579,87.814,89.783,58.69,-71.342,-56.077,-21.204,-23.317,127.637]],
"ve": [[0.828,-0.121,-0.77,-1.298,-1.741,4.206,0.411,-1.742,-3.37,-5.056,8.53,1.329,-2.748,-5.403,-8.095,47.202,13.777,-1.023,-10.752,-18.43,81.633,38.981,12.762,-4.624,-16.58,201.259,77.727,31.889,-49.208,4.549],[0.898,0.557,0.277,0.093,-0.065,4.991,2.454,1.378,0.777,0.312,10.416,4.837,2.809,1.633,0.851,49.286,23.985,14.351,9.414,5.672,104.34,48.789,30.447,19.657,12.899,201.356,98.413,61.802,43.59,31.252],[1.11,0.709,0.405,0.277,0.167,5.694,2.61,1.73,1.192,0.842,10.636,4.953,3.285,2.304,1.667,50.037,25.251,16.283,11.509,8.606,107.392,56.394,33.194,23.268,17.505,207.706,98.609,66.284,49.16,38.472],[1.618,0.88,0.476,0.412,0.276,5.292,2.797,1.864,1.328,0.991,11.629,5.463,3.487,2.473,1.918,52.419,25.57,16.619,12.358,9.505,102.181,49.77,33.058,24.334,19.198,201.934,102.141,68.819,50.48,37.743],[2.416,1.049,0.61,0.406,0.25,3.922,2.895,1.875,1.311,1.063,6.211,5.697,3.5,2.567,2.107,48.416,26.182,16.606,12.335,9.759,99.8,51.061,32.97,24.858,19.31,199.917,103.839,67.843,51.028,39.867],[7.829,0.459,0.684,0.426,0.402,4.246,2.915,1.908,1.234,1.071,11.747,5.447,3.612,2.681,2.176,51.56,25.604,17.053,12.819,10.157,105.402,52.914,34.521,25.648,19.902,204.052,104.294,67.06,49.388,39.74]],
"kep": [[3.022,2.856,3.294,3.487,3.764,9.534,8.675,9.578,10.167,12.233,18.058,16.016,17.665,18.533,21.402,80.934,68.278,77.373,85.152,100.307,-22.463,119.849,137.141,158.141,185.422,-71.957,40.163,115.271,173.817,218.153],[1.265,2.44,2.033,1.995,1.965,6.716,5.339,4.218,3.858,3.918,19.127,9.149,7.06,6.257,6.182,-52.711,39.673,25.702,26.551,24.677,-14.522,83.274,60.849,47.361,45.804,-42.204,-56.544,58.3,84.041,92.481],[3.955,3.262,2.038,1.94,1.868,17.359,5.196,4.29,3.568,3.265,24.696,7.088,6.184,5.255,4.846,-60.568,44.247,23.834,20.03,17.737,-64.576,-220.935,60.178,37.785,32.58,-57.1,-23.584,-51.488,78.003,80.179],[9.716,5.031,2.41,2.48,2.047,10.757,6.883,4.666,3.517,2.982,32.715,12.702,6.603,4.608,4.379,-62.335,66.378,25.283,19.828,15.99,-71.496,-7.551,51.936,35.144,32.63,-68.881,-52.051,-66.616,80.749,59.492],[-11.046,8.22,3.551,2.382,1.743,-21.273,9.259,4.773,3.113,3.043,-51.588,16.738,6.434,4.78,4.815,-48.428,71.388,23.625,17.115,14.853,-75.275,-51.801,61.498,38.631,25.958,-73.413,-70.598,-46.059,112.371,74.311],[-54.236,3.585,4.72,2.656,2.61,-54.005,13.038,5.076,2.143,2.771,-79.096,18.606,8.104,5.356,5.037,-75.66,-0.795,33.859,20.822,16.63,-79.808,-89.779,39.103,51.291,33.427,-86.415,-72.494,-46.899,-41.47,62.096]],
"vp": [[-32.308,-38.171,-34.87,-31.723,-36.472,-32.151,-14.493,-6.099,-22.083,-0.17,-18.832,-2.403,3.428,-30.163,-16.838,-21.49,-17.174,-11.379,-17.5,1.647,-36.708,0.043,16.562,0.773,-5.646,-15.086,1.362,-5.549,-11.914,5.047],[203.527,88.653,-39.17,-24.612,-51.305,38.527,29.613,-26.765,-21.156,-3.17,18.898,11.737,-20.933,-15.34,-15.482,-33.155,-17.339,-43.511,3.441,-16.378,-16.601,-21.612,-26.16,-16.607,-21.107,-34.949,-25.839,-30.193,-7.574,7.403],[445.811,300.454,75.187,22.873,-9.83,91.74,68.144,41.227,11.562,-6.146,8.954,25.816,28.711,-7.646,-19.227,6.448,5.043,2.493,-13.749,-25.732,-16.552,-19.907,-2.487,-31.523,-32.028,-20.543,-45.835,3.246,-22.382,8.883],[705.102,587.324,287.218,165.081,80.798,114.014,114.681,75.938,23.865,12.529,124.837,54.222,28.653,-8.499,11.546,24.065,1.302,-11.915,8.512,1.024,2.122,-31.39,-19.01,-14.687,-5.822,-31.86,-24.119,-23.129,-22.03,-30.16],[2380.688,850.121,600.391,443.927,288.435,468.533,163.295,119.773,75.012,52.251,320.608,71.788,44.571,25.731,15.105,-5.274,11.3,3.437,-10.756,2.88,0.726,-8.876,-16.712,-3.562,-20.034,-19.548,-5.628,-18.958,-3.799,-9.589],[4501.673,1033.479,751.392,732.536,406.619,800.883,211.251,158.073,68.803,75.696,462.326,124.601,86.327,23.139,48.143,57.756,-9.448,-1.383,3.522,13.573,15.276,28.736,5.409,20.487,-5.152,-2.909,6.617,-18.046,-32.009,-19.194]]
}