{
"KTrans": [[-3.464,4.15,-3.118,-0.96,-11.509,1.899,16.39,8.452,6.942,14.127,6.066,26.573,22.78,24.575,21.109,40.108,69.389,83.355,88.105,90.371,69.304,66.59,122.297,147.906,150.464,-46.051,-147.64,41.938,122.024,138.314],[-44.526,-15.195,-2.111,0.941,-0.552,-40.555,-17.399,-0.824,3.369,3.509,-34.843,-13.949,1.081,7.028,6.251,-1.222,15.535,8.147,26.914,35.565,31.716,44.866,28.377,21.809,53.843,50.165,73.011,28.084,-33.679,27.918],[-56.024,-27.054,-15.621,-11.305,-2.611,-52.199,-21.582,-13.909,-8.439,-2.2,-51.817,-22.659,-11.183,-5.394,-1.498,-30.215,9.196,13.005,3.3,3.854,-0.778,40.649,41.271,10.005,-2.503,23.866,98.705,86.351,20.88,-16.481],[-65.376,-31.644,-19.077,-13.615,-10.132,-62.566,-31.298,-16.676,-12.644,-9.006,-61.932,-24.292,-12.395,-6.849,-8.564,-46.717,-6.073,7.683,8.652,7.25,-29.688,21.194,34.198,27.95,20.997,-3.012,45.262,73.277,66.544,40.74],[-71.851,-37.805,-21.559,-13.437,-12.631,-71.299,-34.241,-20.017,-12.54,-10.85,-69.775,-31.55,-18.153,-10.947,-9.144,-52.219,-18.376,1.428,5.688,7.733,-44.947,1.03,23.795,24.611,24.039,-40.254,20.055,47.153,61.01,62.341],[-76.624,-43.507,-25.912,-17.357,-13.445,-77.961,-42.787,-23.173,-15.401,-12.133,-74.627,-40.557,-22.446,-14.709,-9.986,-65.069,-24.309,-5.891,2.635,3.757,-61.44,-4.146,17.576,22.545,23.759,-32.631,6.675,37.734,52.022,56.665]],
"ve": [[19.474,-58.935,-137.014,-28.272,-20.638,38.057,-20.753,-20.529,-59.715,256.232,-21.746,-59.424,64.435,-19.766,-64.112,66.981,27.646,-35.659,-10.5,-164.148,93.526,56.278,-13.593,-34.688,-84.479,194.335,56.157,33.231,2.813,-15.232],[-13,-22.869,-8.173,9.456,-57.134,-13.864,-10.905,-2.355,260.136,-11.313,10.341,-2.383,1.928,1.161,18.069,45.317,-81.593,21.237,-4.606,6.417,84.958,46.961,37.802,15.899,6.811,204.216,110.856,63.854,105.971,27.28],[-27.819,0.566,-2.067,1.453,-1.692,-15.379,-7.702,6.254,-5.199,3.475,17.014,-2.021,262.533,0.215,3.038,60.506,14.301,13.308,12.166,32.979,82.947,45.167,72.433,24.672,14.069,200.616,86.262,57.128,19.994,41.965],[-5.494,-7.841,-11.292,-6.473,-12.507,-8.291,-5.803,-4.215,-6.481,-7.757,-13.521,-0.767,-1.27,-2.103,0.906,42.257,18.603,10.407,26.203,-44.639,99.061,42.417,29.978,20.538,26.457,206.97,166.273,34.444,46.763,37.216],[-16.834,-6.326,-3.541,-2.983,-4.073,-78.724,-3.383,-2.592,-2.739,-6.534,-3.028,-28.015,-1.688,-4.509,5.03,20.242,19.824,10.751,8.014,6.683,110.93,33.13,29.88,21.901,14.082,187.523,96.039,58.809,-18833.99,32.051],[100.699,-4.647,-2.847,-2.411,-2.882,6.203,-3.728,-1.838,-2.21,-1.507,26.632,1.75,-0.388,0.049,-1.345,41.558,22.847,12.488,10.23,6.668,1.725,42.125,29.14,21.519,16.781,252.355,57.512,71.327,58.314,92.691]],
"kep": [[-116.472,-67.333,-13.504,-10.288,27.48,-128.042,-93.761,-34.777,-34.491,-39.687,-134.424,-112.039,-64.101,-59.297,-49.131,-147.396,-210.434,-203.837,-158.374,-183.747,-161.69,-350.971,-367.874,-347.577,-374.426,-243.116,-605.148,-650.943,-689.074,-790.976],[-89.387,-91.565,-128.553,-56.192,-13.261,-83.573,-100.963,-131.8,-51.303,-14.234,-81.814,-98.296,-143.977,-72.864,-16.544,-73.378,-69.387,-168.24,-176.4,-109.855,-72.062,-70.047,-148.421,-285.123,-210.178,-90.813,-92.392,-190.332,-421.825,-407.312],[-82.675,-60.466,-68.843,-102.581,-123.212,-80.456,-56.285,-64.72,-94.773,-134.611,-82.514,-60.551,-60.582,-86.678,-135.746,-76.737,-41.942,-39.49,-94.6,-170.91,-74.314,-35.827,-31.565,-112.36,-235.867,-83.638,-35.909,-34.03,-122.502,-256.708],[-84.466,-54.605,-46.832,-52.387,-62.911,-83.531,-54.354,-43.921,-47.735,-64.989,-83.795,-50.207,-38.713,-36.105,-63.733,-82.131,-48.621,-30.828,-33.818,-45.396,-82.123,-44.837,-24.387,-27.234,-45.758,-85.956,-58.162,-29.044,-25.486,-63.413],[-87.044,-55.101,-40.892,-33.926,-41.844,-87.252,-53.551,-41.75,-35.992,-40.301,-88.581,-52.356,-40.302,-34.986,-39.873,-84.116,-55.242,-33.015,-26.401,-23.096,-86.968,-53.955,-26.983,-21.671,-21.125,-93.869,-64.095,-40.99,-17.798,-6.703],[-90.164,-58.707,-42.136,-34.757,-32.112,-91.696,-60.592,-40.755,-34.576,-29.038,-89.181,-60.182,-40.994,-33.903,-31.669,-88.234,-55.617,-36.834,-26.302,-21.819,-92.489,-53.342,-30.058,-17.567,-13.423,-89.332,-67.309,-41.028,-22.26,-6.089]],
"vp": [[146.118,88.671,299.946,-481.473,-169.847,22.931,-22.092,-37.445,4.086,84.413,10.499,-42.744,-10.784,24.461,34.664,2.665,-3.085,-3.473,0.459,5.259,-8.594,-11.173,-15.578,-8.795,-5.113,-11.513,-9.947,-8.437,-8.341,-2.65],[2802.704,1099.732,-330.689,-335.893,15.247,613.963,262.662,-25.42,-181.987,-17.905,224.359,82.07,-40.494,-87.216,-55.492,47.665,17.634,-7.965,-7.841,-3.799,12.478,1.726,-20.591,-19.378,-13.408,7.859,-3.49,-13.541,-10.163,-2.91],[4291.78,3151.789,1966.468,644.329,-440.34,955.064,674.864,428.633,252.157,-5.393,440.281,275.258,136.048,48.999,32.051,89.304,61.128,11.712,8.064,-14.31,31.088,17.464,2.476,4.325,-14.014,14.714,6.002,-7.288,-1.508,-4.933],[5318.778,4383.967,2816.925,1900.334,1636.69,1042.58,1012.1,584.873,290.822,210.481,613.263,484.951,253.833,172.015,137.309,101.456,101.87,47.335,18.358,29.234,50.225,48.424,14.824,-1.107,2.617,19.46,16.462,0.9,-0.896,-2.686],[6619.588,5721.739,4254.338,2301.239,990.448,1311.025,1213.983,783.516,644.389,290.991,700.21,609.496,418.62,292,206.73,131.184,134.973,64.153,35.581,27.08,55.536,60.453,29.862,20.794,7.16,26.44,31.102,17.722,1.248,-4.848],[6948.282,8661.389,5052.841,3523.798,2137.205,1351.463,1665.477,1072.09,791.14,327.544,719.732,869.084,566.629,329.484,265.076,114.981,153.591,92.919,84.848,40.355,71.787,67.555,51.925,16.199,14.391,23.903,38.847,29.585,11.906,-9.46]]
}