{
"KTrans": [[1.622,2.089,0.66,0.549,0.908,6.909,5.655,7.031,2.554,7.101,26.115,16.158,14.672,12.861,12.231,151.342,93.223,73.49,64.16,62.807,425.626,218.12,175.555,155.114,139.067,1022.981,587.782,464.29,389.809,359.76],[-21.542,-0.282,0.398,-0.928,0.943,-11.388,6.239,2.944,3.279,3.745,1.484,11.6,9.115,6.439,4.592,81.365,62.311,46.008,37.319,30.327,209.846,146.127,94.376,77.567,65.881,451.739,343.507,229.184,179.403,152.511],[-42.629,1.856,1.992,-2.578,0.732,-31.159,3.627,5.408,3.71,3.258,-25.582,6.326,7.838,7.312,5.111,38.919,61.706,42.197,31.882,27.689,102.309,130.595,89.052,71.241,54.41,186.771,310.629,199.556,150.178,122.45],[-56.44,0.294,0.706,2.519,0.078,-51.933,-0.181,3.765,2.06,3.525,-39.29,7.388,5.166,3.851,5.201,1.606,46.83,38.693,30.748,24.763,40.426,120.856,83.745,61.28,51.397,110.472,269.683,207.384,139.102,112.532],[-66.137,-5.775,3.014,4.317,-0.047,-59.167,-5.201,5.237,3.035,2.926,-59.053,1.039,5.572,3.795,4.853,-24.704,42.368,36.24,28.391,22.787,5.727,111.808,76.694,59.239,51.669,25.185,253.155,186.139,143.846,107.224],[-73.236,-13.945,0.421,-0.646,0.036,-67.153,-9.719,1.783,6.346,2.324,-67.524,-6.445,5.652,4.76,4.794,-46.143,36.25,30.42,28.955,21.973,-19.357,85.973,76.614,59.392,48.826,10.452,186.384,179.834,133.313,100.948]],
"ve": [[2.543,3.735,6.131,14.34,14.94,7.858,3.61,1.486,8.671,-1.649,13.284,4.124,0.572,-1.206,-2.074,46.789,13.87,0.87,-9.28,-17.834,96.409,34.026,8.79,-7.002,-18.033,195.708,79.843,35.847,10.199,-5.629],[3.044,1.372,1.525,0.379,0.115,5.162,3.268,2.288,1.129,0.28,13.553,5.643,2.799,1.991,2.005,49.747,24.792,13.941,9.784,5.861,102.89,47.295,29.993,19.238,13.113,197.864,96.73,60.905,41.567,29.198],[4.14,0.801,0.798,0.835,-0.107,8.428,3.165,2.017,1.017,0.786,11.475,5.959,2.723,1.636,2.207,54.873,24.824,16.27,11.779,8.97,125.497,49.836,31.592,23.398,17.293,203.99,101.006,64.87,47.584,35.477],[2.808,1.452,0.389,-0.043,-0.068,-0.423,2.2,1.977,1.362,0.764,22.785,5.598,3.695,2.36,1.919,49.164,24.844,16.445,12.263,9.609,105.044,49.614,32.298,24.487,19.077,160.732,100.815,67.172,48.832,38.038],[7.026,0.848,0.659,0.657,0.397,7.726,2.951,2.154,1.471,1.145,9.427,5.623,3.456,2.124,1.863,54.485,25.334,17.03,12.106,9.685,102.061,50.945,33.363,24.78,19.501,198.967,101.549,66.541,49.22,38.594],[5.086,1.203,0.728,0.41,0.378,10.87,3.844,2.08,1.289,1.487,212.39,5.732,3.981,2.681,1.922,44.716,27.895,16.65,12.45,10.038,104.508,49.039,33.169,24.471,19.995,180.729,70.203,67.044,49.747,39.112]],
"kep": [[1.599,2.191,-0.586,-1.194,0.513,0.959,4.694,9.514,0.371,16.217,13.347,13.653,17.305,20.036,20.796,73.246,71.687,74.464,83.43,102.098,168.662,138.256,154.978,176.086,194.086,281.77,283.391,316.607,345.456,388.5],[-23.794,-1.287,-0.754,-1.086,1.104,-16.772,3.343,0.99,2.372,3.725,-10.049,5.92,6.424,4.61,2.753,21.8,30.434,28.333,25.266,23.299,51.9,67.492,49.755,49.1,46.769,83.866,125.329,104.59,97.459,95.468],[-45.758,1.12,1.216,-3.295,0.945,-35.378,0.615,3.433,2.738,2.555,-33.89,0.433,5.119,5.658,2.914,-9.99,29.831,22.411,18.062,17.239,-1.084,54.004,43.671,38.821,31.702,-4.967,103.606,81.488,69.54,64.206],[-58.02,-1.157,0.377,2.611,0.171,-55.749,-2.274,1.789,0.765,2.765,-47.641,1.887,1.417,1.487,3.247,-34.299,17.536,19.14,16.506,13.84,-31.713,47.623,38.936,29.543,27.195,-30.856,84.455,83.688,60.491,53.981],[-68.572,-6.383,2.27,3.725,-0.445,-62.56,-7.806,3.008,1.532,1.792,-64.88,-4.287,2.129,1.656,2.946,-51.227,13.7,16.378,14.506,11.968,-48.234,40.088,32.39,27.604,26.906,-58.927,75.198,71.569,63.317,49.455],[-75.243,-14.887,-0.243,-1.016,-0.34,-70.385,-13.162,-0.223,4.924,0.846,-72.045,-11.497,1.651,2.013,2.861,-65.095,6.807,11.763,14.615,10.834,-60.181,23.066,32.589,28.018,24.025,-63.939,42.407,67.214,55.604,44.388]],
"vp": [[386.061,-83.06,43.076,162.435,9.52,-1.037,-32.683,40.532,-7.853,2.501,22.126,-5.401,-0.932,-13.707,8.765,-9.516,-9.074,-7.72,-4.343,-10.267,-4.139,-10.331,-10.94,-10.373,-10.976,-10.162,-11.902,-7.883,-12.832,-9.028],[1608.148,412.807,124.599,-399.53,-112.154,394.576,75.167,29.536,22.071,5.651,170.09,15.334,-27.974,-16.464,-18.782,21.696,-2.753,-14.817,-5.408,-11.835,5.394,-8.269,-12.691,-10.882,-11.248,-1.581,-11.955,-9.571,-9.174,-8.432],[3823.173,1017.794,292.988,29.526,-19.725,665.548,156.495,112.884,-27.726,-4.899,324.342,68.072,7.802,12.871,-13.242,52.598,2.902,-0.753,-11.587,-8.401,25.623,-2.813,-9.707,-7.378,-13.649,7,-1.33,-12.228,-13.037,-9.586],[4690.099,2035.901,587.038,110.997,180.065,948.918,305.274,93.496,51.475,32.351,504.637,141.18,67.37,7.831,-7.676,80.149,17.558,-6.914,-3.017,-9.295,38.669,8.664,-6.393,-7.684,-6.997,11.131,0.405,-2.132,-10.818,-6.887],[5800.903,3244.806,879.507,870.264,256.822,1124.205,589.359,254.79,133.037,54.867,548.952,312.343,87.995,21.812,44.299,100.996,47.855,16.315,-1.413,-3.314,47.876,30.787,0.515,-9.12,-3.764,18.092,11.717,-4.624,-8.523,-11.619],[6507.941,4441.684,1910.618,736.724,453.55,1234.869,755.048,332.704,225.575,138.947,629.774,425.562,186.317,54.453,51.407,115.401,86.786,16.619,9.079,7.045,49.963,41.692,2.741,-2.937,-4.569,20.33,11.99,3.333,-5.705,-15.128]]
}