{
"KTrans": [[-17.735,5.272,1.642,5.642,7.942,3.638,3.239,14.811,6.89,5.464,2.971,18.485,12.259,11.568,15.818,76.203,95.932,79.282,69.783,57.806,124.475,176.424,167.837,149.036,137.466,248.091,181.326,259.906,201.437,264.983],[-55.014,2.078,3.006,0.671,3.343,-57.712,5.135,4.279,4.328,1.968,-47.24,8.692,16.508,10.673,7.391,-17.208,63.512,46.16,42.896,32.483,-27.908,101.882,99.396,81.419,67.79,42.747,-7.725,144.216,156.527,147.554],[-77.47,-8.62,2.67,5.363,2.808,-75.614,-0.505,1.382,3.261,6.066,-72.775,2.832,6.978,9.103,4.203,-54.09,31.695,52.438,33.53,25.808,-80.18,-14.891,95.495,68.084,57.623,-33.317,25.856,103.803,154.657,124.737],[-88.317,-15.784,-2.507,7.978,2.886,-90.356,-20.461,6.77,5.517,1.877,-87.46,-14.735,10.788,7.259,7.429,-71.272,0.661,45.364,37.195,26.362,-84.621,6.506,76.587,72.554,58.557,-82.656,-33.396,56.11,63.77,130.459],[-88.898,-34.011,-2.559,0.601,-1.671,-89.676,-38.487,5.221,4.304,3.556,-86.349,-37.082,2.703,9.822,8.587,-85.337,-26.918,24.802,29.035,25.924,-74.977,-29.329,47.345,71.141,61.32,-72.756,0.414,14.721,112.558,112.452],[-93.823,-47.722,-10.76,1.446,5.749,-95.837,-50.886,-2.235,6.889,4.809,-91.5,-49.012,0.817,8.581,4.32,-90.376,-46.677,23.522,31.111,25.885,-95.473,-46.123,30.815,55.036,47.968,-77.346,-59.062,-22.455,100.236,116.091]],
"ve": [[-19.394,189.98,51.041,-856.651,-56.913,146.752,178.462,21.864,83.011,95.946,37.504,28.729,-64.581,26.363,-16.278,64.407,17.506,9.053,-12.834,99.172,98.952,36.719,18.55,6.176,-7.931,202.36,75.625,-25.313,13.925,-12.104],[37.639,5.867,0.861,2.242,1.811,13.833,7.165,4.2,4.254,3.167,6.868,8.925,4.845,3.198,2.871,213.776,28.816,17.502,9.781,7.831,95.695,50.607,33.7,20.609,15.5,209.303,96.175,62.833,42.644,31.551],[-1868.879,4.729,1.18,2.283,0.603,5.835,3.845,2.366,2.1,1.664,54.697,8.559,2.831,2.914,2.856,63.565,25.087,19.226,11.323,9.386,98.446,53.484,33.655,25.005,18.909,206.31,95.503,64.539,46.826,37.24],[13.801,4.812,1.504,0.342,1.289,-37.188,4.896,3.265,2.169,0.483,34.046,9.889,4.577,2.857,2.488,-29.306,28.246,18.329,11.768,8.654,101.533,51.558,35.226,24.853,19.669,285.106,113.514,61.858,49.3,38.351],[53.807,3.653,2.046,1.083,0.996,-68.429,5.272,3.508,1.447,0.992,4.159,8.735,5.553,3.257,2.222,56.998,23.872,17.925,12.658,10.297,102.281,58.973,41.548,24.707,19.822,211.623,99.066,64.006,52.035,39.171],[11.265,4.602,3.055,1.541,0.572,10.278,0.927,4.387,2.108,1.708,25.615,9.619,3.765,3.641,1.88,56.751,20.608,20.02,12.108,10.102,100.519,53.332,35.057,26.26,19.781,205.548,106.514,70.84,49.459,41.2]],
"kep": [[-26.518,4.918,-3.054,6.069,16.593,-10.219,0.335,14.726,7.871,7.541,-22.412,15.278,7.09,10.639,26.352,8.275,73.375,77.505,84.915,91.35,16.124,96.991,142.561,154.508,181.996,29.442,61.969,149.274,151.147,266.889],[-62.023,-2.07,3.39,0.335,3.201,-67.673,-1.018,0.746,1.175,0.218,-59.986,1.186,12.57,8.644,5.757,-50.363,27.36,25.491,31.394,24.11,-64.714,34.469,52.352,50.994,46.306,-47.371,-49.125,46.385,77.317,88.309],[-82.308,-12.168,2.454,3.628,2.743,-82.36,-6.068,-0.569,1.647,4.8,-80.511,-4.72,4.491,6.681,1.867,-72.478,2.645,28.785,20.157,15.325,-89.072,-41.104,45.194,34.345,32.891,-74.598,-33.014,22.914,69.903,63.162],[-91.087,-19.87,-3.378,7.872,1.723,-94.201,-24.171,3.878,3.535,1.955,-92.024,-21.881,6.642,4.658,5.232,-82.365,-21.267,23.325,22.949,16.502,-90.081,-30.35,29.417,37.82,32.683,-90.678,-61.442,-4.842,9.656,65.413],[-91.254,-37.598,-4.359,-0.349,-2.285,-92.271,-42.768,1.963,3.198,2.72,-90.395,-42.047,-3.389,6.52,6.502,-91.664,-43.665,6.126,14.588,14.376,-87.331,-54.149,7.636,36.573,34.262,-88.759,-47.494,-27.516,39.593,50.975],[-95.932,-50.297,-12.491,0.31,5.213,-97.543,-54.411,-6.379,4.762,3.292,-94.257,-54.272,-2.377,5.125,2.624,-94.321,-59.948,2.365,17.44,14.292,-96.864,-64.65,-4.11,22.13,23.246,-90.838,-76.35,-50.981,32.139,51.499]],
"vp": [[795.437,519.17,-300.21,-33.215,9.846,171.619,76.153,-68.916,149.784,49.981,167.681,-50.2,53.369,-3.081,-1.613,27.143,-6.908,-17.15,1.981,-13.143,3.238,1.134,-21.313,4.246,-14.589,-17.814,-20.949,-10.366,-8.029,-16.626],[4336.317,2333.872,817.108,58.605,180.772,1016.144,303.789,130.253,87.397,-49.145,459.274,215.652,129.063,72.155,14.281,90.615,31.868,9.882,15.873,-12.577,43.349,10.131,16.452,-4.531,-2.414,4.566,7.033,0.49,-6.934,-11.209],[7256.593,5453.485,3191.404,755.955,528.308,1402.847,1294.145,376.88,239.677,251.582,732.156,617.348,182.41,71.06,58.057,125.396,116.295,57.316,-23.993,2.135,69.546,46.098,28.428,6.033,9.673,17.851,3.888,4.393,18.654,-5.479],[8039.004,9564.688,4483.372,2682.46,608.886,1801.433,1625.299,871.974,363.057,152.908,836.975,992.902,480.717,254.147,108.239,140.206,164.719,65.198,36.129,-7.46,82.027,70.173,41.464,21.598,4.293,30.924,20.052,-6.084,-1.816,9.94],[8736.804,11069.356,7338.183,2836.194,2067.088,1651.075,2453.456,1815.267,808.747,511.391,838.438,1157.223,670.996,435.78,278.358,155.422,222.606,148.07,75.497,21.187,73.595,105.747,83.428,44.83,30.525,27.188,28.186,20.151,21.506,-2.373],[8418.382,13796.12,11315.392,6125.164,2973.01,1783.144,2857.606,2248.948,1368.088,545.864,885.1,1420.27,1176.311,535.284,292.941,178.347,271.319,228.926,149.075,58.148,97.298,118.795,81.729,72.295,5.209,43.805,58.594,42.125,23.663,34.34]]
}