{
"KTrans": [[-19.842,-4.319,-7.995,-3.993,-5.712,-14.987,-11.458,-6.415,-2.366,-5.802,-22.111,-7.048,-9.472,-4.51,-3.832,-14.896,-1.342,-5.107,0.579,-4.172,-17.828,-5.863,-5.942,-9.549,-4.225,-7.462,-6.95,-4.028,-5.013,-2.344],[-68.778,-18.328,-12.207,-9.096,-7.512,-60.861,-15.574,-9.943,-11.793,-10.086,-68.059,-23.35,-17.023,-6.182,-8.491,-60.474,-21.545,-18.514,-9.235,-11.537,-57.772,-17.989,-14.443,-10.967,-10.511,-69.643,-20.437,-11.864,-13.312,-8.737],[-84.098,-38.324,-22.494,-11.921,-16.878,-83.972,-37.052,-16.041,-16.133,-9.005,-85.03,-49.341,-17.079,-13.597,-17.292,-77.617,-44.014,-10.563,-17.575,-10.38,-83.303,-41.673,-5.729,-13.018,-16.22,-81.521,-41.732,-18.343,-12.675,-12.329],[-87.34,-63.533,-18.957,-12.295,-15.464,-90.057,-51.546,-22.192,-19.558,-12.036,-91.267,-61.382,-35.97,-13.063,-15.306,-89.779,-62.733,-40.413,-17.133,-15.129,-89.441,-51.124,-29.59,-23.417,-14.714,-89.075,-58.889,-30.666,-6.954,-11.731],[-96.563,-64.629,-45.888,-19.333,-12.573,-92.913,-73.355,-44.233,-26.779,-23.99,-97.928,-70.94,-32.909,-17.337,-15.865,-95.507,-75.365,-55.172,-17.22,-13.513,-94.668,-67.382,-36.212,-29.242,-23.19,-96.138,-74.043,-46.005,-22.303,-19.582],[-99.98,-80.812,-43.797,-54.812,-11.787,-97.643,-79.72,-59.004,-31.218,-15.574,-95.752,-78.267,-46.774,-38.226,-28.435,-95.236,-76.503,-52.591,-44.166,-12.932,-99.976,-80.443,-57.928,-28.489,-16.244,-97.135,-74.419,-64.424,-34.425,-17.7]],
"ve": [[-9.04,7.905,1.507,32.477,31.681,-2.776,3.852,10.125,24.676,41.275,1.738,3.072,12.092,13.881,46.747,5.872,-8.323,12.732,13.77,46.873,-8.58,7.041,11.965,19.291,47.046,3.065,3.305,5.707,13.58,17.993],[-51.493,-14.147,-9.071,-5.071,-3.171,-34.114,-13.974,-9.147,-5.405,-2.969,-46.447,-13.61,-10.842,-5.109,-4.509,-33.405,-15.302,-9.592,-6.283,-3.493,-33.768,-12.982,-8.56,-4.734,-3.331,-57.276,-13.699,-8.289,-5.06,-2.636],[-85.864,-27.812,-20.268,-9.795,-10.051,-7.71,170.392,-15.973,-10.76,-7.914,-66.375,-40.226,-12.924,-10.105,-9.544,-59.593,-37.6,-16.11,-14.605,-7.016,-455.038,-30.797,-13.361,-10.829,-10.073,-60.257,-25.886,-18.295,-13.094,-9.331],[-41.412,-48.935,-23.802,-16.332,-14.05,-71.204,-35.703,-26.82,-15.556,-10.918,-99.466,-49.129,-28.659,-17.882,-13.681,-70.406,-48.098,-28.634,-16.225,-13.513,-75.994,-43.981,-28.732,-20.659,-10.905,-77.843,-50.067,-26.317,-12.509,-11.916],[-90.832,-48.942,-35.533,-21.155,-15.758,-89.182,-61.106,-39.593,-23.914,-20.282,-73.95,-56.81,-37.918,-21.021,-16.553,-88.563,-61.928,-42.418,-21.681,-16.022,-94.01,-77.334,-34.068,-32.255,-18.963,-90.758,-51.903,-42.204,-25.597,-18.893],[-21.311,-67.823,-34.981,-47.601,-19.419,-93.97,-71.951,-48.003,-31.995,-21.209,-85.842,-68.021,-41.268,-30.682,-28.441,-83.863,-58.063,-50.536,-34.602,-19.274,-100.888,-71.773,-56.691,-29.059,-22.092,-90.807,-54.71,-51.758,-35.221,-25.985]],
"kep": [[-16.307,-4.815,-10.613,-6.788,-14.123,-12.174,-11.832,-8.32,-4.64,-13.848,-18.544,-6.856,-12.07,-10.36,-10.965,-10.29,-0.249,-8.952,-1.283,-13.178,-13.737,-5.982,-8.314,-16.221,-10.417,-6.352,-7.373,-4.202,-7.35,-3.79],[-65.722,-6.685,-3.445,-4.273,-4.053,-58.796,-2.157,-1.447,-6.575,-7.244,-68.74,-10.848,-6.775,-1.164,-3.993,-57.399,-8.551,-9.554,-3.241,-7.887,-57.399,-6.914,-6.307,-6.714,-7.137,-66.099,-7.949,-4.226,-8.738,-5.984],[-75.494,-34.578,-3.995,-3.154,-7.288,-76.716,-29.276,-2.09,-5.94,-1.366,-78.317,-34.885,-6.686,-4.196,-8.179,-71.606,-35.171,3.56,-3.24,-3.871,-77.906,-33.837,6,-2.644,-6.469,-74.83,-31.36,-1.735,-0.036,-3.403],[-77.032,-56.685,-6.159,2.488,-2.218,-79.047,-48.983,-7.579,-5.124,-2.046,-82.465,-55.174,-17.36,5.004,-2.098,-80.606,-59.695,-22.737,-2.4,-2.133,-81.05,-51.189,-13.555,-4.09,-4.998,-80.164,-53.729,-15.361,3.321,-0.493],[-83.867,-55.571,-46.489,-2.017,1.884,-82.843,-70.23,-36.311,-7.415,-2.343,-82.554,-61.642,-38.593,-3.908,-1.005,-83.22,-62.978,-50.534,-3.756,0.686,-85.102,-61.126,-40.185,-3.459,-3.71,-84.781,-69.694,-42.513,-5.848,-3.156],[-86.279,-65.386,-41.751,-39.312,2.103,-85.583,-59.719,-59.263,-24.244,0.207,-85.391,-63.101,-41.06,-35.324,-3.275,-85.983,-64.359,-48.344,-36.815,3.277,-86.842,-64.746,-56.715,-21.013,0.573,-86.397,-65.836,-56.667,-24.009,3.034]],
"vp": [[1546.846,1342.374,1287.916,1123.127,1403.766,307.594,227.83,181.917,210.334,271.249,156.296,87.368,126.236,145.77,118.225,30.377,22.474,27.757,18.825,24.034,11.27,8.742,9.071,8.088,9.951,4.744,4.196,7.602,1.751,5.114],[5443.584,3362.397,3452.649,2903.629,3521.729,802.929,651.672,768.666,654.576,597.879,505.832,293.041,412.072,291.935,416.275,73.676,66.274,70.572,80.543,55.873,40.355,30.09,30.578,27.863,36.597,24.338,14.545,15.889,14.739,15.338],[6856.732,6361.024,6874.863,4582.098,5818.669,1494.348,1105.793,1054.708,985.115,965.485,719.683,854.833,417.203,436.753,512.046,109.061,164.173,109.851,144.844,74.992,65.745,64.004,46.626,48.114,57.265,31.028,33.323,29.797,30.347,28.962],[6822.455,9768.795,8123.945,7366.828,7812.044,1621.492,1417.451,1782.064,1317.661,1113.677,858.507,1052.512,913.529,804.921,803.656,140.353,198.907,180.324,135.26,141.938,79.873,88.566,92.819,89.821,54.071,37.204,42.177,43.394,27.339,35.509],[9316.029,10271.2,10964.623,8524.087,8520.256,1663.781,2501.313,2125.704,1913.711,2153.746,949.234,1148.6,1206.76,890.591,841.97,175.005,271.395,259.035,186.452,171.997,85.019,129.056,102.908,145.733,100.114,44.941,64.097,68.583,55.257,50.157],[9803.348,14331.977,10522.973,21044.41,10519.451,1818.635,2932.902,2833.801,2637.57,2223.738,891.209,1438.356,1250.006,1562.275,1552.271,168.452,230.354,315.755,278.175,201.336,99.266,142.857,155.989,111.95,119.562,44.237,56.452,79.296,74.091,72.009]]
}