{
"KTrans": [[-4.481,23.802,14.534,17.439,29.397,16.974,28.927,28.354,26.709,13.421,7.694,28.886,22.789,35.282,31.09,143.969,136.48,92.89,92.821,89.408,343.428,303.423,237.889,187.139,167.519,813.65,707.212,511.617,429.622,391.6],[-69.728,44.714,57.398,25.905,19.194,-89.714,44.768,51.346,30.426,34.349,-69.305,25.251,49.368,33.712,31.042,-22.575,112.755,79.63,58.615,57.109,8.009,166.182,161.223,128.385,100.354,247.448,412.28,298.284,224.608,210.194],[-95.902,-19.782,80.433,50.044,18.908,-95.809,-16.229,76.891,61.924,32.908,-87.123,-11.629,79.146,56.903,48.126,-78.659,17.089,107.966,88.172,77.631,-69,97.942,183.251,133.134,115.223,-78.131,219.457,387.445,238.402,201.982],[-100.689,-72.655,7.049,84.314,56.914,-100.271,-72.361,34.621,76.25,71.084,-98.987,-72.608,29.882,56.741,62.307,-92.31,-87.639,110.66,146.005,75.276,-111.836,-31.503,120.427,176.888,143.26,-81.249,7.477,260.236,294.74,242.083],[-100.002,-96.828,-51.378,66.594,68.797,-100.128,-103.308,-24.621,57.714,122.123,-105.839,-77.613,-70.865,96.051,104.496,-102.36,-97.856,-11.453,117.076,133.575,-85.953,-72.422,12.334,174.562,166.873,-93.196,-94.502,97.141,237.341,270.264],[-103.86,-117.615,-76.181,23.19,102.145,-101.011,-103.843,-78.976,52.954,112.28,-101.39,-92.104,-86.271,33.574,128.422,-97.167,-104.758,-110.316,34.162,126.828,-91.176,-104.68,-72.698,33.916,189.093,-102.87,-107.222,-87.751,141.468,293.091]],
"ve": [[16.63,18.721,-19.647,-7.884,3.439,17.834,10.823,17.675,-4.168,-38.192,14.673,-1.473,-12.132,42.011,-16.721,51.467,18.813,4.825,-4.384,-13.334,107.779,38.492,10.021,-5.446,-15.111,199.446,80.008,38.936,13.087,-4.63],[-18.907,7.712,5.626,2.123,0.807,36.209,7.483,4.456,3.693,3.473,12.663,7.49,4.214,2.799,2.263,55.143,26.995,16.075,10.058,7.332,94.398,50.153,32.111,22.096,14.202,200.264,100.951,61.7,43.157,30.75],[0.564,1.044,3.779,2.832,0.271,-68.433,6.093,5.598,2.989,2.325,19.737,7.558,8.566,5.042,3.742,472.096,25.974,18.954,14.542,10.149,97.204,49.647,36.821,25.738,19.398,201.659,99.327,67.441,48.74,38.572],[7.365,3.891,-0.693,2.759,1.64,5.358,-1.187,9.83,3.44,4.597,-7.271,14.773,6.094,2.729,2.314,108.209,19.446,23.028,15.973,10.234,98.642,49.888,35.701,27.455,20.254,198.962,106.32,68.148,50.597,39.349],[5.495,7.493,-18.197,3.957,1.469,19.947,28.739,6.486,4.156,5.154,78.423,6.893,16.886,8.32,5.464,61.039,28.316,15.16,16.639,13.694,94.553,51.696,33.136,28.946,22.285,196.887,98.863,53.959,49.178,43.589],[10.993,1.724,0.393,3.481,2.872,12.109,2.841,3.013,6.277,2.198,12.569,7.83,6.661,4.731,8.112,55.899,25.58,16.231,15.618,9.43,101.622,51.191,31.099,26.632,21.746,193.991,104.273,67.94,50.351,42.766]],
"kep": [[-18.75,20.34,9.114,21.773,49.243,-5.658,24.908,35.8,32.99,20.787,-15.035,20.779,27.409,43.571,48.081,54.857,101.422,90.014,118.006,135.529,126.292,191.801,209.162,207.068,220.349,201.552,347.33,340.603,367.616,415.942],[-71.18,30.471,46.747,22.404,17.872,-90.169,30.549,41.418,24.322,29.168,-74.682,11.743,38.982,27.915,26.987,-49.94,62.873,50.372,41.122,44.106,-49.202,71.858,93.458,83.361,72.399,13.393,149.689,141.822,122.494,133.666],[-95.738,-25.137,64.914,40.076,15.027,-95.323,-25.07,60.18,51.181,25.762,-87.969,-23.654,57.862,45.128,39.48,-85.519,-13.36,67.721,58.9,56.542,-83.734,28.23,99.409,80.459,75.169,-90.236,58.148,182.937,122.171,112.644],[-99.881,-73.589,0.148,69.768,47.689,-99.779,-73.87,18.86,62.477,58.53,-98.804,-75.586,16.57,45.07,51.536,-94.042,-88.648,65.711,104.725,51.956,-103.365,-54.907,56.494,109.717,96.06,-91.838,-44.193,104.149,151.698,135.94],[-99.023,-95.23,-53.638,51.337,56.757,-99.43,-99.383,-33.027,44.119,101.947,-104.447,-78.075,-75.407,71.136,83.501,-101.269,-97.455,-27.863,78.352,97.057,-93.25,-78.091,-18.104,103.29,109.566,-97.402,-93.547,14.105,112.984,149.556],[-102.779,-113.589,-74.798,10.556,84.897,-100.101,-99.524,-76.811,38.451,93.44,-100.459,-91.269,-85.112,18.822,102.963,-97.695,-100.056,-102.999,9.971,93.545,-95.319,-99.768,-75.757,1.908,124.493,-99.967,-100.991,-89.485,54.317,164.776]],
"vp": [[3209.134,1043.919,1952.383,1420.675,1761.554,554.477,367.426,336.704,433.729,206.577,329.467,157.163,116.053,176.536,202.146,52.847,38.789,21.269,38.323,36.196,21.971,19.523,23.893,13.355,11.464,13.747,7.742,5.165,6.212,4.956],[4568.869,7029.025,6631.496,4519.954,3897.612,1312.546,1391.76,1096.947,816.386,1162.364,662.763,623.812,549.456,501.192,499.01,114.175,129.694,85.563,86.885,89.401,70.748,46.312,52.379,56.168,50.847,28.699,31.631,22.676,24.178,23.935],[7935.171,8052.169,10777.83,8564.064,5637.205,1584.289,2133.768,2396.636,1713.128,1562.727,690.561,996.494,1104.837,817.578,868.528,155.513,222.693,179.283,149.182,175.315,78.887,96.221,108.631,80.252,88.383,36.182,49.502,53.487,41.191,43.747],[9007.363,13787.816,12687.416,13837.456,10779.91,1795.739,2452.826,3244.491,2378.037,2854.434,791.789,1305.902,1449.365,1102.897,1137.232,165.886,297.329,315.208,312.275,197.099,91.405,126.156,151.733,143.32,112.233,39.815,67.29,80.988,64.007,63.073],[9399.203,15841.543,18532.449,17741.318,14856.869,1960.934,2913.749,3682.111,3522.531,3849.716,964.909,1357.214,2327.324,1919.572,1711.965,199.401,306.689,309.41,375.353,315.586,92.721,145.888,186.744,194.101,154.003,46.214,77.432,98.488,82.849,80.09],[10548.48,17414.021,18288.277,26154.138,22155.055,1966.715,3215.151,3912.7,4012.708,3554.204,997.052,1275.443,1945.549,2245.647,2626.759,180.615,304.825,385.717,438.028,334.118,97.468,151.851,185.269,221.489,194.714,48.68,86.663,104.396,116.314,121.088]]
}