{
"KTrans": [[-16.298,13.509,4.003,17.915,5.542,-12.6,12.292,27.17,9.783,13.399,-49.876,8.63,1.607,4.949,4.689,-6.75,21.913,19.07,0.909,11.564,42.589,34.996,21.362,24.069,22.19,87.06,68.856,85.328,57.441,62.292],[-76.772,-8.249,4.514,0.26,8.545,-82.589,-7.618,-1.007,4.447,5.024,-82.962,-20.203,1.315,3.578,-0.235,-74.086,-13.136,7.724,9.597,1.172,-69.539,-3.488,17.134,8.554,6.556,-57.21,26.15,33.226,20.563,19.125],[-95.795,-56.313,-5.142,-2.388,2.027,-93.28,-54.039,-13.196,-1.492,-1.035,-93.161,-56.117,-12.414,-5.588,0.893,-91.383,-49.476,2.278,2.896,2.175,-88.695,-37.401,10.806,10.805,12.437,-90.288,-10.052,10.148,18.359,21.202],[-96.146,-77.551,-33.465,-1.24,5.982,-97.286,-75.188,-25.539,-3.491,1.571,-98.516,-73.791,-32.59,-6.275,6.718,-92.509,-79.491,-22.93,0.354,4.013,-93.914,-67.099,-17.611,3.035,11.074,-96.49,-47.439,0.521,11.019,28.04],[-98.161,-87.392,-56.676,-14.636,-6.601,-98.577,-91.019,-39.079,-12.504,-3.798,-96.894,-84.441,-44.841,-8.814,-2.145,-96.479,-81.298,-40.698,-9.38,-2.891,-96.339,-83.78,-37.077,-15.604,7.458,-90.974,-54.169,-39.933,-10.223,21.757],[-97.874,-88.529,-65.258,-30.826,-2.785,-99.069,-92.715,-68.076,-21.891,-4.634,-98.395,-91.789,-68.419,-27.382,-10.602,-98.78,-87.85,-58.518,-26.527,0.704,-97.523,-84.456,-51.394,-24.56,1.025,-97.516,-75.227,-42.725,-8.087,5.518]],
"ve": [[4.181,31.484,-113.635,48.638,50.704,37.932,115.904,20.068,43.835,-6.051,-0.372,7.834,-30.172,-28.484,129.738,28.185,10.201,280.052,89.407,12.424,-99.203,17.283,4.741,-110.499,-136.478,55.355,-6.75,4.405,-22.487,-64.694],[-99.688,-2.076,-1.353,2.966,3.987,-58.851,-1.707,0.387,0.784,3.52,-81.76,-6.357,2.546,3.253,2.928,-7.551,0.102,0.347,3.339,6.119,-54.646,-10.35,-175.302,8.554,5.012,-137.427,14.142,12.176,-9.105,-28.831],[-95.981,-34.615,-3.757,-1.746,0.397,-71.869,-27.802,-7.277,-1.81,-2.125,104.217,-28.454,-6.199,-1.888,-0.99,-56.626,-12.803,1.411,-2.162,-0.094,178.866,-18.108,6.633,4.753,3.681,-80.436,-20.547,-8.835,9.368,0.343],[-113.911,-53.567,-15.976,-1.026,0.392,-124.989,-48.274,-12.765,-4.669,-0.911,-90.829,-47.038,-14.401,-3.834,-1.225,-49.638,-56.606,-13.274,-3.214,-1.612,-31.273,-35.168,-7.608,2.841,3.279,-1791.874,-59.306,5.633,22.268,8.439],[-71.09,-65.495,-39.335,-6.698,-2.812,-96.179,-77.551,-24.592,-7.338,-3.788,-85.87,-29.369,-23.298,-6.447,-2.831,-55.43,-53.966,-51.846,-5.851,-3.626,-215.359,-46.548,-17.206,-8.848,-1.185,-45.507,-16.992,-29.768,-7.923,2.937],[-86.01,-70.503,-37.733,-16.776,-3.535,-79.12,-68.152,-41.405,-13.72,-3.982,-84.464,-75.611,41.815,-16.205,-8.903,-199.156,-65.644,-36.898,-16.968,-3.424,-41.535,-60.976,-30.339,-16.487,-3.119,-81.779,-37.054,-19.821,-8.683,1.796]],
"kep": [[-37.731,3.299,-10.49,22.937,-4.736,-39.803,1.537,24.645,16.484,14.621,-69.822,-2.411,-11.468,-2.038,-0.611,-42.754,6.163,7.041,-23.635,7.724,-12.576,5.891,-3.817,1.778,11.942,-13.835,12.747,51.263,24.813,58.624],[-85.041,-12.339,4.445,-2.041,6.007,-87.246,-12.502,-2.725,4.579,2.701,-87.88,-21.526,0.03,0.304,-0.842,-82.842,-19.158,0.001,5.336,-2.155,-77.538,-19.813,6.672,2.08,2.387,-68.678,-15.346,-1.38,1.018,1.745],[-97.249,-50.227,-4.118,-1.684,0.798,-98.627,-50.063,-8.487,-0.306,0.796,-96.823,-52.527,-7.961,-4.844,1.376,-93.602,-47.406,-2.057,3.362,1.628,-91.29,-41.427,-1.72,1.326,6.803,-86.851,-41.561,-11.184,-5.111,3.66],[-98.209,-72.762,-25.842,-2.53,4.351,-98.426,-69.28,-19.817,-1.215,1.459,-100.874,-67.822,-24.062,-4.463,6.857,-96.533,-74.807,-20.979,0.738,4.403,-93.471,-66.649,-22.512,-3.12,3.647,-91.638,-58.377,-23.081,-6.812,11.489],[-98.816,-84.021,-45.149,-12.5,-5.49,-99.927,-87.52,-33.56,-8.316,-1.77,-98.944,-82.072,-35.976,-4.797,-0.083,-97.488,-80.498,-34.758,-8.633,-1.672,-97.142,-81.294,-39.255,-14.528,5.339,-94.156,-65.567,-44.621,-22.768,6.649],[-100.154,-89.916,-55.243,-22.129,-2.099,-100.77,-90.583,-56.234,-14.378,-3.013,-100.657,-89.985,-60.703,-20.091,-4.393,-100.102,-87.255,-50.977,-17.755,1.485,-98.352,-84.078,-47.447,-19.125,0.661,-94.569,-81.542,-49.958,-23.08,-9.949]],
"vp": [[970.35,170.557,-295.102,-557.674,-214.782,196.686,-42.367,-64.777,-6.467,-129.639,263.98,55.583,44.552,-10.317,26.734,11.119,-14.542,-19.989,7.385,-8.224,-26.126,-12.55,-7.992,-9.753,-14.758,-28.84,-12.29,-27.489,-14.537,-17.127],[4777.663,1207.916,446.011,454.567,-573.277,1195.877,319.109,242.952,53.5,61.328,574.115,226.33,25.203,27.996,34.864,92.741,23.958,-3.56,-16.949,2.07,51.621,18.423,-13.237,-3.753,-1.199,13.733,-13.303,-17.235,-3.85,-4.654],[8140.59,7308.279,1694.199,1524.762,120.464,1451.666,1172.888,617.014,274.579,165.475,736.781,608.046,239.893,149.798,69.015,126.179,107.848,-6.998,14.87,10.556,64.085,36.903,-11.392,-2.302,-14.623,44.618,1.322,0.039,-6.555,-15.715],[8183.586,11526.014,5810.935,784.067,150.179,1674.057,1931.308,851.638,418.53,144.846,906.694,924.012,604.095,249.206,41.336,164.197,221.068,94.648,29.622,0.358,72.985,85.29,28.7,-8.308,-12.541,35.699,27.869,-8.519,-0.208,-20.408],[8925.988,13594.79,10746.766,3602.296,2299.47,1934.11,2844.551,1668.494,669.341,440.81,816.616,1187.182,813.457,279.355,132.571,157.277,226.77,142.398,61.524,54.639,72.151,113.717,68.306,57.098,11.187,33.789,20.644,43.097,16.329,-19.347],[9093.093,14770.101,13053.579,7421.448,2212.342,1911.744,3173.521,2811.21,1172.68,443.069,930.551,1442.883,1360.776,733.266,440.873,190.863,270.572,241.673,143.616,32.9,86.449,123.974,99.647,67.371,14.597,46.196,37.285,24.818,6.969,9.86]]
}