{
"KTrans": [[9.51,7.967,7.054,2.03,3.003,22.713,15.974,9.497,9.053,11.147,40.855,23.265,18.019,17.008,11.125,79.18,92.463,72.381,69.637,72.085,184.621,92.452,139.496,108.351,128.153,114.539,144.306,113.489,105.597,127.343],[-20.902,13.868,3.849,4.544,3.962,-15.872,13.245,9.442,8.509,6.253,-11.09,20.243,10.735,12.815,8.571,4.66,87.208,64.191,41.608,34.907,-0.519,-10.587,87.062,95.493,79.89,47.224,64.141,39.919,57.211,125.269],[-56.879,8.927,6.101,6.454,5.428,-51.742,19.303,14.456,9.678,6.087,-52.585,25.458,12.256,12.41,11.821,-29.778,18.339,66.061,41.874,34.507,-14.261,46.602,63.166,71.196,66.597,43.613,48.319,23.795,11.678,82.808],[-74.261,9.463,11.844,9.105,7.422,-75.776,12.156,13.067,15.691,8.616,-72.086,20.021,20.169,12.749,12.288,-53.626,21.858,67.592,56.356,34.786,-35.017,20.352,24.693,94.586,73.663,-22.733,17.911,35.865,34.083,39.647],[-84.229,0.651,16.344,12.565,8.697,-84.087,0.479,24.815,11.97,9.3,-88.061,7.08,23.797,18.898,13.118,-70.802,-31.898,43.911,57.953,36.248,-36.684,-1.528,18.801,86.545,61.495,-4.848,12.034,33.364,3.185,65.879],[-88.011,-21.117,20.362,14.232,10.687,-82.792,-19.21,22.486,13.513,13.187,-86.172,-26.948,21.414,24.1,16.201,-87.347,-29.042,40.926,69.451,37.145,-52.7,-15.015,11.748,28.635,73.368,-44.076,-4.555,41.285,-25.09,24.752]],
"ve": [[-1.061,1.858,8.283,42.341,-152.984,11.244,4.352,8.846,5.105,27.865,18.845,6.062,0.78,0.141,-7.368,54.153,25.663,3.614,-7.41,-12.894,97.242,32.216,9.924,78.693,-12.538,205.334,76.28,35.111,8.218,-7.462],[-2.797,0.736,1.04,-2.025,-0.831,11.724,3.203,0.848,0.239,-0.092,14.556,4.195,3.102,1.476,0.814,58.536,25.9,14.16,8.268,5.387,99.589,48.049,27.181,20.243,12.646,220.909,97.424,61.166,43.924,26.901],[7.184,-0.095,-0.156,-0.58,-0.453,6.58,1.711,0.434,1.287,-0.333,13.281,5.753,2.756,1.867,1.127,53.219,25.557,15.98,11.063,7.226,110.128,50.472,36.885,22.705,17.757,200.132,101.111,63.53,47.273,37.279],[2.717,1.129,0.585,0.265,-0.775,4.586,2.871,1.39,1.585,-0.216,14.7,6.826,3.02,2.45,1.485,69.004,30.274,16.652,12.106,9.557,74.837,48.845,31.43,26.6,18.059,201.541,100.435,63.841,47.802,37.173],[3.563,1.907,0.258,-0.152,-0.571,0.046,4.055,1.879,0.767,0.44,36.999,6.908,2.669,2.161,1.334,52.85,25.958,15.606,12.128,9.296,107.162,50.68,31.492,14.622,18.254,199.185,101.854,65.605,50.455,38.193],[8.652,1.241,1.058,-0.519,-0.518,-0.652,5.131,2.7,0.59,-0.089,13.43,5.442,3.233,1.882,1.155,58.408,26.156,15.786,12.145,9.41,103.596,52.528,33.369,26.148,18.463,204.902,98.703,65.284,51.989,39.913]],
"kep": [[5.423,12.932,10.978,5.795,4.361,17.285,19.53,14.977,13.852,22.723,25.708,22.401,26.511,27.784,19.444,22.679,65.754,70.315,90.529,114.067,53.266,48.6,117.989,115.523,173.211,0.479,58.08,72.941,101.806,142.647],[-26.048,14.337,3.492,7.561,5.346,-25.046,10.564,9.343,8.905,7.041,-23.784,16.457,8.219,11.682,8.32,-27.783,47.532,43.849,30.992,28.463,-42.414,-30.765,43.903,61.798,59.346,-38.717,-1.148,-2.909,12.896,72.482],[-59.602,10.012,6.505,7.356,6.219,-57.836,17.858,14.118,8.612,6.736,-60.127,18.289,9.824,10.611,10.892,-51.349,-4.706,42.235,27.797,25.573,-53.218,2.522,24.074,38.711,40.569,-45.992,-15.795,-13.576,-15.273,34.239],[-77.038,7.448,11.496,9.157,8.39,-79.035,8.558,11.52,14.163,8.999,-76.889,13.534,16.735,10.355,10.782,-68.559,-2.462,41.696,38.925,23.074,-63.728,-14.389,-1.26,52.574,45.755,-68.982,-33.406,-11.528,-3.695,4.205],[-84.726,-1.844,16.142,12.893,9.366,-85.757,-3.49,22.245,11.05,9.113,-89.752,-0.765,20.472,16.456,11.819,-78.587,-43.555,23.401,39.754,24.505,-66.436,-31.174,-6.034,48.719,35.042,-64.572,-37.496,-14.162,-24.116,22.687],[-88.24,-23.795,18.402,14.538,11.415,-84.696,-23.688,18.519,12.764,13.241,-87.993,-31.925,17.296,21.641,14.838,-89.8,-40.452,20.033,49.1,24.95,-73.802,-41.402,-12.87,4.293,44.639,-78.164,-47.516,-10.234,-39.945,-6.168]],
"vp": [[849.68,247.642,-19.748,467.941,-67.054,226.07,35.792,16.911,44.256,-14.891,29.506,87.316,-39.283,30.903,31.364,-11.268,-16.752,-19.603,-12.012,-12.768,-37.532,-30.499,-28.122,-21.775,-18.196,2.042,-46.513,-37.323,-31.955,-30.918],[4603.148,1909.215,638.052,630.964,296.818,829.369,179.251,101.375,98.317,167.805,464.976,84.612,22.7,9.85,75.689,41.78,18.628,23.579,-29.462,-24.536,27.773,0.802,-21.98,-5.658,-2.889,20.655,-34.46,-21.648,-21.301,-24.525],[5847.528,3653.643,2153.94,-151.138,1362.431,1164.726,798.86,33.356,305.092,210.975,626.987,283.105,113.658,116.772,105.214,89.711,48.286,22.895,-12.617,-9.937,15.311,-15.484,-3.206,-31.844,-2.608,-1.327,-8.717,-36.332,-24.806,-26.052],[7154.328,6324.62,2972.153,2181.882,1827.452,1291.722,1267.242,495.287,426.948,246.685,673.024,621.999,329.586,121.281,88.672,106.175,89.354,32.073,44.547,29.918,51.463,35.355,-17.662,36.712,5.02,-5.744,-7.612,-33.151,-28.703,-18.302],[7609.275,8555.641,4907.377,2201.83,2673.313,1516.192,1640.322,1089.952,462.928,441.661,701.089,810.935,487.823,223.526,193.321,125.973,151.9,71.884,19.405,14.841,40.006,57.241,12.24,-13.799,-8.134,-17.181,11.18,0.684,3.847,-35.671],[6414.393,10242.127,5523.119,4096.307,3424.141,1184.752,2033.559,1600.335,598.66,582.04,701.971,1040.423,516.213,403.409,278.734,137.213,143.624,123.505,58.754,23.381,44.649,53.607,57.796,34.244,-21.936,-0.737,4.406,-4.954,13.747,-4.155]]
}