{
"KTrans": [[1.806,2.872,1.191,1.455,0.263,15.937,7.652,5.959,5.152,6.258,25.124,16.721,11.717,11.086,9.954,155.547,92.606,75.477,68.209,61.828,403.666,224.414,174.348,154.87,140.496,1133.277,590.233,455.057,394.476,358.829],[-2.373,-0.261,1.851,1.227,0.35,6.35,6.798,4.56,3.794,3.684,14.219,10.699,8.228,6.297,6.801,119.277,64.361,44.498,35.846,29.727,292.515,145.329,99.072,77.619,66.635,805.737,358.298,233.667,179.272,150.759],[-12.326,2.508,1.597,0.967,0.817,-4.44,3.739,3.183,2.558,2.518,4.3,9.164,6.81,5.55,5.065,97.404,60.782,39.901,31.665,26.384,244.063,130.355,88.948,66.802,55.087,689.246,326.075,205.898,149.381,123.175],[-28.487,-0.889,1.039,1.325,1.167,-16.593,4.842,5.676,2.743,1.7,-11.11,7.378,7.758,4.418,4.762,71.097,55.558,38.172,29.608,24.397,207.05,128.236,84.993,63.19,52.479,600.272,314.708,195.253,142.648,113.24],[-36.379,2.029,1.344,0.591,0.095,-27.007,-0.468,2.58,2.866,2.782,-28.409,6.736,5.128,6.448,4.08,34.834,53.696,36.904,30.096,23.332,159.398,126.947,83.857,61.958,49.862,470.199,309.91,188.752,136.029,107.414],[-43.547,-4.166,1.302,0.36,0.008,-40.488,1.095,1.421,2.445,1.681,-33.436,7.519,4.372,5.744,4.306,16.429,53.12,36.438,27.481,23.194,131.17,119.308,77.605,59.896,47.073,372.01,278.496,185.432,132.661,102.792]],
"ve": [[2.035,1.99,0.61,2.046,3.724,4.079,1.538,1.491,-0.278,-3.151,9.082,1.594,0.198,-3.306,-4.101,44.877,13.1,-0.668,-11.817,-18.015,94.183,33.503,8.024,-7.601,-18.116,191.281,79.144,35.381,10.66,-6.15],[3.504,0.359,0.347,0.409,0.284,5.578,2.529,1.118,0.602,0.379,9.789,5.197,2.768,1.928,0.467,50.501,23.362,14.661,8.98,5.741,100.084,48.221,29.374,19.074,12.477,199.809,97.44,61.008,41.563,28.979],[2.066,0.716,0.353,0.216,0.453,6.071,2.57,1.425,1.273,0.847,10.537,4.831,3.815,2.402,2.012,51.623,24.605,16.156,11.589,8.339,101.359,49.057,31.933,22.794,17.383,201.394,99.385,64.463,46.396,36.015],[3.448,0.806,0.447,0.273,0.094,6.645,2.873,1.835,1.32,1.09,12.437,5.02,3.747,2.606,1.928,51.73,24.813,16.073,12.023,9.135,100.842,49.769,32.733,23.746,18.639,200.656,99.776,65.603,48.429,37.746],[2.485,1.118,-0.101,0.427,0.293,5.216,2.168,1.953,1.17,1.123,10.54,5.426,3.502,2.532,2.088,49.225,24.87,16.004,12.272,9.515,98,49.347,32.912,24.568,19.205,195.222,100.044,65.76,49.213,38.686],[2.085,0.723,0.288,0.253,0.258,-0.813,3.18,1.72,1.365,0.834,13.762,5.648,3.524,2.758,2.092,53.49,24.968,16.387,12.655,9.533,102.934,50.219,33.31,24.627,19.598,204.258,100.292,66.487,49.487,38.912]],
"kep": [[0.499,1.913,1.905,1.6,-0.217,12.416,7.161,6.042,7.451,13.53,15.65,15.398,13.234,16.804,17.415,77.261,70.934,77.385,91.657,98.719,160.058,143.322,154.565,176.573,194.704,323.917,285.758,310.178,347.23,389.393],[-5.569,-0.505,1.614,0.913,0.206,1.084,4.333,3.495,3.256,3.378,4.167,5.292,5.403,4.354,6.398,46.011,33.367,26.133,24.733,22.753,96.589,65.623,53.964,49.23,48.204,202.241,132.245,107.306,97.331,94.469],[-13.84,1.817,1.314,0.778,0.404,-9.831,1.204,1.79,1.321,1.696,-5.355,4.182,2.955,3.129,3.022,30.385,29.147,20.496,18.049,16.695,70.927,54.646,43.271,35.866,32.158,161.951,113.804,86.037,70.379,64.118],[-30.342,-1.624,0.597,1.09,1.097,-21.663,2.068,3.81,1.437,0.625,-20.792,2.328,3.92,1.782,2.798,12.984,24.713,19.077,15.724,14.019,52.963,52.529,39.413,31.897,28.557,133.595,107.679,78.344,63.524,54.837],[-37.447,0.958,1.51,0.202,-0.168,-31.896,-2.542,0.644,1.689,1.665,-35.5,1.278,1.609,3.855,1.962,-10.338,23.163,18.043,15.915,12.653,29.106,52.094,38.386,30.045,25.726,89.831,104.959,74.242,58.204,49.567],[-45.106,-4.791,1.067,0.126,-0.237,-44.136,-1.868,-0.276,1.081,0.854,-40.75,1.813,0.864,2.94,2.191,-23.034,22.553,17.276,13.188,12.498,14.337,46.105,33.261,28.318,23,55.984,89.035,71.483,55.644,46.014]],
"vp": [[72.686,108.002,-12.308,46.584,-105.455,0.151,-3.533,19.023,-1.113,13.051,2.82,-5.891,1.969,-18.028,4.429,2.905,-0.881,1.017,0.22,0.415,0.229,-0.942,-0.557,-0.928,-0.299,-0.383,-0.817,-0.354,-0.057,-0.662],[517.669,-16.646,58.347,-24.326,0.983,108.565,13.758,6.567,-1.475,4.508,53.178,5.631,2.269,5.218,-2.811,10.117,2.859,-0.358,1.981,0.446,4.75,0.176,0.547,-1.002,0.05,2.847,-0.194,-0.801,-0.766,-0.814],[1271.87,187.099,112.337,81.416,45.74,242.177,34.968,-23.066,4.424,-19.999,126.404,22.665,1.381,8.623,-7.764,26.15,2.396,0.881,-0.815,-0.206,11.072,1.455,-0.623,-0.512,-0.635,6.631,-0.002,-0.328,-0.203,0.126],[2591.238,383.313,107.072,7.303,-41.114,470.617,87.904,3.376,10.237,1.507,235.355,32.474,11.627,1.174,-5.096,45.605,5.634,2.19,0.937,-0.282,22.089,4.544,0.349,-0.955,-0.48,10.684,1.691,0.616,-0.39,0.02],[3247.757,753.183,-0.448,240.931,102.475,607.212,118.565,50.465,18.685,8.536,351.361,59.517,26.936,22.377,6.505,63.83,13.099,4.557,3.006,1.137,31.724,7.15,1.332,0.846,0.214,16.044,3.661,0.698,0.449,-0.095],[3872.738,1239.601,253.972,55.728,-152.01,776.778,226.075,56.189,17.726,34.971,436.465,116.199,30.974,22.177,5.318,85.384,21.089,6.161,5.146,-0.197,39.734,10.313,2.666,2.4,0.581,19.737,5.473,1.187,0.31,0.186]]
}