{
"KTrans": [[3.818,4.628,7.046,6.914,6.58,12.912,6.394,10.128,9.489,11.265,27.865,18.089,18.006,17.19,17.443,141.606,96.901,79.936,74.025,65.021,308.828,211.242,168.21,158.678,146.803,614.126,512.816,422.695,370.906,340.335],[-11.974,-1.861,1.248,1.742,3.132,-9.542,2.564,4.266,3.937,3.438,-4.575,8.749,7.593,7.277,7.206,72.551,52.836,39.586,35.173,31.331,153.041,118.722,91.569,71.855,67.842,282.737,304.575,201.292,172.23,140.828],[-29.194,-9.971,-3.485,-1.223,0.377,-25.195,-3.937,-1.232,0.775,2.196,-17.083,0.997,1.463,3.484,4.571,35.841,35.375,28.399,26.941,23.572,88.831,98.174,73.777,58.316,48.387,94.168,240.129,157.619,122.13,110.599],[-43.855,-16.298,-7.929,-3.684,-2.973,-39.477,-8.474,-5.353,-2.726,-0.131,-31.653,-7.429,-2.37,0.181,0.66,4.646,26.041,24.422,22.23,18.989,31.914,83.338,61.143,50.908,42.895,-42.001,192.709,133.96,116.791,94.815],[-49.965,-18.814,-12.442,-7.065,-4.298,-44.331,-14.964,-9.134,-4.898,-2.241,-43.318,-12.474,-7.493,-1.526,-1.42,-21.444,17.207,16.802,14.116,15.099,2.932,58.412,48.826,43.984,34.248,-58.728,153.132,129.847,94.196,82.147],[-61.188,-22.595,-15.872,-10.872,-6.932,-57.207,-21.193,-11.878,-8.693,-5.934,-56.351,-15.911,-9.195,-6.035,-3.433,-30.48,9.553,12.285,12.114,11.466,-26.817,48.503,45.499,36.493,29.345,-47.18,103.225,118.409,87.384,76.912]],
"ve": [[3.387,4.875,8.971,12.645,21.809,9.11,8.861,8.984,13.402,12.214,10.61,5.83,6.522,9.477,8.643,44.145,15.454,1.495,-7.227,-12.835,95.275,34.956,10.84,-5.074,-15.775,193.165,80.689,37.491,11.73,-3.801],[2.26,-0.432,0.689,1.508,2.583,4.834,2.755,2.278,2.265,3.218,10.007,3.839,3.747,2.662,3.219,48.402,22.511,14.403,10.376,7.054,98.371,47.329,28.996,20.532,13.975,-349.646,97.205,61.181,42.142,30.158],[-3.006,-0.548,-0.613,0.03,0.713,4.998,1.489,0.842,0.494,1.54,9.225,3.519,2.136,1.388,1.535,48.257,22.779,15.325,10.995,8.428,98.27,48.238,31.318,22.468,17.403,198.059,97.004,63.399,45.996,35.51],[-0.452,-1.14,-1.113,-1.161,-0.753,6.097,1.114,0.612,0.363,0.294,10.363,2.516,2.083,1.112,1.352,48.508,23.383,14.979,10.453,8.458,96.623,47.303,31.511,22.928,17.54,196.48,97.334,62.86,46.441,36.825],[0.623,-1.103,-0.585,-1.14,-0.947,5.377,0.7,0.114,0.011,-0.501,9.663,2.936,2.375,0.783,0.647,48.772,22.559,15.202,10.586,8.742,97.04,46.439,31.235,23.339,17.913,188.443,97.901,63.827,47.009,37.344],[2.74,-1.525,-1.463,-1.099,-0.656,5.356,-0.085,0.433,-0.015,-0.331,8.892,3.221,1.945,0.892,0.46,41.653,22.979,14.506,10.483,8.369,97.482,47.74,31.097,22.456,18.165,197.842,147.673,64.122,46.912,37.285]],
"kep": [[-12.265,-11.947,-12.035,-14.574,-19.773,-9.603,-13.759,-10.275,-11.321,-9.214,0.605,-2.307,-1.955,-2.1,0.206,45.007,47.64,54.039,63.276,65.499,80.328,98.851,109.033,135.719,153.494,107.696,190.936,227.129,262.79,295.02],[-25.237,-15.033,-13.333,-13.666,-13.394,-25.215,-13.908,-12.153,-12.419,-13.658,-25.004,-9.746,-10.697,-9.955,-10.44,-0.121,7.351,4.942,5.393,5.632,9.075,27.287,27.636,22.63,26.706,9.171,75.201,60.202,64.469,58.984],[-39.265,-22.021,-16.445,-15.064,-14.259,-38.345,-18.476,-15.739,-13.7,-13.407,-34.301,-15.941,-14.551,-12.233,-11.445,-21.446,-5.301,-4.289,-1.626,-2.006,-18.926,14.389,13.598,11.084,8.657,-43.118,46.904,34.769,30.582,33.408],[-51.348,-27.048,-19.901,-16.194,-15.961,-50.865,-22.163,-19.124,-16.633,-14.411,-46.607,-22.26,-17.737,-14.785,-14.618,-39.287,-12.194,-7.014,-4.886,-5.666,-43.478,6.379,5.201,5.44,4.455,-81.959,25.884,22.732,26.82,22.152],[-56.906,-29.328,-24.205,-19.173,-16.935,-54.559,-27.407,-21.977,-18.225,-15.541,-55.303,-26.874,-22.289,-15.964,-15.803,-55.047,-17.943,-12.836,-11.294,-9.021,-55.744,-7.457,-2.708,0.225,-2.172,-86.889,8.654,19.659,13.145,13.793],[-67.533,-32.331,-26.535,-22.52,-19.447,-65.702,-32.135,-24.501,-21.448,-18.869,-66.169,-29.985,-23.36,-19.927,-17.366,-60.464,-23.434,-15.772,-12.753,-11.579,-68.156,-14.177,-4.905,-4.347,-5.928,-83.493,-12.186,13.259,8.963,10.447]],
"vp": [[103.211,156.485,79.248,203.243,-157.215,26.103,-64.627,69.859,26.524,2.317,0.553,0.074,-10.094,18.154,39.699,-6.22,-2.896,3.761,3.175,-8.6,-11.934,-4.579,-3.462,0.1,-6.918,-9.956,-1.422,0.843,-3.533,-0.755],[3003.219,813.712,432.748,265.891,-205.836,542.807,136.125,-8.581,-69.031,-44.024,186.711,60.664,19.697,-31.34,42.903,35.788,8.63,-7.806,-7.932,2.868,0.733,3.606,-2.079,-6.033,7.979,-0.555,0.432,-5.654,5.081,-4.669],[4546.964,1518.481,691.976,967.74,198.375,797.056,294.359,189.41,126.674,78.639,422.684,177.931,43.247,22.974,-30.318,75.228,21.872,10.742,5.577,1.501,36.722,15.053,10.283,8.453,-8.936,8.221,-2.072,-5.61,-8.764,-5.931],[5834.142,3552.585,1665.947,851.436,159.164,1180.684,770.911,137.342,125.896,90.812,564.278,363.679,130.208,30.295,31,101.683,58.911,22.092,23.149,14.138,49.661,23.757,18.066,10.318,7.409,25.123,7.539,-9.902,-3.545,-2.976],[5971.021,5322.922,1937.398,1134.845,719.215,1305.896,917.319,441.904,162.088,87.312,677.191,514.608,242.187,134.163,43.562,126.736,77.686,48.766,9.664,3.66,50.578,45.98,16.457,11.764,-11.503,16.591,15.366,11.982,-4.811,-1.774],[7543.353,6542.836,2862.841,1687.526,857.178,1525.036,1292.281,739.635,372.128,139.211,690.587,702.191,390.758,162.253,104.124,139.884,136.595,56.665,45.024,8.949,56.711,48.195,34.204,12.895,-4.441,16.471,16.199,15.974,-2.189,4.83]]
}