{
"KTrans": [[-6.05,9.584,-2.324,1.436,-0.235,4.018,19.991,12.503,8.399,0.826,1.453,29.591,23.645,20.467,22.164,-11.143,46.99,75.444,79.074,82.31,-78.377,43.039,97.179,122.968,106.63,-58.772,-149.135,-38.011,-24.215,64.297],[-31.694,-13.668,0.831,5.347,1.438,-32.646,-6.68,3.055,7.723,4.127,-23.017,-1.838,3.656,10.184,7.207,-28.649,18.409,-11.146,21.959,30.782,-33.167,1.886,5.83,0.073,38.961,27.858,-87.831,33.538,-29.441,17.083],[-52.045,-12.168,-5.865,-7.103,-1.318,-45.491,-15.465,-3.962,-3.141,-1.673,-36.743,-4.068,-2.265,-2.036,2.003,-18.397,29.205,7.516,-7.473,-4.965,-37.232,8.148,-16.433,-36.594,10.164,-32.375,-1.225,16.541,-64.116,12.172],[-56.917,-19.251,-4.378,-4.445,-5.14,-54.082,-18.766,-6.353,-1.755,-1.898,-51.661,-13.533,-1.254,-2.011,-0.051,-57.841,9.302,17.276,10.29,8.775,-78.434,21.235,-13.023,9.104,9.841,-52.076,-9.122,-53.932,86.155,-33.279],[-71.812,-24.637,-8.53,-4.929,-2.526,-68.069,-21.87,-9.753,-2.467,-0.453,-65.042,-17.654,-3.689,1.559,0.255,-63.558,-13.2,8.198,18.58,19.641,-58.288,-1.628,7.505,-4.28,18.342,-56.719,-32.219,2.804,-24.99,-39.009],[-71.092,-26.331,-12.384,-6.475,-2.359,-73.886,-23.633,-7.962,-2.963,-1.95,-70.134,-25.054,-3.881,-2.22,2.119,-74.422,-26.405,10.716,9.304,15.265,-65.11,-41.928,-16.322,7.716,44.67,-72.582,-22.06,-56.817,11.211,49.318]],
"ve": [[-0.587,-57.841,-32.102,189.147,-42.39,18.135,-38.999,-31.677,20.183,-11.287,20.863,-7.131,-18.539,-35.896,-134.749,85.993,0.018,-17.359,-30.697,20.251,36.057,25.772,-6.26,-57.123,47.777,191.449,-2.693,34.316,2.3,-18.455],[45.71,55.331,-32.338,7.79,-4.011,9.029,-17.881,9.117,-5.542,95.476,-3.994,43.159,4.32,2.95,-20.758,40.389,20.999,-18.977,-5.408,14.414,94.956,32.211,32.761,11.839,-35.088,194.159,89.245,63.035,43.978,20.187],[-17.763,-0.002,-0.196,-6.534,4.697,-0.191,-13.368,-6.561,-8.732,3.546,6.369,4.388,-3.62,7.441,4.908,35.791,21.586,16.122,6.036,7.766,95.729,45.591,32.293,23.685,16.97,191.315,96.465,66.893,50.203,37.95],[-0.553,-6.787,-1.804,-4.292,-2.088,-14.194,-3.629,-1.029,1.84,4.015,-56.715,-0.228,1.214,-1.547,-3.242,44.566,15.973,16.309,-56.962,36.982,99.29,133.452,30.953,24.37,18.804,194.551,96.576,67.719,54.894,39.379],[-14.181,-2.367,-1.165,-1.74,-1.941,18.415,5.089,-2.533,-1.578,-0.871,3.351,2.126,0.921,0.984,-0.501,55.757,21.778,16.587,-26.645,11.329,101.103,46.221,29.242,24.952,22.014,192.583,94.642,65.437,59.784,41.596],[-20.478,-3.158,-2.308,-1.626,-1.251,-16.001,-0.691,0.108,0.14,0.662,2.563,1.815,3.033,1.313,0.853,96.024,24.135,13.001,26.882,9.192,89.698,-4.838,28.543,22.525,18.755,197.442,90.59,64.78,59.973,42.754]],
"kep": [[-117.892,-60.126,-14.769,-23.474,-15.231,-119.261,-80.748,-35.463,-26.942,0.922,-136.536,-90.484,-56.475,-39.44,-46.382,-152.578,-245.349,-214.923,-182.4,-193.671,-157.294,-278.601,-342.018,-347.618,-413.821,-51.379,-243.267,-480.991,-661.193,-713.544],[-68.584,-84.904,-128.822,-70.112,-17.481,-75.99,-70.024,-120.671,-71.08,-13.085,-67.868,-60.452,-139.796,-78.613,-25.698,-81.414,-46.706,-182.805,-152.703,-91.1,-76.787,-70.126,-137.209,-262.537,-189.864,-58.106,-110.498,-34.201,-210.923,-303.733],[-76.777,-35.281,-36.215,-73.738,-136.862,-71.667,-39.008,-33.491,-63.224,-134.038,-67.439,-26.704,-30.523,-74.208,-126.656,-66.411,-20.715,-42.791,-96.145,-175.199,-75.582,-50.246,-72.857,-127.743,-132.269,-68.859,-49.374,-34.387,-97.412,-43.972],[-76.23,-35.891,-14.09,-22.732,-38.825,-75.771,-38.231,-19.024,-15.71,-30.976,-75.491,-32.159,-13.003,-21.544,-25.155,-83.799,-28.701,-16.34,-20.512,-35.413,-91.045,-36.668,-55.836,-31.403,-46.179,-83.383,-55.066,-75.359,12.083,-73.138],[-87.233,-39.967,-19.662,-12.967,-10.178,-85.169,-36.858,-21.702,-14.811,-11.27,-84.354,-35.414,-17.412,-7.599,-11.122,-85.556,-49.035,-23.669,-3.465,3.956,-82.53,-44.284,-34.401,-44.423,-21.313,-82.979,-65.372,-39.559,-65.001,-71.64],[-85.12,-40.916,-21.488,-14.787,-10.295,-88.468,-38.012,-18.89,-10.972,-7.716,-85.745,-42.45,-14.458,-11.434,-4.927,-90.434,-52.401,-17.18,-12.599,-1.7,-86.473,-68.794,-48.836,-27.273,8.783,-87.298,-65.271,-73.833,-36.68,-9.764]],
"vp": [[206.688,-301.121,510.3,389.849,278.862,5.684,54.69,60.824,64.506,146.33,43.392,-9.532,36.897,20.643,-2.991,-19.789,17.456,19.324,-4.813,-8.74,-21.32,-32.827,-16.969,-31.094,-2.334,-5.532,6.746,-1.729,10.3,5.389],[2022.425,1068.612,44.863,-245.654,-154.69,560.555,142.186,-27.123,-130.421,-2.777,253.151,81.79,-35.284,11.092,-5.717,31.738,-5.341,10.566,-20.94,-18.571,1.765,-15.18,-21.243,-12.664,-12.292,-30.666,7.163,-31.547,-15.776,0.637],[4037.247,3126.109,2027.58,563.721,306.884,802.597,524.424,171.408,84.415,16.004,413.093,306.835,98.307,120.432,7.125,92.121,43.051,21.446,7.01,-1.813,11.559,-16.683,-9.482,0.21,-44.609,-21.119,-31.086,-23.716,-5.928,-21.878],[6181.228,3793.792,2136.268,1644.262,953.044,1244.617,858.239,223.922,211.674,345.554,555.673,453.301,191.796,154.692,100.965,81.841,68.673,11.326,18.011,21.609,65.399,19.249,6.872,-7.82,-6.299,-8.68,-19.33,-18.027,-35.505,-21.332],[6339.103,6459.848,4090.916,2010.241,1066.845,1253.794,1352.106,663.007,275.759,233.589,650.051,655.967,318.564,205.727,134.461,116.854,120.237,100.4,33.377,11.786,18.748,17.384,30.983,9.846,13.38,-1.345,-6.482,-16.338,-3.917,-27.984],[6388.199,8808.466,5743.376,3484.385,1523.54,1133.312,1601.349,951.485,640.993,423.39,648.085,738.47,483.264,335.526,223.948,102.705,131.241,84.614,43.221,36.181,24.304,52.222,18.896,2.259,13.621,0.884,33.938,-15.725,0.9,-9.624]]
}