{
"KTrans": [[-28.264,8.855,18.748,10.64,-2.182,-18.161,23.518,10.674,7.473,10.186,-7.363,26.249,7,17.417,9.398,7.631,13.718,34.45,15.903,29.487,36.078,43.588,79.088,58.246,45.479,142.225,108.145,127.139,115.34,116.806],[-78.429,-23.555,0.866,2.76,4.338,-80.122,-15.968,1.995,0.616,2.554,-73.366,-15.012,-7.539,1.501,5.528,-75.454,0.452,12.467,11.214,14.186,-27.517,10.835,17.997,14.042,17.267,22.58,34.263,52.559,47.215,35.299],[-87.152,-46.101,-9.92,-4.593,2.772,-92.858,-59.264,-11.386,-1.647,-1.979,-90.126,-44.932,-7.243,0.782,-0.801,-83.113,-27.641,9.044,9.456,3.963,-74.991,-16.168,10.48,11.154,9.839,-39.265,-3.73,40.196,63.441,28.208],[-94.174,-64.206,-19.858,-16.351,-9.135,-92.04,-64.985,-24.904,-5.324,-1.181,-95.046,-68.954,-26.205,-7.082,1.481,-87.669,-61.554,-21.356,-4.268,4.693,-86.208,-54.318,-12.055,-7.548,12.188,-62.359,-18.975,19.362,31.37,47.789],[-95.201,-78.271,-48.008,-19.704,-5.621,-95.074,-78.331,-40.238,-11.685,-11.05,-95.79,-77.621,-43.055,-19.955,-6.552,-93.623,-68.944,-35.802,-10.262,-1.275,-85.971,-63.055,-22.156,-3.914,14.495,-70.178,-37.568,1.055,13.88,23.107],[-96.332,-82.898,-54.1,-32.429,-9.528,-95.844,-80.452,-57.25,-26.921,-12.551,-97.688,-78.665,-51.573,-24.959,-6.354,-92.294,-74.107,-46.721,-25.701,-7.302,-90.55,-74.044,-45.019,-18.782,4.298,-77.075,-59.245,-21.232,0.659,11.927]],
"ve": [[-29.14,-40.232,18.459,-1.499,123.208,-13.838,345.858,-91.4,1296.394,66.278,5.492,-10.85,77.958,13.946,-56.401,23.268,-14.594,1.936,-47.765,-31.344,38.013,-28.395,-16.27,16.047,74.767,33.912,69.526,3.403,152.109,-30.925],[-65.611,-17.441,0.555,0.317,1.718,-609.74,0.71,0.751,2.249,5.147,-44.862,-8.971,-0.294,0.929,1.612,-37.331,5.153,3.211,2.39,3.914,-10.325,13.883,5.037,4.628,-25.262,46.473,10.047,34.701,22.262,-2.421],[-55.422,-23.486,-7.027,-3.614,-1.083,-68.951,-26.658,-7.463,-2.949,0.161,-62.705,-20.261,-3.661,-0.607,-0.554,-23.545,-10.742,0.915,-2.003,0.397,-31.65,5.955,-4.456,0.562,2.152,16.639,-10.18,5.307,18.608,3.586],[-75.194,-46.187,-13.14,-11.754,-7.252,-99.092,-44.483,-14.83,-5.666,-4.469,-87.039,-43.804,-7.027,-4.118,-3.529,-58.023,-27.776,-13.998,-5.048,-2.667,-19.68,-33.923,-13.994,-8.4,0.381,10.67,-15.986,5.501,8.416,9.616],[-42.87,-50.099,-29.648,-11.869,-7.144,-64.904,-28.52,-29.049,-11.891,-8.467,-67.93,-42.093,-26.314,-12.451,-7.789,-80.986,-128.638,-23.93,-8.495,-4.304,-16.552,-47.038,-19.453,-13.919,1.822,1.817,-14.114,-1.822,1.891,5.478],[-32.011,23.568,-35.144,-22.313,-9.858,-83.801,-42.26,-37.651,-17.174,-10.679,-93.258,-56.067,-33.766,-20.363,-7.211,18.017,-44.403,-21.101,-19.842,-8.508,-22.617,-45.212,-27.037,-10.062,-1.625,17.198,-15.047,19.612,1.068,1.735]],
"kep": [[-55.071,-6.732,1.559,5.471,-19.457,-46.009,9.718,4.014,-9.648,11.901,-31.529,5.42,-8.482,13.319,6.973,-32.485,-7.11,23.929,-1.918,26.68,-8.998,3.749,67.387,57.111,35.193,40.006,80.397,98.456,121.55,137.078],[-79.941,-19.058,-4.086,3.62,4.887,-85.701,-16.509,0.879,0.06,4.364,-79.927,-14.446,-6.435,0.624,6.406,-80.57,-13.625,8.029,8.815,10.715,-56.782,-11.212,1.906,6.378,13.166,-41.155,1.236,20.34,16.733,12.111],[-89.61,-39.51,-10.057,-2.029,3.383,-94.727,-53.29,-6.688,-0.58,-2.237,-92.824,-44.922,-6.754,-1.492,-0.591,-85.714,-33.113,3.283,7.845,2.943,-79.266,-31.738,4.056,7.902,6.462,-64.662,-23.391,0.379,30.97,5.418],[-95.216,-56.939,-11.473,-6.554,-2.642,-93.231,-58.758,-17.09,-3.152,2.724,-94.947,-63.907,-19.257,-4.142,3.703,-88.482,-57.058,-23.45,-3.651,5.63,-86.488,-53.75,-20.401,-4.113,9.524,-76.709,-36.871,-7.627,-0.164,33.838],[-94.96,-74.635,-33.867,-11.892,0.593,-95.695,-72.581,-26.935,-3.669,-3.947,-94.811,-72.293,-33.444,-11.008,0.11,-92.627,-64.54,-29.045,-7.114,0.996,-87.379,-59.53,-24.782,-2.834,8.885,-81.606,-50.862,-24.449,-6.696,9.176],[-97.454,-79.717,-39.652,-18.375,-1.461,-96.358,-76.095,-46.99,-16.578,-3.933,-97.055,-73.651,-38.686,-13.735,-1.634,-93.929,-68.821,-38.172,-19.046,-1.639,-90.554,-71.901,-42.036,-21.152,0.875,-85.114,-63.883,-37.38,-18.18,-5.132]],
"vp": [[1934.347,139.498,-685.68,143.706,1043.188,196.836,-50.434,16.677,20.457,78.24,120.805,-87.487,-27.375,-27.169,8.829,-13.358,4.199,-12.881,-12.141,-31.677,-39.325,-14.916,-51.487,-43.102,-32.726,-12.009,-37.365,-31.184,-37.586,-44.833],[5254.541,3096.622,1064.692,798.988,140.712,1063.42,366.396,161.412,239.47,47.82,467.243,283.589,182.752,90.53,63.241,90.226,16.365,-0.517,-13.576,-38.104,7.858,-1.191,-11.016,-0.54,-12.525,-24.92,-9.468,-37.495,-29.109,-19.654],[6310.668,5828.041,2798.878,1998.994,908.516,1381.246,1449.127,577.432,317.436,239.981,596.691,547.248,203.985,112.519,98.973,102.821,64.651,-6.141,-2.735,4.649,46.861,-7.775,18.051,5.2,0.012,1.838,8.285,-18.207,-45.947,-14.987],[7530.066,9029.784,4448.96,5642.794,3910.06,1347.414,1746.579,992.184,502.121,518.918,699.894,900.969,466.864,187.261,173.235,102.928,176.252,110.802,48.951,15.953,54.096,73.232,29.473,60.429,2.142,0.747,1.634,-8.383,-14.179,-30.704],[6787.802,11653.147,10249.767,5733.635,3740.008,1366.283,2163.871,1735.362,1000.765,830.552,796.887,1095.086,828.525,571.3,415.834,141.603,183.561,133.008,69.818,45.036,47.484,86.242,67.551,41.726,-5.863,2.277,12.776,-3.639,-4.633,-16.774],[7205.722,11907.721,10976.133,9421.037,5530.63,1513.161,2043.287,2458.027,1486.391,1182.761,734.986,1107.997,1154.976,841.957,339.299,128.415,179.369,183.101,162.761,91.274,51.312,100.287,91.816,60.498,15.7,8.066,16.553,1.31,-3.035,-1.491]]
}