{
"KTrans": [[14.264,5.195,4.51,9.439,5.408,29.085,14.397,10.035,9.419,11.623,45.075,19.804,18.123,16.072,13.078,184.987,103.872,83.982,66.777,67.323,430.756,229.356,180.293,159.971,153.63,1201.094,616.577,471.72,414.878,362.218],[13.024,18.815,9.864,3.834,3.13,33.746,12.683,10.421,11.406,8.369,35.624,21.49,16.995,14.295,12.184,189.864,89.014,65.32,44.988,37.396,393.942,163.565,106.968,91.223,77.36,931.61,396.473,243.754,199.042,161.651],[-35.099,47.598,27.107,10.732,7.297,-30.21,26.624,17.845,18.763,11.926,-38.023,39.261,18.046,10.734,15.304,46.188,111.713,67.148,44.585,33.901,139.153,198.509,111.184,88.376,73.615,559.116,416.677,268.832,172.306,149.144],[-72.365,54.246,40.642,19.668,21.823,-72.078,60.676,48.582,22.991,20.296,-62.816,79.797,36.574,21.152,22.241,-5.225,155.172,78.952,43.77,35.074,38.97,238.123,145.526,86.446,72.466,172.853,506.233,253.619,170.671,135.144],[-91.936,23.415,32.681,29.771,31.035,-82.532,53.588,58.743,23.935,21.319,-72.991,37.544,63.566,45.416,30.976,-85.989,91.249,116.629,55.69,43.051,-24.152,159.407,164.035,91.487,75.084,57.255,389.198,315.232,194.888,147.195],[-85.013,-45.615,72.689,45.215,32.985,-85.516,-13.973,109.294,25.645,30.209,-84.182,-15.729,95.057,71.452,31.976,-76.393,5.43,104.979,93.016,50.374,-46.826,58.945,187.14,149.355,78.935,-34.285,178.464,326.979,226.243,173.726]],
"ve": [[3.099,2.937,2.246,-0.225,5.517,5.921,1.664,1.179,0.373,-1.789,9.7,3.499,-1.196,-3.104,-4.77,46.211,13.518,-0.888,-11.168,-18.662,93.964,32.868,8.536,-7.376,-18.175,192.852,78.794,35.923,10.696,-6.902],[2.525,1.592,0.965,0.461,0.481,5.71,2.591,1.108,1.527,0.585,11.853,4.71,2.846,2.013,1.424,51.146,23.471,15.528,9.471,5.784,101.108,48.721,29.534,19.815,12.864,199.7,97.161,59.759,41.916,28.885],[0.763,1.207,2.13,0.654,0.164,6.612,2.557,1.132,1.648,1.203,42.523,4.925,2.476,1.755,2.384,49.475,25.875,16.381,11.902,8.006,95.311,49.612,32.065,23.448,18.154,200.265,98.042,66.128,46.601,36.676],[1.346,0.27,1.936,0.672,1.197,5.261,3.092,3.547,1.734,1.723,12.056,6.14,3.862,1.924,2.853,48.211,25.879,16.404,11.864,9.022,98.696,49.557,33.112,23.846,19.099,203.513,99.993,65.396,47.502,37.787],[2.183,2.286,-1.447,0.746,1.451,3.025,4.162,1.546,0.691,1.156,10.228,5.667,3.979,3.27,2.975,52.38,25.64,16.816,11.739,9.658,100.312,50.298,33.383,23.837,19.37,200.025,100.164,65.735,49.821,39.273],[0.601,1.081,1.41,0.842,0.973,4.768,2.682,3.667,0.077,1.13,10.946,6.316,4.034,3.759,2.115,49.842,24.025,16.228,13.272,10.045,100.441,51.328,32.437,25.077,19.609,208.55,99.827,67.209,49.466,40.115]],
"kep": [[10.207,3.004,4.605,12.755,8.032,21.156,13.02,10.663,12.322,19.676,32.007,16.024,21.289,23.477,23.051,94.057,79.095,85.235,88.18,106.336,172.727,146.776,157.481,180.028,209.678,343.133,299.634,319.74,364.186,395.402],[7.78,15.317,7.669,2.763,2.427,22.658,8.231,8.162,9.193,7.412,19.517,14.051,12.648,11.237,10.305,88.153,50.745,41.853,31.367,29.22,143.052,75.495,58.3,58.371,56.123,241.668,149.801,113.472,109.298,101.901],[-37.178,41.347,22.66,8.756,5.909,-36.068,20.71,14.575,15.32,9.528,-44.618,29.327,12.866,7.485,11.394,-2.791,64.502,41.36,27.538,22.488,19.081,95.85,57.447,50.87,45.379,118.434,157.456,119.971,84.052,80.712],[-72.047,47.298,34.862,16.587,18.586,-71.594,49.612,40.309,18.412,16.542,-65.721,62.575,27.876,16.603,17.187,-35.891,96.266,49.987,26.249,22.109,-29.178,119.554,80.299,48.024,42.774,-7.67,197.106,110.594,80.436,68.685],[-89.955,17.23,29.138,25.64,26.339,-82.071,42.349,50.187,19.884,17.667,-73.965,25.372,51.856,37.143,24.913,-88.28,48.157,79.639,35.921,27.994,-61.131,68.24,92.33,50.977,43.737,-46.569,139.803,144.522,93.919,74.879],[-83.825,-45.546,62.853,39.221,28.286,-84.37,-18.045,94.099,21.276,25.122,-84.114,-22.323,79.705,59.83,25.86,-83.097,-16.288,69.862,65.294,33.797,-71.802,5.311,108.864,93.416,46.02,-76.584,37.817,150.664,113.405,91.8]],
"vp": [[504.66,499.529,416.496,569.819,503.441,111.384,114.473,85.094,88.994,110.474,75.406,50.512,51.449,50.324,46.944,12.442,9.09,11.03,12.957,9.913,3.997,5.254,4.611,5.21,7.009,3.837,2.517,2.423,2.937,2.273],[2781.808,1502.883,1546.812,1157.916,1244.316,573.658,174.111,201.282,258.945,305.473,245.001,137.303,135.031,159.937,122.138,56.704,24.248,38.166,29.122,30.267,29.241,9.198,12.617,16.641,15.131,11.445,5.789,5.155,7.078,6.765],[3503.869,2469.556,2723.038,1744.804,2025.105,992.978,324.821,327.345,429.914,361.874,426.375,149.871,178.233,184.365,232.572,74.145,47.895,34.532,42.727,47.172,55.916,16.664,17.831,23.535,31.858,23.007,8.199,7.803,9.365,14.642],[5471.914,4421.814,3320.059,2492.222,3747.982,945.264,902.903,537.927,557.035,690.4,584.89,541.281,220.102,186.189,322.592,95.363,108.107,36.275,48.495,37.66,48.546,50.005,29.486,29.461,30.289,25.769,22.32,7.799,13.577,11.723],[6844.793,5910.284,1893.183,2372.869,5099.99,1308.929,1498.415,959.576,447.343,705.708,592.286,758.151,316.645,254.476,441.954,137.926,145.615,73.437,53.781,70.162,69.081,72.67,36.441,26.098,36.777,36.413,32.117,25.856,15.115,19.359],[7329.454,7610.849,4773.567,2219.656,4054.995,1364.87,1361.733,1946.624,399.758,729.27,663.781,981.811,645.524,349.986,387.004,144.502,135.663,89.995,104.541,60.176,75.973,74.958,62.006,40.634,42.982,37.55,43.939,32.091,20.504,18.254]]
}