{
"KTrans": [[39.502,29.639,14.837,19.8,17.886,55.429,37.267,26.871,17.813,24.547,59.292,33.746,37.272,24.094,25.949,220.353,110.173,82.222,90.371,79.01,522.68,251.615,203.98,186.547,174.758,1365.717,677.645,504.247,433.461,408.07],[-36.808,72.545,31.355,28.452,28.628,-58.636,73.367,28.655,40.252,24.981,-15.822,47.121,47.987,42.79,27.383,-13.222,172.217,91.798,69.418,56.048,249.678,294.582,156.417,126.446,93.367,519.507,535.559,320.716,232.537,185.803],[-122.488,121.603,75.284,60.736,27.557,-96.664,102.221,62.856,42.272,42.109,-133.645,124.208,72.222,45.276,46.611,-108.081,240.476,114.664,79.026,75.153,-15.993,312.217,229.744,124.333,85.591,-126.642,644.898,412.496,266.408,171.006],[-109.559,-56.91,167.901,81.146,67.718,-104.26,-88.176,196.074,96.801,49.83,-115.226,-106.161,165.272,81.384,63.851,-94.091,-71.991,255.137,111.711,81.017,-78.779,-126.964,290.319,206.657,135.841,-232.883,-118.754,584.548,315.61,218.465],[-116.883,-134.217,-14.484,190.009,91.475,-111.393,-155.555,-59.195,168.549,97.538,-100.989,-167.853,4.05,178.804,101.381,-110.062,-138.351,80.875,253.524,127.623,-142.579,-116.91,63.84,329.261,181.149,-141.451,-206.391,186.02,444.779,266.171],[-107.379,-154.138,-204.91,166.111,133.067,-113.815,-127.435,-124.018,171.025,149.751,-106.57,-132.56,-181.985,268.361,163.768,-109.223,-144.07,-179.692,164.341,221.031,-133.525,-151.238,-183.161,387.598,274.028,-112.452,-156.073,-143.171,522.706,454.99]],
"ve": [[4.411,3.913,8.658,5.247,-89.697,7.227,2.556,4.124,9.398,13.686,10.273,4.125,0.922,3.272,2.224,47.878,12.78,-2.472,-10.732,-18.792,97.71,32.009,8.544,-7.075,-18.508,194.964,81.549,35.883,10.02,-5.303],[9.15,3.044,1.173,1.24,1.54,4.173,3.3,1.234,2.522,1.247,11.383,3.411,4.009,3.91,1.857,45.819,25.709,15.431,10.966,5.814,103.363,49.022,31.211,20.807,12.476,204.078,98.299,61.211,42.147,28.688],[0.931,2.409,1.079,3.323,0.921,7.049,2.877,1.227,1.346,2.875,12.049,7.255,3.007,2.993,3.372,50.579,27.197,15.364,11.685,10.886,101.399,50.162,34.569,23.412,16.694,200.121,101.771,67.276,50.055,35.092],[16.21,3.536,1.7,1.35,3.549,7.361,5.422,4.441,1.985,1.317,13.357,7.728,4.204,1.382,3.004,47.168,15.471,17.829,11.665,9.968,99.784,50.964,33.579,26.238,21.01,202.713,104.126,68.894,50.149,39.117],[2.665,-0.596,2.658,2.239,2.441,5.51,4.114,3.806,3.55,3.5,12.158,10.197,3.718,4.532,3.862,47.831,23.413,18.258,14.478,11.452,102.448,53.22,12.263,26.412,20.986,199.573,105.379,62.729,48.863,39.007],[1.87,4.312,2.947,1.496,-0.308,8.129,14.756,0.953,3.853,1.463,11.119,8.082,4.988,4.61,3.225,50.666,26.979,18.612,14.14,12.022,99.887,52.075,37.232,26.022,20.198,198.413,99.502,62.116,48.973,42.242]],
"kep": [[32.108,26.158,14.774,26.548,26.401,42.559,34.536,29.016,24.208,37.844,40.653,28.953,39.576,29.133,39.624,111.429,83.865,84.898,111.816,120.901,211.3,162.634,177.029,205.414,233.771,393.02,325.196,340.958,380.727,432.029],[-41.783,60.108,25.46,23.968,25.284,-60.161,58.886,22.464,34.443,22.254,-27.166,35.233,37.446,34.922,23.694,-41.33,108.357,60.564,49.614,44.617,66.616,155.311,90.561,83.424,68.347,101.685,212.451,154.595,129.178,117.906],[-115.436,100.689,63.459,50.851,22.619,-94.674,80.841,51.23,34.18,34.288,-123.784,96.377,57.364,35.598,36.847,-99.943,152.573,76.283,54.551,53.96,-54.746,161.416,134.805,75.431,54.274,-103.776,257.686,196.846,138.035,95.048],[-104.898,-57.188,144.237,68.716,56.516,-100.631,-83.56,164.803,80.923,40.807,-109.622,-100.587,135.851,66.204,51.981,-92.298,-73.188,180.668,78.494,56.931,-86.56,-108.983,176.21,131.522,87.843,-139.494,-102.558,289.516,166.332,120.344],[-112.137,-124.659,-19.65,162.776,77.318,-107.265,-142.931,-60.635,142.676,81.937,-97.263,-152.818,-6.388,149.014,84.047,-103.113,-121.33,45.452,190.23,94.014,-117.728,-103.621,20.259,218.901,121.394,-109.515,-143.852,65.138,245.215,150.521],[-103.808,-144.241,-187.456,141.778,113.632,-109.953,-118.449,-112.749,141.807,127.351,-102.52,-122.668,-164.406,222.845,137.137,-103.387,-127.409,-156.523,116.512,169.993,-112.768,-126.038,-151.045,263.473,190.212,-100.589,-121.494,-115.269,290.559,270.717]],
"vp": [[1753.924,2070.831,1457.541,1494.264,1908.312,355.759,375.758,326.257,301.615,351.371,159.379,150.044,177.821,149.245,146.146,31.479,24.155,24.382,35.685,31.315,17.672,11.75,14.592,15.957,18.94,8.248,9.197,7.673,8.016,8.574],[6178.148,5067.999,4399.444,5163.342,5579.66,1147.401,990.434,796.623,1090.439,924.882,563.685,324.296,490.153,570.427,477.93,106.89,97.241,100.914,99.626,88.217,63.958,48.473,43.173,51.524,42.808,31.259,23.149,24.316,20.986,20.972],[7205.318,9465.319,6977.278,9315.441,6085.399,1540.107,1707.595,1372.175,1500.06,1589.189,788.604,988.753,712.296,651.962,883.611,129.62,189.03,133.328,134.209,175.042,66.601,86.189,89.906,70.427,57.43,40.83,47.069,44.524,46.105,32.737],[8613.539,14173.465,11477.093,11248.345,12362.654,1834.922,2278.038,2566.513,2311.359,1849.746,944.734,1177.702,1120.829,983.537,1122.211,158.106,246.244,232.899,180.286,202.972,90.001,121.142,98.148,121.676,115.842,46.248,70.398,57.503,51.67,59.53],[10804.534,14971.105,17735.199,14905.939,13121.476,1890.777,2880.543,3326.259,2750.531,2779.888,997.609,1418.982,1632.94,1456.365,1320.875,174.727,249.737,287.455,296.634,277.525,106.365,148.795,140.515,155.025,150.392,48.918,73.298,102.773,73.012,69.533],[10207.428,20203.08,21735.222,16877.766,13421.761,2446.658,3286.702,2835.162,3836.677,3348.705,1114.159,1607.634,1846.764,2053.053,1639.116,216.666,353.56,390.208,360.656,381.685,107.648,168.018,196.272,163.765,176.973,52.676,77.998,68.21,83.15,100.148]]
}