{
"KTrans": [[1.623,-2.928,0.218,0.262,2.291,1.51,0.702,-1.376,2.476,1.535,5.679,4.361,3.766,3.649,1.812,35.525,19.869,15.897,13.469,15.358,65.206,55.347,45.58,34.041,36.452,20.731,144.771,117.526,91.436,89.316],[-22.985,1.003,-0.086,-0.41,-0.319,-23.831,0.259,-1.2,0.48,-0.949,-16.993,2.548,0.462,0.544,0.76,11.644,10.672,8.604,6.993,3.929,-1.129,55.754,29.927,20.301,15.175,96.089,75.968,65.913,51.263,44.25],[-50.743,1.363,2.157,-1.037,-0.055,-54.208,-0.476,0.912,0.525,0.02,-54.785,0.67,3.659,0.505,0.395,-35.724,29.617,11.832,7.7,4.581,-32.613,44.206,22.129,16.701,14.363,-137.787,9.019,51.478,44.478,36.596],[-75.189,-0.952,1.228,-0.851,-0.211,-74.643,-2.441,-1.6,-0.212,1.355,-66.777,5.848,4.833,0.236,-0.665,-42.093,6.253,24.848,5.266,4.234,-34.248,16.399,27.46,25.846,15.593,-22.507,51.583,74.928,73.736,34.663],[-75.554,-21.533,2.56,0.735,-0.677,-80.739,-16.601,3.881,2.916,0.873,-80.498,-15.14,8.537,3.124,3.407,-66.36,-15.269,29.481,18.321,5.868,-65.109,-0.277,24.243,23.547,19.1,-56.429,-11.166,26.117,43.373,37.222],[-87.777,-48.923,5.773,6.631,0.384,-88.017,-46.771,9.965,6.525,2.237,-81.97,-46.881,4.487,11.751,-0.378,-72.657,-40.201,0.097,19.714,8.5,-69.211,-30.938,8.386,24.085,24.943,-73.967,-10.346,1.878,24.392,23.304]],
"ve": [[-2.509,-0.52,1.399,2.66,4.151,-1.55,1.092,2.775,1.874,3.36,0.149,1.333,-1.196,-13.739,8.211,5.412,5.697,25.254,-49.85,-23.713,25.408,-6.101,-12.452,-17.291,-54.918,135.083,25.943,3.4,-25.86,-25.68],[-22.601,-3.222,-3.552,-2.8,-2.5,-19.419,-4.391,-3.548,-2.323,-2.299,-18.908,-3.881,-3.297,-2.247,-2.182,3.474,-0.361,-0.792,-0.516,-1.051,36.739,21.003,-119.865,40.587,0.854,93.139,42.391,17.061,11.517,7.841],[-41.512,-5.771,-3.963,-4.202,-2.891,-41.173,-6.53,-3.053,-3.504,-3.126,-33.855,-6.774,-3.423,-4.059,-2.773,-28.167,10.302,1.035,-0.387,-1.935,0.06,9.258,1.459,2.678,1.124,43.665,27.486,20.48,13.295,8.298],[-69.856,-10.497,-6.348,-4.937,-4.164,-52.568,-11.116,-6.551,-4.845,-3.447,-51.129,-10.017,-4.886,-4.232,-4.106,-25.669,-8.178,0.36,-2.636,-2.818,-16.883,4.373,3.621,1.846,1.244,38.047,10.904,25.675,20.472,13.252],[-52.122,-21.726,-6.826,-5.253,-4.478,-56.961,-20.267,-6.703,-4.767,-4.337,-58.956,-22.335,-5.401,-4.57,-3.806,-23.952,-18.371,0.983,-3.64,-2.996,-14.597,-4.338,2.272,0.757,4.077,19.814,13.804,19.088,4.327,-5.601],[-62.819,-36.191,-8.425,-5.482,-4.877,-79.948,-41.405,-8.085,-6.219,-4.387,-52.223,-37.359,-8.131,-4.58,-5.08,-29.493,-33.331,-13.587,0.222,-1.523,-33.287,-31.84,-7.739,0.248,1.935,18.148,0.346,5.053,4.248,1.044]],
"kep": [[3.927,-1.157,1.618,2.774,4.992,2.655,1.231,-0.713,3.907,4.785,5.245,4.751,7.538,9.284,3.047,13.444,8.854,12.802,14.163,23.348,32.148,27.744,31.078,25.317,42.592,50.177,80.832,95.701,89.186,100.827],[-11.795,3.941,3.528,2.514,2.299,-9.959,4.248,2.384,2.906,1.446,-5.897,6.014,3.744,2.865,3.101,-4.635,6.287,7.234,6.588,4.465,-17.428,24.008,15.141,12.83,9.89,-0.333,31.979,21.443,18.738,22.581],[-32.931,6.418,6.239,3.233,2.929,-34.997,5.486,3.772,4.093,3.224,-43.815,6.228,6.988,4.71,3.195,-33.3,19.545,8.357,7.168,6.089,-38.441,18.213,14.332,9.871,10.608,-42.709,-3.333,26.813,20.772,19.434],[-61.098,7.515,7.568,4.122,4.093,-61.104,7.784,4.793,4.664,4.879,-53.647,14.491,9.426,4.476,3.522,-42.717,0.416,24.81,7.062,6.333,-49.206,-4.834,11.386,19.264,11.391,-47.728,4.079,28.735,42.448,15.97],[-65.032,-3.253,8.846,6.117,3.883,-73.013,1.489,9.918,7.664,5.339,-71.789,7.279,13.258,7.425,7.409,-66.656,-15.459,27.045,21.076,8.103,-63.007,-17.446,14.216,20.273,12.982,-63.221,-22.238,4.122,26.351,20.294],[-80.038,-24.91,14.113,11.919,5.424,-79.72,-19.18,17.397,12.81,6.713,-73.237,-25.516,11.56,16.009,4.645,-71.245,-31.756,11.337,18.612,9.327,-70.896,-33.446,-1.813,17.726,22.391,-72.288,-37.51,-18.78,-0.061,13.563]],
"vp": [[311.312,273.635,217.484,378.895,-6.284,73.827,34.484,65.658,11.929,21.281,-3.209,-0.227,4.832,5.065,14.699,-16.096,-17.334,-16.071,-9.907,-20.496,-30.65,-23.352,-25.008,-19.45,-23.649,-76.102,-46.01,-34.108,-29.542,-30.394],[1927.415,607.44,741.914,815.386,876.066,399.789,154.961,180.193,126.895,147.806,179.648,64.949,81.689,46.471,53.691,-11.565,2.491,-0.246,-5.962,5.847,-22.844,-42.232,-27.938,-19.318,-15.135,-50.945,-49.902,-44.743,-34.927,-35.072],[4273.367,1107.05,951.694,1306.14,1038.458,871.051,235.944,164.482,215.776,221.791,362.332,110.995,73.727,111.779,101.264,56.113,-41.197,-15.063,-8.282,6.142,-0.465,-19.534,-8.471,-13.842,-11.448,-20.189,-28.227,-24.428,-31.175,-28.073],[5602.795,2060.784,1538.357,1568.329,1557.245,1125.111,415.643,333.801,298.301,280.88,533.505,192.521,127.639,133.976,161.414,46.635,31.92,-6.901,15.009,20.222,17.53,-11.148,-14.816,-15.194,-14.609,-22.832,-10.779,-43.181,-48.356,-22.658],[5036.767,4367.447,1707.019,1845.274,1963.68,1069.884,848.175,332.419,344.373,348.839,575.569,448.459,149.184,159.326,144.94,42.681,69.871,-8.495,27.983,20.282,13.164,7.334,-2.879,-6.283,-29.613,-10.431,-17.233,-32.152,-9.47,-20.336],[6323.316,7388.006,2400.721,1977.467,1958.202,1420.641,1723.19,442.233,444.237,371.68,502.067,755.871,219.44,159.836,215.996,56.06,131.472,79.437,-12.725,4.384,32.526,64.282,20.759,-5.168,-16.29,-9.809,2.093,-7.355,-8.321,-3.496]]
}