{
"KTrans": [[-25.932,-8.795,-5.589,-6.889,-4.089,-18.958,-6.223,-8.272,-4.875,-6.59,-31.042,-5.038,-8.765,-4.344,-1.372,-21.845,-10.654,-4.72,-4.731,-4.122,-30.237,-13.324,-10.626,-2.23,-5.892,-24.325,-3.687,-5.764,-3.073,-2.888],[-81.056,-29.471,-16.332,-14.977,-13.022,-70.575,-32.79,-16.77,-16.335,-11.586,-73.029,-27.086,-16.394,-14.009,-10.639,-75.909,-30.038,-8.867,-12.987,-8.663,-73.27,-21.686,-10.996,-14.208,-13.591,-76.235,-26.397,-21.817,-11.476,-14.601],[-86.071,-54.631,-33.879,-23.101,-16.943,-85.248,-51.047,-25.776,-17.481,-14.526,-85.355,-46.265,-31.65,-23.735,-18.687,-83.513,-53.928,-27.504,-23.608,-19.066,-87.996,-52.632,-30.575,-23.617,-22.5,-85.23,-60.129,-25.18,-24.563,-12.865],[-90.87,-65.143,-43.948,-31.737,-21.025,-92.061,-68.948,-46.699,-23.89,-23.182,-93.708,-74.794,-47.977,-28.553,-23.999,-92.761,-60.813,-44.19,-25.102,-24.974,-93.246,-68.088,-36.878,-23.661,-18.804,-92.83,-66.769,-46.196,-31.8,-25.653],[-94.145,-79.82,-59.391,-35.845,-20.531,-99.001,-77.57,-57.672,-39.265,-36.157,-100.489,-78.551,-60.343,-38.197,-24.942,-100.083,-77.281,-52.845,-27.862,-31.318,-99.791,-82.023,-54.604,-31.371,-27.006,-97.416,-74.907,-57.302,-43.329,-26.99],[-99.075,-84.215,-70.148,-43.637,-37.885,-100.819,-82.089,-63.66,-51.93,-38.106,-99.653,-82.766,-73.631,-48.899,-33.098,-101.157,-87.605,-63.48,-48.692,-29.141,-97.659,-81.543,-72.28,-57.022,-38.289,-98.485,-85.279,-64.682,-55.691,-33.241]],
"ve": [[-22.957,3.767,-9.679,51.32,37.002,-14.434,-7.15,40.923,40.262,92.082,-7.618,2.868,13.594,28.707,90.454,-7.465,4.274,7.914,68.526,29.426,-17.534,17.897,15.572,19.784,79.555,-11.767,6.71,9.088,42.02,-131.635],[-71.544,-20.709,-11.55,-8.377,-4.517,-51.151,-20.5,-11.855,-8.867,-4.42,-49.913,-19.447,-12.768,-7.482,-3.785,-56.828,-19.258,-9.993,-5.715,-4.629,-54.128,-15.125,-11.313,-8.079,-5.139,-51.801,-22.634,-11.835,-7.397,-4.799],[-64.55,-39.801,-24.46,-18.562,-11.237,-72.212,-41.358,-22.319,-13.19,-11.849,-79.969,-35.13,-23.743,-16.436,-12.074,-60.555,-40.825,-23.412,-15.381,-12.484,-79.511,-43.921,-25.215,-15.755,-10.511,-73.09,-54.696,-20.5,-18.313,-10.156],[-77.803,-55.166,-38.041,-21.294,-18.232,-105.02,-55.115,-36.376,-22.299,-15.863,-90.357,-60.22,-43.437,-24.322,-20.503,-81.272,-50.75,-34.099,-22.926,-16.763,-81.267,-54.381,-36.709,-23.121,-18.128,-87.819,-54.921,-37.314,-25.363,-17.632],[-90.916,-68.22,-50.217,-33.806,-19.596,-106.566,-66.579,-51.782,-34.909,-26.839,-110.686,-69.741,-309.663,-32.208,-25.802,-88.24,-65.121,-44.641,-31.039,-22.256,-97.831,-70.976,-41.984,-32.41,-26.393,-99.061,-64.129,-51.791,-33.633,-21.935],[-96.988,-78.086,-159.478,-43.5,-31.244,-110.916,-75.1,-51.345,-47.709,-32.178,-102.09,-76.991,-61.15,-38.352,-29.851,-108.705,-78.526,-53.813,-42.063,-30.496,-84.456,-66.448,-59.713,-46.306,-32.852,-93.299,-76.581,-56.867,-48.436,-29.115]],
"kep": [[-22.229,-7.778,-7.305,-13.842,-9.35,-14.121,-5.514,-9.917,-11.096,-18.001,-26.305,-4.804,-11.927,-8.041,-7.244,-18.512,-10.502,-4.824,-8.646,-8.745,-24.443,-11.989,-14.859,-5.013,-17.112,-18.982,-4.254,-8.144,-5.882,-10.775],[-80.49,-14.682,-5.485,-7.045,-8.502,-70.717,-15.618,-5.419,-7.859,-7.251,-70.328,-11.463,-4.511,-6.762,-6.883,-76.068,-14.386,0.846,-7.636,-3.765,-70.233,-9.003,0.457,-6.354,-8.605,-76.227,-8.983,-10.906,-4.459,-9.961],[-79.366,-46.198,-12.738,-5.954,-6.334,-79.972,-44.607,-4.432,-5.032,-2.488,-83.587,-41.152,-10.885,-7.765,-7.422,-78.61,-50.071,-5.491,-10.008,-6.896,-82.453,-46.096,-8.341,-9.422,-13.403,-79.608,-57.208,-6.837,-7.126,-3.428],[-80.177,-63.027,-28.172,-13.194,-2.386,-85.182,-65.797,-27.798,-1.498,-8.713,-82.827,-72.821,-26.601,-5.748,-3.442,-81.679,-58.236,-30.808,-2.676,-9.191,-83.273,-65.78,-20.479,-0.393,-1.266,-86.683,-65.469,-32.073,-8.372,-9.031],[-84.195,-69.059,-55.986,-10.244,-1.252,-83.462,-68.175,-52.556,-17.183,-9.718,-86.438,-65.724,-62.983,-10.516,1.365,-87.915,-64.85,-51.976,-6.945,-11.571,-88.658,-70.989,-49.728,-11.383,-1.651,-88.209,-68.224,-59.684,-21.067,-6.304],[-89.214,-69.777,-63.027,-46.812,-10.567,-89.343,-64.34,-57.007,-46.386,-9.475,-87.119,-69.296,-67.014,-39.843,-8.25,-87.884,-68.531,-55.065,-40.702,-3.544,-88.332,-65.577,-68.132,-44.865,-6.56,-89.41,-68.612,-58.45,-49.701,-12.234]],
"vp": [[2017.448,1608.188,1425.839,1289.366,1286.323,353.877,359.568,311.934,297.464,334.304,191.648,97.247,153.141,138.309,139.472,30.449,30.388,26.767,25.701,28.768,21.804,18.483,14.483,14.835,12.815,8.905,4.433,7.409,7.743,7.174],[6285.219,4806.19,4653.72,4881.783,3358.875,1101.048,886.685,921.041,1016.118,874.284,528.979,466.599,519.458,436.32,477.066,117.7,83.231,83.138,61.15,95.801,53.582,32.558,42.129,44.058,45.574,28.991,26.267,21.653,23.764,24.619],[6907.029,8103.56,8141.046,9274.293,7148.411,1403.827,1765.401,1483.849,1204.629,1533.73,755.102,744.321,814.042,716.016,730.877,130.833,174.899,154.828,135.392,157.024,75.004,88.016,86.794,72.185,52.78,34.705,52.54,33.565,41.592,33.147],[7837.938,9820.717,12207.667,8781.093,10484.754,1619.162,2320.153,2259.019,1825.767,1519.335,898.136,1246.986,1451.894,1025.804,1147.907,167.512,223.008,226.845,203.18,181.821,80.156,112.636,114.262,100.667,107.774,44.086,54.599,57.971,56.323,46.84],[8669.108,13295.661,15971.888,14525.43,9971.401,2053.485,2501.486,3338.976,2972.216,2915.538,1098.9,1375.697,1699.822,1356.638,1469.956,201.306,259.167,282.162,273.281,215.102,103.344,139.922,136.82,144.22,145.982,48.454,61.317,86.525,70.426,57.172],[9684.926,15607.063,20289.791,18390.536,16100.861,2230.726,3027.903,3192.849,4122.089,3384.693,1010.099,1502.382,2016.568,1498.611,1564.929,213.008,311.61,349.887,377.33,323.473,84.961,130.502,191.977,199.991,175.589,48.677,76.769,86.398,102.78,78.573]]
}