{
"KTrans": [[-3.042,15.598,12.291,15.5,2.805,0.586,13.207,14.666,6.595,19.498,30.27,41.296,19.9,18.342,11.23,66.508,90.605,72.142,62.465,61.329,27.858,44.775,75.509,121.301,122.115,337.575,111.924,144.005,81.841,77.286],[-58.081,10.456,6.061,5.371,3.75,-52.02,7.92,8.502,5.583,6.871,-56.991,22.843,17.85,11.779,12.749,-30.934,59.784,67.029,42.765,40.725,25.918,45.745,85.03,97.186,72.161,73.632,120.78,3.156,84.234,91.391],[-77.646,-17.298,11.074,6.801,5.431,-81.667,1.969,11.233,11.9,10.52,-73.569,-1.063,17.601,12.628,8.919,-66.272,11.355,61.18,49.817,36.957,-55.743,37.581,50.846,72.112,75.585,-3.397,79.463,69.981,39.275,38.591],[-87.436,-16.987,11.759,8.611,9.867,-89.074,-19.616,11.929,16.635,9.068,-87.175,-16.459,17.236,14.883,15.586,-89.736,-4.201,42.29,41.523,32.54,-56.194,0.297,5.302,61.176,72.034,-32.239,28.916,16.312,53.546,56.309],[-94.224,-45.289,3.999,13.79,12.091,-90.741,-30.636,11.046,13.115,12.042,-94.86,-33.586,11.712,18.228,14.023,-82.303,-48.159,21.142,48.476,32.783,-71.994,-12.918,-2.002,63.226,61.538,-38.175,-27.199,39.181,23.354,34.975],[-93.498,-46.177,-1.201,15.339,8.597,-95.748,-50.74,5.392,14.694,12.718,-92.763,-52.697,4.149,16.599,15.447,-83.092,-49.616,16.69,29.339,34.962,-85.906,-23.305,3.682,31.242,64.427,-45.627,9.293,13.558,23.484,21.414]],
"ve": [[77.371,30.771,-1.947,14.237,1116.284,54.211,-10.849,22.029,-18.512,152.288,31.07,12.384,64.781,-19.096,-24.109,86.121,22.85,-16.036,-20.662,-0.658,103.938,38.019,-0.648,-10.264,-8.748,207.314,78.337,41.62,11.421,-6.648],[4.014,5.162,2.921,-0.2,-0.142,3.606,1.809,1.269,4.352,2.169,20.402,8.644,4.272,4.332,1.831,51.27,28.305,15.775,11.456,3.707,118.116,49.314,32.658,21.678,11.815,-231.191,95.348,65.168,42.577,24.059],[-3.342,23.039,1.754,1.048,-0.165,6.571,4.453,2.574,0.447,0.69,18.659,7.516,4.451,1.774,1.258,53.509,24.399,15.885,11.751,8.627,42.021,50.514,32.778,25.218,20.301,217.427,100.783,65.536,48.261,34.714],[0.229,-0.799,-0.251,1.588,-0.101,19.44,12.225,-0.001,1.451,1.449,30.582,7.116,3.944,2.474,1.449,47.13,28.093,17.395,12.135,7.941,109.8,44.393,32.28,24.171,18.531,212.18,99.15,68.181,47.926,41.116],[67.16,2.251,2.892,0.533,-0.778,4.675,-2.34,2.969,1.978,-0.327,16.583,6.034,5.589,3.034,1.121,59.678,23.801,19.235,18.571,9.278,106.156,49.683,34.239,24.114,20.396,205.453,108.943,64.983,47.291,40.148],[-35.729,7.873,2.315,-0.414,-0.658,14.009,4.953,3.355,1.639,1.126,26.315,-20.108,1.659,2.605,1.132,55.422,29.214,14.96,12.548,9.165,109.67,50.53,32.758,25.501,18.648,202.989,98.982,68.237,52.561,37.182]],
"kep": [[-16.024,15.254,15.763,25.479,6.485,-13.459,10.525,13.654,11.647,40.375,5.423,38.61,24.431,25.719,12.318,6.95,62.816,71.052,80.052,92.252,-20.338,9.965,50.664,128.209,156.057,63.734,50.025,96.863,84.482,107.544],[-67.149,7.72,5.004,7.161,5.852,-63.751,8.307,8.689,4.061,6.919,-66.672,15.874,14.247,9.158,12.557,-53.345,28.045,46.086,29.581,37.206,-33.339,2.678,38.672,62.278,55.247,-32.761,22.245,-23.958,32.564,45.975],[-83.01,-19.91,10.561,6.33,6.117,-86.511,-1.806,9.322,12.328,10.439,-81.525,-7.499,13.648,11.149,8.379,-76.895,-12.651,39.884,34.004,26.713,-75.805,-5.614,15.814,38.649,45.538,-62.042,-1.573,9.965,-1.566,6.933],[-90.981,-20.66,12.22,7.571,10.515,-92.315,-26.003,12.805,15.074,7.921,-92.016,-23.491,13.387,12.862,14.362,-92.45,-23.267,22.032,26.616,23.296,-76.225,-30.796,-14.894,27.999,43.982,-73.583,-29.014,-21.171,8.701,18.58],[-96.175,-48.047,1.403,13.489,13.58,-93.907,-36.071,8.722,11.554,12.665,-96.564,-39.873,6.105,14.943,13.227,-88.449,-58.506,1.133,31.345,21.779,-83.654,-39.086,-23.222,31.33,34.557,-75.999,-57.915,-8.856,-11.594,1.224],[-95.15,-51.065,-3.559,16.216,9.748,-97.303,-53.879,2.427,13.02,11.747,-94.353,-57.894,0.931,14.024,14.39,-89.549,-60.662,-2.382,14.19,23.651,-90.983,-46.598,-20.611,6.101,36.926,-79.526,-42.461,-26.185,-12.674,-7.613]],
"vp": [[69.405,495.795,-503.182,88.848,-54.553,418.662,10.144,158.978,-111.841,-82.645,43.731,-31.944,23.94,-32.67,-25.111,-12.204,-32.523,-32.916,-38.488,-27.415,-23.037,-12.698,-20.586,-23.095,-20.265,-23.086,-31.803,-34.753,-31.306,-41.998],[5727.963,2862.409,263.827,610.927,332.959,997.008,376.342,93.686,132.523,107.762,478.529,208.064,55.575,42.164,34.801,66.802,4.851,12.194,-15.331,-22.874,22.866,-7.775,-3.292,-22.564,-24.475,-16.167,-37.454,-13.127,-31.342,-32.098],[6256.527,6343.574,2867.684,1399.624,1101.096,1353.329,1378.472,753.125,164.391,260.029,619.852,438.871,331.648,220.535,70.197,86.246,95.995,3.78,41.145,2.599,40.06,3.324,-12.712,-24.991,10.022,16.275,1.627,-32.158,-22.866,-22.922],[6430.947,9464.688,6156.573,2432.517,1536.488,1402.563,1836.038,877.649,754.972,362.084,641.693,901.54,494.496,295.494,238.048,147.542,136.548,75.341,44.065,25.199,56.568,28.872,16.526,20.687,-6.651,9.816,-16.281,1.221,-15.792,-22.78],[7176.025,12217.645,6915.469,4321.225,3720.369,1523.339,2077.067,1674.104,902.179,524.234,665.593,987.209,635.264,436.206,135.151,120.988,181.961,170.158,60.862,57.806,45.513,72.435,59.854,-10.357,-4.705,-4.677,30.443,-9.853,-28.416,-4.781],[7089.613,12223.458,12101.338,7270.533,4146.935,1530.797,2444.753,1947.926,1612.965,956.385,689.47,1145.187,1008.404,670.502,411.302,104.607,197.804,171.881,100.06,27.383,70.561,72.559,60.305,48.456,-18.542,-10.058,10.629,14.736,16.017,1.808]]
}