{
"KTrans": [[14.492,20.741,18.545,10.908,17.389,27.681,18.332,23.27,15.885,15.798,20.002,17.555,27.199,20.151,15.001,21.098,30.701,45.001,23.127,31.916,65.702,46.4,41.286,58.356,39.44,4.974,46.843,109.6,84.202,84.555],[-46.319,-2.136,6.334,5.55,7.73,-37.351,-8.527,0.259,5.967,8.504,-41.933,-5.198,4.443,8.422,5.774,-23.498,2.538,11.422,14.152,16.55,-20.032,11.671,19.934,19.704,19.438,-96.497,7.328,42.46,46.148,22.247],[-71.533,-23.267,-13.883,-2.569,3.873,-71.212,-25.323,-14.877,-2.151,-0.231,-74.87,-27.294,-12.98,-7.284,4.015,-57.665,-27.683,-4.29,3.261,6.898,-52.983,-20.644,2.884,0.397,10.368,-94.309,-31.815,12.923,14.746,15.234],[-84.986,-49.42,-31.244,-18.06,-10.406,-82.951,-47.471,-28.452,-17.247,-7.042,-82.303,-45.48,-23.436,-16.256,-6.951,-79.366,-43.255,-24.178,-15.044,-7.519,-59.922,-35.027,-13.763,-8.58,-3.136,-68.092,-35.584,-3.196,4.165,16.829],[-90.896,-58.13,-36.976,-21.91,-16.345,-89.474,-54.594,-41.294,-25.16,-17.36,-90.401,-55.333,-38.141,-24.377,-17.29,-82.604,-56.69,-34.022,-21.734,-17.23,-78.799,-51.295,-34.54,-21.062,-7.375,-91.268,-42.499,-24.994,-17.084,-3.256],[-92.217,-69.522,-46.824,-35.296,-27.836,-92.293,-65.613,-44.368,-36.116,-24.724,-92.901,-64.293,-47.903,-37.417,-23.995,-87.592,-65.585,-51.376,-32.321,-20.874,-93.189,-61.897,-48.066,-36.663,-17.205,-85.825,-73.508,-36.85,-25.072,-14.385]],
"ve": [[16.683,227.571,32.474,140.361,202.287,23.055,12.057,115.472,318.751,174.237,14.337,30.124,40.656,84.295,1965.574,23.259,58.988,-108.236,21.364,41.829,45.128,34.864,-124.733,315.647,391.64,72.184,35.8,9.988,-11.087,-22.558],[-23.979,0.335,2.012,4.928,7.708,-11.278,-1.015,2.505,3.971,7.861,-17.782,-0.557,3.807,3.932,7.831,0.21,10.333,10.039,76.004,10.155,47.834,7.893,20.616,15.219,100.843,31.707,37.504,19.453,67.729,-17.783],[-36.748,-6.241,-5.32,-2.041,0.957,-31.147,-9.931,-3.266,-0.198,0.728,-38.161,-5.585,-5.794,-1.248,0.75,-14.074,1.051,3.021,3.117,3.612,37.723,-0.528,8.901,7.883,8.28,23.785,23.429,19.171,9.911,11.776],[-14.783,-21.605,-10.329,-5.012,-3.158,-55.718,-16.748,-11.117,-4.866,-2.688,2033.946,-17.134,-8.944,-5.576,-2.002,-27.325,-12.053,-4.912,-1.673,-1.668,33.121,3.546,-1.128,3.477,2.415,38.142,28.208,20.678,12.487,10.712],[22.54,-23.299,-13.149,-7.834,-5.948,-54.343,-23.544,-14.453,-8.549,-6.091,-74.392,-20.487,-13.232,-8.574,-6.632,-31.943,-16.524,-8.771,-6.834,-4.037,4.092,-2.863,-2.464,-1.496,3.471,67.121,37.853,14.407,4.905,0.804],[-31.409,-13.801,-17.617,-13.481,-10.072,-42.032,-26.197,-16.951,-12.997,-8.94,-63.615,-24.246,-17.02,-13.058,-8.082,-17.723,-26.418,-21.717,-8.5,-3.81,-22.927,-7.02,-12.048,-5.544,-1.806,26.787,23.421,12.891,-1.827,-54.29]],
"kep": [[-26.326,-18.077,-22.642,-34.841,-28.629,-14.567,-24.468,-17.454,-28.081,-34.607,-20.383,-23.643,-15.23,-26.692,-40.901,-46.939,-24.607,-7.422,-33.027,-22.183,-25.089,-34.744,-38.948,-8.18,-39.64,-11.942,-49.587,-10.667,-40.645,-29.225],[-56.493,-28.224,-22.766,-25.001,-24.932,-51.426,-31.993,-27.38,-24.077,-24.581,-54.551,-29.707,-25.436,-22.234,-26.394,-54.265,-30.926,-25.292,-21.73,-19.611,-65.573,-39.637,-26.907,-24.152,-22.07,-64.455,-48.666,-34.659,-25.411,-39.03],[-76.91,-40.604,-32.948,-26.661,-23.776,-77.416,-39.425,-35.248,-27.569,-26.583,-80.386,-43.867,-31.905,-30.528,-23.541,-74.831,-49.129,-32.235,-26.42,-24.055,-74.574,-57.113,-33.5,-31.881,-25.062,-72.666,-58.612,-39.866,-37.396,-32.278],[-86.44,-53.859,-43.601,-36.352,-31.706,-85.114,-55.099,-41.065,-35.95,-29.384,-85.931,-53.221,-38.641,-34.792,-29.893,-84.733,-57.707,-42.946,-36.653,-30.854,-79.895,-64.168,-42.656,-36.84,-31.42,-81.624,-58.585,-49.645,-42.381,-31.047],[-92.469,-61.975,-47.352,-37.849,-34.384,-91.736,-60.148,-50.282,-40.024,-35.118,-92.819,-61.947,-48.348,-39.125,-34.769,-88.892,-67.554,-47.56,-38.894,-36.779,-86.876,-70.469,-55.153,-43.891,-34.785,-86.089,-69.395,-57.614,-51.876,-41.783],[-92.853,-70.147,-53.296,-45.419,-40.896,-94.009,-67.893,-51.66,-46.194,-39.12,-94.915,-68.345,-54.651,-47.059,-39.166,-89.629,-75.278,-59.104,-46.572,-39.789,-89.702,-74.793,-63.458,-52.075,-39.217,-86.81,-79.623,-64.849,-56.261,-47.092]],
"vp": [[-336.796,-485.211,-400.158,-8.647,-764.554,-129.166,-122.903,-225.383,-61.552,-137.368,-23.432,-47.417,-128.855,-95.026,-73.839,11.177,-12.447,-47.715,-0.445,-19.791,-24.086,-12.917,3.082,-24.44,4.936,-16.368,-31.127,-33.076,-14.783,-14.982],[2428.966,-140.299,-490.531,-774.123,-826.636,388.979,179.742,4.038,-101.195,-188.805,248.813,50.931,-40.059,-71.568,-24.268,2.824,4.854,-20.398,-14.331,-21.75,-23.106,3.863,-9.848,-3.246,-8.994,17.469,-22.43,-12.215,-23.571,16.279],[5205.204,1814.946,1865.073,354.548,-654.985,1025.603,492.434,204.599,7.16,149.312,537.085,191.429,191.768,128.386,-44.59,57.56,77.889,11.676,-7.017,-15.032,-16.74,25.403,-0.19,18.496,-2.868,16.028,-3.146,-11.755,0.769,4.578],[6481.438,5785.884,3640.486,2447.852,1916.398,1273.024,922.296,715.571,398.689,149.721,627.354,461.52,329.284,261.205,92.883,111.616,80.02,58.972,47.924,37.529,-5.049,14.365,10.353,22.481,17.732,4.39,-13.756,-17.865,-12.538,-26.523],[7753.697,6322.063,4624.865,3560.183,2568.901,1442.586,1035.136,1061.546,714.424,626.344,772.813,593.994,503.941,414.246,348.41,111.652,117.255,84.973,82.703,66.496,25.623,39.553,29.243,27.54,-12.405,-16.197,-31.201,-3.884,15.387,1.578],[7150.281,8534.691,6748.178,6238.512,5527.321,1485.957,1406.023,1292.453,1261.245,921.907,854.011,665.947,601.262,642.543,409.096,112.084,158.541,153.135,95.672,57.577,55.735,49.686,69.286,82.163,26.23,16.031,-2.34,-8.338,19.716,13.588]]
}