{
"KTrans": [[-14.745,6.079,6.97,7.668,9.755,-7.636,11.541,10.759,12.139,14.486,-3.833,19.778,13.879,16.43,17.642,29.447,88.623,75.647,67.902,48.413,131.198,183.74,142.502,148.795,131.525,115.222,94.334,164.193,249.129,219.244],[-59.712,-1.83,-0.6,3.247,6.273,-59.741,8.816,7.207,3.933,4.672,-54.344,16.435,13.736,10.593,7.546,-34.917,53.809,53.522,33.425,36.747,-25.424,67.174,93.137,77.018,71.701,40.444,13.643,137.987,135.496,157.783],[-77.929,-16.152,3.922,4.731,4.682,-75.194,-1.292,0.156,7.294,6.905,-84.224,-3.325,9.421,11.193,5.483,-86.374,14.508,44.404,33.278,32.927,-72.669,40.945,84.16,73.936,72.472,-15.763,-8.418,39.008,115.551,149.713],[-85.93,-22.487,2.027,2.906,5.328,-90.549,-28.82,-3.771,4.256,6.733,-84.437,-19.713,10.101,12.335,7.918,-79.045,-10.354,38.545,34.696,29,-77.994,-4.488,59.345,70.306,61.391,-59.524,-32.738,9.168,56.666,105.637],[-93.219,-45.848,-9.068,1.968,6.209,-93.853,-44.521,-1.041,5.415,7.431,-90.263,-47.821,8.991,3.821,7.452,-88.29,-25.119,23.372,34.418,28.557,-85.802,-44.716,24.558,78.12,61.807,-54.452,-35.616,-3.588,79.353,100.314],[-97.391,-54.433,-16.41,4.104,10.368,-96.842,-52.409,-8.131,4.616,5.354,-92.714,-51.217,-4.214,6.995,6.853,-95.607,-51.692,0.746,36.847,21.609,-85.618,-51.56,1.574,55.366,56.118,-80.088,-28.254,-14.146,2.545,84.64]],
"ve": [[14.885,31.581,16.375,19.858,-95.998,7.27,22.031,-89.645,32.253,-145.879,25.112,-72.808,16.781,-17.919,-70.943,808.779,31.522,58.311,5.873,28.564,97.725,38.989,146.325,-5.729,-10.982,188.837,75.697,38.875,71.209,-4.349],[-8.061,4.453,3.413,-0.222,-0.577,25.195,6.226,4.042,3.247,2.975,14.872,9.293,5.531,3.367,3.286,37.542,28.568,15.645,11.297,7.046,105.976,48.892,35.729,20.492,15.169,200.494,98.063,66.989,41.432,31.368],[4.738,3.245,0.421,1.921,0.601,11.703,6.2,3.195,0.894,2.022,-29.291,8.726,5.658,3.989,1.554,55.28,25.585,14.588,12.15,9.88,104.909,62.935,34.192,24.332,17.986,211.078,103.029,67.17,50.263,38.069],[17.545,6.559,1.126,1.881,-0.119,281.353,7.641,1.241,3.169,2.206,26.39,9.446,3.089,2.657,0.613,54.758,29.19,19.149,13.068,9.975,120.494,57.635,33.414,23.852,19.047,214.221,102.228,66.14,50.156,39.314],[14.758,5.73,1.324,1.905,1.382,27.519,2.021,5.366,1.455,1.302,23.009,3.728,5.697,3.342,2.642,42.211,28.54,18.426,11.983,10.28,105.798,48.588,31.847,26.506,20.486,203.905,104.435,64.55,51.036,40.387],[-9.865,11.073,2.818,1.063,0.176,35.272,54.297,3.666,1.146,1.023,38.046,7.441,5.559,3.972,1.977,57.225,23.555,19.032,12.628,10.486,107.532,53.179,31.39,26.152,20.473,201.54,88.12,70.534,50.513,38.355]],
"kep": [[-27.679,-0.375,1.727,9.42,13.908,-26.763,9.201,4.924,14.18,33.089,-26.032,13.745,15.446,22.251,28.584,-21.434,56.112,74.941,81.208,69.38,19.788,109.612,112.452,166.232,171.467,-7.633,20.732,95.998,207.702,221.336],[-68.653,-3.807,-2.193,5.279,9.206,-69.043,5.719,5.115,2.44,3.39,-66.871,8.349,9.249,8.166,6.236,-62.314,20.225,34.158,20.903,29.112,-63.188,9.394,43.736,47.3,50.052,-46.814,-33.395,48.687,61.86,95.506],[-83.304,-18.948,4.268,3.199,4.919,-81.845,-8.181,-1.704,7.251,5.314,-90.419,-11.209,4.75,7.972,4.582,-91.837,-9.667,26.342,19.244,21.644,-84.707,-5.85,36.103,39.562,46.611,-68.369,-45.92,-14.025,43.947,79.767],[-90.63,-27.696,1.419,1.58,5.871,-94.653,-33.594,-4.518,1.443,4.924,-89.899,-25.782,7.136,9.681,7.842,-87.376,-31.355,16.295,19.275,17.641,-89.77,-36.316,18.628,37.119,35.421,-83.538,-61.996,-28.936,4.279,44.809],[-95.824,-49.695,-10.183,0.328,5.382,-96.427,-48.381,-3.298,3.803,6.35,-93.979,-53.215,3.728,0.662,5.125,-94.095,-41.767,4.07,20.191,16.737,-91.452,-61.272,-7.307,40.288,33.684,-82.127,-63.814,-38.056,20.618,41.676],[-99.225,-57.888,-19.079,3.613,10.656,-98.854,-56.995,-11.392,3.622,4.599,-95.381,-56.405,-9.392,2.991,5.031,-97.81,-61.49,-15.78,21.784,9.959,-92.769,-66.912,-23.965,22.728,29.044,-90.848,-60.905,-44.713,-29.557,29.803]],
"vp": [[1804.525,423.139,-71.834,368.482,111.851,202.493,27.381,175.255,0.143,-74.001,44.443,39.677,11.313,-25.054,56.355,32.95,18.35,-11.488,-9.266,-10.549,-6.488,-12.05,-15.135,-9.034,-10.392,-27.344,-18.228,-19.306,-13.936,-16.005],[5218.882,3111.383,546.63,-98.209,-47.414,1237.3,596.906,83.366,95.002,-73.982,537.323,185.446,101.999,41.572,84.181,133.977,33.017,1.108,11.651,11.013,42.567,24.291,7.534,2.266,-3.466,1.585,-8.658,-23.586,2.502,7.211],[7830.787,6936.881,1330.398,1064.423,443.899,1628.186,1337.747,275.958,174.948,265.537,704.917,778.159,259.809,47.793,51.642,164.199,137.142,43.309,11.908,20.018,67.991,42.246,22.242,8.842,18.765,18.623,13.812,-5.796,-2.824,19.387],[8120.826,10067.619,5366.432,2270.565,848.058,1726.631,1969.887,1278.689,344.428,187.759,826.925,1209.336,609.368,268.382,148.63,144.024,179.465,95.277,69.719,20.825,88.024,94.726,42.233,17.799,15.925,39.057,34.098,-2.366,-3.55,11.145],[10138.458,13208.051,7893.178,5195.385,2644.205,1794.833,2658.272,2106.025,922.829,367.788,901.308,1317.096,920.303,381.455,289.799,173.794,254.111,169.518,69.093,24.022,85.612,110.504,89.564,72.218,59.117,43.061,46.109,42.872,4.287,20.599],[9937.744,15776.115,13661.5,9564.674,3784.47,2043.589,3084.286,2576.384,1253.457,782.763,968.117,1489.541,1411.133,838.548,268.986,181.64,259.676,246.673,157.933,62.715,88.167,132.247,111.138,70.768,43.08,50.456,54.054,54.144,53.824,19.523]]
}