{
"KTrans": [[-47.896,-71.017,-69.22,-72.19,-68.742,-45.164,-52.276,-68.266,-63.961,-57.096,-23.286,-48.034,-51.271,-58.407,-59.143,36.083,-17.742,-7.341,-10.996,-5.67,92.055,34.553,34.887,46.581,51.288,172.287,99.226,30.566,139.198,143.366],[-56.386,-46.098,-46.66,-58.934,-64.285,-54.585,-34.775,-45.498,-58.409,-53.04,-44.487,-29.227,-33.12,-47.223,-43.758,-28.258,-6.361,-6.862,-14.724,-27.587,19.821,34.624,27.049,19.559,-21.075,66.995,89.611,53.093,39.163,33.677],[-67.631,-52.637,-51.51,-45.95,-51.041,-66.924,-48.141,-41.716,-45.573,-47.425,-68.517,-40.901,-41.53,-27.814,-33.435,-52.782,-27.753,-13.671,-9.475,-7.501,-32.163,-6.292,-3.29,11.831,10.252,-2.409,51.912,35.091,27.532,0.97],[-76.359,-55.156,-43.959,-46.549,-48.015,-76.527,-46.701,-41.032,-43.24,-43.583,-76.532,-46.703,-40.219,-34.078,-33.919,-66.118,-41.577,-34.763,-28.933,-12.035,-53.009,-23.186,-12.996,-4.97,-1.518,-35.975,25.128,28.219,30.665,31.314],[-82.011,-55.555,-43.887,-48.729,-42.477,-83.27,-59.641,-40.541,-43.113,-39.885,-81.118,-57.535,-37.736,-34.518,-37.288,-73.866,-48.544,-34.649,-23.963,-29.509,-62.96,-28.606,-33.087,-23.187,-20.185,-46.643,-6.269,4.718,9.796,19.485],[-87.89,-59.237,-44.996,-39.286,-40.971,-86.239,-62.215,-46.329,-37.954,-45.406,-84.219,-61.586,-39.993,-39.065,-38.349,-80.173,-57.808,-34.959,-37.439,-23.983,-70.278,-46.025,-29.782,-23.521,-24.188,-60.043,-24.778,-22.129,2.781,2.708]],
"ve": [[-45.349,-52.354,-45.206,-43.536,-19.767,-62.36,-29.202,-44.875,-174.308,-527.928,-15.6,-53.358,-60.884,-33.546,-35.357,79.129,-14.055,-156.97,0.062,-33.394,69.639,5.284,-94.915,12.244,62.327,205.333,50.143,83.917,-5.306,-294.356],[-60.934,-73.137,-44.783,-49.555,-89.421,-74.78,-26.989,-49.793,18.599,-35.073,-25.113,-28.773,-34.658,-34.212,-15.33,11.433,12.471,-7.739,-16.881,-13.566,160.442,53.543,0.967,-14.44,-61.343,268.122,136.191,63.025,30.075,-8.413],[-36.495,-94.22,-84.572,-51.687,-56.847,38.826,-71.429,-66.189,-57.227,-47.24,-28.417,-63.536,-31.602,-39.908,-33.21,29.715,-45.544,-17.716,-16.205,-6.031,65.994,6.772,-5.014,18.472,22.553,204.944,123.034,68.271,22.586,1.712],[-173.912,-79.947,-85.978,-76.975,-73.059,-15.639,-17.039,-75.759,-70.773,-53.682,-10.025,-63.89,-86.913,-56.988,-48.603,3.894,-38.24,-62.346,-62.316,-21.833,74.395,-17.304,-35.471,-14.453,20.074,109.318,129.386,70.962,46.674,34.853],[-24.953,-41.832,-90.353,-97.924,-72.169,4.36,-75.422,-72.24,-85.981,-67.93,227.965,-65.166,-74.195,-67.205,-60.856,22.414,-36.752,-48.144,-48.96,-46.111,144.239,7.944,-87.805,-56.09,-41.833,624.183,91.41,23.27,-1.328,32.343],[-8.817,-57.135,-68.054,-86.807,-78.139,-13.453,-32.552,-96.186,-78.537,-98.477,-0.157,-31.049,-65.527,-88.626,-79.131,65.623,-22.107,-58.38,-92.532,-55.469,156.413,36.908,-38.203,-53.616,-50.241,316.839,108.555,-50.864,29.665,-3.955]],
"kep": [[-113.636,-32.866,-15.522,-11.872,-5.878,-111.867,-28.744,-10.841,7.874,-7.374,-117.498,-11.057,23.043,2.999,-7.82,-104.555,-55.921,-34.26,-23.97,-3.051,-102.059,-104.619,-54.847,-46.708,-66.055,-31.716,-74.354,-73.395,-121.909,-116.396],[-68.262,-47.927,-124.797,-40.929,-5.325,-68.046,-60.155,-109.716,-25.244,-8.095,-67.971,-62.82,-122.467,-28.634,9.085,-67.412,-63.477,-115.125,-42.217,-26.307,-73.95,-56.382,-88.426,-110.673,-31.716,-69.745,-41.1,-50.899,-97.333,-86.894],[-82.728,-30.11,-17.72,-48.664,-125.122,-83.092,-32.119,-17.257,-50.491,-123.849,-84.219,-30.375,-23.526,-35.772,-109.834,-83.243,-36.252,-35.176,-34.14,-120.81,-73.174,-46.469,-34.366,-51.213,-88.002,-70.433,-47.969,-50.945,-18.766,1.018],[-88.376,-40.608,-11.295,-8.215,-11.66,-87.729,-44.415,-12.873,-11.237,-18.039,-88.746,-37.054,-9.318,-13.118,-22.375,-83.484,-43.243,-17.359,-2.384,-8.325,-81.365,-42.653,-14.172,-11.625,-16.115,-82.109,-56.066,-41.083,-36.891,-42.367],[-92.111,-50.777,-17.075,-8.659,-7.138,-95.38,-50.693,-16.987,-6.811,-4.929,-93.075,-51.194,-15.563,-4.618,-10.242,-90.243,-50.208,-24.803,-6.689,-13.289,-88.607,-51.101,-18.923,-10.909,-8.181,-89.966,-61.866,-34.325,-19.299,-34.058],[-97.42,-52.16,-28.489,-7.726,-6.794,-95.833,-63.317,-23.069,-13.453,-1.891,-95.271,-58.742,-22.922,-10.353,-6.933,-94.058,-61.903,-24.075,-10.579,-0.392,-92.558,-69.144,-29.264,-11.887,-8.402,-91.126,-70.284,-38.437,-37.582,-19.969]],
"vp": [[108.636,203.707,286.319,-186.177,176.411,23.585,-9.9,-0.482,25.345,44.095,-9.91,-36.001,46.981,-3.305,18.349,-3.204,5.13,-2.197,11.115,15.388,-4.943,-6.189,3.058,-5.343,2.335,-5.719,11.283,30.063,-9.088,-6.964],[1749.864,563.639,214.964,-61.068,186.758,350.227,176.758,-34.822,-68.078,-41.692,189.865,72.773,-39.037,-25.881,43.581,21.134,2.258,-18.858,-5.129,-11.774,26.394,1.927,-7.399,-25.661,-1.252,-8.956,-8.566,-23.138,-11.723,-7.907],[3825.015,1428.987,74.416,506.108,-291.266,927.462,299.724,97.699,9.939,-26.041,385.547,177.806,63.709,66.143,-24.964,90.786,22.629,20.555,8.151,-14.197,14.527,16.591,-23.11,-1.071,-12.261,9.815,-15.392,-3.806,-17.652,-16.913],[5607.715,3252.592,1185.704,652.793,407.02,987.958,771.326,250.415,147.821,102.952,533.004,313.891,69.924,51.687,77.501,76.834,70.259,13.42,-17.276,-8.815,40.918,21.406,2.83,-7.113,-7.207,13.738,-9.168,-12.796,-5.863,-18.039],[6706.796,5216.929,1779.048,1215.935,1357.015,1234.082,913.839,530.608,259.975,184.065,651.896,528.257,216.748,117.504,83.793,122.784,103.345,68.508,8.973,33.51,52.317,19.14,-3.477,-12.19,-5.522,13.084,6.45,-11.26,-19.625,6.005],[7046.18,5896.348,4000.125,1669.895,1281.062,1228.363,1411.246,645.112,405.919,39.137,673.97,744.588,327.318,176.166,44.432,121.047,143.145,62.707,18.217,12.829,60.447,56.672,33.872,18.115,36.326,20.865,16.82,-19.301,4.797,-6.866]]
}