{
"KTrans": [[3.289,0.091,2.818,1.177,1.268,12.591,7.048,6.854,5.768,4.584,24.595,16.049,11.965,11.88,9.121,160.132,95.798,75.635,64.879,59.971,394.009,225.173,176.18,155.389,141.746,1137.793,590.772,454.256,395.906,361.178],[-1.732,0.68,0.723,1.073,1.067,7.296,5.765,4.692,2.961,2.645,15.728,11.09,8.364,6.521,5.938,126.565,65.113,44.187,35.751,30.927,311.561,147.817,98.077,78.137,65.454,860.875,351.515,233.635,180.027,150.697],[-5.302,0.528,1.249,1.005,0.954,3.82,4.513,3.94,2.36,2.831,12.112,11.581,7.42,6.213,4.814,120.179,62.46,40.265,31.22,25.234,275.554,134.519,89.782,66.938,55.074,810.6,332.84,202.87,152.204,123.37],[-10.959,0.257,0.567,0.737,0.164,-4.207,4.603,4.662,2.859,2.219,5.118,10.143,7.771,6.037,4.234,93.833,57.398,37.966,29.483,24.214,258.232,132.761,85.073,62.983,50.131,683.134,311.046,193.867,141.699,114.392],[-15.145,0.833,0.257,1.632,0.752,-11.459,2.862,3.321,3.286,2.54,-0.206,9.955,7.239,5.011,4.809,72.07,58.931,38.481,27.855,23.373,226.137,124.84,81.431,61.334,48.772,588.432,312.444,192.012,136.716,109.203],[-24.542,0.274,1.535,0.178,1.169,-20.843,2.568,3.754,2.829,2.466,-13.914,8.836,6.415,5.822,4.748,63.968,52.761,37.613,27.945,22.626,186.685,122.749,79.883,60.92,47.169,554.348,295.023,186.54,135.066,106.626]],
"ve": [[0.485,1.757,-0.361,0.892,0.728,4.57,0.489,-1.129,-1.809,-1.77,8.913,1.858,-0.858,-4.842,-5.672,45.269,12.867,-1.68,-10.762,-18.321,94.018,32.717,7.939,-7.44,-18.608,192.151,79.273,35.244,10.159,-6.305],[0.794,0.734,0.257,0.044,-0.016,5.364,2.574,1.305,1.002,0.501,10.301,4.853,2.922,1.732,0.94,49.533,23.835,14.246,9.212,5.546,99.807,47.911,29.314,19.271,12.652,199.268,96.555,60.958,41.519,28.708],[1.601,0.826,0.425,0.33,0.099,5.824,2.67,1.573,1.223,0.811,10.22,4.769,3.237,2.133,1.579,49.518,24.562,16.051,11.285,8.483,99.252,48.901,31.932,22.653,17.247,199.844,99.003,64.601,46.525,35.562],[2.295,0.585,0.218,0.283,0.072,5.207,2.612,1.827,1.192,1.004,9.844,4.87,2.936,2.444,1.931,51.105,24.825,16.613,11.89,9.194,100.45,49.591,32.496,23.994,18.695,200.412,99.443,65.554,48.297,37.874],[2.651,0.437,0.278,0.356,0.274,5.437,2.459,1.828,1.191,0.909,10.793,5.327,3.357,2.493,2.042,50.099,25.13,16.251,12.259,9.583,100.662,50.287,32.964,24.398,19.161,200.301,99.862,65.749,49.096,38.717],[2.108,0.4,0.237,0.144,0.095,5.761,2.483,1.682,1.3,0.954,8.451,5.307,3.407,2.37,1.906,50.919,25.004,16.659,12.054,9.656,100.673,49.867,33.309,24.672,19.375,201.043,100.291,66.13,49.362,39.118]],
"kep": [[3.139,-1.137,3.821,1.128,1.788,7.941,7.096,8.695,8.74,8.063,14.683,14.328,13.526,18.274,16.713,79.203,73.777,78.972,85.289,96.515,154.945,145.211,156.157,176.159,197.415,324.118,285.468,309.954,350.395,392.391],[-2.404,-0.001,0.506,1.068,1.123,2.032,3.173,3.393,1.977,2.19,5.028,6.026,5.331,4.747,4.999,51.671,33.384,26.251,24.329,24.101,106.167,67.587,53.212,49.423,46.903,221.364,129.768,107.314,97.914,94.819],[-6.738,-0.264,0.843,0.696,0.871,-1.741,1.843,2.345,1.141,2.017,1.846,6.51,4.074,4.017,3.206,47.551,30.433,20.884,17.935,15.456,88.569,57.554,43.872,36.121,32.279,203.858,117.494,84.064,72.149,64.788],[-12.893,-0.27,0.371,0.46,0.107,-8.846,2.01,2.796,1.665,1.209,-4.304,5.07,4.705,3.522,2.269,28.333,26.136,18.332,15.733,13.77,78.794,55.648,39.695,31.47,26.493,160.685,106.129,77.54,63.009,55.506],[-17.218,0.408,-0.009,1.277,0.481,-15.923,0.455,1.483,2.081,1.63,-9.961,4.441,3.769,2.468,2.723,14.68,27.077,19.129,13.902,12.592,62.698,49.644,36.483,29.708,24.869,129.365,106.423,76.207,58.782,50.824],[-26.113,-0.101,1.324,0.038,1.086,-25.537,0.145,2.038,1.516,1.506,-22.28,3.407,2.927,3.391,2.797,8.72,22.224,17.988,14.184,11.833,43.126,48.665,34.973,29.081,23.29,117.514,97.286,72.509,57.398,48.532]],
"vp": [[115.674,10.733,46.888,11.562,-35.921,14.864,9.958,-5.407,9.672,-1.448,7.058,8.079,-3.126,-0.205,-1.655,0.274,0.957,-0.548,-0.501,-0.772,-0.423,-0.809,-0.697,0.032,-0.383,0.036,-0.221,-0.294,-0.041,0.044],[232.886,39.631,3.283,19.395,68.418,46.717,-5.636,0.4,-3.871,-8.558,24.369,1.622,5.017,-0.918,1.507,4.356,-0.546,-0.838,-0.029,-0.313,2.647,0.324,-0.093,-0.732,-0.046,1.039,0.091,-0.356,-0.116,-0.196],[852.222,130.783,-50.668,-18.004,19.039,170.048,28.994,4.547,-0.766,-21.013,85.249,1.78,3.643,-2.181,-3.433,16.739,3.181,0.234,-0.299,-1.138,7.65,0.348,0.206,-0.618,-0.497,4.209,0.184,-0.079,-0.139,-0.212],[1629.267,129.343,-0.746,92.185,-49.424,295.576,30.246,25.997,-6.562,-3.455,170.364,24.387,2.189,-3.413,4.561,28.932,2.884,0.97,-2.489,-0.159,15.164,1.386,0.839,-0.63,0.139,7.584,0.244,-0.249,0.224,0.323],[2138.193,385.842,150.573,109.699,49.222,484.242,55.083,25.343,18.913,-16.177,242.611,44.871,19.454,0.261,-5.472,43.346,5.697,1.992,2.12,-1.809,21.382,4.276,1.737,0.315,-0.121,12.01,2.042,0.11,-0.16,0.234],[3170.797,584.696,117.816,6.196,65.948,625.836,121.168,35.527,15.696,11.857,292.347,49.449,12.679,2.097,-1.982,62.085,12.638,3.307,0.892,0.784,32.021,5.288,1.51,0.52,0.105,15.756,2.628,0.575,-0.019,-0.292]]
}