{
"KTrans": [[1.388,4.494,8.528,-1.285,2.292,5.12,7.902,4.867,13.895,3.216,8.601,25.574,19.734,22.32,20.716,43.033,65.259,86.562,88.332,91.71,53.572,73.461,106.565,132.753,141.317,59.821,-149.282,63.354,101.885,138.261],[-44.271,-18.172,-0.769,4.209,3.457,-43.454,-14.074,-0.99,7.448,5.598,-32.97,-8.809,1.189,9.124,6.017,-7.727,10.749,10.921,25.663,35.771,-4.216,16.295,2.246,10.378,51.456,-26.199,17.3,-25.931,-44.294,29.016],[-54.709,-27.076,-15.883,-10.27,-3.554,-52.085,-19.161,-12.928,-11.307,0.169,-54.013,-17.521,-10.923,-5.6,-1.328,-29.358,8.573,8.167,6.9,5.924,-18.816,24.349,36.916,8.116,-2.504,-12.876,44.689,74.631,13.169,-21.832],[-67.958,-29.799,-13.922,-10.447,-8.57,-64.727,-25.402,-14.801,-12.301,-8.136,-66.318,-24.566,-11.494,-8.705,-3.811,-47.697,-7.506,10.75,10.148,7.559,-36.07,28.94,37.021,31.906,20.527,-42.966,5.271,55.851,55.018,18.563],[-72.754,-37.2,-20.116,-12.859,-10.574,-71.572,-33.865,-16.679,-11.464,-9.883,-74.231,-30.795,-17.035,-9.424,-5.764,-55.487,-11.145,11.293,8.862,8.996,-53.888,2.225,26.672,26.298,25.864,-39.894,-17.512,31.297,49.935,52.67],[-77.825,-42.618,-24.21,-14.286,-11.64,-76.103,-41.162,-21.564,-14.535,-8.407,-73.961,-39.262,-18.671,-9.78,-8.146,-65.901,-24.269,1.824,5.462,7.34,-57.434,-15.688,19.41,27.842,24.61,-84.389,-14.561,19.71,38.561,58.929]],
"ve": [[-49.434,-143.055,-783.661,-326.806,36.8,46.249,-42.182,-46.864,-46.32,-93.41,27.629,24.041,-125.958,29.903,-69.236,38.741,-0.3,-55.269,-42.011,-413.664,119.551,34.303,-4.361,-24.264,-29.083,200.025,99.6,29.475,1.997,-16.274],[-29.294,28.752,3.219,-0.385,72,6.929,-18.951,3.727,17.225,-62.014,-21.787,33.24,11.949,32.115,-96.972,4.231,6.583,15.871,9.457,11.514,89.411,45.11,33.399,20.335,-5.24,196.477,93.009,65.814,42.926,-2.182],[14.118,-6.785,-35.729,5.264,-12.541,-63.917,-7.113,-8.281,9.099,0.711,11.022,-3.396,-18.341,1.161,3.099,35.096,26.996,-1.382,10.958,16.52,82.117,41.908,24.722,25.243,18.108,139.406,99.768,64.209,49.285,-3.288],[65.241,-6.305,-2.498,-8.899,0.103,-8.428,-2.153,-4.556,-2.815,-6.439,-95.08,34.805,1.468,-5.147,-1.143,29.911,15.241,10.529,7.584,3.154,94.005,129.711,2.172,50.632,-34.476,211.356,106.821,68.523,34.152,31.765],[-17.442,-4.84,-7.029,-2.146,-2.937,21.927,5.016,-2.312,-3.098,-2.986,-96.103,-0.462,0.335,-1.336,-1.854,25.345,17.76,12.804,9.303,6.615,106.375,31.146,29.084,22.121,17.249,190.439,110.007,58.709,48.326,37.562],[-7.87,-106.815,-2.047,-2.113,-3.029,1.063,-3.999,-2.271,-0.89,-1.579,8.133,0.728,0.046,0.169,-0.06,49.631,88.244,12.095,9.385,8.05,70.722,57.581,29.389,23.283,19.741,200.657,96.626,72.504,51.032,39.543]],
"kep": [[-130.268,-71.39,-65.343,-5.602,-27.526,-119.725,-76.192,-33.986,-57.341,-18.65,-126.639,-111.738,-45.671,-48.887,-60.14,-133.181,-218.051,-189.675,-233.276,-174.916,-151.41,-308.985,-366.116,-389.962,-362.914,-162.1,-487.11,-547.988,-653.732,-744.01],[-86.782,-95.897,-126.916,-74.563,-21.218,-89.297,-93.118,-127.587,-80.196,-29.7,-81.406,-84.111,-134.19,-76.567,-23.453,-77.386,-81.307,-156.019,-164.286,-116.233,-89.857,-99.452,-200.453,-283.643,-195.369,-109.554,-113.976,-226.188,-376.09,-357.979],[-82.339,-62.161,-66.522,-101.238,-127.574,-80.484,-51.226,-58.891,-114.397,-132.273,-82.575,-50.942,-61.955,-89.676,-136.635,-77.279,-43.042,-50.928,-82.383,-161.053,-83.254,-51.021,-37.232,-109.723,-215.62,-89.056,-61.829,-43.147,-114.835,-212.638],[-87.699,-53.476,-36.099,-41.509,-57.129,-86.348,-47.957,-39.763,-46.103,-62.701,-88.151,-51.498,-39.357,-42.748,-46.134,-83.805,-49.043,-31.296,-29.256,-40.193,-85.035,-37.891,-24.048,-19.469,-47.165,-91.909,-76.005,-44.455,-31.414,-84.149],[-88.785,-55.065,-37.696,-29.5,-36.607,-88.767,-52.966,-36.091,-29.607,-34.728,-91.499,-51.503,-35.966,-31.32,-31.332,-84.612,-48.178,-20.124,-17.138,-21.107,-89.796,-51.766,-24.901,-19.812,-19.887,-90.037,-81.506,-47.159,-28.985,-19.977],[-90.078,-59.017,-38.766,-29.428,-28.173,-90.345,-57.671,-37.885,-29.543,-25.49,-88.595,-58.64,-35.527,-26.012,-26.802,-89.403,-55.719,-28.194,-21.828,-16.005,-89.476,-61.971,-30.585,-12.713,-13.653,-101.544,-74.467,-52.965,-31.083,-6.05]],
"vp": [[-97.641,-100.295,209.486,127.612,283.9,-12.645,51.245,6.586,41.935,36.026,-0.218,-0.198,-20.922,-15.949,42.333,-4.465,-6.297,0.371,4.327,-1.535,-7.934,-15.183,4.25,-3.029,-6.676,-10.75,-7.016,-9.888,-10.346,-4.661],[2585.48,1470.807,124.174,-403.234,238.932,582.426,155.001,59.959,-63.761,64.474,196.624,146.007,-20.502,-14.507,-3.424,58.416,-0.908,-9.317,-5.524,-12.197,10.364,5.248,-10.778,-1.001,-8.86,1.799,-6.733,-9.411,-12.196,-11.187],[4499.621,2941.166,2001.788,1323.312,4.736,877.009,549.29,530.476,191.508,-11.357,404.069,293.605,133.547,98.596,53.499,71.874,59.726,17.452,13.507,-19.829,31.653,17.385,-0.379,7.062,-8.623,-1.122,17.245,-10.367,-8.914,-7.935],[5754.459,5257.329,2883.826,1262.396,1060.539,1129.236,1028.138,731.6,371.039,388.975,629.065,459.949,297.126,136.41,226.491,111.953,80.005,63.151,18.672,8.454,55.437,37.896,31.912,1.7,2.353,11.692,15.183,9.413,-2.855,-7.73],[5532.944,7447.461,5335.876,3565.722,2359.029,1297.849,1255.326,790.318,443.184,367.779,642.762,655.522,378.656,313.063,232.903,123.654,133.393,88.233,32.949,33.836,64.708,62.245,33.715,18.602,19.907,12.633,30.802,16.033,9.081,-11.089],[6744.497,8935.427,6186.831,3931.545,2578.794,1494.65,1620.781,1201.079,842.292,505.56,617.82,862.842,589.371,442.546,303.802,128.42,162.945,118.738,66.895,36.029,46.802,75.263,64.272,31.141,29.845,18.559,23.668,32.902,8.054,-3.973]]
}