{
"KTrans": [[-8.573,-0.756,2.104,2.418,-1.886,-1.32,8.133,5.889,3.075,4.337,-4.374,3.691,9.75,1.669,3.947,53.744,21.537,11.941,14.297,18.211,74.859,67.759,54.075,28.442,33.471,161.877,128.709,100.634,98.444,86.215],[-57.164,-0.844,0.716,1.456,0.812,-53.778,1.976,5.943,0.268,-1.21,-51.908,-0.226,1.105,1.445,0.406,-21.89,18.835,10.227,5.683,5.869,5.798,43.499,17.42,12.036,7.902,54.133,85.108,63.555,53.282,42.871],[-81.278,-22.774,-1.402,-1.176,-1.18,-76.739,-9.035,1.214,0.537,-0.548,-78.352,-9.695,6.807,-1.994,-1.524,-59.557,-9.995,7.851,3.957,3.399,-45.693,9.517,24.322,23.414,8.842,-31.406,74.569,56.262,36.19,32.796],[-90.204,-26.967,-2.236,-4.212,-2.035,-87.242,-32.772,-6.38,1.799,-3.284,-88.838,-35.756,-2.439,0.981,-0.251,-77.927,-13.229,4.138,4.214,6.616,-57.82,-6.529,26.899,15.822,18.763,-40.566,0.169,40.594,39.7,36.301],[-92.325,-57.52,-3.059,0.597,2.158,-90.032,-46.809,-8.258,1.556,1.762,-91.029,-46.988,-4.732,2.68,-0.59,-84.176,-39.649,-7.696,15.032,7.508,-80.713,-11.945,-3.151,11.321,16.758,-56.645,-29.028,24.248,26.19,39.051],[-93.693,-66.769,-16.198,-1.992,-0.949,-93.855,-56.379,-15.44,0.511,2.027,-91.176,-53.206,-18.011,4.212,1.005,-83.912,-44.782,3.784,3.652,9.659,-82.679,-25.108,-8.494,11.579,14.631,-62.262,-39.234,11.124,12.6,43.425]],
"ve": [[66.662,23.32,-19.06,-2.035,-37.526,27.345,-69.526,12.166,3.85,27.352,55.563,5.951,14.73,11.103,18.701,14.68,-3.143,110.051,-26.998,-7.124,14.557,-21.663,-8.651,-19.528,4.002,64.503,17.391,-1.944,-19.801,-59.858],[-36.648,-0.417,-1.184,-1.966,-0.953,-27.398,-4.6,-0.538,-1.289,-1.148,-10.62,-3.17,-2.917,-2.797,-2.033,-18.794,5.138,1.624,-0.767,0.109,5.571,14.872,0.854,-6.565,1.647,18.635,33.466,9.473,11.093,5.835],[-59.81,-15.279,-4.456,-2.485,-3.301,-55.104,-9.98,-3.849,-3.75,-2.971,-14.058,-10.713,-2.977,-2.125,-2.623,-41.967,-36.129,-1.31,-2.099,-1.827,-31.076,-3.566,6.394,6.022,1.037,55.084,30.472,27.716,5.114,2.074],[-63.545,-23.708,-5.215,-4.631,-3.677,-52.442,-24.655,-7.898,-3.449,-4.624,-68.671,-28,-7.365,-4.078,-3.337,-54.653,-11.879,-4.925,-5.281,-1.164,-64.924,-7.982,4.496,2.02,5.404,-9.122,4.394,26.371,14.907,7.896],[-78.785,-41.289,-8.981,-6.018,-2.954,-55.814,-39.439,-11.576,-5.18,-2.539,-58.519,-39.765,-10.73,-5.799,-4.275,-85.265,-29.755,-14.32,-0.591,-3.577,-80.264,-3.32,-13.064,-3.449,0.664,-56.74,-3.292,20.065,3.385,5.165],[-85.974,-51.577,-17.159,-6.444,-5.406,-191.83,-42.651,-15.637,-7.104,-4.408,-105.753,-42.299,-15.571,-5.06,-4.196,-46.622,-28.886,-11.115,-3.311,-1.135,-71.509,-5.87,-11.955,-1.382,-0.337,-18.188,-10.461,8.242,-9.873,6.703]],
"kep": [[-12.229,-2.565,2.755,1.517,-6.228,-2.402,5.22,6.276,4.534,8.765,-8.419,-0.088,8.864,0.436,3.436,16.513,10.595,5.213,13.046,33.062,30.344,41.654,38.376,14.339,29.81,71.729,73.798,78.177,90.191,93.801],[-46.388,-2.571,1.881,3.647,2.218,-48.306,5.413,6.206,1.713,0.324,-46.085,1.37,3.793,4.382,2.77,-34.391,10.059,7.23,5.369,5.508,-22.07,14.709,2.002,6.649,1.834,-17.364,31.082,21.521,25.144,23.294],[-75.777,-11.448,2.676,0.817,2.172,-71.477,-0.502,4.425,4.015,2.353,-69.402,-2.777,8.825,-0.196,1.011,-62.057,-10.583,5.182,4.313,4.837,-52.75,-4.311,14.368,14.163,4.437,-45.5,14.352,30.038,8.521,12.48],[-84.318,-9.455,1.584,-0.421,1.383,-79.5,-20.129,-0.575,4.568,0.919,-82.895,-18.671,3.817,4.756,3.041,-73.043,-11.968,5.428,7.711,7.276,-62.121,-21.119,10.817,8.771,11.404,-59.976,-21.247,-0.045,10.123,16.565],[-88.37,-39.163,2.436,6.305,4.628,-85.525,-26.409,-0.024,5.875,3.94,-86.498,-29.804,3.89,7.761,3.31,-77.319,-34.059,-1.237,13.898,10.335,-76.695,-23.114,-6.589,12.519,16.418,-67.777,-38.565,-5.157,4.97,27.398],[-88.852,-48.018,-7.838,3.63,3.894,-89.82,-39.601,-4.538,7.062,6.099,-88.263,-38.991,-6.71,8.831,4.855,-82.842,-41.676,10.28,5.301,9.155,-78.603,-33.363,-11.766,7.024,12.623,-73.43,-45.508,-12.781,-8.114,21.806]],
"vp": [[573.888,457.187,290.893,26.147,449.004,107.742,-12.685,-3.707,-3.247,11.88,43.666,-5.576,-19.335,15.833,2.76,-25.54,-18.286,-5.753,-23.599,-23.013,-14.709,-33.329,-35.969,-12.763,-23.805,-37.65,-34.622,-33.183,-32.965,-35.14],[4134.289,492.369,467.713,542.517,623.086,698.745,175.831,17.885,108.858,153.733,354.235,68.127,77.848,67.384,66.906,30.756,-20.485,-1.044,0.217,-11.147,-5.315,-27.544,-1.26,2.301,3.192,-7.898,-37.221,-31.665,-40.087,-32.84],[5858.212,3070.938,1126.142,794.646,1140.647,1084.329,364,265.103,273.94,266.968,553.71,225.828,94.192,124.827,113.579,79.612,41.98,13.779,13.27,15.328,32.118,6.39,-12.714,-27.512,-2.379,-27.989,-33.899,-17.305,-14.075,-16.844],[6686.842,4927.962,1881.861,2054.379,1887.628,1277.045,1037.775,452.181,218.747,391.713,709.858,588.66,242.077,131.877,125.591,114.955,46.364,33.071,43.434,2.886,27.623,14.116,-19.108,-10.018,-35.225,14.509,-3.609,-43.605,-35.405,-27.453],[7347.066,8416.816,2612.67,2126.179,1233.013,1422.096,1581.725,683.667,301.681,251.971,694.451,750.848,328.861,216.872,189.794,115.219,125.308,86.416,-2.095,33.057,69.713,0.534,41.592,15.952,-9.63,32.579,2.892,-30.607,-5.896,-16.202],[7761.646,10192.179,5393.424,2352.425,2197.89,1381.031,1800.542,917.928,514.897,377.84,681.162,893.081,437.299,197.719,189.216,90.235,118.341,73.64,30.622,3.78,73.324,7.199,34.878,5.5,-2.206,9.244,12.072,-3.679,-0.69,-20.29]]
}