{
"KTrans": [[6.998,5.042,1.323,0.554,1.546,20.133,7.211,9.217,8.351,7.417,27.367,21.278,14.433,12.442,12.379,158.861,97.361,78.336,67.114,62.993,-1.575,195.722,170.181,145.071,137.517,79.367,90.998,208.326,246.851,271.526],[-6.8,6.039,2.633,1.46,2.05,-2.04,7.192,4.961,4.545,3.683,13.873,15.21,11.485,9.082,7.152,33.412,71.927,48.592,37.198,32.539,9.551,158.472,116.536,81.842,69.817,-66.13,40.488,197.127,172.365,145.646],[-23.647,4.939,1.937,3.29,1.452,-25.895,8.468,4.455,6.375,4.478,-20.623,16.151,11.423,9.154,7.015,-2.072,85.221,47.246,36.311,27.797,-80.821,16.053,128.559,82.585,58.985,1.167,0.51,87.701,174.331,131.696],[-48.778,0.137,5.21,5.211,2.64,-50.605,11.822,7.114,4.641,4.917,-46.647,17.368,13.765,8.259,6.921,-37.352,67.909,51.521,34.871,26.848,-79.38,18.572,108.078,93.39,60.205,1.102,-16.227,-26.732,172.688,150.556],[-71.232,1.468,4.269,5.08,2.949,-67.384,9.163,7.138,6.103,5.251,-67.279,23.975,15.32,7.733,8.207,-64.02,13.41,53.309,36.843,27.411,-49.046,-34.76,96.99,79.152,66.657,-98.997,14.646,-11.803,104.06,170.579],[-80.383,-5.06,7.444,4.926,1.036,-79.183,-7.648,7.117,5.184,5.362,-72.453,4.233,13.447,8.908,9.098,-75.161,6.837,62.644,39.968,36.795,-56.77,-32.734,92.913,86.243,71.694,-53.661,-82.233,30.354,24.736,172.997]],
"ve": [[6.688,0.73,2.894,6.094,20.949,7.543,2.783,-0.654,0.087,-0.02,11.238,2.65,0.037,-1.489,-8.286,47.39,13.992,0.056,-10.536,-16.5,95.302,39.155,10.371,-5.083,-16.641,195.414,74.756,23.501,10.476,-25.439],[3.481,1.133,-0.341,0.064,-0.655,6.445,2.065,1.145,0.48,-0.409,12.296,4.989,2.513,0.407,-0.037,51.266,24.613,14.68,9.493,5.43,99.247,49.207,30.315,20.156,12.254,204.519,97.98,100.948,43.215,29.874],[3.419,1.309,-0.296,-0.315,-0.039,9.41,2.103,1.68,0.549,0.889,-18.474,5.208,3.194,1.596,1.299,50.204,25.169,16.003,11.314,8.285,103.997,36.667,33.087,24.17,17.165,200.198,99.976,61.479,46.613,35.732],[-5.438,0.661,0.572,0.082,0.134,5.301,2.725,1.417,1.148,0.626,13.457,6.288,3.433,1.981,1.599,51.657,26.246,17.008,12.159,8.637,102.333,50.326,32.443,24.568,18.681,195.765,100.059,67.733,51.311,38.607],[4.783,1.16,0.514,-0.25,0.029,7.005,2.546,1.608,1.241,0.673,25.538,5.151,3.549,1.951,1.696,51.52,25.351,16.187,12.001,9.493,99.627,45.88,32.103,24.224,19.801,206.961,97.386,66.968,48.236,39.959],[4.638,1.781,0.326,-0.217,-0.315,2.409,2.928,0.952,1.479,0.767,10.623,5.581,3.339,2.232,1.316,48.171,24.52,17.152,12.487,9.854,100.082,48.397,35.288,24.07,20.513,200.216,102.555,65.742,49.663,39.813]],
"kep": [[2.951,7.288,1.258,0.798,2.35,14.269,7.097,13.179,13.165,13.497,17.017,19.875,17.713,18.75,27.015,76.868,73.492,80.026,90.364,99.066,-42.651,120.338,145.611,159.326,186.645,-18.688,13.661,114.934,196.642,276.277],[-9.626,5.105,3.187,1.71,2.981,-7.857,5.253,4.001,4.228,4.353,0.912,9.967,8.914,8.815,7.429,-11.512,37.704,29.499,25.47,25.836,-40.62,71.63,65.117,50.935,51.342,-77.654,-21.504,79.58,89.007,88.319],[-25.813,3.727,2.376,3.708,1.574,-31.659,6.394,2.891,5.938,3.627,-30.486,10.361,8.129,7.477,5.729,-34.108,47.342,26.76,22.476,18.099,-84.281,-21.009,69.804,46.406,35.442,-60.149,-41.54,15.198,83.809,69.632],[-51.427,-0.35,4.669,5.201,2.552,-54.548,8.902,5.755,3.533,4.303,-53.822,10.576,10.016,6.168,5.3,-57.082,32.01,29.154,20.188,16.705,-85.426,-18.972,55.652,54.076,34.629,-62.037,-51.291,-48.452,77.731,78.53],[-73.335,0.196,3.689,5.367,2.933,-70.381,6.23,5.424,4.851,4.591,-70.832,17.183,11.323,5.7,6.443,-74.897,-9.885,30.928,22.01,16.35,-71.692,-52.28,46.282,42.948,38.44,-95.933,-37.077,-40.468,36.289,89.786],[-81.73,-7.345,6.915,5.163,1.385,-81.504,-10.618,6.083,3.613,4.552,-76.231,-1.649,9.59,6.529,7.653,-82.01,-14.819,37.601,24.007,24.353,-76.627,-52.023,42.345,48.525,41.68,-81.71,-84.575,-17.691,-14.73,90.764]],
"vp": [[634.411,176.21,-8.142,-191.722,137.721,74.834,-1.036,-12.268,57.051,54.368,4.331,5.232,4.075,0.011,7.187,-5.54,-3.495,7.597,1.965,12.118,1.55,-21.602,-4.314,-7.437,-3.56,13.239,0.063,-3.368,-2.014,-4.528],[3629.422,391.985,57.057,-6.762,-245.388,694.835,45.402,28.799,15.078,-20.062,319.602,62.718,53.343,-12.518,-1.682,62.756,11.792,7.872,4.971,5.33,18.088,3.935,8.671,11.446,6.558,36.741,-3.798,8.513,-9.293,-8.298],[7009.224,1637.244,320.607,-11.998,284.306,1472.488,208.83,-85.902,42.968,50.307,681.073,167.587,46.55,-8.116,-5.736,113.398,45.647,22.006,29.302,7.644,82.264,37.55,39.275,27.227,-0.813,13.855,18.993,11.754,-3.22,4.971],[8336.869,3463.682,1214.447,245.399,167.65,1838.436,872.112,-24.827,26.984,-17.3,851.425,431.17,135.334,29.234,10.522,148.018,101.306,51.133,9.274,8.674,90.075,27.612,3.346,52.813,19.73,12.615,24.368,10.11,20.885,26.482],[9473.948,8465.606,594.462,14.229,-151.736,1935.525,1696.23,299.68,243.326,55.599,940.767,911.113,136.111,62.42,58.677,187.863,170.129,40.778,38.288,18.033,99.898,63.807,17.928,13.12,46.05,59.925,11.067,16.693,-4.992,36.817],[10146.346,12744.847,3538.264,140.836,464.396,1976.748,2321.975,765.883,158.275,52.733,931.016,1233.344,229.968,-39.5,84.868,196.553,177.872,140.882,70.195,65.89,86.189,96.094,71.229,27.564,72.146,37.647,67.86,10.402,24.558,27.238]]
}