{
"KTrans": [[1.493,1.827,1.596,1.652,1.665,5.505,13.231,11.693,9.568,12.335,1.093,24.599,22.469,23.438,21.184,-0.242,63.789,85.168,90.483,93.638,48.687,-16.107,90.679,120.874,135.137,-132.504,-145.642,-86.578,26.086,45.178],[4.209,1.234,0.556,1.408,0.619,8.392,7.424,1.564,4.894,5.054,20.307,15.724,-1.416,10.292,9.99,21.118,34.077,-7.855,27.335,36.02,29.005,60.386,0.781,6.498,47.336,-89.842,32.476,-1.276,-6.023,27.619],[-1.341,1.54,1.778,0.478,0.194,4.56,8.232,4.345,4.102,0.911,19.207,12.36,10.879,7.666,0.002,1.172,43.996,35.76,23.686,3.372,-92.915,-108.025,4.012,-39.418,-8.234,-44.812,-1.07,-49.105,-67.166,11.607],[0.487,0.8,1.546,1.365,0.694,-2.943,7.827,3.753,3.332,3.309,4.151,8.056,9.361,6.59,5.998,-48.324,49.157,48.115,40.732,26.35,-41.113,-25.85,-2.62,55.917,42.91,30.659,-207.775,-128.07,-47.118,-11.862],[-10.682,-0.606,1.029,1.489,1.046,-12.803,4.975,2.879,2.932,2.49,0.658,12.946,5.883,6.044,6.034,-39.366,40.67,39.184,36.697,29.191,-37.15,3.004,6.718,25.546,31.301,-67.455,-31.14,-49.681,33.874,-52.755],[-19.855,0.882,0.849,1.694,2.205,-27.037,4.687,2.931,2.663,2.147,-25.878,11.096,8.892,5.89,5.207,-100.667,70.888,47.718,33.252,30.12,-79.113,-41.271,45.44,86.382,55.912,-32.87,-31.598,-47.745,-68.598,0.444]],
"ve": [[10.514,5.742,14.483,8.173,10.479,2.434,20.05,30.581,14.313,52.054,10.676,-584.125,22.016,-81.464,20.753,48.246,-6.639,-45.316,-45.952,-139.935,90.671,30.338,-11.099,-37.144,-51.126,205.081,71.017,33.783,2.062,-16.603],[1.039,0.283,-4.304,0.979,0.3,4.689,2.153,1.273,2.627,2.819,9.356,5.062,3.122,9.814,5.604,50.935,25.648,16.185,5.721,15.785,101.277,54.31,32.563,18.147,-105.481,199.971,100.591,64.295,44.814,25.987],[-0.286,0.595,0.44,0.148,0.372,4.44,2.51,1.519,1.254,0.169,9.231,5.047,3.406,2.275,2.088,48.147,20.412,21.072,14.852,9.127,100.152,48.001,34.079,25.876,19.744,191.6,97.363,67.545,51.563,44.279],[1,0.499,0.383,0.44,0.102,3.692,2.749,1.689,1.308,1.046,10.154,4.747,3.493,2.547,2.08,140.512,25.554,15.949,12.637,9.926,103.05,49.699,34.828,27.889,20.292,193.16,103.761,66.461,48.238,41.518],[0.308,0.436,0.428,0.459,0.238,3.688,2.541,1.566,1.407,1.006,8.999,5.185,3.188,2.591,2.099,50.052,26.133,15.889,12.535,10.03,99.792,49.893,33.569,22.699,21.381,205.136,101.759,65.797,50.425,33.399],[-1.237,0.468,0.349,0.447,0.309,3.249,2.381,1.627,1.391,1.091,7.994,4.937,3.267,2.515,2.122,51.582,24.726,16.664,12.46,10.247,100.254,50.602,33.372,22.809,9.612,204.491,100.28,64.567,47.134,40.473]],
"kep": [[-130.532,-1.281,0.153,-1.011,-4.103,-130.304,-26.163,-15.129,-11.021,-24.684,-160.155,-47.481,-29.483,-40.028,-31.545,4.33,-252.296,-216.198,-180.947,-206.795,71.481,-424.384,-378.347,-374.347,-399.257,-28.904,-198.462,-616.296,-688.836,-776.199],[2.572,1.599,-131.838,-2.495,1.475,2.515,11.209,-131.794,-14.653,-10.815,8.147,24.273,-180.833,-39.036,-21.097,-25.313,7.033,-77.429,-148.65,-99.457,-38.591,19.444,29.284,-311.074,-194.836,-81.522,-10.347,30.1,-51.438,-328.503],[-6.766,2.335,5.293,0.631,-123.794,-3.504,5.903,4.003,13.127,-137.341,3.166,8.454,14.217,14.48,-167.259,-35.872,8.979,19.601,2.315,4.977,-85.272,-98.13,-43.295,-106.755,-24.238,-71.709,-34.713,-61.402,-103.946,20.233],[-7.408,1.414,1.482,2.497,0.496,-14.1,4.846,3.148,3.824,6.705,-12.76,2.535,7.521,7.63,11.045,-66.63,12.733,27.266,37.214,26.347,-68.968,-53.796,-39.462,25.362,30.633,-54.902,-124.233,-107.835,-73.956,-42.141],[-20.405,-2.196,0.298,2.364,0.947,-25.183,0.635,1.401,2.941,3.04,-20.576,6.112,3.079,5.511,7.127,-61.372,4.203,13.822,25.38,26.616,-67.448,-35.161,-29.95,-11.25,7.482,-81.488,-65.813,-67.434,-16.704,-75.338],[-30.061,-1.267,0.801,1.503,2.304,-37.927,-1.144,0.711,2.602,2.834,-41.857,1.987,5.563,3.848,4.991,-96.678,22.904,21.595,19.013,22.731,-82.899,-62.324,1.829,45.981,33.629,-75.494,-63.905,-62.316,-73.878,-33.872]],
"vp": [[-1.013,67.954,-121.905,-108.388,56.125,-10.575,11.588,-6.796,-5.981,-6.103,-11.634,-14.061,-31.727,-4.782,6.716,-20.803,-0.768,17.709,-9.441,6.314,-13.526,3.712,-2.75,-3.982,-1.374,-0.263,2.434,2.398,-6.682,3.042],[523.093,42.41,21.314,-10.264,34.479,116.549,6.502,-16.375,4.274,0.997,1.852,7.141,11.82,12.584,18.554,-16.086,-16.371,-18.6,-26.164,-9.777,-17.137,-9.28,-15.541,-3.75,-7.232,-26.874,-19.703,-52.931,-2.756,-13.275],[1407.888,132.834,218.564,90.713,83.174,295.501,76.909,37.96,16.669,-24.979,154.301,31.258,34.992,-4.688,-4.194,1.513,-5.619,-19.177,-0.81,-11.531,-16.703,-34.184,4.163,-26.173,-14.354,-18.289,-33.623,-23.606,-14.809,-14.449],[2954.231,872.782,462.052,182.742,70.297,526.256,173.866,35.896,8.264,37.339,251.92,52.809,85.043,2.76,3.385,31.9,-2.324,15.809,-1.751,-9.709,3.695,-18.225,-6.607,-5.451,-33.149,-38.492,-12.444,-33.478,-27.301,-24.23],[3786.498,911.567,494.372,420.946,246.122,789.37,134.383,97.839,78.713,60.862,404.11,127.398,-5.93,26.941,13.506,47.818,8.616,46.321,7.936,-1.822,12.127,-8.244,-7.151,-2.658,-22.469,-9.066,-7.225,-35.47,-29.116,-27.858],[4904.233,1815.75,1220.178,857.61,459.389,861.228,414.648,174.854,148.285,55.763,435.527,221.309,119.87,61.95,76.509,108.949,46.842,42.429,18.859,8.832,27.201,3.609,-26.121,0.072,-18.49,-3.597,-12.02,-6.454,-19.743,-24.681]]
}