{
"KTrans": [[1.501,2.692,3.352,2.477,3.389,11.617,8.657,6.867,5.972,7.236,24.665,15.163,15.033,12.312,11.792,186.465,91.342,73.537,64.79,59.651,326.279,204.903,173.887,151.882,143.865,16.483,429.303,378.425,364.972,321.155],[-5.998,-0.105,-0.189,0.918,1.539,0.69,3.29,3.025,3.642,3.566,12.814,11.246,7.54,6.828,5.646,137.827,60.457,42.202,37.15,31.002,38.885,143.024,97.633,73.703,66.195,-82.47,304.259,230.803,180.64,146.061],[-16.953,-2.258,-0.731,0.26,-0.158,-8.906,0.029,0.842,2.069,1.86,4.163,6.461,5.462,4.08,4.617,62.571,60.186,35.878,28.66,25.303,-22.313,152.473,87.183,62.948,54.03,-92.881,121.367,198.011,148.847,119.579],[-26.247,-6.759,-1.209,-0.682,-1.34,-20.415,0.212,0.338,0.775,0.753,-14.345,2.324,2.742,3.726,2.568,-26.894,41.343,33.497,27.316,23.245,-48.127,139.541,69.74,57.704,48.481,-83.9,-18.062,197.374,126.83,113.798],[-34.696,-9.411,-4.003,-2.687,-1.339,-32.727,-4.116,-2.452,-0.581,0.461,-33.084,1.166,2.229,1.973,3.055,-29.84,41.631,31.473,21.741,21.146,-55.239,85.217,80.382,52.358,48.699,-89.202,-38.194,206.03,159.604,110.95],[-46.005,-8.764,-4.502,-4.727,-2.831,-47.866,-3.112,-3.211,-1.638,-1.306,-37.975,-3.376,0.79,1.068,1.289,-54.681,48.899,32.038,22.112,18.652,-61.854,46.211,90.209,55.126,39.448,-80.061,-65.35,197.649,143.433,109.971]],
"ve": [[2.598,2.04,1.944,5.093,5.458,5.645,2.567,3.967,2.217,3.214,10.013,3.313,-0.271,-0.109,-1.144,47.586,15.014,0.043,-9.304,-15.591,119.698,34.866,10.538,-5.435,-16.067,198.509,93.808,40.621,13.85,-2.4],[1.7,0.345,0.421,1.011,1.202,5.25,2.529,1.565,1.443,0.992,9.956,4.943,3.136,2.345,1.767,49.698,23.184,14.342,9.771,5.989,96.774,47.877,30.082,19.873,13.45,201.574,95.05,63.144,43.035,29.683],[2.47,-0.314,-0.14,-0.136,0.402,5.057,2.373,1.288,0.744,0.811,10.237,4.583,2.895,2.049,1.978,49.492,24.693,15.671,11.144,8.712,97.203,49.665,31.759,22.725,17.293,201.522,99.654,65.147,47.038,36.186],[1.366,0.609,0.15,-0.166,0.259,4.646,2.202,1.423,1.006,1.136,11.855,5.138,2.761,1.831,1.744,52.331,24.174,15.872,11.522,9.118,101.016,49.324,32.037,23.262,18.561,197.54,99.137,64.611,47.973,38.037],[1.658,-0.693,-0.176,-0.06,-0.088,4.873,2.3,1.16,0.824,0.685,11.426,4.386,2.558,2.1,1.484,53.687,24.284,16.153,11.819,9.365,100.236,49.696,32.669,23.954,19.074,190.781,-15.174,65.793,49.564,38.819],[2.597,0.033,-0.076,-0.313,-0.511,6.764,1.887,1.427,0.425,0.64,11.374,4.563,2.978,1.82,1.442,73.838,25.089,16.096,11.803,9.365,99.001,49.969,33.244,24.105,18.641,199.479,99.682,66.244,49.068,38.733]],
"kep": [[-5.266,-3.676,-2.554,-5.179,-3.891,0.577,1.299,-1.19,0.59,1.483,8.16,6.41,10.175,8.167,9.29,83.231,58.385,65.305,73.229,80.909,101.552,113.76,135.358,153.242,176.655,-49.233,172.585,227.614,290.789,313.614],[-12.303,-5.583,-5.756,-5.262,-4.86,-9.33,-4.461,-3.849,-3.113,-2.758,-2.713,0.446,-1.139,-1.031,-1.591,48.505,23.213,17.828,18.439,17.16,-31.524,54.448,43.573,37.187,38.754,-83.922,87.807,90.311,85.118,79.245],[-23.056,-7.05,-5.763,-4.854,-5.771,-17.707,-7.391,-5.645,-4,-4.242,-10.521,-3.487,-2.889,-3.355,-2.797,1.693,21.183,11.157,9.652,9.206,-60.374,57.512,33.922,25.523,24.315,-91.204,6.645,68.79,59.077,52.114],[-31.037,-12.171,-6.53,-5.739,-6.741,-27.85,-7.114,-6.254,-5.469,-5.608,-27.473,-7.823,-5.272,-3.465,-4.485,-53.551,7.314,8.966,8.074,6.962,-73.582,49.344,21.024,20.856,18.479,-90.636,-56.028,67.557,44.143,45.877],[-39.379,-13.533,-8.903,-7.751,-6.43,-39.655,-11.22,-8.628,-6.577,-5.461,-43.388,-8.184,-5.586,-5.371,-3.787,-55.938,7.15,6.984,3.031,4.892,-76.389,15.093,27.616,15.974,18.131,-93.162,-66.617,70.614,62.31,43.1],[-50.233,-13.7,-9.487,-9.446,-7.468,-53.948,-10.025,-9.621,-7.195,-7.088,-47.377,-12.637,-7.324,-5.981,-5.395,-70.804,11.831,7.311,3.358,2.704,-79.3,-8.408,33.536,17.774,11.099,-90.775,-78.517,65.204,51.792,41.946]],
"vp": [[48.212,-29.822,73.038,-119.557,-174.309,4.092,15.986,21.296,-29.909,-31.576,-4.813,1.789,2.37,-5.548,-8.67,17.266,-6.287,-17.034,-15.059,-14.346,6.347,-11.333,8.865,-1.978,7.174,-4.653,-1.619,-9.475,-4.357,-1.057],[1828.946,626.216,-55.46,75.523,-65.253,354.405,5.834,-35.023,4.748,1.016,165.401,48.539,10.031,15.784,-12.783,35.124,-4.765,-17.536,13.421,-5.142,-7.508,-10.626,-3.32,-9.452,0.866,-2.691,-4.468,4.011,7.258,-4.163],[3387.266,1104.122,278.549,429.684,-240.243,599.771,138.107,25.129,65.006,5.606,331.718,101.085,38.945,28.277,-6.271,53.1,19.298,-4.567,-6.044,-1.504,10.753,12.853,-6.286,-14.956,-8.031,6.896,-5.232,-13.033,-16.646,-11.141],[4803.026,2132.914,1126.022,338.988,-5.412,991.998,419.346,179.518,143.925,19.795,521.127,208.736,90.978,-16.751,-5.691,95.859,8.09,1.778,2.54,8.166,35.01,4.601,-13.125,-13.232,-6.888,7.65,-5.551,-20.269,-19.615,-10.937],[6020.79,3814.027,1393.832,901.601,488.344,1113.726,660.145,231.759,165.303,122.682,623.99,275.679,75.455,49.822,41.465,101.448,62.614,21.032,-2.64,17.791,37.414,32.019,18.695,-1.364,12.341,17.508,5.568,-8.487,7.573,1.196],[7215.341,4499.809,2563.368,858.98,416.018,1392.039,1037.717,349.801,162.146,147.577,636.556,523.602,198.072,109.141,84.133,114.006,108.006,38.439,17.211,8.488,37.626,49.482,28.55,3.982,-18.611,11.662,18.585,10.849,0.28,1.356]]
}