{
"KTrans": [[10.971,21.308,11.043,12.682,17.273,9.34,13.092,16.744,12.061,16.177,10.376,15.418,16.264,13.347,16.664,25.999,19.597,23.596,27.561,25.938,38.297,40.949,44.973,35.406,38.87,70.929,64.86,71.776,68.063,54.43],[-50.168,-8.376,-2.326,4.063,8.047,-39.518,-4.184,0.395,7.181,9.966,-35.528,-2.919,1.341,5.345,7.895,-32.692,-6.093,5.265,11.681,13.116,-27.4,0.295,9.001,16.476,19.412,-21.202,16.461,23.432,25.575,26.562],[-72.763,-24.857,-10.715,-3.721,0.546,-71.366,-30.757,-13.831,-4.766,1.977,-70.903,-22.332,-10.327,-4.032,1.33,-67.694,-26.32,-10.643,-2.138,4.928,-58.023,-17.896,-5.115,0.354,7.292,-54.495,-18.32,3.176,9.796,15.049],[-87.082,-46.876,-25.508,-17.238,-8.323,-83.768,-41.572,-24.445,-15.092,-7.197,-85.449,-41.773,-25.25,-13.638,-5.773,-79.595,-44.077,-24.347,-12.516,-4.649,-79.442,-48.197,-21.367,-12.451,-4.781,-68.623,-45.203,-16.537,-7.389,-1.62],[-89.129,-58.694,-39.723,-24.142,-18.071,-88.993,-56.544,-38.37,-27.723,-15.034,-89.359,-57.668,-38.818,-23.227,-14.895,-86.466,-54.651,-38.464,-23.528,-13.886,-82.058,-60.133,-38.944,-19.383,-13.269,-76.263,-56.385,-36.147,-14.766,-8.875],[-93.307,-66.062,-48.546,-34.002,-24.479,-92.968,-66.206,-47.749,-35.854,-24.406,-91.877,-65.926,-49.177,-33.082,-25.832,-90.54,-68.015,-50.024,-34.175,-22.605,-88.007,-67.927,-46.311,-32.598,-20.804,-83.14,-63.647,-43.713,-30.216,-19.063]],
"ve": [[12.667,5.316,-13.464,39.271,108.545,11.612,20.659,86.183,55.272,51.119,13.967,19.612,27.206,-194.18,-58.019,36.549,40.63,-116.094,-26.416,91.763,106.099,11.705,21.259,42.062,6.49,73.501,30.197,9.219,30.514,73.875],[-17.323,-1.164,0.473,3.834,4.703,-12.444,-0.423,0.188,3.107,5.736,-8.205,-0.299,2.432,4.738,5.984,-0.57,2.942,4.087,6.706,9.199,14.964,10.602,10.232,9.892,9.531,44.585,24.782,18.525,17.055,15.204],[-43.757,-8.073,-4.102,-0.756,0.566,-52.438,-10.581,-4.499,-0.726,1.596,-38.277,-7.318,-2.592,-1,1.009,5080.494,-3.627,-0.642,1.161,3.185,-2.11,6.389,5.79,5.293,5.496,31.051,14.447,13.951,11.516,12.114],[-41.805,-19.499,-10.149,-5.581,-2.35,-45.204,-16.512,-8.318,-5.258,-2.657,-38.828,-14.227,-8.342,-4.674,-1.792,-48.427,-12.607,-5.631,-1.139,-0.831,-12.62,-8.388,-0.347,0.769,2.135,4.681,5.935,9.132,7.347,5.907],[-59.14,-25.998,-15.952,-7.905,-6.114,-53.546,-22.616,-13.898,-9.568,-5.187,-49.063,-23.455,-13.518,-8.321,-4.613,-19.493,-16.6,-11.839,-6.122,-3.206,-12.788,-13.354,-7.865,-1.966,-1.683,14.959,3.212,0.578,6.519,4.291],[-39.759,-30.804,-19.419,-12.446,-9.129,-55.258,-27.323,-18.873,-12.654,-8.732,-83.784,-27.115,-18.98,-10.752,-8.801,-35.738,-52.982,-15.123,-10.527,-5.347,-104.44,-20.423,-10.851,-5.918,-3.485,-46.918,-1.625,-0.238,-0.587,0.651]],
"kep": [[-24.585,-17.873,-32.988,-35.545,-28.152,-25.345,-23.646,-21.927,-36.283,-32.58,-27.369,-22.552,-23.438,-34.577,-34.051,-23.878,-24.334,-21.479,-17.853,-22.638,-23.942,-14.008,-3.75,-13.197,-7.255,-23.467,-9.349,6.449,12.3,0.349],[-57.763,-31.782,-27.999,-25.619,-23.431,-50.634,-29.145,-25.763,-22.92,-22.667,-50.791,-28.67,-26.613,-25.22,-24.28,-54.124,-32.967,-25.11,-22.3,-22.984,-56.886,-33.376,-26.952,-21.376,-18.968,-60.393,-32.336,-23.544,-20.614,-18.563],[-74.937,-40.493,-31.473,-28.345,-26.05,-73.448,-44.277,-33.785,-29.101,-25.822,-74.748,-39.02,-32.234,-28.43,-25.843,-74.164,-44.511,-33.895,-28.668,-24.875,-70.987,-43.944,-34.271,-29.696,-24.831,-76.088,-48.267,-33.574,-27.444,-24.322],[-86.571,-52.619,-39.268,-35.372,-30.752,-84.574,-50.601,-39.676,-33.941,-29.663,-84.784,-51.321,-40.283,-33.291,-29.182,-80.805,-54.436,-41.357,-34.778,-28.989,-83.925,-59.132,-42.221,-36.067,-31.25,-81.934,-62.503,-43.986,-36.489,-31.605],[-89.177,-61.414,-47.654,-39.439,-35.612,-88.354,-60.402,-47.812,-41.22,-33.978,-88.692,-60.695,-48.372,-38.436,-34.337,-87.944,-61.016,-49.089,-40.03,-34.548,-86.652,-66.479,-52.044,-39.593,-35.007,-85.766,-69.539,-54.101,-41.358,-35.747],[-92.197,-66.007,-53.742,-44.757,-38.713,-92.834,-67.218,-53.427,-46.204,-39.025,-92.316,-67.119,-54.286,-45.09,-40.076,-91.131,-69.213,-57.217,-46.006,-39.828,-90.223,-71.064,-56.397,-47.501,-39.557,-89.352,-73.967,-58.974,-48.65,-40.975]],
"vp": [[-146.508,-1055.118,-297.853,-212.993,-425.476,-45.942,-53.226,-66.827,-80.611,-145.047,-23.482,-57.929,-17.48,-14.634,-40.615,-9,-0.593,-3.35,-13,-5.019,-1.897,-5.429,-6.36,0.135,-4.8,-1.131,-1.333,-5.159,-5.155,-0.392],[3063.554,286.478,145.91,-86.117,-624.387,420.567,37.557,77.443,-85.847,-236.845,156.416,18.337,-8.923,-48.646,-51.039,28.284,22.726,5.53,-9.454,-15.636,12.668,7.607,-3.245,-9.772,-11.897,10.303,-2.152,-3.365,-5.324,-4.156],[4893.344,1759.648,1103.913,145.146,-66.87,930.423,573.457,298.075,106.108,-62.275,428.572,148.587,72.005,33.954,-13.274,83.22,43.045,28.432,12.35,-8.681,32.337,10.147,5.743,6.229,-3.766,12.775,11.627,1.137,0.734,-5.437],[6775.542,4598.105,2977.374,2270.715,1058.664,1191.027,824.296,491.326,377.013,243.407,656.265,369.036,275.327,164.012,67.339,112.758,89.178,60.492,24.09,24.809,55.962,54.382,23.73,20.632,12.549,20.711,24.54,10.853,9.582,12.918],[7104.977,6321.39,5339.429,3190.759,3148.368,1342.254,1138.16,950.24,860.95,454.391,672.904,618.689,486.391,315.273,205.68,124.766,108.821,106.375,73.05,41.47,59.301,64.102,57.619,29.443,28.096,23.657,31.232,24.533,10.04,10.829],[7900.607,8001.49,6896.815,5449.016,4605.648,1563.356,1381.77,1335.422,1120.48,947.583,747.246,729.651,691.823,488.405,473.644,145.196,164.078,136.583,116.564,71.729,65.054,81.836,67.024,52.333,39.974,31.683,33.402,26.398,26.847,21.912]]
}