{
"KTrans": [[1.651,10.924,8.432,7.318,9.651,6.331,2.133,10.045,8.341,11.229,18.166,12.296,10.226,15.256,9.079,47.475,28.012,29.91,22.112,19.725,-36.036,51.371,34.723,44.913,38.257,-148.839,-11.147,56.033,50.913,93.92],[-37.866,-9.335,2.174,3.84,5.237,-38.348,-2.613,4.554,3.66,6.321,-30.165,-1.635,1.247,4.149,7.534,-16.293,2.642,1.028,5.51,11.098,-29.68,15.978,23.437,20.807,18.946,-1.403,9.312,28.849,47.913,32.242],[-72.346,-20.899,-9.272,-3.072,-0.276,-63.229,-19.751,-9.896,-1.152,-0.266,-67.42,-20.371,-7.601,-2.578,2.081,-52.605,-15.145,-2.838,-0.425,3.429,-52.562,-12.343,-3.88,11.198,8.274,-30.348,-5.574,0.441,28.172,21.912],[-81.948,-36.425,-20.258,-10.858,-4.325,-76.717,-38.867,-24.083,-10.604,-4.988,-81.052,-38.655,-20.97,-10.153,-6.078,-66.419,-35.218,-19.448,-10.131,-3.726,-67.432,-52.314,-6.14,-3.224,-5.312,-67.15,-58.189,-19.428,11.388,6.17],[-85.552,-55.764,-28.676,-19.643,-12.165,-82.9,-53.383,-30.757,-20.189,-11.778,-85.256,-51.53,-28.727,-22.145,-12.7,-87.678,-49.432,-27.719,-17.428,-8.987,-85.429,-42.587,-12.882,-9.509,-8.677,-79.453,-58.479,-48.455,-23.999,0.987],[-89.962,-63.709,-40.239,-27.947,-18.663,-90.387,-59.327,-33.104,-26.219,-19.221,-88.285,-67.611,-39.702,-26.895,-18.308,-83.892,-58.168,-35.411,-27.06,-18.395,-89.251,-62.156,-37.954,-15.912,-15.677,-82.101,-56.64,-38.296,-35.853,-5.654]],
"ve": [[13.398,10.194,23.575,19.201,-13.973,7.644,17.898,22.182,6.729,19.256,-2.171,8.996,56.681,14.523,50.742,18.382,-2.215,-63.34,-29.16,1.111,35.038,745.128,13.031,-17.618,-26.353,141.472,16.525,4.358,-21.472,-19.675],[-18.302,-2.677,0.32,2.02,2.448,-18.26,0.045,0.329,1.592,1.887,-8.448,1.297,1.278,2.297,3.007,12.275,5.136,1.935,2.982,5.471,36.352,17.639,14.488,-0.166,107.899,55.217,50.877,52.082,16.102,-3.684],[-28.877,-9.086,-3.466,-1.335,0.13,-155.83,-7.489,-2.433,-0.636,-0.007,-33.427,-7.205,-2.147,0.25,1.146,-2.522,-4.523,2.818,2.475,2.682,-7.043,5.638,-4.241,8.366,6.352,43.168,37.989,18.615,21.999,17.153],[-45.842,-16.104,-8.161,-3.454,-1.558,-40.389,-15.026,-8.279,-3.899,-1.443,-43.017,-18.289,-6.776,-3.094,-1.558,-20.504,-9.606,-6.903,-1.765,0.127,-1.181,-2.02,5.664,0.824,0.398,18.274,23.981,22.161,15.15,-1.789],[-47.764,-26.391,-11.414,-7.106,-4.454,-39.532,-24.537,-11.256,-7.469,-3.91,-44.245,-23.277,-10.163,-7.361,-4.341,97.179,-16.825,-6.886,-3.552,-1.868,-25.056,4.595,3.22,0.963,-0.321,40.696,10.763,16.204,17.176,4.626],[-55.747,-30.628,-17.062,-10.974,-6.547,-52.867,-29.807,-14.699,-10.984,-6.58,-46.199,-34.03,-16.799,-9.837,-6.578,-28.245,-19.251,-13.093,-9.622,-5.79,-32.1,-16.749,-7.472,-0.783,-4.87,10.327,28.847,-4.851,-8.232,-7.199]],
"kep": [[-19.633,-11.07,-15.091,-18.133,-18.198,-14.35,-20.352,-14.687,-18.501,-13.584,-6.683,-9.068,-16.517,-7.913,-21.746,-11.008,-5.073,-2.128,-7.584,-11.099,-13.199,-10.255,-29.518,-0.286,-5.225,7.316,26.497,-36.266,-51.375,24.491],[-40.509,-21.681,-14.05,-14.011,-12.995,-44.474,-18.445,-12.036,-13.745,-11.581,-40.417,-18.708,-15.639,-13.814,-11.494,-47.669,-22.804,-18.407,-14.462,-11.082,-47.653,-28.858,-13.905,-11.29,-7.923,-37.906,-20.434,-40.125,-13.071,-19.761],[-69.972,-27.728,-20.973,-17.063,-15.929,-64.989,-28.142,-22.309,-16.08,-15.799,-69.532,-29.003,-20.572,-18.128,-14.823,-65.373,-31.715,-21.824,-19.077,-15.568,-64.297,-39.348,-29.764,-15.413,-15.455,-64.582,-36.611,-32.316,-22.268,-17.654],[-82.987,-38.118,-27.615,-22.222,-18.09,-77.432,-40.766,-30.586,-21.645,-18.721,-81.963,-40.163,-29.192,-22.056,-19.533,-73.544,-47.947,-30.047,-23.87,-19.499,-72.906,-57.747,-31.131,-23.78,-23.301,-74.38,-61.134,-40.985,-29.919,-29.619],[-84.475,-51.368,-33.082,-27.269,-22.528,-83.408,-51.532,-35.033,-27.486,-22.677,-85.978,-52.175,-34.072,-29.368,-23.212,-84.282,-60.265,-36.82,-28.928,-22.442,-80.953,-56.379,-35.667,-28.552,-25.355,-81.119,-61.681,-45.748,-43.689,-34.02],[-89.122,-61.95,-40.256,-32.161,-26.771,-90.442,-58.878,-35.51,-30.855,-27.142,-87.24,-64.474,-40.216,-32.115,-26.446,-83.974,-67.01,-40.882,-33.441,-28.095,-83.102,-67.718,-55.715,-31.93,-28.774,-83.878,-69.998,-40.769,-47.539,-37.212]],
"vp": [[-4.52,-409.585,-136.756,-184.69,-321.169,4.683,29.132,-45.304,-35.047,-65.819,-40.073,-17.85,-37.209,-34.519,-20.476,-44.626,-21.836,-21.865,-17.358,-4.677,-26.191,-23.311,-7.04,-17.148,-17.445,-32.886,-22.299,-33.133,-20.514,-31.499],[2086.88,723.255,-259.698,-316.167,-341.074,457.715,13.994,-44.187,-35.763,-95.212,152.607,5.92,-12.271,-22.448,-52.081,-15.943,-1.045,22.377,9.06,-16.221,-30.448,-20.619,-28.186,-21.73,-19.275,-16.641,-48.376,-17.035,-33.147,-11.881],[4803.415,1851.246,994.813,288.579,103.762,793.058,361.988,150.694,56.693,32.085,435.912,182.327,53.949,32.311,-48.777,31.976,27.09,-4.234,-2.338,-2.852,19.751,-5.443,17.408,-26.982,-13.537,-12.847,-30.937,-17.356,-28.041,-15.866],[5725.281,3574.63,2607.916,1156.468,450.092,909.23,663.114,551.513,244.763,140.947,538.015,410.664,215.838,145.046,77.859,58.259,60.57,63.32,21.318,9.163,16.795,27.373,-10.352,3.808,20.891,3.839,-10.092,-30.22,-19.072,6.996],[5399.022,5870.226,3504.361,2729.962,1817.632,966.715,1124.13,714.745,646.786,313.85,555.648,566.565,336.278,295.392,212.637,126.086,99.137,55.31,40.96,23.868,47.912,-3.75,0.287,1.349,15.16,-8.999,6.804,-14.474,-29.22,-1.165],[6643.399,7160.293,5539.855,4548.155,3147.353,1316.788,1385.909,944.645,985.227,617.966,596.051,822.888,562.382,391.842,309.418,84.85,100.422,101.151,98.464,73.046,65.639,54.455,39.026,11.958,43.989,11.109,-23.74,28.219,2.113,2.747]]
}