{
"KTrans": [[-31.2,-13.622,-0.609,-2.874,0.089,-27.763,-8.408,-0.843,1.5,-3.943,-38.508,-1.936,1.51,-0.274,1.403,-39.269,-2.981,4.056,-2.109,4.078,-31.88,1.757,-5.002,-2.6,-0.272,-29.375,-10.179,1.466,-0.061,1.592],[-84.475,-37.373,-16.737,-12.414,-11.848,-88.344,-42.143,-18.471,-15.399,-8.469,-85.702,-44.927,-18.36,-14.177,-16.033,-87.185,-44.642,-12.585,-15.908,-16.719,-89.819,-38.199,-24.721,-16.107,-10.452,-89.549,-44.974,-20.238,-15.034,-15.805],[-95.294,-68.705,-41.544,-33.16,-19.215,-97.675,-82.578,-38.784,-26.883,-21.772,-93.295,-80.09,-45.408,-29.078,-25.661,-95.318,-78.093,-41.834,-20.245,-16.698,-93.222,-75.915,-32.905,-15.591,-18.193,-94.195,-76.989,-27.261,-17.843,-20.26],[-98.648,-86.608,-67.329,-36.406,-30.267,-98.588,-80.322,-55.177,-42.684,-26.64,-98.696,-78.893,-73.418,-33.018,-22.285,-98.368,-86.92,-58.826,-40.61,-21.596,-98.312,-85.921,-58.903,-34.759,-27.62,-97.489,-85.428,-65.993,-35.861,-20.77],[-100.972,-90.632,-77.449,-61.216,-28.206,-97.076,-91.652,-76.962,-56.762,-40.346,-101.111,-89.199,-77.752,-55.307,-35.707,-100.597,-94.563,-76.622,-53.178,-37.106,-98.679,-91.881,-70.853,-44.886,-39.873,-101.157,-94.279,-83.167,-51.532,-37.673],[-100.712,-95.76,-77.857,-67.862,-41.208,-102.073,-91.756,-86.403,-67.712,-46.703,-102.039,-95.099,-76.496,-71.337,-44.934,-101.082,-93.978,-78.122,-71.222,-39.821,-101.686,-97.783,-76.57,-78.601,-53.949,-100.838,-92.494,-86.725,-72.183,-40.219]],
"ve": [[4.761,28.069,-15.569,-0.013,-20.71,-15.564,-14.245,0.865,20.852,1277.449,-24.191,-257.537,107.914,-0.909,70.945,-33.995,-1.528,13.141,70.962,14.005,-18.746,10.286,-9.051,107.797,-15.219,330.154,-404.654,32.193,68.634,-18.144],[-66.281,-24.227,-14.512,-7.552,-6.135,-62.582,-24.824,-12.042,-8.668,-4.841,-70.878,-26.578,-14.883,-7.803,-5.815,-71.21,-28.16,-13.35,-10.131,-4.317,-105.619,-27.659,-13.774,-6.86,-4.376,-77.235,-23.645,-13.089,-8.962,-4.659],[-86.7,-53.52,-33.793,-24.342,-16.308,-95.295,-60.127,-35.349,-21.388,-15.281,-91.114,-337.793,-33.191,-21.12,-16.234,-70.231,-59.318,-31.904,-20.446,-16.375,-75.778,-48.25,-28.357,-19.352,-13.228,-69.724,-55.617,-28.874,-19.28,-14.681],[-102.177,-80.151,-53.944,-29.88,-25.982,-74.857,-68.345,-47.647,-37.227,-23.464,-92.465,-65.586,-56.346,-27.318,-21.851,-102.087,-72.757,-54.357,-31.765,-19.458,-93.693,-92.453,-51.773,-30.885,-23.584,-99.875,-1690.837,-53.203,-25.601,-20.562],[-111.588,-90.449,-64.651,-50.233,-33.236,-120.542,-84.607,-63.599,-52.383,-31.741,-119.298,-82.407,-52.666,-47.326,-32.621,-95.857,-87.504,-60.585,-44.34,-31.999,-103.714,-87.04,-65.201,-43.935,-29.6,-97.176,-85.838,-66.133,-47.203,-30.872],[-151.839,-77.425,-68.816,-190.463,-37.545,-110.334,-80.314,-87.892,-59.479,-43.953,-126.188,-87.2,-64.733,-61.798,-43.351,-104.348,-97.868,-70.366,-58.545,-41.997,-105.39,-95.57,-66.918,-64.317,-44.625,-112.269,-87.275,-71.663,-62.675,-31.827]],
"kep": [[-36.291,-14.257,-9.153,-7.939,-5.824,-30.262,-13.576,-8.82,-10.21,-18.593,-37.037,-2.521,-0.928,-4.579,-3.932,-44.989,-5.528,-1.251,-6.541,0.242,-37.355,-1.179,-15.528,-7.654,-6.469,-32.492,-12.023,0.484,-7.283,-4.944],[-83.554,-21.101,-3.273,-5.046,-5.044,-94.397,-26.803,-8.217,-7.678,-3.304,-90.222,-29.455,-4.984,-6.712,-11.026,-95.566,-25.798,-1.36,-6.866,-11.713,-91.22,-18.82,-13.807,-9.402,-5.593,-93.756,-28.848,-10.427,-6.429,-11.001],[-91.444,-64.729,-18.107,-11.181,-3.804,-93.609,-76.974,-11.844,-6.953,-8.307,-88.504,-76.522,-21.44,-9.71,-11.325,-90.96,-72.613,-18.941,-2.363,-0.765,-94.069,-69.988,-14.425,3.141,-7.019,-89.722,-70.004,-9.133,0.316,-6.684],[-95.339,-89.766,-60.309,-11.324,-6.129,-93.617,-78.796,-43.385,-10.379,-4.128,-90.294,-77.979,-54.915,-10.146,-4.727,-93.47,-91.879,-45.331,-14.318,-3.889,-92.393,-87.909,-49.268,-9.579,-7.366,-94.256,-84.651,-49.549,-11.154,-2.428],[-92.63,-87.545,-77.874,-36.264,-2.024,-92.044,-88.354,-74.115,-36.107,-12.911,-93.224,-87.61,-78.348,-31.125,-5.864,-95.783,-92.565,-81.74,-34.817,-8.148,-92.928,-87.418,-75.093,-31.89,-15.319,-95.09,-93.337,-76.741,-35.084,-11.113],[-95.312,-85.123,-77.381,-59.22,-23.027,-94.77,-83.392,-88.086,-68.171,-19.448,-93.04,-80.978,-79.908,-59.494,-21.547,-93.696,-86.219,-83.724,-58.261,-20.629,-96.185,-86.782,-78.49,-74.827,-25.775,-95.084,-83.398,-85.006,-67.864,-21.633]],
"vp": [[2342.558,2608.768,2100.683,2158.504,1607.384,539.27,413.65,275.635,388.779,475.894,264.406,232.998,189.075,141.696,144.872,57.246,37.535,27.569,39.156,50.529,26.003,18.7,18.74,18.05,15.992,11.163,9.886,6.839,7.781,6.588],[6628.535,6315.608,5841.308,4798.268,5911.142,1474.458,1261.244,1136.945,1223.297,1201.841,691.118,634.145,596.984,466.253,564.009,155.442,137.489,118.504,115.099,98.426,75.076,67.61,56.118,60.809,52.897,39.847,34.326,26.206,31.895,23.126],[8788.083,11475.107,11801.239,11184.666,10523.881,2008.855,2804.796,2436.234,1958.216,1971.921,846.996,1319.396,1153.523,987.139,853.533,178.849,263.813,216.26,212.331,214.063,88.128,118.422,102.309,98.655,74.898,41.962,61.507,46.376,46.716,43.232],[9960.813,16432.814,17099.664,12510.217,14346.757,2049.957,2538.748,3070.94,3255.135,2629.328,963.215,1277.338,1771.154,1251.604,1297.914,188.091,324.682,340.701,268.054,214.511,101.522,152.226,164.015,133.398,138.484,46.669,75.101,91.008,71.487,59.894],[10469.518,18734.674,20330.116,21265.147,18702.509,1905.011,3763.219,4046.906,4522.6,3383.706,1094.012,1642.022,1847.98,2006.448,1767.684,222.625,355.509,402.975,361.91,335.044,103.35,169.401,204.495,172.88,153.007,55.844,92.068,105.323,102.869,83.808],[10728.78,18001.562,21253.043,25527.574,19851.385,2204.196,3206.894,5024.079,4988.131,4754.533,1135.669,1861.869,1965.87,2648.071,2296.498,216.651,355.289,441.013,474.962,455.589,112.228,191.396,200.437,271.466,234.014,53.047,89.777,111.51,122.852,113.882]]
}