{
"KTrans": [[1.906,3.776,1.585,-2.566,4.892,12.546,9.815,6.07,5.387,4.427,17.877,13.35,15.804,11.412,10.424,151.727,99.534,75.887,65.982,61.943,384.418,219.262,173.213,150.282,140.669,660.976,534.227,433.193,373.397,343.759],[-29.585,0.029,1.871,1.096,-1.205,-23.689,5.3,6.205,2.094,1.937,-14.637,12.809,8.186,8.738,4.736,51.182,60.625,43.7,37.525,32.221,105.001,140.743,97.309,78.653,67.147,200.558,340.171,228.685,173.886,152.642],[-50.146,-2.697,-0.152,2.314,0.973,-51.251,2.562,4.19,3.983,3.066,-48.064,7.587,5.544,5.727,5.22,-14.372,52.143,39.9,27.977,26.484,24.921,111.451,87.882,63.429,57.005,28.809,251.371,216.919,147.917,122.692],[-72.718,-9.092,0.662,2.098,2.461,-67.487,-2.512,3.315,2.131,3.344,-64.032,2.89,10.409,6.131,3.944,-37.447,47.914,40.997,29.806,25.906,-34.12,101.27,86.821,70.897,54.043,-48.716,187.527,201.255,159.289,114.331],[-76.191,-12.582,0.48,4.82,-0.267,-70.439,-9.631,-0.227,1.594,2.38,-71.339,-0.279,5.442,5.192,3.492,-54.265,28.206,37.133,33.392,23.036,-41.138,80.832,83.992,68.572,49.349,-64.456,108.825,191.42,134.53,106.703],[-82.794,-20.763,-0.262,2.908,-1.229,-82.515,-16.391,-1.094,0.087,1.265,-79.061,-17.831,4.542,5.826,4.298,-69.149,12.451,34.233,29.357,22.604,-57.267,51.408,81.999,62.613,47.764,-83.121,68.034,156.114,132.924,105.423]],
"ve": [[17.771,9.413,11.024,20.907,43.518,10.998,4.519,12.8,8.247,30.459,18.043,5.98,2.722,5.832,11.591,47.664,15.387,2.081,-7.619,-14.806,97.72,35.16,9.886,-5.348,-16.153,198.182,81.918,35.762,9.769,-5.35],[5.302,2.664,1.104,0.737,1.883,128.583,2.124,1.851,2.438,1.599,13.58,5.569,4.155,1.809,1.999,50.975,23.848,14.734,9.385,5.082,104.428,48.117,30.748,20.4,13.366,195.211,96.422,62.287,41.476,29.76],[6.125,1.411,0.375,0.742,0.231,14.962,3.473,2.096,1.271,0.785,14.708,5.363,3.988,3.007,1.799,56.826,24.605,16.539,11.423,8.945,96.45,50.29,32.169,24.001,17.665,202.358,99.585,64.669,47.011,36.076],[9.256,0.643,0.17,0.822,0.602,12.367,4.219,2.357,1.265,0.595,17.396,6.731,4.042,2.703,1.833,48.099,27.812,16.984,12.383,10.099,104.245,52.767,32.899,23.883,18.707,202.174,99.834,65.999,48.619,38.059],[11.217,1.309,0.534,1.131,0.911,5.591,3.771,3.137,1.516,1.305,8.9,8.263,3.791,3.211,1.607,53.182,23.802,17.555,12.512,9.76,94.514,52.39,33.251,24.849,19.095,224.538,101.484,67.504,49.464,38.272],[-36.022,2.14,0.819,0.228,0.754,-29.672,3.12,1.462,0.912,1.608,8.831,5.93,3.293,2.482,1.553,62.521,34.1,17.07,13.203,10.418,100.763,52.057,33.915,25.094,19.509,202.454,101.736,63.365,50.701,38.762]],
"kep": [[-2.933,1.769,1.509,-6.091,9.89,5.627,10.063,5.623,8.428,5.963,3.523,10.324,20.244,16.833,15.76,73.003,76.273,76.542,85.848,99.431,146.501,138.01,151.44,167.864,191.009,153.287,250.092,294.309,333.112,370.409],[-32.996,-1.964,1.109,0.805,-2.57,-30.104,3.676,4.514,0.106,0.914,-25.408,7.361,4.176,7.452,3.075,-1.336,30.354,25.542,26.13,26.263,-0.344,62.299,51.215,48.741,47.8,-1.54,120.653,101.958,93.543,95.009],[-53.195,-3.887,-0.211,1.738,0.855,-57.102,-0.535,2.192,2.78,2.396,-55.63,2.364,1.673,2.76,3.472,-44.959,22.255,20.164,15.096,16.116,-39.794,40.394,42.164,31.856,33.483,-54.608,75.158,91.82,68.313,63.543],[-75.623,-9.613,0.641,1.416,1.952,-72.644,-6.301,1.07,0.896,2.873,-68.714,-3.304,6.129,3.403,2.146,-60.548,15.65,20.505,15.571,14.462,-67.815,31.332,40.607,38.002,29.786,-81.564,43.366,80.771,74.104,55.005],[-78.725,-13.511,-0.021,3.756,-1.09,-74.144,-12.598,-3.246,0.057,1.108,-76.527,-7.418,1.701,1.981,1.895,-70.913,0.523,16.67,18.554,12.139,-71.309,18.582,37.889,34.897,25.362,-87.546,2.423,72.767,56.531,49.159],[-84.535,-22.166,-1.055,2.616,-1.89,-85.161,-18.925,-2.395,-0.762,-0.286,-82.355,-22.789,1.114,3.278,2.746,-80.909,-10.995,14.784,14.211,11.08,-79.394,-1.066,35.614,29.778,23.462,-93.687,-16.194,52.64,54.037,47.578]],
"vp": [[342.84,233.074,-185.632,137.276,-3.256,97.294,-0.121,11.045,-3.951,-36.677,36.316,6.695,-2.818,-33.211,1.95,-15.093,-13.385,-8.451,-8.536,-12.074,-5.022,-7.501,-11.753,-14.762,-10.738,-10.503,-18.362,-16.797,-19.062,-10.436],[2946.594,529.587,-133.119,310.914,-517.947,607.128,54.943,-11.686,5.74,-46.604,306.203,60.869,23.126,18.747,-14.273,48.376,-1.764,-14.948,-12.16,-10.28,20.406,-5.948,-1.231,-4.828,-5.261,-1.629,-9.854,-11.883,-15.849,-10.565],[4739.67,1734.087,907.349,320.518,-2.226,1012.544,421.027,152.849,72.237,18.535,519.215,175.122,5.292,20.611,-0.497,99.846,30.643,4.074,-21.016,-5.89,41.349,0.969,-11.421,-10.156,-6.896,0.076,-1.538,-5.974,-17.875,-10.863],[6425.963,3493.034,1073.643,484.556,515.98,1197.153,541.48,289.911,129.491,191.816,573.393,355.328,128.954,27.658,28.586,95.61,62.332,16.164,-5.858,-1.673,52.791,33.58,3.279,2.617,-5.776,14.101,3.407,-4.153,0.586,-12.28],[7257.842,5488.606,2241.1,1500.671,769.599,1355.025,995.137,385.481,145.892,170.318,687.617,625.393,184.772,127.34,32.797,113.653,106.254,36.029,27.912,-11.519,51.217,46.239,5.307,0.18,-5.166,16.584,18.911,3.271,-9.284,-9.353],[7402.903,7040.25,3179.228,1893.101,779.152,1556.502,1511.357,723.773,266.982,187.309,714.262,700.474,393.879,214.559,72.396,135.79,123.809,55.124,24.615,12.528,56.824,69.732,35.933,13.461,-2.581,27.01,24.013,3.757,-1.526,-11.281]]
}