{
"KTrans": [[-17.184,-8.887,-8.87,-7.574,-2.365,-21.361,-11.537,-8.032,-7.755,-9.246,-15.936,-7.845,-8.841,-6.117,0.063,-21.233,-8.8,-5.316,-4.811,-5.278,-17.612,-8.062,-8.33,-6.038,-2.636,-18.835,-11.403,-7.479,-7.951,-5.988],[-27.419,-26.645,-23.075,-15.578,-11.922,-42.026,-28.91,-13.164,-18.089,-11.305,-39.754,-26.914,-20.25,-14.906,-12.136,-44.455,-21.574,-18.974,-16.352,-12.157,-12.882,-27.645,-16.068,-17.456,-15.713,-45.472,-29.845,-19.814,-17.731,-11.473],[-84.795,-25.219,-30.47,-20.063,-17.29,-61.107,-24.577,-30.134,-20.211,-21.604,-56.392,-26.873,-29.799,-17.139,-18.638,-92.944,-26.022,-32.994,-21.981,-17.633,-56.746,-33.481,-29.951,-24.168,-19.388,-23.427,-35.645,-24.985,-20.405,-20.114],[-72.19,-43.531,-36.53,-28.726,-22.689,-71.191,-54.872,-34.022,-34.518,-26.69,-66.111,-55.922,-28.781,-23.159,-22.33,-105.676,-57.645,-29.328,-27.392,-22.795,-85.945,-26.909,-34.327,-26.421,-26.254,-89.872,-40.111,-34.808,-22.499,-20.362],[-78.806,-58.837,-21.961,-22.825,-36.578,-108.186,-64.133,-20.05,-31.025,-30.503,-93.75,-43.572,-27.304,-30.304,-30.555,-89.609,-31.087,-23.422,-26.209,-27.693,-111.741,-92.702,-44.988,-29.416,-26.812,-85.636,26.586,-27.756,-33.715,-27.655],[-115.957,-70.342,-65.967,-14.779,-26.591,-87.135,-86.518,-43.489,-29.306,-32.434,-97.629,-68.745,-27.492,-35.225,-39.31,-101.111,-78.249,-49.071,-22.36,-23.772,-108.638,-77.876,-54.59,-19.177,-29.044,-84.236,-56.455,-47.43,-10.95,-25.654]],
"ve": [[-13.739,-3.419,3.737,10.788,15.662,-14.319,-3.492,3.702,11.206,28.512,-14.494,-3.364,3.939,11.13,13.851,-13.951,-3.006,2.595,8.547,23.171,-13.853,-3.212,3.391,8.93,17.534,-13.614,-2.92,2.94,10.768,22.194],[-45.011,-23.847,-15.28,-9.26,-5.456,-50.699,-22.979,-13.118,-9.817,-5.774,-50.021,-23.002,-13.852,-8.954,-6.442,-52.601,-20.159,-13.201,-8.936,-5.657,-35.912,-22.55,-12.552,-8.53,-5.93,-51.319,-22.629,-14.131,-8.907,-5.611],[-86.086,-36.083,-27.46,-19.645,-13.999,-77.544,-30.445,-28.123,-19.439,-15.054,-82.724,-35.31,-27.694,-15.576,-12.649,-91.765,-30.495,-29.56,-16.275,-12.008,-73.634,-38.136,-24.328,-17.591,-14.027,-60.992,-36.572,-25.805,-18.656,-13.204],[-91.925,-57.486,-37.282,-26.58,-21.308,-90.658,-52.398,-37.527,-27.441,-21.745,-91.264,-62.908,-33.026,-28.177,-20.691,-113.037,-55.559,-36.816,-23.857,-19.672,-100.895,-48.493,-37.882,-25.171,-21.506,-98.289,-60.541,-37.645,-22.719,-19.622],[-117.791,-76.294,-36.938,-26.972,-31.452,-118.773,-84.825,-42.16,-34.718,-27.848,-112.014,-68.105,-43.044,-33.786,-29.883,-121.435,-79.561,-44.333,-32.587,-28.575,-124.174,-87.731,-52.893,-32.943,-22.821,-112.446,-63.001,-42.953,-34.55,-24.501],[-134.11,-88.686,-64.19,-37.237,-32.059,-138.064,-98.266,-61.858,-44.586,-32.548,-108.46,-84.557,-52.442,-50.475,-36.263,-125.56,-80.75,-61.238,-37.641,-27.139,-128.89,-82.99,-56.591,-39.793,-33.031,-127.678,-69.915,-60.732,-39.625,-27.656]],
"kep": [[-3.568,-5.319,-10.278,-12.19,-7.754,-7.811,-7.875,-9.29,-12.471,-18.333,-1.598,-4.32,-10.287,-10.467,-4.45,-7.986,-5.618,-6.076,-8.346,-12.56,-4.338,-4.681,-9.625,-10.253,-7.948,-5.846,-8.361,-8.617,-12.578,-13.1],[9.291,-1.897,-8.552,-6.858,-6.778,1.225,-5.584,-0.086,-8.905,-5.737,0.142,-3.261,-7.132,-6.466,-5.879,-3.68,-1.33,-6.451,-8.022,-6.689,13.076,-5.23,-3.992,-9.821,-10.177,-0.358,-7.401,-6.19,-9.501,-6.185],[-59.602,25.677,-1.575,-0.173,-3.624,-54.21,16.453,-0.446,-0.458,-7.167,-58.901,22.94,-1.092,-2.29,-6.664,-69.546,16.53,-1.692,-6.118,-6.478,-50.722,21.544,-4.921,-7.529,-6.151,-42.893,17.111,2.115,-1.678,-7.75],[-55.563,-16.953,10.042,-0.511,-0.88,-56.149,-32.14,13.726,-6.174,-5.107,-49.111,-28.254,12.795,7.879,-1.325,-59.057,-31.66,17.337,-3.322,-3.68,-56.983,-15.382,13.481,0.603,-4.935,-57.037,-19.94,12.776,1.223,-0.76],[-61.417,-47.391,2.361,7.527,-3.022,-66.534,-69.194,10.82,11.713,-1.153,-62.391,-44.782,9.093,10.836,1.82,-53.023,-52.588,16.781,13.212,3.118,-68.686,-64.278,-6.894,10.969,-4.183,-63.403,-41.218,6.121,6.287,-2.295],[-74.675,-58.955,-43.943,71.72,12.408,-68.077,-53.168,-36.492,73.035,5.047,-69.229,-48.597,-30.596,84.664,2.924,-65.879,-57.702,-42.501,61.059,6.463,-67.164,-50.426,-40.426,70.775,9.859,-66.104,-48.888,-37.914,86.007,5.296]],
"vp": [[1762.949,1900.558,1511.169,1557.086,1891.352,332.175,382.547,332.788,320.751,329.454,191.41,186.826,177.198,177.282,216.144,32.23,33.185,34.015,31.495,38.592,17.09,17.744,15.632,17.413,17.744,8.113,7.966,9.907,7.248,8.301],[4266.244,5479.04,5363.456,5080.299,4742.61,1069.42,989.371,1060.805,1079.885,1055.318,531.508,514.286,485.484,500.312,609.62,105.694,89.433,92.317,95.86,101.227,37.981,48.031,46.464,41.808,49.202,27.083,23.513,25.569,22.691,25.132],[8662.901,7676.693,9121.194,9670.406,8879.74,1564.846,1206.968,1883.522,1920.604,1790.74,842.297,738.743,920.508,706.374,738.855,185.82,122.692,196.707,139.272,134.625,73.56,79.684,75.911,73.733,83.07,30.479,37.649,43.699,44.936,37.315],[9141.73,12091.761,11658.06,11619.26,12439.638,1836.134,2117.334,2386.211,2229.805,2372.869,929.902,1341.749,1064.495,1335.993,1186.476,229.363,223.152,241.249,192.87,212.745,102.976,100.43,120.467,110.221,116.86,48.931,63.931,60.781,48.962,56.35],[11990.974,15899.861,11501.28,10819.841,16721.943,2367.248,3474.371,2750.199,2999.472,2957.222,1120.77,1386.87,1315.681,1434.062,1655.99,245.017,320.635,281.304,282.135,319.404,123.438,179.754,155.181,140.599,113.084,56.774,66.106,66.376,71.407,63.695],[13482.932,18100.814,19767.094,15948.145,17739.824,2794.856,4142.362,3769.683,3770.516,3373.062,1075.991,1742.892,1623.544,2157.384,1862.089,253.445,316.828,375.946,311.409,280.141,130.577,168.633,167.406,167.858,178.656,64.883,70.174,93.633,87.653,68.86]]
}