{
"KTrans": [[20.826,22.064,23.703,26.14,25.409,21.72,16.578,14.394,17.112,22.612,31.935,20.582,29.178,34.261,25.637,55.012,45.978,45.397,44.983,38.54,70.735,71.597,80.238,67.015,64.449,160.829,137.351,133.263,94.814,135.087],[-54.147,-13.737,1.936,9.833,12.485,-36.539,-0.633,4.447,14.156,12.852,-36.106,-5.41,3.617,10.655,13.334,-31.555,10.029,9.56,14.384,21.96,-20.296,5.334,19.34,24.024,34.14,3.575,39.341,37.789,49.474,43.364],[-77.012,-31.434,-16.612,-7.09,3.678,-72.559,-32.649,-16.719,-8.61,2.375,-71.297,-37.175,-14.485,-7.102,0.08,-68.223,-30.418,-12.868,-1.518,6.902,-57.523,-23.341,-7.223,4.642,11.328,-44.16,-10.889,18.73,8.227,23.099],[-86.101,-54.943,-31.544,-19.986,-10.162,-82.987,-54.288,-35.218,-22.238,-7.928,-84.261,-49.03,-29.81,-21.156,-8.928,-75.022,-48.048,-30.729,-16.102,-5.907,-71.288,-48.322,-25.129,-12.902,-3.392,-53.952,-36.285,-20.973,-4.483,8.81],[-86.797,-66.783,-50.509,-35.352,-24.224,-86.732,-65.968,-45.25,-30.197,-19.264,-84.834,-62.661,-37.622,-31.565,-22.35,-81.026,-62.378,-44.097,-31.161,-17.441,-79.196,-62.786,-41.313,-27.208,-17.295,-65.979,-49.278,-32.465,-19.865,-8.15],[-93.419,-74.787,-54.64,-42.325,-31.627,-91.07,-71.465,-54.269,-43.369,-31.49,-91.246,-74.978,-56.326,-42.972,-29.178,-88.751,-68.778,-55.753,-39.6,-28.575,-78.777,-70.045,-55.083,-38.198,-26.157,-76.975,-60.29,-51.788,-35.351,-21.856]],
"ve": [[-39.172,5.503,30.04,-24.371,-72.21,-77.521,-50.184,-14.654,1268.846,-152.613,-30.6,139.633,-45.653,24.752,130.35,-3.795,234.09,30.733,-89.574,-85.093,383.952,-128.448,44.988,-110.173,-0.128,625.238,41.187,0.153,-13.074,-11.172],[-1.947,-11.469,7.543,8.153,16.549,-17.246,-1.545,-7.78,7.019,17.286,-6.75,-0.867,4.913,9.857,15.885,-0.474,17.823,10.688,15.097,26.508,41.648,88.338,19.112,26.915,22.913,90.808,53.226,-202.869,-137.771,36.639],[-150.704,-40.475,-5.844,-1.272,0.876,-24.737,-5.967,-5.734,-1.612,-0.901,-19.471,-11.115,-1.7,-1.008,1.736,-73.228,-1.03,1.062,4.193,4.639,-168.845,17.187,7.711,10.759,11.003,71.925,26.454,30.455,20.87,19.52],[-27.16,-16.495,-12.424,-7.502,-3.944,-25.793,-17.644,-12.482,-7.532,-4.062,-45.322,-18.503,-7.822,-6.615,-3.214,-23.293,-3.015,-4.878,-1.916,1.716,9.643,-1.297,4.225,3.887,4.433,68.629,18.2,8.422,13.903,16.072],[-2.311,-24.202,-17.028,-12.322,-8.102,-55.33,-25.46,-16.561,-9.696,-7.39,-35.766,-19.309,-13.736,-11.368,-7,13.781,-8.803,-8.821,-6.473,-3.738,-4.126,2.795,-3.542,-1.612,-0.108,86.911,11.978,7.524,4.756,10.017],[-71.302,-25.21,-22.472,-14.191,-11.767,-215.777,-24.122,-18.798,-16.634,-10.381,-72.408,-34.339,-19.362,-15.145,-9.858,-32.291,-13.819,-11.951,-9.116,-6.542,6.58,-20.278,-11.2,-4.67,-2.701,67.093,13.471,5.864,5.488,10.324]],
"kep": [[-33.984,-39.863,-46.954,-52.309,-60.156,-39.579,-43.478,-56.324,-63.645,-62.23,-35.665,-40.262,-40.034,-41.984,-61.247,-29.681,-30.949,-34.883,-39.661,-48.828,-50.125,-32.039,-22.117,-25.851,-35.701,-44.839,-26.62,-14.126,-46.014,9.172],[-74.308,-48.676,-42.579,-39.039,-39.559,-64.333,-39.479,-39.999,-35.579,-41.486,-65.246,-44.636,-41.391,-39.156,-40.558,-69.067,-44.201,-41.05,-40.214,-37.727,-68.104,-49.259,-41.662,-38.1,-33.843,-77.652,-49.284,-41.243,-33.915,-36.111],[-85.147,-54.783,-48.029,-44.266,-39.184,-84.028,-58.071,-47.715,-45.068,-39.174,-82.733,-57.526,-48.629,-45.004,-41.958,-84.87,-60.397,-49.566,-44.32,-39.719,-85.17,-61.538,-49.679,-44.764,-40.998,-85.474,-67.286,-47.981,-48.07,-39.929],[-90.973,-68.419,-54.506,-49.35,-45.145,-89.25,-67.439,-56.658,-50.693,-43.635,-91.327,-64.921,-55.399,-50.643,-44.68,-86.889,-67.316,-57.342,-49.757,-45.781,-88.692,-72.407,-58.33,-51.361,-46.006,-88.3,-76.288,-62.778,-51.942,-45.618],[-91.781,-74.511,-65.013,-56.999,-51.652,-91.94,-75.108,-61.646,-54.787,-48.979,-91.443,-73.425,-58.112,-54.884,-51.074,-90.449,-74.9,-64.44,-57.092,-49.797,-93.249,-79.47,-66.016,-56.948,-51.882,-90.743,-79.119,-68.435,-59.414,-52.32],[-95.581,-80.911,-65.998,-60.529,-54.703,-95.687,-78.63,-67.457,-60.454,-55.283,-94.968,-80,-68.594,-60.654,-54.1,-93.514,-79.827,-70.807,-61.437,-55.376,-91.472,-82.987,-72.286,-62.368,-55.976,-93.995,-85.381,-76.466,-65.182,-58.275]],
"vp": [[-98.564,-428.221,-1030.03,-738.091,-573.04,11.659,25.37,-55.014,-114.92,-49.144,-76.228,-22.636,-58.196,-107.043,-51.06,-0.231,-9.147,-12.658,-6.786,-10.025,-10.599,-2.957,-24.465,-14.808,-9.038,-18.74,-13.445,-13.926,10.573,-18.208],[3608.292,985.432,-65.825,-971.508,-1351.095,385.841,-69.411,-44.594,-366.322,-239.801,181.545,39.484,-11.73,-87.257,-150.321,25.171,-31.687,2.634,-13.192,-32.854,-2.952,16.017,-7.67,-3.413,-32.835,-15.302,-15.007,-7.901,-12.932,4.561],[6190.056,3202.109,2134.868,362.899,-713.825,1009.715,449.448,382.668,312.255,30.411,473.196,416.347,92.837,83.432,12.805,108.488,34.694,36.778,7.184,0.606,28.777,22.572,26.023,-9.316,-12.425,-8.234,9.397,-18.659,16.633,-5.481],[6834.317,5411.189,4269.476,2595.527,1837.26,1205.593,1158.203,905.347,552.815,123.467,638.175,529.265,310.108,341.141,137.979,94.742,114.767,90.939,52.398,19.492,38.899,49.625,25.221,20.101,18.822,-11.699,17.424,24.451,14.189,-3.776],[7095.287,8263.795,7369.903,5380.314,4459.474,1343.193,1615.855,1188.513,813.422,583.054,516.591,665.693,473.802,541.352,382.589,104.057,150.231,122.993,107.297,59.07,64.163,65.146,55.261,47.115,46.035,5.313,21.242,20.899,12.606,8.387],[8234.516,9411.123,9074.309,7058.22,5640.26,1591.955,1610.509,1636.51,1686.543,1234.98,719.266,980.188,873.27,690.288,578.35,136.475,141.535,174.495,139.925,105.451,39.468,96.317,110.176,68.833,51.966,-2.577,22.833,48.747,37.523,21.407]]
}