{
"KTrans": [[-41.824,-76.14,-70.228,-73.913,-70.434,-32.253,-69.448,-73.081,-62.612,-75.253,-26.428,-61.476,-55.501,-64.621,-53.981,72.351,33.923,9.381,31.05,-1.429,138.187,64.436,57.817,60.678,45.131,294.5,230.895,195.444,166.792,146.569],[-53.681,-48.348,-50.148,-62.105,-53.778,-51.961,-40.068,-34.092,-48.675,-56.575,-46.456,-30.772,-25.665,-50.64,-42.607,-20.019,1.488,21.447,13.119,-4.671,-12.562,23.871,46.986,22.14,13.199,23.549,41.909,95.776,63.612,30.855],[-69.169,-47.202,-36.211,-43.73,-53.493,-65.979,-48.751,-38.337,-38.525,-40.797,-65.805,-41.978,-38.416,-26.511,-30.539,-54.002,-17.481,-7.188,2.199,14.281,-42.289,-9.804,2.533,15.016,29.294,-32.225,-1.391,12.196,22.995,59.789],[-78.459,-52.608,-51.764,-49.536,-50.555,-77.16,-48.815,-45.677,-44.134,-39.701,-75.681,-47.985,-49.251,-33.611,-37.617,-71.385,-34.327,-7.172,-7.265,-11.385,-58.901,-33.153,-4.567,2.792,4.711,-48.276,-23.587,2.994,9.307,10.302],[-83.363,-61.344,-49.632,-48.735,-51.46,-81.873,-58.736,-46.056,-49.647,-47.041,-80.037,-55.108,-39.069,-41.229,-36.924,-76.42,-47.935,-22.383,-17.187,-11.957,-71.132,-38.801,-11.979,-0.828,0.898,-58.946,-37.035,-8.543,0.864,4.646],[-85.665,-63.557,-45.088,-41.632,-44.271,-86.375,-63.259,-47.836,-45.723,-48.377,-84.405,-66.594,-44.526,-41.742,-42.341,-80.569,-60.105,-30.51,-15.151,-18.31,-76.232,-50.376,-23.162,-3.048,-3.931,-66.092,-47.287,-16.915,-5.229,5.94]],
"ve": [[-37.864,-46.832,-43.024,-3139.148,-47.149,-19.076,-57.309,-24.586,-28.261,-45.737,-24.338,-51.306,-20.983,-38.187,-103.058,60.053,-4.021,-13.503,-119.882,-15.021,134.627,-29.215,265.841,51.184,-308.815,265.383,2189.072,78.995,-37.762,-12.551],[-58.481,-63.72,-60.316,-49.393,-19.724,-30.37,-51.281,92.237,-47.79,-42.746,-33.294,-32.752,-22.721,-40.385,-6.068,36.152,15.696,35.575,-0.447,-33.724,182.312,40.301,38.043,-0.814,2.952,176.031,68.228,104.295,33.78,124.775],[-10.38,-78.003,-49.241,-52.102,-58.319,-2.286,-83.251,-49.437,-140.404,-38.611,3.009,-74.529,-61.54,-31.776,-30.348,32.331,-6.572,-4.737,9.583,15.448,73.186,1.492,3.82,12.166,19.409,129.914,24.155,18.63,31.063,67.311],[-8.204,-60.147,-97.756,-79.692,-78.167,-5.094,-56.903,-80.362,-76.283,-47.057,9.809,-60.519,-98.257,-59.565,-51.117,39.949,-22.126,-9.46,-14.335,-20.455,78.115,-4.511,-0.024,1.329,4.886,138.526,9.033,4.831,3.474,2.828],[-6.206,-71.494,-105.432,-95.958,-87.643,6.595,-40.393,-78.967,-99.459,-83.109,20.068,-52.674,-59.563,-81.142,-65.148,56.731,-27.839,-24.956,-22.23,-26.642,110.131,2.981,-32.647,0.329,4.036,191.534,8.972,3.657,3.412,2.335],[19.583,-50.464,-83.7,-88.053,-87.857,18.658,-47.985,-92.742,-104.311,-103.095,-6.256,-41.536,-78.614,-94.173,-84.792,70.536,-21.286,-29.224,-24.232,-39.269,96.423,-0.935,-7.033,-2.071,-8.209,217.668,15.381,-2.824,-1.44,2.41]],
"kep": [[-130.073,-17.267,-23.234,9.214,-27.929,-147.555,-43.488,9.308,14.555,16.588,-124.29,-60.714,-13.423,-0.123,-16.233,-138.281,-71.855,-16.12,-46.791,6.239,-132.912,-60.32,-50.426,-44.016,-28.51,-140.496,-134.866,-109.297,-87.663,-62.941],[-76.237,-71.38,-132.503,-29.752,1.404,-78.472,-55.77,-135.518,-46.766,-13.607,-81.527,-76.447,-138.634,-35.528,-1.822,-73.016,-66.9,-145.729,-75.158,-17.218,-72.634,-54.376,-141.708,-78.623,-35.996,-75.786,-44.919,-133.773,-97.905,-44.364],[-88.751,-32.277,-30.155,-66.798,-144.795,-90.764,-31.404,-31.359,-58.52,-140.928,-86.416,-36.735,-27.747,-58.772,-142.453,-82.962,-32.786,-18.716,-52.809,-149.956,-82.241,-30.27,-24.387,-48.199,-140.882,-79.205,-23.567,-18.082,-41.273,-139.164],[-94.241,-46.084,-16.197,-20.267,-22.524,-92.267,-40.536,-19.794,-7.182,-24.004,-95.579,-40.27,-17.418,-5.816,-20.03,-92.89,-40.974,-6.962,-7.973,-13.707,-87.163,-40.974,-12.163,-5.679,-10.165,-88.323,-37.958,-8.627,6.076,3.753],[-95.928,-50.554,-18.756,-11.04,-9.881,-94.163,-54.548,-21.968,-11.046,-7.964,-95.838,-49.39,-23.374,-10.281,-4.22,-95.279,-53.25,-18.092,-14.918,-0.805,-95.234,-46.874,-18.516,-5.982,-7.919,-92.957,-49.588,-17.484,-8.356,-1.356],[-98.119,-56.523,-22.282,-11.401,-6.955,-98.048,-58.513,-23.316,-11.501,-7.805,-96.083,-63.93,-25.487,-9.604,-8.545,-97.863,-62.299,-25.564,-6.682,-3.542,-96.319,-58.226,-24.035,-3.274,-3.077,-97.605,-59.28,-21.079,-6.189,1.39]],
"vp": [[58.924,-79.669,83.581,208.564,85.446,50.081,-55.299,44.324,37.157,26.572,-2.308,-8.907,-10.804,-14.153,-15.006,-5.798,-10.761,1.699,-12.006,0.514,-5.316,-5.993,-4.189,-6.771,-5.379,-5.59,-6.068,-6.517,-5.132,-4.465],[2040.496,592.43,8.242,1.502,294.673,490.464,182.634,-4.071,-45.755,-28.406,207.683,68.239,6.105,-67.22,16.998,33.772,21.364,-3.915,-4.675,-1.498,12.89,-3.255,-3.211,-6.385,-5.136,10.381,0.019,-5.705,-8.821,-3.578],[4127.091,1496.626,1358.065,741.612,-200.244,907.749,279.361,296.022,131.495,-8.889,413.161,157.44,81.962,83.222,-22.22,79.837,21.626,14.627,5.231,-0.924,36.747,13.054,3.948,-2.896,-5.232,16.083,6.084,-0.742,0.059,-6.695],[5986.017,3486.656,1442.963,922.572,393.335,1130.907,703.975,380.666,43.291,132.239,578.551,310.401,53.081,35.13,72.61,110.831,70.055,12.283,-4.403,-10.95,44.107,33.111,7.379,-1.113,-0.611,22.771,16.2,2.144,-3.667,-2.046],[6427.97,5595.871,2144.218,1002.241,583.098,1312.973,1124.634,515.396,207.245,18.665,636.962,454.712,324.08,104.87,64.969,122.418,103.992,38.684,28.426,-11.343,62.775,35.474,14.407,4.295,-2.963,29.776,21.255,4.333,2.906,-0.164],[6850.108,6399.638,3468.605,2069.95,1226.21,1434.21,1387.617,640.81,289.572,31.419,641.774,734.023,342.282,143.797,85.173,133.016,141.204,62.707,32.16,4.379,65.329,57.431,30.524,10.478,8.319,32.588,27.211,10.533,6.759,-3.258]]
}