{
"KTrans": [[4.006,1.788,1.366,2.946,4.353,12.539,10.829,6.707,3.781,3.501,21.627,16.956,16.189,11.378,11.774,150.329,99.201,69.079,63.125,58.41,388.932,223.518,179.697,155.799,141.648,1058.783,591.633,463.06,384.896,370.347],[-28.848,-0.531,1.99,1.336,0.31,-21.434,5.551,4.631,4.802,1.828,-17.491,12.343,9.727,5.219,5.722,60.472,64.639,43.586,34.286,33.599,195.381,146.323,101.045,77.667,64.366,527.242,347.033,231.304,175.736,153.745],[-53.423,-2.573,0.606,-0.21,-0.803,-51.039,3.951,4.366,3.12,4.629,-31.784,11.956,7.94,4.685,5.521,3.153,56.415,39.943,31.733,25.04,88.946,128.966,89.652,66.123,52.64,365.939,311.562,215.894,151.997,123.252],[-69.356,-11.095,-0.052,1.045,0.161,-62.237,-6.548,2.693,2.609,3.221,-68.769,-0.637,5.998,5.766,5.024,-16.694,50.019,38.411,30.638,25.967,41.522,110.514,86.81,67.492,52.717,191.193,277.386,198.464,144.502,110.388],[-77.322,-12.277,-2.889,-0.669,-0.886,-73.308,-8.809,2.174,2.632,2.858,-73.871,-1.412,4.676,5.476,6.193,-44.812,34.015,37.265,30.568,22.226,7.281,107.389,81.161,61.8,50.994,106.814,247.347,179.861,140.115,107.427],[-81.249,-16.994,-2.706,2.69,-1.136,-79.366,-17.411,0.701,3.243,3.306,-78.226,-9.633,5.782,5.479,3.03,-52.296,29.702,39.265,29.065,22.893,-22.744,84.585,74.856,59.251,49.645,66.458,208.854,182.949,128.058,103.027]],
"ve": [[7.826,9.29,11.675,16.778,11.277,10.557,9.04,13.038,15.238,16.372,17.878,7.527,2.175,4.183,110.441,50.395,15.115,3.253,-6.537,-14.675,98.899,34.088,8.29,-6.452,-17.019,193.594,79.948,35.659,12.121,-6.482],[8.719,1.231,0.504,1.221,0.786,8.19,3.141,2.491,0.814,1.156,3.669,5.874,3.012,1.335,2.211,51.668,24.758,15.424,9.84,5.686,106.686,48.493,30.429,20.122,12.432,200.895,97.583,60,41.921,29.269],[7.363,1.241,1.121,0.447,0.652,12.52,3.321,2.796,1.862,1.172,14.117,6.741,3.208,3.138,1.815,63.815,25.099,15.279,12.2,8.045,99.86,49.882,32.562,23.562,17.961,206.911,99.187,64.073,47.163,35.58],[4.118,1.351,1.092,0.467,0.832,13.366,3.378,2.094,1.426,0.902,0.998,5.963,3.445,2.322,1.717,49.683,25.406,16.874,12.023,9.256,99.292,51.026,32.654,24.198,18.587,205.179,99.92,65.048,48.815,37.141],[10.969,2.003,1.503,0.548,0.249,59.93,1.316,1.976,1.42,0.868,4.665,5.298,3.991,2.66,2.224,60.495,27.145,17.994,12.465,9.736,100.113,51.259,33.382,25.303,19.907,194.786,101.393,66.599,49.144,38.565],[-202.306,1.64,1.142,0.878,0.361,30.22,3.712,2.126,1.253,1.075,1.148,6.006,3.472,2.518,1.766,91.164,26.972,17.41,12.893,9.809,101.912,52.079,33.902,24.907,20.005,218.426,95.475,66.172,49.197,39.386]],
"kep": [[-0.762,-0.756,-0.203,4.807,9.033,3.448,7.985,4.745,2.505,4.814,6.256,14.177,19.513,15.945,20.852,68.262,75.198,67.912,79.804,90.668,146.864,143.21,160.616,176.613,194.923,297.894,286.065,316.971,334.826,405.226],[-33.267,-1.066,1.811,0.565,-0.046,-27.899,2.559,2.358,4.412,1.017,-28.332,6.462,6.899,4.248,3.837,4.593,32.63,24.693,22.574,26.759,44.977,66.389,54.332,48.187,46.369,107.718,126.661,107.4,94.552,96.564],[-56.661,-3.522,-0.433,-0.491,-1.341,-56.29,0.864,1.725,1.389,3.609,-41.588,5.005,4.805,1.563,3.838,-33.125,25.388,21.497,17.544,15.819,-6.989,52.771,43.267,34.635,29.499,53.517,107.024,92.749,71.32,64.789],[-71.682,-12.267,-0.912,0.728,-0.513,-66.192,-9.252,0.711,1.277,2.331,-73.925,-5.32,2.678,3.473,3.348,-46.907,19.809,18.709,16.674,15.331,-31.56,40.618,40.956,34.923,28.895,-4.891,89.08,81.147,64.417,53.516],[-78.835,-14.165,-4.274,-1.129,-1.085,-76.691,-9.84,0.093,1.278,2.052,-78.262,-7.263,0.677,2.836,3.912,-64.53,5.748,16.397,16.045,11.444,-48.264,37.407,36.056,29.329,25.93,-33.07,72.522,68.041,61.054,49.794],[-83.375,-18.596,-3.665,1.845,-1.472,-82.202,-20.095,-1.434,2.019,2.336,-82.593,-14.856,2.258,2.997,1.269,-70.417,2.4,18.8,14.396,11.935,-63.024,21.679,30.634,27.532,24.714,-46.381,53.431,70.576,52.825,45.77]],
"vp": [[325.36,330.132,-89.321,218.931,-30.971,72.621,5.46,-14.267,-22.19,36.682,37.979,-2.206,18.445,-3.631,-14.951,-0.137,1.83,-3.916,0.769,-2.681,2.592,-0.711,-0.426,-1.669,-0.988,1.187,-0.697,-1.568,-0.985,-1.045],[1981.695,136.338,271.024,281.233,-288.21,361.072,74.42,49.072,56.837,27.593,209.531,42.142,23.036,22.238,31.529,37.781,5.54,2.266,1.803,2.758,18.617,0.605,-1.546,-1.325,-0.639,7.956,0.719,-0.451,-1.238,-0.495],[3089.273,1163.093,136.955,4.808,185.569,666.118,236.634,69.651,19.053,11.825,334.306,84.077,69.578,-4.137,1.552,62.341,14.207,-3.156,0.316,0.138,29.094,12.031,3.978,1.392,-0.283,15.159,3.284,-0.214,0.433,-0.693],[3969.359,2094.618,576.096,233.81,-95.204,850.434,446.089,142.863,112.144,59.479,445.273,196.461,35.942,21.423,4.209,82.544,41.897,10.749,6.732,6.176,43.184,18.455,5.123,1.854,-0.207,21.372,10.843,2.796,1.183,0.425],[4652.214,2816.319,674.748,492.784,598.618,968.55,543.748,185.087,102.669,12.647,517.803,305.735,82.116,68.573,35.73,94.999,55.603,19.38,13.087,5.685,47.835,29.51,12.242,6.479,2.962,24.531,14.113,5.425,1.82,1.139],[5577.945,4114.224,2112.931,595.28,-49.997,1109.334,918.937,289.854,147.645,108.501,579.631,470.424,136.734,83.153,32.914,105.689,96.779,36.403,13.492,4.957,55.368,36.085,15.959,3.918,7.99,26.661,17.846,5.7,2.137,1.273]]
}