{
"KTrans": [[4.978,0.617,-6.372,-4.685,-5.526,9.933,9.032,12.746,8.201,1.726,13.123,19.265,14.077,18.734,18.35,-21.085,29.267,62.552,72.497,66.94,-88.732,-92.539,39.879,29.795,64.016,-18.795,124.533,-83.19,65.415,30.397],[-25.687,-9.356,-0.219,-1.532,-0.755,-28.152,-8.18,2.494,3.824,2.142,-24.315,-4.984,3.023,9.255,7.759,-35.051,-1.733,7.044,5.456,26.877,-7.072,-21.013,0.809,3.7,33.186,-20.686,-34.991,-27.153,44.186,-12.927],[-42.575,-8.37,-2.808,-3.053,-1.068,-43.002,0.684,-0.561,-2.287,-0.409,-36.936,-6.952,0.461,1.669,3.007,-19.345,11.548,2.314,2.89,8.56,-17.714,-27.64,33.724,-49.605,-7.811,5.637,-28.548,45.137,40.695,-3.401],[-53.651,-16.125,-2.501,-3.395,-1.397,-50.185,-16.318,0.151,1.549,-0.296,-57.268,-19.678,0.508,5.43,-0.57,-49.349,-43.898,17.823,2.523,0.645,-81.658,-15.038,8.763,-7.024,-14.263,-5.906,-29.082,-36.801,50.47,34.531],[-64.249,-11.387,-11.621,-0.991,-0.103,-59.449,-15.656,-0.198,1.809,0.941,-71.199,-18.192,-1.899,3.307,1.538,-63.091,-8.043,2.312,3.958,4.351,-62.068,-4.497,22.144,-33.212,-9.518,-11.884,4.247,-17.004,9.96,6.72],[-68.433,-24.666,-10.151,0.276,0.647,-65.067,-25.037,-1.833,-1.616,-1.095,-69.617,-19.004,-13.289,-2.161,-0.994,-77.046,-22.257,-11.393,22.872,4.589,-61.296,-20.111,-3.886,-6.483,-21.145,-54.348,-32.182,23.803,-14.88,32.129]],
"ve": [[-9.447,-5.827,-43.632,-25.823,-69.969,-23.659,-19.916,6.964,36.659,-62.531,161.314,-0.539,7.612,-56.17,53.509,42.416,83.088,-11.188,-11.36,-32.898,27.027,19.546,-7.967,-27.976,-35.694,186.45,73.721,32.74,0.689,-19.085],[-14.626,8.331,-23.917,10.162,29.4,11.892,7.975,2.374,1507.901,-11.811,26.237,-6.46,0.596,-17.248,5.546,43.958,26.888,11.237,27.919,22.345,95.75,48.129,34.185,26.556,-6.727,196.806,98.676,60.595,40.5,188.302],[-5.927,-3.571,-6.888,-8.22,-1.931,-29.705,-2.287,-4.52,2.536,-1.437,-88.971,5.59,-1.967,-0.941,3.679,52.392,24.743,11.205,-289.957,6.659,85.041,141.405,33.418,16.997,23.844,189.033,99.161,63.963,48.516,41.647],[-28.962,-2.373,2.947,-1.164,53.908,266.876,-1.11,-0.135,-0.59,2.114,9.7,2.82,2.609,-0.716,16.953,41.675,22.978,18.966,8.545,8.479,104.576,46.607,29.698,25.162,13.935,198.506,98.811,64.177,36.246,38.854],[27.394,-1.789,-3.066,-2.169,-0.913,-2.433,4.682,0.514,0.555,-0.563,14.943,-62.743,-6.657,1.911,-7.264,49.473,19.989,14.502,14.546,9.112,88.067,54.081,30.713,25.621,20.373,182.622,97.242,68.984,49.062,40.176],[-26.065,-5.876,-2.719,0.215,0.181,22.74,0.083,-0.213,-0.281,0.343,-2.968,1.602,2.045,0.92,0.561,42.871,28.034,17.373,10.778,10.315,93.195,48.273,29.72,24.17,20.278,190.801,100.267,69.16,52.435,35.003]],
"kep": [[-105.699,-47.043,3.39,7.609,12.601,-105.423,-47.915,-37.373,-6.606,9.248,-129.333,-59.826,-29.518,-4.053,-35.379,-124.42,-225.522,-184.4,-239.527,-210.733,-89.418,-321.98,-332.505,-425.141,-419.122,19.538,-31.462,-396.758,-542.779,-644.838],[-60.666,-67.903,-112.986,-12.589,1.029,-64.999,-62.488,-114.804,-59.928,-11.753,-59.997,-65.766,-122.469,-65.913,-21.536,-69.019,-70.454,-114.183,-158.067,-97.127,-57.368,-48.589,-65.082,-199.587,-183.418,-49.842,-35.364,-13.713,-42.528,-273.225],[-63.737,-23.947,-24.006,-54.215,-102.769,-67.842,-13.903,-20.87,-46.003,-109.472,-67.36,-29.772,-21.812,-51.355,-126.229,-59.343,-23.082,-37.475,-59.928,-118.485,-62.28,-46.513,-9.643,-90.977,-100.616,-56.645,-45.875,-3.492,14.131,-4.163],[-72.918,-27.119,-8.147,-14.256,-17.367,-72.531,-31.021,-8.581,-2.96,-27.328,-77.668,-37.208,-9.91,-3.798,-20.016,-71.455,-60.148,-13.611,-29.731,-37.74,-83.802,-46.938,-31.102,-49.02,-48.43,-65.834,-54.755,-48.253,9.481,-4.622],[-81.892,-26.185,-20.862,-6.526,-1.016,-79.11,-35.182,-11.833,-2.922,-6.085,-85.77,-40.236,-14.013,-3.113,-5.375,-80.831,-42.002,-25.45,-21.278,-24.291,-80.134,-45.394,-19.882,-56.544,-36.344,-70.748,-49.294,-44.343,-25.658,-22.747],[-81.363,-42.347,-20.659,-3.877,-0.461,-81.442,-43.847,-12.722,-6.986,-4.433,-84.707,-41.613,-25.279,-9.214,-6.51,-86.877,-50.931,-33.239,-1.18,-18.378,-80.935,-55.574,-32.115,-34.446,-53.068,-80.368,-64.91,-28.32,-43.542,-13.386]],
"vp": [[-156.05,-38.952,-135.395,-421.828,-133.988,29.042,47.594,89.822,-16.123,69.824,-0.835,-21.491,-4.218,33.783,68.761,-17.933,0.043,-14.43,-8.94,-3.628,-31.477,-15.881,-16.897,-2.437,-6.741,-43.826,-45.113,-23,-47.675,-25.712],[2153.468,738.943,-37.175,-132.379,523.318,445.591,93.719,59.567,-22.726,-88.031,140.436,63.494,27.681,-25.397,-17.351,-18.273,-35.033,-45.761,-3.982,-22.029,-17.022,-24.012,-33.108,-22.642,-16.823,-34.499,-49.783,-42.934,-46.029,-40.455],[3562.209,1553.007,1367.004,657.936,-150.623,807.26,332.483,228.481,52.835,3.637,393.125,152.232,122.589,67.503,-34.218,17.48,12.786,-23.911,-23.126,-32.298,-21.37,-26.98,-37.57,-36.459,-34.577,-38.944,-55.736,-49.307,-59.449,-53.487],[4730.386,3357.972,2211.553,1136.398,240.334,916.539,660.184,462.466,280.207,265.906,349.073,400.539,161.534,148.191,45.571,41.422,41.153,-13.608,7.784,-3.423,9.425,-8.647,-31.564,-37.659,-50.79,-20.831,-44.53,-43.19,-70.244,-49.11],[5389.479,5392.052,3386.135,1919.822,1485.603,1201.028,1010.195,666.59,379.201,122.474,467.631,551.038,416.194,109.902,51.049,43.973,43.656,10.973,14.701,14.507,-4.067,-4.069,-21.363,-12.309,-33.7,-27.352,-7.417,-51.265,-54.334,-34.995],[5695.851,7124.584,4801.903,3099.049,2288.481,1114.602,1560.6,1143.701,558.566,369.276,567.953,896.38,222.393,290.379,99.363,125.043,103.522,48.776,42.677,30.061,10.683,31.871,-30.399,-13.35,1.987,-37.44,-27.769,-34.048,-19.332,-66.504]]
}