{
"KTrans": [[0.039,0.019,0.03,0.026,0.011,0.035,0.025,0.023,0.025,0.022,0.037,0.025,0.029,0.024,0.014,0.039,0.028,0.015,0.027,0.017,0.048,0.025,0.023,0.024,0.016,0.034,0.028,0.026,0.018,0.034],[0.111,0.061,0.038,0.036,0.026,0.138,0.057,0.041,0.037,0.025,0.101,0.057,0.049,0.034,0.02,0.131,0.057,0.04,0.035,0.028,0.123,0.068,0.051,0.026,0.03,0.134,0.07,0.042,0.026,0.036],[0.213,0.092,0.052,0.056,0.031,0.245,0.085,0.074,0.05,0.051,0.214,0.097,0.059,0.046,0.042,0.24,0.09,0.064,0.04,0.04,0.232,0.102,0.054,0.049,0.053,0.248,0.1,0.056,0.054,0.055],[0.304,0.15,0.085,0.072,0.054,0.329,0.147,0.078,0.081,0.063,0.333,0.138,0.088,0.059,0.058,0.323,0.125,0.089,0.08,0.058,0.305,0.161,0.087,0.074,0.053,0.316,0.157,0.109,0.055,0.055],[0.399,0.221,0.104,0.083,0.065,0.385,0.193,0.116,0.078,0.067,0.406,0.189,0.097,0.105,0.075,0.389,0.232,0.103,0.077,0.071,0.455,0.192,0.118,0.082,0.082,0.343,0.206,0.133,0.082,0.065],[0.49,0.263,0.187,0.101,0.068,0.455,0.25,0.14,0.111,0.079,0.481,0.264,0.183,0.113,0.091,0.443,0.261,0.139,0.098,0.08,0.495,0.235,0.148,0.086,0.076,0.447,0.25,0.141,0.117,0.093]],
"ve": [[-0.006,-0.011,-0.019,-0.025,-0.024,-0.006,-0.012,-0.017,-0.024,-0.03,-0.006,-0.012,-0.019,-0.024,-0.026,-0.006,-0.012,-0.016,-0.025,-0.027,-0.006,-0.012,-0.017,-0.024,-0.027,-0.006,-0.012,-0.018,-0.022,-0.036],[-0.006,-0.005,-0.007,-0.008,-0.01,-0.007,-0.005,-0.006,-0.008,-0.01,-0.005,-0.005,-0.006,-0.008,-0.01,-0.008,-0.005,-0.006,-0.008,-0.01,-0.007,-0.005,-0.006,-0.008,-0.01,-0.008,-0.005,-0.006,-0.008,-0.01],[-0.014,-0.005,-0.004,-0.005,-0.006,-0.018,-0.005,-0.005,-0.005,-0.006,-0.014,-0.005,-0.005,-0.005,-0.006,-0.017,-0.006,-0.005,-0.005,-0.006,-0.017,-0.006,-0.005,-0.005,-0.006,-0.019,-0.005,-0.004,-0.005,-0.006],[-0.028,-0.008,-0.005,-0.005,-0.005,-0.033,-0.008,-0.005,-0.005,-0.005,-0.033,-0.008,-0.005,-0.005,-0.005,-0.033,-0.005,-0.005,-0.005,-0.005,-0.029,-0.01,-0.005,-0.004,-0.005,-0.03,-0.01,-0.006,-0.004,-0.005],[-0.053,-0.014,-0.005,-0.004,-0.005,-0.053,-0.011,-0.006,-0.005,-0.005,-0.057,-0.012,-0.005,-0.006,-0.005,-0.053,-0.016,-0.005,-0.005,-0.004,-0.064,-0.012,-0.006,-0.005,-0.005,-0.047,-0.014,-0.008,-0.005,-0.004],[-0.091,-0.019,-0.011,-0.006,-0.004,-0.086,-0.019,-0.007,-0.005,-0.005,-0.084,-0.02,-0.012,-0.007,-0.005,-0.084,-0.022,-0.007,-0.006,-0.004,-0.09,-0.016,-0.008,-0.005,-0.004,-0.082,-0.019,-0.008,-0.006,-0.005]],
"kep": [[0.045,0.03,0.049,0.05,0.035,0.042,0.037,0.041,0.049,0.053,0.043,0.036,0.048,0.048,0.04,0.046,0.039,0.031,0.052,0.044,0.055,0.037,0.04,0.048,0.044,0.04,0.039,0.043,0.041,0.07],[0.118,0.066,0.044,0.044,0.036,0.146,0.062,0.047,0.045,0.035,0.106,0.062,0.055,0.042,0.029,0.139,0.062,0.046,0.043,0.038,0.129,0.074,0.057,0.034,0.04,0.142,0.076,0.049,0.034,0.046],[0.228,0.097,0.056,0.061,0.038,0.263,0.09,0.079,0.055,0.057,0.228,0.102,0.064,0.052,0.048,0.257,0.096,0.07,0.046,0.046,0.249,0.109,0.059,0.055,0.059,0.267,0.105,0.06,0.059,0.061],[0.332,0.158,0.09,0.077,0.059,0.362,0.155,0.083,0.086,0.068,0.366,0.146,0.093,0.064,0.063,0.357,0.13,0.094,0.086,0.063,0.334,0.171,0.092,0.079,0.058,0.346,0.167,0.115,0.06,0.06],[0.453,0.235,0.11,0.088,0.07,0.439,0.205,0.123,0.082,0.071,0.463,0.201,0.102,0.111,0.081,0.443,0.249,0.107,0.081,0.076,0.52,0.204,0.123,0.087,0.087,0.39,0.22,0.141,0.088,0.069],[0.582,0.283,0.198,0.107,0.072,0.541,0.269,0.148,0.117,0.083,0.566,0.284,0.194,0.12,0.097,0.527,0.283,0.146,0.104,0.085,0.585,0.251,0.157,0.091,0.08,0.529,0.269,0.149,0.123,0.098]],
"vp": [[-0.334,-0.67,-0.225,-0.304,-0.852,-0.085,-0.09,-0.091,-0.065,-0.082,-0.04,-0.047,-0.021,-0.041,-0.07,-0.007,-0.007,-0.015,-0.006,-0.012,-0.001,-0.005,-0.004,-0.004,-0.006,-0.002,-0.002,-0.002,-0.003,0],[-0.434,-0.487,-0.958,-0.796,-1.453,0.027,-0.133,-0.161,-0.154,-0.299,-0.075,-0.081,-0.033,-0.1,-0.2,0.001,-0.015,-0.02,-0.018,-0.023,-0.002,-0.001,-0.002,-0.017,-0.01,0.001,0,-0.004,-0.008,-0.003],[0.366,-0.928,-2.093,-0.814,-2.546,0.222,-0.262,-0.048,-0.28,-0.088,0.034,-0.077,-0.147,-0.154,-0.124,0.019,-0.017,-0.015,-0.045,-0.029,0.009,-0.003,-0.017,-0.012,-0.001,0.006,-0.003,-0.009,-0.004,-0.001],[1.524,-0.106,-1.335,-0.856,-1.773,0.464,-0.046,-0.364,-0.017,-0.096,0.236,-0.052,-0.128,-0.223,-0.11,0.046,-0.029,-0.022,-0,-0.024,0.017,0.006,-0.013,-0.01,-0.019,0.01,0.003,0.002,-0.013,-0.008],[4.169,1.599,-1.933,-2.049,-2.267,0.812,0.048,-0.218,-0.464,-0.416,0.46,0.032,-0.231,0.055,-0.073,0.082,0.048,-0.045,-0.047,-0.036,0.058,0.003,-0.011,-0.016,-0.003,0.015,0.005,0.001,-0.008,-0.013],[8.079,2.225,1.991,-1.846,-4.003,1.464,0.38,-0.228,-0.27,-0.537,0.728,0.237,0.208,-0.057,-0.108,0.14,0.055,-0.027,-0.041,-0.055,0.08,0.009,-0.005,-0.033,-0.03,0.034,0.009,-0.005,-0.002,-0.004]]
}