{
"KTrans": [[9.237,4.47,2.395,3.299,6.235,2.44,3.301,2.64,4.38,5.14,5.956,5.987,4.543,4.965,4.734,8.083,11.524,7.87,6.822,10.023,19.454,15.325,12.849,15.214,12.382,37.815,26.791,23.207,24.142,19.732],[-24.849,-2.035,0.631,0.426,2.842,-22.407,-3.458,-0.639,2.327,3.682,-25.558,-5.191,0.195,0.926,3.901,-20.384,3.388,5.054,4.941,4.068,-8.254,1.573,5.767,7.477,6.855,-0.818,9.792,11.942,11.583,12.284],[-57.921,-8.804,-3.291,-1.932,0.14,-58.78,-15.49,-3.48,-1.812,1.103,-59.173,-11.925,-1.626,0.663,0.635,-48.653,-10.373,-4.055,1.277,2.544,-43.364,-4.38,0.545,2.967,5.033,-42.945,0.806,4.859,5.367,7.708],[-79.911,-26.198,-7.846,-6.673,-1.703,-74.449,-21.937,-8.899,-5.706,-3.003,-75.224,-19.821,-8.264,-4.431,-1.385,-68.683,-23.406,-10.622,-2.983,-0.341,-65.261,-19.992,-5.378,-3.413,0.117,-59.449,-15.183,-1.172,2.798,3.152],[-87.804,-34.085,-15.449,-9.763,-6.111,-87.478,-35.412,-16.359,-8.29,-5.351,-83.585,-28.984,-17.273,-9.85,-6.499,-79.762,-28.413,-14.103,-10.244,-6.511,-79.23,-31.895,-15.643,-7.442,-3.067,-78.526,-31.806,-11.843,-3.077,-2.204],[-91.753,-42.836,-28.453,-14.771,-9.57,-90.109,-47.175,-21.319,-12.912,-9.111,-91.937,-43.912,-22.508,-13.619,-10.846,-89.157,-40.449,-24.726,-11.391,-8.031,-83.726,-39.875,-20.597,-13.292,-7.209,-75.131,-45.298,-17.386,-8.215,-3.857]],
"ve": [[2.416,3.857,6.386,10.124,6.932,2.351,3.462,8.398,8.034,-46.146,3.765,3.734,6.772,7.186,11.275,7.17,6.865,5.351,6.692,3.51,10.732,5.44,4.623,1.507,3.816,22.183,8.099,4.181,-1.262,-0.317],[-9.237,-1.08,0.372,1.04,1.388,-11.927,0.073,-0.519,1.29,1.157,-12.944,-1.609,0.512,0.939,0.952,-6.69,2.151,2.043,1.737,2.129,3.55,3.47,3.871,3.466,2.657,14.249,9.785,6.867,5.138,3.812],[1.47,-3.537,-1.076,-0.316,-0.061,-31.617,-5.924,-1.331,-0.484,0.135,-30.496,-4.577,-1.009,0.005,0.014,-18.922,-2.206,-0.787,1.267,1.149,-15.719,1.974,1.434,1.878,2.382,-8.162,8.422,6.475,4.381,4.351],[-52.522,-11.298,-3.007,-1.927,-0.609,-46.745,-8.639,-3.339,-2.204,-0.601,-50.845,-7.599,-2.898,-1.661,-0.344,-34.233,-8.529,-2.886,0.036,0.537,-27.908,-3.64,0.352,0.197,1.176,-17.314,1.484,4.758,4.347,3.362],[-58.292,-15.081,-5.889,-3.752,-2.012,-51.161,-15.185,-5.898,-2.826,-1.717,-52.558,-13.271,-6.906,-3.648,-1.932,-45.221,-9.748,-4.005,-2.954,-1.829,-42.304,-10.129,-4.743,-0.606,0.57,-35.675,-5.702,0.606,2.247,1.618],[-70.671,-20.835,-11.022,-5.32,-3.075,-60.384,-23.026,-9.438,-4.675,-3.508,-63.443,-20.309,-8.394,-4.775,-4.044,-56.634,-16.975,-9.396,-3.711,-2.121,-49.656,-14.516,-5.358,-2.988,-1.583,-15.207,-13.491,-1.078,1.177,1.285]],
"kep": [[-2.252,-6.527,-9.287,-9.519,-4.957,-8.273,-7.19,-10.226,-7.86,-7.147,-6.343,-4.641,-7.518,-6.285,-8.474,-7.388,-2.404,-4.011,-4.682,2.433,-1.417,1.29,0.475,7.289,3.774,3.068,8.843,10.414,17.958,13.908],[-27.502,-9.146,-7.797,-8.435,-6.521,-21.806,-11.444,-8.101,-6.935,-5.544,-24.978,-11.729,-8.272,-7.887,-5.181,-24.694,-7.353,-5.23,-5.003,-6.091,-22.622,-9.918,-6.298,-4.382,-4.072,-23.377,-8.402,-3.656,-2.255,-0.335],[-48.66,-13.75,-10.245,-9.502,-7.74,-50.353,-18.215,-10.161,-9.233,-7.048,-51.796,-16.035,-8.734,-7.388,-7.361,-46.79,-16.575,-11.222,-8.007,-6.692,-44.4,-14.748,-8.954,-7.008,-5.566,-48.896,-15.552,-9.562,-7.191,-5.008],[-70.927,-24.695,-13.005,-12.487,-8.984,-64.948,-22.88,-13.629,-11.384,-10.168,-67.333,-21.409,-13.355,-10.712,-8.944,-62.894,-24.381,-15.638,-10.826,-8.798,-61.987,-25.402,-13.467,-11.335,-8.957,-60.898,-24.569,-13.847,-9.417,-8.146],[-80.177,-30.913,-17.832,-13.849,-11.914,-77.809,-31.625,-18.748,-13.314,-11.417,-76.613,-26.757,-18.969,-14.014,-12.294,-71.628,-29.501,-18.439,-15.073,-12.433,-72.077,-32.354,-19.22,-14.52,-11.358,-74.084,-35.271,-20.265,-13.121,-11.49],[-84.625,-35.933,-26.657,-17.346,-14.246,-82.835,-39.546,-21.3,-16.161,-13.452,-85.924,-37.54,-23.164,-16.813,-14.655,-81.982,-37.651,-24.766,-15.669,-13.666,-77.884,-38.093,-23.76,-18.014,-13.33,-73.917,-44.334,-24.499,-16.908,-12.743]],
"vp": [[-141.634,-253.021,-42.31,-128.195,-211.496,-12.211,-18.83,-9.127,-49.911,-29.116,-15.632,-15.782,-8.492,-13.484,-15.151,-2.51,-8.045,-3.896,0.032,-4.305,-2.856,-2.146,-3.413,-4.75,-2.796,-3.559,-2.241,-2.309,-2.961,-1.546],[962.794,103.651,46.449,-42.901,-294.72,247.428,8.833,61.516,-49.991,-55.535,146.75,40.366,7.875,-3.055,-26.851,22.292,-4.595,-6.26,-7.382,-3.22,4.063,0.138,-4.184,-5.397,-4.51,0.35,-2.825,-4.007,-3.7,-4.413],[3586.814,596.7,117.86,105.407,-36.71,698.941,250.707,55.163,45.298,-12.309,346.016,99.995,16.535,-3.724,2.469,49.465,17.216,11.043,-5.362,-6.057,24.862,1.248,1.304,-1.523,-6.642,12.107,-1.582,-3.59,-1.781,-4.295],[5867.749,2384.364,718.65,655.849,82.578,1018.889,341.29,180.329,164.461,53.952,514.633,158.709,75.658,61.622,1.808,83.644,41.875,25.146,4.97,-3.845,39.458,13.926,4.34,4.677,-0.283,16.95,4.829,-1.111,-2.774,-1.644],[6580.237,3157.306,1601.37,1350.364,917.11,1320.079,640.627,372.511,200.612,118.351,601.315,276.214,202.813,128.866,87.087,107.847,46.303,28.236,27.971,22.645,54.784,28.155,20.861,6.997,1.834,25.96,12.872,6.051,0.827,2.095],[7271.672,4452.382,3503.375,2052.26,1354.603,1404.877,968.656,537.482,356.27,316.786,729.065,423.765,257.746,171.447,193.586,134.016,77.612,63.721,30.072,25.059,58.106,37.071,22.155,17.474,12.18,22.284,21.202,7.684,3.428,1.858]]
}