{
"KTrans": [[60.266,39.849,34.953,36.975,15.591,58.856,39.497,26.792,30.617,29.989,100.854,59.742,34.634,31.392,39.434,300.274,146.887,109.523,112.058,107.04,588.08,316.412,235.139,213.309,199.939,1573.457,722.092,562.9,488.104,432.158],[442.897,100.695,66.968,44.706,52.133,242.815,113.469,72.963,53.361,51.969,583.498,140.622,87.072,61.882,52.468,165.892,218.408,101.177,90.852,73.724,874.295,381.765,211.302,138.038,136.399,2274.242,737.931,426.389,302.076,226.48],[-298.454,572.634,104.39,80.028,66.56,-323.946,554.78,147.341,95.558,69.366,-325.472,739.044,121.975,89.255,69.894,-457.493,859.478,203.831,121.924,101.704,-772.508,1407.986,293.58,170.39,136.96,-1477.47,2072.617,461.848,282.197,228.711],[-208.135,-385.32,295.515,153.149,86.504,-198.62,-243.232,325.855,142.279,84.318,-223.152,-329.116,379.096,152.168,98.974,-269.885,-211.051,451.122,161.632,154.843,-353.621,-385.497,687.623,327.967,157.182,-696.178,-814.699,973.313,429.034,263.62],[-178.558,-320.932,240.244,301.765,150.368,-167.94,-313.534,634.117,321.389,179.254,-182.586,-297.736,471.746,271.844,162.994,-246.129,-371.4,661.836,382.01,172.417,-356.154,-595.35,941.917,503.623,246.1,-595.238,-643.815,180.807,663.992,368.33],[-166.015,-264.08,-293.624,-642.427,237.015,-116.143,-230.263,-122.763,-1933.063,303.625,-182.983,-240.658,-335.748,-2323.773,246.815,-221.984,-292.579,-315.091,-817.982,355.72,-305.02,-379.884,-307.52,-953.198,480.177,-640.337,-671.556,-513.103,-3463.789,560.778]],
"ve": [[1.9,1.252,1.026,15.315,108.935,2.82,0.59,1.993,9.588,52.601,10.639,1.844,-1.484,1.31,2.54,49.199,12.54,-3.752,-12.221,-20.657,93.535,35.638,7.691,-7.226,-18.29,193.703,79.16,36.661,11.295,-6.76],[1.974,1.807,3.07,1.766,2.059,11.1,4.851,3.945,2.482,1.835,12.697,9.344,7.015,4.149,2.167,53.717,26.658,13.566,10.252,4.751,102.43,52.424,32.844,18.865,15.337,202.574,100.376,66.651,46.202,30.026],[3.087,5.357,1.662,2.804,2.506,7.862,2.921,5.752,4.571,3.103,14.373,11.128,3.069,4.483,4.444,51.437,26.672,18.103,11.657,10.577,102.462,54.784,35.291,23.569,18.346,199.867,99.922,66.232,48.207,37.22],[5.791,3.479,-0.94,4.347,1.367,8.496,7.777,2.093,4.054,2.232,15.248,6.231,6.928,6.825,4.402,51.838,27.491,17.098,10.463,12.475,102.183,50.09,37.52,29.495,19.08,200.131,102.542,66.484,51.077,39.135],[1.806,4.714,3.669,2.722,3.047,8.271,3.482,4.593,5.645,4.914,14.05,6.283,6.161,2.311,5.672,52.318,29.566,21.514,15.433,10.283,102.817,45.456,36.896,27.162,21.707,201.825,101.273,68.361,50.726,41.723],[3.242,4.125,5.945,4.001,0.924,9.011,5.961,1.977,3.904,3.75,10.324,7.232,7.823,4.626,3.73,51.699,27.837,18.533,18.093,14.635,104.127,54.217,36.676,27.836,24.44,202.493,103.682,70.254,51.215,41.75]],
"kep": [[50.189,37.771,39.855,49.385,23.61,45.847,36.767,30.663,41.274,47.016,74.204,54.692,39.461,43.116,62.477,161.995,113.177,111.763,138.439,158.04,246.56,202.206,204.6,231.986,262.485,461.762,352.55,379.854,422.379,463.214],[385.069,84.165,56.637,39.283,47.641,199.745,92.45,60.136,45.282,46.567,465.335,111.134,70.24,51.754,46.468,74.729,140.273,69.208,67.645,59.763,369.982,205.853,127.637,92.6,100.822,672.202,306.328,209.854,170.381,145.071],[-274.001,496.713,88.167,67.145,56.102,-289.879,471.346,122.442,78.808,57.613,-282.644,613.17,98.961,72.197,57.322,-317.14,600.916,142.651,86.91,75.269,-414.139,829.938,178.348,108.094,91.275,-537.428,928.172,224.928,148.98,131.113],[-194.795,-344.808,255.522,130.146,72.891,-182.566,-215.628,277.668,119.155,70.213,-199.873,-287.008,317.512,125.588,81.003,-202.382,-170.317,332.374,117.568,114.933,-216.746,-264.936,444.884,216.779,104.134,-287.685,-426.706,506.422,234.341,149.931],[-169.301,-293.17,210.002,259.966,127.984,-156.62,-283.336,549.948,274.23,150.571,-166.772,-265.576,401.45,228.519,135.322,-189.217,-294.594,497.186,290.529,129.983,-219.951,-403.299,622.99,344.245,168.524,-256.902,-351.387,67.925,377.798,215.398],[-158.859,-244.211,-264.073,-561.333,204.36,-110.412,-211.01,-110.461,-1677.121,258.968,-168.581,-217.355,-296.307,-1994.827,208.437,-174.839,-237.346,-258.613,-653.396,276.852,-196.365,-270.217,-233.482,-699.264,341.576,-273.508,-367.396,-322.329,-2135.568,340.426]],
"vp": [[2427.307,2499.387,2407.449,2710.806,1968.727,405.018,454.862,402.079,441.967,454.939,234.405,243.203,195.087,197.405,229.665,51.859,46.091,42.162,48.75,54.25,23.1,23.994,22.809,23.678,23.879,12.02,11.033,11.496,11.939,10.511],[5921.588,6817.56,7780.688,6879.274,8187.082,1749.596,1405.789,1558.89,1459.472,1639.519,792.643,784.985,806.087,749.595,770.385,145.618,138.671,119.008,135.022,141.321,75.685,76.799,79.685,66.648,80.117,32.835,37.984,43.244,40.296,35.22],[10249.201,10785.648,9913.22,12015.184,13361.497,2127.995,2247.893,2686.334,2679.916,2549.979,1118.005,1166.276,1083.107,1228.739,1209.336,208.986,264.923,241.109,228.647,259.278,108.09,141.48,118.535,114.594,115.806,43.872,56.296,50.11,49.432,57.156],[13566.957,18363.164,16424.374,19009.531,16488.28,2367.134,3827.035,2796.889,3256.229,3201.866,1251.851,1380.566,1839.011,1737.734,1651.907,235.682,310.65,331.778,269.218,384.335,122.199,155.032,162.36,200.008,148.432,55.492,85.784,79.193,83.461,78.843],[11482.029,21886.535,26240.18,19057.511,22875.557,2635.022,3628.265,4426.04,4398.755,4685.355,1322.264,1877.812,2267.197,1626.899,2078.719,256.187,413.715,475.659,423.89,393.691,136.317,210.71,256.856,200.327,211.441,66.118,96.781,111.873,100.946,98.983],[13323.644,22758.674,28357.974,29707.736,24584.43,2891.544,4562.388,4658.093,1716.788,5360.796,1180.436,2301.152,2643.889,2214.214,2621.472,268.643,470.725,457.055,561.878,586.889,139.536,217.714,259.545,289.473,280.334,68.845,119.831,118.835,151.759,130.12]]
}