{
"KTrans": [[39.606,23.31,24.146,35.297,30.689,30.983,34.392,29.441,24.98,34.74,21.596,35.11,35.581,33.458,37.652,41.058,65.05,51.302,57.18,61.268,100.108,101.211,96.916,93.763,74.192,145.373,179.691,151.116,134.204,134.596],[-53.698,-8.235,9.185,10.398,11.005,-49.586,-7.892,-0.307,9.404,10.278,-44.882,-4.901,8.116,8.524,15.639,-30.743,1.156,8.239,23.664,22.1,-28.173,23.571,32.148,37.122,25.288,4.058,48.702,37.527,48.77,59.247],[-74.083,-34.538,-17.13,-4.313,0.584,-76.912,-27.227,-17.572,-0.495,1.427,-72.732,-40.204,-20.808,-7.325,4.113,-68.437,-25.839,-8.803,-1.199,6.852,-55.769,-22.074,-2.909,11.081,13.969,-34.97,-5.343,8.136,23.468,24.676],[-82.963,-48.983,-38.669,-21.373,-12.263,-84.887,-55.615,-32.696,-20.576,-7.723,-84.66,-52.541,-30.75,-16.517,-9.485,-78.323,-47.535,-29.919,-16.753,-8.569,-66.927,-45.712,-26.239,-11.183,-2.251,-56.357,-30.115,-11.517,1.551,13.066],[-85.755,-66.487,-45.371,-33.49,-20.382,-86.524,-65.912,-47.699,-32.247,-21.995,-86.62,-61.679,-46.803,-31.261,-22.376,-81.197,-59.949,-49.535,-26.813,-20.909,-71.524,-54.036,-36.392,-25.718,-18.657,-67.466,-56.898,-31.788,-16.784,-4.771],[-89.712,-74.601,-56.472,-44.47,-35.239,-89.779,-71.966,-56.716,-43.652,-30.833,-90.85,-72.828,-55.414,-45.032,-31.527,-85.31,-66.417,-54.66,-41.211,-31.15,-80.453,-64.37,-52.376,-40.917,-29.013,-74.281,-59.201,-46.392,-33.459,-22.926]],
"ve": [[-13.627,-15.035,-259.335,819.04,-393.178,10.917,-321.528,-315.021,-1080.689,-112.137,3.168,-24.461,-687.834,4.447,138.845,46.591,-66.461,-129.777,-52.697,504.419,91.378,-196.366,-4.542,31.737,266.398,72.966,53.912,5.593,-2.687,-52.438],[-32.458,159.243,-4.53,12.802,36.696,28.197,10.196,15.657,16.231,25.034,-24.55,4.529,12.202,19.633,203.805,-13.539,11.719,-50.75,21.381,38.58,91.658,524.592,27.193,29.224,26.535,126.022,36.591,108.003,46.329,22.164],[-21.948,32.067,-6.18,-0.328,5.185,4.638,-2.412,-0.35,0.07,3.602,-29.186,-9.965,-3.648,6.004,3.987,2004.193,7.1,4.723,5.664,6.967,32.261,24.395,17.646,12.332,14.858,62.7,186.75,30.325,16.394,51.432],[-36.846,-8.962,-9.953,-7.053,-2.808,-29.77,-11.323,-10.785,-7.757,-2.997,-7.754,-12.424,-155.73,-6.083,-1.603,-1.907,-7.898,-3.026,-0.796,0.306,15.134,7.487,4.488,6.232,5.918,47.071,52.294,30.314,3.21,20.247],[-43.938,-8.388,-11.694,-11.48,-7.753,-56.332,-28.41,-6.936,-9.627,-6.73,-40.016,-21.897,-12.643,-9.781,-5.665,-6.333,-11.477,-6.132,-3.995,-3.264,59.494,-10.03,9.087,0.395,1.706,123.721,-18.094,1.371,-85.483,24.131],[-45.861,7.566,-16.655,-13.55,-12.688,-10.589,-25.897,-7.026,-13.261,-9.722,-51.128,-25.53,-17.64,-14.919,-9.466,-44.226,2.633,-14.194,-9.024,-6.542,1.107,0.131,-2.046,0.798,-2.262,87.484,21.838,3.924,11.973,-28.217]],
"kep": [[-38.51,-50.489,-61.797,-55.644,-76.488,-49.123,-41.652,-56.111,-74.061,-67.926,-58.552,-46.211,-59.26,-56.627,-66.362,-54.358,-37.163,-45.553,-40.176,-38.095,-47.032,-28.157,-26.283,-20.645,-39.44,-61.312,-23.489,-23.891,-27.778,-28.473],[-77.929,-52.398,-44.1,-44.436,-48.814,-78.282,-50.696,-49.442,-47.981,-48.981,-74.745,-49.857,-44.752,-46.886,-46.514,-76.536,-50.145,-50.542,-41.365,-46.389,-79.681,-50.071,-42.018,-40.63,-46.387,-79.066,-53.541,-50.555,-44.769,-39.341],[-90,-63.443,-54.607,-48.656,-48.246,-89.72,-60.069,-54.02,-46.471,-46.889,-88.294,-66.769,-55.929,-51.179,-45.764,-87.31,-62.376,-54.549,-49.652,-46.361,-85.012,-65.291,-55.55,-47.378,-46.856,-84.584,-66.833,-59.116,-50.41,-46.541],[-92.499,-68.499,-63.449,-54.699,-51.492,-93.88,-72.428,-59.968,-54.084,-49.308,-95.275,-71.899,-60.457,-52.647,-50.906,-92.352,-71.638,-61.381,-55.227,-51.516,-89.916,-73.869,-63.381,-55.773,-50.832,-91.221,-77.593,-65.165,-56.617,-50.805],[-93.788,-77.642,-66.975,-59.925,-54.237,-93.552,-78.687,-68.625,-60.36,-55.305,-95.306,-76.016,-67.372,-59.72,-56.302,-92.584,-77.739,-72.23,-59.701,-56.648,-90.272,-78.749,-68.026,-60.92,-57.872,-93.125,-86.194,-72.685,-63.717,-57.208],[-95.369,-82.142,-71.919,-66.119,-60.665,-94.983,-81.571,-73.624,-65.572,-59.614,-95.699,-82.532,-71.181,-65.706,-59.882,-94.725,-81.869,-73.007,-65.863,-61.133,-93.9,-82.474,-74.811,-67.722,-61.749,-94.067,-86.189,-78.306,-69.372,-64.325]],
"vp": [[-900.603,271.479,-572.683,-1305.465,-1540.646,-178.198,-25.51,-188.591,-127.424,-222.736,-62.082,-60.799,-124.298,-11.028,-127.564,-4.397,-41.994,-27.913,-39.878,-19.511,-20.291,-23.422,-14.481,-36.003,-10.922,-11.8,-24.039,-16.525,-10.397,-4.071],[2615.882,1410.545,-997.825,-1117.041,-296.825,566.393,188.318,-59.191,-102.933,-142.342,221.622,88.45,-5.642,-2.115,-116.706,18.787,3.798,3.193,-26.225,-27.709,18.519,-1.459,-24.862,-36.446,9.718,-22.453,-14.455,7.997,-10.228,-25.166],[5323.319,2938.57,1596.845,668.292,-12.712,1065.339,460.783,432.255,39.467,138.298,540.085,388.954,228.769,195.906,22.527,92.205,41.56,13.91,38.376,1.413,18.818,12.581,3.265,-11.746,-14.78,-7.316,-5.172,5.968,-3.675,-3.305],[6029.616,4506.506,5959.618,3705.552,2326.247,1275.827,1360.372,769.07,762.8,256.256,679.685,622.521,411.172,269.895,142.723,93.792,97.348,88.975,67.396,55.701,15.54,54.739,40.531,35.895,11.834,2.193,7.165,2.6,-4.141,-21.587],[5311.341,7593.639,5707.439,5904.916,3531.027,1517.895,1602.959,1256.23,1008.944,861.465,764.199,665.079,619.772,468.35,359.194,101.343,126.362,154.359,65.663,90.689,32.603,55.358,32.521,39.253,53.67,0.741,33.53,31.563,20.495,-8.685],[7020.084,9919.525,8057.957,7650.495,8239.308,1282.759,1578.364,1625.233,1580.279,968.126,724.274,933.412,812.356,922.498,618.56,132.49,121.328,169.533,161.738,103.447,35.568,68.362,88.654,85.627,61.935,-2.63,14.918,44.992,40.498,33.097]]
}