{
"KTrans": [[1.631,2.748,3.972,2.516,1.582,12.346,9.189,8.225,8.073,6.562,21.374,15.459,14.136,12.763,10.976,159.419,90.883,72.927,68.524,60.337,358.756,224.93,173.905,154.581,135.83,438.165,512.234,419.733,390.984,345.913],[-4.733,-0.055,1.157,1.309,1.193,4.438,3.957,3.069,3.385,2.956,15.084,9.283,7.956,6.217,6.06,107.032,60.619,44.001,35.807,30.812,256.716,142.006,97.484,75.973,67.367,-141.598,360.157,239.457,180.052,150.062],[-14.902,-1.254,-0.893,-0.425,0.566,-1.906,0.963,2.141,2.113,2.246,2.655,4.263,5.632,5.39,3.71,87.704,50.242,37.605,28.918,25.499,14.52,131.669,86.032,65.485,53.743,-6.792,343.398,199.303,150.351,116.182],[-18.493,-4.564,-3.114,-0.941,0.136,-18.273,-0.477,-0.108,0.943,0.985,-5.513,3.602,2.666,3.803,3.65,36.944,48.853,34.787,25.736,23.377,-50.063,127.765,80.406,55.619,47.833,-91.475,217.096,203.401,125.731,108.214],[-31.833,-7.977,-4.161,-2.18,-1.524,-23.775,-2.885,-1.159,-1.091,0.576,-17.465,2.311,2.193,2.107,3.059,-19.385,50.649,30.065,24.438,19.509,-69.416,113.745,75.084,55.177,43.944,-112.908,123.557,176.114,144.31,98.773],[-38.261,-9.418,-4.156,-2.996,-2.125,-39.182,-5.657,-1.86,-2.381,-0.915,-29.711,-1.66,-0.612,0.896,1.258,-30.557,43.455,30.406,20.146,18.821,-65.276,130.053,73.37,46.2,41.924,-79.33,-23.36,170.728,131.368,100.785]],
"ve": [[1.984,2.169,1.547,4.265,7.804,4.078,2.012,0.805,0.459,2.197,9.549,3.305,1.102,-1.906,-1.303,46.009,14.25,0.413,-10.051,-15.555,93.342,34.905,9.199,-6.935,-16.577,182.029,82.28,39.001,11.806,-4.179],[1.441,0.462,0.227,0.415,0.655,3.893,2.108,1.763,0.955,0.944,9.874,4.262,2.739,2.302,1.699,48.698,24.403,14.313,9.121,6.298,98.993,48.075,29.919,19.896,13.334,200.082,98.069,62.302,42.057,29.41],[1.158,-0.276,0.287,0.212,0.157,5.488,1.931,1.212,1.123,0.858,9.851,4.625,3.305,1.886,1.817,52.553,24.084,16.12,11.114,8.176,101.525,48.849,31.997,23.173,17.592,200.286,99.202,65.044,47.005,35.724],[1.772,-0.146,0.008,-0.079,-0.064,5.727,2.523,1.075,1.058,0.818,9.605,4.796,2.708,2.323,1.66,46.748,23.94,15.984,11.824,9.18,76.834,49.732,31.963,23.692,18.49,201.522,100.941,65.973,47.644,37.431],[1.279,0.03,-0.069,-0.085,-0.034,5.558,1.641,1.182,0.851,0.703,10.394,4.452,2.591,2.335,1.652,54.077,24.49,16.184,11.563,9.206,100.902,49.586,32.401,24.02,18.586,200.137,99.563,65.377,49.685,38.332],[2.146,0.103,0.086,-0.149,-0.241,5.376,2.639,1.15,0.758,0.622,10.338,4.705,2.362,2.143,1.611,49.93,25.135,16.515,11.831,9.455,98.853,50.467,32.873,23.641,19.219,193.852,100.426,65.818,48.868,39.011]],
"kep": [[-4.366,-3.495,-1.317,-4.886,-8.136,3.3,2.818,3.377,3.97,1.644,6.209,7.015,8.6,10.723,8.899,69.197,59.788,64.649,79.597,81.807,124.494,129.404,139.221,161.381,170.06,75.951,219.99,256.176,318.591,343.884],[-10.279,-5.201,-3.771,-3.842,-4.171,-4.086,-2.931,-3.46,-2.394,-2.774,-0.081,-0.125,0.131,-1.065,-0.604,31.837,22.924,19.97,18.593,17.285,67.451,55.011,44.618,39.771,40.716,-105.395,118.055,98.212,87.254,83.885],[-19.833,-5.611,-5.835,-5.326,-4.343,-11.465,-5.584,-3.847,-3.794,-3.414,-11.142,-5.056,-2.574,-1.452,-2.949,17.917,15.24,12.86,10.517,10.513,-43.905,47.007,33.991,27.831,24.48,-67.098,107.862,71.457,61.498,51.46],[-23.789,-8.901,-7.715,-5.557,-4.549,-26.219,-7.527,-5.841,-4.857,-4.587,-18.089,-5.851,-4.778,-3.372,-2.872,-13.766,14.149,10.626,7.065,7.622,-74.369,43.538,29.643,19.674,18.733,-94.32,48.543,72.415,44.868,43.932],[-35.582,-12.39,-8.654,-6.753,-6.169,-30.925,-9.017,-6.92,-6.592,-4.869,-28.93,-6.709,-5.111,-4.968,-3.434,-48.965,14.752,6.462,6.196,4.207,-84.673,34.598,25.466,18.968,15.487,-100.955,5.743,57.048,54.378,36.284],[-42.549,-13.815,-8.755,-7.466,-6.546,-44.901,-12.503,-7.6,-7.724,-6.209,-39.21,-10.579,-7.52,-5.914,-5.084,-56.55,8.589,6.397,2.263,3.366,-82.14,43.636,23.637,12.416,13.275,-91.305,-61.132,53.422,46.692,36.982]],
"vp": [[-109.719,16.35,88.213,-123.079,-1.678,-9.179,-15.442,2.579,7.482,23.917,-24.817,-10.322,0.32,25.908,-29.597,3.266,-7.222,-7.01,-2.142,-9.431,-10.916,1.969,-3.488,-13.081,-14.763,-11.654,-5.653,5.585,1.428,2.342],[1390.983,352.467,54.282,-61.249,139.185,286.76,74.129,35.913,53.778,0.308,128.341,3.579,-12.201,-25.76,-5.253,5.967,8.145,1.232,-1.668,-9.55,1.14,1.71,-3.439,-4.255,11.537,5.549,-9.916,3.11,3.481,-1.563],[2989.752,621.149,448.163,520.474,-107.02,752.343,194.066,112.694,42.343,-3.374,375.827,40.086,35.728,40.364,-39.667,51.693,0.541,11.801,-8.181,-5.42,21.912,1.269,1.703,1.313,-1.045,0.75,-7.936,-2.683,-5.635,-14.3],[5156.217,1186.423,415.827,371.959,154.743,955.948,323.34,111.162,116.246,24.609,483.155,109.398,7.352,47.943,-7.09,91.719,33.174,-0.12,-2.028,6.188,41.283,11.641,-1.661,-5.707,0.383,19.758,-5.577,5.729,-15.027,-10.231],[5932.49,2624.841,657.862,126.11,73.703,1263.007,646.706,159.984,142.653,88.685,606.929,317.387,92.574,81.155,39.004,103.401,59.627,30.524,0.468,-2.613,63.496,24.742,8.716,-1.493,-11.338,8.92,4.069,-17.982,13.331,-8.658],[6744.52,4209.985,1339.163,930.723,384.935,1302.864,949.123,356.727,97.237,85.932,687.098,455.712,128.574,63.305,28.887,133.076,83.534,39.635,7.294,7.383,47.834,63.649,16.627,-12.15,5.601,18.406,19.062,5.356,-7.874,0.117]]
}