{
"KTrans": [[7.046,2.675,3.209,4.058,5.344,1.894,1.874,4.748,3.892,3.679,1.332,7.182,7.447,4.499,4.757,26.989,17.251,15.483,11.634,15.663,71.577,34.214,29.852,33.544,26.929,-66.243,91.629,79.655,72.949,59.88],[-20.632,-3.174,1.344,1.625,2.862,-19.712,-3.565,0.463,3.164,3.049,-19.474,0.107,2.111,1.281,5.056,-13.175,2.924,5.814,5.505,6.248,-4.259,10.645,6.526,14.836,12.363,-14.266,-17.29,27.197,30.603,22.826],[-49.439,-11.08,-4.014,-2.926,-0.25,-50.876,-12.804,-5.98,0.389,0.318,-52.713,-10.183,-3.785,-1.324,-0.296,-53.795,-11.261,-1.262,1.49,4.198,-34.73,0.823,0.235,10.01,6.649,-55.626,-35.039,20.312,18.916,21.632],[-77.953,-23.522,-12.455,-7.259,-3.562,-78.173,-24.713,-10.647,-7.939,-3.283,-74.05,-20.726,-13.947,-8.442,-4.737,-65.802,-21.651,-10.175,-3.854,-2.136,-84.784,-32.098,-7.354,3.2,1.035,-66.215,-19.585,1.49,3.185,2.255],[-82.377,-32.75,-20.415,-12.668,-7.314,-86.743,-36.514,-16.498,-11.274,-6.059,-82.225,-36.334,-18.432,-11.803,-6.268,-73.365,-40.901,-16.267,-8.729,-4.617,-74.125,-26.94,-20.037,-5.943,-8.228,-73.028,-25.344,-17.928,-6.917,11.052],[-90.427,-50.18,-31.185,-15.55,-11.697,-88.367,-51.666,-23.57,-15.963,-9.7,-88.42,-42.849,-27.925,-18.754,-8.841,-85.955,-46.148,-25.52,-13.707,-10.256,-77.15,-42.839,-19.962,-15.74,-8.339,-79.219,-38.695,-17.869,-8.437,-7.338]],
"ve": [[2.974,2.883,6.766,8.99,12.132,3.294,4.977,5.909,9.884,15.976,4.136,4.199,5.257,10.161,14.16,8.352,-21.873,-3.486,-33.741,-24.007,34.08,-15.484,-1.223,-1.559,-51.036,27.759,10.105,-20.823,-18.73,-46.055],[-8.878,-1.145,0.588,0.529,1.473,-9.566,-1.545,0.651,0.869,1.524,-8.732,0.799,1.001,0.917,1.109,-1.394,3.611,2.912,1.774,2.353,17.61,-2.564,29.624,8.63,7.698,21.12,5.983,7.032,2.814,8.959],[-26.012,-4.095,-1.336,-0.998,-0.301,-25.347,-3.988,-1.678,-0.435,0.274,-25.586,-4.682,-0.659,-0.419,-0.066,-24.877,-2.892,0.376,1.784,2.246,8.224,3.895,1.136,6.313,3.536,25.003,4.79,14.485,9.262,16.071],[-46.523,-10.934,-4.757,-2.339,-1.377,-51.569,-9.956,-4.174,-2.901,-1.246,-51.736,-8.222,-4.632,-2.943,-1.162,-28.623,-5.492,-2.533,-0.127,-0.523,-50.844,-9.058,-0.266,3.985,1.473,14.668,9.553,6.615,-4.476,3.131],[-51.496,-15.766,-7.815,-5.362,-2.899,-54.555,-16.721,-6.691,-3.909,-2.129,-51.272,-18.465,-7.275,-3.943,-2,-26.501,3.348,-4.136,-1.992,-0.93,-26.704,-3.233,-9.27,-0.071,-3.037,17.512,5.121,10.386,-1.094,11.214],[-62.218,-24.955,-13.529,-6.003,-4.021,-38.129,-27.464,-9.889,-6.333,-3.951,-52.882,-22.341,-12.869,-7.007,-3.111,-49.038,-23.109,-11.207,-5.439,-2.834,-9.447,-12.861,-1.711,-4.146,-1.253,15.442,5.152,8.921,-1.031,-3.973]],
"kep": [[-4.373,-7.096,-8.089,-7.91,-6.609,-9.429,-9.624,-6.505,-9.559,-10.102,-10.584,-4.352,-3.566,-8.278,-8.329,-9.998,-2.376,-1.748,-3.897,4.185,-15.319,-11.967,-5.715,10.669,4.34,47.055,-12.552,-3.602,11.733,4.721],[-22.929,-10.065,-7.187,-6.775,-6.442,-21.972,-10.051,-8.028,-5.656,-6.318,-22.616,-8.732,-6.868,-7.458,-4.124,-39.863,-11.484,-6.869,-5.301,-4.529,-30.511,-20.873,-12.562,-3.84,-3.296,-35.662,-4.5,-22.268,-4.347,-7.463],[-46.498,-15.539,-10.43,-9.638,-7.768,-47.716,-17.169,-12.017,-7.069,-7.756,-49.944,-14.257,-10.989,-8.711,-8.047,-59.25,-19.766,-10.661,-8.757,-6.511,-51.652,-30.377,-14.454,-7.354,-7.411,-62.665,-36.108,-24.134,-14.344,-5.656],[-71.958,-22.368,-15.484,-12.549,-9.873,-75.705,-24.334,-14.407,-12.664,-9.76,-73,-22.225,-17.22,-13.188,-11.216,-74,-29.509,-17.511,-12.049,-9.809,-66.77,-46.739,-19.549,-11.118,-10.032,-74.307,-41.204,-18.238,-24.9,-15.326],[-79.348,-28.801,-20.999,-15.162,-12.081,-83.106,-31.831,-18.28,-15.155,-11.645,-78.298,-31.348,-19.708,-15.629,-11.964,-73.405,-47.951,-20.54,-15.155,-11.879,-74.527,-47.207,-32.145,-16.313,-15.173,-78.954,-46.961,-28.989,-32.898,-11.788],[-87.22,-42.782,-27.714,-17.542,-15.349,-85.127,-44.502,-22.848,-17.661,-13.488,-86.486,-39.588,-25.228,-19.821,-13.543,-80.65,-53.904,-24.66,-17.598,-15.378,-80.366,-51.425,-35.115,-22.404,-16.59,-82.403,-58.791,-37.276,-24.158,-23.678]],
"vp": [[-196.788,-90.269,-11.194,-78.092,-182.9,-3.977,-7.873,-36.196,-25.202,-10.044,-10.412,-30.054,-33.68,-16.636,-3.383,-19.26,-12.252,-15.635,-2.17,-18.886,-32.698,-8.174,-8.786,-18.831,-13.679,-10.485,-24.451,-23.507,-22.672,-15.122],[1199.194,235.187,-103.254,50.431,-191.269,205.411,74.218,-9.976,-83.174,-54.977,92.114,-14.86,-14.835,12.303,-48.269,12.882,-8.272,-11.818,-0.179,-10.562,-13.029,2.19,6.263,-21.026,-16.549,-4.571,0.839,-6.509,-18.001,-8.446],[2699.856,776.567,305.316,386.177,176.876,574.867,200.334,123.499,-12.129,-0.468,293.899,104.582,27.322,15.147,12.599,64.749,15.615,5.176,-10.07,-19.015,0.774,-6.64,3.67,-22.448,-7.909,-7.064,-0.819,-17.644,-14.271,-23.7],[5055.55,2236.374,1254.829,950.615,584.389,1154.341,416.611,253.693,202.969,108.133,495.482,174.431,145.008,117.773,68.664,70.66,29.855,21.776,3.504,9.764,66.83,28.836,7.144,-12.778,-0.725,3.491,-2.931,-2.409,3.882,8.317],[5668.5,3355.558,2405.189,2114.393,1327.171,1285.507,736.944,379.225,307.856,159.093,554.85,405.289,231.186,152.133,88.678,59.144,122.749,26.555,20.081,14.169,35.973,13.657,42.037,4.356,24.303,-3.001,-2.732,-11.409,14.737,-21.348],[7153.952,5436.827,4181.04,2281.504,1973.203,1231.11,1174.144,597.527,490.86,374.989,634.929,482.152,413.725,296.56,142.493,117.17,105.931,78.338,52.292,35.068,10.903,33.868,8.873,23.589,9.954,-2.403,-2.935,-7.73,9.39,10.876]]
}