{
"KTrans": [[2.795,1.957,1.084,1.475,1.617,12.688,7.842,6.682,5.24,4.717,28.883,15.755,14.294,11.672,10.962,-26.102,87.202,75.541,64.322,58.565,3.789,71.955,80.411,81.17,108.124,-49.786,119.65,-92.083,-151.918,1.909],[-1.939,1.461,1.269,1.239,0.488,11.509,5.242,4.888,3.573,3.191,24.181,12.143,8.146,6.889,5.986,-37.973,58.137,44.893,36.652,29.646,35.671,-67.748,89.911,83.596,62.606,40.591,97.778,-51.346,67.478,85.048],[11.722,2.392,0.342,0.65,0.386,17.098,3.052,2.204,2.549,2.572,13.824,11.163,6.832,5.556,5.592,-14.896,57.602,45.547,29.484,26.009,-1.73,-14.547,74.352,84.791,55.067,4.282,79.441,12.051,-12.639,79.744],[-34.733,8.934,-0.693,-0.358,-0.251,-42.868,5.735,2.816,3.264,1.422,-47.357,12.687,7.192,7.04,3.616,-40.57,27.093,44.176,34.492,24.919,-21.614,-19.649,41.139,69.43,54.951,25.147,-15.13,-82.577,11.732,32.036],[-69.168,11.177,-2.473,0.183,-0.737,-61.936,12.498,1.362,2.985,2.69,-58.819,23.836,8.685,2.724,4.578,-58.891,-33.013,63.146,34.082,26.697,-34.768,-26.354,-18.984,69.121,54.565,-23.978,-4.376,-19.441,22.023,40.833],[-76.602,12.602,1.475,-1.183,-0.232,-73.324,30.198,4.907,1.693,1.553,-76.062,30.953,8.726,5.388,4.408,-62.31,-41.272,49.229,30.835,23.925,-65.647,-36.573,8.168,96.658,55.795,-34.653,-16.631,20.259,-3.6,-6.942]],
"ve": [[1.134,0.164,0.484,0.62,0.321,4.814,1.616,-1.482,-1.396,-2.072,9.16,1.74,-1.622,-3.899,-6.84,38.19,16.893,1.28,-9.033,-16.921,99.641,29.643,6.988,-32.254,-26.492,199.721,78.288,33.222,23.741,-3.344],[0.514,0.38,0.306,0.063,0.219,4.979,2.874,1.631,0.965,0.454,9.668,4.598,2.669,1.683,1.14,53.333,23.63,14.617,9.518,5.705,105.149,48.666,30.942,21.427,13.523,203.33,97.192,68.793,60.789,29.024],[1.266,0.654,0.156,0.218,0.263,5.866,2.584,1.552,1.155,0.74,12.087,4.894,3.258,2.221,1.683,51.853,24.495,16.606,11.482,8.816,100.059,49.967,32.414,24.989,17.931,203.53,100.155,68.935,51.682,34.965],[2.51,1.09,0.104,0.182,0.066,4.858,2.507,1.695,1.249,0.831,10.262,4.92,3.197,2.531,1.816,50.007,25.336,16.216,12.38,9.448,101.611,53.259,32.426,25.036,19.407,200.712,102.554,73.194,48.879,39.562],[-2.84,1.166,-0.153,0.089,0.026,4.067,2.877,1.668,1.237,1.038,-28.046,5.36,3.359,2.193,1.819,51.24,25.52,17.356,12.501,9.925,101.485,51.642,32.628,47.391,19.836,200.169,103.605,67.78,47.813,35.932],[-1.689,1.102,0.302,-0.068,0.233,4.824,3.897,1.705,1.173,1.004,7.784,5.506,3.382,2.459,1.908,48.062,27.259,16.45,12.147,9.712,102.314,74.12,34.922,48.082,20.23,198.339,101.49,65.951,49.794,39.652]],
"kep": [[1.149,1.331,0.397,0.883,1.377,7.067,5.708,7.953,6.773,7.101,17.366,13.335,15.913,16.161,19.12,-43.393,60.336,73.243,80.41,90.556,-26.245,27.664,53.347,73.958,138.511,-50.159,48.941,-65.024,-127.081,2.929],[-3.376,0.504,0.37,0.592,-0.312,5.176,1.703,2.612,1.988,2.123,11.615,6.542,4.701,4.509,4.187,-51.716,26.053,25.279,23.901,21.912,-25.206,-68.14,42.732,49.501,42.195,-42.705,9.682,-53.926,18.022,36.577],[7.48,0.958,-0.416,-0.168,-0.47,8.162,-0.287,0.022,0.771,1.211,-0.172,5.123,2.812,2.645,3.225,-40.408,23.782,23.168,15.18,14.974,-46.135,-34.515,29.737,45.164,30.182,-58.687,-2.954,-23.275,-33.101,29.348],[-37.378,6.583,-1.508,-1.161,-0.915,-46.171,1.926,0.365,1.355,-0.023,-52.136,5.994,3.086,3.731,1.148,-57.42,-0.274,21.961,18.362,13.224,-57.472,-41.194,6.721,32.834,28.117,-54.581,-50.912,-77.168,-17.546,-3.956],[-68.46,8.002,-3.197,-0.598,-1.39,-63.781,7.193,-1.243,1.021,1.001,-62.335,14.936,4.132,-0.181,2.053,-71.089,-43.76,35.57,17.696,14.197,-65.524,-46.351,-34.568,32.154,26.856,-71.389,-46.793,-44.803,-15.233,2.429],[-75.93,8.433,0.021,-1.875,-1.135,-74.056,21.519,1.841,-0.322,-0.145,-76.792,19.524,3.747,2.018,1.734,-73.517,-50.696,24.336,14.926,11.762,-80.262,-54.509,-18.501,49.815,27.255,-75.283,-53.719,-23.365,-30.255,-27.381]],
"vp": [[-12.322,-17.504,34.622,38.693,-130.401,-5.933,-23.364,-14.143,-6.761,-32.981,-8.904,-12.404,2.053,-16.497,-20.64,-32.07,-6.009,5.616,-4.965,-2.702,-31.563,-27.152,4.407,4.03,-15.653,-37.127,-25.15,-5.602,13.158,-10.499],[582.569,-12.119,-48.504,-161.876,-167.056,109.702,-1.509,9.306,-33.443,-12.696,41.954,-5.092,-22.358,-13.701,-23.369,-15.973,-61.003,-31.538,-12.56,-27.527,-31.404,-64.427,-32.775,7.786,-25.87,-52.431,-46.512,-37.573,-19.249,11.433],[1951.9,457.847,261.327,74.96,40.843,301.478,68.743,6.549,15.186,-3.238,186.082,56.08,11.441,11.309,24.378,-5.539,-29.657,0.018,-44.282,-19.22,-40.933,-51.066,-47.955,-10.011,-40.047,-60.897,-51.572,-53.612,-45.736,-52.082],[3630.309,1303.208,723.546,271.589,-71.472,560.73,296.175,185.712,87.512,58.458,246.569,71.076,53.774,70.94,9.452,22.462,-12.426,-21.557,2.628,-14.835,-18.972,-39.213,-37.554,-34.918,-42.878,-39.281,-28.64,-19.721,-44.846,-31.596],[3771.54,1784.068,928.581,806.037,592.142,702.261,244.753,92.715,86.218,80.351,321.685,197.697,85.698,49.47,40.321,39.131,13.491,-3.181,-4.984,19.928,-28.321,-21.735,-51.175,-27.906,-17.585,-45.804,-23.525,-26.041,-51.965,-65.228],[4699.586,3295.543,1370.617,853.914,932.762,996.268,450.674,338.224,187.36,138.399,318.567,314.475,71.39,85.03,136.737,4.316,15.743,-2.655,-11.37,12.347,-8.852,-2.561,-12.686,-11.576,-20.371,-39.165,-22.784,-47.758,-56.119,-46.229]]
}