{
"KTrans": [[0.531,-1.591,-5.733,-1.337,1.696,5.681,10.874,7.482,6.415,6.683,6.467,15.152,16.743,23.661,14.624,-86.284,31.214,51.287,69.346,75.04,-153.298,-62.899,86.701,67.534,78.552,72.661,-13.267,56.158,81.899,42.422],[-18.833,-5.704,-0.19,-0.304,-0.794,-16.903,-6.542,0.82,1.251,2.692,-16.852,-1.493,1.837,7.247,8.549,-22.947,0.919,-28.444,12.135,26.552,7.952,-11.54,64.203,-18.609,29.331,-76.088,39.07,48.111,66.654,-24.787],[-36.541,-5.192,0.389,-0.384,-1.083,-35.596,-4.633,2.222,0.227,1.151,-41.802,1.163,5.695,1.123,-0.204,-53.399,-26.86,-18.479,4.35,-0.564,14.753,11.226,-22.001,-16.906,-15.898,49.638,-22.833,5.786,31.459,8.613],[-45.507,-4.222,0.932,1.975,0.477,-45.861,-7.96,4.186,6.35,2.608,-42.513,-7.161,10.23,4.597,3.582,-49.498,5.624,7.004,5.347,-2.029,-42.213,7.421,-8.222,33.468,-47.901,-25.614,8.925,0.023,9.848,20.438],[-58.544,-17.263,-0.77,0.093,0.774,-66.429,-17.553,-3.749,0.037,1.348,-61.085,-15.942,4.894,7.955,5.566,-49.497,-29.873,-2.199,21.701,5.837,-53.036,-16.912,6.22,-29.226,-29.653,-15.663,16.829,23.763,75.061,-73.86],[-66.777,-25.691,-5.659,-0.017,0.098,-72.755,-20.788,-0.793,2.094,2.308,-71.037,0.196,2.615,8.935,8.156,-64.206,-12.924,2.416,2.826,10.89,-59.369,-63.472,29.458,-26.819,50.782,-60.311,-32.073,23.432,8.265,-40.175]],
"ve": [[-8.401,-21.85,-33.64,62.224,-45.324,76.889,-17.968,4.656,30.044,-100.322,10.273,-50.659,-34.83,95.806,-17.419,38.153,20.007,163.53,-32.162,-56.962,127.432,29.22,-10.323,-19.069,38.78,195.313,75.578,35.367,-0.351,-19.366],[-200.43,-0.93,3.459,-1.01,8.092,0.081,194.526,8.923,7.529,30.531,10.341,15.429,6.037,14.984,-4.931,44.929,21.814,17.262,0.378,7.984,94.175,52.802,26.76,13.384,2.207,197.103,97.095,58.021,76.58,17.776],[-7.151,-3.692,-1.113,3.082,-1.869,1.465,0.975,-1.165,29.504,32.335,4.352,3.964,-1.708,100.141,-1.285,50.851,19.229,17.749,12.224,7.796,94.72,48.112,35.147,25.058,19.54,195.967,96.765,65.402,49.79,38.662],[-1.949,-1.566,-0.89,-0.757,13.979,1.384,1.684,1.353,1.144,-6.677,10.865,4.655,8.864,1.781,5.692,49.627,22.127,17.463,12.052,8.879,102.308,46.623,36.483,25.353,21.687,194.725,86.39,59.893,56.514,39.237],[-3.625,-2.483,-0.303,-0.295,-0.354,-12.924,0.226,1.134,0.123,0.112,0.724,1.354,4.433,1.517,1.519,43.446,23.722,18.676,10.436,9.65,98.104,45.822,31.157,25.854,19.448,191.531,96.817,66.139,51.204,42.503],[-13.304,0.304,-0.404,-0.739,-0.201,19.088,-1.678,1.21,0.97,0.688,-2.431,5.662,2.035,2.565,1.661,45.643,23.444,16.197,12.013,9.158,81.975,50.275,31.067,25.575,19.213,199.925,103.386,63.945,50.474,39.471]],
"kep": [[-125.085,-18.741,8.603,22.229,-11.352,-126.626,-35.197,-20.796,-8.043,-13.738,-124.659,-47.87,-39.438,-55.188,-14.024,-172.436,-222.772,-203.514,-169.547,-209.384,-109.193,-325.062,-297.554,-357.774,-409.305,35.591,-21.73,-358.956,-488.393,-647.398],[-41.827,-43.246,-118.239,-20.197,12.854,-44.803,-52.143,-106.356,-20.642,-0.609,-49.661,-45.469,-109.847,-50.478,-18.557,-50.295,-46.674,-165.406,-149.049,-104.624,-40.968,-13.92,0.811,-230.871,-185.798,-52.73,1.076,53.488,21.035,-294.347],[-54.869,-13.946,-6.904,-22.496,-118.111,-56.939,-17.463,-4.097,-25.002,-98.146,-61.911,-10.627,-0.258,-30.678,-130.712,-69.608,-52.054,-51.308,-32.054,-116.235,-49.404,-26.051,-48.932,-41.417,-80.267,-50.369,-46.758,-20.57,27.378,21.586],[-63.215,-13.243,-1.367,3.456,4.731,-66.34,-16.881,1.277,9.273,-2.49,-63.327,-21.255,8.787,3.77,-6.293,-68.439,-28.708,-20.635,-25.835,-34.57,-69.58,-34.017,-32.132,1.731,-85.017,-67.316,-43.734,-31.431,-25.917,2.074],[-73.241,-25.759,-5.2,-1.518,0.331,-78.593,-31.172,-10.994,-1.782,-0.888,-78.181,-31.998,-3.529,0.717,4.583,-71.494,-53.991,-30.078,1.471,-13.697,-75.774,-43.925,-26.222,-56.055,-58.406,-69.128,-42.326,-25.523,5.608,-67.556],[-79.016,-39.686,-11.905,-2.599,-2.138,-84.139,-34.643,-8.466,-2.798,0.386,-81.899,-22.64,-9.985,5.038,5.215,-80.289,-41.858,-21.992,-20.308,-6.316,-80.815,-71.108,-12.908,-46.924,18.054,-80.861,-61.282,-32.586,-27.725,-50.633]],
"vp": [[5.274,-47.72,310.462,36.653,-69.368,1.171,-73.339,25.633,20.957,6.91,-15.32,30.725,30.281,-0.001,-41.12,-4.304,-15.535,10.311,-26.054,-4.495,-34.984,-23.596,-38.218,-15.284,-18.33,-5.091,-42.002,-31.4,-36.585,-38.934],[1249.96,980.987,-25.453,-464.216,358.305,301.951,99.675,36.046,19.429,-29.155,192.257,31.32,-6.466,29.95,-29.564,-17.321,-32.28,-7.813,-13.457,0.252,-42.242,-35.651,-34.486,0.206,-29.98,-48.034,-64.64,-49.881,-55.821,-10.162],[3294.445,1927.908,1197.91,391.959,114.228,758.274,259.589,60.289,42.761,-74.08,270.399,136.032,40.355,78.29,13.947,25.164,-12.562,-0.244,-37.758,-27.277,-9.323,-40.309,-34.222,-61.281,-52.033,-47.05,-72.017,-36.012,-66.35,-39.175],[3947.29,3316.933,2205.415,654.418,731.485,967.164,472.271,54.251,121.193,141.535,340.292,288.35,149.473,29.476,57.501,40.215,-2.409,7.512,-10.671,-22.773,3.193,-29.177,-42.793,-35.128,-23.96,-15.104,-71.537,-59.434,-49.974,-41.317],[4573.694,4227.266,2263.304,1666.609,522.162,799.082,798.487,343.912,189.711,168.242,460.073,301.51,252.26,117.774,75.361,37.559,83.983,34.534,-7.333,-10.789,-7.314,-31.069,-46.643,-25.005,-32.194,-35.948,-5.133,-43.91,-49.134,-22.544],[5757.644,6212.932,3049.84,1733.221,1009.616,1031.294,864.036,596.98,372.954,146.93,361.661,800.277,384.653,140.086,124.519,91.683,50.283,-9.656,22.833,1.282,-9.641,16.423,-26.263,-15.951,-17.434,-17.567,2.274,-64.117,-49.491,-35.446]]
}