{
"KTrans": [[2.391,1.288,0.918,0.867,0.605,12.27,7.635,5.926,5.258,4.844,25.124,15.883,12.565,11.049,10.178,163.1,93.889,73.587,64.545,60.23,416.47,222.919,180.329,154.548,140.617,387.324,533.057,409.606,376.869,349.191],[3.22,1.29,0.812,0.538,0.378,12.235,5.91,4.052,3.079,2.685,22.417,12.121,8.463,6.612,5.514,171.891,67.54,44.637,35.084,30.127,-160.861,158.146,98.073,76.288,67.218,-65.094,413.247,239.639,179.527,154.53],[2.768,2.004,0.867,0.663,0.476,9.96,6.34,3.941,3.059,2.437,20.866,10.71,7.565,5.904,4.861,188.201,66.434,39.6,31.832,25.543,-134.035,155.797,95.298,70.688,56.629,-63.67,681.859,216.062,158.232,128.608],[5.676,1.56,1.094,0.948,0.612,14.581,6.301,3.934,3.206,2.485,25.334,11.282,7.458,5.922,4.566,67.085,75.761,37.033,30.129,24.1,-117.753,174.342,82.74,68.266,52.992,-96.226,4.067,222.169,154.507,117.822],[8.868,2.664,1.203,0.812,0.922,12.467,6.47,4.989,3.122,2.428,34.786,12.284,7.482,5.845,5.05,-9.339,62.781,39.88,31.528,23.019,-46.534,194.321,102.266,61.205,47.804,-110.744,-7.394,332.167,152.429,117.204],[9.453,5.518,2.289,1.838,0.647,25.982,10.151,4.947,2.631,2.493,24.429,13.141,7.608,6.519,4.577,-53.153,80.403,43.85,29.2,22.559,-56.457,229.166,106.312,70.635,49.812,-51.174,-110.359,353.359,155.915,119.073]],
"ve": [[0.83,-0.086,-0.666,-1.209,-1.61,4.2,0.429,-1.66,-3.339,-4.794,8.459,1.265,-2.524,-5.505,-8.014,45.762,13.188,-1.255,-11.15,-18.761,94.431,34.755,9.048,-7.004,-17.703,186.904,81.754,36.098,11.524,-4.513],[1.14,0.525,0.275,0.104,-0.035,5.101,2.388,1.386,0.775,0.355,9.963,4.759,2.792,1.646,0.85,50.012,23.935,14.462,9.125,5.567,100.022,48.253,29.598,19.475,12.631,202.668,98.54,61.269,41.957,29.302],[1.084,0.638,0.375,0.259,0.164,5.006,2.592,1.644,1.161,0.828,9.977,4.951,3.213,2.274,1.656,49.461,24.959,15.858,11.461,8.525,100.36,49.397,32.606,23.328,17.475,200.33,100.69,64.711,47.929,36.274],[1.219,0.586,0.415,0.329,0.236,5.201,2.62,1.721,1.283,0.975,10.147,5.06,3.331,2.465,1.882,50.07,25.485,16.232,12.028,9.325,100.784,49.628,32.416,24.401,18.933,196.667,100.687,65.146,48.902,38.397],[1.302,0.682,0.435,0.322,0.296,5.063,2.642,1.831,1.308,1.025,10.493,5.128,3.378,2.531,2.018,43.48,24.899,16.596,12.408,9.635,99.303,50.009,33.686,24.445,19.253,203.12,99.57,67.492,49.059,39.015],[1.464,0.843,0.535,0.438,0.268,5.92,2.895,1.826,1.287,1.061,10.17,5.17,3.398,2.623,2.026,50.797,25.337,16.875,12.419,9.785,95.691,50.929,33.685,25.178,19.683,200.599,101.142,67.278,49.52,39.577]],
"kep": [[2.678,2.504,2.726,3.239,3.391,8.942,8.37,8.917,10.111,11.353,16.638,15.717,16.776,18.838,21.127,81.776,73.182,77.803,87.366,99.627,165.451,141.729,159.805,176.869,195.859,75.674,252.551,277.681,332.011,376.118],[3.179,1.883,1.655,1.552,1.531,7.945,4.59,3.771,3.426,3.461,12.493,8.213,6.691,6.054,5.79,81.061,36.488,27.726,25.158,24.644,-121.474,75.131,54.267,49.108,50.111,-78.923,156.875,111.616,98.498,98.774],[2.716,2.481,1.608,1.52,1.428,5.778,4.798,3.397,3.01,2.726,10.948,6.645,5.373,4.701,4.301,90.617,34.343,21.75,19.554,16.957,-111.221,71.398,48.499,39.759,34.735,-82.364,281.86,92.156,75.699,69.231],[5.314,2.071,1.792,1.736,1.493,9.821,4.708,3.309,3.031,2.625,14.643,7.059,5.143,4.522,3.776,11.177,41.08,19.099,17.395,14.75,-104.988,82.627,39.053,36.521,29.95,-94.367,-43.266,94.008,71.672,58.702],[8.121,3.051,1.875,1.603,1.744,7.674,4.828,4.236,2.919,2.516,22.469,7.908,5.105,4.375,4.117,-38.578,31.108,21.129,18.231,13.417,-70.489,94.785,52.166,30.691,25.186,-100.145,-48.99,155.756,69.763,57.275],[8.307,5.702,2.852,2.514,1.493,19.332,8.111,4.182,2.445,2.542,13.014,8.627,5.193,4.941,3.636,-67.567,44.412,24.197,16.112,12.833,-76.169,115.918,54.912,37.442,26.395,-80.857,-101.046,167.494,71.469,57.888]],
"vp": [[-14.566,-13.012,-19.308,-9.542,-19.73,-24.818,-1.417,-10.752,-5.256,-8.281,-23.202,-1.044,-4.292,-5.96,-7.488,-11.474,-5.813,-2.983,-6.543,-3.447,-17.472,5.47,11.656,2.158,5.642,-33.056,-4.131,-13.201,-5.123,2.408],[110.295,6.427,-17.701,-17.104,-19.058,19.516,-4.527,-15.609,-17.86,-8.318,8.391,4.64,-5.768,-1.675,-9.279,-2.471,-0.911,-22.798,-8.837,-6.63,-12.991,-8.628,-22.099,-6.757,0.041,-14.995,-7.823,-18.252,-1.162,2.808],[303.573,138.801,36.04,9.997,-23.833,39.485,21.105,4.116,11.35,-13.219,5.649,3.439,-10.961,-7.356,-18.485,-22.999,7.411,-15.407,-2.375,-20.696,-1.844,-10.291,5.829,-0.938,-15.948,-10.509,-15.988,-16.239,-4.451,-9.811],[494.645,276.368,158.995,85.833,36.798,90.826,33.581,17.496,9.687,17.051,38.944,22.955,13.408,7.55,-3.561,0.831,16.267,-17.563,-8.234,-6.464,16.231,-16.879,-23.408,2.967,0.762,-1.827,-11.559,-18.259,-4.686,-1.948],[623.106,421.208,226.648,181.332,107.58,160.435,75.626,69.093,46.899,27.097,55.412,51.877,16.018,8.417,14.027,31.35,1.229,-4.799,0.448,-5.617,7.803,-15.237,12.103,-10.849,-11.301,-8.026,-16.607,2.353,-16.141,-6.911],[1713.171,743.902,396.523,279.794,189.496,257.259,76.251,92.723,36.985,33.029,187.791,62.996,43.196,37.545,5.449,71.598,4.421,11.002,-5.232,-10.035,24.7,9.749,6.462,8.476,-2.327,2.866,22.556,-8.188,-15.886,-5.797]]
}