{
"KTrans": [[1.175,2.786,1.579,0.997,2.076,6.074,14.316,14.532,9.873,11.994,11.461,26.631,23.895,23.955,21.854,-51.569,78.678,94.236,97.363,97.476,-240.856,33.521,126.029,145.984,151.586,-306.067,-120.984,13.392,133.117,154.425],[-3.685,-0.081,-0.654,1.147,1.542,3.873,5.71,2.343,4.84,4.866,17.98,10.017,3.573,9.873,9.093,117.939,91.627,-17.384,29.957,38.886,30.306,151.209,-35.772,16.749,58.154,91.828,-363.863,-75.603,-68.124,42.03],[-9.955,-1.136,0.372,0.384,-0.106,-2.592,5.125,3.823,3.276,0.944,7.934,9.829,8.019,7.627,1.079,106.621,78.482,57.403,38.18,-4.524,89.938,158.544,139.916,51.728,-54.288,-18.899,117.192,109.984,-40.077,-128.708],[-12.8,-0.978,0.2,-0.245,0.47,-5.75,2.008,2.61,2.929,2.715,1.015,8.477,7.838,6.636,5.235,49.751,62.003,46.681,37.541,36.559,29.486,125.168,113.624,89.979,79.629,-49.905,199.233,121.117,189.106,97.169],[-19.062,-3.104,-0.974,-0.069,-0.125,-12.811,2.396,1.803,2.213,3.043,-7.835,6.089,7.276,5.384,4.673,28.715,59.103,39.478,34.406,32.745,-49.926,122.841,104.313,81.979,69.294,-163.785,9.262,210.557,172.515,158.466],[-25.431,-2.141,-1.223,-0.142,-0.568,-16.972,1.773,1.783,1.608,2.608,-12.844,5.845,5.664,6.126,4.848,12.686,52.853,39.201,34.636,29.179,-19.958,92.926,92.14,77.327,60.929,-74.284,118.36,224.75,143.13,138.114]],
"ve": [[-0.235,5.536,8.314,13.442,9.191,-2.574,-15.304,10.651,0.037,-38.913,11.202,42.06,112.08,-45.164,43.308,46.917,-4.16,-59.958,-95.118,-27.859,97.802,31.808,-8.3,-33.074,-46.856,209.455,80.899,31.097,2.998,-16.17],[-0.112,-1.009,3.392,2.009,1.76,3.835,2.147,0.734,4.398,3.915,9.829,4.115,2.652,-2.911,5.555,49.66,21.284,19.348,7.562,9.019,99.452,52.189,34.609,18.636,-30.387,198.325,100.7,64.296,43.431,27.106],[-0.224,-0.07,-0.055,-0.346,0.808,3.83,2.135,1.42,0.988,0.915,8.521,4.6,3.245,2.182,1.782,47.729,25.394,17.022,14.836,10.378,100.798,47.679,27.009,26.634,19.831,203.983,103.881,68.949,51.665,39.85],[-0.778,0.347,0.334,0.013,-0.027,3.96,2.235,1.625,1.136,0.797,8.934,4.713,3.146,2.5,1.992,45.142,24.704,16.986,12.769,10.188,102.869,47.876,33.655,25.179,20.847,191.524,143.902,70.538,50.825,42.321],[0.85,0.413,0.207,0.106,-0.025,4.633,2.723,1.38,1.222,1.148,8.845,4.442,3.373,2.403,2.121,52.964,25.01,16.454,12.954,10.61,99.92,48.649,33.209,25.355,20.471,199.016,101.38,68.015,50.419,35.733],[-1.059,0.338,0.159,0.289,0.027,4.424,2.269,1.371,1.038,1.266,5.283,4.809,3.114,2.52,2.036,48.72,24.801,16.52,12.818,10.384,98.205,48.334,33.21,25.427,20.404,189.565,99.958,64.983,47.625,39.844]],
"kep": [[-131.649,-13.427,0.853,-3.076,-0.78,-126.655,-31.889,-28.432,-10.926,-23.174,-115.137,-53.128,-37.706,-40.419,-39.933,-220.31,-233.323,-188.07,-176.851,-186.356,-330.512,-432.126,-363.744,-363.706,-398.277,-241.446,-478.022,-657.301,-639.415,-729.589],[-11.443,-6.956,-135.671,-1.438,-6.156,-6.921,5.069,-123.169,-16.02,-14.163,5.238,7.456,-129.976,-38.169,-17.921,39.989,81.146,-243.015,-185.276,-98.769,-59.934,74.775,-192.603,-328.048,-193.621,-50.05,-323.156,-221.884,-409.897,-360.828],[-14.923,-3.584,-0.36,-4.775,-128.95,-10.527,1.049,2.951,2.373,-135.085,-7.016,3.487,7.882,15.515,-148.311,28.543,50.866,60.247,57.444,-224.018,-18.326,74.467,117.891,16.996,-358.052,-77.919,-6.196,10.303,-142.909,-346.365],[-18.03,-3.914,-0.494,-2.481,-1.195,-13.583,-2.784,1.96,1.977,3.611,-11.797,2.639,5.172,8.092,7.71,-9.833,28.82,35.026,38.522,60.696,-45.105,45.599,73.247,78.503,101.015,-88.387,28.14,19.005,115.892,41.902],[-24.276,-5.997,-1.577,-0.364,-1.207,-22.482,-0.652,-0.726,0.807,4.15,-20.496,-1.787,3.882,3.211,4.731,-23.41,25.774,21.788,26.868,35.911,-81.387,42.319,56.328,57.601,66.767,-119.413,-55.743,80.613,89.057,110.742],[-31.424,-4.15,-2.522,-1.117,-2.319,-26.736,-2.542,-0.191,-0.711,2.522,-27.072,-0.507,1.763,4.076,3.571,-33.49,19.817,20.259,23.946,24.318,-66.8,20.633,44.164,47.988,45.388,-94.11,-9.295,84.447,61.982,84.395]],
"vp": [[50.389,53.148,-90.341,-11.044,-74.15,-8.491,-4.336,-7.681,-29.596,-17.001,-2.879,8.992,-8.216,6.91,-13.668,-2.66,-7.977,0.975,-10.547,0.692,2.34,-0.301,-4.53,-5.574,8.491,-7.084,-2.311,-0.21,-6.571,-5.876],[832.795,159.135,155.26,107.277,-149.046,142.536,39.488,-3.232,-32.425,-15.764,84.703,-27.719,-23.187,7.547,-13.91,9.528,14.244,0.65,8.151,-5.094,6.73,1.973,-6.029,0.243,-8.7,-9.87,-7.752,-17.996,5.169,-3.567],[2304.548,53.817,123.154,104.708,-19.906,364.381,70.58,41.213,35.135,-24.293,206.612,42.689,-8.934,14.729,4.271,51.713,4.469,-3.896,-9.021,-6.977,10.504,-2.145,0.337,-8.476,1.924,1.14,-3.508,-4.816,-17.726,-9.473],[4366.839,1059,149.419,43.998,129.015,780.655,147.22,44.298,62.395,37.805,342.684,64.22,-7.056,-23.53,11.66,72.809,11.944,-5.507,-7.06,-1.776,25.681,0.15,-3.864,-5.807,-7.868,6.03,11.519,-2.266,-4.665,-5.813],[5501.464,1513.593,378.869,277.727,233.127,1010.75,387.751,130.015,43.137,84.191,542.043,197.851,22.238,25.501,9.815,103.461,31.864,3.548,-4.516,0.161,38.223,8.783,8.286,1.444,-13.809,16.165,-5.577,-4.98,-0.556,2.689],[6342.395,2268.895,822.133,401.781,521.205,1298.532,576.378,157.906,91.383,34.91,573.188,237.973,88.062,25.465,46.557,116.457,38.05,0.003,18.296,14.1,48.348,22.251,5.187,5.136,0.269,17.121,27.373,10.254,-5.1,-8.839]]
}