{
"KTrans": [[-1.764,7.253,-6.935,-0.266,4.01,6.755,10,10.351,2.489,4.496,11.581,24.381,19.168,16.545,12.272,-18.796,63.729,68.971,76.814,80.155,-52.816,17.056,90.154,91.286,115.42,-220.412,-63.616,-20.703,-90.053,92.603],[-36.88,-17.375,0.766,3.28,-0.294,-32.392,-8.036,1.011,6.068,5.079,-25.906,-9.368,2.955,10.561,11.464,-36.062,-3.187,-9.388,24.209,28.629,25.027,4.47,-3.786,19.268,34.207,-47.282,-49.413,-3.511,-0.786,33.304],[-58.052,-19.03,-11.303,-4.82,-0.526,-44.477,-18.678,-11.451,-3.064,1.776,-48.96,-13.308,-6.428,-2.259,1.098,-41.371,0.025,10.059,6.528,0.361,-26.696,-27.534,3.853,-0.981,-10.372,-91.677,-58.009,-86.35,54.458,-10.431],[-65.412,-28.053,-8.999,-8.463,-4.367,-62.001,-20.181,-11.731,-4.176,-4.681,-60.993,-20.188,-5.253,-0.363,-4.635,-59.952,-11.764,0.891,5.69,6.493,-73.555,-13.677,-5.926,1.57,-4.404,-68.602,-21.688,-1.066,-41.897,-61.412],[-72.602,-29.721,-16.026,-7.593,-4.313,-69.429,-28.826,-6.738,-3.015,-5.435,-72.001,-35.051,-8.469,-5.474,-1.453,-67.753,-15.35,-8.346,3.276,11.702,-75.106,-42.887,-8.457,-10.703,4.096,-80.731,-16.259,-29.272,24.106,-12.579],[-75.154,-34.24,-15.241,-9.663,-7.517,-74.206,-34.35,-11.829,-7.723,-6.481,-67.988,-33.052,-11.353,-6.972,-1.73,-81.38,-27.736,-5.09,13.598,4.274,-91.334,-41.438,-20.777,-1.456,18.188,-58.293,-77.471,-16.888,4.87,-9.81]],
"ve": [[-42.95,-37.805,-35.775,-36.651,-21.838,35.488,-25.018,178.93,-13.817,1756.031,-15.11,-12.42,3.647,-42.718,-33.238,99.731,6.977,1511.377,-20.267,-58.697,92.706,37.743,-15.785,-37.924,-40.133,146.717,88.865,24.926,1.825,-20.037],[-25.406,-7.727,10.156,-32.762,-3.357,-22.298,-0.148,-165.878,-315.628,-35.585,30.083,-5.903,10.025,2.463,13.619,31.435,37.636,18.417,-10.873,22.479,90.254,94.705,48.344,20.494,-1.864,189.736,90.791,28.552,40.421,23.064],[-76.14,-23.448,2.754,3.848,11.419,6.942,-10.859,1.022,63.543,9.303,2.545,5.496,-8.113,-29.079,-0.462,29.446,24.042,-4.244,16.148,15.697,83.156,48.578,38.702,27.34,16.641,192.204,102.137,68.518,46.577,78.671],[12.957,-5.682,-4.43,-1.991,1.461,-4.121,-3.403,0.514,-3.609,-1.422,4.05,-3.724,-1.794,-1.97,-15.839,42.853,22.311,14.067,30.066,11.288,94.121,83.909,34.656,22.752,15.278,203.075,100.284,75.577,48.902,40.044],[-75.266,-4.516,-4.357,-2.352,-1.253,-25.943,15.094,-0.167,-1.354,693.037,15.231,0.42,-0.116,1.47,-13.605,27.332,26.941,27.567,6.21,6.035,102.335,41.527,11.445,34.112,17.253,147.595,112.554,62.727,45.715,37.799],[-2.768,-6.027,-1.387,-1.087,-3.005,7.568,-3.872,-1.216,-1.146,-0.491,2.535,-0.411,0.348,-0.003,-0.335,26.677,33.208,16.193,8.992,8.968,138.294,49.01,138.233,22.539,20.671,190.756,98.898,61.731,48.536,38.734]],
"kep": [[-120.742,-73.19,-13.852,-9.807,-36.982,-107.206,-88.075,-40.99,0.795,-63.876,-130.855,-103.55,-56.348,-41.14,-35.654,-164.346,-209.964,-192.163,-171.959,-190.799,-152.848,-286.727,-294.152,-370.223,-430.46,-98.187,-230.874,-460.475,-659.858,-602.705],[-81.617,-99.618,-125.988,-64.321,-16.426,-77.616,-80.416,-110.404,-68.811,-23.724,-77.011,-78.488,-140.737,-99.458,-42.533,-91.483,-94.183,-181.44,-156.019,-110.761,-62.927,-65.416,-139.62,-202.272,-193.974,-77.852,-89.815,-82.776,-190.143,-266.821],[-84.844,-48.599,-52.949,-72.925,-129.447,-73.639,-55.582,-59.145,-74.539,-103.712,-81.07,-49.727,-49.283,-82.103,-141.239,-81.08,-48.941,-41.785,-71.197,-166.19,-78.641,-70.562,-65.359,-86.438,-161.152,-87.191,-76.406,-105.042,-25.29,-112.128],[-85.809,-46.445,-26.604,-35.617,-44.119,-82.926,-42.376,-35.46,-28.883,-41.01,-84.83,-45.785,-25.321,-17.579,-47.838,-88.181,-49.859,-38.61,-40.41,-46.638,-90.33,-59.43,-56.332,-54.767,-67.832,-86.61,-70.315,-48.967,-81.248,-116.226],[-90.301,-48.854,-28.662,-20.856,-15.708,-87.591,-50.335,-20.491,-15.734,-26.534,-90.33,-55.732,-23.133,-20.805,-17.693,-91.22,-53.193,-44.171,-27.612,-14.406,-90.556,-74.477,-48.35,-58.17,-37.995,-89.597,-63.99,-60.871,-28.295,-55.306],[-90.607,-51.022,-27.206,-19.763,-21.096,-89.985,-52.724,-25.496,-20.669,-18.835,-86.438,-55.613,-27.49,-19.703,-10.423,-95.466,-58.513,-35.141,-13.065,-19.528,-98.478,-71.911,-58.571,-37.412,-16.448,-86.892,-85.727,-56.15,-40.852,-49.01]],
"vp": [[573.185,401.906,189.212,221.069,248.651,75.544,64.43,68.734,64.11,64.214,-47.054,-36.154,5.155,22.651,7.394,-1.338,-13.819,-17.086,-11.53,-8.904,-11.669,-6.382,-0.433,-3.778,3.536,-6.859,7.832,-13.735,3.09,-15.548],[2362.204,723.831,-345.705,-881.433,327.032,594.586,160.322,-60.868,-45.867,154.51,255.121,79.577,21.213,-42.367,-29.118,46.628,-9.891,-11.117,-34.453,15.666,12.056,-33.789,-25.512,-9.521,11.652,-23.67,-8.297,-34.707,-12.251,-20.401],[4840.905,3274.363,1941.093,676.871,-273.094,895.117,671.425,243.579,91.293,-177.95,458.248,335.191,195.002,31.187,-31.903,59.26,41.522,-7.482,-27.083,1.01,34.292,10.175,-9.329,-13.288,-6.548,-20.724,5.151,-4.649,-28.622,-4.862],[5337.704,5057.256,2863.26,2325.378,1304.749,867.593,913.364,723.706,356.832,136.42,621.86,465.665,361.755,202.487,85.657,107.055,80.681,29.272,41.221,17.783,39.736,10.387,15.489,1.403,-17.721,-0.189,-7.575,-22.061,-30.757,-19.362],[6628.182,6751.531,3984.99,3350.254,1536.408,1375.382,1388.676,1123.651,655.161,344.421,657.961,684.352,523.273,224.435,132.272,128.453,125.81,86.533,48.408,13.741,44.217,51.448,35.197,17.319,-22.819,13.898,-16.414,-13.114,-44.921,-35.305],[6797.19,7884.42,6214.737,3963.2,2808.197,1312.014,1806.522,1229.089,689.254,354.074,683.202,910.821,623.27,359.718,230.398,133.362,171.405,130.004,93.258,35.411,63.35,58.974,37.082,13.793,3.803,21.164,9.779,-8.206,-30.784,-17.207]]
}