{
"KTrans": [[-19.437,-9.039,-6.769,-6.976,-3.777,-16.208,-6.858,-8.135,-3.887,-6.51,-20.061,-9.912,-6.474,-5.121,-4.072,-16.64,-11.89,-3.557,-3.483,-5.996,-14.498,-10.214,-8.394,-2.089,-2.187,-18.81,-10.647,-6.249,-8.807,-3.745],[-65.142,-26.036,-17.318,-14.924,-15.04,-73.135,-24.667,-20.404,-12.711,-13.087,-69.094,-24.392,-17.12,-14.726,-9.934,-67.611,-24.661,-17.878,-19.834,-16.385,-65.74,-28.93,-16.55,-15.245,-14.526,-51.386,-21.894,-13.999,-11.257,-11.751],[-84.797,-14.278,-33.932,-33.133,-18.373,-87.819,-26.3,-26.246,-25.027,-18.424,-83.844,-25.521,-32.254,-26.034,-16.902,-90.891,-47.701,-30.307,-23.636,-21.063,-87.196,-35.439,-21.938,-24.729,-19.87,-92.809,-26.277,-30.044,-23.061,-19.473],[-98.496,-77.841,-38.144,-26.041,-24.273,-100.995,-33.571,-47.127,-23.237,-31.698,-105.164,-41.583,-31.927,-22.357,-17.549,-103.584,-67.837,-19.315,-27.202,-23.75,-95.129,-50.909,-21.291,-20.879,-23.046,-94.572,-56.325,-17.831,-33.19,-18.035],[-104.027,-85.382,-2.111,-32.014,-30,-109.341,-80.086,0.238,-26.917,-31.348,-119.592,-90.049,-42.918,-18.393,-34.596,-111.093,-80.772,-58.227,-15.033,-32.339,-102.323,-83.732,-43.81,-30.749,-29.429,-115.149,-84.824,-43.403,-33.928,-25.73],[-110.083,-86.03,15.901,21.989,-22.698,-117.297,-91.189,-17.091,-46.627,-31.075,-110.419,-90.209,-61.814,-14.391,-44.46,-108.966,-94.603,-38.77,-17.191,-30.53,-110.172,-98.138,-68.697,-35.193,-31.912,-109.315,-88.969,-53.584,-40.084,-29.174]],
"ve": [[-14.098,-2.34,4.67,12.499,26.218,-14.595,-3.212,5.538,13.112,34.213,-14.443,-3.194,5.652,13.655,-361.491,-12.734,-3.486,2.464,8.881,32.672,-14.433,-3.247,4.512,7.748,25.663,-13.261,-3.256,3.963,15.48,24.998],[-62.136,-22.823,-16.182,-8.966,-6.46,-63.516,-25.202,-14.927,-8.971,-6.29,-62.809,-23.841,-15.277,-9.619,-5.898,-63.392,-22.667,-15.143,-10.243,-6.766,-58.918,-24.74,-14.592,-9.482,-6.658,-61.59,-23.634,-13.47,-9.059,-6.237],[-77.022,-33.569,-25.989,-21.89,-14.817,-77.188,-37.232,-29.469,-21.131,-13.676,-79.176,-39.449,-27.811,-21.259,-13.823,-87.793,-47.49,-27.827,-20.076,-14.218,-121.513,-44.513,-24.845,-21.409,-14.752,-88.732,-39.828,-28.518,-21.187,-15.661],[-100.975,-67.591,-44.376,-28.877,-23.005,-109.201,-57.218,-42.766,-25.733,-21.292,-111.632,-54.268,-40.819,-27.873,-21.749,-111.948,-66.785,-32.88,-28.514,-20.017,-88.287,-63.189,-34.372,-21.908,-22.07,-101.564,-57.4,-32.125,-30.366,-18.222],[-101.943,-80.779,-43.311,-36.306,-30.477,-121.579,-79.951,-46.012,-37.354,-31.799,-136.81,-85.41,-59.505,-32.983,-31.761,-113.227,-79.081,-58.599,-33.946,-30.947,-107.211,-87.1,-55.063,-36.609,-27.297,-128.656,-81.87,-53.133,-33.599,-26.014],[-132.96,-84.751,-55.552,-41.491,-34.156,-144.032,-91.861,-63.093,-49.281,-32.501,-118.935,-95.057,-70.349,-46.751,-39.743,-116.784,-95.69,-65.99,-44.328,-37.265,-125.962,-96.066,-79.239,-46.792,-34.25,-125.558,-82.41,-70.213,-44.78,-32.548]],
"kep": [[-6.294,-6.518,-8.094,-11.186,-9.232,-2.767,-3.312,-10.084,-7.165,-14.537,-6.97,-6.557,-7.881,-9.768,-11.208,-4.982,-8.381,-3.811,-5.909,-12.901,-0.186,-6.654,-9.834,-4.461,-7.021,-6.927,-6.928,-7.126,-13.67,-9.729],[-61.522,-5.161,-1.617,-6.901,-8.991,-71.103,1.148,-6.958,-4.294,-7.336,-63.565,-2.334,-2.482,-5.535,-4.285,-61.08,-2.703,-3.019,-10.842,-10.27,-59.442,-4.933,-2.798,-6.668,-8.288,-58.642,2.529,-0.948,-2.792,-5.843],[-68.854,3.062,-8.375,-12.816,-3.988,-73.927,-1.574,4.824,-4.178,-5.842,-67.632,5.371,-4.964,-5.445,-3.927,-75.126,-6.334,-2.455,-4.057,-8.002,-67.871,-1.33,0.811,-3.492,-5.957,-73.179,2.112,-2.243,-2.623,-4.367],[-70.853,-67.662,12.839,4.327,-1.564,-73.843,-49.397,0.045,1.865,-12.161,-67.184,-51.974,16.25,4.91,4.155,-67.435,-65.529,12.491,1.942,-5.262,-73.437,-54.973,11.236,0.758,-1.805,-69.77,-54.792,9.206,-2.932,-1.288],[-71.283,-64.288,-32.102,5.452,0.655,-77.512,-64.995,-23.063,11.423,1.163,-73.149,-68.613,-41.795,13.609,-1.837,-73.982,-68.378,-37.622,18.448,-0.184,-74.392,-66.586,-30.096,8.29,-3.409,-71.925,-68.994,-44.253,0.455,-0.867],[-77.986,-61.575,-47.123,26.38,10.761,-74.804,-61.644,-39.537,-2.315,2.103,-78.951,-58.065,-61.315,11.674,-0.395,-78.64,-63.406,-51.309,18.674,9.064,-79.67,-62.095,-64.214,0.555,5.054,-79.031,-67.413,-62.298,-9.253,3.189]],
"vp": [[1837.942,1566.545,1746.917,1615.104,1804.221,374.507,398.461,450.943,354.366,387.252,190.826,180.636,170.051,201.653,194.598,31.751,38.862,42.669,34.245,32.345,18.863,19.333,14.206,18.155,18.647,7.773,8.092,9.699,8.755,9.026],[6503.624,4987.39,6503.836,4563.442,5451.557,1286.618,1172.279,1041.338,1027.383,1017.616,671.853,522.324,573.983,562.058,530.67,136.503,99.706,114.394,99.235,103.728,62.785,55.015,55.427,48.014,55.543,32.819,28.478,26.923,26.308,26.748],[7874.816,6702.992,7861.901,8739.362,9429.846,1755.699,1490.352,2071.878,1946.948,1558.449,791.923,820.178,870.543,965.774,862.025,193.114,202.655,183.098,184.073,153.359,84.98,94.909,84.249,101.873,86.818,45.268,44.576,45.929,48.788,48.651],[9931.706,14642.25,14453.382,12973.781,13248.109,2207.879,2298.661,2581.427,2255.851,2012.517,1136.585,1102.158,1340.884,1257.495,1319.678,230.13,269.785,211.827,256.96,200.399,87.408,132.626,107.288,94.376,122.528,51.306,57.198,51.363,64.421,50.796],[10047.527,16927.122,12940.976,15188.826,16803.296,2392.966,3225.028,2914.474,3324.904,3511.227,1403.403,1735.483,1522.428,1416.534,1703.94,226.02,313.21,373.058,310.681,338.962,106.011,182.417,173.604,152.833,140.124,66.035,82.602,82.305,67.317,66.144],[12581.536,16781.533,16870.376,17930.875,18295.742,2978.374,3729.635,3909.426,4081.084,3313.011,1197.643,1949.163,2208.769,2006.785,2037.393,242.732,369.89,412.565,377.672,393.846,126.75,192.496,252.126,190.166,177.683,61.012,82.141,107.303,93.556,82.078]]
}