{
"KTrans": [[-8.797,2.805,2.538,2.399,2.32,-52.358,13.604,12.567,12.006,11.586,-60.681,26.311,24.421,23.619,22.922,-51.749,83.627,98.413,99.741,99.749,-681.258,47.053,133.564,152.753,161.604,-700.252,-263.547,9.707,125.381,170.779],[2.577,1.577,0.208,1.081,0.985,13.134,8.041,10.166,5.217,4.941,27.038,16.683,8.8,10.093,9.735,183.538,112.284,-8.019,32.744,40.274,406.476,281.001,-12.309,22.862,60.425,1009.366,680.218,-190.729,-105.048,37.789],[2.4,1.386,1.013,0.837,-0.672,11.683,6.594,4.996,4.394,-6.92,23.729,13.756,10.324,9.085,-18.983,139.632,78.706,61.49,56.657,-89.806,369.723,187.612,149.155,150.523,109.991,862.729,448.764,371.976,416.777,-92.424],[2.49,1.198,0.919,0.811,0.659,10.789,5.8,4.563,3.694,3.254,23.699,12.366,9.093,7.339,6.65,137.482,67.748,51.125,42.197,38.377,330.323,161.98,111.725,92.769,92.631,723.348,407.002,282.161,232.087,241.026],[1.896,1.216,0.897,0.675,0.616,10.869,5.614,4.154,3.523,2.901,21.848,11.08,8.325,7.02,5.947,125.963,63.872,45.698,38.324,32.147,284.223,152.442,104.426,84.346,72.849,643.146,348.927,240.763,192.072,167.953],[2.074,1.145,0.844,0.651,0.541,9.846,6.051,3.844,3.181,2.698,19.681,11.318,8.072,6.306,5.701,117.508,61.686,44.788,35.25,30.239,252.889,141.994,100.301,75.208,62.808,513.942,322.681,229.779,167.539,148.551]],
"ve": [[1,1.212,1.395,1.682,2.004,5,7.032,8.172,10.062,11.973,10.138,19.008,20.194,25.48,31.575,50.767,-0.821,-46.733,-78.646,-93.536,101.318,31.185,-6.185,-29.813,-45.123,202.882,85.689,33.357,4.038,-15.121],[1.056,0.581,0.333,0.405,0.384,5.21,2.828,1.682,2.161,2.074,10.36,5.561,3.396,4.907,4.48,51.226,26.355,16.91,1.901,54.661,100.388,51.102,33.599,18.857,0.915,218.725,103.337,66.589,45.748,27.335],[1.038,0.544,0.382,0.304,0.201,5.091,2.637,1.854,1.495,0.998,10.143,5.274,3.688,2.921,2.008,50.205,25.822,17.775,13.421,10.048,100.495,51.103,34.836,26.016,20.097,195.934,100.518,67.781,42.57,40.299],[1.046,0.525,0.366,0.294,0.241,5.046,2.56,1.786,1.388,1.166,10.136,5.146,3.537,2.738,2.307,50.238,25.403,17.4,13.382,10.93,100.162,50.704,34.264,26.115,21.304,195.214,100.682,67.811,51.309,41.35],[1.018,0.527,0.362,0.274,0.232,5.058,2.547,1.738,1.355,1.106,10.065,5.058,3.455,2.685,2.207,50.051,25.259,17.115,13.182,10.72,99.641,50.551,34.104,26.016,21.151,225.059,100.217,67.47,51.104,41.3],[1.022,0.523,0.357,0.272,0.221,5.025,2.572,1.71,1.314,1.074,10.011,5.07,3.43,2.606,2.165,49.99,25.174,17.059,12.982,10.605,99.576,50.295,33.997,25.684,20.789,201.828,99.926,67.348,50.746,41.18]],
"kep": [[-1026.128,-4.569,-3.537,-3.483,-3.633,-1172.502,-23.199,-18.285,-18.085,-18.569,-745.743,-47.594,-36.41,-36.289,-37.749,-274.987,-237.845,-187.284,-181.079,-190.673,-866.499,-478.715,-375.054,-367.406,-379.661,-516.488,-818.385,-758.636,-726.938,-759.037],[2.103,3.09,-106.144,-3.368,-1.897,10.03,14.792,413.443,-16.948,-10,19.647,28.839,59.261,-34.659,-20.34,103.418,141.865,-209.083,-175.506,-100.779,168.87,261.191,-226.48,-342.206,-203.202,277.137,394.147,-442.735,-637.029,-408.021],[1.603,1.365,1.64,2.983,-483.311,7.05,5.825,7.433,15.057,-837.811,13.659,11.998,15.049,29.405,-1063.845,62.822,57.041,74.292,132.103,-1025.95,136.898,115.098,149.264,273.377,384.061,214.772,199.245,269.706,503.543,-384.329],[1.569,0.93,0.975,1.256,1.62,5.832,3.987,4.424,5.137,7.448,12.91,8.518,8.47,9.782,14.77,58.77,39.425,41.975,49.307,71.461,113.435,83.618,78.215,92.336,144.91,165.508,163.971,162.177,181.93,283.938],[0.974,0.892,0.81,0.756,0.914,5.681,3.499,3.261,3.62,3.873,10.953,6.582,6.307,6.995,7.805,50.376,33.832,30.883,34.359,37.349,90.306,72.602,63.963,67.456,76.368,139.023,127.503,119.155,123.506,140.607],[1.142,0.787,0.695,0.63,0.63,4.639,3.797,2.653,2.682,2.785,8.798,6.568,5.535,5.108,5.902,44.041,31.043,28.014,26.627,28.138,72.798,63.595,56.823,50.775,52.166,94.663,111.982,106.54,93.458,105.14]],
"vp": [[-5.849,-3.864,-4.158,-5.966,-6.071,-5.286,-2.063,-1.767,-3.25,-2.005,-7.73,-0.543,-3.574,-1.458,-3.291,-9.809,-0.448,0.665,-1.982,-0.443,-10.535,-0.619,0.653,0.265,-1.557,-5.247,-2.179,0.155,-0.531,-1.101],[28.27,8.013,-9.808,-3.603,-7.81,6.09,-2.202,-4.889,-1.709,-1.331,3.104,-0.126,-7.447,-0.375,-1.277,3.977,0.067,-10.215,0.422,-0.195,-4.257,-0.869,-5.668,0.296,-0.189,-5.09,-0.253,-7.081,-1.103,0.783],[108.302,44.376,21.358,3.52,-8.557,23.621,6.129,0.939,-1.045,-7.63,6.378,1.425,-1.604,0.386,-9.443,-3.621,-2.054,-2.102,-1.165,-9.274,-1.156,-3.656,-1.41,-2.086,-8.893,-3.107,-2.084,-2.492,-2.633,-7.97],[211.015,88.287,49.259,30.312,16.156,44.295,13.244,6.021,3.641,1.345,17.011,8.97,4.731,-0.141,1.089,1.312,-0.155,-0.583,0.511,-3.514,-2.421,-1.615,-1.741,-3.118,-1.07,-3.362,-1.807,-5.1,-1.236,-2.503],[367.376,171.445,97.347,58.096,36.059,64.255,26.888,18.217,14.859,5.221,37.143,12.725,8.176,3.813,4.289,-3.104,1.615,-0.034,-1.256,-1.534,-8.713,0.235,-0.447,-2.8,-2.027,-2.246,-1.574,-2.782,-3.053,-2.332],[599.793,269.83,158.548,100.239,65.169,101.11,53.882,27.986,19.328,14.775,41.811,29.227,12.103,6.613,6.193,0.468,0.685,1.583,-0.214,2.558,3.816,-1.896,0.537,-1.558,-4.692,8.967,-3.383,-1.746,-2.782,-1.928]]
}