{
"KTrans": [[-46.203,-65.343,-83.074,-100.277,-87.126,-54.974,-71.38,-71.771,-95.097,-71.14,-51.544,-46.817,-93.424,-104.637,-83.104,20.073,-18.75,-40.135,-9.939,-40.826,56.855,48.515,84.071,33.463,25.348,218.021,247.706,214.332,249.953,209.588],[-66.036,-52.938,-50.609,-66.525,-77.928,-65.576,-44.368,-53.973,-55.794,-78.905,-53.594,-42.326,-53.483,-51.9,-62.097,-36.935,-16.073,-11.246,-12.385,-28.767,-7.811,11.084,-1.632,2.776,0.595,34.718,77.205,72.634,58.632,77.143],[-74.009,-54.833,-47.756,-43.117,-51.566,-77.475,-52.762,-49.275,-36.955,-53.777,-69.939,-48.448,-38.482,-44.097,-36.044,-57.927,-32.772,-21.684,-20.713,-15.763,-43.015,-18.246,-11.366,-10.34,3.084,-5.828,30.53,36.471,8.715,39.572],[-81.027,-60.488,-55.758,-47.312,-47.284,-77.646,-62.302,-48.882,-42.677,-40.99,-73.808,-59.872,-42.993,-41.342,-38.04,-70.487,-47.457,-32.763,-23.886,-24.127,-57.93,-34.611,-18.823,-15.12,-18.332,-36.097,-12.042,7.301,5.04,19.985],[-84.796,-66.826,-58.646,-41.054,-48.978,-84.265,-69.146,-57.11,-45.983,-46.79,-83.792,-63.043,-49.905,-48.013,-39.221,-76.111,-57.81,-49.417,-39.299,-28.572,-67.939,-50.544,-34,-25.85,-15.776,-47.994,-13.024,-11.343,-4.029,5.509],[-88.283,-72.52,-57.916,-53.012,-48.104,-86.313,-72.168,-58.671,-54.44,-43.752,-87.517,-71.475,-60.009,-48.651,-39.476,-79.843,-63.699,-54.928,-42.166,-33.764,-73.026,-53.799,-49.345,-33.965,-31.147,-58.209,-39.11,-16.469,-14.692,-7.367]],
"ve": [[-59.901,-34.135,-56.676,-85.152,-6.452,-52.159,53.643,-8.839,-49.155,23.298,-60.735,-47.742,-22.321,-51.348,-63.081,-160.57,-44.367,-108.362,-61.688,-78.814,24.687,-11.223,8.927,-54.749,-58.207,601.793,148.59,32.414,18.302,-30.584],[-79.34,124.472,-57.301,-61.033,-47.043,-170.153,30.11,-55.06,-169.585,-67.321,-46.506,-13.003,-85.483,-38.843,-25.749,-3.579,-13.922,-84.751,-14.591,17.879,139.842,7.261,-19.15,6.654,-26.671,326.52,87.737,60.33,45.609,33.334],[-85.089,-355.327,-42.202,-50.67,-47.946,-46.546,-64.248,-46.053,-14.603,-54.523,-17.93,3.335,-94.581,-42.622,-38.771,119.676,316.935,49.147,-217.587,-16.758,70.504,44.867,3.705,-9.788,-1.557,396.138,149.684,110.995,7.825,24.993],[-57.413,-33.484,-102.096,-43.272,-25.962,-29.036,-11.521,-43.979,-15.965,-45.581,298.619,-26.801,-24.505,-52.652,-42.438,103.479,12.394,-8.848,21.646,-25.303,60.855,56.839,7.046,10.859,-15.961,268.781,131.591,77.428,37.907,41.814],[-1.859,-11.416,-28.811,-30.475,-59.236,-16.921,-41.535,-65.335,-29.699,-59.584,16.195,-0.815,-29.158,-45.245,-58.012,30.065,-20.097,-33.597,-43.676,-28.167,98.139,18.306,-9.942,-17.37,4.183,307.002,271.911,89.564,25.369,17.327],[6.368,-1.65,-35.91,-66.528,-52.152,-70.937,-8.505,-51.354,-61.019,-72.173,4.431,-65.262,-37.219,-60.606,-44.988,221.026,-183.382,-60.14,-36.82,-46.328,148.231,125.684,-13.149,-27.634,-34.382,361.624,135.991,155.458,35.811,32.46]],
"kep": [[-108.449,-63.972,-92.216,-47.871,-73.104,-112.706,-114.411,-86.962,-45.379,-106.254,-113.488,-113.869,-17.306,23.958,-25.974,-104.086,-116.752,-105.076,-132.247,-153.518,-129.437,-160.921,-190.064,-210.103,-166.274,-122.338,-197.069,-204.847,-297.467,-352.007],[-106.188,-98.94,-116.457,-106.012,-34.52,-101.538,-114.041,-123.315,-110.643,-56.635,-101.092,-102.619,-113.113,-114.194,-42.893,-94.138,-96.859,-122.86,-104.147,-106.385,-100.077,-97.283,-110.964,-158.151,-112.267,-105.432,-92.26,-121.267,-156.71,-160.827],[-97.016,-85.8,-82.319,-104.677,-111.742,-96.972,-85.587,-87.775,-116.164,-129.638,-96.515,-87.352,-90.945,-100.148,-123.736,-100.65,-90.888,-91.34,-90.256,-120.651,-101.601,-91.76,-81.631,-116.499,-107.337,-97.669,-83.244,-93.305,-103.106,-99.767],[-103.162,-88.173,-66.067,-86.109,-79.453,-100.217,-94.747,-77.07,-70.197,-88.394,-99.073,-89.583,-81.809,-62.306,-83.746,-100.113,-92.222,-77.647,-78.827,-66.496,-95.744,-92.324,-69.505,-71.972,-72.876,-96.102,-80.658,-78.44,-78.236,-94.188],[-99.64,-91.976,-80.973,-62.939,-60.962,-101.04,-91.389,-69.45,-63.725,-60.821,-101.92,-96.171,-77.148,-69.356,-59.847,-100.077,-84.257,-71.009,-56.889,-62.189,-100.402,-86.35,-67.504,-55.511,-60.659,-96.423,-100.682,-83.302,-59.461,-62.826],[-102.26,-95.159,-76.926,-64.603,-51.919,-99.299,-93.694,-75.335,-55.725,-52.911,-100.351,-94.388,-82.529,-52.548,-49.499,-99.564,-89.68,-72.326,-56.487,-47,-101.092,-92.71,-77.38,-54.464,-50.291,-101.766,-89.793,-91.702,-69.94,-72.581]],
"vp": [[358.409,332.422,-89.935,586.36,733.883,-158.038,-135.312,-36.842,223.94,103.062,-23.508,-17.071,0.786,113.793,100.256,-28.237,4.802,-35.436,-6.91,-27.225,-17.384,-11.968,-26.381,-24.239,-16.928,-34.209,-7.111,-6.551,-28.96,-23.174],[2718.229,582.534,150.82,-842.825,304.805,643.184,271.899,-137.823,-161.647,-208.42,299.034,-2.29,-25.35,-0.656,26.527,31.665,11.723,-26.702,-23.77,-12.124,6.258,-13.401,-17.095,-36.984,2.972,-7.2,-25.634,-24.551,-33.762,-28.033],[4372.92,2977.114,3318.252,1783.066,201.078,802.814,814.267,357.512,337.289,-52.836,420.439,409.506,206.744,103.843,41.534,79.519,51.533,39.402,3.458,-6.783,9.391,18.516,-4.712,-13.821,-22.144,-0.999,6.56,-6.645,-34.916,-40.463],[5513.855,5568.908,3275.309,3801.415,1408.799,1075.787,1164.685,933.153,712.222,376.277,602.685,531.745,548.608,248.324,261.805,69.693,78.796,94.773,62.687,15.519,17.26,37.414,31.377,10.097,16.463,1.825,-1.089,-6.207,-34.043,-3.602],[4812.568,8174.819,6931.07,5760.339,3740.71,1078.017,1476.297,1352.382,1079.865,637.208,614.068,936.992,607.77,439.458,399.255,107.97,130.213,105.467,71.973,63.175,43.257,34.615,24.77,21.161,22.374,-1.257,32.884,0.657,-20.094,-11.874],[5574.736,10493.499,10395.355,6898.807,5713.656,1333.542,1845.642,1574.324,1116.529,1251.283,611.297,1023.022,910.341,767.437,551.211,108.636,138.091,115.624,115.402,71.654,55.655,42.549,47.876,30.614,12.115,-3.463,7.401,30.158,22.556,0.296]]
}