{
"KTrans": [[-32.983,-13.538,-9.268,-0.872,-0.295,-56.33,-0.946,-2.921,0.156,-9.628,-41.731,-13.017,-11.405,2.771,-5.08,-42.594,-6.52,-5.847,-1.661,5.229,-35.582,5.562,-0.664,-2.824,-1.742,-54.685,-7.645,6.157,-3.872,-0.768],[-84.419,-46.821,-22.521,-15.747,-8.912,-86.098,-48.431,-17.377,-4.024,-14.019,-86.689,-61.139,-14.123,-8.453,-14.675,-83.081,-47.515,-25.416,-13.599,-14.799,-88.104,-48.204,-10.895,-4.8,-5.455,-86.683,-45.797,-21.454,-7.13,-3.516],[-91.511,-70.92,-46.412,-20.44,-13.703,-91.834,-65.786,-42.71,-17.125,-15.4,-93.384,-66.691,-41.566,-21.516,-23.902,-92.172,-66.828,-39.679,-27.393,-13.548,-91.537,-68.692,-37.498,-17.053,-13.793,-94.909,-71.838,-36.975,-17.283,-9.345],[-94.787,-81.08,-58.978,-38.197,-28.043,-96.46,-79.67,-62.881,-50.618,-22.923,-96.672,-79.907,-59.108,-37.493,-27.357,-96.757,-77.491,-58.092,-43.512,-21.118,-95.96,-82.503,-60.767,-37.466,-27.01,-95.653,-80.223,-61.051,-41.887,-23.864],[-96.915,-85.584,-71.914,-54.794,-29.314,-97.159,-81.832,-68.722,-51.654,-37.737,-97.933,-87.657,-73.06,-59.959,-36.557,-98.019,-86.67,-69.015,-48.879,-27.053,-97.594,-85.239,-74.337,-48.495,-35.549,-97.302,-85.419,-71.351,-60.199,-33.566],[-99.385,-87.804,-80.214,-65.788,-54.115,-100.235,-89.663,-79.308,-62.023,-54.344,-98.089,-87.568,-71.737,-65.448,-53.981,-99.081,-88.835,-77.736,-62.011,-54.532,-98.529,-92.147,-77.537,-65.473,-42.218,-99.406,-88.624,-71.901,-68.348,-43.442]],
"ve": [[-540.043,5618.564,1.321,222.449,-54.695,-398.407,-245.436,-18.947,286.416,-95.24,-11.518,-21.21,-1.959,-14.699,33.278,1.247,24.454,11.538,-52.926,-11.126,11.578,14.31,-149.303,-277.713,20.205,-13.548,-15.247,37.927,137.204,-39.147],[-69.631,-29.859,-857.532,-14.921,1.575,-86.736,-12.984,-8.429,-1.469,1.108,-58.74,-40.759,-18.744,-2.717,-3.891,-12.607,-30.99,-13.816,-5.24,-2.231,-123.537,-22.984,-20.11,-1.335,-1.274,-54.884,-14.868,-7.177,-0.079,0.561],[-105.73,-50.776,-11.533,-12.727,-9.443,-68.861,-33.805,-29.646,-11.991,-9.049,-58.594,-46.743,-19.562,-15.648,-12.032,-51.852,-43.526,-42.109,-15.96,-7.941,-136.816,-14.607,-22.718,-14.019,-8.776,-142.412,-52.558,-30.359,-11.365,-15.212],[1.12,-48.248,-37.053,-30.903,-19.602,-90.526,-59.015,-48.011,-34.506,-14.059,-55.854,-58.834,-48.783,-23.369,-17.177,-61.304,-48.595,-39.318,-26.37,-14.551,-71.07,-34.54,-58.276,-29.205,-19.738,-101.8,146.192,-36.007,-27.747,-17.479],[-55.239,-62.49,-53.585,-35.37,-25.658,-236.872,-58.593,-48.622,-31.51,-27.022,-92.187,-77.607,-57.337,-40.113,-27.584,-94.036,-47.86,-49.037,-31.108,-21.844,-83.887,-61.266,-48.817,-35.657,-24.376,-77.248,-57.281,-35.711,-41.523,-21.415],[-74.317,-78.053,-66.899,-45.457,-32.542,-100.601,-72.411,-56.948,-42.97,-35.746,-95.976,-72.578,-49.077,-47.377,-30.761,-94.908,219.496,-71.623,-34.336,-37.768,-32.478,-76.824,-59.384,-48.052,-34.871,-101.445,-62.484,-55.943,-45.212,-23.473]],
"kep": [[-54.006,-31.125,-19.465,-12.405,-7.122,-71.817,-11.832,-15.995,-2.922,-33.523,-53.563,-26.398,-22.557,-9.778,-28.153,-60.403,-22.224,-18.324,-15.641,-5.773,-49.909,-0.523,-10.481,-18.278,-25.467,-70.366,-18.059,-4.95,-10.372,-12.235],[-88.998,-42.231,-16.114,-11.464,-7.696,-86.645,-46.075,-11.633,-2.898,-12.744,-91.814,-58.334,-7.687,-4.818,-9.739,-85.769,-50.144,-17.166,-6.911,-12.088,-93.391,-42.369,-4.118,-3.027,-3.226,-89.216,-40.483,-16.806,-4.299,-1.781],[-91.801,-71.844,-38.55,-10.512,-2.561,-91.68,-64.312,-31.132,-7.896,-7.011,-93.898,-67.036,-31.307,-7.751,-13.354,-93.52,-66.023,-30.133,-15.299,-5.276,-91.6,-67.663,-27.775,-8.808,-5.901,-93.723,-72.001,-28.859,-8.471,-2.205],[-96.286,-78.968,-52.612,-25.417,-11.907,-95.298,-77.414,-61.189,-31.642,-11.905,-95.234,-79.363,-54.195,-20.799,-12.261,-96.131,-76.038,-53.53,-28.682,-8.753,-97.492,-79.736,-57.978,-20.942,-8.926,-94.163,-80.228,-57.314,-24.283,-7.576],[-93.725,-80.853,-70.86,-43.844,-11.392,-95.272,-79.006,-69.014,-41.535,-17.691,-96.985,-83.956,-67.116,-47.971,-17.331,-95.816,-83.353,-68.745,-38.24,-10.973,-95.38,-82.815,-71.508,-37.131,-20.852,-95.419,-81.219,-70.24,-51.853,-18.575],[-97.587,-85.432,-78.621,-61.422,-39.529,-95.052,-87.409,-76.783,-58.169,-40.874,-96.299,-86.337,-69.301,-62.436,-42.59,-96.165,-84.793,-74.802,-55.896,-38.22,-97.804,-89.326,-74.973,-62.151,-32.244,-99.034,-85.953,-71.926,-61.899,-34.056]],
"vp": [[1917.821,2091.866,1899.091,1167.726,1217.118,569.115,158.239,313.716,218.646,324.834,259.211,218.675,210.791,97.954,127.786,46.041,36.724,21.445,28.915,22.47,17.101,6.815,16.773,8.248,11.721,12.516,7.857,1.436,5.622,2.876],[6781.088,5828.691,4764.357,4463.081,4657.009,1276.981,1193.342,918.506,634.955,680.126,651.53,928.677,594.88,321.024,479.462,108.63,117.11,107.026,77.216,93.967,65.472,64.165,39.864,39.458,34,33.259,27.135,16.703,19.169,20.898],[7369.797,10566.803,8573.571,7390.424,7695.496,1491.761,1784.029,1787.63,1331.078,1282.698,779.335,1077.421,846.501,865.082,786.339,152.679,185.102,190.708,140.99,114.055,73.606,94.906,81.448,68.267,71.905,41.518,52.6,40.796,32.39,32.4],[8083.433,12427.169,12767.228,12229.196,11858.753,1615.319,2242.71,2867.577,3285.053,1475.579,845.701,1206.542,1392.579,992.971,1036.016,168.648,229.321,247.117,244.597,166.703,84.691,126.581,135.048,136.586,122.468,38.847,60.959,67.1,68.825,48.902],[8260.166,13011.054,16985.178,15855.716,15076.526,1603.07,2269.078,3262.91,2924.664,2865.679,892.631,1494.218,1644.314,1807.133,1625.27,176.671,276.895,322.95,295.054,216.736,81.293,135.895,162.827,149.051,123.276,42.863,75.114,87.856,91.567,57.537],[9432.8,13191.651,19379.116,19013.987,17090.979,2043.338,3062.965,3700.795,3644.159,4029.475,842.354,1517.592,1578.356,1969.541,2087.839,188.092,286.525,374.289,371.826,436.672,82.102,159.837,176.435,201.896,184.151,44.664,73.109,81.095,96.898,86.215]]
}