{
"KTrans": [[-0.076,0.16,0.037,0.133,-0.076,0.091,-0.022,-0.159,-0.129,-0.057,-0.367,-0.118,0.167,-0.249,0.089,-0.405,-0.36,-0.095,-0.45,-0.157,-1.054,-0.75,-0.497,-0.286,-0.457,-2.577,-1.553,-1.409,-1.229,-1.544],[0.597,0.059,-0.15,0.002,0.167,-0.419,0.195,-0.093,-0.001,0.1,-0.192,0.324,0.102,0.035,0.111,-0.269,-0.211,-0.131,-0.179,-0.183,-1.433,-0.585,-0.257,-0.325,-0.291,-3.096,-1.112,-0.795,-0.461,-0.4],[-0.212,0.215,-0.036,0.226,0.06,0.31,0.087,0.138,0.004,0.122,-1.05,0.165,0.06,-0.018,0.099,-0.759,-0.077,-0.167,-0.099,-0.116,-1.538,-0.649,-0.484,-0.258,-0.138,-2.905,-1.538,-1.027,-0.262,-0.706],[-0.707,0.235,0.239,0.135,0.171,-0.127,0.057,0.531,-0.081,0.12,-0.901,0.45,-0.254,0.055,0.036,-0.871,-0.052,-0.122,-0.091,-0.114,-3.188,-0.485,-0.464,-0.28,-0.075,-6.076,-1.134,-0.983,-0.35,-0.402],[-1.901,0.102,0.174,0.142,-0.007,-2.381,0.484,0.333,0.084,-0.07,-1.696,-0.069,0.22,0.271,0.125,-1.711,0.1,0.086,-0.157,-0.133,-1.77,-0.415,-0.158,-0.257,-0.233,-7.188,-0.421,-0.621,-0.692,-0.5],[-2.921,0.915,-0.043,0.016,0.177,-1.63,0.04,0.196,0.055,-0.027,-4.108,0.233,0.182,0.305,0.116,-4.294,-0.309,-0.054,0.233,0.088,-4.79,-0.67,-0.856,-0.078,-0.119,-11.227,-0.417,-0.626,-0.505,-0.409]],
"ve": [[-0.264,0.027,0.136,-0.094,0.078,0.18,-0.03,0.063,0.155,0.234,-0.016,0.124,0.012,0.06,-0.295,-0.29,-0.159,0.044,0.477,0.313,-0.463,-0.055,0.174,0.304,0.517,-0.839,-0.122,0.553,0.716,1.73],[0.174,0.083,-0.125,0.057,0,-0.126,-0.053,0.003,-0.041,0.01,-0.013,-0.002,0.004,-0.018,-0.065,-0.49,-0.17,-0.061,-0.004,-0.038,-0.709,-0.298,-0.21,-0.12,-0.035,-1.62,-0.446,-0.297,-0.135,-0.101],[0.015,0.082,-0.003,0.01,-0.02,-0.082,-0.044,0.007,-0,-0.03,-0.527,0.013,-0.029,-0.053,-0.002,-0.645,-0.194,-0.144,-0.097,-0.069,-1.02,-0.361,-0.202,-0.163,-0.084,-1.836,-0.777,-0.501,-0.268,-0.237],[-0.524,-0.069,-0.01,0.016,0.005,-0.406,-0.046,0.013,-0.059,-0.009,-0.608,0.055,-0.093,-0.04,-0.03,-0.769,-0.109,-0.14,-0.06,-0.079,-1.333,-0.385,-0.237,-0.147,-0.08,-2.825,-0.918,-0.363,-0.266,-0.238],[-0.774,0.006,0.037,0.027,-0.016,-1.126,-0,-0.055,-0.003,-0.003,-0.898,-0.125,0.025,-0.005,0.009,-1.507,-0.044,-0.175,-0.101,-0.042,-1.807,-0.368,-0.229,-0.143,-0.154,-4.063,-0.664,-0.4,-0.326,-0.292],[-1.659,-0.032,0.049,-0.007,-0.014,-1.459,-0.126,-0.074,0.035,0.02,-1.531,0.002,0.093,-0,0.013,-2.26,-0.178,-0.055,-0.054,-0.07,-2.571,-0.262,-0.282,-0.141,-0.134,-5.147,-0.604,-0.46,-0.395,-0.246]],
"kep": [[0.195,0.146,-0.076,0.266,-0.097,-0.082,0.024,-0.191,-0.239,-0.238,-0.345,-0.228,0.181,-0.276,0.428,-0.113,-0.189,-0.108,-0.886,-0.407,-0.592,-0.671,-0.639,-0.529,-0.891,-1.767,-1.395,-1.881,-1.804,-3.023],[0.423,-0.022,-0.024,-0.054,0.169,-0.3,0.249,-0.095,0.041,0.092,-0.179,0.327,0.099,0.054,0.177,0.213,-0.044,-0.068,-0.174,-0.144,-0.743,-0.291,-0.047,-0.204,-0.254,-1.563,-0.684,-0.502,-0.326,-0.297],[-0.243,0.132,-0.033,0.216,0.08,0.392,0.13,0.131,0.005,0.153,-0.53,0.151,0.088,0.036,0.101,-0.131,0.117,-0.024,-0.002,-0.047,-0.543,-0.295,-0.283,-0.097,-0.054,-1.126,-0.781,-0.535,0.005,-0.471],[-0.193,0.303,0.248,0.119,0.167,0.282,0.103,0.518,-0.022,0.13,-0.31,0.394,-0.16,0.095,0.066,-0.109,0.053,0.018,-0.031,-0.035,-1.911,-0.105,-0.229,-0.134,0.005,-3.414,-0.237,-0.629,-0.086,-0.167],[-1.153,0.093,0.137,0.115,0.01,-1.296,0.481,0.388,0.088,-0.068,-0.83,0.056,0.195,0.276,0.116,-0.234,0.142,0.263,-0.056,-0.091,-0.02,-0.053,0.067,-0.115,-0.079,-3.405,0.218,-0.229,-0.369,-0.212],[-1.303,0.947,-0.093,0.024,0.19,-0.212,0.168,0.27,0.02,-0.047,-2.607,0.228,0.089,0.306,0.102,-2.109,-0.133,0,0.287,0.158,-2.314,-0.413,-0.578,0.062,0.014,-6.545,0.16,-0.173,-0.113,-0.166]],
"vp": [[8.353,1.528,-5.394,-2.307,7.612,-0.981,2.028,2.204,1.226,3.32,-0.551,1.517,-0.235,1.844,-0.179,0.666,0.605,0.503,0.592,0.162,0.547,0.594,0.289,0.462,0.523,0.567,0.547,0.624,0.511,0.773],[-0.547,1.712,23.79,-7.924,1.946,3.309,-1.197,1.492,-0.612,0.883,0.739,0.314,-0.419,-0.011,0.797,0.895,0.585,0.454,0.416,0.839,0.712,0.654,0.358,0.627,0.624,0.87,0.555,0.504,0.423,0.368],[2.69,-13.814,21.908,3.999,-8.156,3.292,-2.001,-0.832,-2.498,3.235,4.715,-0.599,0.36,1.404,-0.345,1.108,0.598,0.825,0.742,0.646,0.941,0.686,0.699,0.714,0.448,0.889,0.685,0.732,0.571,0.644],[52.31,23.782,-4.77,1.878,-8.99,10.421,-0.679,0.597,0.986,-2.445,6.28,-0.874,0.893,0.698,-0.09,1.484,0.317,0.314,0.404,0.52,1.311,0.698,0.64,0.637,0.505,1.481,0.906,0.553,0.577,0.693],[78.017,-10.226,-5.88,-22.181,1.293,21.812,0.994,3.893,-0.528,-1.701,9.012,0.864,0.989,0.229,-0.667,2.846,0.264,0.973,0.568,0.409,1.752,0.683,0.527,0.542,0.715,2.021,0.698,0.542,0.736,0.738],[172.972,1.66,-26.718,-2.445,12.823,25.074,4.448,3.792,-1.843,-2.865,15.551,0.624,-2.731,0.067,-0.106,4.719,0.351,0.276,0.498,0.551,2.527,0.491,0.845,0.648,0.688,2.573,0.637,0.651,0.809,0.602]]
}