{
"KTrans": [[4.025,12.199,12.151,15.678,20.666,6.472,13.803,17.777,23.235,24.279,16.619,29.009,21.917,33.735,31.932,106.733,105.615,82.124,84.599,75.818,81.683,174.764,143.179,148.31,156.541,109.045,288.92,221.871,266.417,255.425],[-36.243,-10.392,0.299,5.049,7.164,-32.65,-4.726,1.756,10.526,10.709,-29.074,0.416,8.746,11.561,10.068,0.553,32.217,28.413,37.837,28.604,-3.203,70.104,65.54,66.301,63.088,-63.883,87.698,122.01,131.654,122.575],[-59.444,-24.442,-11.694,-6.111,-0.179,-53.337,-16.485,-12.316,-3.902,-0.104,-53.754,-19.173,-8.663,-0.728,1.359,-39.353,6.493,11.371,17.339,17.09,-53.086,21.076,47.394,37.127,38.778,-55.238,-15.346,61.803,77.394,85.491],[-71.284,-38.068,-21.849,-13.331,-7.543,-68.836,-30.792,-20.86,-12.593,-9.02,-65.814,-29.999,-18.338,-10.896,-5.85,-47.637,-14.434,-5.095,3.449,8.863,-65.181,-2.953,14.735,28.551,27.399,-92.263,-25.783,39.399,61.155,57.767],[-76.492,-42.607,-30.383,-21.737,-13.735,-72.593,-39.616,-28.911,-20.451,-10.884,-70.667,-40.188,-24.769,-18.213,-11.382,-65.399,-28.679,-10.438,-6.96,-2.113,-56.844,-17.866,2.541,6.167,15.664,-82.866,-11.471,22.396,36.704,38.918],[-82.267,-44.915,-35.096,-25.685,-19.26,-81.687,-44.255,-34.544,-23.445,-18.059,-77.117,-43.087,-31.469,-23.607,-19.126,-71.084,-35.361,-23.512,-13.053,-6.764,-74.609,-39.356,-12.595,-1.046,5.032,-99.395,-28.561,-0.586,10.822,27.599]],
"ve": [[17.865,61.214,-74.83,-18.208,-277.575,19.375,-92.606,15.194,232.878,-366.387,229.546,-26.135,-18.7,-80.799,668.388,33.89,79.279,-24.484,158.759,-189.848,118.914,17.445,-10.823,35.87,12.102,179.959,67.25,32.507,30.249,-11.382],[46.808,4.462,6.404,11.628,23.579,4.275,5.083,6.918,8.35,18.661,11.129,7.474,6.744,8.588,21.103,54.472,21.189,14.663,14.924,21.659,92.002,43.149,29.514,25.568,22.563,184.565,137.602,32.402,87.796,33.711],[-1.292,-0.988,-2.03,0.786,1.549,-0.364,-2.274,-0.27,0.447,3.317,14.939,2.761,-0.527,1.665,5.524,42.15,19.903,11.292,8.234,8.38,119.792,49.217,28.899,19.624,17.155,177.112,85.361,166.015,48.629,35.284],[3.604,-4.007,-5.237,-3.472,-2.54,9.765,-0.061,-2.402,-2.276,-0.276,-21.776,-0.323,-0.115,-1.857,0.671,63.511,17.472,10.575,7.082,6.335,93.343,38.527,24.777,17.921,14.6,174.789,79.282,44.45,40.141,33.96],[76.367,-5.527,-4.665,-6.104,-5.324,13.49,-3.81,-1.996,-2.057,-4.231,11.641,-1.315,-2.021,-3.693,-0.825,-133.063,17.382,8.886,6.281,4.143,85.598,38.817,27.347,17.493,15.658,180.3,78.049,60.189,47.982,31.433],[55.972,-5.47,-6.496,-6.032,-5.819,1.347,-3.65,-4.258,-5.595,-3.927,7.854,1.477,-2.725,-3.884,-3.367,33.69,18.551,9.077,4.592,3.277,58.321,46.701,25.834,17.184,13.173,172.627,79.149,-10.286,37.977,30.742]],
"kep": [[-44.619,-50.762,-58.892,-69.271,-65.779,-46.434,-49.975,-51.816,-54.911,-69.813,-44.698,-36.204,-56.754,-45.646,-51.801,-21.514,-4.834,-15.542,-4.137,-12.49,-41.441,9.044,10.383,25.923,52.696,-48.673,24.238,25.653,67.387,95.517],[-65.207,-49.297,-44.568,-44.49,-46.629,-64.351,-46.786,-44.668,-40.302,-44.501,-62.592,-43.94,-40.671,-39.975,-45.46,-59.691,-37.459,-35.727,-30.656,-38.415,-69.001,-33.057,-27.102,-24.483,-23.464,-84.721,-42.415,-22.3,-10.463,-4.916],[-77.704,-55.61,-48.32,-46.753,-44.038,-76.451,-50.541,-49.501,-45.449,-44.844,-75.343,-54.093,-47.462,-44.302,-45.156,-76.241,-48.93,-43.144,-38.637,-38.778,-85.045,-52.911,-35.307,-35.288,-32.829,-86.035,-70.941,-42.336,-29.954,-22.602],[-84.614,-62.841,-52.723,-49.111,-46.213,-84.775,-59.681,-53.725,-49.193,-48.258,-83.379,-59.738,-53.316,-48.444,-47,-79.444,-58.783,-51.357,-45.189,-42.048,-89.104,-60.432,-48.213,-38.552,-37.12,-94.169,-75.795,-50.634,-36.636,-33.471],[-87.499,-65.138,-58.272,-52.604,-48.469,-85.599,-64.144,-58.637,-53.918,-47.431,-86.325,-65.291,-56.366,-51.812,-49.525,-86.849,-65.345,-53.512,-50.541,-46.858,-86.396,-67.263,-54.561,-49.11,-43.621,-94.068,-72.001,-55.656,-46.567,-41.382],[-91.167,-66.748,-60.642,-55.194,-51.46,-90.331,-67.149,-61.193,-53.981,-51.787,-88.682,-68.051,-60.095,-54.975,-52.777,-88.248,-68.997,-60.405,-53.076,-49.081,-91.628,-75.88,-60.862,-52.51,-47.794,-97.1,-77.406,-65.075,-56.19,-45.51]],
"vp": [[-543.581,154.669,670.599,582.925,600.075,-20.23,-2.414,64.062,4.299,51.379,-80.63,19.653,17.629,-73.847,82.203,-17.64,-10.588,27.076,3.545,24.649,-31.874,-10.178,-9.792,7.627,-9.395,-40.156,-38.237,-34.97,-20.514,-45.073],[3793.124,1249.478,-201.039,-566.919,870.999,570.533,159.445,19.875,37.964,27.323,348.657,91.569,-85.35,23.43,10.22,0.163,-6.442,-40.087,-32.231,-18.328,7.86,-20.257,-42.405,-13.053,-49.124,-20.282,-47.29,-48.658,-3.847,-21.666],[4797.418,4284.571,2409.778,1114.15,-412.935,972.229,713.672,357.909,252.441,56.683,370.997,336.529,107.491,216.566,59.989,55.329,36.119,23.921,-4.67,0.671,30.034,6.544,4.076,-14.703,-28.576,-7.066,-5.78,-28.337,-30.483,-30.201],[4243.165,6195.621,4686.809,2319.037,1619.746,983.352,1067.314,661.48,469.564,409.488,497.486,524.114,399.586,289.576,233.676,95.331,91.16,44.783,32.404,13.203,39.123,4.228,8.041,18.751,-9.196,3.088,-5.287,-4.129,-22.649,-35.742],[5973.808,7212.084,6411.951,3940.49,3514.675,1156.097,1582.311,1349.657,933.173,736.157,597.91,720.418,687.737,507.386,307.75,117.637,139.774,131.543,94.679,44.695,19.144,57.435,29.611,4.012,32.404,-17.501,-3.566,-0.496,7.122,-31.99],[7755.098,10130.575,8387.421,5866.062,5699.711,986.284,1690.126,1556.008,1404.957,780.218,619.709,1054.265,799.105,691.795,494.565,99.063,144.973,162.439,94.078,27.815,34.166,70.11,57.642,16.611,7.612,16.891,-11.919,24.888,-4.312,-20.691]]
}