{
"KTrans": [[-11.474,-0.507,-0.938,3.703,-1.053,-4.662,0.346,0.217,-1.297,-2.046,-3.02,-4.899,-3.647,-1.013,0.443,-3.144,3.035,-0.396,3.359,1.34,-0.431,-1.718,2.486,-2.68,2.422,1.617,-0.754,0.946,-0.286,0.584],[-41.776,-1.97,-3.389,-0.245,-1.445,-37.934,-7.331,-0.048,2.301,-0.023,-38.71,-7.511,-0.224,0.278,-0.715,-44.63,-1.969,-1.097,1.067,-0.915,-41.262,-6.662,-0.763,-2.093,0.788,-37.117,-4.373,-2.42,-1.128,-1.043],[-62.036,-10.976,1.805,-1.334,-0.24,-66.253,-4.444,5.738,0.852,0.068,-63.045,-7.196,-0.898,3.626,3.969,-65.177,-0.314,1.504,1.506,-0.37,-62.775,-9.424,2.558,-1.415,3.715,-64.51,-7.846,-4.118,2.161,-3.069],[-77.025,-17.275,1.416,1.462,-0.308,-76.494,-15.966,0.401,1.29,1.641,-77.773,-23.217,-0.706,-0.08,0.435,-79.052,-15.73,-0.178,0.577,-0.015,-81.715,-12.815,0.756,0.993,4.904,-82.433,-21.754,0.245,0.667,2.699],[-86.065,-28.581,4.741,1.204,3.336,-86.533,-26.799,-1.208,0.147,-1.279,-80.767,-33.279,2.729,-0.72,-0.304,-84.107,-31.355,-2.797,9.627,-2.113,-87.563,-40.175,1.362,3.407,2.997,-88.339,-29.574,-8.038,7.364,2.975],[-89.928,-48.428,0.324,-4.129,1.632,-90.165,-44.445,-7.245,8.076,0.345,-89.628,-45.122,-5.477,6.844,-1.791,-87.69,-44.132,-4.279,7.801,3.414,-90.92,-44.708,-11.178,-0.671,4.002,-88.752,-46.81,-12.145,-2.454,5.422]],
"ve": [[6.105,5.348,6.064,5.549,12.697,4.364,3.074,7.432,12.259,18.873,2.406,4.365,7.594,18.852,12.505,7.112,3.29,6.242,7.681,-36.011,0.528,3.745,2.685,14.825,9.349,1.174,5.218,9.626,22.671,-6.295],[-9.17,-0.305,-1.045,0.53,-0.166,-13.194,-3.437,-0.648,-0.587,-0.123,-16.319,-2.357,-0.403,-0.478,0.213,-18.983,-1.804,-0.269,-1.03,-0.173,-16.842,-1.697,-0.718,-0.327,-0.404,-10.61,-0.383,-0.845,-0.334,-0.429],[-29.258,-5.68,-1.448,-0.892,-0.731,-64.618,-3.78,0.632,-0.416,-0.353,-29.964,-3.271,-0.941,-0.375,-0.401,15.606,-3.205,-1.729,-0.175,-0.042,-28.035,-4.758,-0.47,-0.53,0.145,7.543,-5.906,-2.453,-0.224,-0.598],[-35.527,-9.658,-1.711,-0.904,-1.676,-41.427,-10.793,-2.773,-1.361,-1.14,-36.186,-13.227,-2.157,-1.264,-1.436,-42.796,-9.621,-1.072,-0.547,-1.4,-49.949,-8.266,-1.765,-1.642,-0.029,-30.24,-10.158,-0.851,-1.154,-1.426],[-46.903,-18.84,-2.951,-0.666,-0.98,-50.307,-11.247,-2.363,-1.756,-1.461,-37.316,-14,-3.862,-1.501,-1.003,-49.18,-18.659,-5.142,-1.189,-1.577,-47.464,-25.208,-3.463,-1.607,-1.224,25.854,-14.501,-3.436,-0.83,-0.899],[-60.04,-24.444,-6.097,-1.934,-1.333,-55.441,-62.048,-8.061,-1.621,-1.839,-68.914,-23.034,-7.788,-1.367,-2.232,-30.609,-21.595,-7.259,-0.812,-0.323,-60.718,-13.274,-8.087,-2.458,-0.944,-47.488,-24.62,-5.791,-2.262,-1.216]],
"kep": [[-11.776,-2.082,-0.544,7.423,-4.553,-5.428,0.415,-1.84,-3.025,-6.538,-4.432,-6.557,-5.855,-5.36,0.584,-5.405,2.77,-1.912,3.68,1.286,-1.238,-3.652,3.729,-7.537,1.707,0.001,-2.372,0.365,-5.361,-0.786],[-35.247,-2.081,-2.421,-0.728,-1.136,-31.252,-3.892,0.839,2.923,0.235,-30.837,-5.271,0.17,0.733,-0.844,-35.447,-0.412,-0.798,2.176,-0.645,-32.374,-4.959,-0.009,-1.7,1.285,-31.507,-3.896,-1.665,-0.784,-0.336],[-55.673,-5.664,3.131,-0.498,0.307,-59.878,-1.361,4.558,1.227,0.391,-56.864,-4.478,-0.602,3.856,4.317,-58.687,2.16,2.911,1.488,-0.454,-56.084,-5.357,2.69,-1.118,3.4,-58.046,-2.418,-1.86,2.109,-2.581],[-70.908,-9.854,2.274,2.163,1.231,-71.596,-9.702,2.766,2.17,2.524,-72.147,-12.529,1.303,0.741,1.699,-73.301,-7.749,0.515,0.609,1.193,-76.634,-7.082,2.16,2.386,4.596,-77.152,-14.013,0.089,1.496,3.91],[-82.591,-19.502,6.573,1.147,3.91,-82.465,-20.873,0.077,1.417,-0.03,-76.908,-26.176,5.886,0.109,0.333,-80.576,-19.091,2.058,10.336,-0.895,-83.746,-29.242,4.383,4.646,4.014,-84.197,-20.387,-5.032,7.855,3.499],[-86.472,-38.385,4.915,-2.671,1.935,-86.323,-34.278,-0.28,9.062,1.684,-85.707,-36.025,2.325,7.478,0.011,-83.423,-33.954,2.32,7.381,2.856,-88.53,-35.297,-3.92,1.023,4.415,-84.703,-37.798,-7.336,-1.371,5.968]],
"vp": [[443.22,282.875,140.994,171.685,224.734,26.32,22.387,17.132,34.666,58.613,9.367,30.018,40.983,12.85,9.319,2.065,1.519,1.946,0.059,5.255,0.604,-0.063,1.308,1.022,-0.186,1.089,0.46,1.376,-0.219,-0.171],[1820.987,253.279,382.686,159.609,471.224,340.873,151.167,71.154,93.015,95.759,216.464,57.368,16.641,28.869,14.86,46.753,13.821,4.726,10.729,4.341,20.36,6.281,1.838,2.254,2.601,7.211,0.645,0.994,1.075,1.944],[3026.637,1176.05,529.607,559.3,365.135,683.89,191.229,-12.101,51.981,120.696,324.295,67.29,28.256,46.616,56.499,62.929,19.094,15.94,9.207,7.247,31.433,10.667,3.991,1.868,4.429,15.698,6.063,4.15,1.056,1.747],[3754.993,2113.743,725.536,460.75,861.903,862.198,468.929,187.021,104.217,166.019,447.216,292.25,68.668,61.939,74.551,94.094,42.279,11.149,2.227,18.469,50.661,19.727,7.868,5.215,4.505,24.769,10.656,1.378,2.175,4.559],[5628.012,4255.214,1134.743,167.801,651.706,1060.342,476.017,133.726,115.827,163.381,422.686,290.056,125.574,27.18,42.343,98.576,75.791,35.941,16.202,8.032,59.15,48.939,14.702,5.706,7.218,28.06,16.123,4.57,4.345,3.75],[6189.315,5456.327,2068.399,830.792,445.918,1208.077,894.639,524.883,204.669,168.52,641.062,530.712,227.599,64.65,101.511,111.877,85.586,53.57,8.747,5.269,63.048,45.153,24.746,9.193,6.162,25.34,25.708,9.147,4.005,4.77]]
}