{
"KTrans": [[-2.155,1.096,2.533,1.077,0.312,5.185,1.314,1.7,2.59,2.499,10.846,7.745,6.916,4.28,4.143,58.135,35.791,28.098,25.544,22.763,136.199,77.891,58.485,53.108,49.695,309.86,183.333,144.273,124.845,107.034],[-9.125,-0.132,0.247,-0.576,0.018,-2.547,5.278,0.268,1.524,1.498,-1.289,3.157,2.195,1.841,2.623,43.391,27.515,18.501,13.64,13.163,97.366,55.666,39.963,30.017,26.027,211.056,126.508,83.829,65.032,55.412],[-22.059,-0.215,-2.118,-0.181,0.109,-22.768,2.725,0.391,1.262,1.289,-15.405,3.866,2.518,2.535,1.808,17.111,20.948,15.188,12.5,10.674,58.423,53.592,35.011,28.682,22.799,115.503,117.317,77.404,60.048,48.145],[-40.039,-3.952,-0.368,-1.362,-0.496,-37.747,-2.461,1.278,0.913,0.721,-32.402,0.208,2.095,1.626,1.788,-13.449,21.756,16.185,13.069,9.418,13.012,47.358,33.594,25.371,20.519,63.406,106.524,74.824,57.152,44.384],[-56.619,-8.624,-0.883,-0.213,0.067,-49.252,-5.644,-1.294,0.068,-0.227,-48.041,-2.069,1.343,1.822,1.863,-32.571,15.078,16,10.958,9.394,-6.379,41.471,32.794,23.71,19.63,19.378,92.955,68.885,54.005,43.396],[-65.487,-12.137,-2.71,-1.897,-0.598,-60.417,-10.953,-0.353,-0.295,0.326,-59.682,-9.62,-1.132,1.239,1.809,-41.037,10.289,10.747,10.532,8.663,-31.205,33.02,29.231,25.304,20.216,-11.825,80.405,64.722,51.984,41.748]],
"ve": [[0.646,1.779,0.12,0.181,2.353,3.701,1.82,0.572,-0.351,-1.198,3.776,1.757,0.485,-0.084,-1.684,19.146,4.948,-2.026,-8.247,-11.214,39.83,11.519,-1.502,-10.605,-17.015,82.421,27.866,4.944,-9.188,-18.167],[-1.525,0.934,0,0.125,0.248,-0.761,1.432,0.954,0.554,0.536,2.697,2.02,0.965,0.399,0.604,21.43,10.849,5.737,4.08,2.269,43.843,22.083,12.773,7.958,4.819,89.236,43.376,25.95,17.05,11.003],[-5.924,0.684,-0.029,0.124,0.069,-3.954,0.597,0.897,0.399,0.297,-0.762,2.338,1.286,1.088,0.79,19.971,10.948,7.169,5.019,3.674,40.687,23.086,14.347,10.417,7.562,77.86,46.739,29.567,20.621,15.893],[-7.672,-0.314,0.108,0.195,0.148,-7.103,0.019,0.753,0.569,0.417,-6.701,1.458,1.335,0.923,0.918,10.91,11.03,7.511,5.16,4.177,36.429,23.106,15.425,10.751,8.267,74.384,46.539,30.522,22.439,17.01],[-17.089,-1.468,-0.158,0.026,0.086,-9.679,-0.674,0.44,0.573,0.305,-12.284,0.201,1.045,1.309,0.951,4.12,10.401,7.715,5.592,4.557,26.88,21.98,15.736,11.155,8.64,64.908,45.655,31.519,23.215,17.931],[-35.592,-3.349,-0.634,-0.028,-0.4,-18.125,-2.609,0.102,0.195,0.358,-18.152,-0.969,1.056,0.827,0.829,3.503,7.958,7.32,5.472,4.113,21.554,20.446,14.835,11.665,9.128,56.605,43.628,30.443,22.896,17.973]],
"kep": [[-2.421,0.14,3.556,2.408,0.422,2.19,0.383,2.344,4.22,6.072,7.336,6.681,7.356,5.724,8.371,32.958,29.921,31.608,38.049,40.231,68.858,59.834,61.391,72.026,81.674,124.606,121.606,133.129,148.235,153.986],[-7.502,-0.985,0.272,-0.646,-0.142,-1.827,3.795,-0.645,1.039,1.02,-3.797,1.11,1.284,1.508,2.07,18.267,15.052,12.101,9.223,10.703,37.344,27.475,24.119,20.438,20.285,64.056,57.949,45.91,40.986,40.028],[-16.948,-0.919,-2.074,-0.294,0.054,-19.674,2.118,-0.492,0.876,1.022,-14.781,1.522,1.216,1.45,1.02,-2.413,9.068,7.482,7.126,6.759,12.379,24.718,18.064,16.54,14.186,19.801,48.086,36.894,32.658,27.771],[-32.845,-3.587,-0.46,-1.538,-0.643,-33.171,-2.394,0.552,0.357,0.318,-28.012,-1.157,0.762,0.697,0.879,-22.627,9.75,8.053,7.522,5.034,-17.001,19.744,15.728,13.196,11.3,-7.856,40.814,33.924,28.331,23.356],[-48.811,-7.224,-0.742,-0.233,-0.006,-41.38,-4.972,-1.729,-0.504,-0.521,-41.703,-2.273,0.282,0.508,0.899,-37.31,4.271,7.72,5.072,4.63,-27.802,15.954,14.747,11.3,10.105,-30.82,32.433,28.461,24.925,21.573],[-57.066,-8.954,-2.097,-1.881,-0.206,-53.803,-8.481,-0.399,-0.49,-0.027,-52.883,-8.727,-2.147,0.403,0.978,-44.636,2.328,3.162,4.788,4.378,-45.971,10.517,12.567,12.202,10.146,-47.694,25.428,26.269,23.667,20.166]],
"vp": [[10.176,-81.399,-105.456,-39.879,-8.787,-47.653,-36.021,-41.309,-40.289,-37.729,-37.914,-45.622,-47.994,-37.22,-37.107,-44.112,-41.185,-41.869,-42.078,-41.577,-43.893,-42.894,-41.428,-41.985,-41.442,-43.839,-42.611,-42.595,-41.709,-40.799],[275.179,-4.641,0.778,-2.807,-72.056,21.997,-44.68,-40.327,-34.736,-42.534,-18.899,-35.584,-32.322,-44.471,-45.082,-39.923,-44.118,-41.551,-44.386,-42.947,-44.435,-46.252,-44.8,-43.186,-43.127,-44.466,-45.489,-43.802,-43.589,-42.941],[683.762,-77.661,-13.022,59.377,4.725,99.514,-6.222,-49.429,-33.661,-27.166,18.561,-39.82,-41.529,-41.256,-52.051,-37.806,-44.424,-44.531,-45.532,-44.798,-40.084,-45.887,-44.706,-45.073,-44.209,-37.562,-46.739,-45.874,-44.543,-44.299],[1310.651,218.389,-13.746,47.211,12.757,170.362,15.082,-28.494,-25.544,-26.216,79.011,-22.067,-34.326,-30.316,-37.929,-18.757,-40.875,-44.768,-42.934,-44.787,-30.785,-45.442,-46.202,-44.548,-45.547,-35.468,-46.884,-45.825,-46.092,-45.368],[1874.784,413.078,58.216,84.462,81.89,312.622,40.818,-6.067,-26.18,-27.191,143.748,-3.631,-26.017,-35.565,-44.94,-7.395,-40.849,-44.999,-45.109,-47.037,-25.86,-43.104,-46.05,-45.863,-45.56,-30.858,-45.437,-47.622,-46.756,-46.235],[2363.221,689.387,224.82,97.584,177.468,376.194,112.467,1.737,-2.832,-20.145,177.851,25.407,-22.387,-25.041,-33.263,-2.902,-31.206,-42.817,-42.74,-42.965,-20.572,-39.67,-45.023,-46.455,-45.779,-28.717,-43,-45.467,-46.623,-45.807]]
}