{
"KTrans": [[-26.739,-12.02,-6.812,-0.752,-9.462,-21.469,-9.32,-7.328,-6.015,-6.674,-18.952,-14.229,-7.304,-5.456,-5.959,-31.502,-12.177,-6.638,-4.28,-6.106,-20.213,-7.235,-10.718,-3.231,-5.662,-20.806,-12.602,-13.001,-6.327,-3.903],[-67.341,-30.316,-26.842,-18.701,-16.21,-82.103,-38.32,-27.231,-18.495,-13.158,-69.774,-36.934,-21.848,-10.645,-16.608,-67.784,-31.11,-28.562,-15.881,-13.812,-67.149,-30.574,-25.545,-20.547,-12.732,-71.619,-34.029,-22.054,-16.903,-14.351],[-95.297,-42.653,-37.743,-32.384,-25.161,-100.172,-22.921,-40.768,-26.139,-23.527,-96.039,-47.225,-39.778,-25.465,-23.799,-91.944,-30.29,-34.008,-31.587,-26.775,-96.787,-53.864,-31.681,-30.426,-22.822,-101.472,-58.39,-28.886,-28.693,-24.347],[-108.686,-61.598,-23.995,-41.836,-33.84,-104.269,-48.123,-26.81,-40.178,-37.091,-105.62,-84.865,-6.407,-44.39,-30.903,-98.185,-67.324,25.962,-40.676,-27.698,-106.166,-83.445,-44.893,-41.611,-28.723,-109.015,-72.143,13.398,-48.16,-28.196],[-106.497,-87.534,-41.709,-45.074,-45.371,-107.884,-86.169,-61.234,-39.869,-37.975,-104.044,-80.008,47.366,-45.96,-43.562,-101.269,-76.027,-33.508,-45.951,-45.539,-109.892,-88.88,-3.463,-55.631,-40.702,-108.245,-84.525,-82.468,-38.284,-37.602],[-108.116,-99.787,-81.317,-43.604,-49.797,-112.371,-95.383,-34.239,-49.72,-39.562,-104.844,-103.195,-75.879,-29.085,-50.456,-106.027,-98.054,-75.487,-6.744,-25.592,-108.728,-104.416,-73.744,-51.965,-26.946,-110.314,-107.294,-78.076,-61.167,-46.421]],
"ve": [[-19.125,-4.204,6.333,20.091,3.788,-19.308,-2.723,4.759,16.325,40.956,-17.889,-4.305,5.232,29.214,15.332,-18.617,-4.217,5.848,-14.918,7.003,-18.581,-3.633,8.192,27.997,129.374,-16.425,-3.946,11.129,27.554,77.919],[-74.76,-25.724,-19.221,-12.316,-7.448,-70.547,-32.603,-20.555,-11.664,-7.443,-66.394,-27.672,-17.95,-11.534,-8.128,-55.465,-26.35,-19.361,-12.499,-7.273,-69.92,-31.781,-19.203,-11.921,-7.337,-62.275,-32.072,-18.297,-12.287,-8.535],[-96.375,-65.943,-34.517,-24.72,-19.427,-101.489,-62.205,-34.789,-21.416,-18.488,-99.908,-62.366,-35.518,-23.307,-19.164,-98.561,-46.271,-33.526,-26.623,-20.533,-95.362,-61.543,-35.343,-25.881,-16.536,-100.953,-59.564,-33.092,-24.333,-19.819],[-115.547,-73.939,-47.149,-38.452,-30.796,-111.042,-82.935,-44.494,-37.332,-30.107,-113.301,-91.16,-44.507,-38.732,-29.82,-108.289,-75.841,-49.86,-36.782,-24.897,-116.104,-81.5,-53.966,-38.748,-28.813,-123.743,-71.454,-44.917,-41.682,-25.324],[-118.262,-94.616,-57.57,-46.763,-41.629,-129.086,-99.28,-80.116,-53.854,-36.08,-123.398,-87.063,-59.726,-50.581,-36.694,-114.393,-88.388,-61.862,-46.949,-42.264,-128.47,-95.807,-75.181,-55.145,-39.962,-122.182,-95.621,-76.875,-53.877,-36.551],[-130.385,-106.786,-80.587,-65.057,-48.11,-138.679,-103.813,-60.102,-65.887,-46.397,-116.827,-104.056,-85.099,-51.093,-50.485,-118.056,-102.173,-76.735,-62.504,-41.872,-127.321,-113.301,-91.315,-72.147,-44.42,-127.653,-106.956,-84.763,-58.793,-45.213]],
"kep": [[-9.992,-7.278,-7.888,-4.492,-20.96,-3.698,-6.073,-8.053,-10.435,-14.829,-2.502,-9.618,-8.393,-9.987,-14.045,-17.776,-7.628,-7.519,-7.917,-13.823,-1.651,-3.165,-12.756,-7.173,-14.394,-6.411,-8.112,-16.012,-11.921,-11.061],[-76.224,-7.445,-9.663,-7.536,-9.648,-71.651,-8.308,-9.147,-8.312,-6.35,-67.778,-12.469,-5.696,0.537,-9.46,-69.416,-8.705,-11.549,-4.222,-7.385,-77.573,-1.276,-8.424,-9.964,-5.901,-67.858,-6.206,-5.044,-5.876,-6.38],[-71.609,-30.476,-5.318,-10.415,-7.699,-76.578,-45.038,-12.403,-8.536,-7.112,-69.224,-36.863,-7.516,-4.768,-7.224,-77.509,-21.265,-6.152,-6.588,-8.451,-69.803,-26.365,-0.234,-6.89,-9.435,-74.951,-43.426,-1.071,-6.586,-6.587],[-72.06,-64.712,-3.558,-8.16,-5.925,-73.031,-54.105,-28.469,-7.868,-10.313,-75.333,-78.119,-10.605,-7.461,-3.027,-72.386,-66.175,-1.418,-7.081,-6.116,-72.463,-71.286,-20.747,-4.813,-3.436,-72.037,-62.33,-3.465,-11.013,-6.415],[-77.853,-67.078,-42.99,-17.711,-5.341,-79.872,-62.145,-67.947,-7.764,-5.835,-79.417,-64.246,-40.225,-15.735,-11.107,-77.044,-61.548,-49.791,-10.84,-6.971,-77.831,-64.257,-66.419,-20.552,-3.522,-79.262,-53.395,-70.638,-17.983,-5.783],[-84.006,-58.097,-56.875,-44.198,-11.948,-81.333,-62.949,-41.486,-37.425,-3.262,-88.111,-61.381,-56.89,-33.064,-11.243,-85.965,-71.215,-57.41,-40.871,-9.989,-83.475,-61.896,-64.534,-41.865,-0.062,-84.114,-58.952,-59.101,-41.278,-18.834]],
"vp": [[2280.379,2632.77,2241.906,2529.965,2219.898,534.971,402.432,424.061,426.42,389.112,246.834,242.64,243.343,204.93,228.152,36.052,50.564,55.633,54.411,39.898,25.246,23.718,22.35,22.131,23.974,10.594,11.471,11.612,10.172,10.927],[7779.714,5037.419,6612.56,6816.13,6028.287,1481.588,1437.607,1443.16,1206.332,1382.188,680.598,552.47,697.329,767.318,710.7,143.195,115.938,132.325,151.377,124.797,73.109,74.051,66.77,62.926,66.849,31.876,36.455,34.342,35.067,38.397],[9770.116,14589.817,11751.568,10754.018,11797.642,2128.506,2698.608,2119.898,1808.938,2223.519,1017.258,1342.386,1192.376,1101.522,1112.668,199.271,207.472,226.947,249.735,240.229,97.27,130.948,121.551,121.598,89.45,52.638,64.103,57.434,56.193,61.377],[11604.789,14692.385,14796.79,16833.485,17462.41,2163.202,2787.118,2639.218,3198.934,3212.66,1155.359,1939.522,1352.872,1732.864,1793.417,220.701,314.837,329.451,326.175,275.922,117.754,176.056,166.556,173.57,166.599,63.777,70.556,70.92,91.216,68.93],[11668.899,19288.104,17654.234,18925.82,23499.326,2635.515,4179.805,4836.759,4774.824,3812.468,1261.5,1748.051,2106.638,2148.615,1856.926,234.44,361.289,364.401,391.259,473.4,129.924,195.755,229.85,229.602,225.914,61.22,99.623,121.376,115.745,96.313],[13272.739,21603.194,24806.922,28410.852,25609.635,2854.446,4250.752,3716.715,5618.665,4910.367,1174.391,2115.935,2328.78,2072.237,2620.978,235.259,410.06,465.741,529.498,452.193,129.452,231.625,283.432,305.129,236.361,63.784,109.557,132.705,119.023,113.49]]
}