{
"KTrans": [[2.621,3.263,-6.375,-10.372,-7.49,-1.785,12.654,5.311,8.246,2.001,10.313,21.859,2.39,-0.472,17.457,26.756,41.342,58.873,77.078,70.368,-9.363,49.387,96.586,106.253,124.879,-24.875,-175.399,63.837,71.228,91.949],[-50.545,-18.754,-2.257,0.405,-1.17,-44.514,-19.2,0.244,9.93,0.573,-45.726,-11.387,0.086,10.862,4.108,-48.765,-13.02,13.323,27.062,29.88,-44.325,16.47,-8.874,29.047,26.874,-56.608,-32.09,-7.892,7.223,36.12],[-60.318,-31.201,-19.495,-8.611,-1.028,-61.474,-31.668,-16.492,-11.805,-2.433,-56.184,-27.857,-15.745,-6.904,0.959,-56.093,-24.205,-16.742,-2.991,3.165,-48.223,-21.61,-4.6,-10.638,7.312,-73.426,-43.348,-4.19,-9.335,28.651],[-73.849,-42.489,-25.737,-20.875,-13.431,-72.09,-44.644,-24.432,-15.323,-13.793,-67.124,-39.94,-22.575,-12.579,-10.397,-66.62,-36.197,-20.981,-3.931,-7.167,-47.949,-30.297,-4.312,-10.26,-15.87,-53.228,-23.283,-30.446,-17.503,-26.962],[-75.888,-54.162,-37.512,-20.842,-15.467,-78.254,-53.16,-24.561,-20.028,-15.591,-80.396,-51.894,-29.387,-21.782,-14.192,-74.926,-33.48,-22.195,-2.926,-3.935,-77.517,-39.164,-13.22,-6.852,0.433,-82.73,-103.891,-42.69,-1.197,-18.235],[-87.094,-55.358,-33.298,-26.009,-16.252,-79.188,-57.484,-33.36,-20.66,-16.575,-80.431,-55.708,-38.356,-22.823,-15.668,-79.682,-48.293,-29.935,-14.615,-6.743,-82.039,-48.2,-34.553,-8.987,-0.08,-82.855,-57.185,-59.577,-26.307,-30.489]],
"ve": [[0.467,-235.744,-43.611,-43.915,-742.895,0.024,6.838,-948.04,93.405,-75.142,-211.829,3.256,14.889,-109.818,4239.144,152.923,-7.471,-27.714,-38.221,-28.585,94.568,29.448,-43.583,18.113,-56.165,201.365,95.417,33.343,20.054,-31.34],[26.841,-2.859,3.835,-9.885,26.94,-21.54,-2.679,-92.477,-38.512,-20.446,19.15,18.436,6.616,-1.47,-4.733,28.826,-19.198,18.726,-0.717,-5.074,335.622,21.738,28.647,19.022,-51.954,214.966,89.926,58.981,42.221,9.316],[-1.913,-145.701,-4.906,-2.703,-16.283,-56.391,-55.327,-7.356,5.055,3.411,127.762,-40.499,2.742,-38.879,9.013,51.015,9.772,11.147,-9.065,23.369,142.792,-39.149,49.064,6.802,65.163,172.215,88.982,14.625,31.471,43.65],[-15.791,-8.249,-19.018,20.789,-20.857,6.282,-9.347,487.092,-127.591,-1.407,95.968,-6.193,32.498,10.873,-18.922,53.283,10.294,17.465,-5.197,-109.505,69.744,203.886,23.324,20.754,41.331,373.801,102.56,54.057,47.999,53.757],[-10.715,0.393,-1.961,-5.026,-5.722,-144.457,94.252,-9.433,-14.581,4.712,-82.746,-142.795,-4.527,-10.257,-10.737,42.876,47.405,-1.712,10.661,57.875,205.217,49.491,30.124,18.828,31.669,207.266,85.809,58.692,40.049,30.206],[4.096,17.51,-4.772,-19.467,-7.767,5.59,-15.767,-10.217,-8.781,35.127,14.599,-11.536,-18.757,10.714,-6.303,35.071,65.154,8.441,8.398,-12.328,98.212,49.262,28.837,18.908,13.933,160.281,25.319,56.215,47.965,37.349]],
"kep": [[-108.732,-88.903,-92.951,-55.791,-74.203,-113.162,-135.677,-77.347,-86.108,-76.984,-116.428,-111.43,-46.318,-47.108,-74.171,-136.184,-184.08,-166.728,-245.302,-220.701,-167.943,-242.519,-284.25,-374.857,-420.221,-138.395,-301.581,-340.664,-473.245,-581.819],[-102.264,-108.602,-128.846,-90.903,-32.836,-101.516,-107.672,-118.382,-97.828,-50.434,-98.759,-104.169,-118.766,-120.801,-68.55,-102.601,-119.066,-134.576,-154.564,-132.425,-102.292,-90.054,-183.817,-174.543,-215.881,-99.798,-105.799,-130.134,-210.326,-224.083],[-93.675,-79.464,-85.683,-104.161,-108.133,-94.832,-81.211,-85.346,-119.287,-129.822,-93.024,-81.936,-89.495,-105.488,-121.972,-97.555,-88.381,-101.949,-116.758,-157.735,-94.033,-85.444,-86.541,-133.98,-139.317,-98.907,-89.708,-87.664,-119.653,-115.529],[-97.924,-76.239,-64.33,-79.874,-83.914,-96.422,-81.674,-66.624,-68.479,-94.318,-95.549,-79.411,-69.724,-69.115,-91.55,-96.828,-79.631,-79.756,-67.286,-92.779,-90.689,-82.302,-61.743,-83.209,-107.797,-93.184,-77.028,-83.861,-85.374,-110.33],[-95.856,-83.1,-69.385,-57.682,-59.095,-97.683,-81.099,-57.698,-56.351,-62.504,-99.795,-83.048,-66.078,-63.578,-57.733,-98.134,-73.121,-65.53,-45.476,-54.452,-100.022,-79.421,-63.66,-62.197,-62.654,-97.145,-107.209,-83.442,-63.065,-77.71],[-100.956,-79.867,-60.171,-52.084,-42.482,-96.71,-81.872,-59.527,-48.627,-42.876,-96.808,-82.875,-68.03,-52.657,-47.442,-99.211,-81.2,-67.908,-51.237,-46.965,-98.31,-80.616,-72.258,-52.354,-45.55,-99.307,-88.232,-88.378,-74.249,-82.66]],
"vp": [[358.409,332.422,-89.935,586.36,733.883,-158.038,-135.312,-36.842,223.94,103.062,-23.508,-17.071,0.786,113.793,100.256,-28.237,4.802,-35.436,-6.91,-27.225,-17.384,-11.968,-26.381,-24.239,-16.928,-34.209,-7.111,-6.551,-28.96,-23.174],[2718.229,582.534,150.82,-842.825,304.805,643.184,271.899,-137.823,-161.647,-208.42,299.034,-2.29,-25.35,-0.656,26.527,31.665,11.723,-26.702,-23.77,-12.124,6.258,-13.401,-17.095,-36.984,2.972,-7.2,-25.634,-24.551,-33.762,-28.033],[4372.92,2977.114,3318.252,1783.066,201.078,802.814,814.267,357.512,337.289,-52.836,420.439,409.506,206.744,103.843,41.534,79.519,51.533,39.402,3.458,-6.783,9.391,18.516,-4.712,-13.821,-22.144,-0.999,6.56,-6.645,-34.916,-40.463],[5513.855,5568.908,3275.309,3801.415,1408.799,1075.787,1164.685,933.153,712.222,376.277,602.685,531.745,548.608,248.324,261.805,69.693,78.796,94.773,62.687,15.519,17.26,37.414,31.377,10.097,16.463,1.825,-1.089,-6.207,-34.043,-3.602],[4812.568,8174.819,6931.07,5760.339,3740.71,1078.017,1476.297,1352.382,1079.865,637.208,614.068,936.992,607.77,439.458,399.255,107.97,130.213,105.467,71.973,63.175,43.257,34.615,24.77,21.161,22.374,-1.257,32.884,0.657,-20.094,-11.874],[5574.736,10493.499,10395.355,6898.807,5713.656,1333.542,1845.642,1574.324,1116.529,1251.283,611.297,1023.022,910.341,767.437,551.211,108.636,138.091,115.624,115.402,71.654,55.655,42.549,47.876,30.614,12.115,-3.463,7.401,30.158,22.556,0.296]]
}