{
"KTrans": [[-0.363,1.336,1.637,0.902,1.318,14.524,7.965,6.369,6.574,6.029,24.857,15.804,13.305,12.435,11.187,172.228,93.974,79.414,65.673,62.589,417.707,227.6,177.285,154.446,142.133,904.947,580.35,450.984,375.776,357.188],[3.004,1.335,1.1,1.428,0.382,9.112,4.725,5.516,4.113,3.066,19.706,11.329,9.566,7.097,5.881,153.686,68.722,44.664,37.239,30.613,382.93,152.264,103.689,80.744,67.58,82.121,376.387,236.779,178.409,151.424],[-1.711,1.888,2.88,1.229,1.531,9.55,6.743,4.776,3.183,3.292,17.975,13.108,8.724,6.488,5.491,116.355,69.87,45.461,31.561,26.606,153.082,156.692,88.872,70.526,54.568,-106.17,370.51,221.547,152.923,127.106],[-20.457,2.596,2.491,0.973,0.359,-5.797,6.666,4.759,4.748,3.341,6.507,12.026,8.885,6.875,4.756,67.748,69.887,39.881,29.977,25.911,39.332,162.453,89.69,69.55,51.773,-47.147,391.303,218.327,147.77,119.629],[-22.636,-0.838,2.312,2.194,1.812,-17.518,7.988,4.473,4.351,3.233,-9.502,15.197,10.015,7.792,5.655,33.325,70.662,40.998,29.521,25.074,7.469,174.99,86.775,62.589,50.83,-16.746,302.286,264.138,149.279,109.269],[-33.86,5.699,3.349,1.861,2.338,-31.582,7.76,5.526,4.604,2.995,-29.024,10.496,9.319,6.741,5.501,1.247,67.834,41.826,30.322,25.214,-24.681,160.023,90.235,66.195,49.675,-68.234,155.066,255.936,145.489,106.64]],
"ve": [[1.948,1.22,-0.543,1.623,1.186,4.808,1.36,-0.575,-3.375,-3.864,9.853,2.305,-0.789,-4.904,-6.531,47.07,12.843,-1.79,-10.343,-18.901,94.528,33.345,8.507,-6.778,-18.098,204.375,78.54,36.084,11.066,-5.371],[1.561,0.147,0.176,0.078,0.272,6.022,2.447,1.306,0.342,0.485,10.567,5.096,2.866,1.736,0.727,49.672,23.45,14.646,9.044,5.63,101.652,47.314,29.979,19.432,12.345,193.713,96.745,60.765,41.283,28.908],[1.875,0.821,0.241,0.036,0.103,5.557,2.392,1.41,1.159,0.615,10.445,4.594,3.152,2.036,1.493,50.296,24.805,16.129,11.096,8.234,98.997,50.159,31.41,23.049,17.212,203.431,98.269,64.677,46.676,35.569],[1.685,0.739,0.263,0.057,0.039,6.371,2.613,1.359,1.089,0.608,10.725,4.915,3.439,2.408,1.889,50.407,24.499,15.973,11.596,9.174,99.472,49.453,32.346,24.169,18.502,199.683,100.03,65.625,48.02,37.894],[2.065,0.52,0.267,-0.047,0.22,5.061,2.412,1.674,0.921,0.969,21.983,5.131,3.308,2.314,1.707,56.227,25.652,16.395,12.049,9.274,98.775,50.537,32.786,24.212,19.057,202.47,99.277,67.135,48.925,38.237],[3.078,0.59,0.043,0.051,0.283,8.197,2.671,1.8,0.917,0.862,11.619,4.581,3.338,2.419,1.779,50.018,24.514,16.741,12.011,9.629,100.461,50.174,32.834,24.365,19.205,196.052,128.156,67.001,48.996,38.382]],
"kep": [[-1.858,0.811,3.147,0.665,2.303,9.938,7.141,7.831,11.718,12.014,14.348,13.652,14.956,19.087,20.661,85.279,72.157,83.315,85.25,101.465,164.503,145.771,155.738,173.359,196.31,235.206,279.717,304.479,327.911,383.171],[1.598,1.227,0.994,1.411,0.192,3.144,2.297,4.198,3.809,2.628,8.316,5.992,6.57,5.324,5.18,68.835,36.746,26.215,25.878,23.698,136.983,70.978,56.648,51.316,49.193,-33.05,139.97,108.787,96.794,94.881],[-3.454,1.128,2.672,1.219,1.45,3.871,4.333,3.338,2.017,2.689,6.802,8.159,5.417,4.366,3.948,43.237,35.983,25.259,18.42,16.992,27.243,70.095,43.512,38.548,31.838,-96.759,134.215,94.331,72.057,67.316],[-21.782,1.889,2.238,0.937,0.328,-11.681,4.005,3.374,3.629,2.733,-4.054,6.813,5.297,4.386,2.827,10.486,36.333,20.555,16.484,15.325,-29.854,74.466,43.057,36.444,28.028,-79.139,141.792,90.979,66.868,59.005],[-23.958,-1.294,2.051,2.257,1.596,-21.78,5.436,2.79,3.402,2.245,-18.741,9.495,6.504,5.362,3.893,-12.488,35.601,21.042,15.563,14.44,-45.597,81.335,40.36,30.746,26.609,-70.044,98.52,116.265,66.864,51.112],[-36.125,5.105,3.311,1.816,2.048,-35.208,4.998,3.651,3.659,2.115,-36.579,5.658,5.773,4.216,3.663,-33.087,34.374,21.391,16.29,14.201,-61.162,71.678,42.774,33.49,25.49,-87.563,26.768,111.07,63.996,48.988]],
"vp": [[107.55,-19.794,56.673,-17.039,114.933,12.049,10.191,15.179,-15.437,-3.559,7.499,-0.381,8.012,8.113,11.699,26.83,-1.567,10.942,10.289,10.692,3.029,7.801,6.521,7.705,7.061,12.912,0.009,7.463,-4.324,5.97],[796.888,82.005,-97.185,-104.346,71.913,192.481,28.422,33.179,0.373,-2.178,74.323,8.767,17.014,5.967,16.973,37.432,13.129,6.091,3.54,11.751,26.714,13.072,21.154,14.975,9.777,12.698,1.546,6.236,0.079,2.034],[2988.93,395.653,184.668,-118.299,18.394,556.425,68.617,42.631,16.245,43.788,297.998,23.818,3.043,0.895,20.787,62.997,25.339,23.184,7.469,9.044,16.046,23.721,3.818,9.545,-2.419,32.496,4.466,12.158,1.471,10.133],[5089.425,693.22,-64.006,68.788,-25.55,990.077,92.023,39.124,-5.82,-10.732,532.338,35.378,30.887,8.356,15.097,99.66,27.077,4.689,-1.125,16.236,46.139,25.185,9.343,19.128,5.176,21.155,15.713,13.69,4.012,11.566],[6347.62,1164.063,216.281,13.203,95.138,1304.632,334.62,-42.484,-17.95,-43.024,655.112,150.695,42.778,1.067,1.026,123.857,57.662,11.314,-3.416,16.119,52.86,51.634,11.868,3.769,9.493,16.893,13.555,29.349,10.499,-0.111],[7983.639,2701.404,291.188,64.354,-32.634,1503.974,397.991,76.648,3.188,33.255,788.336,217.784,2.102,45.516,39.637,141.837,67.815,27.809,11.928,15.045,67.869,56.254,15.221,15.415,5.033,26.051,33.918,26.105,5.649,2.751]]
}