{
"KTrans": [[-22.54,-0.323,6.089,1.812,5.679,1.55,12.555,0.115,9.044,7.258,-9.918,9.822,13.795,10.764,9.767,26.641,46.305,17.503,20.81,24.684,68.078,32.878,47.012,50.571,38.107,127.216,67.853,80.704,93.061,85.714],[-60.63,-18.02,-4.883,4.076,-2.015,-75.79,-10.921,1.276,-0.182,4.226,-64.917,-8.781,0.614,-1.497,1.23,-49.845,1.668,13.646,10.916,6.051,-41.161,28.329,39.513,17.08,21.52,-66.538,58.776,49.822,35.08,34.925],[-86.872,-32.808,2.885,-5.471,0.203,-86.244,-39.067,-2.612,-1.184,4.134,-88.463,-34.907,-7.332,-1.329,-0.405,-80.932,-22.233,1.529,7.613,7.235,-71.839,-4.307,25.717,13.037,9.522,-26.538,43.474,46.271,47.456,36.792],[-90.567,-57.261,-17.23,-8.072,2.054,-91.083,-54.101,-23.681,-0.404,-4.514,-87.461,-57.678,-13.519,-2.621,1.363,-87.238,-50.54,-3.327,1.798,4.975,-77.877,-33.16,-0.025,16.872,9.702,-57.573,-1.6,30.18,34.74,36.082],[-94.24,-78.332,-33.308,-10.743,-3.964,-93.912,-71.589,-30.895,-11.867,-2.114,-94.818,-70.518,-33.488,-15.134,3.074,-88.689,-62.626,-23.046,3.668,4.067,-78.869,-56.055,-15.081,-10.127,11.674,-70.71,-26.873,17.108,29.328,34.763],[-96.639,-79.306,-37.976,-15.133,-2.309,-95.67,-77.424,-42.216,-12.39,-7.157,-95.241,-81.556,-32.639,-14.517,-8.898,-91.15,-75.171,-34.565,-8.09,2.468,-87.455,-58.25,-25.642,-1.528,2.78,-81.927,-38.531,10.226,7.304,27.006]],
"ve": [[20.697,-12.911,-46.432,213.335,165.789,-191.241,32.786,-11.493,-99.746,46.223,4.939,-65.206,0.755,18.673,-12.569,-458.13,-36.778,278.469,-0.858,-23.334,6.207,-17.426,12.629,8.193,-204.858,48.404,-5.537,-10.655,-2.019,-35.372],[0.184,-9.307,0.155,0.148,1.609,-41.11,-11.512,-2.388,3.78,0.397,-28.482,-4.148,0.439,1.061,1.279,-21.967,-4.893,1.319,0.977,0.381,-55.901,4.203,7.801,3.256,6.134,2.984,22.119,0.164,3.399,-0.558],[-42.333,-20.484,-6.675,-3.53,-2.244,-70.424,-23.06,-5.927,-4.266,-2.615,-77.237,-18.839,-6.31,-5.173,-1.675,-47.366,-14.843,-6.121,-0.543,1.051,-45.652,22.042,6.336,-0.867,-3.135,0.169,42.931,8.799,8.133,12.994],[-58.256,-36.385,-11.581,-7.829,-3.175,-55.426,-31.661,-14.653,-6.01,-4.587,-54.492,-25.604,-12.044,-4.948,-4.112,-53.611,-37.043,-7.287,-2.362,-1.87,-42.779,-16.716,-6.398,3.745,-1.436,-21.847,5.748,20.967,7.906,-1.72],[30.791,-54.854,-23.588,-11.834,-5.389,225.252,-50.07,-20.96,-9.66,-5.961,-31.959,-55.456,-21.499,-11.042,-4.545,-46.601,-38.803,-17.195,-5.001,-1.689,-28.906,-22.269,-12.008,-19.689,-0.178,-8.766,-3.81,7.595,13.464,4.918],[-86.947,-52.919,-23.906,-13.413,-6.756,-97.044,-55.604,-31.941,-12.683,-8.262,-75.737,-43.159,-26.673,-16.253,-9.819,-40.213,-46.803,-34.745,-10.035,-5.827,-25.86,-22.151,-12.337,-9.102,-9.132,22.939,-14.65,8.913,-5.868,9.584]],
"kep": [[-38.207,-8.434,-3.1,-5.304,-4.435,-14.064,2.834,-11.821,4.063,4.89,-25.331,1.269,12.121,14.165,13.601,-14.123,21.51,1.133,18.889,29.854,9.183,14.609,25.231,48.048,33.01,44.952,69.864,68.356,81.386,96.397],[-68.937,-14.155,-5.296,4.51,-1.085,-78.625,-9.048,3.689,-2.263,5.419,-69.967,-8.401,-0.174,-1.049,1.448,-56.113,-5.534,9.927,9.569,7.138,-51.85,6.608,21.391,7.703,14.428,-39.341,9.863,12.16,11.036,6.208],[-85.265,-26.494,6.836,-2.412,2.018,-88.155,-31.39,2.887,2.645,6.843,-87.775,-31.761,-3.55,3.224,0.952,-76.069,-22.558,5.314,6.371,5.97,-73.126,-19.128,9.138,9.389,2.265,-54.364,-11.139,10.415,24.734,14.302],[-90.059,-44.21,-9.366,-1.756,4.829,-89.967,-44.58,-15.625,3.671,-0.395,-86.407,-51.31,-5.138,0.961,4.974,-84.728,-40.737,-1.42,1.81,5.813,-79.951,-38.186,-6.46,10.019,7.962,-70.434,-32.74,-7.716,4.276,11.817],[-94.021,-68.573,-20.411,-1.197,0.723,-91.505,-68.156,-18.477,-4.898,2.935,-93.568,-61.659,-21.833,-6.68,7.199,-88.157,-55.942,-18.237,7.369,5.137,-82.713,-53.942,-15.605,-4.412,10.677,-78.178,-46.152,-7.248,2.951,16.105],[-96.566,-68.395,-26.122,-6.456,3.164,-95.743,-71.457,-33.209,-2.2,0.192,-93.77,-72.449,-19.688,-2.144,-0.078,-90.359,-67.802,-26.673,-3.936,6.402,-86.326,-58.506,-26.489,-4.255,9.365,-83.112,-50.806,-13.057,-9.664,4.143]],
"vp": [[1239.367,893.789,49.07,65.404,-366.675,127.868,-15.986,78.224,-101.409,-73.749,130.963,38.436,8.552,-33.279,-18.874,-22.358,-43.821,-7.868,-28.297,-30.852,-23.367,-13.92,-25.952,-30.309,-21.552,-27.842,-15.26,-21.519,-36.837,-30.785],[3596.563,2586.512,830.773,304.986,1088.252,1028.501,329.67,174.9,149.51,154.782,367.893,169.805,116.614,114.29,54.61,57.758,28.483,0.499,-7.761,7.87,29.037,-9.005,-28.798,-6.734,-25.161,6.155,-16.905,-23.109,-1.684,-21.404],[5730.407,4387.751,2074.876,1861.881,1325.574,1242.662,1102.057,415.486,275.536,211.98,616.939,440.12,198.111,180.702,119.935,107.244,67.621,35.814,13.55,-1.215,40.724,-3.546,-17.451,5.45,-3.535,-0.335,-47.468,-16.385,-23.391,-26.355],[6410.063,7834.77,3812.228,3173.365,1826.91,1346.563,1395.798,912.984,512.943,537.868,579.065,734.125,431.158,230.209,187.551,113.601,149.778,46.377,20.423,7.876,41.682,32.157,21.846,-22.207,10.795,11.407,-11.347,-30.336,-19.404,-29.842],[7369.74,11857.19,6685.227,4837.387,2934.256,1570.215,2053.597,1315.098,827.565,595.301,726.171,938.587,670.425,479.161,236.517,104.64,171.616,121.06,41.765,15.322,24.572,48.351,35.95,59.068,17.662,-5.399,2.384,-13.068,-25.714,-12.561],[7489.323,11761.183,7853.514,5433.916,3725.723,1442.919,2258.273,1920.63,978.18,847.181,702.201,1235.505,911.969,647.652,471.771,111.255,192.936,182.991,90.01,46.442,67.45,50.072,37.25,40.616,44.683,-7.109,13.48,-16.113,13.31,-30.083]]
}