{
"KTrans": [[5.861,0.935,5.284,1.396,-1.339,8.603,2.717,2.393,2.998,2.802,-4.246,3.805,0.37,2.997,0.131,8.106,3.301,-0.174,1.286,3.986,67.893,14.592,17.396,12.609,7.973,4.829,69.057,43.154,44.956,39.765],[-52.99,-1.916,3.436,0.949,2.108,-51.846,1.041,1.171,1.773,-1.187,-44.483,-3.069,-0.193,1.752,2.856,-38.548,9.286,2.252,-3.95,-3.526,-26.827,18.878,5.463,0.487,2.721,8.526,13.568,16.01,18.316,7.437],[-88.202,-4.821,0.107,1.053,1.785,-86.616,-1.51,1.613,1.873,1.89,-86.298,-0.764,1.106,0.114,0.276,-76.194,-0.852,2.48,0.777,2.669,-54.941,8.669,14.795,4.193,2.541,-24.369,3.393,14.543,-3.1,15.912],[-93.335,-38.908,8.061,3.802,2.294,-94.879,-32.461,4.075,6.229,3.386,-93.441,-29.537,3.441,4.507,1.84,-87.709,-11.374,3.228,3.497,3.021,-83.263,-24.926,-0.397,7.646,3.017,-78.848,-23.595,24.051,29.665,3.753],[-96.614,-57.979,-4.4,4.407,3.581,-95.708,-57.529,5.096,3.552,1.671,-95.184,-45.938,0.506,4.249,4.231,-92.496,-56.987,2.39,3.314,3.294,-88.961,-44.659,-5.618,8.725,2.325,-92.082,-29.317,8.536,14.051,13.46],[-97.911,-66.784,-6.142,7.93,2.382,-96.698,-74.589,-14.469,2.255,5.479,-96.453,-71.437,-14.993,0.361,4.607,-96.41,-76.159,-12.616,16.617,5.519,-94.263,-59.831,-15.836,28.49,4.309,-93.036,-48.555,0.699,17.44,7.497]],
"ve": [[2.642,2.17,3.995,3.052,15.489,5.81,2.395,4.034,4.179,3.206,1.256,1.833,5.404,2.828,36.745,-3.014,112.532,-135.646,39.631,40.599,21.456,-15.919,-41.046,-160.358,-9.264,-11.843,20.32,-28.496,-32.976,-35.11],[-30.419,-1.972,0.181,-0.138,-0.838,-28.777,-1.868,-0.293,-0.68,-1.108,-19.812,-1.782,-0.921,-0.266,-0.619,-30.766,2.962,-0.155,-2.533,-1.017,-23.419,-1.193,2.614,4.154,3.406,-27.937,-8.365,-6.806,-19.899,-12.421],[-70.79,-3.866,-1.423,-0.853,-0.996,-70.382,-5.028,-1.281,-0.872,-0.93,-67.72,-3.418,-1.411,-1.677,-1.146,-59.979,-10.024,-1.237,-0.404,-0.101,-46.366,-5.834,4.48,-47.049,-0.792,-2.477,-5.014,-4.745,-3.93,7.405],[-117.804,-24.214,-0.045,-0.044,-1.076,-81.618,-21.939,-0.777,0.322,-0.399,-84.446,-19.126,-0.752,-1.042,-1.358,-82.052,-21.45,-2.377,-0.356,-1.023,-76.442,-19.503,-8.127,0.173,0.068,-57.347,-22.985,6.091,12.65,-5.177],[-85.293,-48.159,-4.949,-0.843,-0.303,-46.223,-45.296,-1.32,-1.539,-1.399,-94.429,-33.245,-4.223,-0.491,-0.292,-91.293,-45.033,-8.041,-1.549,-1.307,-82.182,-35.918,-17.502,0.262,-1.202,-93.045,-43.887,-14.397,-3.513,1.502],[-90.989,-66.232,-7.987,0.145,-1.19,-108.354,-68.69,-13.889,-1.366,0.014,-90.349,-64.445,-10.909,-2.389,-0.084,-107.727,-70.972,-18.845,0.88,-1.506,-98.251,-286.342,-16.838,1.518,-2.226,-117.806,-166.924,-8.037,-16.962,-8.714]],
"kep": [[1.673,1.271,6.691,3.928,-3.09,2.458,3.106,2.385,4.529,7.659,-5.32,3.36,0.036,5.043,1.359,-12.766,-6.604,-7.722,-5.567,1.959,9.122,-14.475,-1.693,-3.691,-5.525,47.046,27.83,-4.158,7.73,9.829],[-42.092,-0.693,3.011,1.087,3.038,-39.596,1.853,1.496,2.382,0.067,-37.948,-2.433,0.376,1.98,3.569,-52.473,1.857,0.668,-2.564,-2.994,-44.062,-1.346,-1.814,-5.11,-0.187,-31.585,-13.829,-15.339,-6.795,-9.208],[-84.625,-3.331,1.139,1.618,2.737,-85.066,0.252,2.418,2.483,2.803,-87.488,0.52,1.915,1.524,1.353,-74.909,-8.191,1.428,0.052,2.25,-69.624,-16.471,0.961,0.621,0.904,-60.203,-25.228,-17.856,-17.274,2.129],[-94.208,-27.51,6.612,3.452,3.219,-98.769,-22.212,4.061,5.28,3.642,-94.594,-19.754,3.186,5.222,3.007,-89.539,-27.874,2.827,2.464,3.259,-79.677,-36.738,-11.413,3.832,0.284,-78.685,-44.373,-11.103,3.558,-7.934],[-98.05,-56.861,-0.98,4.734,3.632,-95.63,-49.67,4.109,4.616,2.945,-96.819,-41.702,2.383,4.077,4.065,-92.707,-55.229,-2.07,3.034,3.322,-87.496,-49.779,-22.738,2.326,0.931,-84.264,-52.354,-34.084,-11.581,-1.319],[-95.935,-76.764,-3.373,6.221,3.109,-98.238,-79.568,-8.186,2.24,4.869,-94.692,-74.641,-9.839,1.311,4.156,-95.297,-78.519,-21.777,12.468,5.959,-88.957,-66.559,-29.981,22.692,1.621,-84.312,-64.587,-33.126,-30.073,-4.812]],
"vp": [[117.631,166.298,-128.364,103.576,231.316,-55.906,4.179,14.456,-28.866,-5.739,34.25,-6.349,25.024,-9.823,18.204,8.69,3.591,9.3,7.209,-5.122,-25.333,2.819,-9.15,-7.677,-1.362,-3.374,-10.313,-7.683,-13.152,-14.187],[3292.087,431.876,-97.718,126.038,-23.271,651.82,60.782,9.173,38.301,102.941,283.412,44.558,42.462,11.995,-9.924,68.724,-13.881,2.71,26.456,28.842,34.953,-10.672,3.094,8.968,2.772,14.914,9.617,4.147,-9.231,2.093],[7316.996,970.545,409.089,289.191,260.699,1470.252,221.957,64.087,31.613,45.732,739.885,75.415,21.889,55.811,33.82,133.812,48.211,6.707,4.283,-3.732,46.024,10.127,-16.666,0.877,5.29,-2.66,10.17,2.957,23.893,-16.727],[8650.352,5117.4,51.542,84.207,285.835,1891.562,903.202,74.284,-61.944,19.931,865.183,378.493,29.234,14.12,43.351,167.292,86.071,16.786,-2.631,6.216,75.527,41.275,25.639,-3.849,-0.836,26.04,25.861,-13.318,-26.94,14.243],[9898.013,9675.121,1647.652,255.544,136.035,1816.301,1877.327,70.478,85.247,112.038,945.274,715.752,126.326,14.267,3.164,181.051,186.777,33.215,9.49,11.097,81.026,71.414,52.743,-4.036,4.16,50.403,28.17,19.967,7.837,-4.776],[9137.541,13358.295,2522.35,-118.16,372.102,1951.498,2804.653,896.145,61.394,-31.099,885.486,1319.47,333.902,71.456,-22.075,208.966,278.518,112.37,-7.275,13.595,91.679,88.305,51.508,-7.639,7.59,43.691,49.27,16.122,35.638,23.804]]
}