{
"KTrans": [[-1.768,-0.695,1.631,0.837,1.221,6.742,13.413,12.43,11.046,11.688,8.446,26.705,22.373,21.059,23.062,-45.033,69.027,87.499,90.04,96.033,-50.598,22.626,101.772,126.355,138.758,-191.015,-93.499,-51.218,54.68,111.402],[-3.367,-1.04,0.528,1.465,0.315,-1.02,5.954,0.702,4.826,5.14,13.399,13.811,2.281,8.75,8.661,65.807,44.37,-35.307,26.963,37.122,-78.618,-18.307,-50.393,4.728,48.335,230.277,-15.575,56.04,-19.372,38.33],[-9.702,-0.207,-0.064,-0.931,0.267,-1.865,5.768,3.333,2.158,1.192,5.513,10.788,8.696,7.782,1.786,28.911,64.13,51.91,39.355,-4.604,-1.519,61.765,-54.229,-42.096,-8.378,-94.16,-195.157,56.828,-88.94,-3.165],[-19.129,-0.376,-0.922,1.055,-0.256,-15.925,5.215,1.627,2.549,2.118,-8.805,9.365,7.198,5.33,5.618,-10.92,70.197,48.274,33.759,39.748,-71.586,12.286,70.912,64.955,42.92,-38.994,-51.365,5.77,93.983,32.403],[-30.047,0.472,2.87,-0.382,-0.581,-22.242,2.471,2.339,1.83,2.803,-22.974,7.115,4.812,4.647,6.005,-57.759,59.145,39.761,36.078,33.668,-71.04,92.088,85.422,59.194,58.111,-109.94,-93.83,-64.636,133.687,29.522],[-34.271,-2.668,0.345,-0.554,-0.548,-41.523,-3.479,4.644,1.62,3.023,-27.596,1.373,5.911,5.614,4.152,-38.918,37.683,38.482,32.373,33.122,-35.578,-19.627,68.859,75.277,62.796,-84.206,-34.371,-16.217,24.64,84.372]],
"ve": [[-8.036,-146.882,25.446,19.932,-10.377,5.961,0.001,32.699,25.255,-57.931,4.369,-12.643,51.712,88.214,51.719,47.184,-17.274,-234.966,-86.366,42.117,95.776,27.939,-37.394,-39.799,-62.778,193.918,77.635,34.367,2.528,-17.743],[-0.397,-1.511,-0.41,2.514,1.162,3.214,0.854,-2.903,12.43,3.883,7.613,4.156,15.953,20.19,6.242,50.625,29.872,15.552,1.011,50.843,97.758,48.271,24.493,17.141,-4.695,197.67,101.255,59.415,43.53,26.278],[-0.062,-0.361,0.001,-1.181,0.675,4.356,2.429,1.038,-0.685,2.186,8.638,4.973,3.138,1.555,1.63,49.978,22.903,17.547,13.117,7.215,94.736,48.503,34.77,26.808,20.084,196.292,99.686,68.526,51.525,39.199],[-0.068,0.512,0.4,0.282,0.036,3.877,2.449,1.506,1.348,0.772,7.743,5.022,3.138,2.319,1.819,44.582,25.269,16.656,12.039,9.147,100.611,52.155,48.096,24.113,22.275,193.84,75.949,66.795,51.147,37.267],[-0.804,1.278,0.684,0.304,0.146,3.972,2.403,1.505,0.999,1.15,4.169,4.564,2.762,2.113,2.033,48.957,24.703,16.008,12.334,10.345,100.989,49.699,30.951,26.418,21.542,175.319,102.057,63.519,37.453,40.934],[-0.763,0.231,0.67,-0.029,-0.046,2.163,1.77,1.874,1.114,1.121,47.901,3.955,3.197,2.234,1.955,45.7,23.966,16.354,12.692,10.452,97.928,47.844,30.944,24.578,19.716,194.92,102.642,66.591,51.895,41.829]],
"kep": [[-129.337,7.734,-5.048,1.318,-8.765,-125.876,-31.433,-22.343,-19.92,-21.42,-136.32,-57.118,-29.666,-31.299,-42.317,-182.986,-214.172,-176.596,-177.127,-194.406,-76.985,-389.966,-371.967,-366.238,-383.487,-103.58,-243.491,-617.321,-663.12,-722.379],[-12.257,-13.933,-123.032,-10.13,2.028,-13.305,0.743,-141.828,-19.828,-7.904,-6.762,11.845,-155.695,-28.815,-21.491,-5.182,9.962,-255.613,-160.266,-99.089,-85.233,-68.323,-124.444,-319.671,-206.86,-1.776,-56.607,38.016,-163.011,-317.605],[-17.391,-3.24,-2.85,-13.069,-126.071,-12.619,1.964,0.6,-6.283,-134.041,-10.51,6.819,11.05,14.209,-135,-29.735,30.9,41.971,61.235,-165.389,-51.955,-3.346,-111.119,-130.808,-90.276,-89.673,-138.182,-2.875,-131.859,-47.082],[-25.526,-2.427,-1.374,1.945,-2.034,-27.337,1.48,-1.583,3.574,2.42,-24.921,2.042,4.161,3.705,8.707,-50.484,29.604,32.266,28.976,60.631,-81.584,-37.231,22.141,37.388,14.389,-73.606,-77.01,-46.92,21.891,-13.113],[-38.697,-2.122,2,-1.724,-2.443,-34.506,-0.779,0.198,-0.34,3.355,-35.895,0.375,0.02,2.332,7.362,-75.398,20.64,17.395,26.012,34.619,-83.841,12.849,34.443,26.953,40.313,-96.832,-92.701,-80.786,49.839,-20.143],[-44.945,-6.131,-1.166,-1.807,-1.447,-52.663,-7.265,1.162,-0.733,4.001,-44.357,-5.203,0.915,2.255,2.395,-66.037,1.593,17.24,18.895,27.21,-68.564,-50.274,17.866,40.649,38.409,-88.307,-65.544,-55.216,-37.921,18.623]],
"vp": [[40.627,101.567,-10.678,4.914,58.509,-1.249,17.745,37.273,-12.971,-12.189,-3.925,7.256,-17.203,-19.56,-9.95,-11.242,-13.255,-8.804,-10.692,0.816,-20.665,-6.588,0.074,1.209,-2.782,-15.588,-5.266,7.951,-1.834,-9.735],[1211.257,160.16,10.197,27.905,-88.293,212.342,47.067,8.102,-15.492,9.936,132.946,56.155,5.118,-8.686,-7.205,7.045,-5.884,-0.166,-12.248,-5.771,-1.549,-18.111,8.097,6.15,1.78,-31.541,-20.398,-22.992,-3.604,-9.371],[2677.066,616.404,100.744,29.28,15.419,599.737,94.27,45.335,18.527,-20.616,240.857,41.703,-12.768,-0.067,-13.182,65.783,-1.923,5.863,-19.401,-9.794,6.735,-10.147,-19.496,-2.586,-4.307,-12.434,-20.455,-14.865,-26.389,-14.266],[4303.808,1358.549,455.489,259.003,37.311,875.165,230.658,31.267,62.343,-17.741,438.97,133.212,25.356,-12.871,5.205,67.188,38.941,3.326,-23.325,5.628,22.964,25.508,-10.734,-16.135,4.2,-13.646,-13.244,-8.343,-21.786,-33.058],[5088.41,1860.801,979.62,384.619,428.406,1023.249,449.684,215.47,177.15,53.322,444.782,167.175,94.014,36.583,76.591,84.083,47.608,33.034,5.246,8.221,19.761,25.769,-9.161,-16.341,-10.15,-6.097,10.214,-15.81,-12.256,-19.009],[6581.619,3285.653,1301.206,781.895,577.352,1230.813,574.036,240.947,97.416,25.531,659.981,320.534,159.995,82.126,-0.314,97.631,74.569,10.06,7.828,30.012,23.286,12.098,8.41,-0.272,15.334,3.064,9.556,-0.534,25.561,10.457]]
}