{
"KTrans": [[3.309,2.39,4.194,0.463,1.921,1.602,4.128,1.398,1.416,3.751,-3.253,-0.918,-2.678,0.866,2.401,0.974,10.616,8.631,5.734,-0.452,29.164,13.207,1.687,4.984,6.864,7.178,77.233,53.075,51.562,33.274],[-35.595,-0.204,0.048,1.23,1.492,-44.761,1.449,2.682,0.929,0.714,-38.341,0.465,-0.984,0.268,-0.173,-44.348,-9.244,-0.592,-3.911,0.615,-40.539,9.133,-2.012,-3.753,-7.217,-75.279,41.014,28.586,14.231,12.366],[-80.511,-1.901,4.724,2.786,-0.227,-80.398,-0.793,0.534,0.607,0.787,-83.514,-3.338,2.254,1.12,0.679,-69.691,-16.309,-5.857,-4.601,1.285,-66.306,1.067,-1.061,-7.104,-0.668,-59.245,-21.055,23.375,12.755,2.459],[-92.196,-16.806,4.462,1.876,2.093,-92.824,-13.619,5.015,1.109,2.191,-91.645,-17.134,-0.975,1.122,3.171,-85.426,-20.159,-1.832,-2.46,-1.839,-89.731,-8.017,-14.26,-5.947,-0.965,-112.724,14.205,3.134,-2.259,-0.736],[-95.99,-40.034,4.092,4.91,4.118,-96.99,-46.863,5.123,5.747,5.401,-95.563,-48.16,8.357,2.348,1.266,-92.725,-37.262,-0.977,-7.461,2.162,-94.716,-33.659,6.164,-12.619,-0.223,-113.061,-8.843,8.166,-0.434,-3.521],[-97.957,-67.315,0.653,5.726,3.829,-95.645,-64.685,-10.01,5.039,4.697,-96.148,-63.833,-3.236,5.481,3.96,-99.955,-58.678,-13.581,2.788,2.521,-92.017,-53.483,-20.089,-14.375,-0.484,-103.715,-51.745,-2.999,-2.381,0.3]],
"ve": [[2.631,1.402,2.814,4.28,5.211,2.116,0.767,2.852,3.835,2.081,-0.832,3.964,4.114,7.377,4.355,-60.588,5.109,-28.379,18.377,29.454,-10.1,-19.112,-19.906,-34.911,-37.193,3.024,-5.934,-7.623,46.14,-36.073],[-21.829,-0.387,-0.436,0.125,-0.733,-23.602,-0.939,-0.097,-0.486,-0.893,-21.454,-1.884,-0.978,-0.972,-0.819,-36.452,-6.675,-0.513,-1.386,0.125,-32.338,-3.188,6.393,0.495,3.228,-47.513,10.796,9.244,-5.581,5.502],[-55.728,-3.202,-0.131,-0.196,-0.877,-57.476,-3.356,-1.076,-0.868,-0.146,111.629,-4.046,-0.605,-0.646,-0.643,-25.934,-15.131,-6.256,-2.55,-0.496,-44.346,-6.082,-2.189,-6.02,-1.058,-49.294,-24.948,5.337,1.763,-38.961],[-91.404,-11.727,-0.855,-0.887,-0.139,-86.954,-8.3,-0.135,-1.109,-0.109,-73.096,-13.709,-2.005,-1.081,-0.218,-70.046,-18.811,-1.644,-3.046,-2.689,-85.108,-25.762,-13.993,-5.06,-2.133,-123.703,7.291,-13.682,-10.686,-14.401],[-71.861,-22.761,-0.793,0.229,0.028,-110.878,-33.19,-1.791,0.483,1.058,-109.191,-32.52,-0.076,-1.532,-0.272,-322.155,-29.435,-3.01,-6.852,-0.821,-92.125,-23.155,-0.256,-11.221,-1.112,-109.816,5.615,-10.807,-15.999,-6.383],[-89.685,-63.793,-3.055,0.085,0.289,-92.675,-49.577,-6.555,-0.521,0.146,-183.724,-47.949,-5.548,-0.688,-0.342,-106.473,-46.863,-15.456,-1.827,-0.231,-84.187,-45.041,-28.925,-14.493,-1.568,-102.268,-41.567,-20.83,-20.615,-4.387]],
"kep": [[1.122,2.622,4.549,1.166,3.987,-0.852,4.927,1.391,1.611,8.304,-2.686,-3.157,-2.979,-0.707,5.572,-20.582,4.063,5.063,2.804,-8.912,-9.532,-16.114,-22.597,-19.807,-15.109,25.919,24.965,-4.42,13.758,-22.472],[-28.36,-0.428,0.391,1.083,2.294,-33.668,1.863,2.683,1.424,1.679,-29.485,1.781,-0.266,1.231,0.702,-49.673,-10.04,-1.936,-3.624,0.07,-25.756,-13.745,-9.409,-6.792,-10.29,-22.81,-7.022,-8.884,-8.4,-4.695],[-71.156,-0.505,4.496,2.873,0.614,-74.362,1.108,1.205,1.304,0.853,-78.257,-0.912,2.574,1.633,1.242,-69.735,-17.854,-3.022,-3.62,0.861,-61.695,-33.421,-8.845,-7.945,-2.991,-45.703,-23.13,-17.05,-10.286,-9.425],[-91.59,-8.539,4.532,2.522,2.144,-95.539,-9.702,4.513,1.97,2.147,-91.437,-9.521,0.525,1.893,3.258,-81.713,-29.99,-3.587,-1.042,-0.341,-70.889,-38.265,-25.382,-6.813,-2.38,-65.382,-21.873,-33.533,-21.48,-13.889],[-98.102,-28.222,3.907,4.213,3.9,-98.286,-35.962,5.585,4.746,4.112,-96.082,-37.22,6.661,3.395,1.364,-91.237,-50.752,-3.165,-2.928,1.782,-80.49,-42.986,-15.329,-12.067,-2.682,-71.082,-34.609,-36.383,-37.549,-15.871],[-96.912,-59.655,0.759,4.753,3.232,-97.896,-56.863,-5.606,4.978,4.107,-96.066,-59.658,-1.072,5.2,3.991,-91.299,-63.091,-17.999,1.886,1.443,-85.055,-63.12,-46.639,-18.749,-3.468,-76.929,-47.75,-43.896,-36.379,-14.954]],
"vp": [[52.767,53.609,-255.168,135.065,-51.322,34.61,13.068,-4.131,-12.052,-32.588,46.718,2.796,34.843,0.642,1.173,11.078,-11.91,-12.83,-4.016,4.239,1.575,2.991,9.775,8.008,4.646,-6.66,-15.304,-8.292,-13.899,-0.062],[2024.797,113.748,204.602,-14.661,73.967,491.229,33.942,-27.904,2.995,55.912,237.709,36.952,34.276,29.772,32.492,76.693,29.571,2.918,22.927,0.18,33.81,-3.847,11.644,14.868,29.274,21.765,-15.002,-10.508,-4.372,-5.069],[5872.536,628.565,-144.356,-69.256,385.53,1183.985,128.658,45.597,31.645,50.138,660.065,70.873,17.785,25.656,20.749,111.838,61.445,37.126,28.233,1.514,53.631,15.475,15.744,32.059,9.231,23.789,26.894,-8.614,-5.951,6.742],[7762.77,2283.121,174.681,295.55,-24.505,1751.188,313.234,-13.76,78.107,-6.898,808.916,291.321,47.258,46.681,-13.348,141.322,74.296,9.977,25.125,23.455,84.152,37.132,48.373,21.811,12.303,64.101,-10.804,18.925,15.552,12.476],[9101.438,4645.35,169.505,-196.364,-138.45,1866.622,1389.98,113.143,-63.628,-140.815,908.285,679.838,0.328,44.094,9.102,169.344,119.119,17.699,55.657,3.008,91.244,44.297,-1.344,50.359,4.042,55.277,-10.028,16.06,29.468,17.31],[9300.627,10539.246,883.457,-174.503,-311.985,1894.926,1991.216,409.272,25.794,-53.635,913.919,985.583,172.382,16.751,4.797,215.886,191.958,89.619,11.09,-1.927,80.798,91.862,88.868,63.074,5.299,48.439,40.861,32.215,35.188,9.303]]
}