{
"KTrans": [[-5.755,3.98,1.275,2.503,4.684,2.427,12.077,5.864,9.567,6.519,21.375,16.868,12.191,11.699,9.624,107.276,90.355,79.988,62.964,62.1,218.192,217.441,175.876,157.277,141.133,180.764,408.963,403.299,357.348,335.694],[-42.843,0.248,-0.199,-1.019,1.548,-39.991,5.873,4.67,1.438,6.101,-30.641,11.85,14.137,9.067,5.075,-16.329,54.805,47.18,36.003,31.7,17.717,150.823,114.013,76.051,67.145,-26.778,241.268,245.078,185.294,152.278],[-65.933,-6.98,0.031,2.095,0.564,-59.516,1.012,3.995,3.069,2.391,-59.943,4.864,10.661,5.618,4.307,-45.141,43.782,34.668,35.814,26.602,-19.988,110.709,88.087,66.779,53.177,-54.811,123.64,263.542,170.04,142.24],[-83.694,-10.74,0.966,2.196,0.213,-74.78,-9.254,6.051,5.721,1.34,-75.659,-7.104,4.884,7.754,4.813,-70.39,27.876,37.677,30.447,25.985,-64.127,45.761,79.047,62.535,55.762,-76.652,96.907,187.708,171.887,115.8],[-87.905,-20.761,-2.275,0.967,0.969,-81.609,-15.24,2.59,5.6,3.814,-80.776,-17.731,0.794,9.174,4.363,-77.959,17.113,40.626,35.075,24.53,-82.65,23.5,82.359,69.829,56.378,-62.645,15.094,106.782,149.668,117.707],[-88.633,-34.847,-5.913,-4.458,-0.384,-89.101,-34.761,-6.141,1.714,2.72,-90.842,-25.902,0.903,-0.761,9.29,-79.37,-21.166,32.639,29.675,19.769,-78.697,-8.94,60.538,60.812,43.25,-63.76,-19.209,76.137,146.494,114.283]],
"ve": [[14.413,-5.946,18.566,52.387,-0.031,10.872,16.977,28.907,15.042,20.025,17.505,17.242,11.473,47.402,-0.757,54.392,18.262,0.339,-12.367,-12.366,97.243,37.861,11.868,-2.801,-14.889,199.601,81.848,44.748,13.564,-233.278],[7.541,0.472,2.319,2.322,1.234,10.827,6.371,2.407,1.74,0.058,16.299,8.176,4.223,2.483,3.104,78.803,25.021,16.235,9.868,5.575,81.864,52.253,31.604,20.283,14.077,201.026,98.068,62.965,43.931,30.357],[12.142,5.485,2.114,0.927,0.347,2.574,4.37,1.387,1.375,0.714,16.375,4.878,3.993,2.376,1.895,50.102,25.852,16.409,12.627,9.033,96.409,53.386,33.625,23.211,18.189,202.509,100.568,69.184,47.843,36.093],[3.224,1.262,1.038,1.159,-0.144,12.803,4.032,2.63,1.509,0.666,18.914,7.399,4.132,3.206,2.475,103.053,27.506,17.124,12.331,9.279,96.283,51.095,34.154,25.276,18.354,204.643,103.216,67.856,49.656,38.436],[43.783,3.834,1.496,0.171,1.061,98.807,5.292,3.726,1.41,1.613,15.583,8.208,3.559,3.277,2.249,47.441,28.967,17.937,13.015,9.255,84.902,53.714,34.334,25.365,19.654,195.189,99.425,54.601,49.133,39.096],[12.777,4.692,1.001,0.178,0.308,19.779,1.236,2.769,1.906,1.344,-15.725,9.871,4.734,2.953,2.183,46.574,26.579,17.842,13.93,9.874,108.845,45.843,34.891,24.422,19.372,197.332,100.427,70.306,50.39,39.936]],
"kep": [[-15.499,0.494,1.738,0.317,13.445,-6.685,13.616,3.151,14.778,11.583,6.339,12.484,13.649,16.433,12.745,37.204,66.306,89.831,79.264,97.107,58.295,130.565,151.914,173.269,193.003,-3.079,172.975,256.538,307.1,344.207],[-46.953,0.794,-1.387,-2.571,1.281,-46.893,-0.295,3.191,0.258,6.924,-40.294,4.531,10.571,7.227,2.789,-48.673,24.192,27.308,24.539,25.621,-43.841,66.603,62.823,46.996,47.155,-71.616,71.309,110.297,97.949,93.397],[-70.383,-9.29,-1.786,1.41,0.558,-66.562,-2.473,2.795,2.054,1.882,-66.533,0.515,6.538,3.469,2.614,-65.764,14.001,16.101,20.828,16.554,-61.002,38.082,40.208,35.281,29.809,-82.244,11.913,113.655,81.66,77.395],[-86.563,-11.473,0.078,1.196,0.598,-79.075,-12.12,3.471,4.417,0.705,-80.396,-12.734,1.031,4.662,2.368,-82.966,0.141,17.649,16.239,15.41,-82.168,-3.584,33.176,29.554,31.603,-89.8,-2.477,68.692,80.557,55.19],[-89.881,-23.57,-3.54,0.833,-0.029,-85.206,-19.398,-0.672,4.126,2.354,-84.731,-23.856,-2.504,5.852,2.197,-87.093,-9.587,18.789,19.509,14.07,-91.229,-20.078,34.997,35.164,30.641,-85.857,-40.904,23.491,65.843,55.667],[-90.762,-37.678,-6.634,-4.374,-0.534,-91.63,-37.097,-8.577,-0.018,1.494,-93.515,-30.911,-3.501,-3.437,6.997,-86.784,-37.732,12.291,13.744,9.006,-89.361,-40.72,18.797,28.726,19.757,-86.227,-57.63,3.533,61.657,52.052]],
"vp": [[646.436,341.937,-173.173,131.792,89.539,64.774,72.364,34.052,6.119,-2.584,83.215,-10.463,-33.794,-8.14,1.218,3.03,-11.733,-23.798,-9.581,-18.846,-2.237,-6.42,-3.819,3.216,-6.839,-12.343,-14.762,-10.001,-16.424,-0.344],[3965.85,1200.359,110.415,305.24,545.974,907.478,111.848,-43.174,3.821,59.979,369.878,116.204,38.268,-16.998,-7.608,67.073,0.717,10.859,-0.124,-5.061,37.867,11.612,4.597,-12.925,-8.261,4.464,-22.47,-6.394,-2.889,-15.753],[5621.393,3345.84,1355.863,960.008,229.03,1260.661,675.111,276.227,-29.719,-90.648,584.109,302.393,60.304,-5.421,-2.676,101.168,50.735,-19.273,12.282,4.739,46.442,15.478,-0.525,2.631,-13.608,9.412,-11.839,26.821,2.263,1.961],[6942.313,6238.013,1689.425,1084.243,89.217,1362.687,1159.868,417.842,192.255,123.741,672.41,530.902,174.881,35.959,53.562,141.661,84.669,37.696,7.9,-2.875,49.358,38.266,12.584,-11.952,-9.789,20.308,15.963,21.081,10.234,-10.034],[7971.186,8105.11,3234.158,1455.776,126.513,1606.508,1798.48,769.865,329.447,224.458,748.019,751.17,357.352,185.588,137.186,138.902,171.071,67.857,22.768,-9.451,63.495,81.167,24.032,15.336,4.188,15.391,7.53,8.679,2.083,-6.258],[7803.992,10452.02,6150.175,2963.961,1041.142,1621.614,1980.727,1240.387,463.323,292.89,822.378,980.62,549.662,263.741,150.99,143.889,164.649,135.774,60.49,12.723,57.786,74.93,54.384,21.583,-6.809,14.726,22.701,27.464,18.029,1.493]]
}