{
"KTrans": [[0.007,0.03,0.146,0.169,0.009,-0.473,0.865,0.375,-0.04,-0.023,2.703,-0.055,0.212,0.553,0.633,-0.425,3.582,2.484,2.819,3.02,26.083,7.103,10.425,8.594,1.871,101.138,47.837,38.234,37.694,39.788],[-1.877,-0.331,0.022,0.085,0.114,-0.195,0.047,-0.208,0.172,-0.034,-1.068,-0.279,0.324,0.315,0.389,15.355,2.255,1.694,0.527,0.955,54.456,10.607,4.753,-1.792,5.612,-4.386,50.207,11.477,24.161,8.18],[2.753,-0.762,-0.285,-0.093,0.038,2.764,-1.371,-0.582,-0.06,0.053,14.668,-1.494,0.064,-0.038,0.237,-16.264,0.44,0.61,0.387,1.478,-32.035,4.348,2.505,1.817,3.875,-25.014,-52.2,2.546,7.205,7.927],[-10.48,-0.681,-1.055,-0.592,-0.154,-19.115,-0.006,-1.631,0.089,-0.183,-26.938,-0.763,-1.374,-0.053,-0.366,-52.165,8.863,2.568,0.826,0.639,-49.879,6.327,0.843,-3.466,1.74,-36.559,9.986,8.966,10.859,9.234],[-55.727,0.972,-1.23,-0.617,-0.479,-60.434,1.754,-0.822,-1.34,-0.292,-65.005,5.842,-0.755,-1.015,0.019,-58.156,30.41,-0.663,-0.201,1.56,-55.743,-20.169,2.592,0.052,0.49,-64.766,-13.959,35.455,1.866,3.111],[-74.384,16.977,-1.876,-1.036,-0.818,-80.465,6.172,0.199,-1.932,-0.462,-70.549,17.798,-0.8,-1.767,-0.729,-65.523,6.171,-1.827,-0.707,0.099,-63.955,-34.467,22.242,3.739,5.042,-62.94,-27.822,19.591,9.776,-0.979]],
"ve": [[-0.009,-0.038,-0.101,-0.195,-0.183,-0.333,0.089,-0.146,-0.05,-0.037,1.241,-0.066,-0.043,-0.204,-0.372,-1.606,2.933,5.395,11.098,15.285,3.178,-31.501,-35.754,-27.37,27.204,36.942,-2.051,27.786,109.494,-48.871],[-0.942,-0.14,0.006,0.005,0.009,-0.035,0.074,-0.136,0.04,-0.052,-0.666,-0.173,0.11,0.075,0.056,5.81,0.864,0.5,-0.018,0.225,11.267,5.357,1.617,-0.931,1.97,4.753,32.198,5.753,10.706,5.773],[-0.913,-0.339,-0.114,-0.031,0.018,-0.548,-0.614,-0.24,-0.02,0.011,3.471,-0.703,0.028,-0.023,0.098,-11.029,-0.475,0.104,-0.085,0.618,-24.094,0.873,0.487,0.333,1.655,-30.371,2.501,-2.643,2.279,3.063],[-8.751,-0.693,-0.509,-0.218,-0.07,-11.779,-0.079,-0.486,0.025,-0.045,-17.559,-0.329,-0.671,0.024,-0.172,-36.345,3.152,1.968,0.406,0.373,-30.057,-9.534,-0.065,-3.201,0.73,-27.142,-2.824,3.686,5.003,4.743],[-41.812,-0.791,-0.71,-0.31,-0.134,-46.822,-0.887,-0.788,-0.59,-0.098,-50.081,0.599,-0.837,-0.345,-0.004,-39.457,5.475,-1.252,-0.211,0.762,-27.926,-20.003,-0.061,-0.309,-0.453,-37.788,-14.7,9.33,-1.561,0.335],[-54.84,2.718,-0.937,-0.641,-0.402,-59.521,-0.453,-0.516,-0.607,-0.26,-49.54,2.298,-1.007,-0.649,-0.471,-37.033,-0.909,-1.1,-0.893,0.649,-46.417,-28.224,8.829,3.078,3.782,-24.776,-7.815,1.641,1.883,-1.589]],
"kep": [[0.196,0.251,0.432,0.55,0.38,-0.026,0.948,0.718,0.236,0.28,1.396,0.142,0.493,1.132,1.48,-7.347,0.164,0.401,1.376,2.782,-12.151,-9.17,0.381,-0.493,-10.039,2.029,-17.443,-4.99,12.427,23.118],[-0.835,-0.011,0.198,0.263,0.288,-0.161,0.138,0.102,0.311,0.199,-0.456,0.008,0.367,0.407,0.507,8.794,0.018,0.593,0.267,0.651,4.446,-0.643,-0.031,-2.699,2.706,-25.813,-2.835,-5.652,7.948,0.035],[1.834,-0.259,0.011,0.121,0.204,1.386,-0.621,-0.169,0.139,0.223,8.345,-0.686,0.191,0.148,0.312,-31.115,0.28,0.035,0.187,0.719,-48.27,0.731,-0.296,-0.147,1.329,-45.085,-9.204,-5.752,-1.468,0.551],[-5.326,0.064,-0.378,-0.193,0.098,-11.698,0.092,-0.992,0.242,0.042,-21.44,-0.554,-0.571,0.087,-0.023,-55.158,5.633,0.353,0.212,0.213,-59.681,13.888,-1,-1.704,0.08,-59.357,-22.409,-5.903,0.48,1.193],[-50.893,1.176,-0.395,-0.135,-0.163,-56.839,1.669,0.06,-0.589,-0.015,-60.892,4.332,0.126,-0.518,0.189,-64.019,20.861,0.3,-0.137,0.795,-68.468,-38.022,1.933,-0.518,0.308,-69.534,-40.354,7.087,-0.99,-0.43],[-69.272,11.149,-0.967,-0.248,-0.24,-74.607,3.405,0.577,-1.189,-0.033,-66.972,11.592,-0.002,-1.006,-0.103,-67.496,-1.716,-1.198,0.105,-0.586,-72.007,-45.954,13.835,0.379,0.857,-73.847,-48.805,-14.821,7.502,-2.073]],
"vp": [[0.708,-1.988,-12.191,-15.49,-12.407,8.171,-15.413,-7.949,2.799,3.209,-15.654,2.377,-1.721,-6.672,-6.291,8.968,-2.196,-1.585,-2.962,-4.334,-5.345,1.993,-4.917,-3.783,3.504,-20.508,-9.071,-9.851,-12.839,-15.516],[97.48,32.052,-2.916,-8.328,-33.847,0.588,-3.501,9.898,-7.301,3.256,6.837,3.858,-4.465,-5.627,-8.23,-12.123,-3.803,-3.343,0.694,-2.585,-11.542,-11.898,-4.422,9.05,-11.054,-2.702,-30.663,-2.697,-22.498,-4.509],[101.691,75.221,41.823,16.591,-11.922,11.031,25.059,14.939,1.844,-1.854,-33.123,14.074,-0.397,1.021,-6.585,22.036,2.321,-0.625,1.094,-7.653,26.646,-1.649,-1.268,-1.018,-9.858,16.974,-0.965,5.909,-3.921,-7.477],[875.714,159.305,166.041,90.509,47.38,231.655,4.635,24.48,1.405,4.294,176.593,6.029,20.856,-0.874,9.385,72.817,-12.436,-13.411,-3.635,-4.671,29.319,21.696,0.148,14.911,-4.137,13.988,3.13,-5.796,-10.74,-13.49],[4211.646,188.069,233.807,144.925,66.538,947.571,41.912,55.523,48.173,11.428,510.492,-6.773,29.345,12.797,2.063,92.119,-20.691,8.446,1.82,-8.042,27.742,44.746,0.549,1.23,3.114,18.931,14.068,-14.469,4.033,-0.405],[5527.964,-442.433,279.256,288.704,225.897,1208.388,22.209,38.491,42.555,31.818,506.813,-36.475,33.104,24.468,27.519,70.944,3.792,5.621,8.201,-8.621,48.278,50.686,-27.526,-14.177,-21.477,11.838,5.875,-2.516,-3.075,4.423]]
}