{
"KTrans": [[-48.726,-64.851,-99.034,-74.407,-95.899,-52.634,-67.368,-80.518,-76.692,-84.247,-41.738,-71.439,-81.751,-66.972,-83.133,6.535,-10.894,-33.717,-36.359,-44.244,81.772,28.327,20.985,56.244,50.391,126.043,-43.591,159.275,29.174,173.006],[-67.723,-44.037,-57.455,-70.773,-73.747,-51.14,-48.945,-55.174,-65.706,-54.446,-55.959,-39.024,-47.295,-63.261,-53.143,-38.027,-7.456,-29.134,-36.506,-40.696,-34.511,6.656,0.792,14.516,-3.994,16.49,41.87,26.38,21.375,52.492],[-71.704,-50.863,-47.003,-41.018,-49.302,-68.346,-49.147,-46.315,-41.038,-48.445,-72.269,-52.333,-38.96,-42.405,-38.847,-55.416,-30.297,-32.793,-15.213,-32.175,-52.103,-14.049,-16.52,-5.934,-9.756,-40.14,-12.857,0.859,-2.183,-3.3],[-82.559,-60.038,-47.139,-51.107,-54.46,-75.004,-59.631,-56.962,-48.064,-44.597,-78.141,-55.677,-47.254,-46.331,-34.286,-74.77,-44.995,-34.628,-34.947,-20.121,-73.149,-38.664,-14.655,-24.275,-12.577,-41.247,-20.34,-28.195,15.753,-8.317],[-83.712,-68.498,-54.577,-46.515,-48.541,-85.664,-64.712,-55.081,-50.188,-51.224,-80.948,-63.855,-47.081,-43.675,-45.893,-76.326,-51.904,-42.411,-29.169,-29.989,-67.134,-47.996,-30.117,-16.873,-20.524,-58.965,-34.859,-8.428,-12.102,-11.046],[-88.12,-66.973,-50.525,-47.651,-42.155,-86.035,-71.288,-56.163,-44,-42.416,-84.462,-74.331,-53.854,-48.095,-51.487,-80.091,-58.209,-46.736,-36.644,-33.522,-74.555,-57.661,-40.428,-29.112,-24.742,-78.549,-47.751,-19.766,-26.278,-7.63]],
"ve": [[-142.177,18.967,-47.901,-33.878,-81.547,-156.485,-24.126,-54.269,-75.814,-75.727,-19.213,-13.542,-23.725,-93.953,21.806,45.259,0.569,24.886,-25.734,-59.581,104.255,538.275,-2.541,-14.869,-30.595,251.267,67.848,57.656,-12.996,-5.954],[190.294,-44.522,-59.481,-166.66,-21.038,-23.498,-65.329,-47.108,-64.068,-21.358,22.541,-93.345,-8.705,-58.361,-41.95,295.511,-35.63,-30.919,-33.985,-34.596,74.633,23.847,25.636,22.6,168.744,120.488,103.565,62.251,30.368,28.835],[-1.474,-119.993,-63.517,-50.586,-47.817,-21.849,23.66,-62.159,-112.602,-48.559,-33.838,-56.679,-46.041,-104.276,9.524,-466.602,-18.76,-40.999,-10.237,-27.323,206.125,-23.371,-21.007,-10.415,-11.717,293.684,142.382,80.122,45.766,15.908],[-37.418,14.986,-55.264,-72.087,-67.629,-331.707,-54.866,-94.617,-61.113,-70.224,-2.939,-38.092,-52.902,-65.37,-74.686,101.533,-15.427,-13.74,-102.025,-19.785,125.431,50.266,-9.512,-29.503,-1.074,323.003,83.981,0.976,62.157,16.728],[-23.903,-44.577,-82.959,-79.275,-85.436,-27.854,-39.815,-87.471,-69.506,-81.625,2.322,-7.678,-30.254,-55.72,-77.015,35.301,11.676,-57.089,-53.691,-44.929,161.314,12.033,-15.841,-19.381,-16.419,121.654,57.227,20.122,9.839,-14.52],[-9.681,-35.364,-38.001,-68.477,-0.701,42.089,-52.627,-64.366,-61.92,-74.947,20.685,-0.16,-10.29,-63.481,-86.514,81.894,-10.527,-35.681,-44.373,-47.28,104.783,-0.375,-33.907,-14.797,-12.521,224.443,56.537,85.156,13.123,20.3]],
"kep": [[-106.565,-73.65,5.05,-57.515,-4.995,-94.805,-62.275,-54.561,-9.201,-62.552,-102.55,-52.103,-0.35,-11.185,40.728,-146.844,-84.295,-39.09,-13.841,-88.289,-132.244,-123.647,-113.928,-168.438,-220.627,-94.271,-138.681,-226.142,-135.308,-293.552],[-101.549,-114.489,-95.99,-57.532,-37.577,-97.486,-92.817,-113.153,-59.182,-52.352,-98.43,-80.085,-106.968,-72.167,-51.706,-101.436,-88.438,-116.675,-103.206,-50.27,-90.928,-95.443,-158.624,-148.582,-93.455,-76.187,-63.452,-111.84,-143.002,-121.97],[-99.949,-75.602,-74.479,-97.971,-118.432,-98.794,-69.93,-56.831,-90.822,-110.862,-97.035,-67.715,-75.006,-94.025,-107.904,-99.082,-79.923,-60.612,-112.926,-129.747,-97.424,-64.929,-56.59,-79.562,-125.135,-94.692,-74.505,-75.854,-93.606,-82.527],[-94.623,-83.603,-53.308,-39.578,-55.545,-94.973,-75.456,-50.355,-48.025,-56.356,-103.083,-74.438,-51.455,-45.271,-62.032,-97.837,-74.421,-67.927,-66.141,-62.103,-96.393,-76.799,-53.914,-56.248,-77.668,-90.059,-65.764,-47.926,-58.471,-47.198],[-98.648,-81.817,-54.529,-35.417,-21.194,-98.835,-81.188,-51.873,-43.389,-33.891,-99.566,-86.516,-54.157,-43.105,-24.459,-97.855,-80.225,-47.696,-57.612,-43.235,-95.4,-78.605,-59.331,-46.748,-57.719,-88.612,-74.639,-49.89,-48.268,-26.234],[-97.894,-81.134,-54.25,-42.706,-32.538,-101.425,-86.423,-59.79,-37.69,-23.878,-97.784,-90.369,-60.129,-41.268,-28.649,-99.505,-81.076,-61.603,-48.419,-34.652,-94.958,-84.528,-60.103,-48.059,-50.536,-92.848,-76.56,-69.455,-53.314,-43.081]],
"vp": [[366.09,-72.75,70.76,863.791,161.462,35.802,-0.229,0.157,214.25,120.009,32.237,-53.695,34.28,111.361,45.826,-24.606,-15.738,-23.109,-19.667,1.864,-15.216,-27.48,-10.569,-17.657,-14.733,-26.318,-16.723,-1.921,17.255,2.045],[1773.237,1846.833,300.647,-249.395,85.728,411.416,171.038,-41.106,-148.826,34.389,225.266,59.805,-20.373,-38.277,-44.838,53.748,-19.081,-39.805,-17.867,-40.545,-13.898,-43.441,-39.964,-24.97,-16.155,-34.454,-29.993,-44.48,-35.494,-33.69],[4984.158,3306.823,1649.517,1431.534,108.215,804.896,524.982,362.67,141.012,14.385,384.347,304.752,184.008,40.956,4.817,31.348,55.092,7.1,2.668,-39.148,8.192,-17.747,-34.043,-29.394,-57.023,-22.141,-18.369,-51.549,-39.316,-28.728],[4465.187,5885.996,3335.091,1856.408,844.345,1007.977,991.399,678.867,250.156,163.765,555.423,575.052,249.453,226.331,184.665,107.62,72.64,47.732,13.702,-9.698,0.769,9.523,-9.3,-5.296,-31.428,-16.382,-23.523,-52.014,-24.575,-52.19],[6108.334,6627.613,4793.192,3372.041,1254.967,1229.113,1288.14,799.122,854.059,402.381,527.966,758.987,519.242,293.854,204.737,86.009,95.457,62.1,84.599,47.495,3.493,-0.965,13.083,8.026,19.481,-15.534,-21.263,-0.287,-46.227,-48.853],[6173.16,7414.163,7441.404,5218.048,3798.825,1325.658,1468.796,1248.246,1164.662,532.135,728.244,809.094,768.891,474.12,228.581,110.398,165.85,92.646,88.99,90.559,21.491,20.181,15.341,23.788,3.167,-8.199,-21.238,-8.938,-15.857,-16.787]]
}