{
"KTrans": [[-34.236,-36.493,-45.528,-34.003,-35.95,4.099,-7.85,-8.982,-9.157,-3.994,15.809,-1.126,-1.389,-1.314,-2.695,62.475,-0.059,-2.864,0.711,-0.828,121.775,3.357,13.199,15.731,11.758,187.481,68.382,71.965,66.64,80.194],[-41.386,-43.924,-40.897,-38.512,-32.793,-26.825,-17.675,-1.615,-9.56,-7.783,-4.046,-2.347,4.533,-1.704,-1.468,-1.117,1.183,24.454,0.4,0.466,1.218,1.49,36.726,3.306,2.199,4.08,3.499,83.642,10.31,-2.027],[-34.96,-44.196,-40.563,-39.053,-36.857,-24.321,-24.183,-13.609,-13.678,-0.643,-15.693,-5.142,-1.773,0.084,2.64,-8.476,0.015,0.901,0.547,13.966,-3.394,2.806,1.729,0.568,27.961,1.851,5.367,2.518,0.831,48],[-37.207,-46.592,-36.987,-39.243,-47.714,-34.015,-26.955,-17.794,-19.882,-13.816,-24.064,-11.764,-4.863,-1.084,-4.217,-21.9,-1.196,0.214,0.078,0.3,-22.854,-1.1,1.902,0.869,0.791,-19.767,1.203,2.513,1.882,1.731],[-47.199,-42.783,-39.991,-40.087,-46.671,-42.696,-29.278,-20.28,-17.375,-16.556,-39.854,-11.603,-5.859,-5.77,-6.054,-38.091,-1.115,0.001,0.023,0.495,-36.071,0.209,-0.16,1.166,0.409,-32.983,1.509,0.278,0.662,1.419],[-54.242,-35.289,-39.04,-42.486,-40.948,-55.659,-24.724,-22.04,-17,-12.281,-54.314,-16.554,-14.698,-5.059,-6.999,-51.737,-4.552,-1.153,0.162,0.296,-54.443,-0.658,0.096,0.273,0.578,-53.806,0.224,1.492,2.034,2.177]],
"ve": [[-35.025,-17.094,-13.013,-7.13,-5.071,6.941,-2.086,-1.556,-0.762,1.195,15.557,0.912,1.334,1.019,0.41,61.953,1.208,0.44,2.978,1.847,120.086,3.2,7.883,10.17,5.907,158.55,40.987,30.895,23.095,30.149],[-116.315,-65.713,-28.352,-28.448,-19.312,-79.575,-26.259,-1.735,-6.62,-4.453,-8.266,-3.537,4.202,-0.619,-0.615,-0.079,0.386,24.629,0.447,0.456,-0.056,0.777,35.701,2.279,1.368,0.947,-0.588,82.874,7.139,-1.017],[-128.524,-108.28,-67.023,-49.09,-37.34,-64.597,-62.085,-22.707,-17.185,-0.519,-35.582,-11.652,-1.984,-0.072,2.353,-3.227,-0.025,0.259,0.046,13.806,-1.663,0.75,0.046,-0.313,27.547,1.337,1.639,0.22,-2.104,48.096],[-120.036,-162.568,-84.177,-68.349,-66.879,-75.359,-91.002,-39.997,-34.651,-18.981,-36.486,-35.418,-10.306,-1.88,-5.938,-9.59,-0.301,0.042,-0.066,0.096,-9.804,-0.437,0.692,0.04,-0.071,-9.023,-0.094,0.794,0.377,0.155],[-49.544,-185.983,-117.315,-89.362,-84.451,-66.916,-122.116,-60.446,-37.98,-29.658,-31.469,-46.885,-16.894,-12.171,-11.342,-19.856,-0.415,0.071,-0.067,0.116,-16.963,0.14,-0.005,0.277,0.115,-15.114,0.774,-0.191,0.2,0.24],[-39.834,-162.145,-140.32,-115.424,-89.563,-41.254,-109.495,-73.848,-45.849,-25.251,-30.581,-77.544,-52.892,-11.951,-14.196,-27.84,-2.455,-0.399,0.03,0.096,-25.609,-0.333,0.023,0.046,0.14,-27.659,-1.012,0.052,0.339,0.573]],
"kep": [[-130.839,2.243,-3.941,1.838,1.332,-115.556,-1.178,0.582,-0.309,0.614,-147.678,-0.101,-0.479,0.659,3.42,-126.492,-2.396,-0.948,-3.111,-0.253,-115.856,-0.538,-4.906,-6.031,-2.731,-64.306,-15.751,-10.11,-5.817,-11.291],[-2.632,-1.673,-123.707,1.173,1.155,-0.981,-1.312,-137.029,4.086,0.836,-1.784,-2.704,-133.657,5.869,-0.434,-2.453,0.612,-146.093,-2.162,-1.581,1.099,1.029,-105.9,-6.582,-3.166,3.013,8.103,-116.058,-12.296,-1.971],[-7.489,-1.913,0.061,-0.356,-132.183,-9.71,0.573,0.397,0.821,-138.818,-6.463,0.338,-1.673,-0.204,-127.487,-7.389,-0.091,0.723,1.261,-136.955,-3.127,2.868,3.502,3.42,-138.806,-0.644,4.46,4.195,11.02,-114.758],[-14.187,-0.349,-1.027,-0.545,-0.288,-17.68,-0.719,-0.62,-0.426,-1.885,-14.488,-1.765,-0.966,0.058,0.22,-15.464,-1.513,0.369,0.358,0.488,-16.777,-1.315,1.54,2.162,2.849,-14.559,1.418,1.887,2.46,3.642],[-30.871,-1.154,-1.183,-0.355,0.583,-26.605,-1.292,0.046,-0.585,-0.11,-26.854,-0.735,0.022,-0.704,-0.271,-25.428,-1.263,-0.3,0.172,0.621,-26.633,-0.241,-0.412,1.354,0.419,-25.751,0.179,0.591,0.435,2.024],[-38.086,-3.988,-0.85,-0.469,-0.39,-39.644,-3.721,-1.716,-0.252,-0.917,-39.272,-1.91,-0.373,-0.847,-0.785,-38.197,-2.895,-0.82,0.19,0.496,-41.524,-0.773,-0.028,0.389,0.734,-41.993,0.714,1.9,2.323,2.666]],
"vp": [[-23.846,54.304,-30.502,50.627,37.822,2.69,-2.309,0.328,-3.105,10.776,-0.938,-0.035,2.049,2.109,2.393,0.374,-1.104,-0.192,-0.812,-0.925,-0.89,0.011,-0.609,-1.063,-0.561,-1.548,-1.207,-0.773,-0.238,-1.251],[139.583,-7.361,-53.849,18.249,63.872,5.261,10.359,-11.395,5.952,2.216,8.523,3.433,-4.557,7.331,4.905,1.176,-1.069,-0.004,-0.296,-0.223,0.543,-0.858,-0.917,-1.107,-1.121,-0.121,-1.048,-1.047,-1.521,0.023],[428.508,-16.802,56.49,-9.744,-7.355,104.365,-14.389,5.199,7.883,-8.928,46.78,10.697,8.197,2.608,-0.7,8.273,0.721,-1.226,-0.603,0.333,2.118,-2.038,-1.482,-0.272,-0.999,-0.379,-2.264,-1.678,-1.733,-1.113],[1068.71,52.423,153.339,42.733,7.627,254.958,26.076,30.978,0.426,9.71,97.949,11.746,3.948,2.114,-1.572,20.381,1.756,-0.206,0.642,-0.589,11.074,1.296,-2.318,-1.001,-0.752,5.082,-0.025,-1.417,-1.294,-1.936],[2413.992,164.384,149.591,41.93,-46.725,389.686,48.745,6.217,32.01,4.651,204.786,13.959,7.188,5.772,-7.929,40.727,2.195,-0.14,0.786,-0.975,18.555,-0.203,0.293,-1.449,-0.558,8.975,-0.528,0.325,-0.189,-1.157],[3105.311,593.355,101.624,130.455,44.805,634.675,95.6,53.932,13.409,27.946,322.713,29.993,4.981,8.82,15.995,59.973,10.059,3.181,-0.535,-1.068,31.74,0.764,0.083,-0.048,-0.905,15.555,1.167,-0.379,-1.199,-2.307]]
}