{
"KTrans": [[14.384,13.257,16.053,12.954,12.581,10.44,13.862,13.822,10.788,12.798,18.876,8.203,11.884,13.211,13.023,39.256,26.574,25.278,31.247,17.302,60.28,66.868,32.32,33.624,40.279,105.02,127.659,101.123,74.16,61.356],[-31.34,-8.183,-2.719,5.776,5.015,-34.162,-9.884,1.614,1.516,7.307,-40.027,-0.687,1.717,5.586,8.77,-27.174,0.48,8.529,9.821,13.94,-21.222,-0.835,13.872,14.48,17.122,1.413,22.705,18.086,25.866,36.217],[-70.319,-26.665,-15.147,-3.54,2.028,-64.119,-31.805,-8.995,-3.354,0.961,-75.041,-27.909,-11.73,-1.717,0.586,-64.115,-24.209,-6.764,-0.803,2.816,-50.063,-17.513,-8.739,3.958,7.853,-55.339,-3.928,8.635,5.654,17.01],[-82.176,-48.965,-26.6,-12.069,-8.324,-84.193,-48.541,-25.697,-13.302,-5.468,-80.657,-41.676,-26.339,-11.4,-6.532,-74.266,-45.281,-26.135,-9.307,-4.237,-70.293,-39.547,-23.593,-6.034,-5.62,-64.755,-30.306,-12.305,-2.936,-1.71],[-89.819,-59.721,-34.694,-28.4,-13.734,-85.633,-63.339,-36.112,-25.226,-14.76,-89.829,-58.47,-36.757,-25.259,-16.76,-82.541,-62.324,-34.699,-24.017,-14.938,-74.417,-54.927,-32.958,-21.718,-11.791,-73.216,-47.921,-25.633,-11.27,-5.99],[-91.857,-69.207,-47.642,-34.402,-22.964,-91.695,-68.552,-47.857,-35.669,-23.35,-89.656,-66.692,-48.646,-33.511,-23.418,-88.228,-68.446,-47.357,-33.231,-24.201,-85.606,-64.527,-47.487,-32.583,-21.311,-81.765,-57.462,-42.54,-26.806,-17.874]],
"ve": [[14.083,-0.697,45.961,-11.414,73.865,15.833,-69.865,57.555,-33.962,-29.745,6.727,16.243,103.786,50.981,-50.64,211.341,61.556,5.677,254.542,0.841,47.857,69.177,-528.065,-5.921,0.581,69.051,-22.189,-22.782,-19.853,-48.049],[-15.38,-3.142,1.031,3.913,7.201,-12.399,-0.598,1.167,5.107,6.208,-13.349,0.085,-0.107,3.349,6.14,-0.489,6.342,6.673,8.269,7.747,12.762,20.78,11.482,10.778,11.018,52.359,42.879,17.621,12.158,23.297],[-27.479,-11.153,-4.344,-0.733,0.336,-26.347,-11.926,-4.39,-1.861,0.503,-34.74,-9.577,-4.197,-0.455,0.87,-20.413,-3.062,1.377,1.742,2.813,6.105,6.614,1.436,5.653,6.635,31.729,24.086,23.345,13.746,12.309],[-26.746,-18.052,-10.479,-3.477,-2.556,-41.394,-18.711,-10.562,-5.113,-1.179,-45.613,-14.824,-8.596,-3.784,-1.929,-30.403,-11.655,-6.694,-0.616,0.048,-5.748,-3.93,-1.271,3.111,1.079,12.344,6.601,11.477,10.674,5.876],[-50.936,-25.292,-13.337,-9.475,-4.901,-46.988,-28.583,-13.721,-8.763,-5.421,-49.871,-24.58,-13.531,-8.101,-5.799,-32.998,-21.463,-9.371,-6.425,-4.454,-11.713,-9.213,-3.765,-2.615,-0.816,105.938,0.648,5.188,7.172,7.321],[-55.507,-29.877,-18.773,-13.034,-8.068,-69.225,-30.128,-19.098,-13.914,-7.844,-43.368,-30.876,-17.502,-12.121,-7.859,-34.329,-24.806,-17.932,-9.963,-7.357,-23.49,-18.489,-9.585,-6.582,-2.823,23.527,3.705,0.541,2.855,2.596]],
"kep": [[-21.285,-22.575,-19.253,-31.854,-35.849,-24.288,-20.602,-26.419,-34.713,-30.102,-20.549,-24.631,-26.888,-30.972,-34.614,-22.212,-17.943,-19.253,-12.583,-34.83,-28.62,-0.385,-22.211,-23.481,-13.182,-45.128,1.727,5.714,-16.376,-27.354],[-45.425,-28.826,-27.095,-22.603,-25.376,-46.338,-31.929,-24.142,-26.737,-23.169,-50.172,-25.865,-22.962,-22.625,-21.664,-53.195,-29.895,-23.547,-23.159,-19.816,-60.712,-33.17,-24.161,-22.104,-19.987,-60.837,-39,-32.77,-22.969,-14.581],[-73.124,-38.975,-33.24,-26.714,-23.141,-69.53,-42.638,-28.444,-25.601,-24.142,-77.263,-41.135,-30.723,-25.509,-24.643,-75.527,-42.903,-31.067,-26.712,-24.53,-75.258,-44.91,-34.017,-26.849,-24.288,-80.536,-52.478,-36.189,-32.332,-23.549],[-82.801,-54.397,-38.573,-31.457,-28.999,-84.861,-53.246,-37.937,-31.27,-27.751,-79.929,-49.439,-39.605,-30.636,-28.148,-82.285,-54.356,-40.977,-31.446,-27.99,-82.48,-57.263,-43.73,-32.115,-30.35,-83.017,-63.454,-45.754,-37.254,-32.419],[-90.494,-61.134,-43.712,-40.474,-31.54,-86.49,-62.817,-44.7,-38.302,-32.02,-90.207,-60.931,-45.749,-38.811,-33.401,-86.785,-65.241,-47.047,-39.268,-33.03,-85.394,-66.277,-49.173,-40.423,-33.365,-87.118,-72.693,-53.319,-40.286,-35.715],[-91.813,-68.131,-52.085,-43.379,-36.965,-92.375,-68.244,-52.019,-44.023,-37.391,-89.742,-66.263,-53.754,-43.227,-37.371,-91.365,-70.738,-53.616,-44.61,-38.649,-91.832,-73.539,-58.228,-46.512,-39.608,-91.291,-76.198,-63.801,-48.974,-41.888]],
"vp": [[-368.951,-391.204,-588.689,-387.344,-528.776,-103.069,-71.861,-98.474,-66.509,-62.101,-12.637,-4.967,-47.254,-16.526,-26.716,-16.059,-4.175,-7.418,-18.25,-1.304,-8.905,-33.545,7.82,2.052,-10.951,-9.547,-28.426,-14.348,-0.865,-0.07],[1524.468,750.017,83.859,-717.268,-525.839,341.444,117.331,-10.141,-41.518,-82.093,191.889,2.61,32.845,-2.663,-46.945,12.44,1.193,-8.759,-11.457,-22.041,22.899,25.713,-3.273,-0.846,-8.416,-6.546,-4.235,8.425,-2.099,-16.623],[4275.47,2357.397,1434.783,280.86,-346.075,712.3,570.517,190.903,145.957,14.399,524.232,213.982,117.104,0.933,-6.121,85.865,44.904,6.056,8.782,-3.915,15.577,10.534,25.509,3.767,-4.965,11.427,-6.265,-3.187,11.521,-6.592],[5927.216,4523.542,3397.978,1182.013,1134.996,1219.021,971.454,661.277,384.016,56.588,559.665,379.395,305.642,159.501,132.163,92.821,87.464,74.604,16.166,13.202,34.554,39.141,28.961,5.556,21.636,18.325,11.654,3.104,2.159,15.957],[7508.042,6598.799,4080.817,4112.672,1946.143,1214.163,1544.791,905.689,736.105,484.333,716.876,632.636,477.91,361.568,298.897,108.753,141.731,89.429,77.152,62.958,39.601,47.105,35.005,32.449,19.651,16.919,17.028,10.779,6.247,0.691],[6804.472,7765.542,6627.056,5488.051,3706.497,1482.849,1584.942,1366.33,1267.641,821.309,688.831,785.981,645.108,535.523,434.182,127.85,156.706,156.141,106.996,97.908,62.987,73.465,62.968,52.626,34.407,9.63,21.33,27.821,15.433,16.065]]
}