{
"KTrans": [[-0.2,13.183,11.193,12.839,14.558,16.034,9.235,12.231,15.22,11.241,22.875,13.513,19.275,15.489,15.541,33.338,28.939,29.044,20.962,24.876,9.802,49.198,52.873,39.718,41.168,-280.897,116.74,117.178,61.082,64.822],[-43.619,-6.92,-0.378,3.52,8.728,-45.707,-4.615,3.158,5.187,5.157,-47.643,-4.183,-0.75,4.652,7.476,-23.145,5.016,8.478,5.923,14.553,-13.263,14.264,20.733,20.974,19.518,-21.912,-4.087,32.097,39.293,25.197],[-72.549,-23.929,-10.114,-3.805,0.412,-74.897,-25.062,-14.255,-4.662,1.678,-69.544,-22.052,-9.89,-3.336,-0.128,-57.537,-14.176,-6.976,-0.286,1.324,-56.89,-6.836,-5.387,3.925,10.856,-62.372,-29.863,1.392,26.227,25.025],[-83.816,-38.986,-22.682,-13.227,-7.931,-83.904,-42.645,-19.346,-13.124,-6.729,-76.708,-38.573,-22.844,-14.8,-6.843,-77.322,-34.426,-20.24,-11.833,-1.274,-59.87,-43.797,-14.492,-9.837,-4.119,-83.226,-52.983,-48.999,4.161,8.921],[-87.299,-57.016,-35.556,-23.347,-14.358,-88.748,-60.094,-31.8,-20.509,-15.948,-85.606,-56.726,-36.258,-23.863,-16.29,-82.521,-51.818,-30.593,-17.412,-12.521,-81.044,-52.174,-26.808,-18.085,-10.74,-62.669,-53.307,-30.765,-11.935,-4.177],[-90.61,-61.528,-47.039,-31.691,-20.913,-91.992,-64.841,-43.811,-30.136,-20.389,-90.203,-66.946,-42.569,-31.81,-21.845,-90.038,-60.488,-44.39,-30.666,-20.82,-95.785,-62.699,-42.395,-28.475,-23.798,-85.384,-65.655,-39.674,-23.308,-13.741]],
"ve": [[23.422,19.257,8.26,68.528,110.366,50.544,10.28,85.179,-155.499,10.321,18.696,7.265,19.716,36.092,-793.925,11.546,8.865,14.105,21.704,-2.915,20.331,8.036,-34.95,-10.085,183.252,28.012,38.678,-10.334,-5.977,-23.569],[-9.973,-1.353,1.403,3.381,5.385,-17.845,-0.121,2.586,3.73,4.453,-20.183,-0.075,1.017,3.584,5.751,7.731,2.075,4.793,7.122,7.226,25.781,14.671,9.964,14.402,11.102,122.596,30.697,-11.064,12.601,-12.108],[-33.61,-7.764,-3.638,-0.45,0.602,-48.991,-9.461,-3.346,-0.615,0.785,-34.763,-7.538,-3.286,-0.295,0.367,-7.165,1.909,1.833,1.314,2.209,19.093,13.334,-3.741,6.97,6.994,51.75,34.626,15.255,17.72,12.071],[-56.263,-15.03,-8.154,-4.905,-2.096,-42.769,-18.185,-5.738,-4.327,-2.26,-30.941,-17.319,-7.348,-4.787,-1.698,-24.854,-2.302,-4.628,-1.981,0.995,23.342,-0.921,0.265,0.308,1.791,41.826,33.859,101.233,10.496,9.92],[-15.128,-24.873,-13.816,-8.618,-4.999,-45.744,-23.261,-12.172,-7.014,-5.688,-39.073,-22.736,-13.084,-8.019,-5.893,-22.745,-15.095,-6.527,-2.465,-2.702,-21.931,-5.622,-4.233,-0.324,-1.504,78.52,-3.286,9.648,7.878,2.246],[-44.534,-28.013,-18.162,-11.705,-7.9,-48.774,-21.953,-18.235,-11.68,-7.856,-44.581,-32.285,-17.19,-10.943,-7.823,-32.233,-23.84,-20.814,-7.917,-5.595,-28.503,-10.699,-15.705,-8.655,-5.521,40.588,0.77,10.513,9.996,1.142]],
"kep": [[-28.747,-20.379,-22.527,-22.678,-21.63,-16.283,-23.158,-20.112,-18.659,-27.854,-14.576,-16.312,-12.574,-22.653,-21.846,-24.963,-16.733,-10.141,-24.236,-16.867,-15.564,-24.078,-8.544,-21.06,-24.389,15.377,8.626,11.887,-52.803,-67.964],[-52.739,-25.558,-22.071,-20.306,-17.69,-55.383,-24.674,-20.367,-19.274,-19.736,-54.997,-24.017,-22.325,-19.59,-18.855,-56.067,-24.563,-19.433,-21.487,-15.15,-48.804,-34.923,-18.556,-17.195,-16.851,-47.267,-39.552,-34.687,-25.653,-29.123],[-76.488,-35.912,-26.363,-23.55,-20.899,-73.54,-35.545,-30.134,-24.079,-20.038,-74.405,-35.135,-26.746,-23.193,-21.145,-73.436,-37.466,-28.591,-23.062,-22.142,-67.3,-47.644,-35.158,-24.931,-18.545,-69.563,-51.469,-46.295,-23.315,-21.124],[-84.237,-45.086,-34.008,-27.821,-25.601,-85.328,-46.744,-33.13,-28.621,-24.494,-80.582,-44.811,-35.04,-29.525,-25.003,-81.321,-49.046,-35.275,-30.117,-23.01,-76.843,-62.463,-38.124,-32.633,-27.218,-78.637,-64.16,-57.408,-39.907,-30.449],[-88.453,-56.461,-41.832,-33.939,-28.731,-90.295,-61.782,-39.598,-32.762,-29.737,-87.324,-58.276,-42.819,-34.843,-29.744,-85.633,-61.411,-42.713,-33.931,-29.411,-81.504,-68.594,-47.226,-37.982,-30.404,-83.226,-59.725,-53.073,-47.846,-37.235],[-91.721,-61.886,-49.255,-39.207,-32.282,-92.283,-64.331,-46.747,-38.034,-31.914,-92.236,-67.494,-46.616,-40.346,-33.201,-91.285,-68.264,-51.442,-41.326,-34.232,-85.176,-72.972,-59.711,-43.814,-38.754,-88.362,-71.827,-59.653,-52.063,-42.814]],
"vp": [[73.172,-572.521,-703.636,-315.544,-377.118,-15.022,-64.687,-31.533,-124.653,-88.229,-86.523,-49.298,-97.544,-51.478,-20.403,-30.684,-11.61,-24.73,-6.842,-13.467,-4.944,-12.316,-19.668,-10.741,-10.04,-1.57,-34.914,-38.122,-17.872,-18.871],[2106.567,825.737,42.504,-450.822,-972.915,484.259,149.797,-36.721,-93.755,-63.452,258.785,30.445,39.442,-8.448,-69.506,7.976,0.799,-0.097,3.161,-29.502,-9.52,-20.387,-20.199,-12.608,-21.318,-3.869,-17.978,-13.638,-16.888,5.831],[4556.113,1812.277,904.697,579.858,148.855,997.979,389.421,238.486,113.613,-33.666,464.897,187.045,128.92,23.443,13.354,44.204,11.955,5.719,8.755,17.587,23.404,-18.302,14.28,-4.807,-11.36,-3.176,-19.227,-6.239,-22.772,-17.08],[5990.974,3442.508,2872.24,1979.153,1181.28,1194.564,886.387,371.23,396.315,234.426,460.515,444.747,253.335,231.864,85.119,99.492,33.38,47.234,31.852,-1.455,-1.68,24.047,16.186,32.464,24.043,-5.816,-18.599,-6.675,-8.293,-3.215],[5926.595,6253.292,4463.688,3529.564,2468.325,1375.966,1202.239,847.594,558.366,616.391,565.583,533.115,436.058,372.458,317.508,77.82,97.211,65.358,28.483,39.846,49.231,37.741,32.532,33.042,34.217,-31.703,28.718,-2.262,2.673,6.642],[5677.981,6501.581,6014.682,5263.204,3834.276,1369.661,1659.435,1225.971,980.307,843.938,604.108,670.396,583.89,509.093,416.845,121.111,145.194,120.534,91.708,73.866,63.2,46.523,81.494,58.306,57.33,-3.023,20.913,5.885,-6.038,17.185]]
}