{
"KTrans": [[-24.363,10.626,-3.053,7.885,3.274,-27.079,15.498,9.303,5.908,8.72,1.37,22.606,14.77,9.72,15.543,52.185,86.615,88.801,80.947,61.462,51.695,131.499,124.222,141.049,128.612,-104.79,31.477,77.041,168.101,206.308],[-65.761,-2.48,4.795,3.831,4.167,-64.971,5.392,15.336,7.982,4.299,-61.31,7.071,10.667,10.953,6.351,-28.06,58.666,54.932,41.414,35.968,-12.794,74.484,102.987,84.779,68.541,-3.486,64.873,103.374,157.235,133.456],[-86.305,-8.348,2.918,5.517,2.182,-82.331,-6.922,6.237,9.48,3.985,-84.586,-1.489,5.283,8.859,5.203,-78.786,23.462,43.347,40.025,33.037,-69.321,20.352,91.351,66.049,61.224,-27.398,6.237,3.356,106.807,126.911],[-91.847,-28.504,-0.236,0.846,2.274,-90.074,-27.104,1.109,7.164,4.35,-87.09,-26.904,6.605,5.928,10.161,-90.768,-20.731,40.252,37.971,25.393,-84.652,-5.885,71.828,68.766,54.432,-39.65,1.062,28.881,92.131,132.299],[-93.304,-40.097,-1.578,1.06,2.706,-94.809,-50.213,-4.246,5.477,9.246,-90.365,-45.764,-5.519,8.254,9.426,-82.73,-28.56,24.985,30.956,31.808,-89.241,-19.692,36.753,77.145,57.584,-59.37,-31.537,0.774,50.167,102.631],[-93.655,-52.658,-8.974,1.504,6.869,-96.575,-58.447,-15.087,5.436,1.927,-92.526,-52.883,-1.229,2.415,9.794,-91.895,-50.846,10.459,36.216,25.52,-77.034,-47.279,1.872,63.038,63.739,-75.787,-73.99,18.059,20.711,71.695]],
"ve": [[2.379,33.626,-23.645,45.232,55.832,22.69,28.809,10862.704,104.467,-2.071,-21.999,35.885,3.832,2.733,-19.641,46.245,-2.668,11.659,5.421,-1.21,106.398,43.275,7.455,34.895,-2.441,203.435,74.428,37.596,17.807,-5.675],[20.35,4.735,1.308,0.432,-0.082,-3.759,6.916,3.731,3.568,3.546,25.489,10.718,7.414,3.555,2.092,68.586,26.363,17.536,8.552,5.206,83.627,51.773,30.647,21.245,14.395,199.756,97.054,58.635,39.276,33.337],[-11.764,5.948,2.033,0.613,0.748,268.367,4.594,1.882,2.037,2.35,17.047,7.802,4.511,3.582,2.035,105.403,26.772,16.401,11.062,9.627,86.067,52.978,34.337,23.829,19.004,187.362,102.38,67.637,49.219,38.614],[75.305,-8.128,2.68,0.306,1.098,-1.033,3.888,3.577,2.465,1.854,0.398,11.092,3.228,1.864,1.687,55.384,18.045,19.247,12.775,10.397,102.062,60.53,36.008,24.348,18.506,185.553,104.155,66.733,48.785,40.107],[-52.386,8.171,1.893,0.591,1.214,20.72,4.236,3.102,1.272,1.364,9.636,4.528,4.069,2.546,1.45,51.886,41.26,17.377,12.734,9.609,97.61,61.88,34.726,25.331,19.25,207.216,102.531,66.317,54.406,39.395],[-20.32,5.588,0.332,1.298,0.153,22.515,1.737,3.627,1.866,1.151,4.76,-11.64,4.637,3.544,1.232,25.314,32.774,18.042,14.059,9.863,107.786,49.776,32.244,25.05,20.524,223.485,103.589,63.416,47.202,39.203]],
"kep": [[-37.217,8.196,-10.717,18.754,4.414,-46.432,13.504,8.327,5.136,8.276,-22.841,18.593,14.376,7.401,30.311,-9.578,57.112,89.898,101.373,91.353,-22.211,63.407,103.971,153.193,166.02,-83.992,-10.386,25.316,134.932,204.588],[-73.297,-5.142,5.387,5.189,6.393,-74.031,1.127,13.02,7.12,2.394,-72.043,-1.611,4.988,8.822,5.718,-57.965,25.385,33.073,31.505,30.334,-56.48,15.248,55.357,52.956,49.433,-58.583,-7.388,26.303,76.571,79.101],[-89.865,-12.677,2.522,5.765,2.099,-87.505,-10.21,5.553,7.791,2.368,-90.425,-8.261,1.497,5.833,3.781,-88.104,-4.666,23.603,26.666,22.208,-82.742,-19.008,43.465,34.182,35.703,-70.5,-40.867,-32.626,38.564,62.989],[-95.548,-29.234,-2.437,1.051,1.442,-93.391,-32.153,-1.799,5.304,2.756,-91.891,-34.48,3.769,4.43,8.807,-95.101,-38.767,17.35,22.708,13.944,-90.86,-37.209,26.973,35.887,30.408,-77.718,-45.354,-19.289,27.337,64.847],[-95.302,-44.348,-3.267,0.895,1.876,-97.569,-53.571,-7.323,4.673,7.931,-93.889,-49.938,-9.432,6.093,8.21,-90.041,-44.551,6.068,16.197,20.614,-93.654,-45.999,0.377,39.775,31.602,-83.716,-61.396,-33.982,-0.76,43.461],[-95.915,-56.09,-9.993,0.202,7.014,-98.368,-62.653,-17.442,3.867,0.948,-95.241,-57.096,-5.389,-0.892,9.036,-94.561,-62.432,-7.142,19.532,14.13,-88.041,-63.927,-24.324,28.725,35.456,-89.981,-81.925,-25.646,-16.737,22.766]],
"vp": [[644.226,272.927,118.008,-291.656,-654.936,280.573,126.262,92.485,-71.589,-15.012,190.234,3.905,-108.299,-87.553,26.007,15.534,-7.066,-24.443,8.633,-5.206,-7.44,-2.908,-23.201,-16.61,-5.411,2.512,-14.19,-12.282,-21.721,-11.189],[5805.297,2233.405,81.249,222.221,102.349,1311.719,620.906,291.009,-49.251,146.094,627.125,110.874,101.962,-39.882,-1.82,103.543,71.128,7.625,-11.512,-1.827,42.58,19.732,-11.021,2.651,-9.347,17.859,-17.473,-24.063,-2.245,-16.825],[7575.53,6829.154,1496.802,1346.565,723.751,1745.315,1432.912,534.578,210.248,37.734,808.21,628.432,314.839,108.582,99.481,170.407,150.675,25.345,-15.269,18.943,66.065,44.305,22.351,-17.578,-0.599,16.184,7.013,4.061,-1.007,-10.296],[8984.348,9270.727,5138.102,2929.711,1904.559,1744.841,2436.959,1235.138,422.245,357.189,864.509,1007.34,568.477,199.05,130.386,164.764,205.335,125.906,27.564,8.538,80.058,83.977,68.657,-2.608,5.37,27.691,19.141,18.626,9.288,6.886],[8992.943,13866.388,8463.264,4694.222,2782.878,1917.998,2500.796,2036.175,896.46,505.591,968.014,1267.676,1054.496,533.234,289.565,161.657,258.643,164.583,47.25,67.825,96.867,106.786,82.925,49.329,-14.686,31.042,42.454,20.778,26.598,16.062],[9159.673,14656.692,12694.595,8024.384,3461.753,1995.104,2900.807,2365.703,1430.608,501.133,710.423,1574.905,1451.395,718.31,470.879,195.845,276.89,242.582,158.382,47.01,78.626,139.433,116.056,69.782,30.5,45.194,55.058,23.454,19.577,12.128]]
}