{
"KTrans": [[0.908,2.536,2.622,1.979,1.765,-0.737,13.033,12.406,11.505,11.433,-1.216,23.481,25.662,22.167,22.478,-38.845,52.768,87.119,91.346,93.896,89.266,-31.743,92.91,124.239,121.768,192.952,-218.041,-46.636,-18.109,106.435],[3.144,1.685,0.28,0.982,0.75,13.623,7.772,1.121,5.265,4.899,27.725,17.95,4.414,9.739,9.224,-52.045,7.302,12.009,25.766,36.315,-61.688,-99.719,22.259,8.331,47.387,56.244,-85.815,50.58,-23.16,5.824],[0.642,0.854,1.276,1.03,-0.135,11.042,3.831,5.349,4.575,0.458,33.642,14.546,10.302,8.679,0.623,-135.353,92.311,42.396,11.564,-4.316,-86.269,-52.928,48.89,-45.151,-5.629,-6.07,-187.033,34.029,70.953,-61.765],[6.036,2.988,1.792,0.698,0.887,20.674,6.201,5.684,3.416,3.429,9.282,11.859,8.757,7.255,6.496,-22.11,49.044,58.951,40.611,24.89,-27.25,-16.362,33.762,53.681,-6.559,-82.033,17.342,-2.021,76.76,18.07],[-3.239,3.346,0.069,0.671,0.566,24.614,5.12,3.656,4.003,2.909,-9.643,12.769,7.86,6.546,6.44,-63.189,69.915,45.225,28.44,32.697,-75.543,-131.176,140.414,56.75,46.841,-50.324,15.575,-64.266,52.288,109.081],[3.061,0.187,2.335,2.232,0.703,-28.612,2.794,6.952,4.717,3.36,-58.365,13.051,7.415,6.758,5.816,-42.744,11.568,43.762,30.336,33.519,-71.58,-30.456,59.784,48.601,56.924,-17.704,-63.918,10.662,-59.977,89.159]],
"ve": [[0.976,1.014,1.194,1.013,1.07,4.888,7.276,8.642,9.581,11.982,9.944,-21.118,41.952,29.093,45.467,50.855,-8.693,-194.583,-224.931,-187.463,97.011,30.584,-9.878,-35.623,-49.561,194.356,85.564,33.593,3.139,-17.322],[1.079,0.613,0.325,0.34,0.235,5.175,2.721,1.635,2.278,2.028,10.028,5.418,3.28,6.239,4.407,50.661,27.23,16.199,-5.557,12.25,100.473,50.805,31.802,18.465,-25.353,200.265,101.983,65.833,43.436,26.713],[0.742,0.506,0.44,0.349,0.203,4.786,2.336,1.893,1.476,0.998,10.18,5.188,3.581,2.753,1.961,51.454,27.256,18.793,16.94,9.968,101.984,50.939,34.607,26.109,19.393,195.528,104.377,68.463,51.224,39.765],[0.875,0.701,0.485,0.3,0.293,4.841,2.453,1.924,1.346,1.185,9.251,5.04,3.473,2.702,2.217,46.6,11.192,16.717,12.239,12.102,98.725,50.531,34.01,25.916,21.275,204.86,99.909,65.992,156.863,44.403],[0.329,0.665,0.256,0.293,0.247,5.047,2.48,1.654,1.421,1.122,8.654,5.079,3.397,2.579,2.235,48.996,24.989,16.449,12.233,10.285,101.095,49.313,33.74,25.487,40.636,194.843,98.788,65.848,51.974,40.294],[0.955,0.437,0.482,0.463,0.264,3.578,2.32,1.952,1.467,1.164,9.718,4.9,3.26,2.63,2.169,48.107,28.416,16.226,12.402,10.451,100.389,49.787,33.408,-703.042,22.104,202.882,81.086,78.238,49.96,40.443]],
"kep": [[85.079,-3.453,-2.727,-1.85,-1.765,17.529,-21.353,-17.835,-16.226,-17.373,24.867,-39.145,-41.978,-31.862,-36.61,-11.647,-262.729,-176.483,-208.311,-204.136,93.824,-425.01,-374.609,-367.684,-430.033,99.876,-145.126,-554.601,-705.841,-693.527],[2.805,3.623,87.203,-2.152,-0.598,9.263,12.841,80.49,-17.027,-9.196,17.421,28.39,125.496,-33.682,-17.916,-66.393,-27.074,66.898,-164.939,-103.464,-63.905,-113.768,57.002,-296.046,-187.238,-36.593,-67.799,84.652,-24.766,-341.498],[-1.66,0.988,2.659,4.159,5.444,4.033,2.497,7.97,15.202,55.688,17.095,12.137,14.094,24.227,35.721,-109.723,54.803,27.609,-7.806,7.642,-78.907,-70.726,9.102,-91.654,24.355,-57.505,-119.285,-8.049,66.254,-60],[0.015,2.271,2.428,1.528,2.849,8.072,4.216,5.625,4.956,7.887,-8.671,6.506,7.573,9.307,13.527,-49.511,12.866,42.776,37.584,24.194,-60.617,-47.825,-9.226,26.333,-52.145,-79.383,-38.135,-32.44,35.046,-10.528],[-11.852,1.516,0.305,1.255,1.409,4.515,1.386,2.695,4.313,4.09,-27.153,5.501,4.999,6.45,8.675,-73.972,25.548,23.175,15.606,31.7,-82.476,-106.75,68.13,21.386,22.848,-74.463,-41.763,-69.668,-4.038,54.612],[-12.501,-2.349,1.694,2.433,1.275,-40.692,-2.254,4.778,4.411,3.882,-67.985,4.378,4.195,5.265,5.902,-65.369,-21.326,20.65,17.314,27.957,-81.49,-54.968,8.335,12.396,33.386,-70.425,-72.994,-35.286,-64.254,36.111]],
"vp": [[-29.707,-23.977,-18.936,-35.423,-44.702,-34.195,-14.99,-5.363,-12.955,-2.936,-20.61,-29.814,15.002,-19.416,-6.477,-7.366,17.526,-15.98,20.891,4.215,-36.294,9.72,1.355,-6.468,17.887,-31.55,35.126,2.332,8.506,-10.003],[246.734,19.328,-32.499,-35.886,-62.026,23.725,32.166,-30.34,-2.379,-6.71,17.308,9.301,-18.813,-1.58,-11.028,-22.287,-6.642,-34.727,-5.681,1.588,-11.086,-25.943,-27.217,-1.228,-9.308,-28.499,-21.603,-30.191,8.988,3.79],[343.754,226.42,141.355,23.636,-8.55,57.385,-0.594,11.039,5.488,-33.968,47.1,28.767,5.696,1.006,-42.876,13.704,-2.078,-9.211,-9.187,-28.706,-15.093,-26.347,-19.449,-20.254,-29.255,-23.818,-11.821,-23.206,-31.445,-14.551],[981.007,634.574,395.196,167.273,142.748,221.701,140.623,43.457,41.389,32.028,128.635,60.423,11.749,-5.558,18.983,17.054,-9.305,-2.046,0.617,-9.772,-19.897,-16.914,-4.496,-20.909,6.097,6.203,-23.119,-30.92,-28.428,-44.268],[3103.865,800.615,723.723,451.68,264.077,706.22,164.185,106.459,102.827,34.408,270.508,45.764,61.032,38.146,21.07,36.625,-9.781,7.254,-3.274,0.118,17.207,-9.81,-0.672,-2.588,-4.261,-19.334,-20.847,-34.025,-22.359,-37.319],[4498.552,878.424,796.455,757.889,452.339,659.409,93.97,143.722,151.236,94.077,379.382,89.553,97.885,49.306,51.062,57.832,41.328,-0.806,-21.548,13.705,22.254,-11.839,-5.492,2.901,-10.112,-14.413,-5.884,-21.849,-47.655,-24.69]]
}