{
"KTrans": [[-10.852,8.383,-2.245,3.158,0.777,-9.803,1.278,-2.925,3.204,1.071,-7.06,0.465,1.83,-2.699,2.357,10.775,-0.777,6.807,-5.577,-0.924,34.409,22.085,14.539,17.046,11.234,6.082,60.317,54.513,50.727,51.831],[-62.527,-1.203,1.985,0.693,3.345,-58.764,-2.982,-2.676,0.148,1.235,-59.177,-2.491,1.387,-0.165,0.815,-48.795,-4.14,3.746,1.628,1.317,-41.719,-4.066,1.52,-3.253,-3.329,-33.218,19.951,6.302,7.207,12.202],[-88.773,-8.964,0.757,1.448,2.109,-88.81,-16.46,0.897,0.323,1.046,-85.21,-11.947,-3.293,-0.332,1.984,-80.222,-5.783,0.949,-5.071,-1.14,-73.021,-23.691,-11.077,-6.494,-2.061,-57.232,-18.381,9.491,1.035,2.107],[-95.365,-32.751,-0.079,-0.872,0.318,-96.273,-32.234,-3.57,-0.296,1.207,-96.031,-35.321,-0.628,-1.844,2.193,-91.236,-37.032,-3.067,-1.858,-1.524,-89.646,-22.094,-15.769,-0.586,0.276,-87.708,-35.093,-13.866,-4.887,9.846],[-97.403,-54.278,-7.789,0.992,2.969,-97.381,-57.415,-10.151,1.54,-1.522,-97.137,-56.892,-3.719,-1.313,1.744,-94.599,-54.428,-6.762,-2.682,-1.999,-91.984,-46.874,-8.118,-3.986,-4.161,-90.021,-49.062,-1.534,0.911,7.994],[-98.044,-77.725,-20.625,-2.483,1.395,-97.911,-74.542,-22.111,-5.467,2.859,-97.358,-77.482,-19.888,-1.477,-0.19,-98.321,-73.28,-19.047,-8.301,-5.082,-97.257,-66.655,-31.474,-7.726,-5.236,-94.256,-62.58,-17.61,-14.169,-5.106]],
"ve": [[-2.966,4.507,0.781,11.689,3.052,21.859,10.455,13.704,-1.499,38.351,1.025,9.776,11.062,41.156,6.03,-9.538,36.345,-89.813,-57.588,46.357,-2.023,-48.986,-62.417,-33.018,-50.125,13.008,-13.466,-23.193,-35.979,-41.484],[-34.554,-0.311,0.084,0.993,-0.632,-28.476,-2.97,-0.362,0.076,0.773,-26.364,0.93,-0.28,-0.204,-0.305,-27.481,10.745,1.395,0.401,0.631,-40.22,-10.706,2.355,1.136,1.68,-13.266,1.495,-15.655,-19.478,38.014],[-64.034,-6.077,-0.352,-0.521,0.742,-61.006,-6.588,-1.437,-1.818,-0.079,-51.911,-7.228,-2.276,-0.716,-0.483,-54.165,-1.644,-0.616,-2.832,-0.971,-58.239,-18.516,-6.496,-3.95,-0.504,-22.96,-16.164,-19.396,32.804,9.78],[-76.553,-17.848,-1.216,-0.478,-0.523,-75.555,-17.782,-3.046,-1.286,-0.778,-75.601,-18.786,-2.011,-1.885,-0.006,-69.893,-20.59,-2.222,-1.126,-1.385,12.191,-8.753,-14.955,-1.107,-1.512,-78.22,-30.215,-19.369,-4.699,2.351],[-82.672,-32.647,-6.959,-0.411,-0.483,-98.5,-34.233,-5.021,-1.068,-1.429,-173.829,-35.644,-4.659,-1.744,-0.857,-80.089,-37.321,-2.827,-3.888,-1.502,-78.729,-32.663,-10.969,-3.622,-3.757,-70.24,-37.761,-2.069,-2.772,5.091],[-88.991,-54.79,-12.083,-2.492,-1.074,-58.909,-49.487,-13.689,-4.337,-0.395,-89.981,-54.15,-12.829,-2.657,-1.64,-99.585,-51.036,-9.417,-5.618,-4.521,2.825,-48.969,-21.815,-4.963,-5.037,-89.722,-49.511,-15.021,-18.686,-6.89]],
"kep": [[-14.25,6.543,-4.022,3.934,-0.863,-10.738,-3.143,-5.6,4.139,1.049,-11.11,-2.879,-2.928,-7.178,2.587,-9.808,-8.866,2.145,-17.096,-11.774,-11.765,-4.852,-7.397,-2.706,-5.454,27.744,6.467,-2.65,2.536,25.08],[-54.854,-1.737,1.956,-0.251,4.249,-52.499,-1.103,-2.125,0.239,0.633,-52.817,-4.326,1.168,0.09,1.236,-54.875,-7.25,0.807,0.222,0.408,-49.227,-21.882,-4.58,-7.307,-6.31,-33.081,-25.217,-25.32,-12.721,-4.683],[-82.409,-4.52,0.496,1.95,1.321,-84.451,-12.771,1.745,1.913,1.068,-80.572,-8.616,-1.746,0.24,2.433,-82.294,-10.321,-0.214,-3.303,-0.865,-73.428,-41.612,-10.925,-7.114,-3.635,-61.812,-27.963,-18.69,-15.984,-8.331],[-94.731,-24.049,0.147,-0.793,0.613,-95.436,-22.921,-1.365,0.574,1.902,-94.949,-25.008,0.338,-0.243,2.092,-89.085,-35.959,-3.818,-1.788,-1.318,-80.711,-37.78,-19.577,-3.76,-1.389,-72.185,-42.628,-38.949,-21.62,-2.965],[-97.03,-40.396,-2.801,1.027,3.189,-98.105,-43.872,-6.571,1.892,-0.329,-97.274,-42.389,-1.863,-0.349,2.33,-93.839,-54.452,-7.986,-0.372,-1.174,-84.542,-55.366,-21.251,-5.95,-3.799,-79.573,-57.18,-29.414,-23.586,-6.209],[-98.973,-67.168,-11.21,-0.665,2.091,-98.973,-61.21,-11.89,-1.734,2.85,-98.573,-67.225,-12.389,0.294,0.932,-96.315,-68.311,-16.276,-5.054,-1.986,-88.62,-66.564,-34.502,-9.123,-3.399,-84.32,-61.693,-37.195,-39.439,-18.187]],
"vp": [[456.455,-303.256,336.387,-95.706,90.775,107.291,34.071,85.994,-9.002,40.661,51.368,8.641,-17.752,31.21,-1.099,-4.557,10.624,1.014,16.588,6.607,-8.623,-9.995,-2.27,-7.666,-2.398,2.062,-3.763,-7.629,-9.643,-16.783],[3729.248,291.594,-69.904,-80.739,-185.202,650.028,128.513,50.066,32.298,-7.777,326.521,16.155,23.159,21.601,11.112,58.724,13.642,-10.169,3.45,0.847,28.144,15.68,10.814,13.89,11.046,7.3,-0.149,12.173,4.163,-5.975],[6375.54,1435.158,93.2,-60.51,-179.566,1316.906,305.497,92.708,118.014,-3.263,652.409,157.306,82.085,21.46,10.991,119.338,10.283,5.381,28.164,9.268,55.7,45.225,25.837,24.399,6.173,12.307,14.283,5.132,9.402,5.075],[8082.341,3888.23,409.29,228.107,52.006,1663.418,780.259,212.717,68.441,57.637,803.161,400.304,58.844,64.626,-10.917,146.321,88.58,16.823,9.15,11.739,67.316,17.388,46.544,5.281,9.017,40.298,30.835,29.396,20.893,-12.874],[8526.729,6557.565,1997.596,211.248,171.66,1856.609,1404.798,325.264,77.569,128.043,868.868,753.034,140.616,66.204,19.38,158.478,152.171,15.615,27.262,9.672,81.275,66.961,37.545,14.973,17.816,30.214,37.244,5.164,7.14,-11.546],[9319.821,11372.665,3872.449,877.296,434.22,1793.357,2023.078,822.958,334.146,10.112,877.288,1134.083,399.243,103.249,83.249,203.607,197.777,57.085,41.878,47.589,82.882,103.321,64.359,20.205,27.969,44.473,50.376,23.153,36.085,21.268]]
}