{
"KTrans": [[13.229,4.981,14.308,15.296,13.053,3.046,18.404,18.939,14.3,20.396,16.182,26.513,13.79,18.205,16.597,30.922,26.911,29.773,26.547,25.419,37.142,40.415,45.966,41.098,36.136,84.125,73.292,75.003,63.465,76.607],[-39.804,-6.768,1.76,7.153,8.22,-31.521,-13.053,4.549,6.691,10.136,-40.244,-6.545,0.687,7.175,8.38,-41.097,-3.508,6.999,10.134,13.957,-27.563,5.638,13.966,17.515,19.592,-16.998,23.129,28.239,26.303,29.541],[-71.434,-25.891,-15.184,-7.439,1.726,-71.245,-26.03,-14.075,-2.892,0.765,-72.329,-32.377,-11.433,-4.499,0.734,-63.92,-28.4,-8.511,-3.782,3.106,-60.433,-26.088,-10.435,2.783,6.947,-55.991,-17.754,-1.721,6.67,13.451],[-84.443,-53.323,-28.583,-13.445,-7.607,-81.104,-51.301,-30.191,-15.254,-9.343,-83.785,-50.463,-24.771,-16.426,-7.832,-78.291,-50.247,-26.353,-14.239,-5.781,-72.78,-41.48,-26.017,-11.252,-3.893,-71.684,-43.051,-18.358,-11.229,-0.835],[-87.23,-56.274,-37.685,-26.062,-16.873,-90.042,-56.657,-41.185,-26.319,-17.262,-89.877,-59.263,-40.234,-25.779,-14.893,-86.003,-61.593,-35.942,-22.235,-16.604,-82.09,-58.157,-36.56,-23.117,-12.881,-77.839,-58.181,-34.212,-19.302,-8.411],[-93.293,-69.764,-51.081,-35.178,-26.406,-92.408,-68.192,-46.422,-35.68,-24.405,-93.354,-66.76,-45.588,-36.669,-24.895,-87.879,-68.295,-50.781,-36.304,-24.356,-85.12,-68.827,-48.526,-34.789,-23.317,-80.941,-65.623,-46.029,-30.83,-19.087]],
"ve": [[24.027,50.685,30.563,55.281,1426.171,7.211,-336.056,-14.657,12.212,32.933,21.182,29.87,31.677,-48.889,64.043,26.474,45.124,48.781,226.231,8.94,120.712,4.038,22.674,-1652.082,-52.109,72.28,56.704,20.635,15.563,-288.273],[-14.202,-1.543,0.422,3.646,7.071,-8.486,-4.171,2.442,4.483,6.136,56.925,-1.286,1.892,4.984,7.149,4.215,7.016,6.158,5.087,8.376,17.803,13.116,12.145,10.885,9.932,47.669,28.074,19.608,16.215,15.759],[-33.149,-8.485,-5.057,-2.298,0.136,-42.917,-8.936,-5.104,-0.886,1.287,-25.566,-11.836,-3.099,-0.914,0.924,-20.705,-5.679,0.05,1.364,4.152,0.397,0.296,2.261,6.789,5.886,38.539,15.973,14.207,11.272,11.727],[-380.752,-20.345,-10.091,-4.754,-3.585,-63.796,-19.296,-11.26,-5.434,-2.885,-41.883,-19.742,-8.497,-4.655,-2.097,-24.262,-13.552,-5.617,-2.359,-0.282,-13.202,-3.427,-1.67,1.629,1.88,-56.588,7.812,10.339,6.04,7.558],[-34.25,-24.302,-14.058,-9.098,-5.861,-53.284,-23.946,-14.856,-9.374,-5.642,-50.025,-23.811,-14.78,-8.591,-4.895,19.8,-21.175,-9.502,-5.745,-3.728,-13.586,-12.047,-7.135,-3.909,-0.089,-4.989,-2.188,2.439,4.966,4.553],[-71.319,-30.783,-21.227,-13.201,-9.439,-44.993,-29.987,-17.086,-13.043,-8.636,-103.3,-28.354,-17.724,-12.734,-8.714,-34.131,-28.334,-17.1,-10.362,-6.323,-9.796,-18.876,-10.185,-6.484,-4.173,28.137,-2.241,-2.102,-0.401,3.103]],
"kep": [[-27.047,-33.018,-30.764,-31.143,-43.576,-30.264,-19.793,-25.659,-39.266,-24.308,-26.154,-17.205,-29.13,-32.857,-36.472,-21.949,-24.244,-18.91,-23.693,-28.647,-29.294,-16.922,-10.659,-14.083,-17.168,-22.309,-4.714,1.316,2.082,22.897],[-53.233,-32.029,-26.781,-24.969,-26.551,-49.367,-34.513,-26.227,-25.949,-24.763,-53.141,-31.746,-28.429,-25.813,-26.475,-59.915,-35.284,-27.077,-24.059,-23.681,-57.242,-32.977,-26.869,-23.284,-21.022,-60.774,-31.942,-23.038,-21.613,-18.969],[-75.56,-42.893,-35.621,-31.73,-26.669,-75.719,-42.702,-34.918,-29.426,-28.151,-75.459,-46.056,-34.217,-30.506,-27.922,-72.114,-45.99,-34.346,-31.606,-28.566,-73.919,-48.165,-37.117,-30.586,-27.216,-76.599,-50.178,-38.822,-31.268,-26.83],[-84.577,-58.889,-43.204,-34.58,-30.909,-83.224,-57.481,-43.765,-35.442,-32.747,-85.131,-57.002,-41.072,-36.945,-32.168,-82.639,-59.335,-44.18,-36.808,-31.888,-81.273,-57.315,-46.108,-37.247,-32.016,-84.795,-63.022,-47.193,-39.975,-33.766],[-88.547,-60.039,-48.251,-41.595,-36.455,-89.921,-60.554,-50.664,-41.611,-36.909,-88.926,-63.121,-50.053,-41.838,-35.586,-87.88,-65.954,-49.326,-40.956,-37.604,-86.26,-66.776,-51.461,-42.573,-37.264,-88.039,-70.121,-54.395,-44.988,-37.212],[-93.301,-70.3,-56.006,-46.457,-41.607,-92.436,-68.92,-54.225,-46.955,-40.557,-93.108,-68.147,-53.449,-47.992,-40.841,-89.03,-70.729,-58.299,-49.077,-41.948,-88.893,-73.249,-59.316,-50.122,-42.52,-90.004,-75.742,-60.989,-50.661,-43.634]],
"vp": [[-331.735,351.966,-762.473,-393.279,-595.026,39.976,-19.979,-104.591,-47.83,-146.823,-83.442,-122.792,-41.399,-61.162,-54.363,-4.443,-10.582,-16.489,-9.664,-11.509,-0.775,-2.103,-13.959,-8.504,-3.185,-4.199,-1.98,-6.302,-0.901,-7.808],[2086.938,423.58,89.75,-728.888,-478.552,256.979,291.425,-13.669,-80.096,-150.451,262.656,55.925,23.089,-65.25,-72.582,42.515,-0.337,-5.105,-4.385,-19.216,14.472,-4.118,-8.945,-9.151,-9.976,6.407,-4.712,-3.481,0.376,-6.954],[4517.633,1745.513,1284.573,1125.214,-281.252,1006.105,391.828,299.78,55.825,-34.797,438.207,311.977,103.56,37.089,18.424,83.337,53.42,18.956,18.983,-3.176,35.009,30.009,20.275,-0.188,0.309,20.033,11.45,7.483,7.032,-0.764],[6068.503,5390.677,3256.325,1536.562,1170.941,1147.168,1063.456,746.445,419.542,294.868,604.289,539.226,266.926,202.137,107.509,103.95,106.859,63.407,39.24,23.83,47.023,35.749,37.963,18.155,13.663,23.314,22.935,10.2,16.752,7.937],[6171.686,5761.951,4426.272,3865.508,2473.445,1401.401,1209.659,1080.954,744.876,510.381,744.458,629.197,522.154,366.332,237.838,137.236,138.792,87.55,65.531,61.891,58.168,64.693,50.589,39.779,23.218,24.954,38.864,25.731,14.917,12.317],[7697.716,7956.397,7550.316,5592.285,4825.533,1509.813,1565.52,1211.589,1133.914,856.548,812.373,770.599,612.503,604.332,420.204,128.81,160.723,150.868,122.021,90.729,56.178,83.99,63.762,56.373,47.139,21.812,35.542,32.921,29.706,16.53]]
}