{
"KTrans": [[-20.961,-6.464,3.281,0.431,-6.106,-27.585,-7.371,3.196,-2.786,3.301,-30.621,0.031,-6.88,10.043,1.745,-43.816,-11.478,-0.561,-0.816,4.177,-42.99,-5.616,3.38,1.852,-1.639,-29.152,-7.279,-7.429,2.884,4.964],[-90.077,-53.294,-27.184,-20.005,-11.817,-92.468,-53.744,-16.363,-12.799,-17.05,-91.978,-44.565,-27.893,-20.554,-18.057,-93.555,-54.814,-25.683,-13.938,-15.894,-92.173,-56.916,-25.074,-7.782,-10.334,-90.459,-38.01,-25.269,-10.061,-11.35],[-97.127,-88.415,-46.663,-25.143,-27.965,-98.814,-86.402,-55.263,-30.116,-26.7,-100.723,-88.414,-49.648,-26.694,-22.313,-99.943,-85.798,-55.009,-33.342,-20.99,-96.595,-83.581,-43.357,-34.062,-27.611,-98.254,-71.124,-52.993,-25.033,-19.892],[-99.883,-93.523,-76.942,-45.693,-30.673,-99.317,-93.58,-74.952,-47.181,-31.563,-99.913,-92.111,-78.312,-50.833,-29.971,-101.649,-90.837,-72.853,-49.872,-36.917,-101.296,-92.451,-75.421,-45.726,-36.325,-99.121,-89.845,-63.803,-44.834,-24.153],[-102.036,-96.146,-92.74,-72.66,-51.133,-103.846,-95.968,-90.227,-75.504,-41.631,-103.721,-96.761,-87.284,-68.736,-52.034,-102.584,-96.088,-85.75,-70.276,-46.491,-105.046,-96.72,-85.329,-57.655,-49.799,-101.55,-98.468,-85.28,-73.591,-55.097],[-102.216,-101.523,-94.623,-84.881,-72.734,-101.156,-101.533,-90.564,-74.153,-63.254,-102.3,-99.787,-90.981,-77.495,-71.506,-105.309,-100.263,-88.325,-81.057,-73.122,-101.764,-98.553,-93.219,-83.689,-59.428,-99.766,-94.645,-87.401,-87.975,-70.511]],
"ve": [[-5.559,5.011,-73.882,-3.079,1620.379,-1.658,-26.023,-62.415,-92.318,-85.702,-17.604,33.998,44.281,91.489,45.716,-38.043,-79.267,7.754,85.331,497.487,-14.72,16.155,1333.224,136.996,-6.271,-22.845,0.857,75.631,-38.24,-289.652],[-70.093,-38.522,-12.313,-9.703,-5.532,-73.394,-33.523,10.844,-9.899,-4.944,-81.372,-43.4,-31.235,-18.483,-2.255,-86.18,-39.972,-15.006,-14.912,-2.646,-63.694,-34.031,-22.767,-51.704,-2.101,-84.018,-33.779,-19.547,-7.855,-3.427],[-96.546,-72.088,-34.9,-34.287,-19.417,-57.529,-331.669,-43.058,141.222,16.387,-208.142,-72.983,-30.736,-26.772,-17.871,-89.206,-74.221,-47.027,-26.629,-17.745,71.255,-64.382,-37.389,-45.094,-18.852,-83.644,-59.038,-39.173,-21.466,-17.784],[-119.786,-59.146,-65.829,-44.044,-28.712,-181.91,-71.959,-60.885,-39.948,-30.019,-115.069,-73.491,-64.551,-40.364,-27.959,-321.138,-70.216,-58.795,21.854,-30.254,-111.37,-68.894,-63.071,-51.706,-32.938,-109.79,-74.043,-76.127,-31.275,-28.003],[-109.354,-66.275,-58.751,-62.923,-42.05,-122.294,-90.55,-84.288,-95.308,-42.408,-52.726,-90.498,-91.315,-52.712,-40.117,-130.921,-87.001,-77.82,-59.73,-40.84,-137.2,-93.692,-74.682,-44.019,-42.914,-107.645,-102.301,-78.635,-65.185,-47.683],[-105.614,-116.755,-93.772,-69.84,-57.222,-104.661,-102.136,-82.137,-57.406,-68.53,-87.173,-91.992,-80.422,-62.308,-174.995,-131.354,-102.708,-78.384,-67.24,-59.344,-109.626,-136.98,-261.038,-81.701,-50.485,-93.671,-85.024,-72.479,-77.745,-56.476]],
"kep": [[-41.813,-20.937,-6.086,-12.372,-31.234,-42.439,-18.386,-3.357,-12.61,-9.888,-53.47,-15.561,-18.427,5.729,-8.025,-54.249,-21.846,-11.565,-18.543,-1.244,-63.218,-14.999,-5.377,-4.034,-16.622,-41.777,-19.158,-20.881,1.142,-4.781],[-93.592,-39.351,-11.543,-10.164,-6.55,-98.707,-47.618,-2.701,-2.863,-10.529,-89.397,-30.985,-14.987,-11.102,-13.584,-96.974,-43.427,-10.067,-6.514,-11.649,-94.003,-49.638,-11.805,-3.472,-4.308,-94.716,-35.229,-9.535,-2.873,-6.63],[-93.919,-82.074,-32.367,-4.295,-11.651,-96.008,-84.926,-36.902,-11.49,-9.019,-96.801,-87.392,-32.088,-3.66,-5.783,-94.78,-84.886,-40.424,-15.401,-4.381,-96.507,-87.499,-27.481,-14.717,-12.05,-96.207,-70.176,-33.397,-9.026,-4.23],[-96.46,-94.406,-73.247,-29.132,-9.164,-93.252,-89.299,-65.182,-27.881,-6.129,-95.861,-92.528,-72.364,-28.498,-6.438,-95.364,-90.463,-68.006,-28.752,-12.189,-95.218,-88.138,-72.364,-27.537,-12.975,-93.785,-86.399,-60.132,-29.468,-4.144],[-96.243,-89.327,-93.958,-60.282,-27.904,-94.241,-91.103,-92.977,-61.333,-19.23,-96.141,-93.879,-88.711,-53.379,-27.017,-95.062,-94.753,-84.924,-54.09,-21.131,-94.96,-93.841,-85.496,-56.197,-35.006,-96.861,-94.129,-87.451,-59.318,-28.684],[-97.323,-90.879,-95.62,-82.616,-59.063,-97.405,-90.381,-90.156,-70.816,-45.715,-97.891,-95.934,-86.221,-72.625,-53.907,-95.451,-90.894,-85.921,-72.183,-49.323,-96.988,-88.795,-90.657,-80.374,-41.991,-97.899,-90.389,-95.012,-85.338,-57.225]],
"vp": [[2649.87,2388.222,1921.661,2313.569,2488.455,584.191,457.601,461.383,446.283,404.929,338.138,223.013,250.77,205.351,224.024,71.525,56.811,49.864,51.913,47.882,28.175,26.176,17.599,24.73,16.595,10.807,11.194,13.994,12.072,10.165],[7843.373,9636.012,7408.958,7972.552,5488.367,1796.075,1526.62,1294.758,1426.409,1600.097,811.874,848.269,767.406,761.164,685.423,166.212,181.6,159.006,129.93,154.344,80.649,101.939,79.565,60.946,66.037,40.384,45.018,43.08,30.319,32.943],[9505.092,15897.935,11407.903,13500.644,13819.332,1873.24,2985.525,3108.094,2133.193,2959.556,1013.828,1612.522,1352.977,1406.102,1222.556,203.678,297.016,294.612,252.694,226.935,93.283,143.374,126.041,138.57,100.958,46.611,62.276,64.836,62.425,62.326],[10592.158,17597.55,21307.376,16643.281,18344.969,2112.704,3688.594,3716.469,3665.523,3999.055,1037.783,1681.932,2148.373,1671.601,1589.435,231.753,328.554,368.298,335.035,343.515,112.575,165.805,213.465,191.094,179.238,47.658,79.279,88.744,79.437,80.219],[11243.69,18623.897,25957.15,26729.189,22215.807,2347.306,3687.365,5257.67,5627.003,4789.763,1141.218,1857.226,2413.172,2583.567,2437.746,228.681,375.869,458.119,502.989,444.743,122.382,191.719,226.33,230.246,246.415,58.593,102.869,130.205,129.282,133.517],[10818.84,22228.349,28811.645,30861.938,31892.856,2249.991,4066.933,5363.578,5359.997,6204.402,1161.098,2104.01,2562.396,2883.305,3186.505,267.591,424.667,482.997,581.637,594.115,112.722,198.598,274.351,310.633,272.271,48.254,89.173,124.258,169.745,158.369]]
}