{
"KTrans": [[1.942,2.244,2.37,1.299,1.626,12.282,7.774,7.521,6.532,5.469,24.092,15.665,13.519,11.75,11.623,164.64,95.252,78.373,66.633,58.758,259.783,218.299,169.362,148.072,135.156,-364.168,368.394,365.761,336.71,321.996],[-0.956,-0.295,0.327,0.835,0.825,3.43,5.352,4.464,3.563,3.338,16.091,11.179,7.191,7.248,6.004,120.681,63.393,46.74,35.288,30.051,-117.045,140.541,99.153,84.583,64.497,-46.908,117.947,247.918,189.956,149.137],[-7.989,-0.774,0.195,0.473,0.507,5.157,3.033,3.994,2.425,1.912,18.551,11.659,5.861,5.776,4.814,68.556,61.256,43.176,30.366,26.978,-157.094,169.599,89.017,66.302,52.279,-19.675,21.221,238.896,167.654,133.633],[-5.942,0.291,-0.557,-0.215,0.091,-0.504,3.113,2.224,1.767,1.803,7.415,7.7,5.942,5.224,3.871,-8.961,68.054,37.636,28.377,24.944,-37.546,145.337,89.553,68.858,57.231,-19.957,0.089,270.935,163.662,127.26],[-17.632,-0.55,0.343,-1.224,-0.719,-16.125,5.764,2.152,2.488,1.311,-10.226,10.689,4.839,4.458,4.089,-57.809,69.107,39.557,24.806,23.51,-78.15,57.379,107.502,55.441,43.977,-101.01,-48.262,154.873,172.901,109.764],[-39.226,-1.265,-0.178,-0.277,-0.847,-32.218,7.861,1.815,0.848,0.592,-30.325,3.702,4.1,3.347,2.742,-86.069,83.235,37.161,27.709,21.839,-88.682,17.816,113.514,60.085,49.658,-81.612,-22.701,121.136,213.651,124.784]],
"ve": [[1.291,1.05,0.793,2.076,2.538,5.55,1.876,-0.539,-1.288,-1.841,7.874,2.066,-1.459,-3.296,-5.445,46.008,14.793,-0.895,-9.771,-17.039,101.396,35.851,10.513,-6.194,-16.707,193.14,75.528,59.472,17.599,-2.339],[1.421,0.628,0.415,0.375,0.314,4.443,2.366,1.394,0.772,0.646,9.141,4.643,2.795,1.621,1.188,50.249,23.871,14.168,9.467,5.767,102.204,47.422,29.791,20.085,12.73,195.652,98.609,62.005,42.921,29.585],[0.847,0.504,0.559,0.23,0.274,4.857,2.755,1.551,1.334,0.904,10.539,4.978,3.056,2.308,1.705,52.924,24.586,16.023,11.347,8.503,102.271,50.224,32.14,22.976,17.514,200.753,97.468,65.927,48.204,36.447],[1.972,0.837,0.016,0.015,0.038,5.537,2.311,1.518,1.011,0.817,11.669,4.87,2.966,2.444,1.785,51.289,24.656,15.974,11.748,9.253,100.201,49.67,32.719,24.557,19.104,195.988,96.002,66.545,48.861,38.519],[1.733,0.461,0.242,0.267,0.187,6.29,2.451,1.385,1.255,0.864,10.244,5.351,3.099,2.416,2.022,50.529,25.972,16.568,11.902,9.443,95.087,50.366,33.332,24.061,18.998,203.736,100.417,69.124,49.698,38.756],[0.576,0.557,0.34,0.264,0.252,6.536,2.806,1.291,1.095,0.802,11.716,4.905,3.324,2.228,1.992,51.52,25.663,16.484,12.446,9.701,102.652,49.964,33.423,24.48,19.537,208.338,90.998,66.185,50.388,39.628]],
"kep": [[-0.717,-0.035,0.47,-1.234,-1.092,4.899,4.574,6.919,7.037,6.812,13.416,11.822,13.984,14.354,17.195,77.337,67.476,77.683,82.375,89.164,79.443,129.863,139.937,160.619,178.6,-161.348,151.791,230.461,272.472,329.901],[-3.76,-2.478,-1.668,-1.129,-1.078,-2.577,1.328,1.42,1.153,1.063,4.582,4.546,2.625,3.881,3.112,42.231,29.433,26.415,21.622,21.022,-99.614,59.113,50.517,51.063,43.537,-72.561,8.907,108.625,98.378,88.512],[-10.266,-2.864,-1.938,-1.357,-1.377,-1.59,-1.336,0.773,-0.542,-0.619,5.208,4.644,1.076,1.738,1.396,8.103,26.702,21.252,15.159,15.128,-120.755,73.754,39.96,32.755,27.354,-67.74,-33.451,97.091,76.117,67.482],[-9.592,-2.173,-2.18,-1.835,-1.556,-7.826,-0.819,-0.942,-0.869,-0.638,-5.654,0.977,1.208,1.061,0.409,-40.539,31.576,16.508,12.929,12.462,-65.751,57.276,39.304,32.962,29.618,-69.76,-44.573,112.574,72.181,60.214],[-21.305,-2.711,-1.531,-3.073,-2.502,-22.805,1.444,-0.906,-0.416,-1.179,-20.744,3.219,0.021,0.337,0.37,-71.047,30.815,17.37,9.543,10.972,-85.98,2.216,51.137,22.83,18.793,-96.767,-69.394,46.82,76.2,47.389],[-41.501,-3.622,-2.196,-2.173,-2.7,-37.843,2.943,-1.185,-1.871,-1.83,-39.429,-3.088,-0.935,-0.55,-0.895,-89.139,41.208,15.343,11.538,9.176,-91.734,-22.245,55.018,25.761,22.758,-91.282,-57.848,28.995,100.454,56.53]],
"vp": [[95.004,194.287,9.134,33.478,-132.676,-18.683,33.32,7.657,3.59,21.548,-27.843,-7.466,5.741,-22.655,-3.41,0.883,4.135,3.035,6.398,-21.047,-9.888,6.623,-0.77,-15.189,-7.612,-2.971,-4.422,-8.695,4.083,-7.032],[872.749,154.25,61.153,64.931,-80.763,252.911,24.661,25.467,-46.311,3.263,76.195,17.228,-14.139,-4.022,-9.598,8.003,-2.676,4.859,-9.556,-15.189,6.521,-22.785,-7.133,18.874,-12.76,-19.5,-0.858,-14.172,10.414,-5.025],[2443.187,500.343,67.496,9.247,34.101,553.827,88.15,27.312,82.962,-7.127,270.289,41.771,24.456,13.894,1.287,36.016,6.599,9.197,-17.229,1.487,24.875,2.085,-10.412,-14.182,-11.621,-10.942,-12.848,-15.829,-3.804,-2.437],[4251.01,1259.175,14.742,3.493,-60.102,877.441,235.798,73.163,4.527,12.625,450.031,105.314,67.424,33.312,-10.037,67.116,15.865,-7.881,-9.342,10.712,14.869,-7.196,-9.639,9.453,12.563,-10.536,-16.019,-13.618,-4.326,-0.918],[5935.649,1905.454,853.047,70.433,166.363,1133.863,453.447,136.917,143.447,-5.968,518.002,176.227,58.696,7.154,55.318,96.959,56.894,10.869,-13.048,-1.157,17.388,32.25,15.227,-20.574,-15.867,8.44,-0.621,-0.312,2.681,-14.572],[6128.013,2950.181,1174.067,612.823,179.379,1222.734,700.169,262.596,97.308,90.626,664.85,216.217,144.019,115.574,13.217,127.531,75.767,19.425,9.129,2.215,51.164,21.693,10.937,-6.558,4.681,27.713,-3.761,-1.324,6.374,-0.138]]
}