{
"KTrans": [[-9.677,14.104,26.496,16.617,12.756,-8.588,39.61,34.208,12.898,22.494,-12.36,30.426,23.59,29.422,35.24,124.914,144.611,89.958,95.434,91.11,253.114,296.711,213.593,196.788,180.726,756.473,625.902,525.183,423.48,404.493],[-77.581,23.162,39.682,31.952,21.118,-74.484,10.163,43.331,48.993,21.745,-70.219,32.841,36.379,35.32,20.097,-53.718,72.57,85.474,59.13,58.684,-37.209,166.756,159.947,134.391,92.442,117.724,401.547,329.664,238.1,187.207],[-99.717,-33.626,54.39,41.688,41.236,-95.24,-13.056,43.122,53.873,45.227,-94.835,-11.883,71.203,54.352,37.576,-76.95,7.609,87.799,93.511,69.927,-84.284,42.637,152.65,162.011,120.084,-15.994,112.26,286.862,282.098,204.93],[-104.41,-73.981,16.909,63.528,66.183,-103.694,-81.387,11.322,88.815,57.295,-96.974,-91.625,10.598,84.255,88.422,-99.639,-38.953,39.706,132.563,97.096,-105.757,-63.567,110.141,145.175,161.709,-95.005,-4.261,142.557,303.284,230.611],[-100.892,-92.375,-9.051,35.684,80.757,-100.319,-103.068,-66.433,61.305,100.497,-96.62,-79.587,-32.504,62.62,83.778,-95.465,-81.374,18.838,80.737,126.137,-103.493,-79.946,12.394,121.347,177.52,-69.504,-15.325,43.156,217.029,257.039],[-98.643,-104.671,-78.666,3.779,73.384,-102.222,-99.587,-99.379,6.202,92.779,-104.263,-107.542,-72.914,38.801,88.468,-98.963,-111.237,-75.402,0.122,152.417,-106.352,-108.15,-47.144,29.212,157.794,-101.869,-75.357,-15.663,102.624,236.561]],
"ve": [[-56.394,-6.581,-147.03,-163.323,94.947,4.598,-284.476,0.947,-4.183,37.758,67.414,60.476,58.424,1093.259,12.603,59.033,22.091,-13.152,-3.657,-9.783,79.19,37.336,15.558,-2.07,-12.589,201.815,88.472,36.824,11.181,-3.88],[16.512,7.31,5.081,3.563,4.233,30.097,9.071,4.612,4.721,3.82,36.874,9.165,5.524,3.213,5.045,61.651,26.465,16.399,12.632,7.5,151.74,50.824,31.844,21.813,13.274,161.421,101.107,64.118,43.043,29.659],[-30.504,3.71,3.836,-0.46,1.766,30.129,9.671,2.16,3.611,2.671,52.367,7.656,9.913,4.617,4.867,58.178,50.746,20.102,13.462,9.682,114.137,49.858,35.447,27.674,18.557,216.453,82.44,66.905,48.502,38.442],[316.451,2.335,-5.92,0.872,2.588,-124.655,-42.692,5.607,5.151,2.544,166.938,-13.565,4.204,6.135,5.328,56.215,28.84,14.607,17.49,11.297,119.724,40.008,39.671,24.917,23.554,201.042,103.853,71.059,53.612,41.635],[10.339,5.227,13.108,1.914,3.404,5.487,21.321,1.845,5.831,3.558,13.96,1.444,5.584,2.492,4.176,50.629,26.868,22.42,14.765,11.067,103.27,44.092,39.983,28.4,22.527,258.156,100.13,67.119,49.965,40.845],[-20.11,3.956,5.391,-2.386,4.014,2.8,6.986,2.264,5.003,4.163,-14.035,11.332,2.613,10.933,3.517,53.296,22.519,11.222,14.856,12.952,118.216,53.043,44.354,28.721,22.52,147.279,79.394,71.196,49.899,38.902]],
"kep": [[-31.101,2.64,25.007,12.111,14.952,-30.627,32.505,39.398,7.729,29.454,-35.404,22.432,20.021,38.722,46.537,37.158,108.4,79.252,117.732,139.235,67.309,190.951,180.522,213.242,233.749,183.435,297.506,361.122,371.056,431.424],[-82.618,13.515,30.451,27.193,18.156,-81.455,-1.131,34.455,42.105,17.518,-79.675,17.851,27.146,29.188,14.309,-71.037,30.64,55.662,38.612,45.82,-69.695,71.41,90.942,88.615,66.705,-29.387,146.258,156.581,132.48,118.255],[-100.819,-40.62,41.821,36.59,35.931,-96.334,-24.802,32.469,43.432,39.065,-96.96,-22.305,51.557,43.664,27.722,-85.823,-20.524,49.824,64.899,50.855,-94.231,-10.875,81.284,99.279,80.604,-72.411,-0.47,125.584,150.648,115.792],[-104.112,-76.838,4.59,52.308,55.239,-103.197,-86.558,1.317,70.882,46.147,-97.621,-90.342,-0.206,68.979,73.291,-99.878,-53.458,13.689,89.677,70.517,-103.543,-75.031,45.666,90.072,105.567,-98.31,-52.606,36.248,155.561,127.054],[-101.375,-92.069,-18.378,24.725,67.082,-99.722,-102.379,-70.889,45.183,83.074,-97.443,-81.062,-38.982,46.71,67.88,-97.873,-82.788,-6.696,48.922,93.096,-101.079,-85.075,-19.562,65.23,116.379,-88.5,-56.715,-15.015,101.184,144.218],[-98.722,-102.29,-77.433,-6.597,59.533,-101.881,-99.38,-97.727,-5.033,74.419,-103.859,-103.213,-74.976,24.994,70.677,-98.614,-104.535,-79.788,-15.429,110.885,-102.81,-102.602,-60.296,0.107,100.12,-101.885,-88.315,-53.239,27.631,130.014]],
"vp": [[2186.084,1741.424,1935.143,1717.328,1230.329,625.795,357.302,299.471,244.411,340.074,334.049,172.113,144.68,109.532,132.115,65.613,40.384,30.941,32.576,22.855,26.417,18.72,18.795,19.783,20.189,11.633,8.856,7.879,4.138,3.772],[6606.469,7663.924,4496.272,5831.55,3971.608,1340.439,1433.496,1192.423,1251.03,744.027,657.24,709.454,513.877,532.188,404.21,125.51,157.718,117.734,105.242,104.394,73.758,59.333,51.883,52.337,44.664,32.959,31.303,26.202,26.521,19.554],[9215.396,12718.925,11529.967,9052.833,7656.785,1643.443,2372.221,1603.873,1618.605,1758.885,805.718,1058.089,1292.22,862.542,798.732,146.767,251.273,184.831,181.723,149.315,85.455,115.958,97.88,109.138,98.809,40.605,64.31,53.779,47.94,47.674],[10266.068,15563.812,16632.122,13732.753,13330.184,2001.453,3154.365,3018.378,3405.004,2388.57,967.84,1203.691,1515.576,1486.845,1566.69,198.844,269.031,227.706,291.906,266.709,99.246,135.982,184.191,127.955,149.293,44.523,70.474,78.075,76.608,66.8],[10006.553,15089.197,18066.146,18444.321,18460.125,1851.215,3225.566,3744.579,4099.557,3641.129,857.246,1481.61,1931.898,2035.95,1778.931,175.821,290.462,408.469,407.108,339.53,93.236,141.788,170.93,191.145,181.029,46.185,76.14,87.151,91.269,92.47],[9360.467,17392.239,18414.585,23986.017,23185.076,2007.353,3713.567,4887.76,4496.477,4860.116,1025.726,1564.092,2160.017,2589.693,2359.23,175.31,287.213,409.491,433.586,516.717,104.409,168.939,193.044,245.414,225.887,51.157,93.637,121.702,111.368,105.263]]
}