{
"KTrans": [[2.576,1.716,1.214,1.213,1.026,12.48,7.932,6.304,5.556,5.315,25.266,16.055,13.063,11.418,10.662,162.372,94.429,75.242,65.78,60.654,404.02,224.303,175.693,154.046,141.388,1129.971,592.174,456.526,394.334,361.311],[2.707,1.207,0.853,0.606,0.746,10.71,5.839,4.053,3.288,2.983,22.117,11.971,8.333,6.715,5.92,134.941,64.723,44.964,35.778,30.742,323.268,145.881,98.837,77.974,66.246,873.217,357.473,233.117,180.219,151.307],[1.893,1.137,0.867,0.83,0.506,11.279,5.383,3.842,2.849,2.646,21.56,11.055,7.626,5.948,5,130.489,60.905,40.696,31.336,25.894,314.31,135.681,88.166,67.02,55.049,846.112,329.052,204.708,152.424,122.601],[2.42,1.535,0.922,0.699,0.586,11.502,5.316,4.175,2.721,2.353,21.881,11.105,7.077,5.69,4.634,129.634,59.266,38.983,29.537,24.096,306.266,132.521,84.461,63.063,51.09,822.987,321.839,194.392,142.296,113.045],[1.687,1.033,0.838,0.563,0.44,10.192,5.79,4.027,2.779,2.1,21.474,10.633,7.452,5.747,4.544,130.195,58.708,38.788,28.709,23.167,313.936,130.758,83.058,61.154,49.046,826.874,317.817,190.666,137.118,108.159],[2.591,1.97,0.467,0.535,0.666,11.376,5.486,3.845,2.672,2.076,20.105,10.846,7.06,5.688,4.47,127.764,57.77,37.819,28.695,22.973,306.68,128.738,81.102,60.437,48.043,804.654,314.38,188.354,135.058,105.399]],
"ve": [[0.627,0.122,-0.161,-0.718,-0.928,4.291,0.571,-1.336,-2.788,-4.139,8.363,1.543,-2.284,-5.198,-7.747,44.978,12.923,-1.617,-11.302,-18.735,93.065,33.167,7.821,-7.526,-18.547,191.407,78.744,35.017,10.099,-6.384],[1.151,0.553,0.214,0.209,0.092,4.952,2.239,1.395,0.789,0.475,9.9,4.663,2.754,1.672,0.893,49.389,23.556,14.283,9.109,5.544,99.152,47.75,29.298,19.28,12.526,199.013,96.842,60.819,41.446,28.667],[1.035,0.502,0.379,0.241,0.131,5.051,2.346,1.564,1.086,0.819,9.884,4.864,3.125,2.209,1.642,49.7,24.459,15.832,11.308,8.431,99.606,49.164,31.948,22.964,17.251,199.523,98.694,64.48,46.76,35.552],[0.994,0.542,0.298,0.257,0.171,5.098,2.406,1.642,1.137,0.883,9.988,4.951,3.174,2.346,1.799,49.863,24.716,16.167,11.907,9.203,99.809,49.545,32.595,23.981,18.65,199.907,99.374,65.551,48.359,37.772],[1.002,0.452,0.345,0.215,0.176,4.953,2.505,1.647,1.202,0.931,9.982,4.88,3.334,2.424,1.898,49.846,24.867,16.407,12.122,9.545,99.839,49.722,32.854,24.376,19.172,199.843,99.659,65.957,49.034,38.634],[1.067,0.473,0.29,0.232,0.204,4.786,2.472,1.636,1.237,0.96,10.009,5.009,3.299,2.451,1.946,50.051,24.806,16.492,12.28,9.687,99.883,49.807,33.044,24.609,19.467,199.894,99.779,66.187,49.336,39.077]],
"kep": [[1.948,1.606,1.398,1.976,2.017,7.865,7.335,7.772,8.619,9.9,15.609,14.301,15.725,17.552,19.986,80.977,72.185,78.136,86.918,97.711,161.065,143.535,155.7,174.731,196.365,322.085,287.249,312.191,348.995,392.777],[1.541,0.652,0.64,0.398,0.655,5.489,3.523,2.623,2.48,2.498,11.12,6.983,5.431,4.961,4.984,57.268,33.318,26.847,24.443,23.875,112.534,66.418,53.782,49.208,47.741,225.472,132.405,107.137,98.11,95.316],[0.846,0.631,0.486,0.588,0.375,5.93,2.969,2.243,1.744,1.812,10.625,5.905,4.363,3.658,3.304,53.97,29.284,21.465,17.994,16.106,107.569,58,42.606,35.828,32.236,215.869,115.932,85.255,71.997,64.218],[1.407,0.987,0.622,0.441,0.415,6.097,2.841,2.492,1.566,1.458,10.813,5.863,3.783,3.267,2.785,53.228,27.702,19.64,15.754,13.638,103.33,55.483,39.115,31.522,27.34,207.753,111.578,77.824,63.316,54.635],[0.679,0.578,0.491,0.346,0.263,4.987,3.204,2.34,1.558,1.158,10.443,5.484,3.983,3.244,2.597,53.608,27.102,19.226,14.793,12.435,107.133,54.123,37.788,29.569,25.068,209.095,109.259,75.143,59.101,50.149],[1.513,1.49,0.176,0.302,0.459,6.286,2.941,2.173,1.417,1.105,9.18,5.56,3.639,3.159,2.475,51.789,26.412,18.307,14.619,12.112,103.447,52.687,36.121,28.752,23.918,201.642,107.413,73.51,57.4,47.686]],
"vp": [[8.353,1.528,-5.394,-2.307,7.612,-0.981,2.028,2.204,1.226,3.32,-0.551,1.517,-0.235,1.844,-0.179,0.666,0.605,0.503,0.592,0.162,0.547,0.594,0.289,0.462,0.523,0.567,0.547,0.624,0.511,0.773],[-0.547,1.712,23.79,-7.924,1.946,3.309,-1.197,1.492,-0.612,0.883,0.739,0.314,-0.419,-0.011,0.797,0.895,0.585,0.454,0.416,0.839,0.712,0.654,0.358,0.627,0.624,0.87,0.555,0.504,0.423,0.368],[2.69,-13.814,21.908,3.999,-8.156,3.292,-2.001,-0.832,-2.498,3.235,4.715,-0.599,0.36,1.404,-0.345,1.108,0.598,0.825,0.742,0.646,0.941,0.686,0.699,0.714,0.448,0.889,0.685,0.732,0.571,0.644],[52.31,23.782,-4.77,1.878,-8.99,10.421,-0.679,0.597,0.986,-2.445,6.28,-0.874,0.893,0.698,-0.09,1.484,0.317,0.314,0.404,0.52,1.311,0.698,0.64,0.637,0.505,1.481,0.906,0.553,0.577,0.693],[78.017,-10.226,-5.88,-22.181,1.293,21.812,0.994,3.893,-0.528,-1.701,9.012,0.864,0.989,0.229,-0.667,2.846,0.264,0.973,0.568,0.409,1.752,0.683,0.527,0.542,0.715,2.021,0.698,0.542,0.736,0.738],[172.972,1.66,-26.718,-2.445,12.823,25.074,4.448,3.792,-1.843,-2.865,15.551,0.624,-2.731,0.067,-0.106,4.719,0.351,0.276,0.498,0.551,2.527,0.491,0.845,0.648,0.688,2.573,0.637,0.651,0.809,0.602]]
}