{
"KTrans": [[2.651,9.18,3.487,4.201,7.282,13.9,4.407,8.962,8.713,8.844,3.74,8.578,11.574,14.295,7.098,28.718,19.36,21.018,19.373,20.83,61.134,48.081,32.231,32.797,28.555,45.936,98.839,65.693,79.699,73.57],[-38.193,-3.535,3.321,2.43,3.356,-30.633,-4.675,-2.807,2.313,4.68,-29.026,-2.354,1.317,4.448,4.831,-29.502,-4.202,3.373,10.857,8.988,-30.238,9.408,16.34,15.191,7.562,-39.891,36.083,22.968,25.004,35.832],[-65.581,-17.243,-6.177,-2.89,0.945,-63.365,-16.376,-8.41,-1.996,0.054,-57.905,-21.599,-9.648,-1.452,1.666,-54.319,-18.956,-7.394,0.025,0.772,-53.946,-13.835,-7.532,-0.744,2.06,-55.124,-14.379,7.759,8.738,7.752],[-81.926,-35.377,-17.674,-8.861,-5.006,-83.489,-33.701,-17.764,-10.271,-4.2,-81.232,-33.636,-19.08,-9.54,-5.455,-74.243,-37.606,-18.686,-7.127,-5.363,-74.293,-30.19,-14.899,-1.446,-5.022,-75.418,-49.655,3.491,2.407,6.376],[-87.654,-47.589,-25.57,-17.514,-10.603,-88.649,-50.471,-27.042,-18.203,-11.669,-87.841,-48.513,-27.362,-18.936,-11.208,-83.155,-44.18,-27.711,-17.103,-10.518,-77.506,-43.761,-21.28,-13.489,-7.706,-78.847,-51.888,-21.234,-13.742,-6.906],[-92.51,-61.469,-37.874,-25.251,-18.03,-90.707,-54.386,-38.714,-22.281,-15.566,-94.006,-55.745,-35.089,-27.965,-16.814,-86.508,-53.973,-35.131,-22.98,-16.948,-88.501,-55.422,-40.984,-25.877,-15.219,-92.853,-63.01,-30.624,-16.984,-13.258]],
"ve": [[0.557,6.655,180.244,18.153,190.347,7.025,8.702,22.57,4352.427,52.85,3.343,8.729,10.428,9.848,17.261,2.529,18.081,10.368,6.578,-139.518,7.501,-74.634,17.667,-14.616,-35.815,52.802,21.653,-21.073,-21.964,-28.095],[-16.951,-0.199,0.332,1.482,2.913,-11.031,-1.513,0.303,0.986,2.685,-12.013,-2.212,1.49,1.978,2.979,-11.913,-0.158,2.79,4.386,4.893,4.644,11.864,9.389,7.599,8.38,14.902,-705.96,7.94,10.72,4.185],[-32.404,-5.626,-1.915,-0.459,0.585,-30.166,-6.62,-3.394,-0.417,0.592,-29.37,-6.672,-3.14,-0.573,0.508,-19.265,-3.903,-0.528,0.978,2.008,-13.588,7.417,-0.581,0.612,1.497,12.748,8.909,18.523,4.989,7.738],[-49.801,-14.08,-6.602,-2.886,-2.101,-52.614,-14.115,-7.064,-3.716,-1.465,-47.098,-13.215,-6.223,-3.519,-1.848,-36.514,-15.397,-6.156,-0.736,-1,-23.174,-1.052,-1.193,3.48,-0.785,1.475,-11.364,13.447,7.255,7.206],[-54.851,-21.138,-9.965,-6.048,-4.255,-50.813,-22.564,-11.021,-6.545,-3.472,-55.599,-20.12,-11.258,-7.242,-3.648,-37.827,-15.759,-8.225,-5.663,-3.638,-19.625,-11.961,-3.074,-1.822,-1.412,-5.91,-4.929,-1.101,-6.7,0.759],[-68.117,-29.727,-15.793,-8.857,-6.475,-81.612,-27.652,-16.152,-8.426,-5.408,-71.014,-28.124,-14.553,-10.264,-6.04,-50.227,-19.991,-11.692,-8.185,-5.395,-51.405,-17.995,-19.08,-8.838,-4.232,-30.003,-9.533,-1.304,1.556,-0.292]],
"kep": [[-12.131,-9.67,-17.061,-20.206,-18.478,-7.939,-13.472,-9.857,-13.715,-14.166,-14.003,-11.743,-9.087,-2.951,-19.52,-13.792,-7.941,-5.166,-4.297,0.439,-21.595,0.903,-5.704,0.867,-1.786,3.546,-19.545,-17.707,13.647,6.969],[-39.672,-16.938,-11.151,-12.853,-13.199,-35.726,-16.884,-16.402,-12.454,-11.934,-33.832,-14.231,-13.973,-11.637,-12.052,-51.621,-20.124,-14.373,-8.845,-10.293,-50.317,-21.021,-10.787,-9.089,-14.132,-51.948,-32.101,-24.142,-12.803,-2.066],[-63.333,-25.206,-17.704,-15.895,-13.461,-60.821,-24.019,-18.566,-15.215,-14.223,-56.809,-28.573,-19.87,-14.64,-12.781,-65.675,-30.499,-20.827,-15.252,-15.17,-63.172,-37.003,-24.072,-17.489,-14.86,-65.283,-42.249,-30.005,-23.051,-18.589],[-76.123,-36.888,-24.327,-19.266,-16.377,-81.472,-35.673,-24.179,-19.916,-16.199,-78.357,-36.298,-26.042,-19.342,-17.018,-78.9,-41.024,-26.603,-19.756,-18.09,-76.298,-48.742,-28.759,-19.91,-19.302,-72.263,-58.058,-34,-24.578,-19.172],[-84.721,-45.245,-29.423,-24.531,-19.563,-85.648,-47.522,-30.259,-24.791,-21.228,-87.136,-47.243,-30.55,-24.928,-20.691,-83.917,-47.188,-33.687,-25.494,-20.501,-79.561,-59.223,-33.767,-26.805,-20.395,-80.475,-62.59,-47.454,-34.818,-26.101],[-91.166,-54.708,-37.476,-29.575,-24.564,-88.784,-50.603,-38.022,-27.233,-23.309,-92.537,-52.583,-36.121,-31.209,-23.855,-87.314,-57.143,-37.686,-28.628,-25.002,-83.438,-66.345,-44.163,-32.245,-25.164,-82.76,-68.006,-47.776,-36.268,-30.133]],
"vp": [[162.404,-328.929,45.628,-55.648,-171.706,-91.303,-10.235,-64.138,-55.485,-70.201,16.312,-23.059,-41.334,-59.8,-23.501,-3.088,-3.584,-16.144,-14.597,-13.628,-14.859,-20.922,-5.295,-8.046,-6.94,-16.538,-18.162,-6.452,-18.414,-14.917],[2063.543,32.838,-82.943,-124.485,-338.038,281.731,58.918,69.371,16.55,-55.276,140.912,38.806,-16.19,-10.359,-36.132,37.173,18.934,3.827,-27.329,-15.368,7.103,-5.559,-17.884,-14.78,7.191,10.322,-12.938,1.189,-7.572,-24.278],[3999.08,1218.241,365.698,302.566,-207.902,731.469,257.929,185.4,41.598,-10.527,346.976,155.994,112.362,12.192,-9.957,63.356,32.221,16.059,5.051,2.895,27.182,11.281,21.444,17.649,11.054,7.385,2.966,-2.49,3.17,7.322],[5669.663,3128.247,1835.355,934.431,833.343,1198.438,612.484,448.139,253.305,98.994,591.811,297.119,201.76,127.909,84.777,102.824,83.701,52.954,13.502,29.185,42.28,32.642,17.179,-8.685,21.155,13.761,30.296,-13.644,-0.209,-4.547],[6692.539,4686.42,2972.915,2306.215,1788.839,1298.437,1013.874,712.929,529.968,324.71,667.591,449.64,361.538,302.607,178.793,102.818,84.047,65.528,59.362,47.367,35.938,38.922,21.12,19.545,19.164,16.014,22.195,16.599,20.207,13.351],[7493.866,6705.035,4931.818,3614.638,3173.701,1359.229,1243.688,1043.061,635.822,497.155,845.882,652.422,484.785,424.034,293.207,106.065,99.457,86.04,76.321,67.976,76.01,51.741,81.918,54.974,33.743,36.696,24.016,14.708,8.111,14.887]]
}