{
"KTrans": [[-24.337,14.18,17.565,19.684,21.501,-23.278,14.793,26.568,28.661,20.04,-6.307,39.442,35.544,36.413,24.25,71.006,104.213,104.686,87.601,78.84,237.225,223.966,207.635,169.269,167.085,725.246,646.173,507.94,462.723,413.397],[-76.367,1.776,43.814,30.805,23.405,-69.313,14.876,30.359,40.29,29.228,-78.937,25.82,31.034,31.366,29.291,-54.232,87.2,69.41,66.287,57.912,-31.487,159.001,166.727,110.23,86.612,118.586,321.255,317.084,231.892,192.881],[-96.568,-21.9,27.815,42.639,41.77,-98.981,-50.064,44.069,40.865,61.043,-90.074,-31.88,49.153,47.472,52.603,-89.417,-15.705,59.015,82.934,77.513,-95.688,50.235,155.081,124.089,110.691,-3.548,165.566,241.509,264.321,182.771],[-101.5,-81.627,2.1,59.693,54.571,-94.699,-79.158,-26.588,61.59,64.804,-90.224,-77.133,23.394,77.864,38.149,-88.789,-62.048,38.511,105.072,91.709,-88.383,-36.089,92.669,136.423,121.398,-66.992,-18.347,189.819,238.016,213.752],[-102.718,-89.593,-56.172,42.574,68.794,-97.853,-80.057,-52.65,43.541,60.969,-101.614,-74.355,-52.19,12.097,90.19,-99.27,-93.335,6.972,58.743,74.633,-99.962,-99.214,6.741,106.789,142.726,-76.665,-17.616,69.343,174.695,255.043],[-101.677,-100.728,-77.551,-17.297,73.984,-99.709,-115.28,-88.864,-7.359,57.848,-101.935,-107.546,-79.384,14.107,81.446,-98.273,-106.369,-58.591,7.807,78.959,-96.8,-108.627,-80.359,64.459,148.938,-47.447,-75.359,-75.504,128.514,232.648]],
"ve": [[9.913,-168.964,15.219,-218.145,-107.403,41.803,12.94,141.673,44.246,45.278,-1904.699,-6.035,55.067,38.521,-20.25,82.255,3.038,7.859,23.233,-4.389,90.381,48.872,14.154,-6.073,-14.787,197.898,83.81,38.686,13.34,-3.063],[25.792,2.239,3.185,2.482,3.723,15.098,10.696,4.623,3.61,1.873,-110.468,12.04,5.316,4.934,3.768,55.794,31.408,17.683,9.608,7.183,174.479,53.48,33.357,21.341,13,212.79,110.831,60.93,44.663,29.882],[5.789,-9.858,5.34,2.998,3.183,23.615,5.433,5.594,1.783,4.476,6.175,4.76,4.44,4.829,5.447,55.489,30.742,15.155,14.079,11.51,100.197,60.111,40.448,25.15,20.984,203.258,100.337,65.724,47.742,36.89],[8.908,-0.459,1.952,2.955,1.726,-16.841,24.655,6.128,3.751,4.236,18.281,14.744,5.899,6.553,2.065,203.168,34.896,17.549,14.055,12.133,99.833,27.427,50.319,28.143,21.078,217.484,103.707,69.263,51.467,40.773],[-1.642,2.095,6.882,5.81,1.871,-382.911,2.911,-2614.232,4.999,6.45,27.66,6.231,5.229,-17.228,3.204,61.011,19.082,26.175,15.8,8.115,102.505,49.892,34.979,32.247,23.828,199.323,102.103,71.971,51.396,41.479],[10.988,0.472,6.541,-0.79,-1.697,19.023,-6.725,5.502,1.905,1.232,-0.122,10.222,9.444,3.077,6.273,59.131,25.616,29.595,13.249,7.579,100.04,1911.154,41.515,25.287,22.872,197.868,100.25,68.508,52.444,42.651]],
"kep": [[-39.716,5.455,22.765,24.656,26.523,-45.086,11.921,26.676,29.109,26.786,-27.488,27.39,39.336,48.261,33.86,6.237,72.644,100.917,106.47,120.027,65.362,125.858,175.539,194.783,219.963,180.995,308.262,340.079,399.423,433.782],[-80.698,-6.861,38.138,26.401,20.413,-76.532,1.145,21.888,34.685,26.937,-82.743,11.72,21.392,23.855,25.082,-70.442,38.897,41.084,49.188,46.065,-69.049,62.881,95.937,70.512,62.965,-27.133,107.365,155.053,125.768,122.141],[-96.993,-27.948,19.471,34.191,33.579,-99.009,-54.765,31.845,33.783,51.707,-92.373,-39.12,35.709,36.129,41.686,-93.1,-35.397,33.154,55.77,54.775,-97.593,-3.26,81.896,72.754,70.127,-67.692,29.363,101.409,139.534,101.676],[-100.741,-79.826,-5.502,47.465,45.387,-95.858,-80.778,-32.6,48.335,52.61,-91.504,-77.764,9.715,60.215,28.034,-94.456,-70.099,13.344,70.994,65.881,-93.866,-58.212,35.054,78.417,74.431,-88.028,-60.247,68.657,114.601,117.5],[-102.021,-86.993,-58.752,28.068,55.608,-98.263,-78.871,-55.966,30.94,48.692,-101.387,-74.619,-54.009,2.077,75.767,-98.467,-91.498,-14.599,31.581,50.688,-99.271,-98.809,-21.739,54.23,91.099,-92.097,-59.163,0.321,77.188,142.037],[-101.891,-97.633,-76.612,-21.946,58.695,-99.721,-110.108,-88.59,-14.04,44.99,-101.509,-104.097,-79.902,2.775,62.034,-99.13,-103.16,-65.276,-9.506,55.542,-98.198,-104.117,-81.571,26.183,92.972,-82.034,-86.654,-81.668,43.667,123.843]],
"vp": [[3210.258,1566.613,882.567,1595.664,1773.82,632.046,146.39,193.559,352.8,221.695,275.98,176.954,127.404,123.672,128.494,53.598,31.199,16.449,21.952,20.902,21.357,20.131,13.504,7.702,4.814,7.434,5.076,6.249,8.685,6.601],[5486.533,6426.28,5738.734,5318.306,5460.472,1368.118,1481.465,983.73,1078.412,986.269,579.759,630.297,423.497,511.278,443.883,124.944,153.185,91.601,71.717,108.106,75.765,70.125,64.671,33.325,31.642,31.405,29.31,21.148,25.67,22.943],[8524.209,8805.613,9453.055,9561.66,8547.817,1754.493,2000.216,2077.138,1607.456,2113.187,784.307,916.376,973.482,774.588,947.628,175.163,245.816,160.113,168.91,170.711,93.678,98.155,105.229,79.111,81.046,38.565,50.342,37.694,43.939,39.212],[9349.059,10364.839,13232.821,13372.314,12030.619,1600.674,2793.813,2754.368,2603.844,2720.122,772.199,1334.756,1328.596,1347.534,955.687,178.54,262.101,291.375,276.832,242.043,88.793,127.543,149.969,129.174,125.462,39.123,75.291,68.236,66.24,60.869],[10424.124,13868.007,19964.163,20382.473,16136.748,1837.476,2272.592,3589.003,3440.759,3091.544,943.941,1118.524,1597.543,1382.885,1804.609,171.926,277.291,360.701,362.315,258.435,88.398,161.773,150.167,198.675,156.56,40.965,78.345,79.822,89.551,87.676],[10059.59,16838.654,18142.813,20568.161,24243.626,1844.951,3032.345,4274.102,3805.531,4027.208,1001.342,1549.029,2047.172,2078.712,2475.609,203.906,348.055,397.613,399.432,321.287,88.139,168.891,173.779,185.154,211.433,42.828,81.991,89.108,113.342,111.756]]
}