{
"KTrans": [[1.358,0.731,0.951,-0.107,0.18,2.736,1.686,0.373,-0.004,1.214,3.272,1.12,1.585,1.381,1.278,28.766,11.988,8.589,11.323,11.558,80.107,42.215,24.928,22.137,16.87,-0.975,95.067,103.722,75.544,52.878],[-1.143,1.892,0.528,-0.342,0.391,6.565,1.736,0.294,0.089,0.97,6.11,2.109,0.595,1.492,1.029,8.517,14.041,5.728,5.34,-0.453,44.293,46.406,16.834,10.93,9.596,45.992,71.045,47.148,36.033,13.777],[-38.649,6.458,0.657,-0.215,-0.152,-29.603,2.651,1.189,1.496,0.604,-21.233,8.552,2.565,2.26,0.503,-24.702,31.493,11.779,4.563,4.254,-29.529,51.929,23.791,15.925,6.836,-17.284,-7.439,39.099,37.359,22.931],[-58.45,2.392,3.809,1.97,1.694,-71.163,14.26,4.244,0.999,1.195,-47.403,17.825,5.124,2.443,1.115,-31.849,4.931,13.829,10.214,2.956,-40.221,20.966,18.73,18.114,5.769,-116.681,17.165,53.967,45.552,25.651],[-70.354,2.307,6.074,4.428,1.736,-72.816,8.937,9.659,3.295,2.769,-69.173,0.818,6.994,4.16,2.375,-51.521,-7.955,40.461,7.186,6.675,-46.791,-6.515,27.567,21.9,13.55,-81.942,-12.78,61.103,27.844,31.608],[-87.155,-7.449,9.471,7.019,2.484,-72.364,-21.621,15.564,8.788,3.888,-73.06,-28.293,9.266,10.099,5.624,-76.134,-20.915,36.197,17.75,9.211,-67.984,-29.171,14.726,40.266,20.654,-75.155,-16.61,28.373,59.452,50.615]],
"ve": [[-1.381,-1.395,-1.269,-0.878,-0.79,-1.578,-1.476,-1.047,0.277,-0.852,-0.949,-1.934,-0.957,-0.875,0.318,13.078,-13.291,-39.875,-6.799,-93.722,19.896,7.512,-53.79,-33.786,-14.715,-4.695,7.475,-6.038,-24.732,-60.155],[-6.545,-2.133,-1.783,-1.833,-1.627,-3.535,-1.705,-2.02,-2.047,-1.436,-6.428,-2.389,-1.771,-1.298,-1.37,-9.737,3.883,-0.916,-0.004,-1.399,31.614,13.189,7.579,3.275,3.03,12.614,16.433,6.385,1.024,-7.622],[-30.871,-2.074,-2.713,-2.393,-2.074,-29.636,-2.91,-2.215,-2.121,-1.97,-64.484,-1.358,-2.042,-1.4,-1.881,-21.631,-3.195,-0.249,-0.712,-1.097,-25.52,22.415,4.009,2.823,-0.078,38.329,19.339,6.25,11.461,7.923],[-59.024,-4.213,-2.332,-2.004,-1.837,-61.207,-1.729,-1.885,-2.493,-2.022,-58.508,-1.476,-1.232,-1.974,-2.207,-56.63,-9.278,-0.46,-0.221,-1.558,-31.674,-4.32,-3.289,2.977,-2.626,-19.217,9.922,24.608,3.435,1.918],[-81.526,-9.535,-2.904,-1.844,-2.069,-69.439,-11.424,-1.144,-2.535,-1.865,-66.837,-10.648,-2.486,-1.615,-2.242,-57.745,-16.306,4.985,-2.615,-1.035,-38.418,-15.947,1.654,0.785,-0.449,31.231,11.422,18.854,3.233,5.265],[-72.33,-37.258,-2.632,-2.691,-2.251,-73.613,-27.931,-1.682,-1.089,-2.108,-78.054,-32.544,-2.619,-0.696,-1.496,-67.027,-39.939,3.434,1.52,-0.677,-44.391,-33.056,-2.349,3.509,1.989,4.907,2.343,10.445,15.919,10.784]],
"kep": [[2.582,2.362,2.684,1.381,1.936,3.915,3.378,1.677,0.465,3.008,3.67,3.219,3.125,3.128,2.45,3.463,3.649,4.047,12.276,16.503,44.218,18.684,8.256,12.052,6.018,69.889,67.581,73.844,65.996,35.147],[3.725,3.962,2.326,1.519,2.057,8.005,3.382,2.327,2.177,2.456,11.24,4.305,2.342,2.795,2.43,0.624,6.953,4.951,4.471,0.293,-4.335,26.063,6.251,5.359,6.19,-1.68,35.057,15.875,14.189,-3.631],[-21.619,8.144,3.416,2.197,1.95,-16.029,5.142,3.418,3.664,2.616,-4.774,9.746,4.631,3.671,2.412,-29.821,36.282,11.584,4.282,4.854,-34.841,21.641,17.389,10.292,3.902,-32.892,3.571,19.101,12.892,9.586],[-49.589,5.969,6.209,4.013,3.569,-51.322,15.29,6.135,3.556,3.248,-45.914,18.022,6.2,4.477,3.354,-52.523,15.954,12.686,10.011,3.879,-51.168,1.747,27.172,12.676,6.028,-63.687,-6.872,15.445,39.945,13.066],[-79.789,9.181,8.903,6.328,3.871,-72.129,18.541,10.754,5.939,4.712,-67.361,8.7,8.932,5.736,4.674,-63.126,-4.978,31.686,9.412,7.424,-57.011,-22.176,26.741,18.47,11.749,-68.574,-24.904,22.187,17.396,21.986],[-80.124,-22.203,11.219,9.831,4.831,-80.072,-8.212,15.989,9.781,6.091,-78.836,-12.27,10.561,10.748,7.249,-78.271,-31.34,36.331,14.991,9.458,-69.265,-41.703,8.857,37.399,19.137,-75.229,-35.902,-0.489,25.058,39.606]],
"vp": [[97.049,134.492,55.435,228.612,162.39,29.06,23.99,29.473,23.595,9.296,3.749,17.467,2.419,0.946,-9.493,-20.043,-8.311,-4.106,-14.821,-17.796,-19,-19.913,-10.511,-11.526,-8.968,1.623,-25.408,-34.389,-29.66,-13.817],[645.352,359.807,244.987,508.321,454.958,61.857,53.21,83.554,101.64,54.013,62.616,37.824,29.501,18.971,17.825,19.205,-19.389,2.567,-7.015,19.051,-35.037,-32.803,-10.243,-6.189,-7.603,-6.363,-18.45,-18.359,-19.668,2.619],[3072.563,342.26,661.74,744.008,722.368,622.302,102.582,99.541,110.691,134.95,316.997,18.658,43.427,30.424,56.538,44.003,14.89,-0.459,-0.375,1.145,28.284,-51.08,-13.085,-16.031,-1.012,-19.475,-18.044,-12.284,-31.645,-15.123],[6121.801,740.182,543.361,591.76,604.36,1256.895,63.587,78.654,161.186,154.946,593.849,23.516,9.411,56.089,82.459,113.678,37.252,-1.334,-4.114,9.282,29.349,9.748,11.634,-15.587,12.521,5.623,-9.476,-41.312,-5.803,-12.309],[8258.654,1781.249,718.277,446.079,797.834,1395.59,469.541,30.273,172.292,122.239,680.711,205.419,59.231,34.044,82.364,115.15,66.442,-33.228,17.415,3.945,36.828,34.516,-6.411,-4.204,-0.239,-12.249,-13.844,-29.668,-7.932,-9.799],[7340.34,7280.56,586.352,932.64,738.459,1467.895,1108.865,94.407,44.8,150.092,777.16,642.872,54.257,8.569,43.061,132.732,160.301,-24.337,-17.921,1.314,47.435,66.619,7.105,-16.773,-12.527,-5.529,-3.268,-16.342,-34.745,-23.249]]
}