{
"KTrans": [[0.019,0.152,-0.016,0.144,-0.024,0.013,0.049,-0.082,-0.104,-0.012,-0.297,-0.068,0.227,-0.17,0.156,0.253,0.177,0.15,-0.2,0.086,0.271,-0.078,-0.05,0.238,0.117,0.21,0.126,0.172,-0.033,0.118],[0.482,0.068,-0.191,-0.024,0.114,-0.548,0.151,-0.061,-0.033,0.033,0.027,0.285,0.093,0.013,0.118,0.381,0.059,-0.036,0.065,0.012,0.2,0.078,0.149,0.135,-0.115,0.12,0.113,0.026,0.099,0.164],[-0.33,0.121,-0.147,0.128,0.107,0.072,-0.023,0.039,0.091,0.058,-1.371,0.184,0.052,0.011,0.09,-0.324,0.305,0.017,-0.001,0.042,-0.875,-0.072,-0.09,0.043,0.087,-0.63,-0.186,0.111,0.265,0.005],[-1.114,-0.146,0.013,0.034,0.069,-0.781,-0.016,0.204,-0.004,0.074,-1.473,0.231,-0.114,0.068,0.067,-0.383,0.087,0.19,0.053,0.027,-1.682,0.089,-0.041,-0.09,0.078,-1.99,0.341,-0.129,0.108,0.064],[-2.568,-0.259,0.041,0.031,-0.063,-2.569,-0.05,0.223,-0.074,-0.072,-2.62,-0.355,-0.055,0.112,0.049,-2.083,0.134,0.15,0.032,-0.056,-1.541,-0.269,0.049,-0.043,-0.007,-2.461,0.323,0.066,0.142,-0.022],[-4.148,0.255,-0.176,-0.094,0.054,-2.784,-0.295,-0.051,-0.072,0.09,-4.922,-0.183,0.066,0.12,0.001,-4.286,-0.109,-0.115,0.092,0.092,-3.586,-0.249,-0.141,0.188,0.004,-4.764,-0.165,-0.138,0.119,0.012]],
"ve": [[-0.239,0.045,0.175,-0.069,0.002,0.185,-0.025,0.025,0.116,0.21,0.022,0.162,-0.012,0.048,-0.306,-0.024,-0.191,-0.009,0.342,0.09,0.049,0.04,-0.015,-0.015,-0.092,-0.042,-0.087,-0.115,0.043,-0.135],[0.157,0.092,-0.107,0.076,-0.003,-0.15,-0.054,0.019,-0.024,0.008,0.036,0.052,0.044,-0.009,-0.051,-0.076,-0.021,0.005,0.037,0.019,0.048,-0.01,-0.076,-0.011,0.032,-0.014,0.106,0.012,0.046,0.038],[-0.064,0.008,0.002,0.025,0.001,-0.087,-0.072,-0.01,0.013,-0.028,-0.508,0.036,-0.012,-0.02,0.03,-0.302,-0.006,-0.028,-0.028,0.005,-0.398,-0.043,0.028,0.004,0.033,-0.4,-0.101,0.003,-0.024,0.011],[-0.637,-0.126,-0.026,0.031,0.009,-0.498,-0.07,0.025,-0.057,-0.015,-0.77,0.027,-0.074,-0.014,-0.027,-0.48,-0.018,-0.008,0.032,-0.014,-0.558,-0.056,-0.066,0.025,0.031,-0.596,-0.057,-0.011,0.005,0.052],[-1.103,-0.089,0.018,0.02,-0.022,-1.227,-0.075,-0.028,-0.021,-0.013,-1.077,-0.157,0.008,0.002,0.013,-1.086,0.015,-0.001,-0.047,0.031,-1.268,-0.072,-0.023,0.007,-0.023,-1.233,-0.063,-0.011,0.012,-0.035],[-2.013,-0.227,-0.024,-0.045,0.003,-1.769,-0.156,-0.076,0.042,0.012,-1.765,-0.152,0.039,0,0.033,-1.871,-0.101,0.005,-0.004,-0.029,-1.775,-0.072,0.048,0.044,0.009,-2.131,-0.051,-0.009,-0.009,0.009]],
"kep": [[0.264,0.119,-0.168,0.252,0.026,-0.165,0.089,-0.077,-0.178,-0.173,-0.311,-0.217,0.264,-0.184,0.503,0.285,0.381,0.186,-0.509,0.049,0.23,-0.101,-0.012,0.293,0.254,0.262,0.231,0.315,-0.038,0.313],[0.324,-0.022,-0.083,-0.099,0.119,-0.404,0.207,-0.079,-0.008,0.027,-0.008,0.234,0.051,0.023,0.171,0.455,0.08,-0.04,0.029,-0.006,0.152,0.089,0.226,0.147,-0.145,0.132,0.008,0.015,0.054,0.127],[-0.278,0.113,-0.149,0.103,0.106,0.154,0.049,0.049,0.078,0.086,-0.873,0.148,0.064,0.032,0.06,-0.028,0.312,0.045,0.028,0.038,-0.484,-0.029,-0.117,0.04,0.055,-0.226,-0.086,0.109,0.289,-0.005],[-0.485,-0.021,0.039,0.003,0.06,-0.276,0.053,0.179,0.053,0.089,-0.717,0.202,-0.039,0.082,0.095,0.095,0.103,0.199,0.021,0.041,-1.132,0.145,0.025,-0.115,0.047,-1.41,0.397,-0.118,0.104,0.012],[-1.491,-0.172,0.023,0.011,-0.041,-1.379,0.024,0.25,-0.053,-0.059,-1.575,-0.2,-0.064,0.11,0.036,-1.02,0.118,0.15,0.079,-0.087,-0.298,-0.198,0.072,-0.05,0.016,-1.267,0.385,0.077,0.131,0.013],[-2.192,0.483,-0.152,-0.049,0.052,-1.054,-0.139,0.024,-0.115,0.078,-3.209,-0.033,0.027,0.119,-0.032,-2.474,-0.008,-0.12,0.096,0.122,-1.857,-0.177,-0.189,0.144,-0.005,-2.741,-0.117,-0.129,0.128,0.003]],
"vp": [[9.001,1.7,-5.556,-1.332,5.964,-0.833,1.351,1.34,0.568,2.145,-0.577,0.758,-1.056,1.184,-0.506,0.012,-0.044,-0.17,0.104,-0.261,-0.07,0.096,-0.055,-0.105,0.05,-0.001,-0.008,0.004,-0.051,-0.012],[3.58,1.009,16.64,-9.936,-3.169,3.776,-0.862,0.701,0.092,0.682,0.663,-0.732,-1.267,-0.427,-0.3,0.054,-0.111,0.056,-0.087,0.086,-0.032,0.032,-0.119,-0.011,0.037,0.018,-0.053,-0.029,-0.034,-0.059],[12.368,0.981,20.79,-3.868,-8.352,3.211,0.413,-1.089,-1.833,1.245,4.517,-0.976,-0.169,1.178,-1.806,0.526,-0.211,0.044,0.098,0.114,0.368,0.024,-0.034,0.089,-0.14,0.174,0.032,-0.021,-0.018,-0.003],[64.051,30.081,0.749,-1.281,-4.052,12.513,0.993,-1.495,0.871,-1.457,8.047,-0.16,1.629,0.493,0.445,0.999,0.018,-0.276,-0.202,0.142,0.584,0.04,0.143,-0.007,-0.081,0.371,0.02,0.004,-0.01,-0.059],[114.121,13.141,4.427,-21.367,3.008,23.928,3.989,2.788,2.82,1.013,10.899,1.389,1.185,-0.288,-1.534,1.907,0.091,-0.026,0.179,0.028,1.25,0.124,-0.032,0.008,0.079,0.587,0.096,-0.017,-0.007,0.058],[209.432,41.508,1.892,6.327,4.543,31.332,6.142,3.637,-2.559,-1.104,18.049,3.848,-0.2,-0.309,-0.869,3.947,0.162,0.047,-0.046,0.163,1.753,0.159,-0.002,-0.155,0.02,1.096,0.009,-0.008,0.059,-0.016]]
}