{
"KTrans": [[2.604,1.66,1.25,1.166,0.884,12.117,7.817,6.373,5.607,5.248,25.508,15.956,12.864,11.501,10.615,161.543,93.923,75.044,65.831,60.732,403.961,224.564,175.854,153.988,141.551,1124.667,590.794,456.675,394.421,360.623],[2.505,1.121,0.828,0.666,0.626,9.982,5.991,4.001,3.286,2.87,21.679,11.795,8.303,6.717,5.664,133.134,64.873,44.616,35.724,30.799,323.373,145.378,98.756,77.786,66.222,870.718,357.589,233.345,179.837,151.08],[1.923,1.071,0.602,0.678,0.387,10.753,5.301,3.688,3.049,2.39,21.93,11.089,7.564,5.964,4.898,129.559,60.211,40.194,31.165,25.878,311.667,135.543,88.273,67.086,54.865,829.413,329.509,204.219,152.058,122.873],[1.745,0.702,0.733,0.692,0.422,10.835,5.592,3.506,2.815,2.355,21.699,10.427,7.237,5.599,4.493,127.27,59.566,38.652,29.553,23.933,309.092,131.649,84.408,63.02,51.171,819.422,320.929,195.174,142.222,112.351],[2.699,0.958,0.757,0.799,0.358,9.568,5.696,3.392,2.801,2.186,21.824,10.87,7.161,5.376,4.524,126.893,59.531,38.177,28.518,23.225,303.758,130.156,82.685,61.174,48.855,820.142,314.786,190.201,136.855,107.733],[2.04,0.664,0.737,0.568,0.527,9.474,5.181,3.59,2.566,2.228,22.244,10.719,6.964,5.356,4.348,127.53,57.655,37.675,28.334,22.5,300.342,129.462,81.729,60.106,47.688,791.989,310.163,188.03,134.55,104.53]],
"ve": [[0.935,0.055,-0.324,-0.688,-0.694,4.131,0.654,-1.406,-2.753,-4.273,8.587,1.469,-2.27,-5.088,-7.607,44.965,12.99,-1.615,-11.349,-18.777,93.057,33.188,7.873,-7.682,-18.533,191.309,78.793,34.969,10.176,-6.359],[0.982,0.449,0.288,0.161,0.095,4.904,2.31,1.361,0.836,0.463,9.784,4.713,2.719,1.651,0.928,49.404,23.591,14.3,9.05,5.542,99.162,47.792,29.414,19.344,12.492,198.872,96.785,60.81,41.408,28.66],[0.936,0.527,0.252,0.243,0.158,5.097,2.417,1.533,1.133,0.799,9.95,4.855,3.153,2.271,1.666,49.772,24.462,15.836,11.316,8.444,99.752,49.144,31.919,22.944,17.228,199.58,98.86,64.523,46.764,35.588],[1.037,0.469,0.32,0.22,0.155,5.077,2.456,1.592,1.189,0.924,9.955,4.994,3.202,2.376,1.804,49.907,24.796,16.231,11.921,9.21,99.963,49.569,32.621,23.948,18.643,199.859,99.441,65.574,48.354,37.736],[0.988,0.422,0.306,0.27,0.192,4.952,2.522,1.626,1.224,0.937,10.003,4.998,3.283,2.387,1.894,49.875,24.893,16.434,12.127,9.564,100.046,49.755,32.934,24.372,19.17,199.902,99.632,66.008,48.989,38.658],[1.019,0.445,0.293,0.248,0.204,5.008,2.443,1.643,1.221,0.995,9.956,4.988,3.279,2.462,1.945,50.06,24.91,16.483,12.279,9.673,99.896,49.857,33.02,24.578,19.472,199.978,99.693,66.163,49.308,39.058]],
"kep": [[1.662,1.616,1.597,1.884,1.617,7.678,7.126,7.907,8.613,9.975,15.587,14.284,15.499,17.497,19.742,80.419,71.633,77.926,87.074,97.905,161.047,143.694,155.727,175.126,196.511,320.404,286.365,312.45,348.761,391.906],[1.512,0.669,0.539,0.505,0.532,4.844,3.598,2.606,2.43,2.397,10.834,6.765,5.437,4.984,4.693,56.042,33.402,26.523,24.46,23.931,112.578,66.028,53.582,48.969,47.764,224.786,132.532,107.29,97.894,95.149],[0.979,0.541,0.349,0.434,0.229,5.385,2.816,2.122,1.894,1.579,10.894,5.945,4.277,3.61,3.179,53.269,28.721,21.028,17.831,16.076,106.085,57.93,42.718,35.904,32.106,210.219,115.984,84.908,71.743,64.374],[0.703,0.231,0.412,0.471,0.267,5.483,3.06,1.884,1.606,1.418,10.684,5.174,3.909,3.148,2.641,51.604,27.86,19.289,15.754,13.482,104.574,54.876,39.047,31.522,27.416,206.594,111.05,78.271,63.272,54.172],[1.69,0.534,0.449,0.527,0.166,4.397,3.095,1.738,1.558,1.237,10.749,5.592,3.755,2.919,2.58,51.385,27.732,18.673,14.617,12.468,101.831,53.688,37.423,29.589,24.908,206.797,107.768,74.809,58.973,49.816],[1.011,0.217,0.442,0.318,0.321,4.25,2.671,1.915,1.328,1.22,11.173,5.457,3.567,2.825,2.356,51.614,26.212,18.192,14.299,11.695,100.266,53.119,36.617,28.517,23.616,197.324,105.39,73.339,57.089,47.082]],
"vp": [[-13.712,0.248,-14.534,-3.759,-3.676,-3.69,-5.016,-7.535,-4.055,-5.116,-7.571,-4.947,-5.49,-5.809,-5.347,-6.097,-5.728,-5.6,-5.485,-5.521,-6.235,-5.886,-5.714,-5.639,-5.653,-6.364,-5.743,-5.723,-5.589,-5.598],[-11.963,-3.991,-0.473,-4.843,-9.738,-7.19,-6.031,-6.774,-6.629,-6.48,-7.621,-6.519,-7.525,-7.506,-7.344,-7.705,-6.707,-5.988,-6.004,-5.592,-7.443,-6.567,-6.204,-6.098,-5.904,-7.543,-6.854,-6.035,-6.087,-6.086],[10.778,0.885,-12.05,-8.414,-13.826,-6.085,-6.043,-6.794,-5.581,-9.377,-6.819,-6.703,-6.705,-6.005,-5.716,-7.917,-7.449,-7.049,-6.699,-6.407,-8.293,-7.367,-6.424,-6.452,-6.143,-8.44,-7.384,-6.629,-6.37,-6.252],[24.327,-14.062,-14.206,-8.126,-8.263,0.297,-5.283,-8.662,-3.79,-5.55,-5.419,-7.603,-8.299,-6.54,-8.165,-8.983,-7.67,-7.444,-6.871,-6.892,-8.679,-7.881,-7.162,-6.704,-6.563,-8.621,-7.594,-7.04,-6.819,-6.485],[71.974,-21.401,0.55,6.249,-10.234,1.452,-8.252,-8.784,-6.372,-7.841,-3.78,-7.846,-8.901,-7.795,-6.546,-8.809,-8.129,-7.579,-7.535,-7.066,-9.304,-8.325,-7.535,-6.994,-6.849,-9.182,-8.09,-7.674,-7.258,-6.844],[110.792,-7.198,-13.011,-1.452,-7.876,13.78,-6.827,-8.333,-10.66,-8.975,1.743,-7.436,-7.917,-7.574,-7.307,-7.994,-8.531,-8.03,-7.337,-7.11,-9.477,-8.815,-7.811,-7.405,-7.164,-8.631,-8.747,-7.946,-7.321,-7.192]]
}