{
"KTrans": [[-0.247,0.391,-0.203,-0.326,0.084,-1.013,-0.872,-0.305,0.055,-0.271,-1.015,-0.886,-1.099,-0.227,-0.285,7.462,-0.758,-1.306,-0.643,-4.704,9.697,0.689,4.658,4.541,2.894,96.534,34.71,16.179,12.34,13.276],[1.434,0.776,1.044,0.325,0.421,0.786,0.442,0.068,0.036,0.205,1.904,-1.215,0.328,0.11,0.876,-7.369,-4.104,-5.379,0.653,-1.75,0.676,-2.861,-2.601,-4.593,-0.929,11.58,2.108,-0.781,3.907,-0.464],[-5.112,3.249,1.594,1.177,0.772,-1.961,2.581,1.303,0.541,0.38,-5.584,0.896,0.87,0.771,0.287,-10.812,-5.941,-5.198,-3.947,-1.179,-4.29,-14.377,-14.648,-4.652,-6.426,15.01,-0.27,-7.228,-3.89,-5.521],[-19.586,5.459,1.98,1.304,1.412,-13.891,5.013,1.828,1.69,0.637,-22.8,3.127,0.324,1.194,0.478,-15.929,-2.963,-1.582,0.41,-0.422,-34.175,-1.807,-9.551,-7.47,-4.608,-19.843,43.609,-2.184,-8.067,-8.661],[-49.363,7.726,5.109,3.153,2.209,-52.622,7.158,4.535,2.301,1.713,-61.044,9.574,3.228,1.865,1.272,-45.969,-6.285,-0.971,-2.253,-0.268,-43.404,-1.471,-5.494,-1.996,-7.174,-38.723,30.812,1.253,-7.356,2.624],[-73.623,13.473,6.656,3.727,3.029,-64.88,14.308,6.982,3.481,2.093,-65.827,7.887,4.825,3.258,1.239,-68.096,7.428,-0.96,0.305,-1.148,-56.723,5.331,-13.045,-10.999,-2.129,-72.294,34.213,-4.587,-15.723,-4.826]],
"ve": [[-0.99,-0.02,-0.362,0.403,0.09,-0.689,-0.158,0.316,-0.249,0.714,-0.904,0.089,0.736,0.587,0.663,4.344,5.595,8.727,14.762,35.579,-6.044,-4.392,-418.073,131.562,-38.429,15.921,221.956,-129.13,-98.573,-72.036],[-0.529,-0.002,-0.414,-0.342,-0.212,-0.739,-0.555,-0.37,-0.293,-0.195,-1.122,-0.956,-0.495,-0.394,-0.186,-5.783,-2.316,-2.645,-0.018,-0.483,-30.843,-1.998,-1.181,-1.113,0.641,-77.601,4.715,20.592,8.266,8.684],[-3.55,0.448,0.04,-0.12,-0.233,-3.524,0.097,-0.036,-0.442,-0.338,-4.481,-1.148,-0.41,-0.338,-0.292,-16.024,-4.349,-3.462,-2.556,-0.803,-23.859,-11.441,-9.184,-2.733,-2.905,-34.333,-14.634,-4.705,-2.748,-2.163],[-12.436,0.994,-0.03,-0.009,-0.032,-12.253,0.93,-0.252,-0.166,-0.346,-15.774,0.007,-0.988,-0.12,-0.508,-26.714,-3.385,-1.615,-0.21,-0.65,-39.639,-9.565,-6.916,-4.621,-2.77,-30.21,-30.533,-7.852,-6.172,-5.426],[-36.307,1.673,0.82,0.562,0.24,-38.732,1.321,0.764,0.042,-0.062,-50.443,2.008,0.456,-0.042,-0.287,-39.018,-6.771,-1.228,-1.915,-0.916,-35.803,-21.846,-4.768,-2.013,-4.548,-41.353,-29.833,-6.352,-6.245,0.817],[-63.782,3.295,1.536,0.489,0.353,-63.85,3.327,1.701,0.538,0.011,-54.957,0.727,0.518,0.334,-0.316,-54.604,-0.753,-2.162,-0.651,-1.259,-38.181,-35.431,-10.511,-8.312,-1.891,-105.472,-11.266,-19.26,-13.574,-4.009]],
"kep": [[0.731,0.501,0.273,-0.524,0.35,-0.416,-0.653,-0.442,0.575,-0.503,-0.494,-0.927,-1.54,-0.388,-0.396,-3.206,-5.328,-4.725,-4.123,-12.459,-23.991,-16.802,-8.89,-5.372,-9.618,-6.6,-22.395,-30.717,-37.64,-32.748],[1.738,0.754,1.462,0.671,0.643,1.015,0.959,0.429,0.327,0.405,2.387,-0.369,0.793,0.485,1.061,-15.765,-4.235,-3.994,0.158,-1.568,-72.768,-9.882,-5.223,-5.446,-2.526,-28.341,-35.966,-15.938,-6.784,-7.68],[-2.733,2.73,1.543,1.298,1.006,-0.099,2.395,1.314,0.977,0.717,-3.873,1.9,1.242,1.089,0.569,-42.424,-4.512,-2.883,-2.017,-0.711,-54.168,-16.279,-10.783,-4.343,-5.044,-45.387,-43.101,-17.371,-10.417,-8.422],[-11.604,4.283,1.973,1.306,1.442,-10.16,3.77,2.057,1.847,0.98,-17.887,2.802,1.255,1.275,0.975,-52.065,-2.933,-0.923,0.07,-0.135,-55.807,-14.469,-7.576,-5.543,-3.426,-49.696,-81.181,-20.71,-13.428,-9.435],[-38.817,5.442,4.192,2.562,1.96,-45.211,5.103,3.682,2.227,1.767,-59.418,6.705,2.646,1.862,1.544,-60.65,-4.033,-0.96,-0.961,0.316,-64.083,-44.933,-5.816,-2.673,-4.42,-66.901,-62.12,-27.174,-12.926,-3.788],[-74.447,8.491,4.923,3.197,2.655,-75.383,8.969,5.037,2.874,2.063,-70.231,5.424,4.076,2.849,1.531,-73.95,-3.327,-0.107,0.194,-0.224,-70.095,-69.352,-9.281,-5.67,-1.821,-74.838,-48.416,-47.147,-17.658,-6.898]],
"vp": [[63.55,38.714,69.319,47.138,24.159,16.077,22.127,4.334,7.118,13.796,8.868,10.776,10.594,5.099,6.392,-5.778,6,6.709,3.507,14.405,5.434,8.377,2.476,1.334,2.774,-11.279,0.248,5.692,7.18,4.57],[44.182,-11.604,0.337,69.19,4.335,11.646,4.663,24.651,18.36,13.729,9.613,17.019,8.211,9.25,-8.903,15.927,9.971,19.47,-1.087,10.54,32.1,6.104,6.587,11.614,3.729,14.002,12.068,7.974,0.753,5.159],[370.767,-103.395,-23.302,-47.028,-0.233,71.125,-13.989,-5.565,17.863,16.397,45.662,18.89,5.016,1.788,6.603,30.442,17.716,22.213,21.774,8.559,23.588,24.41,31.035,12.618,19.096,15.912,14.833,13.061,9.593,10.476],[1226.569,-253.08,-61.65,-58.135,-47.598,252.315,-42.626,3.656,-10.045,19.586,156.413,-4.812,25.302,-2.187,18.726,54.545,13.209,8.299,-0.477,4.938,38.357,7.366,21.83,19.942,14.757,17.496,31.836,8.479,14.369,15.914],[3663.06,-403.19,-315.143,-313.234,-210.214,779.158,-56.429,-59.086,-14.67,-5.491,507.959,-43.83,-17.967,-1.701,6.666,76.848,27.476,5.703,14.356,7.83,33.809,43.179,14.27,7.337,23.685,19.804,29.252,8.032,13.448,-3.221],[6467.897,-698.193,-545.591,-233.345,-249.958,1289.876,-132.055,-118.328,-53.577,-20.844,546.669,-18.807,-20.753,-21.526,7.089,115.586,2.773,11.61,3.086,10.759,36.212,71.715,32.296,34.267,8.49,54.714,7.886,28.913,29.09,10.015]]
}