{
"KTrans": [[41.795,23.971,17.519,22.063,23.008,50.486,24.934,31.055,25.266,16.367,72.963,40.399,40.557,29.424,26.842,252.354,124.031,91.211,92.227,76.753,554.304,276.525,209.953,186.267,168.651,1312.399,677.865,516.091,455.672,407.577],[-19,77.128,32.28,33.397,26.429,31.44,64.051,37.292,35.271,22.561,140.125,91.371,38.925,30.506,20.784,197.667,162.795,92.02,82.842,62.039,532.305,263.709,163.469,118.347,101.723,1334.535,574.512,358.645,243.048,206.335],[-150.079,260.099,70.31,54.965,28.1,-171.681,240.573,85.883,49.272,41.9,-120.202,314.297,69.86,60.708,36.885,-244.685,460.196,151.938,80.471,71.479,-197.331,737.028,200.787,139.784,102.834,-390.573,1351.722,389.382,239.212,189.003],[-141.476,-122.311,170.17,84.79,63.814,-130.866,-102.44,242.574,107.779,69.216,-141.644,-155.886,138.936,108.348,65.986,-156.77,-114.329,264.242,141.485,96.814,-265.55,-151.151,433.742,177.878,152.671,-368.234,-263.401,789.6,350.206,218.075],[-129.456,-146.864,197.362,176.751,99.098,-119.397,-156.739,266.587,203.332,85.975,-130.293,-140.079,359.72,166.364,113.432,-135.292,-175.881,206.235,246.705,136.704,-162.378,-303.724,424.159,332.517,193.346,-185.674,-264.582,992.949,489.281,300.299],[-119.774,-141.502,-116.236,473.09,161.132,-137.233,-149.247,-159.597,578.86,175.77,-123.329,-161.411,-187.893,560.2,161.528,-108.003,-173.469,-48.063,700.473,196.79,-149.937,-112.593,-107.662,756.707,308.605,-214.995,-181.925,-240.161,1136.667,437.832]],
"ve": [[1.722,1.361,2.787,7.023,13.993,4.607,1.669,0.951,3.503,13.528,10.417,2.378,-2.678,-1.728,0.494,47.318,13.1,-2.846,-11.224,-19.711,94.22,33.443,8.278,-7.727,-19.043,190.934,79.348,35.436,11.201,-6.211],[0.898,3.059,0.949,1.653,1.173,6.315,2.654,1.66,2.086,1.267,14.145,7.021,2.379,2.051,1.025,51.607,24.919,15.55,11.498,6.342,101.136,47.859,30.357,20.36,13.239,200.54,97.253,64.667,42.813,30.34],[3.696,2.781,0.624,2.425,0.136,7.153,2.742,3.202,1.628,2.226,9.352,7.537,1.799,4.143,2.075,53.362,26.492,18.741,11.762,9.61,100.99,52.341,31.047,24.183,17.751,199.668,101.674,65.203,47.451,36.556],[4.974,-0.09,1.1,1.397,2.593,8.419,2.026,5.06,4.402,2.967,12.443,7.279,1.834,4.909,4.004,51.242,31.132,16.114,13.615,11.329,100.558,51.62,34.763,24.615,22.492,203.601,98.22,68.899,50.957,38.499],[4.144,3.547,3.047,2.02,1.702,6.953,6.506,2.965,4.033,2.036,11.825,5.441,7.77,4.443,4.127,53.534,26.742,15.087,13.537,11.368,100.979,52.264,35.256,26.328,22.483,199.362,99.317,68.94,51.899,41.804],[1.579,3.057,0.939,1.672,2.147,8.895,4.038,4.369,4.622,4.151,12.182,5.603,3.375,4.635,2.719,47.694,26.059,16.209,13.56,10.866,99.959,50.956,37.014,25.623,22.976,200.81,101.144,67.42,50.828,42.113]],
"kep": [[34.654,22.624,19.772,29.191,34.399,38.836,22.46,34.23,33.724,24.166,51.83,35.963,46.052,39.041,42.2,133.861,94.522,93.346,114.809,118.945,230.813,177.385,182.263,205.757,227.492,379.7,329.257,350.497,395.761,435.702],[-25.048,64.101,26.633,28.609,23.475,17.12,51.628,29.938,29.774,19.618,99.556,71.176,30.002,24.685,17.592,88.519,101.61,61.56,60.878,49.557,203.468,136.176,96.128,77.467,74.536,367.087,231.973,173.408,135.435,131.053],[-139.294,225.543,59.144,45.683,23.384,-156.35,203.841,70.892,39.905,34.369,-111.015,259.737,55.927,48.733,29.54,-184.689,315.023,103.728,55.209,51.529,-140.087,423.05,117.195,86.319,66.528,-186.818,592.029,185.026,123.284,106.005],[-133.768,-111.862,146.942,71.651,53.658,-122.407,-95.199,206.346,90.101,57.167,-131.005,-139.806,115.016,88.786,53.657,-131.298,-102.953,190.653,101.544,69.756,-173.583,-121.197,273.93,112.14,100.326,-183.169,-167.097,404.541,186.945,120.844],[-123.509,-136.131,169.169,152.653,84.217,-113.443,-144.205,224.958,172.848,72.047,-122.192,-127.937,300.291,139.233,93.984,-118.358,-148.566,145.251,184.938,101.572,-125.775,-219.869,262.308,222.594,129.79,-123.532,-169.762,515.102,271.626,171.689],[-115.492,-131.988,-106.367,413.488,139.14,-130.806,-138.358,-145.466,501.126,149.858,-116.867,-147.747,-169.379,478.732,135.823,-101.027,-148.868,-51.396,546.684,150.258,-120.667,-101.256,-97.012,529.522,215.697,-133.61,-132.234,-168.781,668.179,260.792]],
"vp": [[1702.583,1632.933,1378.254,1759.354,1915.75,316.944,291.874,396.954,361.163,303.925,165.143,175.393,174.625,170.055,165.389,39.544,28.883,29.473,34.111,30.116,18.209,15.733,16.157,16.391,16.986,6.693,7.775,7.735,8.327,8.287],[6151.24,5683.834,4272.399,5361.104,5353.684,1143.367,866.211,944.609,1010.409,849.335,672.05,551.992,462.614,462.043,427.179,116.573,106.584,90.93,111.541,105.377,55.158,48.614,52.533,42.867,48.925,26.773,25.313,29.988,25.959,27.131],[8727.589,8550.807,7778.844,8886.314,7282.112,1722.741,1563.239,1610.712,1596.26,1650.743,707.295,879.345,664.533,846.022,721.732,195.606,160.893,157.732,129.773,170.911,86.22,97.773,75.5,81.992,77.663,37.024,46.148,41.682,35.646,38.411],[11889.425,10913.82,10673.651,11415.901,11964.688,2043.397,2512.604,2647.644,2565.691,2534.875,1140.477,1025.932,802.073,1237.742,1103.084,198.259,276.383,200.237,243.197,243.174,97.007,117.46,113.425,106.746,133.746,58.048,56.083,64.259,63.76,59.638],[12718.32,14758.264,16355.939,14787.136,15523.652,2429.261,3530.909,2972.491,3265.351,2459.301,1184.259,1409.134,1902.086,1304.61,1672.157,253.709,286.613,256.995,296.254,303.838,121.905,166.275,158.768,139.815,161.547,50.701,55.78,76.391,74.182,83.566],[11166.384,18570.447,18924.099,16978.587,18507.22,2652.211,3533.742,3868.458,4101.094,3518.99,1291.013,1589.211,1935.927,1716.865,1634.218,223.817,355.213,307.863,337.727,343.992,119.988,184.561,231.742,159.069,197.644,60.191,85.048,103.478,91.215,98.992]]
}