{
"KTrans": [[2.415,1.632,0.981,0.901,1.331,12.376,8.183,6.249,5.722,5.236,25.811,16.63,13.319,11.528,11.019,164.045,92.652,74.589,66.881,61.421,404.615,226.49,176.796,154.353,141.707,1100.973,589.98,457.195,392.998,358.467],[2.202,1.261,1.225,0.139,0.762,9.965,5.31,3.702,3.242,2.717,21.217,11.322,8.029,6.821,5.808,132.776,65.153,43.917,36.606,30.538,320.784,143.913,98.941,78.013,66.346,845.395,357.181,233.496,179.951,150.902],[3.334,1.09,0.96,-0.219,0.219,6.769,6.285,3.865,3.196,2.589,19.22,10.906,8.058,6.449,4.61,124.823,59.871,40.152,31.237,26.087,304.292,135.676,88.551,67.148,54.837,768.653,334.989,201.102,150.782,123.771],[-4.456,0.219,1.135,0.915,0.145,4.674,5.017,3.329,2.495,2.57,16.192,11.115,7.305,5.741,3.949,115.325,61.445,38.591,28.705,24.567,273.228,129.236,83.326,62.883,50.351,688.097,314.65,195.143,140.796,111.964],[-5.748,-1.117,0.055,0.681,0.924,1.173,5.536,3.471,2.45,2.031,11.405,10.485,7.353,6.44,3.81,111.872,59.599,38.271,28.331,23.624,249.403,127.697,84.052,61.096,48.256,627.517,303.993,188.456,136.141,107.353],[-12.796,0.857,-0.171,0.606,0.137,-1.258,5.939,3.256,3.256,2.242,6.203,10.527,7.008,5.701,4.665,91.665,55.074,37.367,29.768,22.954,218.078,124.507,85.411,59.542,48.105,571.906,301.77,185.352,135.989,105.266]],
"ve": [[1.054,0.156,0.681,-0.039,-1.08,4.192,1.022,-1.236,-2.945,-3.137,9.093,1.311,-2.336,-4.632,-7.453,45.146,13.072,-1.303,-11.665,-18.985,93.16,32.935,7.956,-7.582,-18.517,191.654,79.376,35.01,10.207,-6.442],[0.948,0.485,0.301,0.164,-0.113,5.075,2.357,1.427,0.849,0.543,10.092,4.509,2.778,1.536,1.009,49.065,23.546,14.224,9.198,5.523,99.428,47.864,29.48,19.452,12.369,198.981,96.724,60.873,41.448,28.742],[1.556,0.398,0.29,0.077,-0.034,5.124,2.558,1.511,1.084,0.843,9.77,5.032,3.249,2.19,1.587,50.21,24.602,15.722,11.37,8.314,100.178,49.285,31.932,23.166,17.242,200.151,99.193,64.436,46.819,35.527],[1.357,0.494,0.294,0.375,0.29,4.818,2.401,1.674,1.242,1.023,10.153,4.948,3.496,2.476,1.73,50.009,25.035,16.474,11.954,9.168,100.633,49.397,32.551,24.025,18.542,200.462,99.59,65.655,48.354,37.747],[1.183,0.535,0.149,0.279,0.241,5.207,2.375,1.732,1.096,0.891,10.453,4.956,3.337,2.384,1.778,50.507,24.961,16.55,12.085,9.684,100.485,49.976,32.88,24.5,19.04,200.481,99.648,66.119,49.183,38.653],[1.387,0.526,0.339,0.241,0.241,5.124,2.652,1.785,1.239,1.094,10.316,5.076,3.351,2.365,1.939,50.212,25.051,16.481,12.285,9.67,100.554,50.087,33.34,24.659,19.492,201.383,99.892,66.252,49.442,39.098]],
"kep": [[1.472,1.674,0.519,1.347,2.846,8.009,7.25,7.827,9.267,9.196,15.437,15.284,16.311,17.253,20.404,82.017,70.501,77.022,89.101,99.457,161.335,145.664,156.473,175.368,196.786,311.815,284.702,312.754,347.421,390.113],[1.238,0.791,0.94,-0.012,0.892,4.668,2.906,2.258,2.389,2.177,10.172,6.537,5.12,5.221,4.764,56.256,33.684,26.005,25.112,23.719,111.017,64.966,53.655,49.029,48.043,216.177,132.392,107.307,97.922,94.89],[1.772,0.692,0.671,-0.292,0.256,1.612,3.626,2.317,2.095,1.733,8.665,5.607,4.662,4.173,2.979,49.795,28.311,21.12,17.84,16.41,101.941,57.875,42.913,35.706,32.064,189.395,118.372,83.109,70.807,65.108],[-5.693,-0.263,0.844,0.537,-0.146,-0.142,2.567,1.629,1.244,1.533,5.498,5.899,3.68,3.19,2.178,43.529,29.112,18.986,14.957,14.105,86.086,53.438,38.3,31.321,26.834,162.247,107.72,78.155,62.301,53.879],[-6.764,-1.643,-0.088,0.395,0.676,-3.857,3.084,1.715,1.335,1.125,0.877,5.266,3.88,3.957,1.993,40.819,27.723,18.639,14.491,12.705,74.316,51.804,38.498,29.384,24.536,142.09,102.309,73.631,58.278,49.543],[-14.001,0.32,-0.511,0.362,-0.116,-6.031,3.225,1.441,1.985,1.129,-3.673,5.199,3.532,3.258,2.665,27.556,24.011,17.929,15.565,12.111,58.642,49.577,39.041,27.973,23.933,122.945,100.962,71.611,57.893,47.557]],
"vp": [[-19.042,-7.306,-4.016,8.882,29.583,-14.927,-7.724,-12.337,-11.542,-13.51,-8.989,-13.438,-10.046,-13.01,-11.387,-13.211,-11.647,-11.621,-11.83,-11.832,-12.148,-11.298,-11.345,-11.248,-11.718,-12.929,-11.815,-11.568,-11.476,-11.215],[111.257,0.4,17.379,-24.058,11.447,15.947,-9.615,-10.589,-12.222,-5.568,-2.35,-11.209,-11.903,-13.16,-10.006,-13.302,-12.15,-13.637,-11.93,-12.064,-13.015,-13.022,-12.138,-12.435,-11.988,-13.701,-13.425,-12.515,-12.115,-12.045],[398.686,61.133,-13.703,-54.669,-25.933,43.41,3.031,-21.638,-12.388,-10.197,11.959,-10.353,-12.086,-13.197,-13.906,-7.357,-13.912,-14.162,-12.208,-13.34,-11.699,-14.484,-13.413,-12.459,-11.646,-12.432,-13.609,-13.392,-13.053,-12.499],[696.835,95.054,-28.087,32.609,-2.397,130.055,-3.824,-6.088,0.195,-11.627,51.09,-3.189,-12.896,-14.064,-14.118,-3.082,-12.997,-13.898,-12.213,-13.086,-8.013,-14.987,-14.344,-13.226,-12.965,-9.722,-14.465,-14.101,-14.353,-14.26],[1161.813,112.026,50.72,25.585,64.501,221.807,7.435,-3.405,-25.578,-16.871,106.027,-7.685,-3.426,-5.774,-13.104,11.651,-12.669,-13.674,-15.027,-13.979,-2.248,-14.445,-15.078,-14.161,-14.627,-6.513,-14.627,-14.829,-14.285,-14.287],[1743.205,280.881,113.955,51.006,45.987,301.14,59.739,8.005,-9.858,-0.411,150.251,20.082,-1.25,-14.873,-8.158,23.667,-11.588,-13.765,-13.611,-13.188,2.274,-13.714,-13.053,-14.658,-14.141,-2.026,-13.798,-14.753,-13.626,-13.762]]
}