{
"KTrans": [[14.837,17.417,24.435,14.953,9.428,35.399,21.015,24.89,18.056,18.031,64.663,47.506,32.252,33.628,27.197,174.226,128.04,109.774,91.045,87.663,446.422,270.502,211.749,199.086,168.804,1216.345,692.51,520.983,433.044,408.479],[-51.356,52.995,37.823,16.546,20.133,-70.596,58.498,54.042,34.676,24.129,-62.355,70.031,48.3,29.97,35.489,-26,158.751,88.928,63.227,72.532,80.561,304.898,150.572,113.342,84.418,187.059,548.805,341.978,248.525,214.454],[-88.15,21.015,72.413,45.851,44.717,-95.089,13.349,80.704,50.779,24.709,-82.613,44.112,84.782,58.557,31.22,-86.316,109.341,120.358,88.291,71.409,-9.275,154.522,201.971,139.211,99.99,31.436,443.827,408.74,229.473,186.557],[-106.067,-98.293,71.764,86.075,44.799,-110.291,-106.99,117.886,72.88,44.081,-109.92,-80.369,89.909,113.243,58.027,-120.629,-61.124,178.976,138.857,79.682,-125.102,-21.433,175.597,191.104,130.104,-59.119,-50.392,438.026,319.617,196.204],[-106.606,-117.143,-3.405,118.011,102.754,-105.402,-102.6,-7.543,125.401,92.701,-113.126,-93.575,-62.973,177.926,102.62,-108.719,-94.75,38.641,149.448,123.188,-97.313,-117.527,70.958,248.876,166.051,-61.513,-70.704,202.637,373.776,268.157],[-109.804,-126.944,-86.455,87.483,166.609,-111.436,-119.29,-83.899,49.176,144.66,-105.962,-113.435,-87.694,68.736,171.588,-105.451,-100.727,-98.236,72.555,167.429,-98.129,-96.486,-90.001,238.417,217.026,-100.03,-108.751,-145.819,265.803,337.733]],
"ve": [[7.466,9.749,-19.414,11.403,133.801,12.387,-5.993,10.773,8.852,21.983,18.441,5.582,4.745,53.254,9.355,75.464,16.828,1.039,-9.982,-17.609,97.723,32.407,10.987,-7.042,-18.214,197.825,79.507,36.875,10.077,-4.745],[6.301,1.87,1.433,1.341,0.909,16.803,2.999,4.7,3.366,1.972,13.494,5.063,5.429,2.743,2.782,52.793,26.686,15.868,10.241,7.623,-103.503,50.757,31.404,18.107,11.35,201.151,98.028,64.079,44.57,32],[5.429,4.703,0.569,1.623,2.411,-3.616,3.627,2.026,3.097,0.954,-9.499,6.936,4.209,4.135,1.745,53.559,27.19,17.23,12.716,8.756,94.598,51.349,32.076,25.481,18.976,208.382,99.071,67.075,45.93,36.98],[6.257,1.003,1.159,0.981,0.343,10.204,8.094,4.09,3.1,1.327,11.039,7.428,4.776,5.485,3.412,83.946,18.838,19.484,14.587,9.716,112.018,47.137,33.088,26.866,18.952,197.092,101.952,70.384,50.462,38.538],[-6.479,6.457,3.812,1.036,3.202,7.546,4.994,4.677,1.708,3.043,16.458,26.84,5.026,4.213,2.93,44.726,23.592,19.474,11.291,10.761,101.887,35.407,34.765,25.079,21.616,197.663,101.591,69.377,51.324,38.927],[3.756,-1.14,2.339,-3.414,3.781,4.804,12.345,3.483,0.489,3.285,6.22,28.902,1.512,3.189,4.956,54.222,23.309,16.639,12.377,11.468,101.47,50.755,34.346,28.778,20.727,200.236,98.769,69.479,50.113,39.873]],
"kep": [[2.973,11.862,26.136,17.07,10.637,24.014,15.67,26.097,20.02,24.486,42.051,41.685,34.417,43.064,40.404,80.47,93.746,108.146,114.773,132.765,173.261,175.288,179.525,220.947,226.774,341.443,337.498,350.678,380.064,431.102],[-55.234,43.784,31.785,12.719,18.389,-75.804,47.314,43.847,28.167,20.754,-67.642,54.73,37.114,24.095,30.773,-49.815,95.953,58.893,44.85,58.016,-10.999,161.381,85.997,75.825,61.966,-3.378,219.819,164.923,137.572,135.144],[-87.739,8.174,61.678,38.339,37.687,-93.749,-0.167,66.893,40.747,19.581,-82.84,28.035,67.905,46.832,24.533,-87.158,55.372,79.849,61.232,52.973,-54.618,61.962,118.489,84.655,63.676,-55.581,162.363,194.335,118.393,103.921],[-103.125,-96.818,57.47,73.405,37.685,-105.761,-104.066,96.111,59.446,35.307,-107.079,-80.842,70.29,91.883,45.983,-111.899,-68.195,120.711,98.688,56.804,-109.98,-47.082,96.068,119.237,84.299,-83.553,-70.566,208.837,167.204,106.19],[-104.082,-111.824,-9.705,99.577,87.598,-102.929,-97.963,-14.386,105.048,77.128,-109.028,-89.129,-63.257,147.037,85.719,-104.413,-90.483,9.14,107.007,91.79,-95.729,-106.629,22.265,161.98,109.853,-84.831,-81.014,75.328,199.694,151.563],[-107.599,-121.147,-84.126,68.857,141.871,-108.766,-113.073,-81.781,36.326,121.88,-103.576,-107.851,-84.997,49.929,143.579,-102.297,-94.946,-94.097,42.714,125.318,-97.239,-93.366,-87.23,150.28,148.078,-97.333,-99.587,-120.605,131.169,196.863]],
"vp": [[2484.926,1481.167,1996.472,1302.393,1359.514,363.443,270.259,346.407,337.999,321.979,243.344,166.27,124.025,207.945,186.651,38.935,38.368,36.184,29.776,37.742,23.852,15.659,16.083,17.484,16.154,10.248,8.947,7.795,8.16,6.517],[6396.443,5246.348,4655.799,4217.737,4010.124,1442.782,989.423,1114.792,992.697,864.707,657.153,538.504,467.831,462.934,455.848,102.913,121.128,86.59,85.644,126.087,56.364,54.876,52.832,43.014,39.305,31.132,26.683,21.998,25.043,28.026],[7214.78,11449.175,8339.318,7722.659,8945.294,1528.456,2226.786,1692.061,1524.335,1219.228,666.828,1013.477,884.199,795.484,686.121,165.958,227.568,145.801,162.545,149.383,75.405,100.971,80.39,84.671,73.597,42.398,44.363,44.708,36.524,36.695],[9574.881,12456.967,11922.005,11424.22,9024.369,1908.413,2771.093,2769.832,2024.66,1930.332,919.747,1248.48,1123.134,1349.442,1110.599,209.638,258.206,263.411,258.052,203.247,94.995,109.753,107.513,126.097,122.323,43.117,71.567,68.614,64.947,50.773],[9493.708,16790.586,17011.18,13980.617,16713.833,1846.731,3303.299,3317.036,3107.801,3118.2,1001.437,1298.167,1704.757,1715.239,1476.412,211.705,246.273,366.527,265.185,299.638,101.583,140.463,156.104,142.847,144.622,43.775,68.725,91.48,81.479,75.577],[11416.145,16835.587,19695.265,20259.849,22247.16,2275.165,3514.261,3360.814,3444.278,3635.061,1029.485,1613.311,1911.914,2069.564,2132.251,210.513,289.13,359.177,354.074,362.884,97.759,161.493,184.853,213.901,173.854,51.529,82.635,106.104,104.791,85.533]]
}