{
"KTrans": [[-44.441,-75.528,-71.795,-71.578,-67.291,-27.62,-64.186,-59.19,-64.636,-54.705,-17.81,-46.619,-47.177,-43.908,-44.859,67.663,10.199,-2.513,8.085,4.652,141.654,67.701,50.899,36.719,32.772,271.695,163.92,130.631,130.744,119.303],[-56.688,-41.543,-45.637,-60.743,-50.603,-48.648,-45.076,-38.995,-50.563,-43.934,-47.869,-34.039,-20.404,-32.251,-43.268,-29.58,4.126,22.827,-2.589,2.07,-20.897,11.621,41.677,12.013,-0.218,1.969,36.708,102.445,44.064,26.986],[-66.214,-51.305,-43.515,-52.383,-41.74,-66.626,-45.989,-35.548,-37.9,-38.16,-61.107,-42.47,-38.023,-24.233,-19.933,-55.58,-7.239,-0.505,1.973,13.589,-49.936,-3.274,5.596,7.031,28.219,-38.246,1.814,13.992,19.3,60.477],[-74.706,-46.318,-46.891,-42.33,-47.589,-77.222,-44.014,-38.149,-32.785,-43.995,-74.489,-42.286,-36.612,-29.933,-31.93,-70.642,-25.254,-7.984,-3.663,0.765,-62.466,-18.845,3.531,-1.763,0.167,-52.407,-9.803,6.641,6.141,6.604],[-82.103,-54.777,-52.542,-49.697,-47.919,-82.367,-50.8,-38.562,-38.828,-44.786,-81.976,-45.64,-37.419,-38.456,-36.551,-77.297,-35.768,-16.194,-10.248,-3.855,-70.196,-33.139,-4.05,2.142,2.945,-64.01,-29.714,-4.5,6.256,4.648],[-86.52,-55.453,-43.827,-51.335,-52.779,-85.138,-56.866,-48.62,-46.418,-41.995,-85.224,-52.849,-38.655,-35.197,-37.66,-82.102,-47.309,-14.269,-9.79,-1.358,-77.385,-46.411,-5.69,-2.059,0.507,-66.558,-46.227,-6.924,-4.164,1.511]],
"ve": [[-50.593,-35.836,-30.924,-63.508,-2.127,-12.328,-35.819,-23.922,-12.576,-60.643,-68.875,-113.381,-14.803,-55.807,-38.029,85.059,32.675,129.448,-32.515,-142.471,144.743,28.154,-1.493,-14.185,0.889,262.458,46.976,7.952,8.771,-32.534],[-70.501,-56.367,-45.848,-34.942,-26.105,-32.549,-315.043,-34.93,-58.344,-23.744,-36.522,-48.68,-22.171,-19.189,-33.138,34.441,12.536,21.712,-20.543,12.179,39.526,20.798,44.586,3.235,-0.562,69.929,50.195,100.196,26.281,6.757],[-33.294,-93.509,-69.199,-80.739,-40.424,-24.982,-90.776,-52.974,-44.634,-36.633,-28.168,-68.101,-68.112,-27.791,-19.502,12.027,-3.305,-3.763,6.935,13.855,26.358,-0.816,3.722,16.358,26.664,85.771,8.531,4.167,16.917,55.876],[-6.978,-88.697,-98.99,-72.102,-66.173,-31.593,-76.463,-77.771,-51.96,-61.663,-43.425,-83.179,-76.475,-49.078,-45.672,10.054,-16.978,-4.909,-7.513,-2.59,50.235,-2.913,1.459,-0.751,-1.222,129.45,4.945,4.538,2.403,-0.38],[-2.345,-83.576,-135.048,-104.082,-82.447,6.154,-80.694,-91.704,-80.714,-78.867,7.181,-33.728,-93.47,-81.796,-63.272,24.509,-22.768,-28.098,-19.038,-10.732,80.987,-8.763,-0.824,0.625,0.445,142.851,-3.966,-0.468,2.488,1.969],[29.032,-58.167,-108.448,-134.291,-110.913,-94.42,-65.365,-130.461,-117.016,-86.769,16.905,-43.486,-95.839,-82.644,-78.263,41.723,-20.223,-5.9,-19.415,-5.787,78.982,-14.679,-1.425,-4.586,-2.767,200.259,-8.523,-0.596,-1.37,0.847]],
"kep": [[-137.856,2.015,11.303,-12.95,-14.807,-136.482,-16.492,-4.537,7.331,-9.569,-129.916,-11.215,-8.175,9.435,21.157,-138.902,-20.508,1.185,-12.66,-7.422,-145.098,-61.774,-36.831,-23.521,-16.847,-123.581,-81.92,-48.465,-53.416,-38.043],[-58.693,-45.579,-133.396,6.922,-2.464,-57.264,-37.336,-136.566,-16.776,-9.676,-58.98,-37.833,-141.81,-9.658,1.273,-63.946,-24.832,-130.786,-20.912,-19.504,-55.366,-35.19,-115.742,-39.139,-8.01,-50.489,-29.655,-147.084,-63.808,-33.15],[-73.089,-22.391,-12.321,-24.051,-146.356,-70.75,-17.064,-17.48,-29.912,-137.217,-70.015,-24.044,-6.875,-34.879,-122.767,-70.156,-11.081,-5.548,-26.669,-143.679,-70.31,-10.094,-4.723,-25.608,-135.23,-71.654,-12.318,-1.171,-13.304,-151.657],[-83.367,-20.339,-8.371,-3.965,-7.533,-84.039,-26.038,-7.612,-9.618,-4.589,-86.636,-23.432,-8.111,-10.392,-8.965,-83.393,-26.259,-10.135,-2.979,3.847,-80.466,-24.005,0.227,-5.878,2.921,-81.009,-21.262,0.457,4.423,11.192],[-91.276,-36.173,-10.474,-6.762,-7.217,-91.582,-31.804,-11.584,-4.642,-3.461,-92.305,-36.59,-7.866,-4.306,-6.192,-89.578,-32.091,-7.98,-4.683,3.981,-90.271,-33.209,-6.218,0.764,2.936,-89.279,-33.159,-6.166,2.597,2.71],[-94.141,-45.476,-12.561,-4.422,-4.4,-93.013,-45.678,-12.48,-5.803,-7.184,-95.169,-44.873,-12.686,-6.565,-3.373,-93.678,-41.898,-11.547,-4.212,2.191,-92.324,-42.956,-7.472,-2.84,0.696,-94.905,-45.882,-10.307,-4.782,-0.391]],
"vp": [[102.188,-40.871,162.34,-167.564,35.961,37.36,-10.854,41.768,6.899,6.157,-6.738,39.516,-13.514,19.203,23.857,-4.197,-2.65,3.572,-4.212,0.221,-2.833,-4.929,-1.968,-1.065,-1.183,-3.683,-4.444,-4.309,-3.162,-1.129],[1627.172,743.248,90.975,-53.494,70.548,327.011,18.876,13.362,43.885,24.113,190.095,33.735,-2.231,5.096,-34.533,38.7,6.475,-3.686,-5.254,-3.709,17.09,3.935,-5.945,-4.476,-2.038,4.708,-1.64,-2.93,-5.285,-4.915],[3955.828,1240.394,563.242,-188.94,201.231,748.24,235.176,156.933,45.324,29.064,340.261,150.714,-4.335,30.284,-5.1,75.515,12.3,0.384,5.263,-3.292,33.53,5.498,-4.411,1.145,-5.394,16.477,-0.755,-4.847,-2.24,-4.316],[5364.167,2267.064,1024.396,316.231,376.306,1062.743,400.549,147.333,123.585,21.72,546.934,160.475,46.071,27.57,30.315,106.676,40.501,20.9,4.287,2.264,44.639,16.104,-1.868,5.196,3.774,20.274,4.874,-3.808,-3.533,-2.191],[6524.446,3943.491,1019.786,630.673,522.161,1260.645,730.745,233.803,108.848,72.127,646.97,424.338,99.738,47.512,15.551,119.694,59.057,20.587,12.03,-6.872,58.748,31.382,3.8,-2.067,-1.148,28.112,14.894,3.129,-2.913,-3.744],[6984.463,4980.46,2280.289,402.995,598.607,1358.834,965.275,443.352,113.119,110.465,734.367,546.475,169.883,105.383,67.512,133.808,103.527,37.788,10.058,-0.458,64.179,48.119,6.076,0.486,-0.201,32.592,26.358,4.409,4.807,0.066]]
}