{
"KTrans": [[-52.87,-70.951,-81.191,-92.916,-91.36,-56.371,-70.477,-76.875,-70.565,-74.63,-39.279,-58.533,-73.637,-60.937,-68.639,45.615,16.906,-24.312,-2.912,-21.619,102.849,88.778,79.952,48.172,56.995,247.586,240.842,160.687,190.064,157.262],[-62.431,-48.96,-54.702,-57.701,-65.409,-55.011,-40.321,-38.87,-51.745,-61.243,-56.33,-46.829,-43.801,-60.029,-55.959,-25.029,-13.254,-5.034,-23.426,-34.862,-6.418,8.633,18.904,14.652,-12.975,56.552,95.118,68.73,70.111,61.031],[-73.274,-48.806,-49.746,-47.369,-57.534,-71.306,-49.068,-47.102,-44.775,-43.015,-69.352,-48.617,-41.709,-44.095,-45.721,-60.463,-37.549,-30.922,-10.728,-10.202,-36.048,-16.602,-14.201,13.466,10.018,-2.419,22.66,48.035,36.65,44.181],[-79.652,-61.793,-48.642,-43.926,-45.363,-78.438,-55.778,-48.745,-44.21,-38.765,-76.094,-60.705,-47.05,-43.437,-33.951,-68.379,-51.096,-39.789,-27.028,-27.816,-56.176,-35.798,-19.015,-12.005,-9.208,-22.741,-2.259,9.447,21.579,34.126],[-84.287,-67.823,-48.864,-51.736,-49.024,-83.017,-66.741,-47.274,-51.97,-43.447,-79.634,-68.741,-47.332,-46.815,-41.616,-72.631,-49.103,-42.474,-30.225,-33.487,-66.114,-45.614,-38.478,-26.506,-17.811,-45.395,-21.606,-1.973,2.636,9.072],[-87.508,-71.007,-59.179,-50.462,-40.333,-84.855,-69.23,-57.183,-50.802,-43.454,-86.585,-68.064,-53.595,-49.212,-41.934,-80.424,-63.966,-51.516,-39.809,-38.738,-71.646,-56.49,-38.294,-35.171,-30.965,-53.604,-34.181,-16.45,-6.571,-10.818]],
"ve": [[37.111,-43.349,-26.891,-55.166,-74.081,-64.238,-42.708,-42.766,-60.481,-93.444,-95.317,-60.802,-16.757,-48.229,-46.486,1.496,-1.185,1.279,-18.811,-93.238,160.067,-86.545,58.085,-717.309,-256.512,322.542,84.504,60,-12.118,-21.498],[-31.888,-42.438,-69.742,-44.206,73.925,68.21,-38.215,-20.205,-50.916,-40.626,-28.933,-51.551,-44.975,-48.474,-35.418,24.751,35.795,0.177,-21.277,-27.263,79.086,-9.28,20.912,2.57,-23.196,311.521,190.909,61.767,48.924,30.612],[-52.06,-50.152,-49.454,-50.784,-55.517,-92.748,-46.102,-58.193,23.122,-43.845,42.057,-74.533,-45.333,-46.967,-38.923,38.909,-12.397,-23.352,227.864,-18.881,171.331,12.625,-14.936,12.734,10.092,205.492,112.843,86.748,58.22,42.494],[7.909,-51.392,-60.205,-60.221,-57.739,111.565,13.011,-63.691,-53.963,-47.661,14.721,-58.229,-12.988,-57.597,-36.674,222.576,-17.987,-49.908,-37.212,-17.973,142.952,18.244,-3.07,-9.501,-11.034,323.506,139.634,40.234,42.197,47.427],[-14.413,-36.618,-35.451,-79.488,-73.127,78.365,-67.879,-25.329,18.016,-60.027,-16.2,-45.869,-39.199,-84.991,-57.483,112.563,15.409,23.96,-39.403,-65.271,45.02,29.008,-48.366,-36.351,-22.485,342.53,109.065,57.825,38.593,10.498],[19.042,-18.869,-66.048,-61.888,-55.16,-0.917,-15.55,-43.756,-67.375,-63.648,5.096,-15.799,-30.03,-77.433,-60.061,37.338,-0.056,-28.411,-24.622,-57.743,168.865,23.989,-14.119,-43.007,-53.573,277.052,112.978,65.896,27.696,-17.401]],
"kep": [[-104.179,-91.642,-50.021,12.698,4.861,-117.183,-92.148,-90.009,-44.763,-23.869,-106.164,-108.895,-43.962,-52.728,-7.405,-126.409,-107.229,-84.363,-72.498,-65.062,-133.08,-151.445,-164.98,-135.601,-126.397,-106.048,-149.694,-127.472,-215.451,-197.902],[-97.187,-103.646,-112.847,-90.06,-19.912,-98.2,-98.054,-118.873,-80.057,-30.723,-99.891,-85.954,-128.017,-85.892,-28.231,-95.367,-92.541,-118.37,-84.008,-35.387,-85.181,-83.667,-120.221,-122.114,-58.422,-95.046,-95.577,-89.973,-148.957,-147.511],[-97.609,-70.793,-75.482,-111.318,-130.924,-97.305,-73.943,-66.411,-95.02,-115.285,-97.988,-76.573,-66.753,-89.129,-129.248,-94.828,-73.979,-72.28,-102.506,-114.028,-94.164,-65.065,-62.145,-74.904,-137.75,-87.126,-70.602,-67.367,-90.173,-109.333],[-99.463,-77.426,-55.123,-45.366,-53.929,-99.548,-80.452,-51.484,-48.998,-72.435,-100.2,-74.645,-56.111,-52.122,-65.273,-96.23,-75.282,-49.175,-54.688,-67.657,-98.061,-78.155,-58.413,-47.877,-56.142,-93.774,-79.116,-54.51,-57.106,-63.651],[-101.9,-86.244,-61.336,-34.997,-32.182,-98.636,-85.161,-52.59,-45.62,-34.856,-98.77,-85.318,-49.11,-37.603,-33.323,-99.911,-77.653,-56.439,-41.711,-42.226,-97.663,-79.291,-54.948,-44.906,-34.594,-97.871,-79.647,-56.191,-45.911,-37.016],[-99.469,-87.021,-61.943,-46.397,-25.693,-98.919,-84.979,-62.192,-40.708,-35.722,-100.141,-83.038,-61.823,-38.364,-32.677,-98.273,-84.382,-62.174,-44.591,-30.786,-97.971,-80.091,-68.984,-39.34,-28.023,-94.044,-83.994,-61.797,-53.903,-41.116]],
"vp": [[1109.345,-248.032,645.384,-424.918,685.605,-265.479,3.651,-2.403,67.932,97.139,3.392,-75.566,27.423,85.028,121.416,-11.618,11.422,2.838,-12.239,-11.775,-25.514,-23.155,-2.281,-3.95,-11.987,0.204,-6.896,2.785,-12.354,8.121],[2648.701,1080.597,-348.054,386.592,505.411,627.891,270.916,18.659,-28.692,-94.509,232.927,95.306,-71.607,-102.162,-20.918,42.519,-10.392,8.292,0.635,-15.582,12.249,-5.668,-13.113,-11.8,-10.6,2.84,-10.574,-14.964,-22.198,-25.382],[4161.729,3337.868,1338.214,734.598,-357,912.114,639.891,292.204,265.833,-4.249,438.228,318.177,169.632,36.412,28.773,85.137,56.795,12.969,-2.069,10.571,29.374,22.945,-20.724,-1.666,-16.666,-8.238,2.81,-13.243,-6.125,-9.772],[6164.841,6146.292,4240.527,2661.345,957.49,1121.896,1002.509,710.216,485.78,311.497,575.488,520.1,387.101,211.556,145.186,87.598,114.661,38.052,45.189,21.765,36.245,41.592,33.94,6.477,-4.644,5.799,-1.28,-14.14,-10.299,-9.422],[7684.68,7518.556,6698.369,3081.312,1800.908,1263.683,1433.364,941.254,645.688,362.889,687.28,709.437,506.648,293.269,242.107,113.39,110.991,98.389,78.23,73.714,36.484,34.761,18.704,12.945,3.269,21.958,12.743,4.986,0.998,-17.543],[6975.997,9565.77,7212.757,5829.502,4076.383,1503.834,1807.845,1345.71,972.567,772.464,686.058,876.589,822.501,447.101,376.238,129.987,165.627,129.941,96.146,57.261,50.949,61.683,69.562,12.437,26.374,-4.237,16.775,7.42,16.01,-10.791]]
}