{
"KTrans": [[-14.163,20.676,35.167,8.802,11.739,-9.921,23.974,37.819,29.611,34.852,-8.218,43.381,33.271,35.494,30.042,105.731,147.637,113.658,95.076,88.36,259.874,261.761,213.169,210.741,188.099,925.34,761.716,556.551,452.836,425.439],[-78.173,36.772,62.044,30.58,27.83,-90.408,44.821,50.309,37.771,37.831,-97.734,33.746,57.793,38.984,31.346,-49.711,121.224,81.7,80.566,60.357,-6.902,197.284,177.888,114.687,97.724,135.999,418.067,347.13,240.367,202.41],[-94.936,-9.146,37.835,59.611,39.973,-105.527,-9.661,50.194,61.225,53.413,-103.516,-49.07,75.536,66.966,51.385,-83.638,7.502,121.975,88.022,71.876,-96.135,93.057,165.936,130.269,118.823,-30.886,172.48,298.002,224.558,194.19],[-106.51,-82.77,21.726,73.515,58.503,-100.912,-74.1,39.479,79.469,64.826,-91.594,-106.136,68.993,105.731,64.919,-109.919,-84.34,102.303,159.423,110.439,-87.66,-36.149,104.349,184.991,144.151,-46.69,27.792,238.585,219.462,221.286],[-104.107,-90.895,-44.896,80.078,90.676,-102.492,-98.918,-15.455,100.636,84.524,-104.37,-111.819,-18.345,106.402,119.946,-96.396,-75.844,-1.114,124.456,107.585,-107.968,-124.795,11.925,168.835,182.426,-82.97,-96.205,125.073,278.41,189.905],[-104.789,-126.024,-82.259,35.734,82.984,-104.419,-108.759,-70.5,13.993,91.056,-104.178,-113.234,-89.541,13.092,97.739,-106.79,-109.811,-51.12,7.506,120.13,-85.584,-118.878,-73.193,65.857,165.474,-94.958,-88.034,-68.862,139.706,252.856]],
"ve": [[17.039,95.224,2.391,-647.528,16.429,40.001,30.301,-25.097,-95.928,223.895,38.039,11.254,7.509,-17.889,14.329,63.346,23.514,8.825,-6.015,-29.561,89.658,40.22,10.952,-3.764,-17.278,197.128,85.406,36.864,13.27,-3.714],[7.746,4.248,3.882,1.606,2.708,8.988,5.83,4.784,3.464,3.453,10.782,9.301,4.377,5.047,2.571,139.347,26.826,15.402,13.104,7.746,112.443,50.481,31.06,19.09,12.154,199.296,103.014,65.047,41.938,29.611],[42.765,4.66,4.073,-0.824,3.016,13.268,5.188,0.43,3.966,3.35,34.924,9.651,8.682,7.34,3.081,52.721,31.476,20.464,9.635,9.506,100.639,55.165,35.163,23.108,20.21,199.95,100.679,66.107,44.861,35.771],[21.109,2.681,1.021,1.41,2.03,360.493,-7.182,3.665,3.14,2.933,29.155,6.117,9.021,6.21,4.625,56.32,26.688,21.412,17.023,14.409,94.663,53.165,38.389,27.239,21.116,209.149,85.205,72.393,48.97,39.826],[2.722,-12.946,11.134,4.972,3.382,3.309,6.247,15.171,5.736,2.804,-14.593,5.271,6.431,5.743,4.599,82.344,9.612,20.327,14.215,9.765,105.703,59.87,35.738,27.479,21.376,191.662,103.19,71.212,52.223,41.243],[-37.257,7.335,-5.185,2.38,4.005,15.994,100.039,3.854,2.73,2.556,-4.246,4.692,5.034,4.447,5.428,-25.818,21.89,15.739,95.631,10.755,103.84,38.177,34.977,27.089,18.131,226.957,106.159,67.195,51.349,41.288]],
"kep": [[-30.263,13.142,46.42,2.976,11.514,-27.778,14.752,42.821,41.303,54.998,-31.662,35.379,38.898,45.57,40.732,30.732,109.422,111.268,116.877,130.326,78.078,165.791,183.984,228.682,252.998,243.565,369.586,382.691,388.878,448.634],[-81.973,24.639,55.35,27.174,25.222,-92.628,32.726,41.657,31.862,32.387,-98.117,17.938,46.749,30.757,27.634,-69.367,65.613,52.279,56.823,46.744,-57.149,92.403,108.108,76.487,73.879,-23.1,151.066,165.706,134.931,129.416],[-95.782,-18.471,24.953,54.735,31.832,-104.096,-19.681,38.049,50.737,44.529,-101.233,-52.742,58.423,51.838,42.936,-88.11,-19.967,78,62.884,52.771,-97.316,18.455,90.97,80.762,78.006,-77.043,32.968,133.312,116.182,109.84],[-104.965,-83.797,11.32,62.436,48.134,-101.196,-75.292,26.087,64.606,52.927,-94.28,-102.873,48.593,86.097,52.425,-105.059,-87.392,60.555,113.954,78.98,-92.95,-58.809,44.779,115.815,93.526,-82.939,-37.523,92.796,105.733,122.26],[-104.366,-90.54,-50.202,63.406,75.892,-102.73,-96.736,-26.199,78.367,70.888,-103.949,-109.773,-29.34,83.44,99.939,-97.521,-79.225,-20.125,84.924,79.653,-102.852,-115.671,-18.876,100.138,122.335,-93.446,-96.512,27.88,140.155,100.039],[-103.914,-121.477,-80.243,22.609,66.255,-104.036,-107.688,-74.219,4.205,75.69,-103.369,-110.036,-87.951,1.676,79.261,-104.344,-105.895,-59.857,-11.858,85.813,-93.048,-110.758,-78.203,25.486,106.921,-97.955,-91.891,-79.022,52.726,140.464]],
"vp": [[2653.008,1860.855,1726.123,1073.104,1307.708,499.951,367.612,256.761,322.586,383.729,232.799,134.978,145.234,140.078,254.371,46.853,42.569,29.279,30.781,25.323,24.772,15.921,17.884,17.359,11.034,12.545,8.752,5.132,4.942,6.927],[6714.417,7786.08,6558.906,5056.38,5012.17,1421.771,1389.278,1147.03,1093.745,1316.189,759.181,504.843,498.87,570.407,434.581,138.095,135.904,96.423,112.621,108.78,67.478,76.292,55.329,46.152,43.278,31.649,37.456,37.224,21.343,24.676],[8581.395,10233.178,11353.203,9249.996,8591.742,1722.524,2484.62,2256.085,1878.289,2042.349,790.06,1012.63,1179.142,1015.366,788.807,164.304,230.087,220.129,158.013,170.695,91.617,129.668,120.345,82.472,94.077,41.859,58.192,46.818,41.627,46.468],[8802.977,14472.496,16991.304,13373.942,11711.925,1947.454,2802.89,3478.372,2857.728,2827.229,1005.085,1376.682,1571.028,1602.875,1221.718,211.473,310.591,385.809,361.27,274.241,80.995,141.602,151.11,147.548,134.625,46.468,70.093,80.623,48.053,60.25],[9788.764,14732.504,19381.076,19876.982,18205.412,1876.332,3141.247,4530.501,4243.307,3412.6,1024.006,1848.585,1844.834,2155.309,2101.015,207.023,267.291,364.187,393.252,275.123,106.412,188.869,165.485,195.074,166.376,45.393,91.315,109.52,97.857,75.613],[10513.744,18038.666,20401.748,22808.913,22131.419,2136.415,3646.344,4501.987,4454.701,4361.871,1027.21,1610.837,2223.598,2179.191,2147.422,193.357,361.173,413.56,504.069,413.295,89.946,188.82,201.372,232.528,235.645,54.54,79.064,109.865,107.713,97.474]]
}