{
"KTrans": [[-0.229,-1.53,-3.991,5.346,-2.396,3.729,12.5,13.128,6.321,10.141,10.034,26.295,22.391,21.568,21.04,35.943,78.678,95.199,99.117,97.73,45.059,50.148,128.583,152.187,159.398,78.739,-275.965,-7.173,115.764,170.536],[-23.149,-8.836,-1.096,-0.09,-0.4,-17.195,-5.195,1.439,3.878,3.247,-12.754,1.63,2.772,9.147,7.442,59.164,48.892,5.651,30.075,38.747,167.951,128.52,1.572,20.374,57.53,292.09,261.089,-35.11,-96.895,31.118],[-34.86,-10.232,-6.712,-4.983,-0.832,-29.884,-5.911,-3.419,-4.442,0.248,-24.972,1.214,0.705,-0.126,0.495,24.249,46.982,40.176,26.449,1.156,88.857,110.922,92.104,69.868,-9.215,180.724,231.604,202.705,138.469,-49.347],[-43.745,-11.344,-7.393,-4.991,-4.709,-40.225,-11.48,-3.399,-1.338,-1.871,-38.978,-5.922,0.299,1.357,-0.727,5.07,33.039,33.194,26.732,24.508,40.141,86.298,78.601,64.076,63.267,119.971,185.525,170.94,150.775,136.897],[-52.986,-17.697,-9.414,-5.742,-4.327,-51.907,-14.2,-5.759,-3.654,-3.35,-45.262,-10.997,-1.58,-0.921,0.237,-17.405,24.463,25.955,22.263,20.557,14.97,69.881,63.367,57.416,50.521,77.273,147.37,144.917,127.86,114.843],[-59.816,-23.667,-11.206,-7.234,-5.036,-58.677,-21.054,-8.716,-4.703,-4.223,-54.252,-14.572,-6.081,-1.904,-1.475,-28.887,14.971,19.554,20.011,16.99,-11.402,51.594,56.739,52.13,44.936,36.281,113.815,127.954,117.271,104.665]],
"ve": [[-15.241,-21.172,-11.747,-21.202,-2.278,1.872,-101.304,2356.805,9.366,-66.302,18.844,53.003,91.011,35.202,-12.441,53.931,-42.35,-56.975,134.989,-87.736,101.099,30.223,-6.709,-30.819,-46.233,217.98,84.9,33.234,3.87,-14.981],[-6.251,-26.907,-1.887,-0.594,1.582,-51.338,-5.869,3.432,2.483,0.317,0.694,12.61,13.415,-2.248,1.316,27.01,19.199,11.586,-2.897,-60.298,92.592,45.174,32.821,18.449,-0.238,192.666,89.299,71.846,45.302,27.214],[-7.482,-1.432,-2.585,-9.961,2.691,-1.831,0.253,-1.219,-7.028,-2.229,4.976,2.981,0.527,-2.36,2.041,54.515,24.365,16.296,11.764,-0.458,95.269,47.996,32.208,24.418,12.685,194.585,97.179,-23.606,43.131,37.329],[-3.203,-0.737,-1.447,-1.783,-2.117,0.027,0.514,0.243,-0.447,-1.638,5.453,3.231,2.348,1.208,-1.182,45.368,23.547,16.685,11.594,8.817,93.497,48.241,33.073,24.884,19.573,184.771,94.161,65.868,49.631,38.586],[-2.348,-0.783,-0.436,-0.807,-0.909,-0.216,1.056,0.265,0.322,-0.567,4.48,3.288,2.612,1.562,1.037,42.257,23.624,15.574,11.686,9.346,103.389,48.916,32.828,24.542,19.59,202.069,97.456,65.885,49.337,39.426],[-4.491,-1.443,-0.243,-0.946,-0.8,-1.203,0.257,0.916,0.41,0.438,4.61,3.199,1.993,1.572,1.421,39.884,23.183,15.493,12.181,9.335,85.065,48.237,32.347,24.589,19.738,182.726,94.987,65.635,49.417,39.814]],
"kep": [[-121.395,-11.245,-10.153,-24.833,1.051,-126.271,-52.091,-31.835,-2.275,-15.922,-130.497,-61.981,-36.852,-37.396,-35.893,-160.62,-222.488,-196.083,-189.965,-195.546,-192.13,-441.731,-383.861,-362.355,-382.083,-200.261,-811.446,-784.968,-742.259,-760.335],[-46.791,-55.578,-125.248,-5.416,5.302,-43.383,-49.41,-134.687,-20.52,1.441,-43.914,-34.153,-130.433,-38.833,-20.075,-14.043,3.661,-195.942,-178.127,-94.565,14.827,49.498,-228.718,-343.017,-215.243,-0.097,60.207,-291.304,-602.332,-432.288],[-50.607,-23.882,-27.306,-52.998,-127.109,-48.162,-21.425,-24.188,-57.223,-124.037,-48.896,-14.875,-19.579,-44.85,-150.177,-31.645,12.478,25.963,2.385,-219.514,-22.126,36.43,51.872,48.642,-286.202,-27.851,54.411,88.81,56.931,-360.648],[-57.869,-19.357,-19.008,-18.501,-27.776,-55.112,-23.524,-15.948,-14.155,-22.173,-56.638,-19.794,-10.619,-12.341,-24.587,-42.386,-1.553,10.84,12.529,19.312,-44.816,15.874,36.159,39.219,65.767,-43.141,29.692,61.933,81.416,105.548],[-63.696,-25.979,-17.43,-14.982,-14.443,-64.8,-25.047,-15.729,-11.491,-17.81,-61.278,-24.455,-10.714,-10.706,-9.467,-55.729,-8.972,3.536,5.115,9.052,-54.9,4.488,19.453,28.498,31.75,-54.405,10.589,39.833,53.557,66.215],[-69.91,-30.566,-19.04,-14.351,-13.072,-70.404,-31.103,-18.416,-13.308,-13.478,-67.886,-26.44,-15.853,-10.727,-11.357,-62.964,-14.883,-3.119,3.979,3.885,-66.379,-7.959,11.41,20.474,21.565,-65.691,-6.275,28.729,44.02,52.526]],
"vp": [[194.325,132.721,-330.416,41.943,-171.161,-4.308,6.611,30.543,-4.081,-25.284,-16.339,10.982,-9.056,-16.795,2.316,-1.072,-4.602,-3.26,-7.884,-5.879,-3.323,-3.515,-0.827,-2.306,-7.569,-5.338,-5.12,-2.575,-2.227,-3.918],[2294.844,747.668,-217.952,-229.389,41.452,376.103,160.281,33.883,-43.587,5.936,167.922,51.618,-15.734,-23.588,3.279,35.491,6.263,-6.351,-5.68,-4.478,5.89,-1.79,-3.979,-6.154,-4.064,7.078,-1.175,-4.441,-4.084,-3.919],[3949.828,1074.543,614.919,553.856,-79.524,826.629,299.19,155.506,32.374,-68.792,408.307,148.14,66.115,59.442,17.009,73.407,23.199,3.29,1.14,-5.752,32.077,7.532,4.885,-4.494,-7.095,15.541,0.614,-4.841,-3.742,-5.137],[5358.28,2407.877,430.53,131.372,88.117,1169.645,367.239,153.67,9.21,41.288,515.589,131.443,109.928,64.211,11.259,108.368,41.978,7.514,0.741,4.229,53.721,12.82,2.403,-3.721,-3.841,21.895,4.476,-3.59,-4.056,-5.678],[6560.972,3907.629,1745.827,347.312,426.761,1259.95,585.963,343.932,149.932,88.452,635.61,463.051,122.08,22.443,-5.461,122.477,74.405,17.134,11.436,0.685,59.384,39.187,4.954,-1.003,-3.859,27.549,13.738,1.163,0.61,-5.394],[7065.494,5894.728,2282.615,623.781,1062.045,1402.764,995.154,430.669,206.079,142.889,676.665,499.428,168.276,99.311,87.348,136.922,109.953,18.908,10.134,0.676,68.729,53.2,14.681,2.725,5.705,31.212,28.586,9.821,-3.263,-6.924]]
}