{
"KTrans": [[3.3,5.078,2.931,2.865,3.007,4.523,13.301,9.866,4.865,7.367,7.055,16.484,10.691,13.793,12.001,147.742,104.662,71.132,68.67,56.417,371.688,215.454,180.093,154.441,146.6,1023.697,587.14,463.902,394.882,363.797],[-36.199,2.161,1.598,3.883,1.641,-28.718,1.758,6.62,4.546,4.06,-22.026,13.293,7.754,9.272,10.598,56.795,66.118,47.121,36.205,31.163,152.625,148.859,105.625,79.412,68.515,460.471,345.94,238.957,184.714,153.567],[-61.313,-3.508,4.809,5.393,3.501,-57.727,9.061,5.215,9.648,4.625,-48.256,10.934,11.116,10.014,6.147,-3.551,52.952,49.814,40.079,28.923,74.117,123.746,92.428,71.771,57.611,225.447,313.61,207.375,158.179,123.085],[-76.581,-5.717,-0.134,5.475,4.127,-66.441,-1.211,8.156,3.779,5.094,-76.95,2.278,9.247,6.506,3.836,-31.992,50.424,45.026,34.354,25.06,-0.777,108.886,83.004,66.57,52.654,127.703,286.547,195.881,138.167,116.221],[-79.666,-14.564,0.187,4.851,1.447,-79.865,-15.174,3.566,9.831,5.985,-78.448,-14.203,12.079,7.316,6.002,-56.281,41.353,39.734,31.595,27.179,-22.538,88.667,83.944,63.403,58.039,66.595,229.715,208.089,145.747,122.861],[-84.767,-24.236,1.174,0.951,6.39,-81.814,-22.424,3.215,11.089,3.386,-80.112,-15.178,9.442,8.68,8.947,-70.234,12.03,37.905,32.805,31.707,-39.42,77.498,80.648,62.144,54.298,16.864,184.313,175.96,144.54,104.525]],
"ve": [[8.838,7.402,21.24,-13.348,30.167,13.07,13.943,11.376,19.715,11.003,17.267,9.222,8.275,16.928,27.818,50.103,15.839,2.539,-6.279,-13.464,98.566,37.656,9.008,-6.819,-17.179,194.949,79.778,36.473,11.582,-4.906],[-13.715,2.094,1.044,0.819,-0.053,6.915,4.769,3.28,1.43,0.591,15.207,7.575,3.746,2.372,1.403,56.123,25.653,15.506,10.008,6.359,105.082,48.074,30.193,19.614,12.58,200.3,99.123,61.162,41.481,28.995],[33.568,0.693,2.015,1.639,0.003,7.295,4.206,2.139,1.783,1.634,15.847,5.861,3.626,3.365,0.97,59.145,26.129,17.476,12.691,9.392,106.205,50.484,32.761,24.222,17.5,210.172,100.266,64.96,46.735,35.573],[9.56,3.782,0.485,1.029,0.947,-2.615,4.167,1.623,2.32,1.215,-28.669,6.977,3.133,2.214,1.433,58.14,10.727,16.486,11.558,8.271,93.161,51.041,32.726,22.834,18.792,197.618,101.758,65.905,47.903,37.787],[-7.185,4.373,1.709,0.531,0.236,13.865,4.375,2.316,1.42,1.18,15.96,7.91,4.416,2.937,2.06,45.788,27.637,16.634,12.273,9.751,112.017,51.652,34.304,24.308,19.917,200.764,99.662,67.114,49.541,39.287],[-24.574,8.384,1.814,0.17,-0.039,-2.146,4.306,1.765,1.248,0.994,-50.812,7.135,3.495,3.416,2.52,51.473,28.255,17.517,12.891,10.442,103.748,50.291,34.012,25.954,19.304,199.984,100.802,66.653,50.219,39.105]],
"kep": [[0.585,2.086,-2.344,5.75,1.368,-1.424,12.138,10.189,4.66,14.217,-5.869,12.399,10.129,15.785,19.739,65.29,80.187,72.126,86.922,88.893,139.976,132.538,159.161,177.166,202.404,284.49,283.839,314.783,346.55,390.558],[-42.258,0.176,0.687,3.702,2.156,-35.558,-2.468,3.432,3.437,4.12,-33.375,5.389,4.178,7.213,9.529,-0.246,32.351,27.598,24.339,23.672,22.647,68.484,58.108,50.275,49.991,85.192,123.925,110.557,101.395,96.633],[-65.507,-4.295,2.717,3.877,3.543,-62.838,4.466,2.961,7.698,2.952,-56.159,4.821,7.37,6.471,5.207,-39.122,21.418,27.644,24.21,17.858,-16.94,48.435,44.863,38.133,34.022,7.387,106.509,86.308,75.836,64.513],[-78.898,-9.397,-1.126,4.4,2.754,-69.664,-6.127,6.131,1.306,3.683,-81.514,-4.484,5.518,3.943,2.226,-58.295,18.416,24.275,20.278,15.398,-51.694,38.272,37.615,35.559,28.281,-25.688,91.749,78.058,60.816,56.787],[-81.273,-18.016,-1.806,3.98,0.946,-82.174,-19.069,0.61,7.841,4.456,-81.935,-19.621,7.158,3.785,3.678,-72.621,10.957,19.555,16.851,15.552,-62.583,23.947,36.592,31.11,31.379,-45.863,65.295,83.791,64.165,59.792],[-86.857,-26.914,-0.955,0.439,6.054,-84.68,-25.858,0.844,9.137,1.923,-83.794,-20.892,5.359,4.821,5.94,-82.057,-13.219,16.899,16.976,18.769,-71.184,17.716,34.302,28.236,28.778,-62.087,40.561,65.204,62.295,46.733]],
"vp": [[294.427,395.902,134.475,201.744,362.781,-0.62,27.942,-7.03,23.093,88.008,27.761,23.971,0.598,21.033,22.32,8.935,1.603,-2.277,3.759,-2.384,2.936,0.385,2.02,-3.974,0.904,1.12,0.474,-0.017,-0.694,0.052],[2755.173,419.447,184.704,221.351,395.377,490.776,90.967,45.558,28.359,59.279,243.232,74.713,3.04,8.539,11.679,42.645,3.606,7.656,5.598,6.312,21.376,2.3,5.407,2.126,-0.332,11.726,1.351,1.69,-1.457,-0.021],[4312.583,1424.159,519.494,617.883,342.997,828.376,377.984,89.385,84.643,40.692,379.633,185.82,33.578,11.134,2.409,66.186,39.848,16.786,10.81,3.185,37.885,12.825,3.033,7.79,4.314,16.195,8.317,1.674,-0.129,0.958],[4966.101,3147.595,685.075,866.268,290.545,944.572,760.73,203.184,171.827,86.54,558.777,288.952,71.332,4.923,4.71,97.491,71.575,29.084,13.511,-0.142,48.693,22.77,6.37,1.297,3.373,23.067,15.077,3.656,1.596,-0.262],[5564.9,5139.923,1834.28,1312.958,402.035,1153.014,829.142,446.668,160.958,56.305,552.591,493.609,240.644,24.482,102.296,111.659,105.298,28.86,21.157,13.661,50.286,50.225,16.137,6.427,11.166,28.311,19.253,8.726,3.707,2.182],[5733.562,7108.009,3164.049,1402.737,588.644,1196.632,1141.406,525.828,255.899,121.644,560.044,516.248,270.823,90.561,58.386,117.045,130.429,62.16,26.129,29.928,55.038,58.618,39.972,8.919,5.926,29.569,31.178,13.775,6.8,1.864]]
}