{
"KTrans": [[-28.085,0.092,-7.436,1.752,-3.653,-28.91,-9.397,-2.743,4.486,-2.736,-33.981,-3.854,3.529,-4.583,-3.041,-24.711,-9.988,-5.899,3.097,-1.237,-31.334,-4.94,0.346,-0.318,-1.215,-31.488,0.114,-0.752,0.624,2.082],[-73.28,-29.943,-4.861,-8.52,-13.3,-77.678,-27.788,-12.951,-7.939,-10.018,-69.998,-15.956,-17.565,-11.056,-6.994,-73.773,-34.623,-7.46,-10.156,-7.543,-72.442,-24.624,-11.251,-9.472,-8.514,-74.36,-21.206,-7.406,-1.736,-8.278],[-88.385,-53.276,-19.154,-12.379,-9.385,-87.349,-52.321,-32.42,-14.101,-3.038,-87.237,-58.68,-8.482,-18.118,-10.28,-87.491,-51.938,-15.203,-13.067,-12.224,-86.622,-57.625,-20.785,-14.104,-10.348,-86.696,-54.656,-24.265,-11.031,-10.854],[-91.53,-69.886,-42.599,-18.914,-13.657,-94.413,-63.995,-38.316,-23.235,-9.599,-90.347,-67.09,-37.502,-18.719,-13.816,-92.815,-64.204,-36.465,-21.449,-11.387,-95.89,-62.461,-31.418,-19.469,-13.36,-92.186,-65.449,-35.493,-24.846,-12.55],[-95.407,-70.706,-52.469,-27.815,-14.645,-96.363,-75.466,-51.695,-19.17,-19.479,-94.687,-73.026,-51.886,-21.679,-11.255,-96.128,-74.895,-49.836,-25.161,-20.066,-96.468,-77.868,-55.906,-34.429,-19.142,-94.352,-71.803,-50.598,-30.469,-19.106],[-97.428,-84.391,-61.976,-33.982,-26.223,-96.076,-79.784,-61.62,-40.007,-20.777,-98.597,-77.298,-62.328,-50.966,-31.523,-97.423,-77.507,-63.006,-43.021,-31.089,-96.995,-86.178,-60.419,-47.42,-27.912,-97.207,-83.287,-53.553,-38.253,-20.336]],
"ve": [[5.407,1.825,5.338,-27.847,-36.15,15.761,-1.468,9.32,20.136,-68.781,13.521,-5.931,35.751,1648.818,114.342,5.536,29.329,25.543,34.12,-262.441,61.405,48.31,37.817,-49.468,-166.724,1.121,-6.829,988.858,-9.362,197.726],[-47.405,-16.139,-5.313,-2.353,-1.43,-204.239,-20.686,-5.905,-3.763,-1.569,-37.571,-12.233,-7.423,-3.546,-1.984,-52.092,-17.681,-6.801,-3.361,-1.738,-39.028,-9.193,-5.735,-3.446,-1.31,-68.886,-11.821,-3.568,-0.911,-1.551],[-64.738,-35.141,-15.972,-9.06,-7.498,-112.86,-31.655,-16.432,-9.465,-5.704,-64.371,-35.79,-9.233,-9.163,-6.937,-70.581,-29.479,-16.273,-9.236,-7.551,-65.521,-33.891,-13.576,-10.039,-8.114,-53.957,-34.636,-17.187,-9.499,-5.428],[-69.948,-49.655,-29.653,-13.909,-9.731,-85.798,-41.837,-27.043,-19.529,-10.42,-84.878,-48.351,-25.26,-15.719,-10.484,-17.226,-41.262,-35.158,-16.376,-8.803,-70.852,-45.807,-22.761,-17.522,-11.796,-38.463,-38.879,-21.722,-17.531,-9.384],[-74.998,-125.762,-33.927,-6.986,-13.71,-64.474,-46.304,-32.789,-17.32,-15.147,-74.703,-41.657,-34.846,-19.921,-12.663,-83.955,-46.055,-47.935,-21.455,-14.929,-43.608,-56.387,-37.268,-24.619,-13.205,-62.292,-55.947,-115.077,-21.763,-15.414],[-75.994,-67.987,-41.924,-29.826,-18.517,-68.392,-63.101,-41.949,-29.064,-18.642,-44.784,-50.262,-43.542,-38.437,-26.209,35.884,-49.778,-44.893,-31.193,-25.862,-72.36,-70.865,-41.895,-30.443,-22.753,-87.379,-77.781,-36.729,-27.183,-21.114]],
"kep": [[-40.091,-2.559,-11.072,-0.559,-17.733,-29.21,-14.248,-7.098,1.998,-12.754,-38.651,-10.494,-1.862,-19.41,-13.119,-29.585,-15.374,-11.882,3.201,-7.85,-35.865,-12.196,-7.137,-1.583,-7.309,-33.66,-2.132,-8.357,-4.792,-1.609],[-73.229,-21.094,0.502,-5.829,-11.29,-79.504,-21.692,-7.155,-3.936,-8.17,-70.647,-10.469,-10.218,-7.339,-3.886,-73.99,-25.031,-1.539,-6.42,-5.126,-68.867,-19.525,-6.731,-5.51,-6.919,-74.879,-12.348,-4.479,-1.125,-5.853],[-86.443,-49.483,-11.313,-3.991,-2.276,-85.969,-44.408,-18.789,-5.612,2.107,-85.623,-54.246,-2.481,-10.483,-3.674,-87.055,-47.908,-3.944,-4.545,-4.75,-84.161,-50.068,-10.058,-4.676,-2.412,-86.257,-47.217,-13.836,-1.873,-5.732],[-88.388,-64.752,-31.282,-6.798,-5.017,-92.238,-61.436,-30.187,-7.377,-0.29,-88.726,-60.655,-28.79,-5.859,-3.999,-90.218,-60.207,-23.084,-6.519,-3.378,-92.737,-58.124,-23.972,-5.414,-2.767,-91.474,-60.454,-27.331,-10.063,-3.145],[-91.901,-65.658,-47.637,-15.158,-1.967,-94.47,-71.05,-46.632,-7.774,-6.331,-92.779,-70.285,-44.205,-10.436,0.526,-93.218,-67.521,-48.245,-13.128,-7.072,-93.523,-74.358,-48.524,-19.586,-6.604,-92.965,-66.183,-41.235,-16.236,-6.269],[-94.463,-80.296,-59.114,-24.055,-12.283,-93.521,-75.161,-56.853,-29.731,-6.952,-95.385,-70.327,-58.188,-37.677,-10.687,-93.671,-74.066,-55.451,-36.127,-14.848,-94.61,-80.079,-56.431,-35.031,-12.163,-93.839,-78.212,-53.067,-30.753,-6.174]],
"vp": [[1820.019,690.34,1127.736,828.241,793.679,256.785,248.536,87.678,194.512,106.392,166.116,64.924,104.54,92.752,84.189,23.613,12.991,22.881,21.958,16.563,17.983,8.29,3.413,9.178,7.164,8.287,3.625,4.657,1.259,2.432],[4655.428,4570.496,2707.578,3334.588,2547.96,1172.32,658.572,619.785,598.372,507.55,355.226,267.48,296.977,277.337,331.973,93.204,79.88,54.87,60.872,56.875,43.653,29.197,28.399,25.735,15.786,27.313,14.134,9.047,7.743,14.465],[6508.765,7580.515,5549.445,4855.504,4980.292,1258.372,1335.4,1065,911.086,780.547,644.21,786.645,345.569,463.907,424.656,135.341,135.003,128.282,98.806,96.126,62.635,73.61,49.294,44.199,61.509,31.719,36.99,29.971,21.449,19.566],[6414.383,10426.519,9326.117,5660.449,4815.292,1616.634,1830.601,1816.551,1956.061,1241.058,660.612,905.841,870.57,698.021,649.644,159.588,173.587,161.005,147.456,97.829,79.843,89.111,73.35,80.642,69.947,31.884,41.982,35.298,38.23,26.132],[8183.092,9644.403,11125.515,9521.554,8006.089,1606.171,1964.525,2077.805,1593.277,1678.862,711.465,1033.365,1181.688,888.033,715.037,168.587,208.763,249.589,185.141,160.352,87.333,117.137,110.941,105.367,68.548,35.038,54.971,55.087,46.037,41.932],[8337.841,13596.667,13468.88,12814.585,8976.774,1533.11,2604.139,2785.641,2563.767,2003.697,918.311,986.95,1397.906,1602.15,1448.597,171.887,210.176,271.935,264.208,286.59,84.625,139.22,126.356,129.241,124.16,42.101,70.057,62.504,63.669,60.318]]
}