{
"KTrans": [[-46.4,-13.997,-1.263,-3.322,-0.35,-42.499,-3.326,4.739,-3.537,0.888,-39.274,-6.715,-6.913,-6.565,-3.422,-36.454,-2.068,5.806,-1.024,0.441,-35.939,-10.679,-3.758,-6.309,-4.065,-37.125,-1.251,3.581,-2.469,8.639],[-84.644,-42.132,-13.001,-15.688,-13.315,-84.517,-40.264,-20.039,-12.802,-10.426,-83.035,-45.468,-28.868,-13.142,-15.493,-83.928,-43.661,-12.19,-14.43,-15.615,-79.702,-38.374,-23.35,-11.565,-12.661,-80.038,-41.395,-19.495,-13.82,-13.321],[-91.735,-70.057,-39.349,-17.159,-23.363,-94.872,-71.444,-41.08,-17.504,-21.965,-91.538,-74.453,-42.3,-24.397,-19.795,-92.705,-70.962,-39.206,-22.964,-19.276,-94.165,-74.57,-32.9,-27.972,-15.541,-93.718,-70.267,-39.514,-23.835,-23.237],[-96.221,-78.725,-61.037,-39.268,-24.448,-95.581,-78.195,-67.056,-43.68,-32.479,-98.945,-80.653,-61.599,-39.734,-30.412,-97.099,-72.152,-63.637,-43.666,-27.395,-95.979,-81.679,-63.014,-41.729,-24.88,-96.455,-78.339,-57.512,-41.786,-22.41],[-99.509,-86.385,-65.059,-55.732,-38.394,-101.097,-87.239,-68.871,-53.819,-32.964,-98.748,-88.8,-72.991,-54.866,-39.241,-97.501,-87.642,-72.895,-56.57,-36.324,-98.103,-83.886,-64.338,-50.465,-36.015,-98.03,-86.986,-69.15,-60.422,-35.87],[-100.082,-92.416,-78.076,-63.782,-37.918,-99.49,-85.92,-77.457,-68.427,-48.918,-100.147,-92.642,-75.619,-68.398,-42.955,-99.397,-88.674,-75.561,-52.492,-46.645,-99.196,-92.964,-75.544,-61.28,-49.413,-98.941,-92.133,-75.816,-66.562,-42.786]],
"ve": [[4.256,30.312,-27.114,102.87,11.255,-9.993,29.084,57.557,101.15,64.997,-6.465,5.859,11.904,257.234,-34.163,0.961,-110.434,-26.659,-0.852,-11.727,-8.399,0.45,8.101,136.343,70.635,-1.473,-29.214,36.523,22.701,25.871],[-58.404,-23.605,-8.56,-6.583,-2.62,-76.606,-23.932,-13.687,-5.874,-3.566,-44.979,-27.905,-14.952,-7.378,-2.842,-52.74,-21.63,-9.942,-5.281,-2.741,-36.147,-23.038,-11.688,-7.279,-2.389,-86.187,-17.76,-11.436,-6.982,-1.013],[-77.875,-44.908,-25.764,-15.691,-13.415,-61.559,-47.271,-24.31,-18.007,-14.786,4.607,-65.086,-27.158,-17.415,-10.878,-44.435,-43.353,-25.576,-15.908,-12.967,-76.719,-55.028,-20.625,-16.388,-11.848,-70.301,-45.88,-25.268,-16.588,-13.797],[-147.146,-64.847,-48.79,-32.073,-19.426,61.161,-89.08,-49.955,-29.827,-22.875,-4.823,-61.887,-37.629,-29.57,-20.992,-106.98,-52.279,-47.997,-32.735,-20.388,-20.667,-67.855,-16.567,-29.404,-20.787,-88.887,-72.131,-44.316,-32.378,-17.938],[-95.075,-71.583,-60.902,-39.085,-31.557,-101.215,-88.816,-72.096,-40.503,-26.904,-100.303,-69.709,-56.798,-48.966,-30.753,-60.021,-82.443,-54.995,-39.558,-26.342,-88.74,-69.817,-47.291,-35.335,-29.085,-84.728,-75.208,-50.641,-38.403,-27.444],[-91.847,-86.553,-61.237,-42.598,-30.937,-142.219,-72,-65.384,-51.594,-37.529,-80.465,-81.337,-57.171,-50.845,-33.555,-119.043,-72.882,-66.262,-35.684,-40.742,-3.338,-80.84,-62.898,-46.961,-35.965,-81.674,-87.4,-62.925,-54.067,-30.243]],
"kep": [[-49.904,-22.393,-4.751,-11.961,-10.344,-53.668,-6.27,2.109,-16.071,-2.533,-46.222,-9.789,-14.004,-19.418,-15.151,-46.924,-8.632,2.545,-9.693,-4.697,-42.244,-15.933,-10.655,-20.069,-21.098,-48.038,-6.905,-1.64,-4.468,8.36],[-84.83,-29.502,-5.609,-9.154,-8.689,-85.347,-28.511,-10.861,-7.196,-6.502,-86.908,-32.755,-16.224,-5.704,-11.844,-83.373,-32.678,-3.23,-9.335,-12.122,-80.925,-28.668,-13.087,-4.342,-9.529,-81.846,-32.012,-9.48,-6.566,-10.764],[-89.012,-66.523,-22.277,-2.529,-10.635,-91.975,-68.227,-23.429,-0.693,-7.763,-91.895,-71.742,-26.299,-9.224,-9.817,-90.654,-68.992,-23.567,-8.888,-6.979,-91.375,-70.507,-18.099,-13.854,-3.704,-94.528,-65.413,-23.087,-7.966,-11.131],[-90.783,-75.231,-52.616,-13.007,-6.851,-93.093,-76.41,-54.023,-22.282,-11.109,-94.221,-78.191,-49.214,-16.054,-11.576,-91.569,-71.485,-52.762,-18.187,-8.216,-90.55,-80.241,-53.615,-18.745,-4.436,-91.824,-77.247,-53.496,-20.592,-5.468],[-94.45,-80.634,-65.639,-40.357,-11.857,-93.363,-81.329,-67.286,-33.779,-8.103,-95.163,-84.245,-71.393,-40.183,-18.288,-94.167,-82.922,-65.185,-40.041,-12.355,-95.124,-80.557,-65.216,-36.717,-12.724,-95.391,-84.719,-65.158,-43.983,-12.371],[-94.1,-83.934,-74.46,-58.434,-20.266,-94.351,-80.103,-73.307,-63.25,-26.043,-96.753,-85.271,-71.638,-64.468,-24.457,-93.89,-80.283,-75.21,-46.293,-23.349,-94.421,-81.268,-72.702,-55.596,-32.043,-96.233,-86.183,-76.046,-62.283,-26.008]],
"vp": [[2806.25,1858.982,2137.799,1419.211,1430.077,542.902,334.109,325.181,339.315,331.347,249.306,201.73,126.41,143.239,186.268,46.549,23.794,29.823,38.576,29.23,23.569,15.103,16.559,15.437,20.339,11.917,5.848,7.367,8.04,6.022],[6910.933,5907.439,4180.702,5053.173,5850.2,1397.891,1242.88,1001.207,863.266,891.481,715.501,603.857,534.248,481.726,552.231,132.924,116.086,94.796,92.198,92.634,54.302,53.115,46.145,47.483,43.415,28.438,29.342,28.151,24.623,21.261],[7434.013,9366.597,8354.852,7534.381,8060.611,1634.383,2173.928,1706.908,1803.471,1988.986,770.872,1128.739,898.326,781.609,680.115,167.359,185.138,180.073,170.035,177.765,88.482,125.064,73.249,70.21,78.648,39.19,52.546,50.404,37.774,48.397],[9286.029,12405.073,14618.245,14752.316,10669.317,1697.961,2604.068,3291.955,2679.622,2495.961,987.006,1320.777,1310.983,1380.38,1166.334,181.941,194.403,278.758,297.252,244.248,91.629,136.17,139.368,129.002,124.826,43.311,57.229,74.648,71.966,56.324],[10023.937,14444.803,15930.684,15818.497,18258.415,2109.751,3042.144,3201.17,3503.412,2866.96,974.224,1573.21,1852.256,1763.84,1777.82,177.171,302.73,347.193,347.28,293.421,86.43,145.058,148.69,145.743,164.593,48.01,76.669,80.032,104.978,71.926],[9964.659,17637.35,18564.366,17363.57,16342.556,2062.781,2862.193,3938.685,4463.113,4159.336,1046.318,1687.595,1789.404,2217.408,1778.69,198.705,280.243,413.57,282.571,477.329,94.727,169.698,185.444,195.558,169.857,49.221,85.864,95.783,116.495,80.231]]
}