{
"KTrans": [[-23.156,17.375,11.868,8.455,7.702,-14.617,23.29,15.636,14.183,17.17,-2.884,25.173,19.786,21.746,16.723,18.869,78.147,77.803,67.775,60.989,59.308,190.196,158.25,113.35,93.537,257.625,146.565,154.074,152.347,145.284],[-68.806,-0.369,9.908,5.964,9.067,-64.881,3.344,15.849,13.445,4.382,-67.236,-1.997,15.377,13.783,14.141,-54.481,52.544,61.873,48.64,39.109,-0.963,17.036,61.513,85.54,73.935,34.194,71.106,45.968,83.629,102.652],[-75.844,-13.088,8.346,6.19,6.295,-81.231,-14.93,13.255,9.458,11.424,-74.06,-10.199,14.041,11.559,7.646,-67.078,4.029,46.527,43.659,34.684,-62.424,-34.729,81.676,76.756,75.038,-20.19,-5.703,52.937,3.449,114.307],[-92.072,-39.605,3.429,9.186,7.214,-89.097,-36.967,1.013,15.127,10.326,-90.527,-32.062,5.567,8.991,12.508,-86.663,-28.002,24.146,44.918,41.135,-65.414,4.73,36.946,60.586,66.106,-24.132,-10.373,45.486,54.436,31.017],[-96.23,-60.836,-6.178,12.437,5.619,-94.827,-46.684,-1.102,11.845,14.455,-99.403,-41.179,1.207,15.904,16.304,-92.197,-44.467,19.172,31.741,36.664,-74.6,-25.38,-2.185,47.586,59.439,-53.073,2.758,-3.535,16.991,16.358],[-94.508,-66.474,-11.821,6.298,16.423,-97.566,-60.889,-12.612,5.379,11.321,-98.299,-56.69,-11.069,6.385,20.5,-94.667,-66.949,12.148,30.535,34.922,-90.531,-49.377,-14.404,48.487,63.049,-59.79,-28.324,-8.079,32.364,74.771]],
"ve": [[21.874,11.055,-21.879,-12.78,61.577,109.471,11.251,2813.057,97.988,-19.689,31.326,8.735,-148.073,345.299,47.079,68.316,-438.535,42.452,27.073,33.396,105.917,21.896,14.896,-7.526,-96.204,202.609,91.009,20.332,12.415,-2.479],[5.059,6.805,2.82,-1.054,1.152,21.059,7.327,6.709,2.615,1.431,55.017,9.231,6.818,2.768,0.297,59.014,31.252,16.869,10.135,7.585,109.849,60.207,32.983,24.517,13.525,207.465,93.167,68.21,41.315,20.006],[1609.602,5.103,0.36,-1.034,0.216,-288.581,8.063,4.05,1.313,0.92,-85.176,7.852,3.794,2.188,2.516,-2.165,59.491,21.198,11.997,7.872,108.815,29.186,30.797,29.717,18.583,217.506,107.733,64.564,63.929,32.792],[-10.203,13.582,2.527,2.734,0.14,15.163,5.82,0.626,0.839,0.092,23.624,8.158,3.191,2.756,0.833,15.248,19.409,21.485,11.643,8.853,109.149,51.848,37.851,26.419,19.309,217.908,108.938,69.709,45.638,24.016],[-3.826,3.675,0.567,1.903,0.893,7.165,4.017,3.047,1.572,0.958,-17.107,7.293,5.488,3.346,2.221,46.538,29.837,18.23,9.333,9.92,115.025,52.501,37.094,24.793,19.151,206.534,106.162,65.416,47.932,39.651],[37.204,10.033,2.68,0.264,0.851,15.793,0.422,-1.871,0.088,1.399,12.119,12.931,4.665,2.489,2.829,46.522,30.239,18.8,13.024,9.37,90.876,55.124,31.875,24.217,20.192,234.002,101.706,68.371,48.97,39.146]],
"kep": [[-41.162,16.091,12.094,17.102,10.593,-36.443,23.659,11.892,17.292,32.329,-28.338,19.905,21.337,29.331,28.085,-30.974,45.933,74.365,93.037,95.835,-11.85,112.454,119.48,111.935,116.649,46.612,58.797,105.396,136.864,156.896],[-77.675,-4.706,9.294,10.226,11.195,-76.146,-1.66,10.409,13.155,5.436,-75.828,-8.533,11.377,12.868,16.619,-71.343,19.623,39.728,37.214,32.528,-51.362,-15.227,22.945,50.134,55.704,-44.206,-3.194,1.767,32.365,55.951],[-83.158,-19.38,10.335,8.721,7.021,-88.819,-19.549,11.072,10.016,11.62,-83.648,-16.989,10.991,10.336,6.205,-81.45,-17.849,22.858,29.21,25.696,-79.783,-50.036,36.601,39.036,47.877,-69.492,-42.599,-0.046,-24.097,58.313],[-95.548,-44.676,1.699,7.788,7.773,-93.116,-40.752,0.659,14.421,11.225,-94.383,-39.115,3.796,6.705,12.158,-92.997,-45.854,3.137,29.964,30.324,-82.523,-26.374,1.977,28.152,39.63,-71.216,-49.431,-8.184,10.204,0.109],[-98.276,-65.077,-6.425,10.696,5.418,-97.646,-52.166,-3.722,10.635,13.842,-101.999,-47.078,-2.683,13.305,14.627,-95.258,-56.73,0.905,16.174,24.51,-86.805,-50.073,-24.23,17.58,33.019,-81.42,-44.97,-34.668,-15.223,-11.972],[-95.922,-69.037,-13.619,5.65,16.155,-98.849,-65.922,-16.758,5.149,9.985,-99.148,-61.774,-15.753,3.799,17.991,-96.127,-74.651,-6.377,16.016,23.206,-94.38,-65.1,-33.927,19.019,34.518,-85.023,-60.55,-40.078,-7.048,26.793]],
"vp": [[2255.23,-127.032,-626.879,291.418,993.033,363.001,64.213,71.986,68.907,-58.095,136.884,1.471,45.247,-26.894,-76.359,34.714,-24.005,-19.129,-33.715,-9.45,-10.752,-25.9,-25.34,-20.121,-8.069,-31.552,-33.421,-41.173,-40.388,-31.181],[5925.038,2641.375,1804.463,668.667,862.695,1126.545,605.661,172.771,135.499,252.162,493.016,319.516,149.676,65.558,16.055,82.828,28.343,1.809,5.78,1.723,24.629,-11.52,-26.083,-1.468,-19.931,-2.09,-28.783,-20.388,-16.709,-30.221],[7086.653,6613.136,3514.183,1029.979,1388.203,1310.998,972.92,940.533,252.581,424.426,626.16,765.754,124.79,-14.179,42.514,77.518,104.074,38.703,8.575,10.021,14.327,27.952,-0.821,24.57,-3.526,-0.119,13.16,-32.125,1.049,-19.347],[7211.623,9418.213,6683.483,3414.206,3622.873,1402.436,1717.768,1251.233,464.807,620.241,565.716,847.084,613.354,359.411,250.966,124.855,174.27,90.577,66.326,52.057,32.932,35.361,46.826,4.909,1.562,20.458,18.842,-13.203,-41.685,-19.876],[7686.532,11771.418,9152.096,5996.333,3537.117,1560.973,2257.971,1863.023,1168.95,799.279,765.202,1068.141,1027.835,566.646,390.089,127.976,197.386,183.327,83.968,63.04,41.468,75.754,76.619,55.038,11.291,8.211,17.994,22.051,-13.402,-2.683],[7287.535,12247.39,11467.432,8927.598,6080.932,1468.7,2556.622,2502.715,1531.925,1022.496,700.885,1361.235,1243.423,891.735,517.943,136.631,250.982,217.159,123.127,83.63,60.428,103.379,105.031,30.281,52.41,-2.067,10.534,15.441,-7.578,0.861]]
}