{
"KTrans": [[-0.992,1.402,0.909,2.046,0.545,1.026,4.341,1.755,2.005,-0.479,11.401,0.638,4.464,2.04,0.963,31.622,25.407,7.327,7.303,8.89,43.033,32.848,26.192,29.723,22.741,147.344,119.82,79.227,75.859,75.193],[-41.97,5.674,1.695,0.003,0.391,-35.86,-2.146,-1.508,1.285,1.553,-43.349,1.667,1.936,0.45,0.944,-23.121,13.774,13.534,3.26,4.654,18.044,43.837,20.29,18.521,9.882,36.598,41.856,52.02,28.338,31.744],[-78.194,-7.49,-3.056,1.951,2.237,-73.527,-3.338,1.45,1.128,0.316,-77.916,-2.877,5.408,-1.437,1.282,-56.185,18.754,6.867,3.24,4.639,-52.041,34.591,25.64,6.528,11.969,-42.001,83.079,34.513,36.909,18.861],[-86.351,-20.653,-0.511,1.428,-1.426,-88.024,-24.977,-1.893,3.269,1.299,-85.112,-16.251,2.67,4.614,2.114,-73.934,-7.409,10.551,7.27,6.606,-49.153,2.241,34.173,14.423,9.973,-33.989,33.324,48.128,45.975,19.539],[-91.664,-46.435,-8.826,3.544,1.48,-92.095,-45.747,0.76,1.333,3.953,-89.285,-36.973,3.564,0.344,4.881,-85.386,-37.83,17.262,11.634,4.211,-76.846,-9.595,14.25,19.603,12.533,-60.441,-26.948,32.185,51.718,35.808],[-92.494,-54.886,-7.942,1.817,3.006,-95.024,-53.321,-2.269,2.676,0.931,-93.084,-59.578,-13.376,-4.777,3.706,-90.846,-46.434,2.094,13.487,12.082,-81.459,-40.972,-0.147,23.188,12.426,-65.245,-27.301,20.398,26.172,36.566]],
"ve": [[2.482,-0.282,6.019,5.944,-46.42,-3.661,2.302,2.359,2.644,9.42,7.968,3.818,3.662,134.964,-202.343,0.071,-8.113,-0.252,450.594,-49.511,10.445,-6.2,-18.066,-10.755,-26.299,52.522,11.213,-9.574,-20.59,-33.567],[-23.93,-0.965,-1.151,-1.518,-1.344,-22.11,-2.63,-2.25,-1.399,-1.111,-27.435,-3.744,-0.811,-1.862,-1.582,-14.992,0.274,3.963,0.036,-0.586,5.866,11.925,-0.543,5.548,7.523,40.493,7.273,12.135,-0.15,-1.373],[-56.822,-8.944,-4.01,-1.763,-1.461,-55.87,-6.258,-1.786,-1.647,-2.04,-62.132,-5.503,-0.957,-2.547,-1.827,-34.909,-0.25,0.527,-1.826,-0.57,-43.985,7.802,8.304,-0.695,2.513,-5.408,27.566,4.634,8.146,-11.907],[-67.428,-18.28,-3.664,-1.973,-3.187,-78.482,-16.739,-4.792,-1.487,-2.259,-64.742,-16.667,-3.071,-1.136,-2.074,-79.415,-12.012,-1.394,-1.874,-0.623,-31.317,-10.305,-0.993,2.331,0.761,-15.306,18.502,22.073,13.683,0.147],[-76.856,-37.367,-8.151,-2.736,-2.344,-80.321,-35.415,-7.064,-3.042,-1.733,-85.86,-28.899,-5.071,-2.961,-1.653,-23.791,-27.452,1.131,0.686,-1.646,-62.267,-14.297,-0.948,2.976,-0.615,8.775,12.934,10.952,9.987,29.542],[-82.699,-39.443,-13.327,-3.18,-1.951,-78.738,-47.807,-9.71,-3.524,-3.511,-73.463,-33.389,-13.761,-6.836,-2.202,-69.291,-41.735,-7.951,-0.425,2.012,-79.267,-28.322,-10.324,-1.251,-0.612,-14.908,-29.262,1.801,11.193,8.054]],
"kep": [[-2.277,4.038,1.045,2.946,-1.623,1.57,4.804,2.671,5.639,0.522,2.954,-0.163,5.029,2.151,2.812,17.93,14.895,3.885,4.706,10.184,24.156,5.274,5.863,25.11,14.035,57.304,69.631,53.37,54.657,74.279],[-35.242,6.03,2.584,1.616,1.929,-27.352,-0.612,0.59,2.73,2.827,-34.13,4.59,2.37,2.404,2.735,-27.766,9.633,8.111,2.349,5.169,-8.943,22.09,6.697,10.996,5.217,-13.572,25.545,14.666,1.408,16.205],[-69.055,-0.342,0.476,3.512,3.686,-65.783,1.341,2.535,2.545,2.382,-68.91,0.39,5.644,0.85,3.079,-57.916,13.929,4.873,4.387,4.834,-54.85,11.949,17.996,4.646,7.693,-51.849,17.72,21.582,14.209,3.44],[-82.934,-6.619,2.324,3.193,1.695,-88.183,-13.676,2.168,4.452,3.42,-77.276,-4.576,4.764,5.293,4.01,-71.891,-1.246,12.021,7.861,6.588,-56.638,-6.553,36.676,7.063,7.224,-56.289,-10.582,5.26,25.628,8.359],[-87.123,-33.505,-2.694,5.657,3.656,-89.464,-34.478,6.746,3.945,5.542,-88.137,-24.118,7.563,2.625,6.359,-80.235,-30.234,12.258,9.672,5.289,-77.798,-21.494,4.521,16.007,11.105,-71.691,-34.725,2.437,27.548,29.48],[-88.106,-38.685,1.538,4.055,4.62,-91.554,-37.113,5.421,5.32,4.131,-88.176,-42.565,-3.846,0.872,5.494,-83.649,-38.495,6.346,11.643,9.376,-77.777,-43.96,0.05,22.632,10.556,-76.721,-42.499,-6.724,2.169,23.854]],
"vp": [[384.857,277.018,118.073,-7.973,94.091,83.275,-1.658,24.102,19.814,74.389,-28.814,29.029,-16.163,-6.149,16.614,-6.981,-24.321,-0.514,-9.399,-14.561,2.211,-14.646,-10.01,-23.639,-14.92,-31.529,-31.806,-20.191,-24.568,-29.461],[2843.944,230.817,246.561,468.989,364.864,445.89,145.606,138.08,58.023,59.278,294.458,72.693,16.579,62.119,29.064,29.729,1.338,-33.968,0.657,1.156,-5.914,-24.166,-16.359,-20.48,-12.959,-22.159,-5.362,-25.525,-14.218,-22.898],[5918.835,1889.945,1296.743,423.497,331.026,1133.938,266.057,113.944,112.251,146.764,596.211,114.316,22.91,87.807,60.817,71.469,0.679,-5.477,7.385,-3.188,44.325,-18.281,-18.973,0.426,-18.527,2.434,-30.715,-7.245,-23.74,-7.145],[7136.9,3922.459,984.431,701.779,1370.882,1514.106,690.582,235.125,99.748,153.932,672.143,338.151,85.06,14.628,80.518,127.392,53.005,7.797,13.215,-0.108,25.906,23.537,4.423,-10.583,-5.638,8.648,-21.295,-39.224,-31.676,-6.788],[7875.765,7491.051,2253.156,862.955,870.626,1659.635,1434.011,399.49,233.582,151.762,825.499,576.896,152.071,89.932,61.18,146.401,111.828,-11.991,-8.242,12.85,59.965,29.08,1.744,-14.49,1.898,0.829,-15.691,-19.458,-21.346,-11.92],[7691.593,8629.263,4091.18,1234.68,847.214,1667.402,1876.443,567.225,282.072,324.736,764.752,1012.328,412.826,276.363,84.847,150.51,172.874,45.193,-2.333,-28.772,81.113,54.21,30.982,4.086,1.072,4.15,37.984,-2.582,-25.746,-22.762]]
}