{
"KTrans": [[-5.66,40.14,31.503,37.137,19.35,-13.909,44.905,36.219,48.154,32.945,-14.26,86.888,59.854,37.003,38.211,145.132,153.193,130.935,105.635,103.422,325.362,313.406,233.7,219.28,192.545,951.947,712.397,554.756,493.916,419.014],[-90.416,43.832,71.676,46.767,45.544,-82.813,42.466,75.458,38.46,42.241,-100.387,60.527,90.923,56.001,49.485,-72.923,108.269,101.125,95.905,82.648,-48.479,215.746,216.754,138.119,125.494,34.399,540.154,416.351,255.921,214.183],[-108.311,-37.782,96.518,86.021,64.207,-109.586,-33.774,96.435,78.163,54.005,-111.046,-17.502,102.119,82.488,70.277,-113.265,-7.24,144.202,126.938,103.303,-95.016,-19.982,176.257,168.07,130.286,-158.061,152.256,345.861,326.454,258.595],[-102.666,-87.05,48.334,90.9,95.446,-106.288,-86.318,5.367,115.124,88.891,-105.546,-103.199,24.704,121.97,105.857,-111.809,-96.284,49.963,137.419,110.263,-124.465,-48.395,134.681,209.588,192.21,-192.446,-56.718,201.642,340.484,261.094],[-106.248,-118.591,-75.757,93.613,142.415,-108.719,-143.322,-39.806,91.819,145.235,-104.136,-93.962,-27.001,92.494,113.584,-108.016,-130.393,-39.377,171.668,161.06,-90.79,-100.214,-61.797,230.865,216.984,-102.236,-190.402,94.286,345.833,331.878],[-107.693,-120.182,-94.348,12.977,118.02,-103.767,-127.283,-131.715,-5.512,126.788,-101.018,-135.302,-91.334,-2.615,91.638,-106.66,-135.078,-110.806,8.493,168.046,-119.447,-146.615,-97.419,151.304,234.274,-125.317,-134.308,-2.563,89.984,338.121]],
"ve": [[7.954,32.784,-30.649,-55.457,-50.057,20.836,155.308,-2.17,18.967,2.789,-13.464,22.873,-19.155,141.79,-1.575,55.802,20.83,6.884,-7.411,-6.647,102.143,39.171,12.298,-5.621,-15.553,198.121,82.64,39.981,13.393,-3.774],[-4.527,9.97,5.231,5.452,3.408,-106.855,8.856,5.984,3.937,1.472,21.92,9.674,40.823,3.921,5.151,190.052,27.005,18.964,12.637,8.031,103.522,52.215,34.443,20.885,16.167,245.687,101.902,66.32,43.544,28.931],[16.909,-1.63,8.359,4.568,2.552,-0.266,8.19,7.883,3.974,3.633,11.475,10.287,6.177,4.21,5.483,52.502,30.897,17.893,14.446,11.283,111.886,49.57,27.103,25.221,18.668,188.042,106.629,69.818,50.905,38.688],[-28.529,-14.385,-16.877,3.137,4.283,281.542,25.545,-7.043,5.58,3.16,17.216,4.485,1.742,6.269,5.674,54.89,34.12,18.133,15.737,12.653,95.57,51.262,37.221,29.533,23.594,29.557,167.427,71.263,49.236,38.878],[-13.901,-2.569,0.408,7.675,-0.231,5.912,393.32,-7.987,7.346,5.409,17.494,10.56,-1.005,8.214,5.151,54.968,22.272,16.009,18.017,12.54,104.376,56.566,31.793,31.251,22.785,186.404,109.775,72.9,54.728,42.193],[11.756,41.885,-18.499,7.398,6.723,11.952,-2.783,4.054,5.884,8.741,-20.124,5,6.285,10.216,3.333,52.853,19.729,20.816,23.716,15.756,97.575,48.658,36.775,30.597,22.368,204.72,100.18,72.51,54.075,43.529]],
"kep": [[-21.318,32.208,39.127,53.027,15.452,-32.963,34.211,38.132,64.013,40.593,-35.281,77.599,69.778,46.107,60.179,57.09,114.052,125.936,133.997,150.821,113.12,199.113,198.311,242.988,255.382,247.124,345.409,372.46,428.263,442.116],[-94.36,30.083,59.044,38.008,41.274,-87.973,25.18,62.065,30.679,39.653,-101.096,39.656,74.255,46.843,41.652,-87.359,60.644,63.902,69.464,67.02,-77.166,106.249,130.642,92.24,90.21,-59.33,207.786,204.238,143.101,138.815],[-108.905,-47.118,76.24,70.569,54.512,-108.166,-44.721,77.159,63.946,44.385,-109.995,-30.765,80.214,67.008,57.074,-108.049,-32.244,94.727,89.429,76.366,-96.55,-49.022,95.263,105.564,87.613,-120.738,24.703,155.643,174.474,150.785],[-102.656,-91.163,32.205,76.4,80.08,-105.168,-90.988,-10.125,92.117,75.276,-104.462,-102.922,9.573,97.872,86.369,-106.621,-93.968,19.833,90.828,79.431,-109.096,-67.976,63.111,128.868,127.165,-128.528,-79.88,72.427,180.077,149.47],[-106.415,-118.301,-79.607,73.016,120.603,-107.989,-137.564,-47.686,69.754,122.088,-103.382,-96.261,-39.12,70.04,93.885,-104.844,-118.593,-52.204,119,121.316,-95.081,-98.949,-74.658,142.345,147.435,-100.535,-141.211,7.595,173.346,190.632],[-107.392,-117.578,-97.086,-0.589,96.343,-102.95,-124.663,-128.198,-16.111,102.787,-100.706,-128.579,-91.987,-15.135,71.761,-104.697,-124.624,-110.419,-12.007,121.432,-109.572,-128.063,-98.519,84.84,155.724,-107.506,-114.848,-43.826,17.877,193.379]],
"vp": [[2977.449,2373.561,2763.024,1990.878,2582.929,482.543,489.54,380.352,558.08,481.259,349.319,253.137,247.634,113.992,211.866,73.877,41.032,34.796,28.866,38.493,35.382,18.862,15.614,22.378,22.435,16.43,10.988,12.494,12.27,9.202],[8544.882,9334.183,7934.295,7003.086,6958.026,1485.783,1866.096,1394.455,1245.635,1277.144,879.258,875.949,812.646,597.586,770.813,157.623,159.877,119.367,146.902,137.667,81.155,90.103,69.443,63.656,77.669,43.746,48.127,36.771,24.812,29.426],[10127.143,15398.079,15191.07,14284.679,12235.215,1868.12,2931.647,3006.961,2455.783,2249.055,971.507,1464.089,1548.182,1046.224,1210.594,216.893,271.721,265.734,254.867,246.271,84.764,142.574,135.289,112.664,109.225,49.452,72.769,72.87,70.071,64.494],[10662.147,17935.856,19532.416,17372.484,17540.644,2015.092,3427.102,4411.604,4147.952,3339.139,1039.196,1669.368,2042.211,1904.701,1684.799,207.663,348.162,328.55,439.636,305.243,107.323,159.301,196.018,197.312,193.881,52.31,88.151,100.44,91.507,79.093],[10853.644,19651.156,23964.012,26551.798,24783.054,2268.59,4175.494,4540.502,5251.918,5479.322,1009.794,1828.171,2255.755,2562.583,2390.955,222.297,345.144,462.084,544.055,510.989,109.525,180.512,232.95,275.178,216.856,51.82,97.647,129.941,128.332,128.652],[10948.441,20713.927,27159.141,28726.452,31393.804,2251.459,3972.931,5044.091,5448.207,7032.307,1207.67,1897.385,2475.938,3058.169,2536.732,224.246,432.674,533.568,580.516,633.971,114.195,211.118,266.059,314.756,297.45,55.557,92.727,122.648,141.604,157.216]]
}