{
"KTrans": [[-2.556,6.779,2.134,0.172,-0.168,4.755,13,9.072,11.012,11.053,11.737,24.882,22.656,21.892,24.158,32.85,79.339,95.584,99.819,98.254,66.385,53.705,129.664,152.996,159.117,-14.488,-376.565,26.753,119.954,167.075],[-15.306,-3.874,-0.789,0.826,0.672,-5.005,1.072,1.482,4.937,4.079,3.782,6.552,2.672,9.264,8.656,93.275,75.17,16.188,31.589,39.921,240.062,165.204,-13.841,23.837,59.313,418.835,448.702,54.095,-112.949,36.336],[-20.457,-3.039,-1.831,-2.417,0.172,-14.134,0.919,0.408,-0.254,-0.076,-9.597,6.137,5.682,3.803,1.748,65.777,60.426,48.412,39.712,0.053,160.404,143.263,116.433,100.368,-25.786,314.09,324.411,271.441,221.215,-6.664],[-30.794,-4.416,-2.895,-2.039,-1.13,-24.759,-2.201,-1.075,1.142,0.75,-18.776,3.513,2.876,4.95,4.035,36.244,48.936,41.729,34.186,32.62,107.085,119.208,96.532,79.759,75.053,223.901,270.653,207.537,185.539,165.659],[-38.842,-10.211,-5.371,-1.78,-2.349,-34.372,-4.728,-1.022,0.318,-0.257,-30.14,0.926,4.391,3.384,3.167,20.155,43.014,35.728,31.644,27.323,77.306,104.509,82.66,70.541,61.388,164.789,226.526,186.511,158.048,141.616],[-47.297,-10.543,-3.947,-3.84,-2.006,-39.906,-6.586,-1.507,-1.672,-0.299,-38.39,-1.659,2.35,2.841,1.815,3.34,35.011,30.788,26.996,24.591,41.176,88.655,75.547,64.183,55.429,106.393,198.413,173.305,144.26,126.211]],
"ve": [[-9.045,-23.909,-46.602,26.261,-74.9,-8.871,40.022,28.247,66.927,27.858,18.645,12.945,47.148,-5.519,-101.515,51.176,-6.914,-97.728,-72.084,-248.501,86.245,31.029,-6.974,-30.214,-45.893,188.738,83.936,33.733,3.718,-15.168],[-2.145,1.474,3.536,2.289,3.853,1.292,0.691,5.811,7.558,3.799,8.277,1.983,0.886,-7.946,7.228,47.627,23.57,27.406,1.623,-73.378,100.06,-64.422,35.485,18.519,-0.114,197.01,99.537,65.95,44.912,27.03],[-0.765,-0.113,-0.801,-4.82,0.97,3.186,1.754,0.624,-0.582,-0.351,8.105,4.286,2.488,0.98,1.385,54.514,24.669,16.753,11.885,7.738,97.446,50.064,33.745,24.78,20.183,191.529,99.481,65.864,43.037,42.708],[-0.81,0.096,0.142,-0.376,-0.809,4.113,1.703,1.008,0.717,0.085,8.551,4.419,2.808,2.048,1.598,47.341,24.507,16.888,12.534,10.371,95.932,49.871,33.832,25.617,20.437,209.62,98.802,66.576,50.616,39.389],[-1.097,-0.89,-0.586,-0.174,-0.29,1.793,1.96,1.437,0.989,0.535,8.943,4.177,2.962,2.218,1.622,46.806,24.022,16.147,12.923,10.345,95.847,49.46,33.516,25.418,20.615,191.846,98.674,66.771,50.357,40.793],[-2.188,-0.039,0.239,-0.407,-0.477,1.907,1.667,1.504,0.501,0.75,9.033,4.499,2.954,2.092,1.633,45.708,24.446,16.64,12.606,10.325,94.178,49.235,33.497,25.585,20.245,198.805,98.701,67.081,50.313,40.81]],
"kep": [[-122.444,-19.258,-3.521,-0.117,-1.047,-128.894,-36.479,-9.815,-22.673,-24.594,-124.96,-48.043,-38.627,-37.025,-42.68,-163.678,-241.622,-178.93,-185.233,-186.281,-171.223,-456.379,-383.289,-367.688,-378.109,-242.385,-945.362,-728.45,-738.215,-769.046],[-30.742,-28.824,-126.214,-5.697,-5.735,-23.557,-19.253,-117.204,-25.043,-6.808,-17.71,-11.52,-131.472,-36.55,-15.222,20.049,60.901,-144.328,-177.441,-102.179,65.189,101.335,-273.919,-332.413,-205.249,49.833,215.481,-158.066,-656.802,-409.369],[-29.621,-9.413,-11.754,-26.637,-115.873,-28.051,-7.012,-8.907,-25.472,-135.944,-27.076,-2.883,-0.049,-14.326,-136.617,2.29,32.991,43.999,58.706,-228.11,20.623,68.274,93.485,132.79,-362.127,21.747,115.857,164.602,193.339,-251.384],[-39.222,-9.307,-6.335,-8.494,-9.199,-36.58,-8.584,-7.108,-2.502,-9.546,-34.494,-4.566,-4.756,0.847,1.501,-18.628,17.382,26.366,30.493,48.429,-7.01,46.186,58.652,67.685,97.154,-5.784,83.288,94.654,125.141,153.15],[-46.619,-15.456,-10.598,-5.521,-8.02,-45.01,-12.137,-6.036,-4.232,-6.429,-43.679,-7.375,-0.655,-0.685,-0.985,-27.794,12.594,15.68,21.945,26.379,-21.674,32.523,39.206,47.38,54.586,-23.687,57.39,74.968,87.331,104.604],[-54.012,-14.879,-7.357,-7.701,-5.851,-49.494,-13.063,-5.494,-5.406,-4.24,-50.972,-10.683,-3.726,-1.378,-2.939,-39.056,4.636,10.982,14.486,17.565,-37.814,21.621,31.545,35.795,39.56,-40.685,42.74,63.146,70.413,77.111]],
"vp": [[85.327,143.748,-50.916,4.292,-24.442,16.358,-7.145,53.408,11.972,15.443,-17.617,16.47,3.032,-0.785,-0.233,-1.688,1.062,-1.949,-0.622,-3.951,-1.387,-3.746,-1.558,-2.46,-0.333,-2.222,-1.582,-2.778,-1.278,-1.662],[1817.69,445.542,87.837,-7.206,30.196,300.854,97.589,-9.264,-19.685,9.819,134.746,35.733,-4.234,-22.757,-9.258,31.572,4.529,-3.067,-0.46,-5.083,9.527,2.646,-1.745,-5.066,-3.103,6.59,0.121,-3.002,-4.726,-0.494],[3206.229,1118.528,547.784,212.521,-229.91,812.834,229.105,63.111,91.335,-5.75,346.255,59.511,34.146,41.445,3.618,62.744,-2.399,3.992,0.918,-3.432,27.622,3.882,0.222,3.303,-0.621,16.752,0.208,-4.614,-2.055,-3.047],[4880.853,1504.424,249.906,124.611,-115.003,1030.651,250.307,50.976,24.877,41.725,556.295,149.31,23.828,21.973,2.726,102.854,11.263,3.503,3.551,1.03,47.067,10.563,-0.23,2.096,-1.524,22.032,7.504,-1.019,-1.411,-3.104],[6255.289,2446.939,784.102,442.91,316.933,1208.315,581.034,131.191,154.645,29.484,591.005,285.797,97.332,35.853,22.059,116.737,40.005,21.47,7.091,-2.52,57.141,27.262,4.424,0.562,-1.514,29.035,10.713,-0.429,-0.559,-6.124],[6976.122,4048.021,963.444,501.267,640.716,1340.024,739.295,263.316,-3.916,72.562,702.399,402.887,128.507,46.697,6.054,128.522,91.446,21.862,4.198,9.843,65.688,39.899,13.965,7.465,1.59,27.408,18.679,8.128,2.129,-1.87]]
}