{
"KTrans": [[2.128,0.028,3.944,2.8,2.862,6.774,8.361,6.72,7.211,4.633,24.653,20.065,12.65,11.871,9.933,179.76,97.527,74.834,64.552,63.219,387.767,217.715,178.987,155.924,141.216,543.995,573.567,430.672,368.547,351.978],[-6.592,0.8,-0.25,1.201,1.199,-1.681,6.208,5.622,3.385,3.731,8.57,12.315,8.159,7.447,6.06,116.744,66.361,43.664,38.381,31.728,173.858,160.18,99.664,78.197,67.238,85.511,378.768,251.302,196.817,152.977],[-24.977,3.001,1.561,1.852,1.892,-20.414,6.262,5.169,3.709,3.288,-9.734,12.774,9.268,6.049,5.787,46.119,66.804,41.576,34.156,28.065,62.555,145.498,86.915,69.555,54.402,-75.21,347.327,224.474,158.771,122.175],[-48.53,-0.219,-0.583,3.026,0.189,-43.022,3.889,4.753,3.421,3.217,-38.939,7.359,10.717,6.066,5.841,-3.43,60.695,45.34,33.885,24.547,-2.928,144.185,94.629,67.663,50.93,-85.751,275.84,221.157,149.53,126.902],[-58.168,-2.609,1.2,2.328,2.018,-55.056,3.853,4.717,4.764,2.128,-49.798,5.286,7.775,5.609,6,-27.981,50.036,39.565,30.346,25.204,-45.507,129.496,94.484,64.716,51.001,-61.033,139.202,224.3,167.523,114.132],[-66.321,-5.413,2.82,2.768,2.351,-64.116,-2.963,5.864,2.225,2.878,-64.933,5.334,6.923,4.785,4.917,-38.921,56.887,48.482,32.085,23.811,-47.39,94.308,94.766,63.501,51.406,-88.559,92.028,208.858,145.168,111.424]],
"ve": [[7.09,1.95,1.173,2.259,6.842,6.989,1.965,1.404,-1.232,12.514,10.497,3.53,0.768,-2.161,-3.922,47.076,13.724,-1.231,-9.561,-16.978,95.043,34.166,8.884,-6.031,-18.519,189.465,82.1,36.707,11.206,-5.235],[2.59,0.852,0.377,0.583,0.445,6.626,2.322,1.093,0.938,0.403,12.096,5.202,2.444,2.051,0.416,51.296,24.438,14.374,9.201,6.007,101.795,48.23,29.878,19.569,12.607,194.916,98.314,61.376,42.716,29.206],[2.616,1.01,0.028,0.015,0.216,6.573,1.999,0.961,0.413,1.226,13.173,4.652,3.489,2.17,1.663,52.392,24.35,16.501,11.225,8.361,97.776,48.226,31.916,23.23,16.909,194.997,100.028,64.764,46.954,35.859],[-5.7,0.545,0.254,0.282,0.103,25.273,1.934,1.44,0.68,0.848,13.422,5.615,3.284,2.366,1.585,48.73,25.262,16.717,12.344,9.164,102.059,49.552,32.807,23.924,18.597,201.73,100.19,65.326,48.373,38.79],[3.257,0.932,0.638,0.037,-0.008,6.081,2.993,1.599,0.884,0.842,8.09,5.245,3.695,2.374,2.032,52.628,25.027,15.959,12.328,9.729,118.567,50.553,32.769,24.892,19.236,201.067,95.476,66.045,50.127,38.375],[8.106,0.945,0.516,0.378,0.408,8.722,3.121,1.701,1.149,0.926,8.71,5.635,3.69,2.183,1.679,54.113,25.143,16.846,12.298,9.4,101.931,51.431,33.784,24.777,19.63,205.947,89.496,66.403,49.049,38.679]],
"kep": [[-1.925,-0.068,6.081,5.774,2.247,0.942,7.894,8.449,11.89,7.729,14.895,17.588,14.342,18.1,19.232,90.812,74.343,78.361,84.046,99.805,149.98,137.584,157.075,173.864,197.334,117.575,270.872,288.176,321.285,377.295],[-8.664,0.154,-0.449,0.817,0.887,-7.431,3.985,4.583,2.554,3.51,-2.888,6.901,5.713,5.497,5.826,42.757,33.92,25.706,26.83,24.429,34.835,75.105,53.653,48.98,48.64,-35.632,139.334,117.168,107.805,95.856],[-27.324,2.165,1.727,1.874,1.739,-25.233,4.258,4.272,3.383,2.074,-20.176,7.833,5.656,3.873,4.135,-4.965,34.074,21.595,20.626,18.226,-18.689,64.757,41.457,37.614,32.159,-88.179,120.946,95.79,75.729,63.312],[-50.238,-0.567,-0.749,2.784,0.117,-46.446,2.163,3.277,2.784,2.382,-46.571,1.676,7.205,3.661,4.181,-36.192,28.21,24.488,19.182,14.109,-51.152,62.539,46.213,35.201,27.19,-91.766,86.036,92.623,67.394,63.11],[-61.033,-3.493,0.675,2.301,2.048,-58.763,0.965,3.089,3.869,1.311,-55.832,-0.026,3.963,3.179,3.903,-53.301,19.94,20.251,16.033,14.091,-71.911,51.61,46.052,31.761,26.547,-85.062,19.299,93.691,77.568,54.38],[-68.277,-6.055,2.281,2.405,1.948,-67.72,-5.718,4.066,1.093,1.932,-69.266,-0.347,3.063,2.558,3.207,-60.733,24.633,26.872,17.605,13.179,-73.22,28.693,44.881,30.834,26.463,-94.112,-4.241,83.874,63.424,51.874]],
"vp": [[221.724,67.431,126.03,115.944,25.492,27.929,-19.515,28.782,-13.79,33.166,13.493,5.678,16.781,38.398,7.91,12.715,4.049,-6.617,8.191,6.009,-3.172,-6.947,5.276,6.795,-0.924,-6.455,1.782,-1.724,-8.514,-4.723],[2202.138,195.736,86.675,58.54,-15.622,375.244,-0.135,10.349,34.051,6.697,206.57,12.266,5.193,21.628,-14.451,49.341,14.57,-9.809,11.415,10.691,17.814,7.943,1.344,2.214,10.681,3.369,3.374,8.844,16.559,2.056],[4614.618,947.231,192.908,-309.61,225.548,832.218,156.208,-26.777,29.033,12.686,452.76,104.095,29.027,-38.388,1.52,98.289,21.886,3.437,18.085,14.259,28.693,5.927,-0.395,6.075,-9.835,12.085,3.467,2.427,1.854,1.99],[6301.927,2013.797,226.383,335.821,-32.68,1297.666,366.629,92.017,22.101,5.925,610.395,163.646,52.269,39.025,12.047,104.545,43.93,16.375,23.465,8.496,59.445,25.538,13.303,0.408,-0.809,22.109,19.083,6.544,-0.536,16.681],[7181.423,3557.353,1005.889,227.401,414.452,1408.774,771.108,239.566,100.807,-39.983,737.806,367.887,137.745,68.159,16.809,148.727,65.811,23.938,18.402,21.18,61.368,49.189,23.144,10.359,2.962,21.742,19.917,10.716,26.532,2.431],[8377.597,5866.608,1531.205,633.025,-51.298,1631.357,1163.244,391.189,117.218,17.304,818.333,453.751,171.801,65.31,3.573,149.758,125.213,59.159,20.099,1.694,71.381,54.024,32.745,12.365,10.838,40.128,33.65,19.198,-1.699,2.683]]
}