{
"KTrans": [[4.982,10.63,9.486,12.607,10.069,12.517,15.796,11.583,15.346,15.51,26.56,23.788,23.985,21.938,21.429,116.189,85.829,81.094,73.888,69.292,272.854,198.352,158.756,157.216,146.528,413.009,442.184,414.299,345.602,326.082],[-25.654,-5.205,-0.405,4.804,4.832,-21.753,-1.002,1.32,4.866,6.674,-7.924,1.272,5.142,8.685,9.581,31.29,47.133,37.408,32.872,33.325,102.311,91.177,85.01,71.522,66.323,143.98,237.544,165.42,151.419,140.135],[-41.22,-17.265,-7.043,-2.426,1.005,-38.285,-14.301,-3.162,-0.155,2.005,-41.104,-11.53,-4.039,-1.797,4.104,-8.505,24.354,23.129,20.012,20.026,20.195,63.872,53.912,53.329,44.373,22.444,158.77,131.83,103.948,100.302],[-57.318,-22.761,-14.003,-9.754,-5.913,-57.007,-22.905,-12.243,-8.698,-3.391,-51.659,-20.942,-10.679,-5.426,-2.83,-31.352,3.278,13.9,12.542,13.795,-9.596,52.45,39.784,36.321,30.119,-4.245,122.459,109.289,85.746,81.876],[-64.576,-33.703,-18.696,-14.082,-8.614,-63.995,-31.454,-18.595,-12.223,-8.943,-58.574,-25.206,-17.64,-9.258,-7.2,-45.047,-8.533,-0.132,5.859,9.156,-37.858,20.904,31.02,29.708,29.594,-50.142,56.28,64.096,84.064,68.41],[-69.548,-37.378,-27.776,-18.434,-13.05,-71.28,-37.875,-24.08,-16.399,-13.097,-65.958,-36.54,-22.029,-14.192,-11.059,-48.833,-10.981,-6.882,-0.269,1.886,-44.161,11.64,13.508,18.268,21.002,-45.887,39.706,62.69,58.695,58.892]],
"ve": [[14.266,28.594,62.892,47.451,40.995,10.949,13.541,-5.03,48.117,-114.948,12.284,12.885,18.807,28.822,-2.03,47.529,20.141,11.668,5.844,-0.649,99.63,37.449,17.067,-1.852,-8.854,179.51,73.79,40.771,17.404,-0.281],[1.271,-1.457,0.442,2.321,6.208,4.077,0.067,3.204,3.818,5.881,9.8,3.594,5.03,5.491,6.371,46.737,22.097,16.178,10.439,9.843,95.705,45.19,28.352,20.432,15.394,183.76,95.149,58.951,41.147,31.342],[-0.444,-2.578,-1.496,-0.68,0.058,2.336,-1.184,-0.133,0.792,1.278,6.606,4.35,1.076,1.361,1.705,45.831,20.531,13.347,9.667,8.479,96.471,46.211,29.907,21.584,17.216,381.138,94.883,61.594,43.836,35.061],[1.707,-3.172,-1.625,-1.822,-0.913,2.143,-0.174,-0.959,-0.256,-0.934,10.294,1.811,0.993,-0.506,0.305,50.121,21.278,13.056,9.377,7.264,96.888,45.109,28.766,21.354,16.866,189.265,94.113,62.691,45.162,36.025],[2.373,-2.874,-2.367,-2.721,-1.697,8.118,-1.83,-2.467,-1.136,-1.571,10.124,0.807,0.359,-0.601,-0.392,45.542,21.115,12.202,9.093,6.558,97.972,44.263,29.769,20.396,16.693,205.163,93.165,58.454,45.658,36.451],[-0.239,-3.978,-2.553,-3.091,-2.753,5.625,-0.703,-2.128,-1.638,-1.377,8.512,2.711,-0.4,-0.57,-1.055,45.859,20.417,12.332,8.017,6.14,99.887,45.128,28.011,20.727,16.955,185.926,100.719,61.034,44.368,35.678]],
"kep": [[-26.835,-26.139,-33.882,-32.401,-48.683,-21.832,-19.906,-31.084,-30.573,-33.985,-15.975,-15.294,-16.295,-23.322,-24.483,8.218,15.165,23.437,27.893,32.618,38.551,60.422,64.087,95.301,102.015,26.725,121.312,168.87,180.158,215.673],[-44.131,-29.296,-27.243,-24.902,-27.521,-44.684,-27.341,-28.054,-25.855,-26.033,-37.734,-28.045,-26.669,-24.324,-24.441,-34.381,-11.946,-13.502,-12.038,-11.106,-25.137,-4.415,5.15,3.885,5.31,-37.887,24.449,21.397,29.712,33.259],[-56.494,-37.825,-30.924,-28.27,-26.295,-55.684,-36.333,-29.194,-27.631,-26.425,-60.13,-37.881,-30.605,-29.317,-25.249,-54.229,-24.744,-20.753,-20.084,-19.202,-55.188,-18.354,-13.718,-8.071,-10.122,-68.386,-4.625,3.956,3.019,7.967],[-69.215,-41.538,-36.118,-32.922,-30.743,-69.54,-43.566,-35.297,-33.166,-28.851,-67.78,-43.122,-35.457,-30.646,-29.337,-65.836,-37.931,-26.407,-24.959,-22.612,-66.743,-23.925,-21.018,-18.193,-18.86,-75.19,-18.255,-6.986,-7.212,-2.768],[-74.318,-49.987,-39.15,-35.548,-32.195,-74.745,-48.849,-39.021,-35.249,-32.519,-72.276,-45.752,-40.124,-33.356,-32.035,-72.726,-44.886,-35.075,-29.298,-25.374,-77.3,-39.114,-26.631,-21.677,-19.097,-86.712,-41.526,-25.221,-8.575,-10.353],[-77.704,-52.264,-45.87,-38.639,-34.778,-80.051,-54.38,-43.325,-38.004,-35.715,-77.414,-54.585,-42.814,-37.037,-34.439,-75.136,-46.163,-39.629,-32.639,-30.004,-79.162,-44.4,-35.563,-28.767,-24.658,-85.576,-48.042,-27.293,-20.37,-15.047]],
"vp": [[286.761,-8.321,225.041,392.784,141.597,-9.916,-11.524,-8.539,25.518,26.326,13.062,-32.357,19.027,57.321,22.475,-13.994,-10.115,6.842,-3.432,-0.706,-4.704,-6.168,-8.159,-16.617,4.893,-8.968,-13.476,7.89,3.543,-2.735],[2993.931,974.877,-432.025,168.627,746.463,521.648,286.027,-10.054,-76.022,-120.367,285.478,49.078,-9.316,-47.048,38.431,25.724,23.202,-2.11,-27.745,-7.287,11.644,-5.947,-2.738,-7.204,-7.531,-8.684,-3.916,-20.138,-17.011,0.001],[4645.06,2632.121,2016.291,1547.426,307.51,984.983,560.387,433.088,132.28,61.029,394.643,259.574,154.838,39.693,-0.328,77.914,66.791,29.004,-0.59,-17.823,15.776,18.491,0.914,10.429,-1.028,1.402,1.723,-4.48,-21.852,-7.547],[5505.748,4456.87,2630.098,1954.285,1204.442,1059.263,822.522,552.67,467.655,90.869,575.755,480.564,199.029,145.076,123.083,107.4,70.784,40.389,22.832,16.419,48.387,47.351,23.53,4.07,-16.829,4.897,14.406,6.606,-9.987,-5.069],[7058.797,6377.216,5075.744,2184.612,1675.986,1314.886,1349.693,605.721,491.612,368.521,641.115,704.197,523.195,175.931,193.153,122.576,125.449,70.498,28.382,32.619,59.477,46.767,51.151,18.519,25.95,25.085,13.983,-11.48,19.711,4.777],[7293.858,7858.648,6133.106,3036.927,1747.968,1325.927,1643.212,1307.741,850.959,348.151,657.587,841.478,594.016,414.997,259.62,137.245,188.598,106.636,81.845,48.344,61.44,77.001,32.944,13.345,32.591,20.295,15.766,22.697,-0.034,8.639]]
}