{
"KTrans": [[-1.498,3.516,-0.303,0.199,2.313,3.021,9.491,12.754,11.997,9.742,8.672,25.379,22.475,20.635,19.655,41.835,78.479,96.195,97.166,96.294,62.693,46.835,129.927,151.986,159.859,-20.272,-348.117,16.167,119.17,164.432],[-19.225,-5.278,-0.384,1.031,-1.773,-11.407,-1.929,0.572,4.74,3.011,-3.573,2.784,1.701,10.519,9.452,74.677,64.51,12.72,31.426,39.726,198.885,161.468,-0.024,19.843,58.527,417.276,341.95,-56.917,-92.432,39.302],[-27.176,-7.871,-3.225,-3.124,-0.176,-21.284,-1.533,-1.714,-0.582,-0.125,-17.264,2.248,4.566,3.413,1.047,46.575,54.058,45.835,36.998,1.988,128.681,122.647,109.174,85.142,-8.386,260.35,284.335,247.188,202.418,-45.662],[-39.696,-8.961,-4.619,-3.015,-2.708,-31.48,-7.582,-3.165,-0.02,-0.315,-27.018,0.522,2.612,1.566,2.128,24.146,42.579,36.909,33.602,27.498,80.693,106.402,88.552,74.941,67.658,195.012,229.208,201.647,179.141,154.357],[-44.845,-13.683,-6.433,-3.24,-3.497,-41.034,-7.095,-4.582,-1.494,-0.447,-37.922,-4.168,0.044,0.788,2.029,2.595,34.027,33.458,26.741,24.142,48.585,82.402,73.302,64.032,57.506,124.749,187.537,169.312,148.567,133.693],[-50.176,-17.046,-6.754,-4.833,-3.505,-48.204,-13.299,-4.43,-2.271,-1.426,-45.169,-8.571,-2.62,0.657,1.169,-9.061,27.005,27.921,23.13,22.3,20.397,70.739,65.706,57.43,50.838,77.656,156.011,152.287,133.532,118.718]],
"ve": [[-22.064,-22.165,-6.267,-3.44,2.122,29.898,-1.593,118.698,35.627,-486.549,-12.895,30.12,49.986,72.904,-43.907,23.053,0.375,-33.998,-42.54,-175.173,131.574,30.833,-7.32,-30.929,-45.796,205.327,84.379,33.334,3.973,-15.161],[-4.204,-20.245,0.926,5.316,0.728,1.242,-0.281,2.43,-26.289,3.529,6.63,38.628,8.178,38.876,17.253,44.965,35.169,16.626,-5.266,151.431,98.891,-97.964,34.614,18.732,-0.49,188.057,98.713,68.243,45.57,27.025],[-0.288,-1.389,-1.233,0.586,1.776,1.656,0.856,-0.01,-13.68,1.875,15.238,3.58,2.081,0.268,3.213,43.722,24.656,16.462,-31.167,10.75,93.632,49.473,33.29,32.426,21.732,190.96,98.242,66.351,45.395,40.696],[-4.718,-0.414,-0.126,-0.946,-1.197,1.364,1.515,0.462,0.75,-0.298,7.718,3.871,2.832,1.728,0.565,47.311,24.409,16.273,12.66,9.696,95.661,49.285,33.255,25.352,20.408,188.445,98.107,66.133,50.532,37.908],[-0.775,-0.696,-0.306,-0.348,-0.545,1.552,1.859,1.011,0.62,0.352,7.461,4.036,2.623,2.026,1.597,47.365,24.361,16.296,12.206,9.979,93.812,49.104,32.805,25.118,20.237,186.156,97.734,66.418,50.05,40.655],[-2.427,-0.084,-0.38,-0.431,-0.342,2.035,1.522,1.361,0.709,0.432,6.118,4.167,2.516,2.087,1.646,46.162,23.708,16.102,12.368,10.069,93.687,48.945,33.005,25.259,20.182,189.34,115.077,66.151,50.191,40.144]],
"kep": [[-125.909,-13.58,4.744,-3.161,-12.651,-127.821,-19.159,-27.953,-15.339,-13.403,-133.635,-58.556,-39.087,-28.784,-33.421,-156.038,-241.398,-184.313,-176.929,-181.079,-178.126,-455.902,-376.44,-362.405,-381.86,-249.868,-897.502,-749.149,-741.396,-778.598],[-40.474,-33.126,-138.987,-11.492,7.954,-32.079,-31.37,-134.235,-16.486,-4.7,-29.006,-23.495,-146.469,-45.198,-19.445,1.203,39.058,-164.826,-178.996,-101.84,36.406,94.215,-238.124,-353.317,-208.889,51.107,125.608,-324.741,-606.382,-403.266],[-39.341,-18.96,-16.969,-34.239,-124.6,-38.017,-12.1,-15.294,-29.914,-137.901,-37.261,-9.467,-6.03,-18.386,-146.421,-13.022,23.366,35.438,47.985,-214.234,0.195,46.731,81.471,94.516,-282.499,2.049,90.504,137.816,164.589,-358.851],[-51.22,-16.171,-12.591,-12.493,-18.869,-44.996,-16.02,-12.418,-8.892,-15.565,-44.848,-9.577,-7.156,-6.775,-11.313,-27.653,10.624,19.067,27.208,31.367,-20.553,35.618,47.968,57.525,80.251,-15.99,57.04,89.049,117.452,135.751],[-54.757,-20.456,-11.752,-8.251,-11.001,-52.822,-14.109,-11.166,-7.289,-7.568,-52.863,-15.623,-8.237,-6.772,-3.561,-40.046,1.379,14.597,13.31,18.309,-35.877,15.461,30.343,38.701,45.712,-37.455,34.965,60.088,77.07,91.249],[-58.48,-22.678,-12.763,-9.58,-8.552,-59.563,-20.24,-10.877,-7.415,-7.927,-58.443,-19.149,-10.317,-5.13,-4.454,-47.567,-3.793,7.13,7.447,13.383,-49.223,7.004,21.636,28.047,32.012,-51.712,18.533,49.085,59.238,69.334]],
"vp": [[84.089,-5.625,-140.742,8.205,24.291,7.907,44.149,-16.713,5.318,14.724,-35.685,-13.523,17.276,5.435,16.856,-4.654,-0.756,-1.139,1.477,-3.596,-3.502,-1.072,-1.334,-2.589,-1.997,-2.944,-2.198,-3.033,-1.821,-2.791],[1805.635,655.209,118.795,-478.101,42.137,316.309,103.379,-0.491,-23.296,-48.686,161.7,56.208,1.124,-7.688,-2.25,33.63,2.649,-2.055,-5.306,4.18,10.676,-0.946,-1.925,-4.614,-3.347,2.957,-0.51,-2.252,-5.555,-3.908],[3746.592,522.898,611.745,324.509,-110.289,718.981,124.189,72.189,111.149,-10.58,357.858,36.438,42.002,-5.506,2.678,72.94,17.311,4.792,1.636,-6.707,31.869,3.843,1.768,-2.049,-3.937,16.287,0.222,-3.864,-1.568,-2.993],[5044.556,1875.794,1167.852,259.188,471.98,1012.906,289.161,114.735,137.658,12.258,543.618,169.358,40.627,8.971,-30.146,93.531,19.723,8.313,3.07,2.931,47.271,10.313,2.368,-0.233,-3.795,23.069,5.504,-0.423,-3.407,-2.825],[6215.381,2849.174,803.728,467.961,-80.18,1215.018,553.148,139.764,46.647,9.196,627.027,324.884,72.621,71.982,47.277,122.152,60.173,12.398,3.514,-0.923,57.396,30.881,1.002,-5.09,0.245,27.754,10.408,1.722,-0.69,-0.736],[6871.645,4766.549,2147.842,876.548,307.595,1430.44,995.782,372.86,70.816,85.327,742.955,439.794,163.175,64.573,2.318,124.85,76.074,18.484,13.107,8.511,67.027,39.529,14.744,4.322,-0.157,31.767,21.102,1.576,-1.064,-3.456]]
}