{
"KTrans": [[-0.707,16.268,7.742,8.613,4.883,8.433,11.649,14.573,10.604,9.002,22.078,24.139,24.404,15.703,13.247,41.443,91.522,62.579,76.244,69.902,159.606,115.913,80.956,64.538,84.872,219.702,170.371,48.215,84.436,33.99],[-51.539,10.826,3.31,10.766,4.082,-53.04,15.72,12.3,8.741,7.636,-46.379,18.458,19.398,8.668,13.834,-12.08,84.777,57.013,53.926,39.235,-23.316,35.58,73.039,84.493,71.813,132.926,99.133,46.744,104.686,52.759],[-75.389,-4.589,11.153,9.092,10.816,-70.192,11.081,14.53,10.276,11.121,-67.34,19.038,16.488,17.082,12.51,-66.579,22.367,51.905,47.948,37.252,-29.933,23.953,45.269,65.94,75.99,81.094,62.896,57.308,36.151,42.895],[-87.157,-16.981,13.828,8.947,10.217,-87.317,-5.782,14.403,15.788,10.781,-81.986,-2.372,23.028,18.435,13.921,-72.416,-27.297,47.75,50.956,32.634,-57.731,-17.323,35.387,83.091,55.481,-18.916,27.075,51.944,46.568,57.368],[-93.252,-42.82,16.407,16.431,10.674,-92.569,-24.097,13.859,14.007,15.173,-88.849,-21.271,15.082,22.414,13.396,-73.798,-21.339,27.04,46.505,44.237,-75.512,1.644,33.188,44.232,62.256,-42.395,27.83,-8.784,35.716,-15.224],[-93.4,-45.251,5.378,14.709,13.223,-92.915,-45.426,3.601,14.349,18.516,-93.964,-45.56,18.002,26.748,22.04,-86.027,-39.387,5.825,56.316,48.626,-83.423,-21.393,3.202,18.074,53.213,-47.1,-21.017,42.056,52.456,40.363]],
"ve": [[24.221,-12.22,360.079,549.205,19.546,310.092,-23.447,-18.581,42.941,13.563,-6.35,21.637,16.399,29.83,16.138,59.375,22.828,12.768,-3.454,-7.086,92.97,42.408,8.201,-10.445,6.036,191.004,82.482,40.038,9.82,-5.511],[15.781,2.369,0.387,2.74,-0.601,-25.7,4.366,2.184,1.898,0.098,19.44,6.329,1.831,1.335,0.738,54.326,23.778,13.856,8.596,4.243,98.404,48.389,344.381,49.46,11.598,197.224,104.626,61.583,41.501,23.314],[126.864,4.55,1.679,0.701,-0.775,134.05,3.431,0.473,3.217,-0.635,21.484,10.211,2.833,1.776,1.44,59.25,24.827,16.171,11.302,8.412,107.557,49.776,31.418,23.832,16.711,196.378,98.17,64.696,45.612,35.583],[-175.909,2.495,0.838,-0.099,-0.224,3.925,4.478,1.522,0.829,0.393,30.236,6.845,3.776,0.505,0.939,51.394,21.932,15.424,11.673,8.511,111.559,46.767,31.237,22.516,17.878,217.463,104.844,64.619,49.155,35.536],[5.877,2.87,0.629,0.314,-0.087,11.244,0.465,1.537,0.744,-0.279,20.902,4.232,3.355,2.269,1.479,120.003,20.725,17.336,11.701,7.645,111.303,49.667,33.194,24.41,18.78,212.693,98.677,67.556,47.206,40.582],[1.702,1.042,2.363,0.615,-0.661,7.997,3.402,0.761,0.401,0.245,147.817,9.179,3.861,1.711,1.61,51.144,35.185,17.302,13.946,8.191,109.752,54.272,33.917,38.368,17.83,208.053,105.446,66.437,49.069,38.164]],
"kep": [[-12.009,21.572,12.713,13.999,6.935,-5.576,9.762,18.711,21.57,15.676,9.388,24.145,31.072,24.068,21.655,-1.144,67.102,56.216,102.558,108.754,40.432,57.631,69.97,61.084,105.913,33.278,80.392,35.13,84.515,57.483],[-61.853,11.03,4.171,9.449,6.928,-60.647,11.901,11.793,8.317,9.477,-58.042,12.852,18.994,8.976,14.518,-41.83,47.537,38.776,42.529,35.147,-55.015,0.871,34.914,51.595,52.655,-13.535,16.569,2.574,50.224,20.695],[-80.772,-7.165,10.413,9.121,12.267,-74.311,8.323,14.645,7.755,12.522,-75.248,12.158,13.838,15.461,11.712,-77.369,-1.951,31.416,32.802,27.018,-62.081,-12.812,14.115,32.855,50.222,-34.544,-7.045,3.314,-0.834,9.521],[-91.034,-19.92,13.721,9.811,10.782,-89.607,-10.211,13.158,15.108,10.815,-87.028,-7.463,18.944,18.36,13.138,-81.346,-37.732,28.353,35.279,22.595,-76.535,-39.905,4.737,44.195,31.534,-68.337,-28.379,-2.088,4.611,19.881],[-94.797,-46.243,16.688,16.535,11.005,-94.565,-29.803,12.801,13.378,15.905,-91.079,-27.369,11.586,19.759,12.001,-82,-37.097,7.94,30.333,33.87,-85.579,-28.569,2.261,16.305,36.011,-77.083,-30.23,-36.578,-1.307,-28.587],[-94.853,-46.676,2.477,14.159,14.18,-93.935,-49.345,3.06,13.936,18.571,-94.997,-49.432,13.625,24.411,20.244,-89.214,-50.833,-8.984,35.928,36.982,-89.523,-46.17,-18.075,-2.588,28.789,-79.109,-54.542,-9.078,5.231,6.213]],
"vp": [[756.585,342.018,322.395,215.211,482.379,74.489,12.62,35.475,77.689,32.229,64.89,77.123,7.229,-43.95,9.702,-14.28,-24.187,-24.516,-25.291,-12.649,-34.187,-31.277,-36.947,-13.601,-24.176,-46.092,-49.057,-23.614,-28.848,-32.519],[5071.003,2220.211,709.802,745.45,635.481,849.701,416.385,122.779,144.104,217.034,449.601,117.898,72.165,73.585,115.201,58.716,24.681,-28.554,14.241,-13.861,27.25,-34.318,-28.064,-4.957,-21.039,-33.586,-51.681,-18.51,-50.595,-29.308],[5284.041,5628.336,2478.64,1738.103,2069.279,1184.387,1261.117,385.926,418.136,221.32,561.36,555.686,95.791,201.906,84.157,95.388,54.923,-5.249,42.963,23.388,27.131,4.757,-15.548,-9.426,-17.131,-21.949,-37.067,-37.183,-28.105,-32.589],[6629.806,7553.75,4715.194,2338.447,2194.981,1327.297,1255.876,849.85,620.142,525.018,573.872,587.782,427.789,278.775,171.959,107.888,138.614,45.601,20.319,0.227,33.741,29.099,11.988,20.768,-10.188,12.796,7.69,-15.363,-28.085,-37.262],[7603.693,10462.379,7368.581,3875.224,3490.727,1538.623,2009.499,1548.939,1062.615,494.347,634.711,924.961,577.755,338.63,397.329,78.307,130.403,107.729,65.529,66.627,53.172,26.373,44.562,24.283,18.216,7.248,4.947,-3.752,-38.152,5.503],[7623.188,10434.831,9272.045,5359.441,4117.421,1336.67,2407.995,1941.949,1059.818,874.398,652.93,1001.278,900.754,557.83,402.749,121.781,184.334,151.246,89.591,63.824,52.007,87.119,46.333,50.744,11.136,-8.965,28.941,3.83,-15.345,-33.557]]
}