{
"KTrans": [[2.481,1.295,0.711,0.807,0.654,12.589,7.483,5.826,5.226,4.803,25.165,15.321,12.496,11.292,10.111,150.729,95.149,72.911,63.353,59.936,-14.538,215.086,164.485,145.472,137.269,-91.244,36.729,278.504,297.09,268.342],[2.083,1.404,0.793,0.571,0.245,14.348,6.597,4.203,3.368,2.549,23.196,11.648,8.751,6.521,5.495,138.466,64.247,47.632,38.247,28.899,-43.978,178.993,95.566,80.183,66.209,38.114,-112.999,218.881,175.56,148.855],[4.852,1.336,0.789,0.716,0.5,13.533,5.534,4.182,3.124,2.433,26.074,11.27,7.417,5.788,5.067,-16.497,75.524,44.245,31.308,25.295,-40.704,175.691,105.212,70.525,54.174,-2.484,-0.252,221.696,173.93,122.197],[7.335,2.311,1.306,1.124,0.637,26.174,8.692,4.893,3.27,2.666,45.957,12.717,7.949,6.026,4.786,-58.392,94.457,47.099,30.129,24.164,-53.115,31.366,113.122,73.492,49.843,-14.641,-32.979,-9.517,154.032,123.795],[1.792,5.235,1.435,0.695,0.97,7.084,13.376,6.502,3.287,2.922,-8.406,16.248,8.822,5.778,4.706,-66.158,107.475,50.266,31.782,24.741,-67.592,-54.136,144.199,69.926,49.238,-31.818,-33.199,-105.522,228.265,135.664],[-36.736,11.077,5.02,1.694,1.003,-38.917,11.818,5.216,4.73,2.644,-90.65,22.128,7.976,3.788,5.067,-49.472,73.909,47.225,27.55,24.925,-66.103,-34.209,157.798,78.01,49.354,-58.595,-34.337,-1.694,9.567,144.764]],
"ve": [[0.829,-0.124,-0.705,-1.28,-1.74,4.23,0.367,-1.755,-3.578,-4.974,8.489,1.356,-2.584,-5.728,-8.123,45.878,13.704,-0.995,-10.821,-18.122,92.604,37.312,10.583,-5.965,-16.351,192.125,91.165,35.524,24.291,-7.291],[1.036,0.554,0.275,0.095,-0.063,5.27,2.462,1.382,0.803,0.304,10.021,4.738,2.819,1.63,0.818,49.848,23.776,14.569,9.396,5.575,99.271,48.943,29.642,19.934,13.118,198.37,97.525,40.387,43.536,30.122],[1.192,0.582,0.373,0.273,0.166,5.014,2.554,1.683,1.172,0.827,10.037,4.991,3.208,2.268,1.68,49.434,25.056,16.324,11.514,8.404,103.413,49.234,32.748,23.571,17.557,199.32,99.324,65.387,49.132,36.084],[1.105,0.676,0.448,0.367,0.246,5.63,2.852,1.834,1.294,1.003,10.923,5.06,3.38,2.497,1.905,50.831,25.506,16.757,12.077,9.349,101.385,47.766,33.131,24.622,18.637,197.683,102.33,65.677,48.69,38.677],[1.698,0.827,0.474,0.323,0.32,6.043,3.127,1.98,1.365,1.1,23.479,5.349,3.521,2.531,2.012,51.618,25.824,16.863,12.409,9.79,105.093,50.529,34.082,24.723,19.237,201.495,97.822,67.486,51.36,39.663],[-0.338,1.135,0.791,0.44,0.314,-18.833,2.88,1.865,1.512,1.109,9.012,5.653,3.415,2.369,2.082,51.635,25.952,16.857,12.292,9.925,100.581,48.693,34.069,25.322,19.497,198.632,99.415,68.465,50.607,39.67]],
"kep": [[3.016,2.796,2.803,3.505,3.837,9.474,8.547,9.185,10.626,11.803,16.89,15.334,17.079,19.702,21.519,72.752,73.771,77.124,85.927,98.308,-46.666,132.589,142.477,164.918,188.361,-69.076,-13.902,171.566,250.913,279.246],[2.329,2.211,1.879,1.837,1.668,9.964,5.438,4.176,3.935,3.624,13.263,8.025,7.199,6.234,6.059,57.982,33.996,30.426,28.03,23.759,-62.451,86.505,52.281,51.957,48.85,-43.529,-91.013,96.752,93.527,93.132],[4.59,2.082,1.771,1.803,1.694,8.932,4.265,3.839,3.31,2.97,15.336,7.342,5.474,4.841,4.732,-40.203,41.015,25.386,19.233,17.118,-65.154,81.715,55.247,39.379,32.7,-60.419,-40.63,91.85,83.85,64.367],[6.267,2.883,2.194,2.115,1.75,19.309,6.949,4.372,3.324,3.023,31.052,8.508,5.79,4.835,4.217,-68.481,54.693,27.186,17.512,15.008,-72.277,-9.841,59.725,40.292,27.726,-66.678,-59.497,-37.539,69.936,61.847],[-0.268,5.438,2.258,1.71,2.007,0.514,11.052,5.761,3.254,3.174,-17.838,11.393,6.455,4.53,4.024,-74.62,63.812,29.47,18.552,15.031,-80.201,-64.62,80.878,37.081,26.439,-73.332,-60.158,-92.446,114.428,68.635],[-37.989,10.654,5.436,2.568,2.03,-41.067,9.488,4.535,4.506,2.875,-89.654,16.381,5.645,2.708,4.294,-64.075,37.071,26.794,14.839,15.004,-80.355,-51.585,89.537,42.679,26.136,-82.42,-62.117,-36.615,-23.924,74.379]],
"vp": [[-12.305,-14.597,-31.556,-29.006,-43.132,-15.941,-3.278,-10.181,3.038,-6.439,-32.337,-15.86,-7.235,3.913,-7.474,-36.964,-3.049,-8.765,-15.639,2.709,-25.413,6.988,-1.204,-9.615,8.404,-22.474,8.104,-1.375,-7.23,-6.299],[124.957,18.598,-26.749,-19.446,-43.21,63.05,24.806,-16.492,2.888,-16.012,11.503,-10.44,-7.38,-10.456,-11.172,-27.131,-17.121,-8.04,17.488,-24.482,-22.254,-11.91,-40.495,2.001,-1.989,-36.686,-28.627,-29.598,1.118,-4.334],[378.368,204.589,81.5,15.758,-12.607,60.831,33.741,12.779,8.403,-28.575,60.486,18.672,-8.928,-12.213,-12.489,-26.536,1.711,8.325,-10.315,-34.993,3.213,-23.239,-5.175,-16.761,-32.869,-26.786,-24.395,-19.664,-7.401,-29.288],[610.32,409.295,330.427,159.64,98.599,137.056,64.664,65.206,45.943,19.369,55.847,76.432,26.266,12.934,5.252,30.707,-1.154,9.163,-7.975,-11.565,3.467,-11.294,-8.497,1.249,-24.405,-15.736,-21.997,-26.423,-32.301,-13.456],[2068.758,682.053,440.318,298.655,206.965,492.193,91.425,120.148,20.035,44.763,320.577,53.757,40.606,16.878,20.427,38.687,-9.964,6.448,0.762,13.911,13.939,3.633,5.742,-3.676,-18.068,-6.798,-17.986,-20.408,-3.561,-7.256],[4478.863,914.276,634.31,486.63,431.811,492.285,155.346,129.235,87.778,42.409,466.965,91.474,66.976,48.104,47.995,25.653,19.335,5.494,-4.334,12.532,18.83,-7.672,2.6,0.692,-17.909,-18.652,-0.091,-6.832,3.804,-15.459]]
}