{
"KTrans": [[1.967,1.584,1.746,0.936,1.752,6.171,12.959,11.435,9.647,12.413,7.43,24.156,24.284,24.125,22.274,71.987,81.787,97.609,99.175,99.632,-50.839,37.56,134.175,153.217,160.475,-404.685,-320.494,36.854,116.294,164.563],[-2.804,0.769,0.406,0.623,1.395,8.064,5.027,1.438,5.437,5.693,20.07,13.396,2.404,9.651,9.114,152.091,99.716,14.149,32.492,39.799,346.395,259.743,19.485,19.787,59.613,540.683,646.763,-271.679,-110.254,41.007],[-4.505,0.01,-0.629,0.155,0.159,-0.389,4.305,3.554,3.055,0.995,16.043,12.995,9.819,8.209,1.566,122.702,73.178,57.078,53.612,11.717,281.442,175.061,142.634,131.361,-0.943,548.879,402.295,352.645,309.808,22.691],[-8.228,-0.833,-0.359,0.398,-0.092,-3.762,3.806,2.904,1.785,1.808,7.491,9.116,7.411,6.116,6.296,94.68,67.452,49.11,42.307,37.522,217.788,144.431,110.188,94.228,85.597,320.237,326.901,279.503,211.125,201.295],[-13.875,-1.422,-1.321,0.562,0.082,-7.151,2.855,2.438,2.921,2.533,-0.144,8.611,7.614,6.207,4.932,65.833,57.036,43.569,34.838,30.615,163.06,121.893,96.195,81.127,72.925,200.477,307.977,232.546,189.674,167.584],[-18.366,-1.912,-0.567,-0.459,-0.58,-14.917,2.186,2.492,2.349,1.962,-6.079,8.16,6.252,6.791,4.696,59.563,56.292,43.167,33.592,27.596,123.701,126.531,87.858,71.737,58.718,200.353,285.939,209.735,169.426,140.31]],
"ve": [[51.537,12.814,37.664,6.512,11.235,5.452,17.289,0.052,24.445,77.169,7.305,-1.988,37.126,115.928,42.692,50.445,-2.645,-45.118,-62.629,-78.244,100.983,31.575,-6.496,-30.001,-46.017,200.594,87.637,33.539,4.028,-14.94],[0.237,0.137,1.142,0.164,0.901,4.488,1.734,15.096,3.532,3.174,9.399,4.837,2.855,7.147,5.351,50.16,25.686,18.316,13.118,-19.926,99.505,49.815,34.029,18.639,0.296,191.201,101.243,66.58,47.916,27.118],[0.554,0.31,-0.115,-0.593,-1.661,4.819,2.547,1.465,0.82,0.118,9.34,5.253,3.516,2.362,2.236,49.243,25.394,17.298,13.01,11.031,95.486,50.865,34.468,24.465,20.147,214.932,98.917,67.034,49.498,39.475],[0.395,0.086,0.123,0.313,-0.15,4.66,2.391,1.727,1.067,0.814,9.562,4.814,3.353,2.313,2.157,49.46,25.446,17.303,13.249,10.815,98.593,50.137,34.319,26.095,20.924,193.309,99.124,67.544,50.512,40.366],[0.387,0.53,-0.038,0.218,0.18,3.81,2.435,1.587,1.245,0.905,9.169,4.925,3.588,2.533,2.095,48.619,24.921,17.073,12.911,10.623,97.7,50.027,33.773,25.78,21.064,198.625,99.47,67.307,51.078,41.118],[0.252,0.402,0.139,0.082,-0.11,4.072,2.184,1.606,1.309,0.94,9.535,5.29,3.366,2.548,1.955,49.084,25.19,16.966,12.843,10.363,56.807,50.328,33.351,25.588,20.62,197.143,99.188,66.889,50.649,40.779]],
"kep": [[-117.393,-4.358,-4.178,-0.531,-2.127,-122.109,-18.536,-15.903,-11.252,-26.255,-148.941,-46.04,-37.265,-36.756,-35.58,-71.788,-233.933,-186.351,-186.575,-192.683,-247.894,-482.026,-373.285,-366.376,-373.708,-383.365,-849.444,-704.839,-736.414,-759.539],[-8.711,-1.789,-127.056,-4.333,-2.653,0.123,0.636,-132.943,-20.843,-12.672,8.502,15.37,-150.071,-31.994,-18.374,77.016,118.284,-133.613,-178.647,-100.71,129.298,229.119,-129.838,-357.651,-204.008,98.792,367.981,-562.048,-622.347,-396.356],[-7.936,-1.159,-4.55,-6.177,-117.699,-7.634,1.896,1.702,1.304,-127.738,2.212,8.99,13.202,19.235,-148.012,46.352,48.162,64.652,118.947,-114.467,85.566,101.443,134.903,221.581,-188.401,103.107,167.17,248.515,341.433,-124.366],[-12.357,-2.941,-3.158,-0.033,-3.61,-11.207,0.639,1.061,-0.387,-0.704,-4.317,4.09,5.02,4.707,12.149,26.391,37.185,38.109,48.875,66.172,53.153,66.615,75.469,94.44,124.828,29.238,114.139,153.097,152.972,221.479],[-17.368,-3.817,-2.947,0.227,-1.478,-14.81,-0.185,-0.257,1.514,2.228,-12.586,3.113,4.68,4.529,5.126,6.22,25.574,27.536,27.9,32.503,24.869,48.936,54.532,61.435,75.254,-10.713,101.477,111.292,119.174,137.041],[-22.475,-3.698,-2.431,-1.421,-2.062,-22.572,-0.918,0.396,0.672,0.701,-18.157,1.926,1.708,5.08,2.988,0.841,25.466,25.382,23.887,23.638,4.44,49.889,44.821,46.812,45.211,-10.009,88.734,89.761,92.879,94.549]],
"vp": [[-49.324,-67.451,-103.326,-20.567,-18.659,5.124,3.626,-26.276,-19.694,16.798,8.449,5.26,5.385,12.705,1.071,-4.313,-0.273,-0.874,-3.805,-2.664,-1.204,3.553,-3.006,-0.475,-3.517,-1.564,0.241,-3.361,0.911,1.971],[520.68,154.4,-95.567,135.147,31.072,99.445,46.725,-2.637,-4.146,5.47,53.444,3.382,3.7,-8.897,-15.356,9.958,2.813,-3.749,-0.691,-4.448,1.603,-2.301,-1.103,-1.216,1.033,-2.877,-1.338,-5.679,3.279,-2.849],[1739.218,135.186,-179.567,72.644,-54.617,375.27,39.656,26.693,14.693,-12.167,197.3,41.841,0.83,7.953,13.622,36.13,1.303,-5.718,-2.408,-2.742,20.671,-1.992,-0.053,-2.357,0.707,9.134,-3.542,-6.641,-3.714,-1.19],[3724.257,716.479,321.607,-7.917,-4.116,584.391,108.389,0.844,17.277,-13.808,336.468,22.958,21.877,3.935,13.149,58.569,11.061,-0.371,-2.131,-1.475,26.652,3.147,-3.705,-9.628,-2.254,10.249,-0.235,0.835,-0.572,-8.743],[5081.169,1230.96,229.168,205.941,151.413,916.949,221.735,66.155,85.613,19.485,409.736,87.518,48.139,29.791,1.035,92.488,18.79,7.415,-2.52,3.282,39.478,2.527,0.205,2.205,-2.071,19.64,5.804,-3.456,-2.601,-0.441],[5796.84,1949.843,951.849,284.503,104.296,1128.961,348.513,145.407,31.675,24.183,573.745,207.276,101.789,34.08,40.446,117.525,27.079,7.16,5.365,-1.843,57.05,19.708,0.508,-3.815,-4.944,27.312,6.652,0.401,-1.374,-3.456]]
}