{
"KTrans": [[-45.691,-78.422,-89.992,-86.377,-82.638,-29.175,-75.145,-82.843,-73.285,-63.575,-51.275,-62.157,-93.976,-70.488,-86,16.534,35.748,-35.017,-34.281,-18.548,110.088,64.415,75.704,36.839,35.933,226.132,184.076,254.939,195.735,206.759],[-61.787,-46.426,-46.306,-59.133,-80.534,-64.761,-48.376,-54.26,-58.752,-75.539,-59.464,-39.569,-59.383,-45.727,-69.34,-31.202,-21.473,-13.067,-32.305,-40.047,-8.983,1.958,18.042,-1.128,-35.944,63.622,82.106,51.36,47.919,38.585],[-74.734,-56.401,-47.886,-46.28,-56.787,-75.234,-51.665,-40.928,-46.549,-52.927,-71.224,-50.336,-45.493,-49.731,-47.058,-55.367,-37.957,-26.23,-26.176,-27.059,-38.135,-24.7,-3.249,-0.722,1.936,-2.578,15.094,34.144,23.301,27.871],[-79.428,-55.362,-51.094,-47.352,-45.77,-80.316,-57.875,-54.138,-36.872,-51.502,-80.573,-59.628,-47.514,-34.594,-36.087,-69.256,-49.914,-38.352,-24.517,-26.27,-55.997,-41.725,-21.626,-11.239,-13.605,-41.491,-12.878,-1.252,8.394,25.767],[-85.145,-70.936,-54.901,-43.883,-45.827,-84.712,-67.34,-52.81,-47.54,-48.516,-83.366,-65.737,-47.9,-48.458,-42.213,-74.845,-58.857,-39.228,-37.097,-29.683,-64.835,-51.765,-33.645,-24.272,-22.931,-42.927,-29.699,-23.875,-4.561,17.561],[-88.567,-73.312,-61.944,-55.353,-54.002,-88.984,-75.395,-60.227,-51.845,-46.389,-87.283,-71.983,-60.854,-48.252,-38.675,-80.404,-66.729,-54.217,-42.481,-38.82,-69.906,-59.073,-39.982,-35.972,-34.218,-60.087,-38.871,-21.693,-5.195,-14.353]],
"ve": [[-35.895,-50.161,-75.337,-6.573,-75.441,-456.786,-32.266,-46.454,-77.834,-51.835,-75.679,-82.79,-37.459,-35.93,-22.35,-88.829,-5.578,-48.844,-73.839,-70.516,95.059,73.089,31.792,-11.416,-250.705,233.548,76.598,142.975,9.316,18.589],[42.773,-55.261,-42.254,-56.822,-41.637,36.99,-57.307,-45.165,-73.205,-55.269,-48.822,-41.102,-80.219,-44.828,-51.267,-14.907,-14.516,-52.035,-18.474,-31.273,64.54,22.58,11.804,-10.735,-39.647,425.047,182.117,64.035,18.276,-8.496],[342.472,-28.966,-49.006,-65.075,-41.249,0.014,-123.63,-49.289,-56.897,-43.104,-44.617,-62.418,-43.198,-28.112,-49.668,527.401,-1.784,-42.489,15.785,-28.385,260.168,21.859,2.034,17.112,40.187,442.006,101.329,106.543,26.049,26.077],[-1.101,231.723,-54.441,-47.256,-66.757,-16.702,-25.639,-101.759,3.403,-48.685,-986.393,-34.452,-34.614,-237.181,-8.27,46.378,38.886,1.048,1.779,-27.443,151.591,13.614,2.946,13.939,-15.571,278.961,116.408,59.441,29.269,74.061],[-80.058,-75.623,-46.256,-48.789,-58.034,-28.939,2.575,63.923,-46.433,-64.472,71.001,-15.919,-33.036,-69.755,-44.89,87.491,12.84,96.448,-36.383,-9.783,115.929,35.059,18.68,-15.608,-37.557,433.336,197.273,11.563,78.549,60.972],[-53.908,-173.305,-69.413,-46.277,-128.922,-13.263,39.27,-34.488,-51.046,-61.054,17.256,-35.516,-61.942,-52.238,-61.408,-61.13,33.367,-35.585,-29.008,-61.021,208.61,94.296,31.8,-5.982,-22.707,288.316,173.969,92.959,59.502,22.934]],
"kep": [[-123.466,-94.842,-65.721,-107.094,-94.643,-127.409,-105.817,-79.795,-62.681,-177.682,-112.081,-125.485,-65.327,-90.672,59.043,-128.984,-163.486,-103.128,-83.258,-126.856,-127.302,-153.009,-254.78,-203.505,-147.04,-130.295,-157.592,-250.842,-343.684,-361.038],[-101.436,-104.776,-123.502,-99.601,-25.16,-99.01,-104.101,-115.201,-96.949,-49.319,-103.035,-108.254,-119.123,-108.116,-60.841,-103.454,-109.515,-118.253,-117.196,-90.205,-94.877,-107.74,-144.203,-137.051,-83.799,-105.632,-105.872,-114.588,-120.818,-148.596],[-102.664,-98.176,-88.25,-110.434,-112.283,-101.702,-87.877,-94.714,-111.92,-116.562,-102.552,-80.711,-99.963,-99.322,-110.906,-100.796,-87.527,-85.779,-116.703,-123.42,-103.904,-97.126,-80.212,-122.422,-150.387,-102.064,-84.082,-92.772,-86.313,-119.676],[-102.04,-91.956,-79.468,-78.133,-94.65,-100.487,-89.147,-74.346,-75.25,-86.081,-100.454,-90.992,-81.017,-80.12,-94.189,-101.988,-87.061,-91.959,-86.088,-95.375,-100.409,-86.792,-83.933,-96.702,-72.637,-97.54,-83.48,-70.474,-66.921,-106.779],[-99.313,-84.462,-79.391,-71.82,-58.253,-97.932,-95.282,-70.626,-59.507,-53.342,-101.359,-96.429,-71.212,-61.717,-59.305,-98.94,-90.439,-78.694,-68.98,-67.496,-101.649,-90.844,-75.726,-62.648,-60.073,-99.936,-96.232,-80.651,-72.83,-75.118],[-102.539,-96.441,-79.753,-69.799,-44.669,-99.78,-95.407,-78.539,-63.843,-55.86,-101.456,-96.494,-73.833,-55.547,-48.265,-99.91,-97.659,-76.424,-66.699,-53.702,-100.595,-97.39,-87.098,-71.609,-57.332,-98.879,-91.099,-74.182,-66.03,-63.648]],
"vp": [[584.727,-129.659,388.549,286.65,579.759,30.471,96.278,83.379,130.291,72.587,18.399,-76.953,-29.89,44.179,24.787,-14.298,-5.081,12.119,8.099,-8.69,-30.914,-16.706,-17.306,-29.634,1.462,-9.625,-20.636,-24.329,-25.844,-14.027],[3102.036,1415.303,443.749,-389.823,67.936,436.469,295.966,-11.379,-138.762,-196.934,221.459,110.582,-15.715,19.651,-14.408,34.088,-6.802,-14.724,-30.06,-3.23,0.771,-21.983,-17.54,-33.291,0.025,-8.921,-24.034,-24.584,-2.884,-37.369],[4613.929,4026.736,1988.227,913.973,-252.167,944.177,747.127,500.946,206.035,82.554,390.308,294.039,165.841,-12.352,0.34,84.484,70.682,8.269,12.467,-29.429,27.428,32.016,-10.371,-17.197,-18.905,-17.985,-24.759,-25.336,-38.358,-18.861],[5770.214,6654.094,5183.382,3502.975,2265.054,1064.324,1313.481,769.949,665.218,182.283,506.807,583.861,543.968,412.046,211.02,79.513,132.487,69.154,65.906,18.092,16.819,28.438,28.401,24.415,-15.87,-17.146,-28.304,-1.877,-24.047,-12.105],[5661.897,6609.812,7017.627,5696.02,4172.847,1087.712,1480.928,1359.128,758.127,797.347,706.609,877.414,629.092,456.218,360.333,78.174,133.529,151.823,116.92,47.682,19.173,54.354,35.162,42.293,8.311,9.562,24.495,1.912,-5.002,-7.037],[6683.37,9499.997,7279.438,7480.1,5459.374,1304.147,1674.027,1901.689,1601.978,1118.326,650.601,888.447,817.563,562.148,399.055,73.569,194.768,151.155,117.645,69.332,63.638,79.964,54.605,44.578,24.023,-7.749,5.662,-4.14,-6.207,-19.966]]
}