{
"KTrans": [[-2.47,0.695,-0.142,-0.473,-2.282,7.975,20.356,3.487,-1.064,8.869,11.822,23.023,19.798,15.462,16.156,32.33,65.34,80.455,81.587,86.638,51.8,38.756,92.798,123.941,129.864,-153.364,-136.101,-37.139,70.083,139.152],[-42.466,-15.75,-2.448,1.665,0.333,-42.442,-14.792,-1.3,4.92,1.014,-40.449,-8.764,0.369,10.76,8.067,-13.188,4.871,9.672,25.611,34.692,-21.863,42.587,-2.655,14.108,47.987,-9.429,29.262,-76.534,-44.686,34.471],[-59.434,-28.096,-14.667,-10.341,-2.176,-56.544,-23.858,-12.06,-9.148,-1.095,-53.44,-17.552,-9.787,-6.857,1.265,-39.209,4.195,9.833,2.632,3.35,-19.44,18.743,24.041,-7.126,0.355,-72.488,65.439,60.844,25.577,-39.511],[-68.828,-32.982,-17.505,-13.445,-11.523,-68.385,-32.534,-15.397,-10.444,-8.703,-61.264,-28.995,-17.583,-8.767,-7.459,-50.264,-6.152,5.7,8.273,2.487,-61.248,-4.25,12.976,35.647,6.814,-49.711,20.199,46.483,11.376,4.285],[-73.409,-38.399,-22.589,-14.931,-9.941,-73.631,-32.956,-18.458,-12.731,-9.918,-73.338,-32.556,-14.108,-10.78,-7.518,-70.587,-22.459,0.513,8.941,9.9,-55.575,-7.934,21.29,21.021,19.401,-67.695,-5.586,14.813,25.636,42.314],[-79.353,-40.98,-24.862,-15.246,-13.598,-74.335,-43.496,-21.692,-16.447,-9.914,-76.8,-42.085,-19.792,-13.217,-9.543,-71.098,-26.571,-3.971,3.667,6.236,-61.62,-11.138,7.59,18.789,26.947,-73.549,-22.506,12.776,42.869,33.782]],
"ve": [[0.742,-9.269,-460.343,-0.586,201.935,-4.157,-265.533,218.189,-52.99,-7.545,-2.384,-29.218,-29.547,418.654,-76.255,64.119,4.27,-72.475,-64.042,54.102,115.143,33.213,-7.625,97.427,-46.421,200.366,83.144,31.85,-0.692,-20.49],[-50.4,3.979,-4.003,-13.07,-33.552,21.699,-73.605,3.562,2.785,-31.62,12.485,-23.818,12.001,-10.534,62.776,34.714,16.63,22.673,-8.089,-7.832,140.682,52.147,83.103,14.91,8.247,221.982,91.78,63.035,43.999,24.183],[-11.046,34.659,-13.386,6.371,-10.869,-8.945,-14.994,17227.78,0.945,13.765,89.188,-3.642,-6.63,6.931,12.837,-38.847,62.754,33.495,12.817,5.652,75.451,127.601,30.064,21.551,15.714,189.303,95.305,68.455,43.362,52.965],[-15.281,-25.794,-3.871,-6.938,-0.48,-57.995,-24.615,-4.495,-4.206,-15.051,-29.161,25.405,-3.9,0.308,-4.592,56.435,24.861,15.282,5.534,5.062,92.223,51.577,27.083,23.047,10.953,181.211,91.022,60.001,49.79,37.659],[-55.217,-16.201,-5.523,-5.222,-4.617,-9.238,0.706,-0.479,-4.684,-5.481,-7.961,-1.153,-0.267,-2.316,-4.157,50.033,18.986,14.082,7.936,8.286,83.324,51.479,3.965,20.933,35.094,257.969,100.025,72.259,50.092,39.067],[48.194,-5.804,2.306,-1.547,-3.708,-9.11,-3.016,-1.423,-1.914,-1.747,-7.085,-2.102,-0.155,-0.879,-1.266,45.049,19.603,13.542,8.854,6.365,93.444,48.269,20.515,22.871,15.132,187.711,75.138,51.929,55.997,37.398]],
"kep": [[-131.102,-62.558,-12.263,-30.369,-10.643,-120.883,-94.913,-30.714,-27.473,-31.421,-129.735,-113.368,-70.475,-67.597,-39.004,-150.675,-217.244,-159.243,-166.018,-207.963,-148.686,-331.109,-346.559,-372.828,-394.73,-213.696,-463.808,-619.531,-666.987,-685.296],[-89.2,-94.144,-119.825,-50.891,-14.235,-89.089,-96.493,-129.461,-75.319,-13.726,-86.518,-83.521,-134.193,-99.083,-36.484,-83.164,-90.375,-160.281,-166.171,-111.511,-95.994,-67.728,-187.396,-253.8,-207.375,-99.047,-88.266,-238.8,-355.178,-323.988],[-86.327,-62.575,-64.482,-111,-132.911,-86.038,-59.075,-60.324,-97.901,-125.817,-83.769,-55.201,-59.525,-100.609,-130.09,-83.417,-52.512,-49.332,-101.175,-165.024,-82.27,-58.24,-56.688,-130.965,-179.237,-102.396,-48.177,-38.257,-94.801,-243.053],[-89.266,-56.405,-44.785,-50.306,-71.609,-89.538,-56.32,-41.712,-43.843,-68.779,-84.536,-56.708,-47.225,-44.584,-57.995,-85.335,-48.971,-35.608,-32.947,-59.206,-93.798,-62.727,-48.764,-16.069,-75.827,-92.947,-64.847,-43.158,-72.294,-94.468],[-89.593,-58.175,-41.316,-36.236,-36.103,-90.078,-54.776,-37.159,-35.266,-38.398,-90.839,-52.642,-32.99,-32.748,-34.87,-93.604,-57.861,-34.774,-21.308,-20.182,-91.409,-57.508,-32.164,-26.462,-25.319,-96.165,-70.671,-60.498,-53.009,-26.663],[-93.195,-58.766,-43.07,-31.16,-33.073,-88.822,-64.162,-38.103,-32.087,-28.268,-91.465,-61.191,-38.007,-30.865,-29.617,-92.166,-60.41,-34.514,-25.344,-18.708,-91.213,-59.864,-38.492,-24.992,-11.082,-98.216,-76.762,-52.756,-30.06,-30.072]],
"vp": [[-147.149,-15.312,248.945,381.262,501.745,19.64,-29.36,-33.597,135.538,136.67,-19.846,-60.723,58.984,-23.047,26.985,-11.624,1.004,-14.591,-4.721,-16.458,-6.789,-13.862,-4.524,-2.62,-0.002,-14.333,-5.551,-0.187,-9.876,-16.299],[2702.986,954.304,-359.108,-565.144,-195.039,527.107,259.934,72.044,-18.237,-37.288,307.489,60.369,-17.684,-24.01,5.511,38.85,9.645,-6.976,0.155,1.052,10.242,3.456,-0.76,-7.579,-4.994,-6.75,-20.33,-10.09,-1.209,-4.45],[4834.088,3125.803,1085.786,1171.37,219.57,968.977,622.032,456.451,297.586,29.149,472.276,344.367,135.31,69.478,-101.324,69.441,63.537,2.695,5.18,4.676,20.931,29.944,2.545,-4.278,-7.991,4.47,-2.487,-6.606,-12.286,-8.557],[5495.245,4883.292,3337.378,959.683,1486.242,1031.047,926.668,701.976,473.104,337.175,616.225,546.972,288.775,217.428,134.208,101.928,94.335,64.797,24.244,27.163,51.409,49.818,16.735,-5.58,2.282,8.45,11.206,1.828,-3.507,0.266],[6823.602,7036.302,3812.196,3324.584,1999.025,1246.366,1299.622,857.323,599.744,439.093,643.163,711.341,386.173,338.295,212.925,116.163,134.212,102.219,67.447,48.808,64.285,45.214,30.116,20.233,14.322,8.055,23.759,16.79,10.456,-4.222],[6947.374,8711.527,8053.377,5718.089,2819.982,1364.745,1780.888,1236.5,619.833,563.902,614.566,811.356,689.32,371.069,288.367,132.266,170.209,122.132,83.663,45.972,51.343,82.369,51.174,45.76,6.609,24.409,28.002,12.113,21.059,-5.864]]
}