{
"KTrans": [[2.969,-0.006,2.94,1.316,1.132,12.669,7.089,6.664,5.808,4.392,24.691,15.798,11.715,11.619,9.204,159.755,95.058,75.211,64.332,59.939,390.938,224.937,175.068,154.635,140.627,1110.72,585.826,451.679,392.991,358.525],[-1.934,0.99,0.831,1.145,1.112,7.295,5.37,4.619,2.872,2.587,14.866,11.472,8.809,6.259,6.528,124.008,64.334,43.957,35.515,31.47,298.505,146.532,97.753,78.213,66.175,791.626,349.366,232.447,178.293,149.497],[-5.901,0.327,1.341,1.418,1.374,3.194,4.418,3.418,2.677,2.773,9.774,10.905,7.482,6.362,5.166,110.723,61.545,39.087,30.618,25.286,245.468,132.465,89.852,66.809,53.77,635.208,327.771,201.558,150.105,123.793],[-13.926,-1.224,-0.057,0.921,-0.496,-8.047,2.735,3.983,2.029,2.059,0.06,10.097,7.928,5.775,4.359,81.553,57.05,38.493,29.209,23.769,217.747,129.224,82.718,62.586,48.754,489.594,304.684,188.371,140.115,112.753],[-19.511,0.719,0.528,1.319,0.444,-15.031,1.151,2.349,2.152,2.734,-6.837,8.475,7.17,4.57,5.181,57.53,55.478,37.122,27.777,21.825,167.382,120.835,78.176,59.901,48.376,363.847,288.567,188.177,136.012,109.785],[-29.905,-1.337,0.981,-0.454,-0.077,-27.367,1.779,3.013,2.646,1.975,-21.236,7.278,4.752,5.133,4.349,44.134,48.997,36.842,27.898,21.672,126.078,114.955,79.05,59.714,46.623,314.938,270.13,177.346,132.071,106.989]],
"ve": [[0.491,1.829,-0.243,0.845,1.055,4.549,0.573,-1.151,-1.706,-1.756,9.023,1.767,-0.883,-4.541,-5.586,45.425,13.035,-1.62,-10.699,-18.272,94.006,33.007,7.847,-7.324,-18.595,192.639,79.49,35.308,10.297,-6.135],[0.908,0.722,0.396,0.141,0.043,5.462,2.665,1.262,0.96,0.551,10.354,4.965,3.009,1.754,1.035,49.842,23.694,14.458,9.221,5.702,100.077,48.003,29.358,19.445,12.8,199.893,96.908,61.181,41.646,28.767],[1.857,0.847,0.542,0.571,0.199,5.995,2.712,1.634,1.283,0.905,10.233,4.845,3.251,2.248,1.679,49.623,24.652,16.043,11.221,8.456,99.559,48.968,32.301,22.705,17.224,200.64,99.049,64.647,46.745,35.772],[2.331,0.643,0.23,0.363,0.067,5.396,2.569,1.852,1.242,1.046,9.962,5.093,3.105,2.429,1.946,51.305,25.084,16.69,11.945,9.341,101.424,50.027,32.636,24.085,18.64,201.744,99.827,65.586,48.446,38.043],[2.712,0.557,0.449,0.467,0.377,5.559,2.561,1.88,1.137,1.029,11.052,5.233,3.456,2.582,2.164,50.387,25.043,16.392,12.269,9.523,101.099,50.336,32.906,24.356,19.268,203.729,100.43,65.955,49.364,38.835],[2.927,0.494,0.349,0.267,0.094,5.917,2.553,1.749,1.318,0.977,10.995,5.524,3.564,2.459,2.066,50.45,25.192,16.736,12.26,9.684,100.935,50.084,33.409,24.818,19.558,202.11,100.712,66.268,49.417,39.368]],
"kep": [[2.805,-1.32,3.835,1.356,1.503,8.04,7.068,8.54,8.664,7.841,14.668,14.17,13.286,17.684,16.762,78.696,72.851,78.405,84.514,96.32,153.331,144.465,155.335,174.989,195.962,314.147,282.226,307.831,347.159,388.664],[-2.747,0.317,0.463,1.035,1.104,1.889,2.681,3.364,1.919,2.071,4.176,6.249,5.668,4.465,5.487,49.631,32.891,25.803,24.09,24.417,99.301,66.573,52.889,49.251,47.35,197.358,128.219,106.246,96.475,93.787],[-7.588,-0.503,0.8,0.861,1.177,-2.515,1.667,1.755,1.39,1.861,-0.361,5.785,4.097,4.035,3.448,40.958,29.562,19.853,17.447,15.519,73.073,56.042,43.496,35.934,31.175,144.626,114.815,83.157,70.431,64.829],[-15.816,-1.842,-0.287,0.544,-0.563,-12.59,0.206,2.087,0.766,1.003,-9.012,4.779,4.66,3.272,2.368,19.96,25.53,18.673,15.411,13.194,57.832,52.743,37.736,31.038,25.372,95.658,102.472,74.113,61.732,54.108],[-21.58,0.147,0.049,0.84,0.058,-19.419,-1.345,0.45,0.992,1.674,-15.988,3.095,3.576,1.925,2.941,4.797,24.318,17.786,13.798,11.221,33.018,46.848,34.062,28.572,24.392,54.082,93.863,73.576,57.98,51.09],[-31.444,-1.84,0.636,-0.727,-0.195,-31.8,-0.726,1.209,1.268,0.977,-28.96,1.689,1.129,2.602,2.224,-4.617,18.927,17.187,13.902,10.915,12.454,43.2,34.199,27.942,22.617,37.454,84.365,66.727,55.288,48.487]],
"vp": [[67.501,-35.807,24.402,-3.14,-41.715,-22.607,-27.977,-33.811,-25.443,-32.754,-27.096,-25.17,-35.045,-34.5,-34.009,-34.741,-32.353,-32.216,-32.737,-33.306,-34.87,-33.52,-33.289,-32.672,-32.257,-33.763,-33.399,-32.774,-31.83,-32.197],[171.697,50.071,-49.885,-12.492,41.742,1.213,-36.592,-29.734,-39.719,-36.282,-20.473,-31.117,-29.608,-33.653,-33.339,-34.297,-36.363,-34.717,-33.05,-32.801,-35.06,-35.09,-35.291,-33.639,-32.306,-34.816,-35.614,-35.212,-33.797,-33.703],[668.16,98.629,-33.606,-20.098,25.108,98.449,-7.14,-22.87,-33.874,-42.047,25.339,-27.114,-31.345,-33.677,-28.907,-24.47,-35.301,-35.871,-35.221,-36.15,-33.038,-36.404,-35.614,-35.348,-34.922,-31.43,-37.077,-36.064,-35.642,-34.617],[1143.147,137.739,34.137,66.609,-76.723,198.011,1.346,-6.777,-33.874,-44.51,90.406,-12.788,-31.497,-36.058,-30.329,-15.939,-34.381,-34.792,-36.629,-34.936,-22.831,-36.723,-36.599,-36.97,-36.461,-27.729,-37.516,-37.16,-35.649,-34.861],[1555.728,415.52,251.53,111.529,67.184,334.26,16.55,4.907,-29.541,-21.93,138.885,5.925,-16.872,-26.687,-40.759,-4.735,-34.619,-35.817,-34.349,-38.662,-16.98,-34.66,-36.955,-37.206,-36.45,-24.42,-35.128,-37.79,-37.775,-35.002],[2356.885,607.276,232.33,69.513,89.736,424.681,77.795,11.105,4.179,-23.017,184.204,17.921,-31.773,-27.158,-30.779,9.505,-25.293,-34.814,-33.279,-35.763,-11.258,-33.443,-37.242,-37.247,-36.391,-19.787,-33.724,-37.693,-38.491,-36.848]]
}