{
"KTrans": [[2.017,1.466,0.813,0.723,0.846,12.106,8.026,6.017,5.533,4.7,25.756,16.371,12.782,11.259,10.897,163.805,92.232,74.348,66.392,61.25,401.666,225.886,176.302,153.877,141.391,1099.989,586.994,455.92,392.411,358.404],[1.766,0.88,0.979,0.096,0.607,9.775,4.928,3.509,3.05,2.55,20.289,11.371,8.107,6.649,5.801,130.557,64.036,44.008,35.835,30.574,309.905,143.332,98.848,77.638,65.887,816.102,355.807,232.524,179.431,150.053],[2.084,0.709,0.741,0.16,0.421,5.304,5.774,3.767,2.993,2.399,18.173,10.605,7.873,5.928,4.656,118.029,59.097,40.478,30.824,25.716,288.269,134.657,87.874,66.618,54.198,696.994,323.823,200.877,150.42,122.916],[-5.724,-0.417,0.622,0.546,0.111,2.559,4.219,3.012,2.338,2.361,13.185,10.253,6.834,5.482,3.987,107.088,59.172,38.052,28.494,23.99,248.22,127.859,83.058,62.766,50.156,597.064,302.971,193.593,141.183,112.369],[-8.455,-1.462,0.07,-0.026,0.331,-1.901,4.623,2.651,2.53,2.027,6.684,9.578,7.134,5.705,3.817,96.025,56.037,36.442,28.236,23.083,217.617,124.315,81.911,60.23,48.071,520.148,294.301,186.515,134.986,106.83],[-15.302,-0.434,-0.153,0.043,0.084,-5.767,3.843,2.595,2.442,1.827,1.488,9.387,6.106,4.962,3.945,76.691,52.576,36.603,27.923,22.196,188.022,120.195,81.206,58.533,47.652,434.029,284.411,180.56,132.147,103.773]],
"ve": [[1.074,0.144,0.615,-0.176,-1.08,4.229,1.02,-1.29,-3.053,-3.119,9.161,1.316,-2.346,-4.719,-7.603,45.291,13.087,-1.307,-11.684,-19.014,93.199,32.993,7.983,-7.577,-18.508,192.169,79.363,35.05,10.291,-6.335],[1.065,0.53,0.343,0.203,-0.103,5.222,2.405,1.472,0.878,0.556,10.174,4.624,2.862,1.57,1.03,49.256,23.56,14.328,9.176,5.569,99.533,48.001,29.595,19.498,12.391,199.591,96.964,60.965,41.522,28.762],[1.684,0.481,0.364,0.209,0.06,5.226,2.638,1.603,1.139,0.889,9.965,5.142,3.333,2.207,1.663,50.395,24.726,15.889,11.42,8.352,100.578,49.486,32.03,23.23,17.26,200.842,99.159,64.654,46.952,35.567],[1.553,0.596,0.356,0.43,0.377,4.973,2.488,1.765,1.329,1.088,10.295,5.045,3.575,2.551,1.827,50.323,25.13,16.587,12.057,9.206,100.99,49.664,32.734,24.163,18.642,201.444,99.787,65.867,48.591,37.952],[1.362,0.699,0.304,0.31,0.27,5.377,2.504,1.794,1.233,0.999,10.582,5.098,3.473,2.427,1.888,50.641,25.036,16.584,12.223,9.744,100.871,50.227,32.974,24.592,19.165,201.356,100.085,66.382,49.354,38.799],[1.574,0.659,0.511,0.317,0.354,5.282,2.733,1.89,1.289,1.164,10.539,5.243,3.439,2.427,1.973,50.522,25.27,16.652,12.275,9.728,101.132,50.395,33.368,24.785,19.612,202.453,100.296,66.477,49.472,39.19]],
"kep": [[1.463,1.925,0.814,1.697,2.735,8.141,7.525,8.077,9.615,9.05,15.783,15.484,16.224,17.519,20.933,82.404,70.792,77.493,89.341,100.113,160.796,146.086,156.981,175.945,197.556,312.445,284.608,313.347,348.343,391.459],[1.119,0.771,1.059,0.31,1.132,4.78,2.901,2.431,2.582,2.406,9.682,6.893,5.532,5.437,5.153,55.2,33.304,26.478,24.931,24.197,106.311,65.09,54.065,49.259,48.197,207.053,132.36,107.419,98.247,94.981],[0.804,0.639,0.787,0.358,0.767,0.512,3.471,2.544,2.248,1.909,7.954,5.638,4.822,4.061,3.363,45.678,28.077,21.717,17.89,16.493,94.377,57.63,42.871,35.755,32.031,166.026,113.675,83.476,71.102,65.095],[-6.734,-0.592,0.677,0.518,0.136,-1.89,2.111,1.639,1.411,1.67,3.052,5.404,3.568,3.279,2.533,38.324,27.721,18.896,15.129,13.996,74.02,52.878,38.472,31.616,27.075,132.198,102.51,77.722,62.965,54.564],[-9.255,-1.744,0.179,0.065,0.463,-6.548,2.487,1.256,1.69,1.423,-3.102,4.695,3.954,3.617,2.303,30.723,25.318,17.509,14.729,12.605,58.802,49.921,37.354,29.12,24.759,106.644,97.87,72.9,57.967,49.614],[-16.264,-0.676,-0.26,0.129,0.129,-10.089,1.511,1.104,1.546,1.058,-7.76,4.374,2.996,2.892,2.341,17.862,22.308,17.575,14.399,11.807,43.789,47.015,36.419,27.56,23.94,77.343,92.704,69.21,55.937,46.989]],
"vp": [[-72.489,-45.444,147.149,70.445,-15.081,-13.885,28.252,19.241,-5.046,-9.353,3.237,-2.777,-3.912,-15.78,-6.555,-1.949,-2.761,0.644,-1.441,-1.339,-0.485,-0.735,-1.535,-0.68,-1.508,-1.333,-1.282,-1.037,-1.45,-0.064],[711.243,91.243,74.222,40.897,56.983,91.53,27.803,-6.201,13.869,19.033,45.985,1.936,5.177,-7.168,7.171,6.438,2.193,-2.139,1.298,-1.102,0.992,0.549,-0.484,-0.64,-0.579,1.333,-1.286,-0.777,-1.137,-1.609],[1751.528,112.631,12.22,-140.49,-14.35,305.271,110.631,-4.435,5.977,-4.716,130.14,16.482,11.554,-2.38,-2.484,29.97,-0.662,-1.985,0.31,-1.513,13.92,-0.812,-2.283,0.869,-2.302,7.441,-0.931,-1.804,-1.34,-0.602],[3059.809,471.929,195.9,130.903,-26.029,599.121,35.624,20.818,18.439,33.47,297.607,35.86,3.78,-7.56,-13.283,61.686,4.321,0.934,-5.095,-1.48,29.195,-0.28,-0.429,0.021,-0.773,14.369,1.184,-1.43,-2.092,-2.472],[4310.05,623.653,17.272,-88.674,179.865,885.8,125.231,-4.82,46.538,-5.149,427.932,62.6,38.544,17.002,-19.194,86.402,8.584,-1.369,-4.366,1.738,41.838,5.185,-0.294,-3.106,-3.002,21.593,1.087,-0.8,-0.763,-1.414],[5640.937,1299.012,370.668,290.411,81.26,1153.075,374.925,76.561,-2.733,50.207,592.71,183.606,32.543,-32.837,-3.435,116.051,24.501,8.092,3.754,-1.128,53.5,10.736,4.436,-1.364,2.361,26.761,5.687,-1.6,-2.278,-1.722]]
}