{
"KTrans": [[1.342,2.728,2.527,0.786,1.329,2.727,11.694,10.911,11.784,10.856,-0.582,26.305,21.883,23.196,20.898,14.836,66.359,88.653,92.022,90.234,3.391,42.181,89.521,125.72,139.943,166.983,-76.665,-9.281,29.717,137.31],[-0.874,0.238,0.211,0.835,0.754,9.03,7.043,1.621,4.724,4.244,20.868,16.8,1.252,9.802,9.751,37.939,17.942,-9.782,23.805,35.595,42.074,-116.226,6.347,6.129,48.797,-58.908,-159.934,0.458,-71.138,-5.329],[2.185,1.443,0.635,0.263,0.002,4.267,4.161,4.537,4.001,0.688,10.022,11.632,10.155,8.429,-0.206,-53.962,43.37,53.23,23.047,-7.058,-38.023,-7.967,4.275,-29.334,-15.937,-2.67,0.528,-72.558,10.271,-56.524],[-10.835,0.557,2.823,0.553,0.006,7.404,3.162,4.363,2.895,2.493,1.715,10.709,10.387,8.172,6.54,-7.539,55.581,38.457,34.865,30.656,-4.603,51.153,13.568,28.455,-0.444,-7.255,68.129,-45.651,-143.077,35.917],[-19.713,3.109,1.651,1.88,1.151,-22.053,2.11,3.241,4.005,2.423,-11.614,12.633,8.44,6.075,6.042,-58.063,15.542,41.283,27.587,29.583,-59.445,7.289,26.669,65.803,42.112,-31.565,-7.216,-6.611,22.643,-149.61],[-29.608,-5.275,0.46,1.491,-0.043,-23.606,8.811,4.86,3.386,2.701,-51.85,10.208,9.606,5.431,5.675,-78.228,-6.435,44.542,35.978,30.965,-60.995,-28.789,25.227,60.744,53.319,-124.864,-34.928,-67.692,-25.303,-45.588]],
"ve": [[1.883,8.317,4.587,3.454,15.35,7.203,-79.124,16.785,19.323,0.14,36.333,-130.946,462.108,78.776,20.668,49.666,-46.63,-83.224,-13.072,-371.574,99.028,26.92,-10.624,-36.044,-52.985,186.707,80.533,30.234,2.242,-17.56],[0.867,0.065,0.242,0.835,0.277,4.708,2.421,1.313,3.823,2.257,9.632,4.871,4.556,4.791,5.682,50.61,26.686,16.139,206.888,11.135,96.486,51.529,32.658,16.901,-2937.81,203.557,101.355,67.635,45.158,26.778],[0.919,0.476,0.153,-0.069,1.301,4.692,2.433,1.622,1.11,1.054,8.415,4.913,3.511,2.378,2.089,57.08,13.907,18.138,12.969,10.11,98.823,50.01,33.459,27.117,20.034,196.63,87.92,-5.816,49.853,39.9],[0.074,0.333,0.674,0.091,-0.047,4.61,1.848,1.55,1.215,0.927,7.941,4.827,3.606,2.715,2.126,50.672,25.098,11.452,11.06,10.968,97.583,58.214,33.713,26.907,19.452,194.099,97.853,68.216,48.262,40.334],[4.465,0.404,0.364,0.43,0.281,4.619,2.195,1.577,1.309,1.103,10.562,4.987,3.361,2.553,2.092,47.632,18.096,15.457,12.017,10.008,86.393,48.579,33.851,22.746,20.373,193.346,99.914,71.857,54.761,41.216],[-0.852,-0.118,0.32,0.353,0.117,4.952,2.721,1.653,1.416,0.97,8.565,4.947,3.541,2.465,2.075,50.265,43.593,15.966,12.681,10.272,103.195,50.531,32.494,25.177,20.276,200.82,100.64,67.529,50.224,42.886]],
"kep": [[-124.381,-5.526,-1.447,1.09,-1.6,-141.926,-15.771,-12.499,-16.321,-14.676,-160.677,-52.742,-32.043,-35.408,-30.918,3.997,-219.014,-182.65,-173.067,-174.763,24.447,-356.493,-365.167,-364.417,-367.889,78.144,-35.56,-535.291,-644.977,-640.245],[-2.936,-3.698,-118.866,-2.317,1.207,2.377,8.99,-136.313,-14.906,-8.157,6.262,22.303,-145.022,-36.171,-20.211,-14.484,-13.964,-50.359,-157.502,-95.639,-22.289,-124.145,13.387,-287.596,-179.534,-65.05,-100.707,44.621,-157.976,-351.334],[-2.513,0.821,1.481,-2.215,-133.86,-5.934,2.582,5.544,8.795,-133.721,-5.484,7.48,14.015,20.104,-169.685,-66.312,12.25,43.782,23.271,-71.525,-63.768,-44.837,-31.629,-77.369,-72.113,-56.929,-46.978,-83.571,-13.098,-33.955],[-16.725,-0.413,3.486,0.601,-1.265,-6.76,0.095,3.346,3.237,4.523,-17,4.771,9.301,9.842,12.288,-41.78,15.971,16.155,26.14,36.445,-51.461,-9.054,-22.523,-4.211,-34.266,-63.421,-13.953,-61.256,-140.516,14.046],[-28.787,1.101,1.1,1.822,1.239,-35.265,-2.093,1.435,4.162,3.368,-31.059,5.105,5.032,5.806,6.796,-68.689,-17.506,17.92,14.464,27.626,-76.695,-37.112,-14.881,30.132,13.689,-69.686,-50.757,-43.107,-26.522,-162.494],[-42.008,-7.984,-0.368,1.449,0.478,-39.512,0.769,2.204,2.818,3.009,-63.319,0.606,5.127,3.337,5.626,-84.972,-36.107,20.488,21.758,24.537,-78.026,-53.787,-12.898,20.525,26.65,-95.687,-66.72,-75.961,-55.81,-65.416]],
"vp": [[18.759,71.674,35.802,-135.301,-61.136,-13.779,-7.048,-7.41,1.241,-10.213,1.409,16.623,-28.026,2.823,-6.27,-4.609,-16.742,-14.974,-15.882,-20.42,-20.394,-21.861,-5.395,-0.665,-12.319,-31.064,3.463,-16.805,-3.374,-14.025],[480.462,16.631,37.314,11.671,-88.372,53.194,9.743,-2.335,7.791,11.221,45.31,16.237,-10.308,8.063,0.795,-1.556,-10.551,-11.468,-13.474,-9.076,-49.578,-20.434,-23.269,-0.693,-17.021,-12.022,-24.712,-34.308,28.624,7.38],[1772.017,182.186,217.815,54.951,-48.947,263.876,18.811,13.031,26.128,-6.25,153.954,49.478,-12.019,-0.171,-4.17,28.469,-30.369,-9.144,-20.75,-22.874,-26.059,-21.151,-33.395,-23.017,-11.115,-41.505,-15.534,-28.967,-41.111,2.965],[2773.946,716.663,348.34,148.092,126.438,683.458,97.463,60.848,-10.516,13.445,323.02,59.518,58.054,30.89,-5.783,18.361,4.772,10.537,4.091,-8.64,-31.579,-26.14,-18.822,-7.077,-31.657,-33.518,-34.247,-21.722,-38.538,-39.565],[3709.928,1633.473,562.995,556.756,223.281,816.732,212.794,142.879,120.476,43.524,426.07,120.953,2.013,33.757,28.346,38.241,27.06,16.613,-25.741,-13.104,13.068,10.449,3.282,-11.375,2.976,-26.315,-25.698,-38.215,-14.767,-12.797],[5366.321,1501.536,1309.067,663.548,550.578,1033.403,348.086,247.111,146.481,57.269,466.291,180.441,49.602,88.293,83.031,121.695,69.487,3.961,2.299,8.526,46.349,-3.474,-17.572,4.681,1.897,8.22,-2.804,-18.506,-14.496,1.587]]
}