{
"KTrans": [[6.594,21.781,14.976,23.889,12.545,15.663,27.673,18.461,23.311,20.11,24.795,40.962,30.036,28.595,25.535,128.35,105.941,91.113,98.36,80.46,391.563,272.006,199.129,186.118,173.632,1068.249,697.355,519.25,436.936,403.795],[-79.257,23.131,44.94,23.604,15.902,-73.719,59.118,40.079,30.024,30.823,-55.505,51.179,43.149,32.708,27.04,-52.745,118.735,116.078,65.361,51.654,14.59,224.169,142.316,116.847,103.059,294.835,397.63,313.501,222.433,200.817],[-90.111,-5.829,74.634,27.988,43.588,-100.005,-0.714,76.98,45.307,46.59,-91.914,-10.093,45.465,57.695,37.585,-89.844,60.744,65.033,69.224,60.291,-59.263,35.991,166.71,167.083,110.052,-30.584,276.527,345.361,268.564,172.748],[-101.585,-66.717,68.976,81.763,43.102,-97.47,-73.49,60.227,102.8,52.441,-95.315,-57.025,21.912,95.595,71.872,-100.005,-64.151,72.526,117.236,88.604,-98.815,-37.75,183.111,181.012,116.5,-34.94,50.237,306.232,294.088,245.033],[-100.162,-98.966,-56.031,81.959,70.032,-101.945,-97.114,-17.811,94.103,83.269,-105.822,-82.671,-24.64,81.743,95.8,-89.481,-94.885,-28.681,144.762,116.792,-91.24,-82.876,29.098,185.415,199.881,-43.778,-60.514,78.84,279.98,203.71],[-96.583,-107.241,-107.679,36.98,124.603,-104.219,-104.009,-100.276,62.732,102.237,-98.935,-90.522,-75.066,34.988,152.013,-104.062,-88.061,-50.87,108.676,177.241,-91.006,-93.396,-81.525,77.947,183.047,-90.691,-104.69,-57.694,113.08,320.926]],
"ve": [[9.738,8.051,53.201,43.157,6.961,23.917,12.965,8.256,51.88,104.554,11.701,12.792,6.521,13.546,495.516,-2.824,15.426,3.344,-10.858,-13.142,106.626,35.387,8.512,-5.166,-16.085,201.954,80.791,36.821,10.59,-4.478],[0.984,-1.27,4.503,1.604,2.247,-35.888,7.867,3.271,2.971,1.803,14.833,6.12,3.325,3.973,3.248,-70.398,25.679,17.46,10.621,5.589,101.848,95.316,30.61,18.986,13.55,187.033,99.497,63.475,42.116,32.674],[5.433,5.786,4.226,0.195,2.241,14.566,6.874,4.874,2.639,3.301,4.163,6.811,3.995,5.164,3.243,51.143,26.637,15.069,11.008,8.184,105.769,50.189,34.476,26.346,19.651,208.554,95.806,65.265,50.841,35.71],[6.142,2.158,4.155,1.018,0.391,5.484,13.212,11.829,4.278,1.899,9.123,5.893,5.732,3.301,3.855,45.879,29.033,15.358,13.549,10.67,336.456,52.672,38.861,24.371,18.404,199.711,97.812,69.259,50.557,41.042],[0.22,2.265,6.948,3.379,1.065,37.963,6.443,2.558,2.463,1.03,12.364,4.534,-12.58,3.285,3.69,53.674,28.421,19.251,16.398,10.5,104.145,52.256,32.625,26.714,22.451,199.184,98.712,68.556,49.63,37.978],[61.382,-0.852,1.582,1.345,2.844,7.527,-16.193,3.324,2.257,1.798,25.4,5.636,3.829,5.998,7.269,9.747,20.682,17.752,17.776,14.326,119.68,51.047,51.007,27.453,19.698,199.225,101.943,66.063,51.972,41.573]],
"kep": [[-4.099,21.726,14.247,30.094,17.203,-3.229,22.808,16.607,29.248,32.424,5.772,33.444,31.033,34.837,37.334,44.165,77.965,90.567,125.97,119.006,140.747,173.933,175.346,202.292,227.9,286.841,338.829,350.153,386.032,426.204],[-79.508,19.179,34.907,19.61,12.963,-76.241,44.084,31.884,24.36,27.868,-62.501,35.685,35.155,25.888,22.16,-70.13,68.211,80.54,46.651,41.328,-43.809,110.248,80.802,78.25,75.789,30.946,147.639,147.916,123.072,124.342],[-89.615,-13.122,60.031,21.929,36.046,-99.004,-8.492,60.078,35.698,37.508,-93.043,-22.14,34.085,45.127,28.729,-91.851,22.167,36.363,46.616,43.73,-77.101,-9.571,91.764,105.127,71.258,-74.47,82.308,160.007,137.607,95.613],[-100.251,-69.865,53.914,68.236,36.322,-96.731,-73.441,44.49,85.971,43.779,-95.441,-60.27,10.602,78.226,58.863,-98.457,-70.56,42.067,82.307,63.257,-98.144,-57.34,96.94,114.29,74.154,-76.956,-21.667,133.439,152.798,138.004],[-99.281,-94.597,-56.683,65.047,58.801,-100.857,-93.127,-24.252,75.328,71.448,-103.086,-82.177,-30.791,63.569,78.475,-93.106,-91.645,-40.86,100.013,84.967,-94.014,-86.427,-5.771,114.69,135.082,-80.59,-78.461,4.704,142.623,109.897],[-95.855,-103.564,-103.86,25.978,103.653,-103.068,-99.779,-95.79,46.377,83.212,-98.302,-87.111,-74.384,20.92,124.749,-101.601,-86.949,-57.479,68.288,131.47,-94.381,-90.94,-83.156,33.582,121.384,-95.56,-98.123,-70.135,32.736,183.169]],
"vp": [[2279.728,1607.166,1628.922,1821.26,1493.745,465.821,244.373,299.33,276.579,281.381,301.926,188.783,175.838,145.278,125.718,37.637,32.183,16.858,38.749,31.039,20.029,17.2,12.308,14.712,13.341,13.25,9.671,7.216,3.418,6.11],[7310.307,3995.219,5899.824,4799.327,3840.945,1215.923,1348.258,893.044,939.617,944.127,588.348,568.984,465.415,408.044,465.38,118.779,121.16,121.495,85.121,85.18,60.82,54.072,43.824,45.548,49.821,30.318,29.684,24.879,18.869,26.13],[7197.625,11407.901,9306.857,6422.666,8831.304,1551.201,1725.85,1882.741,1420.754,1738.728,778.431,1102.71,715.222,839.807,745.332,172.286,201.697,130.794,127.119,139.087,70.421,91.9,78.705,101.698,82.117,38.334,53.905,46.342,41.686,30.089],[8722.58,12027.839,14732.12,12146.542,8027.497,1884.861,2365.33,3222.53,2821.199,2154.075,882.634,1294.059,1497.938,1079.032,1246.516,170.201,268.376,249.422,252.175,219.015,89.748,133.272,143.243,120.774,104.33,40.01,53.505,65.488,51.859,66.091],[9397.367,13399.114,14019.328,15592.546,13583.58,1785.038,2876.887,3050.503,3242.832,2846.105,933.735,1326.957,1733.547,1526.276,1400.115,174.64,268.587,342.052,363.836,278.252,87.536,141.327,151.11,159.776,175.306,45.336,67.256,98.513,78.861,56.124],[8812.638,15779.586,19022.384,20863.277,19989.199,2065.011,2936.422,4126.477,3999.266,3705.615,990.548,1422.634,1742.419,2035.201,2337.086,181.707,275.59,354.517,462.514,469.224,97.721,149.426,190.129,193.431,199.593,46.576,77.282,94.964,129.777,96.546]]
}