{
"KTrans": [[0.883,2.69,1.981,1.314,1.715,14.433,8.287,7.217,7.263,6.157,25.342,17.302,12.825,11.231,11.576,158.925,90.85,75.478,67.044,61.105,397.264,226.25,175.987,150.693,140.302,1067.226,567.105,446.918,387.053,354.45],[-3.1,0.45,1.595,0.337,0.905,7.644,4.774,4.123,2.864,3.777,18.842,9.977,8.209,7.113,5.832,119.197,63.815,44.964,35.034,31.003,302.737,133.901,94.725,77.452,66.307,674.791,364.287,226.15,175.976,149.205],[-10.592,-0.513,-0.568,0.314,0.002,-0.943,2.931,3.071,2.693,2.089,9.679,8.276,5.618,5.343,4.526,103.792,55.489,39.054,30.693,25.211,231.679,123.72,86.614,65.068,53.102,526.51,313.991,200.077,145.073,121.252],[-13.362,-2.022,-1.139,-0.366,0.156,-4.849,0.854,2.594,1.689,1.784,-3.507,5.703,6.195,4.558,3.857,78.178,51.061,35.516,27.453,23.226,198.65,118.322,76.839,59.201,49.971,265.679,278.369,187.017,136.292,109.159],[-24.508,-4.252,-2.606,-1.105,-0.66,-16.853,2.482,1.522,1.589,1.151,-11.712,4.029,3.474,3.868,3.217,55.13,44.281,34.225,25.866,21.251,132.375,110.874,71.607,58.294,47.921,173.769,295.459,176.032,130.766,102.064],[-30.341,-4.428,-2.658,-1.624,-1.333,-24.67,-1.611,0.785,0.822,0.863,-17.829,3.875,2.963,2.886,3.145,29.385,46.027,31.232,25.367,20.288,70.662,108.778,71.746,54.3,44.883,120.49,254.91,177.701,126.577,99.267]],
"ve": [[3.052,1.073,1.815,2.125,2.234,4.334,1.985,-0.403,-2.45,-2.382,10.191,2.42,-1.104,-3.094,-6.747,44.96,14.098,-0.996,-10.869,-17.603,94.32,33.676,8.449,-7.083,-17.403,191.501,78.856,35.519,10.888,-5.466],[1.233,0.413,0.219,0.569,0.487,5.824,2.603,1.439,1.291,0.452,9.56,4.895,3.079,2.089,1.26,49.376,23.59,14.196,9.223,5.771,100.004,47.177,29.412,19.36,12.631,198.85,97.516,60.793,41.477,28.855],[0.517,0.418,0.218,0.39,0.434,5.067,2.353,1.574,1.172,0.748,10.562,4.622,3.321,2.431,1.705,49.248,24.252,15.706,11.207,8.738,99.823,49.143,31.941,22.794,17.137,200.672,99.38,64.652,46.734,36.142],[2.086,0.08,0.2,0.267,0.235,5.794,2.491,1.312,1.023,0.741,9.881,4.934,2.921,2.249,1.774,50.395,24.858,16.015,11.651,9.19,100.888,49.709,32.211,23.666,18.545,202.483,98.915,66.042,48.381,37.854],[1.487,0.348,0.013,-0.055,-0.11,5.588,2.502,1.206,0.946,0.808,11.752,4.878,2.992,2.246,1.736,50.401,24.832,16.235,12.05,9.698,101.165,49.598,32.641,24.232,19.298,201.525,100.168,66.12,48.909,38.517],[1.363,0.108,-0.027,-0.157,0.085,6.142,2.274,1.542,1.095,0.755,11.342,4.539,2.913,2.288,1.795,50.322,25.087,16.153,12.101,9.492,100.009,49.864,32.794,24.404,19.318,214.838,99.346,66.141,49.256,39.002]],
"kep": [[-3.488,0.105,-1.07,-1.91,-1.046,7.827,4.57,6.131,8.476,7.822,11.799,12.65,12.281,13.379,18.316,75.251,64.249,73.981,84.259,92.445,150.786,139.28,149.719,164.67,185.587,291.186,265.355,295.666,330.786,371.595],[-6.019,-1.944,-0.637,-2.2,-1.553,-0.097,0.125,0.647,-0.438,1.26,6.362,2.809,2.897,2.848,2.457,43.722,29.904,24.406,21.198,21.403,96.924,55.675,47.453,45.689,44.707,153.136,130.144,98.671,91.145,89.508],[-12.697,-2.863,-2.746,-2.053,-2.422,-7.494,-1.398,-0.56,-0.532,-0.693,-2.533,1.42,0.179,0.789,0.718,33.866,22.609,17.773,15.158,12.843,62.043,46.869,38.561,31.715,28.076,102.818,102.953,78.405,63.608,59.221],[-16.734,-4.043,-3.314,-2.625,-2.084,-11.804,-3.549,-0.765,-1.358,-0.992,-13.685,-1.3,1.121,0.215,-0.004,15.891,18.509,14.456,11.858,10.593,45.348,42.794,31.011,26.12,23.951,18.352,85.829,69.218,55.938,48.626],[-27.027,-6.488,-4.568,-3.031,-2.545,-22.768,-2.017,-1.695,-1.382,-1.677,-21.167,-2.782,-1.543,-0.446,-0.59,0.918,13.223,13.154,10.064,8.304,13.18,37.961,26.725,24.827,21.485,-11.281,92.953,62.552,51.744,42.874],[-32.511,-6.459,-4.567,-3.451,-3.401,-30.266,-5.699,-2.749,-2.282,-1.908,-27.524,-2.601,-1.958,-1.432,-0.714,-15.741,14.384,10.704,9.579,7.643,-16.762,36.291,26.653,21.5,18.975,-28.256,73.772,63.541,48.592,40.405]],
"vp": [[56.913,48.658,76.252,-107.286,-39.6,12.741,25.556,-6.217,-0.905,-16.771,6.571,17.649,-21.478,-10.31,-6.277,-4.345,-0.936,-3.027,-0.06,-7.363,-0.18,0.06,-4.09,-3.504,-0.968,-4.108,-4.389,-1.446,-1.97,-0.824],[1256.484,242.612,101.612,-48.18,52.792,305.175,75.506,5.505,-9.526,16.881,143.014,8.962,10.673,0.809,-7.224,19.231,5.201,-2.289,-6.757,-5.632,9.284,-5.186,-7.156,-1.024,-2.437,1.169,4.978,-4.207,-4.595,-2.53],[2470.76,673.228,54.003,347.511,-39.806,553.557,132.03,55.748,40.705,-15.699,308.467,24.998,6.936,3.953,-27.245,53.872,4.438,-4.883,-2.763,0.63,25.693,1.877,0.202,-4.443,-3.844,8.079,0.561,-0.301,-6.839,0.413],[4367.475,1076.439,192.689,228.824,189.786,920.42,229.362,81.726,51.26,39.762,406.181,94.297,35.585,6.274,-5.466,84.93,16.576,0.018,1.013,-4.303,39.637,5.898,-2.688,-3.002,1.326,17.524,1.695,3.8,-0.547,-4.016],[5986.465,2472.873,446.561,151.639,118.486,1161.473,530.438,81.34,114.026,8.913,558.106,188.842,30.194,2.911,-8.178,108.694,31.639,-1.54,-1.732,3.808,51.4,18.684,1.341,-1.406,2.326,26.936,11.068,0.58,-0.526,-1.071],[6674.758,3788.087,945.181,526.802,444.494,1333.697,577.358,173.642,168.392,22.892,661.212,322.437,84.232,50.257,29.244,122.96,57.964,20.046,2.599,-3.476,63.419,30.554,6.709,-3.196,0.279,27.778,12.192,2.495,2.466,-2.768]]
}