{
"KTrans": [[-36.759,-12.843,-11.494,-5.021,0.738,-38.117,-12.742,-3.662,-2.214,-0.68,-45.058,9.838,-6.294,2.206,6.474,-47.205,1.698,6.697,-5.671,9.916,-19.902,-5.223,-0.898,-5.489,-3.608,-49.479,-4.937,-1.69,8.751,5.145],[-87.084,-60.723,-23.874,-14.759,-13.1,-87.218,-60.857,-15.12,-11.515,-14.15,-88.021,-47.635,-9.495,-11.26,-14.059,-86.4,-45.025,-29.517,-12.492,-9.9,-84.26,-45.081,-19.283,-11.649,-10.004,-87.863,-54.766,-23.746,-17.936,-2.976],[-98.013,-83.292,-49.961,-26.87,-18.892,-96.006,-82.985,-54.359,-26.757,-21.076,-95.329,-80.689,-51.184,-31.567,-19.941,-96.474,-73.401,-52.418,-29.38,-23.108,-94.491,-80.4,-54.831,-18.71,-18.998,-97.704,-83.29,-50.912,-34.687,-18.49],[-99.302,-90.022,-64.648,-48.939,-22.941,-97.725,-86.161,-76.32,-47.894,-30.71,-99.486,-87.673,-76.196,-51.446,-37.786,-98.019,-86.402,-70.848,-45.672,-32.405,-98.694,-86.635,-70.757,-51.026,-23.422,-97.888,-84.675,-68.628,-47.989,-22.628],[-98.391,-87.227,-80.503,-63.3,-42.051,-99.247,-92.108,-83.489,-58.032,-42.669,-99.712,-91.629,-77.768,-61.03,-43.436,-101.243,-92.81,-81.902,-63.312,-49.034,-97.691,-91.856,-85.394,-59.642,-32.775,-97.992,-91.023,-79.871,-55.362,-38.716],[-98.922,-95.999,-85.435,-69.455,-49.554,-100.255,-93.201,-80.276,-72.135,-59.612,-100.63,-94.619,-88.428,-72.514,-52.827,-99.398,-94.791,-86.154,-77.338,-56.239,-99.377,-95.625,-91.43,-82.122,-55.73,-100.466,-96.399,-85.255,-76.365,-59.162]],
"ve": [[82.483,-27.071,-289.562,195.392,0.006,-3.601,33.789,91.11,23.694,-14.398,-42.246,6.451,15.587,306.899,31.199,-29.928,-6.509,-199.054,-43.813,-6.318,-24.888,-17.024,149.089,-156.583,-520.328,-113.635,-44.58,25.698,-51.892,-40],[-36.028,-37.351,-25.037,-2.423,-0.037,-146.57,-51.441,-7.307,-4.025,-1.113,-53.145,-37.431,-13.954,-4.659,-1.088,-57.273,-16.187,-39.856,-3.508,0.46,-51.004,-28.609,-18.156,-3.924,1.58,-49.238,-64.385,-16.098,-3.808,4.316],[-88.944,-60.556,-36.102,-18.31,-10.452,-777.757,-63.322,-24.103,-16.828,-12.999,-25.376,-59.246,-31.717,-21.984,-14.95,-84.541,-53.572,-25.022,-18.859,11.485,-102.777,-61.003,-26.688,-15.776,-14.433,-25.4,17.648,-32.427,-23.528,-12.915],[-91.02,-67.325,-50.601,-34.976,-18.196,-133.654,-56.62,-54.13,-34.643,-21.934,-112.009,-62.659,-31.853,-58.201,-26.515,-96.172,-79.625,-49.996,-33.377,-23.619,-40.791,-62.389,-54.855,-37.62,-21.747,-33.47,-62.749,-48.548,-32.824,-24.27],[-67.622,-75.03,-60.025,-51.104,-35.03,-71.317,-102.848,-59.068,-50.073,-33.162,-156.488,-75.861,-56.31,-47.416,-32.24,-89.004,-61.345,-84.94,-42.622,-30.809,-129.569,-61.272,-66.518,-45.843,-28.002,-108.494,8.888,-61.834,-37.789,-28.642],[-63.061,-93.178,-69.226,-49.75,-38.44,-111.164,-88.273,-45.189,-48.624,-43.825,-49.207,-85.324,-204.975,-58.502,-57.25,-148.59,-84.45,-76.2,-59.166,-382.106,-82.551,-91.421,-82.694,-48.464,-40.775,-87.176,-64.19,-84.609,-61.007,-42.42]],
"kep": [[-53.05,-25.012,-32.415,-23.374,-7.287,-52.524,-30.841,-14.603,-17.674,-9.31,-68.305,0.58,-20.17,-17.171,-8.18,-64.612,-14.891,-1.89,-33.666,11.678,-67.289,-18.022,-21.247,-29.097,-23.889,-68.889,-17.682,-14.958,-8.245,-8.011],[-93.397,-54.983,-12.667,-10.487,-10.426,-93.365,-57.957,-9.324,-5.915,-9.983,-93.944,-47.507,-2.591,-4.531,-10.519,-91.595,-45.197,-21.705,-6.755,-7.66,-92.819,-46.428,-9.098,-6.016,-6.076,-95.22,-47.959,-16.54,-11.541,-2.087],[-99.546,-83.846,-37.532,-11.286,-9.831,-98.303,-82.092,-40.428,-11.205,-10.272,-97.401,-82.304,-33.903,-11.853,-6.385,-96.261,-69.519,-38.191,-12.445,-8.825,-97.602,-80.561,-44.241,-9.247,-5.195,-97.215,-83.586,-39.811,-16.811,-7.063],[-95.839,-91.451,-59.611,-29.986,-7.257,-96.324,-87.029,-68.271,-28.804,-12.39,-98.724,-90.88,-70.95,-32.58,-17.063,-97.781,-87.199,-64.509,-28.577,-13.023,-98.218,-89.443,-67.74,-34.093,-4.974,-98.761,-86.771,-66.666,-29.459,0.223],[-99.12,-88.426,-82.048,-53.679,-19.212,-97.847,-89.832,-82.983,-55.103,-21.349,-98.021,-90.003,-76.321,-47.344,-18.519,-98.685,-92.953,-79.794,-50.001,-29.814,-98.464,-92.309,-86.345,-48.906,-12.795,-97.904,-90.361,-80.811,-45.865,-20.31],[-97.918,-91.11,-82.276,-64.564,-35.661,-98.79,-87.688,-79.542,-72.859,-41.221,-98.932,-90.692,-88.724,-68.582,-39.22,-97.517,-88.684,-84.443,-71.662,-44.251,-97.087,-92.375,-90.097,-77.768,-42.508,-98.55,-94.605,-86.639,-70.566,-40.466]],
"vp": [[2555.207,1598.355,2178.547,1637.687,1010.554,417.011,407.597,369.918,412.007,384.88,328.644,145.635,204.559,177.661,115.878,56.103,28.22,21.129,46.213,27.762,22.725,18.434,19.441,16.585,18.755,14.422,7.515,7.378,7.945,6.489],[5717.392,7989.177,5704.35,5582.27,4293.413,1489.823,1898.088,1259.258,960.012,1194.353,687.502,681.17,501.025,645.252,573.032,142.601,143.512,128.067,106.686,118.581,64.403,68.254,59.789,41.46,47.544,34.311,37.943,29.787,29.652,22.287],[9100.196,13482.054,12330.15,9785.543,7365.368,1741.234,2611.273,2355.383,1802.499,1975.757,892.486,1183.704,1177.149,1123.543,1090.993,169.813,213.025,243.441,199.061,224.672,81.031,122.497,96.512,81.544,93.958,45.459,64.236,56.067,61.421,48.599],[9688.16,14858.613,17725.273,16089.501,9857.986,1761.466,2779.153,3408.462,2890.591,2767.69,1046.595,1329.986,1863.583,1712.342,1520.877,196.629,280.418,318.898,271.237,274.889,87.444,139.546,165.079,171.35,133.895,49.281,71.159,77.186,78.219,80.863],[9085.444,15554.841,19333.937,21621.701,20396.174,1970.228,3236.19,3766.993,4282.489,3513.128,1033.668,1501.378,1913.989,2119.757,1864.642,212.606,350.6,409.025,411.433,307.84,89.085,172.699,211.982,198.094,168.439,50.102,77.424,98.081,86.541,80.053],[9844.986,17472.661,22538.808,22389.193,21706.296,2070.825,3170.397,3548.738,4554.211,4766.84,1030.559,1714.694,2334.776,2412.805,2008.767,183.998,335.053,417.44,503.762,407.934,96.643,182.625,249.668,262.267,220.052,51.706,80.951,113.621,122.838,130.883]]
}