{
"KTrans": [[2.77,2.038,-1.783,3.133,0.438,5.128,11.586,14.555,10.969,9.615,6.713,23.967,19.619,20.899,22.674,-87.123,65.5,88.341,93.372,93.246,-97.272,-8.943,117.759,129.091,141.939,143.915,-54.345,-102.339,14.74,90.807],[-6.386,-1.966,0.009,0.311,-0.724,2.073,5.855,2.318,5.099,4.553,14.375,12.586,1.848,9.802,9.747,40.613,21.319,-27.22,26.954,37.538,40.364,-42.473,-16.346,13.235,48.694,114.337,-129.401,79.601,-33.084,22.565],[-15.316,-1.26,-1.139,-1.003,0.144,-2.665,2.995,3.057,3.143,0.712,3.906,13.8,8.428,8.16,1.914,43.489,64.254,53.544,30.443,-9.37,-36.071,25.282,56.851,0.74,-7.189,-41.339,-112.476,-107.484,-47.978,-19.184],[-18.232,-0.258,0.324,-0.364,-0.351,-12.004,1.243,1.887,2.999,3.135,-7.047,7.976,7.723,6.748,6.737,-8.213,58.521,51.209,40.246,33.157,-39.059,59.413,91.78,62.326,8.127,-38.036,-84.208,48.062,-60.453,-40.931],[-28.894,0.238,-0.306,-0.095,0.752,-24.107,0.558,2.659,1.376,1.857,-25.145,3.998,6.341,4.954,4.39,-40.981,62.538,39.985,34.518,33.841,-37.102,51.683,87.038,66.698,67.554,-54.368,-59.29,30.197,52.505,50.801],[-35.338,-1.53,-0.786,-2.029,-0.154,-32.8,1.164,4.124,1.291,0.392,-32.604,8.455,5.781,4.23,4.955,-69.533,44.448,37.839,33.637,24.939,-105.524,45.659,64.46,58.69,59.273,-84.352,-3.228,34.78,86.506,79.039]],
"ve": [[6.268,4.272,5.866,37.578,19.64,8.122,8.126,-13.333,16.3,-72.659,-20.545,80.875,63.015,762.615,-503.03,45.967,-14.267,-33.033,-18.925,74.706,85.692,29.396,-7.581,-33.866,-58.598,195.139,89.129,33.214,4.009,-16.383],[-1.163,-2.163,13.2,5.592,0.791,3.889,1.723,-0.802,7.774,3.774,8.19,3.356,-3.152,11.104,4.793,45.772,24.185,15.324,16.045,7.014,99.214,53.608,32.006,17.986,712.179,197.812,101.741,61.464,44.404,26.648],[-0.716,-0.089,-0.557,-2.276,3.653,4.303,1.545,1.016,0.556,0.867,8.872,4.876,3.225,1.957,1.383,51.367,22.727,24.362,12.929,9.45,98.966,27.758,34.374,25.9,19.625,199.062,101.835,67.247,49.303,39.216],[-1.01,0.265,0.314,-0.16,-0.197,3.631,1.913,1.37,0.902,0.686,8.48,4.791,3.312,2.384,1.946,52.51,23.92,16.559,12.663,10.25,88.104,57.562,36.09,1.288,20.609,197.651,101.059,67.241,55.953,39.808],[-0.171,0.673,0.512,0.115,0.097,3.289,1.986,1.741,1.116,0.904,8.183,4.507,3.314,2.305,1.898,41.71,24.505,16.303,12.425,10.434,99.733,49.827,31.281,28.453,14.184,199.842,97.299,65.469,49.579,40.67],[0.334,0.418,-0.074,0.032,0.132,1.053,2.636,1.903,1.271,0.929,7.615,5.087,3.373,2.399,1.835,51.84,24.314,16.166,12.618,9.947,101.891,49.793,33.42,23.937,19.849,199.534,99.598,67.692,49.95,36.606]],
"kep": [[-124.53,-9.031,3.179,-10.973,-3.768,-134.006,-25.961,-28.879,-21.44,-14.858,-150.006,-48.829,-26.777,-30.691,-42.423,-242.03,-233.469,-189.889,-183.516,-170.326,-135.227,-449.029,-339.804,-382.594,-392.903,6.724,-227.277,-683.45,-729.685,-746.655],[-15.794,-12.344,-118.343,-1.619,4.376,-11.076,1.866,-125.165,-22.096,-8.836,-5.077,8.658,-146.423,-35.514,-17.968,-18.198,-25.885,-210.469,-171.499,-103.711,-39.873,-94.396,-109.91,-300.132,-198.978,-31.316,-112.998,42.999,-209.306,-344.612],[-21.863,-4.316,-4,-12.525,-127.723,-11.657,-0.86,-2.11,4.646,-140.17,-13.587,10.957,8.885,17.683,-138.408,-15.992,28.871,46.112,20.306,-189.995,-69.578,-28.92,1.857,-51.871,-99.715,-73.339,-106.837,-122.218,-91.102,-56.16],[-25.783,-2.378,-1.172,-3.173,-2.185,-22.832,-1.416,-0.869,1.362,4.334,-22.178,1.048,5.569,7.723,12.198,-48.798,22.51,34.763,38.75,41.689,-69.497,-5.242,37.305,31.285,-36.03,-74.892,-91.71,-22.618,-109.636,-99.807],[-37.075,-1.873,-1.528,-1.069,1.367,-36.801,-3.112,0.899,0.214,0.914,-39.744,-1.781,2.195,2.486,4.084,-66.874,23.126,19.439,24.033,35.401,-69.639,-11.821,35.596,34.035,52.766,-79.57,-81.341,-28.302,-3.444,-3.262],[-44.01,-5.044,-2.66,-3.104,-0.913,-44.925,-3.871,1.936,-0.586,-0.809,-47.092,-1.564,1.724,0.601,3.878,-82.494,7.356,15.819,20.211,17.573,-98.713,-13.849,13.414,27.299,40.439,-92.359,-56.853,-32,13.992,20.337]],
"vp": [[-45.26,-80.846,15.454,34.652,-41.333,-21.012,4.289,31.776,-22.695,8.527,0.566,-7.276,8.867,-14.52,3.011,-3.722,7.311,-2.757,5.644,-16.429,-2.881,5.543,-14.637,5.608,1.105,-14.985,-1.504,11.222,13.763,1.852],[1016.158,171.592,-13.528,18.136,-90.031,140.916,27.949,-7.864,-2.764,21.485,85.67,1.241,-9.972,-5.083,-19.342,1.061,-17.874,-9.508,4.541,2.876,-3.315,-22.782,-16.956,-4.125,-4.053,-21.559,-13.035,-12.498,7.271,-0.898],[2577.948,369.225,-186.443,-21.758,-2.081,613.504,56.851,50.941,20.672,10.054,266.977,51.293,23.395,-11.258,-11.643,37.22,7.731,-6.475,-9.333,-10.562,0.042,-19.172,4.781,-10.873,-10.856,-13.476,6.679,-7.87,-17.557,-14.591],[4306.853,1464.709,343.905,55.452,180.499,885.99,226.13,29.816,29.783,41.415,437.986,92.101,15.395,38.797,11.934,71.529,5.085,5.61,1.589,0.154,6.928,6.209,15.599,-4.398,-21.507,-5.24,-1.332,-22.412,1.378,-21.5],[5573.434,2406.292,626.477,490.36,267.247,1113.509,431.586,121.164,62.621,48.015,474.939,141.315,41.671,47.152,-8.254,98.488,49.749,7.642,5.518,-0.536,21.078,16.302,-11.766,-4.87,7.01,7.197,-7.28,-21.21,-26.896,-7.375],[6376.952,3518.501,1383.493,619.562,413.431,1235.043,736.958,266.387,97.612,53.656,608.436,323.806,131.284,91.712,56.888,117.446,67.363,4.837,14.302,4.472,65.09,24.541,23.354,-19.71,-20.365,8.54,6.02,6.103,-14.2,-3.857]]
}