{
"KTrans": [[0.848,0.429,0.259,0.416,0.21,0.544,0.196,0.364,0.763,0.93,0.444,1.267,0.316,0.713,0.093,0.847,1.173,1.027,0.411,0.423,5.264,2.469,2.062,1.701,1.095,5.558,3.618,2.642,2.533,2.311],[-2.987,-0.291,0.285,0.268,0.455,-4.663,-0.689,0.186,0.062,0.189,-3.789,-0.474,0.59,0.154,0.395,-2.34,-0.641,0.828,0.318,0.596,-2.163,0.6,0.853,0.924,0.743,-0.054,-0.551,1.127,0.794,1.464],[-12.826,-2.759,-1.004,-0.087,-0.058,-13.456,-1.167,-1.049,-0.464,-0.018,-7.122,-2.223,-0.715,-0.137,0.243,-14.223,-2.289,0.271,0.24,-0.131,-13.377,-0.114,-0.029,0.392,-0.189,-8.795,-1.211,1.385,0.356,0.552],[-23.373,-6.208,-1.406,-0.529,-0.543,-27.299,-4.907,-1.812,-0.666,-0.243,-25.154,-2.786,-0.78,-0.756,-0.634,-25.658,-2.901,-1.777,-0.503,-0.461,-31.891,-1.554,-0.829,-0.619,0.23,-29.588,-3.943,1.087,-0.231,0.195],[-45.885,-7.697,-3.272,-1.317,-0.641,-44.242,-7.886,-2.674,-1.461,-1.357,-46.243,-7.429,-2.157,-1.567,-0.594,-47.412,-5.121,-3.303,-1.012,-1.007,-49.796,-8.095,-2.584,-1.589,-0.241,-50.966,-8.018,-3.079,-1.098,-0.696],[-65.542,-11.572,-5.072,-2.821,-1.434,-60.185,-12.759,-5.054,-2.491,-2.06,-68.011,-12.227,-4.654,-2.566,-1.909,-64.412,-11.551,-6.641,-1.906,-1.101,-63.938,-10.41,-3.861,-1.398,-0.88,-67.025,-7.733,-3.775,-0.839,-1.616]],
"ve": [[0.552,0.478,0.791,0.764,1.358,0.389,0.361,0.715,0.399,0.409,0.118,0.025,0.571,0.352,1.13,0.591,0.537,0.485,0.66,1.476,2.508,0.815,0.535,0.226,1.347,2.582,1.541,0.7,1.087,1.545],[-0.836,-0.016,0.045,0.082,0.269,-2.307,-0.303,0.123,-0.025,0.11,-1.664,-0.143,0.228,0.117,0.134,-0.992,0.086,0.223,0.25,0.265,-0.342,0.602,0.36,0.518,0.382,0.26,0.534,0.656,0.456,0.618],[-6.027,-1.014,-0.277,-0.019,-0.061,-6.978,-0.397,-0.346,-0.092,0.029,-4.421,-0.842,-0.251,0,0.156,-7.001,-0.432,0.31,0.137,-0.064,-6.515,0.87,0.103,0.28,-0,-2.941,0.587,1.177,0.339,0.329],[-12.673,-2.226,-0.594,-0.2,-0.137,-14.63,-1.957,-0.904,-0.248,-0.053,-13.482,-1.09,-0.249,-0.271,-0.288,-12.884,-0.833,-0.206,-0.139,-0.033,-15.318,0.063,0.123,-0.213,0.281,-14.931,-1.27,1.332,0.175,0.287],[-26.86,-3.354,-1.219,-0.498,-0.252,-25.017,-3.182,-0.913,-0.498,-0.516,-28.556,-3.262,-0.954,-0.563,-0.237,-26.541,-1.614,-1.045,-0.157,-0.29,-26.087,-3.067,-0.805,-0.427,0.1,-30.194,-1.458,-0.857,-0.112,0.002],[-42.088,-5.038,-1.982,-1.145,-0.404,-37.654,-5.439,-1.923,-1.005,-0.728,-44.259,-5.526,-1.787,-0.811,-0.694,-40.253,-5.127,-2.434,-0.536,-0.35,-38.686,-4.052,-1.458,-0.178,-0.202,-39.698,-1.587,-1.01,0.327,-0.337]],
"kep": [[-0.672,-0.924,-1.35,-1.127,-1.848,-0.856,-1.056,-1.154,-0.385,-0.134,-0.64,0.339,-1.086,-0.424,-1.73,-0.797,-0.278,-0.286,-0.848,-1.645,1.399,0.704,0.736,0.859,-0.516,0.785,0.955,1.327,1.558,1.595],[-3.59,-1.239,-0.699,-0.748,-0.742,-3.972,-1.351,-0.875,-0.846,-0.848,-3.579,-1.305,-0.577,-0.895,-0.67,-2.754,-1.691,-0.342,-0.868,-0.605,-3.451,-1.042,-0.486,-0.549,-0.581,-3.061,-2.368,-0.633,-0.663,-0.132],[-9.752,-2.758,-1.679,-1.006,-0.932,-9.079,-1.787,-1.653,-1.305,-0.981,-5.465,-2.419,-1.409,-1.072,-0.845,-10.31,-2.86,-0.995,-0.839,-1.006,-9.816,-2.056,-1.123,-0.85,-1.133,-9.01,-3.083,-0.856,-0.991,-0.762],[-16.481,-5.187,-1.782,-1.27,-1.339,-18.317,-4.12,-1.874,-1.36,-1.124,-17.379,-2.806,-1.492,-1.426,-1.281,-18.296,-3.248,-2.552,-1.317,-1.363,-22.658,-2.733,-1.94,-1.378,-1.001,-21.921,-4.058,-1.343,-1.426,-1.071],[-31.61,-5.728,-3.066,-1.765,-1.324,-30.088,-6.227,-2.776,-1.912,-1.776,-32.515,-5.681,-2.2,-1.951,-1.292,-33.37,-4.942,-3.27,-1.801,-1.654,-36.71,-6.547,-2.808,-2.134,-1.291,-41.578,-8.054,-3.314,-1.973,-1.678],[-48.495,-8.307,-4.144,-2.647,-1.976,-44.637,-9.024,-4.207,-2.461,-2.274,-49.647,-8.709,-3.932,-2.724,-2.158,-47.611,-8.449,-5.333,-2.333,-1.698,-48.865,-8.426,-3.509,-2.197,-1.638,-57.126,-8.253,-3.874,-2.195,-2.253]],
"vp": [[-30.7,-43.86,-3.25,-10.372,4.926,-2.868,2.468,-2.788,-5.234,-10.302,1.363,-5.166,0.246,-1.951,2.112,-0.751,-0.473,-0.823,0.635,0.3,-2.26,-0.926,-0.955,-0.22,0.233,-0.516,-0.555,-0.213,-0.152,-0.004],[91.307,17.018,-34.06,-14.819,-67.876,48.017,12.594,-5.448,6.143,0.365,17.397,4.195,-9.113,0.314,-2.028,3.149,0.936,-1.641,-0.79,-0.905,1.047,-0.447,-0.292,-1.018,-0.599,0.679,0.555,-0.171,0.137,-0.721],[619.022,196.402,78.81,-0.144,15.17,140.789,11.147,17.759,11.207,1.642,41.55,18.244,8.32,0.613,-7.911,15.193,2.667,-0.72,-0.646,2.076,7.586,-1.351,0.339,-0.515,1.319,2.257,0.257,-1.313,0.212,0.039],[1254.092,455.288,160.45,60.156,64.834,293.543,78,48.466,15.179,0.494,136.197,20.526,4.397,8.835,12.949,26.649,3.666,2.32,1.915,1.291,16.247,0.314,-0.056,1.488,-0.66,8.436,2.056,-1.367,0.446,0.106],[2749.156,659.083,352.981,161.636,84.124,507.608,126.828,54.966,34.457,50.895,287.221,65.962,24.089,19.542,10.618,54.266,6.9,6.722,1.161,3.525,26.735,6.701,2.964,2.279,-0.115,15.985,2.033,2.204,0.825,0.867],[4273.601,1010.987,609.518,431.907,161.749,765.606,222.889,113.624,76.554,70.152,449.571,109.669,54.475,34.31,32.374,82.908,21.516,15.012,4.194,3.304,40.186,8.751,5.162,1.483,1.728,21.078,2.164,2.288,-0.043,1.753]]
}