{
"KTrans": [[2.617,1.392,0.397,0.504,2.306,10.289,7.583,5.116,5.678,6.676,24.692,17.17,12.497,11.373,10.114,168.121,97.307,73.174,63.103,60.443,415.919,216.888,170.836,154.392,139.697,1136.353,602.324,455.649,390.506,353.702],[-9.351,-1.542,-0.201,0.488,0.615,-6.008,4.292,4.084,2.676,2.84,7.673,11.556,8.122,7.456,5.437,102.382,69.329,43.954,36.384,31.644,251.572,146.738,99.002,78.546,66.904,669.571,362.344,234.586,178.161,151.318],[-32.69,-1.595,0.085,-0.002,0.98,-25.116,3.612,4.308,2.953,2.133,-13.365,7.871,7.826,5.662,4.503,45.414,65.108,41.82,30.455,26.888,181.688,135.559,87.035,67.306,55.441,533.684,316.171,204.31,150.366,123.557],[-45.15,-3.654,1.439,2.426,0.171,-38.365,-0.797,2.115,2.06,3.06,-36.408,6.951,5.993,4.134,3.871,28.742,51.201,37.628,29.054,23.628,112.945,127.867,81.35,61.614,50.031,334.829,303.967,190.191,150.01,113.497],[-58.024,-3.697,1.502,1.417,0.783,-48.215,-3.253,4.102,3.516,2.544,-50.83,2.866,7.562,5.028,4.66,-8.894,48.387,38.703,27.803,23.99,55.365,119.292,80.212,59.923,47.564,245.298,277.433,192.933,138.937,109.891],[-62.571,-9.668,-4.291,-0.923,1.35,-66.579,-4.692,1.442,4.814,3.957,-55.454,-0.373,4.752,6.277,3.161,-35.729,45.426,35.193,30.105,22.378,29.551,110.699,80.274,61.058,48.178,203.556,276.336,188.373,137.809,103.107]],
"ve": [[2.212,4.188,4.712,7.432,4.663,7.503,2.192,0.425,0.099,-1.377,11.565,3.232,1.337,-1.098,-0.643,45.721,14.157,0.484,-9.351,-17.858,97.173,34.035,9.02,-7.151,-17.57,192.275,78.088,35.885,10.64,-5.68],[4.083,1.064,0.587,0.252,1.095,7.569,2.942,1.76,0.807,0.952,11.984,5.09,3.093,1.606,1.412,53.005,24.525,15.074,8.952,5.165,99.776,47.78,29.77,18.785,12.319,202.388,96.95,61.006,41.23,28.895],[4.009,1.238,0.066,0.757,0.299,8.793,2.93,2.025,1.882,0.903,12.756,5.858,3.35,2.734,1.894,56.75,25.313,16.232,11.603,8.672,100.709,49.716,32.424,22.83,17.343,211.239,99.594,65.027,47.193,36.256],[5.656,0.528,0.243,0.197,-0.029,9.408,2.423,2.106,1.526,0.718,14.661,5.498,3.195,2.607,1.757,82.929,24.951,15.825,12.131,9.282,101.499,50.659,32.586,23.942,18.355,202.45,100.448,65.569,48.667,37.938],[3.409,1.043,0.823,0.828,-0.124,9.566,2.847,1.414,1.279,1.098,18.785,5.526,3.489,2.429,1.817,58.168,25.316,16.745,12.36,9.634,102.392,50.976,33.176,24.89,19.397,206.72,100.832,66.64,49.041,38.541],[-0.953,0.754,0.506,0.574,0.208,6.876,3.032,1.742,1.428,0.882,12.337,5.648,3.27,2.109,2.105,46.834,25.512,16.877,12.402,9.638,105.763,50.848,33.453,24.764,19.811,202.591,100.132,66.545,49.063,39.034]],
"kep": [[2.208,0.014,-1.127,-1.101,4.389,3.84,6.715,7.189,10.215,13.844,13.722,15.687,13.959,17.314,17.631,85.135,74.464,73.958,81.845,98.848,162.875,137.362,149.723,175.737,192.367,323.668,295.156,310.153,344.551,382.186],[-12.796,-2.179,-0.503,0.49,-0.236,-12.315,1.554,2.448,2.055,2.132,-3.386,6.375,5.079,5.935,4.221,32.272,36.243,25.312,25.307,25.447,76.545,67.165,53.485,50.472,48.741,153.858,135.1,107.934,97.125,95.119],[-34.733,-2.689,0.067,-0.666,0.775,-30.092,1.05,2.348,1.138,1.278,-23.478,2.208,4.436,2.939,2.636,-4.474,31.931,22.121,17.007,16.848,41.523,57.636,41.391,36.291,32.544,109.121,108.833,84.525,70.233,64.124],[-48.205,-3.939,1.309,2.332,0.239,-43.562,-2.999,0.098,0.625,2.374,-43.785,1.629,2.786,1.526,2.105,-15.863,21.155,18.919,15.193,13.176,5.47,51.443,36.805,30.44,26.831,44.269,101.773,75.344,68.246,54.846],[-60.373,-4.508,0.748,0.611,0.942,-52.629,-5.963,2.748,2.283,1.471,-57.205,-2.346,4.046,2.602,2.854,-40.77,18.687,18.956,13.78,13.142,-24.229,45.508,35.349,28.095,23.619,13.374,88.139,75.928,60.358,51.537],[-65.26,-10.407,-4.694,-1.428,1.166,-69.4,-7.232,-0.17,3.357,3.102,-60.52,-5.53,1.536,4.149,1.07,-58.651,15.973,15.788,15.791,11.649,-36.974,39.753,35.194,29.165,23.724,-0.603,88.377,73.171,59.621,46.102]],
"vp": [[157.053,112.089,116.943,-22.063,-10.495,28.336,-23.115,-25.647,5.644,11.13,25.554,6.452,-1.823,-5.068,8.443,2.923,2.431,-4.199,-0.568,0.09,1.559,-1.861,-0.511,-1.757,0.131,-0.047,-0.331,-0.425,-0.804,-0.357],[850.277,138.052,2.186,66.848,-54.086,238.602,17.92,11.195,-7.822,0.327,99.066,9.8,6.586,-7.37,2.484,24.019,7.054,0.264,-2.971,1.118,11.128,-1.208,0.475,-1.764,0.604,5.349,-0.053,-1.267,-0.173,-0.624],[2371.556,230.973,211.37,87.575,104.569,463.404,99.654,32.619,37.19,7.294,232.074,39.597,18.587,4.327,-2.046,48.023,13.644,3.676,-0.969,0.313,19.203,4.642,-0.152,1.491,0.719,10.889,1.278,1.048,-0.372,-0.472],[3216.338,1028.034,263.163,25.912,103.94,656.223,172.512,66.609,34.399,27.295,322.587,82.448,25.489,2.88,3.21,68.055,12.522,3.527,3.183,0.484,32.187,8.267,1.036,0.687,-0.976,16.543,4.965,1.187,0.726,-0.785],[4203.064,1384.172,677.262,189.829,161.945,818.323,309.946,106.856,63.105,-21.85,402.255,163.102,47.436,-3.529,-13.336,88.305,32.893,7.381,1.915,0.214,42.632,14.671,4.231,4.1,-0.086,20.745,7.781,2.477,0.694,-0.543],[4854.035,1909.924,655.693,304.36,84.537,955.592,416.934,124.528,60.727,-13.658,471.42,230.211,55.703,36.536,5.717,101.164,47.802,14.576,7.131,1.417,48.663,22.906,7.15,1.934,1.455,24.025,10.794,4.272,0.728,0.595]]
}