{
"KTrans": [[-7.313,0.098,3.373,-4.508,4.119,-7.943,2.435,-0.372,0.535,1.382,-11.803,-2.6,3.869,3.901,0.006,19.199,17.49,8.116,6.292,8.943,20.997,15.607,18.393,19.313,15.469,64.311,74.619,55.265,53.543,30.083],[-63.769,-6.552,2.318,-1.454,1.398,-63.024,-2.738,2.9,-1.253,0.439,-62.63,-5.411,-1.533,0.92,-0.03,-57.273,-0.785,5.522,5.27,4.097,-54.082,5.674,1.036,4.41,4.135,-16.669,22.203,19.694,20.846,15.387],[-83.728,-20.035,-6.988,0.047,0.543,-84.721,-23.662,-5.341,-1.054,0.098,-87.392,-20.665,-1.675,-1.104,0.331,-83.908,-20.441,-1.17,3.521,1.938,-76.542,-10.535,8.246,4.195,4.65,-43.823,-2.943,12.443,19.517,11.264],[-94.516,-39.92,-7.36,-0.998,-0.214,-91.416,-31.172,-10.296,-4.088,-3.359,-91.489,-37.577,-6.076,-1.043,-1.801,-86.83,-32.604,-4.022,2.231,1.883,-87.307,-36.008,-1.817,2.862,4.767,-74.499,-18.853,5.956,7.016,11.796],[-96.537,-54.415,-15.812,-3.943,-3.991,-94.695,-50.963,-15.493,-4.938,-3.567,-95.114,-56.138,-13.834,-6.851,-2.332,-92.7,-53.731,-12.81,-4.022,2.197,-89.943,-50.76,-5.142,4.219,2.49,-80.121,-43.409,-8.804,5.888,6.297],[-97.447,-65.793,-21.099,-7.898,-4.843,-97.998,-67.752,-26.874,-9.31,-4.53,-97.241,-66.376,-27.395,-10.712,-2.977,-96.557,-62.988,-21.503,-6.222,-2.691,-92.862,-65.731,-24.231,-6.977,0.651,-89.299,-57.66,-14.077,-0.153,7.237]],
"ve": [[15.374,19.883,16.083,31.431,-81.868,1179.169,-26.259,82.277,32.107,28.789,16.825,1.77,13.892,7.156,2381.194,4.877,20.518,33.213,63.369,-36.861,22.202,-14.448,21.163,-31.337,68.718,72.154,48.078,25.333,-24.631,-55.974],[-27.205,-0.027,1.321,0.133,2.453,-30.393,-1.208,0.769,1.754,1.425,-24.448,-1.676,0.979,0.026,1.517,-27.715,1.368,2.794,1.477,0.328,-22.523,4.087,2.604,3.245,2.244,8.64,14.708,9.593,9.697,5.678],[-39.392,-7.378,-2.689,-0.137,0.108,-85.904,-9.119,-1.856,-0.609,-0.184,-14.786,-7.929,0.789,0.389,0.188,49.633,-7.156,0.211,2.514,1.089,-36.466,1.471,3.979,3.524,1.654,-0.781,3.615,4.457,8.65,4.883],[-46.093,-16.949,-3.605,-0.531,-0.508,-194.056,-11.474,-3.921,-1.438,-2.036,-44.398,-15.444,-3.369,-0.296,-0.497,-3.184,-12.186,-1.859,1.248,1.041,-122.698,-12.958,-0.7,-0.692,1.153,-27.78,-3.988,3.365,-0.039,4.949],[-59.314,-26.167,-7.09,-2.742,-0.735,-70.679,-23.04,-4.75,-1.459,-1.24,-54.064,-27.448,-5.492,-2.273,-0.918,-50.305,-23.607,-4.688,-2.98,1.325,-56.927,-20.02,-1.262,0.447,0.909,-30.723,-18.088,-0.138,5.107,3.336],[-73.726,-32.586,-9.945,-4.638,-0.927,-79.437,-36.305,-12.053,-3.551,-1.14,-69.222,-33.497,-12.916,-5.196,-1.763,-65.455,-28.345,-8.49,-2.057,-0.48,-53.525,-34.073,-10.794,-2.783,0.581,-48.155,-23.512,-4.197,2.255,4.082]],
"kep": [[-11.139,-3.074,2.807,-10.673,6.948,-11.227,1.523,-4.11,-0.786,-1.14,-17.904,-5.71,4.482,4.444,-5.351,4.084,13.493,5.396,4.754,12.639,-2.149,5.285,12.171,19.773,18.397,-17.003,30.905,39.475,49.201,20.781],[-57.409,-6.549,1.011,-1.361,-0.619,-56.772,-2.249,1.97,-2.587,-0.437,-57.367,-3.888,-2.587,1.467,-1.155,-56.375,-3.193,2.377,3.88,4.123,-63.526,-1.998,-2.406,1.123,1.7,-56.646,-4.864,4.441,8.191,8],[-78.213,-14.617,-4.734,0.169,0.446,-80.7,-16.367,-3.486,-0.528,0.343,-83.034,-14.521,-2.777,-1.617,0.112,-82.663,-16.049,-2.102,0.965,0.62,-79.59,-16.341,2.698,-0.121,2.628,-70.064,-25.278,1.212,7.505,4.049],[-92.667,-29.027,-4.265,-0.59,0.223,-89.229,-23.485,-6.904,-2.828,-1.355,-88.355,-27.387,-3.288,-0.95,-1.373,-85.291,-25.666,-3.069,0.531,0.735,-88.224,-35.229,-2.914,2.906,2.942,-84.408,-36.21,-4.353,3.333,4.484],[-94.798,-41.183,-9.63,-1.235,-3.35,-93.043,-39.073,-12.021,-3.758,-2.421,-93.115,-42.651,-9.21,-4.824,-1.485,-91.804,-44.886,-9.563,-1.511,0.666,-90.513,-45.217,-5.323,2.796,0.847,-87.758,-55.779,-15.333,-1.452,0.953],[-96.098,-52.41,-13.205,-3.64,-4.024,-97.392,-53.187,-18.083,-6.211,-3.655,-96.876,-54.519,-17.736,-6.193,-1.484,-95.92,-53.181,-15.147,-4.417,-2.398,-94.079,-60.782,-18.416,-4.746,-0.645,-92.816,-65.857,-21.606,-5.929,1.609]],
"vp": [[342.84,233.074,-185.632,137.276,-3.256,97.294,-0.121,11.045,-3.951,-36.677,36.316,6.695,-2.818,-33.211,1.95,-15.093,-13.385,-8.451,-8.536,-12.074,-5.022,-7.501,-11.753,-14.762,-10.738,-10.503,-18.362,-16.797,-19.062,-10.436],[2946.594,529.587,-133.119,310.914,-517.947,607.128,54.943,-11.686,5.74,-46.604,306.203,60.869,23.126,18.747,-14.273,48.376,-1.764,-14.948,-12.16,-10.28,20.406,-5.948,-1.231,-4.828,-5.261,-1.629,-9.854,-11.883,-15.849,-10.565],[4739.67,1734.087,907.349,320.518,-2.226,1012.544,421.027,152.849,72.237,18.535,519.215,175.122,5.292,20.611,-0.497,99.846,30.643,4.074,-21.016,-5.89,41.349,0.969,-11.421,-10.156,-6.896,0.076,-1.538,-5.974,-17.875,-10.863],[6425.963,3493.034,1073.643,484.556,515.98,1197.153,541.48,289.911,129.491,191.816,573.393,355.328,128.954,27.658,28.586,95.61,62.332,16.164,-5.858,-1.673,52.791,33.58,3.279,2.617,-5.776,14.101,3.407,-4.153,0.586,-12.28],[7257.842,5488.606,2241.1,1500.671,769.599,1355.025,995.137,385.481,145.892,170.318,687.617,625.393,184.772,127.34,32.797,113.653,106.254,36.029,27.912,-11.519,51.217,46.239,5.307,0.18,-5.166,16.584,18.911,3.271,-9.284,-9.353],[7402.903,7040.25,3179.228,1893.101,779.152,1556.502,1511.357,723.773,266.982,187.309,714.262,700.474,393.879,214.559,72.396,135.79,123.809,55.124,24.615,12.528,56.824,69.732,35.933,13.461,-2.581,27.01,24.013,3.757,-1.526,-11.281]]
}