{
"KTrans": [[2.445,1.297,0.93,0.703,0.578,12.864,7.496,6.045,5.353,4.921,25.629,16.135,12.52,10.764,9.926,164.72,92.227,76.531,66.485,60.053,313.412,220.82,171.339,152.622,140.295,-88.406,342.464,351.673,340.081,322.232],[3.268,1.467,0.855,0.542,0.39,13.186,5.994,3.974,3.241,2.694,23.46,11.987,7.884,6.402,5.59,248.352,63.66,45.456,35.117,29.345,-24.077,167.886,106.708,81.677,63.606,-50.061,-36.699,246.011,178.14,147.454],[3.214,1.439,0.914,0.684,0.483,11.999,5.892,4.142,3.082,2.492,26.757,12.076,8.055,5.668,4.752,57.498,68.773,37.164,31.379,27.408,-64.504,196.368,90.249,69.51,56.479,-80.117,-93.689,244.559,167.613,128.079],[10.918,3.062,0.687,0.837,0.646,23.134,6.226,4.367,3.588,2.528,32.791,13.206,7.653,5.905,4.658,-68.108,81.833,43.873,30.331,24.927,-80.425,352.488,103.75,66.175,53.791,-44.726,-46.11,303.986,177.402,125.176],[14.475,2.358,0.398,0.843,0.163,35.32,4.965,3.702,3.878,2.776,34.753,15.557,6.894,6.285,5.26,-61.502,93.838,40.951,28.005,26.768,-54.071,48.259,96.601,53.568,55.012,-56.11,-44.842,103.487,184.986,143.984],[0.132,-0.237,0.639,1.295,0.19,-1.509,11.769,4.299,3.513,2.806,-3.213,15.257,10.412,6.293,5.338,-71.406,89.792,45.366,29.339,24.252,-57.748,-15.033,106.449,69.742,54.706,-62.276,-35.855,-66.197,234.26,134.75]],
"ve": [[0.83,-0.082,-0.664,-1.124,-1.534,4.192,0.463,-1.683,-3.35,-4.797,8.538,1.344,-2.444,-5.431,-7.898,45.142,13.652,-1.086,-11.144,-18.566,91.435,34.903,9.043,-6.166,-17.663,193.998,79.595,48.1,17.013,-1.41],[1.14,0.546,0.276,0.108,-0.028,5.184,2.397,1.375,0.781,0.342,10,4.77,2.776,1.69,0.833,50.304,23.715,14.485,9.125,5.601,101.314,48.776,30.32,19.986,12.863,198.169,97.597,63.431,42.376,29.666],[1.095,0.582,0.378,0.261,0.165,5.087,2.557,1.672,1.159,0.829,10.197,5.062,3.257,2.266,1.658,48.81,24.834,15.756,11.445,8.574,102.138,49.604,32.2,23.177,17.565,201.068,100.342,65.619,48.001,36.315],[1.535,0.734,0.365,0.313,0.241,5.441,2.633,1.774,1.325,0.976,10.244,5.224,3.34,2.453,1.885,51.282,25.456,16.559,12.055,9.404,101.715,51.605,33.161,24.301,18.929,205.363,103.236,69.284,49.595,38.475],[1.617,0.611,0.343,0.33,0.2,6.223,2.474,1.73,1.402,1.065,10.938,5.346,3.346,2.568,2.046,54.933,25.528,16.554,12.179,9.876,101.686,52.417,32.906,23.938,19.671,201.891,102.325,65.164,49.451,40.076],[3.119,0.366,0.358,0.399,0.213,5.785,2.882,1.764,1.372,1.107,12.3,5.193,3.638,2.632,2.102,55.69,25.285,16.846,12.351,9.885,101.081,49.201,33.053,24.924,19.92,206.75,105.16,66.276,49.936,39.645]],
"kep": [[2.72,2.496,2.723,2.972,3.275,9.508,8.181,9.053,10.212,11.429,16.994,15.867,16.631,18.437,20.697,82.981,70.907,80.601,89.77,99.098,111.141,139.497,151.567,172.506,195.747,-71.854,142.765,227.802,288.187,339.088],[3.184,2.025,1.684,1.538,1.523,8.712,4.646,3.692,3.568,3.47,13.302,8.049,6.123,5.785,5.87,127.802,33.353,28.357,25.166,23.842,-54.421,79.92,59.697,52.854,46.503,-72.362,-58.264,111.524,96.35,92.265],[2.991,1.944,1.638,1.526,1.421,7.409,4.36,3.552,3.021,2.768,15.756,7.805,5.788,4.462,4.177,5.312,35.889,19.646,19.12,18.599,-77.248,95.548,44.63,38.8,34.389,-86.696,-85.964,106.218,81.031,68.272],[9.717,3.37,1.41,1.625,1.507,17.089,4.557,3.661,3.354,2.653,20.528,8.654,5.292,4.498,3.85,-75.153,45.258,24.435,17.483,15.385,-85.399,190.878,53.273,34.659,30.499,-77.278,-66.137,136.336,84.85,63.254],[12.388,2.679,1.121,1.604,1.06,27.099,3.371,3.022,3.557,2.807,20.915,10.682,4.522,4.745,4.278,-71.841,54.049,21.869,15.221,16.546,-74.018,-1.389,47.729,24.847,30.629,-81.01,-66.356,24.732,88.872,74.301],[-2.832,0.183,1.31,1.976,1.067,-6.944,9.433,3.536,3.203,2.788,-12.54,10.276,7.602,4.677,4.29,-79.107,50.581,25.209,16.145,14.208,-75.986,-40.346,54.442,36.526,30.023,-84.461,-63.363,-72.578,119.017,67.844]],
"vp": [[-16.065,-14.507,-3.727,-18.727,-40.374,-8.084,-9.949,-1.885,-3.986,-5.492,-23.143,6.068,-8.799,-19.365,-19.203,-32.088,-7.647,9.461,2.187,-5.503,-14.369,-0.95,-5.872,4.303,-1.619,-17.406,3.446,-7.839,3.92,3.553],[143.296,27.84,5.543,-23.847,-31.39,22.472,-6.527,-21.068,-1.05,-6.41,1.704,11.664,-38.271,-12.102,-4.937,-10.151,-14.443,-21.755,-11.484,-17.062,-12.943,-11.152,-4.126,10.486,-12.528,-24.987,-17.154,-11.27,-2.412,-5.855],[331.636,183.582,79.207,22.369,-26.68,25.261,21.757,9.478,5.579,-15.354,-3.742,15.35,13.4,-10.233,-22.175,-11.134,-2.412,-21.955,-8.059,0.703,0.341,-12.492,-12.127,-14.414,-19.518,-7.925,-14.502,-17.693,-8.362,-19.703],[375.044,401.098,196.629,147.561,49.73,121.019,44.935,33.678,34.784,22.945,56.117,10.417,17.967,24.564,-9.723,36.837,8.135,2.79,-8.659,-1.277,13.734,8.131,-4.329,-5.553,-6.589,-3.073,-3.195,-3.298,0.147,-10.416],[1480.773,629.882,395.435,225.563,142.744,316.173,103.704,60.003,55.283,33.175,146.663,75.388,13.319,30.558,12.71,46.262,3.861,-10.992,-20.607,15.96,9.689,12.532,-12.032,-35.191,6.154,6.075,-2.458,-35.282,-11.481,11.652],[3762.032,847.514,685.878,261.686,262.702,617.603,155.491,140.549,72.835,28.727,334.042,64.262,49.688,19.181,35.248,83.747,2.371,-2.997,-3.129,-7.913,20.156,-12.581,-15.257,-4.089,3.495,4.847,-9.063,-17.888,-5.922,-11.616]]
}