{
"KTrans": [[17.057,7.225,9.028,1.933,8.14,20.708,11.604,11.46,14.893,11.633,42.612,23.979,18.179,17.155,17.081,201.888,108.942,86.738,75.778,64.442,444.164,240.315,192.716,170.152,154.608,1263.437,628.489,473.681,410.257,375.378],[96.667,18.943,15.315,4.653,8.392,104.281,27.163,13.347,14.629,13.832,128.408,28.864,24.583,17.28,23.895,323.365,96.645,56.02,55.351,39.511,544.18,193.993,122.16,90.162,81.037,1461.028,421.633,263.445,207.073,167.686],[-58.179,43.121,32.238,11.96,22.397,-5.579,66.065,37.376,18.587,21.035,-11.045,48.041,38.678,26.288,21.08,-78.346,136.865,65.917,43.962,39.648,127.421,226.631,104.38,91.139,64.421,567.667,522.173,256.295,186.032,141.947],[-91.486,131.263,43.31,29.748,12.912,-79.801,147.517,48.586,32.266,16.835,-74.445,176.383,40.887,35.054,23.057,-71.518,291.952,98.735,77.309,52.772,13.631,460.347,151.141,96.072,74.017,0.719,719.495,329.512,197.943,139.505],[-90.261,-17.606,125.824,31.185,37.949,-94.025,42.583,89.188,47.22,33.679,-63.85,3.935,112.811,44.579,30.673,-52.078,42.778,176.744,80.515,58.274,-60.062,108.182,236.715,138.494,81.344,-39.318,292.719,477.353,230.247,182.575],[-91.515,-54.702,157.574,53.561,41.728,-85.24,-71.671,156.702,76.988,49.14,-94.066,-83.66,161.901,59.383,41.895,-73.48,-34.144,211.699,124.401,71.102,-43.778,-16.72,268.419,130.224,106.782,170.55,27.238,467.94,254.107,172.669]],
"ve": [[1.077,0.657,-0.174,3.736,1.286,3.942,0.986,-0.199,-2.609,-1.288,9.039,1.918,-1.37,-4.429,-6.421,46.648,13.449,-1.738,-11.284,-18.961,93.707,33.099,8.217,-7.474,-18.346,193.413,79.545,34.999,10.066,-6.301],[2.105,0.929,0.762,-0.093,0.431,6.152,2.649,1.306,1.359,1.074,10.84,4.9,3.34,1.993,1.835,50.523,24.327,13.936,10.194,5.681,98.555,48.859,30.028,19.393,12.943,199.6,96.719,61.15,42.48,29.128],[2.494,0.434,1.601,0.057,1.606,5.031,2.835,2.747,1.515,1.881,10.896,4.192,4.138,2.935,2.5,50.792,25.234,15.696,10.823,8.887,100.402,48.995,30.824,23.322,16.965,201.762,99.006,64.793,47.266,35.802],[1.567,2.012,1.217,1.117,-0.203,6.301,3.905,1.747,1.968,1.107,10.709,6.023,2.85,3.263,1.902,50.958,25.641,17.155,13.68,10.341,101.12,51.314,32.636,24.061,18.828,200.379,99.359,66.606,48.704,37.688],[2.023,2.262,2.122,0.25,1.612,6.645,0.499,2.206,2.094,1.924,8.898,5.697,4.815,2.9,2.237,51.552,24.222,17.793,12.591,10.413,101.752,50.606,33.602,25.466,19.014,200.859,100.311,67.605,49.778,40.641],[2.058,2.022,1.134,-0.22,0.629,5.106,2.616,2.241,2.213,1.872,17.609,5.091,3.171,2.525,2.203,50.604,26.979,17.17,13.605,10.576,102.144,50.294,32.551,23.575,20.373,198.907,100.047,66.798,48.858,39.764]],
"kep": [[14.418,6.519,10.496,2.038,12.568,14.42,10.402,12.937,20.992,18.852,29.215,21.287,20.788,24.431,28.813,104.14,82.724,89.151,97.819,102.969,178.774,154.052,168.994,190.704,210.587,362.823,304.043,323.347,361.484,405.304],[83.63,15.528,13.006,3.886,7.445,84.844,21.358,10.228,12.036,12.089,97.176,20.545,18.977,13.932,21.12,172.165,55.411,35.022,39.737,31.066,216.042,94.676,68.937,57.818,59.067,413.338,162.042,123.476,113.85,105.886],[-56.88,37.328,26.904,9.901,18.959,-11.407,54.958,30.361,14.934,17.227,-20.07,37.22,30.275,20.494,16.634,-81.638,83.416,40.191,27.644,26.767,15.239,113.526,53.414,52.535,38.873,121.651,206.346,113.089,91.804,76.31],[-87.588,115.726,37.573,25.093,10.693,-77.885,125.645,40.721,26.704,13.518,-73.488,146.585,32.326,27.763,18.053,-77.486,196.773,64.909,52.619,35.878,-40.311,256.606,84.032,54.618,43.911,-62.269,298.453,152.086,96.625,71.372],[-87.02,-19.446,111.044,26.797,32.334,-90.953,33.09,76.827,39.712,27.883,-64.718,-4.053,94.421,36.134,24.546,-65.072,12.326,125.327,55.223,40.027,-76.654,36.61,142.7,84.868,48.549,-75.6,93.965,234.56,115.387,97.319],[-88.818,-52.68,139.532,46.936,36.055,-82.769,-68.815,136.031,66.028,41.519,-91.431,-80.524,137.248,49.362,34.327,-79.622,-45.762,152.71,90.288,50.3,-69.37,-41.359,164.635,79.081,67.32,-7.447,-33.773,229.191,130.255,90.953]],
"vp": [[616.084,583.665,706.854,551.306,769.679,99.593,92.751,121.633,161.202,157.601,58.49,71.282,60.922,46.593,66.458,15.514,14.444,14.06,12.166,11.78,5.639,5.945,6.962,7.652,7.296,3.786,3.557,2.747,3.18,2.83],[1864.253,1726.394,1924.864,1315.368,2140.832,348.4,333.587,355.338,427.284,429.328,173.72,136.277,220.226,196.499,260.58,45.271,29.218,30.254,44.025,29.552,15.855,15.556,19.691,18.256,20.052,9.588,8.146,8.053,9.993,9.029],[4328.145,1910.104,3527.431,2563.437,4239.958,759.06,474.624,607.308,573.158,685.576,367.568,137.115,296.688,348.574,356.505,94.028,29.216,44.388,52.62,50.311,35.68,20.196,12.317,28.767,19.978,20.687,9.367,12.468,15.498,11.993],[5212.143,3802.209,2468.885,3853.05,3896.114,1244.653,963.795,630.629,733.807,642.687,522.919,553.379,222.964,377.316,414.851,119.467,108.425,35.761,86.991,93.744,55.282,62.542,29.536,28.132,33.197,31.222,24.407,17.329,17.067,15.409],[7179.149,5740.57,4235.767,2016.872,6102.526,1336.325,1458.999,577.126,584.522,953.132,478.989,795.415,224.228,334.554,381.785,124.214,136.241,56.565,66.619,82.114,74.654,70.879,41.364,57.368,36.52,39.19,35.163,16.333,19.851,30.796],[8187.41,7584.552,6824.718,3763.272,5943.334,1654.523,1796.272,1407.205,607.595,1205.388,902.712,852.218,813.161,42.128,441.106,147.007,211.897,120.452,71.53,43.816,87.457,79.044,56.806,14.82,40.467,31.854,56.927,21.581,14.907,19.858]]
}