{
"KTrans": [[-7.38,4.936,2.471,1.38,1.125,-0.155,5.641,5.028,2.829,3.457,11.606,7.884,5.964,3.543,2.744,57.204,25.925,20.67,21.111,14.326,76.042,61.19,46.536,57.693,45.862,-112.252,42.543,84.911,88.956,78.814],[-34.297,-2.131,-0.298,-1.548,-1.498,-37.707,7.572,-1.754,2.136,1.046,-30.838,1.236,5.23,1.658,1.198,-4.451,18.043,13.323,9.616,3.003,15.414,37.395,30.081,23.059,14.088,80.209,71.038,50.745,52.426,45.084],[-71.587,-8.708,0.054,0.141,-1.026,-64.96,0.81,5.111,3.482,0.44,-61.835,1.26,2.759,-0.175,0.356,-38.646,15.119,10.769,5.614,1.094,-23.806,13.384,33.847,26.386,15.323,-38.601,56.703,73.687,36.959,28.201],[-79.229,-18.743,3.285,-1.43,-0.978,-80.139,-17.89,-4.854,1.443,0.441,-74.663,-8.07,3.895,2.423,0.115,-68.51,-6.713,19.075,7.202,0.766,-60.043,6.659,21.237,30.541,19.362,-95.765,38.221,39.802,40.505,36.872],[-85.54,-34.938,-1.609,-0.912,-1.043,-87.404,-31.087,-6.358,2.742,0.372,-81.595,-36.819,3.369,1.17,2.24,-76.856,-19.259,5.562,14.987,10.146,-62.189,-5.562,27.897,19.807,9.582,-87.626,-10.349,27.116,47.764,35.801],[-87.335,-61.397,-5.041,5.438,1.681,-90.717,-48.156,-4.881,7.177,1.806,-88.594,-57.053,-3.939,4.599,4.552,-79.828,-36.448,-5.493,18.903,12.314,-76.318,-30.51,4.686,16.284,21.171,-49.496,-11.436,17.084,38.781,38.946]],
"ve": [[-1.993,2.447,7.209,12.319,16.991,1.479,2.9,6.186,4.253,99.605,2.522,1.532,-1.408,8.296,42.477,3.004,8.07,-11.144,-10.64,-20.305,33.915,1.133,-37.362,-25.579,-21.486,69.728,-0.79,-2.755,0.48,-31.038],[-21.421,-6.017,-3.452,-2.589,-2.722,-27.177,-4.043,-4.117,-2.485,-2.571,-17.97,-4.773,-3.176,-3.007,-2.392,-6.091,0.668,-0.967,-1.073,-1.095,5.645,6.166,3.278,-8.058,-13.354,53.263,33.634,25.477,9.813,7.701],[-47.788,-10.284,-4.636,-3.779,-3.821,-39.554,-7.278,-4.146,-3.522,-3.269,-38.795,-7.83,-3.61,-3.741,-3.898,-19.737,30.689,0.856,-2.469,-3.43,7.218,9.295,8.499,6.338,1.544,51.843,35.467,22.804,5.354,-2.04],[-77.45,-16.628,-6.815,-6.118,-4.277,-55.055,-19.18,-7.528,-4.779,-4.048,-47.456,-13.237,-6.846,-4.524,-4.647,-53.338,-10.369,-3.051,-3.917,-5.731,-15.425,-1.515,-7.932,5.566,4.647,64.484,13.798,33.037,8.305,6.655],[-64.64,-27.88,-10.311,-6.102,-5.764,-88.033,-25.212,-11.5,-6.381,-5.616,-59.368,-30.376,-9.632,-6.283,-4.931,-58.521,-17.822,-8.657,-2.943,-2.013,-17.394,-15.042,11.553,-4.727,-3.446,21.759,17.724,9.053,15.343,5.851],[-62.052,-44.943,-14.015,-7.317,-5.714,-74.609,-36.554,-15.187,-6.289,-6.419,-63.617,-42.862,-13.281,-6.845,-4.252,-52.836,-27.956,-16.376,-3.052,-1.979,-40.595,-16.248,-1.207,-6.834,2.463,36.7,13.198,15.073,10.654,7.759]],
"kep": [[-8.126,5.56,1.647,4.663,2.149,-0.957,6.838,6.884,4.751,7.488,10.733,9.41,9.468,6.154,6.397,28.563,15.536,16.49,25.237,16.918,37.4,33.369,33.204,68.685,60.036,40.297,78.808,60.887,75.785,81.103],[-22.023,3.747,3.185,1.245,1.443,-27.057,10.922,2.32,4.884,3.923,-22.711,5.742,8.387,4.802,3.779,-18.586,11.321,12.236,9.796,3.977,-18.173,17.325,19.216,14.653,9.816,-6.347,39.605,19.798,23.531,21.917],[-57.677,-1.327,4.51,3.991,2.861,-51.165,7.004,8.915,7.184,3.82,-48.14,7.487,5.708,3.516,4.343,-42.584,18.492,8.22,6.805,3.718,-42.454,-9.501,16.771,17.774,11.267,-43.728,4.979,28.697,14.846,8.972],[-69.206,-3.737,10.574,4.742,3.376,-70.831,-0.328,1.23,6.162,4.512,-66.765,3.271,10.412,6.883,4.804,-59.048,-6.549,19.317,10.27,5.348,-63.22,-10.28,20.712,29.898,12.507,-62.109,-3.624,1.437,20.05,24.407],[-76.351,-17.215,7.669,4.641,4.884,-78.721,-13.735,3.095,9.161,6.103,-74.854,-16.46,13.065,7.189,7.277,-71.678,-14.572,10.671,17.407,11.956,-66.538,-14.51,9.119,19.948,9.234,-62.364,-24.307,-6.328,14.962,20.289],[-79.612,-38.882,6.014,11.781,7.272,-84.332,-31.71,9.769,13.544,8.023,-81.662,-37.589,6.336,10.388,8.781,-76.094,-29.478,9.144,19.492,13.035,-75.811,-33.989,-6.48,12.327,19.103,-71.747,-38.167,-5.365,8.195,24.858]],
"vp": [[308.853,133.457,31.155,353.62,222.393,70.387,-5.743,-21.222,40.933,17.99,22.289,-10.814,-2.158,7.795,0.972,-36.688,-21.054,-22.163,-33.492,-21.852,-38.084,-25.58,-28.819,-46.276,-40.788,-36.844,-11.895,-31.592,-32.785,-25.832],[2760.601,1099.71,783.077,1021.483,1097.331,572.012,102.149,202.847,123.604,106.289,230.911,75.983,54.187,46.593,63.721,-1.4,-8.843,-2.414,-2.76,15.957,-6.236,-15.536,-18.446,-24.715,-3.199,-27.991,-36.655,-20.932,-35.428,-35.757],[4959.902,2073.195,1109.735,1221.81,1435.393,962.544,270.007,182.196,210.347,237.779,435.724,173.64,115.796,126.375,132.756,39.378,26.705,-18.317,17.39,27.865,-9.868,-23.648,-31.834,-32.181,-18.098,-26.057,-38.04,-37.289,-16.444,-9.463],[5893.521,3232.02,1661.83,1955.999,1854.366,1163.478,783.521,428.114,307.908,351.147,483.223,273.263,195.792,148.719,166.633,112.569,36.938,15.876,28.188,48.472,9.469,0.47,24.223,-30.654,-35.957,-32.977,-15.862,-53.721,-19.551,-19.351],[5949.208,5733.613,2865.754,2170.183,2507.12,1325.081,1033.043,664.546,459.842,479.554,535.458,634.597,252.762,228.388,195.68,119.568,72.802,42.135,13.78,4.508,13.486,29.498,-42.84,17.122,12.759,-9.945,-30.514,-13.955,-37.749,-17.61],[5806.574,8923.365,4121.461,2797.887,2563.098,1522.629,1530.847,898.713,460.752,605.239,648.663,881.407,380.622,244.253,185.677,105.247,107.764,99.915,19.418,11.3,38.5,29.08,5.416,24.303,-20.001,-23.103,-16.881,-25.963,-27.246,-23.312]]
}