{
"KTrans": [[-7.311,14.85,12.277,-0.488,-14.564,-1.782,5.796,15.715,10.366,14.055,5.131,18.37,17.801,10.079,17.118,46.134,45.524,67.243,75.548,81.559,-49.709,19.083,96.376,96.489,127.438,0.661,-146.209,-23.809,28.108,135.499],[-37.306,-19.013,-1.396,4.365,0.322,-40.962,-11.76,-1.514,4.296,1.892,-32.632,-10.603,4.678,11.333,6.64,-26.113,-11.675,0.421,20.67,29.717,-74.501,-15.238,-20.254,20.73,38.694,-54.156,-58.786,-37.703,-5.037,13.944],[-60.38,-26.929,-15.187,-9.754,-3.088,-60.394,-27.734,-12.067,-8.052,-0.747,-54.707,-25.184,-13.725,-7.086,-0.182,-43.999,-12.727,2.666,-12.561,0.165,-44.24,-15.209,-2.195,8.302,16.851,-42.768,-56.723,-28.528,-2.683,-39.706],[-68.45,-33.951,-17.556,-12.834,-10.817,-65.866,-31.918,-19.349,-9.99,-6.041,-68.294,-32.126,-17.355,-7.466,-7.02,-60.187,-26.728,-13.389,0.97,-0.78,-55.825,-47.816,-9.173,-7.914,-19.035,-30.371,-45.8,-33.901,-69.731,-9.08],[-75.369,-41.479,-23.155,-14.289,-14.654,-75.979,-41.911,-24.439,-13.114,-10.544,-73.095,-42.016,-24.229,-11.267,-5.124,-77.603,-30.451,-10.56,-3.308,5.656,-58.491,-36.535,1.826,-8.689,16.825,-64.398,-24.102,-48.924,-22.737,-25.05],[-80.886,-51.485,-30.474,-16.572,-9.795,-80.946,-44.876,-26.804,-15.744,-10.771,-79.007,-47.645,-23.517,-14.153,-8.912,-76.914,-41.785,-1.972,-4.6,-0.024,-85.747,-36.72,-27.908,6.429,5.956,-66.907,-50.602,-35.181,-16.042,-3.993]],
"ve": [[-1.644,-1.283,-58.857,-55.685,115.852,34.06,-6.639,50.541,-61.412,-37.149,14.645,-27.451,-282.814,-33.743,-19.779,67.275,5.293,107.628,-97.376,-44.265,100.137,30.205,-244.73,-25.591,-42.499,212.797,74.008,27.082,10.092,-9.912],[-20.34,20.031,-3.235,-4.545,-1.673,14.931,-16.059,6.111,-10.492,-5.508,22.596,3.652,-56.531,-26.903,4.896,-140.933,-0.819,29.303,-0.523,-33.118,91.611,44.777,39.03,-3.669,24.517,186.413,99.36,47.88,41.803,25.357],[-15.167,-19.342,-10.701,-5.094,5.856,-16.827,-110.307,6.962,7.155,8.794,447.671,-29.072,2.709,151.126,3.245,114.102,19.202,25.329,11.813,15.992,110.499,46.919,54.445,32.008,7.659,190.138,121.854,63.581,47.321,36.175],[-8.54,-31.048,-9.332,-4.355,16.054,-28.148,-2.612,-14.106,-0.878,3.635,5.885,-2.297,-2.297,-12.473,12.188,99.494,12.792,17.565,1.182,3.853,83.207,39.856,39.072,20.394,16.59,157.17,100.884,74.057,48.599,63.686],[34.525,-0.94,-3.088,-2.198,-9.218,13.552,-11.961,-6.513,-5.485,-9.51,9.095,-0.614,-0.23,2.163,-1.658,36.224,15.123,14.929,10.78,6.983,199.276,14.073,25.402,24.014,18.247,182.127,92.066,70.074,54.599,38.409],[-54.268,-11.044,-6.263,-6.769,-4.492,-1720.67,86.168,-0.336,-3.666,-3.824,-5.672,-5.235,-1.818,-2.113,-2.208,44.829,23.577,10.398,9.256,4.611,89.42,40.53,76.719,13.905,19.434,176.489,95.466,67.724,32.891,39.074]],
"kep": [[-126.671,-101.741,-70.478,-60.09,2.386,-123.65,-85.273,-72.656,-45.16,-64.122,-138.366,-144.366,-71.292,-65.787,-36.036,-142.122,-222.525,-204.239,-179.987,-239.042,-176.675,-316.983,-324.236,-350.59,-392.968,-123.841,-284.893,-492.544,-537.378,-583.715],[-87.79,-107.361,-114.571,-105.571,-24.587,-94.268,-90.073,-110.368,-76.817,-30.7,-88.896,-94.881,-139.854,-89.925,-25.211,-91.636,-118.668,-169.305,-170.405,-105.942,-111.217,-105.681,-187.884,-216.239,-183.33,-94.088,-112.472,-150.899,-210.767,-300.729],[-90.567,-70.456,-70.439,-103.812,-129.797,-90.249,-69.826,-66.975,-112.802,-126.624,-87.987,-67.726,-74.61,-108.067,-145.935,-88.852,-70.969,-63.198,-134.901,-177.975,-88.946,-80.367,-76.237,-97.431,-132.615,-84.8,-95.601,-88.74,-102.351,-186.686],[-90.548,-61.186,-45.918,-52.408,-71.71,-88.218,-61.92,-54.937,-50.11,-61.135,-92.588,-63.746,-51.563,-50.673,-70.329,-92.284,-68.693,-65.275,-51.418,-77.037,-90.091,-90.103,-60.396,-72.606,-111.651,-88.05,-83.245,-81.842,-122.076,-93.243],[-92.749,-63.449,-43.041,-40.564,-51.956,-94.514,-65.247,-50.18,-38.783,-44.53,-92.697,-68.211,-48.295,-35.432,-32.729,-97.774,-64.391,-50.505,-41.048,-33.619,-89.448,-74.944,-43.82,-59.432,-31.365,-89.706,-71.059,-91.554,-74.097,-76.69],[-95.131,-72.682,-49.72,-33.602,-26.5,-95.343,-66.652,-45.919,-34.434,-29.189,-94.751,-68.595,-43.74,-36.149,-28.419,-95.563,-70.813,-37.523,-31.796,-32.112,-97.944,-71.49,-65.327,-39.965,-41.112,-91.38,-80.589,-71.329,-59.781,-57.539]],
"vp": [[212.275,-193.884,334.472,589.901,-366.268,-119.981,68.286,177.419,17.426,-5.536,-8.377,-41.805,-10.339,-22.351,53.68,-36.754,-1.887,-20.274,-24.531,3.782,-10.132,3.244,-24.517,-4.079,-18.664,-22.138,-5.328,-8.135,3.324,-22.739],[1754.123,1068.091,136.232,41.213,-256.068,465.703,319.995,-41.787,122.813,-45.706,285.1,122.127,-10.18,-10.26,-42.487,45.23,21.335,-11.411,19.855,1.637,27.122,-10.32,-11.856,-22.479,-25.847,0.326,-20.781,-27.66,-10.984,-14.909],[4565.628,3082.359,1679.222,731.577,-288.524,831.172,604.926,369.777,186.855,32.923,468.357,397.946,233.982,100.32,64.926,60.76,83.978,-7.34,27.516,-1.348,26.938,12.688,-3.639,-17.67,-31.26,-14.98,-13.851,-9.324,-24.135,-28.917],[5682.573,5737.616,2916.31,2302.961,1301.044,1146.161,985.58,775.239,529.87,214.591,533.962,581.401,358.816,260.161,158.949,99.775,111.41,69.305,34.214,25.909,36.916,58.442,7.062,26.107,16.245,-1.339,26.645,-3.567,-4.404,-15.338],[5627.987,7032.342,5985.728,4835.078,3048.952,1373.593,1526.123,1132.09,642.19,472.992,683.833,643.607,622.861,333.484,289.905,145.495,128.577,133.222,52.754,37.264,32.401,53.275,26.589,22.391,6.899,21.989,-5.687,16.306,-7.185,-11.962],[6519.945,9197.153,6506.497,5464.935,4353.82,1149.43,1732.788,1512.08,1169.667,800.493,579.305,813.029,725.839,522.18,406.408,127.786,145.62,176.137,47.641,63.922,51.938,69.186,66.804,37.094,18.78,-7.683,19.426,14.796,1.272,-0.588]]
}