{
"KTrans": [[-2.586,3.997,-3.244,-13.49,-3.442,13.499,13.543,11.921,-5.198,6.213,11.26,18.553,13.069,17.14,14.355,18.673,46.876,68.895,74.163,76.217,-108.558,-2.843,9.406,58.492,97.638,-43.358,13.853,-139.479,6.266,-98.193],[-37.55,-11.623,-0.392,2.161,-2.061,-35.964,-14.32,2.076,6.082,5.408,-32.605,-3.363,0.356,11.335,6.668,-43.818,-4.512,-5.805,16.634,32.244,-53.17,-8.783,-23.319,-10.553,34.934,-33.344,-2.569,14.848,-42,-23.44],[-52.138,-20.171,-13.478,-7.794,0.018,-55.069,-13.892,-10.275,-10.067,-1.125,-42.233,-13.774,-9.424,-2.409,1.304,-34.399,-18.5,1.888,-3.757,0.593,-57.538,-55.896,14.26,-16.987,-9.217,-44.398,-56.958,-1.936,-11.66,-0.223],[-61.815,-32.242,-11.435,-9.415,-6.235,-59.522,-21.794,-11.274,-4.434,-4.313,-60.199,-19.192,-10.414,-3.58,-1.412,-54.916,-14.878,-0.38,6.398,-4.252,-48.952,-2.383,-8.53,3.961,-8.584,-63.76,-0.496,30.293,23.647,14.901],[-71.555,-32.588,-15.511,-9.662,-5.412,-72.099,-31.764,-13.098,-6.208,-6.403,-71.845,-28.319,-6.294,-6.482,-0.218,-67.07,-6.081,5.892,8.849,-1.024,-77.913,-29.691,-8.717,-9.32,-8.071,-25.858,-9.752,-32.018,-43.844,19.22],[-75.02,-40.716,-14.879,-9.006,-5.088,-74.501,-43.045,-15.554,-6.586,-4.864,-76.858,-39.289,-10.85,-8.142,-3.949,-76.718,-25.961,-15.833,-0.407,11.884,-82.223,-46.307,-10.695,-0.058,8.847,-60.113,-70.843,-62.121,-9.842,7.007]],
"ve": [[-8.128,-12.018,-34.371,13.58,-100.818,-12.057,6.805,-20.264,-53.056,-63.985,11.985,76.183,-32.364,-35.342,-55.703,87.218,-11.148,-31.298,-54.612,-66.105,77.468,21.359,-3.913,-30.516,5.271,185.267,70.665,26.231,-0.99,-21.561],[-10.852,4.708,-11.395,-22.084,-8.18,-24.204,11.127,2.749,-41.445,1.869,-4.572,-9.996,0.181,-1.016,-7.633,29.104,14.996,4.819,26.266,-10.843,86.056,45.6,28.354,13.539,1.849,197.403,95.891,48.654,42.881,25.362],[33.128,-8.297,8.494,7.922,15.817,-13.586,-5.81,-1.645,-0.07,-2.43,-3.319,-10.452,-4.988,1.264,-9.562,-16.001,16.362,-68.215,10.864,22.297,85.564,42.557,29.632,23.478,24.227,180.723,95.572,61.661,57.268,37.121],[-1.833,-3.767,-3.358,-2.319,-33.016,12.646,-9.224,-2.106,-2.172,-4.984,-33.324,-1.027,-23.568,-1.088,-25.922,42.177,23.149,13.336,10.141,-0.125,52.485,43.755,36.311,24.799,5.415,188.534,103.473,65.821,38.751,53.51],[-9.665,-7.194,-4.851,-4.162,-5.57,-23.682,-2.743,-4.513,-1.663,-4.78,1.518,-1.29,0.089,-0.211,-0.848,42.49,14.912,-18.906,11.048,8.984,29.642,41.241,31.884,33.515,18.989,192.021,102.147,60.365,52.306,-98.148],[-9.812,-4.467,-1.908,-2.56,-1.432,-43.335,-4.505,-1.013,-1.197,-1.436,84.178,-1.243,-9.586,-0.254,0.591,48.429,22.886,9.969,4.596,8.19,108.795,40.895,33.301,23.407,17.919,189.548,98.37,67.208,32.724,41.839]],
"kep": [[-112.15,-72.484,-16.952,14.496,-20.068,-113.034,-88.396,-64.396,-4.224,-22.46,-122.129,-100.831,-72.705,-60.3,-14.296,-171.951,-212.571,-191.691,-170.027,-201.638,-181.726,-292.447,-396.365,-436.617,-419.627,-95.851,-185.424,-501.677,-593.33,-732.564],[-81.056,-80.909,-109.485,-64.026,-6.829,-80.633,-91.158,-120.582,-74.03,-37.041,-83.291,-76.468,-136.709,-100.787,-33.778,-91.84,-88.034,-170.227,-163.291,-131.025,-95.787,-82.841,-166.825,-248.126,-200.779,-70.102,-71.063,-52.554,-228.213,-298.105],[-80.76,-52.054,-55.286,-93.188,-111.283,-85.279,-41.84,-52.622,-98.986,-132.846,-78.741,-48.28,-52.372,-82.258,-123.09,-78.784,-67.839,-53.566,-97.905,-162.38,-85.813,-81.255,-48.314,-99.426,-164.888,-76.956,-61.477,-51.626,-64.392,-65.875],[-83.41,-52.767,-29.435,-36.658,-53.214,-83.272,-44.251,-35.81,-21.409,-44.172,-82.378,-46.47,-34.301,-29.116,-44.068,-85.56,-52.985,-43.765,-32.288,-68.031,-84.255,-45.279,-57.111,-43.417,-67.979,-83.612,-54.119,-34.381,-36.886,-40.134],[-90.615,-51.918,-29.245,-25.042,-19.991,-89.762,-56.375,-27.545,-21.558,-26.229,-89.616,-49.504,-19.178,-21.127,-16.345,-89.588,-43.211,-28.178,-19.302,-40.161,-91.608,-64.043,-50.241,-47.917,-55.993,-80.354,-56.961,-62.005,-82.826,-32.389],[-90.202,-59.445,-27.527,-20.637,-14.122,-90.878,-62.137,-31.204,-19.673,-17.179,-91.64,-60.205,-24.684,-19.921,-13.516,-94.644,-55.834,-43.492,-26.479,-8.735,-93.149,-75.624,-48.466,-37.821,-28.789,-88.727,-80.218,-74.134,-49.598,-43.062]],
"vp": [[-139.269,140.061,-361.23,820.535,-225.582,-22.554,57.821,118.604,-33.853,42.902,-66.171,-48.84,10.136,1.36,-10.45,-14.805,-21.176,-25.978,-4.173,1.241,-26.728,-8.049,-11.082,3.481,1.52,-25.229,-33.425,-4.042,-2.675,19.039],[2500.88,689.726,172.629,-120.689,-81.054,496.553,323.679,-88.072,42.08,142.167,309.008,89.482,11.23,78.897,17.55,43.52,11.163,-6.801,-25.863,-11.011,6.748,-11.665,-13.085,-6.266,-8.154,-34.673,-6.641,-40.398,-8.962,14.858],[4535.165,3296.957,1936.008,246.507,-146.705,822.325,533.48,326.469,270.634,116.753,460.899,312.429,129.718,40.171,-11.192,68.345,34.293,28.248,9.675,-5.281,10.814,3.162,-18.739,-4.42,-23.439,-10.196,-29.361,-28.386,-35.962,-33.107],[5618.099,5472.775,3640.895,1284.672,1639.447,1065.068,961.715,547.182,311.133,167.923,482.762,497.012,365.83,250.105,77.609,88.361,91.106,60.362,18.617,26.086,39.133,-11.249,16.948,9.596,-23.126,-21.331,-10.865,-9.815,-38.197,-40.947],[6024.94,7459.262,4571.607,3208.148,1537.669,1099.941,1637.899,980.014,539.064,376.202,641.98,685.382,472.253,268.83,241.37,104.495,111.693,67.762,67.966,37.704,28.303,24.675,12.365,6.413,14.729,-2.972,-14.426,-13.379,2.473,-43.383],[6365.605,8629.444,7046.108,4147.397,3212.742,1328.146,1468.536,1495.287,983.345,490.482,667.844,673.315,621.704,355.18,273.438,134.601,154.856,99.655,90.865,48.934,18.02,74.772,42.601,32.052,4.747,-9.846,9.617,6.881,-19.673,-4.778]]
}