{
"KTrans": [[-34.184,19.486,25.902,34.82,37.677,-25.514,22.948,38.714,47.958,25.79,-60.425,39.784,42.494,34.603,47.995,25.327,123.21,105.699,109.529,105.024,207.899,271.877,241.672,223.845,191.116,525.069,608.376,564.989,515.656,444.663],[-93.209,19.827,65.084,54.037,54.195,-85.692,-1.24,58.008,64.229,51.997,-92.436,2.39,60.98,63.362,49.686,-65.673,36.169,110.987,105.818,96.798,-71.559,107.913,176.886,168.019,135.461,87.305,356.553,300.494,297.65,220.315],[-102.229,-77.931,33.658,64.995,53.167,-110.812,-62.227,50.285,58.761,74.569,-97.942,-68.704,32.758,94.98,81.134,-86.992,-10.445,75.573,96.965,100.949,-98.856,-21.119,147.369,155.122,125.665,-99.244,68.451,269.37,300.676,221.351],[-104.915,-86.801,-12.983,60.877,93.754,-102.335,-95.085,-21.476,23.175,89.598,-109.476,-101.867,-11.465,54.349,76.975,-113.104,-87.26,-40.082,98.793,142.684,-100.924,-97.959,54.65,135.94,161.854,-71.997,-104.427,141.495,231.927,253.526],[-102.293,-109.774,-88.101,22.327,105.729,-109.248,-114.348,-69.564,9.933,123.9,-106.069,-105.202,-68.99,27.547,99.699,-102.773,-101.438,-63.389,56.381,126.14,-109.804,-146.719,-11.388,80.996,134.411,-85.289,-147.801,6.968,109.883,250.714],[-105.665,-113.322,-102.27,-51.486,52.163,-97.836,-105.281,-116.582,-23.112,36.844,-104.374,-114.728,-108.469,-53.34,56.083,-99.271,-126.166,-108.819,-0.301,73.304,-112.516,-120.862,-117.824,26.802,103.065,-106.978,-160.266,-79.703,29.871,151.32]],
"ve": [[66.374,-0.589,29.291,6.035,-29.619,33.852,-12.793,-102.689,53.418,13.687,14.659,-36.553,13.8,18.393,-23.299,69.148,70.542,17.838,100.222,-13.968,94.111,47.442,19.324,10.138,-6.73,262.863,74.431,46.383,10.205,-2.167],[31.269,12.312,2.863,6.511,-1.777,24.62,8.126,7.426,8.992,5.596,-10.67,13.016,7.855,7.959,5.43,54.806,36.684,25.483,14.778,9.899,106.806,61.327,31.575,23.948,16.313,194.782,108.333,62.497,45.039,30.606],[-533.804,12.135,13.166,3.894,2.765,10.489,41.01,8.958,4.27,4.487,7.396,5.492,13.164,10.041,5.727,60.806,40.734,19.355,13.486,10.858,-22.183,47.063,42.356,24.602,18.655,172.661,102.239,70.066,54.932,38.43],[-22.086,0.992,10.474,5.368,5.402,13.761,-2.358,7.065,6.66,4.731,28.903,21.18,7.672,9.381,4.321,30.325,28.014,26.335,15.336,17.112,98.546,-314.187,41.426,48.88,22.893,164.853,102.274,172.588,47.76,41.365],[22.831,2.454,-150.757,-0.202,8.309,-74.452,7.925,5.284,4.449,7.649,51.809,7.749,10.276,-4.842,7.424,62.455,28.843,22.273,15.604,11.854,104.075,54.261,35.944,27.847,18.706,195.92,99.411,40.545,57.159,41.07],[-9.397,-36.193,14.384,2.15,6.46,22.142,-38.692,6.235,3.097,1.865,14.31,23.059,32.548,13.641,-0.513,42.532,21.547,25.391,37.112,15.657,102.407,29.641,37.32,29.259,25.495,218.84,150.385,70.748,59.999,44.823]],
"kep": [[-58.444,-0.609,16.23,50.521,54.395,-56.651,0.37,27.959,52.36,26.333,-82.021,17.798,31.466,35.627,65.632,-39.91,78.256,90.588,124.597,139.502,47.64,152.377,201.883,231.766,254.887,107.875,287.595,369.344,470.48,486.215],[-100.047,4.526,52.411,45.902,49.557,-92.824,-18.148,42.41,52.18,47.065,-99.455,-17.531,45.561,49.252,43.893,-81.157,2.358,68.854,76.602,77.955,-90.531,29.668,99.172,113.066,100.082,-41.518,116.464,140.021,169.172,141.465],[-104.292,-81.104,18.575,51.782,44.147,-109.004,-70.857,33.59,45.159,61.559,-99.6,-79.712,11.222,73.052,67.379,-94.718,-40.172,38.847,65.07,75.211,-101.059,-49.434,67.359,94.109,83.392,-99.288,-21.7,110.824,155.073,124.951],[-105.853,-88.832,-26.41,43.695,75.666,-104.393,-98.186,-33.621,10.692,73.395,-108.339,-101.794,-21.354,33.482,62.327,-109.346,-90.878,-54.075,65.079,105.406,-101.334,-99.41,2.198,75.106,104.28,-91.531,-104.201,35.673,109.055,142.334],[-102.674,-109.166,-91.516,10.531,80.105,-106.841,-113.708,-71.69,-1.98,99.741,-106.374,-101.81,-73.345,10.112,75.524,-102.644,-102.747,-71.162,22.128,91.928,-104.76,-129.658,-38.377,35.178,85.183,-95.849,-123.202,-39.658,30.713,136.327],[-106.158,-111.285,-103.716,-59.334,35.734,-99.555,-104.943,-115.724,-35.203,18.62,-103.873,-113.004,-107.364,-60.436,39.04,-99.106,-118.738,-107.606,-20.36,40.59,-106.345,-112.813,-111.824,-8.111,53.523,-100.789,-127.042,-89.472,-20.556,64.223]],
"vp": [[1975.776,1475.276,1858.85,2061.223,1077.318,596.924,523.958,285.067,524.351,314.028,387.847,259.449,220.278,182.325,208.621,79.508,46.448,36.034,27.054,25.674,36.309,21.004,14.961,25.542,19.273,12.791,7.302,10.821,6.327,4.606],[9022.991,9163.916,9883.434,7656.363,8236.165,1696.49,1965.56,1767.08,1614.254,1688.807,924.446,924.968,973.606,884.343,767.815,158.908,191.765,174.927,156.537,172.439,81.648,94.282,87.292,82.101,75.737,33.051,42.633,24.127,37.433,34.297],[10470.888,14171.441,16345.961,13235.268,11171.797,2146.829,3204.563,3070.989,2321.023,2545.404,868.491,1674.618,1544.654,1752.369,1206.424,183.619,322.401,306.263,258.965,229.358,92.85,136.284,168.28,129.994,99.575,53.5,62.744,75.496,75.786,58.421],[11019.81,15767.456,22383.936,20506.95,19993.181,2113.528,3600.166,4610.386,3995.544,3594.402,1038.303,1744.151,1811.394,2293.413,1766.196,229.694,317.113,397.366,359.05,404.271,104.955,187.403,228.628,217.903,189.199,48.703,90.267,94.309,96.449,93.997],[11880.788,18858.037,27654.929,23140.096,30362.491,2258.761,3829.825,4263.712,4795.652,5355.274,1275.244,1677.768,2347.474,2358.839,2442.67,193.183,348.866,449.322,532.222,447.286,108.816,196.246,239.266,266.536,211.44,51.267,106.059,116.1,124.568,126.848],[11009.422,18704.389,25171.477,31751.443,33217.341,2035.226,4001.574,5200.07,6264.186,5884.49,1068.286,1907.566,2413.858,3049.467,3238.023,227.773,392.073,545.328,622.035,611.219,113.503,184.297,265.304,314.992,299.963,54.046,102.928,122.164,161.648,181.031]]
}