{
"KTrans": [[-34.251,2.09,-5.941,-5.357,-6.742,-22.233,-6.998,-5.112,-5.581,-9.584,-33.209,-12.268,-2.606,-0.048,-5.733,-22.955,-10.114,-3.334,-6.429,-6.774,-35.339,-3.706,-2.138,-6.667,-5.686,-34.184,-3.151,-4.438,-3.864,-4.378],[-87.424,-43.765,-20.888,-12.623,-15.842,-80.325,-39.234,-17.97,-10.267,-10.635,-78.78,-42.219,-17.712,-17.351,-8.491,-82.749,-40.614,-18.551,-9.286,-12.694,-75.688,-37.838,-19.54,-9.612,-11.505,-79.831,-35.173,-23.11,-17.018,-12.796],[-90.514,-72.374,-42.289,-21.601,-14.799,-91.802,-75.119,-35.13,-18.824,-19.871,-92.478,-69.451,-46.904,-23.739,-21.853,-95.242,-71.226,-40.942,-21.481,-18.475,-94.46,-72.21,-36.423,-22.006,-16.015,-92.633,-69.581,-34.751,-20.286,-22.964],[-97.561,-82.848,-55.929,-37.469,-25.992,-97.251,-76.888,-57.485,-40.11,-25.244,-95.666,-80.004,-57.206,-32.062,-25.4,-97.203,-81.49,-59.539,-35.905,-25.825,-97.309,-75.389,-55.279,-41.972,-26.211,-96.553,-74.659,-62.429,-30.448,-22.343],[-99.747,-89.116,-71.377,-50.084,-38.086,-100.217,-85.591,-65.741,-51.709,-32.642,-98.968,-79.32,-77.903,-50.797,-35.178,-99.944,-88.844,-73.927,-54.556,-36.706,-98.868,-84.969,-72.146,-52.584,-41.23,-99.054,-90.049,-68.493,-53.173,-28.503],[-100.407,-95.299,-75.701,-63.173,-47.823,-98.807,-90.336,-82.06,-66.457,-56.322,-103.167,-89.3,-74.616,-63.879,-42.397,-98.991,-91.082,-72.737,-49.202,-45.905,-99.857,-92.252,-77.387,-58.338,-51.321,-99.035,-83.973,-80.922,-63.034,-45.746]],
"ve": [[-13.964,-5.595,29.716,-43.055,-309.022,2.328,2.913,-109.653,8.062,-220.468,43.611,4.86,-28.674,11.783,321.721,-5.077,27.876,-26.632,-3975.16,-202.796,46.421,5.259,-84.955,62.041,38.993,-18.023,3.484,22.304,39.906,490.709],[-61.717,-28.954,-12.314,-7.168,-4.003,9.383,-25.459,-11.475,-6.146,-3.651,-66.899,-32.231,-12.083,-8.039,-4.343,-67.812,-23.16,-11.451,-6.707,-2.791,-54.33,-127,-12.301,-7.967,-3.734,-67.055,-32.007,-11.855,-6.585,-4.108],[-78.409,-35.904,-30.268,-17.611,-11.567,-78.918,-57.491,-23.679,-17.612,-13.498,0.834,-50.653,-34.605,-18.565,-12.404,-75.256,-53.824,-31.251,-17.674,-12.501,-63.287,10.273,-26.301,-16.207,-12.191,-82.967,-48.339,-24.162,-18.535,-14.341],[-52.359,-49.349,-45.662,-28.591,-19.648,-100.589,-61.528,-40.156,-29.051,-21.156,-100.108,-69.61,-43.926,-23.247,-20.027,-108.915,-62.718,-44.744,-27.08,-23.196,-84.559,-61.796,-47.26,-33.985,-20.238,-74.915,-88.354,-47.749,-25.589,-19.966],[-80.268,-49.671,-40.65,-36.988,-29.071,-82.613,-72.81,-48.537,-41.505,-27.009,-95.57,-61.68,-67.654,-40.448,-30.416,-106.955,-74.275,-57.487,-40.609,-28.348,-101.417,-75.823,-50.689,-44.477,-29.124,-102.148,-88.528,-56.283,-41.586,-23.48],[-108.786,-88.763,-58.977,-48.044,-38.092,-304.168,-70.298,-66.975,-56.108,-46.224,-118.678,-78.852,-67.762,-49.353,-37.755,-105.255,-67.322,-63.515,-41.498,-36.774,-107.817,-106.912,-62.257,-45.238,-37.895,-64.901,-58.827,839.289,-47.788,-32.535]],
"kep": [[-31.45,-2.587,-12.366,-13.762,-17.24,-25.329,-6.897,-8.394,-13.319,-27.029,-32.573,-14.611,-7.227,-4.384,-17.993,-28.455,-16.18,-6.944,-16.466,-13.866,-39.062,-6.19,-6.797,-16.285,-19.794,-41.941,-9.036,-9.841,-7.598,-18.759],[-86.916,-26.021,-9.395,-5.358,-11.878,-80.104,-23.708,-8.124,-4.643,-6.294,-81.231,-22.494,-6.295,-10.121,-3.067,-80.651,-25.363,-9.051,-2.615,-9.75,-76.42,-21.07,-8.951,-1.678,-7.154,-81.692,-20.496,-12.433,-10.319,-8.291],[-90.708,-70.135,-18.849,-3.682,-3.545,-89.274,-71.333,-18.172,-2.293,-6.854,-91.099,-65.358,-21.939,-6.235,-10.68,-88.654,-64.133,-19.965,-4.407,-6.106,-92.633,-67.994,-21.3,-6.779,-4.938,-88.82,-61.011,-16.86,-2.803,-9.184],[-92.691,-80.05,-42.008,-13.291,-7.807,-90.644,-71.62,-44.872,-14.766,-4.377,-91.779,-79.79,-43.472,-12.276,-5.968,-93.356,-79.84,-47.846,-17.235,-3.029,-95.012,-74.563,-44.352,-15.414,-7.047,-92.116,-74.99,-47.782,-8.601,-2.729],[-93.758,-86.328,-68.559,-31.809,-12.054,-92.908,-82.225,-63.119,-29.119,-5.739,-93.347,-76.979,-72.206,-29.732,-6.931,-94.756,-85.369,-67.923,-34.649,-12.013,-94.031,-80.886,-63.653,-33.022,-15.446,-94.826,-86.266,-68.039,-29.993,-8.415],[-95.083,-83.221,-71.894,-52.807,-24.217,-94.802,-81.186,-74.685,-58.703,-25.95,-92.561,-80.964,-72.461,-56.204,-13.54,-93.427,-83.432,-70.711,-47.746,-19.306,-96.277,-83.514,-73.246,-53.889,-25.803,-95.484,-75.716,-76.562,-56.627,-25.494]],
"vp": [[2576.826,1703.304,2167.289,1884.439,1968.848,324.523,363.215,296.801,286.423,350.43,235.781,182.154,192.397,168.715,158.004,37.449,37.172,27.696,28.27,29.112,20.679,14.632,14.804,13.399,13.403,10.657,7.81,6.797,5.681,8.194],[6812.346,6841.938,4388.387,5297.633,4637.041,1277.447,1281.422,838.992,776.961,986.472,657.727,751.532,495.252,457.824,491.24,125.335,116.972,85.452,92.651,92.707,52.93,66.782,46.153,45.827,47.675,28.233,28.171,21.56,23.124,22.16],[7640.914,11429.819,10616.767,7779.139,8385.814,1613.5,2548.915,1585.783,1935.469,1767.723,810.519,969.802,1159.33,936.642,725.158,163.963,200.711,214.608,158.265,162.606,84.684,112.962,87.417,66.882,81.067,42.984,53.168,42.613,49.874,44.785],[8837.455,14061.471,15224.312,12527.581,10800.069,1834.204,2360.032,2720.681,2606.381,2534.792,874.012,1412.371,1416.912,967.281,1118.165,201.605,265.565,269.997,247.692,281.58,92.81,118.867,137.128,137.566,113.55,42.627,62.889,76.687,62.791,57.712],[10830.717,15837.409,18591.854,15607.712,15555.587,2130.159,2987.146,3171.35,3752.705,2864.375,914.746,1237.464,2092.169,1738.369,1781.532,208.848,325.417,351.354,335.022,296.429,97.913,134.772,177.432,172.947,157.42,51.183,83.762,85.114,89.854,59.245],[10510.582,18975.712,18097.806,20742.668,20081.106,2023.106,3111.499,4263.524,4750.052,5181.542,1200.195,1606.542,1925.164,2135.745,2120.892,188.414,351.669,389.761,345.716,367.184,100.34,167.887,187.845,185.025,199.973,48.006,63.897,112.645,100.633,81.828]]
}