{
"KTrans": [[1.48,8.448,-0.97,3.11,1.126,10.665,12.405,5.186,7.173,2.652,19.833,15.141,17.608,10.43,10.296,144.691,102.846,72.985,66.541,67.245,324.109,201.999,176.106,153.728,139.531,736.486,546.773,441.88,370.913,356.434],[-30.058,4.117,5.312,1.32,1.468,-27.396,6.079,7.321,4.508,3.371,-19.549,5.831,7.963,7.77,7.717,39.117,55.647,43.868,35.984,31.057,114.654,134.987,96.447,76.378,66.762,219.832,320.449,224.558,172.703,148.5],[-54.464,-7.375,-0.369,0.136,0.15,-57.735,5.247,1.231,3.75,2.587,-51.021,5.145,6.12,7.175,5.38,-21.21,50.985,44.907,29.298,27.072,7.35,117.025,89.187,69.941,53.541,32.01,265.611,208.192,160.889,126.497],[-78.547,-9.433,-2.169,1.005,0.157,-68.358,-6.48,0.631,1.348,5.081,-67.993,-0.769,9.468,6.809,5.89,-42.336,42.041,34.25,28.616,24.721,-26.466,91.297,82.155,67.203,50.209,-47.978,156.637,188.216,140.312,110.85],[-76.483,-16.123,0.831,-2.223,-0.676,-74.738,-16.614,2.537,3.106,3.051,-79.837,-8.365,6.381,4.961,5.055,-62.486,23.263,33.614,26.975,24.465,-47.979,68.865,81.282,58.408,50.485,-39.963,99.526,179.855,143.592,108.88],[-82.718,-25.381,-0.031,1.083,0.625,-86.452,-23.534,-0.851,1.036,1.983,-82.53,-19.136,2.465,2.797,3.555,-83.82,6.352,31.516,27.423,23.186,-56.858,31.712,71.688,57.651,52.636,-77.343,94.656,136.062,133.498,103.867]],
"ve": [[12.788,5.956,15.194,8.181,55.622,904.463,11.401,11.025,26.232,1.356,20.872,8.252,4.303,6.295,32.336,48.865,16.38,2.577,-8.017,-17.218,101.321,35.102,10.876,-5.524,-17.34,200.219,83.205,36.424,12.734,-4.703],[10.666,2.98,1.845,0.818,0.931,21.311,3.479,2.373,1.094,0.983,14.604,6.377,3.275,1.471,1.307,46.006,24.783,14.853,8.689,6.902,110.456,47.568,30.866,20.526,13.047,209.141,96.047,61.709,42.151,29.216],[8.504,1.984,1.324,0.411,1.258,-3.541,3.699,2.086,1.56,1.951,11.683,5.511,4.264,2.495,2.275,53.099,26.324,16.684,11.378,9.052,119.187,52.145,32.101,23.302,17.892,204.429,101.184,64.825,47.567,36.787],[41.887,2.061,0.709,0.462,0.842,-49.513,3.122,1.892,1.083,1.128,-3.605,7.517,4.129,2.325,2.685,59.936,25.336,16.784,13.18,9.676,103.804,51.544,33.058,25.745,18.964,206.407,96.111,66.388,48.867,37.981],[0.978,1.87,1.537,0.642,0.186,1.468,4.166,1.739,1.89,1.682,-0.174,6.795,4.095,2.755,2.336,45.062,28.52,16.788,12.192,9.812,108.739,53.557,33.869,25.549,19.334,206.93,111.535,67.592,49.939,39.255],[10.562,2.968,1.09,1.179,0.322,9.134,5.806,2.826,2.242,1.356,9.264,12.419,3.834,2.715,2.218,30.413,26.933,17.045,12.371,10.464,96.696,52.825,34.525,24.591,19.656,177.125,103.194,68.344,50.637,40.206]],
"kep": [[-6.504,9.405,-4.411,5,-0.686,1.235,8.399,2.652,9.104,-1.365,4.385,12.139,21.658,16.104,14.36,66.912,78.147,73.409,88.032,109.76,111.806,125.42,152.885,171.838,194.129,179.775,254.749,298.715,320.993,381.331],[-35.542,1.931,3.956,1.127,1.087,-35.096,2.898,5.174,3.891,2.902,-29.859,0.138,5.172,6.727,6.842,-9.073,25.201,25.503,25.724,23.009,3.244,58.955,50.269,46.675,47.869,6.92,113.513,100.845,91.942,92.348],[-59.38,-8.705,-1.393,0.05,-0.852,-62.833,1.695,-0.636,2.423,0.806,-57.828,-0.31,1.947,4.82,3.225,-50.214,20.215,24.374,16.23,16.651,-48.872,43.874,43.01,37.932,30.313,-55.517,81.34,86.745,76.517,65.531],[-81.34,-10.926,-2.698,0.598,-0.559,-72.52,-9.093,-0.931,0.361,4.077,-73.975,-7.142,5.207,4.469,3.109,-63.731,13.467,15.074,13.706,13.87,-64.512,26.364,36.819,32.999,26.201,-82.311,26.087,72.866,61.265,52.686],[-79.59,-17.703,-0.88,-2.795,-0.795,-78.418,-19.642,0.797,1.283,1.445,-83.785,-14.277,2.311,2.249,2.659,-77.388,-2.587,14.496,13.328,13.431,-74.984,10.941,35.102,26.189,26.1,-79.773,-2.051,66.361,62.258,49.8],[-84.573,-26.631,-0.936,-0.04,0.38,-89.163,-27.577,-3.503,-1.092,0.625,-85.571,-25.731,-1.293,0.234,1.368,-90.118,-15.783,12.263,13.325,11.489,-78.95,-14.22,27.54,26.522,27.514,-91.948,-3.469,39.971,54.64,45.21]],
"vp": [[317.018,22.139,27.314,-137.951,10.98,63.516,-11.188,-21.654,-20.335,-12.397,56.931,-9.129,-6.678,-23.488,-1.273,-10.209,-10.086,-14.27,-22.57,-15.557,-9.888,-22.731,-9.08,-11.849,-22.785,-8.524,-15.221,-14.787,-18.496,-9.075],[2782.93,770.256,510.448,-54.218,-216.069,545.021,122.551,0.078,68.22,60.36,210.608,52.739,1.94,-11.414,-13.559,37.897,-14.591,-17.475,-13.017,-7.15,8.948,-17.804,-17.477,-19.064,-6.474,-2.083,-18.52,-19.125,-22.799,-18.388],[4348.201,1618.905,394.714,539.844,61.18,918.295,402.1,85.809,-3.33,44.829,480.977,173.868,80.212,61.53,12.442,84.626,24.651,7.898,-20.291,-6.079,30.531,10.829,-7.996,-9.514,-23.147,-3.961,1.307,-15.876,-10.236,-14.297],[5423.875,3890.977,1393.661,399.982,-10.908,1157.383,685.389,231.219,52.173,42.471,542.607,345.801,137.257,60.373,-4.069,78.735,52.905,12.105,-1.057,-4.792,40.778,13.199,-3.556,-6.045,-12.241,8.394,14.357,-7.189,-11.256,-13.026],[6398.357,5282.859,2548.956,1042.168,404.109,1215.232,1013.187,536.653,205.626,98.721,642.211,498.631,174.016,106.841,13.979,120.3,88.484,21.029,7.194,-3.119,42.903,50,11.957,-7.037,-7.56,8.199,17.103,1.645,-6.374,-11.601],[6637.693,7102.958,4187.913,1839.534,1125.693,1354.524,1497.914,763.062,343,311.105,673.802,741.012,333.712,138.587,77.317,129.295,104.893,59.054,21.185,5.722,51.84,51.831,24.468,7.843,-12.25,17.54,16.876,10.676,-7.021,-13.608]]
}