{
"KTrans": [[-52.403,-65.089,-69.671,-61.481,-63.138,-42.796,-45.9,-62.163,-52.388,-56.309,-22.735,-53.134,-54.182,-55.674,-50.721,-3.791,1.576,3.964,0.016,-1.451,-18.63,87.077,37.453,65.544,67.032,206.873,66.865,265.157,175.173,213.224],[-49.41,-45.161,-52.072,-51.021,-54.262,-47.61,-49.086,-36.451,-47.69,-56.413,-43.438,-23.252,-27.779,-44.035,-46.237,-12.597,-3.416,-10.973,-5.458,-20.644,-20.776,0.103,-41.221,13.452,3.09,-47.141,25.389,17.514,23.61,25.433],[-59.715,-44.762,-42.942,-46.877,-54.752,-59.185,-43.606,-45.187,-40.211,-40.391,-58.756,-38.871,-27.613,-44.617,-30.079,-49.449,-17.051,-3.883,-12.745,-12.337,-58.025,-3.556,-10.634,-23.537,-29.75,-48.419,-23.343,5.839,-13.773,-15.951],[-72.157,-35.771,-41.733,-37.471,-46.102,-70.011,-44.185,-47.707,-49.136,-32.828,-68.541,-46.267,-42.043,-43.203,-42.531,-60.123,-28.941,-16.224,-29.317,-24.357,-53.143,-25.746,-6.792,-15.262,-13.252,-77.081,-29.201,-31.888,-25.366,-1.385],[-76.83,-52.891,-40.445,-43.06,-42.294,-75.956,-52.409,-44.348,-52.83,-41.407,-75.48,-47.97,-38.283,-37.15,-42.078,-69.542,-28.279,-26.005,-27.68,-23.424,-68.026,-27.71,0.914,-17.596,3.442,-72.07,-25.892,-13.308,-25.434,2.464],[-85.219,-60.17,-45.074,-41.912,-41.615,-82.926,-51.826,-44.058,-39.876,-37.993,-81.39,-58.052,-43.06,-45.056,-37.365,-76.561,-40.475,-31.122,-35.453,-27.986,-68.521,-40.707,-19.708,-10.904,-15.462,-73.628,-47.391,-42.89,-31.192,2.853]],
"ve": [[-54.882,-17.855,-49.216,-28.931,76.82,-48.094,-52.364,103.623,-43.974,-38.316,-26.51,-57.58,-41.856,-291.77,202.61,73.683,49.333,6.371,-41.271,-69.126,20.683,20.894,13.104,-22.86,-49.003,23.553,84.094,68.045,-8.989,-26.63],[-66.953,-65.702,-49.62,-41.269,-6.312,-66.715,-73.556,-38.484,-34.844,-36.433,-57.08,-37.038,-28.015,-34.487,-57.083,16.39,-5.659,-1.003,4.93,-14.726,52.334,-7.802,10.276,7.792,441.34,93.542,-6.495,19.807,43.923,14.902],[-69.154,-91.205,-68.533,-57.98,-52.776,-61.408,-88.908,-81.582,-43.599,-38.003,-51.743,-76.429,-43.384,-55.483,-29.058,8.346,-36.637,-4.037,-12.683,-8.621,-41.834,26.782,21.895,-11.969,-15.531,-46.738,25.546,4.721,30.909,-9.48],[95.751,-78.485,-86.438,-63.392,-63.875,-3.098,-108.926,-98.502,-83.163,-44.184,-39.99,-110.429,-85.312,-80.097,-60.621,16.266,-55.04,-41.567,-43.236,-39.018,17.534,16.033,34.036,-39.281,-11.651,-30.06,12.111,13.81,32.286,34.634],[-35.004,-111.383,-97.77,-89.654,-76.29,-22.322,-98.751,-113.995,-116.937,-70.336,-44.373,-107.076,-81.835,-84.307,-71.133,-1.023,-36.482,-44.098,-61.823,-50.461,10.648,-34.834,31.764,-46.477,7.077,-134.296,5.582,-40.283,-17.551,-11.269],[-30.984,-101.899,-113.543,-102.564,-85.216,-28.79,-149.028,-136.376,-103.008,-71.725,19.347,-91.759,-117.534,-115.59,-74.05,-16.686,-67.134,-89.34,-112.756,-70.369,43.678,-74.628,-43.812,-21.9,-41.898,47.787,-153.976,50.761,-44.337,81.025]],
"kep": [[-99.873,-14.426,-6.699,6.079,-14.462,-124.463,-7.211,11.751,9.978,-4.298,-116.001,-2.991,-0.04,11.239,2.506,-110.13,-58.831,-37.679,-35.764,-41.736,-16.237,-174.839,-92.077,-96.678,-102.638,119.069,-137.732,-310.959,-225,-319.629],[-40.971,-10.975,-122.726,-24.592,-1.042,-41.887,-4.259,-116.607,10.463,-5.734,-42.487,-24.012,-128.838,-5.797,-1.206,-49.074,-21.543,-113.634,-55.559,-20.169,-46.781,-10.64,-76.654,-130.069,-56.585,-46.938,32.498,41.456,-163.665,-129.16],[-59.956,-10.978,-11.115,-11.042,-97.673,-59.533,-9.88,1.38,-6.364,-113.445,-62.193,-10.911,-1.429,-24.958,-149.598,-62.521,-33.464,-30.586,-43.748,-85.798,-57.875,-35.571,-33.015,-23.323,-4.949,-52.768,-34.051,-5.777,-13.427,85.824],[-75.024,-14.155,-7.636,-0.922,-0.059,-81.664,-16.841,-7.849,-1.515,-3.469,-73.269,-20.107,-5.149,2.874,-4.958,-74.21,-35.812,-13.438,-21.923,-24.615,-66.979,-47.927,-43.676,-8.323,-19.742,-69.757,-42.745,-32.129,-41.807,-16.471],[-81.097,-27.502,-8.67,-2.632,2.485,-84.037,-33.907,-5.047,-1.675,-3.584,-79.572,-30.995,-12.394,1.438,-2.48,-77.284,-43.289,-25.064,-11.1,5.024,-76.343,-45.561,-40.414,-17.147,-28.329,-69.604,-44.092,-23.773,-35.631,1.5],[-87.893,-44.969,-13.818,-5.421,-3.954,-89.184,-27.414,-8.748,-4.677,-9.047,-86.688,-48.383,-13.28,-3.677,-5.031,-82.151,-44.28,-21.004,-3.705,-1.175,-78.771,-45.405,-38.096,-29.371,-10.585,-80.144,-43.934,-62.868,-27.715,-49.923]],
"vp": [[-119.333,-5.847,-208.911,36.388,-19.183,-51.324,46.017,-8.393,-2.607,-9.809,-10.213,-7.271,27.131,7.725,-44.984,-20.086,-6.077,-27.612,-0.786,-20.415,-38.044,-8.302,17.008,0.203,-4.706,-45.549,3.452,-14.953,-5.56,-12.177],[1716.081,191.055,13.483,152.396,111.102,259.447,10.285,1.562,7.909,-75.701,134.302,50.366,-17.518,1.099,-26.813,-12.615,-40.587,-22.351,-11.491,-2.046,-50.707,-52.486,-39.418,-23.907,0.393,-28.418,-63.831,-67.576,-21.88,0.878],[2999.695,804.256,466.879,56.203,-163.219,535.787,187.649,28.29,1.514,-49.688,299.821,124.64,26.435,-12.174,-5.993,-17.889,3.588,6.079,-31.268,-32.745,-46.76,-33.326,-28.455,-35.819,-15.227,-30.874,-33.298,-45.331,-53.971,-33.072],[4611.811,1664.417,860.647,598.279,188.316,919.23,281.195,142.159,83.841,79.962,375.822,154.736,80.902,23.413,7.155,40.998,0.247,-5.928,23.984,1.503,-14.834,-7.405,-13.015,-50.916,-64.344,-27.847,-46.503,-42.889,-63.993,-41.97],[4316.293,2722.143,1302.528,960.739,509.222,1137.188,852.847,274.639,67.652,152.946,544.055,322.739,178.433,61.358,48.111,13.371,29.374,36.017,4.655,-12.581,-28.51,3.376,-8.861,-41.126,-6.03,-16.353,-8.439,-56.996,-33.917,-51.752],[5356.981,3944.691,2371.463,1147.899,950.609,1096.586,645.001,314.346,214.953,203.639,493.279,521.178,231.313,81.3,92.267,38.302,62.781,29.496,-17.11,-29.868,-13.542,-17.677,-18.269,-14.891,-27.16,-23.169,-32.469,-39.342,-17.969,-45.11]]
}