{
"KTrans": [[27.208,12.093,11.514,14.452,15.836,25.546,12.159,17.907,14.417,12.36,9.134,22.698,18.288,14.518,20.7,40.732,30.188,33.081,34.082,37.028,66.385,72.607,49.001,48.297,48.962,85.522,98,105.31,97.976,98.946],[-44.834,-6.215,0.562,8.01,8.061,-45.271,-2.805,0.058,4.169,8.421,-38.31,-6.036,7.132,6.741,8.981,-29.369,-2.653,12.782,13.432,9.406,-16.015,7.176,10.895,16.446,20.666,18.109,21.397,26.39,40.795,22.095],[-72.627,-27.137,-11.633,-5.191,0.088,-72.307,-31.269,-9.605,-4.458,0.068,-71.261,-28.083,-8.819,-3.634,0.288,-64.262,-22.853,-7.058,-0.143,6.363,-49.109,-22.736,-0.333,8.833,4.899,-46.166,-7.09,9.337,19.48,13.166],[-80.62,-44.196,-29.946,-15.939,-6.196,-81.893,-54.525,-28.295,-17.244,-5.793,-86.352,-49.904,-25.231,-15.813,-9.185,-77.374,-42.538,-16.149,-14.461,-4.086,-69.556,-35.791,-21.926,-8.752,-2.96,-70.905,-28.947,-4.358,0.125,9.478],[-89.748,-59.123,-41.188,-22.842,-18.105,-87.759,-57.511,-39.278,-22.371,-17.9,-88.443,-62.311,-41.27,-24.955,-15.829,-81.083,-57.897,-40.765,-25.329,-15.561,-76.776,-51.706,-30.015,-23.292,-18.177,-68.453,-39.487,-28.599,-12.601,-9.963],[-90.379,-69.314,-49.377,-35.194,-26.957,-91.942,-70.005,-49.881,-35.005,-23.124,-90.671,-63.767,-47.625,-35.16,-24.423,-84.134,-70.361,-44.499,-36.425,-23.82,-83.416,-62.44,-50.329,-29.351,-22.734,-87.201,-62.615,-40.465,-32.98,-14.477]],
"ve": [[2.78,-68.486,17.321,37.908,-145.071,31.309,10.595,119.722,65.587,4.154,41.284,5.525,32.354,159.175,58.268,46.84,16.578,-12.124,6.425,-81.861,139.487,1.823,-7.843,-21.526,-16.805,54.11,17.352,6.876,12.38,-41.926],[-17.382,-3.043,0.975,4.222,5.436,-13.957,1.546,3.613,4.639,6.666,-9.545,0.919,2.618,3.779,5.853,-2.67,4.375,6.954,5.991,9.179,20.081,12.383,12.498,22.754,14.644,101.819,-4.269,32.85,7.904,60.892],[-14.445,-9.653,-3.148,-1.878,-0.261,-28.78,-10.979,-3.603,-1.272,0.937,-31.857,-8.091,-2.472,-1.189,0.662,-18.079,-1.912,0.423,2.354,3.511,11.171,3.978,8.064,8.384,5.249,35.798,21.319,15.044,41.031,19.618],[-36.695,-17.438,-12.433,-6.018,-3.108,-32.957,-22.649,-10.26,-6.908,-2.395,-54.835,-18.859,-8.766,-4.804,-2.45,-27.271,-8.208,-0.725,-2.871,-0.053,1.009,2.367,0.354,1.051,2.923,25.528,32.563,14.793,13.777,12.752],[-1025.256,-23.288,-15.841,-8.73,-7.023,-6.496,-21.408,-14.021,-8.961,-6.264,-49.188,-27.025,-14.947,-9.234,-5.434,-13.8,-19.112,-12.987,-7.936,-4.226,-0.876,-16.741,-4.609,-4.698,-3.187,34.939,23.917,4.682,14.575,7.553],[-11.708,2.802,-18.969,-13.133,-9.012,-48.417,-29.179,-18.646,-12.404,-7.991,-42.805,-28.416,-19.035,-13.071,-7.793,-54.519,-22.267,-13.245,-11.287,-6.739,-10.765,-14.446,-11.19,-5.541,-5.302,18.406,-1.377,-1.554,-0.088,3.793]],
"kep": [[-14.305,-23.936,-30.156,-28.009,-32.841,-16.276,-26.214,-26.342,-33.557,-39.984,-23.732,-16.277,-23.195,-30.969,-26.704,-19.869,-19.899,-20.564,-9.418,-6.213,-31.006,-4.54,-16.123,-11.106,-8.419,-35.565,-35.217,-12.59,-4.204,10.824],[-53.306,-28.8,-25.814,-22.883,-23.625,-55.512,-29.754,-28.331,-25.935,-23.982,-53.521,-31.357,-22.648,-23.427,-23.435,-58.478,-32.362,-22.463,-20.951,-24.657,-65.275,-36.275,-28.329,-25.314,-20.356,-56.006,-52.217,-34.947,-20.469,-30.273],[-74.339,-41.624,-32.867,-28.645,-25.71,-75.675,-43.389,-30.811,-28.526,-26.637,-74.962,-44.052,-31.079,-27.953,-26.328,-78.196,-44.319,-32.666,-28.371,-24.199,-75.448,-51.562,-33.537,-26.919,-27.285,-76.936,-57.414,-40.685,-29.404,-29.427],[-83.505,-51.721,-41.551,-34.095,-28.487,-84.342,-57.795,-41.373,-34.461,-28.69,-87.172,-55.867,-40.179,-34.848,-31.202,-83.796,-56.194,-38.656,-35.372,-29.353,-81.313,-59.334,-44.517,-34.931,-30.979,-79.96,-65.569,-48.697,-37.69,-30.549],[-90.557,-61.863,-49.143,-37.832,-35.004,-89.629,-60.97,-48.585,-37.388,-35.38,-89.482,-64.455,-49.68,-39.378,-34.357,-87.036,-65.616,-51.395,-40.872,-35.294,-86.012,-67.832,-48.381,-41.812,-38.727,-82.501,-68.608,-59.726,-44.388,-40.551],[-91.339,-68.596,-54.43,-45.388,-40.859,-92.79,-70.185,-55.517,-45.619,-38.532,-91.518,-65.519,-53.28,-45.319,-39.604,-89.178,-74.424,-54.291,-47.863,-40.013,-88.658,-75.168,-61.119,-46.412,-41.31,-88.793,-74.58,-69.028,-54.852,-41.935]],
"vp": [[-619.845,-113.205,-568.281,-433.493,-705.95,-111.79,-80.926,-161.501,-118.868,-78.116,10.523,-34.81,-50.659,-41.785,-99.745,-16.123,-13.325,-23.95,-25.151,-30.493,-18.801,-25.049,-12.536,-6.276,-12.404,-6.835,-7.846,-14.12,-15.22,-15.213],[2400.391,736.696,-13.896,-932.924,-353.254,506.623,28.44,-60.921,-16.846,-121.354,195.365,33.232,-26.755,-11.173,-38.681,30.355,11.011,-18.345,-15.801,5.269,4.139,4.124,5.376,-7.835,-12.408,-22.482,-6.821,3.168,-16.852,17.057],[5356.535,1873.041,921.738,746.743,157.292,1000.94,549.864,210.321,127.439,8.721,497.862,235.512,55.418,85.287,11.839,86.031,34.804,24.569,0.475,-18.845,6.921,16.496,-1.937,-16.32,8.802,4.905,-3.747,-0.484,-14.626,4.538],[5509.388,4403.869,4021.207,2163.061,906.581,1102.654,1166.439,682.219,520.375,182.01,668.86,519.669,297.714,209.458,135.818,98.296,66.962,20.924,46.661,24.323,30.689,29.679,31.749,18.639,8.728,13.401,-5.441,-7.992,-0.897,-7.982],[7144.923,6196.869,5399.898,3279.883,3350.235,1296.577,1196.374,966.745,698.573,587.892,678.629,629.395,555.78,430.805,290.049,86.666,124.874,124.43,97.159,71.372,28.521,49.176,37.827,49.167,49.886,6.311,-6.208,14.805,3.787,17.578],[6280.368,8283.343,6849.138,6113.019,4881.313,1472.794,1605.104,1434.81,1074.984,794.533,656.67,721.249,669.053,600.074,397.511,109.012,169.607,125.835,138.153,87.057,50.154,65.666,83.355,49.008,56.237,18.505,32.836,33.093,43.678,13.782]]
}