{
"KTrans": [[-49.495,-18.27,-6.693,1.453,17.558,-34.233,13.23,8.545,13.408,5.504,-50.353,-2.74,2.026,10.48,4.122,-38.189,-7.767,10.305,3.059,11.349,-46.176,-2.313,-8.032,17.629,10.247,-38.779,-8.34,0.985,18.589,14.452],[-89.077,-64.561,-24.082,-25.295,-8.619,-96.577,-68.067,-28.378,-13.615,-10.255,-90.538,-48.687,-22.539,-21.51,-16.725,-85.492,-58.245,-26.983,2.272,-12.166,-88.736,-50.864,-27.161,-4.229,-8.523,-94.05,-65.29,-29.985,2.572,-10.987],[-98.71,-84.947,-60.774,-34.904,-25.571,-97.866,-86.334,-63.787,-27.227,-20.826,-96.573,-82.83,-58.224,-36.648,-21.998,-98.098,-85.028,-47.356,-44.062,-14.734,-99.238,-87.339,-61.326,-32.559,-25.116,-96.775,-83.594,-57.798,-34.493,-17.888],[-100.978,-93.824,-80.531,-49.162,-27.239,-98.455,-95.489,-82.556,-42.821,-36.958,-101.733,-89.651,-75.316,-65.094,-33.122,-99.425,-92.941,-76.42,-67.592,-37.311,-100.512,-91.661,-79.601,-57.081,-38.324,-97.889,-94.82,-85.337,-58.322,-36.873],[-99.885,-96.196,-87.436,-70.902,-52.953,-101.252,-95.176,-90.772,-69.211,-55.152,-101.223,-98.628,-91.585,-69.231,-55.979,-100.521,-96.309,-85.711,-73.902,-55.725,-98.785,-95.275,-89.906,-72.212,-63.851,-102.419,-94.987,-74.741,-79.672,-63.306],[-101.13,-102.178,-93.266,-84.406,-70.838,-102.692,-97.015,-95.527,-80.944,-58.811,-102.399,-100.677,-93.38,-85.684,-66.786,-101.684,-96.879,-92.672,-71.934,-78.057,-100.114,-96.724,-92.359,-87.33,-69.673,-100.491,-94.383,-93.599,-76.148,-72.042]],
"ve": [[-179.156,-26.282,-84.689,-63.5,-96.523,-1100.38,-47.365,200.606,-17.047,-56.119,-225.811,-178.239,18.848,-138.985,-211.287,-194.045,-73.842,-45.434,-20.582,-6.109,-39.456,-28.035,1220.48,-98.408,-35.019,323.147,-166.075,-14.726,-139.396,-52.503],[-85.617,-37.497,-5.283,-9.532,-4.256,-53.188,-43.974,-18.49,5.182,6.275,-82.605,66.429,-24.973,72.878,8.622,-57.447,-6.809,-15.745,-31.52,23.765,-22.512,-43.767,-208.598,-2.73,-1.994,-68.351,-52.723,-22.049,-4.072,-3.917],[-108.884,-63.848,-52,-32.239,-21.735,-70.859,-62.006,-41.782,-21.946,-4.374,-74.518,-58.988,-37.369,-21.645,-18.989,-73.474,-67.247,-31.141,-36.005,-13.17,-94.43,-63.359,-295.667,-22.155,-16.332,-68.192,-66.685,-31.369,-30.206,-6.847],[-119.641,-69.501,-57.659,-38.263,-24.794,-93.447,-80.42,-58.917,-42.722,-28.084,-100.331,-74.989,-55.909,-40.214,-49.93,-80.309,-69.339,-50.676,-51.961,31.455,-114.013,-69.844,-60.604,-39.377,-28.196,-81.037,-42.765,-69.752,-49.141,-29.563],[-80.606,-104.724,-235.345,-55.97,-43.075,-115.358,-94.668,-67.431,-48.021,-41.502,-159.277,-94.986,-80.566,-26.856,-43.62,-451.645,-135.147,-84.92,-64.384,-41.066,-71.791,-101.22,-78.429,-59.127,-50.223,-90.379,-81.543,-82.119,-51.66,-42.543],[-79.753,-105.403,-109.633,-91.418,-52.62,-162.305,-202.907,-84.658,-57.36,-51.096,-116.377,-102.296,-93.203,-66.698,-61.89,-92.735,-67.584,-62.758,-48.444,-74.895,-118.769,-82.418,-73.217,-73.031,-54.176,-291.087,-85.308,-86.152,-53.598,-49.009]],
"kep": [[-71.554,-30.435,-23.522,-16.909,12.148,-62.311,-7.17,-16.715,-17.745,-18.856,-83.322,-33.952,-14.74,0.447,-15.919,-66.752,-30.065,2.13,-28.514,-16.673,-85.05,-25.036,-31.945,4.516,-7.179,-75.785,-30.218,-25.827,0.723,14.755],[-92.933,-65.832,-17.528,-20.592,-1.966,-97.413,-64.814,-19.837,-7.165,-6.532,-95.546,-55.64,-14.011,-19.101,-16.652,-91.586,-56.299,-18.863,2.79,-7.867,-92.319,-53.809,-27.013,-1.791,-7.905,-95.802,-66.872,-29.391,5.74,-4.251],[-96.089,-88.486,-54.281,-16.512,-13.219,-97.203,-87.002,-60.988,-17.346,-8.24,-98.405,-83.398,-52.162,-18.874,-8.559,-98.132,-86.907,-48.645,-26.091,-1.805,-96.857,-89.129,-55.119,-16.502,-11.358,-96.4,-85.294,-47.858,-18.483,-9.151],[-98.433,-92.786,-77.019,-40.341,-8.438,-97.206,-93.362,-81.165,-26.795,-15.779,-96.241,-87.352,-71.839,-49.581,-16.905,-99.144,-92.495,-70.42,-53.264,-13.929,-97.798,-90.961,-83.351,-39.191,-18.447,-95.4,-95.619,-82.353,-46.542,-18.1],[-99.243,-91.165,-90.703,-61.325,-34.752,-98.689,-91.991,-92.495,-57.102,-34.329,-99.735,-94.639,-86.981,-62.11,-36.636,-98.428,-94,-84.972,-70.239,-36.946,-97.724,-92.971,-90.307,-64.947,-42.813,-97.905,-94.666,-84.201,-68.71,-44.808],[-96.747,-91.42,-92.587,-75.003,-58.04,-97.725,-95.329,-90.422,-80.595,-50.44,-97.923,-94.056,-94.49,-84.346,-55.08,-98.132,-93.547,-92.007,-75.161,-69.875,-99.307,-93.546,-92.28,-80.863,-56.232,-99.105,-91.569,-95.809,-72.821,-58.971]],
"vp": [[3646.206,3609.053,3073.156,2314.918,1383.694,484.759,387.762,475.209,469.13,494.243,367.799,268.374,209.451,115.684,271.797,59.262,53.26,60.383,41.703,42.279,29.327,23.373,30.38,16.053,25.289,12.328,15.659,12.249,9.583,8.147],[7274.918,10351.366,7652.55,6774.974,6097.644,1763.258,2016.263,1647.243,1331.616,1346.874,756.05,1011.405,802.153,635.409,663.54,143.741,179.959,157.424,118.742,149.76,73.083,97.112,74.031,49.337,71.697,39.6,43.058,46.912,22.54,31.639],[9599.108,14485.713,12806.816,14622.819,12255.982,1581.209,2805.681,2955.296,2753.063,2350.479,1001.325,1456.396,1489.051,1275.265,1105.743,197.031,272.901,275.216,281.666,230.201,96.113,143.707,162.878,145.855,112.672,42.189,69.865,67.104,69.203,54.642],[11222.557,16226.973,20013.819,18664.374,16821.79,1975.611,3377.962,3983.648,3574.319,3290.669,1020.238,1473.275,1830.148,2118.039,1751.458,201.971,311.873,357.12,478.714,377.301,111.962,152.976,212.459,185.604,170.181,48.781,83.273,111.455,94.026,84.496],[9860.878,18098.723,24195.089,26345.555,25240.867,2356.965,3248.842,5069.242,4772.316,4593.544,1141.306,2054.652,2388.896,2299.437,2664.605,199.583,371.234,451.67,538.542,432.983,102.542,190.256,232.219,241.589,263.902,56.984,86.038,102.049,130.86,151.837],[10565.562,21929.748,26044.569,27546.423,28103.909,2112.913,3792.138,5501.747,6189.674,5515.13,1194.983,1915.1,2612.808,2935.913,3059.4,234.643,386.635,536.737,546.077,661.521,110.346,180.178,249.358,312.666,311.767,57.492,90.712,132.429,132.343,139.679]]
}