{
"KTrans": [[8.663,6.337,7.875,5.848,9.405,13.191,8.7,4.616,6.6,13.351,14.003,9.472,13.201,8.645,13.012,36.57,29.4,22.785,21.027,21.512,-54.153,52.017,45.798,50.237,29.175,-201.084,1.396,64.825,76.237,68.886],[-30.654,-4.926,1.594,4.072,5.536,-30.648,-6.144,2.336,5.442,6.854,-36.935,-1.448,1.304,6.156,6.804,-15.174,6.201,6.616,7.426,10.602,-23.935,10.974,16.584,7.966,22.526,8.959,7.024,45.973,43.939,27.651],[-70.919,-21.564,-7.862,-3.554,1.154,-70.29,-21.188,-7.805,-4.853,2.069,-66.144,-20.51,-9.229,-5.522,2.497,-58.958,-14.949,-7.042,0.415,1.859,-60.405,-32.273,8.467,3.692,3.794,-34.382,-24.244,15.846,24.685,15.737],[-81.81,-38.608,-23.602,-12.066,-6.876,-82.637,-38.361,-19.272,-10.75,-5.132,-80.388,-35.344,-21.089,-11.408,-5.882,-74.395,-30.4,-16.056,-10.001,-3.176,-79.809,-17.209,-7.85,-4.881,-2.475,-71.403,-38.54,-40.082,3.88,8.377],[-88.099,-48.748,-31.673,-19.67,-12.794,-88.229,-41.166,-29.15,-19.262,-13.754,-84,-50.077,-35.139,-18.57,-10.868,-90.31,-45.896,-26.716,-16.19,-9.47,-86.215,-36.854,-23.046,-20.421,-13.008,-68.26,-74.394,-45.336,-34.44,0.661],[-91.023,-63.303,-37.501,-28.43,-19.465,-87.726,-63.03,-39.252,-25.41,-18.529,-90.317,-63.502,-36.952,-26.388,-18.692,-88.861,-57.866,-28.149,-19.926,-19.877,-80.743,-52.974,-43.391,-27.498,-11.628,-68.497,-64.582,-48.396,-24.101,-11.104]],
"ve": [[5.206,11.915,31.559,37.422,21.5,9.689,4.292,12.911,31.58,187.854,5.863,13.968,12.615,-41.897,20.655,22.728,7.227,8.266,-7.942,-4.401,34.568,15.486,-17.941,-27.46,149.082,43.721,10.476,17.626,-15.765,-26.367],[-13.964,-2.097,1.49,2.673,3.296,-10.66,-3.168,1.467,1.702,3.116,-17.285,-0.143,1.142,1.912,4.367,16.691,2.553,2.993,5.692,7.061,24.023,14.109,7.312,110.163,8.793,56.173,36.801,14.229,27.98,1.654],[-35.771,-8.182,-2.337,-1.547,-0.032,-39.504,-7.915,-3.171,-1.093,0.149,-31.701,-7.244,-2.87,-0.986,1.025,-11.783,11.396,-2.264,1.658,1.535,3.143,6.436,11.931,5.73,4.668,62.793,15.452,25.648,-3046.15,-7.844],[-50.523,-15.515,-8.6,-4.055,-3.099,-64.771,-15.55,-6.911,-3.783,-1.814,-49.776,-13.622,-7.318,-3.99,-1.562,-30.065,-6.964,-3.932,-1.28,0.558,-19.594,4.441,3.625,3.469,1.198,12.597,35.281,22.83,12.241,-10.86],[-52.672,-24.471,-11.779,-7.126,-4.827,-52.288,-19.904,-11.324,-6.668,-4.891,-42.183,-24.13,-12.848,-6.712,-3.197,-54.037,-19.104,-8.112,-1.998,-2.223,-21.916,-4.629,-4.737,-3.317,-3.384,31.962,-10.434,-5.1,11.073,16.829],[-59.59,-29.56,-17.393,-10.307,-7.072,-42.257,-31.47,-17.174,-9.888,-6.472,-66.476,-30.924,-12.983,-9.225,-6.02,-46.103,-20.549,-8.999,-4.618,-5.972,-9.222,-9.348,-9.935,-5.311,0.653,36.153,5.967,-4.183,-1.673,1.307]],
"kep": [[-10.43,-14.985,-16.886,-19.616,-17.893,-8.399,-8.706,-19.453,-21.002,-9.848,-8.349,-13.788,-12.255,-17.627,-11.774,-17.636,-6.54,-7.202,-12.492,-8.911,-21.697,-19.064,-7.683,5.852,-30.488,-8.388,44.876,-38.159,-6.604,-36.715],[-38.231,-18.519,-15.585,-14.262,-13.583,-37.863,-18.571,-15.017,-12.376,-12.337,-45.544,-17.414,-15.581,-11.906,-13.315,-47.24,-18.598,-14.32,-14.339,-12.237,-44.097,-31.006,-16.138,-20.269,-7.063,-46.726,-21.286,-19.542,-12.281,-23.267],[-69.308,-29.12,-20.723,-17.4,-14.581,-69.946,-29.146,-20.069,-18.875,-13.977,-66.811,-29.191,-21.372,-19.561,-14.369,-66.663,-32.671,-21.955,-17.262,-15.925,-69.873,-46.082,-21.633,-19.915,-18.575,-64.432,-31.744,-32.976,-23.381,-24.138],[-81.37,-40.673,-29.971,-22.777,-18.981,-82.768,-40.339,-27.476,-21.827,-18.495,-81.472,-38.948,-28.641,-22.335,-19.376,-77.194,-44.475,-28.49,-24.052,-19.334,-74.429,-45.356,-32.906,-25.16,-20.883,-72.746,-52.474,-45.153,-33.966,-27.684],[-86.996,-46.679,-35.2,-27.246,-22.801,-88.89,-42.286,-33.252,-27.322,-23.611,-85.841,-51.198,-37.998,-26.669,-22.473,-83.681,-60.85,-35.848,-28.653,-22.771,-82.331,-50.533,-44.059,-35.826,-27.912,-81.45,-62.569,-40.597,-59.064,-30.999],[-90.373,-59.924,-38.456,-33.152,-27.068,-85.938,-61.352,-39.532,-30.747,-26.795,-88.066,-62.45,-40.453,-32.108,-27.218,-84.76,-62.858,-38.809,-30.666,-28.913,-83.105,-66.67,-55.243,-41.13,-27.641,-81.954,-67.825,-50.923,-45.765,-42.636]],
"vp": [[35.302,-64.822,-160.573,-155.377,-364.439,-34.985,20.71,14.2,-6.695,-109.736,-6.58,-12.816,-43.128,-13.046,-63.846,-32.919,-24.914,-11.502,-9.334,-17.698,-15.163,-25.767,-15.232,-27.697,-2.305,-19.113,-11.161,-30.391,-27.313,-22.408],[1536.697,450.421,-34.202,-390.264,-433.046,330.349,117.128,-38.022,-90.168,-115.055,205.261,-0.958,2.095,-47.475,-73.024,-27.15,-10.934,6.553,-2.51,-20.041,-12.693,-7.562,-14.196,13.08,-30.132,-20.086,-33.764,-34.997,-26.166,-4.209],[4671.147,1764.79,832.752,617.464,-86.455,914.693,362.156,174.826,135.823,-40.048,395.804,166.721,102.332,76.169,-39.729,47.107,18.575,31.134,-1.433,7.651,9.849,2.163,-23.726,-1.965,5.51,-24.256,2.305,-33.504,-22.937,-5.198],[5301.672,3302.516,2668.581,1727.744,1453.712,1197.099,692.977,464.78,259.436,114.85,557.73,326.177,229.914,148.566,89.798,82.934,39.89,35.833,20.142,7.442,42.558,3.032,4.974,2.986,13.49,11.536,-29.578,-9.935,-17.952,0.278],[6373.587,5951.568,4128.896,2745.032,1966.515,1300.735,939.064,726.878,502.262,493.287,489.813,578.94,443.078,273.103,150.953,156.753,105.659,71.969,20.318,27.47,37.143,18.872,30.114,40.615,41.436,-4.532,33.83,28.752,-8.819,-2.905],[7149.955,6440.162,5839.481,4064.508,3164.822,1042.919,1456.151,1130.385,879.751,675.849,678.972,699.532,398.639,398.144,310.964,127.358,103.788,74.126,37.807,76.484,21.701,37.276,61.31,44.63,4.977,-8.382,6.747,24.088,21.266,9.107]]
}