{
"KTrans": [[0.924,0.481,0.346,0.487,0.53,-0.389,-0.565,-0.283,-0.855,-0.171,0.456,0.28,-0.528,-1.397,-0.467,16.206,-0.12,1.545,2.775,-2.386,27.571,9.285,8.515,9.279,-1.238,-182.744,58.258,49.344,41.858,33.315],[10.207,2.662,1.274,0.915,0.699,5.453,0.814,0.62,0.464,0.404,5.807,1.506,-0.696,0.247,0.21,24.038,0.91,-4.252,-5.649,2.067,22.983,2.272,5.742,-2.603,-1.557,13.22,21.826,17.927,6.621,6.376],[72.463,6.646,2.867,1.902,1.307,27.997,6.022,2.578,1.344,1.05,51.606,3.91,2.426,1.334,0.331,64.633,-5.452,-4.851,-1.059,0.511,240.436,11.904,-6.221,-4.045,0.118,448.866,-16.095,13.393,-4.711,7.454],[-19.049,17.823,5.647,3.554,2.194,-34.974,21.601,5.427,2.466,1.894,-34.912,6.747,4.066,2.398,1.442,-24.313,20.095,-4.33,0.097,0.143,193.354,58.608,-2.252,-6.002,2.323,96.272,97.852,11.455,12.81,-0.184],[3.937,58.11,11.416,5.35,3.781,-16.418,65.867,11.359,6.345,3.389,-42.438,50.537,10.3,4.765,2.697,83.696,85.593,-2.379,-0.225,-2.816,199.761,40.348,0.225,-3.679,1.259,196.783,-5.606,9.212,-5.958,-3.785],[41.062,18.877,28.161,9.818,5.201,30.345,42.227,20.74,10.33,5.746,27.036,92.979,16.545,5.503,3.967,-6.721,23.169,6.868,4.319,-1.637,119.42,8.831,74.604,-2.508,1.76,13.434,187.856,131.465,4.769,-0.521]],
"ve": [[-0.657,-0.669,-0.733,-0.882,-1.071,-1.099,-0.674,-0.467,0.007,-0.215,-0.561,-0.38,0.113,1.162,0.861,5.409,124.53,-10.685,-33.071,88.076,-1.207,-21.201,-19.409,-28.955,-9.92,-27.229,-6.072,-22.218,-54.825,-50.4],[2.638,-0.174,-0.521,-0.593,-0.613,-0.758,-1.115,-0.77,-0.736,-0.658,0.261,-0.593,-1.322,-0.733,-0.675,-6.397,-0.631,-2.633,-2.059,0.544,-22.522,-10.684,4.912,2.449,3.205,-44.668,-5.742,-0.08,10.472,-6.785],[18.467,1.194,-0.086,-0.376,-0.515,-1.581,0.919,-0.313,-0.611,-0.597,-17.613,-0.055,-0.218,-0.54,-0.894,-22.616,-6.399,-4.323,-1.537,-0.573,-81.216,-6.399,-5.283,-3.219,-0.384,-117.486,-7.037,3.669,-42.676,5.656],[-53.847,5.015,0.719,0.043,-0.313,-59.225,5.67,0.396,-0.411,-0.483,-58.732,0.014,-0.01,-0.428,-0.625,-46.432,-19.333,-5.19,-1.407,-1.107,-94.159,-20.302,-4.632,-5.711,0.187,-98.908,-36.216,-6.389,2.362,-2.74],[-98.57,15.324,2.869,0.761,0.133,-86.419,17.334,2.07,1.081,-0.088,-86.664,12.341,2.08,0.459,-0.282,-107.901,-26.477,-4.96,-2.264,-3.045,-112.064,-27.794,-23.089,-4.358,-0.601,-163.659,-19.883,-23.643,-18.953,-7.127],[-127.353,-19.602,7.695,2.168,0.592,-103.019,-21.496,5.784,2.098,0.849,-100.871,-29.214,4.372,1.105,-0.018,-77.955,-18.976,-2.841,0.458,-2.79,-143.887,-7.572,-30.802,-4.498,-0.546,-136.976,-94.835,-36.77,-16.503,-8.646]],
"kep": [[1.585,1.157,1.088,1.384,1.623,0.493,0.082,0.224,-0.743,0.215,0.165,0.579,-0.425,-1.958,-0.597,-7.044,-9.459,-5.412,-1.535,-11.769,-10.938,-25.302,-16.175,-11.076,-33.058,81.452,3.826,-14.104,-13.426,-11.225],[7.142,2.837,1.804,1.516,1.32,5.483,1.885,1.381,1.199,1.063,3.858,1.935,0.541,0.942,0.869,-34.071,-2.979,-4.486,-5.137,1.01,-19.432,-20.497,-3.311,-7.611,-5.157,-21.207,-8.698,-14.834,-14.384,-11.486],[31.931,5.322,2.952,2.286,1.831,-0.058,4.872,2.877,1.955,1.651,-29.171,3.61,2.566,1.845,1.207,-49.75,-8.568,-3.423,-0.937,0.381,-74.087,-32.466,-12.212,-5.991,-2.417,-79.682,-1.367,-27.652,-21.763,-7.23],[-76.799,11.428,4.849,3.505,2.514,-80.2,13.905,4.928,2.871,2.38,-80.649,5.568,3.918,2.775,2.046,-56.479,-39.848,-2.867,-0.002,0.322,-80.972,-48.064,-16.66,-7.518,-0.849,-73.884,-44.899,-33.734,-15.206,-12.448],[-117.346,28.794,8.058,4.528,3.638,-103.966,33.8,8.762,5.17,3.464,-99.803,24.194,7.609,4.211,2.937,-95.157,-58.322,-3.1,0.208,-0.867,-85.819,-45.488,-46.163,-6.9,-1.501,-93.933,-36.05,-22.069,-40.187,-16.938],[-119.075,-20.378,17.57,7.35,4.561,-113.366,-28.26,12.873,7.895,4.816,-103.505,-41.663,10.227,4.101,3.906,-90.538,-40.561,-2.363,1.882,0.046,-100.374,-32.37,-70.751,-7.932,-1.232,-84.112,-73.33,-56.284,-40.489,-21.035]],
"vp": [[29.377,37.707,27.066,37.643,28.329,17.601,20.213,15.94,29.151,18.4,3.071,3.672,11.394,22.285,11.841,-9.22,8.624,2.597,-2.073,11.021,0.052,8.853,2.879,-0.773,12.695,9.391,-2.36,-4.366,-5.661,-5.762],[-307.379,-34.936,38.289,65.536,55.844,12.77,35.314,26.26,32.315,21.881,-6.316,4.842,34.332,15.706,15.544,10.113,1.888,20.935,30.091,-6.432,22.45,12.017,-4.797,12.738,9.293,20.299,2.566,-2.963,4.511,2.982],[-1873.904,-314.947,-90.671,2.75,61.775,19.719,-51.684,-0.583,21.791,22.049,170.178,-6.496,-5.32,6.293,29.682,42.997,26.579,26.92,11.355,2.37,80.84,11.694,22.232,16.429,4.252,57.799,6.736,4.553,21.129,-2.463],[5349.527,-1063.893,-317.046,-143.076,-25.367,1188.734,-231.54,-38.514,7.267,15.93,592.286,-7.59,-9.621,4.523,14.276,90.761,76.563,31.524,8.849,8.244,93.255,39.923,19.092,25.179,-2.934,47.541,36.166,18.07,-6.601,10.218],[9918.481,-3094.19,-962.576,-459.935,-226.409,1757.337,-687.334,-132.01,-112.703,-20.336,878.741,-249.115,-69.943,-33.108,-2.931,215.649,106.051,29.531,16.328,28.887,111.17,53.029,68.718,17.32,0.758,81.346,15.217,36.918,38.796,19.64],[11745.08,3972.793,-2317.051,-980.809,-466.005,2018.946,856.397,-363.667,-183.241,-118.411,1003.901,587.974,-142.6,-67.325,-14.637,157.957,83.541,14.075,-8.103,25.568,143.442,10.373,92.449,25.866,0.127,66.435,95.751,54.102,32.292,17.446]]
}