{
"KTrans": [[-0.581,6.168,8.432,8.313,9.329,8.25,13.558,11.527,12.882,13.301,19.256,18.862,19.43,19.663,19.442,126.422,89.559,76.736,71.564,67.85,281.695,200.538,169.286,152.871,143.973,640.997,462.856,393.333,360.365,333.582],[-19.25,-6.123,-0.901,1.854,3.673,-15.67,-2.648,2.079,4.114,5.815,-8.037,2.254,5.628,8.208,8.767,45.519,40.195,36.272,33.458,31.392,120.397,94.837,78.524,69.29,63.007,268.525,215.547,175.361,150.433,134.135],[-35.111,-17.049,-8.228,-4.177,-1.559,-34.414,-13.356,-6.303,-3.121,0.466,-26.412,-10.898,-3.715,0.494,2.154,12.561,19.507,20.856,20.807,20.502,56.971,59.883,53.628,48.326,44.554,157.213,143.687,123.83,106.864,96.191],[-44.724,-24.301,-15.055,-9.833,-6.091,-42.41,-22.524,-12.715,-7.363,-4.15,-38.129,-19.798,-10.16,-5.791,-2.848,-9.558,3.944,10.283,11.827,12.928,24.773,37.851,35.495,35.169,32.9,93.084,100.801,93.998,84.067,75.905],[-52.671,-32.228,-22.026,-14.538,-10.066,-50.737,-29.823,-19.441,-13.272,-9.015,-48.053,-27.454,-17.831,-11.012,-7.429,-27.386,-6.447,1.011,4.505,6.506,0.958,18.912,23.024,24.096,23.622,53.648,71.345,73.314,66.032,62.136],[-59.862,-37.39,-26.039,-18.997,-14.222,-56.43,-36.316,-25.071,-17.373,-12.749,-56.31,-34.849,-22.804,-16.014,-10.97,-36.122,-16.72,-6.715,-2.084,0.956,-15.226,5.785,13.173,15.893,16.878,25.704,49.829,53.963,53.074,50.565]],
"ve": [[2.266,7.583,15.334,25.552,39.852,5.277,7.954,14.416,19.302,27.757,8.708,8.61,10.391,13.71,17.434,44.685,16.715,4.91,-2.675,-8.672,90.895,34.736,10.952,-2.515,-12.988,185.903,77.72,36.192,11.878,-3.82],[-1.439,-1.133,1.142,2.866,5.202,2.818,1.208,1.847,3.27,5.462,7.309,3.38,3.117,4.301,5.483,46.218,21.698,14.276,10.613,8.948,93.392,44.914,28.86,20.153,15.159,190.648,92.664,59.134,41.091,29.902],[-2.317,-1.451,-1.1,-0.149,0.777,2.345,-0.189,-0.087,0.643,1.348,7.239,2.384,1.274,1.564,2.335,45.137,21.176,13.94,10.646,8.869,94.681,44.985,29.156,21.614,17.073,191.36,93.813,61.174,44.648,34.588],[-2.155,-2.373,-2.255,-1.664,-0.689,1.574,-0.338,-0.992,-0.609,-0.234,6.047,1.191,0.865,0.587,0.841,45.996,20.652,13.273,9.852,7.834,93.071,45.087,29.348,21.359,17.128,191.929,93.703,61.35,45.12,35.447],[-2.213,-2.581,-2.689,-1.896,-1.643,2.214,-0.905,-1.303,-1.11,-0.963,6.375,1.514,0.661,-0.06,0.004,44.935,20.842,13.159,9.382,7.445,94.002,44.884,29.252,21.513,16.799,192.449,93.502,61.275,45.406,35.857],[-2.054,-3.016,-2.89,-2.546,-2.151,0.926,-1.155,-1.637,-1.46,-1.573,6.375,1.445,0.173,-0.224,-0.422,45.946,20.979,12.923,9.223,6.969,94.116,45.65,28.986,21.023,16.557,192.725,93.928,61.289,45.34,35.592]],
"kep": [[-26.779,-25.482,-28.425,-33.968,-38.339,-22.596,-20.728,-26.039,-28.096,-31.08,-17.331,-17.536,-18.257,-20.068,-22.413,17.619,22.014,26.664,32.69,38.642,50.057,67.419,82.222,94.772,110.505,94.348,137.507,171.692,208.641,238.107],[-38.404,-28.743,-26.512,-25.729,-26.069,-38.436,-27.847,-24.827,-24.39,-24.744,-35.643,-25.816,-23.172,-22.177,-22.659,-25.276,-13.596,-10.578,-9.527,-9.564,-14.528,0.815,3.875,5.647,6.128,-4.924,22.784,29.731,33.076,35.131],[-50.13,-36.88,-30.42,-28.049,-26.763,-51.931,-34.891,-29.687,-27.831,-25.677,-48.487,-34.746,-28.715,-25.815,-25.159,-41.799,-26.048,-20.469,-18.136,-17.016,-39.513,-17.319,-10.814,-8.563,-7.431,-33.796,-5.722,4.113,7.212,9.277],[-57.609,-41.854,-34.828,-31.252,-29.11,-57.41,-41.712,-33.897,-30.122,-27.98,-56.213,-40.573,-33.224,-29.785,-27.772,-53.51,-35.406,-27.009,-23.683,-21.492,-51.499,-28.76,-21.46,-16.491,-14.942,-50.394,-22.273,-9.86,-4.915,-2.645],[-63.63,-47.819,-39.929,-34.697,-31.452,-63.822,-46.89,-38.808,-34.254,-31.129,-63.309,-46.398,-38.802,-33.241,-30.606,-62.393,-41.934,-33.074,-28.372,-25.688,-60.953,-38.462,-28.645,-23.443,-20.657,-60.598,-33.606,-19.434,-14.399,-10.537],[-69.196,-51.561,-42.893,-37.687,-34.286,-67.551,-51.669,-42.886,-37.138,-33.546,-69.089,-51.83,-42.225,-36.898,-32.975,-67.141,-48.373,-38.062,-32.791,-29.244,-67.243,-45.533,-34.221,-28.211,-24.83,-67.795,-42.076,-28.432,-21.043,-16.758]],
"vp": [[-118.061,144.168,-12.805,18.606,228.385,-11.083,-16.13,-30.8,-25.815,-39.811,-5.526,3.491,-21.981,-3.688,-10.107,-8.207,-11.709,-9.777,-12.419,-11.454,-8.673,-11.573,-10.845,-9.333,-11.908,-8.302,-11.109,-10.25,-9.325,-8.808],[1172.065,213.016,-15.702,-144.625,146.719,209.581,22.097,-18.277,-34.365,-9.411,91.217,21.106,-16.734,-15.586,-12.39,1.149,-5.281,-10.843,-14.038,-13.615,-6.342,-10.03,-9.324,-12.882,-11.478,-9.975,-11.15,-8.956,-11.864,-11.598],[2297.159,311.41,261.608,324.069,-139.053,493.926,41.4,-31.8,-11.146,-26.316,226.144,17.274,-13.112,11.507,3.06,23.22,-14.504,-6.922,-3.142,-9.775,7.554,-13.887,-13.745,-12.38,-8.38,-7.49,-14.942,-13.931,-13.286,-9.167],[4084.336,1137.835,360.918,27.279,94.078,826.593,140.504,37.027,24.223,27.429,357.271,60.97,13.874,-18.162,-2.025,61.972,-14.292,-9.5,-2.714,-11.61,18.613,-12.552,-18.413,-15.611,-11.878,2.429,-16.629,-14.378,-14.635,-14.539],[4880.011,1971.208,162.231,515.366,64.696,948.77,368.957,83.138,9.431,0.483,476.789,159.07,14.252,52.489,-16.148,80.069,14.465,-11.678,-10.667,-9.685,26.606,-9.886,-16.066,-15.704,-13.892,4.027,-17.138,-14.966,-17.709,-14.844],[5518.082,2864.276,880.291,472.993,346.96,1061.679,564.772,108.962,80.673,57.087,540.246,219.144,39.28,33.757,30.454,95.447,26.067,-13.198,-19.743,-19.286,46.559,0.574,-14.488,-21.404,-11.784,13.477,-12.869,-18.7,-17.63,-17.65]]
}