{
"KTrans": [[74.285,31.353,27.202,23.115,27.012,57.3,34.11,46.975,26.981,39.189,84.321,52.524,50.828,37.123,41.889,306.643,157.353,115.453,99.552,94.843,601.589,304.07,242.62,212.721,180.181,1318.826,725.284,554.625,468.294,431.315],[-71.974,79.716,52.114,37.197,30.894,-52.332,92.442,67.043,62.065,36.959,-54.257,124.274,63.378,57.344,43.846,59.265,214.205,119.719,104.631,85.748,107.85,383.357,189.619,133.916,117.316,311.284,689.884,352.554,261.274,235.226],[-126.427,87.135,121.143,73.088,55.8,-138.649,98.232,129.204,85.787,53.914,-136.63,145.725,139.836,84.993,67.509,-127.41,170.937,193.817,116.763,88.977,-148.419,283.197,283.516,165.707,128.567,-210.184,768.517,519.966,320.582,191.447],[-137.348,-84.916,207.722,108.424,85.243,-133.965,-89.432,134.341,113.587,94.672,-126.263,-124.313,280.346,142.734,102.426,-166.171,-134.256,342.577,218.092,134.983,-179.622,-51.025,303.85,271.999,141.066,-217.232,-137.179,682.128,385.795,256.136],[-119.083,-152.562,71.998,212.352,154.415,-124.623,-156.661,19.1,196.838,132.126,-133.455,-201.929,59.379,216.031,134.495,-151.006,-168.792,144.798,273.992,197.278,-152.113,-241.92,12.16,359.272,232.833,-136.147,-326.977,265.284,526.204,360.274],[-123.953,-182.991,-182.37,180.105,210.234,-108.682,-171.689,-89.123,217.106,235.51,-123.288,-194.577,-140.431,235.149,251.787,-131.223,-191.887,-217.331,259.568,218.805,-152.173,-262.919,-233.995,341.169,341.397,-218.478,-303.083,-221.406,461.466,473.584]],
"ve": [[8.858,4.39,2.912,-26.651,-19.872,6.32,4.323,-0.24,19.001,55.757,13.076,4.525,0.079,31.253,9.426,49.725,14.39,-0.638,-12.5,-18.379,97.166,34.698,9.114,-6.705,-19.057,191.056,81.647,36.041,11.195,-4.221],[6.432,4.12,1.095,0.793,1.574,8.802,3.925,4.261,4.274,1.578,21.686,8.2,3.211,3.826,2.149,52.929,28.203,16.953,11.234,8.512,122.77,52.989,30.243,19.257,13.192,203.086,98.556,61.197,40.873,31.529],[-0.728,2.698,3.972,3.179,1.297,8.463,8.905,5.953,4.059,1.461,13.364,-5.388,6.091,5.183,5.172,51.865,27.19,18.287,12.04,10.727,97.967,48.571,36.537,22.884,18.289,207.557,101.894,67.46,50.895,34.691],[7.295,5.601,4.317,-0.076,2.182,7.401,6.818,4.09,3.547,4.024,11.307,7.983,8.103,4.462,5.475,46.944,25.149,21.108,17.69,13.233,103.224,40.049,37.23,28.394,17.378,199.616,102.002,67.232,49.529,39.721],[8.499,4.545,2.503,3.388,3.881,10.45,5.135,6.034,3.772,2.262,12.353,5.281,5.44,3.489,3.029,23.164,25.684,18.744,16.465,14.476,98.567,50.899,33.262,28.408,22.609,201.874,95.604,73.634,52.032,42.559],[-341.32,-3.304,4.389,0.283,2.094,6.16,6.134,1.354,3.178,5.915,13.115,6.917,5.226,6.041,7.824,57.608,24.827,22.312,15.017,8.083,99.344,55.685,34.881,29.005,22.695,206.982,101.978,70.008,53.492,40.607]],
"kep": [[61.168,30.582,28.871,29.178,37.54,43.047,30.334,53.989,34.374,59.185,58.948,45.635,55.797,48.021,64.269,167.257,120.959,114.188,124.966,140.961,250.949,196.258,209.76,231.301,241.266,378.497,350.915,375.98,406.199,450.517],[-77.993,64.392,43.71,32.465,26.845,-58.807,75.211,54.628,52.238,32.825,-65.08,99.016,50.98,48.339,38.546,-0.503,136.35,81.602,79.461,68.205,-1.63,205.724,114.342,88.649,86.93,33.679,287.289,171.448,148.243,149.933],[-122.548,67.964,101.828,60.779,47.205,-132.756,73.721,106.995,70.344,45.373,-129.826,112.936,114.105,69.431,55.197,-114.607,100.461,135.007,83.156,64.876,-118.21,144.876,170.587,104.737,85.412,-131.346,316.45,256.599,170.646,108.579],[-131.686,-83.955,176.792,92.29,70.763,-127.461,-88.662,108.531,94.769,77.888,-120.038,-117.644,232.816,117.241,83.825,-140.148,-122.108,247.186,159.963,99.055,-136.054,-68.757,182.762,177.498,93.194,-135.823,-115.299,346.399,208.407,144.789],[-114.344,-144.239,51.334,182.64,131.325,-121.045,-147.543,7.02,165.539,111.174,-126.415,-184.782,41.058,180.574,112.619,-130.293,-146.799,92.497,203.167,148.426,-123.189,-184.084,-18.908,239.024,158.587,-110.044,-204.437,106.762,291.109,210.167],[-120.181,-173.597,-169.003,151.294,180.088,-106.412,-161.993,-88.202,180.375,201.555,-118.215,-178.756,-131.676,195.954,211.547,-118.106,-165.438,-189.091,190.928,167.478,-123.14,-197.915,-189.233,224.696,241.546,-138.214,-193.228,-164.028,251.957,283.867]],
"vp": [[2946.694,1873.757,2454.251,1988.647,2353.857,434.422,449.37,511.554,435.006,519.527,266.367,214.488,218.383,227.883,238.253,56.349,45.607,46.538,39.584,41.75,26.067,21.788,22.411,21.995,20.47,11.335,11.095,10.647,10.1,11.481],[8009.19,7729.533,6783.408,6394.651,6376.221,1562.123,1318.68,1457.024,1678.093,1262.013,910.627,758.515,666.045,698.053,714.899,141.708,165.723,148.084,162.327,154.744,80.319,80.415,64.867,64.606,64.445,40.239,39.329,33.091,33.805,37.034],[9192.844,12931.209,12715.987,12077.282,11746.758,2004.234,2783.727,2524.329,2361.298,2181.406,944.586,1274.775,1183.384,1162.221,1165.776,198.172,250.814,235.879,224.456,218.854,81.047,119.622,119.244,104.014,103.337,48.381,65.341,61.384,58.809,37.858],[10730.27,13453.351,16917.891,13890.193,16771.176,2223.492,3243.843,3748.73,2765.154,3100.363,1063.078,1535.115,1998.978,1664.523,1698.686,207.611,281.432,395.255,389.571,337.158,111.113,157.151,171.133,188.566,120.395,55.703,87.03,83.514,72.755,74.729],[12301.097,20146.138,20901.878,19642.768,23387.776,2303.357,3733.321,4489.384,4304.432,3904.369,1217.506,2006.239,2051.926,2060.922,1864.432,263.876,359.228,444.506,433.029,452.414,118.752,176.236,201.887,226.762,212.024,49.907,91.054,111.025,100.419,99.502],[13780.666,21223.953,24596.625,23052.656,22612.116,2403.32,4061.329,4978.506,5148.546,5527.131,1310.977,2002.203,2328.945,2938.112,2681.289,258.189,370.439,528.642,524.535,457.903,110.119,216.083,235.058,258.02,252.52,61.594,97.538,116.561,122.967,115.562]]
}