{
"KTrans": [[-46.15,-9.144,1.515,-13.483,1.817,-45.282,-11.205,2.833,4.956,-1.308,-51.897,-3.076,-0.266,16.444,2.388,-32.853,-0.64,9.106,0.671,-12.033,-44.208,-3.839,4.848,0.847,2.955,-40.866,-3.795,8.926,-0.304,6.065],[-86.969,-52.192,-25.999,-19.472,-8.246,-90.654,-57.837,-18.44,-9.508,-11.734,-88.007,-51.513,-22.665,-15.274,-7.936,-94.059,-45.524,-12.588,-8.652,-8.745,-85.512,-46.609,-22.353,-14.676,-5.084,-87.823,-57.676,-16.538,-8.403,-14.805],[-92.784,-83.653,-49.099,-28.115,-15.721,-96.136,-78.028,-47.91,-19.656,-15.411,-98.518,-78.89,-46.649,-31.56,-18.298,-97.18,-77.573,-55.674,-25.467,-15.721,-96.553,-75.122,-45.273,-26.511,-17.652,-97.554,-76.941,-58.459,-24.829,-7.085],[-99.762,-87.885,-71.608,-41.563,-32.248,-97.506,-84.74,-74.818,-43.082,-24.399,-97.911,-86.936,-71.406,-33.23,-26.457,-101.182,-93.847,-73.503,-46.516,-24.957,-99.423,-91.307,-76.548,-44.486,-26.919,-98.028,-85.82,-81.7,-50.931,-27.253],[-99.838,-93.997,-90.514,-61.057,-50.142,-100.77,-91.186,-83.393,-70.057,-41.199,-101.036,-91.997,-81.987,-68.279,-33.583,-98.997,-88.709,-78.275,-73.217,-48.677,-98.244,-94.326,-82.636,-56.148,-34.478,-99.072,-96.98,-84.373,-73.895,-49.614],[-99.908,-95.03,-83.981,-75.173,-58.263,-102.309,-98.647,-85.2,-79.726,-59.789,-100.615,-91.939,-90.684,-70.677,-60.482,-101.531,-94.656,-87.292,-73.249,-47.782,-100.081,-91.749,-87.575,-69.717,-51.289,-99.67,-96.743,-90.741,-79.518,-63.45]],
"ve": [[-13.831,2.352,11.097,247.279,271.759,-48.028,-5.229,63.578,20.373,-67.711,-102.47,3.794,-19.895,-84.039,-398.061,-11.297,17.092,-113.008,426.688,34.472,284.495,-413.151,31.035,38.647,-106.082,-21.894,106.395,13.809,-28.519,29.784],[-40.041,-3.047,-12.903,-20.926,2.842,-32.57,-20.282,-13.216,-3.527,2.253,-70.823,-25.584,-32.87,-6.858,43.375,-74.216,-25.922,-9.175,-2.501,-2.176,-85.402,-36.632,-19.271,-8.877,-0.518,-59.705,-26.953,-0.867,3.723,-2.398],[-78.528,-59.609,-35.548,-34.622,-14.568,-110.339,-52.088,-39.909,-19.801,-11.974,-93.587,-57.072,-44.074,-23.472,-14.933,-99.333,-32.372,-28.098,-22.782,-15.665,-101.795,-76.305,-29.494,-17.85,-14.119,-91.223,-38.308,-38.339,-20.171,-11.958],[-31.236,-87.545,-52.077,-34.73,-24.214,-91.101,-58.708,-51.128,-33.49,-22.794,-101.83,-66.038,-56.287,-32.454,-24.266,-73.647,-148.031,-59.951,-34.859,-23.438,-78.325,-73.116,-58.485,-35.243,-23.795,-90.402,-93.334,-59.85,-40.543,-26.941],[-118.886,-87.664,-77.155,-49.545,-34.916,-67.605,-4271.471,-72.191,-49.36,-34.659,-80.523,-75.179,-61.483,-50.848,-30.203,-120.812,-71.456,-68.368,-50.663,-36.474,-101.632,-85.887,-69.103,-42.375,-29.041,-114.885,-89.833,-66.696,-49.445,-35.505],[1890.839,-72.244,-75.807,-109.467,-20.094,-112.249,-222.486,-64.943,-58.262,-48.523,-103.459,-60.796,-82.682,14.984,-44.513,-104.552,-108.295,-74.782,-53.339,-38.978,-63.907,-55,-71.535,-59.817,-47.579,-120.139,-87.206,-89.395,-56.104,-49.902]],
"kep": [[-62.701,-25.878,-12.887,-39.532,-1.276,-72.296,-26.659,-0.616,-1.279,-28.575,-66.45,-21.695,-12.294,0.168,-15.37,-51.296,-15.959,4.591,-7.924,-40.845,-64.062,-13.167,-7.326,-11.729,-12.091,-63.539,-14.886,-5.217,-22.49,-6.474],[-90.17,-46.364,-12.131,-15.796,-3.909,-94.732,-53.791,-10.538,-3.421,-10.035,-92.775,-46.664,-13.502,-10.294,-4.06,-99.43,-40.772,-5.016,-4.935,-5.294,-86.442,-41,-13.391,-6.587,-1.145,-91.802,-54.734,-10.41,-4.32,-10.093],[-91.664,-83.52,-31.438,-11.741,-1.423,-95.903,-80.021,-35.372,-3.929,-4.698,-98.059,-82.083,-34.435,-11.458,-4.673,-95.513,-76.391,-43.727,-7.992,-0.698,-96.48,-74.596,-31.933,-11.439,-7.192,-95.658,-76.098,-42.406,-7.685,3.861],[-98.574,-88.859,-68.169,-28.381,-11.787,-96.722,-85.132,-67.284,-24.661,-5.305,-94.01,-90.537,-66.878,-18.868,-6.986,-96.806,-93.834,-67.831,-28.267,-5.752,-96.913,-90.831,-69.59,-25.435,-5.833,-96.685,-85.462,-77.079,-31.746,-10.019],[-97.899,-91.684,-91.396,-50.701,-25.064,-98.445,-88.414,-85.28,-54.652,-16.852,-95.644,-89.473,-80.111,-55.347,-18.273,-97.728,-85.825,-84.946,-61.812,-24.791,-98.576,-95.092,-81.786,-40.752,-15.649,-97.584,-96.298,-85.016,-61.763,-24.148],[-97.424,-92.152,-83.438,-67.837,-36.513,-97.681,-93.597,-84.738,-80.511,-33.513,-97.997,-87.136,-93.004,-68.414,-42.421,-99.278,-94.025,-86.651,-73.39,-35.694,-97.635,-88.798,-87.879,-68.544,-38.123,-98.247,-93.319,-91.471,-75.739,-47.501]],
"vp": [[2643.658,1877.965,1484.054,2383.259,1579.341,648.993,478.24,272.901,238.397,285.525,324.676,193.363,194.951,98.005,165.616,51.663,30.929,35.847,31.202,43.451,25.504,17.723,14.021,18.998,17.982,13.843,11.787,8.759,8.187,7.268],[6438.669,7674.981,6750.679,5937.97,5315.395,1416.376,1655.444,1274.359,1058.395,1089.226,625.116,815.301,653.985,592.72,533.308,146.21,136.23,111.151,78.662,101.262,72.692,68.157,62.483,66.171,54.543,32.887,33.629,22.509,27.657,30.164],[8536.316,12929.225,13009.577,10563.3,10884.029,1810.086,2521.558,2348.885,2132.144,1593.574,987.247,1285.049,1270.663,1179.131,935.969,180.034,250.403,256.683,194.242,182.637,94.035,117.528,107.263,90.755,97.443,42.416,57.188,63.946,60.084,41.216],[10334.314,16509.76,17595.887,15008.681,14885.369,1981.197,2527.867,3372.572,3058.353,2571.403,927.976,1521.186,1673.991,1437.539,1415.364,213.115,306.579,338.444,326.473,290.591,86.593,153.393,181.612,146.94,148.732,42.326,69.918,106.501,77.645,79.617],[9912.953,17853.722,24942.233,22691.253,19678.969,2055.383,3355.79,4522.583,4274.611,3809.963,1102.553,1621.02,2126.745,2366.095,1779.538,184.031,262.722,405.537,461.676,399.855,96.625,179.743,215.491,192.048,187.543,49.736,96.77,106.282,125.797,94.838],[10230.603,16671.667,20870.579,25668.151,22772.407,2143.731,3992.995,3708.531,5259.137,5614.765,1021.513,1613.525,2571.352,2438.417,2453.744,223.525,353.643,436.084,495.165,438.858,102.83,160.832,227.086,256.768,243.781,53.3,90.435,118.969,134.93,120.604]]
}