{
"KTrans": [[-3.719,0.969,1.331,-0.034,-0.173,-4.058,2.727,-0.314,1.294,0.583,-0.934,0.661,0.117,-0.774,0.665,2.054,1.895,0.092,0.413,-0.307,2.263,1.833,1.211,-0.305,1.909,1.476,0.561,2.104,2.052,2.777],[-14.567,-2.342,-1.059,-0.924,0.732,-16.929,-2.553,0.443,-0.428,-0.081,-13.67,-2.61,-0.936,-0.806,0.731,-13.584,-0.293,0.253,0.461,0.362,-11.831,0.2,0.744,0.98,0.017,-10.705,0.436,0.678,1.597,1.077],[-35.51,-3.094,-0.432,-1.042,-0.131,-35.498,-2.186,-0.813,-0.167,0.943,-37.736,-4.355,-0.938,-0.656,-0.392,-33.702,-1.083,0.923,0.062,0.002,-36.148,-2.219,-1.049,-0.096,-0.899,-38.613,-1.246,0.116,0.995,0.434],[-56.135,-6.674,-1.327,-0.377,0.032,-59.991,-4.566,-1.047,0.091,-0.437,-53.484,-7.236,-1.083,-0.248,-0.612,-54.783,-4.065,-0.251,0.078,0.519,-55.367,-4.974,1.033,0.542,-0.144,-54.343,-1.224,0.201,0.874,0.334],[-67.095,-9.453,-0.976,0.76,0.095,-69.285,-10.624,-3.32,-1.962,1.137,-70.218,-9.754,0.066,-0.754,-0.064,-68.878,-7.143,-0.117,-0.412,0.214,-67.977,-9.546,-0.267,-0.74,0.24,-70.285,-11.411,-0.468,0.171,0.458],[-77.272,-14.385,-3.325,0.033,-0.251,-77.424,-16.967,-2.266,0.186,-0.416,-78.807,-15.062,-1.916,-1.376,0.194,-77.686,-15.76,-2.059,-0.184,-0.765,-78.917,-13.867,-1.422,-0.343,0.305,-79.728,-13.618,-2.106,1.278,0.13]],
"ve": [[0.34,2.145,1.122,3.492,3.408,1.96,1.354,2.303,2.18,3.192,0.602,1.083,2.276,5.046,3.342,3.147,2.19,1.878,3.729,4.784,4.136,0.445,-0.16,2.149,1.204,2.548,1.84,2.024,0.983,-0.684],[-4.536,-0.357,0.125,0.355,0.058,-4.882,0.049,-0.427,-0.069,0.148,-4.05,-0.32,0.323,0.832,0.079,-3.437,0.292,0.669,0.387,0.202,-2.83,0.857,0.883,0.088,0.511,-2.302,0.9,0.899,0.189,0.491],[-13.925,-0.705,-0.212,-0.375,0.05,-11.199,-0.939,-0.455,0.14,0.029,-12.105,-0.888,-0.219,-0.001,0.124,-10.73,-0.055,0.018,0.64,0.399,-10.901,-0.614,-0.374,0.013,0.573,-12.196,-0.013,0.73,0.441,0.205],[-21.436,-1.247,-0.017,0.263,-0.008,-24.005,-2.017,-0.112,0.12,0.001,-20.635,-1.566,-0.182,0.108,0.083,-21.724,-1.168,-0.137,0.1,0.235,-20.57,-2.218,0.589,0.262,-0.095,-21.519,-0.647,-0.102,0.024,0.32],[-22.442,-3.236,-0.602,0.388,-0.321,-30.79,-3.565,-1.024,-0.788,-0.12,-31.176,-3.285,-0.668,-0.224,-0.337,-29.376,-2.728,0.239,-0.29,0.038,-26.459,-2.749,0.395,-0.107,0.35,2.721,-2.496,0.416,0.339,0.364],[-37.506,-4.424,-0.813,-0.164,-0.098,-32.037,-6.027,-0.568,-0.158,-0.237,-38.162,-5.387,-0.656,-0.503,-0.341,-35.785,-5.426,-0.796,-0.348,0.167,-46.125,-5.675,-0.569,0.205,0.067,-38.819,-4.879,-0.421,-0.183,0.173]],
"kep": [[-3.535,-0.104,1.692,-0.324,0.2,-5.72,2.33,-0.933,1.434,1.487,-0.987,0.652,-0.737,-3.231,1.768,-0.536,0.57,-0.517,-0.392,-0.471,-1.344,2.297,2.912,0.067,4.21,-0.164,-0.492,1.365,3.36,6.552],[-10.391,-1.922,-1.113,-1.21,0.782,-12.844,-2.536,0.959,-0.26,-0.133,-10.296,-2.257,-1.204,-1.553,0.745,-10.076,-0.599,-0.343,0.137,0.258,-8.77,-0.507,-0.036,0.969,-0.4,-8.668,-0.535,-0.144,1.501,0.68],[-26.694,-2.357,-0.215,-0.63,-0.146,-28.09,-1.217,-0.376,-0.269,0.955,-29.903,-3.474,-0.648,-0.633,-0.488,-25.831,-0.948,0.912,-0.536,-0.38,-28.244,-1.577,-0.635,-0.064,-1.461,-30.889,-1.121,-0.586,0.576,0.272],[-45.283,-5.513,-1.289,-0.624,0.051,-49.385,-2.603,-0.935,-0.015,-0.419,-42.923,-5.717,-0.92,-0.337,-0.673,-44.499,-2.964,-0.109,0.003,0.291,-45.402,-2.764,0.434,0.289,-0.033,-43.669,-0.582,0.345,0.885,0.029],[-55.259,-6.483,-0.358,0.377,0.436,-58.008,-7.342,-2.333,-1.18,1.272,-58.701,-6.609,0.753,-0.533,0.28,-57.653,-4.61,-0.344,-0.135,0.186,-57.626,-6.926,-0.652,-0.638,-0.092,-59.244,-9.213,-0.862,-0.119,0.102],[-66.183,-10.513,-2.528,0.205,-0.151,-67.443,-11.635,-1.707,0.349,-0.183,-68.969,-10.19,-1.29,-0.89,0.543,-67.527,-11.053,-1.243,0.177,-0.931,-68.162,-8.504,-0.843,-0.525,0.254,-69.992,-9.207,-1.701,1.464,-0.026]],
"vp": [[-13.551,-86.869,-30.42,46.653,56.761,20.638,-10.273,10.515,-11.711,-11.061,0.86,13.834,-11.389,2.364,-0.814,-1.658,-0.839,-3.477,-0.302,0.258,-1.989,-0.945,-1.31,-0.248,-1.078,-0.857,-0.304,-1.043,-0.639,-0.735],[526.131,142.715,65.714,55.055,-50.767,94.663,42.309,13.464,13.599,14.19,56.724,8.743,4.439,3.099,-5.035,9.853,0.835,-3.059,1.03,-0.817,2.888,-0.185,-0.21,-0.642,-1.04,2.053,-0.128,-1.112,-0.888,-1.204],[1499.181,209.095,96.853,117.165,-8.053,276.875,38.269,21.613,-12.261,-5.726,148.623,29.196,9.145,7.55,-2.002,23.549,1.041,0.439,-0.497,-0.673,14.088,1.152,0.68,0.217,-0.7,7.13,0.178,-1.208,-0.747,-0.557],[2302.994,399.918,112.933,-35.905,81.167,498.577,79.865,18.362,-8.056,0.746,222.654,35.22,6.211,-4.785,0.462,45.271,3.976,1.624,0.674,-2.546,22.202,3.811,-1.264,-0.095,-1.012,11.61,1.415,0.341,-0.623,-1.106],[3149.795,760.6,200.549,41.764,55.151,654.419,162.355,82.367,58.035,-7.134,333.835,77.018,24.582,6.506,11.248,63.079,13.283,-0.494,1.205,-1.454,30.003,6.382,-0.191,-0.253,-0.755,16.398,3.018,-0.085,-0.557,-0.6],[3824.896,1042.982,346.184,84.647,49.611,778.288,268.363,59.749,32.723,30.604,404.21,117.531,25.3,12.766,8.533,80.124,24.388,5.393,1.656,1.132,40.965,11.54,2.615,-0.287,0.955,20.505,4.823,0.711,-0.043,-0.397]]
}