{
"KTrans": [[0.58,0.326,0.236,0.24,0.257,-0.535,0.31,-0.056,-0.12,0.184,-1.802,-1.994,-0.766,0.026,-1.725,0.553,4.279,-0.889,4.952,-6.373,37.717,21.289,5.989,3.762,8.267,-2.114,45.201,36.411,14.858,34.812],[6.687,1.522,0.807,0.557,0.517,4.334,1.116,0.599,0.535,0.109,3.018,-0.462,0.492,-0.183,-0.367,-6.323,6.512,0.113,-1.507,-6.004,55.274,0.799,-5.037,-2.779,-6.122,6.919,7.458,-3.561,3.746,-1.256],[31.611,4.342,1.883,1.171,0.851,19.738,3.697,0.825,0.809,0.729,28.802,3.255,1.496,0.24,0.582,17.178,-7.359,-2.912,-1.745,-4.113,-2.078,-2.787,-6.737,-5.266,-1.781,105.859,27.416,-14.105,-8.571,-3.622],[97.118,8.794,3.62,2.244,1.416,39.908,10.016,2.885,1.826,1.407,29.7,8.012,2.437,2.416,1.475,-13.743,4.094,-3.918,-1.355,-0.576,-18.871,19.903,-10.928,-2.88,-2.309,107.456,201.711,-4.232,-13.137,-10.313],[19.895,21.869,7.435,3.996,2.093,-13.486,17.208,4.893,3.376,1.85,-22.166,16.537,5.408,2.297,1.464,-25.197,-5.256,0.644,0.725,0.452,-40.952,48.232,-11.161,-6.702,-10.923,-65.629,71.816,12.824,-8.576,-8.403],[-45.677,46.081,13.114,6.029,3.152,-54.931,37.434,11.956,4.9,3.151,-30.923,49.456,11.827,4.18,2.286,-51.242,45.315,4.624,-1.803,0.361,-55.373,22.575,-6.356,0.248,-6.8,-88.874,5.505,106.903,-1.187,-4.424]],
"ve": [[-0.404,-0.402,-0.454,-0.536,-0.625,-0.795,-0.341,-0.294,-0.223,-0.452,-1.256,-0.422,0.108,0.095,2.007,12.311,10.331,23.835,27.999,551.071,4.674,-16.173,-20.659,12.376,-21.954,-37.945,-74.796,-40.044,-68.183,-46.195],[1.154,-0.139,-0.323,-0.356,-0.382,0.375,-0.324,-0.372,-0.35,-0.445,-0.233,-1.129,-0.377,-0.551,-0.522,-13.285,3.313,-0.268,-0.687,-1.338,-38.45,-0.165,-2.168,0.039,0.408,-17.144,-9.707,-22.403,11.718,-30.11],[9.457,0.771,-0.075,-0.246,-0.309,5.698,0.275,-0.612,-0.383,-0.336,6.443,0.325,-0.164,-0.651,-0.376,-19.018,-5.908,-2.396,-1.356,-2.331,-19.629,-1.526,-4.996,-3.15,-1.097,-50.327,-16.956,-18.006,-3.707,-0.328],[24.942,2.403,0.483,0.028,-0.185,5.63,2.8,0.119,-0.15,-0.185,-16.736,2.237,-0.189,0.207,-0.059,-34.117,0.124,-3.816,-1.564,-1.057,-35.254,-17.724,-9.402,-2.782,-1.788,-38.953,-26.78,-16.861,-9.542,-7.025],[-38.071,6.596,1.68,0.462,0.046,-50.21,5.179,0.696,0.345,-0.118,-37.608,4.69,0.798,-0.144,-0.259,-43.026,-8.056,-1.742,-0.64,-0.514,-38.544,-34.026,-9.845,-5.438,-7.491,-70.943,-19.078,-7.314,-12.336,-5.853],[-57.387,13.564,3.406,1.231,0.366,-63.99,10.892,2.965,0.934,0.313,-42.259,14.632,3.055,0.59,-0.284,-52.39,-18.304,0.113,-2.752,-1.359,-95.766,-3.708,-12.98,-0.425,-5.494,-92.2,-25.186,-20.173,-2.881,-4.131]],
"kep": [[0.985,0.73,0.694,0.782,0.893,0.134,0.638,0.268,0.171,0.731,-1.094,-1.658,-0.755,0.219,-3.112,-13.745,-2.368,-6.648,2.973,-18.115,-16.659,-3.08,-10.078,-14.626,-3.769,18.007,-28.526,-23.523,-45.426,-8.083],[5.39,1.662,1.134,0.916,0.902,3.68,1.411,0.962,0.882,0.552,2.588,0.561,0.818,0.339,0.138,-29.106,0.571,-0.919,-1.539,-5.179,-58.016,-11.593,-8.358,-5.811,-7.735,-21.312,-36.596,-24.713,-11.882,-14.533],[18.118,3.522,1.958,1.42,1.163,10.482,3.349,1.429,1.189,1.065,15.477,2.744,1.609,0.862,0.942,-52.9,-6.04,-2.061,-1.245,-2.406,-42.108,-16.241,-8.809,-5.267,-2.838,-49.654,-56.369,-31.042,-17.884,-10.452],[43.47,6.078,3.111,2.213,1.604,14.657,6.778,2.735,1.97,1.59,-26.811,5.288,2.532,2.177,1.518,-50.267,-0.031,-1.689,-0.595,-0.084,-50.2,-55.953,-10.157,-3.238,-2.542,-66.191,-72.544,-39.04,-18.923,-12.785],[-52.802,13.243,5.588,3.507,2.044,-68.221,10.254,4.045,2.998,1.962,-59.349,9.64,4.407,2.39,1.705,-55.947,-12.188,0.793,0.442,0.457,-59.043,-74.045,-11.742,-5.497,-6.471,-61.711,-48.405,-45.259,-19.777,-12.012],[-77.871,24.04,9.161,4.713,2.769,-79.487,19.291,8.389,3.875,2.813,-63.719,24.531,8.108,3.477,2.532,-70.282,-40.159,2.688,-0.067,1.2,-85.947,-28.166,-9.56,-2.664,-3.787,-70.948,-42.564,-67.647,-15.104,-9.695]],
"vp": [[17.234,16.655,23.251,14.196,21.467,13.266,2.147,8.709,10.477,1.658,13.159,20.411,11.286,3.046,24.495,8.312,-2.48,6.635,-7.715,20.186,-8.619,-8.211,2.001,4.698,-2.378,13.059,1.358,-0.65,8.319,-5.004],[-126.575,-23.463,22.485,30.558,41.114,-11.771,3.845,7.647,6.289,20.771,0.088,20.039,3.765,15.268,19.52,25.856,-16.6,1.196,8.071,30.687,40.02,5.268,13.244,9.821,18.018,7.525,10.818,15.705,4.484,10.478],[-951.353,-205.976,-46.691,4.23,29.529,-121.686,-18.262,26.18,12.474,8.527,-64.789,-11.72,-2.626,18.872,6.308,37.762,23.866,14.074,10.449,26.832,19.284,11.486,16.673,14.747,7.474,23.741,14.383,28.335,20.01,10.573],[-2491.096,-534.832,-217.107,-99.318,-25.588,-113.393,-121.39,-21.094,-5.498,-5.072,162.214,-51.446,0.106,-18.83,-11.373,68.595,-2.116,23.108,11.128,9.015,34.447,30.485,30.091,11.215,8.956,16.019,30.054,24.962,25.116,22.274],[3821.443,-1343.798,-552.986,-244.401,-160.631,1008.311,-217.951,-55.345,-44.711,-11.704,370.949,-99.201,-29.364,-2.87,0.659,84.547,32.731,9.629,2.825,2.315,34.586,69.591,30.624,22.273,40.387,33.879,18.269,8.876,19.25,16.321],[5741.931,-2729.898,-1037.839,-565.352,-314.681,1265.353,-443.496,-183.468,-95.339,-55.097,421.164,-296.155,-95.374,-33.802,6.676,101.792,73.027,-2.5,21.212,12.613,93.36,7.514,36.486,-0.425,28.368,44.411,25.638,25.961,3.82,10.586]]
}