{
"KTrans": [[0.296,-0.367,1.081,-0.567,-0.999,0.91,0.426,0.308,0.597,-1.077,0.989,-0.842,-0.71,0.173,0.598,-4.032,0.54,0.421,0.163,-0.958,0.515,0.833,0.936,0.563,0.698,-1.148,0.749,1.02,0.337,0.125],[-8.559,-1.199,-0.845,0.125,-0.648,-6.744,0.593,-0.683,-0.611,0.516,-7.043,-0.678,-0.437,0.806,-0.31,-6.473,0.583,0.909,0.56,0.919,-8.14,0.556,0.695,0.324,0.269,-9.949,0.281,1.153,0.875,0.143],[-25.605,-2.171,0.024,1.741,-0.323,-24.206,-2.217,1.321,-0.599,0.318,-23.473,-1.338,-0.096,1.188,-0.47,-23.066,-0.742,0.23,0.114,0.059,-20.59,-2.568,0.958,-0.815,0.071,-25.079,0.55,0.015,1.267,0.291],[-43.456,-3.195,0.794,0.455,0.519,-40.269,-2.617,-0.208,0.031,0.079,-39.194,-1.49,-0.11,0.274,0.119,-36.757,-2.053,-0.093,0.423,-0.168,-41.549,-4.776,-1.369,-0.537,0.963,-43.824,-1.86,-0.002,0.251,0.255],[-58.643,-4.64,-1.172,-0.196,0.264,-54.639,-5.461,-0.202,-0.563,-0.084,-55.817,-3.903,-0.514,0.053,-0.4,-58.126,-2.041,-0.242,-1.207,0.281,-52.83,-5.407,-0.771,-0.294,-0.519,-53.399,-7.245,-0.18,0.501,0.703],[-67.791,-8.185,-1.205,0.736,-0.346,-68.822,-10.003,-1.381,0.693,-0.366,-66.198,-6.318,0.184,0.02,-0.168,-67.962,-6.53,-0.784,-1.289,-0.09,-66.345,-9.248,-1.367,-0.647,-0.972,-68.528,-8.825,-0.029,-0.79,0.341]],
"ve": [[0.283,1.067,0.831,2.591,4.344,1.084,1.207,1.036,0.437,3.595,0.289,1.397,1.207,1.545,0.413,0.635,0.556,1.738,1.094,3.659,0.318,0.827,0.322,1.798,2.587,1.282,0.957,0.358,1.409,4.273],[-3.172,-0.893,0.047,-0.039,-0.023,-3.249,-0.167,0.071,0.425,-0.181,-2.393,0.246,-0.036,-0.007,-0.149,-2.367,-0.113,-0.17,0.462,-0.035,-1.135,0.102,0.237,0.193,0.196,-3.121,0.523,0.1,-0.035,0.099],[-9.25,-0.159,-0.296,0.368,0.094,-7.748,-0.197,-0.078,-0.199,0.135,-6.746,-0.596,-0.127,0.254,-0.11,-7.792,-0.685,0.041,-0.237,0.052,-7.667,-0.752,0.244,0.009,-0.165,-9.538,-0.461,0.386,0.396,0.081],[-18.512,-0.929,0.103,0.078,0.034,-14.539,-0.627,-0.229,-0.09,-0.134,-15.237,-0.616,0.001,0.01,0.126,-14.066,-0.48,-0.061,-0.114,0.056,-17.512,-1.328,-0.124,-0.027,0.013,-15.128,-1.652,-0.058,-0.077,0.267],[-26.296,-2.101,-0.64,-0.511,-0.105,-24.647,-2.277,0.1,-0.22,0.176,-24.461,-2.041,-0.497,-0.213,0.085,-26.654,-1.54,-0.462,-0.218,0.013,-22.272,-2.622,-0.235,-0.16,0.147,-23.482,-1.975,-0.013,0.27,0.018],[-32.626,-3.755,-0.605,-0.011,-0.188,-34.112,-2.958,-0.956,-0.121,-0.266,-32.648,-2.926,0.108,-0.43,-0.239,-33.951,-3.05,-0.277,-0.421,-0.028,-30.237,-3.089,-0.224,-0.128,-0.183,-31.074,-4.665,-0.538,-0.07,-0.14]],
"kep": [[0.268,-0.886,1.357,-1.857,-3.44,0.213,-0.286,0.124,1.149,-2.248,0.935,-1.618,-1.004,0.047,2.042,-4.336,0.426,-0.249,0.655,-2.531,0.652,0.669,1.332,0.155,-0.338,-2.038,0.285,1.617,0.271,-1.325],[-5.701,-0.271,-0.876,0.22,-0.586,-3.65,0.731,-0.697,-0.973,0.746,-4.778,-0.855,-0.378,0.864,-0.112,-4.188,0.699,1.102,0.144,1.01,-7.224,0.479,0.512,0.167,0.13,-7.194,-0.229,1.062,0.97,0.119],[-18.318,-2.034,0.317,1.367,-0.401,-17.809,-2.023,1.402,-0.398,0.201,-18.551,-0.772,0.016,0.938,-0.349,-16.803,-0.112,0.181,0.37,0.019,-14.202,-1.889,0.727,-0.808,0.258,-17.693,1.064,-0.339,0.887,0.215],[-31.964,-2.336,0.687,0.385,0.489,-30.553,-2.041,-0.004,0.115,0.213,-29.034,-0.901,-0.1,0.27,-0.003,-27.099,-1.518,-0.023,0.546,-0.223,-30.07,-3.5,-1.263,-0.513,0.951,-34.495,-0.216,0.058,0.338,-0.006],[-46.076,-2.522,-0.557,0.304,0.369,-41.928,-3.304,-0.316,-0.36,-0.259,-44.247,-2.006,-0.051,0.266,-0.486,-44.999,-0.571,0.187,-0.991,0.265,-40.379,-2.969,-0.579,-0.13,-0.672,-42.246,-5.391,-0.205,0.223,0.686],[-54.253,-4.681,-0.666,0.761,-0.157,-55.693,-7.315,-0.438,0.797,-0.105,-52.007,-3.485,0.082,0.434,0.057,-54.195,-3.704,-0.558,-0.878,-0.065,-53.096,-6.417,-1.184,-0.526,-0.793,-55.819,-4.437,0.46,-0.724,0.478]],
"vp": [[-21.976,54.714,-17.483,-53.813,44.193,-1.799,-10.607,-1.355,-5.791,3.371,8.254,-3.675,3.562,3.658,2.161,1.703,0.182,-0.414,0.759,0.075,0.352,-0.541,-0.432,-0.111,-0.214,0.002,-0.381,-0.013,-0.099,0.19],[310.065,58.744,19.368,59.332,73.189,69.873,5.875,1.457,8.514,-14.88,27.936,2.15,4,3.384,3.278,6.699,0.187,-0.664,-0.466,-2.124,2.071,-0.109,-0.345,0.085,-0.245,1.987,-0.053,-0.266,-0.285,-0.18],[960.952,54.394,36.193,-138.923,33.208,178.183,29.259,0.534,9.877,-15.947,79.745,10.491,1.148,-3.094,6.352,16.283,2.239,0.731,0.639,0.357,8.501,1.938,-0.102,0.558,-0.818,5.06,0.575,0.017,-0.678,0.15],[1905.727,306.308,78.688,22.915,-8.623,314.226,31.65,17.253,4.516,-7,156.507,13.857,-3.791,7.1,-1.76,31.875,3.187,0.716,0.656,0.178,18.671,3.071,0.4,0.224,-0.402,8.765,1.685,0.126,-0.039,-0.032],[2813.011,507.579,160.89,124.029,-19.526,531.017,89.8,17.972,22.095,-9.017,253.247,34.738,13.827,5,-0.338,56.279,8.314,2.343,1.525,1.079,23.527,5.545,2.155,0.47,-0.588,12.233,2.411,0.349,-0.134,-0.155],[3334.078,842.448,206.521,-2.713,103.439,707.835,132.621,67.342,21.196,24.505,338.406,60.188,-0.947,19.575,14.86,70.123,12.97,1.934,1.288,1.73,33.664,6.693,1.394,1.038,1.01,16.673,4.504,0.605,0.52,0.21]]
}