{
"KTrans": [[-63.919,-78.977,-84.066,-86.347,-77.483,-40.832,-78.121,-108.716,-100.898,-86.306,-50.47,-81.565,-66.029,-93.151,-90.517,12.949,-21.473,-17.039,-18.265,-11.393,15.607,63.049,77.287,30.925,2.569,207.826,262.532,152.239,113.857,142.35],[-62.26,-50.858,-48.956,-66.372,-72.296,-59.814,-51.424,-56.165,-65.17,-67.056,-52.607,-41.428,-37.621,-50.948,-58.877,-31.123,-14.832,-18.191,-29.652,-36.117,-34.679,-8.18,-7.799,-7.326,-3.447,-6.811,49.282,35.927,32.457,7.286],[-74.593,-54.186,-42.829,-41.868,-49.013,-73.37,-56.065,-52.956,-44.918,-65.503,-69.316,-48.947,-48.23,-43.141,-55.789,-56.816,-27.317,-38.028,-19.961,-23.477,-54.683,-14.223,-10.417,-4.722,-1.663,4.374,19.914,15.945,0.879,13.721],[-78.422,-59.852,-53.962,-49.466,-46.257,-77.796,-56.901,-50.287,-43.66,-42.904,-74.912,-59.399,-48.26,-35.917,-45.195,-71.969,-46.056,-40.564,-35.035,-26.957,-65.28,-54.13,-29.43,-17.438,-23.134,-50.743,-10.815,6.436,5.087,-2.932],[-84.283,-67.263,-56.056,-43.834,-47.091,-83.807,-63.282,-56.131,-48.104,-43.906,-82.005,-64.634,-54.151,-44.362,-45.187,-77.776,-53.524,-44.977,-43.178,-27.092,-64.225,-50.614,-37.275,-23.23,-24.203,-55.977,-27.129,-15.66,-27.515,-11.145],[-86.988,-72.904,-57.367,-50.271,-49.906,-85.632,-67.206,-55.392,-43.52,-46.699,-86.892,-68.737,-55.212,-50.547,-46.066,-78.337,-64.806,-51.773,-41.549,-36.628,-79.44,-54.106,-46.569,-35.557,-23.538,-56.997,-43.623,-26.037,-25.07,-23.353]],
"ve": [[-68.474,-40.657,-44.017,-58.683,-82.854,-41.817,-65.931,-33.874,-60.243,-45.859,-75.303,-37.678,-42.749,-53.747,-74.149,51.117,-138.33,-43.332,-44.182,-95.726,54.411,106.514,9.712,-136.963,-43.965,346.502,-276.94,13.026,17.172,-63.208],[-86.181,-412.781,-22.608,-58.786,-38.213,-56.495,-67.83,-53.788,-61.44,1.728,76.491,-16.145,-60.666,-42.055,-31.403,-5.799,-11.29,-54.873,-13.092,-20.184,109.188,-7.632,-6.758,305.931,-0.103,292.768,57.17,69.685,51.875,14.175],[-151.158,-84.57,71.67,-43.182,-46.281,-25.507,-22.481,-86.242,-50.05,-63.683,-40.752,-84.542,2315.016,-56.975,-55.825,76.223,22.625,-66.601,-19.236,-22.653,64.94,18.779,26.918,1.424,-1.401,309.044,135.136,67.121,29.234,63.55],[-20.857,-20.47,-83.953,-80.659,-58.483,-1.201,-49.348,-90.316,-59.439,-53.958,5.993,-39.502,-58.393,-61.839,-45.324,-12.895,13.401,-45.616,-42.231,-49.14,117.943,37.919,1.965,-15.463,-18.175,225.061,107.748,65.672,47.855,42.628],[-52.272,-13.311,-70.038,-61.386,-60.971,-11.08,-25.358,-70.278,-49.83,-59.625,133.129,-32.293,-52.935,-45.854,-67.618,80.733,25.334,-19.495,-63.582,-24.923,190.302,-18.873,28.788,-23.25,-17.12,432.652,180.529,74.186,-20.888,-13.218],[-37.327,-59.217,-36.638,-53.015,-80.719,18.314,7.265,-3.922,-47.563,-70.743,-38.399,-10.661,-46.764,-74.351,-72.136,45.492,10.042,-30.988,-41.144,-55.45,147.999,71.403,7.965,-35.591,-20.763,359.197,156.562,65.605,17.386,-18.378]],
"kep": [[-130.829,-34.894,-40.424,-30.617,-26.173,-132.326,-88.727,-18.093,27.036,-12.874,-112.577,-70.903,-71.247,-61.614,6.297,-114.644,-123.599,-62.933,-110.697,-78.532,-102.051,-154.253,-271.052,-170.208,-113.552,-101.967,-159.272,-244.623,-323.98,-295.29],[-93.345,-114.385,-112.297,-119.137,-25.533,-95.886,-78.698,-112.014,-71.135,-33.599,-89.085,-93.359,-130.875,-100.174,-56.899,-98.039,-89.515,-114.114,-98.589,-93.659,-93.056,-80.399,-115.63,-149.337,-94.858,-87.723,-70.684,-78.458,-173.421,-164.846],[-94.963,-78.443,-68.002,-88.963,-92.557,-101.339,-83.117,-77.833,-92.54,-103.336,-97.847,-81.411,-62.07,-93.507,-103.889,-94.77,-90.517,-53.695,-84.368,-114.742,-94.425,-70.7,-78.337,-85.188,-100.07,-87.956,-63.516,-65.147,-71.213,-142.937],[-99.134,-87.644,-59.437,-62.665,-57.238,-100.929,-80.124,-56.759,-52.965,-79.86,-100.038,-79.547,-63.208,-57.715,-55.583,-94.321,-86.936,-58.045,-57.916,-67.118,-98.636,-84.904,-69.782,-52.559,-64.683,-93.526,-70.625,-69.117,-74.61,-79.498],[-95.177,-85.954,-72.343,-42.086,-46.695,-101.069,-80.817,-59.806,-61.359,-40.997,-102.182,-84.754,-65.928,-46.85,-41.091,-100.809,-90.287,-70.186,-51.292,-46.312,-99.394,-81.761,-72.878,-43.41,-48.602,-97.936,-86.906,-63.569,-49.18,-35.785],[-99.893,-83.22,-68.368,-49.535,-34.013,-100.181,-91.256,-65.689,-51.386,-47.982,-100.868,-87.491,-66.872,-47.958,-38.89,-99.388,-87.678,-72.818,-56.482,-49.986,-100.367,-89.66,-74.743,-50.064,-49.142,-98.011,-90.383,-68.933,-61.682,-47.511]],
"vp": [[-380.668,644.369,106.303,1427.546,852.837,44.715,-123.039,54.798,202.802,142.156,-61.478,7.639,93.325,-24.223,53.02,-9.088,-12.5,-26.329,-19.011,-13.512,-33.694,-30.13,-20.615,-4.622,1.015,-29.065,-47.298,-26.404,4.957,-26.994],[2556.011,1044.07,523.618,-329.976,398.027,565.172,92.649,-115.374,-197.237,35.303,193.697,134.942,9.883,30.344,-29.162,-13.057,16.529,-14.006,-8.555,-5.44,-28.156,-22.669,-40.941,-15.291,-19.172,-20.339,-31.619,-46.624,-53.627,-28.448],[3193.656,2624.303,2767.173,1404.216,447.324,953.38,690.756,264.914,360.897,-108.486,378.029,315.824,53.487,108.599,-119.674,39.055,83.356,-1.922,17.02,-21.727,-14.864,-31.657,-25.359,-37.243,-15.847,-21.76,-45.17,-17.194,-41.748,-55.142],[5600.76,5354.51,3619.223,2764.358,1370.043,1227.025,1167.038,738.686,467.882,451.004,546.57,539.737,358.387,298.247,61.291,91.656,79.229,26.007,22.521,-3.058,-3.864,-11.77,4.688,-30.33,-34.212,-9.915,-5.005,-20.869,-32.083,-15.721],[5215.508,8687.828,6558.759,4634.054,2960.635,1190.194,1215.428,806.27,953.069,581.25,600.43,564.607,565.466,480.058,212.787,50.112,131.079,94.101,34.403,51.72,35.151,39.047,12.683,-7.148,-3.307,-18.865,9.591,-15.888,-31.903,-4.426],[4989.185,7450.027,7665.428,5758.921,3623.319,1380.723,1786.986,1462.481,1165.646,1135.479,627.161,870.933,803.918,465.664,430.41,91.851,115.962,113.625,119.418,79.587,33.739,80.861,47.028,8.818,7.898,-1.334,13.143,-19.824,-1.421,-18.778]]
}