{
"KTrans": [[0.632,5.302,11.049,14.414,20.215,7.369,13.087,16.765,20.493,21.597,25.549,29.109,22.752,16.646,23.496,64.57,95.42,81.764,79.087,75.897,52.208,141.357,131.295,140.035,129.874,-17.59,203.809,91.598,224.805,197.352],[-35.313,-5.785,1.935,6.313,4.458,-22.412,-1.202,6.386,4.503,5.601,-19.317,6.533,6.114,11.569,12.485,-8.979,29.334,33.691,33.658,31.308,22.206,61.992,82.213,69.372,62.825,39.452,0.758,78.362,126.897,115.773],[-54.883,-15.43,-9.608,-4.72,0.165,-46.405,-15.749,-6.204,-0.539,3.626,-49.418,-8.66,-1.051,4.345,3.304,-40.852,17.178,20.433,17.906,21.022,-41.93,17.606,50.891,46.673,45.851,-50.36,22.83,71.018,61.856,76.681],[-66.123,-31.449,-21.399,-7.264,-3.703,-64.968,-24.87,-15.305,-9.297,-0.656,-64.583,-23.368,-12.289,-4.777,-2.069,-65.201,-2.004,10.133,9.212,13.088,-90.519,-36.301,16.254,30,37.814,-42.059,-72.529,20.005,51.017,80.86],[-71.822,-33.026,-20.443,-15.145,-9.698,-74.264,-32.764,-20.828,-14.426,-9.882,-76.371,-26.963,-17.642,-10.152,-5.401,-66.304,-19.571,-9.256,6.013,3.999,-84.165,-47.83,14.271,20.414,25.452,-58.696,-32.648,1.594,31.123,49.93],[-81.191,-42.344,-25.627,-19.068,-15.669,-81.788,-41.356,-27.366,-17.946,-14.402,-78.826,-40.9,-29.449,-19.528,-13.525,-74.62,-39.775,-14.265,-4.631,-0.116,-66.766,-46.422,-14.873,13.264,15.577,-60.111,-45.461,-9.918,13.14,32.105]],
"ve": [[35.811,124.405,-216.204,1066.42,-3.504,77.394,27.113,13.691,-1.211,1518.93,23.62,-421.418,-243.438,216.194,109.691,43.169,22.518,-1.817,49.798,16.062,106.867,59.995,13.578,8.111,0.907,193.149,73.082,56.124,10.916,20.785],[7.805,1.995,1.942,4.694,9.745,7.464,4.288,4.527,6.805,11.745,11.449,5.088,6.15,6.916,8.293,42.174,27.16,14.416,12.438,12.315,98.332,40.885,32.168,23.157,16.986,131.029,91.011,53.394,44.209,41.074],[2.701,-1.589,-1.119,0.417,2.207,3.958,2.314,-0.448,1.303,0.872,19.761,1.793,0.893,1.727,2.688,48.306,21.87,13.622,10.033,9.258,89.461,120.762,31.938,23.407,18.196,191.266,90.108,52.909,37.542,40.866],[1.171,-2.581,-1.198,-2.783,-2.102,3.017,1.805,-1.598,-1.046,-0.85,9.893,3.247,1.175,-1.384,-1.026,4.733,23.52,11.923,8.38,6.494,101.344,41.458,28.559,23.714,15.718,194.427,96.718,64.401,46.662,41.505],[33.381,-1.587,-3.801,-3.105,-1.754,19.011,-0.198,-1.596,-2.339,-1.738,372.302,3.474,0.635,0.129,-1.382,56.525,21.473,11.491,8.248,6.331,100.183,43.026,14.905,21.788,16.777,179.152,94.726,58.408,48.96,27.956],[-0.949,-1.218,-2.588,-3.81,-3.838,5.292,-0.016,-0.987,-1.625,-1.86,19.54,0.54,-0.617,-1.023,-1.278,50.776,20.536,12.406,8.315,6.286,100.166,43.754,28.353,21.359,15.709,186.986,89.196,57.297,43.5,35.155]],
"kep": [[-33.515,-37.645,-39.044,-43.116,-42.408,-33.107,-35.367,-30.576,-34.932,-40.007,-21.668,-18.915,-26.866,-44.524,-33.897,-24.448,14.192,16.786,23.159,23.647,-39.613,13.063,32.182,55.21,65.563,-57.629,22.605,-3.577,90.463,92.196],[-58.451,-34.335,-29.865,-29.283,-33.029,-50.468,-33.209,-29.309,-31.619,-33.608,-50.61,-29.313,-30.536,-27.099,-27.425,-57.47,-28.03,-19.379,-17.858,-18.909,-54.458,-24.612,-5.083,-5.227,-3.627,-61.823,-56.356,-22.158,8.135,9.772],[-69.717,-40.444,-36.851,-34.448,-32.464,-66.108,-42.661,-34.841,-32.303,-29.247,-70.147,-37.516,-32.299,-29.353,-30.714,-71.284,-34.338,-27.141,-26.377,-23.878,-74.204,-43.658,-22.233,-18.696,-15.457,-81.359,-49.613,-26.761,-22.927,-9.872],[-77.588,-51.391,-45.033,-34.425,-32.534,-77.745,-49.017,-40.686,-36.989,-31.162,-78.319,-48.834,-40.113,-33.743,-32.127,-83.927,-44.803,-32.803,-30.903,-27.147,-91.623,-68.442,-38.302,-28.225,-18.858,-82.519,-81.058,-45.54,-28.965,-10.852],[-82.315,-53.106,-43.34,-39.894,-36.973,-84.285,-53.404,-44.629,-39.901,-37.077,-85.67,-51.47,-43.885,-38.389,-34.242,-83.737,-54.18,-44.337,-33.042,-32.933,-91.781,-73.71,-41.043,-32.581,-26.888,-87.125,-71.401,-54.103,-37.473,-27.41],[-87.707,-60.141,-47.491,-42.21,-39.887,-88.322,-59.585,-49.65,-42.855,-40.089,-87.794,-59.965,-51.367,-44.266,-39.959,-87.758,-65.921,-47.622,-39.879,-35.68,-86.984,-72.602,-54.572,-36.384,-32.005,-88.697,-76.226,-58.453,-45.575,-33.2]],
"vp": [[-105.389,-177.144,152.282,481.273,628.763,85.188,-31.577,169.287,86.203,154.552,-115.862,-56.128,-4.972,83.415,10.118,-11.906,-24.461,-6.002,-0.96,21.193,-37.444,-18.73,-27.984,-22.93,-2.437,-50.678,-57.777,-11.923,-25.965,-28.119],[2886.781,912.629,-140.315,-367.554,-189.035,483.986,367.092,-15.665,-111.564,109.358,165.145,143.287,-74.223,-102.769,-7.908,39.793,17.18,-28.622,-27.706,-28.401,-11.142,-11.774,-24.464,-16.877,-12.888,-50.759,-48.751,-55.289,-34.482,-35.985],[4219.513,2947.706,2016.494,1232.309,-180.112,795.776,684.435,542.709,119.102,4.127,410.415,317.872,166.359,155.588,-2.367,67.191,37.092,1.711,-22.544,-24.804,13.897,-10.299,-4.018,-22.429,-11.768,-16.462,-27.551,-33.634,-42.466,-53.478],[5150.709,4949.821,3420.399,2499.687,2489.016,1014.368,1241.855,772.795,354.765,227.291,511.229,518.665,373.891,109.434,200.227,98.567,90.819,32.281,15.758,3.308,29.904,30.013,-6.134,-10.313,-2.639,-22.485,-17.969,-41.684,-17.729,-7.311],[5770.99,6958.478,6484.336,3192.272,2495.285,1365.607,1275.013,1267.392,778.968,285.316,630.221,701.425,549.571,379.867,212.015,114.693,119.716,56.256,43.28,-1.552,22.696,4.959,16.677,3.255,14.129,-24.586,-4.453,-25.873,-22.01,0.619],[7076.663,8214.24,9071.304,5426.675,2703.34,1474.942,1719.817,1577.386,1247.668,588.029,691.037,742.121,535.869,510.162,450.32,108.423,143.816,125.915,85.195,66.968,39.625,30.974,36.854,10.434,7.277,-22.583,7.397,-27.737,-17.365,-31.983]]
}