{
"KTrans": [[8.94,7.315,14.159,4.731,13.293,5.199,16.591,13.877,15.091,12.618,23.837,23.736,24.429,21.518,24.143,-18.087,97.868,71.007,71.506,68.723,77.224,103.774,131.165,134.048,110.217,14.907,59.027,-50.126,107.582,76.179],[-30.355,-2.413,1.824,4.108,6.893,-22.088,2.316,5.143,6.969,7.327,-16.163,-0.895,8.673,8.025,8.869,-9.563,50.608,36.623,35.937,31.172,-15.876,29.84,67.343,65.318,60.953,38.283,8.673,46.148,110.013,84.637],[-47.216,-13.046,-8.848,-0.034,-1.24,-49.648,-13.3,-2.954,0.058,-0.523,-42.838,-8.031,-2.669,2.3,4.266,-32.602,16.986,24.389,23.546,21.278,-10.708,18.643,40.41,52.838,44.87,6.292,-18.345,13.756,32.575,88.275],[-62.409,-27.484,-11.331,-8.758,-6.196,-64.928,-18.172,-11.475,-7.876,-1.332,-57.395,-15.868,-6.723,-1.138,-0.929,-46.262,-3.187,22.592,14.958,13.583,-78.947,-18.17,31.93,42.503,33.996,-40.422,-30.15,14.396,11.057,69.208],[-74.961,-27.266,-19.155,-12.943,-8.6,-77.522,-21.678,-18.526,-8.886,-9.209,-74.195,-24.007,-14.176,-11.012,-6.052,-69.973,-16.298,4.467,10.708,9.094,-56.919,-34.555,4.777,28.589,24.966,-34.745,-43.864,-57.383,-11.517,34.331],[-88.98,-30.215,-20.221,-17.653,-10.941,-83.646,-32.861,-21.507,-16.293,-9.819,-82.871,-39.177,-16.567,-14.235,-8.398,-77.317,-43.244,-10.144,-0.549,1.841,-70.415,-54.555,5.498,16.197,17.979,-49.241,-29.571,10.333,-10.941,27.006]],
"ve": [[-17.257,17,-46.721,-248.935,-17.201,23.46,10.277,72.912,15.472,163.92,23.307,38.767,23.296,-15.043,91.713,55.709,25.163,34.967,172.748,11.286,56.858,38.51,5.963,-65.234,2.196,191.801,70.522,37.82,14.732,-4.076],[2.601,2.641,3.476,3.372,4.739,9.371,0.762,3.771,4.157,6.56,25.577,4.235,4.461,6.212,7.016,47.411,21.768,16.565,11.847,10.182,106.804,43.252,25.274,22.814,16.965,196.184,92.459,58.87,42.132,32.563],[4.721,-0.447,-0.747,-0.194,0.841,1.902,0.727,0.039,1.507,1.269,10.095,4.259,2.418,0.938,2.387,-97.259,25.332,13.93,11.078,8.963,101.505,43.255,82.595,22.919,18.449,184.082,90.742,60.324,43.755,27.383],[7.001,-1.29,-1.587,-2.098,-0.621,27.012,0.329,-0.314,-1.864,-0.767,10.899,4.22,0.831,0.222,0.047,67.537,21.975,15.218,10.061,8.073,102.113,43.411,31.897,24.886,17.559,192.527,95.297,56.014,33.524,35.288],[6.462,-2.999,-2.893,-1.168,-2.04,-7.25,-1.367,0.659,-1.762,-0.443,14.793,4.401,1.245,0.176,-0.171,50.657,24.945,13.634,10.954,7.112,83.772,63.216,28.555,22.543,17.106,184.193,99.096,61.564,46.414,36.133],[-17.57,-0.161,-0.866,-3.239,-2.341,5.075,1.151,-1.085,-1.268,-2.156,9.226,2.98,0.502,-0.723,-1.068,48.82,23.315,13.86,8.691,7.351,69.241,46.698,-119.17,22.065,16.457,191.713,92.275,56.716,45.987,37.121]],
"kep": [[-22.389,-28.114,-21.517,-45.094,-36.883,-26.14,-20.487,-22.789,-30.252,-40.043,-19.121,-18.552,-12.016,-18.328,-14.449,-54.804,23.359,15.635,26.076,33.672,-21.889,6.002,45.689,68.256,59.68,-43.515,-9.806,-57.637,39.625,40.581],[-48.317,-28.665,-26.14,-24.332,-23.301,-46.114,-23.556,-24.199,-23.132,-24.676,-43.221,-28.651,-22.053,-23.659,-23.54,-53.097,-10.761,-12.935,-9.459,-11.001,-60.967,-29.809,-6.499,0.834,2.664,-57.304,-47.134,-24.954,5.919,2.906],[-62.713,-34.535,-31.626,-25.553,-27.154,-64.369,-35.946,-27.725,-26.662,-26.986,-62.328,-34.469,-29.287,-24.742,-24.296,-64.449,-31.419,-19.078,-17.436,-17.372,-64.634,-37.787,-21.462,-8.362,-9.631,-69.282,-60.323,-41.125,-31,1.017],[-74.145,-44.94,-33.005,-30.783,-29.874,-75.253,-39.141,-33.853,-30.279,-26.268,-71.84,-40.325,-31.306,-26.713,-26.483,-72.412,-41.078,-21.56,-22.833,-22.097,-87.421,-55.322,-25.69,-15.476,-15.859,-80.414,-65.316,-43.304,-39.478,-8.547],[-82.423,-43.877,-38.236,-34.584,-30.842,-84.187,-41.452,-39.859,-31.223,-32.349,-83.501,-46.227,-37.213,-34.152,-30.233,-84.035,-50.131,-32.539,-26.315,-24.638,-81.928,-64.802,-40.066,-23.002,-21.373,-79.707,-72.882,-72.493,-51.359,-27.03],[-92.224,-48.538,-40.367,-36.936,-32.378,-89.395,-51.481,-41.017,-37.22,-31.695,-88.504,-56.179,-38.55,-36.022,-31.387,-87.222,-65.279,-41.798,-32.425,-29.765,-86.957,-74.327,-40.377,-29.971,-25.272,-84.963,-69.412,-46.75,-52.553,-30.39]],
"vp": [[-80.176,520.87,484.621,380.603,909.584,12.497,17.06,34.284,82.126,-17.851,-80.864,4.421,-31.358,-23.41,69.168,-13.334,-42.13,-23.249,-15.881,-38.456,-38.503,12.673,-36.4,-24.235,-20.303,-21.852,-43.011,-15.244,-19.36,-20.121],[2537.564,1259.267,150.243,-66.977,721.716,379.476,231.218,-36.537,65.753,-57.587,190.745,97.718,48.429,-26.632,-14.624,35.581,15.643,-17.028,-15.731,-19.9,-18.267,-16.705,-19.907,-46.356,-29.895,-42.076,-31.294,-56.685,-8.533,-46.621],[4186.226,2693.536,1801.566,1170.991,-462.306,883.985,626.884,197.628,213.852,-116.59,448.429,241.25,122.471,86.982,-63.791,65.412,40.772,9.387,5.004,-13.197,4.572,-20.928,-2.415,-19.636,-33.653,-26.374,-28.253,-33.457,-42.233,-23.049],[6839.346,5814.545,3001.771,1655.795,1536.8,1025.575,934.015,642.101,380.554,255.298,541.219,523.478,306.126,242.143,63.154,50.697,68.073,58.172,11.56,-9.938,40.023,-4.298,3.72,0.058,-32.19,-44.692,-16.992,-43.401,-46.463,-43.038],[6415.75,5500.717,4401.335,4278.596,2200.251,1327.344,1475.229,996.487,856.723,334.504,683.541,775.964,393.649,316.579,154.167,94.516,104.918,52.026,58.084,40.214,-8.649,6.411,5.78,-17.758,-6.627,-17.117,-14.335,-30.595,-23.461,-38.131],[7074.355,8429.327,5941.939,3483.942,3271.97,1560.477,1355.723,1073.853,819.625,520.995,626.315,565.174,683.616,431.074,280.428,107.052,176.935,68.037,53.972,34.179,14.312,47.105,44.892,-2.327,-15.743,-12.94,-17.899,-41.286,-47.168,-39.593]]
}