{
"KTrans": [[9.543,21.706,21.756,15.883,20.072,18.657,16.536,25.047,25.052,18.492,19.48,31.676,21.627,18.373,21.139,41.515,33.875,38.605,37.748,35.357,61.979,63.026,57.466,67.405,51.952,109.369,132.505,138.46,116.767,91.941],[-46.26,-7.558,4.886,8.336,9.408,-46.59,-4.467,0.75,5.216,8.332,-41.564,0.951,0.988,8.44,13.764,-34.367,5.937,11.407,17.274,19.371,-32.544,27.145,27.615,20.547,22.78,0.608,45.831,42.386,46.698,37.757],[-69.614,-29.498,-13.244,-3.937,0.081,-73.255,-30.048,-14.001,-4.609,1.074,-73.031,-32.658,-11.774,-5.465,3.425,-62.983,-28.067,-5.347,2.796,3.97,-50.827,-22.404,-1.256,2.153,13.669,-57.455,-20.494,15.148,19.318,23.201],[-85.393,-48.069,-30.104,-15.841,-10.639,-83.306,-47.234,-33.987,-19.234,-6.682,-85.631,-50.308,-28.081,-20.834,-8.09,-77.453,-44.112,-26.862,-13.311,-6.467,-71.451,-32.946,-24.107,-12.884,1.62,-57.944,-29.416,-11.793,-2.945,10.745],[-88.726,-59.345,-48.07,-32.874,-19.875,-88.902,-62.067,-41.878,-30.666,-20.712,-87.989,-60.475,-42.392,-28.132,-20.177,-84.346,-62.611,-37.622,-28.416,-20.247,-76.121,-54.084,-39.22,-20.779,-15.027,-76.546,-49.256,-33.741,-13.421,-7.197],[-92.476,-68.594,-50.203,-36.858,-28.879,-91.815,-71.356,-53.679,-42.131,-29.831,-91.251,-70.189,-51.307,-36.028,-28.532,-86.231,-71.139,-47.282,-39.755,-25.808,-82.689,-61.544,-46.861,-31.908,-22.475,-99.034,-66.612,-48.045,-29.557,-17.61]],
"ve": [[98.423,16.986,179.82,-194.758,-453.343,-102.116,43.035,-20.831,651.018,-231.862,26.27,30.628,79.305,-0.788,112.31,-29.301,-136.844,59.408,1.642,6.288,36.387,5.123,12.324,11.389,12.937,103.062,33.609,19.159,-9.975,-16.005],[-10.543,-0.613,2.235,5.981,10.529,15.565,2.097,2.648,6.798,12.172,-19.404,1.205,3.43,6.294,8.544,0.912,10.207,8.551,8.625,12.806,16.798,26.088,18.807,15.59,47.727,70.098,38.322,32.744,15.431,-57.439],[-21.154,-9.123,-4.237,-0.829,1.066,-26.908,-8.053,-3.353,-1.597,1.23,-24.152,-9.853,-3.078,-0.957,1.311,15.291,2.596,2.533,3.552,4.49,23.119,4.58,11.015,19.486,9.345,45.597,25.884,25.519,18.849,23.118],[-37.024,-16.096,-10.108,-6.021,-3.518,55.8,-15.198,-9.947,-5.929,-3.033,-62.032,-20.49,-7.729,-6.204,-1.731,-11.951,-5.846,-3.36,-1.956,0.538,1.436,13.199,3.424,2.957,5.764,71.811,34.432,0.6,6.145,21.182],[-44.101,-22.471,-16.299,-12.095,-6.786,-289.947,-24.109,-14.367,-11.349,-7.194,-39.822,-25.008,-13.512,-9.342,-6.19,-10.895,-21.123,-9.33,-8.382,-4.097,19.552,-5.544,11.186,-0.777,-1.12,76.242,30.37,12.387,-263.276,10.305],[-54.221,-27.191,-18.741,-13.855,-9.938,-132.332,-28.081,-19.842,-13.57,-10.989,-36.282,-25.252,-17.943,-13.236,-10.538,-19.009,-14.895,-14.155,-12.651,-6.37,20.798,-13.024,-4.727,-3.68,-1.528,39.794,4.235,-2.235,2.126,121.321]],
"kep": [[-31.535,-28.25,-36.23,-47.353,-42.509,-31.564,-35.452,-27.862,-34.331,-48.067,-28.593,-21.407,-36.032,-39.367,-46.348,-33.162,-29.42,-23.386,-22.706,-36.123,-48.082,-24.173,-29.008,-12.27,-32.515,-42.326,-31.233,1.867,0.301,-41.986],[-63.993,-37.003,-29.934,-29.855,-31.866,-64.276,-36.75,-33.477,-32.163,-32.769,-61.677,-32.944,-33.369,-30.238,-28.082,-68.358,-34.685,-30.647,-26.825,-26.782,-71.803,-35.421,-28.024,-29.968,-27.959,-64.096,-42.608,-31.475,-28.757,-31.106],[-76.463,-49.028,-39.005,-34.89,-33.029,-80.229,-49.627,-40.524,-34.649,-32.548,-81.181,-49.694,-38.846,-35.893,-31.109,-80.954,-52.383,-38.188,-33.368,-33.171,-77.342,-55.517,-41.755,-36.705,-30.655,-76.561,-65.119,-46.349,-36.265,-32.814],[-89.524,-59.717,-47.854,-40.045,-37.555,-87.099,-59.665,-50.921,-42.37,-35.328,-90.509,-60.315,-47.842,-43.401,-37.018,-87.328,-61.426,-49.734,-40.934,-37.657,-85.875,-64.233,-51.65,-44.208,-36.051,-83.52,-66.4,-58.763,-47.606,-38.125],[-91.483,-66.3,-58.73,-48.681,-42.307,-92.474,-68.755,-54.992,-47.756,-42.662,-92.359,-66.992,-55.959,-46.742,-42.809,-91.046,-71.996,-55.408,-48.274,-44.325,-88.697,-74.153,-59.96,-47.662,-43.617,-87.338,-78.607,-67.708,-52.126,-45.618],[-95.528,-71.9,-59.938,-51.14,-47.133,-95.71,-74.56,-61.712,-55.421,-47.264,-95.14,-74.371,-61.22,-50.919,-46.498,-91.496,-78.358,-60.679,-54.733,-47.082,-90.671,-76.711,-64.78,-53.565,-48.263,-90.13,-80.077,-74.329,-59.789,-50.155]],
"vp": [[-4.892,-584.175,-904.443,-475.194,-644.184,-96.773,-160.881,-188.182,-205.382,-36.635,-42.427,-97.678,-65.653,-60.789,-45.023,-15.229,-9.25,-17.154,-8.115,-15.846,-15.315,-7.338,-7.485,-28.573,-7.967,-27.294,-12.974,-28.817,-20.632,-3.635],[2371.344,563.671,-77.802,-341.427,-979.07,408.033,155.137,-1.977,23.39,-70.476,249.179,-22.719,33.4,-29.033,-69.154,44.818,-6.315,-8.331,-31.367,-39.237,16.642,-27.233,-33.062,1.222,-9.662,-10.592,-13.092,-18.114,-14.757,1.143],[4570.758,2437.777,1629.584,751.889,181.057,1116.806,534.563,266.487,125.194,8.092,472.754,274.938,134.031,80.442,-48.39,63.12,73.387,2.768,-18.946,-4.207,2.493,10.5,-7.502,14.406,-10.063,11.05,6.084,-10.08,-4.25,-14.483],[6021.793,4124.995,2546.744,2126.29,1891.968,1112.749,827.393,761.054,601.354,153.309,685.194,644.966,300.36,317.252,80.64,87.94,67.735,54.199,44.563,29.788,29.85,18.185,37.66,20.04,-7.698,-14.944,-18.021,9.036,15.564,-17.436],[6697.905,6229.713,6176.501,5674.68,3211.887,1525.025,1483.662,1083.569,1097.355,710.371,695.018,601.625,508.921,446.9,348.24,117.775,146.31,86.985,116.425,63.472,21.651,47.204,66.638,28.272,39.474,-3.914,-11.702,17.414,13.642,8.895],[7501.286,8407.403,7682.147,6421.017,5437.846,1624.792,1679.998,1532.439,1442.978,1275.671,720.454,857.06,715.123,570.899,569.742,117.499,177.147,133.314,169.52,83.387,30.387,52.206,48.47,48.36,41.601,15.41,32.606,38.961,16.861,22.812]]
}