{
"KTrans": [[-49.381,-6.89,-6.814,-1.949,-9.011,-42.55,-8.029,-8.684,2.606,-4.271,-45.725,-15.264,0.811,3.55,-5.718,-55.194,4.252,5.169,-3.578,1.901,-45.601,-18.278,0.862,5.131,-3.601,-43.667,-20.86,6.886,-2.398,-1.242],[-87.557,-48.606,-24.551,-15.947,-10.728,-83.276,-49.794,-12.817,-15.417,-8.544,-88.821,-47.989,-21.319,-5.885,-4.349,-86.158,-56.668,-26.365,-7.624,-12.236,-86.727,-49.307,-21.278,-4.601,-11.407,-87.828,-44.894,-12.557,-8.036,-3.09],[-92.793,-73.587,-49.119,-23.296,-15.222,-93.887,-76.797,-44.689,-15.779,-20.107,-92.703,-75.558,-49.186,-26.137,-20.341,-95.034,-78.981,-41.726,-27.503,-14.575,-93.263,-71.955,-40.334,-21.88,-18.784,-94.88,-76.076,-44.482,-27.886,-16.401],[-97.491,-79.18,-60.559,-44.239,-30.56,-95.111,-85.187,-59.584,-34.985,-14.579,-98.433,-78.514,-61.579,-36.84,-23.448,-97.378,-86.403,-65.25,-51.033,-23.873,-97.27,-85.519,-61.866,-37.926,-29.412,-96.426,-83.646,-60.972,-44.31,-31.093],[-98.526,-88.415,-73.474,-50.012,-45.07,-99.139,-89.285,-74.583,-47.583,-36.794,-98.51,-87.704,-71.852,-57.909,-36.469,-99.417,-86.364,-74.99,-61.224,-40.144,-97.481,-88.615,-74.12,-52.082,-37.677,-98.38,-90.648,-76.172,-56.08,-36.82],[-99.849,-93.651,-82.258,-67.837,-60.68,-98.9,-91.819,-81.674,-67.081,-46.436,-99.631,-92.631,-81.066,-58.339,-52.859,-99.79,-90.025,-80.897,-63.579,-48.193,-99.58,-89.622,-77.149,-65.677,-57.879,-99.052,-90.508,-77.108,-66.427,-55.588]],
"ve": [[-25.59,-41.833,-24.407,386.155,-128.032,36.692,8.455,-136.781,-969.199,-380.98,-13.556,-334.082,77.231,181.771,154.77,86.053,2.83,33.137,-40.627,-33.715,-801.426,-11.28,-82.339,-14.188,16.788,-30.268,-7.044,-44.93,2.738,29.202],[-200.286,-27.447,-10.393,-1.373,-4.209,-44.937,-56.794,-7.397,-3.834,-0.352,-75.386,-14.209,-12.004,41.746,2.241,-3.663,-39.235,-10.688,-4.745,5.595,-20.551,-34.562,-8.236,0.375,-0.93,-101.42,-7.989,-9.905,-2.891,1.011],[-51.472,-45.264,-18.919,-16.065,-9.129,-85.309,-50.261,-33.518,-9.486,-12.602,-60.668,-39.29,-23.013,-15.189,-10.348,20.702,-56.604,-24.47,-12.346,-9.486,-9.411,-41.574,-10.696,-15.719,-10.123,-57.11,-49.787,-13.069,-16.025,-9.547],[-89.866,-52.349,-24.884,-31.546,-20.99,-81.816,-126.563,-36.622,-22.386,-14.548,-94.39,-51.871,-38.415,-25.466,-15.279,-271.307,-70.063,-13.422,-49.782,-17.313,-151.145,-71.942,-40.009,-27.268,-20.392,-74.338,-53.65,-37.248,-26.728,-17.749],[12.153,-41.871,-64.116,-33.922,-27.947,426.083,-69.728,-50.884,-32.88,-25.175,-98.174,-75.853,-53.234,-39.161,-26.108,-96.404,-94.471,-60.194,-40.483,-28.84,-88.455,-62.388,-86.479,-34.179,-33.648,-32.749,-57.701,-49.053,-31.293,-23.795],[-76.678,-95.88,-54.623,-51.868,-44.802,-85.017,-99.296,-63.566,-44.315,-30.237,-119.103,-81.927,-137.577,-45.44,-39.429,22.018,223.321,-38.537,-43.207,-37.359,-105.049,-69.888,-136.062,-38.396,-42.999,-63.453,-59.674,-57.372,-2312.661,-32.606]],
"kep": [[-62.929,-18.688,-15.126,-15.732,-31.134,-54.349,-20.512,-21.129,-10.085,-21.286,-68.387,-26.015,-3.826,-10.934,-18.846,-67.31,-5.976,-0.524,-8.632,-13.052,-60.833,-29.126,-5.878,-1.522,-21.977,-52.443,-34.077,-3.69,-11.202,-28.599],[-90.05,-46.302,-15.104,-12.079,-5.282,-86.587,-48.752,-7.138,-9.358,-6.032,-89.592,-52.82,-13.731,-2.351,-3.975,-90.004,-48.482,-20.417,-1.081,-10.526,-90.98,-48.807,-16.356,-1.928,-8.199,-92.044,-39.612,-4.828,-2.344,-1.958],[-94.337,-72.98,-38.595,-9.701,-7.228,-93.234,-79.915,-38.755,-8.052,-8.973,-94.165,-73.375,-36.215,-13.666,-11.703,-95.51,-77.735,-33.672,-15.41,-6.538,-95.184,-68.277,-33.523,-8.303,-8.645,-92.833,-74.656,-36.117,-14.604,-6.496],[-93.722,-77.258,-55.1,-28.709,-11.287,-93.535,-86.13,-54.822,-26.399,-1.747,-95.31,-75.81,-54.015,-22.342,-10.723,-95.738,-89.269,-58.796,-36.578,-8.254,-98.089,-85.614,-56.225,-21.913,-12.888,-94.166,-83.648,-56.212,-26.994,-17.452],[-98.389,-86.215,-69.311,-44.245,-25.825,-96.948,-83.849,-72.228,-36.831,-20.465,-97.121,-84.396,-69.675,-45.153,-19.623,-97.085,-84.208,-71.194,-49.357,-23.655,-97.227,-86.283,-72.769,-45.869,-19.155,-96.739,-89.632,-70.85,-47.479,-20.143],[-97.831,-90.476,-82.19,-68.819,-45.28,-96.367,-86.298,-78.88,-62.964,-35.158,-98.35,-89.766,-79.947,-54.956,-40.669,-97.453,-85.761,-79.753,-62.372,-30.278,-97.296,-86.535,-77.325,-58.196,-44.821,-98.267,-86.433,-73.158,-61.662,-44.071]],
"vp": [[3037.177,1345.351,1292.745,1507.859,1637.898,505.888,341.136,338.465,336.888,281.569,286.467,213.982,109.652,70.37,147.244,54.575,25.696,13.901,21.07,33.625,22.124,17.299,6.259,5.754,14.951,9.509,9.201,4.156,5.458,5.222],[6218.899,7316.686,5230.865,4517.907,4747.94,1221.418,1288.286,883.851,919.985,878.423,641.875,664.24,494.364,476.735,410.99,120.981,163.725,89.852,85.046,96.137,59.734,66.872,46.656,44.144,44.606,33.068,31.726,21.534,21.683,18.672],[7896.239,10364.439,9743.237,8692.59,6392.366,1542.731,2427.847,1989.507,1370.823,1566.589,766.325,1059.459,996.183,793.104,713.217,173.982,231.357,154.891,159.536,126.345,76.864,98.474,93.482,70.249,84.16,38.189,49.326,40.111,41.403,34.864],[8830.104,11065.082,12657.176,12696.365,13077.409,1635.717,2804.791,2287.439,1848.085,1846.411,951.154,1127.196,1229.331,1061.332,803.035,167.114,295.959,267.279,277.948,214.497,86.781,147.563,126.581,123.568,120.471,39.565,66.188,63.181,68.393,56.361],[9978.251,14789.884,17831.234,15222.252,15265.325,1900.912,2949.316,3515.778,2642.499,2873.689,855.456,1551.109,1519.706,1670.659,1388.449,182.806,264.481,387.147,348.289,316.448,86.259,155.769,175.687,146.939,165.5,40.359,78.643,80.18,74.748,71.57],[9709.3,17810.898,19587.108,21733.367,25178.542,1784.833,3273.539,3968.857,3735.607,2833.8,931.355,1694.486,2170.003,1625.837,2169.21,193.895,291.231,374.23,359.863,414.712,104.428,143.943,175.719,179.215,222.546,46.374,74.494,82.753,95.515,102.558]]
}