{
"KTrans": [[0.168,-0.002,0.069,0.028,0.044,-1.376,-0.729,-0.371,-0.411,-0.551,-3.355,-1.319,-0.651,-1.109,-1.39,-13.96,-8.949,-8.781,-7.489,-3.841,-16.131,-13.531,-12.666,-5.332,-10.441,-13.456,-21.399,-12.49,-16.694,-2.015],[2.487,0.671,0.348,0.237,0.198,0.678,0.131,-0.262,-0.046,-0.14,-0.259,-0.995,-0.849,-0.414,-0.433,-18.809,-5.392,-5.256,-5.442,-2.743,-30.593,-16.87,-12.099,-5.968,-9.122,-11.563,-20.262,-15.016,-16.214,-9.404],[7.646,1.693,0.88,0.54,0.395,5.482,1.27,0.626,0.133,0.114,2.278,-0.064,-0.361,-0.246,-0.214,-17.401,-8.96,-5.369,-3.89,-3.027,-35.865,-18.285,-12.658,-10.619,-3.834,38.223,-34.591,-19.523,-13.527,-13.88],[14.641,3.632,1.722,0.98,0.667,13.652,2.012,0.959,0.734,0.357,10.173,1.99,0.458,0.044,0.094,-15.234,-8.071,-5.178,-3.83,-2.383,17.005,-15.755,-9.538,-7.485,-6.394,61.052,-38.903,-17.755,-13.514,-14.044],[30.469,5.938,2.791,1.617,1.029,32.476,4.125,2.264,1.278,0.628,23.046,4.534,1.269,0.65,0.205,-17.237,-4.504,-4.654,-3.359,-3.115,-29.335,-22.997,-10.222,-6.581,-6.215,-42.549,-36.096,-19.703,-8.863,-17.047],[54.864,9.755,3.922,2.394,1.512,53.098,9.546,3.498,1.838,1.236,50.572,5.812,2.398,1.42,0.853,-22.778,-5.252,-2.46,-2.02,-2.981,-23.792,-19.792,-14.106,-8.01,-5.232,153.338,-21.017,-18.3,-14.863,-8.389]],
"ve": [[-0.224,-0.202,-0.202,-0.203,-0.227,-0.779,-0.241,-0.064,0.099,0.35,-1.511,-0.233,0.072,0.579,1.281,-5.304,0.702,5.112,9.886,9.668,-0.846,10.549,24.075,38.443,126.034,-31.124,-45.023,-126.958,-339.221,126.243],[0.319,-0.12,-0.166,-0.177,-0.181,-0.547,-0.335,-0.389,-0.247,-0.239,-0.664,-0.83,-0.594,-0.337,-0.283,-11.133,-2.567,-2.178,-1.728,-0.542,-19.136,-8.579,-4.85,-1.524,-1.441,-41.449,-9.972,-5.043,-3.175,0.42],[2.037,0.149,-0.067,-0.127,-0.15,1.045,-0.039,-0.154,-0.292,-0.247,-0.461,-0.683,-0.614,-0.432,-0.36,-9.966,-5.439,-2.962,-1.93,-1.362,-41.976,-10.535,-6.578,-5.019,-1.422,-72.256,-23.124,-10.39,-6.183,-5.436],[4.951,0.749,0.154,-0.042,-0.096,4.073,-0.005,-0.161,-0.126,-0.232,2.921,-0.036,-0.476,-0.461,-0.333,-12.841,-5.213,-3.217,-2.217,-1.336,-59.707,-8.549,-5.376,-3.949,-3.18,-91.718,-29.686,-9.941,-6.969,-6.93],[10.228,1.554,0.454,0.122,-0.024,9.616,0.911,0.268,0.037,-0.206,7.672,0.883,-0.194,-0.316,-0.404,-44.224,-3.645,-3.164,-2.252,-1.983,-58.825,-14.416,-5.88,-3.589,-3.428,-70.214,-36.49,-10.693,-3.879,-9.328],[16.842,2.896,0.852,0.341,0.103,16.66,2.652,0.709,0.127,-0.019,12.663,1.015,0.171,-0.142,-0.251,-54.04,-3.661,-2.309,-1.817,-2.126,-58.869,-12.832,-9.118,-4.76,-3.013,-110.165,-40.497,-9.791,-8.225,-3.91]],
"kep": [[0.392,0.2,0.272,0.232,0.272,-0.631,-0.493,-0.301,-0.494,-0.873,-1.986,-1.105,-0.696,-1.609,-2.523,-12.17,-9.75,-12.169,-13.2,-8.61,-21.55,-19.237,-21.145,-13.234,-25.895,-57.058,-45.183,-35.866,-49.373,-24.443],[2.158,0.792,0.516,0.415,0.38,1.203,0.46,0.125,0.2,0.099,0.311,-0.194,-0.268,-0.084,-0.154,-11.794,-3.607,-3.487,-3.948,-2.323,-31.963,-12.07,-8.797,-5.157,-8.134,-85.473,-23.015,-15.605,-16.026,-10.718],[5.447,1.541,0.947,0.668,0.546,4.282,1.301,0.778,0.425,0.361,2.634,0.6,0.242,0.181,0.143,-11.836,-4.343,-2.787,-2.166,-1.797,-66.036,-11.823,-7.796,-6.623,-2.855,-103.732,-33.028,-15.816,-10.97,-10.588],[8.933,2.857,1.565,1.022,0.764,8.744,1.998,1.117,0.86,0.589,6.356,1.993,0.926,0.501,0.425,-14.275,-3.657,-2.288,-1.821,-1.171,-103.619,-11.059,-5.453,-4.175,-3.834,-99.007,-38.838,-14.362,-10.131,-9.677],[16.481,4.293,2.324,1.493,1.054,18.542,3.15,1.985,1.239,0.834,11.807,3.551,1.45,0.962,0.607,-60.589,-1.436,-1.835,-1.292,-1.273,-88.274,-13.154,-5.673,-3.785,-3.343,-79.15,-58.271,-15.421,-7.852,-10.427],[26.538,6.585,3.039,2.045,1.406,24.599,6.632,2.756,1.705,1.254,25.373,4.6,2.2,1.555,1.103,-81.071,-2.211,-0.417,-0.344,-0.983,-84.58,-11.824,-6.811,-4.004,-2.724,-110.408,-71.23,-14.583,-9.906,-6.141]],
"vp": [[11.676,18.204,13.038,15.461,15.378,15.884,13.571,9.677,11.891,15.257,17.028,10.435,6.465,12.26,16.524,14.796,14.185,17.034,16.309,8.738,10.323,12.764,13.569,6.518,13.364,12.676,14.587,10.081,13.697,4.46],[-42.367,1.515,14.327,20.286,21.281,9,9.25,19.31,12.502,17.026,4.841,15.44,17.147,11.636,13.202,22.597,10.412,15.372,20.002,11.101,21.592,19.09,18.438,10.329,19.469,19.58,13.498,12.857,16.68,10.348],[-212.244,-55.167,-13.607,3.485,14.32,-22.889,-3.473,2.157,15.686,14.561,3.514,11.546,16.035,14.037,14.116,19.413,22.135,18.241,16.446,15.202,42.519,21.656,21.171,22.8,8.287,33.635,25.457,17.219,14.611,17.805],[-509.748,-173.005,-79.699,-27.39,-12.744,-83.479,-4.482,2.713,0.694,12.779,-31.113,-1.555,11.743,14.875,11.736,25.569,20.715,19.303,17.889,13.248,59.471,16.711,16.157,16.266,16.941,46.127,29.148,15.184,14.682,19.377],[-1033.909,-334.412,-167.02,-92.047,-43.881,-191.863,-43.09,-23.386,-13.589,10.21,-78.975,-20.084,2.257,8.566,15.643,80.737,14.109,18.618,17.719,19.871,59.463,29.095,17.477,14.109,17.488,39.264,36.326,15.924,7.197,24.992],[-1689.427,-597.488,-290.748,-178.144,-109.09,-335.999,-108.756,-50.625,-19.521,-9.487,-125.879,-22.332,-8.988,1.955,8.143,108.298,13.66,13.233,13.926,21.119,57.962,25.642,27.784,18.99,14.81,54.63,40.297,14.206,16.404,9.355]]
}