{
"KTrans": [[7.643,13.238,15.451,15.844,14.239,19.382,13.72,18.298,14.364,17.194,5.269,19.473,21.982,24.175,19.423,38.303,33.573,30.999,31.547,28.551,76.896,57.465,39.057,49.523,51.013,118.987,115.505,112.785,88.695,94.684],[-49.273,-9.594,0.398,6.791,7.348,-41.17,-5.06,1.339,6.767,10.694,-42.357,-8.373,4.312,8.592,8.244,-39.708,-2.526,8.61,15.126,15.166,-18.76,8.34,10.232,16.555,18.449,-17.007,27.604,37.275,38.211,36.31],[-72.233,-29.203,-14.251,-6.396,0.005,-75.304,-28.983,-12.724,-2.372,3.419,-73.259,-25.031,-13.227,-3.373,3.122,-63.308,-30.474,-7.366,0.405,3.333,-60.636,-27.977,-5.813,3.77,9.428,-43.67,-19.531,3.091,16.71,12.059],[-86.526,-44.37,-29.403,-15.333,-10.843,-83.694,-47.056,-24.338,-15.971,-8.378,-83.73,-49.269,-25.707,-16.807,-8.895,-79.762,-46.393,-27.472,-11.566,-8.071,-70.631,-44.39,-21.805,-7.581,-2.012,-65.12,-38.368,-21.624,-4.501,9.64],[-88.41,-59.458,-39.798,-25.959,-18.927,-90.302,-59.17,-39.934,-24.242,-15.882,-84.843,-64.609,-39.833,-27.298,-15.281,-80.43,-59.509,-37.636,-26.209,-15.483,-82.459,-50.006,-33.925,-26.936,-13.046,-73.143,-46.23,-31.716,-21.543,-8.724],[-92.905,-69.164,-51.846,-36.537,-28.715,-90.634,-70.106,-53.987,-36.035,-30.422,-92.308,-68.964,-52.637,-37.461,-27.303,-89.229,-70.788,-47.857,-36.767,-23.533,-85.739,-68.058,-51.765,-32.656,-27.138,-79.047,-58.482,-39.926,-31.107,-15.421]],
"ve": [[-2.828,31.018,30.94,-30.76,84.31,25.403,30.507,120.944,528.571,160.425,48.057,68.942,20.83,321.195,32.049,58.17,-91.55,401.493,306.401,-24.594,41.013,8.543,-52.313,-3.847,24.635,37.355,20.96,224.174,144.501,-20.205],[-3538.063,-0.152,2.583,3.847,7.449,-15.6,-2.302,2.522,6.901,7.472,-24.467,-1.531,1.559,3.822,7.677,-40.541,7.073,6.47,7.748,10.624,41.514,-11.178,13.383,13.838,16.509,53.9,29.308,40.892,41.558,30.506],[-20.862,-11.283,-4.162,-3.364,0.199,-31.636,-10.934,-5.055,-0.843,1.256,-17.799,-9.147,-4.351,-0.896,1.583,-13.381,-11.464,2.052,2.904,2.635,5.943,3.799,6.221,6.105,7.672,-21.391,-43.887,19.322,18.07,13.569],[-38.681,-16.856,-12.461,-5.515,-3.445,-19.258,-19.443,-8.48,-6.298,-3.265,-40.747,-16.078,-8.321,-6,-2.39,-26.101,-11.35,-6.171,-1.553,-0.243,-12.813,-0.106,0.687,2.932,3.779,17.717,8.572,4.548,7.415,12.383],[-32.139,-23.751,-16.498,-10.863,-7.1,-47.632,-19.709,-14.675,-9.221,-6.033,-47.579,-25.281,-13.961,-8.163,-4.293,-41.214,-14.982,-10.355,-5.865,-3.184,-13.679,-14.137,-4.022,-3.912,-1.063,35.552,8.904,7.203,6.028,6.642],[-47.797,-27.938,-20.433,-13.387,-10.267,-33.367,-19.973,-21.692,-13.378,-11.034,-22.944,-30.183,-19.216,-13.354,-9.73,41.383,-22.312,-13.433,-10.433,-6.075,-30.008,-21.228,-3.39,-7.011,-5.913,89.1,11.741,105.736,-0.462,6.373]],
"kep": [[-29.274,-30.923,-33.735,-34.91,-47.209,-23.34,-29.099,-28.62,-40.501,-37.3,-36.275,-26.474,-28.622,-25.685,-37.749,-23.739,-21.755,-23.869,-26.126,-28.619,-29.293,-17.048,-30.61,-15.947,-15.321,-43.996,-10.092,0.545,-6.451,5.937],[-62.467,-35.929,-30.829,-27.252,-28.657,-55.401,-32.258,-30.174,-29.333,-26.875,-57.733,-35.077,-27.574,-25.936,-28.442,-60.988,-36.964,-28.127,-24.482,-26.021,-63.968,-36.707,-32.299,-28.062,-26.944,-74.048,-42.054,-29.554,-23.081,-22.493],[-76.686,-44.709,-37.518,-31.886,-29.73,-80.191,-44.694,-35.767,-30.732,-28.191,-78.823,-43.512,-36.331,-31.512,-28.55,-75.945,-51.926,-36.571,-31.488,-29.322,-82.081,-53.853,-38.974,-31.997,-28.844,-80.451,-58.287,-43.27,-32.451,-31.911],[-88.432,-54.382,-43.807,-37.327,-35.146,-85.659,-55.919,-42.904,-37.217,-33.545,-84.998,-59.208,-43.571,-37.968,-34.48,-86.886,-58.88,-46.296,-37.282,-35.552,-85.147,-63.767,-47.102,-37.89,-34.201,-85.932,-72.106,-53.714,-40.511,-32.862],[-90.187,-63.714,-50.391,-42.047,-38.679,-91.397,-63.674,-51.368,-41.626,-37.216,-88.508,-68.558,-51.826,-44.697,-37.909,-86.362,-68.279,-51.96,-45.329,-38.904,-90.026,-66.227,-53.571,-47.655,-38.897,-87.758,-74.76,-60.46,-50.736,-41.616],[-93.719,-71.091,-57.96,-49.08,-44.434,-92.647,-72.579,-59.656,-48.575,-45.276,-93.002,-70.265,-59.626,-49.749,-43.6,-93.736,-74.413,-59.3,-50.995,-43.244,-92.911,-77.429,-63.39,-50.111,-46.116,-92.34,-79.641,-64.682,-54.717,-45.394]],
"vp": [[263.266,-339.286,-576.694,-438.006,-469.904,-85.8,-27.588,-131.971,-53.266,-65.426,21.772,-70.843,-58.865,-76.581,-35.184,-13.15,-11.528,-7.152,-9.059,-8.517,-20.561,-6.679,7.676,-11.989,-14.164,-6.704,-13.855,-20.937,-9.71,-14.578],[2771.95,497.512,-90.429,-604.353,-363.725,359.017,129.849,0.378,-144.423,-154.98,230.919,101.109,-4.183,-41.272,2.176,52.598,13.037,-4.091,-15.882,-18.651,2.872,-4.168,9.565,-5.295,-3.15,1.98,-6.719,-18.644,-13.66,-9.155],[5027.465,2662.051,1548.665,1193.205,341.038,1145.522,542.686,311.585,10.569,-149.215,472.85,234.614,180.566,12.585,-42.785,67.563,43.707,11.894,-0.177,12.067,33.385,30.807,8.157,-1.854,-8.34,1.805,18.661,3.356,-4.063,9.636],[6866.984,4170.341,3972.515,1732.564,1791.311,1160.59,1003.929,559.244,447.293,274.816,618.847,448.537,253.46,249.976,111.776,112.269,89.776,70.711,32.082,33.539,45.488,33.044,28.748,11.783,4.186,23.717,27.003,27.284,15.703,-12.918],[6776.245,6182.297,5419.551,4543.056,3393.87,1355.791,1239.795,957.242,695.008,525.685,645.611,725.97,502.51,347.068,209.864,87.931,140.099,95.816,77.27,45.639,62.537,48.691,38.553,51.657,32.055,12.016,20.329,20.555,19.688,10.703],[7404.584,8155.902,7442.024,6212.997,5600.76,1414.673,1625.381,1698.951,1226.361,1243.634,727.39,860.748,768.591,631.249,508.804,149.765,171.182,122.504,119.089,80.351,54.329,92.275,86.602,59.914,62.188,11.438,17.963,10.006,31.611,3.426]]
}