{
"KTrans": [[-0.522,3.44,3.178,1.885,2.963,4.283,13.405,10.8,12.491,9.401,10.597,26.844,23.458,22.043,21.926,44.71,83.204,98.202,99.218,99.379,58.49,48.459,133.342,153.047,160.071,94.794,-341.622,12.822,122.981,168.258],[-8.953,-3.007,-0.196,-0.025,-0.399,2.292,3.313,0.863,4.395,3.616,13.071,10.614,2.446,9.355,8.568,125.718,86.087,5.116,31.732,39.94,293.722,218.247,5.115,21.802,59.435,613.843,501.396,-25.454,-116.68,37.957],[-14.188,-4.234,-1.041,-1.021,-0.412,-7.254,2.618,1.934,0.991,0.326,2.46,8.891,6.71,5.603,1.149,87.305,64.939,52.759,45.262,-7.087,209.64,151.573,122.168,114.805,-29.665,427.79,357.007,299.036,271.095,-63.455],[-20.728,-5.493,-3.198,-1.058,-1.56,-13.158,-0.034,1.496,1.64,0.579,-4.432,5.371,5.101,5.001,4.002,63.673,53.617,43.753,36.109,32.686,158.255,129.34,101.733,83.529,78.783,310.686,286.24,230.928,201.42,187.761],[-27.043,-6.743,-2.93,-2.29,-1.727,-21.946,-1.944,-0.748,0.682,0.412,-14.238,2.942,3.482,3.363,3.444,43.588,47.159,38.404,31.577,27.304,113.314,112.253,85.57,71.825,63.626,233.687,251.702,199.543,169.436,148.009],[-33.231,-8.649,-3.968,-2.982,-2.26,-26.739,-3.909,-1.097,-1.029,-0.005,-22.785,-1.274,2.753,2.988,3.054,29.042,41.706,33.565,29.041,24.762,89.666,100.24,77.171,65.74,56.606,175.535,218.2,176.871,150.077,131.555]],
"ve": [[0.263,31.825,6.967,19.734,9.499,1.935,-542.612,21.68,-817.919,144.953,10.532,-0.936,15.294,95.792,30.275,46.114,-2.697,-54.335,-42.154,-102.031,99.522,31.194,-6.631,-30.076,-45.608,189.444,83.515,33.316,3.781,-15.095],[-0.084,-1.983,0.688,-0.541,0.514,3.82,1.5,0.029,8.287,1.998,8.442,4.058,3.123,7.565,4.821,49.567,24.573,18.035,1.263,-69.715,99.564,49.795,34.395,18.495,0.855,197.372,101.687,-19.149,44.987,27.061],[-0.09,0.106,-0.191,-1.179,1.432,3.353,2.007,1.193,0.016,2.977,8.412,4.582,3.177,1.835,1.008,48.693,24.943,17.18,12.884,10.308,99.031,50.418,33.954,25.494,20.307,196.787,100.27,67.553,49.927,34.901],[-0.263,-0.285,-0.392,-0.005,-0.386,3.974,2.045,1.612,0.89,0.572,8.91,4.787,2.702,2.274,1.532,48.363,24.953,16.885,12.993,10.679,98.553,49.836,34.126,25.88,20.766,196.127,99.116,67.291,50.838,40.966],[-0.359,-0.071,0.142,-0.115,-0.079,3.674,1.985,1.295,1.039,0.667,8.395,4.489,3.138,2.332,2.114,48.619,24.561,16.778,12.789,10.166,98.125,50.117,33.559,25.612,20.82,196.05,99.254,66.997,50.786,41.034],[-0.448,0.274,-0.082,-0.25,0.054,3.421,2.141,1.365,0.864,0.66,8.625,4.337,3.324,2.23,1.843,48.266,24.329,16.583,12.684,10.03,97.91,49.386,33.149,25.3,20.474,194.932,99.225,66.686,50.63,40.764]],
"kep": [[-124.341,-11.869,-10.048,-4.887,-5.849,-129.442,-25.545,-18.15,-18.896,-13.72,-129.769,-53.676,-36.843,-36.953,-33.516,-149.63,-232.345,-181.458,-186.931,-191.256,-180.698,-470.41,-372.591,-365.4,-377.477,-193.063,-899.017,-761.203,-734.095,-767.472],[-20.948,-18.158,-122.775,0.61,1.723,-9.19,-6.546,-141.997,-14.543,-3.97,-1.838,3.091,-144.774,-32.557,-15.484,52.936,83.22,-208.906,-186.147,-100.995,97.522,176.383,-221.291,-348.586,-207.884,127.04,260.383,-277.927,-662.011,-411.997],[-21.204,-10.296,-7.033,-18.152,-133.278,-17.172,-5.043,-3.408,-13.799,-140.946,-12.844,1.588,4.428,4.642,-154.608,21.172,38.822,53.505,85.555,-300.801,49.122,78.688,105.973,177.018,-388.506,64.71,140.023,193.877,277.487,-397.919],[-28.066,-9.562,-7.837,-4.707,-10.706,-22.838,-6.329,-1.925,-2.014,-6.616,-18.604,-2.668,-1.002,3.528,-0.459,3.082,22.842,30.481,35.934,51.237,21.227,55.525,65.196,75.617,108.472,25.604,92.521,114.751,145.254,193.512],[-33.12,-10.704,-5.714,-5.985,-6.397,-30.652,-7.277,-5.227,-2.941,-4.123,-28.244,-5.385,-1.898,-1.095,1.44,-11.151,15.738,20.251,22.043,24.653,-0.691,40.443,42.876,49.022,58.919,1.089,72.442,86.182,99.747,113.66],[-39.624,-11.976,-7.912,-6.7,-5.83,-35.588,-8.944,-4.878,-5.635,-3.787,-35.254,-9.418,-2.82,-1.062,-0.331,-19.535,11.107,13.928,17.087,18.243,-12.086,31.655,33.992,37.924,41.512,-16.916,54.075,67.731,76.085,84.844]],
"vp": [[3.072,-126.454,206.319,18.496,-54.862,23.501,-17.168,13.25,28.178,-13.992,-0.347,-16.641,7.553,-14.782,-4.078,-0.877,-4.145,-2.123,-0.867,0.566,-2.039,-1.404,-1.555,-0.396,-2.054,-2.208,-1.475,-1.797,-1.671,-1.312],[922.614,79.393,-38.873,-105.06,-109.821,225.468,7.98,6.133,-41.1,-11.345,79.979,13.709,-7.009,-7.204,-15.222,15.075,1.332,-1.417,-3.043,-2.817,4.445,-1.192,-1.785,-2.782,-0.568,0.626,-2.071,-2.848,-1.48,-2.289],[2062.645,146.31,303.723,263.661,15.923,447.807,97.878,-15.367,-6.022,-4.839,223.176,0.529,-4.029,-7.733,-10.361,46.877,-3.87,-2.164,0.484,-1.988,17.773,-1.528,-3.065,0.644,-2.406,8.425,-2.937,-1.995,-1.643,-1.517],[4039.785,595.66,107.484,39.552,54.549,826.834,113.682,24.756,61.063,31.811,390.385,75.187,31.716,-22.522,-4.764,76.212,7.097,1.88,-0.704,-2.758,33.083,0.983,3.497,-0.378,0.388,16.926,-0.726,-1.795,-2.191,-2.777],[5225.036,1311.032,148.944,24.361,-188.532,1061.296,239.916,44.521,21.091,-3.697,539.607,132.219,11.158,25.354,24.864,100.255,14.161,6.872,-3.025,3.069,50.268,12.18,1.244,-2.574,-2.837,23.194,4.531,-3.921,-2.405,-3.327],[6219.382,1738.845,649.205,324.307,168.086,1209.298,447.786,108.336,-9.606,45.297,640.144,141.451,53.113,-8.209,43.7,120.56,38.298,2.411,-2.456,-6.023,60.792,16.542,-2.393,1.845,-3.899,31.115,7.847,-0.91,-1.98,-2.846]]
}