{
"KTrans": [[45.176,29.242,18.958,18.937,18.405,56.904,30.344,28.371,26.848,22.034,80.228,35.241,34.192,31.892,30.832,233.761,130.629,98.194,80.595,85.58,556.749,276.556,218.282,181.647,167.155,1341.247,652.281,492.413,446.219,400.035],[-33.625,79.189,51.8,39.433,18.423,-8.138,67.008,55.172,41.984,27.243,18.391,81.065,46.71,42.377,22.389,90.114,156.151,85.453,73.589,65.795,151.121,255.089,168.821,134.732,96.662,447.599,601.136,297.736,238.092,190.722],[-119.384,210.425,84.19,52.625,37.138,-119.823,209.803,96.739,50.696,38.048,-138.497,170.485,86.843,57.855,50.066,-149.785,341.902,127.656,90.344,80.717,-178.668,542.32,203.979,126.156,97.353,-331.557,1000.618,419.465,275.228,185.577],[-111.043,-108.439,203.31,97.586,67.597,-114.996,-135.431,179.462,86.786,56.962,-117.039,-155.255,236.33,74.493,47.609,-113.009,-73.032,273.744,118.18,73.627,-190.027,-159.812,431.682,195.526,134.652,-234.815,9.806,794.611,325.233,198.504],[-113.973,-158.048,133.287,172.507,99.924,-125.024,-132.287,127.333,191.313,87.79,-118.468,-110.427,-12.964,194.674,121.014,-122.838,-83.55,64.925,272.7,135.955,-104.27,-216.884,158.006,305.657,182.529,-197.528,-231.838,373.217,512.241,282.573],[-113.451,-141.832,-106.786,310.08,153.418,-117.992,-142.624,-142.328,364.572,161.855,-105.864,-139.739,-98.969,247.624,169.937,-123.846,-186.973,-165.155,455.86,255.034,-144.439,-120.852,-219.15,654.662,311.722,-174.943,-197.741,-224.937,702.084,366.634]],
"ve": [[2.06,1.824,2.018,6.09,13.687,7.016,2.077,0.282,4.755,6.63,10.964,1.924,-0.84,-2.715,-1.615,46.174,13.895,-0.955,-11.651,-19.028,97.43,35.051,8.533,-8.766,-18.859,192.093,78.171,34.125,10.162,-6.776],[8.909,2.243,3.084,2.205,0.248,8.555,3.13,3.401,2.608,1.307,10.042,6.003,3.88,3.565,0.953,48.507,25.252,15.015,10.616,6.863,98.605,47.843,30.969,21.096,12.371,203.647,98.252,60.13,42.145,28.069],[-0.062,1.736,2.199,1.482,1.253,5.61,4.832,4.027,2.159,2.171,13.822,5.352,3.728,3.677,3.712,50.787,24.829,16.877,12.707,11.334,100.748,50.607,32.551,23.739,17.638,202.373,101.821,66.326,49.723,36.499],[-14.899,0.879,1.726,2.317,2.941,4.037,1.326,2.195,2.405,1.913,10.836,5.333,4.084,1.572,1.097,20.464,26.177,18.935,11.146,9.355,103.423,50.027,33.331,25.005,21.067,200.967,101.41,69.273,49.627,37.375],[3.862,1.981,4.489,1.688,3.311,7.704,4.562,2.033,4.502,1.525,12.374,6.952,4.498,3.819,5.438,51.375,24.414,15.857,15.259,11.529,100.35,51.564,34.794,24.85,20.277,202.322,101.543,-4.514,50.988,40.24],[2.858,4.203,-1.125,0.069,2.323,-7.872,4.229,3.499,3.369,2.348,11.891,4.001,3.202,0.875,3.253,54.704,26.713,21.227,14.441,12.405,102.08,51.271,35.159,29.043,23.315,199.942,101.737,69.35,49.08,38.275]],
"kep": [[38.39,27.738,22.61,25.16,27.584,43.252,27.706,31.727,35.129,34.662,58.238,31.7,38.669,43.262,49.171,123.044,99.194,98.305,103.374,129.288,228.432,175.113,188.904,203.855,225.812,388.522,317.604,337.154,391.177,430.765],[-38.019,67.361,43.639,34.133,16.613,-20.546,54.529,45.612,35.969,24.35,1.215,62.841,36.9,34.944,19.346,21.352,96.621,56.25,53.769,52.733,22.536,131.302,99.782,89.193,71.113,80.233,244.23,142.102,132.959,121.679],[-113.074,181.353,70.784,43.764,31.186,-111.843,173.616,80.185,41.247,31.101,-128.124,135.553,69.633,46.806,40.714,-125.659,226.815,85.297,62.676,58.6,-132.423,302.131,119.247,76.579,62.571,-168.13,425.487,201.612,143.788,103.535],[-105.635,-100.493,174.352,83.416,56.154,-108.526,-126.394,151.679,72.477,46.904,-109.448,-139.731,197.457,60.668,38.355,-103.693,-74.517,197.827,83.833,51.83,-139.149,-129.197,273.613,124.809,87.261,-138.59,-40.605,407.01,172.217,108.649],[-109.059,-144.24,112.203,148.35,84.708,-119.165,-121.754,101.103,162.647,73.675,-112.244,-102.612,-19.631,162.755,100.253,-110.01,-80.469,34.703,206.142,100.707,-97.663,-165.875,83.259,204.124,121.989,-127.698,-154.515,170.258,285.825,160.927],[-109.353,-132.054,-98.372,270.006,132.386,-113.345,-132.637,-129.002,312.344,138.181,-101.72,-127.988,-91.334,208.252,142.464,-112.221,-158.817,-144.208,348.07,196.714,-117.527,-106.276,-173.948,451.441,217.367,-120.766,-140.22,-160.546,402.381,216.122]],
"vp": [[1719.102,1759.066,1542.431,1549.811,1575.37,374.413,342.119,341.619,373.709,341.847,172.774,151.939,156.849,182.946,181.628,32.31,31.85,29.442,24.439,35.395,18.801,16.438,18.189,17.487,14.246,6.654,5.985,6.327,7.098,7.398],[5426.975,5395.247,5516.938,6076.21,4358.26,1233.414,941.986,1149.667,1156.183,945.333,570.608,475.617,484.969,511.959,442.698,122.428,94.39,87.486,101.286,108.844,56.481,44.697,53.488,58.188,47.223,30.58,25.757,21.08,23.798,24.347],[6762.791,9478.887,8336.613,8595.486,8061.392,1454.47,1855.107,1686.316,1619.462,1560.298,911.018,807.919,773.946,816.797,897.128,155.779,178.103,143.938,158.66,184.787,80.535,87.78,76.586,70.634,71.038,42.971,50.108,43.009,46.445,39.97],[9539.847,10496.852,11438.888,12185.621,12586.797,1735.915,2290.187,2232.28,2153.083,2082.49,860.877,1187.319,1206.331,935.062,905.858,195.49,251.62,227.367,194.941,175.344,103.155,117.728,126.122,100.596,105.988,51.549,61.788,68.45,54.988,52.681],[11507.477,14772.889,14537.982,14340.364,15331.935,2278.357,3021.888,2881.851,2955.596,2697.78,1127.52,1377.301,1528.069,1477.418,1643.887,214.631,230.379,290.791,295.381,295.988,101.321,153.286,132.925,134.465,142.255,57.82,73.715,80.491,70.245,71.273],[11550.932,18609.786,15844.098,15414.005,16815.233,2570.806,3407.106,3715.323,3957.794,3155.734,1055.778,1513.482,1696.138,1285.792,1693.956,224.114,334.64,401.147,341.619,418.611,123.328,172.137,183.349,229.36,189.566,56.529,94.459,85.487,66.204,70.315]]
}