{
"KTrans": [[4.868,7.948,8.566,8.853,6.687,1.743,8.047,9.981,8.626,7.604,10.197,7.34,5.055,8.197,7.918,17.163,16.08,13.297,10.954,12.907,28.66,24.824,23.303,23.064,21.592,60.825,44.7,37.425,35.822,38.681],[-31.898,-3.655,-1.57,2.913,4.387,-32.398,-0.872,0.476,3.207,5.207,-27.55,-0.619,3.191,3.465,5.419,-17.417,-1.57,2.824,6.292,7.84,-19.963,4.543,11.11,8.923,11.361,-5.445,15.062,17.434,15.898,17.043],[-70.582,-19.136,-4.543,-5.725,0.509,-65.923,-16.251,-4.38,-1.897,-0.699,-61.556,-17.645,-6.547,0.731,0.179,-61.862,-18.626,-4.537,1.82,1.932,-56.82,-14.583,-3.542,0.053,4.375,-43.837,-10.673,2.201,10.765,9.186],[-82.547,-34.937,-17.831,-8.707,-4.419,-81.671,-33.317,-16.914,-7.515,-6.308,-80.608,-30.086,-15.786,-9.171,-6.123,-79.968,-33.905,-14.571,-9.009,-3.572,-73.916,-31.376,-11.862,-2.985,-2.755,-67.812,-29.085,-8.708,1.679,1.617],[-90.208,-49.273,-23.828,-16.513,-10.23,-89.241,-45.658,-26.04,-16.876,-9.848,-88.099,-45.553,-25.719,-17.037,-10.997,-86.25,-43.897,-23.423,-14.777,-8.036,-79.343,-44.248,-23.885,-7.711,-5.736,-76.947,-45.043,-23.381,-9.863,-3.31],[-93.208,-58.522,-38.53,-23.853,-16.024,-91.891,-56.822,-32.162,-23.847,-15.842,-92.943,-56.667,-36.274,-21.064,-13.733,-90.01,-55.533,-34.988,-22.542,-14.239,-87.519,-54.263,-32.914,-24.208,-12.855,-82.472,-57.809,-33.491,-22.412,-9.412]],
"ve": [[6.966,-8.56,14.243,17.151,-15.948,4.77,-156.762,12.978,18.801,58.841,6.887,4.821,19.227,21.867,49.802,14.23,10.445,16.386,20.677,22.398,18.562,8.748,10.32,10.299,11.38,37.583,16.556,12.008,7.579,-4.607],[-12.632,-2.42,-0.493,1.592,3.054,-12.458,-1.182,0.445,1.72,2.316,-7.651,0.917,1.393,1.728,3.355,0.35,1.816,3.015,3.7,4.121,5.143,6.434,6.648,5.22,6.116,23.658,15.928,11.679,8.568,7.07],[-41.641,-7.646,-0.88,-1.502,0.521,-37.224,-6.407,-1.078,-0.288,-0.128,-42.801,-5.466,-1.61,0.268,0.17,-19.74,-5.876,0.036,2.341,1.895,-14.368,0.365,2.468,1.961,3.169,8.512,9.307,8.471,8.313,6.236],[-52.429,-14.799,-6.813,-3.374,-1.299,-43.428,-12.948,-6.164,-2.828,-2.223,-41.909,-10.93,-4.835,-3.171,-2.489,-39.133,-10.225,-3.182,-2.165,-1.276,-25.966,-6.093,0.213,2.021,0.65,-9.004,1.609,4.912,6.22,4.337],[-53.674,-20.958,-8.754,-5.614,-3.374,-63.511,-18.999,-10.361,-5.777,-3.133,-52.043,-20.547,-9.989,-6.315,-3.585,-51.198,-14.089,-5.885,-4.747,-1.562,-28.022,-13.769,-4.932,-0.002,0.988,-15.329,-7.282,0.138,2.419,3.651],[-73.316,-27.41,-15.864,-8.756,-5.868,-60.235,-25.746,-13.037,-8.236,-5.46,-70.035,-24.865,-14.421,-7.182,-4.357,-53.448,-22.649,-11.144,-7.786,-4.116,-36.097,-16.7,-8.347,-5.684,-1.543,-19.887,-14.307,-3.958,-1.368,1.606]],
"kep": [[-14.526,-11.981,-13.396,-13.622,-22.672,-17.06,-11.287,-10.183,-13.34,-19.843,-12.438,-10.305,-19.212,-16.006,-17.019,-11.991,-7.192,-11.136,-13.672,-12.143,-8.059,-0.308,1.044,1.835,2.144,-0.842,7.97,8.287,12.636,28.25],[-36.453,-16.406,-15.354,-13.199,-13.185,-36.552,-14.987,-14.484,-13.093,-11.885,-36.324,-16.128,-12.968,-12.842,-12.541,-33.46,-17.764,-14.754,-12.162,-11.192,-37.342,-16.533,-10.984,-11.356,-10.117,-37.46,-15.532,-10.094,-8.58,-6.297],[-64.858,-26.346,-17.962,-18.127,-14.435,-62.1,-24.476,-17.558,-15.887,-14.949,-62.304,-26.764,-18.943,-14.128,-14.438,-61.365,-27.525,-18.783,-14.974,-14.417,-61.492,-28.155,-19.849,-16.163,-13.465,-58.921,-30.835,-19.697,-12.653,-12.076],[-77.288,-36.546,-24.928,-19.266,-17.209,-76.661,-36.243,-24.564,-18.795,-18.111,-74.011,-34.389,-24.95,-19.918,-17.684,-74.554,-38.827,-25.088,-20.571,-16.521,-73.179,-39.235,-25.142,-18.811,-17.46,-72.457,-41.549,-26.365,-18.242,-16.719],[-85.162,-47.13,-29.397,-24.748,-20.639,-84.911,-44.431,-30.014,-24.81,-20.475,-83.288,-44.163,-29.922,-24.622,-21.159,-82.789,-45.949,-31.057,-23.947,-20.208,-78.395,-46.758,-32.011,-21.477,-20.255,-79.01,-51.237,-35.387,-24.949,-20.393],[-89.498,-53.344,-38.331,-28.887,-23.842,-87.373,-52.203,-34.335,-29.393,-24.025,-89.138,-52.694,-37.186,-27.681,-23.028,-86.68,-52.503,-38.379,-28.707,-23.643,-85.625,-55.214,-38.177,-31.642,-24.5,-82.954,-59.458,-41.722,-33.212,-23.975]],
"vp": [[-53.48,-98.719,-404.062,-333.404,-53.851,3.582,-44.742,-43.574,-44.008,-59.016,-26.31,-15.761,7.259,-13.702,-21.026,-2.789,-7.414,-8.515,-0.389,-4.818,-2.175,-2.786,-3.135,-3.212,-3.036,-5.679,-3.445,-2.529,-3.315,-3.605],[1541.227,296.998,294.803,-118.332,-489.903,297.416,14.327,30.285,-37.829,-51.64,115.752,-11.52,-27.288,-12.934,-56.322,15.879,8.181,0.159,-4.8,-9.431,11.095,-0.517,-7.251,-4.663,-10.706,0.238,-3.797,-4.309,-2.776,-3.78],[4737.136,1728.251,128.656,751.657,-227.601,872.586,258.297,12.122,27.965,75.46,371.973,141.288,42.07,-31.295,14.46,71.97,39.198,7.862,-9.041,0.166,34.091,12.02,3.844,4.539,-2.576,10.331,3.589,-0.66,-5.532,-2.49],[6157.887,3164.269,1906.857,1076.017,351.457,1091.121,585.258,373.411,191.885,213.917,542.923,251.363,144.007,106.769,131.39,118.102,60.379,28.852,27.608,18.026,46.754,26.902,11.129,0.933,7.41,21.045,12.264,3.582,-1.677,0.274],[6923.022,4781.706,2609.021,2051.693,1425.304,1323.025,840.049,620.424,473.126,273.252,650.884,469.827,308.083,269.954,172.812,125.632,72.185,46.419,45.81,20.898,53.209,41.519,27.436,9.229,3.866,23.396,21.512,12.864,6.928,2.251],[7477.89,6143.483,5155.145,3548.724,2824.543,1483.382,1169.12,783.188,674.866,499.523,742.016,571.486,469.487,287.131,200.141,139.839,115.35,79.839,73.801,42.803,62.321,50.187,40.081,37.383,17.646,27.751,30.439,19.29,15.82,7.549]]
}