{
"KTrans": [[-3.842,6.421,4.11,-1.374,-4.678,3.222,11.695,6.022,5.326,6.842,4.107,29.387,16.995,22.23,22.923,-10.108,50.02,83.432,84.984,89.947,-93.283,24.636,76.161,119.666,139.448,-46.675,-128.764,-46.849,2.197,91.728],[-31.645,-8.42,-0.541,1.101,-0.018,-35.41,-9.117,0.53,6.415,5.876,-22.41,-4.077,2.414,9.715,9.645,-22.524,4.703,-2.449,21.908,34.311,-25.311,-2.799,-22.247,-3.381,44.317,-55.8,-149.714,-94.17,-15.968,6.726],[-45.563,-14.116,-8.342,-6.394,-0.461,-41.883,-9.222,-1.672,-4.273,0.062,-42.746,-4.375,-2.783,-1.839,0.78,-18.655,16.546,24.744,8.573,-0.063,-28.52,-7.059,25.758,-20.023,-24.089,-58.551,-46.122,-16.822,44.709,22.951],[-56.614,-20.005,-8.315,-4.414,-4.523,-52.095,-14.123,-3.752,-2.266,-1.434,-51.815,-12.62,-0.977,0.18,-0.288,-37.164,14.748,30.1,21.85,15.092,-84.594,35.667,20.095,14.229,3.199,-65.783,11.224,13.6,37.779,12.199],[-63,-21.4,-9.683,-6.578,-3.248,-59.502,-21.867,-8.534,-3.713,-1.495,-62.26,-10.337,-4.707,0.936,0.545,-64.625,6.07,21.331,21.46,15.704,-54.959,11.686,28.232,35.099,48.594,-46.758,-33.492,-93.522,27.671,-58.222],[-69.194,-25.166,-13.701,-7.417,-4.15,-69.951,-25.859,-11.84,-6.387,-1.784,-70.374,-25.789,-7.407,-2.719,-0.534,-64.506,-11.342,9.639,18.142,17.588,-65.363,-17.363,22.807,29.965,42.6,-48.409,-41.315,0.728,20.944,27.065]],
"ve": [[-2.573,-31.28,57.366,213.415,-32.681,27.391,14.756,-21.958,-31.118,-53.593,32.123,15.321,-17.369,77.277,98.431,39.776,-0.466,-26.913,-122.247,216.001,189.107,31.511,-8.07,-39.501,-52.866,203.663,86.027,33.049,2.88,-16.372],[-7.307,-27.007,1.38,49.168,0.668,-8.525,5.161,19.215,11.924,19.711,-7.501,-28.015,-27.018,50.744,30.274,49.301,18.599,14.601,5.132,-14.515,95.308,48.29,32.481,12.405,5.798,195.338,100.314,64.224,53.814,27.482],[-5.553,-3.352,-13.706,11.634,-2.211,-3.123,-9.551,-7.518,-5.306,-27.333,-0.319,9.114,-20.083,4.986,4.69,36.028,-3084.349,19.671,11.262,10.866,71.857,49.697,33.768,14.647,19.962,-30.204,101.498,65.913,50.81,37.922],[8.288,-2.75,-2.547,-1.779,-0.027,-3.526,-1.399,-1.796,-0.365,-2.479,2.656,0.234,0.858,0.105,1.193,42.265,18.397,19.443,17.408,7.042,102.937,45.347,54.933,22.845,22.373,195.515,101.791,67.422,50.068,43.762],[-11.34,-2.094,-1.837,-1.478,-1.754,-22.661,2.928,0.523,0.088,0.036,-31.975,4.282,2.265,1.679,0.165,17.779,20.092,5.081,11.086,9.304,95.502,45.249,29.355,27.002,19.003,203.616,89.461,71.299,49.952,43.467],[-6.339,-1.004,-0.495,-1.214,-0.471,-3.659,-0.373,-0.365,-0.125,-0.828,1.776,2.052,1.978,1.475,0.714,36.458,23.921,13.193,12.632,8.928,93.465,49.091,31.498,23.24,20.396,196.623,93.924,65.371,51.32,41.586]],
"kep": [[-123.995,-41.148,-17.726,-4.825,1.044,-119.769,-51.279,-16.46,-21.829,-10.054,-131.677,-93.929,-41.246,-38.862,-55.445,-179.278,-221.133,-190.76,-174.003,-186.407,-179.982,-323.953,-404.129,-362.05,-351.272,-93.386,-360.587,-533.025,-726.319,-746.278],[-70.302,-67.062,-123.711,-47.334,-8.829,-76.583,-70.349,-127.508,-44.822,-28.006,-63.994,-66.134,-135.801,-69.513,-26.202,-84.395,-79.664,-193.668,-161.712,-104.827,-80.778,-85.932,-174.478,-288.163,-211.669,-82.945,-137.705,-157.791,-214.965,-347.347],[-68.544,-33.499,-34.739,-68.865,-128.934,-68.324,-33.255,-24.693,-69.461,-126.347,-68.628,-25.181,-33.159,-63.171,-142.363,-63.743,-31.228,-5.454,-54.166,-184.715,-77.948,-62.942,-39.697,-117.403,-206.539,-84.431,-79.855,-75.425,-16.386,-60.848],[-75.48,-34.746,-20.33,-17.836,-32.534,-70.854,-29.402,-16.397,-15.402,-21.229,-72.47,-29.831,-17.118,-12.543,-21.76,-73.821,-27.64,1.515,0.383,-11.282,-95.366,-23.625,-33.567,-39.168,-63.349,-89.013,-49.328,-51.419,-23.688,-52.644],[-76.621,-33.237,-19.523,-18,-13.465,-77.167,-34.772,-20.019,-12.601,-9.427,-78.997,-25.915,-16.545,-5.903,-11.327,-86.586,-30.445,-7.469,2.595,-2.136,-82.621,-37.681,-16.222,-6.09,19.139,-82.366,-72.42,-108.674,-31.596,-113.485],[-81.602,-36.336,-23.205,-13.566,-10.516,-82.896,-37.65,-22.073,-15.507,-10.733,-85.756,-40.539,-18.608,-9.611,-9.395,-85.156,-40.699,-14.931,-1.987,4.607,-87.121,-54.21,-24.833,-8.4,6.09,-84.157,-72.298,-49.944,-35.644,-26.659]],
"vp": [[121.407,-57.969,716.954,-141.577,54.365,-28.513,96.059,-38.405,31.721,19.063,18.254,-21.653,20.202,-26.603,13.721,-1.185,4.91,-30.947,3.332,-13.618,-10.83,-15.129,10.196,-16.234,-7.304,-13.464,-8.444,2.473,1.911,-6.4],[2409.63,1010.4,202.207,65.192,3.14,488.962,223.297,51.256,-73.982,-21.411,227.853,81.021,10.129,-17.418,24.526,66.213,13.306,-13.919,-1.768,1.977,17.146,1.836,-12.007,11.489,-6.257,-14.869,-2.102,-16.537,-13.425,-5.396],[4349.725,2241.181,774.195,719.549,380.687,765.98,470.635,163.235,81.746,-16.569,485.09,220.852,123.091,108.344,45.241,69.342,38.235,-8.896,-0.739,-5.925,40.641,22.171,8.406,-16.535,6.644,-6.916,-7.978,-25.754,-18.006,-19.895],[5791.369,4255.872,1760.687,951.228,1125.733,1037.293,877.293,368.317,220.594,282.688,534.841,370.794,214.021,174.661,28.982,121.756,92.861,29.029,27.92,-14.505,47.566,1.685,7.478,4.69,0.252,6.932,-13.671,-5.746,-12.314,-21.728],[6122.328,5430.782,3035.595,1436.408,1145.595,1377.706,1221.48,649.67,283.603,140.248,645.563,686.438,308.388,117.509,84.081,122.941,95.717,65.25,4.474,20.836,37.371,16.792,13.31,7.96,14.601,14.089,11.202,30.439,-17.171,7.004],[6495.101,7805.909,3956.953,2472.081,1215.776,1374.915,1506.758,797.644,262.656,234.374,641.898,746.136,438.12,166.241,183.727,126.455,135.487,75.996,47.192,12.134,44.982,50.824,48.475,4.653,57.904,5.273,11.302,4.301,6.66,-6.813]]
}