{
"KTrans": [[0.954,3.613,0.053,0.459,1.175,8.683,7.144,8.523,6.441,4.17,23.922,15.276,12.743,12.152,10.368,158.788,90.516,70.438,66.381,60.146,387.558,227.119,176.154,153.659,140.103,996.897,581.629,441.999,380.85,361.612],[-7.946,1.381,0.072,1.026,-1.05,-4.436,4.284,5.071,2.509,3.509,3.376,9.85,8.144,7.602,5.305,96.868,65.676,44.145,35.88,30.645,229.196,139.212,97.796,75.496,63.752,556.854,341.567,227.141,178.472,149.452],[-27.612,1.041,-0.55,-0.369,-0.053,-20.981,4.399,1.446,2.32,2.933,-16.939,8.312,5.93,5.111,4.512,53.1,59.019,38.875,28.985,24.206,131.091,127.034,84.903,64.274,53.381,348.887,291.021,192.486,147.28,118.508],[-40.834,-2.537,-0.722,0.598,-1.107,-41.023,0.532,2.954,1.788,2.257,-31.631,4.548,5.722,3.214,4.133,15.227,44.177,34.669,29.082,24.712,83.216,108.11,79.594,60.544,49.874,183.719,248.971,181.609,138.309,108.52],[-54.076,-10.845,-1.852,-0.936,-0.923,-50.513,-5.117,3.048,0.237,0.166,-43.208,1.39,6.705,5.817,3.301,-24.608,36.719,31.114,29.28,21.594,32.847,97.386,77.562,62.585,43.093,126.884,220.283,162.813,129.161,103.66],[-63.362,-10.824,-3.586,-0.838,0.312,-59.366,-7.043,-0.868,-1.315,0.85,-53.019,-5.619,3.273,2.27,3.789,-34.686,30.115,29.404,26.95,20.335,11.93,80.451,73.497,54.587,43.862,49.939,174.113,150.813,117.615,98.951]],
"ve": [[4.018,3.153,5.559,3.086,9.913,6.212,1.695,0.498,-1.115,2.234,11.032,1.571,1.687,-1.104,-4.332,49.475,13.857,0.231,-9.839,-17.126,95.31,33.441,7.645,-6.736,-17.553,193.646,79.454,36.091,10.63,-6.574],[3.109,0.196,0.35,0.576,0.747,6.002,2.128,2.186,1.136,0.482,11.505,5.414,3.235,2.076,1.413,51.919,24.873,15.013,9.723,6.266,101.292,48.11,30.171,19.586,13.191,200.075,97.628,61.802,41.89,28.721],[4.557,1.917,0.874,0.725,0.559,9.804,2.903,1.614,1.65,1.377,14.018,6.244,3.476,2.303,1.791,53.171,25.272,15.924,11.847,8.975,100.683,49.949,32.353,23.08,17.337,202.021,100.127,64.974,46.955,35.704],[1.202,1.064,0.431,0.456,0.241,8.027,3.71,2.082,1.396,1.228,11.024,5.899,3.804,2.265,1.946,52.004,25.847,16.444,12.233,9.158,107.949,50.306,33.355,24.151,18.769,202.109,100.978,65.89,48.892,37.734],[5.603,1.672,0.712,0.472,0.505,6.688,2.91,1.744,1.629,1.12,12.718,5.84,3.596,3.151,2.171,42.772,25.195,16.737,12.224,9.724,102.231,49.727,33.658,25.181,19.206,194.686,100.082,66.504,49.429,39.257],[3.272,1.596,0.78,0.692,0.614,7.965,3.401,1.405,1.547,1.109,17.586,5.997,3.818,2.689,2.39,58.585,26.236,16.57,12.429,9.411,114.691,50.616,33.959,25.377,19.857,209.695,102.025,66.723,49.75,39.533]],
"kep": [[-1.396,2.435,-1.69,0.476,-1.053,3.578,6.825,10.671,10.387,5.61,12.47,14.648,12.547,17.048,19.787,74.194,68.273,71.211,86.266,95.648,150.052,145.821,157.418,172.878,192.477,273.912,280.35,298.908,335.308,394.905],[-10.661,1.273,-0.145,0.6,-1.633,-9.601,2.225,2.939,1.507,3.119,-7.149,4.447,4.821,5.541,4.01,29.795,32.705,25.404,23.966,23.091,63.388,61.749,51.976,46.818,44.715,119.104,123.654,102.227,96.281,93.822],[-30.417,-0.742,-1.407,-1.063,-0.584,-27.268,1.522,-0.129,0.681,1.601,-26.978,1.994,2.417,2.767,2.71,0.462,27.011,19.741,15.301,13.993,14.104,51.344,39.682,33.458,30.715,48.368,95.379,77.32,68.193,60.989],[-43.179,-3.609,-1.146,0.154,-1.336,-45.573,-3.062,0.907,0.399,1.017,-39.205,-1.219,1.815,0.96,2.152,-25.788,14.562,15.635,14.994,14.229,-9.67,38.48,34.628,29.265,26.164,-6.974,73.601,69.678,59.998,51.362],[-55.705,-12.312,-2.595,-1.46,-1.455,-54.157,-7.76,1.303,-1.369,-0.945,-49.347,-4.154,2.981,2.529,1.088,-50.648,9.234,12.274,15.16,10.799,-35.681,31.812,32.754,29.788,20,-25.303,60.075,57.761,53.32,46.202],[-64.674,-12.166,-4.309,-1.567,-0.334,-62.421,-10.123,-2.272,-2.876,-0.288,-58.666,-10.964,-0.585,-0.432,1.322,-57.93,3.156,10.989,12.86,9.939,-45.216,19.807,29.421,23.19,19.984,-51.058,36.179,50.337,45.244,42.49]],
"vp": [[59.566,-128.325,-36.573,-109.351,16.095,-59.871,-64.146,-48.581,-59.634,-75.236,-54.897,-55.025,-66.79,-67.991,-69.617,-63.669,-62.81,-63.655,-61.988,-62.485,-64.641,-63.258,-62.886,-63.404,-62.307,-63.752,-63.123,-64.092,-62.876,-63.155],[263.964,70.417,12.788,2.551,-83.552,-0.689,-61.711,-50.923,-60.721,-52.534,-33.679,-61.574,-54.582,-55.664,-63.215,-59.047,-63.366,-65.664,-64.045,-64.247,-61.547,-65.276,-64.678,-64.837,-63.217,-60.701,-65.248,-64.986,-63.751,-64.163],[866.373,147.029,-38.549,19.547,-13.754,116.496,-22.995,-58.558,-61.022,-44.047,14.827,-40.223,-64.705,-65.792,-61.544,-48.328,-62.828,-67.466,-64.733,-63.805,-54.35,-66.145,-64.984,-64.499,-64.707,-58.991,-64.997,-65.847,-66.74,-65.814],[1244.457,359.118,90.118,-7.579,-88.094,165.39,22.05,-30.24,-58.724,-42.791,50.134,-35.113,-48.385,-62.03,-55.651,-35.908,-59.569,-65.563,-63.127,-63.972,-51.246,-62.9,-66.203,-66.271,-64.437,-54.753,-64.483,-65.148,-66.371,-65.973],[1480.75,581.804,132.56,180.54,18.852,232.099,31.589,11.505,-23.846,-51.821,97.328,-9.18,-42.46,-53.042,-53.591,-29.273,-57.293,-65.246,-61.134,-64.436,-46.233,-59.186,-64.409,-65.711,-67.782,-53.359,-62.061,-66.218,-67.137,-65.889],[1829.883,944.237,375.973,169.524,87.811,286.839,94.517,21.32,-18.223,-38.99,119.697,25.75,-27.2,-48.704,-55.194,-21.466,-44.848,-57.605,-62.516,-65.013,-44.338,-57.536,-64.031,-63.317,-65.709,-50.419,-58.76,-64.466,-65.934,-66.63]]
}