{
"KTrans": [[-26.283,-0.676,-2.538,-5.045,-6.146,-24.699,-3.739,-1.83,-4.936,-0.818,-26.09,-3.991,-0.004,-5.733,-4.702,-32.568,-11.02,-6.511,-1.91,-4.556,-34.204,-5.5,-2.626,-7.002,3.739,-13.128,-4.719,-6.817,-0.637,1.755],[-71.787,-25.554,-10.817,-9.211,-8.224,-72.695,-20.029,-5.931,-7.334,-5.514,-74.466,-17.414,-12.266,-8.521,-7.371,-71.349,-24.405,-10.305,-11.373,-8.205,-76.685,-25.465,-9.351,-0.284,-9.02,-70.048,-16.409,-9.994,-7.937,-3.082],[-82.589,-47.935,-27.161,-10.985,-7.836,-84.998,-43.578,-25.039,-10.704,-10.604,-84.164,-45.174,-13.824,-15.279,-10.804,-85.698,-47.749,-22.255,-10.936,-10.259,-86.39,-48.379,-14.877,-9.091,-7.207,-86.088,-51.487,-20.275,-8.826,-6.74],[-90.775,-64.548,-36.134,-18.112,-15.394,-90.997,-64.096,-34.359,-13.886,-4.9,-91.308,-65.485,-36.447,-12.752,-11.057,-93.449,-60.172,-25.75,-15.074,-15.027,-93.317,-59.923,-37.437,-21.092,-10.133,-94.257,-64.341,-33.5,-11.034,-7.076],[-94.651,-76.299,-50.016,-24.938,-17.706,-96.129,-74.064,-42.145,-26.918,-16.069,-95.318,-72.991,-45.517,-27.639,-14.662,-95.342,-72.935,-53.842,-24.744,-16.836,-93.813,-73.578,-52.905,-20.769,-15.327,-93.655,-75.345,-54.653,-33.542,-13.189],[-97.864,-80.026,-59.501,-40.61,-30.657,-96.894,-79.721,-53.328,-40.581,-25.174,-96.805,-84.167,-60.119,-40.049,-25.586,-97.442,-80.508,-54.802,-37.555,-26.099,-95.476,-80.705,-55.237,-43.969,-24.158,-98.112,-79.155,-71.622,-43.794,-21.274]],
"ve": [[-8.026,8.89,-76.025,302.697,62.251,14.328,80.515,81.904,54.193,33.841,-7.401,63.637,-0.721,63.752,-31.277,-10.915,5.793,20.317,92.52,82.854,-19.219,-10.999,33.769,-122.048,143.106,17.161,-2.56,76.561,59.079,-1.598],[-46.441,-14.024,-4.548,-4.974,-2.675,-34.477,-10.647,-7.329,-3.798,-1.673,-38.967,-8.518,-8.609,-3.235,-1.753,-40.619,-13.983,-5.291,-2.514,-3.123,-46.15,-15.611,-5.469,-2.921,-1.666,-39.841,-6.305,-7.383,-2.117,-0.872],[-84.559,-31.944,-13.126,-8.353,-5.692,-65.508,-20.925,-16.935,-9.696,-6.385,-58.5,-32.056,-11.374,-9.676,-6.458,-55.532,-32.511,-15.09,-8.833,-6.799,-61.3,-29.048,-13.669,-7.678,-5.791,-51.5,-32.96,-13.826,-7.9,-5.213],[-66.799,-41.275,-26.908,-15.576,-10.785,-68.632,-23.391,-26.971,-13.992,-7.493,-49.905,-47.866,-26.312,-12.524,-7.723,-53.807,-42.802,-24.508,-15.266,-14.391,-68.042,-34.539,-24.738,-17.186,-9.754,-89.135,-45.824,-24.671,-13.813,-11.153],[-79.487,-50.666,-33.686,-21.433,-14.375,-85.768,-58.728,-32.81,-24.297,-14.313,-81.205,-51.158,-31.513,-22.517,-12.75,-85.228,-65.196,-42.013,-19.678,-12.925,-73.674,1.778,-38.714,-19.658,-15.26,-73.702,-49.777,-35.401,-19.503,-15.777],[-94.452,-60.47,-27.951,-28.135,-24.755,-2687.473,-58.904,-36.379,-31.088,-24.83,-82.186,-66.99,-42.768,-28.371,-18.899,-89.569,-63.144,-28.596,-28.65,-25.197,282.681,-52.132,-39.141,-31.65,-18.232,-100.681,-54.168,-58.633,-32.033,-17.019]],
"kep": [[-23.457,-2.216,-6.294,-11.603,-18.858,-28.159,-7.055,-4.565,-17.976,-2.582,-28.433,-6.562,-4.094,-13.746,-14.601,-31.565,-14.007,-10.903,-6.205,-11.79,-31.105,-7.386,-7.808,-17.254,-0.147,-21.909,-6.597,-14.472,-9.64,-0.707],[-71.47,-16.526,-7.099,-4.183,-4.984,-70.326,-16.127,1.463,-3.564,-3.435,-75.905,-12.789,-4.402,-5.149,-5.188,-75.163,-15.321,-5.265,-7.798,-4.666,-79.231,-13.549,-4.436,2.452,-6.921,-69.733,-13.165,-3.012,-5.963,-1.677],[-80.509,-41.208,-16.759,-3.69,-2.478,-82.423,-39.715,-11.92,-1.47,-4.385,-81.405,-40.598,-4.706,-6.165,-4.527,-83.196,-37.712,-9.374,-2.953,-3.194,-81.626,-41.808,-2.943,-2.069,-1.531,-86.289,-44.351,-10.125,-2.175,-1.896],[-87.177,-58.464,-23.673,-3.933,-4.615,-88.839,-60.693,-21.188,-0.792,1.255,-88.919,-61.927,-26.846,-2.864,-4.528,-91.398,-57.605,-16.976,-0.448,-0.635,-90.87,-57.299,-24.899,-4.794,-0.783,-91.454,-61.984,-19.893,1.688,4.3],[-91.922,-71.773,-44.166,-10.656,-4.716,-93.051,-69.942,-40.341,-8.153,-3.383,-91.264,-68.511,-42.642,-11.131,-2.909,-90.798,-66.501,-48.933,-11,-5.002,-91.465,-68.735,-46.534,-9.745,-0.613,-91.924,-68.442,-51.346,-20.062,1.974],[-93.751,-75.099,-53.618,-29.348,-10.392,-93.028,-71.771,-47.466,-32.138,-6.712,-93.07,-76.329,-53.747,-27.061,-10.062,-94.052,-74.657,-52.176,-31.778,-6.83,-92.351,-75.449,-52.982,-38.329,-10.141,-93.831,-75.134,-66.489,-32.968,-7.775]],
"vp": [[1658.991,1323.591,926.972,1153.814,611.919,259.945,156.061,146.764,210.229,186.832,156.889,140.561,69.383,118.338,116.361,38.376,24.251,13.831,12.131,22.545,17.451,8.17,8.161,13.612,8.79,4.46,2.994,3.987,2.067,3.235],[5110.912,3651.862,2499.983,3022.812,3212.199,939.729,586.022,724.456,560.668,572.889,548.655,206.164,371.939,293.417,255.366,104.797,65.56,56.887,55.435,52.107,56.767,42.243,25.536,20.505,25.536,22.314,9.465,15.766,10.226,11.979],[5180.253,6922.242,4397.59,4588.155,4130.415,1203.976,985.54,1129.853,976.225,886.58,573.124,632.441,327.715,442.529,452.868,114.782,145.925,107.714,97.758,78.119,62.231,65.601,47.511,36.102,43.882,33.672,33.99,21.907,17.803,16.928],[6780.978,9299.645,8915.994,6424.055,5957.34,1464.349,1698.624,1726.056,1171.521,973.334,744.325,986.935,842.105,508.818,445.126,166.473,168.755,154.57,136.694,175.772,77.213,75.931,80.713,77.024,55.318,39.763,48.828,40.188,29.894,31.532],[8132.484,10896.055,11005.054,9060.238,7785.55,1689.798,2244.1,2120.187,2103.18,1626.025,844.681,998.688,1070.953,1152.602,653.153,163.681,209.434,258.449,167.875,138.928,72.434,115.262,124.217,86.573,85.023,37.45,50.147,63.242,40.475,41.468],[9443.365,12444.152,15028.504,12148.282,13396.112,1684.164,2368.581,1963.694,2494.788,2890.535,833.038,1352.758,1266.473,1253.164,954.682,185.698,253.699,271.579,229.564,292.501,71.342,114.656,121.234,136.191,99.337,48.083,56.33,88.301,71.717,46.187]]
}