{
"KTrans": [[-0.165,-0.767,-1.074,-0.901,-0.448,0.665,-0.001,1.195,-0.676,-0.659,-0.152,0.772,-0.106,-0.132,-0.422,1,0.021,-1.313,-0.558,0.715,0.424,-0.328,-1.3,0.896,0.029,-0.639,2.12,0.32,-0.56,0.165],[1.69,4.067,-0.505,0.219,-0.259,8.152,-1.242,-1.385,-0.149,0.31,9.268,3.1,0.447,-1.257,0.154,6.075,4.102,-0.438,1.63,-1.681,3.487,0.589,-0,1.062,-0.115,3.706,4.136,0.273,1.04,-0.847],[18.938,0.913,5.406,2.129,-0.086,20.364,3.498,1.054,0.681,-1.063,23.729,3.857,0.458,-0.096,-0.03,19.438,7.895,2.91,-1.237,1.005,21.73,1.885,0.062,2.202,-1.093,12.018,0.097,-0.503,-0.427,2.188],[-1.364,10.601,3.991,-1.275,1.154,8.314,15.899,8.553,1.809,2.064,-5.093,7.409,6.014,3.225,1.69,1.995,18.165,2.696,2.336,0.915,-0.349,3.114,4.585,3.695,-0.109,6.727,8.243,11.184,1.567,-0.776],[-27.763,15.444,6.196,4.725,3.627,-26.964,22.839,8.686,1.932,0.35,-26.545,18.207,9.832,5.157,-1.216,-24.801,23.606,12.668,8.425,-1.602,-22.092,21.882,4.797,-0.054,3.189,-22.627,18.847,11.182,6.877,0.415],[-36.566,22.727,9.282,11.366,4.051,-33.768,14.181,16.037,6.184,5.427,-46.327,14.386,19.485,5.691,6.413,-38.209,33.049,13.59,9.328,1.759,-37.296,11.19,16.369,4.908,4.77,-47.772,25.917,14.779,8.191,1.282]],
"ve": [[-0.31,-0.213,0.301,0.613,0.976,-0.207,-0.151,-0.13,0.596,0.969,-0.518,-0.149,0.114,0.376,0.879,-0.284,-0.164,0.339,0.563,0.201,-0.323,-0.104,0.33,0,0.649,-0.493,-0.196,0.04,0.637,0.535],[-0.426,0.107,-0.435,-0.267,-0.284,-0.203,-0.956,-0.59,-0.309,-0.192,0.111,-0.398,-0.483,-0.399,-0.139,0.587,-0.073,-0.726,-0.198,-0.276,-0.191,-0.452,-0.466,-0.243,-0.26,-0.979,-0.093,-0.549,-0.373,-0.316],[0.872,-0.813,0.303,-0.555,-0.442,1.109,-0.264,-0.284,-0.511,-0.597,1.301,0.1,-0.506,-0.576,-0.282,0.584,0.786,0.057,-0.737,-0.358,1.126,-0.246,-0.695,-0.154,-0.502,0.105,-0.887,-0.591,-0.452,-0.447],[-7.185,-0.023,-0.515,-1.041,-0.546,-5.207,2.169,-0.072,-0.85,-0.026,-5.091,-0.611,-0.235,-0.195,-0.638,-6.998,2.852,-0.358,-0.058,-0.787,-9.48,-0.079,0.096,-0.059,-0.319,-7.713,-0.341,0.83,-0.73,-0.656],[-24.828,0.697,-0.395,-0.448,-0.35,-20.994,2.794,0.743,-0.5,-0.62,-19.375,0.743,0.579,0.203,-0.838,-20.905,2.599,1.779,0.849,-1.083,-13.488,2.718,-0.219,-0.759,-0.201,-20.919,0.054,1.585,0.839,-0.328],[-25.701,0.881,-0.556,1.307,-0.315,-25.359,0.308,1.723,0.692,0.222,-28.88,-2.115,1.773,0.518,-0.202,-25.414,3.529,1.441,0.339,0.035,-22.635,-0.861,1.828,-0.271,0.795,-28.523,3.303,0.561,0.705,-0.952]],
"kep": [[0.021,-0.54,-1.239,-1.257,-0.97,0.748,0.161,1.438,-0.99,-1.167,0.258,0.935,-0.099,-0.227,-0.878,1.181,0.2,-1.52,-0.84,0.974,0.64,-0.214,-1.515,1.168,-0.169,-0.262,2.333,0.411,-0.895,0.093],[0.863,3.674,-0.176,0.412,0.007,7.125,-0.506,-0.909,0.101,0.476,7.507,3.287,0.807,-0.907,0.26,4.174,3.907,0.184,1.78,-1.428,2.8,0.823,0.365,1.257,0.121,3.592,3.987,0.735,1.361,-0.549],[14.264,1.042,4.721,2.527,0.236,14.517,2.914,0.938,1.018,-0.571,17.695,2.841,0.615,0.338,0.121,14.37,6.318,2.487,-0.662,1.267,15.565,1.363,0.419,2.178,-0.71,8.224,0.29,-0.214,-0.158,2.562],[4.621,8.79,3.856,-0.59,1.519,10.73,11.178,7.932,2.382,1.824,-2.367,6.26,5.367,3.079,2.146,6.763,12.067,2.577,2.012,1.526,7.159,1.684,3.719,3.35,-0.031,12.496,7.037,9.683,2.015,-0.347],[-16.942,10.893,5.236,4.458,3.69,-19.526,15.104,6.429,1.746,0.625,-17.518,13.914,7.853,4.417,-0.61,-14.056,15.86,9.272,6.831,-0.776,-15.27,14.042,4.021,0.077,2.895,-15.017,15.018,8.077,5.217,0.279],[-27.029,16.524,8.19,8.57,3.804,-26.702,8.969,11.302,4.234,4.534,-36.928,12.989,14.521,4.245,6.056,-33.534,22.762,9.385,7.955,1.143,-31.674,8.587,11.757,4.142,3.254,-38.505,16.807,11.672,6.307,1.74]],
"vp": [[16.676,114.997,34.425,31.272,122.816,4.38,15.567,16.815,13.333,12.892,5.67,7.258,6.968,6.187,10.427,0.878,1.625,0.388,1.537,1.722,0.369,0.48,0.537,0.859,1.1,0.207,0.543,0.342,0.595,0.456],[-13.007,41.464,104.651,142.089,249.138,9.86,28.624,24.492,31.665,33.597,1.638,16.057,18.903,12.917,9.501,-1.635,2.085,5.245,4.279,2.647,-0.108,0.813,1.492,2.022,2.418,0.434,0.533,1.095,1.472,1.252],[-85.06,97.338,41.07,402.709,219.733,-20.14,5.365,3.004,49.243,50.43,-9.152,-5.933,9.266,22.225,7.722,-0.986,-2.147,-0.017,4.52,5.684,-0.857,-0.243,1.72,1.553,1.504,-0.172,0.44,0.484,0.559,2.502],[742.713,55.986,213.389,290.144,348.765,113.373,-74.391,50.136,85.033,7.257,44.977,10.398,15.304,15.795,46.156,14.479,-10.879,2.025,-0.092,10.065,10.007,-0.892,-0.269,1.114,0.006,4.251,0.428,0.089,1.776,1.025],[2572.983,-150.773,119.834,274.01,344.166,424.909,-107.689,-41.959,23.574,40.365,195.421,-10.102,-9.307,-2.17,23.128,43.397,-9.032,-9.251,-3.505,7.214,13.101,-5.418,0.197,1.259,1.434,10.869,0.404,-2.226,-1.337,-0.104],[2597.432,-136.638,211.251,-386.908,235.534,519.645,-24.38,-96.157,-72.722,-4.89,287.531,48.31,-37.105,-29.182,34.989,50.705,-12.55,-8.421,0.569,-3.952,22.266,1.333,-4.77,0.977,-4.898,14.12,-3.319,-0.461,-1.206,2.252]]
}