{
"KTrans": [[-13.371,-10.252,-7.319,-7.764,-3.686,-12.175,-7.783,-8.543,-4.27,-5.451,-15.824,-5.851,-6.741,-4.033,-3.609,-11.913,-11.791,-4.135,-6.195,-4.003,-11.12,-7.934,-6.579,-6.555,-1.797,-13.952,-9.574,-7.337,-5.323,-4.938],[-33.302,-17.562,-6.975,-10.383,-6.519,-26.893,-16.467,-10.833,-13.271,-5.242,-36.468,-15.261,-7.797,-8.091,-7.006,-34.163,-14.28,-12.249,-11.656,-12.933,-35.574,-6.994,-13.706,-12.076,-9.708,-27.493,-15.117,-14.39,-7.766,-7.133],[-65.236,22.289,-13.659,-14.758,-15.237,-68.406,9.498,-13.58,-11.971,-12.543,-78.165,-11.724,-15.924,-14.425,-11.927,-72.523,21.861,-11.642,-12.959,-12.327,-62.75,0.366,-10.804,-14.444,-13.965,-59.111,4.018,-12.599,-12.86,-13.694],[-92.308,-23.218,3.151,-6.749,-14.38,-79.095,-31.781,8.296,-16.053,-14.156,-90.956,-39.359,-2.82,-17.931,-14.109,-88.503,-7.332,2.705,-16.914,-16.45,-90.142,-33.622,-6.548,-14.171,-14.748,-90.391,-28.831,-12.54,-17.216,-14.155],[-96.252,-54.233,0.994,2.327,-9.87,-104.346,-59.134,-9.641,12.988,-12.281,-100.699,-58.614,-16.226,-15.904,-23.88,-107.417,-50.113,12.887,-2.182,-10.791,-104.228,-57.959,-8.705,1.022,-16.365,-88.597,-59.398,19.348,-7.937,-14.897],[-100.984,-75.168,-39.416,50.052,5.018,-99.115,-67.19,-43.033,95.906,-9.911,-104.398,-73.532,-48.411,11.533,-7.506,-106.62,-67.63,-33.629,40.988,-5.439,-107.176,-71.264,-20.631,87.736,-18.227,-106.079,-63.882,-25.85,76.767,4.478]],
"ve": [[-9.442,-1.655,2.5,9.033,10.017,-8.076,-2.041,2.578,6.488,12.95,-9.298,-1.891,2.415,6.013,9.491,-8.165,-1.372,2.076,6.465,11.109,-8.935,-1.797,3.304,7.199,8.058,-7.664,-1.98,2.602,6.58,10.623],[-38.929,-16.059,-7.761,-4.864,-3.293,-31.325,-16.377,-10.036,-6.356,-4.508,-41.602,-14.143,-8.347,-5.927,-4.051,-31.646,-12.051,-8.963,-5.819,-4.118,-36.813,-11.096,-10.004,-6.081,-3.947,-37.444,-14.427,-9.94,-4.865,-3.853],[-63.061,-16.592,-16.645,-11.47,-10.786,-53.441,-22.055,-16.132,-10.275,-9.765,-72.357,-22.492,-16.466,-11.57,-9.803,-62.364,-20.872,-14.152,-11.452,-8.876,-54.97,-27.757,-14.907,-13.631,-10.077,-49.576,-19.077,-13.05,-12.163,-9.139],[-86.071,-34.342,-18.399,-15.103,-11.47,-69.743,-40.787,-16.577,-16.227,-13.291,-82.103,-40.816,-15.961,-18.622,-15.023,-85.397,-37.925,-18.204,-17.284,-14.41,-84.012,-34.108,-19.184,-15.188,-13.214,-79.157,-40.493,-24.93,-17.95,-11.825],[-90.15,-49.438,-28.022,-16.122,-16.104,-104.061,-49.663,-37.508,-11.004,-16.139,-98.845,-56.603,-41.963,-23.05,-19.246,-110.898,-48.864,-34.196,-15.513,-13.531,-101.631,-53.499,-36.882,-18,-18.306,-78.646,-55.242,-28.221,-23.841,-16.693],[-96.266,-59.107,-46.006,-22.244,-12.776,-94.284,-56.772,-47.246,-14.86,-21.537,-107.22,-61.918,-53.389,-29.414,-22.531,-103.157,-61.668,-32.715,-24.45,-19.981,-114.017,-63.702,-39.936,-22.71,-22.196,-111.481,-57.653,-43.071,-17.695,-18.259]],
"kep": [[-4.762,-8.371,-8.348,-12.011,-8.484,-4.459,-5.566,-9.422,-6.976,-10.811,-7.557,-3.722,-8.024,-7.406,-8.233,-4.685,-10.192,-5.122,-9.994,-8.988,-2.589,-5.989,-8.469,-10.388,-4.98,-6.831,-7.428,-8.46,-8.895,-10.473],[-40.528,-1.882,0.648,-5.946,-3.274,-24.814,-0.481,-0.713,-7.31,-0.674,-38.19,-1.833,0.381,-2.344,-3.021,-28.567,-3.21,-3.69,-6.119,-8.951,-34.401,3.275,-4.12,-6.3,-5.826,-36.767,-0.99,-4.65,-3.198,-3.33],[-45.875,21.828,4.011,-3.775,-4.575,-51.797,20.909,2.665,-2.277,-3.004,-52.846,1.107,0.714,-3.205,-2.346,-51.266,26.431,1.529,-1.452,-3.619,-47.118,17.614,3.999,-0.645,-4.074,-47.16,13.897,-0.341,-0.655,-4.916],[-58.147,-18.755,20.109,8.275,-3.325,-56.856,-29.721,19.611,0.363,-1.174,-57.756,-39.049,9.864,1.733,0.872,-57.095,-21.146,17.222,0.73,-2.106,-52.561,-29.851,12.598,1.794,-1.817,-57.695,-22.336,14.561,0.82,-2.719],[-62.009,-39.443,-17.694,17.564,6.111,-66.792,-37.423,-33.641,21.246,3.42,-64.708,-40.782,-56.761,8.832,-3.744,-64.418,-35.412,-34.877,12.384,1.55,-63.905,-34.851,-20.946,18.68,3.358,-64.385,-40.957,-6.24,18.03,1.818],[-65.526,-54.152,-31.428,35.583,13.373,-69.683,-45.954,-31.094,26.224,12.93,-66.833,-50.962,-39.662,16.422,16.894,-71.626,-43.687,-30.898,11.643,15.474,-70.017,-46.899,-19.08,36.109,5.911,-70.499,-43.27,-22.815,31.506,19.466]],
"vp": [[1180.755,1286.423,844.857,890.697,1043.767,194.827,236.261,245.15,154.693,216.637,118.139,134.728,111.37,146.006,112.264,20.708,15.367,22.386,24.732,19.988,10.857,9.015,10.828,9.857,12.887,4.645,6.354,5.5,5.896,6.315],[4024.006,3508.183,3222.297,2446.332,3322.509,641.484,744.206,810.091,681.908,902.595,437.893,313.363,349.422,342.832,392.075,66.282,48.377,67.483,61.903,70.11,38.364,25.196,36.383,34.4,36.623,19.577,16.421,18.36,13.391,18.935],[6888.403,3548.368,5828.72,5030.457,6666.563,1065.795,932.591,1092.059,914.845,1248.751,722.6,440.559,541.25,531.043,635.325,123.105,89.141,92.587,106.166,108.204,55.402,60.285,49.912,65.889,62.14,24.679,19.534,20.161,28.317,27.261],[8774.94,6829.116,6054.696,6988.167,6093.109,1383.641,1672.92,1035.659,1388.668,1494.346,824.874,835.413,465.862,819.493,869.193,172.866,163.787,114.542,150.548,160.083,85.062,68.017,58.553,67.122,73.664,39.768,42.021,40.614,38.879,31.436],[9092.982,9807.508,8476.531,7183.748,8705.603,2082.595,1970.961,2300.849,962.159,1708.247,1012.447,1172.579,1286.891,964.593,970.122,227.442,203.299,213.942,128.038,132.948,105.446,109.18,116.538,78.592,99.751,38.321,56.35,45.377,53.341,44.833],[9562.25,11560.509,14320.472,10357.89,6557.384,1874.236,2206.953,2883.076,1203.13,2384.167,1086.675,1274.231,1708.515,1267.061,1268.299,219.382,241.545,188.497,210.054,219.874,115.157,125.635,124.81,104.504,117.216,53.618,58.245,66.729,39.142,49.811]]
}