{
"KTrans": [[-38.32,20.571,1.684,-2.685,2.459,-29.405,4.454,30.09,5.866,9.018,-36.722,-4.047,4.722,4.571,18.379,-44.844,5.313,28.964,1.969,4.073,-42.27,12.924,9.976,7.24,19.774,-35.632,4.232,14.856,4.723,24.996],[-91.594,-53.695,-26.194,-23.717,-13.243,-95.274,-55.147,-17.09,-21.311,-7.31,-94.048,-62.677,-5.603,-17.812,-13.265,-91.438,-64.763,-31.912,-18.312,-13.798,-95.934,-55.986,-18.908,-22.481,-16.792,-91.807,-62.968,-33.002,-14.172,-5.222],[-102.237,-83.7,-67.65,-36.462,-28.066,-98.898,-86.84,-57.522,-30.928,-20.862,-94.997,-87.12,-58.156,-33.182,-20.319,-101.328,-86.697,-54.326,-42.461,-23.311,-96.846,-77.146,-62.87,-28.782,-24.912,-98.207,-85.531,-60.384,-29.898,-18.734],[-99.167,-93.182,-74.696,-62.857,-41.471,-102.436,-95.86,-85.641,-65.423,-48.002,-100.827,-96.63,-86.395,-65.581,-43.051,-101.96,-94.629,-73.949,-59.989,-37.638,-99.528,-95.508,-77.374,-31.747,-36.035,-99.057,-97.701,-75.017,-50.276,-43.508],[-100.144,-98.059,-91.324,-76.899,-61.654,-99.649,-98.235,-75.323,-79.099,-67.423,-103.068,-94.67,-86.669,-72.29,-54.596,-102.443,-94.744,-75.516,-81.743,-51.802,-102.509,-98.305,-83.297,-80.099,-62.136,-100.988,-93.506,-90.429,-78.371,-62.027],[-101.447,-98.166,-92.067,-88.996,-66.408,-101.849,-99.878,-91.21,-83.15,-68.73,-100.272,-97.554,-99.444,-83.691,-70.023,-101.269,-101.926,-93.326,-85.731,-77.28,-101.036,-97.75,-94.341,-86.387,-70.61,-101.257,-97.448,-92.253,-84.071,-64.058]],
"ve": [[-1359.375,-31.916,480.855,-90.08,0.126,-124.724,-51.657,-60.407,6.938,7.551,14.695,104.115,-202.038,-437.9,12.532,103.469,-9.58,1.463,-29.846,-69.093,-151.098,-71.609,-449.927,-459.891,-286.022,-378.862,-12.594,-65.957,17.336,-1.886],[-57.356,-44.117,-2.457,-9.685,3.764,-86.186,-31.268,-16.478,-5.532,10.31,-89.58,-23.632,-33.465,7.614,24.528,-75.473,-30.162,-6.086,-3.989,14.425,-69.829,-43.027,-2.272,-13.859,-4.053,-79.675,-38.502,-23.587,-11.791,-3.486],[-110.493,-76.393,-45.585,-30.81,-20.48,-87.923,-50.947,-53.512,-25.729,-14.843,-115.171,-63.857,-18.841,-25.131,-21.921,-113.772,-274.78,-39.703,-20.705,-13.016,-155.782,-77.389,-48.174,-26.507,-10.934,-98.269,-45.289,-297.107,-12.985,-19.368],[-82.459,-81.316,-44.266,-46.496,-18.991,-208.592,-79.245,-42.301,-56.026,-35.562,-124.868,-101.61,-64.91,-52.197,-32.647,-95.233,-86.226,-48.918,-44.758,-10.57,-140.765,-10.778,-58.119,-40.396,-32.632,-86.135,-104.62,-54.672,-41.994,-29.584],[-94.793,-88.92,-62.405,-66.172,-29.91,-44.365,-86.871,-71.647,-64.691,-54.256,-125.245,-84.199,-70.836,-66.565,-25.511,-106.661,-86.489,-65.667,-68.016,-45.97,-109.904,-114.65,-53.54,-180.708,-53.212,-104.229,-69.612,-76.808,-76.094,54.004],[-79.75,-98.213,-76.096,-79.621,-56.416,-114.456,-85.233,-83.168,-65.401,-57.496,-32.725,-113.86,-87.835,53.262,-58.639,-98.832,-94,-7.264,-74.307,-82.657,-100.035,-110.371,-81.939,-41.6,-77.114,-676.91,-76.389,-76.473,-72.692,-34.644]],
"kep": [[-68.257,2.776,-16.045,-30.056,-21.394,-59.943,-19.357,9.676,-4.556,-9.817,-64.302,-32.241,-3.215,-14.861,5.713,-64.549,-11.073,14.545,-14.226,-25.556,-75.868,-16.159,-19.096,-13.428,3.057,-66.366,-15.321,-6.546,-15.684,10.179],[-96.058,-51.545,-17.497,-19.076,-9.273,-98.671,-52.923,-8.313,-16.109,-7.624,-96.852,-60.048,1.715,-10.031,-8.035,-90.104,-73.266,-24.339,-13.325,-11.544,-95.141,-54.911,-9.912,-16.147,-10.27,-92.997,-58.968,-26.313,-4.143,-1.919],[-95.298,-87.342,-53.336,-21.13,-11.948,-96.842,-91.962,-46.571,-19.538,-4.587,-99.133,-85.429,-42.824,-17.217,-3.815,-96.512,-83.455,-42.978,-25.158,-8.576,-98.796,-79.183,-47.291,-10.728,-8.914,-98.045,-86.239,-47.069,-19.085,-3.472],[-95.245,-93.025,-70.056,-44.682,-21.805,-99.147,-94.52,-79.516,-47.07,-25.317,-95.914,-89.727,-77.248,-46.403,-19.878,-96.392,-93.584,-72.996,-38.057,-13.926,-96.255,-93.609,-73.284,-33.72,-9.91,-98.409,-94.871,-69.081,-36.96,-27.468],[-97.32,-94.079,-91.494,-65.368,-35.856,-99.024,-96.727,-76.835,-69.867,-49.619,-97.287,-91.676,-83.604,-63.608,-30.361,-96.712,-93.494,-86.593,-75.983,-37.703,-98.662,-93.83,-92.961,-71.914,-39.493,-97.3,-92.514,-85.961,-73.096,-43.789],[-97.436,-92.19,-89.756,-83.815,-53.473,-97.844,-95.303,-92.138,-79.108,-62.653,-98.913,-96.862,-95.834,-82.974,-54.166,-97.831,-95.185,-88.929,-79.699,-64.857,-98.018,-90.9,-91.961,-82.419,-52.114,-96.614,-93.706,-91.221,-83.75,-60.96]],
"vp": [[3318.325,1819.096,2429.783,2485.584,2488.334,521.513,476.9,227.399,541.217,476.874,298.165,262.752,273.525,216.866,161.897,70.498,48.117,40.678,48.892,64.48,33.884,12.923,14.163,21.561,9.485,17.579,14.161,5.578,11.471,4.746],[7500.071,8658.759,8518.071,7049.989,8750.487,1776.463,1765.011,1595.596,1301.73,1474.466,907.41,1038.962,870.825,759.353,767.445,176.775,196.329,180.294,128.339,147.223,84.953,99.883,72.387,76.143,99.814,38.63,46.918,44.335,40.609,32.508],[11039.92,15145.398,16709.783,12977.203,13878.368,1862.624,3230.446,3240.996,2920.885,2308.005,935.563,1546.604,1453.637,1517.427,1397.751,208.611,251.717,303.684,293.703,276.035,102.048,155.516,160.896,141.97,148.62,49.121,72.695,74.014,73.773,65.553],[9091.528,16844.783,20012.672,21332.913,18621.106,2131.525,3722.703,4296.981,4402.185,4084.535,1062.033,1865.053,2375.757,2304.586,1867.864,216.209,367.109,411.636,409.275,404.843,99.249,175.718,202.794,192.433,211.759,50.576,92.285,98.163,92.375,82.047],[9740.607,18851.122,24641.115,27697.216,27759.633,1881.054,3883.249,4119.265,5477.987,6078.568,1152.918,1929.762,2245.097,2731.146,2626.6,227.308,341.567,451.946,639.224,540.403,98.585,192.115,244.649,291.743,266.185,54.288,83.265,123.353,135.42,130.041],[11287.825,19667.062,26314.459,34748.654,33775.402,2125.107,4274.072,5216.811,5509.811,6093.061,980.456,2076.719,2915.016,3045.706,3247.66,221.892,432.748,513.364,585.105,674.267,106.352,182.31,253.506,331.364,314.128,54.06,94.518,136.294,149.015,151.644]]
}