{
"KTrans": [[-28.7,-3.387,9.762,1.492,-7.612,-27.771,0.604,-7.332,-5.384,-3.126,-25.275,-16.716,-7.596,-4.549,-1.109,-34.619,-8.786,2.191,-7.413,3.485,-39,5.703,-11.451,-10.69,2.253,-30.684,-5.401,-2.141,-9.043,-3.396],[-90.051,-58.205,-20.006,-13.171,-16.399,-94.399,-49.313,-16.502,-15.911,-14.351,-84.644,-43.091,-27.127,-17.892,-11.776,-94.204,-49.799,-9.523,-19.491,-9.955,-89.646,-51.198,-27.33,-18.027,-13.575,-90.444,-51.852,-26.099,-21.298,-15.848],[-97.152,-83.021,-45.797,-31.045,-30.3,-94.159,-82.22,-53.801,-32.717,-23.567,-94.213,-83.21,-41.217,-26.839,-16.945,-94.319,-76.954,-47.982,-25.945,-24.211,-99.459,-67.666,-49.994,-27.691,-19.712,-95.625,-78.736,-42.81,-30.471,-21.036],[-102.582,-94.437,-65.273,-45.804,-30.551,-100.026,-89.456,-71.856,-39.015,-27.26,-100.215,-87.069,-70.493,-34.976,-30.938,-101.488,-86.467,-71.633,-35.933,-30.367,-100.205,-92.597,-79.19,-41.179,-35.833,-97.761,-86.602,-71.791,-48.587,-30.621],[-103.069,-96.667,-79.678,-54.21,-38.487,-102.311,-93.983,-76.841,-60.517,-50.86,-101.073,-92.339,-85.132,-62.145,-48.986,-101.411,-96.474,-78.491,-53.335,-49.147,-102.752,-96.114,-77.514,-69.32,-40.327,-101.458,-96.376,-77.168,-57.631,-44.758],[-102.795,-97.482,-90.376,-75.23,-62.65,-99.573,-93.867,-93.291,-53.895,-53.746,-104.823,-101.337,-83.077,-74.108,-58.573,-101.754,-96.676,-90.437,-64.576,-34.095,-102.181,-98.329,-80.351,-78.342,-54.827,-102.202,-102.119,-90.751,-81.222,-63.291]],
"ve": [[-162.759,25.844,-11.48,-21.345,-11.701,-30.215,9.147,128.583,-57.523,-58.961,-3.25,11.858,82.179,-39.537,61.704,18.117,94.942,0.283,626.234,-96.418,-37.514,2.758,-484.127,572.812,-1626.38,-1.451,-1981.016,-66.992,-79.417,23.491],[-70.437,-1.53,-16.965,-10.12,-5.554,-77.916,-34.7,-13.012,-10.862,-6.963,-5.611,83.83,-17.627,-10.773,-4.289,-87.235,-50.582,-12.522,-10.491,-5.626,-67.118,-8.625,-16.139,-9.889,-4.498,-62.113,-25.601,-16.411,-9.81,-6.755],[-90.529,-40.228,-39.118,-23.723,-20.111,-473.917,-58.384,-37.846,-25.504,-19.008,-76.484,-31.3,-37.494,-24.825,-17.606,-129.267,-54.788,-42.723,-24.548,-17.079,-101.899,-36.014,-41.413,-20.763,-16.764,-91.717,-62.732,-992.264,-22.938,-15.437],[-108.264,-87.263,-56.953,-33.944,-27.346,-98.658,-85.437,-62.389,-36.733,-27.45,-76.277,-93.026,-54.185,-32.807,-28.162,-94.223,-82.584,-62.534,-36.472,-28.945,-98.497,-83.837,-61.5,-35.659,-28.921,-93.964,-79.392,-71.303,-41.396,-26.439],[-110.948,-87.607,-78.877,-54.473,-37.319,-58.3,-94.67,-68.146,-46.384,-43.261,-105.662,-81.78,-11.702,-53.448,-41.987,-91.054,-90.575,-58.969,-50.651,-45.62,-119.851,-80.625,-67.242,-57.997,-36.215,-94.903,-101.382,-67.029,-50.154,-40.305],[-102.38,-103.95,-79.796,-53.114,-56.148,-144.411,-82.199,-86.645,-62.819,-44.225,-122.263,-102.073,-111.388,-59.996,-55.312,-151.888,-103.016,-81.891,-65.547,-44.002,-140.294,-97.25,-79.192,-72.296,-54.092,-119.027,-105.833,-81.165,-76.451,-50.582]],
"kep": [[-45.628,-10.413,5.372,-5.855,-21.019,-39.889,-9.596,-14.738,-17.408,-13.928,-33.68,-23.14,-10.515,-13.389,-14.02,-48.235,-11.625,-1.036,-18.378,-5.654,-50.631,1.783,-21.775,-24.958,-1.954,-35.95,-12.429,-9.343,-23.41,-18.448],[-95.169,-41.345,-6.466,-3.638,-11.157,-96.142,-29.832,-6.371,-6.097,-6.73,-87.663,-31.669,-10.342,-7.294,-7.353,-89.566,-38.473,-2.009,-8.765,-3.424,-95.508,-32.728,-14.364,-9.031,-8.427,-89.389,-35.889,-10.537,-12.935,-8.734],[-95.421,-77.037,-19.848,-10.383,-12.839,-95.633,-75.809,-33.257,-11.478,-6.548,-92.897,-86.861,-23.15,-5.078,0.052,-91.205,-74.79,-22.347,-4.519,-9.488,-94.333,-67.136,-30.841,-10.335,-3.752,-91.682,-76.097,-23.916,-11.55,-8.467],[-93.516,-91.833,-60.768,-29.162,-8.72,-92.604,-89.917,-52.397,-11.644,-5.117,-93.447,-83.31,-55.687,-19.372,-7.096,-96.904,-90.511,-61.457,-15.462,-7.892,-95.172,-89.247,-67.349,-17.112,-12.3,-94.303,-89.212,-59.624,-20.341,-8.349],[-92.949,-93.093,-86.799,-36.942,-12.124,-94.883,-91.328,-86.193,-43.99,-20.456,-96.867,-86.582,-80.056,-52.461,-21.743,-94.394,-89.856,-78.97,-41.639,-23.021,-93.569,-87.966,-79.081,-52.065,-14.476,-95.992,-93.161,-78.962,-40.607,-16.696],[-95.963,-89.817,-87.606,-72.707,-37.717,-95.434,-86.106,-89.252,-60.342,-33.36,-93.305,-87.906,-78.878,-75.393,-42.143,-96.158,-86.134,-94.626,-68.029,-26.126,-94.35,-87.855,-80.176,-71.893,-33.941,-95.057,-85.797,-89.198,-85.876,-34.423]],
"vp": [[3190.127,2004.36,2314.623,1656.852,2267.11,544.464,430.265,346.925,500.71,456.402,274.499,216.126,206.998,230.239,226.959,53.513,41.833,43.612,41.579,37.816,31.264,19.693,24.971,29.685,21.845,12.39,11.212,10.741,9.801,12.333],[8508.91,8898.698,6837.329,6556.032,6632.099,1735.609,1744.858,1216.419,1407.186,1589.22,767.304,762.605,797.87,708.084,597.541,165.071,186.078,102.754,145.25,141.211,77.835,87.633,66.961,68.281,59.196,38.23,42.572,36.501,38.547,35.45],[9330.491,13727.424,13561.586,10433.84,12673.378,1827.816,2682.545,2427.276,2370.141,2487.778,925.604,1395.126,1308.31,1263.457,1228.839,184.977,230.337,281.775,241.335,238.078,99.014,116.293,137.621,97.234,105.7,45.946,70.277,58.638,58.187,52.786],[10900.157,19763.631,17976.103,14025.084,15736.501,2020.771,3494.241,3920.631,3440.002,3057.65,1005.396,1453.622,1678.209,1785.808,1640.244,235.279,340.549,414.233,330.754,338.378,106.349,174.978,216.005,165.821,175.069,48.698,85.917,102.989,98.55,77.752],[11270.96,18919.371,21302.798,23315.468,19676.805,2127.05,3576.767,4471.993,3862.278,4727.74,1085.245,1649.357,2328.959,2287.1,2195.282,212.635,370.64,439.735,408.11,510.163,116.426,180.836,224.738,253.799,187.381,52.71,103.315,106.158,100.496,108.55],[12358.511,20390.179,24299.303,28939.325,30419.426,2152.127,3675.631,5119.428,5417.367,4488.971,1198.133,2089.38,2165.488,2858.615,2821.017,232.412,374.585,509.539,544.95,482.279,122.134,200.505,235.786,305.957,301.665,57.052,110.106,127.492,162.679,147.358]]
}