{
"KTrans": [[1.673,1.366,1.249,1.544,2.507,1.76,1.899,2.479,2.475,1.029,0.279,2.479,1.828,2.188,1.935,23.136,13.174,9.388,7.436,10.161,50.458,30.408,22.474,24.184,16.308,-137.721,63.296,72.177,63.415,35.021],[-10.911,-2.856,-0.066,0.538,1.171,-9.552,-0.608,-0.271,0.688,1.284,-2.517,0.381,0.288,0.637,1.137,-0.575,1.288,3.616,2.508,0.632,4.54,17.484,11.336,9.998,6.915,-30.954,-40.237,25.163,16.193,16.48],[-34.509,-6.853,-1.175,-1.191,0.225,-39.194,-5.886,-1.599,-0.776,-0.017,-27.274,-5.506,-1.814,-1.068,0.943,-29.072,-4.32,-5.724,-0.874,3.412,-36.933,1.178,6.202,3.373,1.874,-46.406,-30.03,11.112,11.944,13.896],[-67.321,-10.462,-4.06,-4.131,-1.876,-64.386,-13.241,-6.513,-3.377,-1.116,-68.326,-8.327,-5.169,-3.549,-1.789,-57.617,-6.481,-2.37,0.527,-2.385,-53.828,-0.407,5.316,6.365,1.031,-53.421,-8.42,-46.672,13.131,11.673],[-81.913,-11.721,-9.972,-6.416,-2.894,-76.755,-12.986,-9.654,-4.968,-2.935,-75.632,-14.151,-10.572,-5.717,-3.074,-75.837,-10.723,-1.498,-5.543,-2.582,-74.451,-26.97,7.661,-1.942,-6.333,-73.511,-34.409,-32.301,11.479,-5.553],[-84.007,-29.093,-11.046,-8.197,-4.601,-85.971,-24.617,-10.121,-7.002,-5.55,-85.888,-26.286,-12.391,-6.403,-4.346,-79.418,-34.561,-11.451,-7.746,-4.732,-73.65,-32.778,-17.251,-9.214,-3.889,-77.334,-42.108,0.656,-5.239,-2.756]],
"ve": [[-0.147,0.855,1.608,1.892,1.421,1.41,1.274,1.029,1.145,3.668,-0.081,1.2,2.003,1.393,2.927,13.744,15.761,-17.974,-48.681,-7.225,28.84,-5.684,-20.943,-58.242,40.232,8.866,472.129,-8.379,-24.873,-37.014],[-4.902,-0.698,-0.036,0.083,0.356,-4.461,0.021,-0.005,0.475,0.307,-1.646,-0.121,-0.064,0.301,0.633,0.854,0.933,1.722,1.548,0.88,4.105,14.482,6.543,5.48,5.133,11.936,2.673,6.833,21.83,-19.535],[-20.233,-3.617,-0.416,-0.468,0.301,-23.664,-2.893,-0.196,-0.298,0.119,-15.061,-2.132,-0.601,-0.189,0.375,-7.298,-0.304,-3.349,-0.474,1.574,-6.899,-2.985,4.661,1.896,0.575,71.576,5.072,4.757,0.695,10.467],[-42.458,-5.69,-1.812,-1.519,-0.749,-40.254,-6.108,-3.03,-1.238,-0.358,-48.791,-4.22,-1.383,-1.052,-0.807,-24.658,1.039,0.389,1.562,-1.201,-20.773,9.071,5.856,4.678,0.609,-17.033,8.361,1.845,6.107,6.659],[-58.063,-6.678,-4.024,-2.252,-0.939,-48.098,-8.873,-3.531,-1.959,-0.974,-47.979,-7.13,-3.892,-1.612,-1.305,-35.682,-5.439,1.717,-1.948,-1.193,-47.572,-5.256,2.994,-1.433,-3.837,-42.326,-5.667,-3.772,7.656,-4.81],[-56.81,-20.128,-5.559,-3.407,-1.825,-53.905,-23.946,-5.057,-2.782,-2.314,-58.49,-14.951,-4.25,-2.447,-1.648,-35.998,-18.595,-3.671,-2.853,-1.891,-20.434,-7.759,-10.874,-3.538,-1.512,-27.965,-11.025,11.03,2.322,-0.112]],
"kep": [[-0.814,-1.791,-2.391,-2.04,-0.24,-2.354,-1.642,-0.571,-0.383,-3.775,-3.027,-1.035,-2.144,-0.537,-1.51,-3.805,0.145,1.518,-0.355,7.496,-14.578,-5.769,-7.956,9.355,-0.568,47.557,-28.403,6.454,12.339,-37.191],[-9.924,-4.671,-2.478,-2,-1.635,-9.235,-3.168,-2.762,-2.231,-1.481,-5.574,-2.125,-2.17,-2.162,-1.959,-30.599,-5.646,-2.021,-2.381,-3.188,-13.703,-9.416,-2.55,-0.478,-1.16,-27.052,10.471,-14.33,-11.421,-9.476],[-25.504,-6.016,-3.234,-3.172,-2.521,-30.598,-5.705,-3.861,-2.941,-2.583,-25.617,-6.583,-3.781,-3.356,-1.915,-44.682,-9.009,-7.088,-3.821,-1.184,-49.14,-27.904,-6.728,-4.322,-3.614,-49.12,-16.462,-24.97,-9.794,-3.371],[-59.781,-8.196,-4.83,-5.08,-3.562,-59.515,-11.051,-6.128,-4.625,-3.199,-67.296,-8.114,-6.342,-4.997,-3.459,-61.06,-12.378,-6.109,-4.179,-4.288,-62.065,-25.197,-7.086,-3.078,-4.583,-62.843,-32.24,-24.705,-14.295,-5.091],[-76.448,-9.977,-8.815,-6.696,-4.386,-72.042,-9.769,-8.957,-5.536,-4.405,-71.967,-12.725,-9.477,-6.612,-4.253,-74.92,-22.495,-6.832,-6.894,-4.355,-69.705,-39.13,-2.712,-6.732,-7.296,-72.067,-50.698,-38.46,-17.843,-13.218],[-78.597,-21.317,-8.837,-7.478,-5.263,-80.14,-17.296,-8.386,-6.835,-5.735,-81.374,-23.174,-11.817,-6.555,-5.227,-77.278,-43.873,-11.935,-8.369,-5.622,-76.241,-45.673,-29.51,-11.646,-6.621,-75.209,-53.027,-26.075,-29.017,-14.259]],
"vp": [[-35.539,-2.778,-66.346,-50.251,-157.402,-12.438,-19.334,-28.166,-24.941,-3.418,8.929,-7.605,-17.601,-1.801,-10.659,-15.072,-11.956,-9.284,-7.644,-16.345,-22.638,-13.165,-8.536,-17.099,-7.716,-0.565,-13.611,-25.32,-23.822,-8.235],[475.705,187.174,49.398,-15.373,-96.006,96.812,-1.82,24.195,-8.813,-17.999,22.733,-0.825,-0.874,1.364,-12.642,-2.997,-0.848,-8.346,-6.35,8.005,-1.403,-14.698,-13.605,-13.957,-8.015,-2.337,-0.582,-9.169,-3.664,-5.17],[2202.754,730.477,113.698,162.941,-81.485,500.472,106.278,9.301,32.352,-8.57,157.358,42.094,22.926,11.959,-23.785,17.284,1.112,26.202,8.536,-17.121,10.385,11.713,-13.567,-4.343,2.764,13.829,-2.568,-2.017,-4.158,-11.039],[4427.802,1173.931,564.591,582.882,306.951,819.314,233.105,178.889,98.964,29.202,524.13,79.978,39.912,44.503,38.894,51.759,-3.972,-2.415,-15.277,16.946,24.164,-17.351,-17.396,-19.908,-0.076,11.901,-4.685,1.37,-12.525,-12.927],[5865.701,1298.243,1173.118,765.727,455.025,969.666,360.78,209.743,153.847,110.152,483.475,145.746,118.982,47.402,59.398,86.293,23.453,-12.851,17.282,13.886,52.941,10.74,-8.255,9.329,24.735,23.827,8.883,7.628,-16.787,19.401],[5695.112,4341.54,1698.197,1304.627,853.737,1286.522,770.594,304.399,220.129,225.478,626.763,304.901,115.239,99.517,79.707,74.302,80.37,20.725,24.745,20.832,21.438,15.291,37.033,16.705,9.935,17.423,15.044,-17.12,-0.792,12.491]]
}