{
"KTrans": [[1.086,4.17,11.313,8.917,8.766,15.671,12.776,14.649,14.393,10.017,28.381,19.766,19.656,19.505,15.953,110.937,91.961,75.422,72.831,62.028,84.211,113.468,145.182,127.32,130.483,91.943,33.218,64.634,47.586,50.84],[-28.84,-0.75,0.174,3.368,2.492,-19.19,0.77,0.454,5.152,6.197,-14.354,5.358,6.133,8.951,8.756,2.817,45.572,40.53,36.183,31.701,19.785,17.345,80.682,79.471,60.514,29.106,-47.415,105.7,80.142,123],[-41.336,-8.324,-5.31,-1.437,0.024,-42.478,-10.964,-2.914,0.608,1.637,-39.452,-2.885,0.937,4.12,4.758,-38.898,33.486,26.242,24.342,25.817,-41.438,0.083,64.281,60.848,45.834,30.991,11.685,-14.813,89.252,85.763],[-56.031,-17.698,-12.768,-6.913,-3.101,-56.524,-14.963,-6.045,-2.552,-2.052,-59.851,-16.555,-3.921,-4.098,0.397,-46.342,-10.658,14.743,12.958,19.288,-51.813,-30.158,39.719,45.341,45.941,-36.409,13.963,10.662,44.578,76.136],[-66.85,-24.528,-14.732,-12.658,-6.013,-68.894,-16.823,-14.554,-8.717,-4.117,-77.797,-21.815,-10.196,-3.464,-2.4,-67.698,-25.931,8.4,10.591,15.396,-65.598,-44.314,30.952,40.502,32.815,-46.933,-42.639,-6.102,35.937,61.443],[-80.233,-24.764,-13.039,-13.722,-9.984,-83.608,-29.987,-17.205,-13.191,-9.507,-78.848,-24.14,-13.2,-12.878,-6.936,-70.425,-20.752,3.008,4.639,8.477,-62.378,-41.231,-19.801,26.349,25.455,-74.348,-47.114,-22.546,-25.931,11.737]],
"ve": [[34.738,16.132,18.983,53.155,-7.463,21.453,15.24,48.49,-1.773,-163.426,20.906,14.94,35.466,55.898,-46.269,62.4,21.588,14.276,2.776,1.834,93.892,34.165,21.773,-5.155,-16.091,191.997,53.776,34.024,9.194,-5.992],[-0.92,0.797,1.358,1.843,4.209,8.722,1.96,2.846,3.451,5.265,8.308,5.412,4.054,2.944,5.028,52.476,25.618,15.815,11.431,11.278,97.951,47.448,32.072,23.231,15.734,201.922,95.319,61.78,60.748,23.737],[3.838,-0.68,-0.779,0.673,0.308,10.882,0.713,-0.478,0.765,0.942,18.454,3.656,2.298,1.731,2.856,48.743,23.48,14.595,10.393,8.14,100.283,43.433,32.367,25.081,18.246,195.064,89.488,63.854,45.941,37.199],[2.377,-0.915,-1.151,-0.502,-1.177,7.639,1.691,-0.878,-0.974,0.652,4.613,2.934,1.578,0.96,0.744,116.73,10.564,15.326,9.887,7.668,94.056,47.8,18.309,22.702,18.171,190.299,98.24,59.674,46.039,35.619],[12.842,-0.118,-2.268,-1.72,-1.306,9.605,2.679,0.356,-1.017,-0.402,-1.272,3.716,1.576,0.296,0.525,51.854,20.813,14.04,10.381,8.377,101.754,44.821,30.325,23.294,18.211,216.45,98.935,54.869,45.448,36.164],[-0.522,-2.189,-2.494,-1.733,-2.466,-38.88,0.004,-0.569,-1.552,-1.08,39.371,4.634,0.704,-0.473,0.048,53.268,22.615,11.654,10.37,7.431,98.882,44.659,30.175,23.156,17.442,210.765,98.206,63.487,46.236,40.213]],
"kep": [[-23.871,-22.038,-15.367,-22.477,-26.841,-10.676,-13.56,-16.077,-13.489,-29.418,-9.056,-9.151,-7.715,-12.282,-21.008,13.84,31.382,32.564,44.795,44.707,-15.371,26.881,69.746,83.268,107.731,-18.743,-12.605,12.707,13.035,24.286],[-41.42,-20.407,-20.066,-18.072,-20.43,-38.472,-20.083,-21.134,-17.887,-18.543,-36.223,-19.202,-17.547,-14.651,-16.511,-44.693,-6.118,-2.323,-1.564,-4.656,-48.762,-34.482,9.936,16.671,11.457,-54.474,-62.104,5.751,0.896,34.305],[-54.315,-25.45,-23.014,-21.24,-19.863,-57.754,-28.442,-21.453,-19.74,-19.106,-56.884,-24.404,-20.624,-17.745,-18.143,-65.386,-13.477,-11.683,-9.607,-6.564,-71.273,-42.505,-0.308,2.676,-1.148,-60.408,-47.418,-49.651,3.606,7.568],[-66.671,-33.073,-29.137,-24.902,-21.277,-67.167,-32.698,-23.799,-20.931,-21.866,-70.9,-34.891,-24.012,-23.715,-19.906,-68.744,-42.203,-20.446,-17.547,-11.086,-76.433,-59.078,-15.987,-5.744,-1.445,-78.58,-49.43,-39.21,-19.511,2.985],[-74.566,-39.892,-29.969,-28.66,-23.555,-76.486,-35.649,-31.74,-25.985,-22.796,-84.265,-39.837,-28.824,-22.688,-22.02,-80.267,-50.123,-24.062,-19.806,-14.659,-83.074,-64.895,-20.551,-9.807,-10.496,-82.164,-70.989,-48.341,-24.211,-6.243],[-84.6,-38.611,-28.445,-29.628,-26.029,-87.69,-44.318,-33.384,-29.315,-26.601,-85.375,-42.835,-31.169,-29.78,-25.414,-82.74,-48.441,-26.853,-24.109,-19.291,-83.493,-65.403,-49.633,-19.109,-14.855,-89.277,-73.462,-57.348,-55.616,-33.69]],
"vp": [[-317.757,-100.343,424.797,506.052,35.153,15.411,62.832,54.189,-12.32,10.308,23.958,-27.111,-5.051,7.741,33.208,-29.964,-22.366,-2.384,-1.214,9.25,-33.529,-28.053,-14.261,-46.386,-5.353,-24.835,-15.322,-18.048,-5.898,-13.502],[2020.112,1053.503,-172.528,-128.622,-318.805,445.377,168.161,-10.45,22.787,84.159,229.961,28.976,-58.722,-9.701,-73.214,44.519,11.142,-24.628,-14.195,4.676,-23.579,-26.391,-29.265,7.956,-35.257,-31.839,-34.24,-22.364,-44.816,-9.374],[3549,2952.68,1819.416,1118.858,97.611,836.168,368.874,325.987,112.487,15.303,441.499,190.941,121.174,71.305,45.462,57.407,43.661,-5.605,-13.95,-2.978,21.705,-33.562,-13.76,-2.59,-37.77,-46.785,-29.365,-36.221,-42.568,-27.246],[5014.627,4523.044,2867.199,2110.666,1249.259,1056.445,1035.421,654.803,313.372,338.458,562.799,460.221,285.39,93.725,122.219,30.819,88.5,14.299,-29.888,18.677,-1.214,12.204,1.338,-21.863,-7.497,-31.33,-15.112,-60.403,-23.024,-54.927],[4782.012,5133.79,3364.803,1988.763,1632.939,1096.279,1236.036,688.984,384.515,409.202,595.661,631.53,404.199,183.22,87.319,90.839,58.418,47.995,12.911,47.119,30.406,26.008,-14.538,10.441,-12.779,9.034,-3.238,-25.394,-44.628,-39.829],[5934.749,7755.094,6866.38,4172.52,2410.822,1483.314,1262.489,1091.439,402.815,466.314,685.149,739.425,521.445,258.509,242.334,101.113,126.936,10.812,54.121,62.008,28.163,5.442,26.969,16.666,-4.657,24.994,3.769,-26.13,-4.2,-23.015]]
}