{
"KTrans": [[37.406,23.967,30.13,20.539,22.793,52.201,40.798,20.581,33.699,12.261,78.095,41.712,31.378,30.737,32.43,238.997,123.291,112.688,97.616,87.947,574.401,286,221.814,190.818,168.803,1484.337,692.906,522.74,456.629,402.36],[327.941,77.613,49.627,22.41,31.767,368.273,77.954,53.666,42.885,33.913,621.589,93.358,45.908,43.664,32.641,849.876,190.331,93.245,74.694,52.4,1838.949,275.288,174.759,116.938,103.956,2411.379,612.499,345.427,238.528,214.722],[-239.26,316.138,95.03,59.685,53.891,-249.504,264.195,119.329,65.921,43.827,-252.134,308.378,96.439,55.063,57.261,-396.634,500.813,127.978,92.768,74.805,-428.345,687.817,212.126,153.018,105.037,-934.602,1270.825,441.851,252.6,184.622],[-158.83,202.961,205.33,85.422,57.915,-177.41,56.646,229.014,113.912,72.435,-181.42,-1.258,206.023,106.428,63.866,-244.59,105.622,258.433,140.286,92.044,-314.735,178.763,385.865,187.894,115.831,-460.182,266.684,595.815,355.417,235.313],[-153.757,-310.319,347.374,157.92,115.784,-152.198,-310.945,388.21,168.552,94.116,-162.76,-247.385,312.121,184.591,112.488,-217.221,-434.715,496.836,294.986,139.689,-249.949,-449.392,454.287,294.217,201.105,-507.903,-900.577,1343.045,464.223,313.416],[-131.04,-201.518,51.964,449.01,190.476,-152.443,-193.917,-32.872,524.364,169.119,-173.356,-211.82,158.943,496.319,136.051,-189.848,-250.937,-52.114,802.808,221.203,-237.824,-329.889,116.908,816.593,275.33,-397.437,-461.821,259.861,1015.175,415.168]],
"ve": [[1.204,1.216,0.175,12.947,33.532,4.398,1.531,2.219,-1.722,26.841,10.344,1.708,-1.275,-2.97,-1.514,44.916,12.066,-1.503,-12.016,-19.95,96.272,34.334,7.814,-7.842,-19.936,194.225,79.556,34.914,10.346,-7.129],[0.285,2.514,2.541,-0.123,1.101,5.176,3.85,3.235,2.588,1.566,12.83,6.518,3.127,2.582,1.485,51.936,26.792,14.473,10.035,4.522,100.889,49.36,31.234,18.783,12.639,202.956,98.458,62.833,41.175,30.09],[4.933,3.161,3.196,2.13,2.91,8.824,3.082,5.917,3.678,2.327,10.117,6.485,5.321,2.567,3.734,51.459,29.154,14.596,11.631,9.87,101.305,52.302,31.968,24.846,17.305,198.005,100.088,67.883,47.742,34.787],[2.181,6.088,1.893,1.299,1.026,8.2,3.057,4.292,4.748,3.003,11.142,6.093,3.323,4.102,2.479,52.817,25.285,16.874,13.429,9.865,103.93,54.615,31.803,24.762,18.08,197.744,100.935,63.829,51.982,40.496],[3.792,4.745,2.784,1.107,3.679,7.656,4.586,3.428,3.374,2.097,10.442,4.792,4.184,4.807,3.212,48.055,27.133,15.971,16.678,11.317,101.291,51.025,32.313,24.701,21.373,202.369,102.365,70.017,50.237,43.083],[2.778,2.055,-0.368,-0.247,3.885,6.622,3.456,4.263,4.022,2.955,12.338,8.013,5.319,5.071,1.348,51.286,26.286,19.228,16.128,10.919,101.865,51.981,36.777,25.69,21.999,198.119,98.374,68.577,47.861,41.649]],
"kep": [[30.88,22.53,34.339,26.854,34.703,40.176,37.882,22.975,45.4,19.393,56.717,37.676,35.48,41.772,51.377,126.866,94.645,112.923,122.32,133.268,237.921,182.754,193.365,210.766,229.841,432.568,336.617,356.071,398.674,434.113],[283.774,65.213,41.821,19.002,28.689,306.364,63.231,43.938,36.528,30.261,495.224,73.064,36.364,36.381,28.528,492.492,120.673,62.717,54.875,42.054,820.295,143.314,103.45,77.205,76.74,713.137,249.21,167.431,133.929,137.147],[-220.694,274.531,80.411,50.103,45.507,-225.12,223.984,98.961,54.333,36.251,-221.528,254.671,77.749,44.101,46.757,-279.921,344.37,86.648,64.795,54.286,-249.398,393.399,125.024,95.398,68.512,-361.741,555.011,213.339,131.382,103.807],[-149.625,177.876,177.625,72.595,48.728,-164.21,46.062,194.994,95.307,60.088,-164.286,-7.18,172.011,87.377,51.849,-186.801,60.643,186.003,101.038,66.527,-197.961,81.79,242.475,119.28,74.338,-210.482,83.299,299.572,190.166,131.381],[-146.233,-284.708,303.339,136.39,98.671,-142.826,-281.938,334.194,143.708,79.037,-150.318,-221.894,263.175,154.949,93.263,-170.789,-342.806,371.055,222.963,104.112,-168.274,-311.147,288.452,195.86,135.868,-229.046,-475.765,712.692,257.079,180.193],[-125.712,-187.172,44.587,393.411,164.576,-144.362,-178.815,-32.083,455.096,144.433,-160.396,-192.837,134.102,425.23,114.5,-154.112,-207.14,-54.544,627.539,169.998,-163.701,-238.82,58.959,573.548,191.59,-193.113,-266.667,111.122,595.388,246.667]],
"vp": [[1573.089,1661.87,2036.526,1950.169,1882.515,324.313,396.734,305.143,428.934,282.929,166.31,175.855,169.468,162.388,194.427,36.735,29.755,38.995,37.984,37.087,19.086,18.189,18.441,17.937,17.316,9.75,8.985,8.645,9.127,8.448],[5092.117,5838.666,5773.475,4516.275,6142.109,1049.399,1058.812,1204.68,1165.204,1158.836,579.456,548.222,488.409,597.701,533.667,106.172,121.017,99.828,102.501,88.657,46.412,46.246,55.184,50.377,52.165,24.693,26.246,28.495,24.634,30.136],[8469.848,8903.888,9058.019,9691.871,10089.231,1789.892,1400.302,2130.588,1949.801,1611.069,781.441,866.754,808.267,809.446,1022.499,177.622,185.247,150.942,172.086,172.958,89.159,86.07,83.088,94.402,84.556,32.115,42.418,45.733,41.872,40.46],[10052.377,14834.085,11303.996,11618.854,11789.406,2192.99,2426.35,2548.523,2678.793,2706.093,1035.485,1483.582,1217.375,1257.249,1130.918,218.456,269.078,163.456,226.801,228.28,132.589,146.802,101.978,107.576,98.232,49.009,76.991,53.087,61.646,60.42],[11956.298,18101.125,18225.318,12907.621,17842.138,2500.014,2828.645,3001.843,2691.831,2745.149,1189.181,1309.737,1263.753,1456.088,1707.645,225.461,343.909,232.41,373.722,293.579,128.05,165.2,166.37,143.13,175.442,58.826,82.566,98.547,68.939,80.242],[13278.786,18977.765,14161.407,13219.579,22516.824,2505.361,3751.972,3915.957,3688.662,3765.486,1381.173,1982.458,1870.613,1782.189,1628.29,256.303,365.067,465.981,394.954,378.34,136.475,179.477,211.12,197.036,191.812,60.285,78.866,112.335,78.161,95.88]]
}