{
"KTrans": [[16.931,13.344,16.07,18.942,20.139,7.239,17.476,25.775,20.612,15.019,18.242,16.419,22.336,19.986,23.271,33.31,37.238,29.927,31.887,34.05,79.986,50.317,60.713,53.931,56.846,106.267,122.528,94.316,88.844,95.477],[-54.239,-12.37,4.825,9.901,8.453,-41.91,-5.428,-1.569,6.02,12.346,-46.865,-7.682,1.587,10.092,9.859,-32.925,-2.917,9.832,15.76,17.379,-29.888,10.105,15.92,19.436,24.355,3.32,27.811,28.721,37.313,36.832],[-71.394,-29.833,-16.24,-3.738,2.35,-77.574,-26.885,-13.684,-3.77,0.678,-73.774,-26.796,-12.529,-6.437,0.442,-70.621,-24.026,-10.875,-1.078,2.114,-55.672,-26.992,-7.129,10.203,12.04,-45.794,-7.219,10.699,15.611,19.083],[-85.307,-52.225,-27.468,-16.642,-9.222,-80.061,-52.237,-32.235,-15.864,-9.362,-87.177,-49.846,-32.731,-17.277,-11.279,-79.654,-48.127,-29.223,-14.294,-7.134,-70.509,-49.248,-24.766,-10.76,0.107,-67.082,-36.912,-16.136,-2.661,7.224],[-87.275,-62.135,-43.47,-28.023,-18.485,-88.081,-62.198,-41.609,-28.122,-20.116,-87.543,-61.597,-44.259,-30.18,-18.267,-84.504,-60.337,-41.975,-27.797,-17.483,-81.27,-57.408,-40.274,-20.131,-16.817,-69.473,-48.079,-36.983,-18.425,-10.152],[-91.608,-72.398,-51.918,-40.982,-30.476,-91.843,-69.594,-58.039,-37.635,-28.283,-91.417,-72.429,-55.917,-37.574,-30.355,-89.634,-67.891,-54.107,-38.636,-26.479,-83.135,-71.266,-52.821,-37.337,-22.736,-78.585,-60.901,-44.467,-27.901,-18.401]],
"ve": [[4.187,90.442,-226.029,-72.866,-154.626,17.911,123.209,-526.85,-31.469,-82.496,14.599,71.44,-787.464,391.592,316.565,117.845,40.466,74.542,-16.002,-132.219,48.529,20.537,15.13,59.769,9.219,49.543,47.972,-43.159,-103.157,-12.394],[-12.546,-1.109,2.737,6.075,10.859,-10.315,0.826,2.573,7.218,8.105,-14.39,0.817,3.245,5.187,11.465,9.964,7.615,6.841,10.4,13.298,33.408,17.03,16.167,15.734,13.784,62.583,35.819,38.846,30.269,40.508],[-70.637,-9.674,-5.516,-1.561,1.101,-47.177,-8.099,-3.998,-0.716,1.25,2.146,-8.404,-4.205,-0.126,2.297,-17.195,-0.575,1.349,3.714,4.087,7.914,22.088,8.484,9.708,8.153,104.992,52.39,26.463,18.016,15.737],[-81.928,-18.146,-9.323,-6.357,-3.859,-29.276,-17.973,-10.628,-4.486,-2.071,-51.245,-15.902,-9.746,-5.418,-4.057,-22.363,-10.967,-5.052,-3.107,-0.83,2.169,-2.825,1.05,2.825,4.866,18.695,17.258,18.08,11.828,12.385],[-2.055,-24.107,-15.582,-10.615,-7.123,-34.918,-23.537,-14.95,-9.183,-7.002,-35.719,-24.915,-14.299,-10.577,-6.702,-18.583,-17.319,-10.349,-6.084,-4.064,12.044,-2.885,-3.375,-0.382,-0.918,33.921,12.758,6.281,6.609,7.447],[-61.587,-31.538,-19.997,-15.137,-11.023,-65.098,-28.105,-22.111,-13.685,-8.731,-59.467,-10.765,-19.746,-14.152,-9.988,-8.324,-17.251,-18.184,-11.752,-6.466,-44.965,-12.107,-11.573,-6.45,-2.7,41.255,2.138,8.807,5.711,3.5]],
"kep": [[-25.98,-36.39,-38.841,-41.685,-41.413,-38.384,-31.841,-25.916,-44.746,-57.295,-31.301,-32.783,-32.283,-42.913,-43.961,-34.686,-21.185,-33.753,-33.974,-30.49,-31.453,-30.452,-12.113,-17.163,-8.484,-44.22,-12.917,-18.284,-11.463,5.918],[-65.327,-41.159,-31.271,-30.162,-33.951,-58.066,-37.884,-35.416,-33.186,-29.876,-63.936,-38.491,-34.258,-29.673,-33.241,-63.28,-40.354,-31.254,-29.275,-29.985,-70.838,-38.629,-33.618,-30.953,-26.555,-71.554,-44.491,-34.987,-28.137,-27.286],[-77.968,-49.268,-41.195,-34.841,-32.463,-84.673,-47.426,-39.99,-35.566,-33.658,-80.065,-47.408,-39.325,-37.66,-34.481,-80.753,-50.371,-41.502,-36.701,-34.603,-79.012,-57.946,-43.806,-33.439,-31.167,-84.102,-58.437,-44.073,-36.517,-32.614],[-87.819,-61.72,-47.297,-40.866,-37.126,-84.535,-61.847,-49.897,-41.55,-38.403,-89.769,-60.429,-50.864,-41.825,-38.542,-86.435,-61.976,-50.771,-41.401,-37.795,-84.514,-66.853,-51.689,-42.799,-36.866,-88.613,-70.426,-54.259,-44.2,-37.754],[-89.754,-67.742,-56.043,-46.644,-41.745,-90.213,-68.347,-54.905,-47.639,-42.981,-89.801,-67.665,-57.283,-48.264,-41.839,-90.331,-68.765,-57.219,-49.313,-43.033,-91.4,-72.954,-59.676,-47.152,-44.509,-90.195,-75.627,-62.425,-50.513,-45.693],[-93.253,-73.735,-60.739,-53.972,-48.225,-93.451,-72.927,-64.604,-52.31,-47.98,-93.357,-75.936,-64.15,-51.804,-48.683,-93.288,-75.487,-63.043,-54.364,-47.995,-92.584,-79.784,-65.79,-56.108,-47.518,-93.7,-80.898,-68.978,-56.241,-48.969]],
"vp": [[-37.662,-83.045,-465.182,-606.951,-540.881,-34.991,-113.31,-134.568,-125.23,-63.136,-31.985,16.548,-56.084,-71.785,-111.564,-5.247,-5.091,-15.304,-2.074,-13.973,-9.706,-1.851,-13.739,-7.348,-9.524,-3.102,-18.879,-2.831,0.476,-8.981],[3716.537,700.164,-434.733,-573.508,-824.062,551.344,124.056,135.405,-119.294,-175.911,292.508,65.42,18.647,-64.118,-53.137,40.365,12.629,-4.068,-29.704,-35.065,17.914,3.848,-4.89,-11.605,-10.251,2.272,-6.588,0.856,-9.078,-0.343],[4546.502,2525.141,1812.585,278.722,-405.503,1119.436,366.043,245.41,49.749,28.862,474.843,255.479,160.014,91.194,-32.487,103.847,40.159,22.03,1.749,17.865,24.184,27.337,4.143,-22.731,-15.863,13.869,0.548,-16.221,-1.36,-3.422],[6720.676,5351.607,3012.416,2417.917,1320.421,1025.282,1059.936,721.198,257.286,242.985,639.433,486.561,415.093,202.818,222.239,113.63,98.637,70.367,40.814,36.462,35.458,63.016,26.997,18.141,-2.813,27.768,12.363,3.241,9.461,-6.617],[6119.745,6568.389,5664.172,3895.218,3236.3,1370.069,1323.801,1056.22,812.454,799.211,642.322,781.691,583.907,524.54,363.583,121.755,131.727,119.856,86.22,77.553,55.377,48.613,46.543,28.422,36.334,14.35,15.707,29.438,16.826,12.773],[7491.779,9068.618,7500.694,6715.157,5814.342,1458.929,1532.656,1808.848,1285.753,955.566,756.948,860.732,821.875,660.019,605.031,135.166,155.978,184.231,144.515,96.177,57.66,79.987,87.361,62.547,36.342,14.279,31.576,33.854,10.611,22.657]]
}