{
"KTrans": [[39.491,21.235,17.857,25.179,15.779,10.146,20.685,23.652,22.739,20.57,15.456,36.416,31.368,26.747,24.304,56.124,44.435,44.603,41.259,45.824,97.898,76.678,70.372,65.884,64.2,149.252,125.572,122.061,121.982,110.982],[-45.254,-13.955,7.762,10.002,13.674,-49.671,-1.61,6.277,8.018,14.063,-43.127,-1.353,5.722,11.812,12.123,-39.587,1.975,8.557,15.812,20.779,-13.463,7.879,29.733,25.435,29.256,-0.728,39.461,52.262,45.441,43.721],[-75.828,-26.492,-14.502,-6.303,1.692,-76.209,-36.489,-14.964,-3.344,-1.179,-79.803,-34.8,-7.6,-4.356,2.588,-60.302,-28.576,-9.765,-0.444,5.842,-52.34,-20.863,-3.192,3.834,10.849,-33.346,-14.872,13.46,18.557,29.958],[-86.559,-47.08,-34.96,-17.51,-10.873,-84.161,-53.719,-28.474,-17.639,-11.265,-83.122,-48.05,-25.037,-17.408,-8.032,-75.114,-43.971,-28.223,-15.225,-7.875,-75.647,-45.212,-21.029,-12.695,0.599,-62.047,-32.092,-6.221,-1.998,9.76],[-90.058,-61.24,-41.435,-31.413,-18.418,-86.717,-60.662,-42.537,-29.891,-19.736,-87.119,-58.319,-45.082,-31.971,-18.082,-80.879,-65.249,-45.565,-22.104,-17.477,-79.482,-61.805,-41.281,-21.542,-11.638,-74.927,-44.943,-27.902,-13.747,-7.391],[-92.111,-72.211,-57.988,-39.662,-28.26,-88.975,-74.03,-48.325,-42.555,-31.133,-90.837,-73.041,-54.615,-43.054,-30.603,-84.834,-67.535,-52.96,-38.564,-23.267,-80.214,-63.362,-50.274,-32.699,-25.501,-89.88,-62.759,-48.539,-29.916,-15.191]],
"ve": [[3.252,8.098,-28.824,-7.422,-107.962,-68.635,69.828,77.503,-69.05,-127.631,-80.469,47.108,2.074,-127.799,75.801,27.059,63.444,34.675,-862.91,517.967,46.68,94.161,13.391,45.9,-27.877,79.565,27.673,23.308,60.366,-20.136],[-10.321,3.082,5.549,10.343,12.629,13.357,1.302,5.175,11.11,11.422,4.877,2.17,3.448,9.191,13.781,36.244,13.925,13.497,12.606,15.298,38.034,10.716,-7.375,13.711,7.269,86.969,41.929,30.442,-38.219,7.02],[-39.9,-6.36,-4.199,-0.258,0.483,-39.972,-8.743,-6.066,-1.285,1.985,-20.842,-9.676,-3.951,-0.336,2.625,205.301,1.403,1.014,3.468,5.828,20.743,3.067,9.451,8.554,8.742,94.426,28.764,31.797,31.29,22.134],[-35.687,-34.234,-11.142,-6.263,-3.902,30.943,-14.49,-10.179,-5.514,-2.86,53.275,-19.499,-9.233,-4.602,-3.349,-18.517,-5.939,-5.859,-1.011,1.538,10.185,-1.247,4.959,4.686,5.785,78.05,32.725,19.533,343.698,50.623],[-62.69,-27.203,-16.247,-10.455,-6.967,-36.111,-19.572,-14.173,-10.008,-7.09,-34.625,42.848,-14.289,-9.573,-7.02,-15.866,-93.493,-10.93,-3.416,-3.261,1.104,-4.583,1.788,-80.572,2.106,40.978,27.989,13.417,31.829,-15.887],[-43.407,-16.231,-21.299,-13.658,-9.679,-39.046,-37.404,-18.918,-13.856,-11.483,-526.526,-41.513,-20.179,-13.646,-9.424,14.88,-17.003,-17.81,-9.949,-4.935,18.706,-5.343,-5.103,-1.567,-3.424,63.526,10.121,-0.962,11.173,4.327]],
"kep": [[-28.07,-34.592,-38.289,-39.187,-67.439,-43.081,-37.614,-35.557,-46.567,-58.164,-37.195,-27.013,-27.571,-43.423,-51.421,-33.37,-29.287,-32.535,-34.154,-27.726,-29.396,-25.134,-27.193,-19.986,-23.722,-31.159,-40.78,-16.051,-25.889,-8.848],[-65.179,-44.872,-33.689,-34.888,-33.039,-67.684,-37.581,-34.382,-36.55,-32.129,-65.277,-38.483,-33.774,-32.963,-35.617,-68.274,-40.962,-38.654,-33.789,-31.445,-68.259,-46.961,-31.287,-31.816,-30.989,-69.149,-49.142,-34.091,-33.159,-30.615],[-85.809,-50.501,-43.213,-39.897,-35.481,-86.469,-54.965,-42.436,-37.724,-38.141,-86.775,-54.459,-38.93,-38.78,-36.136,-79.773,-55.392,-43.763,-38.877,-35.923,-81.65,-61.437,-45.589,-40.145,-35.363,-78.602,-72.131,-51.336,-41.582,-33.663],[-91.438,-62.06,-53.712,-44.097,-41.04,-89.246,-65.664,-49.762,-44.782,-41.817,-89.881,-62.394,-48.426,-45.134,-39.548,-87.185,-64.466,-52.21,-45.868,-42.479,-88.234,-71.068,-54.055,-48.061,-40.08,-86.43,-72.67,-56.268,-50.751,-41.39],[-94.221,-69.955,-56.129,-51.501,-44.299,-91.147,-69.188,-57.969,-50.891,-45.296,-92.342,-68.912,-59.836,-52.461,-43.994,-89.49,-74.87,-62.204,-49.579,-46.11,-89.999,-79.561,-64.373,-51.913,-45.896,-88.124,-75.493,-66.783,-55.041,-49.593],[-94.494,-77.255,-66.458,-56.131,-49.773,-93.279,-77.812,-60.367,-57.822,-50.708,-94.631,-78.628,-65.218,-58.206,-51.437,-92.783,-78.192,-66.793,-57.58,-49.073,-91.539,-79.566,-68.221,-57.318,-52.221,-92.464,-84.774,-74.852,-61.836,-52.381]],
"vp": [[-915.787,-102.851,-336.914,-631.402,-664.134,-93.755,-131.986,-155.253,-78.317,-140.867,41.007,-121.81,-67.515,-135.941,-44.722,-11.301,-25.102,-29.04,-10.061,-31.133,-29.873,-13.816,-11.101,-5.021,-12.957,-32.364,-14.718,-15.145,-21.596,-16.406],[3354.165,942.963,-794.564,-792.905,-1203.355,644.071,50.211,-156.072,-211.582,-246.154,229.887,13.876,-17.415,-79.346,-85.086,50.63,4.814,-2.392,-19.65,-35.327,-4.804,-5.205,-27.575,-14.295,-24.989,-27.205,-27.725,-25.899,-7.095,-3.12],[5107.395,2445.943,1303.481,793.765,-4.822,1184.189,639.154,380.893,84.506,-13.242,642.786,353.514,53.19,95.564,-60.797,60.027,71.941,39.335,1.65,-9.073,21.541,18.173,-1.808,7.615,-0.009,-19.488,1.038,-7.226,-1.211,-15.399],[6337.551,4404.004,4267.053,2470.704,1692.998,1348.763,1096.238,758.314,416.04,272.304,593.963,438.264,371.438,201.238,122.558,102.92,54.219,89.22,35.373,36.025,42.814,46.963,19.179,27.037,-8.969,-11.853,-8.362,-9.425,13.585,3.048],[7030.389,7204.38,5506.646,4576.828,3128.022,1111.638,1505.949,1182.586,1013.527,720.433,607.042,503.255,655.37,493.919,321.447,76.221,173.004,129.958,50.525,60.476,50.799,70.849,54.967,26.079,19.171,16.427,-3.489,0.499,1.281,8.825],[7423.495,8512.93,9009.84,6400.252,5407.09,1474.507,1826.511,1297.927,1368.52,1314.349,735.006,1013.335,797.152,790.723,563.415,97.864,145.125,165.657,146.448,55.025,25.714,50.976,83.263,45.653,68.331,6.395,10.65,18.103,23.355,11.397]]
}