{
"KTrans": [[-6.228,8.434,15.279,23.358,16.301,3.952,23.682,18.148,21.881,24.741,24.577,27.206,27.74,23.647,24.674,70.421,98.724,85.617,76.324,87.192,140.623,133.954,161.087,149.245,133.97,-74.761,254.351,292.666,275.393,287.72],[-41.483,-2.902,-1.818,4.069,7.553,-40.485,-7.306,2.381,6.785,7.669,-38.607,-4.492,5.961,9.115,12.301,-1.888,30.055,29.1,36.914,33.883,-0.938,71.62,67.589,62.712,66.38,-28.142,113.827,115.47,119.439,119.313],[-52.928,-25.308,-10.708,-5.042,-0.768,-57.253,-20.739,-11.228,-4.58,2.142,-54.628,-15.998,-7.015,-4.648,4.3,-38.082,6.384,10.148,16.818,21.205,-17.984,24.967,40.877,36.458,37.974,-36.63,48.627,62.073,75.177,85.968],[-67.621,-34.86,-23.446,-16.662,-7.65,-65.109,-34.105,-19.147,-9.653,-5.686,-62.023,-29.157,-19.607,-10.031,-6.517,-52.615,-9.696,0.781,3.808,10.311,-67.318,6.341,23.418,21.163,25.437,-80.866,-35.546,41.59,63.214,56.331],[-79.779,-41.505,-29.223,-21.251,-10.684,-74.306,-38.956,-28.289,-19.077,-15.207,-72.923,-37.551,-27.36,-18.375,-10.873,-65.389,-25.188,-11.763,-5.579,0.495,-71.274,-17.308,3.921,13.054,11.95,-53.291,-34.29,27.828,27.564,40.921],[-80.026,-50.136,-35.944,-27.61,-20.215,-75.863,-50.107,-37.317,-27.416,-20.092,-81.714,-46.376,-31.607,-22.505,-19.21,-71.236,-38.18,-21.468,-9.258,-5.951,-71.824,-39.213,-10.398,1.165,10.364,-69.625,-58.439,-15.313,26.416,34.535]],
"ve": [[149.334,-55.3,-15.959,-47.508,-88.072,7.548,-10496.952,-37.033,153.165,-243.761,121.178,160.229,-33.103,3082.457,-145.759,32.5,44.163,-63.734,-65.27,-38.368,281.288,40.085,43.609,36.824,417.741,176.708,-10.784,34.471,-21.743,-2.388],[2.643,-0.513,6.859,9.354,22.286,39.415,0.229,4.877,9.719,19.11,16.114,7.115,6.309,13.81,18.488,54.089,25.959,17.669,17.722,18.904,75.36,44.98,34.723,24.535,20.189,184.061,88.295,-69.588,18.663,42.692],[8.395,-2.966,-3.694,-1.45,3.268,39.244,-0.939,-3.145,0.455,1.869,11.766,0.904,0.834,1.436,5.307,52.391,19.257,13.4,10.698,8.323,86.15,46.931,26.906,21.337,16.287,174.654,55.783,56.263,47.201,34.254],[-2.8,-5.222,-3.553,-3.548,-1.976,-15.912,0.218,-2.877,-1.505,-2.032,1263.82,2.565,-0.439,-1.916,-1.442,50.564,16.254,11.497,7.377,6.061,93.432,42.824,27.23,18.212,14.485,185.986,108.627,54.178,42.637,35.096],[-11.385,-1.45,-5.277,-5.063,-4.222,-74.103,-1.151,-3.84,-3.189,-3.314,10.439,-0.574,-2.658,-3.007,-1.963,38.537,21.796,7.859,5.863,6.05,91.659,38.078,27.742,18.924,13.386,185.404,75.511,65.909,26.375,33.863],[-4.689,-1.514,-5.871,-5.88,-4.899,18.882,-0.162,-4.73,-3.881,-4.367,67.911,-2.086,-3.954,-3.467,-4.044,28.19,18.191,9.006,4.865,3.463,105.613,36.615,27.399,16.304,13.942,177.595,80.389,66.939,41.916,32.785]],
"kep": [[-57.11,-55.122,-59.843,-56.244,-77.757,-46.556,-42.019,-53.487,-60.201,-64.165,-43.2,-38.902,-46.181,-60.732,-67.721,-36.931,-5.186,-11.259,-17.26,-3.652,-28.279,-9.049,20.868,29.379,26.514,-76.417,11.752,57.658,72.937,105.138],[-67.057,-42.487,-47.035,-44.372,-45.871,-67.855,-46.654,-43.669,-43.19,-47.085,-68.123,-47.806,-42.711,-41.992,-44.233,-63.88,-40.286,-37.12,-33.484,-35.204,-69.165,-32.33,-28.789,-25.456,-21.028,-78.906,-37.508,-25.492,-15.158,-9.453],[-74.904,-55.449,-46.95,-45.263,-45.43,-77.848,-53.435,-47.819,-46.365,-43.11,-76.797,-52.208,-47.548,-46.637,-43.847,-76.099,-49.21,-44.712,-40.332,-36.583,-74.909,-51.887,-37.083,-36.646,-33.002,-83.418,-55.364,-43.4,-32.449,-22.188],[-82.823,-60.816,-54.966,-51.187,-46.887,-81.54,-62.601,-53.008,-48.161,-45.736,-80.552,-60.363,-54.183,-48.277,-46.517,-81.767,-55.701,-48.763,-45.481,-41.328,-89.014,-57.838,-45.335,-42.145,-38.483,-92.276,-78.671,-49.678,-35.993,-34.498],[-88.818,-65.784,-57.695,-53.213,-47.34,-87.316,-65.043,-57.605,-52.808,-50.598,-86.751,-63.998,-57.902,-52.622,-48.808,-86.612,-64.085,-54.05,-49.732,-46.658,-89.889,-66.721,-54.287,-46.782,-44.578,-88.719,-77.857,-55.29,-50.056,-41.111],[-89.31,-70.331,-61.385,-56.666,-52.692,-87.876,-71.477,-62.533,-57.445,-52.82,-91.256,-68.992,-59.775,-54.742,-52.565,-88.551,-70.189,-59.508,-51.481,-48.859,-90.772,-75.09,-60.766,-51.326,-45.845,-92.298,-84.942,-69.026,-50.366,-43.541]],
"vp": [[-112.943,-374.872,648.397,299.737,-39.424,-89.199,43.117,37.201,82.772,33.172,-71.099,-36.037,54.403,13.575,16.88,-25.672,-15.115,15.099,-23.359,5.212,-27.316,-27.135,-22.806,-15.477,-10.69,-36.055,-22.724,-32.995,-31.219,-3.164],[2442.206,1542.015,-165.125,-823.061,712.49,506.99,45.782,93.478,11.199,-79.521,16.73,-4.799,32.343,-77.784,-51.27,58.603,2.126,-23.959,-30.73,-16.127,3.289,-32.538,-7.418,-36.541,-3.865,-7.848,-12.267,-20.006,-26.675,-32.554],[4114.086,3371.699,2592.036,1248.935,561.361,784.331,854.857,295.983,224.583,208.1,368.987,354.954,286.437,124.199,-69.74,78.854,70.716,7.197,24.025,-41.508,-15.163,9.415,-1.506,-21.308,-31.485,-14.643,-20.384,-20.027,-35.805,-29.274],[5137.41,5580.919,4423.257,2676.987,3162.609,1061.71,1247.576,784.916,541.431,333.279,534.531,730.831,388.072,263.132,130.482,89.555,76.338,45.356,45.695,-27.733,51.262,41.196,41.311,0.987,-17.921,6.427,-0.808,-26.325,-20.625,-39.236],[5659.466,9384.924,8383.195,5767,2894.736,1211.24,1761.175,1269.776,760.104,678.328,686.023,716.501,703.6,379.213,309.65,123.976,141.819,99.386,62.272,61.812,38.024,46.841,32.71,24.439,2.145,3.43,13.356,16.887,-17.649,-25.723],[6081.394,9675.81,7063.58,5675.271,5160.666,1413.153,1795.209,1619.711,1295.606,991.974,638.422,880.031,914.57,724.697,503.502,95.296,134.707,145.007,150.673,85.327,36.568,80.034,96.845,46.676,52.652,-18.026,2.63,9.874,-3.197,4.888]]
}