{
"KTrans": [[2.77,3.323,3.137,0.4,2.034,19.741,9.056,5.327,6.834,6.148,27.99,17.909,13.909,13.994,13.02,156.332,97.166,79.711,66.975,64.294,413.524,223.996,177.717,154.168,143.625,1179.397,604.197,463.78,397.386,365.718],[5.423,2.71,2.59,1.848,3.426,4.501,8.882,3.566,5.899,4.685,23.419,15.113,12.081,7.256,7.544,138.135,68.717,49.635,39.204,32.536,327.527,151.842,103.956,80.779,70.288,878.46,369.447,236.822,187.04,152.967],[-14.539,5.05,5.35,4.938,2.201,-6.361,11.691,5.482,7.354,5.361,13.42,15.691,9.117,9.593,8.987,91.259,62.939,40.085,34.83,26.005,276.64,142.874,94.383,68.743,56.451,699.587,345.494,212.104,155.093,127.244],[-23.115,10.122,10.184,5.265,-2.582,-12.833,17.286,6.677,7.339,5.437,-12.929,22.155,11.869,8.082,4.728,65.533,65.295,44.77,33.637,23.366,207.18,146.287,82.095,67.521,52.567,543.56,333.771,211.314,148.127,117.509],[-38.851,9.637,2.014,5.99,1.482,-35.785,14.96,10.209,10.912,4.821,-26.072,9.775,15.448,13.301,9.259,42.11,72.218,47.826,36.665,23.908,149.442,147.116,91.735,66.205,50.311,480.375,329.935,212.645,145.199,115.192],[-56.857,7.669,4.323,3.29,4.083,-47.841,16.815,14.961,9.378,7.104,-42.731,25.394,18.592,15.436,10.868,-3.189,72.336,39.08,35.83,23.338,91.338,130.521,97.242,66.754,54.948,310.625,319.174,195.063,153.661,118.768]],
"ve": [[2.003,1.465,1.628,2.382,2.893,6.586,1.939,0.108,-1.114,-1.943,8.688,3.978,-0.882,-5.192,-6.371,46.317,13.659,-1.211,-10.824,-18.47,94.431,33.106,7.751,-7.24,-18.8,193.417,78.664,35.001,9.95,-6.035],[3.311,0.528,0.498,-0.049,0.294,5.035,2.48,1.263,1.139,0.331,10.829,5.415,2.836,1.637,0.892,48.683,24.367,14.729,9.053,5.499,99.265,48.09,29.795,19.554,12.426,199.523,97.378,60.653,41.498,28.702],[1.392,0.895,0.96,0.723,0.59,6.211,2.437,1.919,1.568,1.09,11.46,5.052,3.162,2.504,2.102,49.395,25.022,15.786,11.826,8.686,100.569,49.798,32.426,22.961,17.138,201.043,99.149,64.729,46.842,35.467],[2.316,0.845,1.115,0.382,-0.557,6.409,3.432,1.453,1.57,1.181,12.42,5.48,3.227,2.569,1.787,51.271,24.872,16.974,12.086,8.868,100.526,49.839,32.364,24.234,18.865,201.677,99.255,66.186,48.548,38.085],[-11.534,1.586,0.539,0.49,-0,6.234,2.549,1.455,1.989,0.807,12.275,4.363,3.528,2.914,2.127,52.155,25.51,16.864,12.219,9.386,103.865,50.082,33.18,24.645,18.775,108.553,99.574,66.239,48.823,39.165],[3.054,0.828,-0.188,0.063,0.026,7.683,3.404,2.19,1.576,1.039,14.084,5.209,3.313,2.586,2.092,50.321,25.051,16.019,12.501,9.531,90.995,49.09,33.379,24.651,19.45,192.682,100.205,65.716,49.656,39.338]],
"kep": [[1.174,2.791,3.413,0.59,3.042,13.02,7.831,6.655,10.596,11.092,18.148,14.147,16.064,21.651,23.478,75.298,73.745,82.462,88.312,102.976,164.365,143.616,158.014,174.415,200.574,335.953,294.099,317.805,352.404,395.921],[1.59,1.96,1.995,1.891,3.152,-0.846,5.99,2.185,4.665,4.341,10.853,8.994,8.892,5.508,6.643,59.942,35.511,30.219,27.524,25.637,114.2,69.724,56.969,51.033,51.28,226.656,137.596,109.471,102.697,96.402],[-15.909,3.71,4.029,4.006,1.43,-12.653,8.672,3.248,5.453,4.08,1.243,9.744,5.474,6.651,6.585,27.688,29.886,20.724,20.337,15.772,87.338,61.823,46.489,36.931,33.324,165.113,123.3,89.18,73.505,67.541],[-25.675,8.627,8.432,4.511,-2.265,-18.842,12.756,4.713,5.31,3.941,-22.28,15.153,7.928,5.05,2.635,9.125,31.677,23.395,18.849,13.077,52.577,63.701,37.209,34.395,28.1,113.494,117.006,86.97,66.712,57.232],[-40.881,7.12,0.981,4.971,1.162,-39.882,11.036,7.968,8.212,3.602,-33.51,4.58,10.856,9.619,6.617,-7.082,36.238,25.946,21.294,12.918,23.637,63.821,43.578,32.879,26.151,92.706,114.777,87.463,64.283,54.26],[-58.353,5.783,3.8,2.616,3.592,-51.58,11.908,11.764,7.117,5.491,-48.554,18.088,13.949,11.839,8.14,-35.862,36.784,19.197,20.169,12.228,-5.026,54.11,47.071,33.124,29.295,36.296,108.467,77.243,68.792,56.386]],
"vp": [[86.962,102.448,74.299,125.582,43.459,37.495,27.121,-3.332,14.34,9.949,11.698,9.042,3.838,11.033,13.832,2.522,0.213,2.146,0.844,2.216,1.211,0.164,0.176,0.125,1.056,0.569,0.632,0.522,0.359,0.701],[977.905,103.638,176.286,164.903,298.682,117.411,33.281,12.647,35.045,52.756,80.85,18.675,8.369,12.731,52.901,18.812,5.78,5.243,3.958,5.151,10.523,1.725,1.879,1.934,2.419,3.993,0.692,-0.154,0.872,0.643],[2164.25,441.579,305.535,381.285,109.146,403.738,68.422,25.347,79.642,61.602,226.927,29.771,23.627,25.938,33.478,41.093,4.467,3.351,9.124,3.247,19.469,2.137,2.594,0.497,3.124,11.587,1.442,1.733,0.402,1.624],[3428.382,529.883,646.14,141.236,163.754,623.855,87.57,87.32,69.228,79.868,351.516,81.209,41.214,38.702,10.961,58.202,18.127,8.337,4.055,2.303,35.067,4.742,2.213,-1.052,2.716,15.304,5.46,-0.28,0.535,1.606],[4792.778,993.23,94.667,442.484,-250.216,772.909,375.904,71.545,45.519,11.242,433.994,62.544,21.845,23.492,56.803,96.027,32.991,5.05,0.525,7.153,40.025,17.485,3.662,2.242,-0.687,19.955,5.895,-1.498,1.633,1.292],[5388.049,2399.799,343.962,-422.582,309.451,1205.465,612.562,149.852,34.054,134.632,468.931,281.157,35.479,-24.199,-43.313,104.271,45.171,12.182,5.63,-3.02,44.037,22.415,-3.698,6.837,1.546,23.815,11.746,2.062,1.255,2.585]]
}