{
"KTrans": [[-5.311,-0.817,-0.973,0.633,-1.375,-6.77,-3.956,-4.359,3.763,0.559,-13.632,-1.716,-2.112,-1.723,-1.002,-15.99,3.931,2.241,0.775,5.692,-1.32,-1.216,3.786,-1.299,-1.927,-13.628,5.545,-1.707,-2.828,3.095],[-59.588,-11.512,-2.576,-3.503,-0.018,-54.789,-5.588,-1.681,-1.515,0.339,-53.32,-9.67,-0.068,-2.638,-0.983,-55.088,-5.468,-4.657,-5.02,-0.46,-58.091,-6.706,-2.135,-3.302,-3.123,-60.179,-2.794,-3.558,-6.203,-3.115],[-79.911,-19.905,-0.056,-3.7,-1.991,-74.493,-24.26,-10.889,-2.285,0.329,-75.858,-21.54,0.894,-4.356,-0.854,-78.372,-20.016,-1.342,-4.555,1.843,-74.924,-17.356,-2.645,-1.96,-0.673,-75.94,-23.007,0.17,-3.308,-5.77],[-81.684,-43.437,-5.876,-2.773,-1.58,-84.82,-40.572,-5.188,-4.084,-2.881,-84.065,-43.091,-11.176,-2.588,-5.224,-82.513,-37.429,-11.266,-0.372,-2.995,-84.97,-43.783,-5.088,-3.971,-1.045,-86.616,-41.792,-2.148,0.784,-6.175],[-88.438,-49.816,-15.078,2.026,4.481,-91.985,-55.09,-14.787,-1.259,-0.737,-89.253,-48.96,-21.165,-6.926,-0.577,-91.641,-56.126,-9.028,-4.163,0.899,-90.084,-57.28,-18.15,-4.729,4.031,-89.711,-56.436,-13.128,-2.883,-0.424],[-93.424,-63.706,-22.021,-5.429,2.597,-93.493,-59.565,-24.612,-0.552,0.6,-92.341,-68.808,-31.906,-3.712,0.105,-93.321,-62.989,-26.638,-4.666,-2.181,-94.168,-64.555,-30.517,-1.692,-7.216,-93.103,-59.148,-28.639,-11.062,3.876]],
"ve": [[-0.045,-77.778,13.847,24.757,36.873,0.454,8.893,19.201,11.093,123.77,6.175,8.191,13.979,16.26,26.479,2.778,-1.001,17.735,20.968,24.578,17.228,8.936,-1.706,23.217,-46.592,9.738,3.132,25.354,8.424,148.668],[-26.084,-3.784,-1.914,-0.806,-0.156,-30.869,-3.403,-2.455,-1.76,-0.188,-26.126,-4.784,-2.105,-0.777,0.95,-19.658,-2.107,-1.696,-1.102,0.956,2.175,-4.135,-0.697,-1.449,-0.14,-50.539,-1.415,-1.549,-0.29,-0.326],[-47.418,-11.283,-2.844,-3.097,-1.488,-49.402,-13.094,-5.037,-2.364,-1.555,-21.815,-11.971,-3.159,-1.874,-0.869,-36.509,-9.142,-1.973,-1.233,-1.407,-40.551,-8.521,-3.366,-3.016,-2.418,-48.881,-9.288,-3.998,-2.747,-1.623],[-48.433,-23.265,-5.378,-4.062,-3.051,-57.233,-20.638,-5.959,-4.463,-2.473,-362.414,-23.268,-8.343,-3.775,-3.047,-44.973,-18.529,-10.209,-3.324,-2.501,-47.882,-22.035,-7.447,-3.169,-1.951,-56.858,-21.458,-6.132,-3.782,-3.064],[-52.985,12.1,-13.005,-5.516,-4.122,-106.782,-38.583,-11.613,-4.915,-4.485,-50.563,-23.882,-13.002,-7.89,-3.859,-63.915,-5.564,-8.263,-5.465,-2.849,-94.876,-29.24,-12.543,-5.618,-0.96,-68.706,-31.702,-9.926,-6.163,-2.043],[-137.056,-39.343,-18.064,-6.601,-3.621,-68.903,-30.727,-18.331,-7.626,-5.271,-61.969,-43.062,-22.941,-5.169,-3.516,-62.238,-38.391,-22.699,-7.227,-4.663,-77.535,-41.463,-20.592,-6.347,-5.214,-65.044,-30.96,-17.087,-9.581,-3.505]],
"kep": [[-4.106,-3.433,-4.157,-1.248,-1.954,-5.168,-8.246,-6.389,7.688,-0.411,-14.436,-2.904,-5.962,-2.056,-3.629,-15.096,4.931,0.75,-0.996,9.599,-4.228,-5.982,0.766,-4.336,-6.645,-15.769,6.526,-4.327,-7.333,0.398],[-52.379,-8.244,-0.649,-2.475,0.388,-51.07,-2.834,0.518,0.419,0.953,-49.974,-5.281,1.544,-1.769,-1.306,-49.787,-3.908,-2.657,-3.955,-0.906,-53.596,-3.267,-1.867,-1.669,-2.811,-53.576,-2.889,-2.007,-5.707,-2.308],[-76.742,-12.169,2.37,-0.773,-0.67,-70.072,-13.625,-6.359,0.025,1.665,-72.293,-12.914,3.526,-2.799,-0.21,-74.292,-12.775,0,-3.639,3.192,-71.128,-12.318,0.239,1.131,1.773,-72.811,-18.064,3.7,-0.779,-4.322],[-78.711,-34.167,-0.566,1,1.1,-82.244,-30.314,-0.75,0.019,-0.588,-80.868,-32.474,-3.466,0.976,-2.551,-79.107,-27.453,-1.878,2.555,-0.949,-82.756,-35.08,1.055,-1.492,0.423,-84.381,-32.41,2.082,4.216,-3.514],[-86.05,-41.749,-4.9,6.404,8.117,-90.414,-46.267,-6.244,2.664,3.176,-86.947,-43.574,-11.433,1.346,3.221,-89.198,-46.224,-3.349,1,2.99,-88.226,-51.238,-8.373,0.216,3.943,-88.108,-48.088,-5.896,3.022,0.876],[-90.714,-55.365,-14.666,-0.03,5.247,-91.622,-52.211,-13.366,6.025,5.642,-90.495,-60.267,-21.037,-0.007,2.839,-90.996,-56.188,-16.695,1.505,2.007,-92.298,-57.225,-19.045,4.356,-2.7,-90.268,-53.09,-18.21,-2.978,6.817]],
"vp": [[503.27,474.806,176.619,306.104,329.317,76.848,45.679,53.071,79.423,97.782,49.673,21.309,41.721,37.048,30.593,13.576,2.089,7.769,-4.913,2.645,3.679,0.787,3.453,1.926,3.933,3.28,0.545,1.51,1.802,-0.183],[3551.962,1068.477,1106.282,664.163,634.257,605.594,168.829,180.375,244.185,218.93,240.066,138.559,102.085,116.758,91.266,53.144,21.138,17.783,18.382,13.674,32.142,8.944,3.286,10.417,6.241,14.615,3.976,3.989,3.429,4.712],[5235.267,2734.532,1297.765,1323.531,1197.43,886.886,554.964,343.775,230.213,226.239,434.035,258,125.291,117.596,76.523,93.988,35.937,12.668,11.348,30.912,45.451,18.882,12.735,13.296,17.297,22.966,10.237,6.423,5.547,4.897],[4560.738,5251.69,1787.419,1568.133,1771.991,1056.982,894.542,465.686,393.126,331.224,536.299,510.4,258.871,163.394,168.539,90.393,78.049,65.64,30.686,18.963,47.341,48.478,25.103,14.717,7.986,29.048,22.216,10.699,10.566,6.889],[5722.437,6122.528,4262.74,2043.866,2953.277,1361.274,1319.309,776.112,417.095,377.723,567.908,587.609,411.643,318.741,233.005,134.691,143.346,55.056,40.068,31.798,61.564,69.893,39.508,23.342,6.738,30.118,33.95,15.286,13.557,4.21],[6490.693,8067.84,6127.114,2701.619,1973.65,1379.104,1370.36,1217.755,752.703,590.477,626.237,862.24,739.444,225.352,162.358,136.64,164.243,116.585,59.471,48.877,68.288,87.86,64.01,26.042,24.599,32.222,33.71,25.367,21.425,9.917]]
}