{
"KTrans": [[1.937,2.264,1.471,-1.995,1.262,-3.45,-0.152,-0.472,1.101,2.815,-6.473,-1.033,0.02,-1.329,2.414,25.152,-1.534,-1.993,3.323,-0.252,29.384,22.257,13.336,8.634,6.989,-177.956,44.624,36.254,32.139,22.784],[-40.954,0.564,-0.35,0.693,1.076,-42.082,-4.614,-0.903,0.03,2.073,-49.071,2.636,3.229,-0.224,1.23,-32.914,3.721,-2.634,-2.655,0.237,-34.968,8.934,0.829,1.769,3.786,-28.074,33.178,14.764,16.142,9.942],[-82.612,0.269,2.854,0.304,1.256,-84.147,1.67,2.213,-0.426,1.76,-83.593,-11.217,0.681,1.137,1.114,-67.817,-7.143,-13.321,0.792,3.817,-64.754,3.203,-5.299,-0.253,-3.327,-64.635,2.316,20.862,1.08,0.334],[-93.255,-19.123,0.966,2.435,2.533,-91.742,-14.335,1.833,4.22,2.463,-91.251,-21.43,1.26,0.612,1.771,-88.047,-19.589,-8.215,0.872,-1.141,-81.348,-6.329,-0.839,0.521,1.786,-123.143,-29.146,4.526,9.27,-0.286],[-94.475,-53.265,4.038,8.178,3.088,-94.898,-54.945,4.44,0.48,3.264,-95.495,-45.749,1.337,3.68,1.323,-94.699,-40.881,-6.039,-0.982,1.268,-106.595,-29.464,-1.066,-6.402,-3.821,-100.871,-43.952,20.488,3.717,-3.89],[-98.125,-69.521,-1.693,12.344,6.175,-97.659,-62.187,-0.916,7.45,4.257,-96.573,-72.01,-2.963,6.789,5.894,-100.398,-61.294,-12.08,-0.706,1.077,-99.928,-58.491,-11.582,-4.596,-0.825,-115.264,-61.957,-18.028,1.468,-6.018]],
"ve": [[1.026,1.492,3.416,9.694,9.938,3.755,2.789,3.671,10.67,5.617,0.271,0.376,5.12,6.107,9.19,3.483,16.744,-129.993,-8.786,72.86,-6.706,-19.252,38.067,-52.78,-45.031,-32.537,-15.421,-41.551,-40.048,-50.231],[-21.703,-2.14,-0.925,-0.671,-0.035,-23.9,-2.945,-0.888,-1.062,-0.411,-29.078,-1.445,-0.418,-0.769,-0.666,-25.132,4.032,-1.595,-1.317,0.277,-33.589,-2.776,16.539,4.71,5.634,-21.823,6.616,-27.964,-26.634,-6.804],[-62.446,-2.696,-0.31,-0.418,-0.139,-66.429,-3,-0.566,-0.909,-0.437,-61.094,-7.816,-1.224,-1.124,-0.605,-59.377,-10.921,-9.771,-0.609,0.527,-58.807,-4.138,0.114,-1.982,-2.186,-59.353,-10.779,-1.315,-6.849,1612.502],[-80.076,-11.831,-0.773,-1.142,-0.119,-83.538,-11.767,-1.655,0.224,-0.636,-81.511,-14.222,-0.277,-0.992,-0.752,-73.582,-15.87,-7.538,-0.494,-1.639,-70.607,-22.025,-5.842,-1.641,-0.617,-179.824,-31.504,-15.659,0.369,10.066],[-83.404,-34.474,-1.05,1.531,-0.301,-99.263,-39.274,-1.452,-1.354,-0.274,-79.815,-27.206,-2.507,-0.44,-0.951,-90.78,-34.848,-5.746,-2.1,-0.918,-104.755,-40.137,-8.395,-4.382,-5.186,-79.221,-46.553,-7.326,-12.913,-9.859],[-96.054,-52.788,-2.87,2.966,1.159,-96.426,-40.119,-6.073,0.338,-0.041,-89.65,-56.566,-6.465,-0.041,0.622,-108.75,-35.778,-10.763,-3.883,-1.391,-99.114,-45.426,-15.506,-7.306,-2.865,-109.683,-65.559,-16.158,-19.883,-9.389]],
"kep": [[0.754,2.234,1.197,-3.557,2.031,-7.3,-1.371,-0.603,1.967,7.488,-7.223,-0.465,-1.45,-1.43,3.645,-3.572,-9.233,-9.578,0.513,-11.204,-13.008,-12.568,-5.594,-8.265,-16.091,62.752,4.22,-23.03,-20.263,-30.597],[-32.016,1.849,0.426,1.368,1.147,-33.009,-2.492,-0.24,1.075,2.605,-40.052,2.891,3.459,0.585,2.029,-48.519,-3.972,-3.784,-2.795,-0.567,-41.353,-16.997,-8.756,-4.442,-1.114,-29.999,10.714,-17.74,-8.048,-9.815],[-75.869,0.765,2.78,0.573,1.366,-78.819,2.971,2.349,0.275,2.157,-80.47,-5.066,1.463,2.175,1.637,-68.216,-19.413,-8.801,0.356,2.552,-60.416,-27.264,-14.196,-4.199,-4.747,-56.414,-17.243,-13.304,-19.146,-13.695],[-96.299,-12.196,1.115,3.478,2.53,-92.797,-8.018,2.593,3.742,3.01,-95.019,-14.433,0.751,1.139,2.387,-87.407,-33.486,-6.905,0.063,-0.572,-76.196,-31.244,-19.517,-4.448,-0.934,-67.58,-32.955,-31.421,-15.95,-14.31],[-95.382,-37.004,3.155,5.838,3.228,-95.289,-44.641,3.991,1.583,3.274,-96.72,-36.435,1.669,3.502,2.008,-89.735,-53.175,-7.463,-0.808,1.008,-81.668,-54.124,-28.3,-11.816,-3.863,-69.883,-45.947,-22.224,-31.53,-21.302],[-99.415,-64.641,-1.094,8.181,4.667,-96.386,-61.328,0.863,5.802,4.087,-96.258,-68.627,-1.141,5.636,4.695,-89.756,-65.103,-17.615,-0.646,1,-84.285,-61.128,-32.151,-15.019,-4.12,-75.747,-51.81,-37.405,-41.349,-20.817]],
"vp": [[114.365,-44.601,1.675,282.328,-1.463,26.204,23.757,12.49,9.16,-12.481,34.078,21.297,-3.658,40.326,-6.42,-16.424,20.17,12.742,-0.482,10.858,2.89,-3.055,-5.518,0.186,0.198,11.805,2.741,5.497,-2.975,0.429],[2440.089,312.302,178.473,136.518,101.868,516.462,122.283,75.163,83.632,-18.436,320.278,28.568,-10.792,36.873,12.011,53.632,-2.922,17.106,21.274,5.122,34.287,-0.062,10.248,1.252,-1.579,6.519,-15.576,0.403,-5.021,-1.171],[6519.899,542.225,31.152,127.651,-42.518,1268.816,102.897,19.748,54.117,5.431,646.419,167.397,33.004,25.198,16.686,108.257,51.994,65.462,4.787,-10.517,59.634,8.855,22.077,11.894,16.89,29.306,10.107,-5.047,11.915,13.847],[8659.784,2544.353,287.103,470.787,-85.695,1601.311,477.807,62.653,-48.314,19.823,830.436,286.372,5.348,41.259,13.33,156.823,64.71,46.766,2.003,15.434,64.585,25.412,16.706,9.111,1.588,71.154,31.889,23.204,1.235,14.512],[8722.762,7186.498,164.556,-710.432,0.852,1738.057,1609.224,73.954,100.49,-19.102,958.208,630.633,70.163,13.019,33.148,186.49,142.908,35.81,13.978,4.632,108.984,83.599,27.271,21.407,27.044,37.633,47.423,9.127,23.339,30.444],[10000.745,10751.789,783.521,-1270.541,-726.568,1867.284,1882.787,375.953,-15.564,-50.103,935.401,1148.427,199.264,-11.053,-37.446,213.368,185.023,65.534,31.772,9.557,97.963,84.644,46.857,28.924,14.443,53.58,66.593,21.837,40.79,22.921]]
}