{
"KTrans": [[8.54,3.142,5.053,2.164,4.469,12.079,7.399,10.116,7.962,6.46,23.308,18.519,14.039,15.601,14.424,139.078,92.314,75.519,67.558,65.268,338.8,215.488,175.451,153.4,142.061,890,543.064,428.349,381.36,352.897],[-10.794,-0.285,1.354,1.259,2.294,-4.879,0.908,2.912,4.255,4.353,7.854,8.688,7.216,7.869,6.832,81.493,57.269,41.831,34.185,30.945,209.204,125.882,91.583,74.906,64.292,509.975,289.81,211.62,169.112,143.557],[-21.029,-7.2,-2.282,-0.815,0.687,-11.748,-0.789,0.474,1.088,2.357,-8.232,1.715,3.675,3.626,4.343,60.519,40.929,33.974,27.33,24.014,151.459,103.446,72.541,60.652,51.02,358.463,233.645,167.956,133.803,112.447],[-28.777,-8.887,-3.947,-3.166,-1.854,-26.828,-7.427,-2.798,-1.284,0.014,-23.26,-2.738,-0.007,1.624,2.215,33.95,36.331,27.478,23.633,20.703,101.276,81.511,65.587,51.518,44.852,251.745,203.28,146.474,116.453,97.617],[-38.694,-13.512,-7.397,-4.866,-3.403,-39.803,-11.276,-4.685,-3.486,-1.839,-31.605,-8,-2.538,-1.148,-0.241,11.67,25.957,21.796,19.68,15.864,75.019,71.39,54.303,46.038,40.188,199.659,177.704,130.013,108.779,88.04],[-50.669,-17.402,-11.413,-6.782,-5.2,-45.198,-16.174,-7.602,-5.402,-3.004,-39.758,-8.817,-5.942,-2.811,-1.603,-4.818,24.343,17.16,14.918,14.392,51.179,60.246,50.114,41.477,36.266,149.595,156.481,120.744,97.033,83.63]],
"ve": [[0.845,3.223,4.328,12.516,13.614,7.43,4.243,2.594,3.882,10.651,9.787,3.911,2.394,0.986,0.381,45.438,14.262,0.407,-7.961,-15.899,94.161,33.189,8.829,-5.664,-16.711,190.826,78.879,35.597,10.586,-6.014],[0.719,0.768,0.157,1.125,0.932,5.345,1.728,1.85,1.664,2.321,9.801,4.397,2.848,2.324,2.084,48.781,23.205,14.124,9.42,6.86,99.154,46.681,29.356,19.802,13.314,196.776,96.085,60.915,41.385,28.932],[0.207,-0.08,-0.129,0.335,0.325,4.606,1.43,1.366,0.811,0.867,9.192,4.469,2.55,1.907,1.518,49.406,23.443,15.121,10.826,8.553,98.038,47.997,30.986,22.121,17.304,198.942,96.571,63.415,46.219,35.197],[0.983,-0.529,-0.214,-0.084,-0.075,5.385,1.466,0.894,0.783,0.514,10.688,3.825,2.965,1.791,1.445,49.598,23.9,15.493,11.178,8.822,99.067,48.226,31.538,22.919,18.2,198.753,97.618,64.22,47.309,37.227],[1.878,-0.369,-0.236,-0.365,-0.273,4.178,1.721,0.844,0.783,0.316,10.239,3.57,2.644,1.722,1.258,49.241,23.588,15.407,11.712,8.64,99.167,48.679,31.662,23.379,18.513,199.376,97.356,64.612,47.838,37.52],[1.929,-0.375,-0.345,-0.768,-0.595,5.465,1.285,0.673,0.537,-0.038,9.922,4.389,2.199,1.542,0.832,-376.626,23.702,15.434,11.458,8.858,99.571,49.096,31.556,23.213,18.906,200.231,97.753,64.627,48.076,38.208]],
"kep": [[-0.871,-7.988,-6.741,-14.674,-11.798,-4.285,-5.366,-0.89,-3.561,-8.869,2.92,4.659,2.544,6.889,6.137,50.196,53.899,59.865,66.571,80.608,106.247,116.005,130.88,145.108,165.764,210.223,227.425,255.056,296.637,339.092],[-19.131,-9.848,-7.87,-8.788,-7.678,-17.66,-9.632,-7.968,-6.605,-7.106,-10.37,-5.059,-5.049,-4.018,-4.622,11.15,16.338,13.179,11.626,11.565,41.346,40.221,34.853,32.92,32.008,87.055,80.996,76.237,73.274,71.946],[-28.284,-15.397,-10.913,-10.018,-8.655,-23.026,-10.887,-9.752,-8.726,-7.633,-23.433,-11.338,-7.967,-7.416,-6.439,-2.059,3.937,5.917,4.552,3.973,15.731,25.148,19.909,19.729,17.155,39.614,54.504,49.236,45.521,42.998],[-35.757,-16.59,-12.41,-11.802,-10.604,-36.526,-16.873,-12.332,-10.867,-9.443,-36.812,-14.736,-11.568,-9.132,-8.313,-18.443,0.227,0.451,1.215,0.945,-7.909,11.506,14.586,12.179,11.526,7.358,39.698,36.592,33.698,31.041],[-45.095,-20.982,-15.526,-13.109,-11.861,-47.568,-20.556,-13.951,-12.843,-10.958,-43.375,-19.074,-13.573,-11.556,-10.335,-31.723,-7.196,-3.941,-2.503,-2.953,-19.775,4.95,6.673,7.728,7.642,-8.8,28.11,27.155,28.491,24.423],[-55.703,-24.462,-19.055,-14.501,-13.214,-52.528,-24.592,-16.462,-14.387,-11.692,-50.068,-20.499,-16.205,-12.899,-11.201,-42.118,-8.477,-7.633,-6.18,-4.376,-30.993,-2.095,3.853,4.503,4.288,-24.252,17.992,22.032,21.098,20.896]],
"vp": [[102.188,-40.871,162.34,-167.564,35.961,37.36,-10.854,41.768,6.899,6.157,-6.738,39.516,-13.514,19.203,23.857,-4.197,-2.65,3.572,-4.212,0.221,-2.833,-4.929,-1.968,-1.065,-1.183,-3.683,-4.444,-4.309,-3.162,-1.129],[1627.172,743.248,90.975,-53.494,70.548,327.011,18.876,13.362,43.885,24.113,190.095,33.735,-2.231,5.096,-34.533,38.7,6.475,-3.686,-5.254,-3.709,17.09,3.935,-5.945,-4.476,-2.038,4.708,-1.64,-2.93,-5.285,-4.915],[3955.828,1240.394,563.242,-188.94,201.231,748.24,235.176,156.933,45.324,29.064,340.261,150.714,-4.335,30.284,-5.1,75.515,12.3,0.384,5.263,-3.292,33.53,5.498,-4.411,1.145,-5.394,16.477,-0.755,-4.847,-2.24,-4.316],[5364.167,2267.064,1024.396,316.231,376.306,1062.743,400.549,147.333,123.585,21.72,546.934,160.475,46.071,27.57,30.315,106.676,40.501,20.9,4.287,2.264,44.639,16.104,-1.868,5.196,3.774,20.274,4.874,-3.808,-3.533,-2.191],[6524.446,3943.491,1019.786,630.673,522.161,1260.645,730.745,233.803,108.848,72.127,646.97,424.338,99.738,47.512,15.551,119.694,59.057,20.587,12.03,-6.872,58.748,31.382,3.8,-2.067,-1.148,28.112,14.894,3.129,-2.913,-3.744],[6984.463,4980.46,2280.289,402.995,598.607,1358.834,965.275,443.352,113.119,110.465,734.367,546.475,169.883,105.383,67.512,133.808,103.527,37.788,10.058,-0.458,64.179,48.119,6.076,0.486,-0.201,32.592,26.358,4.409,4.807,0.066]]
}