{
"KTrans": [[43.146,30.688,23.146,20.33,21.574,54.713,31.958,28.484,24.401,25.378,64.705,51.277,42.724,34.534,41.414,223.773,142.524,109.585,97.059,89.41,594.776,271.181,218.21,193.265,181.305,1492.69,729.283,550.329,481.654,425.814],[-60.076,80.523,45.13,29.94,40.587,-44.657,86.922,58.915,43.153,43.435,-42.745,89.327,53.211,41.12,31.721,7.805,147.55,102.183,83.341,67.438,35.021,274.971,151.683,128.246,121.144,434.053,606.892,317.768,264.64,217.137],[-123.979,115.031,99.818,83.408,52.819,-114.937,129.08,81.953,64.945,51.661,-119.114,127.714,95.535,74.18,44.857,-133.124,211.86,148.87,97.175,78.623,-178.379,290.941,242.01,187.823,135.951,-148.635,646.841,456.398,301.068,209.91],[-130.306,-93.509,186.838,96.836,80.64,-134.562,-46.353,226.315,105.074,83.152,-134.739,-141.271,183.973,118.133,71.856,-118.123,-148.836,291.996,166.546,114.668,-132.813,-128.453,400.28,242.233,153.701,-272.638,-132.674,651.52,360.273,235.474],[-115.309,-193.614,4.519,208.505,113.619,-120.592,-169.44,112.143,184.634,96.606,-123.022,-175.876,65.931,204.294,104.986,-128.532,-172.77,92.615,301.068,172.754,-130.896,-190.391,157.21,313.705,201.894,-206.682,-234.77,231.816,514.553,280.673],[-116.667,-151.584,-182.494,264.194,224.827,-118.263,-157.237,-187.337,261.957,174.932,-121.559,-172.991,-156.522,183.923,171.349,-128.218,-213.682,-128.031,373.462,250.41,-141.179,-239.021,-187.6,431.158,341.749,-207.044,-303.878,-31.159,650.857,386.691]],
"ve": [[7.64,5.221,16.979,22.588,24.747,7.432,7.976,28.17,7.986,-30.832,10.851,4.485,-111.464,11.956,1.324,57.612,15.053,-0.068,-12.077,-17.836,97.116,35.058,6.542,-8.83,-18.647,195.928,80.685,39.034,12.338,-5.812],[-39.463,1.805,2.096,0.685,1.903,1.131,5.005,5.106,2.498,2.55,9.28,5.422,3.015,3.068,1.901,48.219,23.361,14.225,10.5,5.935,109.189,47.169,29.29,19.881,14.681,181.786,97.346,60.178,44.624,30.292],[2.293,3.171,3.172,3.445,2.393,13.156,6.276,2.535,3.272,2.613,15.955,8.055,4.305,5.096,2.1,51.998,32.214,16.015,12.166,10.409,104.839,50.105,31.995,26.849,21.899,194.538,100.461,68.138,49.728,35.5],[13.902,3.651,3.46,2.029,2.985,8.061,11.417,6.353,4.292,3.633,14.926,11.567,6.424,4.08,4.102,49.46,30.504,20.487,14.384,12.14,107.037,41.528,30.082,27.759,21.224,217.295,100.912,68.213,50.075,39.369],[5.009,4.5,8.014,2.933,1.651,4.726,12.473,3.746,3.309,1.169,7.848,7.429,2.59,2.688,2.375,52.932,27.346,19.456,15.298,13.398,99.743,54.9,40.404,24.84,21.968,198.449,97.374,70.533,50.933,38.618],[2.268,2.143,4.372,3.547,4.031,9.194,3.918,2.717,3.479,3.532,18.05,6.691,4.937,5.095,2.615,69.449,27.082,19.775,16.641,12.904,-1015.335,48.082,36.063,29.144,23.478,204.861,103.93,52.297,52.309,40.981]],
"kep": [[32.951,28.323,26.047,25.754,31.78,41.039,29.732,29.407,30.872,37.487,45.599,45.106,46.521,48.498,66.607,114.565,106.793,107.652,122.082,132.521,248.571,170.416,194.261,216.356,241.208,433.565,355.274,365.815,414.082,454.136],[-65.408,66.644,37.56,25.849,36.986,-55.212,68.294,47.388,36.899,38.299,-49.359,68.919,42.393,33.612,26.945,-32.156,90.849,69.303,61.79,54.209,-35.698,143.538,87.543,85.097,89.089,76.404,247.412,153.196,147.725,138.167],[-118.724,93.367,83.657,71.217,44.268,-110.885,102.04,67.06,52.999,43.158,-113.612,96.886,75.829,59.546,35.668,-117.996,130.309,102.589,67.59,56.488,-135.103,145.439,144.895,119.863,89.598,-112.397,258.581,220.862,160.545,120.307],[-126.022,-92.808,160.464,82.826,67.745,-128.245,-52.468,191.486,87.301,68.794,-127.647,-134.216,149.878,96.536,57.78,-108.548,-133.964,208.158,120.904,83.914,-112.044,-113.198,250.999,156.801,100.622,-153.592,-111.901,326.561,193.201,131.608],[-111.872,-181.425,-7.849,179.441,97.663,-115.825,-158.002,88.982,155.259,81.619,-117.892,-163.228,47.638,170.793,86.366,-115.554,-149.619,53.181,228.361,130.117,-113.582,-153.061,79.646,208.873,135.445,-131.975,-158.977,91.204,287.507,159.846],[-113.948,-142.122,-171.433,227.603,194.539,-114.424,-147.679,-173.762,222.219,148.422,-117.082,-160.509,-145.787,151.825,144.32,-115.471,-180.233,-119.107,281.526,191.429,-118.309,-182.372,-155.651,289.431,239.987,-133.581,-192.504,-56.423,368.514,227.505]],
"vp": [[2525.464,1955.853,1553.297,1664.766,1819.307,466.238,357.866,366.189,406.673,354.679,185.859,212.268,212.829,188.45,210.09,37.507,37.697,34.722,40.824,37.26,24.075,17.954,18.932,19.207,21.04,10.442,8.845,10.8,10.492,11.237],[7881.998,6263.437,5260.38,4917.092,7145.659,1515.807,1340.309,1282.896,1172.934,1371.482,621.843,566.107,602.037,563.388,583.397,142.969,101.463,116.083,114.346,118.762,79.344,56.328,48.096,60.964,63.862,34.157,30.774,26.286,30.29,30.632],[8958.034,12460.097,10400.044,11655.481,10061.899,1810.447,2735.005,1588.039,2052.448,2040.178,894.394,1254.957,918.78,954.187,886.982,181.854,256.406,189.987,186.645,183.983,100.625,103.847,94.343,118.456,113.524,42.86,62.305,57.988,50.568,49.633],[11899.63,15430.582,15674.258,10286.8,15543.432,2048.309,3035.929,3607.859,2507.457,2969.84,1016.712,1735.312,1481.778,1515.71,1308.697,192.519,308.58,347.032,287.947,284.844,96.589,137.291,152.648,150.387,142.37,58.277,79.049,82.424,72.129,62.503],[12113.282,17598.578,20451.131,19246.682,17399.227,2115.638,3125.896,4156.323,3433.955,2711.539,1029.526,1811.008,1712.16,1935.754,1622.561,217.182,357.586,362.874,405.83,379.542,107.084,163.167,234.262,165.025,174.09,55.77,72.867,85.483,99.484,81.332],[12083.709,18843.353,24432.677,24634.542,21659.063,2538.649,3543.702,4715.11,5046.282,4394.003,1207.428,1840.49,2521.566,2654.352,2002.35,231.953,397.437,468.782,559.549,429.027,115.067,172.437,238.333,277.232,274.863,64.738,101.994,106.57,134.489,94.84]]
}