{
"KTrans": [[2.289,7.192,3.062,4.116,-0.416,5.718,14.177,13.351,11.318,11.706,9.834,24.247,25.118,22.019,22.114,-7.432,71.159,90.428,94.35,97.106,-185.459,46.348,104.094,139.214,143.587,-177.962,-0.155,-64.525,91.648,115.459],[-14.471,-4.426,0.374,0.763,-0.257,-4.66,2.366,1.529,5.554,3.865,6.655,7.963,3.542,9.63,10.011,51.166,48.812,-9.396,28.391,37.407,12.393,51.422,-14.499,19.032,52.291,-282.253,-148.687,-203.087,-28.141,40.13],[-21.739,-2.976,-1.509,-1.628,0.309,-17.154,2.073,3.082,1.158,0.178,-11.627,7.325,6.982,4.754,0.897,32.42,64.128,54.235,31.168,-0.972,20.67,100.351,89.849,22.795,-29.359,-73.988,14.805,21.545,-28.345,-88.62],[-29.037,-5.66,-2.159,-0.711,-0.412,-24.434,0.068,1.285,1.094,1.292,-15.489,5.856,4.412,6.028,4.422,20.213,49.21,41.752,37.8,37.224,-0.216,149.168,94.432,63.515,73.507,-49.657,34.751,97.65,57.625,64.293],[-39.013,-7.564,-2.74,-1.438,-0.587,-34.495,-4.71,0.497,0.692,1.468,-30.97,0.253,3.607,4.6,4.236,-9.818,46.465,31.076,34.837,31.145,-10.2,65.035,90.055,82.586,56.442,-53.641,105.64,102.6,103.864,75.065],[-47.423,-10.4,-3.427,-1.422,-1.332,-45.202,-5.37,1.532,1.14,1.483,-41.618,-4.138,4.638,4.599,2.379,-39.729,39.641,40.798,28.111,26.762,-41.885,49.787,84.747,74.227,59.438,-66.72,-48.661,92.796,119.094,152.139]],
"ve": [[-3.934,-11.228,13.207,-2.696,-31.756,26.159,-107.223,-0.644,-11.884,-58.686,28.722,-88.379,-35.354,-68.617,-604.373,48.478,-47.106,-34.64,-57.49,-96.446,99.817,28.687,-9.859,-91.514,-53.312,213.982,82.921,32.385,2.057,-15.761],[-4.09,-6.94,-5.679,2.747,2.37,2.762,-1.112,0.139,6.777,4.077,6.122,2.701,1.337,-15.808,5.553,48.549,20.976,20.188,7.407,-101.9,105.475,52.22,32.174,18.023,35.848,202.29,113.535,66.075,46.596,25.87],[-0.959,-0.255,-0.605,-3.751,9.244,2.762,1.608,0.686,-2.012,1.963,7.41,4.172,2.407,-1185.091,-26.864,66.345,23.427,18.245,16.607,8.172,82.202,49.306,35.63,25.95,19.755,199.298,103.084,68.899,50.721,39.101],[-1.595,-0.02,-0.152,-0.363,-0.528,1.883,1.845,1.103,0.611,0.304,6.571,4.333,2.998,2.088,1.568,47.287,24.305,16.082,12.572,10.199,56.767,43.173,29.688,26.998,19.664,194.947,96.988,69.585,52.135,43.41],[0.41,-0.86,0.038,-0.196,-0.042,2.396,1.444,1.436,0.912,0.559,8.244,4.626,2.803,2.347,1.88,47.301,24.071,15.811,12.678,10.25,107.003,23.036,32.295,24.849,17.146,196.954,98.041,67.489,47.879,38.8],[-1.485,-0.666,-0.44,0.118,-0.262,5.351,1.75,1.594,0.946,0.936,7.155,3.794,3.178,2.401,1.856,55.876,24.422,16.723,12.346,9.78,97.969,47.594,32.751,24.949,20.236,200.576,90.432,69.269,38.782,40.616]],
"kep": [[-128.397,-30.006,-8.679,-11.467,1.583,-126.916,-34.752,-34.2,-22.008,-22.328,-125.124,-48.852,-42.265,-36.755,-34.003,-178.388,-225.748,-181.18,-180.519,-194.921,-265.198,-386.375,-397.875,-363.181,-397.096,-185.572,-309.7,-707.028,-681.692,-773.998],[-28.9,-28.604,-122.24,-9.151,1.722,-25.335,-13.984,-136.415,-32.911,-6.752,-15.716,-7.37,-122.489,-45.688,-21.559,-19.128,5.633,-191.269,-178.309,-91.442,-65.559,-27.656,-177.694,-288.599,-207.943,-156.933,-177.989,-335.873,-274.869,-335.587],[-33.774,-8.973,-6.658,-27.018,-125.293,-31.351,-5.076,-1.175,-17.531,-151.099,-29.439,-1.253,-0.19,-7.325,-143.823,-25.507,31.331,50.229,20.214,-197.605,-56.185,23.232,48.374,-36.344,-217.116,-93.337,-60.485,-55.715,-120.984,-257.343],[-40.287,-8.807,-7.125,-5.27,-5.152,-36.641,-5.461,-3.552,-2.942,-3.968,-33.062,-1.601,-1.769,2.958,4.518,-31.099,14.3,23.252,36.019,59.283,-60.348,51.728,44.937,37.74,76.097,-84.617,-43.24,2.475,-20.752,-4.495],[-48.59,-12.808,-4.223,-3.617,-2.943,-47.76,-10.714,-4.697,-1.761,-2.464,-45.86,-7.214,-2.356,1.061,1.837,-51.406,10.257,11.605,23.982,30.668,-61.273,-0.004,40.945,53.059,41.399,-84.091,-12.049,7.177,24.335,14.815],[-56.442,-15.6,-6.348,-3.797,-3.08,-57.352,-11.361,-0.841,-1.394,-0.216,-55.649,-12.24,0.846,0.05,-0.878,-66.995,4.637,19.868,13.761,20.944,-77.121,-13.134,32.047,38.498,40.66,-90.92,-79.484,-2.347,36.467,87.144]],
"vp": [[146.763,115.744,117.469,224.729,-78.051,-57.52,-13.721,23.648,-22.841,25.394,11.846,30.018,-9.25,-5.024,9.535,3.184,-3.259,-10.836,-7.407,-5.243,8.875,-4.601,6.124,-4.141,7.12,0.176,-11.535,3.172,-6.102,3.445],[1767.334,432.195,-22.705,-203.595,-98.241,351.146,35.935,-45.432,10.935,17.356,109.776,35.928,-8.037,-6.264,14.507,21.269,1.303,-3.378,-1.418,-11.409,7.873,-2.389,-2.547,1.708,8.491,-1.021,0.228,-3.096,5.612,-11.894],[3619.25,928.61,-65.437,578.22,-92.577,759.363,152.11,50.275,-10.117,7.161,301.139,79.921,32.753,13.339,8.434,57.493,4.244,-1.976,10.656,-7.999,21.56,-2.547,-8.259,-16.791,-6.274,13.095,-13.933,-5.391,-26.733,0.325],[4598.719,1614.084,769.107,281.246,-163.985,1018.003,280.993,174.016,6.91,39.818,496.62,170.227,27.851,29.205,39.344,71.614,18.019,0.944,1.508,-4.862,40.164,25.013,2.428,-17.813,-1.828,4.345,-4.957,-7.728,3.765,-5.782],[6349.241,3091.428,721.949,86.997,517.796,1236.24,581.298,179.731,94.095,103.366,624.231,292.77,71.671,58.472,32.689,116.442,58.906,-19.261,14.235,6.759,38.724,18.15,0.731,-2.128,-18.429,6.225,7.799,-1.008,-9.002,-7.311],[6665.123,4685.239,1610.404,551.254,630.233,1423.174,903.827,367.711,162.002,84.94,650.781,373.165,174.439,162.79,50.665,107.668,99.895,34.613,16.25,5.917,46.578,42.621,23.2,26.526,-0.329,22.62,20.483,14.382,-6.285,1.835]]
}