{
"KTrans": [[-2.951,-0.009,-2.966,0.321,0.141,-2.284,-2.899,-0.561,1.728,1.872,1.858,3.38,2.916,1.949,1.889,18.659,12.453,12.058,8.751,6.727,43.336,25.227,21.704,21.532,17.938,96.765,62.593,49.988,39.792,36.402],[-17.055,-0.008,-0.742,1.098,0.572,-21.16,0.024,2.825,1.013,1.337,-19.226,0.352,0.895,1.626,0.161,-5.169,8.632,7.015,5.435,5.155,13.219,21.299,15.23,11.841,9.253,37.694,40.448,30.282,23.976,18.97],[-46.335,-3.212,-1.929,-0.839,-0.238,-42.713,-1.6,-0.087,-0.249,0.022,-43.775,-0.08,0.307,1.259,0.898,-34.54,5.232,6.03,4.352,4.328,-24.811,16.353,14.65,11.12,7.555,-25.516,37.284,28.998,22.634,16.264],[-66.115,-8.653,0.161,-0.76,-0.647,-62.414,-7.578,0.633,1.495,0.484,-65.65,-5.312,-0.598,1.798,0.736,-57.632,-0.671,6.168,5.352,4.172,-56.011,11.39,10.062,8.126,8.56,-46.531,26.558,25.7,19.35,17.426],[-76.814,-15.344,-4.982,-0.994,-0.656,-77.793,-13.227,-2.379,-1.795,1.579,-75.459,-16.368,-3.24,-0.129,0.367,-70.476,-6.606,3.101,3.508,3.977,-68.889,0.237,7.909,8.452,8.99,-70.895,11.703,23.291,18.985,15.708],[-85.264,-26.053,-5.496,-2.642,-0.405,-84.911,-22.557,-4.513,-0.105,-1.256,-83.936,-21.135,-3.554,0.315,0.241,-83.379,-19.047,1.273,1.791,2.904,-79.285,-14.972,8.247,8.762,7.835,-80.134,-4.997,17.825,17.716,17.281]],
"ve": [[1.888,1.758,6.122,3.597,8.969,4.034,2.219,4.435,3.824,1.409,5.106,1.233,2.38,2.223,5.715,7.716,4.256,-0.541,-2.099,-12.618,16.689,4.174,-0.208,-6.15,-6.586,31.141,8.401,-2.483,-7.91,-11.384],[-5.607,1.232,0.374,0.186,0.004,-5.997,0.685,0.069,0.227,0.042,-4.174,0.74,0.842,0.817,0.949,1.012,4.402,2.652,1.496,1.083,13.479,8.915,4.585,2.845,1.846,28.248,16.496,10.389,6.297,3.987],[-17.24,-0.555,-0.185,-0.37,-0.219,-16.449,-0.601,-0.382,0.242,0.467,-15.715,-0.317,0.229,0.536,0.426,-6.709,3.607,3.189,2.048,1.594,2.111,7.173,5.7,4.144,3.125,13.319,18.884,11.482,8.678,6.05],[-26.386,-3.094,0.036,-0.551,0.177,-25.752,-2.217,0.06,0.027,-0.074,-22.201,-0.963,-0.117,0.068,0.287,-18.158,1.631,3.13,2.057,1.328,76.723,7.276,5.635,4.526,3.122,0.022,15.686,12.44,8.838,7.252],[-34.442,-5,-1.19,-0.402,-0.191,-36.498,-3.97,-1.649,-0.436,0.323,-36.511,-6.078,-0.489,-0.149,0.059,-27.563,-0.416,1.664,1.689,1.787,-18.777,3.506,5.613,4.158,3.343,-8.156,12.03,12.91,8.899,7.059],[-45.691,-9.46,-1.852,-0.904,-0.639,-44.412,-8.592,-1.741,-0.395,0.171,-45.821,-8.173,-0.998,-0.276,0.22,-38.253,-4.746,1.259,1.375,1.491,-23.225,-0.972,4.159,4.056,3.687,-10.335,6.422,10.605,8.796,7.73]],
"kep": [[-3.876,-0.6,-5.388,0.429,-2.338,-5.159,-3.454,-2.223,1.699,4.45,-2.303,3.633,2.333,3.025,2.376,10.596,9.017,14.746,13.132,12.044,22.872,21.251,23.963,31.73,31.762,49.176,50.616,55.956,55.64,58.968],[-12.391,-1.119,-1.04,1.031,0.713,-16.292,-0.616,2.854,0.866,1.419,-15.446,-0.426,0.121,0.921,-0.666,-8.081,4.109,4.281,3.966,4.114,-1.532,11.332,10.195,8.818,7.371,6.209,20.122,17.868,16.661,14.467],[-36.084,-2.754,-1.722,-0.442,0.023,-32.836,-1.151,0.34,-0.476,-0.425,-35.016,0.285,0.097,0.706,0.505,-30.97,1.607,2.759,2.248,2.733,-28.197,8.602,8.476,6.741,4.319,-37.534,15.001,15.543,12.834,9.627],[-56.728,-5.573,0.171,-0.199,-0.795,-51.358,-5.385,0.539,1.46,0.581,-56.031,-4.351,-0.521,1.74,0.467,-51.037,-2.244,2.934,3.223,2.838,-52.549,3.832,4.11,3.423,5.294,-51.797,8.899,11.704,9.595,9.445],[-66.235,-10.982,-3.785,-0.559,-0.463,-68.453,-9.752,-0.713,-1.383,1.254,-66.052,-11.098,-2.783,0.006,0.283,-63.736,-6.285,1.405,1.785,2.156,-65.092,-3.252,2.017,4.107,5.453,-70.95,-0.597,8.984,9.109,8.024],[-76.975,-18.516,-3.733,-1.791,0.249,-76.763,-15.373,-2.702,0.286,-1.425,-76.538,-14.25,-2.544,0.556,0.013,-76.51,-15.185,0.049,0.428,1.371,-75.493,-14.539,3.988,4.557,3.97,-79.622,-11.868,6.25,8.147,8.795]],
"vp": [[141.49,-22.385,-44.656,-57.263,-82.123,-8.161,13.7,11.73,-27.437,-33.142,-14.373,-12.468,-18.1,-20.783,-11.767,-14.1,-16.999,-18.153,-14.425,-14.031,-16.751,-15.802,-15.644,-17.139,-16.932,-17.206,-16.713,-16.483,-15.488,-15.885],[688.342,6.559,-15.915,-32.7,34.529,148.071,7.727,-5.86,-17.223,4.277,57.374,-9.916,-14.287,-23.818,-22.011,-2.171,-18.266,-16.388,-18.302,-15.648,-12.624,-18.349,-17.287,-16.867,-17.499,-13.646,-17.487,-17.833,-16.138,-15.738],[1858.136,224.111,100.261,206.865,94.318,342.283,36.235,26.647,-31.085,-42.249,182.385,4.297,-2.555,-9.477,-7.09,16.042,-10.928,-16.972,-16.212,-19.053,1.621,-14.94,-16.568,-19.194,-17.712,-4.78,-18.05,-18.404,-18.58,-16.945],[3109.371,694.855,-44.753,64.955,-60.767,551.645,98.896,9.697,-8.553,-26.148,278.627,21.543,11.072,1.69,-18.483,41.402,-5.255,-13.425,-17.09,-17.28,15.253,-14.069,-16.615,-17.345,-17.113,0.314,-15.788,-18.226,-17.354,-18.906],[3754.084,1115.142,477.579,211.701,112.754,740.417,178.909,99.529,39.824,-26.522,372.165,133.062,19.212,11.916,-3.728,55.324,4.491,-10.632,-13.705,-19.086,22.722,-4.887,-16.168,-17.144,-16.72,7.501,-10.709,-18.584,-18.186,-18.958],[4614.486,1886.517,766.335,232.081,358.156,901.748,345.374,148.698,49.572,21.13,428.724,167.852,26.91,18.364,13.903,80.062,18.873,-7.085,-7.431,-15.642,29.582,3.371,-11.712,-15.684,-18.425,9.927,-4.823,-15.208,-17.426,-18.917]]
}