{
"KTrans": [[-0.016,0.573,-1.358,1.653,0.972,4.01,6.053,5.336,3.679,4.883,11.941,6.025,7.115,5.54,3.866,73.222,50.354,38.731,32.902,29.745,185.776,110.449,85.868,75.896,70.535,481.983,260.47,207.879,182.382,161.215],[-13.343,-1.984,0.526,0.915,0.553,-6.668,2.746,0.112,2.201,1.26,-4.991,4.4,3.133,4.139,1.938,51.182,36.309,24.878,17.072,17.256,114.686,74.188,56.261,42.066,35.388,243.357,176.297,116.122,90.69,77.542],[-34.976,-3.713,-1.991,0.298,-0.461,-31.996,0.446,0.793,1.133,1.416,-28.061,4.41,3.128,2.144,2.515,9.493,30.459,20.349,18.189,14.979,55.753,66.406,45.59,37.81,29.19,113.539,153.329,106.76,79.983,64.881],[-51.634,-7.543,0.251,-0.708,0.163,-47.921,-0.409,0.869,-0.055,1.144,-47.22,-2.523,3.497,2.781,2.708,-17.528,25.901,19.958,15.858,14.206,0.254,56.291,44.337,34.646,27.639,45.264,125.573,99.815,76.6,60.911],[-61.908,-10.811,-4.434,-0.835,0.446,-61.141,-8.058,-0.099,-1.026,0.047,-60.822,-6.635,0.606,0.159,1.469,-39.918,14.384,20.214,14.261,12.729,-21.916,46.007,42.027,33.157,26.784,9.814,109.013,96.053,76.561,58.432],[-71.627,-17.369,-4.491,-0.287,-1.173,-68.972,-15.895,-3.049,-2.084,-1.266,-67.173,-13.301,-1.733,-0.02,1.233,-54.672,5.989,15.25,13.767,11.3,-34.721,29.314,38.223,30.51,25.687,-9.774,83.244,86.061,66.181,56.307]],
"ve": [[3.477,2.321,5.406,2.111,5.96,4.585,1.86,0.856,2.053,-0.077,5.564,3.375,1.202,-0.151,3.063,26.617,6.793,-1.212,-7.487,-11.484,54.647,16.094,0.699,-9.644,-18.1,112.858,41.164,13.37,-4.683,-16.722],[-0.579,0.264,0.608,0.986,0.037,2.525,1.443,1.455,0.478,0.476,3.965,3.027,1.956,1.504,0.65,28.528,14.787,8.724,6.056,3.984,57.876,28.983,17.397,11.037,6.934,114.634,59.187,35.722,23.622,15.298],[-5.898,0.774,0.086,0.68,0.036,-3.476,1.182,1.271,0.737,0.568,0.448,3.593,2.136,1.694,1.262,24.384,15.263,9.406,7.486,5.092,52.557,29.953,19.79,14.079,10.269,107.076,60.938,39.449,27.529,20.834],[-10.233,-0.691,-0.083,0.113,0.168,-5.892,0.621,1.298,0.759,0.809,-3.439,2.338,1.838,1.349,1.035,17.157,14.661,10.015,7.279,5.66,46.64,29.599,19.834,14.361,11.336,109.379,59.43,40.368,29.825,22.885],[-14.201,-2.155,-0.255,-0.107,-0.047,-10.915,-0.378,0.793,0.527,0.614,-8.353,0.685,1.458,1.305,0.865,-30.085,13.564,9.823,7.493,5.846,43.637,28.72,20.133,15.309,12.094,93.611,59.253,40.778,30.046,23.943],[3.263,-2.893,-1.535,-0.004,0.008,-14.475,-2.127,0.121,0.321,0.076,-14.623,0.223,1.717,1.273,1.109,12.043,11.369,9.376,7.391,5.815,39.015,26.38,19.394,15.347,12.222,89.506,55.21,39.222,30.402,24.418]],
"kep": [[-2.32,-0.371,-4.291,2.448,0.604,0.567,5.481,6.16,4.875,9.357,6.52,3.68,8.188,8.201,4.646,37.525,41.651,42.037,45.266,49.222,85.926,81.84,85.475,96.084,110.476,173.683,155.688,171.757,197.038,214.533],[-13.018,-2.122,0.042,0.028,0.619,-8.901,1.399,-1.238,1.83,0.9,-8.582,1.598,1.303,2.676,1.385,17.975,18.806,14.927,10.45,12.87,35.88,35.036,33.145,28.057,26.665,58.334,73.635,59.262,54.281,54.016],[-31.492,-4.471,-2.015,-0.341,-0.463,-30.431,-0.695,-0.457,0.442,0.861,-28.237,0.882,0.957,0.485,1.265,-12.715,13.294,9.974,10,9.432,0.597,28.09,21.522,20.838,17.16,1.216,57.405,48.184,41.077,36.446],[-46.474,-6.913,0.39,-0.807,0.004,-45.514,-0.828,-0.411,-0.81,0.339,-45.808,-4.587,1.642,1.474,1.675,-31.643,9.875,9.022,8.003,8.084,-33.06,20.698,20.449,17.726,14.617,-31.222,41.431,42.342,36.034,30.932],[-57.581,-8.755,-4.206,-0.741,0.474,-58.065,-7.6,-0.901,-1.549,-0.558,-58.611,-7.248,-0.802,-1.112,0.591,-49.136,0.767,9.472,6.341,6.482,-47.774,13.5,18.218,15.463,13.107,-46.013,31.35,39.351,35.79,27.828],[-66.56,-14.887,-3.016,-0.289,-1.198,-64.622,-13.974,-3.055,-2.395,-1.325,-64.001,-13.442,-3.394,-1.287,0.118,-61.477,-4.715,5.425,5.919,5.183,-54.716,2.287,15.747,13.167,11.992,-55.059,18.021,33.652,27.391,25.624]],
"vp": [[8.567,-25.411,-18.525,-68.747,-99.175,-48.316,-69.516,-49.474,-66.083,-73.951,-59.143,-54.474,-59.353,-52.547,-57.113,-55.251,-57.724,-57.57,-57.071,-57.19,-57.568,-57.488,-56.921,-57.072,-56.677,-59.484,-57.295,-57.477,-57.161,-56.207],[296.791,26.469,10.513,-35.462,-19.049,-15.674,-46.908,-54.979,-60.911,-42.352,-31.511,-60.911,-56.084,-59.6,-56.402,-54.449,-61.053,-58.009,-57.326,-59.5,-56.571,-60.213,-60.306,-58.251,-57.895,-56.083,-60.134,-59.369,-57.934,-58.056],[823.55,43.867,-37.683,-34.388,24.144,111.59,-23.645,-44.417,-68.266,-54.629,25.043,-52.536,-56.349,-50.573,-61.541,-44.169,-59.24,-60.216,-61.753,-60.114,-51.458,-59.46,-61.142,-59.589,-57.61,-51.487,-60.469,-60.95,-59.192,-58.829],[1332.981,235.668,94.255,-39.734,25.509,181.752,4.777,-40.536,-47.531,-31.842,80.221,-26.501,-55.113,-48.706,-50.404,-33.082,-56.915,-56.677,-60.692,-59.878,-43.515,-57.719,-58.726,-60.183,-59.704,-49.286,-59.133,-60.517,-61.723,-60.898],[1538.807,514.935,194.189,99.107,68.229,272.783,44.937,-12.037,-35.701,-42.702,110.051,-2.054,-34.64,-42.142,-43.36,-27.132,-49.373,-58.034,-59.64,-58.929,-41.34,-55.361,-60.254,-59.695,-60.404,-46.331,-58.497,-61.715,-59.986,-61.355],[2043.37,778.331,431.042,258.561,110.604,334.725,100.627,18.631,-14.373,-15.085,149.319,23.442,-31.436,-24.52,-50.289,-18.431,-44.459,-55.526,-60.205,-59.167,-36.18,-51.206,-57.087,-59.873,-60.577,-44.21,-53.975,-57.745,-61.312,-61.388]]
}