{
"KTrans": [[3.909,7.375,3.237,2.338,2.378,18.331,5.186,7.916,7.479,5.476,24.692,19.406,11.577,8.472,13.123,162.679,96.548,74.554,62.467,61.217,318.569,222.597,172.373,149.396,141.809,855.367,545.688,422.911,391.967,343.059],[-30.215,3.517,1.11,0.355,1.708,-18.184,10.041,4.298,4.401,3.959,-12.579,12.142,10.574,6.473,4.97,56.788,69.573,43.223,35.409,30.013,150.891,142.444,101.151,79.812,66.938,205.504,354.241,236.319,172.005,156.328],[-52.494,1.39,0.071,1.952,-0.77,-45.237,3.744,5.52,6.346,3.478,-41.986,5.306,6.929,6.818,5.281,-2.107,48.571,39.845,34.834,25.928,35.703,119.156,92.726,67.695,54.23,12.244,272.013,203.755,159.828,121.58],[-63.718,-1.844,4.784,0.896,1.885,-59.72,-1.81,3.885,2.894,4.802,-63.8,1.39,5.688,7.705,5.841,-41.741,46.14,47.777,31.728,24.922,-7.653,113.823,87.631,65.697,49.608,-13.559,207.089,196.594,138.162,116.534],[-76.056,-14.653,-1.872,-0.403,-0.116,-74.166,-7.822,3.054,2.504,2.292,-73.409,-1.965,4.367,3.501,4.629,-49.202,29.27,28.865,29.918,24.035,-44.366,74.913,76.697,59.529,50.452,-35.801,156.395,170.571,149.511,107.346],[-81.846,-24.083,-3.618,1.767,-0.873,-86.117,-15.743,0.731,1.151,1.542,-83.254,-17.091,0.426,7.207,5.662,-70.028,15.648,43.929,30.519,20.641,-53.032,43.29,74.611,61.511,49.807,-92.194,117.478,155.491,139.349,109.236]],
"ve": [[10.477,7.967,11.577,-2.951,-912.794,12.44,10.58,2.566,8.347,9.516,15.023,6.081,5.901,23.663,6.595,48.018,15.708,1.117,-8.684,-15.769,101.725,35.377,9.303,-5.676,-17.22,192.14,82.026,35.606,13.138,-4.865],[-0.54,1.476,0.417,1.106,0.811,10.02,2.26,3.179,1.508,0.813,14.908,6.603,2.634,1.668,1.619,54.165,25.168,15.158,9.267,5.084,99.277,49.067,30.053,19.003,13.065,203.293,99.156,61.019,41.848,30.193],[7.945,2.152,0.939,0.743,-0.045,9.532,2.499,2.83,1.062,0.756,20.537,6.315,4.068,1.766,2.01,-8.704,26.212,16.12,12.325,8.531,106.472,49.031,32.734,24.437,17.485,202.737,99.023,64.516,46.854,35.043],[8.101,1.737,0.742,1.015,0.182,15.332,2.417,2.108,1.489,1.176,14.142,5.978,3.946,3.021,2.262,40.383,25.688,16.763,12.483,9.547,97.68,50.632,33.576,24.155,18.893,199.933,105.143,66.466,49.065,38.049],[-59.733,1.774,0.861,-0.412,0.618,15.19,2.918,2.205,1.239,1.256,24.811,7.659,4.215,2.469,2.167,53.262,26.226,16.623,12.21,9.279,101.407,50.006,34.156,24.056,19.462,200.596,102.077,67.138,50.043,39.295],[-4.669,2.039,0.439,0.442,0.163,-18.272,3.437,1.41,1.656,1.602,-7.768,6.636,3.911,3.066,2.177,47.88,27.91,17.577,12.615,9.924,108.066,51.397,33.184,25.425,19.484,-0.03,103.985,68.401,50.086,39.369]],
"kep": [[-1.684,7.452,3.143,4.191,4.523,9.687,1.675,11.185,10.253,8.214,11.122,17.328,11.957,10.673,24.35,80.311,73.304,76.438,82.254,96.393,113.797,139.861,151.821,167.428,196.676,222.953,255.749,286.825,337.413,368.536],[-33.962,2.421,1.193,-0.379,1.271,-25.575,8.101,1.627,3.275,3.451,-23.824,5.946,8.043,5.049,3.584,1.003,35.968,24.885,24.221,24.055,23.785,62.777,54.895,51.32,48.016,-1.209,127.242,108.364,91.777,96.985],[-55.94,-0.625,-0.684,1.395,-0.563,-50.027,1.42,2.809,5.408,2.896,-50.854,-0.621,2.996,5.153,3.358,-37.46,17.74,20.559,20.123,16.228,-34.594,46.848,45.185,34.734,31.389,-61.936,86.591,84.106,76.655,64.038],[-66.449,-3.428,4.026,0.021,1.806,-63.888,-3.912,1.838,1.479,3.682,-69.364,-4.023,1.933,4.562,3.636,-62.664,16.261,26.495,17.237,14.113,-54.931,41.399,40.414,33.492,25.878,-70.538,51.741,77.386,59.582,56.814],[-77.982,-15.997,-2.614,0.129,-0.626,-77.343,-10.344,0.82,1.291,1.04,-77.822,-8.791,0.163,1.107,2.495,-67.635,2.522,10.416,15.89,13.581,-72.691,15.653,31.618,28.531,25.87,-77.883,26.635,61.26,66.06,48.763],[-83.289,-25.467,-3.962,1.346,-0.983,-87.907,-18.792,-0.678,-0.4,-0.037,-86.001,-22.131,-3.351,4.034,3.48,-81.155,-8.527,22.362,15.888,9.805,-77.083,-5.675,30.763,28.742,25.334,-96.967,7.209,51.233,58.929,49.865]],
"vp": [[326.194,214.383,68.281,-279.132,18.236,136.256,18.763,10.738,-32.381,6.62,36.143,-10.653,-8.365,-42.265,-21.339,-8.327,-4.592,-10.05,-10.138,-6.861,-14.078,-5.703,-6.189,-15.78,-13.634,-9.458,-14.022,-16.428,-7.898,-17.457],[2939.237,459.06,149.685,-157.905,102.224,540.85,122.185,32.329,27.259,-28.444,246.506,57.818,36.43,0.54,-6.812,46.077,13.48,-7.294,-5.687,-16.265,9.598,-12.099,-7.344,-13.119,-9.705,3.114,-6.4,-11.501,-17.199,-5.908],[4442.955,1718.034,368.256,32.582,172.174,807.19,282.403,135.755,66.811,-25.534,467.108,150.833,66.007,39.606,-3.99,81.988,6.701,-7.725,-8.134,-5.678,28.128,-2.605,-0.938,-0.427,-10.164,6.468,-8.23,-13.161,-6.565,-13.719],[6006.068,2853.214,784.827,488.625,235.932,1076.904,601.972,139.084,99.648,80.053,573.979,268.756,80.138,55.502,13.117,100.609,42.99,19.313,-4.839,-1.566,39.97,23.15,4.853,-8.335,-13.473,11.194,8.99,-5.781,-13.096,-13.127],[6812.614,4924.311,1882.892,899.915,308.356,1279.734,984.814,398.672,186.102,88.474,658.949,575.904,182.256,91.202,27.447,109.821,62.114,22.152,-2.254,6.587,51.095,40.016,10.534,-2.588,-3.619,15.046,7.36,-5.96,-1.032,-8.455],[7329.077,6813.355,2437.961,1477.77,766.973,1442.57,1263.84,691.329,293.863,62.891,732.101,671.465,257.987,177.545,111.094,132.081,115.911,60.303,32.383,-0.979,56.62,50.119,26.528,10.303,-3.677,26.361,22.426,8.36,4.028,0.863]]
}