{
"KTrans": [[5.514,4.317,3.677,4.16,2.519,22.08,9.576,10.83,7.879,5.581,40.428,21.67,14.774,14.2,12.319,70.011,96.867,79.865,72.159,61.353,51.855,92.424,135.054,128.61,119.965,262.117,70.585,104.271,207.121,201.948],[14.723,6.501,5.412,4.233,3.609,25.542,12.269,8.811,7.678,5.526,47.455,20.397,13.723,10.644,8.755,12.834,96.703,54.476,41.453,37.726,37.986,2.154,105.428,88.483,81.492,186.198,52.962,-31.687,119.196,110.942],[17.942,9.748,6.625,4.391,3.802,3.745,13.351,8.047,8.275,6.666,-8.961,19.8,14.502,10.732,9.787,-4.722,81.744,56.172,40.027,35.947,9.864,52.421,83.471,80.375,66.997,41.999,32.723,2.415,38.246,109.976],[-41.197,22.26,8.136,7.849,6.048,-35.187,19.844,15.266,8.884,7.801,-45.133,38.181,16.339,15.621,9.714,-25.098,41.131,68.569,45.868,32.172,-1.612,-0.651,36.717,108.127,77.345,-5.745,52.634,-3.385,40.113,106.629],[-54.256,32.712,12.078,7.77,7.866,-65.729,35.555,19.386,10.466,9.647,-78.744,41.206,26.486,15.165,12.28,-43.061,8.543,89.758,53.733,36.297,-19.321,34.218,45.556,90.375,72.735,-22.163,47.336,-26.354,27.592,24.967],[-81.557,20.987,17.734,13.65,9.295,-73.303,26.812,24.529,13.351,9.767,-77.22,30.738,28.911,18.356,11.889,-47.426,3.21,68.895,64.908,43.412,-44.377,-12.783,19.78,81.383,104.16,-18.118,-0.772,22.714,38.655,16.491]],
"ve": [[1.078,-0.195,-1.024,-1.343,-0.702,2.944,0.482,-2.806,-3.815,-1.784,8.918,0.136,-2.06,-6.337,-7.608,43.451,13.848,-1.626,-11.886,-17.75,94.646,28.219,2.618,25.857,-11.467,190.7,80.998,32.681,6.872,-7.092],[0.251,0.145,-0.346,-1.376,-1.444,5.087,1.49,0.318,-0.456,-0.655,9.916,3.829,1.679,0.347,-0.163,49.061,23.588,13.963,8.132,5.078,99.197,46.948,27.128,20.047,13.057,192.221,100.339,61.759,58.936,38.31],[2.202,-0.613,-0.271,-0.582,-0.707,4.724,1.758,0.45,0.111,-0.044,8.957,4.149,2.509,1.407,0.789,49.915,24.03,15.234,10.694,7.717,103.675,49.663,32.781,22.12,16.951,201.51,103.39,66.552,44.533,24.081],[2.906,0.31,-0.15,-0.44,-0.893,-8.79,1.989,1.042,0.308,0.168,14.303,4.782,2.855,1.96,1.04,47.572,24.028,15.646,11.453,8.522,98.703,49.05,33.217,24.11,18.217,198.416,99.425,66.005,46.041,36.417],[2.433,0.626,-0.293,-0.868,-0.463,5.675,2.497,1.263,0.254,0.14,9.582,5.505,2.715,1.832,1.07,50.056,26.784,15.647,11.765,9.051,98.849,48.184,31.695,25.352,18.374,204.347,96.636,65.754,50.091,39.37],[3.74,1.315,-0.159,-0.314,-0.443,0.545,6.098,1.502,0.549,0.456,12.953,4.615,2.48,1.824,1.158,46.508,24.637,15.596,12.125,9.41,102.494,49.493,32.49,25.02,19.213,194.869,100.709,64.923,50.089,39.252]],
"kep": [[5.314,5.756,6.354,7.733,5.627,19.385,9.923,15.388,14.142,9.878,29.386,22.356,18.672,23.49,23.839,18.027,72.728,83.62,96.196,97.7,-7.488,44.267,110.054,138.547,157.973,49.958,21.382,63.249,181.488,223.021],[14.177,6.469,5.853,5.79,5.212,19.123,10.703,8.585,8.263,6.313,33.785,16.12,11.944,10.335,9.029,-18.621,57.129,35.096,30.763,31.077,-22.177,-22.841,55.906,55.826,59.913,4.062,-7.511,-43.56,54.861,60.443],[13.489,10.35,6.985,5.052,4.577,-2.147,11.352,7.581,8.197,6.76,-18.022,14.934,11.724,9.225,8.964,-31.767,44.425,34.922,26.193,26.018,-39.415,5.707,35.116,46.158,42.019,-45.133,-22.143,-25.943,0.521,50.287],[-42.676,21.343,8.197,8.309,7.038,-39.354,16.741,14.009,8.553,7.647,-49.747,30.917,13.046,13.383,8.598,-46.482,13.755,44.109,30.216,21.613,-46.878,-28.56,5.295,64.582,48.63,-63.366,-15.704,-31.631,1.054,48.319],[-53.992,30.422,12.11,8.645,8.359,-67.153,30.618,17.539,10.111,9.482,-78.911,31.813,22.674,13.035,11.071,-59.593,-10.284,60.837,36.466,24.603,-56.102,-7.296,11.288,50.132,44.159,-69.23,-20.305,-46.767,-6.78,-4.54],[-79.295,18.969,17.093,13.768,9.689,-73,19.807,21.723,12.509,9.207,-77.848,21.789,24.688,15.917,10.522,-62.806,-16.959,43.259,45.378,30.403,-68.996,-36.705,-6.254,43.581,67.721,-69.037,-44.51,-20.483,-2.583,-10.83]],
"vp": [[257.368,18.433,140.225,207.173,177.442,-2.133,-5.603,18.186,40.503,18.672,20.782,11.309,-11.283,8.153,-23.9,-20.922,-21.365,-11.67,-14.826,-20.479,-22.977,-18.224,-20.991,-17.49,-16.516,-34.864,-18.656,-30.715,-37.949,-35.957],[2317.431,652.997,570.358,435.738,509.933,347.992,126.037,109.265,90.52,92.853,161.483,20.643,45.081,42.798,35.63,-6.705,-15.814,-1.249,-10.783,11.967,-10.329,-16.117,-13.863,-1.81,13.481,-50.334,-7.269,-10.62,-26.174,-16.588],[4507.295,892.053,699.837,762.659,619.261,839.804,197.96,78.172,90.579,196.154,453.014,66.609,60.844,73.698,78.702,52.419,-11.512,-8.966,-1.569,17.442,8.521,-9.507,17.812,-22.024,-13.039,-19.745,0.062,-3.469,-19.515,4.99],[6255.147,2285.163,1132.93,952.317,1039.032,1228.173,319.925,151.11,130.094,219.416,652.825,163.521,109.069,133.424,83.839,61.612,-1.615,-27.98,3.485,-0.764,-1.488,-9.04,-12.628,0.475,7.051,-21.035,-16.654,-14.493,-45.988,-16.791],[6911.672,4142.819,1314.686,1055.48,1313.935,1306.153,941.216,271.808,195.212,253.806,632.841,413.658,120.493,117.054,140.349,117.898,60.088,-10.184,11.328,22.315,7.459,-9.136,-13.096,-2.561,-17.913,7.693,-25.453,-8.021,-5.382,-16.184],[7489.854,7854.457,2213.1,1207.707,1235.667,1304.647,1523.384,524.261,344.904,298.997,687.437,745.682,89.677,150.704,50.737,50.816,130.557,32.892,14.06,18.806,41.597,41.901,4.456,9.869,18.185,-14.501,-2.76,-17.398,-5.426,-14.144]]
}