{
"KTrans": [[5.279,2.586,1.097,1.762,0.358,11.558,10.176,6.529,5.635,5.353,30.006,17.398,13.284,10.263,9.361,164.361,96.374,75.52,68.94,61.329,407.341,229.681,179.199,154.994,142.287,1130.468,589.627,459.067,397.713,365.993],[3.167,1.793,0.926,2.543,0.018,7.385,5.576,5.102,2.681,3.282,22.782,13.451,9.62,7.645,6.476,130.206,63.148,46.263,36.075,31.531,325.421,150.493,102.271,78.034,68.44,891.534,358.332,230.386,182.656,152.855],[2.823,5.5,2.449,2.185,2.256,8.635,13.016,4.537,2.578,3.095,19.353,12.911,11.798,7.295,5.029,126.379,64.998,41.505,35.198,26.879,318.275,141.24,94.59,66.671,58.878,800.176,338.76,208.089,152.963,124.049],[-11.696,3.189,4.816,2.489,1.85,4.53,7.995,3.605,3.894,1.823,11.082,10.345,8.674,6.709,3.857,103.1,61.644,44.164,31.42,26.043,260.006,135.043,88.819,63.787,51.062,706.615,340.298,195.79,141.704,115.386],[-25.888,1.938,2.5,2.915,3.604,-8.197,9.454,6.378,5.368,2.513,1.189,14.123,11.977,5.349,7.237,84.448,68.703,42.141,31.036,24.239,231.72,139.893,86.765,65.021,51.633,618.845,333.37,188.496,139.052,112.818],[-26.936,4.462,9.86,2.011,0.464,-23.416,9.424,7.301,4.596,4.564,-16.379,17.283,10.391,10.47,5.808,62.585,72.942,37.785,32.571,24.854,174.909,148.849,91.257,63.757,50.525,541.618,344.871,200.058,137.975,109.41]],
"ve": [[1.621,-0.196,0.615,0.041,2.035,4.944,0.853,-0.669,-1.964,-2.509,9.232,1.464,-2.218,-4.245,-5.019,45.694,13.376,-1.625,-11.293,-18.531,93.453,33.616,8.139,-7.646,-18.418,192.349,79.126,34.985,10.345,-6.145],[2.078,0.56,0.372,0.251,0.047,5.04,2.432,1.559,0.847,0.248,10.275,4.792,2.62,1.796,0.616,49.391,23.642,14.361,9.097,5.56,100.284,48.301,29.422,19.393,12.394,200.064,96.947,61.039,41.622,28.762],[1.978,0.734,0.302,0.588,0.321,5.261,2.622,1.669,0.857,0.74,10.715,5.142,3.273,2.319,1.698,51.154,24.727,15.685,11.436,8.68,99.587,49.45,32.319,22.856,17.363,200.789,98.771,64.65,46.861,35.708],[1.523,0.446,0.336,0.353,0.074,5.731,2.569,1.367,1.279,0.664,10.12,5.099,3.27,2.353,1.538,49.874,25.075,15.992,11.96,9.211,100.513,49.268,32.854,23.817,18.372,200.158,99.332,65.673,48.032,37.847],[1.431,0.106,0.252,0.336,0.394,6.103,2.874,1.792,1.423,0.92,11.086,4.977,3.437,2.234,2.024,49.905,25.359,16.385,12.127,9.461,101.148,49.955,32.797,24.51,19.283,200.255,99.771,65.721,48.891,38.606],[1.536,0.523,0.706,0.044,-0.067,6.186,2.567,1.776,1.172,0.935,12.86,5.261,3.595,2.771,1.881,50.197,25.911,16.136,12.405,9.441,100.549,50.298,33.234,24.298,19.389,201.709,100.059,66.06,49.238,39.226]],
"kep": [[3.853,3.312,1.167,2.646,0.671,6.571,9.702,8.091,8.626,9.393,19.178,15.993,16.515,16.086,16.421,81.632,73.392,78.738,90.804,98.599,162.384,146.807,158.254,176.373,197.344,321.075,285.069,314.287,351.146,396.561],[0.831,1.142,0.519,2.254,-0.014,2.165,2.962,3.447,1.785,3.05,11.201,8.134,6.743,5.712,5.835,53.921,31.891,27.831,24.692,24.57,112.387,68.856,56.197,49.042,49.802,230.441,132.622,105.078,99.508,96.302],[0.537,4.529,2.032,1.501,1.852,2.926,9.916,2.704,1.641,2.26,7.519,7.233,8.144,4.78,3.205,49.333,32.173,22.172,21.223,16.675,109.391,61.247,46.919,35.543,35.271,199.058,120.595,86.963,72.127,65.002],[-13.321,2.503,4.228,1.987,1.655,-1.496,5.054,1.993,2.45,1.029,0.535,4.765,5.008,4.112,2.161,35.369,28.95,24.092,17.225,15.289,79.504,57.323,41.944,32.093,27.487,168.423,120.589,78.366,63.14,56.093],[-27.112,1.47,1.974,2.357,3.052,-13.413,6.056,4.274,3.673,1.44,-9.535,8.336,7.977,2.852,4.977,22.939,34.179,21.869,16.679,13.339,65.042,59.581,40.444,32.306,26.939,138.968,116.613,73.805,60.373,53.359],[-28.176,3.524,8.749,1.715,0.336,-28.355,6.261,5.145,3.143,3.418,-25.58,10.944,6.255,7.218,3.658,7.938,36.85,18.368,17.707,13.86,36.95,65.109,43.224,31.502,25.87,112.674,122.031,80.355,59.237,50.222]],
"vp": [[85.623,39.943,12.987,76.883,54.189,23.873,2.938,17.674,14.231,10.225,5.971,1.459,0.224,-3.407,1.454,2.646,0.952,0.67,1.852,1.399,0.68,0.776,-0.392,0.534,0.47,0.251,0.372,0.418,0.468,0.404],[337.588,40.647,39.334,200.121,75.837,30.638,30.255,17.652,16.246,36.781,42.119,1.685,2.708,-3.116,3.301,6.078,-0.281,0.941,2.042,3.759,1.258,0.17,0.324,1.468,1.153,1.675,0.763,0.095,0.078,0.542],[1036.803,91.269,93.945,69.93,146.127,198.055,74.133,42.035,37.041,25.128,122.748,14.848,26.404,7.672,9.576,24.934,-1.513,5.352,0.805,-0.28,12.081,0.297,1.372,0.824,1.063,5.366,1.355,0.667,1.141,1.005],[2100.071,370.154,204.975,362.731,84.087,425.285,47.488,20.113,17.855,23.815,224.913,15.779,22.771,-3.731,9.994,42.585,3.768,2.667,1.023,5.058,22.7,3.814,0.507,0.678,-0.359,9.185,-0.063,0.257,0.5,0.906],[2787.476,504.979,31.39,80.687,230.21,621.161,110.892,14.142,3.708,14.081,330.663,51.164,0.031,38.765,6.996,60.864,13.643,6.098,1.212,3.487,29.339,4.626,0.687,-0.476,1.235,15.917,4.431,-0.102,0.316,1.683],[3701.231,1354.175,22.704,19.896,-49.927,837.766,180.786,-24.539,-16.527,30.177,444.265,130.021,4.179,17.536,-6.753,80.093,23.898,-2.584,8.119,6.422,40.95,8.324,0.401,1.052,-1.962,20.113,4.478,1.249,0.765,-1.319]]
}