{
"KTrans": [[-0.145,-0.95,-6.965,-2.322,-21.176,-6.247,7.602,-2.522,-0.714,-3.015,11.596,18.543,8.524,18.159,-2.831,22.038,57.957,65.653,58.846,78.127,-45.866,-1.603,85.842,81.333,91.297,-235.861,-0.989,-22.414,96.631,20.518],[-40.216,-15.559,-2.677,-7.064,5.118,-34.416,-9.477,0.23,5.9,2.627,-40.198,-15.895,3.085,10.83,5.045,-23.524,-3.474,3.23,15.375,27.194,-55.915,11.937,13.106,21.266,38.26,-35.319,-13.71,16.239,0.273,-11.423],[-64.191,-31.837,-20.078,-9.33,-3.671,-59.619,-29.602,-18.999,-5.897,-4.372,-60.482,-26.21,-16.812,-9.848,0.422,-62.41,-22.393,-3.843,-3.581,5.328,-41.151,-1.445,12.434,-16.331,5.044,-38.782,-16.995,-71.197,-60.599,-38.417],[-73.813,-42.671,-26.178,-21.191,-10.714,-76.884,-39.215,-26.78,-16.381,-10.682,-66.616,-36.452,-22.026,-19.458,-11.545,-66.327,-32.813,-14.508,-7.307,-14.807,-60.218,-24.915,2.932,2.27,-12.877,-65.733,-11.069,-12.901,-36.765,3.193],[-75.891,-47.107,-33.074,-23.002,-17.91,-79.91,-50.224,-31.121,-23.331,-15.736,-77.267,-48.591,-28.426,-17.559,-9.113,-70.706,-42.593,-16.895,-13.293,-4.961,-85.482,-63.214,-14.688,-11.007,-13.933,-54.814,-63.419,-38.527,-4.081,-37.727],[-78.716,-56.018,-35.676,-23.32,-19.145,-83.855,-58.672,-35.028,-23.192,-15.365,-83.81,-52.767,-35.953,-29.918,-17.603,-76.913,-55.933,-38.762,-17.432,-4.675,-72.827,-50.668,-29.88,-23.674,-11.744,-72.858,-54.289,-14.297,-30.392,-7.292]],
"ve": [[-11.833,-58.802,-31.453,-30.833,-80.62,2.285,-44.763,-48.195,-29.363,-54.753,22.631,-12.802,-47.402,-44.948,-99.932,-22.852,-21.502,-61.914,-43.931,-58.184,108.991,22.657,-68.451,-31.361,-27.217,65.736,77.64,27.521,-24.437,-18.05],[1.429,-15.77,71.71,-9.602,-7.513,50.327,7.663,-17.753,29.609,-55.267,-236.123,-75.449,14.66,3.751,-3.256,83.35,-24.933,6.289,5.309,75.625,88.446,41.229,31.718,11.607,-15.745,251.007,97.406,65.171,147.189,24.987],[-17.166,-31.122,-2.975,5.556,-19.687,-1.673,304.674,-6.714,-3.235,0.606,-68.188,22.966,-0.678,23.97,13.571,13.805,91.235,9.006,27.418,8.222,102.54,185.084,29.877,181.953,11.934,196.754,63.77,73.076,57.589,45.681],[36.606,7.158,-5.045,-133.839,-15.251,-207.448,15.601,-15.566,-43.644,-6.573,-196.415,-15.601,52.914,-8.003,9.347,-69.449,6.874,15.918,18.048,29.803,83.612,27.933,-414.459,1.704,22.393,179.182,84.816,62.537,-62.774,23.335],[18.404,-11.455,-3.882,1.024,-39.27,-62.505,-7.108,-1.332,-32.274,5.022,-8.974,8.846,-25.272,-32.833,-11.38,103.366,27.203,14.201,17.449,13.27,115.641,39.998,30.589,33.773,12.992,187.383,89.054,65.555,36.354,37.558],[-3172.939,-14.888,271.22,-3.407,-3.055,-1.953,-11.894,-4.485,-5.288,-8.031,-27.525,266.447,-17.246,-6.72,-0.891,41.514,-7.329,9.845,12.698,5.854,654.19,36.904,27.335,-14.216,17.041,227.481,90.546,56.096,39.45,46.923]],
"kep": [[-108.324,-110.865,-104.345,-99.297,-5.87,-109.196,-131.41,-94.816,-63.249,-85.384,-132.056,-119.409,-78.922,-82.944,-8.779,-150.684,-172.225,-189.935,-192.713,-212.579,-157.755,-258.527,-272.702,-397.398,-314.133,-159.427,-231.119,-395.302,-409.507,-615.605],[-92.843,-102.736,-122.331,-86.164,-73.761,-93.865,-90.935,-120.128,-104.944,-55.503,-95.29,-107.195,-128.501,-111.086,-63.942,-95.962,-120.036,-149.411,-150.252,-115.817,-107.626,-92.725,-139.751,-171.496,-182.8,-99.221,-96.277,-124.972,-198.682,-298.802],[-96.426,-80.248,-92.965,-111.373,-111.944,-93.306,-81.435,-92.674,-100.06,-126.12,-95.972,-83.599,-87.127,-112.401,-123.468,-99.477,-82.415,-84.625,-121.955,-134.174,-93.57,-71.397,-76.935,-121.64,-151.328,-89.653,-84.808,-112.464,-141.911,-187.125],[-96.242,-79.729,-67.531,-83.273,-85.07,-99.349,-75.402,-70.775,-74.845,-84.068,-94.576,-75.427,-67.271,-81.436,-88.978,-97.507,-77.995,-65.614,-71.808,-112.659,-93.073,-77.827,-58.092,-69.574,-111.037,-95.971,-74.067,-75.851,-98.625,-87.458],[-96.354,-75.917,-63.381,-61.16,-66.408,-97.719,-78.011,-61.98,-59.371,-58.571,-98.301,-79.24,-64.013,-52.209,-51.385,-95.687,-80.312,-61.175,-56.663,-55.562,-100.249,-93.251,-63.358,-65.709,-79.639,-93.879,-88.828,-81.578,-65.105,-95.837],[-95.68,-80.114,-62.532,-50.127,-47.263,-100.266,-86.975,-62.864,-52.238,-48.43,-99.377,-81.15,-66.248,-60.698,-52.389,-96.802,-83.497,-76.039,-55.223,-46.457,-97.247,-84.388,-66.371,-66.236,-62.638,-96.945,-83.179,-66.15,-71.517,-60.424]],
"vp": [[119.479,-209.081,341.566,473.689,-131.146,127.634,-137.842,93.222,95.452,-70.036,-62.636,80.887,-62.874,38.509,23.177,-9.254,-27.736,-28.91,2.986,9.029,-6.67,-6.289,-10.267,0.351,-5.856,-26.571,-30.868,-9.526,-32.826,-9.208],[2041.272,935.878,126.227,-231.852,-228.588,634.042,205.83,93.868,-100.756,88.449,314.516,101.783,-13.626,14.2,0.547,15.614,8.158,-23.233,-12.014,-38.023,20.588,-25.977,-39.084,-34.685,-12.283,-22.84,-24.612,-34.935,-13.689,-10.848],[5397.455,3654.919,2626.454,1288.754,128.111,929.896,634.611,650.191,201.547,-28.941,497.957,366.694,167.699,152.955,46.487,56.288,51.189,2.635,9.546,-27.959,13.001,-5.477,9.719,-32.69,-13.057,-6.652,-6.127,-8.336,-14.411,-27.544],[5685.454,5452.251,3210.494,3342.312,1914.984,1211.367,1230.09,862.215,692.09,203.654,657.334,540.542,329.545,336.683,239.927,91.539,70.718,64.544,77.633,58.792,4.775,27.163,17.76,-14.984,4.315,-7.524,-7.012,-7.476,6.93,-18.749],[6155.956,7442.45,6600.497,3942.43,4145.848,1266.476,1453.131,1102.929,765.747,818.758,672.172,768.079,590.952,373.065,427.562,86.717,123.206,102.633,76.634,57.135,30.806,73.049,49.452,22.893,12.373,-23.672,8.579,5.549,-18.166,14.034],[5844.026,8468.185,10037.629,5423.911,4424.033,1208.383,1991.693,1852.503,1110.586,885.912,536.813,875.632,939.549,584.68,603.83,71.054,158.959,129.99,102.448,104.689,35.647,72.983,45.808,46.162,41.055,-12.027,13.615,-1.869,6.696,-18.739]]
}