{
"KTrans": [[17.087,21.25,15.912,19.806,24.997,5.702,19.187,23.539,23.533,23.359,3.631,24.084,21.962,24.927,23.979,48.229,33.183,34.57,33.473,36.398,77.253,68.53,55.014,57.311,41.247,143.395,134.409,114.679,109.592,114.832],[-49.136,-5.034,0.526,7.55,10.832,-47.287,-16.916,5.372,2.444,9.884,-44.716,-10.014,4.815,11.279,12.224,-36.629,-12.449,11.536,14.806,15.8,-26.637,6.883,17.932,20.065,27.888,-4.371,33.247,40.504,41.335,35.081],[-75.735,-32.603,-20.088,-6.457,1.477,-72.117,-33.8,-11.072,-5.153,0.532,-69.568,-34.351,-17.607,-3.676,5.249,-65.347,-30.97,-9.602,-0.99,6.263,-60.091,-21.459,-4.481,4.359,10.372,-42.156,-13.426,4.084,14.171,20.478],[-83.864,-47.905,-33.793,-18.562,-12.045,-85.025,-50.156,-33.687,-16.541,-9.761,-83.307,-50.486,-27.145,-18.539,-8.012,-80.241,-46.838,-27.234,-18.134,-10.062,-74.346,-52.378,-28.758,-16.001,-4.55,-59.407,-38.466,-19.034,-6.803,3.777],[-89.27,-65.4,-46.434,-30.822,-19.926,-88.915,-62.034,-42.89,-32.481,-22.606,-88.603,-64.922,-44.129,-31.437,-20.967,-83.862,-60.014,-38.242,-29.406,-17.277,-78.561,-63.281,-42.171,-29.373,-12.895,-70.687,-57.749,-34.61,-17.291,-9.951],[-92.16,-72.206,-54.034,-41.716,-29.206,-91.052,-72.085,-52.289,-45.19,-28.779,-92.768,-69.251,-51.754,-40.897,-27.95,-86.821,-69.569,-55.666,-41.008,-30.323,-83.586,-67.229,-52.726,-40.205,-25.941,-78.266,-61.967,-53.788,-37.192,-23.459]],
"ve": [[-63.95,88.089,-44.24,147.898,180.608,-38.427,53.984,0.893,26.513,254.65,25.076,-166.57,-139.954,-6.007,91.299,28.872,-34.373,-49.754,22.478,-331.354,74.039,-35.182,161.755,18.547,27.352,80.227,-26.46,-36.964,25.716,-25.911],[-95.269,1.958,0.64,6.759,10.235,-1.373,0.393,3.836,6.928,10.882,23.636,0.914,4.596,7.415,12.692,-1.832,-0.597,9.061,11.903,16.558,-255.765,16.462,16.459,15.528,17.285,57.667,44.689,29.539,28.497,31.068],[-3.648,-10.133,-6.328,-1.681,1.343,-30.644,-8.196,-3.157,-1.181,1.615,-9.68,-12.206,-3.735,-0.916,2.596,-20.552,-1.224,0.836,1.984,5.313,21.16,9.52,7.398,8.549,8.746,33.924,28.044,23.714,18.586,16.408],[-32.389,-16.02,-11.007,-6.944,-4.29,-33.476,-17.856,-11.731,-6.119,-3.38,-34.386,-15.523,-9.334,-6.922,-2.281,-29.973,-9.663,-4.26,-2.112,-0.357,7.269,-3.7,1.753,1.304,3.271,66.958,17.948,15.957,12.067,12.891],[-41.796,-22.419,-16.994,-10.278,-6.685,-46.525,-23.32,-14.884,-10.467,-7.308,-41.24,-19.4,-15.43,-11.111,-7.444,-11.152,-13.006,-8.954,-7.744,-4.229,31.526,-4.317,-4.746,-3.369,1.685,-109.576,14.62,9.927,10.309,7.809],[-40.836,-28.012,-20.813,-15.698,-10.717,-95.241,-28.819,-18.527,-16.819,-9.832,-55.741,-23.859,-16.748,-14.109,-8.886,-116.246,-20.81,-15.557,-10.702,-6.971,-29.059,-17.48,-9.94,-6.17,-2.53,105.606,19.907,-1.347,1.456,2.029]],
"kep": [[-35.022,-32.949,-46.016,-46.297,-45.534,-40.757,-35.155,-37.364,-39.448,-47.142,-44.671,-31.092,-40.509,-45.519,-50.712,-27.938,-28.734,-29.594,-40.701,-42.128,-31.734,-21.687,-27.85,-20.322,-44.706,-32.952,-7.003,-5.494,5.39,16.325],[-66.157,-39.828,-36.769,-35.576,-35.301,-66.736,-46.51,-35.275,-38.703,-36.355,-64.708,-43.175,-36.161,-33.955,-36.248,-65.304,-48.279,-35.316,-34.564,-35.602,-69.087,-42.386,-35.991,-34.265,-29.895,-71.12,-43.945,-34.445,-29.51,-32.609],[-82.143,-53.678,-46.319,-39.899,-36.731,-80.679,-54.507,-42.316,-39.452,-37.435,-80.375,-53.374,-46.168,-38.706,-35.122,-79.491,-56.342,-43.841,-38.963,-36.337,-81.396,-56.338,-44.558,-39.698,-36.232,-81.523,-59.074,-48.141,-40.183,-35.384],[-87.758,-62.013,-53.373,-44.893,-42.049,-89.355,-62.83,-52.616,-44.092,-41.096,-88.135,-63.538,-49.846,-45.022,-40.724,-86.779,-63.795,-52.443,-47.485,-43.2,-88.098,-69.463,-56.444,-48.167,-42.107,-86.993,-69.175,-57.52,-48.385,-42.663],[-91.963,-72.328,-59.958,-51.565,-46.001,-92.211,-69.684,-58.382,-52.837,-47.415,-91.403,-72.218,-58.905,-51.555,-46.308,-90.441,-71.478,-57.557,-52.109,-45.676,-89.617,-76.059,-62.529,-54.434,-46.249,-91.252,-78.077,-63.66,-53.647,-48.259],[-94.781,-76.03,-64.003,-56.868,-50.233,-93.541,-76.269,-63.597,-58.728,-50.519,-93.492,-75.168,-63.76,-56.827,-50.278,-91.845,-77.591,-67.602,-58.912,-53.021,-92.626,-78.71,-67.47,-60.282,-52.5,-93.365,-80.846,-71.621,-61.883,-53.478]],
"vp": [[-622.723,-662.122,-368.098,-487.141,-1131.723,51.296,-116.321,-149.907,-141.245,-106.815,51.047,-40.944,-90.294,-94.792,-65.524,-18.061,-2.281,-1.462,-1.971,-17.74,-13.813,-10.26,-7.456,-6.916,7.067,-11.886,-21.987,-15.213,-13.765,-20.164],[2323.532,166.037,267.527,-625.326,-980.039,557.031,257.616,-98.801,15.909,-118.938,281.939,82.155,-2.198,-109.77,-90.54,34.074,35.452,-16.762,-11.117,-15.334,17.782,1.101,-11.653,-5.19,-22.272,-0.065,-13.135,-13.722,-5.275,0.18],[4954.065,2456.382,2446.735,1151.018,32.807,843.033,582.416,237.352,129.809,-38.229,436.568,347.662,201.313,70.115,-135.718,82.638,57.699,30.811,10.904,-7.578,26.165,18.573,7.795,-0.927,-6.794,3.282,6.01,-1.763,-0.266,-4.219],[6005.684,4592.402,4150.76,2527.375,2381.928,1340.121,1003.441,935.707,419.521,355.999,585.85,477.042,320.147,328.483,138.727,125.237,96.787,57.348,57.482,50.329,52.245,64.354,30.18,31.193,18.546,3.232,22.432,10.694,9.778,2.791],[6991.319,7247.171,6380.439,4380.832,2821.631,1355.989,1289.876,1024.387,1021.704,860.072,708.767,731.263,591.343,530.63,417.34,127.033,118.473,85.913,108.467,63.238,38.46,70.204,70.228,52.497,14.488,19.177,39.188,22.174,6.556,12.763],[7048.129,8581.35,8040.49,7479.208,5365.349,1377.104,1805.979,1451.535,1645.898,1101.513,804.655,810.88,647.956,707.48,463.61,125.636,176.365,178.226,147.799,122.582,48.831,62.861,85.98,79.543,47.44,18.831,29.035,57.902,41.617,33.864]]
}