{
"KTrans": [[-21.279,-7.852,-4.089,-6.04,-7.107,-16.985,-11.547,-6.648,-8.056,-4.465,-19.127,-9.081,-8.959,-8.203,-9.026,-17.544,-9.524,-5.806,-6.581,-5.399,-15.695,-9.945,-8.349,-6.004,-2.321,-18.071,-10.304,-8.836,-8.175,-6.609],[-70.334,-19.95,-21.304,-16.685,-10.928,-68.31,-30.605,-19.002,-17.722,-15.122,-66.758,-22.029,-19.285,-15.182,-10.877,-69.942,-33.157,-18.671,-15.792,-14.694,-65.476,-26.641,-20.346,-18.353,-13.089,-60.42,-30.82,-19.166,-13.336,-11.112],[-85.933,-57.309,-25.501,-20.284,-16.432,-83.746,-50.008,-31.648,-19.441,-12.819,-84.623,-45.02,-32.68,-18.645,-17.553,-87.684,-44.911,-25.145,-23.243,-16.259,-86.605,-43.212,-29.344,-23.259,-18.164,-76.546,-56.708,-27.311,-18.773,-20.186],[-96.546,-73.442,-39.931,-22.015,-25.34,-88.608,-62.364,-37.091,-25.592,-25.371,-97.527,-49.841,-39.014,-31.325,-23.395,-96.541,-73.753,-37.215,-29.246,-25.726,-98.391,-64.632,-33.572,-31.224,-24.192,-99.239,-66.172,-30.172,-27.661,-27.016],[-105.814,-82.496,-54.952,-38.901,-27.411,-105.329,-78.155,-62.797,-33.077,-28.5,-106.096,-87.947,-49.878,-30.728,-30.164,-109.352,-79.602,-48.552,-33.471,-25.31,-96.268,-65.86,-43.441,-36.512,-34.239,-100.545,-76.006,-56.15,-37.195,-29.562],[-105.51,-87.95,-59.667,-35.184,-32.582,-101.502,-72.683,-52.788,-37.754,-37.497,-101.888,-80.57,-61.793,-26.253,-21.381,-106.47,-83.538,-64.058,-42.096,-33.964,-108.517,-89.841,-69.975,-49.79,-33.05,-104.389,-86.695,-46.62,-47.876,-28.111]],
"ve": [[-10.589,0.112,2.643,13.726,28.776,-10.265,-2.15,6.62,18.904,32.181,-11.167,-0.924,5.224,10.983,22.283,-11.706,-1.218,3.162,13.746,18.936,-10.919,-1.2,4.653,12.173,18.529,-10.95,-1.319,5.637,10.571,3.217],[-61.265,-20.534,-12.79,-9.017,-5.506,-54.583,-23.126,-12.537,-9.329,-4.015,-45.795,-21.97,-14.195,-8.174,-6.237,-58.493,-22.454,-11.235,-7.568,-5.106,-39.631,-19.899,-13.604,-8.662,-5.282,-50.467,-18.713,-11.698,-8.049,-4.839],[-81.568,-54.565,-21.442,-18.7,-12.447,-69.411,-41.018,-22.686,-13.407,-13.017,-76.544,-38.179,-26.113,-16.951,-13.346,-95.382,-37.572,-21.716,-20.122,-12.415,-75.09,-41.992,-24.193,-17.751,-12.074,-64.097,-45.542,-21.547,-17.103,-11.613],[-92.191,-63.332,-35.794,-19.642,-20.898,-76.572,-57.361,-32.045,-23.687,-19.986,-100.002,-48.957,-35.924,-24.977,-18.838,-96.387,-54.598,-31.453,-28.604,-20.114,-96.519,-134.184,-34.746,-26.078,-19.684,-97.895,-58.207,-28.938,-28.414,-20.754],[-109.57,-83.514,-49.578,-37.207,-26.103,-115.619,-72.742,-55.581,-32.155,-25.324,-114.701,-81.417,-52.416,-30.709,-26.599,-125.568,-70.225,-42.927,-33.495,-22.398,-87.891,-71.744,-49.984,-34.816,-27.654,-91.939,-61.993,-50.879,-34.846,-26.363],[-113.392,-86.554,-56.428,-41.133,-36.217,-100.525,-74.316,-60.661,-39.45,-32.385,-98.822,-81.705,-56.449,-35.501,-27.975,-114.436,-80.615,-63.053,-40.071,-30.631,-115.639,-84.721,-64.154,-45.735,-31.607,-106.254,-87.807,-49.012,-39.001,-27.83]],
"kep": [[-11.248,-6.731,-3.917,-11.329,-16.491,-7.916,-8.519,-8.85,-14.444,-12.346,-9.29,-7.169,-10.786,-12.115,-17.545,-7.688,-6.937,-5.868,-11.965,-11.738,-5.535,-7.782,-9.386,-10.493,-7.814,-8.509,-7.912,-11.208,-12.718,-13.716],[-70.519,0.351,-9.406,-8.023,-5.437,-68.413,-8.971,-7.198,-8.889,-11.381,-65.684,0.106,-5.657,-7.445,-4.722,-69.744,-11.887,-8.36,-8.543,-9.789,-61.841,-7.822,-7.352,-10.37,-7.808,-53.306,-13.939,-8.375,-5.581,-6.363],[-70.734,-43.788,-3.549,-1.36,-4.278,-70.576,-28.499,-10.468,-6.33,0.217,-71.343,-28.494,-6.69,-1.854,-4.506,-72.069,-23.943,-2.824,-2.958,-4.084,-75.09,-28.229,-4.632,-5.717,-6.758,-64.974,-37.776,-7.845,-1.173,-9.425],[-74.683,-64.369,-7.856,-1.332,-4.745,-74.432,-60.838,-7.878,-0.281,-5.809,-78.056,-49.36,-3.959,-5.87,-4.765,-74.634,-69.989,-9.103,0.396,-5.669,-75.442,-60.981,-4.818,-5.81,-4.31,-68.994,-62.717,-7.117,1.666,-6.154],[-76.331,-54.904,-48.565,0.957,0.145,-75.076,-54.536,-62.395,2.372,-2.527,-73.635,-54.472,-44.486,1.705,-2.176,-77.07,-58.942,-44.193,0.937,-2.642,-75.812,-55.4,-42.417,0.428,-5.544,-74.307,-58.074,-51.15,-0.196,-2.247],[-78.83,-56.855,-47.073,-19.439,7.697,-81.302,-53.429,-48.043,-19.875,-2.054,-81.589,-55.411,-52.106,-14.798,10.891,-79.015,-56.89,-64.158,-21.688,0.079,-79.391,-61.982,-52.979,-26.42,2.854,-78.478,-54.704,-47.616,-30.232,1.675]],
"vp": [[1602.078,1433.459,2032.983,1686.54,1671.921,304.188,359.812,314.14,347.916,334.538,137.153,167.637,174.046,125.876,124.268,30.121,35.533,31.069,29.432,24.469,14.359,13.442,14.544,14.933,18.87,7.379,8.708,9.28,8.178,6.838],[6443.703,4552.167,4095.037,5447.115,4920.762,1108.627,1015.483,893.927,1084.589,672.819,539.189,507.183,534.885,503.756,566.613,123.26,97.9,72.657,84.723,88.093,51.981,41.06,51.137,48.508,45.432,26.686,17.681,20.303,23.715,24.16],[7924.814,9386.558,6724.403,9150.588,7984.991,1465.209,1733.454,1392.75,1154.011,1792.964,778.023,795.459,856.986,815.336,846.143,165.44,157.96,138.633,199.063,153.913,76.349,88.685,82.508,80.459,69.314,30.903,46.944,32.856,42.297,30.272],[9197.228,14037.126,11056.607,8151.092,11628.708,1499.004,2364.911,1970.114,2074.741,2161.679,1005.543,998.058,1148.637,1035.409,1064.022,193.577,318.367,192.053,264.3,221.404,97.981,107.077,110.952,112.057,111.557,49.871,53.886,45.391,65.03,55.917],[10934.67,17668.014,15854.372,15879.407,14409.648,2281.246,3033.361,3432.489,2722.291,2746.945,1153.603,1697.848,1442.341,1313.886,1427.949,258.861,281.756,259.147,292.357,232.577,85.558,147.391,157.757,147.42,145.191,51.179,59.366,80.953,74.634,70.826],[11325.633,17814.394,17656.247,17421.287,20315.546,1998.694,2985.27,3989.132,3377.632,3311.45,964.095,1640.912,1695.353,1503.835,1521.247,229.384,327.831,386.904,353.664,316.819,118.102,169.783,198.818,191.12,166.344,53.274,91.493,71.819,76.66,71.745]]
}