{
"KTrans": [[-0.143,2.591,2.3,2.226,2.025,2.877,13.195,12.248,11.478,11.562,-11.354,25.464,23.534,23.187,22.632,25.458,72.161,89.668,94.455,97.979,124.03,38.089,104.804,126.974,144.609,-56.579,-198.023,-22.247,35.465,146.789],[2.838,1.564,-0.291,0.993,0.893,13.487,8.562,-0.869,5.3,4.672,28.177,16.229,6.812,9.541,9.231,182.703,74.547,-6.264,28.516,37.945,-247.185,-143.889,-39.189,5.929,53.665,-189.85,-17.079,88.698,-0.683,-16.815],[0.213,0.834,1.309,0.924,-0.277,16.192,5.877,5.136,4.332,-0.665,27.609,11.816,10.056,9.406,3.329,98.957,76.937,67.063,47.228,-11.044,22.513,210.171,95.222,-53.792,38.717,5.703,-117.847,-156.287,36.08,-52.612],[-1.855,0.547,1.552,1.12,0.633,11.713,7.478,5.51,3.508,2.742,21.163,14.806,10.274,7.22,6.593,-4.648,78.739,53.074,43.009,37.594,-86.953,112.502,112.841,74.586,62.723,67.1,43.973,-64.8,-85.808,-48.144],[1.369,1.636,2.341,1.013,0.524,10.938,7.846,3.056,3.564,4.108,33.769,14.698,8.564,5.512,5.997,-12.538,62.838,56.448,34.844,33.07,-81.151,112.947,104.651,75.029,67.83,-64.261,92.968,232.993,102.71,95.362],[7.468,1.532,0.195,1.338,0.413,20.38,3.015,3.922,3.187,3.109,1.199,8.78,7.744,6.388,5.711,-16.426,76.415,41.925,40.037,32.307,-57.46,105.847,155.88,65.239,58.79,-67.344,7.63,102.355,173.783,90.581]],
"ve": [[0.969,1.075,1.174,1.355,1.489,4.907,7.117,8.147,9.381,12.472,10.032,33.34,22.649,29.826,40.614,48.746,-13.148,-92.569,-264.359,-209.236,99.035,29.172,-9.539,-33.498,-50.077,201.265,81.704,34.236,4.247,-17.317],[1.096,0.583,0.335,0.359,0.318,5.145,2.834,1.648,2.319,1.925,10.186,5.351,3.205,5.326,4.468,51.034,26.403,16.56,37.402,11.174,100.267,52.064,33.357,18.764,-52.412,202.031,103.109,65.216,43.54,27.726],[0.822,0.494,0.436,0.322,0.195,5.318,2.549,1.865,1.454,1,10.08,5.042,3.593,2.869,1.976,49.978,24.73,17.085,14.618,9.985,99.646,55.602,33.469,25.899,19.75,200.319,101.789,69.541,51.885,40.031],[0.611,0.456,0.45,0.351,0.244,4.962,2.695,1.888,1.363,1.082,9.801,5.246,3.613,2.699,2.251,50.562,25.101,16.946,12.944,10.264,98.607,50.51,34.576,24.156,22.214,198.024,93.327,66.25,50.353,42.542],[0.814,0.594,0.525,0.338,0.231,4.744,2.707,1.638,1.369,1.266,9.939,5.207,3.437,2.507,2.199,47.84,24.368,17.241,12.625,10.412,98.592,50.279,31.39,24.499,19.768,201.109,98.064,72.826,62.341,41.552],[1.306,0.467,0.303,0.359,0.217,4.789,2.329,1.748,1.319,1.127,8.478,4.798,3.303,2.609,2.164,49.243,24.856,16.674,13.02,10.444,93.753,48.955,33.795,24.264,19.85,193.906,100.507,66.714,46.167,41.173]],
"kep": [[-67.385,-3.846,-2.881,-2.688,-2.624,14.416,-21.796,-17.366,-16.308,-18.451,-109.154,-46.117,-34.806,-35.582,-37.011,52.744,-227.994,-173.167,-183.971,-203.636,65.604,-394.171,-372.846,-390.368,-387.426,-33.836,-339.299,-613.215,-725.169,-675.108],[2.321,3.284,-74.298,-2.57,-1.322,9.948,15.74,-76.204,-17.851,-8.652,19.299,26.034,142.913,-32.495,-19.012,79.619,51.358,-23.189,-162.245,-101.655,-155.921,-181.514,-89.117,-304.795,-184.222,-107.576,-40.321,58.846,-112.589,-421.304],[-0.783,0.862,2.38,3.585,-136.962,9.592,4.922,7.546,14.213,-71.728,14.884,8.965,13.931,29.209,136.017,18.654,46.461,70.267,76.71,-79.411,-41.988,102.689,61.662,-147.704,143.192,-63.361,-109.11,-144.162,-5.155,-122.74],[-3.456,0.455,1.994,1.997,1.867,3.891,5.269,5.628,4.774,5.883,6.87,10.365,9.765,9.326,14.07,-44.851,40.821,38.337,44.375,58.541,-84.598,31.941,62.734,49.873,59.932,-43.245,-35.136,-75.635,-110.497,-99.183],[-3.279,0.531,2.35,1.272,1.027,0.642,4.642,1.957,3.647,6.079,13.941,8.945,6.349,4.825,7.756,-46.244,26.697,36.58,26.883,35.044,-88.462,24.123,48.869,46.261,54.91,-81.869,-12.798,74.76,25.122,39.915],[-1.918,0.358,-0.042,1.518,0.785,6.536,-0.107,2.23,2.745,3.48,-12.742,3.012,5.23,5.005,5.722,-50.94,33.156,21.292,28.546,28.656,-77.126,19.778,82.823,34.323,40.416,-84.644,-48.252,5.92,69.883,26.913]],
"vp": [[-12.605,-19.655,-20.505,-22.69,-26.823,-18.372,-8.562,-11.052,-13.911,-0.876,-14.385,-3.241,-14.497,-9.596,-6.368,-30.835,-6.497,-13.865,-1.488,3.661,-23.923,-15.455,1.272,12.963,-1.192,-12.141,5.647,5.402,13.337,-12.539],[126.527,37.614,-15.307,-28.785,-28.413,22.612,1.588,-24.018,0.18,-17.938,7.997,-7.964,-32.538,-13.744,-11.891,-16.953,-1.575,-6.474,-9.038,-0.242,-2.321,-5.155,-15.002,12.766,-13.71,-9.548,-5.105,-33.758,5.344,24.657],[333.324,131.33,72.863,34.487,-12.675,65.581,37.985,7.027,5.59,-26.236,26.019,-6.202,-12.022,-2.025,-22.451,7.193,-8.561,4.76,1.58,-8.418,-5.359,-8.907,-28.262,-16.315,-18.65,-3.135,-17.739,-19.621,-21.516,-15.101],[814.348,421.096,275.67,138.368,82.133,75.216,65.447,64.736,2.152,-16.109,31.297,47.696,11.986,-9.412,10.035,32.088,11.884,5.255,0.469,-5.299,-8.137,-24.238,-4.068,-2.533,3.806,-18.804,-17.066,-31.59,-21.265,-15.66],[1395.473,482.345,468.04,202.401,144.809,321.03,93.395,29.276,42.165,64.035,231.914,77.58,30.939,-3.228,20.532,33.48,-1.362,27.048,-12.407,0.89,22.049,11.522,7.162,-10.404,1.766,-13.658,-13.24,-16.091,-2.101,-12.267],[3859.327,827.433,570.949,483.874,325.392,824.3,113.075,75.907,79.706,71.562,259.173,75.946,86.649,24.435,21.011,59.596,21.39,6.766,17.512,4.147,18.145,16.584,30.056,-19.665,-14.202,-5.006,-15.2,-13.328,4.853,5.519]]
}