{
"KTrans": [[1.361,7.425,10.597,8.609,9.449,6.996,14.626,16.906,13.966,16.635,30.268,22.715,20.848,19.506,21.789,100.093,89.235,75.27,73.389,66.988,-2.857,155.737,122.753,130.633,132.845,-4.849,-26.267,44.385,233.558,55.489],[-27.255,-6.676,-0.93,4.224,6.176,-23.779,-0.482,4.259,4.752,7.825,-13.358,5.274,5.466,6.587,8.192,7.832,47.618,34.375,35.248,31.582,-25.608,77.488,78.256,71.207,65.853,-19.974,64.203,128.293,99.411,117.874],[-51.515,-17.02,-5.973,-0.778,0.857,-43.858,-10.433,-4.541,-0.688,2.249,-36.547,-4.628,2.23,-0.135,5.067,-47.521,22.501,23.001,21.534,22.327,-59.26,25.392,56.26,54.31,42.523,-46.141,0.911,71.481,71.233,90.17],[-60.596,-24.506,-12.439,-5.75,-1.797,-61.63,-20.575,-9.709,-7.31,-3.425,-61.952,-15.84,-6.826,-1.215,-2.73,-49.4,8.78,10.836,20.027,13.629,-78.239,6.19,35.057,35.313,40.611,-53.852,-8.991,-6.443,47.498,74.442],[-68.486,-28.405,-17.134,-15.338,-7.898,-70.856,-31.531,-19.219,-11.021,-7.996,-68.203,-29.54,-15.835,-10.596,-6.081,-70.301,-4.176,9.363,5.69,11.348,-77.85,-27.921,15.322,22.636,21.475,-68.269,-39.332,-55.857,32.598,48.35],[-77.735,-35.86,-23.882,-17.698,-12.949,-80.552,-30.05,-21.307,-15.451,-11.381,-79.3,-25.628,-20.052,-16.409,-8.896,-76.438,-9.982,0.835,3.715,1.859,-70.117,-35.514,-1.621,17.984,19.711,-51.665,-56.028,-38.547,28.563,50.321]],
"ve": [[433.344,33.355,23.587,-75.843,-94.834,12.086,12.702,45.26,-90.011,229.736,18.88,-157.905,35.265,-48.224,244.661,53.184,99.746,17.775,27.169,13.863,91.708,97.969,34.107,12.998,5.296,194.578,74.4,36.422,8.895,-3.062],[3.053,1.902,3.967,2.818,6.035,5.296,3.116,3.755,3.765,6.306,13.413,5.317,4.971,5.377,7.617,53.002,24.218,14.846,12.282,10.696,102.308,46.73,32.607,21.218,16.368,190.302,89.117,63.151,45.034,33.671],[0.954,-3.21,0.423,-0.688,1.998,6.524,0.623,-0.427,-0.435,0.692,9.028,3.136,0.862,1.304,1.983,46.368,23.836,13.798,11.517,8.945,89.464,44.276,32.191,22.503,17.237,190.297,90.492,65.461,3.126,36.871],[2.301,-0.829,-2.425,-2.36,-1.105,18.462,0.404,-1.027,-0.25,-0.038,10.364,2.181,1.749,0.689,1.508,44.374,21.343,13.483,9.385,7.611,105.152,30.157,29.959,21.472,17.386,193.69,83.708,65.43,43.794,36.768],[13.82,-2.98,-2.786,-3.003,-1.793,8.34,-2.024,-2.157,-1.542,-1.733,12.883,1.921,-1.087,-1.346,-0.522,46.638,23.309,15.844,9.788,6.413,99.164,47.744,30.804,20.765,16.788,189.547,94.247,62.949,21.231,34.719],[1.791,-1.498,-2.06,-3.333,-1.711,3.84,-1.758,-2.286,-1.781,-1.186,11.598,3.095,0.131,-0.363,-1.165,41.267,25.876,11.793,9.026,5.753,94.726,47.307,30.649,23.057,16.248,189.3,95.646,62.775,76.863,35.384]],
"kep": [[-26.689,-28.052,-27.041,-37.369,-48.409,-24.411,-21.235,-21.591,-31.353,-30.75,-16.676,-16.752,-23.087,-25.545,-19.545,-3.428,19.245,22.686,27.441,33.887,-50.372,33.351,40.19,63.528,88.989,-50.935,-49.374,-18.124,109.545,-5.038],[-45.999,-31.679,-28.819,-24.502,-25.182,-45.568,-28.105,-25.12,-24.821,-24.28,-43.401,-25.457,-25.29,-24.858,-25.042,-46.553,-12.257,-13.351,-10.675,-11.691,-65.788,-11.058,-0.982,4.23,5.597,-68.966,-30.37,6.183,0.164,19.812],[-65.575,-36.144,-30.627,-26.236,-26.892,-61.095,-34.037,-29.103,-26.321,-24.956,-57.662,-31.071,-25.093,-27.032,-23.882,-71.578,-27.268,-20.332,-19.63,-17.053,-79.44,-35.733,-13.065,-7.492,-10.346,-80.201,-55.69,-21.168,-13.281,2.586],[-72.597,-43.409,-33.629,-28.763,-26.634,-74.355,-41.486,-32.634,-31.367,-28.613,-74.892,-38.761,-32.234,-27.627,-29.296,-72.841,-34.318,-28.067,-19.311,-22.217,-88.474,-45.827,-23.745,-18.232,-12.242,-83.612,-60.424,-55.24,-25.067,-7.415],[-78.606,-45.658,-37.186,-35.49,-30.905,-80.727,-48.188,-39.165,-33.357,-30.989,-79.391,-48.941,-37.225,-33.303,-30.384,-84.241,-42.729,-30.734,-29.24,-22.959,-89.29,-62.418,-34.854,-25.743,-23.455,-88.394,-71.662,-74.537,-32.75,-20.346],[-84.508,-52.149,-42.735,-37.37,-34.689,-86.968,-47.604,-40.639,-36.521,-33.871,-86.487,-47.07,-41.143,-38.157,-32.059,-86.358,-47.27,-34.039,-30.155,-29.144,-87.149,-66.438,-44.114,-29.733,-24.436,-85.56,-78.4,-68.451,-35.64,-18.998]],
"vp": [[-511.058,-320.753,-39.964,581.025,373.793,-32.724,65.528,116.911,39.766,-43.232,-13.531,-36.859,24.939,-19.909,72.466,-13.942,-32.458,-47.178,0.57,-5.908,-25.262,-21.776,-19.906,-2.457,-22.176,-25.335,-18.72,-22.944,-35.793,-18.05],[2560.125,1026.384,358.673,-574.285,236.44,437.486,185.972,9.68,101.595,102.804,151.884,64.285,-63.028,-40.641,-15.903,33.34,-10.985,-21.696,-35.951,-8.634,-9.243,-29.843,-15.072,-36.676,-12.966,-24.968,-19.675,-45.566,-33.894,-19.214],[5035.949,2685.22,1326.938,695.038,485.342,847.145,571.36,369.515,104.567,-68.113,423.209,333.372,182.059,43.353,-8.613,64.637,42.512,-3.661,-2.844,-5.778,-3.184,-14.019,-5.698,-12.987,-38.068,-13.82,-45.934,-38.538,-26.78,-36.37],[5583.623,4781.05,3073.278,1824.032,1024.082,1080.469,884.033,789.098,400.653,340.737,541.628,513.41,371.241,190.019,159.732,65.053,59.693,50.795,56.134,-8.401,45.736,12.951,-12.929,-14.546,4.239,-3.52,-30.351,-17.835,-26.173,-27.333],[6398.629,6095.069,5686.276,2665.108,2032.773,1327.498,1253.96,944.658,576.519,362.607,553.614,650.706,526.517,181.143,186.824,66.425,97.282,109.75,62.778,17.106,37.936,20.784,3.841,-2.635,-24.216,-18.027,-15.776,1.789,-10.261,-43.619],[5907.453,9007.016,8064.376,4152.006,3037.149,1455.679,1741.762,1236.508,702.34,474.558,637.682,837.956,629.347,430.112,200.41,71.05,174.119,102.268,62.224,15.959,42.832,37.92,24.119,22.125,0.57,-17.772,3.158,-6.882,-9.609,-28.026]]
}