{
"KTrans": [[28.864,16.302,22.743,24.93,23.266,24.519,18.33,25.64,26.963,28.14,26.688,17.51,34.38,34.184,27.154,42.182,43.411,34.149,38.907,31.924,79.65,82.225,81.237,67.842,76.302,120.802,127.872,128.453,118.984,123.412],[-48.052,-5.916,3.241,8.663,10.739,-40.522,-5.174,7.742,12.261,11.178,-49.045,-3.33,6.227,11.46,12.237,-28.169,2.107,9.766,18.521,22.833,-17.048,9.499,18.604,23.107,27.585,5.843,34.573,46.609,44.618,44.075],[-71.55,-31.649,-12.151,-7.403,2.812,-74.852,-32.158,-16.395,-5.15,-0.839,-72.599,-31.01,-13.843,-2.287,3.604,-60.287,-25.671,-6.861,1.07,5.55,-58.118,-18.013,-6.204,5.614,17.621,-39.423,-4.563,14.687,22.123,29.327],[-84.879,-54.765,-35.61,-17.167,-9.729,-82.513,-48.586,-33.506,-19.057,-9.635,-83.778,-48.882,-31.22,-18.556,-7.216,-71.957,-46.261,-26.933,-12.396,-5.501,-67.809,-44.058,-20.194,-11.552,-0.683,-74.084,-37.388,-12.46,-2.583,13.963],[-89.727,-66.004,-40.464,-28.039,-18.39,-87.963,-63.01,-44.071,-28.819,-17.29,-87.388,-66.03,-45.249,-31.619,-19.501,-82.067,-58.27,-40.499,-27.002,-19.369,-80.034,-53.27,-36.174,-31.475,-15.317,-84.766,-46.257,-22.433,-21.868,-17.088],[-93.358,-68.897,-53.294,-42.474,-29.979,-91.306,-72.541,-55.977,-40.348,-27.396,-89.057,-66.026,-53.2,-42.096,-29.096,-86.395,-66.743,-52.526,-40.621,-30.089,-89.799,-68.332,-50.801,-31.701,-23.2,-78.628,-62.435,-46.186,-32.577,-13.905]],
"ve": [[-59.667,-304.379,-85.81,-303.505,-48.023,-64.469,77.245,42.722,637.188,-124.218,5.6,140.749,-0.276,180.012,-2.47,17.616,56.409,-43.207,93.532,214.018,38.733,46.733,12.311,-26.649,-21.527,84.319,23.99,12.212,-21.751,-27.955],[-27.039,-1.717,4.369,5.696,22.149,49.852,-3.059,2.87,7.519,13.006,-28.418,4.873,4.022,7.922,11.133,9.567,11.748,58.072,12.322,13.136,35.186,-14.563,21.758,39.69,18.178,88.155,27.698,9.857,-24.856,70.161],[-46.979,-12.073,-3.592,-0.803,1.239,-32.808,-10.35,-3.311,-0.803,2.774,-52.815,-9.121,-2.419,-0.106,1.662,22.341,3.757,2.241,4.494,3.864,5.788,13.027,7.031,7.828,10.75,65.799,37.335,25.849,3.849,21.182],[-27.193,-25.521,-11.921,-5.379,-2.704,-33.631,-11.259,-11.04,-5.676,-4.168,-42.929,-7.072,-8.468,-5.506,-2.877,-22.153,-7.883,-4.651,-2.606,1.583,14.612,28.4,-3.877,3.353,5.208,66.749,15.12,11.311,16.857,17.385],[-36.07,-148.684,-13.865,-10.472,-6.836,-25.91,-24.787,-15.476,-9.539,-6.257,-35.555,-17.178,-16.269,-9.341,-7.635,-23.997,-10.265,-10.239,-6.392,-3.039,56.107,-5.083,-2.16,-6.552,-0.07,64.04,19.118,19.3,2.413,6.295],[-53.659,-28.214,-18.609,-15.507,-12.044,-39.316,-28.1,-19.754,-13.524,-9.415,-45.179,-26.881,-19.503,-13.599,-10.289,-26.243,-27.402,-13.919,-10.157,-7.765,-45.738,-21.612,15.374,-3.897,-0.419,65.774,10.556,16.963,27.137,12.691]],
"kep": [[-25.87,-34.615,-37.41,-41.092,-49.031,-30.786,-33.928,-38.141,-36.88,-40.917,-29.453,-38.967,-24.966,-27.673,-38.491,-37.109,-29.822,-32.098,-32.365,-47.797,-37.041,-16.103,-9.614,-19.352,-5.529,-28.205,-26.932,-18.797,-2.941,6.582],[-67.344,-39.301,-34.658,-32.428,-34.132,-64.121,-36.207,-31.788,-31.344,-35.014,-67.719,-39.485,-33.199,-32.077,-33.092,-67.058,-40.736,-36.083,-31.129,-27.95,-70.408,-43.216,-35.698,-33.276,-28.328,-71.242,-52.605,-36.795,-31.178,-30.358],[-82.842,-50.691,-41.018,-39.686,-34.387,-85.257,-51.496,-44.153,-38.366,-37.665,-82.962,-53.747,-43.314,-36.988,-34.031,-79.625,-54.498,-41.806,-37.67,-34.43,-84.32,-54.599,-45.398,-37.317,-31.824,-79.916,-66.032,-47.944,-38.673,-31.787],[-90.981,-64.985,-52.991,-43.644,-40.296,-90.018,-62.495,-51.853,-44.875,-39.285,-89.253,-61.991,-51.829,-44.875,-38.562,-85.862,-66.616,-51.33,-42.649,-40.361,-85.759,-67.861,-51.573,-45.825,-39.666,-89.704,-75.854,-61.042,-47.407,-38.184],[-93.254,-72.031,-56.358,-48.664,-43.717,-91.185,-70.134,-58.474,-49.658,-43.538,-91.631,-73.715,-58.273,-51.744,-44.086,-89.243,-71.285,-58.643,-50.552,-46.775,-90.914,-75.295,-60.643,-54.251,-46.054,-90.983,-76.498,-62.543,-56.857,-50.949],[-95.397,-74.169,-63.433,-56.631,-49.114,-94.237,-77.154,-65.286,-55.993,-48.563,-93.434,-73.763,-63.247,-57.371,-49.343,-92.319,-77.04,-65.426,-58.109,-51.539,-94.676,-81.768,-68.768,-55.301,-50.662,-92.039,-82.877,-73.765,-62.892,-50.84]],
"vp": [[-624.928,-211.32,-889.514,-961.761,-1293.274,-88.726,1.656,-125.355,-165.423,-140.437,-24.876,-38.401,-110.445,-120.336,-46.789,-7.737,-19.408,0.075,-22.854,3.569,-16.023,-25.651,-36.945,-13.822,-36.129,-15.868,-19.187,-12.688,-10.294,-19.59],[2931.252,454.747,250.323,-254.665,-895.838,516.201,199.595,-127.509,-201.26,-206.546,349.095,0.456,-25.088,-101.88,-66.282,27.216,2.935,-15.226,-30.242,-25.31,-11.421,1.246,1.012,-3.807,-16.799,-13.908,0.731,-9.689,-10.557,-3.055],[5018.388,3086.399,828.272,889.694,-382.565,998.599,649.812,322.265,96.277,-35.832,437.17,336.608,155.636,44.685,-40.696,54.147,22.533,8.178,-6.004,3.687,38.49,1.444,22.607,4.23,-40.061,-7.832,-14.465,-12.208,-18.329,-22.446],[6540.664,6041.738,4804.846,2140.314,995.056,1184.797,1133.027,917.454,588.605,431.82,590.464,522.472,411.753,288.118,88.642,67.616,92.272,69.505,49.191,13.922,33.488,41.274,28.417,25.185,2.656,-1.942,19.204,15.708,19.287,-22.345],[6810.405,7233.687,4865.445,4422.537,2976.865,1248.728,1194.921,1263.107,880.262,543.942,705.241,779.588,655.319,526.77,404.792,114.827,118.433,111.046,91.086,54.843,39.557,58.464,47.691,84.287,28.728,10.66,6.884,-1.383,28.611,48.118],[8531.879,8189.27,7114.893,7482.221,6186.414,1502.953,1857.551,1643.993,1377.244,1007.844,616.162,665.24,801.872,733.426,578.288,125.767,139.413,176.59,148.541,135.467,67.059,92.265,51.825,56.192,37.627,-2.313,28.132,29.624,32.141,-0.373]]
}