{
"KTrans": [[-35.16,2.183,-3.519,-1.648,-0.229,-49.075,-15.321,-4.16,4.755,-5.017,-48.227,-2.013,-0.491,0.136,2.215,-37.334,-4.487,2.307,-8.806,-0.958,-46.849,7.307,-2.139,0.124,-4.678,-30.088,-3.016,5.067,-6.269,-4.533],[-90.297,-53.4,-21.273,-6.886,-9.404,-85.957,-44.028,-23.414,-15.105,-11.157,-90.733,-46.01,-16.331,-9.588,-9.742,-86.163,-52.412,-24.475,-14.035,-11.189,-86.609,-51.861,-27.462,-17.034,-9.874,-89.463,-44.341,-21.996,-8.522,-4.826],[-95.784,-80.381,-42.925,-25.325,-15.259,-94.348,-73.547,-45.279,-19.734,-13.183,-93.541,-74.667,-49.465,-25.913,-22.793,-94.456,-77.361,-42.565,-18.261,-18.368,-96.773,-71.416,-43.143,-29.756,-20.451,-94.774,-71.93,-45.916,-20.344,-18.308],[-98.754,-85.119,-60.591,-38.784,-25.369,-98.559,-79.582,-65.875,-39.5,-29.72,-99.223,-86.57,-53.664,-47.256,-26.419,-97.556,-84.88,-72.993,-42.699,-22.573,-98.558,-87.58,-66.689,-35.485,-27.119,-97.953,-87.133,-71.323,-44.452,-23.643],[-98.54,-90.229,-76.876,-54.458,-42.519,-100.835,-89.158,-76.909,-57.527,-36.834,-98.967,-90.923,-81.214,-63.748,-40.91,-99.639,-91.628,-72.738,-61.808,-37.12,-98.306,-89.82,-76.942,-67.244,-43.719,-99.105,-88.425,-73.122,-61.891,-41.449],[-99.952,-93.889,-85.261,-65.965,-42.638,-99.428,-93.032,-84.107,-66.286,-50.182,-99.841,-93.819,-85.003,-73.53,-53.94,-100.715,-91.039,-84.548,-64.338,-54.775,-97.737,-91.45,-79.293,-68.788,-53.542,-98.879,-92.19,-82.227,-67.23,-53.582]],
"ve": [[-11.255,2.912,60.442,-17.295,-1991.039,-27.725,-15.355,-44.16,59.034,-81.518,3.672,-343.068,28.401,-11.369,-289.126,-126.025,-28.918,155.972,5.338,-630.249,-59.378,-11.998,218.59,199.044,3.256,-35.583,-47.979,26.604,18.058,-214.228],[-58.236,48.673,-12.804,-4.597,-1.587,-39.304,-25.99,-9.374,-6.8,-1.1,-66.426,-22.7,-12.211,-0.723,-3.904,-73.533,-24.212,-11.963,-8.121,-2.49,-57.04,-35.5,-12.389,-38.474,-2.441,-70.122,-25.738,-28.594,-5.5,0.426],[-12.347,-63.568,-31.221,-16.297,-10.318,-87.292,-52.499,-52.746,-16.461,-10.585,-82.576,166.987,-33.155,-21.186,-14.016,-68.518,-51.094,-39.391,-17.493,-13.213,-82.94,-49.283,-34.459,-19.172,-12.631,-89.558,-49.269,-31.372,-15.712,-12.077],[-95.985,33.259,-38.267,-25.317,-20.137,-72.015,-66.331,-66.657,-27.995,-21.758,-153.11,-65.245,-39.975,-33.068,-20.649,-88.558,-58.557,-53.569,-30.733,-20.353,-101.232,-64.485,-46.042,-26.175,-23.063,-92.307,-33.26,-43.28,-29.708,-18.299],[-118.966,-88.205,-59.625,-38.72,-45.684,-117.695,-61.752,-46.294,-37.381,-29.642,-106.257,-85.862,-25.96,-269.692,-30.904,-58.298,-82.609,-43.933,-43.527,-30.14,36.164,-82.776,-57.997,-53.823,-34.095,-462.815,-53.989,-51.855,-42.144,-32.764],[-57.134,-85.267,-61.862,-48.778,-38.622,-72.603,-83.231,-60.275,-51.324,-46.141,-101.49,-68.892,-65.832,-54.762,-42.678,-115.491,-71.141,-118.151,-49.975,-40.624,-91.634,-76.059,-65.793,-59.099,-40.309,-90.427,-86.755,-61.272,-49.226,-39.184]],
"kep": [[-49.568,-2.014,-14.395,-19.675,-10.29,-62.96,-23.078,-14.466,-7.12,-17.863,-60.655,-9.538,-9.195,-8.197,-11.938,-49.741,-18.125,-9.61,-26.153,-15.779,-57.929,-3.062,-15.806,-15.581,-21.985,-48.746,-18.605,-0.604,-17.039,-20.489],[-90.77,-44.829,-8.767,-1.246,-6.096,-91.433,-37.889,-13.72,-8.046,-7.48,-92.882,-37.736,-4.623,-6.285,-5.762,-90.836,-48.218,-14.106,-4.926,-6.726,-91.078,-41.444,-16.077,-10.261,-5.033,-93.344,-43.126,-13.667,-1.96,-3.8],[-95.609,-78.042,-22.882,-10.937,-6.327,-92.797,-70.952,-31.339,-3.602,-3.432,-95.048,-69.182,-33.924,-9.736,-10.011,-95.614,-72.742,-23.561,-3.284,-6.196,-96.476,-66.655,-26.918,-16.03,-10.067,-95.61,-70.594,-28.902,-8.659,-6.799],[-97.772,-84.323,-48.694,-21.748,-4.895,-97.26,-79.616,-53.203,-21.184,-10.033,-96.449,-90.357,-48.104,-23.751,-7.812,-97.475,-84.116,-65.982,-24.071,-4.656,-96.665,-87.134,-54.069,-18.825,-5.843,-94.506,-86.954,-61.188,-23.984,-6.943],[-97.996,-88.068,-76.865,-41.709,-14.449,-97.077,-86.198,-74.087,-42.062,-13.87,-97.429,-88.294,-81.875,-53.471,-19.709,-96.801,-86.659,-70.07,-42.558,-13.577,-97.388,-88.714,-79.752,-51.295,-18.256,-96.273,-85.9,-71.353,-43.282,-17.551],[-97.403,-92.353,-82.775,-66.279,-23.104,-97.779,-88.565,-81.992,-60.317,-35.142,-96.172,-87.318,-82.263,-62.555,-33.392,-96.939,-88.304,-79.374,-56.14,-29.86,-96.721,-88.608,-82.036,-60.943,-33.444,-97.777,-88.899,-81.919,-60.115,-37.569]],
"vp": [[2190.893,1897.141,1733.398,1895.333,1445.91,629.69,422.108,428.708,208.968,401.52,307.611,152.759,185.245,159.948,172.457,40.241,39.397,31.189,35.229,23.747,28.014,9.139,11.038,13.882,15.272,8.881,9.643,8.27,6.651,10.111],[7202.316,6361.911,6006.711,4531.01,4765.614,1300.859,1279.486,885.991,786.056,1123.724,713.888,733.273,581.024,489.243,503.42,131.152,141.759,90.281,113.819,110.931,67.441,74.202,61.09,57.122,46.028,33.273,29.858,27,21.458,20.983],[8145.297,13236.19,11314.584,8091.658,7153.74,1594.424,2332.647,1887.48,1590.511,1528.775,782.837,1100.381,1143.895,911.352,964.424,146.313,207.421,210.834,178.998,148.763,89.748,110.357,108.919,91.468,80.555,40.808,53.246,54.885,45.015,38.032],[10209.017,13598.354,12579.744,12904.38,11108.931,1907.054,2387.696,3258.487,2530.341,2495.761,974.486,1432.117,1289.595,1494.925,1207.836,190.147,279.745,355.707,277.66,266.526,100.035,140.532,149.907,118.221,136.418,43.544,74.768,87.993,63.779,51.847],[10008.796,16218.313,17752.409,16497.637,18179.722,2201.247,2909.775,3854.638,3370.401,3237.524,968.968,1682.433,1959.338,1963.144,1750.441,189.679,336.745,336.925,392.57,344.663,101.067,161.631,186.882,220.007,205.025,48.456,73.424,84.73,114.479,91.041],[10149.625,17235.043,20213.21,19798.488,18741.774,2018.321,3618.328,4340.274,4031.302,4461.834,987.692,1662.398,1992.67,2497.587,2333.583,207.039,293.786,444.844,427.52,455.642,85.894,163.42,204.211,208.282,221.672,44.416,78.543,100.872,104.453,100.694]]
}