{
"KTrans": [[35.275,39.184,36.087,22.339,19.604,52.295,43.71,42.168,28.719,32.097,73.456,66.089,32.931,35.595,33.216,230.788,154.428,118.791,108.528,99.44,569.998,301.926,236.328,198.056,186.299,1416.854,762.593,564.052,490.856,424.143],[-77.419,92.18,55.509,44.519,31.993,-53.43,97.608,65.028,38.951,30.941,-49.835,77.907,50.911,47.348,37.999,-28.663,183.987,110.364,90.123,68.241,128.943,269.206,180.27,148.11,115.715,182.798,680.105,370.797,279.734,216.99],[-116.323,36.125,128.625,63.243,60.617,-117.538,57.121,96.465,85.947,54.589,-119.743,14.678,110.437,73.585,52.322,-126.899,149.919,156.988,139.14,78.634,-104.864,157.96,290.779,183.375,143.686,-155.057,459.8,433.192,274.007,208.556],[-124.049,-76.03,143.315,108.967,86.799,-120.9,-117.098,160.808,113.354,84.079,-120.237,-96.193,157.368,142.407,92.677,-132.652,-104.633,227.771,180.269,118.143,-162.334,-39.644,309.202,244.277,155.641,-148.62,-168.497,453.73,359.156,268.046],[-116.495,-140.458,2.066,179.672,129.666,-111.898,-126.887,25.659,126.827,123.855,-121.158,-143.97,-0.155,233.371,127.253,-102.797,-211.782,115.152,272.605,170.842,-142.086,-200.004,125.049,363.052,240.022,-153.61,-160.732,193.511,459.334,341.368],[-113.384,-166.686,-197.061,147.735,155.965,-113.43,-125.769,-87.895,146.811,191.074,-116.219,-158.464,-176.279,161.599,241.937,-125.538,-194.598,-139.294,219.171,230.663,-132.187,-194.098,-121.646,181.364,310.79,-127.394,-280.746,-270.205,411.315,489.035]],
"ve": [[9.506,8.586,222.16,-8.983,-32.992,10.093,8.161,11.588,36.241,-25.834,15.305,4.028,5.932,-1.591,6.114,52.869,17.368,0.124,-10.922,-17.396,97.231,35.988,8.032,-7.242,-17.121,199.263,84.961,36.668,13.982,-6.862],[-5.982,4.659,1.059,2.56,2.085,-7.722,5.615,3.287,2.274,0.336,14.9,7.246,3.266,2.961,1.89,53.789,26.246,16.09,11.382,5.921,104.813,49.537,29.75,21.752,12.44,192.923,99.028,65.255,43.305,29.861],[5.458,3.451,5.073,2.239,2.673,4.045,5.731,3.016,4.723,2.107,9.889,8.106,5.595,4.752,2.854,49.367,26.819,16.09,15.309,8.531,98.013,52.256,36.715,25.922,20.13,203.12,102.837,69.339,47.667,37.701],[7.926,1.723,4.545,2.707,3.067,4.854,-15.086,-11.556,2.073,3.028,9.377,14.881,7.301,6.844,3.769,49.525,12.488,19.061,15.074,8.722,103.286,49.943,32.724,27.839,19.822,203.333,105.826,70.84,50.344,39.763],[-6.218,0.149,4.609,4.181,2.567,-51.781,9.854,3.135,4.141,2.164,27.723,14.443,4.705,8.177,4.73,47.839,32.08,20.499,16.928,11.615,75.669,50.03,38.785,29.961,23.56,202.162,99.02,68.012,53.028,40.884],[4.023,3.257,2.978,3.683,-0.081,3.324,-2.713,5.987,4.169,4.618,13.253,8.971,7.092,6.506,6.84,52.718,38.729,169.387,17.882,14.168,92.65,51.32,29.159,25.461,20.179,207.984,105.272,68.891,53.173,43.513]],
"kep": [[21.889,33.842,39.321,29.157,26.399,36.586,39.823,48.196,40.214,47,49.501,60.59,34.428,43.723,52.35,113.843,114.823,118.545,135.499,144.554,236.949,192.19,206.099,218.06,244.23,404.047,363.929,382.005,415.572,458.611],[-80.624,76.652,47.575,38.129,27.686,-62.743,77.408,53.601,32.282,28.575,-59.308,58.921,39.851,39.307,33.11,-57.505,114.627,73.328,66.629,54.896,8.57,136.002,108.213,97.665,85.75,-7.304,281.943,178.34,158.322,139.036],[-113.274,22.82,107.339,52.512,51.282,-113.907,36.354,79.52,71.913,44.856,-115.901,-2.583,88.096,59.577,41.32,-115.711,85.859,107.987,100.457,56.633,-97.517,60.931,175.93,115.595,95.862,-115.783,168.338,206.25,144.084,117.106],[-121.815,-77.814,119.369,91.374,73.314,-116.792,-115.911,131.864,95.563,68.951,-115.56,-95.414,124.782,116.344,75.426,-119.049,-100.225,158.314,131.069,87.215,-127.638,-58.646,188.322,158.251,103.558,-114.381,-130.808,213.169,193.032,152.539],[-112.916,-133.263,-8.622,151.679,110.062,-109.462,-121.47,12.728,103.286,102.076,-116.616,-137.543,-11.475,193.921,104.565,-99.93,-179.732,69.359,202.057,127.416,-118.658,-158.116,54.903,241.091,162.904,-115.422,-123.856,68.115,249.813,197.285],[-110.793,-157.31,-184.232,122.596,134.016,-110.393,-121.417,-85.783,118.542,159.129,-112.06,-147.736,-164.248,128.98,204.706,-114.961,-166.188,-127.007,156.699,175.279,-113.905,-156.355,-110.963,107.207,218.029,-107.54,-182.968,-192.692,218.279,291.261]],
"vp": [[2848.581,2433.756,2356.379,1759.14,2000.602,508.248,416.421,500.309,440.493,447.817,274.957,185.253,184.35,219.152,216.892,54.616,55.552,47.993,46.349,41.936,28.311,20.799,24.339,20.797,19.195,13.521,9.483,11.442,10.196,10.16],[6968.594,8153.492,6029.142,6732.646,6618.479,1541.865,1735.793,1488.429,1236.325,1239.093,748.893,701.021,585.858,677.06,683.872,146.392,164.791,131.929,128.055,122.529,85.322,74.111,62.546,76.241,66.881,38.788,37.983,35.491,36.12,30.044],[9448.472,12267.583,13000.861,10665.592,12527.717,1986.178,2934.195,2128.433,2345.482,2092.981,924.366,1532.157,1076.673,1104.589,973.352,190,262.89,208.946,257.835,206.964,80.185,129.439,121.006,122.253,125.61,47.277,69.815,68.127,47.933,48.864],[11559.057,14942.116,17528.733,16304.693,15791.238,1940.409,3519.497,3848.864,3112.872,3028.384,1111.4,1601.734,1848.093,1666.419,1592.393,205.262,340.367,351.962,326.549,291.251,108.041,156.723,175.206,156.216,154.629,56.874,87.106,93.979,76.376,71.217],[10523.054,17334.984,24438.377,24442.81,19974.709,2242.29,3385.449,4258.419,4314.468,3920.972,1121.839,1851.349,2161.076,2482.614,1986.86,182.312,436.926,434.331,468.696,403.281,114.453,164.331,238.209,255.795,231.904,53.82,82.086,110.246,114.405,103.623],[11561.971,20307.129,25505.997,28297.248,23250.253,2398.122,3708.231,4726.179,5475.946,5048.667,1189.5,2017.22,2602.246,2908.218,3107.865,228.533,429.152,464.039,619.54,527.214,109.67,196.089,235.867,266.39,264.608,54.006,113.276,129.585,153.118,154.049]]
}