{
"KTrans": [[-0.171,1.445,2.14,-2.402,1.602,6.629,8.317,13.517,11.375,11.316,6.743,23.217,17.429,17.985,21.131,-43.076,62.771,75.857,78.435,84.169,21.177,-6.534,27.991,110.357,106.583,186.747,-46.016,-99.636,-23.626,21.365],[-20.646,-4.29,1.096,2.35,-1.861,-14.997,0.209,2.352,1.194,6.992,-13.391,2.485,2.209,7.679,7.799,-52.305,24.429,8.656,18.951,30.963,53.925,63.929,-17.598,17.274,25.845,108.596,-49.884,179.176,-18.121,3.058],[-30.834,-5.662,-2.206,-2.013,0.419,-26.218,-0.175,4.876,4.284,0.523,-22.031,3.689,3.629,-1.026,1.637,-45.875,-3.966,16.377,21.366,-1.193,-65.924,5.625,-55.216,7.046,-2.412,15.136,-33.836,23.92,13.863,-29.483],[-44.285,-8.67,0.574,-1.508,-0.951,-49.662,-1.844,3.269,1.437,0.853,-34.048,-0.495,9.141,4.322,3.372,-53.212,10.112,14.084,20.741,14.125,-51.405,32.512,23.034,-18.369,-30.752,-18.034,-16.299,61.201,-23.158,34.759],[-51.527,-5.433,-3.166,-1.43,-1.314,-54.998,-11.308,4.85,-1.41,1.51,-53.902,-6.399,4.975,8.069,5.775,-83.461,6.302,8.022,19.375,16.43,-48.297,-57.636,-12.69,-13.619,-3.324,-68.961,23.155,-32.251,-23.587,-18.956],[-65.413,-7.272,-7.979,-3.072,-0.151,-51.307,-6.623,2.155,-0.586,-0.072,-56.856,-6.087,5.952,4.039,3.151,-66.526,-23.854,-12.63,21.347,14.024,-80.208,-17.245,-23.501,-20.314,6.09,-32.964,-14.524,48.791,27.018,14.497]],
"ve": [[-2.492,-63.966,11.424,-4.549,-68.191,-2.431,-10.93,279.071,-5.789,-3.493,12.217,-4.85,6.107,-2.25,89.596,9.722,-9.818,-55.518,-2.583,-8.482,97.683,27.882,-2.907,-84.77,-38.571,192.915,78.771,-4420.44,1.762,-20.089],[-4.922,-17.512,-0.466,1.009,-2.494,-31.006,4.402,1.177,-4.987,-35.176,-1.332,0.235,3.658,-134.747,-16.119,46.211,23.404,21.326,8.424,-19.479,93.824,49.104,32.102,17.46,-3.801,194.839,100.521,61.665,48.402,24.154],[-1.395,-3.548,-1.17,-7.011,-2.852,4.192,1.068,-0.91,-18.757,-3.728,7.373,2.661,2.048,53.92,3.758,68.583,15.288,13.492,12.303,10.773,98.071,49.03,37.56,81.02,22.309,207.052,99.192,66.646,55.601,37.891],[16.659,-1.868,-1.111,-1.662,-1.409,4.951,2.156,1.091,0.606,-2.831,5.907,3.051,3.577,0.681,0.354,47.681,25.315,16.79,14.284,8.719,100.535,48.65,31.681,26.909,20.239,182.007,97.009,67.984,50.466,37.282],[-4.42,0.165,-0.316,0.558,-0.546,5.28,0.616,1.008,-0.024,0.057,6.279,3.138,1.758,2.495,1.849,37.16,9.609,17.08,8.494,9.195,214.466,50.784,28.502,23.662,20.389,203.627,95.779,66.757,48.717,41.234],[-2.097,-3.323,-0.842,-0.455,-0.31,64.283,1.327,1.211,0.599,0.653,4.955,37.738,3.575,1.868,1.693,47.464,22.915,16.82,13.076,18.134,100.734,44.386,34.29,27.959,22.926,194.673,90.432,64.649,48.281,41.429]],
"kep": [[-121.919,-26.953,-3.787,17.53,-8.915,-126.581,-37.364,-35.65,-30.962,-14.945,-124.209,-64.298,-27.145,-27.982,-48.548,-147.032,-178.99,-208.914,-198.5,-185.46,-17.966,-296.841,-380.647,-341.419,-396.772,45.183,-59.628,-492.835,-601.115,-713.426],[-42.278,-38.923,-111.26,-17.647,8.268,-42.683,-30.131,-108.522,-20.278,-25.531,-44.904,-28.794,-142.486,-45.142,-16.955,-76.991,-17.856,-110.08,-165.572,-100.372,-31.291,19.645,-78.17,-216.349,-209.339,-26.34,-65.334,134.178,-119.833,-309.804],[-51.413,-16.17,-9.727,-38.53,-117.357,-48.083,-8.947,2.65,-0.96,-128.739,-49.717,-11.399,-6.968,-45.177,-141.901,-72.359,-38.319,-10.857,1.673,-137.182,-75.07,-37.105,-85.598,-13.323,-77.391,-55.455,-40.649,-19.11,-7.949,-40.727],[-59.237,-14.327,-3.561,-7.322,-9.229,-66.749,-11.6,-0.91,-3.672,-7.516,-56.865,-14.399,5.425,-0.707,-3.536,-72.938,-27.148,-13.814,-2.329,-11.832,-75.949,-21.805,-14.908,-53.318,-80.519,-72.085,-51.325,-4.553,-44.133,8.646],[-65.031,-15.713,-6.551,-0.918,-8.129,-71.984,-21.589,-1.216,-6.78,-1.694,-71.301,-21.747,-3.37,5.498,7.962,-88.546,-26.596,-17.26,0.78,-0.708,-77.817,-66.279,-42.219,-47.311,-31.409,-83.346,-36.309,-52.974,-49.582,-41.145],[-77.563,-21.423,-11.89,-7.911,-0.347,-71.073,-22.023,-4.873,-4.409,-1.874,-75.166,-25.763,-0.118,-0.176,1.544,-81.161,-49.502,-36.397,0.041,-7.607,-84.316,-53.236,-50.497,-46.774,-21.813,-74.438,-54.232,-17.506,-20.947,-19.839]],
"vp": [[85.759,164.472,17.695,-228.153,-118.155,1.434,-1.434,16.649,32.75,25.502,-22.777,17.079,-22.398,-12.623,-13.927,-17.387,-30.032,-5.418,-1.845,-17.381,-9.672,-9.352,13.831,-18.902,-15.365,-49.831,-23.704,-10.808,-0.353,-19.105],[1886.477,930.927,100.452,-151.052,-14.347,331.524,121.304,-4.274,-24.162,61.699,138.87,52.219,-31.522,-10.866,-15.014,35.956,-28.748,-30.168,-13.045,-15.887,-27.834,-39.233,-13.619,-39.823,13.35,-38.733,-42.135,-54.561,-16.328,-25.92],[4094.081,1339.595,457.485,436.024,35.519,770.492,306.577,52.109,142.509,58.097,331.14,198.027,5.618,54.052,-12.645,46.255,-12.784,-34.585,-30.313,-27.819,-5.604,-28,6.55,-30.334,-25.554,-21.031,-24.99,-36.339,-32.381,-25.573],[5420.234,2615.885,1204.057,700.553,328.682,1094.848,543.541,231.331,88.916,72.012,506.139,245.37,74.701,90.936,38.406,66.686,34.184,23.797,13.079,-1.345,-5.454,-19.385,-37.231,-12.741,-28.978,-47.71,-51.741,-52.999,-33.831,-45.566],[5070.196,4665.86,2156.178,784.724,526.23,1103.428,718.802,511.991,193.92,95.038,625.895,385.458,159.903,106.529,37.644,74.502,60.923,45.458,-6.678,-0.311,8.654,22.561,6.13,-10.457,-33.526,-31.28,-20.644,-46.511,-41.696,-38.346],[5874.764,6730.853,3276.102,1375.812,829.642,1337.878,1195.748,630.376,389.739,238.737,630.588,768.581,376.546,227.301,124.648,76.817,98.391,50.49,43.592,46.478,9.96,23.384,19.328,-5.8,-26.476,-11.272,-40.198,-21.031,-40.312,-19.679]]
}