{
"KTrans": [[3.363,2.157,2.162,2.466,2.128,0.662,3.671,3.014,2.946,0.7,-1.419,0.26,1.817,1.883,1.969,7.99,1.968,3.713,2.684,3.424,7.14,2.83,7.168,4.377,6.448,14.92,10.42,14.976,7.203,5.781],[-6.994,-2.479,0.995,0.303,1.249,-8.217,-2.563,-0.391,0.836,1.081,-8.467,-0.668,-0.148,1.764,1.746,-14.599,-2.893,1.634,1.838,1.955,-10.766,1.834,2.127,2.869,2.148,-7.638,1.507,5.998,1.595,5.44],[-30.728,-7.027,-0.581,-0.401,0.311,-36.153,-8.318,-2.039,-0.056,0.312,-34.697,-6.841,-2.644,-0.906,-0.587,-36.903,-5.072,-0.94,0.175,0.743,-42.422,-7.745,-1.26,1.022,0.392,-42.396,-3.598,3.708,2.461,1.405],[-64.437,-12.694,-4.273,-3.328,-0.755,-56.692,-12.877,-5.255,-2.701,-0.439,-59.418,-12.715,-5.73,-1.298,-1.626,-58.398,-14.281,-6.117,-3.093,-0.884,-56.815,-12.751,-5.867,0.248,-0.347,-60.356,-14.025,-7.887,-1.634,3.149],[-79.436,-19.583,-8.259,-6.148,-3.043,-73.48,-24.493,-8.956,-5.782,-3.076,-69.387,-20.936,-11.3,-5.224,-3.356,-73.407,-19.172,-10.416,-3.733,-2.868,-73.541,-22.647,-10.103,-5.887,-2.055,-71.688,-27.008,-8.32,-4.345,-2.513],[-85.245,-29.567,-13.18,-8.878,-4.566,-86.517,-31.238,-14.979,-7.614,-4.994,-85.463,-32.255,-13.081,-9.073,-5.038,-86.868,-32.93,-14.932,-9.203,-4.651,-83.997,-34.186,-14.47,-8.787,-3.537,-80.802,-34.604,-17.441,-10.401,-3.879]],
"ve": [[1.872,1.843,1.858,2.975,3.191,1.053,1.259,1.473,3.074,6.538,-0.526,1.995,1.986,3.866,4.626,4.933,2.54,2.023,3.545,4.052,4.567,2.462,2.617,5.498,4.225,9.618,5.366,4.927,10.339,19.596],[-3.477,-0.534,0.438,0.55,0.48,-4.351,-0.785,0.217,0.368,0.489,-4.02,0.151,0.245,0.687,0.778,-4.51,-0.045,1.056,0.812,0.93,-0.553,1.578,1.405,1.392,1.073,5.421,2.247,3.782,1.325,2.52],[-16.618,-2.483,-0.098,-0.372,0.223,-16.91,-2.699,-0.512,-0.16,0.157,-19.83,-2.68,-0.977,-0.551,-0.013,-19.484,-1.184,0.277,0.387,0.62,-21.285,-0.925,0.051,1.354,0.456,-17.779,2.23,4.03,2.309,0.995],[-40.085,-5.525,-1.587,-1.07,-0.325,-31.144,-5.279,-1.457,-0.714,0.018,-33.406,-4.591,-1.828,-0.484,-0.582,-30.96,-5.679,-1.784,-0.921,-0.087,-27.108,-3.783,-0.795,1.216,0.358,-22.642,-2.645,-1.624,0.587,2.996],[-53.395,-8.689,-2.905,-2.396,-1.052,-47.801,-10.835,-3.247,-2.223,-1.225,-42.89,-8.838,-4.267,-1.935,-0.998,-45.058,-7.79,-3.459,-0.715,-0.768,-39.369,-6.327,-2.647,-1.548,-0.181,-37.902,-9.202,0.166,0.275,0.083],[-61.843,-14.08,-5.669,-3.369,-1.708,-61.487,-14.9,-6.135,-2.707,-1.758,-162.466,-15.285,-5.387,-3.765,-1.904,-65.925,-14.294,-5.942,-3.2,-1.192,-54.755,-14.709,-4.307,-2.112,-0.122,-48.92,-14.175,-4.965,-2.326,0.056]],
"kep": [[-2.59,-3.079,-2.976,-3.435,-3.836,-4.464,-1.332,-1.909,-2.956,-7.457,-4.93,-5.225,-3.38,-4.136,-5.073,-1.746,-4.225,-1.57,-3.569,-2.606,-3.419,-3.504,1.648,-2.451,1.614,-4.413,-0.126,7.422,-0.08,-2.755],[-9.206,-5.865,-3.327,-4.061,-3.068,-9.524,-5.649,-4.427,-3.363,-3.232,-9.865,-4.778,-4.247,-2.8,-2.881,-16.224,-6.778,-3.369,-2.886,-2.847,-16.144,-4.079,-3.369,-2.528,-2.85,-20.356,-5.902,-2.46,-4.029,-1.353],[-24.924,-8.596,-4.387,-3.881,-3.742,-29.738,-9.647,-5.426,-3.746,-3.688,-25.626,-8.442,-5.539,-4.199,-4.385,-30.213,-8.042,-5.088,-4.068,-3.732,-36.25,-11.016,-5.219,-4.273,-3.958,-42.155,-10.563,-4.749,-4.013,-3.686],[-49.565,-11.846,-6.57,-6.073,-4.265,-44.513,-12.381,-7.702,-5.803,-4.284,-46.088,-12.569,-7.775,-4.682,-4.858,-47.729,-13.466,-8.188,-5.998,-4.646,-51.051,-13.656,-9.052,-4.85,-4.579,-60.751,-16.659,-10.718,-6.257,-3.959],[-65.737,-16.551,-9.418,-7.629,-5.797,-60.935,-19.496,-9.776,-7.42,-5.671,-56.824,-17.511,-11.202,-7.117,-6.152,-62.461,-16.919,-11.082,-6.834,-5.91,-65.953,-21.956,-11.562,-8.262,-5.708,-74.32,-23.592,-12.511,-8.594,-6.532],[-73.74,-23.023,-11.879,-9.441,-6.681,-75.228,-24.112,-13.366,-8.837,-7.053,-75.127,-25.079,-12.099,-9.247,-6.958,-76.48,-26.419,-13.534,-9.975,-7.261,-78.338,-27.722,-14.439,-10.65,-7.241,-80.453,-29.055,-17.086,-12.043,-7.857]],
"vp": [[-122.678,-114.858,-121.907,-123.388,-83.199,2.193,-24.259,-32.479,-40.471,9.482,10.438,1.528,-1.769,3.149,-4.471,-5.48,-0.061,-0.297,-1.165,-1.478,-0.255,3.277,-1.806,0.139,-2.434,-0.431,0.2,-2.516,1.006,1.757],[354.272,177.624,-137.387,-18.091,-34.036,91.752,36.592,-0.916,-9.411,4.27,41.96,1.083,5.659,-18.913,-19.285,12.776,3.867,-3.849,-0.395,-3.325,4.319,0.127,-0.075,-1.728,0.414,0.273,1.415,-2.683,2.754,-2.336],[1711.688,458.704,-57.765,60.813,-134.255,359.061,109.662,28.608,2.203,-9.961,208.056,59.406,26.569,19.312,13.622,43.435,7.259,-0.319,-1.405,-2.449,25.287,5.353,3.172,-1.856,2.189,12.961,0.864,-3.357,-1.413,1.772],[4158.301,1055.523,426.623,406.566,56.866,656.724,209.311,84.537,43.099,-10.633,350.592,88.865,52.103,9.673,27.591,68.547,26.823,13.373,9.374,3.369,32.482,10.724,5.765,-2.732,0.927,15.505,6.149,6.261,2.05,-5.296],[5577.736,1793.992,750.413,878.58,483.163,997.339,441.013,189.735,169.531,97.265,452.747,179.212,133.467,72.495,44.976,96.972,34.333,23.666,6.975,10.231,46.112,15.996,10.78,8.98,3.415,22.89,13.114,3.045,2.819,3.101],[6390.72,2880.023,1656.632,1232.782,645.065,1304.061,600.38,363.028,207.976,155.893,639.433,322.136,165.431,145.836,87.154,131.193,62.249,38.784,27.463,12.455,60.816,34.388,15.048,10.943,2.763,28.87,18.102,10.947,7.868,2.488]]
}