{
"KTrans": [[2.649,16.287,-2.566,-8.51,4.083,2.45,8.611,5.267,6.571,13.889,14.434,25.469,17.439,18.438,12.19,28.625,59.016,76.702,88.116,86.304,-48.28,48.464,75.855,120.142,131.258,-233.515,-214.005,-82.824,17.846,39.391],[-31.366,-12.752,-0.624,2.683,2.576,-29.724,-12.361,-0.752,4.242,3.022,-35.058,-7.771,2.643,8.342,8.163,-21.917,0.595,-1.014,23.221,33.882,-7.9,17.309,-34.372,1.504,46.628,-87.604,-24.434,-38.648,-55.742,34.07],[-48.121,-22.461,-9.515,-6.852,-0.726,-47.855,-19.248,-8.095,-3.741,-0.728,-45.45,-11.549,-4.623,-2.197,0.096,-30.044,-4.836,13.133,14.57,1.458,-34.267,1.01,-12.551,2.876,-12.126,-43.787,30.331,-44.59,-6.704,-25.309],[-60.638,-25.344,-10.031,-7.661,-6.159,-60.602,-20.002,-9.013,-5.986,-4.653,-54.869,-19.133,-8.215,-2.258,-3.325,-63.032,-0.853,12.491,15.846,9.563,-60.482,-7.284,17.996,16.875,7.844,-68.44,-57.707,-37.596,-0.595,22.712],[-69.11,-32.63,-12.737,-8.343,-7.138,-69.781,-27.864,-13.663,-6.09,-4.651,-66.263,-18.81,-8.971,-6.117,-0.683,-54.435,-2.965,13.078,14.303,16.521,-71.066,-5.776,33.975,34.314,31.909,-35.598,-43.222,0.363,25.36,17.509],[-73.387,-36.175,-15.751,-9.355,-6.872,-71.402,-32.975,-15.097,-6.193,-6.719,-71.819,-31.412,-13.948,-6.279,-2.467,-70.694,-16.882,9.477,14.743,15.967,-74.769,-29.734,13.08,35.135,25.475,-75.203,-28.474,-24.707,55.372,22.359]],
"ve": [[2.022,-67.283,-35.497,187.977,-54.084,10.284,-15.429,3.544,-128.526,59.459,154.834,-24.085,-74.128,-8.145,-64.579,44.892,-85.217,-1737.23,-147.217,-0.704,133.739,15.484,-2.354,-38.813,-29.82,195.977,37.051,29.253,3.19,-17.478],[-2.782,15.401,-12.652,0.178,153.336,-6.4,147.357,18.788,9.551,14.087,2.852,-9.483,6.356,-11.239,4.306,48.463,18.217,4.276,-1.843,19.577,95.718,46.09,28.693,27.823,4.807,194.254,98.208,-72.692,59.17,23.693],[-9.221,-4.035,-5.174,13.643,1.243,-6.592,-7.862,-1.629,-1.666,-3.897,-15.918,-1.065,-46.455,-15.829,49.108,35.529,19.704,48.047,-16.605,13.796,94.048,49.353,40.142,27.016,26.924,197.55,96.562,69.561,47.283,37.768],[32.998,-10.655,-3.449,-3.583,-1.426,0.331,-3.116,-1.336,-5.691,-0.272,-18.566,0.657,0.282,-2.275,-12.241,36.745,21.58,13.092,8.505,3.894,92.352,64.398,31.024,25.626,19.534,196.066,103.178,71.519,52.516,39.738],[-17.909,-113.608,-2.349,-2.35,-3.355,5.679,-1.245,-0.668,-0.761,-3.176,-0.42,1.432,1.619,2.316,-0.121,42.018,19.578,12.77,10.121,7.893,102.169,45.269,34.387,19.573,15.59,196.645,99.967,76.713,48.262,38.938],[10.427,-7.806,-0.925,-0.356,-1.93,3.075,-2.38,-0.634,-0.826,-0.986,-61.065,111.491,0.941,0.505,0.758,9.94,23.604,14.839,11.268,8.57,100.822,93.01,32.365,19.574,18.294,182.084,101.12,68.619,59.898,40.54]],
"kep": [[-126.129,-98.612,-21.326,20.957,-36.831,-129.568,-53.751,-36.424,-26.096,-45.249,-123.107,-84.989,-61.325,-46.301,-9.872,-159.141,-207.3,-205.3,-196.053,-197.125,-172.662,-291.043,-377.489,-354.531,-400.419,-150.807,-409.451,-571.833,-678.599,-765.253],[-69.646,-87.972,-140.509,-73.331,-31.214,-70.306,-85.758,-118.416,-49.623,-15.237,-78.58,-84.913,-137.664,-67.834,-25.874,-83.84,-86.722,-172.383,-170.434,-97.152,-78.365,-69.441,-200.586,-280.72,-195.016,-96.458,-79.034,-166.598,-305.203,-299.687],[-73.693,-52.801,-47.272,-85.56,-129.493,-75.797,-50.964,-45.828,-72.866,-132.633,-74.236,-43.7,-40.582,-77.067,-134.992,-75.226,-56.189,-34.86,-53.508,-162.784,-78.068,-61.115,-85.869,-87.948,-193.305,-82.45,-46.338,-95.38,-85.543,-140.31],[-80.59,-44.202,-28.849,-29.718,-48.147,-82.297,-38.992,-27.762,-29.472,-48.408,-78.25,-42.571,-28.004,-24.521,-43.118,-87.858,-38.095,-23.453,-15.08,-34.998,-89.667,-57.511,-39.666,-38.469,-59.491,-91.555,-88.937,-83.883,-67.735,-46.879],[-85.145,-48.977,-26.528,-22.414,-24.006,-86.508,-45.408,-27.394,-20.367,-25.287,-84.353,-38.307,-22.223,-20.81,-13.817,-80.807,-39.652,-18.167,-10.381,-4.542,-91.447,-50.333,-17.898,-7.977,-1.424,-80.511,-77.701,-56.681,-34.646,-46.155],[-87.042,-50.605,-26.298,-18.119,-18.46,-86.258,-48.941,-28.416,-16.78,-20.343,-86.56,-48.904,-27.887,-16.452,-13.275,-90.304,-49.61,-19.216,-8.868,-2.541,-91.877,-67.508,-30.748,-6.701,-12.954,-91.095,-70.036,-69.356,-11.582,-30.919]],
"vp": [[-412.294,461.877,166.503,193.818,61.747,-24.527,-23.987,-81.8,13.635,39.356,-71.583,11.536,-19.862,40.973,-13.31,-1.784,8.061,4.767,-4.885,-23.696,-5.707,-4.892,-4.532,-8.17,-6.56,-14.568,2.985,5.071,-5.79,9.374],[2068.778,383.621,161.404,-130.955,152.115,596.559,160.219,12.637,-108.127,4.907,267.441,110.168,-30.84,-60.288,-10.476,33.87,1.793,3.845,-14.922,-11.769,4.708,2.429,2.363,0.982,-19.758,-10.012,-9.141,-4.998,-3.378,-21.52],[4284.049,2839.3,1391.9,1465.078,-59.468,913.217,604.392,332.18,157.808,133.16,450.315,314.187,142.161,73.396,17.75,93.476,49.099,14.135,5.433,-6.938,12.19,27.225,3.375,-2.977,-16.528,1.776,-31.617,-18.37,-34.846,-17.804],[5781.901,4862.567,2939.186,1637.945,991.635,1047.934,848.443,551.32,392.578,386.888,539.569,425.447,224.158,179.622,89.963,97.678,79.809,22.379,1.094,19.316,44.778,36.279,31.756,5.033,-6.778,4.335,4.126,5.295,-19.156,-23.81],[6742.936,6649.853,4567.835,2343.503,1230.287,1324.637,1213.056,752.246,513.433,351.724,652.948,713.904,324.76,304.269,203.42,104.693,100.956,61.408,1.276,13.382,42.757,21.678,37.078,12.746,-20.148,-4.371,11.274,4.204,-11.869,-8.042],[6776.331,7965.11,4876.333,4688.486,1787.306,1439.882,1652.708,1193.439,704.627,418.103,692.129,905.152,606.708,327.176,227.345,142.374,164.268,123.871,68.528,41.438,37.09,94.406,28.386,41.059,14.586,0.885,22.432,21.463,1.237,-10.643]]
}