{
"KTrans": [[-0.281,-0.204,0.526,0.181,0.876,0.775,0.112,0.804,0.84,0.325,-6.146,-0.788,-0.32,0.903,-1.881,13.948,0.145,-3.408,3.621,1.417,42.243,22.401,11.729,10.551,13.761,-231.467,66.374,39.188,39.713,27.475],[10.741,1.445,1.801,0.497,0.826,7.747,2.337,0.516,0.238,0.984,2.962,1.013,0.838,0.092,-0.336,7.908,-9.056,5.248,2.179,-4.874,4.833,11.278,2.16,0.266,-5.07,-79.417,2.687,22.698,4.651,12.239],[-37.269,7.953,3.286,1.228,1.277,-40.831,4.136,2.242,2.125,0.945,-30.811,3.917,0.95,0.927,0.541,-23.147,0.652,2.321,-1.407,-1.494,-11.343,2.535,-0.188,4.756,0.5,-21.761,-18.554,33.104,6.147,4.455],[-73.469,14.297,5.515,4.321,2.088,-75.043,15.824,4.657,2.333,3,-71.935,6.135,5.221,2.874,1.356,-70.642,29.326,5.896,-1.43,-2.56,-47.356,39.512,2.546,-0.852,1.578,-86.504,69.438,20.488,2.187,-1.552],[-86.911,17.198,13.67,5.153,3.469,-78.571,11.639,11.489,5.231,2.71,-82.599,8.122,11.798,3.066,2.922,-83.219,-8.151,4.932,1.449,0.407,-64.657,15.039,13.052,-0.357,2.388,-106.029,-19.748,15.927,6.394,3.683],[-91.578,-11.666,26.076,9.112,5.862,-86.206,-14.24,22.219,11.147,5.5,-87.847,-14.435,24.21,10.047,4.285,-90.595,-2.871,16.681,-0.587,-4.42,-87.179,-12.28,47.583,0.202,-4.17,-86.06,-31.122,11.715,24.263,7.794]],
"ve": [[-0.981,0.123,-0.739,-0.253,-0.872,-1.486,-0.109,-0.327,-0.52,-0.332,-3.324,-1.314,0.927,0.884,3.723,-0.174,-46.487,17.132,-329.534,17.101,5.85,-35.574,30.334,-40.572,-60.997,-30.64,79.491,-31.369,-75.837,-40.956],[0.748,-0.725,-0.469,-0.595,-0.712,0.464,-0.198,-0.919,-0.783,-0.669,-2.062,-1.413,-0.754,-0.963,-0.914,-15.2,-7.152,1.381,0.489,-1.355,1.484,0.201,-4.551,3.546,4.977,-46.682,-5.218,18.612,-3.391,-28.833],[-31.919,1.72,-0.108,-0.646,-0.775,-36.185,-0.701,-0.715,-0.506,-0.745,-46.755,-0.545,-1.343,-0.921,-1.126,-23.262,-4.089,0.031,-2.111,-1.779,-32.738,-8.393,-3.561,1.25,-0.471,-75.63,-28.721,9.404,-3.925,-11.496],[-76.126,2.294,0.41,0.311,-0.661,-71.967,3.012,-0.123,-0.625,-0.217,-75.955,-1.402,-0.153,-0.564,-0.978,-95.085,-21.515,0.5,-2.42,-2.832,-48.55,-16.572,-1.392,-2.55,-0.609,-58.608,-33.545,-1.064,-7.992,-5.777],[-82.472,2.307,3.176,0.68,-0.02,-85.999,-1.749,2.468,0.218,-0.223,-70.856,-4.807,2.668,-0.627,-0.288,-96.487,-30.086,-1.125,-1.7,-1.67,-79.455,-9.762,-13.72,-2.523,-0.279,-160.432,-38.302,-5.339,-16.069,3.614],[-87.759,-47.449,6.327,1.673,0.752,-80.219,-48.372,4.861,2.335,0.581,-84.311,-50.377,5.544,1.741,-0.137,-102.982,-26.84,-21.032,-4.192,-4.834,-120.147,-38.203,-14.626,-6.662,-5.979,-109.82,-49.499,-36.382,-10.96,-2.144]],
"kep": [[0.557,-0.18,1.492,0.788,2.398,1.918,0.331,1.468,1.917,1.568,-4.007,0.536,-0.703,1.059,-3.342,-9.688,-9.258,-11.276,-1.003,-3.961,0.511,-6.671,-8.372,-8.787,3.904,85.864,11.057,-20.04,-5.234,-21.23],[7.788,2.078,2.254,1.099,1.56,4.762,2.432,1.405,1.018,1.669,1.367,2.208,1.498,1.02,0.564,-36.526,-9.646,1.753,0.578,-4.349,-7.081,-15.087,-8.179,-5.434,-9.504,-12.959,7.147,-9.145,-19.671,-6.718],[-38.765,5.833,3.347,1.884,2.062,-46.02,4.402,2.842,2.616,1.691,-64.461,3.767,2.116,1.799,1.649,-44.452,-8.36,0.196,-0.805,-0.73,-51.498,-27.317,-9.885,-1.937,-2.355,-56.125,-17.626,-8.442,-14.546,-9.912],[-91.206,9.704,4.948,3.962,2.748,-86.427,10.271,4.579,2.939,3.202,-90.026,5.524,5.027,3.336,2.302,-76.62,-46.847,1.886,-1.019,-0.867,-65.92,-39.308,-10.184,-4.72,-1.451,-60.839,-42.266,-18.516,-23.261,-15.707],[-96.579,8.292,9.657,4.333,3.455,-96.872,5.8,8.051,4.846,2.896,-89.338,-1.806,8.139,3.511,3.146,-78.627,-44.817,-1.194,0.735,0.809,-77.509,-32.55,-34.289,-6.876,-1.569,-72.721,-37.407,-26.192,-41.225,-10.968],[-95.54,-60.887,15.822,6.997,4.994,-95.845,-64.101,14.157,8.191,4.793,-93.883,-71.728,14.812,7.68,4.305,-88.209,-48.482,-37.298,0.698,-1.324,-82.698,-52.38,-42.783,-13.002,-5.593,-83.893,-45.889,-31.886,-28.586,-18.338]],
"vp": [[119.606,74.191,67.807,46.687,35.347,23.247,8.536,10.042,6.994,11.413,47.941,24.043,16.421,-4.618,21.577,-5.611,9.319,15.163,-0.659,1.102,-11.51,-7.004,-2.485,-0.773,-9.191,13.005,-7.219,1.132,-7.22,-0.936],[-104.195,85.833,6.765,97.822,68.637,-14.524,-8.478,38.621,40.257,12.992,21.455,14.68,14.113,27.341,33.924,27.425,35.16,-12.327,-4.743,30.935,-4.594,-3.1,6.375,7.542,21.978,20.579,5.371,-8.922,11.633,-3.371],[3185.207,-412.741,-97.247,159.163,157.906,699.341,20.879,13.906,12.6,36.062,471.457,2.777,34.44,24.789,37.95,44.094,13.905,-1.975,15.571,16.554,29.817,16.177,10.183,-4.738,4.784,38.09,29.114,-21.249,5.656,4.472],[7645.363,-547.187,-235.759,-291.943,103.181,1452.52,-123.818,-12.643,7.364,-26.057,761.637,23.828,-1.818,7.542,28.253,156.376,89.034,-6.467,18.269,29.039,45.404,31.38,2.299,10.328,1.873,27.033,32.675,-0.238,16.53,16.616],[8574.664,-444.157,-1035.235,-366.915,-132.566,1716.676,73.596,-174.486,-51.872,-13.262,780.003,97.488,-94.397,11.942,-1.829,188.264,108.596,3.744,11.862,13.564,76.166,16.996,38.185,11.506,-0.554,82.232,38.063,5.571,31.289,1.642],[9311.326,9419.829,-1895.811,-726.604,-538.67,1754.956,1936.91,-312.74,-220.548,-91.2,821.601,998.854,-173.756,-79.079,-12.631,205.698,106.603,125.901,35.323,48.163,120.963,73.239,44.034,26.46,30.919,53.547,50.014,56.887,16.682,2.809]]
}