{
"KTrans": [[-42.263,-74.088,-72.201,-65.065,-78.782,-26.422,-64.254,-68.261,-60.643,-58.664,-26.163,-51.175,-53.687,-46.134,-44.24,62.392,16.136,10.591,12.453,13.86,117.527,54.109,56.28,62.316,62.782,270.908,145.814,114.016,113.498,130.068],[-54.651,-42.139,-50.432,-59.405,-63.087,-56.362,-40.669,-31.987,-51.789,-48.807,-50.319,-24.915,-27.079,-40.403,-49.816,-18.538,1.403,22.242,-0.803,-16.241,-3.37,23.528,38.882,12.145,8.327,56.66,75.083,89.917,52.166,30.27],[-71.317,-45.997,-49.041,-49.309,-51.525,-70.609,-41.202,-43.745,-42.396,-37.045,-61.087,-42.702,-32.508,-31.025,-20.973,-54.929,-18.586,-5.404,2.133,11.308,-40.174,-9.078,6.513,14.612,30.384,-8.941,22.506,28.903,39.943,48.239],[-76.73,-43.751,-52.124,-47.879,-50.036,-75.436,-43.028,-42.362,-42.808,-41.48,-76.448,-42.35,-36.416,-37.329,-36.343,-69.862,-27.787,-12.026,-11.832,-6.031,-57.004,-24.535,-0.064,-1.217,2.069,-35.222,-18.919,14.498,9.748,18.21],[-82.563,-61.833,-41.042,-37.634,-41.321,-81.626,-51.566,-43.433,-45.447,-45.011,-80.178,-55.325,-34.623,-41.493,-34.477,-77.611,-42.329,-18.008,-17.162,-12.202,-67.155,-37.035,-7.907,-6.557,-1.224,-50.154,-29.121,-0.605,-2.689,6.493],[-87.265,-64.103,-51.724,-42.326,-45.063,-84.986,-61.718,-40.979,-43.111,-42.673,-85.738,-61.856,-41.393,-30.091,-40.87,-80.315,-54.798,-24.269,-18.536,-12.643,-73.685,-48.173,-23.8,-14.602,-5.498,-60.857,-39.975,-12.563,-5.629,2.737]],
"ve": [[-44.225,-76.597,-66.551,-86.347,-20.204,-26.583,-71.473,-37.241,-51.944,2.023,-18.503,-108.177,-59.804,-35.398,-29.597,68.601,21.404,-50.859,-7.334,-4456.295,116.959,17.648,-9971.479,-40.91,-406.511,265.376,62.422,116.542,61.597,72.971],[47.045,-43.032,-65.264,-38.526,-20.874,-69.312,-47.013,-39.611,-38.664,-34.306,36.734,-18.902,-46.121,-29.67,-23.109,41.521,5.321,24.218,-8.728,-11.163,71.935,55.321,38.883,26.027,1.018,222.096,110.819,82.73,35.26,-32.808],[-41.517,-73.048,-80.833,-61.189,-50.552,-35.667,-67.748,-76.415,-51.84,-37.391,-12.026,-67.866,-46.153,-26.112,-21.577,245.948,-25.678,-5.158,-15.313,10.88,87.765,13.557,2.628,14.625,6.214,204.624,47.222,46.71,39.675,45.423],[0.17,-45.359,-107.255,-79.585,15.361,-8.07,-56.391,-81.517,-74.882,-68.773,-759.448,-55.218,-60.478,-64.605,-54.265,18.356,-10.347,-19.147,-20.708,-12.155,93.023,-0.375,-6.11,-0.147,-2.702,250.382,31.669,12.311,10.039,14.902],[18.347,-103.127,-90.102,-74.949,-73.244,6.206,-46.23,-91.088,-91.876,-81.853,15.082,-63.429,-66.06,-85.988,-61.537,40.765,-14.077,-25.386,-37.638,-20.103,171.022,-4.29,-10.742,-12.239,-5.638,256.669,34.395,9.504,-3.936,6.574],[-42.066,-60.67,-122.548,-99.478,-91.417,4.158,-42.688,-87.872,-96.599,-87.75,26.598,-55.542,-85.416,-57.714,-81.42,82.653,-10.165,-27.491,-37.637,-20.061,115.697,-2.667,-20.296,-22.839,-10.533,199.193,53.871,-8.534,-2.076,-0.064]],
"kep": [[-128.938,-16.365,-10.021,6.253,18.781,-126.754,-20.806,9.558,-13.477,0.921,-133.233,-47.543,-8.211,-3.12,13.037,-131.304,-60.787,-23.223,-32.064,-26.143,-94.936,-54.946,-51.953,-53.928,-52.696,-91.598,-91.451,-46.854,-47.284,-56.862],[-77.027,-73.471,-111.628,-20.37,9.237,-67.308,-54.348,-130.058,-26.17,3.129,-74.121,-59.91,-121.356,-16.048,6.498,-62.321,-46.123,-143.46,-55.622,4.332,-65.453,-59.678,-110.791,-44.852,-34.077,-69.023,-48.76,-97.045,-104.951,-46.46],[-82.497,-32.671,-14.861,-47.098,-130.737,-82.145,-28.932,-9.333,-38.091,-131.091,-78.346,-22.768,-24.93,-48.49,-139.001,-83.825,-24.163,-10.965,-50.072,-133.741,-79.155,-31.944,-10.236,-34.969,-132.422,-79.811,-29.702,-36.551,-26.482,-93.129],[-91.144,-36.247,-11.902,-9.878,-13.814,-90.986,-31.01,-13.794,-2.607,-11.542,-92.219,-33.61,-17.178,-8.804,-4.435,-86.251,-33.845,-8.064,-11.291,-9.996,-85.981,-34.32,0.57,-1.383,-6.713,-89.513,-46.85,-0.469,-1.689,-6.851],[-95.993,-44.695,-12.597,-9.407,-4.807,-94.673,-44.903,-15.582,-10.627,-1.309,-92.451,-46.828,-14.994,-6.281,-4.481,-93.266,-42.698,-15.152,-3.023,-1.686,-91.41,-43.347,-12.138,-3.891,-5.355,-93.927,-51.065,-17.047,-9.846,-5.217],[-96.803,-53.612,-20.763,-7.679,-5.037,-94.755,-57.922,-17.814,-10.501,-5.2,-98.441,-53.009,-19.302,-10.305,-6.471,-97.211,-55.857,-17.587,-7.694,-6.334,-92.725,-57.396,-22.296,-10.176,-1.182,-90.861,-63.158,-19.659,-9.252,-2.283]],
"vp": [[268.984,-15.608,227.951,197.283,191.632,49.12,41.616,-10.876,17.176,32.033,-18.554,-28.048,-4.004,-3.346,26.05,-5.922,-3.923,-6.685,-8.331,-4.039,-6.063,-5.057,-5.548,-8.398,-5.856,-6.846,-3.965,-0.467,2.023,-0.963],[2366.264,1175.159,38.752,119.556,-67.639,388.882,105.477,60.831,3.067,53.415,229.027,108.477,-8.628,32.002,-0.057,25.83,-0.206,-4.186,-7.706,-4.86,15.963,0.007,-5.263,-10.283,2.151,3.906,-7.689,-6.409,-2.866,-6.115],[4143.125,1548.293,159.917,327.252,114.473,835.707,368.466,74.102,78.696,-1.954,386.261,122.457,81.955,27.555,7.335,86.538,21.168,11.533,4.912,-11.628,38.42,13.496,-3.134,-3.479,-11.228,11.968,-1.877,4.883,-6.258,-6.791],[5991.524,3588.247,1011.577,890.301,132.332,1071.104,555.885,230.1,57.523,110.443,570.274,264.561,155.921,48.606,24.391,103.324,42.893,7.222,21.693,2.528,39.329,29.553,1.925,4.831,0.686,24.558,20.248,-8.312,0.516,-7.9],[7045.066,3839.176,1979.912,1320.924,480.095,1261.541,972.227,362.042,125.184,51.996,639.548,402.765,190.016,77.338,15.294,117.333,91.572,21.821,1.845,20.527,52.92,37.462,-1.726,2.34,-3.981,30.35,26.767,4.491,0.75,-4.064],[7122.058,6530.918,2422.642,1430.434,1168.137,1364.459,1325.852,502.318,236.345,115.739,733.276,621.802,261.395,186.44,68.984,143.127,125.619,52.282,20.349,17.64,59.051,52.575,26.399,11.856,10.889,18.999,29.589,5.964,11.814,-2.353]]
}