{
"KTrans": [[5.227,2.84,6.489,6.483,9.48,9.369,10.096,5.876,7.8,5.519,4.846,5.535,9.059,5.705,5.696,13.504,9.409,10.455,13.419,10.212,21.014,27.837,15.904,21.859,19.153,77.576,52.017,28.491,31.247,39.173],[-24.629,-6.813,2.182,0.432,2.491,-25.116,-0.888,1.319,3.343,3.633,-30.157,-0.721,-0.711,2.417,3.434,-28.129,-4.236,6.215,7.167,7.469,-21.656,2.814,6.632,7.429,7.976,-10.831,13.615,18.974,10.724,17.546],[-62.146,-13.328,-7.508,-3.243,-0.048,-61.702,-18.909,-5.258,-1.47,-0.031,-60.064,-17.503,-6.661,-0.265,1.497,-55.833,-17.585,-5.456,-2.08,2.385,-53.811,-15.695,-5.354,2.132,3.325,-54.524,-10.652,-4.803,8.769,4.955],[-79.157,-32.538,-13.154,-9.719,-3.498,-79.892,-32.454,-13.989,-7.175,-3.828,-79.447,-35.916,-14.438,-8.003,-4.617,-74.208,-31.855,-17.475,-6.728,-2.76,-72.792,-29.868,-17.537,-2.563,-0.515,-61.977,-26.562,-12.248,-2.87,3.025],[-87.122,-46.764,-25.108,-13.173,-10.138,-87.563,-40.372,-23.992,-15.21,-9.132,-88.058,-46.618,-24.655,-16.633,-10.126,-84.021,-49.437,-26.535,-14.56,-8.626,-84.328,-47.866,-21.874,-15.768,-7.162,-78.382,-45.958,-24.748,-10.449,-5.208],[-92.686,-56.686,-33.995,-21.222,-13.021,-92.775,-55.26,-35.673,-19.883,-14.55,-93.722,-56.616,-30.5,-23.427,-15.843,-88.96,-55.739,-37.04,-21.008,-12.755,-87.215,-63.544,-37.259,-24.914,-15.001,-77.846,-58.284,-39.481,-18.29,-11.146]],
"ve": [[1.898,8.816,11.443,14.029,30.987,3.257,4.602,11.422,19.957,-80.989,6.557,5.779,9.555,23.585,-51.746,9.431,8.29,58.643,14.355,26.466,17.122,15.991,19.852,34.229,36.717,45.824,30.087,38.927,22.689,-17.556],[-9.622,-2.962,0.995,0.715,2.412,-9.985,0.094,0.623,1.564,2.876,-12.29,0.44,0.141,1.569,2.474,-7.472,0.279,2.8,3.578,3.439,6.066,6.459,4.468,4.372,4.545,21.567,14.607,12.653,7.833,8.421],[-32.592,-5.06,-2.855,-0.676,0.195,-29.749,-7.183,-2.687,0.231,-0.13,-27.671,-5.232,-2.449,0.416,0.408,-21.808,-5.099,-0.262,0.565,1.589,-9.343,-1.681,1.149,3.462,2.572,-23.208,7.083,4.197,7.713,4.321],[-46.357,-12.466,-4.656,-3.14,-1.207,-46.857,-13.09,-4.959,-2.54,-1.677,-47.855,-14.812,-4.833,-2.453,-1.157,-38.132,-9.882,-5.183,-1.492,0.268,-31.855,-4.192,-2.22,2.194,2.044,-10.874,3.496,5.085,4.474,5.412],[-47.695,-21.899,-9.69,-5.163,-3.111,-50.914,-17.845,-9.82,-6.115,-3.484,-53.159,-20.488,-9.2,-5.548,-3.597,-44.866,-20.01,-7.801,-3.386,-2.279,25.4,-15.647,-4.246,-3.978,-0.158,-23.121,-6.301,0.483,1.389,1.874],[-59.465,-26.873,-13.253,-7.854,-4.563,-67.637,-25.966,-15.048,-7.403,-4.825,-62.607,-26.911,-11.962,-8.573,-5.373,-51.943,-23.481,-14.522,-6.847,-3.777,-38.195,-25.778,-13.135,-6.776,-2.92,-5.632,-10.814,-10.121,-1.89,0.324]],
"kep": [[-10.305,-14.936,-12.424,-14.279,-10.595,-7.463,-6.553,-13.612,-12.12,-20.162,-13.965,-11.4,-8.803,-16.518,-18.027,-10.947,-10.319,-9.427,-6.971,-14.626,-13.985,-1.177,-9.388,-0.702,1.092,-6.908,4.297,-6.915,3.083,15.987],[-32.139,-16.686,-11.921,-12.978,-12.607,-31.242,-14.134,-12.208,-11.263,-12.085,-34.426,-14.57,-13.644,-12.021,-11.843,-37.181,-17.496,-10.126,-9.835,-9.356,-41.4,-17.629,-11.489,-10.517,-10.101,-48.054,-17.441,-10.163,-11.736,-5.928],[-57.447,-21.5,-17.24,-15.125,-13.054,-57.413,-24.995,-15.571,-14.38,-12.758,-56.926,-24.85,-16.852,-13.515,-11.908,-56.365,-26.046,-17.807,-15.25,-12.224,-61.398,-27.097,-19.117,-14.383,-12.433,-72.301,-31.462,-22.859,-13.049,-13.114],[-73.393,-34.252,-21.019,-18.925,-14.936,-73.521,-33.997,-21.525,-17.174,-14.84,-73.034,-36.165,-22.095,-17.92,-15.968,-72.909,-35.897,-24.699,-17.654,-15.626,-76.447,-38.031,-27.52,-17.34,-15.309,-80.589,-41.142,-28.64,-20.339,-15.563],[-82.531,-42.799,-28.511,-20.424,-19.263,-82.322,-39.087,-27.512,-21.597,-18.068,-82.299,-42.908,-28.325,-23.33,-18.835,-81.01,-47.776,-31.172,-23.23,-18.669,-84.659,-48.372,-30.012,-23.983,-19.306,-84.861,-53.004,-36.124,-24.019,-19.744],[-88.181,-50.888,-34.684,-25.869,-20.789,-89.969,-49.651,-35.103,-24.949,-21.903,-89.571,-51.431,-32.252,-27.316,-22.688,-86.921,-51.816,-36.681,-26.514,-21.206,-86.232,-60.824,-38.262,-30.305,-24.05,-88.121,-62.414,-43.301,-28.602,-23.701]],
"vp": [[13.253,37.332,-127.772,-109.758,-470.419,-31.54,-63.809,-9.11,-50.846,-33.877,-15.594,-3.382,-35.749,-11.91,-3.743,-1.338,0.455,-1.386,-10.018,-2.448,2.803,-8.226,0.308,-5.538,-1.441,-10.974,-7.795,1.82,-0.66,-5.678],[1136.202,602.759,-395.849,122.995,59.271,239.627,3.849,-64.118,-42.668,-43.59,163.158,1.183,26.771,-17.287,-19.158,28.637,13.968,-6.648,-11.76,-9.151,7.954,-1.361,-0.282,-1.882,-1.735,1.315,-2.774,-8.273,2.617,-7.02],[3684.309,955.956,725.624,270.196,65.73,702.944,293.159,122.822,-14.489,22.548,353.141,111.312,76.942,-19.926,-15.985,62.946,31.826,9.108,6.435,-4.685,27.758,17.306,9.018,-3.052,-1.625,15.472,4.127,6.784,-4.911,3.285],[5570.529,2745.425,1210.487,1181.308,453.904,1137.258,561.835,253.364,178.227,116.677,536.603,332.704,149.163,92.517,56.421,97.671,53.444,43.869,17.128,7.062,51.904,18.439,19.419,-0.823,-1.353,21.638,7.731,3.044,1.757,-3.115],[6128.707,4756.292,2872.17,1656.358,1367.733,1334.266,775.844,586.898,461.497,276.928,674.712,461.723,292.098,216.448,161.928,126.27,101.803,60.054,35.282,30.933,64.352,46.562,22.363,28.645,10.691,24.637,18.704,10.547,7.667,5.649],[7256.352,5862.172,4234.674,2992.23,1948.697,1517.095,1175.294,946.648,552.256,453.963,776.352,603.448,381.934,349.916,261.186,139.158,115.372,103.621,64.472,44.023,58.007,74.206,54.135,41.248,24.266,14.083,28.078,29.583,14.883,9.973]]
}