{
"KTrans": [[-40.862,-16.974,1.667,-1.377,4.203,-49.563,5.329,1.633,37.906,16.429,-49.68,31.352,6.673,14.249,9.705,-58.429,5.234,10.508,6.879,6.432,-58.082,27.134,-1.914,-4.204,-1.785,-32.187,1.405,4.001,22.643,-3.437],[-92.695,-55.463,-20.758,-14.122,-8.492,-90.96,-60.939,-11.258,-11.193,-2.693,-88.073,-60.321,-32.671,-5.737,6.27,-93.102,-58.567,-32.06,-15.287,-11.957,-91.707,-50.112,-37.668,-14.797,-7.6,-91.445,-52.956,-18.409,-8.303,-11.26],[-94.971,-86.23,-62.802,-42.41,-16.4,-96.933,-82.153,-58.984,-31.517,-20.856,-99.682,-82.869,-53.7,-31.66,-28.411,-96.428,-86.912,-51.274,-36.289,-25.966,-98.888,-83.153,-54.89,-29.062,-27.48,-98.956,-84.745,-59.492,-37.777,-24.038],[-100.061,-94.26,-81.554,-56.656,-34.481,-99.296,-91.273,-73.28,-56.435,-41.69,-99.786,-96.208,-77.507,-55.811,-32.808,-101.595,-95.691,-83.617,-51.093,-42.69,-99.719,-93.821,-74.433,-61.679,-41.262,-100.565,-95.748,-78.986,-55.59,-42.516],[-99.94,-96.1,-87.391,-73.159,-58.921,-99.963,-93.314,-85.256,-80.759,-55.083,-102.629,-95.017,-88.837,-74.761,-49.402,-101.484,-94.868,-87.595,-75.812,-55.471,-101.588,-96.369,-93.006,-71.641,-57.396,-101.51,-95.471,-85.064,-77.496,-57.338],[-99.644,-97.168,-91.488,-83.944,-66.005,-102.066,-97.664,-90.638,-76.278,-73.225,-101.199,-97.125,-92.865,-81.327,-63.465,-101.199,-92.128,-93.004,-84.435,-71.164,-101.362,-94.346,-89.863,-77.48,-74.371,-101.239,-97.927,-90.344,-82.553,-71.415]],
"ve": [[-15.989,-84.114,-111.43,-55.53,311.142,-44.888,605.066,5194.573,-4.274,166.104,33.028,55.658,-9.984,-14.954,-25.237,-91.304,-8.09,-16.485,-85.675,19.592,6.942,-43.492,-80.345,150.533,-349.256,7.262,-18.073,-31.838,5.91,693.118],[-49.92,-24.169,-14.62,-2.799,-0.237,-12.203,-40.213,32.609,-1.731,0.071,-75.653,-37.62,-15.843,-25.976,-4.433,-447.775,-82.062,-15.066,-6.729,13.801,-70.817,-47.501,-20.192,-5.469,5.633,-72.161,-60.361,-2.334,74.133,2.866],[-78.046,-80.02,-67.989,-25.248,-20.386,-82.165,-46.247,255.301,-23.375,-10.17,-96.354,-80.62,-40.982,-33.838,-17.282,-115.246,-69.468,-38.746,-49.812,-18.039,-95.216,-64.909,-35.852,-19.689,-21.602,3.691,-58.244,-17.763,-23.894,-14.011],[-109.321,-86.516,-75.305,-43.694,-28.459,580.461,-86.792,-45.897,-50.107,-53.22,-192.895,-100.878,-50.268,-33.457,-27.918,-104.476,-81.181,-71.581,-41.865,-33.24,-91.97,-80.214,-57.012,-88.984,-22.546,-74.9,-73.28,-67.832,-38.149,-34.733],[-96.781,-255.476,-60.703,-66.433,-93.601,-89.585,-51.845,-36.301,-221.926,-42.574,-121.37,-85.234,-75.261,-56.963,-39.977,-99.428,-78.228,-97.42,-52.126,-39.979,-162.554,-95.642,-91.379,-58.902,-45.347,232.929,-533.708,-56.066,-63.589,-39.735],[52.148,-91.38,-64.455,-61.652,-48.103,-90.657,-98.016,-89.17,-68.09,-43.829,-358.481,-84.193,-81.64,-74.073,-61.942,-94.109,-164.034,-89.02,-75.501,-55.55,-82.735,-91.911,-71.201,-161.9,-76.972,-99.522,-175.697,-77.404,-76.891,-43.209]],
"kep": [[-65.157,-48.255,-16.088,-12.174,-8.378,-79.325,-16.044,-27.166,15.239,5.829,-73.898,-4.637,-15.356,-12.736,-9.658,-82.989,-35.938,-4.271,-6.979,-8.017,-82.771,2.791,-29.307,-33.276,-38.246,-72.371,-25.882,-21.489,13.762,-37.413],[-91.989,-55.772,-17.313,-7.452,-2.204,-92.883,-62.204,-1.632,-8.088,3.562,-91.917,-63.153,-22.861,-1.223,7.936,-95.155,-61.209,-27.157,-6.081,-12.043,-96.875,-49.446,-28.096,-10.083,-4.251,-92.049,-53.936,-20.211,-4.065,-8.174],[-96.898,-89.353,-57.26,-28.553,-5.881,-96.056,-84.37,-47.245,-16.356,-8.966,-98.404,-82.842,-43.296,-17.321,-14.752,-98.158,-83.994,-49.298,-18.959,-12.287,-95.636,-88.146,-45.383,-17.735,-15.061,-98.003,-86.533,-51.798,-27.726,-10.956],[-98.709,-93.895,-78.106,-40.501,-12.361,-98.134,-92.253,-76.643,-40.373,-22.102,-97.2,-95.384,-71.878,-36.223,-17.764,-97.709,-92.732,-79.682,-35.033,-20.05,-97.309,-93.325,-72.497,-45.782,-24.761,-97.324,-95.626,-79.913,-40.21,-23.635],[-97.72,-91.636,-88.227,-67.554,-37.62,-97.446,-93.144,-86.952,-78.441,-38.762,-97.33,-90.298,-92.523,-68.706,-34.801,-99.791,-95.442,-89.147,-64.844,-31.5,-99.435,-90.465,-89.939,-64.157,-41.592,-99.601,-91.875,-84.802,-69.556,-44.09],[-99.043,-93.29,-87.032,-81.009,-55.038,-100.236,-93.082,-90.001,-74.401,-62.385,-98.587,-92.551,-90.833,-90.121,-60.848,-98.094,-90.242,-92.567,-80.117,-60.443,-98.423,-92.923,-88.752,-71.434,-62.708,-98.653,-94.552,-92.039,-84.343,-59.646]],
"vp": [[2543.849,3457.147,2590.935,3140.15,2246.518,824.449,361.244,592.745,127.195,321.941,365.926,212.513,282.793,193.35,159.208,81.955,60.187,45.561,53.34,46.571,39.466,20.998,24.312,22.788,22.142,18.21,10.793,13.35,3.198,9.099],[7530.776,8978.388,7848.164,8221.237,7581.37,1492.71,1930.839,1481.834,1318.587,1368.784,756.832,941.653,704.586,699.856,471.938,160.363,175.45,159.221,156.054,125.169,85.487,86.563,97.493,66.862,65.548,34.918,44.426,39.068,28.474,37.089],[9445.933,15665.628,14890.163,13955.718,10860.482,1774.7,2579.391,3148.968,2250.347,2217.529,998.03,1315.114,1561.782,1261.754,1180.968,196.079,300.887,276.17,282.479,288.562,89.597,140.619,133.252,116.269,125.851,44.197,68.06,73.318,64.076,60.435],[11105.312,16625.451,22914.056,21601.654,16809.603,1871.477,3327.874,3432.977,3972.514,3774.52,1066.589,1869.525,1987.49,1766.812,1565.415,207.559,348.364,410.627,385.497,407.612,108.219,167.664,178.756,205.824,178.646,50.17,88.856,102.692,89.395,88.228],[11154.976,19702.102,21976.047,26001.71,27599.541,2156.613,3414.424,4332.05,5998.199,4866.973,1130.054,1814.106,2273.398,2577.974,2363.628,229.231,367.066,447.259,487.449,478.755,107.286,178.429,255.019,265.626,251.064,53.227,92.366,111.322,136.224,110.632],[9853.986,18459.994,25119.267,29068.573,31233.922,2156.173,3828.218,4839.635,4513.692,5888.985,1284.367,1937.832,2581.981,3084.217,3003.309,215.098,329.698,547.893,597.318,615.819,100.016,184.978,210.397,253.531,288.273,53.808,98.109,131.211,155.222,169.142]]
}