{
"KTrans": [[-11.707,2.639,7.733,5.781,4.602,-8.308,8.425,10.831,14.47,13.531,-5.411,17.541,17.211,13.522,7.005,63.183,89.56,76.337,69.317,53.842,14.338,165.324,151.28,157.151,130.712,99.334,43.402,241.365,232.322,234.267],[-65.475,-4.299,4.191,4.733,2.431,-59.659,10.281,3.495,5.333,6.805,-58.153,5.067,18.185,10.311,5.479,-33.201,65.902,59.463,36.278,33.263,-25.629,85.747,101.559,75.171,71.893,-37.076,77.555,149.501,155.005,144.699],[-78.747,-14.24,1.702,5.52,3.217,-78.884,-5.354,7.259,3.906,0.754,-82.611,1.351,9.575,7.574,7.517,-66.833,18.908,37.094,35.029,31.44,-72.927,45.574,86.069,90.105,58.715,-25.343,-43.583,103.121,132.106,136.65],[-91.1,-26.76,-1.649,1.482,1.833,-85.931,-28.829,2.704,4.384,3.769,-85.925,-19.816,7.201,6.035,9.901,-84.081,5.779,41.135,34.817,30.218,-65.677,-17.169,72.21,77.471,66.6,-42.66,6.281,60.987,101.542,121.835],[-92.471,-44.246,-6.951,0.296,2.222,-90.51,-42.391,-1.589,7.025,6.107,-90.036,-32.649,2.411,10.481,8.332,-90.889,-27.085,23.158,35.382,26.251,-80.856,-20.814,35.503,75.271,60.261,-59.896,-22.814,-29.152,43.849,122.546],[-95.388,-50.911,-13.937,4.428,1.839,-91.91,-51.757,-10.173,0.967,5.573,-95.257,-43.694,-5.12,8.705,7.1,-93.509,-48.32,7.922,37.607,19.155,-79.564,-50.106,15.149,47.678,64.647,-72.97,-35.47,2.985,20.577,87.412]],
"ve": [[20.176,-49.178,-62.334,-77.839,99.443,22.158,22.603,-7.025,-78.139,-99.176,-27.332,26.299,40.181,24.274,1.248,71.802,24.778,4.451,23.119,3.794,66.772,32.107,14.699,-18.904,-11.494,115.898,78.474,42.176,19.362,-2.741],[7.655,2.626,3.828,1.62,1.95,16.568,6.428,3.526,2.225,2.328,35.236,7.346,3.188,3.697,0.88,45.967,26.659,15.736,11.145,7.278,104.683,47.718,23.364,21.76,14.698,203.252,169.945,60.747,47.083,33.588],[14.577,7.726,2.382,1.232,-0.39,20.072,7.705,3.29,2.209,1.505,-6.674,10.559,6.179,4.059,3.693,77.186,24.168,16.578,11.29,7.44,36.434,52.275,33.068,23.392,18.031,204.921,101.862,65.885,27.437,36.74],[17.734,3.457,1.662,1.577,0.52,-4577.91,4.425,3.963,2.425,1.966,22.16,10.16,4.691,3.719,2.234,49.528,27.426,18.071,12.036,9.31,133.973,50.138,34.231,25.059,19.822,199.676,100.062,72.172,40.662,40.843],[13.529,3.608,2.336,1.789,-0.239,22.544,-1.128,3.14,2.652,1.117,18.105,165.108,4.942,3.561,1.387,60.541,25.745,19.149,13.448,9.974,111.393,51.604,34.58,25.998,19.806,198.171,100.036,67.535,68.625,41.534],[22.687,3.628,16.786,1.239,0.416,-3.847,4.578,4.063,1.089,1.368,7.096,11.617,4.161,2.178,2.518,77.254,20.936,18.886,13.922,10,90.617,45.71,37.669,22.987,19.466,203.315,334.851,68.398,50.168,40.14]],
"kep": [[-27.268,-7.487,11.542,11.075,0.846,-26.059,0.809,12.736,20.527,25.436,-28.901,10.717,15.46,15.243,8.382,-0.645,63.871,74.387,89.11,78.166,-34.536,89.931,120.039,170.65,178.769,-18.682,-11.038,141.014,193.311,229.793],[-72.301,-4.736,1.939,5.184,2.658,-67.886,4.125,1.29,4.386,6.188,-69.036,-0.772,16.131,8.142,5.652,-60.497,31.891,39.519,24.755,25.215,-61.522,23.988,54.736,44.478,51.085,-68.177,-5.439,57.222,78.487,85.02],[-84.67,-17.79,0.244,4.716,4.284,-84.816,-9.29,4.523,2.466,-0.247,-88.019,-7.02,4.219,3.81,4.295,-80.653,-8.328,17.803,21.672,22.896,-86.029,-5.109,38.524,53.028,34.606,-71.632,-62.989,24.544,55.458,72.317],[-94.284,-29.17,-2.514,0.174,1.568,-90.894,-32.45,-0.723,2.511,2.168,-90.519,-28.388,3.107,2.783,7.86,-91.245,-15.903,19.445,20.335,19.308,-83.419,-44.586,27.457,40.982,38.701,-76.792,-42.605,-2.017,33.088,56.482],[-95.681,-46.954,-8.678,-1.141,2.604,-93.986,-44.681,-4.031,4.389,5.195,-93.285,-37.29,-2.241,7.02,7.16,-95.008,-44.182,3.303,19.357,14.977,-89.956,-47.938,-0.248,38.603,33.307,-84.665,-57.759,-52.552,-2.67,55.497],[-97.486,-54.825,-16.408,3.394,1.561,-93.841,-54.684,-11.047,0.033,4.234,-97.489,-50.091,-10.066,6.547,4.572,-97.035,-61.101,-9.392,20.561,8.535,-89.585,-65.699,-15.652,17.071,37.251,-88.644,-64.332,-35.124,-16.685,32.127]],
"vp": [[1531.507,339.052,-245.158,271.01,-32.948,288.247,47.347,4.603,-5.198,184.534,141.161,2.957,27.348,21.107,-8.709,13.463,-18.069,-5.803,-3.276,-18.987,-3.617,-4.34,-4.991,-3.636,-24.655,-6.222,-10.783,-9.96,-24.614,-5.936],[4976.132,2533.464,836.969,-53.979,113.975,1113.6,489.97,19.374,83.75,170.939,597.296,199.017,27.861,70.755,31.148,105.914,82.119,44.131,0.728,0.362,40.498,8.231,0.341,0.19,12.685,13.229,-9.581,-12.046,-8.226,-10.762],[7671.606,6700.213,2701.626,1731.125,1241.127,1548.785,1261.972,426.617,18.87,110.595,722.679,654.675,223.883,-15.413,113.157,134.363,116.264,40.972,2.583,3.752,71.939,67.659,34.556,22.201,-8.787,31.8,22.528,-6.668,-10.193,1.78],[8452.925,9038.365,3923.105,1430.114,425.201,1720.638,1878.879,1049.239,305.264,-116.037,842.773,859.374,474.619,233.843,121.371,169.577,165.528,104.209,38.45,30.76,71.089,94.428,60.868,41.587,41.759,30.747,11.41,1.695,8.429,4.437],[9368.146,12135.67,8329.431,3974.973,2716.536,1797.528,2467.619,1798.667,777.015,266.897,922.679,1362.209,824.306,464.715,238.315,165.306,267.971,177.853,83.991,46.123,95.816,112.495,64.248,66.175,37.386,33.49,29.29,31.679,18.284,21.739],[8970.152,14228.632,12954.106,6391.705,4260.692,1738.425,2826.202,2482.689,1314.103,557.056,933.748,1420.185,1269.183,716.616,184.149,162.468,297.029,245.568,175.429,47.516,79.665,126.355,122.313,68.187,48.576,51.237,50.217,25.607,27.412,25.716]]
}