{
"KTrans": [[-73.83,-75.896,-92.238,-87.707,-81.31,-48.669,-64.104,-71.755,-79.233,-72.064,-44.303,-66.205,-75.559,-92.253,-62.017,13.078,-23.568,-12.086,-16.563,-27.214,86.016,84.39,51.338,31.652,13.149,58.453,137.373,171.97,185.632,241.758],[-55.684,-48.19,-62.326,-61.095,-58.282,-60.079,-50.612,-53.18,-62.366,-63.976,-59.392,-42.729,-50.613,-51.138,-61.867,-39.533,-8.925,-4.241,-26.256,-33.752,-1.714,7.912,24.757,-0.995,-10.229,39.417,38.282,52.345,39.528,57.605],[-73.322,-56.382,-47.58,-43.45,-55.879,-70.125,-49.548,-50.208,-40.179,-52.272,-69.781,-46.694,-46.225,-34.467,-40.653,-55.484,-29.357,-21.595,-18.858,-19.442,-32.164,-6.373,-6.895,-14.179,-4.374,-21.49,6.02,29.412,18.049,8.517],[-78.813,-62.671,-44.072,-42.721,-45.781,-78.125,-58.097,-47.113,-39.678,-40.464,-80.12,-56.703,-45.309,-47.109,-43.674,-67.797,-46.098,-30.687,-29.156,-21.111,-58.797,-31.739,-18.001,-17.999,-15.636,-33.72,-1.019,5.654,21.824,9.004],[-84.87,-68.45,-50.655,-50.163,-43.972,-84.992,-64.19,-52.941,-42.086,-46.639,-83.132,-66.101,-50.523,-41.362,-31.789,-73.92,-56.453,-37.84,-36.55,-35.355,-73.669,-39.452,-32.423,-26.175,-13.436,-64.189,-28.82,-1.859,6.728,-1.611],[-86.274,-69.698,-62.566,-41.903,-49.401,-87.524,-69.952,-54.641,-46.588,-45.772,-84.244,-68.241,-55.411,-43.63,-37.465,-79.144,-64.093,-50.558,-43.902,-31.303,-72.906,-52.694,-39.868,-26.961,-26.531,-63.388,-41.744,-16.484,-2.305,-4.326]],
"ve": [[-30.519,-51.682,-64.788,-84.178,-189.856,-104.038,-57.175,-19.934,33.696,-80.009,-55.062,-44.394,-26.332,-42.962,-38.609,-81.292,2.675,-75.753,-52.036,-49.381,102.604,-2.956,2.687,-107.88,30.438,272.351,60.424,19.298,-9.856,-11.21],[-25.293,-55.982,-51.242,-243.063,-39.037,-62.271,-49.724,-51.777,-51.323,-3.062,-12.491,-46.888,-43.68,-43.24,-14.552,-8.783,-587.13,25.701,-17.46,-29.337,127.259,16.179,26.085,-26.406,-13.42,215.087,25.348,99.173,38.484,23.274],[-25.481,-71.864,365.506,1.343,-55.803,-21.244,-44.955,36.296,-38.192,-53.902,-12.662,-37.99,-68.583,-37.689,-33.639,47.05,8.67,-13.515,-18.908,-14.827,133.447,43.454,8.23,-4.853,-12.125,214.625,76.078,55.863,25.273,32.951],[-36.357,-66.688,-41.667,-49.064,-49.977,3.665,-18.372,27.251,-40.019,-44.218,-7.748,-110.524,-46.491,-72.862,-55.116,120.943,-12.585,-35.828,-36.369,-36.982,86.378,61.903,-6.831,119.562,-9.881,225.374,226.504,57.761,57.483,25.558],[-42.134,10.773,-49.388,-82.636,-68.213,-6.333,-22.024,-56.28,-66.735,-77.902,-45.891,-61.007,-41.534,-73.317,-46.859,80.8,-15.771,-44.109,-24.115,-52.826,118.197,67.718,9.864,-38.895,-17.584,170.51,108.653,97.013,24.034,2.814],[18.25,-25.547,-68.137,-43.555,-44.57,-14.537,-22.412,-70.442,-52.09,-67.102,19.813,-36.218,-61.597,-227.683,-56.949,-19.389,38.376,-31.012,-107.871,-35.294,127.856,57.419,-4.842,-5.977,-33.548,257.427,144.651,119.166,57.328,0.856]],
"kep": [[-106.142,-101.96,-15.012,17.488,1.121,-108.896,-81.75,-93.408,-31.904,7.481,-120.573,-111.153,-96.212,-49.548,-8.568,-99.373,-103.773,-103.553,-40.83,-40.386,-134.724,-149.246,-169.146,-113.781,-127.216,-122.133,-175.947,-226.949,-267.076,-324.763],[-104.587,-100.899,-79.901,-74.292,-13.894,-92.32,-86.113,-116.404,-87.071,-36.238,-96.267,-90.923,-107.191,-85.667,-30.085,-92.823,-98.247,-121.615,-87.034,-69.195,-98.775,-72.146,-133.104,-135.37,-78.505,-79.4,-66.559,-135.686,-151.701,-160.497],[-100.554,-67.782,-70.117,-98.148,-116.994,-97.505,-71.259,-68.951,-100.927,-142.795,-95.329,-77.181,-60.544,-108.291,-126.932,-97.547,-78.461,-66.025,-101.278,-126.515,-91.976,-70.936,-63.928,-87.376,-128.024,-90.898,-65.245,-53.462,-76.14,-125.574],[-100.407,-77.374,-63.245,-54.393,-65.958,-99.354,-78.28,-54.126,-48.325,-66.435,-100.791,-80.911,-59.259,-43.618,-53.477,-99.904,-80.679,-48.7,-51.335,-65.916,-91.401,-86.061,-53.025,-61.367,-68.842,-91.826,-84.594,-55.486,-60.396,-53.319],[-100.947,-83.515,-57.234,-26.43,-36.985,-98.285,-82.952,-56.16,-40.441,-22.343,-101.6,-83.576,-54.514,-34.11,-31.482,-98.733,-80.497,-55.658,-47.424,-36.86,-98.261,-82.632,-65.75,-40.116,-34.757,-91.279,-77.659,-67.17,-46.704,-45.105],[-100.466,-82.001,-63.787,-41.488,-27.622,-99.62,-83.576,-53.745,-45.476,-29.697,-100.173,-80.397,-57.029,-38.278,-28.052,-99.262,-86.683,-59.561,-37.03,-43.516,-98.783,-86.179,-58.157,-57.243,-40.328,-93.358,-84.036,-68.722,-68.054,-41.564]],
"vp": [[-287.361,-673.386,135.378,547.214,591.118,-64.026,-37.622,7.324,166.303,66.688,-27.635,-13.392,-18.004,-10.962,80.895,-17.841,19.222,-2.538,7.489,-7.834,-26.509,-14.658,17.214,1.019,-22.021,-30.33,-11.243,-16.257,-11.388,-16.237],[3484.617,1080.095,53.795,-626.392,980.139,449.185,131.12,-105.623,-161.7,30.322,212.038,91.588,10.608,-90.582,-3.036,28.707,3.849,10.568,-37.22,4.824,-7.502,-0.391,-24.092,-26.326,11.833,-29.827,-27.294,-54.461,-39.456,-26.528],[5463.581,2639.445,1483.217,1392.578,-329.787,871.076,599.164,375.414,243.498,-88.056,432.151,320.602,138.69,84.78,-8.619,52.306,53.855,2.348,3.608,12.289,18.636,9.487,-8.549,-41.72,-40.975,-12.454,-2.956,-27.438,-14.174,-29.848],[5572.022,4543.925,4719.398,2758.734,1750.353,1276.261,1191.635,999.534,580.551,392.712,553.551,545.904,383.067,169.719,137.643,112.212,111.189,43.78,9.716,37.319,28.47,47.254,2.375,-2.903,-13.201,-31.644,4.943,-24.028,-25.952,-35.899],[6322.114,6481.906,5929.567,2871.111,2330.719,1260.445,1273.36,1091.185,806.46,436.237,677.453,759.508,524.555,351.489,236.182,131.63,131.496,85.498,86.444,19.482,28.437,42.785,38.92,16.502,-11.801,13.429,-10.398,-6.847,-25.195,-22.831],[7575.307,8169.962,7393.221,6190.608,2181.353,1447.423,1833.742,1316.853,1370.514,828.248,663.682,787.869,611.98,562.744,369.274,98.742,153.974,137.233,57.297,85.749,11.891,43.159,34.453,55.347,30.259,-23.418,8.733,1.102,10.709,-29.244]]
}