{
"KTrans": [[-11.752,-1.793,6.885,4.78,3.413,19.004,9.75,5.102,2.789,2.296,11.859,13.418,3.475,2.441,1.241,54.835,33.984,11.459,16.524,10.361,64.164,49.493,31.378,46.248,29.509,167.72,99.972,91.455,87.076,57.609],[-59.914,-7.366,1.577,0.798,-0.767,-67.188,-2.112,-0.141,-0.325,0.114,-66.563,-10.004,3.964,3.905,-0.344,-57.406,10.91,7.102,3.55,8.972,-18.427,25.941,22.654,15.671,15.359,-0.515,34.391,64.752,41.732,30.343],[-81.198,-27.056,-3.293,2.256,0.175,-84.389,-22.832,-0.04,4.561,1.363,-81.895,-11.047,1.503,5.308,1.787,-76.904,-10.2,6.674,6.975,3.806,-69.244,16.909,31.33,18.387,12.375,-51.001,19.344,54.608,26.275,31.68],[-91.324,-47.664,0.568,-0.857,1.748,-90.921,-42.53,-3.159,-0.974,-0.537,-92.585,-49.883,-4.295,1.818,-0.623,-83.044,-34.937,5.979,8.914,10.606,-77.15,-26.69,14.051,9.438,3.029,-65.736,-7.544,35.204,51.945,29.133],[-94.938,-62.385,-25.1,0.864,0.991,-95.107,-68.1,-16.475,0.112,3.789,-95.323,-59.691,-18.182,-2.864,1.231,-94.571,-53.292,-9.861,1.608,9.407,-87.568,-45.652,0.863,16.296,16.117,-77.196,-20.819,16.939,27.542,18.266],[-95.2,-72.553,-39.151,-7.388,-4.216,-96.996,-69.125,-30.725,-4.919,3.191,-97.601,-72.967,-30.966,-11.211,3.18,-91.219,-71.35,-16.515,4.9,4.92,-90.577,-63.992,-14.039,9.334,20.581,-73.466,-45.644,8.204,22.693,25.636]],
"ve": [[24.862,28.888,15.502,-58.521,-55.678,6.508,-6.544,-14.989,-3.03,58.401,-9.884,1.631,40.952,-114.699,64.639,14.665,233.836,30.019,20.956,-4.995,14.565,19.105,-20.576,-26.318,-49.041,34.588,19.182,-5.115,-18.993,-27.015],[-33.56,-3.355,-1.402,-1.37,-0.779,-37.963,-1.543,-1.027,0.512,-0.066,-32.524,-5.027,-0.266,-1.228,-0.406,-17.052,-0.068,0.571,1.008,0.149,-5.95,6.782,4.114,3.935,7.506,-0.82,10.235,30.271,5.953,11.261],[-68.314,-15.251,-3.011,-2.098,-2.001,-56.417,-12.931,-4.517,-0.599,-0.652,-59.881,-9.799,-2.307,-0.535,-1.562,-58.245,-6.882,-1.434,-1.096,-1.253,-44.001,-0.825,4.781,6.077,0.885,-48.341,10.031,7.559,-0.498,-3.42],[-58.111,-30.38,-5.003,-4.658,-2.014,-77.777,-30.463,-7.415,-2.203,-3.604,-76.795,-33.693,-10.54,-2.74,-1.214,-69.512,-26.502,-3.541,1.404,1.405,-74.006,-19.444,1.506,1.196,-1.922,-65.053,-13.77,7.156,3.888,-0.826],[-76.074,-45.379,-16.902,-5.163,-2.423,-99.604,-49.532,-12.384,-4.174,-1.893,-56.247,-42.866,-14.168,-4.517,-1.676,-72.563,-42.626,59.209,-4.125,-1.067,-48.05,-34.736,-3.571,0.991,0.169,-44.438,-22.593,0.228,5.671,-3.087],[-62.167,-52.734,-28.029,-7.997,-4.953,-97.578,-51.723,-23.221,-7.682,-2.634,-70.974,-60.74,-21.827,-9.663,-2.605,-68.05,-53.742,-21.415,-3.322,-1.925,-282.589,-47.247,-18.19,-5.274,0.92,-32.555,-41.94,5.133,1.81,8.292]],
"kep": [[-20.657,-5.931,8.888,3.488,1.541,4.252,7.592,3.151,-0.441,0.821,-3.171,10.267,2.603,-4.576,-2.936,14.966,21.549,7.791,14.772,11.75,18.012,22.824,13.943,49.577,31.555,65.803,60.884,60.043,71.49,35.794],[-54.355,-5.466,2.486,2.436,0.608,-60.014,-3.413,0.448,-0.582,0.693,-63.475,-7.381,3.944,4.928,0.618,-57.807,5.672,4.304,2.207,8.672,-41.005,5.804,11.399,9.54,10.579,-30.925,12.252,21.85,18.432,13.229],[-79.112,-17.972,-1.678,4.168,2.121,-81.82,-15.401,3.063,4.636,1.62,-81.191,-8.46,2.379,5.556,3.177,-76.795,-10.62,6.677,6.578,4.345,-71.114,5.416,19.369,9.851,8.587,-58.556,-18.284,29.236,9.476,15.977],[-92.171,-35.166,1.987,3.35,3.458,-87.398,-36.359,2.699,0.735,2.508,-93.104,-35.858,0.658,3.161,0.189,-81.501,-30.726,4.765,5.013,7.968,-78.964,-30.84,7.097,4.359,1.958,-71.242,-28.916,7.045,33.389,17.654],[-93.045,-51.522,-13.721,5.166,2.937,-93.984,-53.638,-7.979,2.879,5.04,-93.902,-49.696,-9.358,0.308,2.143,-91.35,-45.046,-7.28,3.044,9.176,-84.548,-47.291,-6.694,8.414,14.078,-77.272,-36.213,-5.56,0.688,9.808],[-94.63,-61.66,-23.733,-0.785,0.304,-95.636,-59.923,-19.195,-0.673,4.311,-96.286,-68.001,-19.623,-3.392,4.739,-92.814,-66.43,-7.46,7.942,4.921,-89.207,-59.483,-13.869,9.977,17.298,-79.588,-54.528,-19.486,0.747,11.627]],
"vp": [[806.538,313.098,31.651,-160.834,-134.717,19.726,12.435,-27.819,-25.446,-20.18,6.777,-31.667,-7.115,-10.824,14.424,-32.116,-34.876,3.846,-20.454,-8.358,-17.661,-17.562,-16.525,-29.466,-19.2,-19.543,-21.852,-23.245,-29.372,-16.877],[3614.867,1130.492,536.469,564.065,894.497,934.243,113.379,94.846,76.957,98.481,435.421,136.719,19.544,2.974,66.436,73.25,9.549,0.602,-4.248,-21.969,9.239,-16.647,-9.574,-12.635,-22.249,2.719,-5.389,-42.047,-24.279,-19.571],[6558.694,3429.626,1161.404,590.81,1055.158,1264.267,614.751,259.088,25.812,95.432,651.681,223.35,98.496,10.694,44.732,106.341,36.739,11.328,12.142,5.892,50.417,9.506,-13.673,-27.481,-8.919,28.506,-9.739,-12.29,-2.959,-29.497],[7680.374,6202.51,1488.522,1708.675,771.77,1509.112,1275.188,445.563,177.171,311.506,803.101,711.023,209.613,79.647,76.977,129.984,117.714,29.626,-16.832,-24.905,45.57,42.931,-3.383,0.217,9.563,34.101,13.915,-12.852,-12.786,-14.287],[8150.533,10445.558,5544.756,1869.875,1028.057,1682.934,2066.679,762.615,262.138,123.047,841.706,868.232,434.444,170.111,82.326,159.551,176.146,50.838,34.399,3.173,70.214,70.954,8.317,-5.054,-0.035,20.826,21.223,-2.462,-13.839,9.572],[8557.532,11183.411,8240.736,3080.534,2564.15,1626.616,2180.508,1418.53,602.059,257.615,887.729,1256.194,681.162,368.029,105.275,142.955,239.36,134.157,19.12,16.552,75.246,92.224,53.584,20.603,-5.752,16.793,43.557,-8.857,-2.411,-21.715]]
}