{
"KTrans": [[0.603,1.887,3.055,1.391,2.271,7.011,13.046,9.64,12.887,10.045,10.94,22.326,22.649,21.17,21.249,-60.866,61.282,85.386,90.954,92.612,-107.87,5.087,80.019,121.112,137.405,-209.918,-145.318,-6.394,14.319,92.537],[-4.209,0.84,0.801,1.992,0.713,0.474,6.017,1.337,5.188,5.418,13.549,11.273,2.757,9.568,8.53,40.84,27.822,-20.485,26.227,36.734,-12.578,-45.954,-15.939,0.387,44.123,177.82,-114.812,-43.085,-25.728,24.798],[-13.065,-0.135,-0.565,0.293,-0.397,-6.035,5.016,5.128,1.916,0.717,2.631,12.015,10.039,7.786,1.14,0.964,55.994,42.498,22.548,-11.53,-74.574,35.991,49.253,-63.294,-23.608,-95.02,90.176,-96.986,-3.647,-71.849],[-20.822,-0.638,-0.407,-0.037,0.102,-11.046,2.432,3.698,2.492,3.741,-5.601,9.6,9.144,7.264,5.222,-16.343,37.713,51.154,34.39,33.359,-48.302,9.272,50.095,62.039,33.858,-75.513,-34.48,5.605,24.781,-35.439],[-23.454,-4.139,-0.619,-0.675,-0.28,-15.851,0.685,2.815,3.439,1.717,-18.206,6.52,5.989,5.589,5.543,-39.147,57.854,49.974,33.782,34.69,-86.992,6.142,72.742,66.595,64.608,-102.465,-83.336,-45.524,92.397,60.532],[-42.673,-2.337,-0.711,-0.031,-0.31,-33.973,-0.988,2.816,1.451,2.993,-33.275,4.753,8.552,2.827,5.229,-50.778,40.991,28.481,30.395,30.867,-60.567,0.986,69.032,76.276,55.949,-55.695,29.603,5.652,93.421,48.17]],
"ve": [[-104.622,-7.712,16.224,-5.07,112.657,32.625,26.987,15.82,21.955,20.853,11.134,-15.406,-2.367,-6.106,129.379,47.23,-53.098,-48.469,-59.865,187.166,96.654,28.809,69.09,-22.541,-20.646,216.795,112.895,33.392,2.114,-16.403],[-1.455,-1.955,2.154,-4.592,1.859,3.037,1.306,1.378,4.839,4.84,7.986,3.313,1.928,2.214,6.425,83.749,24.719,17.27,-8.045,45.642,99.191,50.794,33.478,17.61,16.336,181.194,105.268,66.235,47.496,26.071],[-0.473,0.453,-0.551,-0.875,-0.811,4.498,2.383,1.51,0.111,1.12,8.535,4.76,3.418,1.647,1.541,49.886,23.702,16.824,17.266,10.197,102.253,51.531,33.755,27.035,14.986,197.179,101.898,68.048,50.562,40.511],[-0.886,0.532,0.02,-0.106,-0.477,3.613,2.423,1.345,1.116,0.921,7.704,4.789,3.536,2.517,1.986,48.77,23.179,16.736,12.085,10.197,100.368,52.523,33.028,26.72,23.159,240.341,104.01,66.725,49.128,40.327],[-1.038,0.17,0.4,0.02,0.003,4.237,2.525,1.922,1.148,0.885,8.461,4.746,2.969,2.474,2.035,48.888,24.805,16.682,12.422,10.393,100.002,48.88,31.739,21.551,24.661,202.986,102.205,64.694,50.494,42.291],[-1.146,0.128,0.494,0.126,0.118,5.526,1.908,1.884,1.063,0.882,5.23,4.293,3.366,2.44,1.986,49.406,26.243,15.536,12.382,10.403,99.235,50.456,33.864,23.491,-6091.979,206.111,95.149,71.972,52.158,42.557]],
"kep": [[-126.803,-10.497,-5.107,-2.135,-8.753,-127.692,-27.342,-15.957,-24.8,-19.717,-125.584,-51.805,-32.695,-23.704,-37.577,-163.404,-239.36,-184.276,-190.352,-195.799,-111.872,-402.803,-396.273,-383.324,-370.527,-77.581,-265.171,-565.164,-703.339,-743.727],[-14.986,-10.426,-124.346,-12.979,1.019,-10.152,3.086,-134.924,-22.11,-13.365,-2.646,6.768,-133.996,-43.712,-16.483,-17.874,-16.078,-196.976,-168.288,-108.135,-63.383,-94.727,-61.187,-306.594,-214.027,-12.855,-109.539,-58.26,-208.949,-341.814],[-21.423,-2.132,-6.158,-4.382,-128.89,-15.735,1.345,7.212,-6.286,-137.945,-15.581,6.944,12.922,15.326,-152.886,-42.752,19.563,23.277,7.703,-198.685,-82.867,-21.294,6.453,-159.006,-148.659,-89.591,-15.124,-112.448,-39.249,-167.26],[-27.764,-3.609,-0.83,-2.648,-1.276,-23.603,-1.674,1.988,2.956,5.986,-23.047,1.634,6.645,6.009,7.698,-53.129,8.074,32.04,31.162,42.515,-71.816,-38.58,3.181,31.397,5.454,-85.783,-70.686,-42.217,-19.623,-78.744],[-34.048,-6.687,-2.351,-2.904,-1.616,-30.559,-3.856,1.431,2.203,0.933,-34.921,-0.94,2.369,5.105,5.722,-62.196,16.668,28.695,24.854,35.145,-94.047,-36.042,24.615,33.066,48.4,-91.528,-87.785,-65.303,21.52,11.782],[-49.757,-5.527,-2.496,-1.245,-2.357,-46.966,-6.872,0.283,0.385,1.992,-49.59,-4.945,4.905,0.326,3.928,-70.821,2.952,6.892,16.812,25.331,-80.319,-40.956,18.676,39.341,32.215,-83.966,-40.391,-43.35,14.414,-8.816]],
"vp": [[5.399,123.201,202.696,-106.739,69.218,-31.077,5.683,-11.612,23.877,-35.174,4.815,-13.256,-3.074,12.419,15.499,-2.162,-9.552,-4.734,-3.505,-1.595,-8.88,2.98,6.328,0.979,-16.358,-3.88,-2.38,-4.38,2.376,2.046],[1238.009,89.266,42.917,-32.135,-39.916,279.334,42.385,-15.085,-4.911,22.973,108.136,-20.744,-19.479,-16.775,-19.31,-1.302,1.026,6.798,7.891,8.007,-3.179,-4.464,-9.961,11.393,3.808,-21.409,-0.195,-7.675,-2.379,-7.117],[2805.191,457.392,256.115,152.559,84.245,560.682,118.8,-9.357,38.655,-40.774,269.443,83.335,24.488,10.37,-8.91,35.491,5.851,6.104,-26.196,-13.114,7.512,-11.391,-20.246,-16.012,4.43,-0.25,-23.408,-5.738,-30.145,5.801],[4925.555,856.048,154.298,305.584,-164.288,980.483,227.942,29.818,32.674,64.038,425.064,156.519,41.697,51.656,-6.007,55.485,-16.082,11.95,-33.796,-3.645,11.411,20.014,-2.033,-3.687,-10.374,-6.852,10.976,-16.856,-30.771,-12.714],[5798.047,1975.543,507.356,573.893,331.866,1125.328,425.966,108.994,102.781,26.899,543.885,234.832,54.57,9.348,1.528,64.164,54.583,28.808,-8.027,4.959,41.146,4.488,-16.045,-5.321,2.368,6.038,11.658,-17.941,-16.111,-13.725],[6299.96,3154.512,1027.019,776.338,1010.905,1313.071,642.568,209.049,167.314,133.198,618.254,367.56,162.795,44.492,-9.403,121.067,84.973,25.555,-3.765,4.61,34.647,29.221,-1.569,2.488,4.549,14.028,-10.89,8.106,11.955,4.197]]
}