{
"KTrans": [[-0.098,0.728,1.034,0.733,0.584,0.927,1.446,0.658,0.925,0.599,1.775,-0.368,1.761,1.991,0.821,33.448,1.373,8.236,9.225,2.62,-46.128,45.118,29.699,23.956,33.202,-84.962,-47.644,63.268,56.17,37.383],[-5.286,-1.064,-0.04,0.6,0.661,-0.897,-1.017,-0.048,0.878,0.653,0.357,-0.577,-0.037,0.157,0.857,-3.889,9.235,2.433,2.271,4.679,4.951,23.389,10.458,6.874,14.031,58.575,-145.08,26.809,14.096,28.178],[-26.825,-4.675,-2.086,-0.885,-0.003,-21.503,-5.632,-2.027,-0.454,0.131,-20.21,-4.576,-1.319,-0.551,0.55,-12.059,4.131,4.154,6.743,0.669,-5.417,-1.784,12.025,6.706,0.177,-13.746,-8.764,-40.289,24.95,14.609],[-58.393,0.117,-5.578,-2.035,-0.891,-56.961,4.8,-3.905,-1.879,-1.603,-63.963,5.95,-4.413,-3.036,-1.214,-51.48,-2.467,-2.279,3.43,-2.074,-41.72,2.907,12.724,1.188,10.578,-66.848,-8.302,-32.113,2.887,18.727],[-77.097,-1.845,-5.397,-3.152,-2.828,-72.4,-10.682,-1.184,-3.928,-2.004,-72.288,-11.59,-8.678,-3.184,-2.669,-50.822,-13.791,8.414,-0.309,-3.285,-34.698,-3.759,-6.994,5.883,4.666,-53.219,17.455,-14.156,-10.136,5.088],[-78.705,-33.453,2.34,-2.555,-3.995,-84.1,-41.043,0.665,-5.661,-3.335,-78.358,-36.898,4.332,-6.429,-3.113,-79.031,-31.455,8.494,2.482,2.05,-59.781,-24.366,22.304,14.123,4.077,-62.655,-9.739,-9.397,45.597,6.439]],
"ve": [[-0.058,0.065,-0.107,-0.22,-0.312,0.383,0.24,0.097,-0.019,0.078,0.641,0.202,0.326,-0.159,1.455,10.535,9.786,-19.11,39.331,-68.736,-12.804,-1.29,-22.464,-35.308,-34.949,16.264,7.794,-5.678,-1.97,-28.106],[-3.052,-0.349,-0.028,0.134,0.114,-0.433,-0.378,-0.059,0.251,0.122,-1.356,-0.348,-0.106,-0.049,0.172,1.628,5.499,1.051,1.236,1.769,13.574,11.787,0.361,4.913,104.048,41.418,6.391,39.209,-11.848,-2.646],[-18.261,-2.235,-0.809,-0.25,-0.006,-17.666,-3.403,-0.955,-0.167,0.059,-14.272,-1.805,-0.381,-0.187,0.274,-3.965,1.36,2.809,3.86,0.122,35.032,3.314,4.141,3.461,-0.101,-7.701,34.416,-12.246,13.173,1.827],[-33.549,-0.734,-2.086,-0.881,-0.326,-45.842,-1.524,-2.369,-0.648,-0.684,-37.4,2.014,-2.263,-1.185,-0.41,-29.678,-0.98,-2.565,2.409,-1.708,-18.886,8.504,10.268,0.385,6.466,-13.03,-8.072,6.631,15.982,5.935],[-53.48,-4.251,-2.487,-1.327,-1.013,-47.63,-8.109,-1.21,-1.83,-0.81,-53.767,-8.679,-3.988,-1.044,-1.101,-4.092,-6.444,3.319,0.041,-1.685,16.3,1.039,0.479,3.673,2.951,-4.839,37.367,11.985,16.885,1.227],[-36.347,-23.424,-0.547,-2.273,-1.565,-121.983,-30.586,-3.023,-3.145,-1.596,-42.851,-27.671,-0.707,-2.932,-1.504,-49.79,-10.905,-0.599,1.444,2.134,-9.242,-12.294,27.906,4.972,3.698,2.791,24.998,7.166,25.737,10.577]],
"kep": [[-0.141,0.574,1.058,0.876,0.828,0.229,1.082,0.531,1.028,0.69,0.246,-0.786,1.602,2.56,0.678,-6.863,-16.651,-3.127,4.771,-10.079,32.454,0.03,-2.352,-6.556,34.993,76.205,38.58,6.057,1.745,-35.978],[-3.155,-0.81,-0.101,0.377,0.459,-1.663,-0.812,-0.109,0.527,0.436,0.075,-0.584,-0.135,0.057,0.563,-21.984,-1.089,-1.393,-0.512,2.254,-16.143,-12.658,-4.399,-3.994,5.512,-14.037,3.733,-12.611,-28.846,-2.767],[-25.615,-2.75,-1.388,-0.726,-0.086,-25.541,-2.858,-1.23,-0.394,-0.026,-28.093,-3.397,-1.156,-0.529,0.147,-32.704,-3.55,-1.268,1.975,-0.614,-43.958,-11.435,-8.741,-2.691,-4.151,-42.694,-23.734,10.197,-14.359,-11.778],[-56.602,-0.786,-3.733,-1.264,-0.657,-59.559,3.914,-1.839,-1.368,-1.033,-63.24,2.003,-2.643,-2.074,-0.951,-56.849,-23.56,-2.827,-0.176,-1.752,-59.056,-26.569,-9.201,-6.514,1.492,-63.203,-21.895,-22.62,-16.019,-5.923],[-73.506,-0.244,-3.573,-1.978,-1.928,-69.603,-5.495,-0.717,-2.36,-1.329,-68.961,-9.553,-5.845,-2.444,-1.767,-61.462,-27.031,2.055,-1.672,-2.873,-58.784,-29.958,-21.688,-3.867,-1.912,-66.988,-27.524,-24.814,-22.804,-20.7],[-74.975,-35.042,0.506,-0.648,-2.582,-77.925,-44.64,0.628,-3.129,-1.947,-74.751,-41.891,1.553,-4.125,-1.879,-75.379,-43.708,-7.527,-0.917,-0.899,-69.187,-38.066,-9.248,0.299,-2.128,-74.768,-44.787,-28.843,2.945,4.204]],
"vp": [[7.835,-37.057,-56.927,-84.213,-96.161,-8.556,-18.986,-8.951,-13.521,-10.792,-6.048,11.036,-11.599,-22.016,-2.849,-32.108,14.106,-6.836,-13.831,4.129,-27.197,-29.525,-20.474,-16.555,-33.5,-11.948,-21.834,-32.692,-28.903,-27.042],[323.317,79.037,11.111,-69.15,-106.059,9.537,17.806,5.141,-28.01,-23.747,16.908,9.673,4.921,4.223,-15.196,-1.375,-22.35,-1.799,-2.159,-18.612,-11.562,-35.591,-6.217,-2.899,-28.016,-20.109,-5.312,-13.371,-1.541,-23.273],[1823.867,475.213,261.878,95.134,3.778,368.832,149.171,65.86,16.544,-7.112,146.389,35.935,11.97,8.758,-16.608,10.837,3.873,-18.32,-35.978,1.525,-39.222,-3.774,-17.859,-7.499,11.63,3.096,-33.154,4.558,-26.302,-8.308],[3478.26,157.963,604.877,401.582,192.176,946.748,79.725,162.388,55.488,76.042,387.151,-41.229,73.67,48.205,21.491,61.621,4.312,18.946,-21.177,22.174,11.776,-14.044,-31.899,1.641,-36.336,8.098,9.592,-5.426,-32.805,-22.791],[5298.232,918.852,743.654,583.848,513.665,941.821,338.254,85.61,156.585,90.935,552.663,185.462,117.556,41.38,59.331,7.074,23.992,-21.169,-0.103,18.518,-23.087,-1.967,1.553,-12.908,-15.502,2.119,-41.471,-18.595,-34.528,-0.71],[4211.659,4783.056,162.512,1081.375,798.174,1159.381,1256.422,202.638,264.941,176.009,639.281,582.694,24.403,117.297,84.415,108.164,41.795,5.165,-11.805,-23.715,6.944,28.599,-65.495,-19.884,-21.015,-1.323,-29.005,-7.951,-55.839,-28.538]]
}