{
"KTrans": [[60.14,43.024,26.939,24.676,26.77,65.584,55.125,37.325,33.82,29.938,103.302,52.851,49.234,40.99,44.496,311.372,139.915,111.014,111.933,93.787,598.28,334.623,234.972,212.957,192.795,1668.826,781.565,549.793,509.376,431.885],[-24.683,113.999,57.413,50.583,43.48,46.77,112.49,60.842,52.933,44.101,67.795,117.854,84.049,49.47,50.71,54.735,222.332,136.353,106.242,82.177,495.325,352.522,176.322,150.429,120.961,1365.545,729.67,362.896,276.289,236.072],[-198.989,381.346,121.374,98.862,68.415,-203.611,301.766,154.675,69.645,73.521,-274.994,361.411,122.457,88.046,61.74,-322.301,512.733,223.307,110.024,97.533,-462.973,745.917,289.865,179.954,152.836,-886.659,1582.418,564.609,313.106,237.993],[-191.01,-230.941,342.71,120.608,101.587,-190.958,-133.964,319.346,154.892,102.115,-194.782,-136.538,317.413,137.9,88.131,-233.239,-293.312,456.535,209.042,138.491,-301.512,-541.409,641.355,280.274,173.362,-527.758,-389.615,1128.197,476.413,296.684],[-160.133,-292.289,189.49,315.203,168.394,-141.642,-245.554,153.081,264.462,130.027,-172.357,-296.776,143.629,353.267,196.892,-226.523,-331.205,174.73,383.305,183.455,-273.893,-461.049,-38.704,484.583,270.608,-439.884,-446.361,470.746,741.697,343.274],[-152.91,-288.063,-207.632,427.466,280.49,-145.831,-256.077,-278.428,385.243,250.761,-149.681,-264.75,-215.73,406.315,263.401,-219.074,-317.043,-212.762,519.165,347.657,-334.044,-373.951,-484.65,574.935,371.085,-374.201,-602.631,-478.44,979.447,590.453]],
"ve": [[2.892,1.996,11.829,-96.046,438.973,4.111,2.178,4.374,35.957,63.102,11.258,2.056,-1.766,-1.417,164.004,48.809,12.437,-3.076,-12.526,-20.269,95.675,37.067,7.763,-7.759,-19.278,197.677,83.018,35.074,13.291,-7.208],[6.519,4.996,2.385,2.206,1.563,5.813,3.68,2.152,2.757,1.906,12.597,7.389,6.618,2.31,2.59,56.32,24.967,17.989,12.725,6.382,100.086,50.662,29.063,21.657,12.592,199.53,100.927,60.404,42.751,30.441],[5.413,5.756,3.056,5.527,3.114,6.205,6.343,5.452,2.509,4.558,15.139,8.775,4.816,5.329,2.267,49.619,27.621,19.702,10.114,9.918,101.356,52.043,33.696,25.436,20.992,202.798,101.368,69.32,48.057,38.43],[4.998,3.467,3.146,2.488,3.665,7.683,4.727,3.639,4.95,4.189,13.834,7.468,4.425,4.766,2.603,50.838,26.513,17.529,14.965,12.031,99.483,51.876,37.91,27.896,19.667,198.512,102.891,67.412,51.941,41.943],[2.968,1.927,8.637,4.697,5.715,4.115,6.42,5.461,2.246,1.544,12.454,6.35,6.572,5.706,7.853,53.366,31.523,24.915,14.139,11.39,102.573,53.751,33.915,26.693,22.523,202.088,104.001,69.761,51.785,39.483],[4.608,5.333,1.752,1.664,2.473,8.085,5.108,4.529,5.228,5.292,12.02,10.178,8.383,4.148,4.478,51.932,28.057,18.411,17.948,12.229,105.166,52.924,38.209,26.011,17.96,203.047,102.12,69.312,52.65,40.77]],
"kep": [[48.619,40.953,29.934,30.804,38.396,50.817,50.672,40.288,44.034,46.229,76.787,47.228,54.358,55.101,68.977,168.548,107.287,112.474,138.176,141.014,249.184,212.339,204.646,232.902,255.591,488.584,377.094,375.755,434.149,465.834],[-31.329,94.708,48.191,43.809,39.452,29.46,91.431,49.458,44.775,39.279,38.851,92.459,67.757,40.873,44.511,-1.36,143.583,94.37,79.091,66.394,185.039,188.856,105.501,99.996,89.759,373.357,302.24,178.656,156.191,150.997],[-186.419,327.87,102.217,82.706,57.493,-186.13,253.816,128.647,57.647,61.146,-242.149,298.086,99.058,71.576,50.274,-233.486,350.99,156.792,77.839,71.757,-266.574,427.493,176.117,114.053,102.195,-347.895,698.762,279.034,167.074,136.346],[-179.444,-206.911,295.268,102.466,85.406,-176.557,-121.832,271.753,129.89,84.693,-175.211,-123.09,264.213,113.244,71.756,-179.335,-231.956,337.153,153.646,102.299,-192.415,-363.052,411.6,183.559,115.353,-234.09,-226.539,591.094,262.44,169.663],[-152.264,-268.199,160.966,271.641,143.162,-133.123,-223.676,126.047,225.81,109.077,-158.304,-265.441,116.371,297.154,163.586,-177.129,-266.384,117.684,292.458,138.284,-181.031,-320.42,-52.065,330.601,186.254,-207.166,-259.829,226.937,424.083,199.706],[-147.005,-266.522,-187.681,371.935,241.394,-138.46,-233.859,-249.55,330.141,214.226,-140.108,-238.787,-193.33,343.515,222.357,-173.652,-255.463,-179.668,399.155,270.202,-211.355,-266.289,-358.11,394.479,261.978,-187.339,-333.63,-302.06,569.953,359.735]],
"vp": [[2288.586,2707.071,2126.21,2140.043,2286.721,399.226,565.319,482.447,457.768,449.667,249.489,225.683,254.774,231.531,264.305,54.851,42.661,41.499,52.044,44.062,23.947,30.204,22.393,25.999,24.348,13.592,13.154,10.666,14.05,12.275],[7613.233,7660.467,6615.105,7385.87,7643.998,1377.269,1500.663,1378.357,1493.047,1443.565,663.524,662.128,796.763,681.573,771.066,178.17,152.673,158.268,152.238,149.195,63.777,70.2,64.449,70.633,73.47,37.074,40.464,32.362,34.827,39.112],[10870.286,14474.699,12088.524,14321.048,12929.837,2073.451,2419.975,2855.67,2103.19,2629.13,1051.925,1184.996,1060.402,1178.002,1207.113,191.717,253.586,229.139,200.074,249.796,87.456,100.395,124.549,124.087,136.63,48.701,65.372,66.195,59.856,63.772],[12757.096,16882.803,17778.156,14149.016,18158.791,2336.169,3051.54,2973.509,3580.919,3539.383,1211.835,1624.935,1405.335,1497.496,1432.886,237.847,300.56,329.265,334.329,340.533,103.313,171.474,171.907,170.826,165.063,52.688,81.658,81.411,90.334,86.427],[11419.988,18580.014,25784.217,21189.354,23388.076,2356.329,4053.917,4246.196,3896.071,3480.694,1270.527,2099.203,2439.199,2294.328,2572.434,248.403,443.966,507.588,457.071,374.696,129.351,207.021,231.376,203.755,240.403,64.088,100.882,122.54,100.44,102.657],[12846.357,22923.033,23108.371,23289.197,26699.875,2532.293,4135.781,5681.285,5697.374,5413.822,1169.321,2288.352,2794.308,3280.085,2432.949,244.48,407.65,467.784,531.55,519.965,133.943,220.374,251.81,248.026,194.987,65.914,108.678,132.655,130.547,111]]
}