{
"KTrans": [[-20.094,22.593,28.575,17.677,32.455,-2.21,51.935,31.671,20.56,32.612,5.726,40.494,40.458,45.588,35.727,118.164,130.585,94.259,95.164,81.134,252.509,285.903,222.497,187.353,169.726,851.884,613.73,544.395,431.839,441.236],[-77.02,27.982,42.903,24.105,30.189,-75.041,34.794,45.701,45.777,30.277,-74.281,53.934,50.92,40.676,30.265,-35.137,128.093,86.99,76.697,70.717,11.164,210.85,166.605,116.551,120.643,202.547,434.196,318.15,268.516,210.636],[-102.912,-66.106,73.913,43.142,46.375,-102.037,-11.85,70.38,50.686,60.74,-102.395,-32.806,90.164,71.164,50.746,-84.526,30.593,94.811,112.681,76.582,-83.103,45.268,175.409,147.414,111.488,-45.138,112.177,362.721,223.468,196.289],[-103.453,-76.974,10.721,92.557,57.266,-98.477,-80.486,19.699,87.368,72.205,-100.924,-101.327,70.355,99.433,76.318,-101.875,-68.458,55.877,155.909,103.568,-90.304,-58.474,97.128,171.708,127.653,-120.702,-17.889,162.343,296.733,242.599],[-104.479,-112.833,-33.148,81.627,102.109,-102.258,-111.251,-48.784,94.021,85.673,-105.851,-104.199,-48.799,80.889,111.126,-106.713,-127.487,-34.722,98.704,140.996,-98.361,-94.741,-13.419,174.684,170.278,-116.389,-87.233,95.259,199.288,285.898],[-104.145,-107.732,-104.802,7.091,85.559,-103.808,-98.418,-106.205,-16.586,113.84,-100.472,-104.754,-84.468,29.294,108.617,-103.579,-124.298,-72.602,26.878,155.807,-109.053,-105.994,-63.181,73.948,191.14,-102.503,-131.642,-39.729,22.135,293.417]],
"ve": [[34.165,9.319,43.263,1.543,16.447,9.012,-12.439,155.365,63.866,141.246,27.651,25.193,16.228,1.473,55.458,48.317,19.022,3.878,-0.208,-11.907,116.023,39.476,12.746,-1.518,-15.853,201.497,85.821,37.87,11.382,-2.517],[-1.192,6.899,5.636,2.028,2.717,51.73,6.029,5.732,2.602,4.126,28.002,8.18,7.613,4.975,4.46,41.731,30.706,15.167,12.499,8.305,112.744,51.215,32.431,19.965,15.508,188.024,97.94,63.791,43.155,28.866],[-9.111,3.974,4.181,-0.019,1.802,14.33,8.868,4.337,3.285,1.684,20.04,2.981,11.041,5.859,2.761,67.862,44.384,17.446,15.956,9.023,108.96,54.252,37.513,27.301,20.171,198.605,100.169,72.929,46.358,37.081],[10.507,4.579,4.744,4.18,1.519,4.424,5.729,5.73,3.513,2.765,14.062,6.048,10.511,5.652,3.945,-18.266,22.292,9.321,15.98,12.686,123.512,52.828,38.216,27.395,20.353,197.475,102.054,65.802,50.413,39.756],[0.177,7.553,5.156,2.736,4.929,11.863,4.974,4.379,7.056,1.85,6.504,-12.584,7.802,6.103,6.342,57.847,28.159,23.18,14.709,12.691,103.499,43.601,29.523,28.974,21.001,193.605,106.42,72.282,52.695,41.642],[-14.333,2.133,72.711,5.754,-0.686,5.017,-4.99,9.287,1.96,3.782,13.019,2.131,4.538,5.024,6.16,41.14,32.876,20.756,17.58,12.585,136.516,46.235,35.743,29.317,23.696,196.935,110.211,75.359,48.548,42.255]],
"kep": [[-35.427,16.285,29.042,19.568,47.397,-24.101,41.324,30.862,21.376,47.122,-23.267,32.523,46.264,56.704,46.307,41.426,97.931,94.447,116.286,123.951,66.457,178.582,187.716,203.418,225.831,219.795,286.452,369.715,378.219,458.985],[-83.134,13.083,33.009,19.776,26.66,-79.607,21.171,36.125,41.339,25.282,-80.027,35.457,37.371,32.657,25.634,-60.54,64.944,56.99,54.375,55.489,-50.542,101.634,95.969,76.11,89.355,-0.825,161.667,152.749,152.122,135.11],[-102.377,-70.959,57.909,37.495,39.492,-102.591,-25.886,56.051,40.187,53.826,-101.736,-41.561,67.861,56.442,42.113,-89.724,-4.834,57.933,79.23,56.886,-91.09,-8.235,95.264,89.377,71.705,-80.695,5.717,162.437,114.445,110.776],[-102.927,-80.388,0.359,77.426,46.614,-99.553,-79.761,7.93,72.669,60.397,-100.471,-99.642,45.749,78.661,62.604,-100.798,-76.091,23.703,110.561,73.87,-95.332,-73.302,38.138,104.835,81.459,-106.772,-60.158,51.153,154.799,136.592],[-104.342,-110.334,-38.907,66.327,83.876,-101.775,-107.92,-53.372,73.395,71.966,-104.756,-102.098,-54.894,60.474,90.547,-103.981,-117.304,-47.599,62.815,104.931,-98.068,-95.612,-40.425,102.355,112.107,-104.609,-92.247,11.445,88.683,161.129],[-103.648,-106.274,-104.069,-3.977,72.705,-102.918,-97.372,-104.72,-26.391,92.153,-101.03,-101.765,-83.891,16.7,86.306,-102.482,-115.74,-76.384,1.47,115.082,-103.985,-101.231,-73.097,30.28,125.53,-100.793,-112.936,-64.176,-22.536,164.967]],
"vp": [[3271.802,2076.131,1879.124,1306.023,2294.655,757.425,562.279,425.494,405.177,453.703,317.902,171.051,209.612,178.919,241.385,63.555,32.041,14.955,28.314,19.356,32.804,23.315,15.71,13.617,11.741,13.425,6.416,6.052,4.817,11.61],[7536.536,8735.488,6709.019,4148.687,5458.04,1459.191,1665.488,1188.465,1017.32,1115.026,697.713,778.019,603.969,524.546,407.813,129.478,185.347,110.544,125.557,109.015,72.762,70.602,54.679,48.65,60.613,37.349,41.081,31.022,27.745,29.906],[9216.344,14242.568,13020.388,8129.376,8777.792,1932.886,2661.937,2439.672,2101.146,2021.616,925.619,1106.801,1300.613,1097.163,1008.038,174.322,282.24,198.61,202.631,165.361,85.362,131.635,113.635,115.371,94.652,42.823,60.219,63.433,42.924,44.736],[9394.182,15205.902,17482.265,15546.286,13812.502,1901.621,2851.299,3463.572,3318.2,2724.03,947.92,1598.004,1841.159,1591.68,1376.877,191.326,273.112,307.503,343.772,268.557,101.796,143.074,184.984,158.019,130.139,50.957,71.83,72.901,75.192,67.354],[10606.119,18269.725,20530.166,21576.343,22031.264,2080.376,3313.896,3893.975,4303.481,3148.58,1018.423,1578.372,2241.7,2074.586,2059.654,202.818,326.191,463.884,443.387,401.229,94.679,173.64,192.3,218.052,185.569,55.766,77.478,105.769,108.587,92.894],[10578.71,17305.369,24084.61,24969.763,22679.138,2077.226,3467.835,4795.696,4907.35,5435.817,1066.255,1621.016,2047.124,2753.286,2707.121,212.45,400.466,464.727,499.285,480.03,117.603,159.071,213.267,244.025,238.379,45.706,85.608,108.983,128.913,101.494]]
}