{
"KTrans": [[0.243,0.187,-0.088,0.107,-0.13,0.175,-0.095,0.159,0.013,-0.037,-0.164,0.172,0.015,0.053,0.024,0.209,-0.083,0.285,-0.091,-0.011,0.061,0.02,-0.068,-0.11,-0.137,-0.012,0.284,-0.002,-0.374,0.078],[0.023,-0.276,-0.16,0.141,-0.242,1.595,0.227,0.092,-0.167,-0.018,1.689,0.027,-0.155,0.051,-0.168,0.557,0.2,0.119,-0.424,0.152,-0.362,-0.104,0.167,0.2,-0.037,-0.196,-0.339,-0.126,-0.081,0.119],[0.181,0.395,-0.309,0.182,0.201,2.589,-0.521,0.277,0.1,0.033,-0.514,0.925,-0.1,0.253,-0.088,-0.449,-0.493,0.248,0.513,0.51,1.877,0.661,0.706,0.109,-0.166,1.477,-0.105,0.41,0.405,-0.186],[1.524,0.64,0.131,-0.037,0.341,1.071,-0.465,-0.343,0.481,0.377,-1.411,0.11,0.177,-0.341,0.02,-0.505,-0.719,-0.697,0.287,-0.81,1.931,0.713,0.324,-0,-0.397,-0.162,-0.051,-0.47,-0.71,0.118],[1.317,1.743,0.717,-0.035,-0.013,1.512,0.681,0.182,-0.409,-0.341,0.614,0.595,-0.951,0.769,-0.119,4.498,0.847,1.256,0.282,-0.262,0.432,0.845,0.96,-0.136,0.05,2.389,0.884,1.241,1.276,-0.244],[4.739,1.893,2.293,0.608,0.321,7.019,2.228,-0.09,0.009,-0.107,2.104,0.582,1.845,1.997,-0.672,4.446,1.183,-0.314,-0.835,0.339,4.388,-0.707,-0.556,0.279,-0.145,8.18,2.308,-0.367,0.29,0.295]],
"ve": [[-0.093,-0.044,-0.014,-0.076,0.051,-0.049,-0.061,-0.067,-0.028,-0.025,-0.155,-0.039,-0.04,-0.043,-0.017,-0.074,-0.054,-0.089,-0.005,-0.02,-0.082,-0.043,-0.021,0.002,0.053,-0.042,-0.051,-0.031,0.125,-0.053],[-0.121,-0.129,-0.123,-0.11,-0.051,0.403,0.012,-0.045,-0.107,-0.078,0.271,-0.08,-0.077,-0.04,-0.041,-0.081,-0.082,-0.011,-0.1,-0.051,-0.469,-0.077,-0.039,-0.032,-0.046,-0.221,-0.237,-0.113,-0.09,-0.064],[-0.572,-0.037,-0.171,0.021,-0.003,0.698,-0.497,-0.021,-0,-0.084,-0.58,-0.063,-0.097,-0.025,-0.045,-0.436,-0.107,-0.108,0.035,-0.027,0.037,0.056,0.143,-0.01,-0.094,0.049,-0.219,0.122,-0.01,-0.095],[-0.788,-0.365,-0.29,-0.135,-0.074,-0.505,-0.459,-0.205,0.098,-0.022,-1.816,-0.316,-0.079,-0.103,-0.046,-1.004,-0.555,-0.396,0.017,-0.325,-0.193,-0.292,-0.188,-0.225,-0.24,-0.647,-0.234,-0.272,-0.288,-0.006],[-1.433,0.029,-0.101,-0.256,-0.02,-0.943,-0.028,-0.285,-0.316,-0.143,-0.894,-0.181,-0.572,0.054,-0.322,-0.449,0.022,-0.069,-0.19,-0.166,-1.722,0.207,-0,-0.194,-0.122,0.039,-0.52,0.227,0.172,-0.117],[-0.393,-0.136,0.459,0.12,-0.08,0.571,0.162,-0.377,-0.25,-0.167,-1.411,0.089,0.258,0.532,-0.415,-0.396,-0.136,-0.562,-0.256,-0.254,0.196,-0.62,-0.578,-0.114,-0.191,1.556,0.092,-0.407,-0.073,-0.036]],
"kep": [[0.331,0.231,-0.069,0.194,-0.162,0.218,-0.033,0.232,0.051,0.005,-0.015,0.211,0.06,0.106,0.058,0.277,-0.028,0.379,-0.077,0.024,0.137,0.063,-0.042,-0.102,-0.176,0.023,0.336,0.034,-0.489,0.148],[0.088,-0.159,-0.042,0.249,-0.192,1.117,0.201,0.132,-0.062,0.059,1.362,0.095,-0.083,0.088,-0.128,0.575,0.271,0.124,-0.327,0.203,0.057,-0.04,0.2,0.229,0.007,-0.027,-0.113,-0.02,0.007,0.182],[0.568,0.398,-0.152,0.152,0.196,1.695,-0.06,0.282,0.092,0.111,-0.108,0.95,-0.017,0.268,-0.047,-0.212,-0.431,0.34,0.466,0.531,1.623,0.571,0.547,0.108,-0.077,1.219,0.082,0.275,0.404,-0.098],[1.9,0.929,0.394,0.08,0.401,1.125,-0.082,-0.165,0.369,0.386,-0.007,0.334,0.227,-0.253,0.055,0.118,-0.246,-0.331,0.249,-0.495,1.718,0.929,0.481,0.212,-0.169,0.072,0.115,-0.225,-0.434,0.114],[1.886,1.535,0.755,0.195,-0.016,1.554,0.549,0.413,-0.122,-0.213,0.805,0.63,-0.437,0.688,0.187,4.075,0.69,1.276,0.439,-0.112,1.366,0.461,0.915,0.025,0.157,1.479,1.266,0.944,1.076,-0.143],[3.643,1.828,1.717,0.434,0.372,5.019,1.847,0.194,0.209,0.035,2.261,0.289,1.473,1.405,-0.283,3.384,1.039,0.167,-0.613,0.568,2.751,-0.314,-0.054,0.353,0.017,5.05,1.971,-0.048,0.312,0.3]],
"vp": [[14.38,2.645,9.9,1.865,0.131,0.984,3.888,0.22,1.468,-1.184,1.661,-0.04,-0.511,0.906,1.131,0.204,0.279,0.257,-0.088,0.061,0.084,0.044,0.021,-0.054,0.005,-0.003,0.039,0.056,0.016,0.051],[5.517,12.435,33.056,72.275,3.237,-8.253,-2.157,1.421,9.252,10.798,-2.25,1.012,0.806,0.394,-0.469,0.152,0.352,-0.197,0.39,0.518,0.456,0.034,0.082,0.09,0.081,0.077,0.215,0.147,0.188,0.216],[56.184,3.322,34.167,-29.409,-15.663,-14.583,19.752,0.025,-4.6,8.217,5.052,2.6,1.237,0.647,-0.82,0.674,-0.129,0.778,-0.205,0.826,-0.012,-0.133,-0.479,-0.158,0.275,-0.03,0.183,-0.278,0.05,0.133],[83.931,84.331,97.416,42.686,54.614,9.687,16.053,7.787,-10.853,3.462,18.032,5.817,1.272,0.056,-0.108,1.884,1.982,2.012,-0.451,2.663,0.197,0.68,0.657,0.994,1.081,0.283,0.175,0.306,0.411,-0.12],[147.069,1.589,36.907,103.012,-29.098,18.6,-1.034,17.407,22.194,6.204,8.41,2.946,15.12,-1.426,18.28,1.134,-0.28,0.957,1.722,1.082,1.737,-0.605,0.086,0.605,0.518,-0.053,0.588,-0.348,-0.235,0.106],[42.886,36.379,-127.146,-69.277,37.194,-9.994,-5.658,20.471,18.398,11.988,14.294,-3.878,-6.698,-20.509,18.582,0.832,0.435,3.29,0.943,3.214,-0.231,1.04,1.629,0.37,0.749,-0.77,-0.053,0.521,0.07,0.023]]
}