{
"KTrans": [[-0.893,0.146,1.463,1.095,-0.231,-1.394,-1.09,-0.296,1.082,0.461,-2.287,-1.776,-2.182,-0.88,-0.243,0.866,-1.659,-1.762,-1.685,2.54,36.764,11.502,0.864,7.507,-3.434,-46.216,39.87,34.21,23.883,29.342],[7.098,1.159,1.329,0.568,0.549,0.571,0.634,0.277,0.247,0.182,-2.589,-2.201,0.428,-0.87,-0.309,2.179,-9.695,-3.223,-6.088,-0.724,86.451,-11.572,2.154,-2.556,-2.695,-106.781,24.8,2.064,4.544,-2.909],[3.595,2.635,2.346,1.441,1.121,4.352,2.261,1.848,0.731,1.028,-12.76,2.469,0.851,0.693,0.497,-4.83,-5.486,-2.543,-2.54,-3.233,-6.497,6.359,-4.093,-6.367,-3.368,-4.417,-16.478,-0.732,5.35,-4.647],[-49.292,12.336,3.921,2.606,2.099,-53.194,9.42,3.154,1.933,1.503,-50.514,9.926,1.361,1.124,0.64,-56.617,0.757,-5.288,-0.197,-1.098,-25.418,50.702,-1.964,-3.699,-8.285,-28.763,83.368,0.95,-5.465,4.573],[-74.608,22.96,9.194,4.61,2.328,-75.759,11.453,6.802,4.657,1.829,-76.162,19.647,3.278,2.014,2.515,-65.98,7.713,1.716,-1.027,-1.25,-61.065,0.577,-13.879,-2.115,-3.014,-80.278,5.59,23.639,-1.331,-3.767],[-87.268,22.801,10.422,5.948,3.605,-85.85,31.846,12.276,6.542,3.474,-86.216,32.268,9.346,5.112,4.497,-82.446,-4.085,9.141,3.702,-1.672,-93.464,6.662,-1.112,-4.749,-3.881,-94.299,-21.341,13.14,-12.44,-3.228]],
"ve": [[-0.735,-0.149,-0.377,-0.751,0.947,-0.762,-0.65,-0.039,-0.894,-0.06,-0.845,-0.049,0.67,1.103,1.49,-12.219,16.358,37.963,43.467,9.588,25.053,-13.98,604.982,-47.624,-121.367,-19.578,45.129,-66.054,-26.949,-25.954],[0.277,-0.126,-0.284,-0.373,-0.36,-0.389,-0.443,-0.586,-0.458,-0.299,-2.52,-1.885,-0.679,-0.697,-0.407,-8.062,-6.808,-1.914,-2.382,-0.117,-43.964,-77.992,1.166,0.487,1.668,-54.442,-2.944,-1.172,75.041,245.641],[-3.34,0.247,-0.077,-0.168,-0.259,-3.672,-0.324,-0.371,-0.412,-0.372,-11.583,-0.206,-0.579,-0.593,-0.642,-10.546,-5.854,-2.283,-1.615,-2.101,-45.438,-3.591,-3.516,-4.305,-2.019,-60.447,-34.525,-1.716,17.862,-0.873],[-35.233,2.991,0.457,0.004,-0.142,-50.869,2.101,-0.071,-0.216,-0.287,-49.837,2.154,-0.912,-0.774,-0.599,-50.338,-0.894,-4.499,-1.186,-1.581,-27.212,-19.623,-2.864,-3.356,-5.621,-85.17,-26.142,-12.365,-6.444,1.688],[-69.277,5.319,1.883,0.469,-0.153,-69.558,1.902,1.102,0.567,-0.159,-68.479,3.619,-0.611,-0.365,-0,-45.177,-18.133,-0.884,-1.923,-1.57,-87.901,-13.671,-13.148,-2.649,-2.429,-76.67,-50.543,-17.425,7.965,-4.332],[-82.078,4.882,2.771,1.287,0.399,-72.142,6.976,3.218,1.199,0.165,-75.508,6.464,1.551,1.24,0.721,-70.717,-34.495,2.489,0.982,-2.902,-87.28,-6.085,-13.431,-5.211,-3.583,-111.359,-23.939,-12.598,-23.996,-3.676]],
"kep": [[-0.232,0.381,2.098,2.131,-0.607,-0.84,-0.374,0.033,2.382,1.144,-2.158,-1.754,-2.425,-1.295,-0.463,-12.442,-8.305,-8.034,-7.167,-0.557,-23.264,-12.96,-22.627,-8.994,-30.548,58.772,-28.481,-34.807,-43.492,-16.91],[6.248,1.257,1.615,0.95,0.919,0.291,0.986,0.845,0.702,0.487,-1.212,-0.542,1.034,-0.212,0.088,-35.738,-8.083,-2.936,-4.918,-1.065,-70.233,-22.345,-4.637,-6.043,-5.559,-1.334,-26.828,-22.665,-11.952,-15.984],[2.91,2.257,2.403,1.606,1.38,4.191,2.431,2.187,1.135,1.398,-8.615,2.401,1.353,1.244,1.127,-37.764,-5.555,-1.938,-1.834,-1.812,-55.586,-23.666,-7.968,-6.555,-4.099,-54.979,-26.693,-27.758,-10.946,-11.98],[-44.358,8.562,3.395,2.593,2.236,-61.639,6.617,3.137,2.125,1.782,-61.734,6.772,2.13,1.848,1.218,-66.383,-6.501,-2.898,0.001,-0.23,-60.833,-64.598,-7.813,-4.859,-5.801,-58.393,-51.608,-40.38,-20.109,-6.613],[-85.892,14.656,7.018,4.085,2.474,-83.933,7.442,5.396,4.017,1.974,-81.541,12.599,3.637,2.266,2.483,-67.774,-31.723,0.805,-0.34,-0.346,-78.195,-40.524,-17.107,-4.045,-2.846,-65.964,-62.494,-57.825,-19.865,-10.827],[-93.91,12.485,7.004,4.534,3.176,-85.796,16.927,8.218,5.147,3.275,-90.867,16.256,6.883,3.726,3.693,-79.941,-63.045,4,1.671,0.539,-72.16,-30.667,-29.445,-4.652,-3.285,-79.017,-42.093,-39.072,-45.265,-13.128]],
"vp": [[83.023,30.778,-70.433,-22.768,73.895,18.073,29.19,12.976,-3.332,12.896,14.68,18.732,28.554,13.291,6.703,7.287,8.836,8.454,7.28,-0.825,-4.367,1.804,12.148,-0.056,14.112,6.746,2.146,3.616,6.083,-2.748],[-51.973,-0.954,-12.088,59.712,23.385,1.362,13.716,13.558,19.604,9.17,23.406,36.396,13.291,27.301,13.664,15.445,31.836,13.783,29.261,5.342,43.564,27.79,0.625,9.173,10.356,27.062,-0.573,11.543,4.56,12.681],[306.404,-114.367,-74.876,-20.267,-15.726,67.064,9.352,4.009,9.578,11.529,121.922,-0.885,15.265,14.11,18.238,18.374,24.147,14.181,13.864,23.099,45.103,4.035,11.556,20.768,13.534,29.634,36.642,15.326,0.593,14.579],[3488.031,-635.066,-260.155,-102.256,-65.073,1014.321,-88.562,-7.519,-3.328,4.116,499.103,-42.825,15.017,24.465,22.461,107.019,2.244,26.495,7.76,14.999,24.295,37.755,8.394,13.913,30.896,42.242,25.036,18.336,17.561,-2.706],[6994.053,-1074.494,-598.156,-262.147,-62.365,1406.571,-77.931,-83.76,-67.125,-16.3,682.57,-72.913,19.045,8.317,-15.326,90.112,72.455,3.686,14.274,14.111,83.125,27.605,42.609,9.775,11.655,36.736,51.308,26.615,8.734,12.965],[8370.312,-991.429,-887.78,-639.32,-302.614,1406.59,-279.809,-202.089,-107.489,-36.161,764.699,-129.085,-47.179,-57.828,-46.53,134.36,138.265,-17.903,-12.091,30.04,87.89,13.05,40.149,20.85,17.675,53.909,22.252,17.909,43.971,10.167]]
}