{
"KTrans": [[-3.544,5.546,3.68,-1.202,-2.846,-4.625,24.253,9.974,4.681,18.169,5.32,24.29,12.555,29.617,7.909,33.651,63.546,78.864,71.486,87.996,0.946,61.674,105.8,110.646,133.566,-166.591,-58.57,-18.221,67.765,109.821],[-49.718,-17.139,-0.055,8.761,-0.924,-37.735,-17.753,0.553,9.194,1.966,-41.751,-9.321,2.829,11.324,6.697,-24.042,-0.781,12.353,24.661,31.033,-5.423,-19.561,-8.607,11.918,40.454,-26.229,-27.126,-41.936,-11.25,14.508],[-62.327,-24.794,-19.078,-12.702,-2.816,-58.787,-28.147,-16.765,-12.521,-1.548,-61.691,-25.542,-13.657,-7.888,-1.088,-47.825,-10.283,4.331,2.582,3.765,-32.406,-1.243,6.958,-5.222,-3.164,-13.859,-18.579,27.602,-15.008,-26.262],[-70.307,-36.586,-21.918,-15.261,-12.278,-69.477,-40.588,-21.875,-16.882,-13.266,-64.835,-40.214,-20.707,-10.796,-8.608,-59.957,-20.095,-2.112,3.105,0.949,-50.235,-9.854,13.457,2.263,4.935,-45.669,-23.101,25.965,-3.722,-8.062],[-74.663,-47.99,-25.504,-17.223,-15.633,-74.211,-44.057,-23.711,-17.258,-12.876,-72.129,-41.072,-25.699,-11.922,-9.144,-61.751,-33.493,-4.828,-4.099,3.014,-70.419,-22.231,-3.626,15.176,7.019,-71.12,-17.992,1.462,11.714,22.589],[-80.95,-49.691,-30.17,-21.6,-16.512,-78.229,-49.772,-24.817,-16.921,-13.137,-78.518,-53.484,-29.532,-14.473,-10.527,-74.501,-36.666,-12.993,-0.636,0.387,-69.539,-27.675,5.843,16.577,3.546,-74.319,-35.785,-2.543,5.305,19.689]],
"ve": [[-34.902,-7.503,-70.744,-63.318,-37.501,-20.356,-29.869,3.018,6.835,-21.721,137.231,17.016,1353.05,-44.814,-103.133,55.109,-3.198,-12.29,-35.251,5.617,74.419,29.072,10.042,-25.907,-24.877,210.144,162.711,20.987,-1.19,-13.353],[-7.38,-5.72,54.06,-6.514,-40.511,22.493,6.564,-2.974,32.463,39.381,10.244,29.872,-122.885,-5.579,-18.419,31.925,64.851,14.258,-93.217,-20.745,85.002,46.57,30.877,21.932,23.06,-572.696,126.791,69.232,45.77,23.434],[257.962,4.214,-13.798,23.146,1.295,3.101,-22.074,-55.293,-2.453,1.597,-60.463,15.636,13.939,9.945,6.65,79.065,44.679,7.026,18.502,11.554,84.9,77.049,56.985,18.448,16.312,234.453,116.309,64.123,30.932,41.105],[220.717,-9.61,6.851,-5.879,21.533,-47.445,361.194,10.425,-23.084,-53.935,-5.141,90.776,-1.245,3.088,-0.148,-188.94,19.579,-220.549,17.848,4.473,87.268,40.932,-3118.907,27.427,23.597,184.56,96.34,57.787,43.889,40.237],[16.525,-9.912,-4.792,-6.423,-44.373,11.984,-30.406,-13.544,-6.696,3.236,-10.966,-12.961,-1.513,-4.14,-13.722,180.001,17.607,10.018,5.715,3.594,98.47,-16.802,42.54,22.894,22.437,218.309,87.363,60.762,38.733,33.19],[-12.241,-5.767,-5.723,-4.205,-6.102,19.463,243.952,4.946,-4.095,-2.666,-10.407,156.919,0.43,-0.332,-3.019,37.029,22.053,10.84,9.021,6.993,72.813,23.163,28.847,14.499,19.684,549.316,133.205,67.607,47.958,-78605.53]],
"kep": [[-132.03,-89.577,-56.742,-51.349,-43.375,-122.597,-127.534,-75.879,-35.751,-86.37,-115.43,-116.595,-68.556,-117.719,-32.967,-153.743,-212.437,-185.268,-167.297,-194.073,-175.075,-281.62,-341.989,-372.931,-399.247,-214.399,-384.146,-556.596,-604.322,-713.491],[-96.483,-102.839,-127.352,-102.258,-24.733,-89.43,-106.121,-129.293,-105.06,-31.949,-91.829,-93.962,-133.79,-96.254,-33.919,-91.056,-103.448,-146.467,-150.126,-101.507,-89.001,-132.71,-191.916,-247.838,-219.593,-100.987,-129.799,-199.052,-279.226,-330.785],[-90.565,-64.375,-81.843,-115.798,-124.972,-88.609,-72.225,-75.542,-117.703,-126.272,-91.459,-68.259,-76.361,-107.622,-134.044,-91.406,-72.71,-62.272,-103.982,-169.396,-88.568,-73.695,-76.217,-125.801,-190.393,-88.827,-91.56,-85.543,-136.78,-207.791],[-91.878,-62.177,-54.444,-55.275,-78.017,-92.609,-70.764,-57.323,-62.077,-86.68,-88.889,-73.209,-53.958,-51.113,-70.766,-92.477,-64.623,-49.647,-49.15,-68.492,-90.103,-70.997,-49.752,-69.066,-79.483,-91.832,-85.252,-57.802,-83.971,-106.077],[-92.585,-72.532,-47.929,-44.418,-50.854,-91.839,-67.102,-48.812,-44.376,-44.232,-91.237,-67.453,-52.137,-38.28,-42.332,-90.232,-70.078,-43.39,-41.193,-34.967,-96.658,-70.694,-54.995,-35.368,-50.574,-98.235,-76.726,-65.603,-57.402,-57.614],[-94.847,-68.801,-48.108,-43.845,-40.634,-92.811,-71.114,-45.442,-35.721,-35.066,-93.879,-75.962,-51.903,-33.919,-33.836,-95.722,-67.532,-47.062,-33.895,-32.268,-95.767,-70.601,-43.682,-28.292,-45.575,-96.531,-82.198,-66.168,-59.218,-43.105]],
"vp": [[-9.592,-95.655,121.341,402.564,-56.097,-8.668,-45.793,144.247,138.304,14.641,-44.026,15.672,-20.658,65.327,11.528,-6.196,-26.626,-10.617,-15.882,-27.567,-3.826,-19.974,-1.382,4.616,-9.902,-14.059,-11.259,-6.175,-10.182,-13.38],[2878.491,846.375,-547.46,40.481,-96.262,499.664,347.584,-37.933,-121.426,-146.583,268.046,75.143,-58.522,-101.991,15.834,12.506,13.785,-8.046,-18.772,-20.521,1.727,3.667,-14.937,-2.205,-2.74,-5.702,-5.121,-5.768,-16.189,-9.472],[5226.453,2137.778,2001.417,366.682,684.338,796.335,671.597,289.928,115.417,-13.963,456.358,346.333,227.537,47.544,23.27,90.458,82.858,14.555,16.54,-31.443,20.096,17.94,10.112,4.12,-0.043,16.775,1.908,-5.024,-11.72,-10.941],[5887.34,5471.53,3883.183,2922.369,1424.268,1322.894,1300.921,821.453,348.91,452.648,547.748,606.928,263.374,166.634,161.224,101.594,97.395,77.347,38.125,6.035,34.197,51.292,29.111,19.393,4.243,2.233,12.919,-2.424,-5.966,-9.091],[7025.405,8385.369,4874.478,2644.63,2172.307,1156.704,1515.593,996.896,613.575,410.288,619.062,705.557,599.082,292.481,241.668,99.522,142.043,116.875,57.292,33.947,50.487,74.453,61.333,13.942,27.288,14.422,10.05,4.012,-17.778,0.682],[6536.589,9214.039,6874.175,5082.476,3806.349,1410.292,2001.725,1606.349,992.384,732.343,660.497,877.107,706.946,525.41,253.091,124.695,165.459,144.402,89.197,53.246,55.647,81.583,65.901,57.562,56.734,9.241,34.471,30.97,21.411,-5.622]]
}