{
"KTrans": [[2.4,2.004,4.152,2.738,0.586,5.145,13.198,10.731,11.6,10.209,8.16,23.566,23.357,22.691,21.935,-7.111,74.62,91.831,97.63,93.683,-66.69,25.089,116.826,149.81,154.452,-187.762,-125.86,-26.808,93.888,125.001],[-10.939,-4.162,0.492,1.765,1.259,-5.85,2.343,0.977,4.193,4.027,4.915,9.932,4.239,9.299,8.283,74.346,63.655,-2.057,28.989,38.602,122.869,62.193,-37.608,19.497,52.049,-61.864,-81.809,-112.738,-45.275,33.855],[-23.625,-2.671,-1.33,-1.896,-0.017,-9.95,0.302,2.223,1.582,0.833,-6.023,5.432,8.78,4.559,2.082,57.942,62.052,49.635,37.729,3.213,2.168,123.528,105.994,12.33,-20.908,-9.258,54.38,24.71,-38.82,-49.878],[-28.178,-3.201,-1.554,-0.75,0.14,-26.79,0.037,1.462,1.692,1.604,-12.856,3.372,3.672,5.939,4.645,22.3,57,47.705,36.315,38.435,-10.15,106.003,99.611,77.471,66.027,-41.904,95.321,136.72,123.444,123.604],[-38.897,-7.44,-2.637,-0.911,-1.094,-29.693,-0.976,0.289,0.477,2.063,-28.337,3.29,4.632,4.007,4.584,-11.911,49.789,38.64,33.057,30.248,-29.865,91.219,83.616,74.649,62.954,-146.137,88.914,144.403,155.264,101.454],[-43.821,-7.086,-1.934,-0.24,-0.668,-42.124,-5.458,1.508,0.272,0.929,-33.66,-1.421,2.382,3.67,3.203,-21.715,40.302,38.055,28.589,27.393,-43.905,73.464,80.76,55.999,55.965,-64.416,-24.643,78.49,157.609,131.521]],
"ve": [[4.469,2.755,-104.816,-432.701,3.912,-0.398,-7.617,7.782,167.132,-1.423,13.32,10.768,38.501,74.692,18.693,44.545,2.266,-370.678,68.335,-34.64,98.942,31.585,-11.044,-35.638,-54.087,193.973,81.445,31.393,3.926,-15.667],[-0.86,-3.073,-1.076,8.439,8.456,3.068,-0.905,7.535,5.391,5.571,7.092,3.538,6.354,10.891,9.19,46.45,23.543,15.877,-4.935,37.027,99.705,47.864,31.024,18.619,11.786,206.062,114.689,67.25,47.415,29.668],[-1.248,-1.087,-0.521,0.345,-3.183,3.605,1.374,0.697,0.797,-0.098,8.185,4.335,3.377,3.699,1.416,-211.401,24.323,18.226,17.557,5.68,98.685,47.169,21.752,26.819,20.046,191.858,106.799,68.224,50.429,38.622],[-0.914,-0.166,0.08,-0.363,-0.533,2.737,2.275,1.064,0.911,0.421,7.427,4.492,2.686,2.476,1.552,17.894,23.878,16.729,12.65,10.568,100.504,48.594,32.439,25.986,19.545,195.813,98.948,70.539,50.635,44.587],[-2.242,-0.128,0.052,-0.02,-0.151,2.053,1.67,1.26,0.941,0.868,4.399,4.356,2.729,2.487,1.749,47.638,24.199,16.565,12.369,10.288,96.758,47.399,32.564,24.906,19.672,204.645,101.301,57.266,43.485,37.846],[2.875,0.158,0.235,0.195,-0.091,1.491,2.532,1.481,1.076,0.85,6.59,4.485,2.568,2.49,1.857,48.826,24.882,16.93,12.523,10.371,99.036,46.661,32.861,24.231,20.026,190.972,101.216,65.78,47.006,23.475]],
"kep": [[-119.96,-12.704,-7.914,-7.569,-6.886,-126.374,-30.175,-12.138,-14.555,-18.452,-130.783,-58.704,-37.273,-38.861,-44.491,-186.197,-220.55,-177.601,-190.632,-170.405,-183.802,-448.225,-378.201,-342.449,-351.876,-174.58,-470.584,-691.904,-693.323,-778.984],[-23.368,-29.783,-124.64,-11.303,-7.312,-24.145,-12.406,-127.858,-20.928,-11.02,-17.488,-0.395,-121.307,-44.472,-16.916,4.53,32.954,-184.446,-179.893,-97.295,-10.945,-24.916,-233.018,-306.608,-215.636,-99.095,-143.415,-255.169,-350.165,-367.115],[-34.392,-8.948,-7.764,-24.83,-124.102,-23.599,-7.064,-4.112,-11.581,-120.223,-22.623,-2.123,8.418,-12.056,-126.127,-8.491,32.624,40.29,46.768,-151.446,-63.603,40.58,65.242,-76.406,-243.648,-79.782,-44.481,-67.522,-144.382,-226.154],[-39.061,-6.003,-3.653,-5.015,-5.3,-39.96,-6.383,-1.589,-2.137,-2.314,-29.065,-6.133,-2.2,3.958,2.855,-29.931,23.279,32.525,32.479,62.211,-66.777,27.028,54.446,57.562,67.99,-87.801,-16.138,25.289,49.85,81.884],[-47.604,-11.074,-5.298,-3.173,-4.568,-41.826,-5.662,-3.834,-2.536,0.482,-44.005,-5.041,-0.343,0.021,1.709,-51.258,14.222,18.501,23.059,31.947,-75.578,17.352,35.452,48.018,52.866,-113.84,-20.777,39.441,64.512,45.551],[-51.944,-9.925,-4.645,-1.341,-2.482,-52.738,-11.786,-1.269,-1.971,-1.217,-48.654,-10.173,-2.266,0.061,0.13,-58.275,6.085,16.718,16.445,21.479,-78.524,2.144,31.399,26.063,36.508,-90.826,-74.032,-7.739,71.57,72.88]],
"vp": [[-109.719,16.35,88.213,-123.079,-1.678,-9.179,-15.442,2.579,7.482,23.917,-24.817,-10.322,0.32,25.908,-29.597,3.266,-7.222,-7.01,-2.142,-9.431,-10.916,1.969,-3.488,-13.081,-14.763,-11.654,-5.653,5.585,1.428,2.342],[1390.983,352.467,54.282,-61.249,139.185,286.76,74.129,35.913,53.778,0.308,128.341,3.579,-12.201,-25.76,-5.253,5.967,8.145,1.232,-1.668,-9.55,1.14,1.71,-3.439,-4.255,11.537,5.549,-9.916,3.11,3.481,-1.563],[2989.752,621.149,448.163,520.474,-107.02,752.343,194.066,112.694,42.343,-3.374,375.827,40.086,35.728,40.364,-39.667,51.693,0.541,11.801,-8.181,-5.42,21.912,1.269,1.703,1.313,-1.045,0.75,-7.936,-2.683,-5.635,-14.3],[5156.217,1186.423,415.827,371.959,154.743,955.948,323.34,111.162,116.246,24.609,483.155,109.398,7.352,47.943,-7.09,91.719,33.174,-0.12,-2.028,6.188,41.283,11.641,-1.661,-5.707,0.383,19.758,-5.577,5.729,-15.027,-10.231],[5932.49,2624.841,657.862,126.11,73.703,1263.007,646.706,159.984,142.653,88.685,606.929,317.387,92.574,81.155,39.004,103.401,59.627,30.524,0.468,-2.613,63.496,24.742,8.716,-1.493,-11.338,8.92,4.069,-17.982,13.331,-8.658],[6744.52,4209.985,1339.163,930.723,384.935,1302.864,949.123,356.727,97.237,85.932,687.098,455.712,128.574,63.305,28.887,133.076,83.534,39.635,7.294,7.383,47.834,63.649,16.627,-12.15,5.601,18.406,19.062,5.356,-7.874,0.117]]
}