{
"KTrans": [[1.879,0.671,0.252,0.162,0.098,-0.302,-0.549,0.093,-0.171,-0.739,-2.988,-1.154,-1.241,-1.135,-1.264,-14.533,-6.359,-5.513,-5.23,-2.633,11.195,-4.627,-8.777,-0.685,-5.97,24.843,-6.62,-11.879,-2.405,-0.069],[2.181,0.854,0.522,0.354,0.238,1.524,0.626,-0.038,0.069,0.072,-2.128,-0.783,-0.07,-0.425,-0.248,-18.59,-4.666,-2.323,-4.182,-1.554,-15.02,-13.083,-4.831,-6.807,-5.441,10.851,-2.561,-14.289,-5.667,-5.086],[-0.609,1.136,1.141,0.507,0.469,-3.891,1.803,0.701,0.279,0.434,-3.799,-0.227,0.289,0.153,0.211,-24.258,-6.022,-5.584,-2.151,-2.678,-12.814,-15.495,-7.85,-8.248,-5.149,15.107,-20.868,-9.766,-5.554,-10.906],[-13.209,3.265,1.604,1.067,0.872,-5.075,1.299,2.02,0.711,0.341,-15.864,2.615,1.046,0.886,0.232,-41.596,-6.986,-4.994,-2.251,-1.842,-38.052,-14.964,-4.217,-6.559,-7.198,-45.827,-28.43,-21.79,-8.18,-17.025],[-32.947,5.87,3.134,1.993,1.191,-41.332,6.065,2.737,1.895,0.992,-33.741,6.665,2.839,1.257,1.004,-49.682,-8.013,-6.057,-2.524,-0.226,-54.24,-15.569,-9.816,-4.315,-4.453,-48.196,-17.236,-32.168,-15.154,-5.105],[-55.872,7.826,4.463,2.739,1.587,-63.078,8.947,3.284,2.226,1.709,-56.864,4.746,3.4,1.758,0.825,-66.516,-7.678,-4.08,-1.56,-2.551,-56.219,-36.733,-4.124,-7.37,-3.17,-74.086,-14.037,-12.012,-17.391,-11.604]],
"ve": [[-0.004,-0.409,0.022,-0.116,-0.093,-0.608,-0.148,-0.385,0.081,1.216,-0.648,0.119,0.136,1.065,2.208,-4.633,2.242,6.679,13.008,14.512,47.389,35.735,-97.649,-110.666,48.133,-30.293,-74.72,-31.478,-111.338,-114.098],[0.153,-0.064,-0.068,-0.16,-0.168,0.103,-0.305,-0.38,-0.274,-0.252,-1.697,-0.661,-0.25,-0.431,-0.219,-12.146,-2.666,-1.25,-1.239,-0.313,-25.933,-7.467,-1.657,-1.724,-0.544,-27.285,-9.884,-3.588,1.042,3.018],[-1.937,-0.113,-0.086,-0.247,-0.206,-3.078,0.144,-0.314,-0.193,-0.196,-3.873,-0.905,-0.498,-0.364,-0.313,-18.289,-4.343,-3.317,-1.184,-1.224,-32.968,-10.13,-4.586,-4.206,-2.212,-41.502,-10.494,-6.017,-2.586,-4.424],[-7.551,0.295,0.104,0.075,-0.035,-4.705,-0.343,0.106,-0.273,-0.185,-9.325,0.113,-0.262,-0.122,-0.296,-38.606,-4.868,-3.66,-1.547,-1.213,-55.25,-9.423,-2.272,-3.861,-3.822,-47.306,-35.293,-14.669,-4.877,-9.343],[-21.218,1.464,0.583,0.121,0.032,-26.722,1.685,0.455,0.186,-0.179,-22.499,1.224,0.347,0.01,-0.307,-48.038,-6.698,-4.53,-1.97,-0.564,-54.513,-10.834,-6.676,-2.557,-2.579,-83.223,-22.024,-23.163,-9.258,-2.887],[-38.077,2.273,0.882,0.42,0.066,-45.955,1.845,0.353,0.224,0.034,-40.413,-0.238,0.142,-0.047,-0.276,-58.307,-5.93,-3.14,-2.015,-2.329,-52.88,-30.243,-2.956,-5.098,-2.111,-56.511,-27.433,-11.991,-11.421,-7.054]],
"kep": [[1.857,1.14,0.353,0.452,0.445,0.209,-0.319,0.598,-0.018,-1.454,-2.547,-1.217,-1.183,-1.79,-2.813,-15.414,-8.347,-9.05,-10.489,-7.436,-10.218,-13.918,-20.385,-9.206,-20.828,-56.684,-50.112,-45.351,-37.538,-38.332],[1.886,0.902,0.593,0.519,0.411,1.187,0.915,0.34,0.342,0.33,-0.805,-0.174,0.164,-0.007,-0.03,-15.028,-3.348,-1.62,-3.317,-1.384,-46.164,-11.319,-5.499,-6.279,-5.489,-56.941,-20.345,-19.383,-10.343,-9.128],[0.878,1.231,1.221,0.756,0.675,-1.529,1.608,1.004,0.469,0.631,-0.734,0.616,0.757,0.513,0.519,-23.762,-3.025,-3,-1.318,-1.704,-63.881,-12.053,-5.922,-5.7,-3.75,-68.582,-35.84,-13.959,-7.342,-10.289],[-7.979,2.877,1.49,0.989,0.905,-1.923,1.561,1.901,0.98,0.523,-9.226,2.354,1.273,0.997,0.523,-54.948,-3.779,-1.94,-1.033,-0.859,-76.536,-12.326,-4.127,-4.051,-4.361,-62.786,-60.444,-18.622,-8.818,-12.123],[-19.523,4.18,2.517,1.865,1.156,-26.624,4.102,2.233,1.692,1.168,-24.932,5.075,2.436,1.229,1.303,-72.435,-3.084,-2.205,-0.82,0.152,-73.832,-16.24,-5.905,-2.936,-2.881,-73.67,-52.276,-26.92,-12.239,-5.365],[-41.207,5.241,3.513,2.301,1.518,-50.58,6.484,2.855,1.973,1.669,-49.873,4.367,3.14,1.775,1.093,-78.407,-3.997,-1.619,0.122,-0.446,-73.691,-37.511,-3.283,-3.611,-1.941,-68.496,-66.49,-20.724,-13.013,-8.831]],
"vp": [[-17.655,1.497,-4.432,-6.14,7.774,7.382,16.345,9.293,9.614,10.639,12.462,6.184,11.843,11.93,11.603,17.648,11.954,12.009,12.851,6.205,-2.552,7.424,11.959,3.352,9.372,8.921,14.392,13.013,8.643,7.635],[-2.73,-12.778,-13.243,-1.164,20.384,-6.756,8.032,23.043,12.127,14.025,17.612,12.898,6.481,14.026,10.594,24.518,10.71,8.187,15.3,6.307,19.939,16.745,7.563,13.372,12.528,13.202,6.701,16.147,7.628,8.314],[169.601,9.919,-28.447,52.42,29.037,63.943,-5.423,9.6,6.558,4.849,34.217,13.528,9.233,7.92,12.333,36.614,17.301,20.273,10.271,13.435,33.127,20.958,14.439,19.266,13.78,20.007,19.776,10.746,6.688,16.341],[783.408,-89.608,-64.194,-36.972,-29.024,91.268,11.314,-18.694,12.905,10.068,95.25,-2.961,5.365,0.058,7.436,78.843,19.768,21.96,11.624,11.891,56.123,18.711,6.084,15.861,21.216,23.16,35.968,23.689,10.42,26.928],[2126.899,-316.283,-219.245,-90.265,-101.75,537.113,-74.312,-29.804,-36.842,4.343,222.491,-28.361,-12.375,-3.398,11.684,95.652,26.7,27.178,14.936,4.237,55.14,21.337,20.421,9.757,12.707,42,21.635,36.815,19.525,7.004],[3841.896,-504.512,-322.25,-220.895,-88.833,922.012,-79.15,-28.087,-26.51,-13.345,405.116,3.046,-7.372,-4.945,5.966,119.033,23.132,18.678,15.109,21.996,52.137,63.256,8.144,20.613,10.039,27.444,27.575,12.069,23.715,18.11]]
}