{
"KTrans": [[0.587,4.181,1.65,4.399,6.32,-3.111,22.294,9.339,7.611,6.552,11.477,9.944,13.251,16.031,9.153,100.513,105.067,86.533,69.271,60.424,-5.094,98.508,168.024,133.667,134.812,72.738,276.954,81.054,79.424,151.376],[-39.014,9.723,5.886,3.339,3.362,-39.646,0.66,8.333,8.8,5.718,-29.017,15.419,9.089,11.281,8.401,-17.047,72.862,41.381,38.716,35.959,-3.412,21.352,102.942,88.588,75.139,68.243,-14.93,29.553,143.665,132.698],[-70.816,8.214,-0.045,4.98,4.213,-65.905,8.644,7.463,4.57,7.009,-57.873,13.429,14.886,10.842,9.441,-66.059,54.4,50.712,34.106,31.466,-35.194,6.543,62.114,94.005,65.75,12.169,21.074,51.348,96.424,111.988],[-77.299,-5.515,4.574,5.447,2.401,-87.388,-4.083,14.943,7.458,6.179,-84.603,3.95,11.339,9.683,9.17,-66.997,23.157,59.411,37.277,27.324,-60.937,-23.869,40.016,91.378,59.903,-51.55,-0.132,25.331,54.311,120.788],[-90.614,-16.495,8.889,7.286,5.43,-90.267,-25.195,8.409,9.95,5.722,-86.849,-18.377,14.634,12.198,8.884,-104.285,-2.182,51.341,37.259,29.541,-71.724,-23.916,40.172,71.861,69.606,-47.787,12.786,13.806,15.901,101.682],[-97.099,-31.209,0.267,12.372,7.469,-91.569,-34.413,6.051,6.961,7.121,-95.56,-33.312,14.435,9.718,12.173,-83.935,-26.733,20.188,36.684,31.194,-71.138,-43.995,5.932,41.583,78.941,-54.107,-27.752,31.82,-2.607,67.696]],
"ve": [[52.463,28.245,14.131,44.03,20.064,21.204,17.152,13.922,41.825,133.421,5.945,88.613,-7.789,25.271,81.166,52.593,24.703,5.153,-0.536,-9.165,98.092,35.599,6.524,-3.839,-16.918,200.945,72.281,36.397,8.56,-3.516],[20.013,-0.304,0.109,1.711,1.774,13.988,2.626,0.758,0.519,0.339,24.47,5.216,2.912,1.412,0.732,53.592,28.09,13.242,9.865,5.935,103.96,49.981,33.377,19.408,13.134,203.726,97.129,57.955,40.648,81.785],[-4.286,2.291,0.239,0.077,-0.148,13.437,5.26,0.928,0.796,0.845,16.377,7.964,4.096,2.273,1.354,54.124,27.175,17.334,11.397,8.087,102.732,51.442,32.958,24.421,17.33,206.61,102.255,80.451,48.14,38.886],[-7.868,3.517,0.572,0.903,1.504,8.402,3.981,2.727,2.094,0.483,15.358,7.666,3.629,2.104,1.156,55.485,25.996,16.181,11.829,8.812,107.777,52.911,34.078,24.061,18.093,212.324,100.744,65.154,49.286,37.837],[24.72,4.362,0.767,-0.175,-0.288,-2.589,3.612,2.266,1.65,0.298,21.589,11.123,4.897,2.718,1.839,68.447,11.39,17.602,12.616,9.698,96.818,51.734,35.738,22.962,19.15,179.543,96.94,66.383,41.449,41.969],[0.768,3.305,0.521,0.453,-0.173,8.55,3.273,2.655,1.341,2.182,7.288,2.944,4.579,2.814,2.21,48.997,24.687,15.874,11.618,9.327,106.357,53.548,34.625,24.63,19.064,203.9,104.862,66.562,49.45,39.11]],
"kep": [[-6.372,1.565,-6.154,4.126,15.876,-16.764,26.15,13.248,11.116,11.921,-7.2,6.108,12.545,23.623,16.263,29.408,77.593,88.795,86.478,91.786,-41.178,44.106,141.527,143.494,180.272,-14.527,126.773,38.468,52.103,152.29],[-45.978,11.245,6.904,2.589,2.653,-49.437,-0.694,8.644,10.031,6.401,-40.879,10.93,6.66,10.495,8.328,-45.968,34.883,25.529,27.088,29.611,-48.079,-15.279,51.599,58.494,55.531,-33.851,-44.693,-13.494,69.909,76.829],[-75.735,6.403,0.539,5.4,4.842,-69.597,3.087,7.071,4.082,6.432,-67.882,5.958,10.919,8.925,8.321,-78.265,21.69,28.187,20.474,22.153,-63.687,-24.46,21.878,54.871,41.03,-57.415,-30.779,-3.496,32.091,53.037],[-81.039,-8.459,4.161,4.893,1.157,-90.428,-7.654,12.33,5.754,5.936,-88.883,-3.494,8.074,7.562,8.243,-77.924,-3.778,37.036,22.835,17.019,-78.528,-46.382,4.559,52.624,34.936,-78.912,-42.511,-16.947,7.097,57.708],[-92.548,-19.54,8.269,7.901,6.081,-93.116,-29.237,6.19,8.229,5.603,-89.988,-25.019,9.721,9.528,7.112,-102.008,-22.177,27.318,21.793,17.963,-84.244,-46.346,4.303,38.182,41.234,-79.181,-39.028,-26.57,-17.407,43.873],[-98.782,-33.437,-0.224,11.912,7.799,-93.529,-37.767,3.094,5.48,5.02,-97.396,-38.262,8.694,6.83,9.804,-88.525,-41.818,2.513,22.062,19.915,-84.511,-59.428,-18.527,13.77,48.225,-81.854,-59.646,-16.708,-29.643,20.746]],
"vp": [[997.61,106.831,-64.172,54.419,87.433,385.053,108.315,-23.462,-43.409,-5.178,98.228,-15.731,-32.983,-54.314,-5.526,7.217,-7.43,-17.308,-12.956,-12.795,-2.865,-16.853,-17.763,-15.318,-14.137,-5.934,-35.788,-23.034,-18.699,-18.379],[5398.927,1424.416,277.542,577.779,262.337,1111.536,158.104,97.772,153.675,-22.509,533.604,125.333,-0.155,4.627,40.739,88.556,29.909,-35.947,-11.519,-12.648,23.851,6.731,5.658,-27.954,-0.756,-1.048,-22.831,-17.669,-20.25,-13.6],[7702.663,5437.637,1276.128,597.777,794.67,1461.006,831.546,217.754,58.911,16.693,714.134,440.032,213.071,117.927,64.661,149.684,96.775,20.697,-14.829,1.673,59.382,26.598,6.752,-1.418,-6.679,12.928,-8.429,-21.667,-9.911,-10.618],[8292.387,8460.001,2813.209,1562.074,1140.788,1580.753,1602.418,875.856,276.825,207.662,861.068,965.346,379.213,104.034,67.417,160.592,175.795,58.647,0.391,-7.436,82.819,58.657,44.413,-0.07,-11.433,52.469,6.879,-19.214,-34.053,-7.427],[8959.841,12084.853,6899.978,2114.659,1664.49,1755.453,2280.366,1318.075,325.988,328.865,795.023,1114.674,698.591,256.689,177.111,188.998,198.119,134.129,16.271,7.592,76.214,103.565,57.211,-24.346,3.43,21.206,2.795,2.183,-7.753,-10.326],[9153.494,13609.311,10740.977,5501.957,1088.839,1759.01,2654.679,2230.44,901.927,525.957,868.956,1359.881,1100.775,519.579,193.404,154.342,276.185,211.061,75.548,0.583,74.405,122.568,84.05,20.399,-10.405,26.905,40.832,22.783,7.877,-11.545]]
}