{
"KTrans": [[-52.02,-65.089,-77.36,-63.905,-63.618,-27.156,-58.799,-55.347,-53.193,-60.965,-14.044,-40.786,-54.257,-51.978,-43.269,70.328,21.181,17.206,22.341,20.101,142.173,58.596,40.95,40.346,57.027,291.409,189.685,141.47,138.967,136.537],[-51.296,-42.356,-60.449,-57.706,-57.194,-49.63,-32.933,-27.875,-59.183,-49.886,-48.31,-30.007,-29.053,-37.273,-41.547,-26.241,3.79,24.979,-0.836,-5.737,-10.18,16.807,50.299,18.852,9.113,-2.356,28.622,92.366,50.933,22.717],[-65.93,-50.04,-46.407,-41.559,-49.806,-68.848,-39.643,-35.037,-42.021,-41.16,-64.094,-37.798,-34.012,-28.191,-15.002,-55.779,-14.237,0.632,4.552,12.083,-46.199,-5.358,3.584,9.279,26.196,-36.133,-0.14,14.868,19.001,59.971],[-76.153,-43.765,-46.865,-53.44,-46.447,-78.035,-47.65,-44.165,-46.645,-36.097,-74.707,-41.679,-33.922,-37.043,-38.461,-69.806,-23.504,-7.006,-3.327,1.004,-68.174,-13.47,1.025,3.657,5.441,-57.081,-11.146,8.364,7.949,11.372],[-84.907,-49.942,-42.807,-52.783,-50.345,-81.151,-50.09,-34.627,-39.91,-43.163,-82.502,-50.154,-47.551,-41.473,-42.672,-78.063,-37.182,-9.263,-6.147,-6.717,-71.858,-36.53,-4.223,0.492,3.61,-65.851,-28.613,-0.035,1.374,6.222],[-86.594,-58.711,-43.015,-47.833,-38.533,-84.835,-56.254,-39.055,-39.171,-40.005,-84.073,-54.511,-43.863,-38.988,-31.612,-80.89,-52.004,-17.226,-13.5,-13.433,-76.72,-49.074,-8.086,-0.967,-1.168,-68.229,-48.81,-12.571,5.137,7.322]],
"ve": [[-37.787,-1060.071,-4.868,-139.283,514.11,-35.056,-40.486,-32.755,-121.243,215.898,-21.428,-39.21,-15.738,-30.44,-45.64,62.981,2.353,6.296,136.58,-34.559,109.061,31.39,-1.78,-59.711,-37.027,290.351,-7.744,85.436,28.88,-103.793],[-95.832,-52.16,-54.355,-39.285,-16.863,-47.755,-30.065,-29.221,-35.182,-41.634,-47.603,-57.873,-27.474,-28.767,-5.376,6.99,23.567,38.327,-4.556,-7.448,36.719,23.679,27.608,16.067,-61.483,71.687,31.013,87.696,23.36,4.011],[-5.492,-99.341,-72.407,-48.688,-49.073,-36.963,-62.309,-54.369,-59.386,-42.25,-19.936,-62.736,-47.623,-35.512,-15.116,45.362,-10.294,-1.873,7.241,11.147,32.089,-0.189,-1.79,7.462,28.494,82.416,9.086,12.409,24.3,63.03],[-23.213,-74.68,-103.311,-93.384,-64.767,-11.356,-87.489,-92.011,-85.17,-51.733,-5.566,-86.396,-65.585,-63.81,-61.932,28.286,-7.911,-13.547,-5.971,-1.116,-5.051,0.005,-0.292,-30.069,-0.209,83.146,5.014,4.719,15.741,3.798],[-1.477,-54.175,-91.143,-115.038,-88.883,3.552,-87.618,-72.869,-80.943,-74.489,30.76,-43.577,-124.075,-90.186,-78.818,40.129,-17.431,-11.774,-7.275,-11.752,162.565,-13.95,-0.174,0.596,0.96,106.048,-1.424,2.613,1.537,2.648],[8.101,-37.058,-101.891,-122.349,-77.998,22.338,-58.466,-86.096,-94.562,-79.838,21.883,-54.556,-113.925,-96.452,-62.811,38.531,-18.39,-26.304,-29.941,-28.251,102.481,-17.633,-3.803,-0.056,-0.639,180.334,-6.512,-4.512,1.97,2.822]],
"kep": [[-128.605,-3.517,-7.854,-25.962,-9.1,-125.233,-28.578,-19.37,10.062,-13.209,-147.55,-0.49,-10.269,-6.596,-4.015,-144.316,-48.016,-28.166,-34.272,-37.868,-137.122,-56.647,-21.842,-18.767,-42.494,-131.861,-98.771,-52.239,-58.171,-53.352],[-63.127,-47.692,-128.108,-11.177,3.461,-58.611,-54.33,-133.137,-16.349,2.359,-60.225,-42.261,-129.335,-20.769,-7.117,-56.801,-37.998,-151.375,-22.659,-2.98,-47.929,-25.036,-146.185,-51.085,-24.846,-52.201,-18.992,-127.978,-72.89,-27.255],[-78.224,-19.954,-17.59,-34.353,-135.522,-74.937,-27.675,-15.273,-41.541,-140.762,-75.581,-20.582,-20.256,-43.766,-146.702,-74.645,-17.197,-0.419,-40.547,-133.391,-68.252,-11.412,-1.723,-14.452,-132.886,-70.165,-16.017,1.987,-15.868,-150.906],[-85.237,-21.814,-8.38,-5.324,-11.086,-86.86,-27.987,-12.46,-2.757,-12.523,-87.183,-22.847,-9.4,-6.219,-15.457,-85.131,-25.558,-5.53,-8.036,-3.458,-85.508,-20.822,1.775,-3.384,11.525,-80.839,-22.4,2.719,2.694,14.963],[-94.369,-37.801,-13.053,-4.572,-3.49,-93.162,-33.001,-13.327,-5.925,-9.684,-90.101,-42.764,-7.061,-4.91,0.417,-90.096,-35.328,-6.788,-6.333,-5.33,-91.025,-32.16,-6.575,-2.072,0.941,-86.673,-33.297,-6.469,-2.877,2.659],[-95.424,-50.618,-15.369,-5.509,-4.464,-95.272,-47.407,-17.424,-7.178,-7.035,-95.448,-44.229,-14.475,-5.339,-6.194,-94.512,-47.3,-13.304,-3.035,-2.852,-95.032,-46.817,-7.827,-2.969,-2.511,-93.315,-49.249,-11.505,2.065,5.323]],
"vp": [[194.325,132.721,-330.416,41.943,-171.161,-4.308,6.611,30.543,-4.081,-25.284,-16.339,10.982,-9.056,-16.795,2.316,-1.072,-4.602,-3.26,-7.884,-5.879,-3.323,-3.515,-0.827,-2.306,-7.569,-5.338,-5.12,-2.575,-2.227,-3.918],[2294.844,747.668,-217.952,-229.389,41.452,376.103,160.281,33.883,-43.587,5.936,167.922,51.618,-15.734,-23.588,3.279,35.491,6.263,-6.351,-5.68,-4.478,5.89,-1.79,-3.979,-6.154,-4.064,7.078,-1.175,-4.441,-4.084,-3.919],[3949.828,1074.543,614.919,553.856,-79.524,826.629,299.19,155.506,32.374,-68.792,408.307,148.14,66.115,59.442,17.009,73.407,23.199,3.29,1.14,-5.752,32.077,7.532,4.885,-4.494,-7.095,15.541,0.614,-4.841,-3.742,-5.137],[5358.28,2407.877,430.53,131.372,88.117,1169.645,367.239,153.67,9.21,41.288,515.589,131.443,109.928,64.211,11.259,108.368,41.978,7.514,0.741,4.229,53.721,12.82,2.403,-3.721,-3.841,21.895,4.476,-3.59,-4.056,-5.678],[6560.972,3907.629,1745.827,347.312,426.761,1259.95,585.963,343.932,149.932,88.452,635.61,463.051,122.08,22.443,-5.461,122.477,74.405,17.134,11.436,0.685,59.384,39.187,4.954,-1.003,-3.859,27.549,13.738,1.163,0.61,-5.394],[7065.494,5894.728,2282.615,623.781,1062.045,1402.764,995.154,430.669,206.079,142.889,676.665,499.428,168.276,99.311,87.348,136.922,109.953,18.908,10.134,0.676,68.729,53.2,14.681,2.725,5.705,31.212,28.586,9.821,-3.263,-6.924]]
}