{
"KTrans": [[5.158,12.031,13.437,11.307,13.531,6.591,19.228,14.343,14.541,11.712,13.614,11.736,13.779,13.087,15.431,32.73,22.064,19.978,16.865,18.644,38.921,37.952,35.274,34.006,32.705,82.513,70.152,59.466,56.223,52.973],[-36.959,-3.892,0.999,3.667,7.121,-39.093,-4.58,-2.06,5.828,7.986,-38.49,-7.75,4.637,5.925,6.599,-27.552,-5.729,4.389,7.672,11.133,-29.546,5.246,12.261,14.678,14.979,-13.775,16.929,26.029,26.088,26.386],[-72.383,-26.415,-8.707,-2.665,2.162,-68.069,-28.264,-11.823,-3.024,3.298,-71.415,-22.909,-11.534,-3.221,-0.485,-68.341,-25.648,-7.14,0.559,2.075,-53.942,-17.864,-6.042,1.978,6.102,-49.148,-17.752,-2.062,9.869,10.831],[-85.71,-42.417,-25.41,-13.937,-8.872,-81.595,-42.236,-21.69,-15.787,-8.244,-80.733,-45.138,-26.602,-12.156,-5.12,-79.196,-42.564,-21.611,-11.13,-4.451,-73.085,-39.995,-18.517,-8.651,-1.353,-68.829,-38,-18.87,-4.524,2.056],[-88.453,-56.597,-38.282,-23.468,-13.766,-88.506,-53.958,-32.957,-25.49,-15.797,-87.618,-56.11,-35.681,-21.928,-16.09,-86.789,-54.213,-33.447,-22.017,-13.242,-83.748,-53.738,-34.185,-18.174,-10.386,-79.662,-53.462,-30.289,-17.064,-6.712],[-93.699,-68.08,-47.746,-30.267,-22.22,-93.151,-69.654,-43.099,-31.495,-22.216,-92.487,-66.063,-45.764,-30.546,-21.762,-90.472,-65.863,-45.09,-32.428,-22.125,-87.07,-68.775,-44.187,-28.882,-20.039,-83.552,-66.545,-41.357,-29.77,-16.181]],
"ve": [[29.413,40.857,27.388,23.641,17.007,18.781,12.595,202.487,-24.84,54.602,11.722,43.659,34.644,15.103,68.424,23.502,23,14.048,-543.401,49.974,38.015,19.223,25.854,31.017,1.267,54.997,30.453,19.987,20.649,19.968],[10.465,-1.33,0.561,2.491,4.79,-15.867,-0.715,1.087,4.314,4.991,-15.995,-3.075,1.999,3.674,5.182,-0.22,3.542,2.923,5.117,6.34,9.409,11.641,8.208,8.075,8.055,38.483,24.929,17.822,14.804,13.47],[-36.795,-9.495,-2.712,-1.309,-0.14,-24.109,-9.607,-3.563,-0.641,1.442,-28.05,-8.288,-2.896,-1.144,0.161,-17.174,-3.735,0.242,0.979,3.209,0.091,4.11,4.071,4.76,5.194,24.042,13.913,11.589,11.156,9.881],[-55.645,-16.012,-9.182,-4.332,-2.249,-52.325,-15.697,-8.127,-4.816,-1.935,-30.974,-16.922,-9.62,-3.184,-1.138,-35.71,-11.742,-4.334,-2.058,0.349,-16.746,-4.783,-0.236,2.273,2.605,13.082,5.975,6.286,7.623,6.997],[-55.14,-25.746,-13.771,-9.376,-4.788,-50.757,-20.839,-13.021,-7.876,-5.559,-46.919,-22.872,-12.074,-7.988,-5.442,-47.003,-17.013,-9.268,-5.239,-3.11,49.876,-12.715,-6.457,-1.555,-0.595,29.642,-0.75,2.504,4.594,5.213],[-54.533,-31.534,-18.272,-10.489,-8.292,-39.795,-31.499,-16.264,-11.571,-7.493,-51.265,-28.806,-16.734,-9.524,-7.373,-46.993,-24.61,-15.001,-9.097,-6.863,-20.549,-21.646,-10.09,-5.64,-2.967,-2.633,-10.051,-2.734,-1.116,1.603]],
"kep": [[-23.547,-21.089,-21.403,-30.21,-31.438,-23.477,-15.678,-20.572,-26.375,-34.912,-21.969,-21.606,-22.732,-30.591,-28.552,-16.998,-17.349,-21.613,-24.974,-25.796,-21.434,-9.118,-8.153,-7.911,-7.908,-10.223,1.539,5.57,8.574,10.639],[-49.432,-26.214,-23.475,-22.639,-21.746,-50.037,-27.536,-26.133,-22.294,-21.326,-49.477,-28.076,-21.862,-21.943,-22.369,-48.995,-31.089,-22.704,-21.713,-19.892,-52.907,-28.808,-20.963,-18.85,-18.637,-53.788,-29.008,-18.654,-16.253,-14.849],[-71.248,-38.954,-28.859,-24.944,-22.018,-70.512,-40.782,-30.573,-25.704,-22.426,-72.825,-37.161,-30.945,-25.482,-24.26,-71.458,-42.467,-29.813,-24.214,-24.67,-66.872,-40.901,-31.314,-25.929,-23.19,-70.028,-45.82,-33.385,-24.901,-23.191],[-85.179,-49.443,-37.972,-31.588,-29.118,-82.095,-49.285,-35.885,-32.841,-28.772,-81.315,-51.376,-38.526,-31.066,-26.995,-80.701,-51.503,-38.065,-31.121,-27.608,-78.94,-53.146,-38.086,-32.161,-26.881,-80.129,-56.319,-42.196,-32.675,-27.453],[-87.441,-56.997,-45.954,-36.051,-31.189,-87.128,-57.603,-42.268,-38.702,-32.283,-86.416,-58.718,-45.113,-35.597,-32.591,-86.899,-59.241,-44.93,-37.803,-31.983,-86.582,-61.225,-46.98,-37.02,-31.424,-86.105,-65.119,-49.07,-40.119,-32.52],[-92.45,-66.397,-52.056,-41.12,-35.673,-92.129,-67.771,-49.434,-41.613,-36.158,-91.278,-65.92,-51.174,-41.826,-35.845,-89.285,-67.386,-51.4,-43.7,-36.542,-88.555,-70.858,-53.913,-42.937,-37.392,-88.263,-72.481,-55.105,-46.343,-37.302]],
"vp": [[245.31,-311.936,-243.83,-289.584,-443.241,-12.604,-159.986,-66.433,-100.382,-98.729,-49.42,-20.959,-2.558,-55.327,-41.106,-18.484,-5.651,-5.767,1.293,-2.994,-3.648,-5.074,-4.76,-5.921,-4.382,-6.08,-4.573,-2.737,-3.221,-1.802],[1887.966,264.061,96.041,-51.838,-435.693,423.529,40.575,46.74,-110.55,-69.15,239.19,100.527,-53.237,-43.456,-65.691,22.238,12.767,3.74,-5.781,-6.212,17.437,-1.821,-4.139,-5.467,-5.212,4.264,-3.98,-5.705,-5.342,-6.071],[4996.761,2223.303,246.76,265.632,-242.039,813.881,450.336,220.636,28.149,-108.032,466.013,184.472,99.794,52.801,45.657,96.018,40.869,18.628,3.961,0.572,29.138,14.931,8.747,2.439,-3.682,12.87,9.8,6.069,-0.816,0.299],[6870.602,3773.792,3036.134,1542.681,1338.249,1218.56,787.459,495.997,413.601,213.153,553.526,437.662,318.52,131.705,19.608,107.626,78.006,46.829,28.11,11.606,48.122,35.316,21.662,8.053,3.456,21.788,18.819,11.77,5.509,2.416],[6610.007,6137.58,4699.49,3675.96,1946.097,1299.632,1034.201,843.719,689.16,507.448,648.016,578.859,399.718,317.591,246.65,134.258,102.151,80.411,66.424,42.186,65.123,57.168,45.271,23.928,19.657,30.529,27.64,20.421,12.384,6.404],[7843.856,7834.263,6495.117,4213.771,4119.936,1545.027,1657.793,1071.992,969.322,713.287,755.614,744.861,590.327,434.315,379.818,141.439,146.819,122.268,98.873,88.837,63.371,81.563,59.638,45.697,36.986,29.028,39.418,30.073,25.692,15.543]]
}