{
"KTrans": [[-43.428,-51.54,-53.93,-51.056,-44.666,-7.149,-27.125,-19.965,-23.949,-22.72,13.955,-12.134,-7.282,-9.376,-3.363,67.279,9.913,8.484,5.073,5.107,141.838,41.874,36.274,25.662,34.217,324.596,117.893,116.623,118.7,113.219],[-41.883,-44.624,-42.643,-49.817,-60.052,-37.753,-31.464,-16.143,-28.652,-33.857,-25.638,-13.335,2.423,-9.788,-6.736,1.568,3.904,24.397,1.617,3.452,11.26,6.034,46.515,9.014,6.337,33.94,10.848,123.583,32.104,24.47],[-48.632,-51.704,-46.435,-45.67,-33.059,-45.395,-33.541,-35.007,-25.344,-11.507,-32.079,-16.471,-23.067,-11.281,-0.169,-11.551,2.28,0.903,1.925,12.647,-4.642,7.53,4.503,1.83,30.666,9.447,14.495,8.928,2.61,54.86],[-52.635,-45.125,-40.625,-39.922,-47.768,-49.982,-38.883,-27.909,-32.354,-36.113,-45.434,-26.002,-10.37,-14.87,-11.048,-36.005,2.778,0.895,1.317,0.902,-33.359,8.119,5.253,3.74,3.28,-13.486,13.828,11.066,5.993,4.44],[-65.477,-46.966,-50.22,-47.382,-46.048,-58.701,-31.768,-35.521,-32.961,-27.466,-61.244,-22.759,-22.657,-19.855,-16.569,-55.084,1.67,1.561,2.188,1.841,-43.733,4.948,7.182,4.107,2.286,-34.245,16.142,11.842,7.344,5.226],[-74.288,-44.727,-40.921,-48.723,-43.938,-75.939,-35.318,-45.175,-31.153,-30.189,-70.712,-23.11,-16.983,-19.054,-27.384,-70.149,-1.5,1.678,1.489,1.495,-63.489,3.963,6.125,3.605,2.344,-55.116,13.861,13.255,7.614,5.708]],
"ve": [[-51.148,-14.312,-13.921,-8.015,4.085,48.994,-5.622,-2.379,5.975,61.058,11.258,1.885,6.899,3.147,2.443,70.636,19.86,14.325,13.998,-24.465,136.247,31.647,19.478,17.065,37.748,331.379,25.241,-53.252,3.024,69.962],[-103.99,-67.116,-47.541,-36.734,-35.58,-98.326,-50.442,-13.862,-20.226,-19.697,-61.142,-19.602,-4.222,-7.002,-3.846,0.541,-0.142,23.41,2.005,1.988,3.293,0.645,-293.908,7.092,3.946,8.841,-4.846,125.307,25.911,14.989],[-134.401,-126.142,-77.714,-58.348,-34.06,-120.078,-85.241,-58.703,-32.131,-10.644,-57.548,-40.881,-40.166,-14.768,27.44,-3.465,0.377,0.326,0.01,10.721,-2.426,1.964,0.558,-0.805,30.428,4.658,3.192,-0.195,-4.525,70.695],[-50.665,-149.266,-93.003,-70.085,-66.993,-42.377,-140.371,-62.809,-56.99,-51.541,-26.616,-93.459,-23.448,-26.587,-16.488,-15.727,1.049,0.202,0.28,-0.005,-15.01,2.961,1.614,0.586,0.29,-3.778,5.006,2.238,0.069,-0.574],[-56.119,-199.735,-151.051,-107.549,-82.714,-37.255,-131.428,-105.328,-73.675,-48.953,-32.301,-89.667,-69.734,-43.657,-30.724,-27.4,0.54,0.369,0.634,0.502,-18.429,2.026,1.837,1.152,0.46,-9.593,5.3,3.669,1.673,0.625],[-40.35,-216.261,-143.189,-133.998,-94.788,-38.633,-143.525,-165.484,-84.755,-66.294,-47.335,-75.694,-53.268,-50.619,-61.071,-32.645,-0.66,0.668,0.439,0.532,-24.536,0.858,2.291,1.194,0.602,-17.654,4.103,4.523,1.75,1.41]],
"kep": [[-138.56,1.732,2.289,2.635,-4.162,-141.278,-2.931,2.402,-5.845,-2.79,-149.54,4.642,-1.908,2.702,-8.261,-135.139,-14.2,-12.092,-7.862,-7.458,-135.44,-26.526,-20.394,-8.225,-16.961,-151.535,-43.355,-33.953,-35.684,-31.859],[-8.735,0.044,-134.691,1.241,-2.925,-8.456,3.585,-141.806,1.224,-4.783,-8.002,-2.118,-148.555,2.502,-2.288,-0.734,10.656,-141.547,-7.729,-5.683,8.826,9.447,-137.075,-17.45,-8.916,24.522,32.429,-184.087,-35.09,-20.951],[-21.172,-1.76,-1.608,4.27,-138.091,-20.98,1.259,-0.615,-3.65,-136.255,-17.981,-1.3,0.77,0.478,-134.451,-11.669,1.924,-0.78,6.697,-120.158,-5.097,7.39,7.945,10.363,-151.696,1.547,13.617,17.422,26.004,-131.438],[-37.114,-2.289,-0.461,0.324,-0.961,-35.581,0.633,-1.498,-0.131,0.228,-35.986,-0.194,-1.183,0.317,3.304,-28.455,1.677,0.601,2.327,2.741,-26.143,5.452,4.419,7.188,8.644,-16.303,8.056,12.017,10.999,12.931],[-50.947,-1.836,-0.156,0.867,-0.775,-46.393,-0.852,-0.083,-0.46,-0.849,-49.784,-2.076,0.418,-1.016,1.291,-43.753,0.733,1.014,2.48,2.376,-35.505,2.079,6.751,4.674,3.149,-32.577,10.513,9.3,8.367,8.794],[-61.963,-3.612,-1.519,-0.311,-1.171,-65.444,-7.405,-0.54,-0.23,0.065,-60.204,-7.835,-2.098,-0.282,0.563,-59.936,-1.719,0.557,1.256,1.43,-54.001,2.52,4.332,3.149,2.637,-48.978,8.7,9.304,7.555,6.07]],
"vp": [[-3.446,102.866,-17.137,29.662,-31.916,5.479,5.197,29.761,-13.138,-9.756,-1.849,6.065,-5.937,1.905,-9.547,-1.829,-3.652,-3.104,-2.184,-3.35,-2.393,-3.763,-2.607,-2.466,-3.666,-2,-2.331,-2.541,-2.149,-2.343],[357.184,85.759,-34.533,-46.269,-154.462,21.826,-31.117,-14.605,1.409,-28.238,24.878,2.484,-3.39,-2.149,-11.997,0.196,-3.349,-3.211,-1.346,-4.177,-2.964,-2.827,-2.367,-2.698,-2.804,-5.037,-4.118,-2.659,-3.383,-3.668],[917.417,62.556,1.597,-23.524,67.301,184.943,12.395,-4.547,1.578,-6.204,103.175,9.898,-8.792,-2.139,-3.972,8.572,-1.221,-0.653,-4.506,-3.358,3.639,-4.677,-4.065,-2.751,-2.734,-1.011,-4.98,-4.629,-3.521,-2.183],[2624.651,304.859,196.48,113.182,5.89,502.587,-34.399,43.091,-6.464,-28.684,239.769,5.731,3.902,-1.88,0.207,35.024,-3.548,-0.734,-3.076,-0.756,17.551,-6.269,-5.436,-4.689,-5.245,4.104,-5.075,-5.339,-3.626,-4.137],[3760.178,297.756,-21.814,-18.104,-28.64,652.561,92.753,26.19,16.077,10.993,353.528,37.233,-7.369,5.904,2.681,62.643,-1.338,-1.992,-4.927,-5.386,23.338,-3.628,-6.589,-5.02,-3.228,8.598,-5.596,-6.298,-5.036,-4.411],[4725.097,738.427,287.331,-102.819,213.158,996.278,190.426,2.652,33.58,13.438,440.566,89.476,41.071,18.009,-10.419,88.067,3.187,-3.543,-3.086,-5.689,39.618,-1.284,-6.931,-5.188,-3.358,15.377,-4.558,-7.554,-4.567,-4.738]]
}