{
"KTrans": [[2.654,2.335,1.158,1.961,2.056,12.839,8.445,5.964,6.133,5.186,23.996,16.272,13.603,12.225,12.254,0.137,80.868,67.69,58.961,57.392,63.488,62.868,92.553,81.047,95.035,294.962,-18.808,-28.997,-27.04,38.049],[1.547,0.675,0.286,0.15,0.587,7.169,5.057,3.904,3.296,3.28,23.019,11.649,7.966,6.492,5.701,2.485,56.973,49.829,32.455,31.45,18.206,84.868,60.538,67.723,65.158,42.37,39.374,71.692,50.659,22.197],[9.149,0.104,-0.879,0.953,0.413,10.587,7.312,3.412,3.105,1.988,-24.138,8.281,6.225,5.444,4.634,-12.436,20.877,54.051,31.6,27.158,-33.842,10.728,29.84,59.956,53.263,53.724,66.2,61.829,21.134,-21.523],[-49.603,0.991,-0.233,-0.009,0.098,-55.282,4.9,4.179,2.231,1.369,-43.393,16.55,6.245,4.133,4.246,-33.589,-16.092,48.564,35.417,26.916,-27.89,0.523,52.676,33.277,48.43,-5.501,-26.738,9.274,13.998,-34.307],[-82.277,3.143,-1.469,0.312,-0.983,-71.237,25.972,5.944,-0.198,0.614,-69.68,9.834,10.601,5.567,3.336,-39.178,-30.721,43.075,28.312,25.69,-30.077,-24.84,-25.947,9.919,53.517,-28.75,-15.66,-2.655,0.514,66.408],[-78.231,-2.28,-3.019,1.407,-0.374,-72.056,-5.54,7.544,1.352,-1.048,-81.74,-14.601,3.807,5.128,4.443,-67.044,-45.454,4.242,33.497,25.177,-60.908,-30.305,-30.281,30.54,49.7,-46.066,4.693,-25.556,-4.735,39.362]],
"ve": [[1.037,0.842,0.9,0.391,1.187,4.527,1.314,0.844,-1.352,-0.883,8.752,2.049,-0.995,-3.823,-6.647,49.345,6.243,4.066,-6.511,-16.157,94.466,53.279,9.796,-2.977,-13.581,200.388,82.609,40.287,11.951,7.674],[0.44,0.669,0.425,0.363,0.268,4.966,2.09,1.181,1.053,0.749,9.925,4.873,2.845,1.883,1.256,51.738,24.357,15.737,9.43,6.167,101.321,47.261,30.072,25.732,13.61,203.28,102.207,59.602,48.563,28.702],[2.624,0.48,0.041,0.111,0.174,-8.363,2.716,1.452,0.953,0.858,13.371,4.542,3.061,2.345,1.582,51.538,24.864,17.474,11.491,8.895,112.334,49.722,31.906,24.931,18.554,195.002,97.17,64.803,52.852,36.613],[-0.297,0.571,0.416,0.235,0.188,5.7,2.582,1.617,1.085,0.765,10.866,5.298,3.446,2.209,1.944,46.496,28.53,16.925,12.391,9.493,107.012,51.152,32.652,21.845,18.978,200.097,106.41,68.833,47.333,37.832],[5.275,0.679,0.005,0.243,0.093,4.892,3.155,2.069,0.887,0.789,14.957,4.582,3.596,2.447,1.926,48.276,25.003,16.848,12.185,9.817,100.406,49.919,33.528,24.575,20.167,212.965,103.345,69.127,48.014,39.224],[1.053,1.054,-0.28,0.405,0.152,4.293,2.407,2.089,1.342,0.568,11.5,5.391,2.673,2.552,1.852,51.396,37.432,17.066,12.224,9.98,103.533,51.574,32.154,25.694,22.657,217.463,99.596,67.015,52.016,37.877]],
"kep": [[0.341,0.328,-0.722,0.608,0.428,6.618,5.792,3.975,6.53,5.762,12.598,12.566,13.436,15.662,19.1,-23.86,54.023,63.329,70.932,86.673,-1.24,25.938,71.206,81.465,117.986,57.687,-10.376,-17.976,-14.782,59.818],[-0.607,-1.422,-1.585,-1.649,-1.139,0.117,1.385,1.2,0.73,1.027,8.945,4.854,3.449,3.014,2.887,-27.914,23.297,26.875,19.157,21.998,-32.751,24.362,20.386,34.421,43.338,-42.003,-14.897,14.132,7.36,-5.837],[2.561,-2.052,-2.407,-0.64,-1.23,0.492,2.741,0.41,0.628,-0.362,-32.745,1.747,1.487,1.513,1.491,-39.615,-3.553,27.883,15.97,14.878,-60.551,-21.631,-0.705,26.09,26.65,-43.955,-10.834,3.299,-12.09,-36.513],[-51.224,-1.863,-2.282,-1.749,-1.569,-57.703,-0.163,0.845,-0.374,-0.886,-49.4,7.99,1.022,0.317,0.737,-54.582,-32.03,23.274,18.03,13.867,-60.474,-29.81,13.25,5.812,22.071,-64.21,-55.565,-26.639,-17.379,-43.565],[-80.736,-0.955,-3.437,-1.522,-2.575,-71.373,17.222,1.752,-2.682,-1.697,-71.616,1.239,4.448,1.368,-0.163,-58.491,-42.522,17.865,12.027,12.344,-62.73,-46.647,-39.542,-12.173,24.548,-72.644,-52.22,-35.747,-26.427,19.14],[-77.631,-7.316,-5.043,-0.805,-2.104,-73.12,-11.724,2.741,-1.772,-3.185,-82.355,-22.187,-1.602,0.659,0.859,-76.503,-54.312,-12.004,15.546,11.532,-78.154,-51.249,-44.048,2.101,20.872,-78.586,-44.036,-50.487,-31.105,1.072]],
"vp": [[-3.871,7.983,-145.532,-76.788,-81.961,7.002,-12.169,-33.895,-41.521,-29.581,-38.546,-32.484,-8.246,-26.095,10.36,-50.94,-28.719,-13.508,-16.985,-29.488,-46.921,-32.513,-25.537,-26.866,-6.172,-22.965,7.555,-15.409,-16.793,-16.55],[396.623,251.79,23.536,-50.329,-41.627,83.331,-16.302,17.601,-32.54,0.235,42.694,15.437,-6.427,-23.696,-31.714,-27.23,-58.597,-18.351,-38.85,-8.95,-47.967,-60.754,-48.639,-10.471,-28.68,-63.09,-42.555,-77.392,-34.061,-14.107],[1432.223,574.27,160.359,60.635,51.721,265.47,140.401,51.553,51.552,-47.087,134.693,27.197,38.513,-3.488,-23.363,-36.553,-50.591,-12.103,-38.931,-34.716,0.984,-46.177,-46.091,-57.966,-43.28,-57.331,-48.535,-59.35,-79.15,-43.105],[2381.105,977.719,769.89,445.937,443.409,498.269,217.315,198.504,74.224,-17.296,174.997,74.601,14.967,61.744,17.285,0.677,-17.462,-3.357,-2.146,-13.624,-5.627,-47.491,-53.919,-73.87,-54.587,-61.19,-41.556,-38.645,-64.087,-60.521],[4675.462,1006.798,1077.8,738.803,461.373,597.867,400.252,294.312,135.444,113.865,261.056,89.219,80.847,102.705,49.952,-26.011,-7.9,-9.822,-16.395,-11.114,-44.794,-32.979,-37.697,-48.454,-34.733,-6.053,-15.103,-49.031,-37.377,-53.163],[4377.588,2108.759,1265.02,1002.719,883.023,609.171,474.69,254.092,302.155,164.819,397.629,195.101,99.722,166.441,93.818,19.375,50.452,-4.457,-5.821,9.09,-19.71,-46.262,-21.404,-25.913,-32.313,-1.309,-48.609,-36.238,-55.061,-67.07]]
}