{
"KTrans": [[-33.775,-2.209,-0.302,3.832,-2.718,-32.36,-5.326,-4.503,-1.044,-3.224,-38.986,-1.53,-3.676,2.361,-2.484,-27.074,-2.425,0.055,-4.199,-7.276,-18.942,-4.026,-0.75,-3.623,-2.854,-30.665,-10.671,-10.677,-0.312,-1.685],[-84.778,-45.093,-19.754,-18.633,-11.236,-87.875,-41.266,-17.618,-15.296,-13.27,-90.016,-31.808,-25.472,-13.28,-12.311,-87.446,-42.75,-16.774,-11.151,-13.735,-81.558,-39.648,-13.377,-12.147,-11.452,-84.781,-37.993,-17.722,-14.863,-11.456],[-93.883,-77.694,-44.652,-24.961,-18.884,-93.642,-74.161,-39.978,-22.1,-13.345,-97.022,-68.87,-37.983,-31.01,-19.941,-91.632,-76.222,-50.467,-24.527,-20.779,-97.789,-65.044,-37.066,-29.489,-20.778,-94.039,-71.071,-41.15,-21.366,-13.838],[-97.412,-81.598,-71.759,-34.575,-18.756,-99.577,-86.798,-65.745,-41.184,-28.944,-96.673,-79.559,-56.464,-47.479,-29.475,-97.681,-85.425,-53.134,-38.87,-27.283,-98.103,-80.909,-66.69,-32.272,-28.642,-99.745,-84.256,-66.402,-29.445,-23.95],[-99.235,-90.5,-77.936,-57.893,-38.831,-100.286,-89.54,-73.947,-52.529,-38.094,-100.107,-87.47,-75.483,-59.85,-35.847,-100.074,-90.464,-82.546,-66.031,-26.374,-99.857,-86.864,-72.156,-54.065,-37.137,-97.37,-89.429,-83.178,-61.607,-31.742],[-101.896,-90.229,-77.591,-75.409,-49.158,-100.392,-94.495,-79.975,-62.44,-27.731,-100.667,-89.885,-83.276,-71.609,-44.677,-101.399,-98.425,-80.297,-59.018,-43.506,-100.961,-95.276,-83.017,-73.953,-43.63,-100.287,-92.35,-87.477,-74.653,-39.89]],
"ve": [[-9.891,6.219,-57.581,-14.806,59.121,5.319,12.152,96.96,-1642.346,-3.828,17.058,-2.036,51.371,-9414.869,70.794,33.593,-2.901,-39.572,12.536,-1.734,15.026,9.054,18.289,337.663,-10.798,-12.644,12.802,147.238,4.628,78.341],[35.49,-26.377,-13.969,-9.456,-5.241,-74.415,-25.84,-14.115,-9.019,-4.263,-86.256,-23.513,-13.217,-6.104,-5.865,-32.853,-31.916,-14.074,-7.923,-4.29,-78.136,-28.143,-10.958,-7.382,-3.7,122.781,-17.643,-13.967,-8.123,-5.492],[-89.355,-62.167,-35.218,-19.997,-14.458,-100.107,-56.268,-29.283,-19.871,-14.345,-89.022,-52.773,-29.912,-20.535,-13.922,-82.324,-54.776,-34.977,-20.367,-14.822,-95.409,-58.837,-26.613,-21.756,-15.599,-100.625,-39.101,-31.504,-18.256,-15.611],[-102.555,-67.166,-57.993,-31.949,-22.947,-96.59,-23.087,-57.539,-32.066,-24.655,-92.54,-65.696,-50.151,-35.274,-24.744,-108.62,-77.987,-37.948,-33.26,-23.006,-209.086,-71.591,-63.777,-30.13,-23.846,-106.582,-62.06,-51.109,-27.617,-24.728],[-76.36,-128.906,-66.982,-41.499,-32.283,-100.371,-72.097,-63.701,-41.173,-34.095,-103.555,-73.274,-64.295,-49.243,-31.515,-90.494,-85.783,-53.567,-49.881,-27.068,-95.892,-86.601,-68.784,-51.079,-31.696,-95.005,-80.264,-66.371,-46.536,-35.454],[-106.68,-91.5,-73.294,-60.382,-43.417,-103.858,-81.849,-75.057,-41.218,-35.274,-114.298,-118.15,-74.719,-59.261,-40.71,-110.471,-114.36,-72.861,-66.529,-42.255,-119.659,-92.025,-73.23,-107.688,-38.976,-98.287,-289.721,-107.653,-63.281,-39.101]],
"kep": [[-42.45,-4.453,-4.743,-3.158,-12.1,-34.847,-8.605,-8.632,-7.567,-15.712,-41.358,-2.313,-7.477,-0.669,-12.328,-43.47,-7.857,-5.511,-8.222,-21.844,-22.867,-6.747,-0.549,-11.067,-11.59,-32.929,-13.936,-16.403,-3.783,-8.55],[-84.6,-26.241,-7.412,-10.196,-5.897,-89.475,-25.521,-4.578,-6.969,-8.881,-92.667,-14.186,-13.833,-7.329,-6.595,-92.004,-22.212,-4.336,-3.821,-9.777,-86.755,-29.321,-4.767,-4.904,-7.773,-87.298,-20.52,-5.211,-7.205,-5.683],[-92.682,-70.793,-22.695,-7.339,-5.488,-90.266,-68.659,-18.271,-4.2,0.44,-93.462,-62.198,-16.78,-13.573,-7.889,-94.967,-76.444,-25.66,-7.299,-7.299,-93.566,-68.85,-15.709,-9.766,-6.569,-93.272,-65.498,-18.425,-5.324,1.473],[-94.353,-86.296,-56.406,-9.564,3.096,-92.923,-87.65,-49.656,-15.28,-5.848,-93.034,-80.393,-44.503,-20.132,-4.957,-95.362,-86.673,-44.307,-9.734,-7.046,-93.998,-83.543,-47.918,-7.658,-6.112,-96.865,-80.781,-48.213,-9.388,-0.481],[-95.435,-92.158,-76.301,-34.281,-9.408,-94.144,-86.32,-75.269,-28.762,-7.522,-94.149,-82.014,-72.871,-35.444,-7.418,-92.742,-86.947,-81.713,-41.554,-4.871,-93.384,-88.35,-77.869,-34.48,-8.231,-91.322,-87,-80.965,-33.53,0.511],[-96.006,-81.21,-82.334,-69.79,-17.825,-94.084,-82.44,-83.428,-59.812,-17.679,-96.323,-84.946,-82.221,-60.726,-20.652,-94.813,-87.118,-80.307,-50.218,-13.331,-94.76,-86.285,-82.682,-65.579,-15.644,-95.001,-86.708,-84.544,-66.277,-21.183]],
"vp": [[2248.653,1757.634,1578.463,1851.554,1355.326,461.972,342.08,430.488,273.525,405.942,323.635,186.23,202.16,165.772,203.806,46.805,47.175,43.74,41.078,38.171,24.08,19.064,12.546,14.471,12.673,10.572,9.914,9.348,8.96,9.138],[7002.646,5928.419,6061.091,5592.868,5944.949,1433.964,1256.013,1195.841,1337.243,1100.329,762.552,649.251,513.101,460.623,484.545,142.667,142.972,110.082,98.905,104.774,67.879,58.407,51.894,52.055,42.063,35.273,32.194,30.077,28.531,26.525],[8797.112,14148.775,10845.24,9651.057,9483.218,1670.575,2375.427,1828.785,1808.839,2128.353,969.582,1169.988,1085.819,954.102,770.615,169.993,243.552,244.32,191.524,186.89,93.907,120.495,89.624,98.809,91.575,41.477,56.494,53.831,45.573,50.056],[9894.134,14618.276,18827.336,14708.295,14346.411,2082.159,2855.287,3715.115,3061.994,2884.744,980.676,1266.268,1538.534,1568.976,1354.843,199.942,311.837,283.234,296.341,255.932,96.863,148.291,157.902,134.646,127.823,52.816,66.851,82.876,63.457,73.558],[10575.907,16779.148,20167.233,16670.987,17877.485,1950.207,3334.435,4329.018,3449.248,3904.556,1044.606,1587.632,2007.421,2087.964,1763.471,197.629,328.992,428.249,414.566,304.42,100.505,166.479,208.164,218.06,183.408,46.86,82.149,103.618,98.342,102.985],[11116.97,16286.735,22846.069,25395.944,23086.561,2109.674,3688.4,4614.628,4536.139,3789.557,1068.006,1733.838,2292.702,2454.356,2093.194,216.293,415.822,433.615,473.17,453.887,110.544,190.229,225.276,275.129,214.32,50.426,83.973,115.357,133.942,107.678]]
}