{
"KTrans": [[-0.739,-1.664,0.946,0.401,0.506,4.869,3.978,2.824,3.071,2.063,13.197,6.125,6.865,6.922,4.046,74.172,46.047,33.748,32.864,29.608,162.118,97.988,73.516,70.436,58.906,385.465,231.706,185.426,161.367,140.555],[-22.238,-1.054,-2.083,0.122,-0.135,-21.636,2.804,1.596,1.238,1.15,-14.302,3.201,2.896,2.224,2.207,18.75,31.2,21.056,18.417,14.914,73.437,69.61,50.809,39.317,33.6,174.8,148.218,105.137,81.593,69.113],[-46.122,-2.657,-0.395,-1.165,-0.666,-45.52,-1.809,0.718,0.383,0.434,-41.269,3.435,5.475,2.75,0.809,-14.962,27.991,20.03,14.741,13.465,16.171,55.726,43.803,33.522,27.317,63.2,118.374,92.064,70.592,61.027],[-64.294,-12.755,-2.523,-0.598,-0.111,-63.459,-10.884,-2.142,0.187,-0.884,-60.869,-6.231,1.957,2.308,1.128,-42.897,13.672,20.079,13.887,9.184,-30.458,41.987,39.784,29.683,24.755,4.571,101.548,85.133,68.067,54.957],[-75.641,-17.345,-4.467,-4.081,-0.609,-72.388,-15.749,-3.045,-3.229,-0.259,-71.524,-14.085,-2.013,0.37,0.954,-60.194,8.126,13.441,13.766,11.666,-46.651,31.526,36.957,27.461,25.726,-17.263,73.488,73.797,65.385,49.81],[-82.321,-26.691,-7.329,-3.994,-0.87,-79.37,-23.478,-4.884,-1.624,0.333,-77.68,-21.285,-3.842,0.401,-0.23,-67.63,-2.306,11.134,10.78,8.422,-65.932,11.81,29.881,24.47,24.015,-57.542,44.928,68.154,56.799,48.528]],
"ve": [[3.327,3.746,5.939,4.123,5.492,4.771,4.139,3.711,3.906,4.295,7.359,4.839,4.9,0.481,17.05,27.129,6.56,0.3,-5.066,-10.498,49.983,14.258,2.324,-10.025,-14.955,101.143,36.848,11.377,-5.717,-17.73],[-3.883,0.924,0.521,0.917,0.618,-1.93,1.26,1.106,1.035,0.258,2.917,3.69,1.369,1.858,1.085,22.993,12.898,7.93,5.714,3.108,51.296,26.573,16.713,10.373,6.161,105.303,51.914,32.905,21.751,14.302],[-6.707,-0.724,-0.212,0.617,0.231,-7.492,0.415,0.782,0.436,0.736,-5.267,2.092,1.455,1.003,1.163,17.396,13.159,8.71,6.363,4.974,42.412,27.077,18.221,12.99,9.574,98.603,55.555,36.198,25.891,19.443],[-12.172,-1.087,-0.204,0.167,0.494,-2.687,-0.556,0.001,0.712,0.462,-15.682,-0.201,1.839,1.565,1.55,10.016,11.252,9.109,6.802,5.538,36.155,26.323,18.309,13.212,10.349,85.13,52.532,36.381,27.49,21.341],[-15.976,-3.91,-0.51,-0.076,0.084,-14.925,-1.744,-0.061,0.072,0.893,-8.13,-1.785,1.289,1.25,1.196,203.184,10.598,8.505,6.546,5.462,34.679,24.936,18.166,13.579,11.048,89.512,52.126,36.563,28.1,22.218],[-24.108,-5.644,-1.737,-0.299,0.239,-21.455,-4.186,-0.307,0.21,0.411,-13.299,-2.367,0.682,1.218,0.723,-6.371,9.051,8.276,6.072,5.637,29.885,19.906,17.81,13.631,11.092,316.467,47.384,36.179,28.491,22.354]],
"kep": [[-2.575,-2.186,-1.477,0.925,0.575,1.527,1.709,2.503,4.484,3.218,6.557,3.965,5.789,11.944,5.602,37.452,38.809,35.56,45.196,49.939,74.996,73.888,71.274,91.83,90.436,139.3,142.918,157.231,178.307,194.211],[-19.196,-1.996,-2.47,-0.667,-0.504,-20.111,1.759,0.569,0.354,1.095,-16.6,-0.33,1.596,0.447,1.269,-3.94,16.541,12.325,12.157,11.642,14.762,34.067,29.243,26.336,26.012,33.442,63.418,54.347,49.174,48.012],[-42.581,-1.952,-0.155,-1.725,-0.858,-42.22,-2.258,-0.036,-0.004,-0.297,-38.587,1.356,4.039,1.749,-0.284,-28.457,13.178,10.501,7.928,8.117,-21.534,22.66,21.722,18.184,16.227,-19.508,40.43,40.94,35.476,34.864],[-60.091,-11.793,-2.219,-0.761,-0.565,-59.955,-10.206,-2.033,-0.48,-1.333,-57.333,-5.772,0.217,0.726,-0.397,-51.642,2.292,10.11,6.593,3.477,-51.192,12.382,18.258,14.514,13.044,-47.532,32.153,35.714,31.811,27.676],[-71.889,-14.115,-3.884,-3.981,-0.711,-70.039,-14.026,-2.922,-3.274,-1.082,-68.599,-12.361,-3.175,-0.883,-0.22,-64.542,-2.198,4.64,6.755,5.893,-61.397,5.081,15.905,12.228,13.206,-56.935,13.883,27.132,29.124,22.508],[-78.305,-22.361,-5.712,-3.708,-1.084,-76.004,-20.103,-4.6,-1.824,-0.082,-75.34,-19.399,-4.366,-0.757,-0.941,-70.885,-10.446,2.718,4.397,2.63,-75.129,-7.841,10.34,9.558,11.614,-79.051,-2.236,23.654,22,21.323]],
"vp": [[1.526,35.592,-138.367,34.08,-93.42,-39.718,-54.299,-51.303,-66.833,-72.735,-55.492,-43.948,-52.538,-48.685,-51.6,-54.104,-53.66,-50.951,-54.811,-52.544,-52.609,-51.047,-52.222,-52.47,-50.173,-52.946,-52.522,-53.163,-51.751,-51.229],[494.26,-19.59,-27.215,-37.285,-68.986,51.134,-43.54,-38.501,-46.73,-42.103,-3.056,-52.042,-43.493,-54.542,-48.858,-40.863,-54.775,-54.362,-54.862,-54.643,-47.689,-55.529,-54.838,-54.038,-53.091,-50.422,-53.271,-54.363,-53.781,-53.461],[1218.766,226.919,10.95,17.566,65.699,201.829,3.516,-54.001,-30.977,-40.588,73.494,-33.943,-41.844,-49.571,-40.86,-28.88,-51.864,-53.218,-55.889,-54.987,-41.658,-52.77,-55.477,-54.518,-53.58,-45.519,-54.68,-54.957,-55.5,-55.192],[1636.511,495.523,165.487,95.666,-71.589,321.585,44.83,0.521,-26.395,-20.419,121.372,1.094,-49.536,-49.877,-53.312,-20.518,-41.165,-53.266,-56.992,-54.631,-31.116,-49.472,-54.593,-55.26,-55.763,-41.238,-51.986,-54.533,-55.972,-55.332],[2210.12,929.629,305.481,250.316,117.916,354.934,103.283,26.647,26.244,-36.866,173.734,51.598,-28.738,-43.741,-38.183,-3.75,-37.643,-47.299,-50.303,-50.648,-26.808,-46.382,-53.55,-55.589,-55.144,-38.655,-51.315,-54.267,-57.062,-56.657],[2597.926,1521.587,611.234,268.904,80.064,456.317,216.18,78.505,14.644,4.023,191.199,69.111,3.05,-11.005,-35.341,-0.489,-30.554,-43.883,-50.703,-53.617,-22.95,-39.629,-51.718,-56.259,-55.618,-37.34,-45.207,-53.075,-56.316,-57.114]]
}