{
"KTrans": [[10.59,4.742,5.8,5.681,2.13,21.218,10.786,10.241,8.471,9.874,32.019,18.901,15.524,13.773,14.381,19.646,86.731,78.92,71.143,63.91,51.617,69.86,107.355,113.208,119.125,291.582,74.287,113.753,-3.456,151.067],[-3.045,9.569,3.799,5.921,4.983,18.986,10.64,9.734,7.736,4.611,28.293,18.068,13.196,10.342,8.936,27.461,78.517,53.952,40.352,33.362,76.528,32.463,111.106,83.776,84.339,105.506,69.309,107.415,85.194,106.254],[-22.664,13.888,8.557,5.894,6.664,-20.136,19.129,12.115,9.73,6.816,-16.577,21.747,15.179,11.48,10.257,4.601,51.957,79.377,42.961,34.241,15.035,6.427,46.199,94.368,71.589,69.106,34.622,63.609,7.549,51.943],[-62.529,22.035,12.211,8.279,6.876,-57.431,38.028,14.197,12.599,9.047,-56.468,27.097,16.223,12.242,11.727,-31.548,13.313,61.639,39.135,39.95,-13.109,31.221,28.092,88.851,71.662,40.762,56.649,-12.974,102.155,61.565],[-74.199,22.131,14.986,10.586,8.348,-79.714,19.793,21.105,13.835,10.216,-73.964,20.795,30.064,17.967,13.356,-53.035,16.442,90.221,47.089,43.187,-45.553,-17.705,52.847,98.952,83.091,4.465,37.827,29.627,50.271,6.093],[-88.347,4.628,22.031,11.029,10.447,-87.884,-6.057,30.858,16.274,10.736,-79.882,0.268,38.959,19.666,13.214,-74.029,-18.269,33.006,66.481,32.424,-55.448,-28.259,39.871,36.277,88.71,-29.836,37.114,70.958,-1.722,59.596]],
"ve": [[-0.902,0.985,1.788,1.095,2.678,6.173,0.955,0.037,0.885,-3.731,9.289,1.023,-0.085,-2.342,-7.292,47.982,15.316,0.759,-10.647,-17.433,93.372,34.891,219.552,-6.524,-20.76,194.462,80.247,33.689,9.172,-9.612],[1.441,-0.766,-0.731,-0.828,-1.316,7.688,2.134,0.482,-0.061,-0.421,11.234,4.936,2.483,0.46,-1.161,49.059,22.689,13.353,8.635,4.894,98.698,46.862,31.654,19.139,12.043,201.322,94.749,62.422,40.637,21.755],[4.424,0.145,0.534,-0.591,-0.689,8.446,2.316,1.147,0.167,-0.252,7.224,3.71,2.546,1.122,0.533,51.422,23.857,15.785,9.86,7.528,101.801,49.438,31.864,23,16.913,205.671,101.801,64.464,47.014,50.107],[5.332,0.151,-0.076,-0.19,-0.829,4.071,2.725,0.82,0.246,-0.219,8.315,5.009,2.35,1.764,1.022,51.279,25.483,15.69,11.211,8.411,96.072,48.646,31.282,22.591,17.969,196.955,94.487,66.98,48.39,38.885],[-0.267,0.79,-0.504,-0.39,-0.729,3.779,2.086,0.988,0.058,0.468,12.79,5.955,3.47,1.289,0.793,49.606,25.665,16.041,10.833,9.391,104.16,51.541,32.977,24.006,19.066,198.857,95.482,66.626,49.39,38.815],[10.179,-29.502,-0.29,-0.964,0.104,4.672,2.427,1.613,0.855,-0.037,6.566,6.136,2.985,1.528,1.549,50.588,29.014,16.884,11.696,8.772,106.622,49.541,33.259,24.233,18.254,207.248,99.499,64.826,50.328,38.606]],
"kep": [[13.303,6.259,8.386,9.977,7.191,16.003,12.495,14.207,13.504,20.161,22.392,19.859,19.301,22.436,28.646,-11.924,64.55,79.028,93.764,102.774,-6.386,28.038,85.03,122.379,162.091,57.774,23.347,81.096,14.274,175.626],[-4.057,10.832,4.814,7.118,6.629,11.154,8.762,9.385,8.061,5.285,15.623,12.698,10.609,10.081,10.488,-11.984,44.437,35.617,29.184,27.276,-5.272,-2.064,59.968,53.765,64.048,-20.021,-2.515,35.91,34.854,59.272],[-27.27,13.966,8.129,6.624,7.503,-26.63,16.623,10.936,9.655,7.166,-23.641,17.319,12.455,10.323,9.756,-27.647,22.312,53.383,29.917,24.866,-36.324,-21.891,12.321,56.329,45.802,-35.842,-21.731,7.192,-18.71,13.944],[-64.187,21.668,12.353,8.585,7.887,-59.405,33.629,13.254,12.335,9.304,-59.906,20.332,13.451,10.401,10.681,-52.499,-7.574,38.338,24.727,28.833,-52.313,-7.507,0.996,50.101,44.034,-47.258,-13.913,-37.967,37.85,19.112],[-74.518,19.234,15.3,10.889,9.148,-79.58,16.197,19.337,13.739,9.721,-75.425,14.03,25.182,16.289,12.441,-66.938,-6.128,60.174,31.839,30.481,-69.646,-39.978,17.095,56.719,51.359,-60.75,-24.523,-15.187,7.045,-16.963],[-87.277,2.71,21.348,11.88,10.256,-86.269,-9.245,27.838,15.101,10.783,-79.953,-7.23,33.532,17.399,11.391,-80.422,-32.266,13.824,46.439,21.306,-75.009,-48.516,6.626,10.479,56.509,-73.022,-25.847,6.841,-27.342,17.883]],
"vp": [[149.591,209.026,518.504,51.512,-48.268,61.848,29.576,79.967,80.567,75.965,-13.407,0.414,18.028,-10.256,14.367,-10.484,-32.63,-9.506,-19.869,-20.324,-24.969,-19.62,-26.283,-30.656,-28.897,-33.834,-32.479,-34.89,-22.432,-37.194],[2870.237,739.043,629.092,783.375,950.272,507.87,143.989,50.984,138.957,72.682,309.968,37.531,93.061,55.763,36.049,16.229,-17.33,-15.879,-14.232,-14.536,-31.955,-20.227,-5.333,-20.494,0.3,-16.931,-44.23,-34.319,-29.558,-33.253],[5390.341,1488.689,1205.613,1385.552,1433.82,1011.226,315.535,226.332,234.15,164.981,478.989,98.354,113.626,62.142,87.993,42.042,10.229,3.084,-12.695,-0.528,17.026,-6.068,-12.64,-6.067,-13.991,-13.405,-17.109,-24.064,-8.689,-25.853],[6937.735,4264.124,1713.374,1614.825,1329.489,1191.567,742.061,267.366,331.658,335.64,592.343,292.617,112.102,132.446,142.827,72.168,46.144,-6.09,-8.57,30.69,1.181,-4.749,-11.716,-4.14,-19.255,-21.57,-43.125,1.461,-23.728,4.277],[6290.597,6054.349,2688.199,1924.914,1636.049,1394.56,830.132,463.663,256.614,300.689,615.97,616.011,230.067,151.642,149.917,79.431,97.296,30.154,-1.253,41.461,39.132,56.29,3.957,-11.239,9.425,-15.854,-35.838,-14.987,-4.334,-13.883],[7876.304,7357.113,2880.672,3003.742,2149.321,1516.565,1346.67,803.194,383.824,498.08,551.706,806.093,338.35,194.338,207.474,116.809,181.724,92.536,13.999,7.369,21.794,40.789,21.481,11.828,-14.909,-1.745,-7.522,-33.07,15.086,-21.645]]
}