{
"KTrans": [[-0.893,2.67,2.07,2.418,1.81,-7.399,12.924,11.598,11.183,11.345,-7.824,24.809,24.754,22.949,21.973,-36.196,64.075,88.43,93.712,93.886,-87.932,15.155,100.056,129.827,137.034,-116.006,-154.977,-37.757,44.881,105.155],[1.485,1.552,-0.194,0.972,0.92,14.759,8.356,0.885,4.906,4.849,26.501,16.978,0.958,10.222,8.947,-78.657,81.871,-7.478,25.35,38.156,12.578,49.736,45.128,12.543,51.943,-16.6,6.981,103.558,-0.695,12.914],[1.296,2.041,0.821,1.04,0.075,13.421,8.065,4.305,3.919,0.182,28.94,9.685,9.835,8.899,3.185,-35.329,72.349,39.364,18.276,14.501,43.113,222.646,-3.017,-14.576,-1.118,52.227,-39.975,57.35,-98.374,-16.876],[2.484,2.364,1.58,0.581,0.475,10.823,7.083,5.92,3.595,2.857,33.596,9.906,9.013,7.666,6.042,-47.672,51.795,56.753,37.184,36.006,-52.152,101.295,38.979,40.552,70.208,-14.593,-89.017,-99.897,-102.416,-18.892],[5.017,-0.226,1.626,1.367,0.988,17.28,7.473,4.355,4.162,3.218,5.93,12.76,10.087,7.652,6.445,-22.475,71.599,49,35.636,35.84,-38.411,-4.293,106.547,57.262,57.625,-79.032,-83.938,-26.243,-206.692,-71.344],[-0.112,2.617,1.721,-0.817,0.521,11.078,7.009,3.388,3.983,2.776,-11.428,11.34,7.503,6.185,5.952,-64.429,48.342,46.894,31.905,25.853,-53.101,22,64.396,91.216,57.215,-60.442,-2.747,-43.243,225.089,-11.219]],
"ve": [[1.004,1.08,1.011,1.401,1.216,4.956,6.986,7.531,9.201,11.451,10.229,96.116,28.251,29.384,37.271,49.867,-13.487,-198.019,-264.07,-194.806,99.14,29.715,-9.935,-35.821,-50.527,196.322,82.808,32.408,3.301,-17.088],[0.941,0.584,0.333,0.346,0.311,5.256,2.801,1.615,2.119,2.004,10.06,5.395,3.669,6.656,4.131,52.815,27.162,17.954,-28.595,11.568,99.448,51.136,31.953,18.055,-35.809,200.631,94.92,71.52,43.549,26.755],[0.887,0.641,0.367,0.343,0.214,5.05,2.768,1.753,1.4,0.984,10.177,4.822,3.545,2.785,1.924,48.751,25.851,16.847,-17.718,9.571,100.766,50.313,32.909,26.031,19.762,215.427,101.121,72.875,53.741,39.471],[0.889,0.628,0.454,0.276,0.22,4.87,2.666,1.923,1.375,1.103,9.97,4.825,3.496,2.717,2.185,64.415,23.194,16.903,12.422,9.347,70.591,56.036,34.792,-13.617,20.051,197.892,96.804,65.792,51.19,39.579],[1,0.335,0.462,0.379,0.303,4.981,2.604,1.731,1.45,1.149,9.271,5,3.59,2.75,2.242,52.701,23.725,16.654,12.688,10.562,97.346,50.303,37.887,25.96,18.517,211.607,100.038,65.081,53.468,42.194],[0.288,0.542,0.418,0.125,0.236,4.603,2.55,1.646,1.388,1.082,9.791,4.937,3.31,2.565,2.172,51.66,27.057,16.669,12.457,10.062,96.818,53.642,33.108,22.486,19.123,199.173,98.091,65.97,56.721,40.919]],
"kep": [[-34.541,-3.803,-2.421,-2.681,-2.081,-93.713,-20.96,-16.035,-15.9,-17.052,-63.523,-44.332,-37.727,-33.933,-34.694,-51.049,-233.111,-193.853,-181.767,-192.781,-62.59,-404.799,-373.107,-362.959,-395.893,-19.037,-193.095,-594.867,-683.248,-731.753],[1.109,3.247,-3.986,-2.333,-1.17,10.783,14.538,41.414,-15.347,-9.232,16.829,26.527,41.995,-36.379,-17.301,-87.995,63.119,-50.019,-180.139,-110.402,-37.734,7.634,121.993,-290.307,-178.912,-63.062,-33.97,114.679,-80.519,-353.793],[-0.666,2.09,1.657,4.119,41.931,6.475,7.328,5.986,12.008,29.417,14.381,6.487,13.353,25.599,97.811,-55.366,36.942,23.425,-1.207,102.753,-32.721,106.9,-43.206,-44.378,8.554,-46.068,-73.149,5.43,-121.133,-4.688],[-1.704,1.841,2.024,1.22,1.637,1.523,4.68,6.09,4.985,6.087,14.809,5.467,7.899,10.263,11.993,-65.744,17.216,39.896,34.882,55.12,-69.682,20.446,-4.291,4.321,80.967,-65.921,-81.357,-106.606,-106.633,-58.056],[-3.337,-0.985,1.549,1.749,1.798,2.484,4.123,3.311,4.209,4.6,-11.85,6.833,7.518,7.332,8.483,-50.572,30.085,28.559,25.055,38.075,-68.981,-43.615,51.797,24.285,42.015,-84.432,-80.738,-49.142,-179.882,-102.958],[-10.091,0.615,1.365,-0.771,0.987,-7.372,2.211,1.877,3.632,3.143,-30.299,3.716,4.375,4.81,6.195,-77.436,9.382,23.976,19.397,18.726,-72.77,-27.453,14.612,49.877,36.171,-80.501,-51.391,-63.642,96.77,-56.493]],
"vp": [[-6.132,-14.109,-29.992,-23.094,-37.771,-22.796,-13.348,-19.475,-20.86,-8.872,4.523,-8.213,2.501,-6.527,-12.147,-12.733,-7.409,2.367,-6.408,-2.797,-34.074,-6.965,-2.984,-9.554,-2.08,-30.086,10.112,-3.694,3.015,-8.631],[192.938,27.078,-9.758,-33.83,-35.698,44.77,15.782,-24.178,-11.171,-5.52,-0.584,2.079,-9.866,9.184,-19.14,-11.623,-5.988,-16.243,8.111,12.704,-12.436,-20.469,-24.922,-7.047,-17.705,-23.907,-40.549,-25.618,-14.376,1.231],[361.17,158.955,92.831,48.963,-32.556,70.142,62.486,-9.597,-16.161,-13.977,20.895,-4.08,-2.437,5.644,-56.162,-15.825,-0.824,-6.185,2.157,-47.919,-0.824,-26.811,-16.91,-18.881,-24.087,-21.538,-37.881,-7.066,-4.257,-26.539],[678.039,449.408,293.224,131.745,93.84,108.494,107.127,71.877,10.977,-9.813,104.196,57.445,21.622,24.844,5.981,35.464,-11.408,11.568,-18.196,-16.158,-5.599,-11.965,-7.148,2.19,-30.118,-14.36,-27.523,-20.511,-17.516,-18.497],[2588.665,779.569,503.219,310.63,225.215,552.451,132.073,66.32,45.06,50.065,207.322,72.916,48.638,32.191,32.24,9.559,2.882,7.194,7.71,-0.151,-0.944,13.781,-26.655,-4.168,-20.765,-8.841,-4.736,-40.684,-1.049,-2.264],[3785.004,903.313,894.9,386.578,438.608,904.37,121.042,129.526,110.709,106.866,396.918,21.965,61.902,39.831,57.641,66.769,16.107,7.857,-10.357,1.568,-12.207,1.683,-6.922,25.542,-11.297,0.516,-3.671,-11.86,-9.564,8.508]]
}