{
"KTrans": [[0.11,3.04,3.518,1.223,2.525,3.717,3.435,2.359,2.93,2.436,5.606,0.19,2.57,2.474,3.315,6.726,7.679,3.904,4.131,5.216,8.554,5.693,6.872,6.433,8.047,15.988,14.151,10.662,12.485,10.483],[-15.566,0.348,-0.154,0.741,1.903,-17.537,-3.899,-0.912,0.696,1.53,-12.338,-2.48,-0.067,1.244,2.166,-12.164,2.125,0.406,2.159,2.54,-18.723,-3.289,1.27,2.952,3.526,-16.903,0.698,6.275,5.933,5.928],[-40.445,-6.605,-2.885,-1.639,-0.393,-43.4,-11.537,-2.942,-1.761,0.147,-41.12,-6.204,-3.491,-0.855,-0.6,-42.585,-7.58,-2.666,0.413,0.951,-48.811,-9.38,-2.265,0.854,1.649,-46.122,-7.883,-0.847,0.96,3.705],[-66.229,-15.42,-8.972,-4.062,-2.228,-63.986,-20.423,-6.59,-3.988,-2.074,-66.737,-19.569,-8.116,-5.312,-0.632,-73.302,-18.367,-8.151,-4.072,-1.537,-64.74,-19.742,-8.51,-3.334,-1.068,-66.931,-21.405,-7.258,-0.632,-0.047],[-80.453,-28.462,-13.92,-7.361,-3.631,-80.949,-24.051,-14.773,-6.862,-4.982,-77.297,-24.303,-12.811,-8.531,-4.93,-79.387,-26.832,-14.664,-8.81,-3.892,-77.45,-28.408,-13.202,-7.599,-4.495,-77.393,-34.886,-15.832,-6.969,-3.534],[-89.121,-39.627,-17.52,-11.804,-7.214,-89.434,-37.786,-19.831,-11.739,-7.236,-86.551,-36.978,-16.25,-13.285,-6.979,-86.411,-33.173,-21.167,-11.78,-7.011,-86.785,-41.76,-23.26,-11.243,-7.398,-84.408,-46.847,-24.403,-12.008,-7.566]],
"ve": [[-0.396,2.252,2.797,5.493,7.949,0.686,1.749,4.043,4.69,8.621,0.304,2.244,3.522,4.731,5.389,3.857,2.597,3.839,3.692,4.89,6.521,4.004,3.981,4.909,2.356,13.854,6.423,4.262,1.975,1.915],[-6.667,0.225,-0.208,0.984,1.142,-7.775,-1.238,0.047,0.649,0.955,-5.961,-0.175,0.072,0.724,1.182,-2.649,1.937,0.521,0.985,1.45,-2.541,1.088,2.182,1.885,2.017,2.425,4.163,4.564,3.562,2.867],[-21.172,-2.437,-1.182,-0.831,-0.12,-20.952,-3.278,-0.831,-0.661,0.166,-19.598,-1.617,-1.237,-0.24,-0.212,-18.123,-1.057,-0.281,0.952,0.765,-19.805,-1.303,0.7,0.937,1.245,-11.158,2.673,2.493,2.716,2.695],[-40.485,-5.795,-3.406,-1.434,-0.729,-38.342,-7.892,-2.449,-1.605,-0.786,-38.363,-7.908,-2.972,-1.743,-0.036,-42.075,-6.104,-1.985,-0.891,-0.233,-32.498,-5.486,-1.654,0.057,0.331,-26.685,-3.271,0.697,2.305,1.609],[-48.395,-12.718,-5.207,-2.556,-1.092,-53.368,-11.112,-5.559,-2.106,-1.843,-49.028,-9.95,-4.681,-3.173,-1.583,-49.828,-10.564,-4.926,-2.762,-0.593,-43.286,-8.075,-3.34,-1.373,-0.509,-30.002,-10.942,-2.459,-0.046,0.879],[-61.868,-18.831,-6.753,-4.302,-2.943,-64.684,-17.466,-7.781,-4.347,-2.457,-59.693,-17.232,-6.324,-4.651,-2.298,-56.271,-13.631,-8.129,-4.188,-2.043,-54.666,-16.124,-7.797,-2.858,-1.607,-46.099,-16.312,-6.79,-1.86,-0.681]],
"kep": [[-5.71,-4.637,-4.499,-8.285,-8.134,-3.431,-3.874,-6.339,-6.163,-8.873,-1.264,-7.35,-5.836,-6.72,-5.952,-3.413,-0.701,-4.731,-4.01,-3.691,-4.543,-3.908,-2.124,-3.096,1.118,-4.239,1.349,0.798,5.069,3.599],[-17.665,-5.917,-5.764,-5.979,-5.024,-17.888,-8.46,-6.696,-5.704,-5.181,-15.014,-8.085,-5.933,-5.277,-4.828,-16.418,-5.677,-5.904,-4.655,-4.707,-23.475,-10.005,-6.649,-4.766,-4.345,-25.923,-9.063,-4.281,-3.608,-2.947],[-32.457,-10.233,-7.488,-6.568,-6.024,-36.028,-14.27,-7.912,-6.846,-5.794,-35.217,-10.645,-8.032,-6.386,-6.125,-37.525,-12.528,-8.105,-6.322,-5.593,-44.312,-13.903,-8.61,-5.884,-5.391,-45.969,-16.044,-8.928,-7.427,-4.856],[-54.137,-16.512,-11.342,-8.355,-7.199,-53.76,-19.359,-9.952,-8.104,-6.998,-53.957,-18.536,-11.015,-9.247,-6.354,-60.423,-19.107,-11.824,-8.85,-7.027,-55.318,-20.636,-12.518,-9.04,-7.119,-60.292,-24.392,-13.412,-8.567,-7.324],[-68.629,-23.947,-14.73,-10.486,-8.233,-67.178,-21.561,-15.282,-10.449,-8.812,-65.714,-21.639,-14.241,-11.095,-9.013,-68.822,-24.524,-15.737,-11.767,-8.926,-68.223,-27.626,-15.753,-11.842,-9.591,-69.832,-32.492,-19.088,-12.437,-9.943],[-77.895,-31.665,-17.142,-13.344,-9.972,-80.385,-31.394,-18.588,-13.233,-10.426,-75.81,-30.589,-16.33,-14.499,-10.361,-75.984,-29.706,-19.755,-13.384,-10.623,-77.411,-35.976,-22.059,-14.042,-11.425,-77.227,-41.871,-24.067,-15.743,-12.389]],
"vp": [[27.179,-99.578,-141.869,67.646,-103.484,-8.098,-17.068,-0.513,-11.316,-21.022,-4.492,9.605,-4.64,-7.797,-6.535,-1.221,-5.317,0.638,0.772,-2.113,0.001,0.924,-0.333,-0.422,-1.746,-0.933,-0.543,0.169,-0.796,-0.106],[663.093,-72.067,22.925,-104.334,-194.181,162.808,54.699,32.415,-9.158,-19.413,64.512,8.738,3.957,-7.53,-21.724,10.138,-5.04,2.032,-0.813,-2.12,8.203,3.647,-0.039,0.042,-1.386,4.252,0.889,-1.282,-1.332,-0.71],[2221.107,405.785,220.814,288.276,70.333,451.881,129.858,37.895,47.517,3.278,212.245,24.435,40.841,6.647,30.1,43.594,8.489,5.434,-1.836,-1.43,27.048,7.438,2.487,0.678,-0.229,11.572,2.349,1.41,0.225,-1.12],[4327.696,1114.185,930.865,379.236,250.671,813.678,315.246,120.545,114.885,70.526,407.618,154.978,88.407,67.505,-5.988,94.26,29.951,15.01,11.398,6.754,39.883,15.815,9.408,4.664,2.807,19.574,8.696,3.52,0.357,1.198],[5480.294,2581.048,1526.155,900.027,411.126,1134.721,447.116,317.969,138.11,156.25,520.798,195.954,134.912,125.287,73.206,110.108,47.301,33.088,25.496,8.208,51.591,21.932,13.944,10.024,6.772,25.313,16.495,8.859,4.917,3.319],[6700.791,3876.094,1952.742,1639.68,1286.683,1405.414,714.931,469.859,321.872,221.007,645.032,355.095,183.688,184.631,105.832,126.109,61.433,53.641,35.715,22.438,63.737,38.548,29.06,15.418,11.412,30.459,22.299,15.446,8.289,6.557]]
}