{
"KTrans": [[-53.656,-4.811,6.071,0.677,0.019,-42.592,1.772,4.186,1.613,1.764,-43.594,-2.332,5.892,4.258,1.915,-44.237,-10.774,15.475,0.428,2.563,-48.284,-16.013,-1.11,2.492,11.85,-37.112,11.289,1.181,2.858,3.703],[-83.475,-47.636,-19.99,-13.685,-15.471,-87.011,-55.726,-28.907,-11.562,-9.804,-81.771,-50.238,-21.253,-17.307,-9.682,-85.846,-48.89,-27.272,-6.27,-16.887,-91.265,-48.429,-22.213,-5.661,-7.738,-83.78,-43.872,-14.789,-15.918,-11.172],[-93.996,-65.799,-48.608,-31.868,-17.562,-94.93,-67.794,-48.992,-27.907,-16.659,-92.835,-69.989,-46.39,-22.245,-17.668,-95.744,-77.069,-46.103,-23.462,-13.58,-95.588,-70.074,-47.194,-26.555,-14.955,-94.381,-72.655,-38.777,-26.226,-19.746],[-96.341,-77.958,-62.759,-43.916,-33.386,-96.087,-81.44,-64.345,-44.735,-29.661,-96.054,-83.615,-63.737,-38.043,-32.049,-98.782,-82.196,-68.175,-47.827,-25.425,-96.745,-83.768,-63.982,-42.564,-30.699,-97.2,-86.14,-67.395,-43.154,-25.011],[-99.735,-86.125,-77.301,-60.439,-46.774,-98.135,-84.878,-74.502,-55.204,-41.31,-98.833,-82.334,-73.754,-55.207,-45.507,-97.954,-87.25,-72.782,-57.438,-44.817,-98.12,-90.4,-63.909,-58.793,-38.173,-97.143,-89.015,-73.055,-57.107,-42.279],[-100.269,-92.228,-78.941,-69.496,-55.482,-99.468,-90.454,-83.137,-64.702,-55.548,-100.024,-90.674,-79.478,-66.06,-61.211,-99.648,-93.163,-82.685,-68.157,-44.989,-99.509,-93.483,-76.263,-61.283,-53.24,-98.407,-90.829,-80.803,-71.53,-55.258]],
"ve": [[-21.647,-189.601,382.028,1188.357,-1037.919,9.492,49.709,-33.423,131.777,271.493,119.318,-67.03,-66.499,84.471,-69.025,-110.99,20.431,-23.033,15.806,-56.801,-21.806,14.939,48.835,1138.228,-16.956,-24.547,7.706,-69.956,-19.765,-22.625],[-66.534,-20.142,-10.478,-5.829,-1.186,-48.307,-41.106,-15.814,0.853,-2.43,27.617,-27.968,-9.233,-3.721,-0.082,-57.839,-28.111,-8.264,-5.797,-1.363,-78.197,-28.213,3.701,-3.238,-0.138,-37.76,-42.98,8.802,-26.493,-24.529],[-87.873,-36.012,-31.577,-18.201,-11.759,96.211,-57.29,-28.372,-17.034,-14.385,-1.151,-27.612,-24.631,-14.332,-12.557,-34.269,-74.178,-25.282,-15.201,-11.855,57.587,-44.49,-30.354,-14.795,-10.041,-28.256,-52.686,-22.21,-19.169,-11.981],[-136.557,-46.985,-30.071,-34.729,-21.744,-56.9,-66.236,-47.432,-29.58,-21.458,-73.184,-63.044,-41.605,-19.454,-17.651,-756.484,-131.984,-46.669,-30.061,-19.376,-80.795,-88.595,-43.652,-26.594,-20.718,-66.189,-68.733,-40.13,-28.155,-19.463],[-83.981,-71.23,-67.675,-43.103,-29.414,-80.169,-52.644,-39.522,-39.14,-30.984,-88.606,-55.43,-45.379,-34.353,-33.36,-76.613,-64.93,-54.856,-43.271,-26.5,-70.89,-72.295,-31.007,-43.992,-24.962,-113.732,-81.02,-38.509,-40.52,-40.684],[-57.584,-79.268,-56.083,-48.865,-37.202,-61.331,-68.057,-60.064,-38.962,-43.839,-105.943,-59.291,-76.144,-47.483,-46.06,-106.165,-145.014,-64.571,-46.899,-27.233,-69.984,-81.305,-60.129,-44.226,-37.736,-45.471,-72.403,-55.512,-56.721,-38.849]],
"kep": [[-65.06,-20.578,4.927,-10.133,-17.948,-65.04,-6.093,-1.779,-18.224,-11.372,-60.911,-16.848,-1.029,-0.209,-15.181,-60.53,-28.534,3.108,-7.157,-8.398,-64.765,-36.725,-13.545,-7.136,6.759,-57.924,-7.989,-7.97,-9.843,-7.373],[-87.084,-47.997,-9.998,-8.405,-12.102,-89.737,-49.543,-21.432,-4.431,-5.042,-87.279,-46.294,-15.622,-13.046,-6.995,-88.906,-47.764,-22.025,-0.575,-12.861,-93.484,-47.974,-14.926,-2.772,-5.669,-89.965,-41.349,-7.562,-12.549,-8.922],[-96.09,-63.417,-38.81,-18.719,-6.108,-93.865,-71.346,-35.065,-14.109,-2.553,-93.378,-66.95,-36.316,-9.959,-5.638,-95.679,-76.13,-36.067,-11.193,-2.208,-94.931,-68.228,-34.064,-14.11,-4.741,-92.283,-69.43,-32.171,-9.113,-8.306],[-93.991,-76.974,-58.889,-28.863,-16.534,-94.365,-78.569,-60.032,-30.43,-10.912,-95.382,-81.564,-58.213,-23.828,-16.933,-96.898,-85.481,-62.735,-30.536,-9.195,-96.055,-83.18,-58.787,-31.144,-13.531,-97.077,-88.142,-60.832,-27.413,-8.1],[-95.817,-85.152,-77.986,-48.364,-26.597,-98.399,-84.613,-73.001,-45.282,-25.9,-97.166,-78.115,-71.965,-46.362,-23.946,-96.786,-84.255,-69.454,-53.768,-27.914,-97.832,-88.983,-64.986,-50.701,-23.659,-97.231,-88.744,-68.874,-47.729,-19.783],[-97.275,-88.592,-76.849,-66.609,-40.323,-97.045,-87.551,-82.72,-58.875,-41.433,-98.084,-86.078,-79.01,-60.145,-49.445,-97.567,-87.369,-78.665,-65.044,-30.901,-97.48,-88.097,-75.52,-55.805,-37.492,-97.804,-87.338,-80.891,-64.986,-40.002]],
"vp": [[3210.258,1566.613,882.567,1595.664,1773.82,632.046,146.39,193.559,352.8,221.695,275.98,176.954,127.404,123.672,128.494,53.598,31.199,16.449,21.952,20.902,21.357,20.131,13.504,7.702,4.814,7.434,5.076,6.249,8.685,6.601],[5486.533,6426.28,5738.734,5318.306,5460.472,1368.118,1481.465,983.73,1078.412,986.269,579.759,630.297,423.497,511.278,443.883,124.944,153.185,91.601,71.717,108.106,75.765,70.125,64.671,33.325,31.642,31.405,29.31,21.148,25.67,22.943],[8524.209,8805.613,9453.055,9561.66,8547.817,1754.493,2000.216,2077.138,1607.456,2113.187,784.307,916.376,973.482,774.588,947.628,175.163,245.816,160.113,168.91,170.711,93.678,98.155,105.229,79.111,81.046,38.565,50.342,37.694,43.939,39.212],[9349.059,10364.839,13232.821,13372.314,12030.619,1600.674,2793.813,2754.368,2603.844,2720.122,772.199,1334.756,1328.596,1347.534,955.687,178.54,262.101,291.375,276.832,242.043,88.793,127.543,149.969,129.174,125.462,39.123,75.291,68.236,66.24,60.869],[10424.124,13868.007,19964.163,20382.473,16136.748,1837.476,2272.592,3589.003,3440.759,3091.544,943.941,1118.524,1597.543,1382.885,1804.609,171.926,277.291,360.701,362.315,258.435,88.398,161.773,150.167,198.675,156.56,40.965,78.345,79.822,89.551,87.676],[10059.59,16838.654,18142.813,20568.161,24243.626,1844.951,3032.345,4274.102,3805.531,4027.208,1001.342,1549.029,2047.172,2078.712,2475.609,203.906,348.055,397.613,399.432,321.287,88.139,168.891,173.779,185.154,211.433,42.828,81.991,89.108,113.342,111.756]]
}