{
"KTrans": [[1.094,1.407,1.428,1.157,0.026,12.095,8.295,6.584,6.254,5.175,26.643,17.894,14.217,11.199,10.567,162.423,94.457,74.964,66.694,60.233,403.911,223.08,177.047,152.545,140.64,1143.686,590.938,456.997,394.574,362.002],[0.799,2.034,0.151,0.62,1.193,15.262,6.713,4.798,4.052,3.072,20.289,11.5,7.724,6.89,6.472,136.403,64.904,44.998,37.106,30.257,317.781,144.095,99.324,77.741,66.137,868.294,359.859,236.292,180.248,151.435],[2.406,0.873,1.05,0.669,1.151,7.397,5.23,5.111,3.771,2.909,15.31,11.381,9.815,6.546,4.672,124.763,61.577,40.816,31.5,27.193,309.801,134.976,89.05,68.67,55.209,795.093,333.638,208.02,154.258,123.041],[-8.499,3.864,2.656,1.919,1.292,1.258,6.575,4.925,3.819,3.267,12.208,10.172,7.062,4.79,5.169,112.836,60.985,40.232,30.48,23.879,270.29,134.605,87.286,65.653,52.477,741.334,323.715,197.839,139.4,114.296],[-14.3,1.8,0.756,1.364,1.991,-5.99,7.379,4.782,2.915,2.657,-0.512,9.034,9.092,6.156,4.205,90.406,64.086,38.29,30.306,24.223,242.9,129.19,82.215,63.527,51.082,665.521,316.844,191.699,140.893,107.002],[-17.326,4.02,3.43,-1.386,1.074,-14.118,5.821,2.428,4.261,1.782,-3.717,11.096,7.509,6.295,5.042,78.859,63.649,38.621,31.57,23.741,215.911,140.712,83.146,61.969,49.46,581.847,312.482,183.388,137.099,108.31]],
"ve": [[1.726,0.739,-0.314,-0.314,2.696,4.32,0.88,-1.488,-2.552,-3.526,8.468,1.581,-1.842,-3.969,-5.846,45.229,13.433,-1.494,-11.663,-18.622,93.579,33.133,8.2,-7.306,-18.143,191.448,78.872,35.142,10.28,-6.453],[1.306,0.488,0.041,0.163,0.412,5.979,2.342,1.124,0.953,0.576,11.302,4.773,2.93,1.647,0.779,49.384,22.999,14.013,9.305,5.532,99.455,47.328,29.363,19.26,12.404,198.62,96.629,60.797,41.252,28.732],[1.511,0.475,0.708,0.562,0.185,5.36,2.444,1.718,1.131,0.5,10.599,4.935,3.502,2.225,1.645,50.414,24.224,15.821,11.492,8.582,100.28,49.422,31.91,23.097,17.346,199.515,99.179,64.47,46.985,35.667],[1.254,0.831,0.38,0.436,-0.022,5.725,2.726,1.819,1.146,0.946,10.877,5.055,3.118,2.184,1.89,50.752,24.975,16.279,12.032,9.42,99.796,49.619,32.792,24.252,18.807,200.634,99.551,65.569,48.044,37.696],[1.123,0.633,0.324,0.252,0.398,5.536,2.593,1.716,1.049,0.94,10.491,4.57,3.365,2.579,1.738,50.231,25.07,16.446,12.145,9.612,100.966,49.916,32.764,24.616,19.173,200.937,99.916,65.922,49.058,38.549],[1.703,0.952,0.161,-0.067,0.204,6.437,2.126,1.825,1.473,0.713,10.723,5.103,3.22,2.45,1.916,50.511,25.276,16.287,12.412,9.799,100.594,50.253,33.065,24.544,19.733,201.527,99.905,65.811,49.227,39.31]],
"kep": [[-0.404,1.087,2.533,2.391,-0.988,7.794,7.64,8.793,9.815,10.284,17.01,16.488,16.953,16.699,18.383,80.872,71.658,77.876,89.11,97.562,160.559,142.816,156.239,172.736,194.26,326.92,286.387,312.273,348.546,394.067],[-0.523,1.548,0.125,0.497,0.814,8.77,4.275,3.645,3.093,2.514,8.2,6.439,4.676,5.179,5.674,58.384,34.047,27.178,25.456,23.442,109.629,65.673,54.083,49.037,47.81,224.404,133.872,109.134,98.406,95.318],[0.789,0.37,0.322,0.099,0.958,2.027,2.705,3.301,2.589,2.387,4.307,6.106,6.08,4.218,2.963,49.319,30.052,21.567,17.936,17.125,104.597,57.234,43.278,37.012,32.253,198.972,117.673,87.259,72.969,64.384],[-9.548,2.972,2.224,1.452,1.293,-4.195,3.69,2.992,2.595,2.268,1.136,4.818,3.8,2.519,3.196,41.203,28.754,20.573,16.425,13.172,85.271,56.753,40.982,33.266,28.318,180.012,112.246,79.85,61.682,55.6],[-15.411,1.12,0.377,1.075,1.554,-10.934,4.549,2.961,1.8,1.66,-9.858,4.223,5.494,3.441,2.389,26.643,31.078,18.724,16.138,13.275,70.772,52.834,37.19,31.165,26.731,154.531,108.43,75.759,61.568,49.364],[-18.637,2.927,3.176,-1.366,0.812,-19.343,3.522,0.538,2.687,1.004,-13.104,5.576,4.102,3.693,3.022,18.87,30.532,19.151,16.963,12.656,57.6,60.147,37.547,29.99,24.782,126.123,106.261,70.851,58.831,49.485]],
"vp": [[20.578,-38.44,65.832,-31.614,20.817,-13.8,-4.66,3.922,18.316,3.01,9.383,-2.304,3.49,0.738,0.211,0.711,-0.271,0.53,0.889,-0.937,-0.441,0.287,0.129,-0.361,0,0.164,0.026,0.003,0.043,-0.296],[210.519,-1.678,-117.626,40.121,46.556,60.821,9.761,13.598,-4.621,11.262,26.783,1.476,4.409,7.388,3.086,6.358,-1.478,-0.615,1.799,0.023,2.28,1.339,0.116,0.144,0.471,1.281,0.247,0.454,0.145,0.165],[938.154,141.309,120.114,22.737,26.402,178.802,20.172,38.12,5.664,16.411,74.34,8.149,-0.31,8.962,-3.098,21.349,4.718,2.562,-0.074,2.21,10.796,0.768,0.704,-0.582,1.306,4.181,0.202,0.547,0.692,0.263],[1912.843,307.491,83.658,130.023,167.48,291.323,63.584,1.031,45.746,18.39,132.203,20.486,12.848,-6.276,-4.319,35.119,0.316,0.178,-1.359,0.237,20.133,0.369,0.502,0.544,1.629,8.225,1.987,-0.236,-0.543,0.973],[2710.08,399.155,298.165,-11.776,-25.579,540.605,84.443,-7.894,11.055,21.674,216.786,33.204,26.604,18.694,-9.467,55.107,7.138,3.222,9.6,0.582,28.472,1.57,0.485,1.551,1.109,13.355,2.8,-0.469,0.187,0.033],[3106.24,365.919,251.178,0.475,79.085,704.544,147.479,4.27,1.866,15.441,340.075,57.327,39.62,17.351,13.521,63.97,8.257,0.548,0.491,5.619,35.199,5.999,-0.224,1.102,4.858,18.756,4.187,2.675,0.023,0.268]]
}