{
"KTrans": [[3.268,10.342,6.595,6.378,9.723,11.234,10.613,11.455,11.33,11.562,23.665,19.315,18.06,19.031,18.482,130.937,89.307,77.086,74.091,67.104,298.249,206.219,173.583,152.835,143.211,729.459,489.456,406.475,367.769,336.212],[-22.363,-5.12,1.494,2.567,3.355,-16.748,-0.172,0.552,5.661,5.83,-13.835,4.827,6.406,8.803,9.035,50.912,44.318,38.062,33.024,32.054,138.37,101.597,81.581,70.985,65.3,310.949,241.84,184.73,152.714,137.896],[-37.048,-14.287,-5.654,-2.423,-0.432,-32.772,-11.792,-5.933,-1.68,1.245,-27.27,-7.469,0.026,2.05,3.816,17.11,26.923,25.036,23.492,21.758,76.969,69.135,58.529,53.518,46.391,186.16,165.908,141.624,116.062,104.01],[-50.735,-23.909,-13.217,-6.484,-4.701,-47.566,-21.327,-10.495,-5.395,-2.448,-40.496,-15.02,-7.514,-2.314,-1.015,-8.795,10.889,16.144,15.418,14.861,30.725,51.738,43.076,39.624,36.773,107.63,127.87,107.391,91.309,82.077],[-58.836,-27.808,-16.496,-10.554,-7.161,-55.264,-23.491,-16.651,-9.389,-6.532,-53.218,-22.053,-12.026,-8.099,-4.553,-26.42,1.472,8.42,8.387,10.892,7.403,32.698,34.348,29.506,27.865,71.568,105.487,85.534,76.53,68.038],[-65.586,-33.273,-21.885,-17.014,-12.255,-63.852,-31.656,-18.89,-12.768,-9.357,-60.479,-30.195,-19.578,-11.878,-7.829,-37.524,-7.72,0.769,4.362,5.059,-13.823,18.886,24.232,21.775,20.849,35.212,62.84,69.695,65.165,59.57]],
"ve": [[7.536,8.184,18.512,-231.142,47.172,9.713,7.789,29.468,33.527,74.793,12.433,8.471,11.924,17.222,13.057,47.053,19.724,5.906,-3.49,-7.801,92.925,35.279,11.568,-3.276,-13.354,187.13,77.824,35.571,11.746,-4.071],[1.597,-0.176,0.381,2.431,5.017,6.189,1.875,1.631,3.046,4.57,8.06,4.625,4.322,3.422,5.184,47.274,22.846,14.473,10.776,8.388,94.757,45.524,28.389,21.077,14.657,195.157,93.643,59.874,41.463,29.671],[-0.991,-2.444,-0.829,-0.595,0.681,4.687,-0.781,-0.207,0.62,1.505,9.358,3.488,1.792,1.674,2.683,45.559,22.127,13.853,10.319,8.824,96.417,45.928,29.792,21.623,16.669,195.038,94.857,61.994,44.662,34.709],[-1.672,-1.791,-1.632,-1.494,-1.086,5.624,0.219,-0.528,-0.302,-0.21,7.977,3.433,0.613,1.28,1.211,47.663,22.03,14.804,10.545,7.507,95.15,45.492,29.604,21.517,16.899,194.043,94.135,62.133,45.177,35.749],[-0.758,-3.023,-2.678,-1.643,-1.179,4.775,-0.433,-0.278,-0.919,-0.71,10.838,2.109,0.325,-0.035,0.295,48.249,20.484,13.592,9.305,7.121,97.026,46.64,29.169,21.359,17.358,197.852,95.677,60.962,46.388,35.941],[1.886,-1.88,-1.909,-1.948,-1.7,0.94,-0.064,-1.405,-1.736,-0.762,11.203,1.588,0.549,-0.488,0.092,48.257,21.21,12.346,9.56,7.417,96.129,45.281,29.809,21.009,17.171,200.863,94.699,61.915,45.39,35.471]],
"kep": [[-23.058,-16.91,-24.186,-31.999,-29.506,-18.615,-17.546,-22.463,-24.239,-28.286,-11.95,-11.528,-13.21,-14.037,-16.192,23.652,25.19,33.012,43.447,45.725,61.582,77.996,93.033,106.482,121.995,125.99,158.916,192.661,228.027,256.199],[-39.614,-25.369,-20.783,-21.596,-22.815,-38.52,-23.156,-22.519,-19.742,-20.769,-37.459,-21.625,-20.171,-17.675,-18.739,-19.583,-8.166,-5.638,-5.972,-4.702,-4.099,8.266,10.609,10.425,12.746,8.642,37.764,39.079,39.563,43.285],[-50.055,-31.208,-25.588,-23.289,-22.749,-49.478,-30.426,-26.352,-23.63,-22.047,-47.87,-30.034,-23.15,-21.607,-20.952,-36.908,-18.779,-14.164,-12.547,-12.605,-29.507,-9.4,-4.578,-1.409,-2,-24.263,6.496,16.438,16.592,18.28],[-60.746,-39.399,-31.074,-25.878,-24.764,-60.789,-38.662,-29.678,-25.885,-23.643,-57.321,-35.65,-28.179,-24.629,-23.607,-51.609,-28.997,-20.939,-18.452,-16.555,-47.623,-18.46,-13.807,-10.312,-8.675,-44.887,-8.451,-0.203,2.824,4.711],[-67.29,-41.742,-32.922,-28.97,-26.646,-66.596,-39.941,-34.662,-28.604,-26.476,-66.957,-40.266,-31.406,-28.168,-25.692,-61.049,-34.044,-25.457,-22.555,-19.172,-57.352,-29.34,-18.746,-16.675,-14.925,-54.629,-18.06,-10.047,-5.894,-3.544],[-73.145,-46.776,-37.803,-33.898,-30.268,-72.713,-46.489,-35.674,-30.664,-28.679,-72.089,-46.236,-37.492,-30.828,-28.084,-67.024,-40.445,-29.931,-25.593,-23.63,-65.228,-36.043,-25.243,-21.393,-19.478,-64.424,-34.706,-18.277,-11.367,-8.05]],
"vp": [[478.399,203.786,185.382,-784.682,435.924,-25.573,-73.87,-18.192,89.772,-44.14,-24.632,12.814,-6.885,-25.149,-1.09,-3.408,-13.747,2.249,-2.102,-8.74,-3.605,-5.332,-6.331,-9.048,-8.866,-8.549,-6.209,-7.795,-4.885,-10.319],[2110.631,555.422,-21.715,-316.776,-440.459,523.853,287.386,-58.064,-68.722,-10.036,263.071,104.904,-7.848,-25.887,-46.591,35.953,14.897,-1.658,-19.342,-4.205,12.327,2.832,-9.281,-5.785,-1.256,5.499,0.169,-6.798,-8.532,-6.223],[4371.486,1878.518,1456.8,440.146,482.449,902.756,249.468,137.659,129.128,-58.87,381.02,204.172,163.652,46.799,47.938,78.935,53.936,2.802,5.227,-4.287,43.064,15.24,-2.398,0.302,-7.573,11.788,4.226,6.362,-4.548,-3.965],[5763.939,3378.307,2190.701,880.055,950.345,1116.553,857.598,299.118,151.096,255.912,546.654,346.766,108.733,137.773,85.419,106.478,79.178,43.842,26.631,-6.105,47.729,28.874,5.124,-2.08,3.075,19.836,13.416,5.724,-3.316,-4.286],[6423.382,5412.042,2501.04,1573.252,928.986,1304.684,1213.181,676.366,319.886,219.553,618.881,491.541,263.302,158.124,114.703,122.741,100.271,63.252,20.962,8.914,59.969,50.362,19.548,-1.596,6.122,28.853,26.768,3.369,2.138,-5.178],[6785.259,7556.46,4118.947,2209.609,2012.092,1387.857,1567.358,880.814,463.673,263.982,730.827,741.452,361.344,250.689,153.766,132.681,137.109,75.784,43.924,24.754,52.436,62.269,39.355,19.915,7.944,28.616,33.425,16.848,7.723,1.928]]
}