{
"KTrans": [[0.507,-0.58,2.1,0.132,1.122,3.981,11.168,11.46,11.62,10.247,10.633,22.801,23.441,20.869,21.669,26.388,75.334,92.484,93.508,93.4,-76.346,35.584,111.563,135.947,145.331,-269.632,-110.355,44.485,102.023,111.314],[-7.252,-1.225,-0.025,1.419,1.231,1.413,6.435,1.711,4.313,4.84,14.274,12.716,3.053,10.533,9.697,93.009,85.19,-20.298,29.257,38.162,12.105,-26.105,2.148,14.243,51.525,-85.934,-118.319,25.752,-50.713,27.182],[-12.603,-0.965,1.384,-0.666,0.278,-2.46,5.416,3.142,2.935,0.972,2.207,10.856,8.657,7.854,2.059,68.792,71.947,47.966,45.367,-2.59,34.556,159.343,132.77,28.076,-22.502,18.263,9.965,70.164,-53.239,57.442],[-17.821,-1.201,0.933,0.403,-0.381,-10.833,2.293,4.645,2.622,2.251,-5.419,8.364,7.725,7.138,5.557,9.504,61.899,44.915,41.439,38.712,-27.635,100.25,109.818,88.197,90.507,-72.775,-28.082,57.192,147.636,-36.356],[-24.01,-1.871,-1.49,-0.418,-0.914,-18.417,1.643,2.889,2.875,2.018,-19.717,6.837,7.146,5.881,4.363,14.186,63.3,48.768,35.091,34.505,-94.357,147.435,107,78.607,63.326,-69.494,-38.843,142.983,124.427,146.47],[-30.867,-3.95,-1.714,0.863,0.078,-29.029,-0.345,2.431,3.72,2.392,-26.094,5.721,4.929,5.516,4.493,-19.594,51.811,44.104,38.388,28.059,-44.395,79.717,101.667,69.118,62.648,-35.548,-38.149,60.316,139.209,131.248]],
"ve": [[0.575,38.983,4.665,-53.179,9.894,-8.121,35.02,1.717,45.877,57.531,16.603,10.093,6.754,-37.201,188.044,52.913,3.324,44.521,-19.524,106.828,100.678,29.77,-9.89,-37.634,-52.292,190.857,41.909,32.805,2.441,-15.873],[-0.542,-37.785,0.575,3.029,1.31,2.266,1.587,17.761,6.694,3.174,8.583,4.085,-1.578,1.046,5.051,51.401,24.117,17.13,-89.584,1.247,107.333,60.865,32.099,18.256,2.194,213.241,99.138,66.444,43.547,27.066],[-0.288,0.609,0.322,-0.747,2.459,4.158,2.266,1.359,0.136,2.505,9.399,4.568,3.106,1.817,2.529,50.174,24.535,15.652,12.255,10.825,96.973,52.971,27.223,20.962,14.117,194.538,102.805,69.748,51.936,39.752],[-0.791,0.505,0.348,0.095,-0.15,3.127,2.115,1.77,1.074,0.849,8.702,4.772,3.203,2.538,1.959,49.702,24.548,16.626,12.724,10.422,98.179,45.705,36.065,24.827,21.366,194.571,101.058,65.296,48.043,45.378],[0.489,0.098,0.294,0.087,-0.055,3.169,2.364,1.672,1.219,0.921,7.171,4.622,3.165,2.613,1.954,50.74,24.994,16.869,12.755,10.574,100.61,52.044,34.291,24.798,19.507,165.627,97.464,58.08,48.936,42.148],[-0.66,0.26,0.051,0.29,0.089,3.61,1.813,1.438,1.418,1.019,9.408,4.786,3.198,2.622,1.987,50.322,24.65,16.614,12.843,10.181,94.486,50.502,33.308,24.476,20.405,196.572,89.726,56.182,47.764,58.8]],
"kep": [[-128.726,2.417,-2.624,3.096,2.783,-132.57,-16.578,-13.423,-21.048,-18.971,-123.892,-38.783,-34.485,-29.806,-36.583,-101.852,-224.172,-187.159,-175.151,-168.705,-143.747,-402.292,-377.006,-358.169,-389.895,-165.146,-338.56,-587.681,-647.545,-752.244],[-13.462,-11.373,-124.989,-9.367,-2.419,-9.554,4.479,-129.971,-14.378,-9.325,-0.681,10.317,-137.594,-42.18,-18.23,15.99,73.087,-231.556,-164.034,-103.416,-57.962,-106.945,-78.107,-302.97,-205.032,-94.064,-153.073,-80.559,-284.626,-368.49],[-18.369,-3.211,2.708,-11.195,-119.481,-10.703,4.323,-0.18,-1.047,-132.806,-13.065,5.774,8.581,18.949,-130.908,-4.415,42.25,41.533,74.473,-153.272,-44.365,65.692,101.913,-19.005,-194.832,-62.196,-60.937,-20.781,-140.325,41.864],[-23.521,-3.333,0.288,-0.358,-4.254,-21.957,-1.508,3.074,0.614,2.665,-21.7,2.3,6.559,9.051,8.469,-42.366,28.468,27.762,41.253,61.898,-67.259,24.414,60.066,67.379,112.32,-88.1,-73.956,-21.812,62.456,-110.762],[-30.74,-3.944,-2.768,-0.918,-4.088,-28.828,-2.538,0.888,2.006,2.326,-31.954,-0.757,3.766,3.609,2.594,-36.019,26.468,28.388,26.357,35.175,-98.313,49.491,53.505,51.598,49.601,-89.378,-79.523,34.993,46.991,88.48],[-37.622,-6.282,-3.558,-0.402,-0.677,-38.42,-4.455,-0.57,1.812,1.89,-40.276,-0.817,-0.388,3.521,3.079,-56.425,15.371,22.439,27.063,22.284,-75.383,7.145,44.854,37.323,45.128,-78.486,-76.491,-16.22,54.615,66.696]],
"vp": [[76.376,95.511,72.93,18.087,-20.238,0.777,16.288,-24.789,-0.22,0.189,-27.167,-5.914,-2.646,-14.385,20.787,-24.321,-17.24,-0.215,-2.757,-13.298,-6.143,-8.532,2.036,-5.417,3.39,-8.912,4.607,-11.959,-6.631,6.602],[506.09,185.032,83.065,132.927,7.939,219.08,14.55,1.758,-19.743,-3.599,91.198,14.94,-24.171,23.676,-8.718,12.963,-3.136,7.033,-5.252,0.715,-19.147,-5.351,-12.477,2.036,4.956,0.803,-6.625,-4.052,-0.755,-1.034],[2438.126,513.133,56.718,-30.281,-5.226,487.888,65.922,38.331,31.348,-16.041,230.872,18.512,11.571,15.869,-18.399,63.667,-6.758,-16.36,2.874,-8.71,10.58,-0.838,-9.29,-11.537,4.399,-10.205,-13.544,-7.677,-6.951,-6.047],[4486.17,921.167,464.42,214.695,73.39,758.536,147.066,133.783,69.768,33.603,429.213,98.511,-20.729,26.445,-6.024,106.399,-3.215,11.493,5.983,-1.244,16.396,-8.964,6.069,2.151,9.052,-7.184,7.19,-20.303,-9.517,-13.735],[5669.932,2081.485,355.388,206.139,229.099,1124.816,332.957,153.091,88.925,45.736,535.901,177.872,41.365,47.439,21.096,101.395,37.152,27.831,-11.213,11.124,50.935,20.054,0.018,-6.88,-1.641,16.716,7.225,-15.515,-14.631,-2.073],[6006.28,3223.351,1104.302,680.357,595.264,1099.413,577.421,224.06,127.349,110.825,619.51,332.554,74.765,74.75,37.17,131.87,75.916,35.018,12.828,2.597,43.308,30.91,17.528,-6.649,-3.251,10.51,16.535,-4.472,-13.959,0.098]]
}