{
"KTrans": [[-60.281,-61.557,-94.917,-82.176,-102.884,-42.573,-60.711,-72.522,-86.198,-81.327,-40.596,-46.191,-54.393,-82.603,-60.81,16.991,7.13,-11.296,-20.421,-15.898,123.014,108.012,57.435,38.914,49.508,302.893,300.794,227.15,232.506,216.174],[-58.546,-48.46,-59.054,-60.773,-75.909,-58.78,-49.405,-51.773,-54.627,-66.459,-53.442,-36.285,-50.492,-53.845,-65.03,-31.663,-8.833,-11.176,-19.896,-42.016,-6.642,25.395,20.47,8.942,14.63,61.987,82.672,67.465,80.46,55.012],[-72.804,-51.567,-56.751,-50.15,-59.386,-69.22,-50.355,-43.888,-38.507,-58.266,-72.498,-51.606,-42.415,-45.016,-43.188,-58.313,-34.648,-23.951,-8.316,-21.774,-35.976,-8.576,-8.33,10.441,7.382,-4.08,30.639,32.686,38.359,32.536],[-78.328,-60.608,-52.445,-58.389,-48.698,-80.672,-64.722,-52.58,-41.841,-38.084,-78.003,-59.094,-45.91,-42.134,-38.716,-70.658,-45.409,-35.144,-27.148,-24.841,-52.799,-34.764,-24.031,-17.702,-18.699,-27.268,-0.615,9.18,17.772,16.449],[-86.056,-67.877,-51.509,-46.051,-41.067,-84.035,-66.831,-54.286,-51.074,-37.486,-83.753,-64.656,-53.418,-46.025,-42.684,-78.533,-60.011,-41.182,-34.533,-28.484,-64.054,-49.952,-33.014,-29.763,-19.841,-45.5,-36.335,-3.916,-0.117,10.008],[-87.12,-73.691,-63.232,-50.5,-50.534,-85.956,-73.888,-58.658,-51.319,-45.611,-85.671,-71.053,-60.155,-47.72,-46.976,-79.175,-62.949,-56.511,-43.011,-36.172,-76.082,-55.974,-39.605,-29.441,-33.577,-52.615,-34.485,-23.502,-21.777,-2.981]],
"ve": [[-59.222,-49.954,-40.065,-49.479,-32.025,-61.374,-39.855,-54.688,280.98,-43.866,-65.445,-47.064,-46.291,-60.169,-67.948,65.982,-5.708,7.167,-61.863,-36.413,32.423,53.582,-8.676,-81.033,-23.888,357.072,104.188,72.126,11.432,2.861],[546.752,-45.275,-54.843,-68.088,-53.231,-124.319,-35.682,-49.504,-46.06,-35.574,-35.014,-432.95,80.413,-60.004,-45.463,7.852,-29.403,-14.126,6.741,-21.398,111.2,83.402,14.258,-21.749,5950.775,-29.826,113.346,53.822,62.769,-129.65],[-51.805,-69.097,-96.238,-47.574,-61.48,-5.332,-48.207,-62.518,-30.998,-63.124,14.001,-49.722,-63.008,-48.926,-42.631,21.641,140.925,31.236,0.968,-10.008,173.15,34.255,6.908,17.256,5.867,344.045,144.842,95.42,19.809,46.739],[28.77,-33.559,-27.318,-75.054,-53.15,-65.952,-107.702,-61.763,-46.519,-188.988,17.079,-3.1,-68.986,-30.837,-40.189,39.681,-9.964,-28.88,4905.75,-42.376,242.237,30.652,-14.998,-15357.874,-44.508,303.628,409.811,64.518,59.636,56.982],[-6.63,-53.857,9.313,-42.93,-38.753,3.862,-44.721,-46.322,-74.169,-51.186,98.89,-15.214,-43.891,-60.389,-45.93,35.623,41.982,-20.768,-37.648,-19.812,228.234,31.686,12.882,-3.93,-12.349,357.158,31.057,97.308,66.826,28.911],[-43.717,-11.636,-48.27,-77.578,-66.574,-2.052,-21.405,-166.748,-54.14,-51.048,99.474,-16.348,-54.663,-47.866,-63.041,89.691,42.736,-22.007,-42.615,-27.476,76.83,65.863,20.183,-8.821,-55.122,496.891,171.982,68.673,9.158,40.851]],
"kep": [[-131.119,-112.577,-50.962,-70.152,16.064,-127.842,-116.423,-69.49,-49.113,-45.369,-103.366,-160.001,-147.57,-75.336,-26.832,-123.394,-126.557,-54.562,-70.588,-179.531,-124.563,-149.298,-126.3,-89.616,-254.9,-109.58,-193.507,-204.068,-296.522,-307.175],[-95.843,-101.768,-136.561,-85.351,-25.393,-101.891,-106.223,-113.769,-82.836,-44.766,-101.267,-98.676,-137.36,-107.277,-49.974,-90.33,-109.526,-130.97,-107.538,-78.513,-98.429,-91.394,-122.222,-119.791,-117.849,-98.675,-80.794,-97.515,-166.833,-128.083],[-100.48,-86.174,-80.009,-103.071,-113.37,-101.756,-84.602,-78.782,-105.905,-118.694,-100.6,-87.615,-76.387,-100.805,-110.339,-96.978,-89.641,-84.368,-109.888,-115.733,-100.727,-85.136,-77.648,-108.844,-142.384,-95.711,-86.78,-96.968,-107.501,-113.492],[-100.977,-90.254,-72.72,-58.817,-88.321,-100.948,-82.3,-65.891,-67.542,-84.786,-100.024,-90.857,-68.707,-70.603,-84.714,-100.657,-77.999,-75.817,-64.039,-89.363,-99.51,-89.602,-65.905,-63.471,-62.852,-99.67,-83.527,-77.207,-85.238,-95.734],[-99.243,-83.029,-71.66,-55.05,-58.593,-101.858,-85.833,-67.044,-54.559,-44.179,-100.815,-86.496,-77.303,-56.671,-52.002,-99.628,-87.283,-69.317,-51.099,-58.919,-100.35,-87.889,-67.277,-62.754,-60.61,-99.506,-77.456,-81.354,-68.663,-44.247],[-100.81,-95.53,-72.433,-48.783,-52.04,-99.422,-92.122,-69.484,-54.934,-52.833,-99.518,-92.667,-72.638,-57.809,-45.735,-100.175,-97.803,-78.783,-56.303,-50.339,-99.945,-91.612,-80.123,-54.929,-54.574,-102.397,-94.847,-74.176,-54.127,-74.727]],
"vp": [[-854.46,892.889,372.215,1009.882,1285.121,-67.242,-33.48,-23.311,-23.093,60.06,35.572,-33.685,-10.927,35.003,82.004,-14.517,-13.522,10.881,-9.739,-32.687,-13.556,-20.372,-11.067,0.719,-12.457,-12.036,-18.396,-3.512,-1.203,-18.055],[3090.828,1269.103,-567.084,-48.802,113.167,591.744,214.071,-10.543,-37.956,14.832,224.557,152.016,-134.005,-47.24,-76.893,45.433,15.042,-25.08,-12.994,0.465,7.627,-17.774,-22.698,-29.373,-18.831,-12.59,-25.026,-18.282,-5.386,-11.399],[4209.068,3624.586,1362.355,536.946,-407.641,989.477,671.52,461.53,311.321,-154.558,498.896,286.705,235.99,43.36,7.639,81.902,75.997,10.655,39.409,-6.313,26.162,15.851,-1.307,3.58,-9.949,8.511,14.454,-12.899,-10.629,-26.493],[6046.027,6236.629,4738.467,454.739,1605.255,1140.644,1127.242,637.059,702.684,353.956,525.817,600.116,366.999,380.932,215.184,91.612,86.63,78.946,36.137,19.929,10.761,37.396,24.221,7.482,-2.009,-8.226,-0.718,1.211,20.925,-13.366],[5315.192,6997.271,6702.349,3794.037,4167.314,1300.11,1531.848,1071.565,775.03,812.159,650.731,720.991,618.282,442.956,335.601,106.541,110.242,97.965,73.387,51.25,54.862,62.794,35.414,32.186,25.48,1.842,-11.336,20.424,15.019,-10.976],[6869.34,10030.747,8885.458,5452.151,5577.573,1094.88,1813.61,1525.967,1090.261,1104.55,640.944,941.932,855.975,630.177,477.352,134.601,193.444,182.118,95.234,94.912,43.515,66.145,66.186,54.025,38.609,17.376,16.93,16.484,-0.163,31.49]]
}