{
"KTrans": [[-40.163,-42.783,-55.675,-46.983,-51.942,-4.083,-21.007,-21.949,-18.394,-20.355,14.019,-2.72,-6.552,-2.975,-6.068,65.681,-3.157,0.787,-0.826,2.177,147.391,14.743,16.167,23.056,16.6,272.322,73.5,75.307,88.587,84.299],[-44.002,-41.283,-40.697,-44.302,-43.396,-22.171,-26.739,-6.744,-21.411,-13.923,-22.218,-9.463,3.356,-4.269,-4.523,0.765,0.829,23.869,0.53,-0.612,5.991,2.762,49.29,3.204,1.977,8.497,4.629,94.728,9.196,6.216],[-41.962,-44.126,-44.509,-36.716,-35.704,-31.137,-28.922,-27.287,-16.757,-8.486,-28.587,-12.886,-8.645,-7.911,1.859,-17.33,-0.15,1.301,0.753,14.715,-15.571,1.483,1.548,1.413,29.085,-12.296,4.273,2.799,1.136,57.816],[-50.632,-40.833,-47.497,-47.137,-30.212,-37.523,-31.383,-32.696,-33.458,-22.345,-40.205,-15.97,-14.469,-13.984,-13.177,-37.941,-0.452,0.007,1.451,0.51,-33.924,0.861,1.723,2.159,1.086,-32.583,4.756,3.765,2.803,1.501],[-59.584,-39.839,-42.875,-48.354,-43.412,-59.975,-34.919,-31.134,-24.355,-27.051,-60.771,-20.116,-20.268,-10.277,-9.614,-51.847,-3.945,0.098,-0.114,0.685,-49.842,-1.465,0.387,0.773,-0.256,-53.058,4.081,5.581,2.634,2.11],[-72.36,-45.394,-50.535,-42.441,-47.999,-70.823,-35.796,-31.388,-33.383,-30.255,-72.972,-29.829,-17.396,-16.494,-17.941,-69.076,-5.189,0.142,0.134,-0.65,-67.046,-3.884,0.954,1.878,1.298,-65.098,-2.948,4.59,2.193,1.015]],
"ve": [[-46.219,-15.043,-13.698,-9.992,-2.996,-4.364,-5.712,-3.791,-0.683,5.427,15.46,2.849,1.818,2.354,7.271,54.882,0.758,2.594,9.453,9.474,102.667,11.474,11.823,21.858,10.126,272.803,-2231.71,32.514,39.629,19.367],[-116.998,-61.589,-41.306,-32.56,-25.434,-47.986,-39.371,-7.511,-15.293,-8.084,-66.399,-13.926,3.553,-2.64,-2.083,0.565,0.822,23.913,0.589,-0.069,1.288,0.581,49.101,2.588,1.651,6.071,-1.403,94.889,6.802,4.166],[-133.409,-106.623,-73.818,-46.105,-35.807,-77.441,-75.294,-45.227,-20.225,-10.573,-49.019,-32.393,-14.984,-9.936,2.753,-7.02,0.004,0.22,0.554,14.753,-6.551,0.931,0.278,-0.284,28.993,-3.558,1.497,-0.294,-2.403,57.804],[-94.527,-132.568,-111.836,-81.753,-41.911,-56.307,-98.897,-77.684,-59.035,-30.842,-27.824,-57.76,-33.3,-26.14,-17.945,-18.054,-0.319,-0.075,0.419,-0.04,-13.712,0.427,0.856,0.509,0.116,-13.698,1.566,0.832,0.383,-0.35],[-54.293,-153.598,-127.66,-109.931,-77.307,-47.209,-155.75,-93.254,-52.31,-48.835,-32.808,-72.239,-62.688,-24.031,-17.394,-24.684,-1.795,-0.032,0.071,0.33,-21.184,-0.477,0.205,0.125,0.183,-20.826,1.607,1.777,0.406,0.276],[-41.866,-212.123,-183.495,-114.413,-106.459,-49.761,-163.769,-109.608,-89.957,-66.317,-39.006,-139.426,-61.973,-42.644,-39.219,-37.989,-2.346,-4.39,0.025,-0.202,-34.426,-1.678,0.23,0.67,0.324,-23.661,-1.313,1.465,0.724,0.378]],
"kep": [[-132.824,-6.608,-0.854,4.087,-3.809,-140.426,-4.981,-0.888,0.262,-2.339,-140.596,-5.879,1.545,-1.52,-1.233,-126.916,-0.321,0.273,1.261,-3.103,-146.066,-4.945,-8.673,-11.396,-3.995,-132.436,-20.708,-11.826,-17.214,-14.719],[-5.791,-2.712,-130.254,-1.632,0.486,-7.234,-5.373,-149.785,-2.039,-4.086,-0.114,-1.955,-138.513,-4.951,-1.383,-0.528,-3.682,-142.437,-2.823,0.393,6.404,5.244,-146.006,-7.857,-4.546,2.044,12.653,-140.135,-11.465,-6.904],[-13.527,-2.317,-0.607,-2.291,-136.121,-13.439,2.221,-0.413,-6.243,-145.185,-16.224,0.148,0.792,-2.018,-133.511,-13.257,-1.027,1.376,-3.354,-148.366,-11.889,-0.272,2.292,5.486,-144.341,-11.744,2.816,6.188,13.444,-142.994],[-30.105,-3.946,0.544,-1.547,-0.946,-24.429,-3.824,0.672,0.272,-2.699,-27.809,1.562,0.015,0.364,-1.779,-28.55,-0.04,-0.11,2.204,3.139,-27.695,0.126,0.652,2.76,3.396,-25.683,3.389,3.845,4.344,4.915],[-44.274,-5.61,-0.673,0.168,-0.917,-46.016,0.473,-0.265,-1.529,0.496,-47.093,-3.878,0.653,0.298,0.162,-40.814,-3.458,-0.006,-0.754,0.511,-38.634,-1.869,0.194,1.377,-0.93,-42.287,2.293,4.413,3.205,3.499],[-57.008,-5.094,-0.643,-1.115,0.786,-57.111,-4.141,-1.647,-0.471,-0.133,-59.374,-3.412,-0.093,-0.96,-0.759,-55.641,-4.065,1.015,-0.104,-1.156,-54.655,-2.91,0.65,1.706,1.447,-54.877,-2.507,3.259,1.875,1.162]],
"vp": [[12.489,20.13,-9.227,-12.772,-77.325,-1.614,-6.728,-12.574,-8.748,-13.52,2.997,-12.94,11.08,-1.992,-4.492,-2.056,0.072,-3.063,-1.319,-1.638,-0.704,-1.655,-1.002,-1.438,-1.311,-0.828,-1.066,-1.057,-0.934,-0.946],[233.787,88.587,-4.565,26.677,41.679,55.706,12.237,10.291,-5.729,-11.437,9.267,3.581,-0.201,0.718,-0.101,-0.365,-0.128,-0.158,0.126,-0.105,-2.135,-1.895,-1.323,-1.917,-1.575,-1.712,-1.829,-0.904,-1.514,-0.917],[792.433,146.548,105.853,135.62,13.025,152.842,0.529,17.08,35.029,-10.119,95.339,8.894,2.207,9.71,-2.732,16.937,0.519,-1.95,-1.051,-1.726,7.992,-0.518,-0.882,-2.03,-0.621,3.206,-1.339,-1.239,-1.772,-1.115],[2148.78,218.545,-60.007,126.124,158.787,292.328,53.254,-4.561,-5.881,4.932,207.037,12.236,6.977,-14.84,6.947,39.544,1.111,1.414,-3.786,-0.633,16.987,-0.461,-2.399,-2.823,-1.896,8.024,-1.556,-1.778,-1.986,-1.074],[3367.284,515.276,32.114,-132.596,146.582,672.909,33.003,6.427,53.406,5.187,354.986,31.838,-2.043,-3.727,5.485,61.451,8.043,0.817,-0.242,-3.494,28.309,1.399,-0.43,-0.397,-0.36,15.738,-1.509,-3.06,-1.499,-1.808],[4641.133,669.706,-10.802,120.127,0.59,877.745,138.946,36.211,45.592,10.671,489.432,46.182,21.681,25.718,-5.921,85.487,10.007,-3.879,-0.312,2.876,40.967,3.796,-0.749,-2.816,-1.602,21.485,1.605,-2.58,-1.642,-0.974]]
}