{
"KTrans": [[-7.051,4.399,-0.067,-0.941,1.086,-0.347,-0.13,-2.353,3.758,0.595,-8.745,2.514,-3.437,3.054,0.182,20.282,-3.002,5.522,4.477,5.098,27.045,18.851,4.431,12.622,13.751,-134.188,65.164,31.605,48.889,45.263],[-50.799,5.139,0.363,0.796,0.696,-60.81,-0.094,2.8,2.797,-0.905,-56.446,-0.955,-1.609,2.181,-0.511,-44.765,-4.882,-3.845,-1.213,1.713,-34.041,-12.627,-1.414,-6.837,-2.947,-86.16,35.346,14.17,4.393,10.578],[-81.799,-13.6,2.006,0.958,0.628,-83.465,-13.599,1.655,-0.724,0.935,-86.017,-7.741,1.084,2.555,0.327,-81.598,-17.665,-1.076,-0.539,-0.903,-73.618,1.67,-1.759,1.699,-2.749,-67.049,-13.598,2.239,-8.057,10.679],[-95.909,-25.377,2.741,1.028,0.509,-96.28,-31.411,-0.168,3.148,2.06,-94.174,-26.885,-2.082,-0.378,2.081,-88.781,-38.832,-8.499,-5.166,-5.275,-90.241,-22.335,-10.715,-11.979,-1.302,-113.166,-24.777,10.127,5.639,0.029],[-97.174,-50.715,-6.999,-1.069,1.629,-96.555,-47.446,-7.952,1.644,1.911,-97.055,-54.895,-6.835,0.723,1.743,-95.844,-47.641,-17.055,-2.457,2.463,-100.202,-47.651,-7.159,-8.872,-1.315,-94.845,-43.111,-15.369,6.354,1.872],[-96.617,-73.604,-1.706,0.128,5.486,-97.553,-72.798,-19.486,6.099,3.524,-97.809,-71.836,-18.594,1.076,0.881,-98.211,-56.885,-28.085,-5.384,-4.091,-100.096,-51.877,-21.933,-10.221,-6.768,-115.712,-61.223,-15.061,-6.113,-4.697]],
"ve": [[3.649,2.149,8.882,27.75,12.024,34.838,5.605,11.957,9.893,17.172,33.059,1.804,30.557,16.548,-7.258,4.94,44.772,-8.021,-226.649,-7.825,1.721,-16.299,-25.003,-58.107,-32.35,-39.657,-28.789,-50.098,1431.293,34.711],[-30.954,1.319,-1.13,-0.523,0.035,-33.892,-1.999,-0.658,0.125,0.273,-35.834,-0.922,-1.093,0.508,-0.591,-44.114,-2.084,-1.21,0.849,0.577,-28.913,-16.42,-7.197,0.7,2.045,-75.903,5.656,-5.991,-7.833,-28.453],[-56.534,-6.821,-1.121,-1.4,-0.667,-55.231,-8.21,-0.689,-1.006,-0.026,-59.792,-5.966,-0.611,-0.805,-0.951,-85.464,-11.531,-1.867,-0.845,-0.477,-58.118,-2.866,-5.812,-0.376,-1.774,-57.316,-22.762,-8.379,-15.581,36.221],[-62.631,-15.272,-1.066,-0.699,-0.039,-81.842,-16.927,-2.014,0.173,-0.373,-82.861,-17.708,-2.911,-0.969,-0.404,-67.387,-51.156,-7.009,-3.632,-3.905,-75.578,-11.353,-11.575,-8.947,-1.489,-105.665,-64.213,-4.822,-1.766,-0.917],[-92.339,-31.651,-4.195,-1.124,-1.068,-88.299,-29.85,-4.711,0.1,-0.7,-90.104,-37.448,-6.051,-1.131,-0.643,-85.945,-28.991,-12.734,-1.793,0.038,-87.759,-38.091,-10.335,-6.462,-3.114,-98.351,-35.532,-9.824,-2.683,0.953],[-93.695,-53.1,-4.775,-1.829,1.445,-90.301,-50.601,-12.119,0.161,0.426,-108.697,-49.19,-13.104,-1.892,-0.881,-85.472,-38.272,-19.366,-4.332,-2.833,-100.408,-34.319,-51.372,-7.976,-6.807,-139.298,-59.493,-17.582,-11.149,-8.948]],
"kep": [[-8.266,4.434,0.448,-5.035,1.134,-2.764,-1.801,-5.605,6.313,-1.156,-12.57,0.313,-5.974,3.538,-1.892,-11.611,-13.915,1.023,-0.519,1.081,-23.607,-15.034,-22.762,-12.954,-1.857,54.645,1.258,-36.003,1.74,5.023],[-41.999,3.008,1.452,1.36,0.769,-50.137,1.178,3.367,2.724,-1.041,-45.958,-1.137,-0.7,1.655,0.222,-57.393,-7.998,-5.015,-2.877,0.655,-43.056,-27.907,-8.944,-9.733,-5.566,-30.736,-11.851,-20.568,-16.737,-5.436],[-76.621,-9.209,2.769,2.266,1.34,-74.134,-7.32,1.781,0.066,0.884,-85.643,-3.911,1.243,3.286,1.183,-78.172,-19.198,-1.686,-0.864,-1.123,-64.384,-23.611,-9.451,-2.317,-4.131,-56.406,-30.378,-24.909,-22.524,-2.898],[-98.386,-16.284,3.073,1.411,0.356,-94.63,-20.882,0.916,2.637,2.273,-93.756,-18.278,0.069,0.293,2.225,-84.761,-39.362,-6.287,-3.557,-2.495,-76.7,-34.753,-18.742,-9.98,-2.685,-64.303,-44.245,-21.935,-17.201,-9.988],[-97.478,-36.204,-4.369,-0.448,2.425,-96.865,-34.017,-4.502,0.909,2.369,-98.146,-42.457,-1.946,1.16,1.984,-90.013,-47.915,-12.999,-2.947,1.343,-82.932,-53.797,-25.432,-8.98,-1.898,-77.76,-50.742,-46,-23.365,-10.731],[-99.423,-62.802,0.418,1.324,3.7,-98.34,-59.846,-10.848,4.939,2.742,-97.437,-62.335,-9.938,2.04,1.396,-92.445,-58.953,-22.717,-3.639,-2.349,-86.903,-62.095,-36.309,-12.529,-4.623,-79.267,-55.859,-35,-34.573,-20.666]],
"vp": [[441.63,47.517,117.701,65.144,13.923,20.673,-6.223,28.229,-46.94,-8.598,48.129,-9.746,39.759,-4.504,25.967,-11.17,12.605,-5.726,-4.455,-3.986,-1.825,0.768,6.557,1.102,-6.855,19.346,-8.043,3.228,-10.49,-9.613],[3170.868,-137.874,313.361,69.561,196.635,760.7,104.956,22.685,-28.689,47.026,366.66,38.586,28.215,-19.813,15.243,73.105,16.903,17.541,4.68,-2.982,27.879,27.44,11.643,23.982,10.883,38.955,-8.674,3.263,8.552,-3.087],[6161.046,1437.247,290.989,341.244,225.5,1148.963,306.217,33.772,122.112,34.226,690.593,122.617,30.384,26.625,42.711,133.535,57.752,9.316,9.149,6.482,51.841,5.007,18.428,1.65,15.995,27.553,21.107,14.332,26.239,-8.051],[8693.633,3318.909,427.921,179.482,67.549,1682.386,701.084,126.03,-4.924,-0.865,808.537,357.049,86.859,42.087,21.365,141.228,112.372,43.529,34.158,41.027,72.364,25.2,31.045,41.723,6.517,53.289,28.06,4.227,0.239,7.139],[9081.582,6495.356,1414.315,395.945,421.711,1779.588,1237.559,290.797,-21.686,60.365,918.268,713.771,182.386,33.946,22.052,182.512,126.899,83.194,15.34,-4.398,93.889,76.998,31.434,28.307,15.659,45.866,37.113,39.803,4.366,4.044],[9615.5,10908.905,1541.184,887.038,-738.418,1892.691,2128.738,778.042,-32.448,-53.859,936.692,1067.184,399.031,61.361,29.782,175.408,152.978,113.485,35.869,27.877,100.998,59.643,52.663,32.593,35.845,71.265,60.504,16.132,22.088,19.581]]
}