{
"KTrans": [[-36.241,15.697,15.15,11.641,8.55,-23.148,19.375,9.61,14.031,11.983,25.587,22.244,16.076,13.322,19.211,20.38,55.839,64.833,83.935,62.832,22.825,120.379,121.082,96.927,115.781,212.834,178.322,247.537,206.557,77.554],[-66.895,7.484,4.254,4.705,6.389,-59.878,4.516,10.486,5.399,10.579,-58.116,11.247,14.1,14.713,9.667,-27.526,40.42,71.136,41.007,38.056,-19.411,99.262,103.761,91.837,88.973,23.339,1.874,106.812,61.835,83.515],[-79.768,-11.307,8.887,6.823,5.794,-85.988,-4.918,4.903,14.2,7.373,-86.314,-13.129,14.819,13.636,10.497,-64.219,14.654,57.734,46.949,35.181,-52.486,16.78,75.116,76.659,69.635,2.239,59.299,2.994,26.56,62.827],[-91.568,-33.46,9.211,8.124,6.816,-87.776,-41.396,11.871,15.846,9.67,-91.701,-26.141,7.972,19.395,15.235,-82.465,-22.609,38.62,44.307,32.233,-56.842,-27.258,30.915,61.893,67.354,-35.322,2.604,0.775,24.07,71.97],[-92.919,-54.423,1.212,10.685,7.945,-92.128,-49.466,3.327,18.557,10.177,-90.898,-49.568,-3.997,8.429,15.491,-90.965,-41.577,7.817,41.812,43.109,-81.138,-36.677,19.346,40.156,73.406,-41.057,12.152,-1.173,51.496,-4.382],[-96.976,-68.141,-23.059,3.963,9.231,-95.207,-68.88,-13.146,9.787,11.949,-95.332,-61.456,-14.106,22.594,18.415,-93.581,-56.406,1.509,29.095,41.182,-87.36,-43.056,-1.531,35.207,57.473,-48.39,-31.17,-19.822,33.624,25.685]],
"ve": [[-90.588,-20.301,30.443,41.434,-206.19,13.41,-394.344,-25.598,-75.221,-19.394,34.394,48.951,46.465,-167.889,-1245.875,92.327,22.627,66.009,-22.511,13.616,103.239,29.632,25.54,8.642,-108.85,206.442,84.632,31.117,11.834,1.521],[28.647,7.509,6.422,4.845,5.548,111.703,7.87,7.657,4.501,1.472,19.364,9.844,5.165,4.274,2.947,74.011,23.253,14.882,10.333,9.043,108.831,44.746,33.969,21.138,13.528,229.871,101.823,58.438,39.155,29.152],[35.456,7.085,4.833,2.137,0.218,-6.976,6.695,4.186,1.547,-0.091,72.753,12.597,3.885,3.178,1.761,65.524,32.656,19.9,11.047,8.263,105.403,49.154,34.918,25.666,18.6,195.09,98.175,68.971,48.826,40.954],[8.824,6.372,0.83,-0.094,0.986,11.567,9.841,4.562,2.374,0.896,2.225,2.426,5.885,2.925,2.797,51.302,26.815,18.091,11.531,8.941,112.244,51.973,32.745,24.116,19.538,206.999,105.842,65.776,45.214,38.684],[34.394,4.03,0.443,1.428,-0.116,8.461,-127.174,2.523,2.542,1.276,8.988,13.277,4.369,4.723,1.751,93.863,26.183,17.333,13.219,9.512,107.293,57.661,36.045,25.381,20.614,196.779,104.259,68.477,47.333,37.921],[5.05,10.895,-3.025,3.728,0.454,41.781,15.237,-5.766,2.756,1.463,-91.232,-8.151,4.197,3.318,2.209,90.689,26.306,18.809,11.916,10.012,33.183,52.806,30.417,25.842,20.269,209.868,109.933,80.032,49.326,40.967]],
"kep": [[-51.822,17.585,8.773,22.329,18.5,-44.834,15.489,8.441,21.6,12.943,-15.532,10.522,13.42,15.779,26.719,-31.014,31.993,59.902,104.702,96.981,-20.253,58.9,87.641,89.082,146.767,30.396,79.12,178.454,183.015,93.482],[-76.074,2.945,1.63,3.509,5.254,-68.847,-0.155,6.039,3.786,11.405,-72.826,6.052,12.075,12.386,10.293,-58.954,12.537,51.754,30.088,30.002,-56.421,37.12,56.231,60.218,68.459,-51.265,-35.328,34.395,19.197,39.04],[-85.41,-14.016,5.087,5.593,6.645,-90.801,-11.929,2.255,13.8,8.52,-92.082,-21.241,12.215,11.84,9.684,-78.816,-10.624,31.836,33.301,25.697,-75.549,-19.026,32.601,41.81,43.301,-62.073,-13.457,-26.41,-6.684,20.958],[-94.7,-38.555,9.106,9.384,6.149,-91.595,-47.322,8.181,13.901,9.242,-94.909,-34.048,2.926,16.633,12.683,-88.754,-37.999,17.066,29.118,21.954,-78.897,-48.231,-0.511,30.688,40.438,-75.273,-42.895,-32.67,-9.191,28.294],[-95.186,-58.372,0.529,9.727,8.52,-95.64,-55.337,-0.944,16.709,8.89,-95.107,-54.574,-6.413,3.859,14.013,-94.041,-54.678,-10.498,27.093,31.235,-89.003,-56.482,-8.445,11.149,42.675,-78.806,-40.552,-33.617,7.312,-23.047],[-98.476,-71.473,-24.139,2.764,9.025,-97.23,-72.699,-17.236,7.017,11.439,-97.296,-65.817,-18.679,18.73,16.177,-95.728,-64.789,-15.748,15.275,28.148,-93.386,-59.873,-26.175,6.516,30.255,-81.258,-63.052,-44.96,-3.723,-6.547]],
"vp": [[1865.836,509.759,492.621,80.19,-247.885,104.649,58.98,61.075,55.419,12.609,200.505,-46.378,-14.991,-37.385,-17.351,19.211,-12.708,-11.771,-10.995,-37.852,-17.951,-49.029,-15.308,-17.005,-24.905,-12.584,-40.83,-44.967,-46.268,-34.63],[5580.97,3019.475,1358.562,679.259,826.13,928.356,662.757,198.525,203.765,221.288,504.923,183.871,119.399,173.397,-110.375,71.728,14.026,35.227,-20.369,-5.961,36.062,-22.78,-13.835,-28.769,-7.371,13.722,-19.601,-46.055,-33.045,-27.345],[5384.607,7687.574,5185.964,2100.295,1328.723,1182.591,1305.218,937.229,491.148,286.691,590.021,779.271,263.373,166.046,146.901,88.326,76.728,80.787,4.301,3.123,7.252,36.502,-4.357,-24.409,-7.969,-10.849,-22.343,-20.139,-20.702,-28.789],[6803.723,10032.991,6073.226,3769.749,3861.383,1447.231,1977.843,1302.342,626.358,445.792,640.21,971.166,546.688,527.929,218.139,101.138,152.245,104.164,44.236,24.295,24.715,64.775,35.747,0.174,2.891,5.869,14.549,15.432,-6.156,-14.285],[7101.984,11245.998,9734.517,7317.816,3950.919,1295.758,2263.144,1886.841,1186.894,988.789,685.495,1091.14,837.084,705.155,513.773,134.779,195.837,173.924,108.47,92.831,52.897,76.77,22.682,41.907,32.531,-21.445,14.658,21.57,-7.922,-22.24],[8394.068,11872.828,13644.159,10009.663,5941.758,1461.216,2349.353,2377.891,1839.577,987.654,720.048,1117.217,1328.908,821.116,524.069,131.671,173.875,236.051,138.92,98.918,58.466,85.105,80.508,69.755,56.764,-15.543,31.965,25.087,11.196,-5.919]]
}