{
"KTrans": [[-46.003,-65.911,-86.246,-82.743,-82.85,-49.143,-70.91,-81.822,-95.73,-97.483,-27.505,-51.04,-71.688,-70.292,-56.735,25.379,-8.461,-40.101,8.315,-35.544,67.049,58.771,29.032,27.116,-0.021,212.839,248.219,194.43,217.279,177.671],[-59.69,-54.832,-46.024,-64.018,-66.161,-57.087,-57.062,-49.044,-64.042,-72.18,-57.226,-48.709,-49.666,-56.674,-65.127,-27.617,-17.046,-16.071,-25.907,-36.925,4.917,39.235,9.015,1.518,5.479,41.442,26.32,62.552,59.887,50.539],[-72.239,-52.798,-48.719,-61.365,-56.641,-73.599,-52.122,-49.021,-51.546,-51.683,-72.272,-47.618,-43.244,-39.561,-51.527,-56.117,-34.299,-40.898,-26.268,-14.199,-38.385,-26.363,-4.04,-0.006,-11.129,13.288,18.909,30.315,29.421,24.43],[-79.923,-61.118,-49.739,-51.657,-42.23,-79.455,-59.354,-55.557,-49.833,-46.091,-76.233,-56.99,-49.086,-50.111,-38.183,-71.605,-50.709,-34.484,-28.986,-24.858,-57.774,-36.745,-21.261,-14.493,-3.21,-39.698,-4.143,7.435,10.723,4.921],[-84.259,-69.767,-57.806,-48.413,-44.668,-83.008,-67.249,-54.632,-39.84,-46.617,-81.609,-66.031,-51.35,-46.803,-43.418,-71.878,-59.918,-43.229,-38.099,-28.954,-69.163,-57.99,-32.733,-28.841,-21.143,-48.057,-14.824,-6.984,-3.986,5.946],[-86.814,-73.224,-56.948,-51.509,-47.784,-88.197,-73.552,-57.377,-50.951,-47.111,-87.324,-73.004,-57.077,-50.636,-45.552,-80.934,-64.187,-54.218,-38.956,-36.914,-76.646,-58.382,-46.267,-33.273,-26.478,-62.648,-39.923,-22.373,-16.258,-15.424]],
"ve": [[-15.933,-67.654,-40.161,-66.914,-55.109,-90.074,-59.627,-57.319,-70.553,-69.106,-30.867,-21.003,16.606,-83.168,-51.97,10.817,109.819,-4.600701877E+6,-72.774,5325.031,86.803,0.378,-20.61,-19.675,-44.323,296.56,121.192,47.537,28.636,-21.388],[-20.888,-71.821,-44.558,-57.236,-40.624,-43.498,-67.888,-77.416,-45.175,-2.601,28.676,-30.514,-69.882,-48.099,370.158,43.299,-8.106,50.227,-28.454,-36.364,180.442,102.352,6.821,-31.659,-7.715,-1646.051,83.521,70.842,73.061,20.017],[17.289,-27.912,-39.673,-65.846,-38.132,-46.781,-56.056,-80.818,-65.441,-49.403,1.344,-44.786,-48.994,-34.969,-47.842,-466.154,-11.601,-27.882,-21.664,-28.566,107.883,22.995,23.257,3.698,7.372,557.502,-1052.55,42.365,289.3,-109.622],[-9.57,-47.041,-46.447,-71.406,-32.115,42.944,1.701,-64.092,715.153,-56.201,14.34,-110.386,-49.709,-100.638,-31.769,166.92,7.841,-28.731,-27.651,-27.556,20.431,44.031,6.414,12.389,6.827,282.642,150.269,86.65,-314.914,-1.041],[10.01,-18.357,-55.318,-54.736,-65.266,-29.878,-30.762,-56.151,-48.118,-59.998,8.172,-3.605,-100.088,-60.463,-54.693,117.425,-0.805,-30.524,-54.207,-38.156,5.969,3.758,15.138,-22.822,9.592,1072.721,472.155,59.05,36.436,54.367],[59.468,-1.023,-24.717,-67.575,-119.573,-53.486,-112.949,-53.952,-59.877,-69.153,-11.333,-20.192,-48.512,217.49,-51.042,54.684,-65.839,-14.019,-25.54,-43.127,144.737,32.775,-1.276,5.064,5.618,316.713,-366.916,99.851,82.825,-11.354]],
"kep": [[-123.303,-125.306,-47.101,-9.556,-38.962,-123.881,-111.383,-75.075,-33.743,-0.066,-111.9,-138.483,-54.445,-107.523,-88.732,-128.427,-138.104,-64.467,-182.422,-89.348,-122.366,-129.48,-91.46,-176.225,-93.572,-115.109,-172.688,-196.134,-330.663,-212.789],[-105.615,-106.097,-131.356,-101.96,-90.879,-98.529,-103.648,-128.319,-117.513,-22.425,-103.005,-102.292,-127.623,-129.357,-41.322,-99.569,-105.027,-132.822,-114.98,-61.267,-105.115,-112.254,-106.756,-146.788,-151.338,-100.364,-97.612,-123.335,-179.84,-155.358],[-100.448,-90.069,-100.77,-113.738,-119.947,-102.566,-90.001,-83.171,-105.339,-124.412,-102.38,-92.188,-79.521,-115.241,-105.177,-99.491,-82.936,-88.043,-124.576,-137.35,-101.753,-94.912,-89.959,-96.586,-141.669,-100.475,-99.048,-65.171,-101.476,-109.033],[-99.813,-88.49,-78.625,-64.872,-97.884,-101.029,-94.138,-64.58,-79.908,-92.911,-98.694,-88.366,-76.093,-75.65,-93.821,-101.885,-94.932,-73.769,-73.181,-72.908,-99.469,-94.494,-76.159,-82.827,-95.561,-97.961,-84.753,-78.04,-76.15,-85.13],[-101.135,-94.536,-71.744,-60.679,-74.279,-101.656,-92.072,-73.045,-65.991,-50.438,-100.888,-91.779,-70.253,-55.514,-63.678,-104.256,-91.354,-73.149,-56.695,-50.327,-103.738,-86.116,-77.304,-63.189,-75.865,-98.152,-95.401,-69.441,-74.419,-69.97],[-100.52,-93.697,-76.792,-59.868,-49.941,-100.757,-94.237,-75.386,-64.16,-46.068,-101.187,-92.532,-73.121,-62.337,-65.614,-100.774,-95.178,-79.655,-61.231,-48.393,-99.342,-88.171,-74.59,-66.767,-63.156,-99.795,-92.889,-82.675,-60.721,-46.146]],
"vp": [[138.035,-9.254,-513.237,618.275,1401.772,-56.979,-32.723,-17.255,18.566,226.876,40.289,-68.42,65.058,38.258,19.881,-26.821,-15.963,2.274,0.485,-12.722,-24.403,-12.192,-0.096,-24.246,-14.902,-24.46,-29.555,-13.736,-15.903,-20.625],[3636.713,1713.757,234.852,-931.384,-333.82,768.584,10.738,-67.33,-182.142,54.237,224.972,148.601,-82.377,-132.003,15.402,53.685,-17.087,-10.441,-3.207,1.367,19.36,3.114,-28.456,-45.477,-28.491,3.214,-37.665,-7.8,-12.051,-16.278],[4397.313,4031.893,2131.733,69.523,-818.547,914.06,802.142,222.137,56.812,-2.847,469.537,415.913,145.848,101.042,2.046,96.817,42.944,3.807,-0.05,14.872,35.574,5.747,10.815,0.241,-14.373,0.319,1.576,-28.024,-38.246,-29.317],[5458.668,5761.193,4923.81,2316.523,2311.872,1090.854,1354.905,668.045,572.615,228.265,538.33,683.583,450.6,234.327,251.424,134.24,83.646,89.085,32.014,1.985,19.728,45.917,-0.623,15.296,1.395,7.599,-7.119,-10.288,-10.535,-11.101],[6167.183,7448.972,6541.788,4712.409,4133.902,1229.957,1335.717,1082.636,1072.469,519.254,602.603,791.914,606.585,358.736,432.969,124.946,137.698,103.98,74.313,34.785,40.764,39.496,43.68,25.315,30.262,-2.994,16.211,5.208,4.454,5.249],[7058.939,9033.811,8212.995,6912.835,5761.068,1354.134,1921.39,1750.65,1157.382,1047.7,614.391,890.509,812.923,811.767,591.414,131.205,177.954,151.385,127.842,64.437,30.272,53.191,36.92,61.115,33.334,-14.278,33.304,20.45,-2.761,-1.008]]
}