{
"KTrans": [[-24.249,-13.656,-8.659,-9.217,-5.993,-15.772,-14.663,-4.337,-6.888,-7.292,-28.405,-9.029,-11.788,-5.236,-0.173,-30.928,-13.151,-0.858,-6.396,-1.869,-22.354,-16.628,-11.047,-6.299,-5.139,-26.984,-14.586,-5.78,-4.652,-5.897],[-90.617,-39.258,-25.494,-22.226,-15.152,-82.543,-39.01,-28.701,-19.209,-10.951,-73.512,-37.686,-20.335,-19.652,-15.705,-87.459,-37.838,-21.512,-16.543,-15.035,-90.377,-26.407,-25.317,-14.23,-15.722,-83.136,-30.874,-21.994,-19.303,-15.633],[-97.274,-60.496,-43.507,-30.995,-21.026,-96.107,-43.46,-37.001,-28.875,-20.274,-94.122,-53.661,-34.375,-31.257,-25.568,-97.149,-60.547,-40.433,-27.057,-16.315,-98.96,-66.826,-47.721,-32.396,-23.894,-97.569,-41.387,-34.019,-28.449,-29.441],[-102.099,-81.157,-41.476,-42.3,-34.907,-105.482,-84.071,-66.416,-47.211,-37.219,-109.612,-90.965,-41.658,-45.398,-28.801,-104.465,-81.862,-54.798,-35.145,-33.811,-104.21,-89.203,-68.175,-34.437,-31.25,-104.248,-90.816,-61.43,-41.778,-30.893],[-103.145,-80.252,-65.496,-60.556,-45.521,-109.465,-97.353,-60.922,-36.507,-38.265,-108.612,-98.306,-65.345,-53.058,-40.37,-101.795,-92.036,-74.329,-62.133,-36.98,-103.236,-90.279,-77.691,-33.222,-33.843,-106.259,-89.567,-82.229,-45.449,-31.537],[-102.799,-87.737,-76.448,-74.925,-52.543,-103.728,-108.171,-88.915,-31.341,-56.279,-105.602,-93.755,-93.208,-68.311,-30.069,-106.62,-96.99,-89.837,-47.911,-32.101,-108.775,-103.145,-86.786,-50.052,-36.353,-105.734,-93.575,-86.004,-56.865,-41.957]],
"ve": [[-17.269,-2.105,9.185,30.502,-62.783,-17.757,-0.827,16.573,36.084,50.065,400.426,-0.236,16.481,51.623,322.29,-21.663,-1.492,6.473,12.725,357.369,-26.18,-1.368,18.524,95.547,5.404,-11.071,-1.047,11.551,24.068,199.318],[-76.652,-33.407,-19.466,-12.914,-7.368,-73.538,-32.911,-19.97,-13.199,-8.239,-75.954,-21.953,-18.385,-13.157,-8.456,-79.22,-31.156,-18.313,-10.615,-7.697,-74.889,-32.107,-18.1,-11.328,-8.08,-68.806,-32.398,-19.391,-12.475,-8.905],[-99.359,-67.33,-37.682,-25.925,-18.786,-95.958,-60.463,-33.091,-27.012,-17.791,-103.848,-30.831,-36.215,-28.895,-19.687,-115.514,-57.65,-34.377,-21.993,-16.733,-99.594,-63.017,-38.498,-28.026,-19.501,-101.717,-64.007,-35.101,-24.757,-21.951],[-104.243,-78.958,-55.465,-36.645,-30.103,-119.864,-81.668,-66.017,-40.018,-30.831,-147.533,-81.334,-54.476,-40.006,-27.687,-117.402,-79.559,-56.554,-34.453,-29.174,-107.096,-72.743,-58.081,-37.189,-30.342,-104.233,-80.178,-55.05,-40.048,-28.361],[-118.906,-86.907,-76.703,-54.82,-38.112,-125.807,-86.584,-71.648,-51.955,-37.812,-124.543,-90.999,-61.904,-54.535,-39.533,-119.949,-93.21,-81.752,-51.784,-38.582,-110.057,-89.722,-68.889,-48.213,-33.893,-119.348,-89.834,-79.354,-48.615,-36.743],[-95.045,-99.432,-79.787,-70.283,-48.765,-107.909,-118.422,-90.787,-75.896,-53.859,-126.201,-101.228,-87.43,-69.561,-51.127,494.718,-102.84,-85.587,-71.868,-50.664,-130.087,-109.227,-83.851,-73.368,-47.935,-102.247,-99.656,-77.508,-60.217,-50.959]],
"kep": [[-7.895,-9.793,-10.298,-15.39,-16.596,-2.431,-11.4,-7.81,-11.751,-15.884,-14.564,-5.553,-15.522,-11.13,-6.203,-19.882,-9.68,-0.387,-11.424,-7.331,-8.493,-13.472,-13.519,-10.114,-11.927,-11.7,-10.965,-7.165,-8.97,-14.639],[-86.695,-12.706,-8.685,-11.565,-8.569,-86.285,-9.519,-11.868,-7.696,-3.22,-82.825,-14.738,-4.611,-8.304,-8.018,-85.409,-14.189,-5.542,-7.063,-8.105,-93.863,-2.167,-9.14,-4.357,-8.454,-82.697,-4.482,-3.866,-8.411,-7.569],[-86.795,-64.796,-9.646,-8.107,-3.337,-82.335,-64.347,-8.691,-5.017,-3.99,-81.967,-53.186,-8.178,-3.432,-7.959,-85.375,-54.364,-12.849,-8.054,-1.079,-89.214,-54.885,-13.902,-6.986,-6.468,-82.376,-60.221,-5.058,-6.457,-9.784],[-86.186,-79.857,-23.018,-12.587,-8.163,-85.251,-81.284,-47.591,-12.374,-10.286,-81.66,-82.708,-38.474,-9.453,-4.573,-82.874,-81.835,-30.207,-8.598,-8.592,-85.063,-85.076,-35.979,-3.494,-3.792,-86.813,-82.16,-43.882,-7.07,-5.904],[-87.88,-67.998,-75.443,-30.23,-13.003,-85.649,-74.844,-68.414,-19.664,-7.696,-85.179,-77.482,-61.973,-29.087,-10.313,-88.275,-71.565,-64.288,-20.861,-5.352,-87.838,-74.549,-75.756,-19.383,-9.351,-88.53,-75.747,-70.346,-16.608,-2.519],[-90.501,-79.073,-74.742,-58.92,-11.46,-91.764,-65.339,-78.193,-60.395,-10.497,-89.767,-77.652,-74.221,-53.4,-11.389,-88.492,-72.782,-75.274,-53.925,-8.348,-88.902,-70.472,-76.336,-56.738,-13.603,-89.936,-76.809,-72.281,-42.235,-27.218]],
"vp": [[2648.221,2389.948,2108.102,1680.928,2793.818,547.031,541.82,417.993,416.911,424.981,259.017,228.365,206.865,226.087,213.26,52.18,52.969,50.293,49.255,50.523,23.913,24.783,18.678,24.657,20.406,14.339,11.731,9.561,10.045,11.194],[8336.306,7586.357,7195.378,6809.235,6546.288,1458.092,1621.654,1353.331,1351.839,1421.48,712.603,645.039,703.625,705.364,745.622,164.413,147.276,137.168,120.708,132.889,83.764,78.675,64.301,67.722,63.686,35.566,40.34,39.698,35.511,35.58],[10176.637,14259.956,12365.154,11758.702,13116.28,1942.724,2478.207,2144.325,2528.086,2214.878,968.174,1201.649,1211.299,1409.435,1147.473,210.376,236.697,217.436,199.372,221.553,103.083,133.959,121.324,131.345,115.876,52.099,67.066,58.864,57.358,66.923],[10062.625,17020.48,18176.671,15649.676,17405.393,2317.141,3383.716,4265.14,3522.316,3448.747,1239.301,1732.847,1713.786,1759.114,1586.693,228.87,329.933,362.69,284.454,321.088,112.392,155.655,184.233,174.028,185.18,53.546,87.526,85.528,91.172,80.368],[12129.568,17749.084,24260.98,22751.866,20300.408,2539.779,3909.978,4374.752,4583.081,4102.734,1280.859,1935.216,2039.5,2267.525,2167.742,248.793,372.149,418.906,467.84,428.674,113.312,183.118,213.106,221.275,175.493,61.198,91.553,126.022,103.805,103.702],[10871.886,19721.725,24875.534,29259.439,26117.199,2267.529,4909.93,5635.18,6501.138,5901.862,1230.874,2001.94,2700.385,2955.829,2867.068,246.611,417.394,526,619.047,573.591,130.495,226.756,265.342,277.327,277.036,58.196,107.473,117.375,125.395,132.979]]
}