{
"KTrans": [[-3.791,23.975,22.726,24.509,22.658,-5.155,27.111,18.947,25.3,25.615,36.961,26.401,27.097,24.022,30.902,84.941,85.736,79.22,89.166,74.438,75.548,158.361,179.803,144.515,135.126,-87.423,213.201,213.117,259.208,210.686],[-32.992,-6.545,-1.181,3.51,8.989,-41.449,-7.647,2.625,4.853,11.909,-28.636,-2.62,4.373,11.423,13.26,-2.141,23.641,37.471,32.372,35.212,15.595,58.009,68.502,67.482,72.917,-29.97,32.116,92.362,109.144,109.795],[-63.34,-24.95,-11.921,-7.042,-0.764,-60.383,-22.88,-15.939,-1.538,-0.479,-54.932,-15.308,-7.35,-1.619,2.304,-41.331,-2.346,16.129,16.451,18.171,-29.644,7.518,32.458,34.586,37.725,4.542,73.232,74.061,75.627,70.751],[-74.526,-38.776,-21.835,-15.725,-8.794,-70.875,-35.71,-19.523,-9.898,-6.264,-71.415,-33.147,-20.131,-11.243,-5.26,-50.642,-11.745,-8.853,1.74,4.871,-54.506,-6.919,15.239,16.578,25.411,-48.597,-10.847,25.481,44.299,55.776],[-78.8,-43.755,-29.944,-21.573,-16.52,-80.513,-43.707,-29.147,-19.343,-15.489,-78.776,-45.97,-29.462,-22.076,-13.003,-72.855,-34.2,-15.556,-8.763,-0.502,-63.503,-25.307,-10.133,6.953,12.274,-42.882,-17.351,-2.759,38.127,34.137],[-84.267,-48.892,-37.534,-30.143,-22.826,-82.09,-53.273,-37.32,-29.289,-21.497,-76.343,-46.254,-36.165,-22.54,-19.139,-83.632,-44.708,-19.039,-15.36,-7.216,-83.32,-35.719,-14.345,2.436,1.613,-52.249,-50.084,-11.24,15.764,25.13]],
"ve": [[-9.119,6.696,2243.414,-52.665,-6.317,33.371,126.015,-108.677,150.151,21.343,163.928,38.626,39.805,137.568,-104.052,84.26,22.086,40.809,37.125,-55.721,112.599,37.036,39.936,56.393,-187.645,79.449,90.014,42.854,20.34,4.592],[67.683,4.957,14.111,19.697,-45.544,24.912,8.666,15.598,19.957,20.911,24.621,38.04,10.31,15.22,24.775,56.523,26.826,15.755,17.645,27.711,94.341,38.219,32.805,25.204,20.344,183.549,88.927,51.662,41.45,66.709],[-5.297,-1.705,0.885,1.979,2.907,265.08,0.698,1.561,0.471,2.876,40.932,1.192,-0.369,2.407,4.731,71.176,17.963,14.073,8.971,9.792,90.677,39.478,27.812,21.187,19.133,177.72,85.108,37.063,47.237,40.978],[25.874,-3.494,-6.082,-4.133,-1.017,10.696,1.328,-2.826,-2.28,-1.561,-296.72,-0.244,-0.881,-1.868,0.255,6.548,13.944,10.306,5.986,5.933,81.186,41.488,26.056,18.117,14.239,182.798,85.446,62.248,29.081,36.163],[21.407,-5.407,-7.287,-5.15,-4.877,-18.183,1.361,-3.904,-4.032,-3.175,38.849,-0.474,-6.37,-1.224,-2.816,27.509,18.534,9.901,4.465,3.723,93.839,35.643,25.176,18.497,14.375,172.205,168.471,56.071,41.281,32.426],[-0.352,-5.758,-8.594,-5.948,-5.224,1.606,-1.801,-5.099,-4.713,-4.392,-3.998,-0.741,-4.539,-4.953,-3.938,58.937,17.6,8.633,2.969,3.223,100.432,109.461,24.103,16.961,12.948,179.513,87.694,60.692,41.67,31.584]],
"kep": [[-51.891,-40.007,-62.136,-60.502,-73.339,-59.355,-41.927,-60.671,-63.018,-78.657,-44.05,-51.1,-55.958,-68.205,-72.457,-37.191,-22.396,-21.771,-12.577,-25.531,-48.275,-4.674,18.082,7.305,13.959,-78.067,-5.909,18.461,59.291,44.662],[-65.37,-50.278,-50.676,-50.852,-51.365,-71.623,-50.205,-49.439,-50.405,-48.211,-66.757,-48.192,-47.032,-46.611,-47.801,-65.053,-44.795,-35.387,-38.964,-39.275,-66.287,-39.927,-31.025,-27.502,-22.332,-81.078,-63.429,-35.547,-24.743,-20.73],[-82.389,-57.599,-53.253,-51.291,-48.417,-80.393,-58.336,-55.346,-47.59,-48.343,-79.772,-54.293,-49.955,-48.472,-47.811,-79.159,-56.049,-45.675,-42.971,-42.752,-78.409,-59.519,-44.719,-40.779,-38.599,-77.684,-51.326,-44.304,-36.168,-34.156],[-87.045,-65.704,-55.564,-53.253,-51.277,-85.788,-64.879,-55.714,-51.077,-49.522,-87.04,-63.49,-56.875,-51.996,-49.939,-81.432,-58.931,-56.188,-49.292,-47.621,-85.4,-65.43,-51.746,-47.861,-41.999,-87.409,-73.255,-58.122,-47.337,-39.025],[-89.592,-68.051,-59.709,-56.228,-53.596,-91.312,-69.863,-60.729,-55.257,-53.925,-89.957,-71.017,-59.774,-58.267,-52.652,-90.053,-70.418,-59.04,-53.778,-49.301,-88.46,-71.327,-61.297,-52.429,-48.355,-87.965,-75.45,-66.827,-47.73,-46.727],[-93.162,-70.419,-63.718,-60.62,-57.036,-91.318,-74.114,-64.76,-60.697,-56.508,-88.669,-70.792,-64.417,-56.868,-55.586,-93.845,-75.106,-60.731,-56.736,-52.611,-94.332,-75.578,-64.075,-54.191,-52.542,-90.074,-84.091,-70.275,-55.737,-50.466]],
"vp": [[-262.249,-47.139,1081.189,488.051,1093.496,-180.316,24.1,177.333,167.292,174.916,10.125,11.044,64.205,70.288,41.378,3.741,-24.201,18.231,-0.024,-12.372,-21.323,-45.985,10.904,-0.825,-8.12,-18.645,-34.906,-34.806,-37.658,-20.893],[2116.658,1231.042,540.452,-471.757,326.29,558.885,112.499,-43.932,75.081,83.633,245.825,-3.644,-44.7,88.02,-191.473,20.069,-16.327,3.803,-29.987,-5.87,3.63,-36.397,-26.146,-42.002,-26.073,-1.181,-27.11,-60.457,-37.333,-40.728],[3711.309,4159.075,2547.825,1084.044,245.731,952.815,582.284,696.829,303.683,-17.057,441.824,333.684,112.371,38.641,68.296,50.423,19.077,28.664,-14.425,-18.292,-7.247,16.417,-1.441,-39.957,-26.756,-24.314,-31.943,-22.433,-28.71,-37.928],[4700.321,6881.737,3054.204,3096.214,2767.18,1080.963,1361.367,958.738,613.14,307.954,543.204,521.844,328.978,376.064,205.701,58.007,76.853,56.453,10.03,14.387,8.748,34.857,13.529,-10.135,-10.166,-11.696,-18.107,4.01,-32.962,-25.694],[5688.029,8010.025,6389.06,5598.776,3071.768,953.865,1640.43,1378.929,1049.704,1002.514,522.226,829.247,554.287,522.458,439.058,100.647,124.108,120.466,60.059,69.878,34.273,43.57,-0.194,26.86,18.56,-34.773,-9.791,5.093,-20.509,-23.397],[7070.233,8069.301,8097.286,7495.923,5989.04,1316.687,1807.113,1645.502,1469.429,1054.987,470.838,829.769,774.771,547.465,480.884,76,132.873,186.164,98.59,113.139,44.898,82.424,44.613,45.119,39.214,-28.227,19.953,8.101,-12.602,-13.062]]
}