{
"KTrans": [[30.664,47.719,34.034,33.381,25.289,38.025,30.983,30.151,30.002,28.741,25.462,45.512,28.175,27.526,31.178,67.706,56.558,62.474,54.713,58.046,63.755,88.446,87.125,84.923,81.9,155.508,143.387,138.973,100.32,145.329],[-45.633,-0.832,8.023,10.441,15.21,-48.775,-8.006,3.555,8.848,15.708,-45.99,-17.973,3.642,17.269,14.638,-20.136,9.386,13.413,22.771,23.961,-17.269,24.405,12.863,34.513,32.18,-22.928,35.654,60.042,53.912,47.326],[-76.845,-38.817,-16.304,-2.778,4.661,-68.286,-39.835,-16.49,-2.166,2.409,-74.109,-35.358,-12.067,-3.663,1.594,-66.118,-19.567,-9.777,-1.707,8.635,-49.715,-15.07,2.2,12.371,14.915,-22.242,-7.636,19.404,29.176,19.828],[-85.484,-57.584,-32.799,-19.675,-12.395,-82.371,-54.304,-33.954,-14.703,-8.955,-81.197,-53.166,-30.624,-17.947,-12.062,-77.091,-48.461,-31.651,-18.317,-6.278,-65.742,-39.901,-24.35,-11.51,0.646,-60.314,-36.865,-23.494,1.277,12.634],[-90.318,-65.029,-49.26,-29.564,-22.786,-86.158,-63.31,-41.747,-34.424,-23.379,-85.446,-66.045,-46.233,-32.049,-22.943,-80.371,-65.21,-39.639,-28.06,-17.826,-79.359,-59.147,-41.383,-29.737,-15.414,-71.564,-45.071,-30.021,-14.966,-9.334],[-91.187,-72.401,-52.464,-45.819,-28.996,-92.301,-72.559,-54.96,-44.601,-30.805,-90.419,-72.792,-54.803,-41.214,-31.969,-83.994,-71.088,-50,-41.102,-31.627,-89.389,-63.036,-48.188,-38.246,-24.733,-73.665,-57.021,-41.804,-31.368,-22.774]],
"ve": [[18.133,-56.047,-204.075,-695.676,61.11,-6.767,-132.55,-14.842,351.805,-74.574,158.93,0.618,-67.667,-36.122,-3.679,40.891,2.38,-3216.018,-162.622,-34.12,59.479,89.342,25.808,748.192,-51.53,130.09,28.42,13.078,-25.609,-22.324],[-40.34,10.709,13.516,16.082,20.667,-145.605,1.889,10.906,81.914,25.31,-0.369,-5.04,11.669,20.231,21.223,-3.687,22.788,13.758,25.953,13.512,-19.83,40.318,16.528,23.592,78.229,109.163,47.831,29.896,7.165,6.026],[-38.581,-8.358,-15.565,-0.5,2.225,12.213,-521.449,-2.776,0.067,3.721,-44.493,-11.219,-3.963,-0.186,5.599,10.029,8.902,5.303,4.16,7.224,54.071,11.768,13.332,12.893,8.97,95.072,54.624,-1302.782,21.812,16.826],[-36.701,-13.452,-9.256,-6.854,-3.499,-38.8,-124.31,-11.059,-5.073,-1.548,-24.727,115.272,-8.309,-3.958,-1.909,-41.805,-12.735,-1.551,0.011,2.19,62.204,6.615,14.844,5.447,8.131,82.321,31.142,29.027,16.206,18.677],[-42.112,-19.409,-14.05,-9.142,-8.593,-46.016,-23.336,-11.521,-11.728,-6.533,-49.601,-5.559,-13.01,-12.075,-7.116,-11.007,-12.708,3.28,-6.208,-4.225,29.481,-5.89,-8.111,0.46,3.17,104.43,38.119,17.619,9.498,197.572],[-39.715,-9.587,-14.714,-15.837,-11.107,218.013,-33.897,-8.105,-14.041,-9.508,-66.738,-27.279,-15.344,-12.663,-9.776,15.921,-18.023,5.794,-8.027,-6.95,126.518,31.315,-2.863,-8.582,-1.153,47.827,29.018,5.776,2.686,9.085]],
"kep": [[-44.173,-35.492,-43.759,-46.034,-74.927,-37.843,-40.553,-56.115,-57.027,-68.592,-48.503,-35.518,-51.782,-66.67,-70.563,-41.364,-31.775,-33.017,-43.383,-38.665,-53.225,-32.941,-26.948,-26.195,-25.635,-50.651,-40.705,-27.205,-62.548,-3.702],[-73.902,-41.79,-40.912,-41.983,-43.04,-72.488,-48.486,-44.455,-44.742,-42.188,-73.996,-53.654,-43.551,-39.401,-41.846,-67.414,-46.987,-42.951,-40.314,-38.38,-76.98,-45.728,-48.085,-37.132,-37.98,-79.627,-57.823,-39.459,-38.924,-39.035],[-89.327,-62.927,-51.071,-44.454,-41.787,-84.477,-62.512,-50.288,-44.262,-43.545,-88.314,-61.508,-48.209,-44.468,-44.462,-87.637,-59.802,-51.414,-46.502,-42.191,-84.002,-60.928,-50.03,-43.434,-41.764,-80.916,-70.736,-53.102,-44.578,-47.5],[-93.899,-72.016,-58.23,-51.352,-48.669,-90.838,-71.05,-57.987,-49.167,-47.722,-91.15,-69.668,-57.15,-51.547,-49.079,-89.937,-71.174,-60.97,-53.667,-48.131,-86.37,-71.88,-59.494,-53.49,-47.337,-91.224,-80.689,-70.553,-55.935,-47.748],[-95.182,-75.52,-67.044,-56.396,-52.312,-93.433,-74.736,-62.484,-58.191,-53.68,-92.882,-77.749,-65.314,-56.81,-53.299,-92.529,-78.503,-64.973,-57.014,-51.783,-93.079,-81.011,-69.526,-61.957,-53.962,-91.733,-80.187,-69.817,-59.867,-56.361],[-96.091,-80.902,-67.984,-63.704,-55.177,-96.399,-80.393,-70.086,-63.508,-56.969,-95.162,-80.601,-69.018,-62.156,-57.575,-93.149,-83.196,-69.425,-63.935,-58.8,-95.008,-83.699,-72.337,-65.098,-57.667,-91.886,-83.419,-74.554,-68.174,-60.775]],
"vp": [[-464.926,-1046.175,-762.733,-986.661,-1051.461,-114.933,-43.624,-270.625,-240.893,-158.38,-60.377,-78.067,-51.659,-114.156,-137.003,-20.477,-14.879,-35.986,-30.861,-47.052,-9.827,-16.573,-13.398,-28.075,-20.843,-38.023,-16.883,-16.673,18.451,-23.516],[2800.928,428.455,-285.485,-943.763,-1552.921,559.767,52.554,-90.399,-52.576,-200.142,276.941,169.667,21.821,-191.028,-115.318,36.841,-8.327,-20.879,-33.749,-30.886,7.687,-36.401,14.217,-24.053,-9.301,-24.24,-16.346,-24.295,-8.696,0.96],[5292.079,3894.852,1884,-36.703,-618.766,909.746,878.437,328.484,122.182,37.819,653.564,363.799,172.245,94.523,-27.009,101.594,13.669,0.243,20.226,-19.984,1.763,9.055,2.239,-8.15,-2.523,-17.385,-7.98,-12.122,-28.678,9.722],[7863.397,6301.388,4190.532,3342.299,1375.512,1120.137,1132.178,1016.364,419.195,140.558,537.269,526.933,321.557,269.125,308.826,131.323,108.161,86.153,56.347,30.696,11.619,47.408,57.432,23.464,-20.232,-9.01,20.005,41.668,0.078,-12.485],[7484.188,7976.396,7101.628,4196.774,4175.789,1424.515,1314.216,1218.934,1254.911,943.842,521.678,769.976,656.836,595.781,448.635,94.171,165.833,115.556,101.812,83.912,40.128,59.436,71.107,62.201,27.06,-10.382,14.338,9.543,17.109,20.121],[7406.76,9497.268,7835.971,8450.909,5725.072,1717.959,2031.359,1551.769,1673.731,1276.485,762.384,769.894,832.952,670.884,703.099,77.228,187.719,142.301,128.017,154.942,30.01,56.238,59.71,57.32,43.71,-7.451,7.554,25.687,26.52,30.713]]
}