{
"KTrans": [[3.617,5.917,8.368,11.154,10.14,12.624,13.683,14.589,13.072,17.692,15.771,23.904,21.315,20.497,24.002,119.895,89.72,82.458,74.061,73.134,101.012,185.31,164.908,149.593,140.828,25.745,266.976,186.898,267.106,294.987],[-28.681,-6.969,0.42,4.439,5.327,-24.662,-0.593,2.765,3.011,5.461,-14.141,5.188,6.877,8.928,10.13,34.523,37.928,39.585,36.422,32.913,6.853,101.902,86.205,71.775,69.102,6.76,177.41,204.452,153.406,129.665],[-46.163,-15.092,-6.107,-2.95,-0.482,-41.057,-14.162,-5.612,-0.179,1.099,-35.872,-6.211,-0.205,1.541,3.415,-24.006,22.188,23.502,26.557,22.784,-38.694,62.603,61.749,50.772,47.919,-62.263,32.591,102.618,115.203,104.278],[-57.631,-23.186,-13.738,-8.286,-3.853,-59.237,-21.082,-10.063,-6.247,-4.31,-54.291,-18.684,-5.871,-3.505,-1.365,-44.16,21.785,14.382,16.952,14.993,-61.746,33.614,37.626,42.433,34.663,-56.398,-1.395,70.188,84.055,75.504],[-66.86,-28.159,-19.346,-12.009,-8.582,-69.073,-28.107,-17.478,-11.212,-7.349,-63.512,-22.402,-14.655,-8.87,-5.046,-61.626,-0.418,10.71,9.015,10.998,-73.159,1.861,29.57,29.673,30.489,-134.257,-53.798,51.359,74.531,68.727],[-74.211,-34.262,-24.792,-17.033,-12.616,-71.798,-35.254,-20.654,-14.707,-10.498,-68.789,-31.093,-18.183,-13.92,-10.833,-62.219,-8.903,-1.416,3.429,3.649,-74.575,-16.725,25.05,26.49,19.85,-64.509,-32.61,-5.971,72.534,70.36]],
"ve": [[12.682,55.226,33.906,91.321,48.149,49.263,20.259,30.982,-113.954,-31.794,46.843,14.123,28.757,-200.979,5.059,48.327,20.944,6.607,7.254,-1.399,1.906,22.745,19.007,2.076,-8.437,176.282,76.546,36.872,96.229,642.852],[5.069,0.175,1.922,2.713,4.623,5.003,1.218,1.247,4.631,7.116,10.622,4.818,3.8,4.339,4.405,48.441,22.547,15.367,11.412,8.641,99.9,44.161,28.708,20.677,15.081,193.961,91.333,64.464,44.142,32.656],[4.362,-1.597,-1.849,-0.972,1.256,8.345,1.353,0.857,-0.009,0.807,11.53,3.034,1.754,1.319,2.548,41.231,22.736,13.857,10.916,9.274,51.944,44.65,30.355,22.365,17.125,186.928,94.818,62.614,47.469,36.867],[-0.168,-3.32,-1.852,-1.927,-0.728,0.405,0.189,-0.641,-0.882,0.291,10.884,2.566,2.19,1.093,0.29,46.085,21.638,13.205,9.617,8.239,93.868,59.296,29.552,21.699,16.92,191.003,95.506,91.287,46.043,34.9],[4.58,-1.608,-2.763,-2.126,-1.279,6.909,0.065,-0.927,-1.47,-0.926,8.597,2.18,-0.147,-0.53,0.285,49.641,23.995,12.761,9.578,7.158,94.679,40.553,29.946,21.367,16.58,199.381,96.532,64.32,47.337,36.202],[-36.375,-2.505,-2.91,-2.962,-1.542,32.315,0.203,-1.55,-1.123,-1.355,13.608,2.584,0.443,-0.473,-0.906,41.204,21.491,12.916,8.891,6.426,74.665,47.231,29.738,21.798,16.629,190.864,92.777,67.663,45.989,36.689]],
"kep": [[-24.17,-23.148,-28.773,-28.879,-33.282,-19.428,-20.023,-24.544,-28.606,-23.356,-22.281,-12.132,-14.726,-19.71,-13.797,11.775,22.859,33.274,34.289,46.026,-19.846,54.627,75.241,92.079,104.965,-45.012,49.894,39.925,134.518,189.725],[-46.929,-29.271,-24.972,-22.44,-23.058,-44.32,-25.366,-22.617,-24.95,-24.802,-40.315,-23.458,-21.625,-20.536,-19.605,-32.363,-14.562,-8.233,-6.901,-6.848,-56.675,5.117,9.525,7.921,11.577,-64.046,7.132,39.573,33.009,30.907],[-59.321,-34.342,-27.458,-25.601,-25.436,-57.34,-35.762,-28.869,-24.266,-23.876,-56.762,-30.428,-25.544,-24.017,-23.451,-60.915,-24.424,-17.884,-13.594,-14.785,-74.125,-16.47,-6.29,-6.929,-4.395,-83.961,-45.736,-5.928,9.786,12.508],[-68.694,-39.657,-33.173,-29.048,-26.575,-70.465,-40.13,-31.367,-28.295,-27.676,-68.917,-39.831,-30.149,-27.606,-25.405,-70.332,-24.536,-23.532,-19.253,-19.574,-82.52,-31.72,-19.852,-11.638,-12.885,-84.307,-60.824,-21.978,-5.186,-2.12],[-74.99,-44.655,-37.1,-31.797,-29.83,-77.973,-45.496,-36.705,-31.644,-29.176,-75.32,-42.492,-35.275,-30.558,-28.245,-80.164,-38.54,-25.857,-24.732,-21.597,-87.424,-47.411,-25.141,-19.38,-15.445,-103.612,-78.964,-30.568,-11.24,-7.026],[-80.341,-49.041,-41.249,-35.226,-32.793,-80.656,-50.956,-38.894,-34.63,-31.298,-78.514,-49.154,-38.322,-34.458,-31.837,-80.073,-44.011,-34.142,-28.127,-26.305,-88.373,-57.392,-27.712,-21.923,-22.428,-88.297,-70.567,-54.997,-11.767,-6.875]],
"vp": [[286.581,-812.407,-13.313,-240.334,709.395,-46.011,-79.07,18.263,67.793,66.965,-34.76,-19.069,-10.953,29.641,-1.632,-10.855,9.241,-7.399,-8.119,-0.475,-9.591,-5.15,-9.182,-17.284,-13.665,-28.256,2.361,14.745,-1.149,26.021],[2381.669,1514.771,-142.399,-772.665,543.887,488.99,113.841,-84.984,125.164,97.406,187.491,36.171,38.67,-3.759,91.927,30.924,2.454,-0.465,15.666,-13.343,0.961,-13.4,-22.093,-10.535,4.215,-11.637,-22.969,4.775,-6.207,-13.139],[4283.847,2850.676,1938.948,647.222,16.084,1039.891,510.377,286.135,167.128,17.026,467.241,260.526,192.967,85.246,3.338,63.636,19.27,29.04,17.096,-1.722,44.067,-7.182,0.812,-10.56,-11.715,6.436,-10.927,-36.542,-19.245,-9.593],[6261.884,3392.856,2552.084,2118.145,862.654,1126.271,1046.768,541.159,343.297,219.876,590.373,543.71,395.231,208.115,36.956,64.571,103.971,40.795,40.51,9.29,37.535,33.449,13.008,14.14,-20.544,-1.742,3.919,-9.974,-31.654,-35.495],[6010.875,6435.083,4409.523,2645.453,1417.583,1185.801,1550.224,974.992,415.916,328.097,638.886,661.054,414.075,151.629,122.504,112.92,138.749,96.631,45.41,37.382,34.1,52.178,24.412,-3.836,2.649,37.683,26.392,-8.967,-6.336,-13.307],[6259.525,9732.577,5323.1,2775.592,1763.333,1419.195,1841.988,1221.827,771.906,401.499,674.198,764.024,672.411,288.969,126.577,98.283,130.216,110,66.39,18.716,53.115,67.255,59.054,53.518,0.426,7.069,6.429,11.909,5.823,7.685]]
}