{
"KTrans": [[-52.173,-66.354,-76.887,-71.794,-70.393,-29.439,-64.795,-68.837,-63.341,-68.192,-36.995,-58.082,-50.191,-43.71,-59.628,21.676,-11.911,-0.763,-12.804,3.235,55.561,60.421,52.507,37.926,43.315,83.322,193.855,118.754,163.02,148.477],[-54.933,-46.167,-45.234,-53.479,-58.477,-54.507,-35.66,-42.228,-48.563,-48.046,-49.751,-33.453,-25.698,-45.533,-37.545,-13.531,-7.292,-7.389,-16.15,-39.695,27.798,36.433,-4.477,22.25,-7.352,4.65,42.506,-39.645,49.661,41.285],[-66.776,-49.648,-51.263,-42.668,-45.937,-67.68,-50.747,-43.137,-37.119,-51.211,-63.47,-43.291,-34.9,-22.939,-37.304,-44.612,-28.291,-22.011,-13.738,-14.658,-34.762,16.285,-0.714,-2.752,-7.608,-59.216,7.258,12.928,-10.157,9.56],[-76.309,-45.19,-45.504,-49.164,-45.667,-74.049,-50.628,-50.465,-33.097,-40.431,-72.534,-47.991,-41.169,-41.609,-35.638,-61.752,-36.177,-34.216,-25.126,-19.726,-50.794,-11.444,-8.148,0.568,12.797,-38.151,0.844,2.618,-8.091,-21.011],[-80.534,-60.974,-42.348,-43.586,-45.472,-81.271,-59.99,-39.204,-31.419,-36.096,-79.691,-53.74,-39.055,-38.643,-37.043,-73.531,-38.901,-38.223,-34.063,-19.86,-68.626,-19.839,-12.581,-21.182,-5.343,-49.393,-8.589,-18.567,18.649,21.847],[-85.298,-56.831,-43.252,-52.494,-45.566,-85.541,-60.131,-42.736,-35.003,-42.746,-83.969,-60.968,-40.987,-42.985,-33.267,-78.053,-48.816,-27.482,-36.047,-38.752,-74.746,-36.649,-24.124,-23.956,-15.582,-61.931,-33.726,-10.306,9.886,11.769]],
"ve": [[-39.18,-50.707,-82.566,-279.33,-193.052,-34.132,-52.387,-12.27,-0.166,-300.608,-2159.941,-15.304,-81.722,-70.532,-300.44,97.706,-3.284,-26.334,63.872,4.518,90.349,32.513,11.85,-150.836,-104.844,177.146,80.433,28.179,-1.601,-64.262],[-56.127,-50.917,-44.718,-74.25,-32.838,-56,-55.836,-42.021,-42.94,-15.138,-44.43,48.057,-23.881,-41.294,196.878,37.202,-22.874,0.357,-24.834,-5.811,155.035,85.492,10.992,0.839,-17.194,212.063,71.736,38.005,45.172,126.323],[-40.792,-86.879,-78.372,-12.924,-44.285,-41.848,-335.886,-75.227,-43.37,-51.203,-32.186,-68.849,-55.26,27.571,-39.131,69.974,-54.931,-40.633,-24.821,-6.771,187.481,96.319,24.679,1.468,7.181,48.704,-7.195,75.524,49.006,-13.379],[-38.145,-76.43,-89.354,-84.511,-65.703,-9.153,-97.041,-107.53,-48.149,-56.592,-21.22,-76.337,-89.091,-74.156,-50.172,68.043,-81.899,-82.56,-48.328,-25.27,45.709,21.822,-63.895,4.885,22.077,264.481,97.511,55.659,-14.52,15.092],[-11.707,-106.348,-90.86,-96.753,-82.493,-13.57,-86.619,-89.788,-59.235,-61.898,-18.21,-71.752,-77.187,-76.191,-65.155,-1056.565,15.056,-97.736,-76.956,-29.854,127.965,95.1,-36.45,-56.567,-11.391,188.974,219.378,10.002,39.151,38.504],[-4.38,-48.806,-93.773,-122.614,-94.817,-3.789,-64.052,-101.672,-74.803,-89.578,-33.591,-61.804,-85.211,-109.154,-64.856,72.437,-34.423,-47.117,-96.457,-80.224,65.435,11.84,-52.051,-55.332,-4.018,112.603,54.473,4.206,30.647,6.713]],
"kep": [[-109.53,-0.76,-23.237,7.885,-12.972,-106.174,-20.384,9.756,2.429,12.572,-112.343,1.959,-20.447,-17.175,-7.369,-117.321,-58.611,-43.423,-7.883,-40.291,-64.022,-142.503,-107.486,-60.987,-52.195,-16.158,-171.167,-203.621,-196.344,-187.431],[-66.481,-39.501,-127.825,-6.379,2.929,-57.371,-43.519,-109.109,-32.699,-0.894,-64.067,-35.241,-112.762,-24.029,-4.188,-61.889,-38.872,-134.113,-60.853,4.639,-63.639,-80.375,-45.557,-124.838,-35.011,-54.813,-14.543,-49.411,-152.007,-115.668],[-78.07,-20.738,-12.735,-42.045,-120.677,-79.553,-25.025,-0.823,-35.288,-116.513,-75.169,-25.716,-12.142,-26.333,-103.183,-77.941,-30.309,-20.914,-21.693,-120.437,-81.136,-59.122,-43.802,-17.104,-85.603,-65.293,-25.599,-29.655,-26.41,1.849],[-81.363,-29.963,-10.89,-4.173,-4.313,-85.558,-30.156,-9.289,-5.31,-1.827,-81.387,-33.342,-5.36,0.118,-0.731,-84.988,-28.732,-9.519,-16.322,-23.36,-75.9,-43.344,-33.291,-35.684,-58.827,-76.089,-48.454,-45.924,-13.542,-30.885],[-90.665,-40.712,-15.286,-1.084,0.59,-90.113,-43.144,-10.978,-6.414,-2.726,-88.382,-41.481,-14.888,-9.259,-5.344,-91.113,-46.265,-14.881,-7.369,-11.254,-87.323,-59.523,-25.516,-12.504,-27.723,-78.434,-65.567,-43.721,-18.408,-33.798],[-94.012,-51.285,-18.573,-8.688,-1.61,-95.446,-50.367,-18.369,-7.177,-2.537,-92.178,-54.702,-19.503,-4.936,-7.225,-92.353,-56.485,-25.027,-6.182,-7.341,-87.882,-57.666,-35.552,-21.951,-23.903,-80.353,-60.404,-36.558,-28.71,-19.328]],
"vp": [[225.442,-58.581,-341.43,-41.075,49.69,31.389,35.101,22.276,-18.065,-7.069,19.758,-3.645,-29.937,-10.703,-9.597,-28.71,-1.588,-8.384,28.075,-9.527,-7.782,-6.198,-1.262,4.205,4.492,-27.546,-16.751,6.888,4.573,-6.377],[2058.353,401.936,-119.698,228.625,354.856,318.31,97.669,-3.265,11.024,-8.413,193.767,45.62,-13.191,0.468,42.961,22.287,-35.333,-29.151,13.566,20.089,-31.32,-25.522,3.121,-19.759,-7.433,-15.943,-42.484,-13.531,-12.454,-6.352],[3872.485,1303.324,542.055,721.083,200.113,635.617,210.669,-2.888,25.304,-48.94,336.6,195.425,35.92,84.196,-29.956,60.066,9.637,-8.062,-23.56,-17.039,20.615,5.411,-24.217,-33.41,-4.091,-19.664,-31.171,-40.511,-40.295,-47.714],[4574.708,2847.714,1238.636,251.198,590.504,1031.682,477.8,125.345,158.629,31.903,464.233,280.47,74.766,-0.745,26.833,60.188,-3.321,9.581,39.436,-10.524,-14.917,19.437,-29.652,-1.228,-7.107,-8.738,-22.205,-35.645,-38.656,-26.502],[5655.279,4340.685,2168.074,1128.155,236.904,1111.219,898.022,322.456,282.987,174.314,527.183,390.183,211.038,106.189,41.467,106.997,67.311,10.755,20.862,39.248,34.113,-6.496,-17.472,-19.561,9.812,-26.998,-31.048,-20.426,-26.476,-30.624],[6659.913,6546.223,2897.932,1091.313,1080.385,1292.038,1362.938,475.69,408.626,199.429,658.134,569.019,303.083,123.903,136.261,99.378,87.705,73.011,-0.317,16.224,11.157,17.036,-2.613,-1.165,37.691,-1.219,-23.71,-6.261,-33.846,-42.701]]
}