{
"KTrans": [[2.374,1.636,0.912,0.939,1.152,12.293,8.183,6.334,5.685,4.921,25.965,16.67,13.027,11.59,11.079,164.582,92.418,74.706,66.718,61.703,401.587,225.334,176.938,154.272,141.849,1114.245,590.194,456.675,394.859,359.387],[2.157,1.244,1.165,0.319,0.732,9.916,5.248,3.727,3.295,2.852,21.359,11.481,8.212,6.89,6.03,134.494,64.35,44.404,36.119,30.867,321.497,144.413,99.631,77.994,66.285,874.372,359.661,233.329,179.875,150.554],[3.638,1.07,0.811,0.335,0.775,7.249,6.075,3.928,3.282,2.494,19.878,11.207,8.028,6.174,4.832,124.777,60.54,40.889,31.093,25.846,309.118,135.962,88.341,66.997,54.558,821.561,330.89,202.961,150.773,123.087],[-3.251,0.208,0.937,0.829,0.35,5.409,4.916,3.322,2.583,2.559,16.673,11.111,7.205,5.73,4.229,119.687,60.931,38.621,29.017,24.236,286.917,130.776,83.854,62.871,50.371,783.292,315.791,195.747,141.644,112.871],[-3.959,-0.215,0.635,0.246,0.649,2.786,5.706,3.185,2.857,2.307,12.437,10.231,7.612,6.119,4.145,114.053,58.379,37.332,28.691,23.334,273.993,130.253,83.959,61.135,48.543,743.548,313.781,190.356,136.511,107.381],[-11.161,0.948,0.852,0.677,0.653,0.269,5.495,3.476,2.538,2.024,8.509,10.643,7.025,5.516,4.007,101.143,56.257,37.864,28.241,22.716,251.826,128.682,83.757,59.653,48.229,711.313,310.579,187.831,134.743,105.198]],
"ve": [[0.969,0.077,0.679,0.122,-1.059,4.221,1.078,-1.252,-2.968,-2.975,9.071,1.283,-2.28,-4.781,-7.439,45.103,13.096,-1.235,-11.716,-19.048,93.093,33.019,7.942,-7.581,-18.539,191.67,79.199,34.943,10.124,-6.421],[0.914,0.45,0.309,0.239,-0.054,5.082,2.354,1.384,0.819,0.443,10.05,4.633,2.855,1.501,1.017,49.074,23.456,14.199,9.076,5.568,99.269,47.842,29.512,19.445,12.352,198.914,96.656,60.859,41.498,28.646],[1.502,0.388,0.35,0.216,-0.023,5.034,2.497,1.56,1.102,0.879,9.843,5.01,3.248,2.11,1.654,50.093,24.564,15.818,11.255,8.265,100.206,49.22,31.896,23.099,17.109,199.937,98.82,64.347,46.755,35.505],[1.423,0.436,0.27,0.246,0.275,4.786,2.387,1.692,1.252,1.028,10.183,4.857,3.416,2.52,1.773,50.002,25.052,16.412,11.908,9.173,100.396,49.521,32.522,24.102,18.596,200.287,99.297,65.605,48.524,37.891],[1.181,0.564,0.216,0.187,0.167,5.149,2.368,1.708,1.121,0.916,10.316,4.896,3.344,2.275,1.845,50.288,24.792,16.472,12.085,9.594,100.249,50.001,32.793,24.461,19.048,200.262,99.565,66.083,49.03,38.636],[1.398,0.52,0.385,0.216,0.275,5.075,2.57,1.79,1.214,1.084,10.327,5.088,3.344,2.384,1.864,50.097,25.095,16.453,12.196,9.602,100.428,50.186,33.09,24.697,19.493,200.904,99.804,66.187,49.281,39.053]],
"kep": [[1.511,1.751,0.45,1.226,2.64,7.89,7.193,7.935,9.235,8.642,15.605,15.352,15.931,17.498,20.437,82.449,70.26,77.02,89.033,99.951,159.862,144.635,156.655,175.273,197.046,316.403,285.211,312.583,349.447,390.989],[1.262,0.813,0.877,0.096,0.806,4.64,2.852,2.327,2.477,2.415,10.339,6.567,5.221,5.326,4.974,57.426,33.142,26.465,24.807,23.98,111.584,65.347,54.155,49.029,48.012,225.993,133.753,107.229,97.808,94.77],[2.124,0.694,0.471,0.128,0.803,2.155,3.497,2.336,2.164,1.606,9.203,5.925,4.64,3.985,3.133,49.889,28.893,21.66,17.838,16.243,104.393,58.153,42.802,35.667,31.984,207.329,116.742,84.356,70.888,64.636],[-4.535,-0.207,0.678,0.585,0.08,0.617,2.486,1.612,1.325,1.521,5.912,5.991,3.672,3.14,2.419,46.485,28.695,19.091,15.29,13.8,93.18,54.371,38.742,31.243,26.799,194.233,108.641,78.596,62.706,54.382],[-5.012,-0.762,0.433,0.062,0.485,-2.272,3.274,1.461,1.72,1.381,1.981,5.106,4.135,3.762,2.263,42.518,26.933,17.916,14.819,12.541,86.839,53.511,38.537,29.471,24.78,181.014,107.352,74.832,58.701,49.593],[-12.362,0.439,0.468,0.465,0.378,-4.533,2.887,1.667,1.311,0.93,-1.573,5.304,3.568,3.067,2.105,34.013,24.931,18.392,14.309,11.965,75.606,52.295,38.079,28.039,24.053,169.663,105.52,73.205,57.255,47.573]],
"vp": [[-23.508,-9.199,-8.64,11.5,12.076,-5.239,4.89,-2.731,-1.395,-2.825,2.812,-1.228,-0.002,-0.723,0.828,-0.528,0.449,-0.116,0.096,-0.477,-0.048,0.351,0.19,0.103,0.11,-0.074,0.052,-0.092,-0.231,0.093],[110.262,9.394,12.243,15.005,14.104,31.411,4.16,-1.094,2.026,4.877,12.6,2.666,2.19,-0.686,3.187,1.384,0.352,-0.712,-0.058,0.247,0.855,0.053,0.115,-0.183,0.15,0.371,-0.084,0.027,-0.074,-0.216],[392.351,40.748,-6.465,-18.328,20.34,56.774,11.834,-10.38,2.053,-0.892,30.99,3.229,-1.329,-3.898,-0.584,7.563,0.449,-0.478,0.043,-0.606,2.642,-0.021,-0.297,0.408,-0.016,1.894,0.314,-0.104,0.008,-0.009],[713.462,77.2,-34.862,-0.488,9.814,148.197,5.121,5.096,5.247,-0.871,60.179,6.841,0.252,-0.935,-1.112,12.79,1.824,0.403,1.116,-0.432,6.54,0.506,0.056,0.849,0.157,3.757,0.236,0.213,-0.026,-0.166],[1170.744,101.677,51.226,2.322,29.941,231.935,14.581,3.002,-6.389,-3.99,110.639,5.119,7.02,2.089,-3.097,23.987,2.102,0.321,-0.413,0.348,10.932,1.628,-0.214,0.173,-0.182,4.816,0.445,0.223,0.057,-0.174],[1714.441,226.361,81.707,40.774,59.774,309.64,57.486,10.277,0.499,6.027,161.007,31.232,9.264,-0.453,1.341,36.954,4.497,1.939,0.219,0.096,16.083,2.097,1.079,-0.188,0.019,8.818,1.295,0.488,0.105,0.213]]
}