{
"KTrans": [[46.643,31.842,32.087,27.471,34.834,90.467,38.412,33.272,32.861,30.197,90.372,64.593,45.534,41.52,40.891,282.293,147.468,130.288,104.88,92.55,649.564,310.327,238.57,195.397,195.438,1641.232,743.158,551.953,498.191,453.917],[86.579,112.596,56.627,37.449,37.845,36.734,110.321,49.435,46.494,44.874,70.469,117.541,91.6,55.276,41.721,208.293,202.973,128.82,94.754,78.512,443.528,340.213,205.374,142.787,124.036,867.153,683.698,368.06,293.695,227.668],[-229,386.088,133.595,58.53,56.48,-219.624,294.995,141.737,85.677,61.277,-248.723,354.888,132.565,73.588,56.196,-336.082,573.233,196.161,117.223,97.47,-411.791,779.945,289.407,159.98,139.074,-1275.822,1144.264,463.676,328.109,232.665],[-204.941,-153.625,348.632,153.107,90.397,-207.384,-191.142,275.579,138.79,86.385,-193.081,-239.222,291.273,135.336,91.145,-252.168,-246.927,503.825,200.371,147.083,-400.952,-378.692,594.324,295.627,195.39,-630.388,-673.268,831.655,438.247,290.152],[-161.704,-292.266,54.534,320.254,173.065,-168.198,-291.333,201.663,279.987,172.733,-177.839,-328.805,73.056,330.658,161.809,-229.203,-329.871,123.949,395.024,194.221,-307.909,-459.201,256.562,546.714,243.005,-406.038,-850.369,688.964,788.437,353.563],[-157.772,-238.134,-149.965,343.415,281.917,-137.655,-236.098,-203.502,340.399,270.804,-159.909,-234.112,-252.143,547.383,250.425,-208.578,-280.906,-302.789,482.287,351.086,-260.272,-334.272,-228.619,737.17,403.817,-354.559,-462.037,-587.008,977.579,495.714]],
"ve": [[0.468,1.422,3.27,-21.852,42.307,7.123,1.536,3.087,16.204,-38.754,10.019,2.583,-2.207,-3.035,19.515,46.73,13.182,-1.4,-13.315,-20.439,98.002,34.51,8.233,-8.181,-18.98,196.088,81.035,34.989,11.712,-5.394],[4.538,3.571,1.724,0.828,1.164,8.758,4.963,1.34,1.159,1.435,14.612,7.455,6.959,2.941,1.386,52.838,25.635,16.721,10.28,6.19,100.147,49.181,31.935,19.563,13.429,199.228,99.366,62.39,45.041,29.161],[4.525,9.953,4.781,-0.57,1.563,8.097,4.077,6.381,3.043,2.958,13.737,8.973,4.933,2.043,2.013,52.09,26.567,17.033,12.813,10.456,102.1,54.4,33.644,22.365,18.195,199.956,99.417,65.496,50.074,38.129],[6.065,5.094,3.561,4.794,2.222,8.734,5.989,3.084,2.942,2.946,11.681,5.63,5.006,2.617,3.909,53.754,27.99,20.196,15.378,12.827,101.702,51.626,34.514,27.439,22.328,201.903,101.986,65.554,51.694,39.351],[5.536,3.212,0.914,6.19,5.899,8.384,6.12,6.246,3.281,4.646,15.24,8.018,7.918,5.208,4.028,52.997,27.59,19.576,15.359,10.77,103.788,54.939,35.325,29.05,20.794,203.157,103.145,68.849,54.131,41.422],[3.18,4.496,4.954,3.335,5.043,3.344,3.948,6.206,4.527,4.367,12.618,7.122,7.905,5.948,6.084,54.877,26.528,21.059,17.368,13.609,102.725,51.589,35.667,28.447,22.538,201.966,114.212,66.462,53.415,39.11]],
"kep": [[38.093,29.888,36.242,35.323,53.123,71.649,34.961,36.915,43.334,46.953,66.127,58.877,51.751,56.343,64.389,152.082,112.676,129.328,132.27,140.025,271.549,198.874,207.479,215.725,258.016,482.145,360.569,377.338,429.93,478.947],[65.496,94.693,47.514,32.328,34.326,15.633,90.013,40.42,39.505,40.42,41.245,92.641,73.768,46.369,36.695,93.436,129.868,88.594,70.438,63.558,159.628,182.24,123.777,95.881,92.187,215.83,281.776,180.282,165.986,146.648],[-211.955,332.695,113.605,49.103,47.529,-199.795,247.973,117.739,70.27,50.771,-219.061,292.081,107.858,59.323,45.915,-241.242,395.796,137.61,82.916,71.992,-241.607,446.29,176.185,100.643,92.723,-472.753,493.814,225.916,175.111,133.487],[-192.396,-141.251,302.383,130.011,75.751,-190.34,-173.425,234.372,115.657,72.051,-175.968,-212.983,243.102,110.923,74.129,-192.023,-200.331,371.016,147.166,109.451,-238.895,-264.221,381.82,194.62,131.178,-267.881,-362.052,427.391,239.405,166.314],[-153.989,-268.005,45.123,276.977,147.412,-158.413,-264.701,169.892,239.079,144.878,-162.442,-293.087,54.264,278.541,134.408,-179.078,-264.722,77.629,300.5,146.897,-197.238,-318.837,151.663,374.431,166.814,-196.216,-450.664,346.071,452.662,205.96],[-151.891,-221.103,-137.587,296.785,243.027,-130.808,-216.232,-184.136,290.629,231.551,-149.075,-211.419,-223.117,465.376,211.752,-166.696,-229.203,-251.111,369.689,272.537,-175.471,-241.891,-179.933,510.87,286.335,-179.747,-266.172,-364.828,568.923,298.495]],
"vp": [[2162.328,2159.314,2487.951,2301.544,2547.167,546.207,462.3,447.503,466.391,462.833,221.993,253.947,226.294,215.195,244.887,46.26,46.362,54.504,45.785,44.227,26.524,24.237,22.532,20.21,26.353,12.411,11.439,10.555,12.7,13.225],[8011.481,7076.374,6547.819,6184.312,7019.121,1510.464,1418.194,1149.876,1412.536,1514.583,767.302,639.805,878.874,716.09,667.077,141.912,134.854,149.389,147.394,142.036,73.93,66.672,73.724,68.383,70.549,36.452,32.915,32.587,40.067,35.727],[10030.199,15761.339,12515.574,10232.456,11684.485,2000.396,2467.83,2497.24,2507.854,2300.795,1021.68,1435.133,1207.489,1029.724,1062.605,191.481,223.114,225.748,221.258,240.806,99.334,145.874,106.354,101.854,123.462,50.627,59.583,51.847,63.815,58.503],[12306.217,16336.957,18090.621,17622.813,15668.762,2474.088,3052.871,3217.169,3399.974,3184.589,1105.323,1417.236,1483.452,1402.721,1405.576,236.741,347.986,363.956,348.958,370.714,107.208,168.266,172.866,176.646,181.21,52.432,82.025,63.179,77.035,88.417],[13506.284,19767.123,18677.413,22243.085,23369.896,2549.773,3936.008,4760.126,4205.698,4479.823,1403.696,1735.324,2250.398,2343.689,2166.143,258.562,399.114,458.575,404.982,435.511,130.054,190.629,207.465,228.226,211.653,62.178,101.644,105.601,110.026,92.365],[11160.159,23920.095,26331.25,28765.05,24903.437,2157.963,3997.271,5112.966,5397.386,5543.738,1329.441,2114.614,2462.845,2774.328,2418.795,278.322,422.404,532.483,618.012,566.964,126.453,210.011,239.313,258.717,259.192,65.982,100.743,117.109,152.069,107.56]]
}