{
"KTrans": [[-2.744,6.561,7.647,5.352,6.279,12.574,12.875,12.116,12.084,14.195,22.985,19.749,18.165,21.228,17.459,99.062,96.246,75.75,70.459,65.546,129.258,168.309,164.915,140.01,134.792,57.231,235.32,129.778,211.458,241.43],[-18.517,-1.989,-1.709,2.776,3.518,-19.808,0.34,4.218,5.204,5.486,-8.412,7.989,5.564,7.341,9.596,11.576,51.113,39.667,34.724,30.932,-42.732,113.158,89.7,70.312,70.934,-45.618,19.5,154.609,150.773,131.121],[-38.197,-12.101,-6.545,-1.993,-0.582,-35.993,-7.417,-2.767,0.219,1.14,-33.282,-9.229,-0.911,1.446,5.072,-23.454,34.127,23.505,26.19,23.245,-22.517,75.017,65.992,59.299,52.554,-13.357,-43.058,70.372,103.871,96.325],[-58.045,-15.603,-10.101,-6.468,-3.403,-46.796,-15.822,-5.886,-5.749,-2.732,-50.626,-7.133,-4.345,-1.338,0.296,-51.49,16.613,18.443,17.605,17.576,-59.396,9.073,66.799,43.273,43.728,7.35,33.2,46.902,105.884,88.198],[-66.827,-27.403,-14.605,-8.604,-6.702,-67.572,-20.05,-13.804,-9.188,-4.431,-62.502,-11.759,-11.214,-4.007,-3.952,-67.785,14.219,16.879,16.934,12.673,-78.421,-0.603,44.776,34.124,31.585,-51.83,-52.116,19.374,77.006,74.768],[-75.946,-27.654,-14.974,-11.258,-9.508,-76.112,-23.715,-17.215,-11.808,-8.599,-77.642,-25.516,-16.7,-7.383,-4.579,-73.718,-14.78,7.368,3.226,10.048,-76.798,-10.988,33.268,28.322,24.571,-78.188,-68.939,38.731,50.249,58.863]],
"ve": [[-81.91,-14.057,40.762,382.479,28.837,14.505,13.413,16.063,44.329,378.05,14.904,11.763,15.57,20.694,34.509,50.57,19.155,6.489,-3.178,-5.719,70.387,38.723,14.582,2.227,-9.206,221.434,73.765,28.616,12.776,5.352],[1.442,-0.064,1.05,2.21,3.601,6.047,1.911,2.003,3.105,4.151,7.514,5.747,4.278,4.439,3.143,32.915,22.48,14.279,10.428,7.885,97.561,49.893,31.054,20.95,16.219,198.578,93.341,64.457,42.41,32.838],[1.912,-1.281,-0.508,0.136,0.905,7.627,1.755,-0.066,0.403,2,11.49,3.988,2.621,2.096,2.027,51.377,23.164,14.858,11.151,8.781,97.645,47.778,31.928,22.347,17.767,198.55,93.916,61.918,49.457,34.52],[3.756,-0.564,-1.157,-1.039,-0.494,6.887,0.667,0.323,0.695,0.221,11.537,4.764,1.658,1.446,0.676,44.481,22.277,15.253,10.891,8.569,93.882,47.648,32.079,22.749,18.087,178.813,99.847,62.391,47.152,36.204],[10.448,-1.909,-1.627,-1.249,-0.921,6.978,1.301,-0.503,-0.388,-0.23,9.56,3.695,1.227,0.487,0.586,59.315,22.513,14.516,10.962,8.351,116.113,37.203,31.457,21.82,17.567,190.104,105.955,63.206,51.458,35.889],[2.949,-0.632,-1.628,-1.531,-1.578,12.569,1.748,-0.039,-0.587,-0.753,8.609,3.016,1.057,0.398,-0.441,48.327,21.63,13.898,9.82,7.955,104.718,45.529,30.43,22.588,17.487,202.173,104.356,67.969,47.92,38.012]],
"kep": [[-25.951,-16.714,-17.807,-27.139,-28.958,-14.52,-13.223,-13.166,-17.665,-17.233,-8.868,-7.08,-7.768,-2.755,-10.215,9.88,37.628,38.826,49.845,51.542,-0.084,57.8,91.322,98.907,116.492,-37.662,56.441,37.64,111.942,174.358],[-32.858,-19.17,-19.949,-17.382,-17.94,-37.576,-19.016,-16.155,-16.112,-16.686,-30.088,-15.845,-16.812,-15.542,-12.807,-37.738,0.565,0.343,0.023,-0.412,-71.531,15.054,18.09,15.218,20.356,-72.69,-42.413,28.058,41.334,42.94],[-50.986,-26.781,-22.962,-19.845,-19.258,-50.438,-25.167,-20.307,-18.167,-18.766,-50.397,-28.34,-20.958,-18.61,-15.672,-57.992,-11.241,-12.11,-7.203,-7.292,-64.312,-4.131,1.956,5.978,5.695,-70.271,-67.768,-12.906,11.693,18.927],[-66.813,-30.207,-25.5,-22.623,-20.522,-59.466,-31.477,-23.166,-23.361,-20.578,-64.073,-27.217,-22.929,-20.395,-18.472,-71.61,-22.862,-16.109,-13.388,-11.443,-79.712,-38.835,1.775,-4.989,-0.809,-67.312,-42.692,-24.971,12.487,12.016],[-73.942,-39.594,-28.977,-24.24,-22.997,-75.884,-35.111,-29.059,-25.406,-21.633,-72.511,-30.538,-28.303,-21.852,-21.868,-82.008,-25.258,-16.826,-14.067,-15.02,-88.855,-44.836,-11.155,-10.565,-8.816,-83.569,-74.576,-38.695,-5.257,3.889],[-80.925,-40.927,-29.411,-26.3,-24.791,-81.823,-38.877,-32.298,-27.505,-24.673,-83.638,-41.052,-32.687,-24.62,-21.616,-83.977,-43.389,-23.281,-23.372,-16.77,-87.764,-50.458,-17.901,-15.166,-13.629,-90.502,-82.129,-30.935,-17.614,-6.305]],
"vp": [[343.094,-357.179,325.694,-441.473,-115.639,31.394,-66.684,24.774,147.562,104.193,-38.759,-5.714,-24.295,17.257,51.019,-15.968,-7.333,-24.719,-8.723,-1.342,-34.36,-13.968,-2.933,-6.356,9.488,-31.358,-14.912,9.179,-5.782,-4.659],[2296.249,1390.585,-374.984,74.115,176.327,494.408,152.063,9.553,6.516,28.755,171.074,60.469,9.322,-25.07,38.193,34.234,-5.084,-15.649,-27.357,-5.653,6.488,-2.813,-8.878,-20.94,15.986,-24.975,-32.601,-20.694,-13.995,-4.129],[4112.437,2511.367,829.679,852.847,-217.605,794.684,443.797,77.795,197.737,-80.439,380.513,217.603,115.805,96.934,33.394,37.552,38.725,22.648,15.257,-12.625,28.343,-7.121,2.483,-10.348,4.927,-0.277,-25.883,-41.678,-27.857,-44.644],[4663.744,4099.923,2414.975,1852.096,777.972,1133.77,939.524,520.382,240.572,158.098,563.9,452.066,195.458,164.789,95.655,68.962,53.865,43.168,13.886,30.243,27.941,9.792,22.084,-13.92,-1.694,-24.823,-8.384,-27.55,-27.947,-39.608],[6636.188,5777.155,2999.61,1958.873,1468.178,1379.621,1350.099,601.851,446.875,234.791,626.539,629.001,406.666,179.867,171.6,131.931,123.289,76.082,48.359,8.467,35.633,20.495,17.641,-3.902,-7.715,-12.227,-7.548,-11.1,6.03,-34.953],[7025.654,7765.633,5646.758,3170.789,1847.651,1382.785,1829.404,1084.569,780.087,271.491,642.804,735.105,430.806,288.953,224.408,123.71,114.621,98.201,52.555,25.286,36.427,37.351,51.96,1.042,-2.996,12.858,-4.713,-2.772,-11.112,-16.939]]
}