{
"KTrans": [[-18.425,-13.265,-8.927,-4.472,-3.13,-24.038,-9.626,-5.554,-7.56,-9.807,-19.011,-8.61,-9.758,-4.345,-4.782,-17.407,-12.288,-5.625,-5.069,-5.138,-20.381,-13.706,-7.745,-7.694,-6.526,-19.563,-7.368,-8.607,-8.403,-4.93],[9.042,-24.789,-16.951,-16.212,-10.583,-22.835,-28.668,-17.507,-13.887,-12.509,110.856,-24.038,-21.634,-16.283,-9.828,39.051,-23.88,-17.403,-13.685,-12.488,43.737,-28.763,-23.705,-16.225,-11.598,437.194,-27.815,-16.42,-14.142,-9.42],[-73.798,-24.246,-36.187,-22.702,-14.991,-92.855,-25.733,-30.891,-23.594,-19.47,-80.022,-34.522,-24.445,-19.099,-16.78,-78.58,-10.482,-32.296,-26.793,-22.388,-71.658,-7.791,-27.378,-22.041,-23.952,-87.383,1.692,-29.998,-23.751,-16.967],[-101.088,-48.283,-28.969,-26.57,-26.187,-105.54,-69.51,-11.828,-30.874,-22.086,-107.957,-21.287,-18.725,-36.537,-23.068,-103.041,-43.273,-28.196,-27.951,-24.54,-98.253,-43.553,-14.644,-27.076,-23.603,-110.287,71.708,-32.063,-30.182,-22.755],[-109.962,-69.229,-16.106,-28.153,-33.328,-107.275,-87.026,72.057,-11.477,-35.908,-107.265,-71.337,-7.779,-27.875,-28.418,-99.304,-89.219,41.624,-32.108,-29.585,-109.356,-84.988,54.518,-36.368,-28.641,-112.785,-91.757,119.462,-34.946,-30.401],[-107.883,-98.235,-79.517,13.039,-34.481,-114.108,-94.283,-67.38,-17.344,-31.94,-116.7,-84.279,-50.118,-6.019,-27.633,-107.296,-88.645,-64.468,28.743,-20.35,-104.484,-100.008,-57.746,-0.658,-26.041,-112.013,-96.716,-36.217,49.07,-23.314]],
"ve": [[-14.107,-2.836,4.873,12.788,35.287,-14.852,-2.827,3.676,18.203,60.983,-16.596,-2.718,5.041,11.759,41.867,-14.998,-3.224,3.688,12.954,32.745,-14.693,-2.737,5.235,17.901,45.885,-14.478,-2.845,5.297,18.418,42.601],[-55.998,-24.12,-14.333,-10.133,-6.088,-61.737,-24.342,-15.443,-10.929,-6.169,-75,-22.912,-17.27,-10.599,-6.043,-48.241,-20.479,-13.2,-9.109,-6.283,-59.954,-23.563,-16.344,-9.74,-5.419,-45.156,-22.744,-14.709,-9.966,-6.849],[-83.377,-39.577,-30.129,-18.604,-12.468,-92.245,-39.208,-27.486,-20.222,-14.081,-75.106,-41.939,-26.24,-16.633,-13.932,-87.953,-37.552,-29.507,-21.143,-16.07,-83.476,-38.617,-26.339,-21.013,-15.754,-92.598,-33.59,-30.686,-20.454,-16.122],[-109.519,-68.205,-37.384,-29.674,-25.306,-114.056,-78.929,-33.035,-29.966,-21.005,-116.027,-62.666,-29.738,-31.06,-21.945,-106.557,-65.759,-41.437,-28.176,-24.966,-103.07,-69.3,-32.965,-25.744,-23.378,-116.017,-35.975,-36.835,-30.23,-19.188],[-128.964,-77.238,-51.765,-33.14,-29.319,-130.173,-82.998,-54.127,-33.363,-30.287,-116.482,-76.816,-46.954,-41.086,-26.481,-110.616,-84.762,-61.294,-34.243,-31.027,-111.262,-80.554,-47.538,-39.657,-28.421,-128.277,-90.472,-47.059,-39.391,-30.898],[-126.404,-100.684,-85.429,-41.455,-40.51,-127.245,-100.078,-72.411,-41.086,-41.756,-134.378,-87.53,-65.358,-45.731,-33.541,-121.632,-94.943,-67.343,-38.48,-35.559,-117.846,-102.598,-63.383,-39.377,-31.864,-124.605,-93.87,-71.233,-41.689,-34.779]],
"kep": [[-5.507,-10.162,-10.507,-8.435,-9.674,-10.716,-6.592,-6.485,-12.672,-19.81,-2.709,-5.713,-11.464,-8.285,-12.137,-3.048,-8.866,-6.634,-9.37,-12.153,-6.396,-10.69,-9.123,-12.754,-14.651,-6.066,-4.32,-10.16,-14.082,-12.289],[-13.73,-0.556,-3.323,-6.775,-4.752,3.86,-5.036,-2.733,-3.232,-6.653,-47.738,-1.595,-4.718,-6.138,-3.996,9.343,-4.958,-5.067,-5.149,-6.492,-18.558,-5.837,-8.602,-7.251,-6.493,3.016,-6.394,-2.161,-4.861,-2.685],[-54.883,17.372,-6.616,-5.06,-3.65,-59.891,17.322,-3.782,-4.096,-6.383,-58.456,13.572,1.468,-4.042,-3.503,-48.626,19.235,-2.409,-6.922,-6.979,-49.456,25.35,-1.284,-0.775,-9.763,-59.587,28.203,2.275,-3.988,-1.127],[-56.043,-41.976,11.489,3.229,-0.546,-57.191,-63.422,16.221,-1.193,-1.767,-56.811,-31.39,9.599,-4.569,-1.559,-59.916,-51.664,18.725,-0.061,1.167,-58.345,-51.447,14.183,-3.015,-0.432,-59.982,-4.191,7.967,1.372,-5.078],[-64.012,-56.085,-7.277,3.693,-3.96,-59.764,-64.109,-13.687,18.012,-5.386,-63.04,-56.082,3.943,16.967,-3.103,-63.004,-59.813,-14.111,1.955,3.018,-67.717,-64.57,4.566,8.635,0.51,-62.983,-70.735,-3.5,8.908,1.512],[-68.937,-54.712,-53.902,31.575,11.728,-71.004,-58.751,-59.176,52.5,12.49,-69.681,-51.983,-54.137,37.475,7.998,-68.433,-55.845,-42.828,61.226,14.345,-69.478,-52.446,-36.129,52.412,5.372,-68.382,-56.638,-48.986,42.767,10.342]],
"vp": [[1659.969,1676.985,1928.969,1917.931,2071.607,314.995,337.449,363.102,332.116,329.424,217.724,158.533,167.382,196.949,193.411,38.396,35.793,34.768,39.285,35.219,17.669,16.484,18.778,15.277,18.535,8.561,8.477,9.993,9.909,9.45],[5754.466,5512.074,5399.453,5720.533,5731.92,1251.584,1034.783,1202.953,1356.296,1126.399,749.172,512.793,667.757,617.181,573.048,94.932,83.566,93.012,104.338,116.074,60.747,49.614,56.94,53.877,48.63,24.93,23.25,28.666,28.874,34.33],[8581.933,8351.589,9422.917,8284.94,7521.724,1876.089,1653.188,1737.001,1868.915,1656.14,745.903,884.118,875.058,722.205,872.983,181.502,155.145,193.94,184.198,192.961,85.891,84.066,85.135,104.007,85.999,47.965,35.775,53.664,47.611,53.965],[11236.21,14128.355,11981.989,13339.359,14949.609,2331.487,3093.501,2073.207,2553.206,2371.185,1191.526,1322.953,916.667,1330.502,1258.779,223.777,265.209,276.664,240.463,305.393,105.005,143.497,103.74,104.887,136.133,60.46,37.599,56.926,68.6,50.171],[13235.871,16111.67,16535.36,13008.568,14952.443,2679.796,3320.377,3261.798,2926.725,3093.148,1174.327,1576.37,1415.385,1857.062,1360.491,221.192,355.202,378.832,273.184,347.189,109.821,161.545,151.915,170.129,154.902,64.971,92.885,72.454,85.418,85.621],[12796.577,20743.079,26587.773,16879.336,22658.914,2549.154,4135.989,4344.757,3485.732,4586.273,1361.597,1779.259,1976.915,1938.852,1790.602,263.92,387.377,424.781,336.739,384.207,118.569,210.631,188.402,165.857,165.36,65.224,93.11,113.144,86.38,91.877]]
}