{
"KTrans": [[1.731,4.877,8.782,13.964,13.737,9.13,12.577,14.072,17.32,14.476,20.595,23.512,21.401,23.478,23.117,130.703,92.767,83.961,77.149,74.377,265.805,201.574,168.149,155.786,145.664,595.24,438.206,375.295,344.358,334.181],[-30.386,-9.1,0.983,4.826,7.142,-23.202,-4.273,2.606,5.719,8.354,-18.576,2.265,6.253,9.942,10.527,40.18,36.169,34.142,33.594,33.745,85.11,89.905,76.298,73.977,62.897,209.111,202.782,174.08,146.035,133.261],[-44.768,-19.811,-10.477,-4.347,-0.928,-41.881,-14.33,-6.43,-2.555,2.404,-41.387,-12.957,-4.841,0.668,3.834,-9.196,16.236,16.253,22.676,20.69,36,48.885,49.514,49.264,42.687,91.987,149.852,122.027,103.649,96.244],[-59.593,-26.671,-15.12,-9.462,-5.769,-56.667,-23.859,-15.361,-10.674,-3.896,-54.978,-21.543,-11.337,-7.104,-2.111,-25.643,-2,10.574,10.427,10.329,3.108,34.398,36.789,30.457,29.765,36.557,86.056,88.261,78.866,71.871],[-66.629,-36.166,-23.799,-16.994,-10.96,-64.333,-33.636,-20.316,-15.289,-10.368,-62.802,-30.864,-21.808,-12.458,-7.086,-38.651,-10.509,-0.144,-0.513,4.99,-20.095,12.585,18.333,20.499,23.179,13.481,62.891,60.602,63.081,56.954],[-73.141,-42.096,-29.769,-20.493,-15.711,-72.477,-40.851,-26.924,-20.988,-13.32,-67.563,-38.279,-26.288,-17.853,-12.994,-50.637,-23.419,-10.031,-4.363,-2.105,-34.239,-1.085,11.482,11.422,14.971,-29.351,29.946,47.699,44.55,47.016]],
"ve": [[12.648,26.815,96.021,10.721,63.192,10.056,32.422,17.317,739.881,30.288,-4.456,24.179,23.127,55.337,102.344,46.967,19.591,10.229,7.39,13.901,91.876,34.94,15.952,1.28,-7.87,188.538,79.999,38.922,15.072,-2.528],[0.749,-1.19,1.867,3.112,7.568,4.702,1.082,2.068,4.122,7.191,9.781,3.381,4.223,4.673,8.008,46.485,20.361,14.737,12.309,9.877,98.504,44.507,29.525,20.06,16.329,188.529,91.106,58.694,40.937,30.344],[2.023,-1.982,-2.248,-0.45,0.868,5.088,-1.085,0.126,0.387,0.536,9.94,0.468,1.395,0.711,1.629,88.8,19.895,13.422,9.642,8.313,94.216,45.423,29.041,20.821,17.389,187.338,93.37,59.216,43.658,34.069],[2.092,-2.462,-3.387,-3.046,-0.822,5.226,-3.068,-1.216,-0.619,-1.197,6.317,1.305,-0.362,-0.456,0.155,45.895,19.044,11.737,8.007,7.03,93.987,43.578,27.668,20.473,15.915,188.975,92.772,60.303,43.458,34.459],[0.067,-4.072,-3.544,-2.841,-2.011,1.805,-2.486,-2.339,-3.019,-1.826,10.414,0.298,-0.485,-1.151,-1.142,45.344,18.843,10.862,8.155,5.949,149.465,42.855,27.765,20.038,15.88,179.495,92.524,59.96,43.954,34.661],[-3.294,-3.442,-3.434,-3.518,-3.497,6.972,-2.519,-3.331,-2.407,-2.746,11.324,1.129,-1.346,-1.331,-1.211,47.713,19.318,11.853,7.703,6.315,94.452,44.13,27.162,20.146,15.241,270.493,90.979,59.365,43.658,33.042]],
"kep": [[-31.706,-36.92,-41.513,-40.361,-47.375,-29.938,-31.368,-34.377,-38.957,-47.384,-26.937,-24.351,-28.766,-30.97,-35.584,10.029,12.594,17.955,20.757,26.231,31.835,54.118,61.073,77.578,87.407,64.913,104.75,135.714,166.516,206.774],[-51.713,-36.715,-31.706,-29.959,-31.329,-48.829,-34.735,-30.712,-30.308,-30.432,-48.595,-31.764,-29.929,-27.635,-29.506,-34.415,-22.474,-19.756,-18.398,-16.383,-34.702,-9.999,-6.803,-0.709,-4.078,-28.523,7.856,17.88,19.219,22.354],[-62.545,-43.944,-37.321,-34.242,-32.747,-61.793,-40.61,-36.043,-33.571,-30.306,-62.907,-40.558,-35.647,-31.683,-30.089,-57.052,-33.728,-29.75,-23.469,-23.828,-52.374,-30.332,-20.763,-15.625,-16.833,-54.116,-12.131,-5.003,-3.243,-0.123],[-72.585,-48.367,-39.858,-36.154,-35.052,-71.61,-46.166,-41.317,-38.514,-33.503,-70.629,-46.973,-39.049,-36.254,-33.222,-64.753,-43.656,-32.298,-30.132,-29.549,-63.72,-36.025,-26.831,-26.093,-23.55,-68,-34.361,-20.176,-15.03,-12.802],[-77.004,-54.304,-45.938,-41.608,-37.893,-75.876,-53.293,-44.119,-40.262,-37.606,-76.109,-52.695,-46.295,-39.452,-35.745,-71.053,-48.342,-38.387,-37.117,-32.318,-72.054,-46.052,-36.771,-31.476,-27.423,-73.379,-42.499,-31.822,-22.846,-20.567],[-81.246,-58.882,-50.173,-43.663,-40.306,-81.907,-58.125,-48.29,-44.668,-39.098,-79.301,-58.04,-48.846,-43.039,-39.825,-77.047,-56.069,-45.064,-39.306,-37.102,-76.632,-53.217,-40.184,-36.725,-31.876,-83.305,-53.726,-36.901,-31.403,-24.702]],
"vp": [[-97.641,-100.295,209.486,127.612,283.9,-12.645,51.245,6.586,41.935,36.026,-0.218,-0.198,-20.922,-15.949,42.333,-4.465,-6.297,0.371,4.327,-1.535,-7.934,-15.183,4.25,-3.029,-6.676,-10.75,-7.016,-9.888,-10.346,-4.661],[2585.48,1470.807,124.174,-403.234,238.932,582.426,155.001,59.959,-63.761,64.474,196.624,146.007,-20.502,-14.507,-3.424,58.416,-0.908,-9.317,-5.524,-12.197,10.364,5.248,-10.778,-1.001,-8.86,1.799,-6.733,-9.411,-12.196,-11.187],[4499.621,2941.166,2001.788,1323.312,4.736,877.009,549.29,530.476,191.508,-11.357,404.069,293.605,133.547,98.596,53.499,71.874,59.726,17.452,13.507,-19.829,31.653,17.385,-0.379,7.062,-8.623,-1.122,17.245,-10.367,-8.914,-7.935],[5754.459,5257.329,2883.826,1262.396,1060.539,1129.236,1028.138,731.6,371.039,388.975,629.065,459.949,297.126,136.41,226.491,111.953,80.005,63.151,18.672,8.454,55.437,37.896,31.912,1.7,2.353,11.692,15.183,9.413,-2.855,-7.73],[5532.944,7447.461,5335.876,3565.722,2359.029,1297.849,1255.326,790.318,443.184,367.779,642.762,655.522,378.656,313.063,232.903,123.654,133.393,88.233,32.949,33.836,64.708,62.245,33.715,18.602,19.907,12.633,30.802,16.033,9.081,-11.089],[6744.497,8935.427,6186.831,3931.545,2578.794,1494.65,1620.781,1201.079,842.292,505.56,617.82,862.842,589.371,442.546,303.802,128.42,162.945,118.738,66.895,36.029,46.802,75.263,64.272,31.141,29.845,18.559,23.668,32.902,8.054,-3.973]]
}