{
"KTrans": [[1.497,0.335,0.407,1.939,0.577,12.298,7.582,5.903,4.919,3.483,24.805,15.046,13.102,13.13,9.27,155.736,93.96,73.006,64.877,60.796,383.553,226.625,167.462,153.406,138.037,1004.665,574.009,445.648,392.054,351.132],[-11.891,-0.213,-1.481,0.568,0.046,-8.094,5.998,4.092,3.063,2.816,3.892,8.597,7.502,5.225,5.176,85.003,62.304,42.272,35.257,29.284,223.467,141.054,99.669,78.112,67.177,517.308,341.372,226.93,175.948,148.083],[-29.795,0.774,0.359,-0.401,0.137,-26.27,3.634,2.503,2.411,1.866,-16.835,11.069,9.988,5.768,3.757,44.669,58.81,39.748,28.911,25.484,127.417,123.575,86.252,65.774,54.253,287.172,274.08,194.538,144.921,122.53],[-49.914,-6.83,-0.532,0.499,0.058,-46.303,-3.573,1.632,2.258,0.955,-40.314,4.226,5.643,5.202,3.304,2.334,47.773,39.282,26.904,20.146,52.518,107.843,80.769,59.27,48.229,163.545,255.331,182.882,136.915,109.956],[-61.895,-7.921,-1.555,-2.224,0.408,-59.194,-5.726,1.652,0.209,1.213,-52.013,0.701,3.093,3.476,3.714,-19.375,42.534,33.95,28.476,23.47,24.592,96.155,77.424,55.559,48.935,122.94,206.893,163.889,129.599,99.532],[-68.998,-12.647,-2.442,-1.991,0.02,-65.03,-9.357,1.246,1.536,2.696,-61.831,-6.433,3.465,5.254,2.617,-33.421,32.738,32.494,24.902,18.979,-17.522,75.895,70.351,51.272,46.26,7.779,175.345,159.328,118.072,96.392]],
"ve": [[3.96,3.427,5.632,2.746,4.754,7.107,4.258,2.496,1.327,2.5,10.962,5.079,3.006,-2.608,3,47.948,13.615,0.752,-8.922,-16.602,95.086,33.612,9.747,-6.862,-16.838,192.778,79.913,36.272,11.158,-6.334],[1.894,1.286,0.707,1.01,0.642,5.445,2.554,1.935,1.464,0.495,12.381,5.899,2.903,2.604,1.551,52.092,23.605,14.544,9.94,5.754,102.966,48.014,30.382,19.748,12.695,203.973,97.68,61.52,41.996,29.179],[6.004,0.862,0.133,0.88,0.498,13.05,2.933,1.497,1.202,1.215,11.848,5.316,3.287,2.134,2.137,52.624,24.971,16.168,11.369,8.801,97.556,50.33,32.519,23.572,17.758,198.383,100.438,65.506,47.059,35.829],[2.944,1.839,0.657,0.624,0.547,10.832,3.009,1.629,1.584,1.19,3.954,4.79,3.471,2.755,2.403,40.163,25.803,16.721,11.919,9.724,-46.164,51.372,33.163,23.971,18.643,206.351,100.343,66.274,48.92,38.369],[4.076,1.191,0.82,0.773,0.499,5.621,3.292,2.021,1.598,1.494,15.641,5.733,3.622,2.61,2.371,73.054,26.078,17.158,12.595,10.181,106.308,51.592,33.469,24.422,19.686,188.944,100.612,66.783,49.226,39.037],[-6.004,2.412,0.601,0.605,0.593,5.28,3.664,2.632,1.615,1.42,13.862,6.015,4.075,3.4,1.978,55.777,26.322,17.534,12.121,10.139,108.737,49.943,33.757,24.392,19.749,240.704,101.968,67.283,50.061,39.166]],
"kep": [[-0.793,-0.151,-1.991,3.448,0.815,6.477,5.059,6.326,7.674,5.995,13.785,11.869,13.276,21.261,15.36,73.342,72.027,73.153,84.18,96.381,148.767,145.114,144.578,173.491,188.015,276.059,275.439,301.127,343.231,382.462],[-13.323,-1.447,-2.039,-0.321,-0.35,-12.635,3.659,2.235,1.735,2.509,-7.228,2.747,4.592,2.663,3.725,21.995,31.583,24.384,23.162,22.427,60.096,63.029,53.196,48.828,48.457,104.215,123.323,102.484,94.376,92.072],[-33.479,-0.081,0.295,-1.254,-0.315,-31.668,0.718,1.017,1.244,0.658,-25.684,5.387,6.575,3.568,1.637,-4.914,27.036,20.363,15.789,15.359,11.967,48.807,40.585,34.179,31.002,27.393,86.524,77.909,66.485,63.852],[-51.772,-8.613,-1.134,-0.114,-0.464,-50.493,-6.369,0.05,0.693,-0.244,-46.232,-0.295,2.189,2.338,0.887,-33.811,17.547,19.333,13.327,9.504,-25.825,37.296,35.768,28.408,24.934,-13.992,77.491,70.032,59.051,51.718],[-63.86,-9.065,-2.318,-2.957,-0.131,-62.62,-8.718,-0.422,-1.392,-0.246,-58.227,-4.7,-0.485,0.807,1.326,-48.009,13.043,14.307,14.07,12.046,-39.251,29.484,32.878,25.036,24.401,-27.234,53.15,58.289,53.838,43.43],[-70.348,-14.792,-3.105,-2.643,-0.599,-67.947,-12.701,-1.405,-0.14,1.201,-66.781,-11.644,-0.566,1.788,0.599,-57.059,5.076,12.676,11.327,7.987,-59.798,16.743,27.265,21.565,22.092,-65.215,36.541,54.893,45.269,41.025]],
"vp": [[1.526,35.592,-138.367,34.08,-93.42,-39.718,-54.299,-51.303,-66.833,-72.735,-55.492,-43.948,-52.538,-48.685,-51.6,-54.104,-53.66,-50.951,-54.811,-52.544,-52.609,-51.047,-52.222,-52.47,-50.173,-52.946,-52.522,-53.163,-51.751,-51.229],[494.26,-19.59,-27.215,-37.285,-68.986,51.134,-43.54,-38.501,-46.73,-42.103,-3.056,-52.042,-43.493,-54.542,-48.858,-40.863,-54.775,-54.362,-54.862,-54.643,-47.689,-55.529,-54.838,-54.038,-53.091,-50.422,-53.271,-54.363,-53.781,-53.461],[1218.766,226.919,10.95,17.566,65.699,201.829,3.516,-54.001,-30.977,-40.588,73.494,-33.943,-41.844,-49.571,-40.86,-28.88,-51.864,-53.218,-55.889,-54.987,-41.658,-52.77,-55.477,-54.518,-53.58,-45.519,-54.68,-54.957,-55.5,-55.192],[1636.511,495.523,165.487,95.666,-71.589,321.585,44.83,0.521,-26.395,-20.419,121.372,1.094,-49.536,-49.877,-53.312,-20.518,-41.165,-53.266,-56.992,-54.631,-31.116,-49.472,-54.593,-55.26,-55.763,-41.238,-51.986,-54.533,-55.972,-55.332],[2210.12,929.629,305.481,250.316,117.916,354.934,103.283,26.647,26.244,-36.866,173.734,51.598,-28.738,-43.741,-38.183,-3.75,-37.643,-47.299,-50.303,-50.648,-26.808,-46.382,-53.55,-55.589,-55.144,-38.655,-51.315,-54.267,-57.062,-56.657],[2597.926,1521.587,611.234,268.904,80.064,456.317,216.18,78.505,14.644,4.023,191.199,69.111,3.05,-11.005,-35.341,-0.489,-30.554,-43.883,-50.703,-53.617,-22.95,-39.629,-51.718,-56.259,-55.618,-37.34,-45.207,-53.075,-56.316,-57.114]]
}