{
"KTrans": [[0.303,1.781,-1.523,2.648,1.211,3.51,13.58,12.286,10.391,10.855,-14.684,22.272,21.13,22.501,20.995,33.045,46.327,70.834,78.082,80.647,47.198,48.485,80.078,84.648,77.076,50.154,-47.124,-14.406,-2.346,-13.624],[2.735,1.127,0.645,-0.536,-0.522,12.502,6.859,1.815,5.223,3.525,19.631,14.173,-0.033,9.012,8.571,-3.54,1.325,6.098,17.353,31.386,36.452,70.962,23.472,22.152,39.323,-84.6,19.267,99.567,0.139,-47.004],[-10.178,3.739,1.488,0.835,0.307,-14.631,7.075,6.74,3.958,0.898,-13.044,13.76,8.866,6.881,0.477,-23.808,39.376,23.255,-35.86,10.77,-11.529,-41.446,-21.403,19.873,1.449,-43.48,24.016,18.268,64.243,28.045],[-17.76,4.453,2.922,1.104,1.092,-39.775,6.715,6.148,5.806,4.735,-55.857,6.673,4.601,7.882,7.037,-53.665,-3.451,12.146,-1.261,-9.395,-8.923,-8.867,47.227,45.114,26.021,-14.153,-22.138,52.002,52.862,-57.793],[-48.959,8.787,-0.601,2.373,-0.047,-40.938,7.951,3.838,5.068,2.797,-60.548,-6.953,9.48,4.903,6.982,-62.102,37.363,4.669,27.605,9.018,-28.408,-17.956,-48.244,25.048,-6.607,9.26,-2.411,-19.128,-48.833,6.934],[-59.081,6.118,0.802,1.144,0.987,-54.134,0.72,-2.344,1.64,4.752,-59.666,-6.193,7.891,1.723,6.954,-50.042,-18.357,-0.451,6.54,25.057,-61.907,13.924,-36.617,-29.633,6.186,-52.357,-1.817,-30.39,-4.088,-44.761]],
"ve": [[-0.583,1.406,9.46,23.59,3.687,4.092,62.172,48.814,-33.28,16.383,14.075,4.072,-13.901,-52.162,2.748,52.886,1006.272,-284.781,-166.696,-92.638,97.181,29.253,-11.952,-45.647,-55.75,215.154,84.877,32.62,1.72,-16.655],[0.048,-0.093,1.229,0.619,0.107,4.541,1.578,1.26,4.015,2.227,9.828,5.599,3.858,5.748,5.729,51.236,25.437,17.329,9.31,9.759,97.14,48.769,32.268,17.708,-11.992,204.066,97.437,64.821,44.421,26.617],[0.509,0.499,0.149,-0.141,1.186,3.338,2.561,1.744,0.955,0.462,5.875,4.643,3.159,2.159,2.051,49.792,25.469,18.228,11.668,9.619,99.979,61.523,34.197,26.249,18.882,197.435,100.057,67.354,49.981,39.248],[2.687,0.712,0.565,0.286,0.049,19.538,1.943,1.604,1.723,1.065,10.983,3.914,2.971,2.39,2.065,52.405,22.346,16.841,12.461,10.505,99.457,49.084,32.754,25.567,19.066,190.051,99.631,62.713,50.381,41.675],[-0.045,0.708,0.317,0.365,0.159,3.476,2.46,1.289,1.477,0.953,8.357,-3.703,3.485,2.224,2.284,51.132,22.802,16.636,12.658,9.858,101.48,50.735,33.807,25.615,22.459,194.154,95.838,65.82,55.717,40.295],[0.951,1.764,0.205,0.123,0.238,3.875,1.891,1.169,0.905,1.419,9.188,3.452,2.995,2.077,2.133,49.19,28.623,20.546,12.811,8.646,99.852,49.533,34.121,26.218,34.362,-129.397,98.683,67.821,53.142,41.382]],
"kep": [[-107.679,1.515,4.505,-2.169,-0.707,-127.954,-28.509,-17.28,-11.858,-17.35,-194.316,-43.85,-30.087,-33.852,-34.821,34.611,-221.136,-192.549,-199.037,-213.809,73.581,-304.233,-327.339,-371.372,-432.483,46.837,107.48,-469.518,-620.16,-714.458],[-1.215,-1.444,-103.972,9.215,4.618,0.201,8.197,-100.332,-19.445,-4.351,2.684,11.72,-133.327,-35.763,-15.439,-33.304,-29.016,10.736,-154.581,-83.048,-24,25.529,76.284,-222.036,-165.241,-56.107,8.373,125.025,44.166,-335.169],[-19.336,2.875,2.981,2.351,-111.746,-31.672,2.6,11.145,11.987,-123.64,-32.697,8.159,8.408,11.573,-148.879,-49.762,2.784,-0.529,-88.767,51.597,-53.464,-51.9,-39.41,9.13,51.578,-62.116,-24.978,-13.477,31.686,96.277],[-35.132,0.863,3.699,2.568,4.571,-56.085,-0.353,5.185,9.362,10.745,-69.229,-2.292,1.087,9.449,13.148,-65.269,-27.311,-12.27,-24.93,-42.111,-54.879,-36.147,5.709,16.953,19.102,-64.047,-44.758,-8.475,12.835,-55.766],[-62.022,1.114,-2.169,3.654,-0.323,-56.988,-2.994,1.034,4.709,3.621,-70.63,-17.474,2.771,2.814,10.139,-72.372,-5.708,-15.712,9.753,-9.654,-66.328,-46.589,-60.713,-6.399,-28.484,-64.006,-45.349,-42.189,-53.022,-19.134],[-68.199,-7.479,-2.379,0.434,0.446,-68.026,-13.576,-7.077,0.294,4.543,-69.923,-22.569,0.47,-1.339,6.336,-72.117,-42.812,-23.093,-15.824,10.302,-76.631,-32.655,-49.88,-47.142,-19.836,-77.707,-53.296,-49.115,-35.108,-51.705]],
"vp": [[-75.91,-99.984,-168.567,-110.797,-112.638,-3.561,-34.246,-12.789,-11.858,-5.691,4.497,-27.968,-25.83,-25.984,-10.305,-39.215,-20.846,-6.066,-11.634,8.438,-48.614,-32.993,-27.894,-2.361,12.044,-29.752,-13.034,-25.789,-29.004,-9.491],[738.087,166.266,21.57,-111.746,-126.285,203.688,12.113,-26.663,-4.157,-40.954,62.111,46.759,-6.868,-9.928,-7.437,-29.276,-57.212,-36.489,-11.462,-31.79,-48.34,-61.453,-55.22,-32.762,-29.883,-26.026,-62.538,-60.444,-22.204,7.508],[1880.665,736.296,232.063,67.005,37.086,373.753,111.363,70.346,-22.68,12.836,132.12,43.301,16.776,7.709,-7.328,-10.934,-38.875,-25.292,-21.91,-39.895,-49.656,-26.811,-55.689,-47.68,-51.692,-38.677,-58.956,-39.389,-56.014,-51.321],[3169.472,964.361,645.249,329.997,239.225,600.758,286.463,149.482,67.779,59.719,444.743,77.91,-20.791,71.194,38.684,6.419,-37.58,-18.845,-31.315,-5.791,-15.424,-47.907,-49.85,-42.743,-59.915,-36.921,-62.263,-73.83,-51.086,-32.435],[4326.376,2340.44,1034.964,950.813,307.65,701.836,295.078,202.429,171.469,114.802,282.938,93.058,72.81,53.079,95.79,24.041,-21.744,-30.733,-12.785,-0.676,-13.055,-51.002,-20.645,-36.056,-35.363,-53.288,-57.192,-52.699,-19.053,-73.535],[3826.162,3762.757,1490.41,1001.584,816.257,1003.154,492.622,346.472,266.608,100.261,442.099,309.492,85.779,54.554,151.848,6.13,35.234,-3.98,28.769,23.38,24.133,-21.067,-27.907,-21.14,-28.813,-19.363,-30.127,-34.345,-72.332,-59.245]]
}