{
"KTrans": [[2.011,-3.417,1.833,3.038,-1.281,6.65,18.092,14.351,10.118,8.271,19.024,23.434,20.347,23.057,17.1,-13.734,48.573,69.508,73.217,84.014,-86.999,23.521,75.328,96.231,85.184,237.003,-29.28,-115.917,54.771,-26.384],[-21.96,-5.21,0.642,-1.313,-0.52,-21.073,-2.134,1.558,5.314,3.345,-17.572,4.535,1.267,7.932,6.888,-25.938,-4.043,-15.073,14.595,29.635,8.258,21.624,23.373,-10.666,41.367,37.135,110.622,106.185,34.444,-25.445],[-30.485,-1.512,-1.905,-1.529,0.953,-29.483,1.235,3.917,-1.992,1.45,-35.841,2.338,7.582,1.661,1.621,-27.64,-14.098,10.417,9.32,-2.162,-57.554,19.802,31.033,10.308,-28.136,41.247,-20.214,26.926,59.944,-3.297],[-53.62,-9.546,-1.219,-0.265,1.287,-45.569,-6.176,2.572,0.722,-0.552,-46.321,-2.137,5.565,6.324,4.705,-46.699,-16.896,-2.085,-1.263,7.736,-61.548,-8.415,-10.284,36.044,-10.708,-24.455,-17.403,-34.484,13.608,-29.355],[-54.763,-7.896,-0.814,-1.778,-0.434,-54.476,-14.815,2.297,-1.422,3.704,-57.574,-3.34,2.42,5.688,3.979,-68.194,-21.248,-2.746,16.555,11.685,-64.735,-21.735,-22.241,-24.024,-18.418,-23.298,-71.183,-34.341,-1.939,34.713],[-67.519,-23.968,2.141,-3.891,-2.634,-69.957,-19.399,0.178,4.519,2.053,-70.209,-20.047,-6.679,4.727,2.948,-65.88,-28.316,-0.886,6.832,25.463,-55.4,-16.174,-1.285,-46.397,24.629,-39.14,-14.562,-24.513,21.285,-55.253]],
"ve": [[-204.911,-7.102,-63.491,5351.915,19.919,-57.866,-9.344,-356.058,-95.769,866.329,65.15,-6.373,-24.058,206.492,-50.079,110.639,11.705,-80.399,-54.683,25.554,29.143,82.7,40.71,-58.957,-58.379,198.214,71.394,32.707,-1.542,-17.802],[-8.474,-7.795,2.079,-1.074,8.923,-2.794,-24.167,31.961,4.219,17.048,3.486,-34.484,5.207,3.768,2.386,42.904,27.472,14.548,6.168,-2.415,95.708,51.873,31.839,20.682,5.949,189.812,87.312,63.066,41.426,28.358],[8.075,-1.722,-10.695,141.333,-3.813,-1.026,0.264,-1.942,20.472,2.941,2.093,2.144,-1.295,-3.714,0.866,44.533,23.074,15.553,11.439,14.515,106.466,49.789,30.914,24.837,20.604,194.961,98.401,64.44,48.718,38.001],[10.67,-1.777,-0.884,-0.631,-0.931,-3.36,0.489,1.233,-0.562,-0.449,9.507,3.049,1.964,0.591,-0.683,43.479,23.731,17.421,10.639,7.829,99.201,48.877,32.955,24.582,19.533,192.603,112.015,67.392,49.402,41.121],[21.573,-0.06,0.545,-0.597,-0.957,2.865,-0.698,0.929,-0.239,0.464,9.052,3.86,2.529,2.034,0.156,51.791,26.509,16.645,9.02,9.179,89.031,51.454,33.309,27.459,21.989,237.502,109.905,54.248,51.008,37.871],[1.105,-1.938,-0.34,-0.898,-0.841,0.692,1.27,-0.421,1.445,0.854,4.762,4.934,1.731,2.146,1.605,54.149,22.576,16.44,11.093,12.659,101.818,18.208,35.79,26.069,19.367,192.608,106.711,64.051,50.4,42.518]],
"kep": [[-108.141,-12.206,-7.66,-27.491,8.461,-102.81,-66.112,-51.23,-19.518,-0.715,-118.544,-74.539,-28.764,-46.972,-30.963,-124.372,-194.016,-199.32,-211.489,-201.047,-82.16,-273.66,-342.808,-354.601,-436.097,85.697,8.775,-458.516,-530.808,-695.373],[-48.691,-43.674,-130.125,-8.928,-0.137,-55.31,-36.503,-102.714,-39.014,-1.09,-49.429,-19.681,-143.592,-46.582,-12.135,-62.225,-42.198,-139.694,-158.681,-92.758,-41.186,-11.777,-28.15,-241.924,-175.535,-49.134,14.502,108.875,-30.767,-307.381],[-50.142,-6.471,-15.589,-27.73,-97.985,-50.658,-8.909,-2.476,-45.509,-116.196,-58.108,-12.241,-1.375,-30.541,-125.046,-58.599,-43.947,-25.869,-28.97,-144.531,-72.294,-27.589,3.644,-11.684,-87.575,-48.034,-43.912,-15.037,36.076,3.921],[-70.299,-14.524,-2.996,-3.234,0.011,-65.837,-16.732,-3.43,-5.505,-11.301,-67.842,-16.678,1.049,4.813,0.911,-68.577,-39.039,-28.051,-26.552,-12.581,-73.589,-41.46,-35.846,4.01,-50.437,-69.283,-47.756,-52.509,-24.41,-34.297],[-70.904,-19.861,-7.016,-5.221,-0.5,-73.993,-31.49,-4.581,-8.112,3.977,-76.091,-20.534,-3.071,2.431,1.709,-80.969,-47.67,-27.272,0.258,-6.014,-78.945,-49.228,-44.602,-51.915,-49.026,-71.383,-70.876,-54.831,-42.065,-6.908],[-80.891,-33.569,-5.385,-7.251,-5.389,-80.37,-32.625,-7.187,0.335,-0.776,-84.938,-36.325,-15.169,-0.131,-0.59,-82.724,-49.119,-26.602,-11.437,12.88,-75.578,-53.18,-34.361,-67.617,-3.561,-75.412,-52.483,-47.595,-24.228,-68.12]],
"vp": [[220.93,163.493,346.172,-24.273,-143.449,-23.581,42.66,52.875,58.395,-20.707,-0.518,-0.107,-8.091,25.953,-58.767,-35.726,-27.661,-5.607,-4.508,-19.519,-33.688,-25.109,-13.926,-29.322,2.029,-41.561,-1.61,-8.176,-22.449,-0.605],[1848.227,798.333,-27.922,-194.68,18.681,381.386,132.609,-41.791,-51.424,-25.653,193.222,1.81,-0.046,0.767,-40.626,-27.243,-31.161,-31.715,-18.682,-17.204,-22.433,-41.15,-37.978,8.513,-38.542,-42.718,-48.2,-37.289,-50.395,-9.434],[4563.875,1684.235,677.556,549.167,62.179,796.678,302.569,107.644,178.418,-15.947,346.911,154.211,47.501,83.331,-34.134,22.451,-3.448,1.95,-24.695,-18.223,-14.656,-26.772,-46.297,-41.71,-17.899,-41.871,-30.98,-62.318,-49.697,-37.105],[4570.956,2787.17,1897.005,1031.109,908.706,974.683,577.706,284.097,160.035,29.875,512.281,282.271,86.386,70.857,39.441,51.091,15.247,-5.829,-16.058,-21.048,-1.9,-25.951,-31.725,-31.829,-25.896,-26.14,-56.039,-45.499,-51.988,-42.74],[5499.288,5166.968,2283.413,1508.274,427.284,1235.653,915.897,526.199,265.503,248.194,424.984,537.98,251.937,60.093,32.483,112.263,68.593,15.777,-25.193,-7.539,-0.686,-22.431,-10.044,-12.703,-1.657,-36.636,-10.982,-5.749,-33.824,-50.918],[6076.563,4938.949,4196.419,2059.364,1235.877,960.783,1237.383,834.543,362.127,231.72,628.328,556.052,221.351,119.099,68.222,74.633,49.07,28.62,-15.937,14.547,-25.622,-15.08,16.301,-18.92,-32.543,-45.047,-31.166,-12.584,-12.442,-42.084]]
}