{
"KTrans": [[-1.772,2.556,2.392,2.34,2.176,4.617,13.565,12.06,11.848,11.344,12.619,25.082,23.542,23.561,22.793,-64.837,69.633,92.582,96.118,97.519,-40.473,16.381,111.642,131.42,149.706,-273.736,-85.697,23.089,69.627,115.966],[2.234,1.776,-0.058,1.093,0.979,13.598,7.821,0.009,4.822,4.791,27.284,18.203,-9.326,10.414,9.369,158.338,102.871,-28.613,28.298,38.051,54.343,-154.522,43.802,16.715,52.269,-87.409,-40.085,-131.479,8.194,38.036],[2.051,1.136,1.38,0.762,-0.4,13.141,6.822,5.128,4.068,0.439,24.016,13.425,10.479,8.364,-5.087,200.331,74.068,63.71,40.482,-16.244,-7.164,138.493,97.828,28.978,-31.925,-40.055,136.917,86.515,-37.717,24.122],[5.212,1.569,0.419,0.892,0.75,13.185,6.412,5.064,4.186,3.319,25.699,10.056,9.102,7.492,6.67,63.226,79.068,54.627,42.82,39.984,-96.448,114.347,108.829,81.173,85.348,-68.795,174.761,222.538,142.811,-133.128],[2.55,3.48,0.46,0.957,0.778,10.658,3.408,4.684,4.037,2.803,29.312,11.971,9.3,6.507,6.205,-46.311,76.334,52.135,43.117,32.915,-56.761,206.704,122.268,86.293,83.827,-11.028,-224.694,170.368,99.632,87.571],[3.807,0.414,1.621,1.165,0.275,10.728,5.474,3.777,4.127,2.407,21.078,11.804,6.746,5.779,4.888,-65.404,66.339,48.31,37.637,28.234,-80.457,181.557,113.315,66.823,60.02,-25.451,-50.58,280.298,177.089,149.767]],
"ve": [[0.996,1.06,1.243,1.446,1.681,4.947,7.352,7.747,9.907,11.961,9.854,24.167,21.336,29.344,36.135,39.808,-7.301,-155.095,-240.708,-183.433,63.47,30.723,-8.696,-33.036,-50.234,202.634,71.774,32.348,2.651,-15.515],[1.026,0.613,0.268,0.392,0.347,5.178,2.756,1.641,2.006,1.971,10.179,5.549,3.308,5.894,4.387,49.448,17.281,13.421,1.166,5.962,101.905,52.752,32.462,18.472,-17.452,203.882,99.947,66.69,42.803,26.144],[0.969,0.531,0.442,0.293,0.198,5.109,2.648,1.858,1.427,0.609,10.06,5.182,3.644,2.758,2.047,49.038,24.827,17.179,8.437,8.172,112.983,51.662,34.644,28.364,19.811,198.624,106.812,69.464,129.933,32.356],[1.171,0.557,0.315,0.312,0.26,4.969,2.589,1.836,1.446,1.165,9.957,4.906,3.497,2.724,2.272,48.567,25.165,17.023,12.973,10.514,96.422,271.687,32.114,23.338,20.566,198.829,97.417,66.621,49.664,44.183],[0.936,0.726,0.328,0.317,0.267,4.893,2.376,1.804,1.415,1.094,9.929,5.108,3.496,2.612,2.221,40.068,25.054,17.022,13.217,10.505,98.97,52.875,33.315,25.104,20.681,195.648,108.071,69.901,49.935,42.009],[0.811,0.453,0.453,0.335,0.193,4.674,2.481,1.693,1.415,1.04,9.498,4.962,3.319,2.541,2.059,49.318,24.569,16.82,12.831,10.253,100.566,49.005,33.524,24.642,20.051,169.622,120.775,66.401,49.574,44.354]],
"kep": [[-198.784,-3.77,-3.088,-2.881,-2.992,9.324,-22.843,-16.822,-17.344,-18.054,62.277,-44.478,-34.191,-35.638,-37.376,-164.9,-247.538,-191.234,-182.169,-191.82,-90.232,-429.916,-374.146,-386.279,-370.663,-164.149,-324.229,-627.261,-700.234,-747.082],[1.768,3.654,-64.63,-3.058,-1.458,10.183,13.664,-25.315,-14.321,-9.006,18.655,30.781,-256.092,-37.395,-18.773,63.549,101.817,-169.462,-174.149,-97.763,-37.931,-213.399,43.258,-311.124,-204.638,-104.458,-87.548,-222.485,-174.173,-339.652],[1.151,1.087,2.473,2.779,-202.624,7.64,5.983,7.612,12.991,-44.297,12.127,11.086,14.79,25.122,-229.527,81.823,45.316,68.838,58.821,-230.314,-58.598,49.567,50.272,-16.606,-183.132,-74.613,1.646,2.536,-81.929,23.821],[2.631,1.414,0.512,1.637,2.133,6.585,4.508,5.055,6.097,7.588,12.154,5.924,8.362,9.941,14.377,-2.446,43.666,42.513,46.05,66.302,-94.437,33.041,59.613,62.042,105.951,-89.048,11.805,83.086,68.987,-213.709],[-0.738,2.41,0.441,1.326,1.274,2.484,0.978,3.62,4.335,3.731,13.452,6.525,7.328,6.163,8.132,-67.143,38.051,34.264,36.729,34.756,-81.715,89.57,68.752,58.313,82.216,-73.098,-150.053,46.068,30.339,30.172],[-1.244,-0.397,1.205,1.331,0.583,1.053,2.74,2.536,3.748,2.569,4.854,6.436,3.868,4.466,4.758,-79.488,29.627,28.308,27.138,23.032,-89.925,68.933,55.673,36.677,42.72,-77.199,-79.396,102.7,82.196,86.046]],
"vp": [[-16.396,-24.65,-12.561,-19.293,-19.111,-17.157,0.078,-14.152,-3.347,-9.295,-5.898,-14.33,-13.234,4.995,-1.586,-16.942,8.221,4.846,-1.489,-3.109,-10.14,3.717,1.966,7.723,-8.009,1.302,-3.549,-10.228,-2.756,7.27],[86.446,27.685,-18.862,-11.983,-34.768,31.917,-3.558,-9.867,-18.312,-8.291,5.411,14.035,-13.164,11.526,-6.955,-4.939,-5.787,-8.036,3.826,-7.531,-16.284,-10.082,-23.51,-2.29,4.969,-22.31,-30.069,-18.1,-11.718,-11.038],[409.697,107.238,79.892,11.85,-13.689,72.164,19.448,8.245,-11.944,-23.933,8.49,7.111,0.7,-18.795,-10.547,4.633,-10.624,-4.156,-4.937,-10.75,-13.568,0.993,13.623,-7.165,-17.65,-12.495,-25.02,-13.048,-20.162,-21.396],[452.894,363.623,131.311,139.914,85.206,105.01,55.132,43.184,29.676,9.168,45.326,25.802,14.749,-1.431,-0.543,14.793,-0.234,-7.235,-3.465,1.949,5.622,-10.563,5.845,-9.881,-7.311,-9.63,-9.661,-16.898,-13.171,-7.1],[771.012,344.019,287.462,246.36,112.089,210.641,56.386,50.968,57.405,15.514,141.957,13.71,44.74,18.909,11.063,36.473,17.2,8.043,19.136,8.358,22.252,-12.818,-2.605,6.173,-1.612,-4.381,5.425,-8.554,-26.368,-5.737],[2682.944,731.937,434.027,385.646,262.598,543.109,168.092,106.502,74.755,49.914,305.618,87.153,26.4,26.526,13.553,74.135,-13.093,8.37,2.684,10.619,17.552,15.616,13.02,-12.434,-7.287,-2.785,16.652,-8.915,-19.039,-8.122]]
}