{
"KTrans": [[2.43,0.94,0.605,0.32,0.334,12.403,7.163,5.496,4.831,4.335,26.285,15.324,12.198,10.683,9.539,164.294,94.185,74.368,65.276,59.588,412.563,225.204,175.965,153.824,141.008,1180.307,600.589,459.019,396.815,361.652],[3.672,1.514,1.025,0.377,0.176,12.661,6.305,3.997,2.991,2.51,25.776,12.133,8.496,6.567,5.321,141.957,66.503,45.34,35.663,30.206,346.631,150.675,100.133,78.504,66.05,960.743,371.075,237.706,182.435,152.222],[4.585,2.238,1.634,0.799,0.397,13.673,6.786,4.413,3.124,2.475,24.909,12.387,8.283,6.17,4.945,143.447,64.235,42.193,31.933,26.07,341.509,142.487,91.178,68.387,55.669,941.3,349.576,212.93,155.278,124.606],[5.782,2.728,2.091,1.352,0.799,14.293,7.966,4.943,3.418,2.836,26.771,12.895,8.568,6.521,5.107,141.179,63.702,41.23,30.93,24.944,339.847,142.136,89.139,65.217,52.345,905.912,343.091,205.817,147.5,115.808],[6.229,3.987,2.476,1.753,1.244,13.03,7.853,5.269,3.87,3.115,27.099,13.621,9.347,6.619,5.264,140.966,64.011,41.755,30.869,24.603,333.528,142.089,88.173,64.508,50.855,843.178,343.819,203.1,144.016,111.56],[6.216,4.654,3.475,2.091,1.569,15.503,8.491,6.08,4.456,3.377,26.468,14.658,9.371,7.267,5.485,137.282,65.164,42.286,30.887,24.529,322.527,142.255,88.084,64.059,50.564,801.617,344.734,201.496,142.275,110.098]],
"ve": [[0.819,-0.388,-1.161,-1.517,-2.529,4.202,0.151,-1.933,-4.029,-5.294,8.844,0.929,-2.914,-6.082,-8.417,45.118,12.967,-1.86,-11.821,-19.183,93.457,33.262,7.743,-7.864,-18.874,192.257,78.998,35.085,10.142,-6.39],[1.2,0.651,0.194,0.05,-0.153,5.139,2.461,1.381,0.723,0.208,10.325,4.907,2.737,1.58,0.757,49.782,23.83,14.452,9.088,5.391,99.878,48.046,29.514,19.313,12.432,200.002,97.313,61.123,41.535,28.672],[1.361,0.749,0.501,0.356,0.223,5.151,2.691,1.691,1.209,0.864,10.268,5.232,3.279,2.326,1.702,50.495,24.854,16.093,11.449,8.53,100.425,49.528,32.234,23.139,17.371,200.778,99.453,64.945,46.98,35.776],[1.467,0.803,0.634,0.403,0.354,5.273,2.732,1.885,1.358,1.057,10.468,5.255,3.496,2.57,1.941,50.557,25.153,16.538,12.154,9.395,100.741,50.053,32.932,24.238,18.834,201.428,100.023,66.044,48.733,37.996],[1.337,0.899,0.538,0.491,0.37,5.42,2.883,1.932,1.46,1.109,10.371,5.322,3.54,2.693,2.103,50.527,25.3,16.787,12.433,9.762,100.823,50.312,33.309,24.73,19.521,201.492,100.394,66.457,49.46,38.936],[1.504,0.95,0.614,0.544,0.391,5.561,2.843,1.882,1.49,1.243,10.52,5.318,3.69,2.745,2.165,50.711,25.322,16.941,12.606,9.954,101.01,50.426,33.564,24.973,19.743,201.682,100.482,66.804,49.782,39.453]],
"kep": [[4.108,3.841,4.312,4.427,5.541,10.535,9.647,10.247,11.949,12.926,18.89,17.081,18.428,20.778,22.596,86.603,76.125,82.045,92.051,102.342,171.462,150.025,162.422,182.256,204.388,348.826,300.995,323.975,362.13,405.265],[4.959,3.331,3.302,2.788,2.791,9.781,6.295,5.097,4.759,4.804,16.806,9.509,8.194,7.481,7.091,65.505,37.758,30.1,27.41,26.573,128.941,73.474,58.314,53.276,51.308,262.252,144.598,114.731,104.44,100.823],[5.71,3.966,3.607,2.903,2.628,10.771,6.537,5.193,4.388,4.087,16.061,9.416,7.415,6.299,5.718,65.736,34.766,25.483,21.281,19.007,125.695,66.141,48.119,40.096,35.879,254.696,130.926,94.367,77.938,69.476],[6.814,4.409,3.934,3.418,2.904,11.247,7.669,5.525,4.532,4.253,17.576,9.887,7.471,6.397,5.632,64.121,34.01,24.156,19.601,17.012,124.495,65.323,45.768,36.242,31.34,241.898,126.947,88.69,70.482,60.219],[7.396,5.584,4.424,3.736,3.341,9.854,7.4,5.805,4.884,4.483,17.985,10.524,8.196,6.366,5.622,64.022,34.104,24.353,19.249,16.302,121.139,65.005,44.614,35.122,29.307,220.506,126.9,86.551,67.264,56.001],[7.218,6.207,5.363,4.026,3.651,12.096,8.078,6.673,5.443,4.609,17.239,11.535,8.063,6.959,5.778,61.299,35.018,24.654,19.081,16.03,115.354,64.99,44.27,34.492,28.819,206.201,127.267,85.177,65.713,54.349]],
"vp": [[-5.924,-46.857,-9.919,-9.433,-25.534,-5.475,-10.05,4.356,-6.814,-0.796,-0.902,-5.206,-1.086,-3.258,-0.166,-0.985,-1.016,-1.618,-0.478,-0.448,-0.777,-0.978,-0.202,-0.247,-0.837,-0.463,-0.678,-0.613,-0.572,-0.455],[-41.533,58.936,29.476,-14.841,-6.011,10.793,8.59,-0.496,2.833,1.532,14.246,-0.879,1.318,2.829,-0.821,-0.878,-0.534,-0.558,-0.919,-1.07,-0.74,0,-0.637,0.291,-0.786,-0.241,-0.581,-0.481,-0.578,-0.841],[278.456,-83.487,167.15,-7.308,35.174,45.012,-10.749,2.01,-3.063,0.483,22.352,-2.007,0.67,3.499,3.261,6.804,0.503,0.954,0.465,-0.589,0.754,-0.756,-0.887,0.354,-0.745,1.288,-0.67,-0.534,-0.587,-0.618],[949.017,-73.557,216.819,73.36,41.688,164.908,10.632,20.32,-0.997,13.379,85.352,-1.696,2.398,-0.369,-2.369,15.814,-0.038,-0.375,-0.717,1.827,7.907,-1.123,-1.117,-0.865,-0.785,4.024,-0.862,-0.802,-0.294,-0.622],[1535.632,212.961,-3.737,-59.647,-22.498,309.672,21.212,16.705,5.102,9.774,175.831,16.493,14.605,-0.416,-1.746,33.375,-1.229,1.643,-0.071,-0.034,15.925,1.628,-0.408,-0.176,-0.578,8.418,-0.15,-0.907,-0.914,-0.659],[2637.71,428.816,187.407,129.65,8.913,487.486,30.889,15.622,31.313,20.711,243.244,18.761,4.087,15.642,-8.446,49.75,4.604,3.417,0.348,-2.013,24.397,-0.411,-0.105,0.181,1.14,13.822,-0.088,-0.978,-0.731,-1.12]]
}