{
"KTrans": [[-0.464,9.306,8.287,1.939,-3.955,3.05,15.447,15.255,11.503,11.803,11.169,28.177,18.908,23.24,21.014,43.115,69.577,82.361,93.931,94.269,-19.451,45.932,115.559,137.489,145.028,-105.197,-190.756,-10.951,105.608,145.36],[-33.791,-12.812,-1.506,1.781,0.848,-28.65,-10.735,0.813,4.358,2.921,-28.366,-7.653,1.518,10.999,7.202,17.451,21.459,13.787,25.814,36.461,53.403,44.473,19.356,27.818,53.56,-21.003,-54.053,-7.613,-34.517,19.542],[-48.129,-16.608,-6.258,-8.06,-1.34,-45.289,-9.78,-7.878,-5.233,0.067,-37.201,-7.309,-3.524,-3.55,1.501,-19.893,23.882,28.068,12.047,6.308,9.563,37.761,51.071,17.759,1.958,-0.908,22.34,70.437,8.533,-36.876],[-56.914,-20.927,-9.392,-8.515,-5.241,-52.065,-15.627,-7.712,-4.808,-4.922,-56.671,-10.897,-3.497,-1.799,-1.905,-26.151,22.291,22.994,23.635,20.261,-25.862,52.574,54.862,52.924,34.337,-39.944,32.274,81.484,26.509,40.495],[-64.835,-27.428,-11.556,-8.188,-6.116,-66.168,-23.842,-10.029,-5.89,-4.553,-60.114,-18.775,-4.508,-1.152,-1.765,-46.315,5.023,15.882,20.063,19.501,-37.945,22.594,44.083,48.941,47.824,-50.947,28.198,70.201,76.336,63.952],[-70.723,-29.706,-15.414,-9.058,-6.422,-67.161,-27.09,-11.094,-7.645,-3.522,-66.635,-26.605,-9.506,-4.821,-1.731,-60.085,-1.915,12.943,18.606,15.013,-62.498,6.024,37.9,40.47,45.892,-57.91,14.48,54.199,72.389,74.723]],
"ve": [[22.56,17.686,33.777,-97.206,23.305,16.458,23.143,-150.92,67.263,-113.455,6.315,153.109,-11.874,49.702,-20.642,48.054,22.594,-209.996,-39.731,-57.653,98.048,38.365,1.101,-38.403,-48.054,203.507,900.156,32.587,2.357,-16.865],[-243.45,-24.067,-2.241,-18.717,20.694,-7.62,930.134,7.137,57.956,7.786,-5.039,2.421,-2.541,23.15,-10.924,-1027.688,139.991,12.768,2.041,-14.428,102.673,45.425,32.542,19.309,-42.38,206.199,106.118,63.429,45.229,26.733],[-10.234,-53.74,0.66,3.066,-3.175,0.567,-7.241,18.898,-7.583,6.698,2.308,1.025,-1.053,20.357,3.672,41.715,22.111,7.876,13.695,16.126,101.569,45.379,33.584,25.544,13.297,198.753,103.046,62.862,47.535,36.881],[-6.565,-4.024,-1.496,-4.328,-4.707,4.507,-0.622,-0.293,-2.276,-20.77,30.123,1.947,1.142,0.585,-2.936,61.419,18.71,15.902,11.15,9.623,99.399,14.431,17.805,34.317,18.338,198.18,171.465,63.648,48.543,42.029],[-4.302,-1.941,-1.189,-2.134,-4.358,-1.47,0.119,0.357,-1.145,-1.488,-14.617,2.208,1.965,1.717,0.191,29.207,21.863,14.594,11.319,8.319,89.676,49.456,30.916,24.311,16.573,204.655,104.125,73.587,44.641,40.712],[297.647,-0.276,-1.511,-1.81,-1.226,8.388,-0.141,0.322,0.206,-0.185,2.612,1.649,1.788,0.988,0.967,75.119,21.188,13.57,11.363,8.831,98.51,48.386,29.55,22.835,18.302,197.823,91.589,66.25,45.493,41.778]],
"kep": [[-125.761,-73.438,-47.84,1.641,-0.738,-127.706,-62.142,-41.391,-32.539,-23.939,-124.729,-111.766,-39.344,-48.666,-34.739,-134.37,-250.564,-205.107,-197.462,-181.067,-198.407,-375.302,-380.03,-365.424,-385.593,-201.184,-558.046,-672.252,-682.773,-733.524],[-68.73,-74.938,-126.835,-43.5,-2.314,-65.849,-69.521,-116.789,-48.829,-13.315,-67.464,-73.774,-128.936,-67.035,-17.981,-49.196,-58.999,-150.317,-196.439,-94.633,-57.704,-63.324,-149.76,-259.768,-192.415,-103.213,-148.164,-161.836,-352.625,-385.731],[-71.702,-39.287,-36.506,-81.088,-122.988,-70.321,-31.474,-39.197,-76.392,-127.517,-63.918,-31.831,-36.7,-66.731,-124.856,-68.399,-20.399,-4.27,-61.168,-159.228,-65.123,-35.7,-6.234,-88.608,-188.207,-82.867,-70.18,-31.049,-106.783,-228.535],[-75.048,-38.032,-23.06,-28.889,-34.618,-70.844,-32.906,-21.508,-24.056,-36.711,-76.129,-28.345,-20.734,-19.718,-33.308,-67.822,-19.589,-5.337,3.111,-1.039,-77.711,-14.956,5,15.707,-14.899,-90.849,-52.685,-19.554,-57.544,-43.24],[-79.715,-38.275,-23.961,-23.028,-23.071,-81.539,-38.382,-22.767,-18.164,-18.703,-76.308,-34.026,-18.229,-12.723,-13.959,-76.417,-29.001,-11.079,-2.967,2.718,-80.948,-33.725,-4.964,10.209,20.544,-90.283,-55.621,-21.73,-4.22,-1.349],[-82.187,-40.385,-24.177,-18.174,-16.119,-81.543,-40.269,-21.207,-15.815,-12.941,-81.433,-41.758,-21.276,-15.474,-13.837,-83.819,-35.043,-12.17,-0.822,-1.198,-90.085,-44.744,-12.125,2.378,17.245,-92.293,-58.022,-28.051,-1.507,7.483]],
"vp": [[259.047,-312.406,418.118,100.557,139.628,-52.788,-52.757,12.677,45.97,4.269,-35.695,4.046,21.984,16.918,5.776,-8.849,-5.551,8.586,-17.395,-2.429,2.031,-5.744,-3.865,-12.593,-6.157,-8.08,-3.312,-4.35,-11.774,-8.765],[2680.81,809.782,108.845,-301.091,-50.851,518.855,261.214,-11.059,85.318,85.877,227.713,137.548,-1.889,5.493,-0.788,40.999,7.764,-20.649,6.619,-16.401,9.714,-5.885,-14.88,-13.561,-10.986,6.482,-0.236,-16.868,3.108,3.124],[4863.815,1776.43,1166.489,644.203,171.097,857.101,447.657,172.058,215.051,19.131,412.868,220.044,128.48,28.821,-49.719,88.512,34.316,20.87,4.569,-4.15,29.772,10.856,-9.205,9.847,-16.573,14.381,3.554,-10.207,-1.956,-10.148],[5680.562,4303.817,1641.513,867.808,875.888,1003.678,868.867,305.51,272.785,205.62,569.783,455.74,241.986,144.83,83.553,104.702,82.724,37.517,18.221,5.035,44.418,29.384,3.704,-7.195,11.373,18.852,5.426,9.496,-1.288,-5.527],[6525.294,5116.899,3231.698,1010.51,1325.159,1302.561,1149.049,703.91,236.677,320.575,640.447,554.264,321.902,187.038,48.872,127,90.998,64.363,45.772,13.397,51.185,48.332,24.518,25.415,13.26,15.641,31.384,21.995,8.066,1.343],[6894.864,7602.116,4615.703,2772.014,1430.316,1426.052,1390.092,846.44,349.453,386.039,684.987,711.11,443.777,272.335,120.617,124.034,148.145,76.951,24.704,10.261,61.62,82.134,54.626,27.355,23.797,21.332,26.312,19.281,7.677,11.744]]
}