{
"KTrans": [[6.659,1.823,2.353,2.038,2.277,10.733,10.177,7.49,5.168,5.925,30.945,16.42,14.396,13.251,10.695,164.708,99.796,77.02,64.86,62.792,189.501,236.565,165.039,150.456,137.974,56.392,311.33,370.855,342.553,311.78],[-12.627,2.594,1.339,2.91,2.908,-4.799,9.319,3.639,5.185,3.893,4.721,10.95,9.539,9.401,6.265,82.349,67.924,48.333,37.59,32.496,-0.956,167.894,104.869,79.732,70.929,-47.361,183.39,237.751,185.471,152.358],[-37.177,0.428,2.824,3.165,1.742,-30.277,7.438,4.986,3.937,5.279,-22.141,10.883,10.027,7.75,5.98,-1.443,62.617,42.732,31.615,28.916,-49.811,151.64,107.493,76.952,56.843,-11.794,51.166,271.832,169.373,129.503],[-49.736,1.909,2.318,2.804,0.745,-51.898,9.449,3.992,3.814,3.254,-52.277,15.656,9.841,7.575,5.527,-65.981,65.553,44.474,34.99,24.912,-74.242,101.666,116.817,75.21,56.985,-27.254,-0.328,122.061,179.708,125.282],[-69.91,-1.385,3.267,0.651,1.646,-63.704,-0.67,6.024,4.093,4.347,-60.86,7.458,12.546,6.784,6.026,-68.965,54.06,45.837,30.297,27.512,-43.58,37.107,106.842,75.584,58.027,-33.007,-41.772,90.643,140.71,135.793],[-77.422,-3.364,5.127,2.361,6.017,-77.853,-0.617,8.332,4.512,3.91,-76.745,2.197,9.018,6.439,7.925,-66.098,24.97,52.358,29.831,21.815,-90.008,-13.438,114.783,79.248,51.701,-48.363,-53.313,79.705,216.484,136.27]],
"ve": [[4.588,7.292,5.296,6.951,7.549,4.849,2.781,0.898,6.945,4.877,8.851,2.025,-0.681,-1.614,-0.634,48.093,14.214,0.006,-10.167,-17.557,91.021,34.066,10.465,-6.418,-15.588,184.171,75.674,44.654,15.384,-2.993],[3.602,1.069,0.041,0.193,-0.278,6.735,3.357,1.508,-0.248,1.219,11.326,5.955,2.391,1.285,1.324,59.341,25.221,14.112,9.232,5.974,104.349,48.368,30.329,19.044,12.74,203.237,97.193,61.756,41.854,29.658],[3.166,0.776,0.418,0.815,0.135,9.503,2.976,1.394,1.86,0.561,20.987,5.855,2.79,2.657,1.581,40.127,24.959,15.811,11.112,7.883,101.885,49.623,32.474,23.397,17.745,201.902,110.51,66.25,46.5,36.231],[4.4,1.139,-0.092,0.276,0.384,10.909,2.809,1.616,0.674,1.152,-17.358,5.097,3.354,2.721,1.998,65.228,24.742,15.96,11.732,9.202,92.577,48.813,32.873,24.154,18.848,193.224,102.424,64.101,48.953,38.2],[11.44,1.234,0.388,0.417,0.165,3.669,3.287,1.612,1.268,0.216,9.759,5.157,3.387,2.472,1.657,37.829,25.703,16.783,11.915,9.379,103.893,50.161,32.977,24.555,19.584,202.641,99.572,64.787,47.513,39.363],[1.558,1.855,0.106,0.385,0.31,-5.897,3.39,2.388,1.365,0.685,12.821,6.763,3.243,1.835,1.969,41.496,29.752,16.738,12.059,9.262,103.178,54.596,34.397,25.243,19.172,201.549,102.204,61.315,50.603,38.955]],
"kep": [[4.229,-1.204,2.751,3.036,4.93,8.26,9.966,10.379,8.675,11.24,22.114,16.672,18.444,21.281,19.64,79.051,76.631,78.566,86.769,102.779,47.47,151.293,141.383,168.999,184.688,-29.22,122.292,238.105,282.755,328.418],[-15.328,1.764,1.625,2.996,3.432,-10.478,6.185,2.297,5.706,2.957,-5.342,5.053,7.199,8.271,5.116,20.497,33.823,30.039,26.23,25.272,-47.174,78.951,56.852,50.968,51.806,-73.828,44.038,106.471,99.83,94.182],[-39.6,0.058,2.487,2.458,1.728,-35.679,4.664,3.62,2.157,4.788,-31.987,4.925,7.185,5.065,4.41,-35.272,29.974,23.127,18.502,19.544,-71.026,65.876,55.832,43.163,33.12,-64.949,-20.217,119.005,82.038,67.587],[-52.628,0.773,2.54,2.6,0.427,-57.406,6.289,2.382,3.188,2.09,-58.638,10.117,6.369,4.814,3.523,-76.692,32.044,24.359,20.715,14.372,-83.536,32.339,61.895,40.613,31.845,-71.542,-45.618,35.712,85.058,61.965],[-71.815,-2.369,2.941,0.295,1.555,-67.614,-3.898,4.391,2.892,4.154,-66.222,2.06,9.031,4.259,4.365,-79.421,21.781,24.442,16.32,16.511,-70.068,-8.401,53.715,40.088,31.864,-74.51,-65.541,16.169,60.611,67.495],[-78.842,-5.064,4.94,1.978,5.717,-80.14,-4.16,5.744,3.147,3.243,-80.361,-4.442,5.613,4.446,5.83,-77.683,-1.891,29.988,15.693,11.485,-93.194,-41.753,57.819,42.201,26.969,-80.684,-71.563,7.079,105.462,68.031]],
"vp": [[544.099,39.483,60.375,-48.591,-325.06,-29.456,31.229,-38.168,27.323,17.289,26.839,-13.108,24.854,-11.468,-24.383,4.757,6.682,19.49,-10.799,3.686,-1.202,-0.95,-9.074,-1.133,1.266,-11.138,-9.382,-9.828,0.586,-16.91],[2672.658,111.725,10.211,275.782,-6.437,681.677,112.975,9.533,-16.683,83.406,317.206,65.264,-25.221,31.618,-1.318,53.445,5.086,8.168,9.362,8.187,37.389,8.433,7.017,-4.382,6.734,12.295,8.889,-4.299,-6.294,-1.104],[6013.541,1250.804,354.435,77.916,145.76,1240.245,350.693,45.739,71.263,55.171,618.772,154.176,81.98,22.595,29.279,95.422,40.763,-0.642,-10.772,28.897,51.762,22.395,19.205,20.48,-3.418,23.562,-0.293,18.7,1.749,-0.681],[7029.642,3126.372,711.668,122.159,201.258,1566.976,741.464,188.562,-29.721,-5.11,787.134,437.673,89.486,30.771,32.627,159.002,81.808,12.312,7.113,-2.669,66.727,40.112,26.514,14.909,11.461,11.163,23.769,-17.579,11.073,4.726],[8899.736,6309.285,1383.02,350.084,246.202,1770.052,1138.915,407.935,61.117,7.538,828.032,629.483,175.933,5.678,29.118,179.465,137.026,51.541,11.115,5.758,59.56,51.614,31.441,22.398,32.606,24.411,47.261,1.021,-20.959,20.665],[9387.976,9664.005,3517.191,1220.067,175.887,1750.899,2045.865,699.963,219.4,-7.471,964.341,906.754,265.397,75.616,100.974,162.319,184.195,94.829,32.509,-11.617,97.775,96.257,56.112,34.78,-1.793,29.434,53.85,29.708,25.202,6.645]]
}