{
"KTrans": [[-0.834,4.047,0.145,-1.801,0.365,-0.489,0.419,1.343,0.766,1.046,-0.946,0.385,3.158,-1.091,0.457,-5.243,-4.652,5.477,-0.628,2.978,12.912,5.566,0.802,8.495,5.956,-1.051,38.101,20.212,33.021,38.055],[-41.972,-1.292,0.856,-0.321,0.515,-48.598,-1.781,-0.619,1.147,-0.001,-50.918,-2.509,0.973,-0.368,0.435,-32.459,-4.574,2.145,-0.912,-2.813,-40.229,-3.828,5.302,3.442,-4.054,-22.216,19.216,11.104,1.115,-16.354],[-80.694,-5.24,0.34,0.407,0.421,-77.655,-8.798,0.319,1.041,-0.012,-78.137,-2.866,-0.018,0.197,0.017,-71.748,-19.249,-1.942,-2.78,-1.137,-64.345,-16.275,-4.513,-1.267,-1.501,-68.154,1.866,14.191,-0.215,-4.141],[-93.28,-18.547,4.388,1.109,1.353,-92.294,-23.405,1.398,2.335,1.382,-90.45,-22.488,0.047,0.055,-0.668,-80.157,-26.398,-6.142,-4.619,0.285,-79.301,-29.547,-3.214,-4.454,0.294,-80.921,-19.647,-5.034,-7.63,9.038],[-95.686,-35.894,-0.876,2.541,2.456,-96.077,-42.303,-8.134,1.162,0.442,-95.54,-34.184,-0.955,0.93,2.235,-92.587,-38.63,-8.588,-1.807,0.28,-88.298,-39.694,-19.633,-4.983,-2.459,-101.893,-35.543,-8.7,-4.841,9.611],[-97.104,-60.859,-7.765,-1.757,3.812,-97.106,-58.542,-4.876,1.001,2.259,-96.748,-61.992,-13.001,-0.392,2.817,-91.994,-52.139,-11.162,-6.449,0.632,-92.584,-55.688,-30.508,-8.634,-4.288,-82.534,-52.869,-4.76,-13.541,-6.24]],
"ve": [[4.109,2.245,7.961,8.682,25.647,3.175,4.323,5.247,6.048,13.212,0.484,3.478,3.39,9.33,13.066,-5.055,338.272,80.469,28.795,40.697,-16.049,-17.388,44.005,-23.896,109.124,-11.696,-23.409,1.373,-105.161,1.959],[-19.326,-0.562,-0.413,0.354,0.01,-22.382,-1.686,-0.25,-0.254,0.06,-24.516,-1.031,-0.525,-0.447,0.004,-20.87,-3.339,0.752,-0.383,-0.244,-40,-0.51,3.402,3.235,2.92,-35.957,-6.305,-10.319,-12.608,-39.433],[-51.413,-3.217,-1.002,-0.527,0.452,-46.248,-5.391,-1.916,-0.424,-0.598,-52.404,-2.838,-0.403,-0.602,-0.419,-53.638,-10.603,-2.415,-2.434,-1.039,-79.878,-16.107,-3.036,-1.684,-0.927,-56.325,-13.247,5.748,10.609,3.079],[2.424,-11.04,0.827,-0.035,-0.197,-69.485,-12.636,-0.181,-0.192,-0.387,-68.297,-13.241,-2.025,-0.672,-1.237,-55.71,-16.257,-4.413,-3.275,-0.937,-68.186,-27.988,-0.84,-3.812,-1.092,-47.398,15.884,-13.626,-7.681,4.663],[-105.112,-20.089,-2.51,-0.116,-0.363,-118.447,-22.931,-4.904,-0.796,-1.355,-88.627,-19.474,-2.131,-1.135,-0.366,-108.619,-25.93,-7.231,-0.604,-1.505,-65.069,-27.534,-14.267,-4.055,-2.645,-120.688,-26.701,-14.768,-4.858,5.492],[-89.111,-37.096,-4.413,-2.047,0.161,-96.447,-34.587,-3.519,-0.749,-0.273,-87.239,-39.246,-8.502,-1.452,-0.351,-83.307,-37.424,-5.17,-5.118,-0.608,-78.344,-40.801,-28.098,-6.412,-3.567,-52.756,-61.594,-10.913,-11.316,-5.67]],
"kep": [[-3.679,3.607,-2.32,-4.534,-0.692,-2.811,-2.245,0.437,1.223,0.983,-2.53,-0.225,3.73,-3.922,1.29,-19.701,-12.219,0.817,-8.038,-2.811,-28.203,-20.081,-26.445,-5.321,-7.66,46.522,-42.191,-51.633,-21.909,-4.398],[-31.689,-1.059,1.235,-0.586,0.665,-38.414,-0.847,-0.454,1.469,0.043,-39.706,-1.877,1.39,0.097,0.57,-45.624,-6.199,0.006,-1.297,-2.844,-46.709,-17.437,-2.613,-1.997,-7.385,-41.001,-28.325,-17.374,-17.769,-26.697],[-71.246,-2.974,1.129,0.851,-0.074,-68.39,-4.591,1.981,1.389,0.56,-68.605,-2.11,0.225,0.638,0.405,-76.771,-16.054,-1.675,-1.317,-0.838,-71.051,-30.295,-6.834,-2.897,-2.538,-51.89,-27.239,-15.858,-15.223,-11.251],[-89.335,-10.377,2.895,0.992,1.489,-87.426,-14.688,1.054,2.451,1.631,-85.694,-13.481,1.675,0.409,0.43,-77.965,-22.362,-4.057,-2.449,0.718,-73.649,-49.01,-10.018,-3.859,-0.61,-67.357,-39.647,-36.225,-17.44,-2.802],[-93.666,-24.84,1.037,2.328,2.73,-94.691,-28.225,-4.424,1.663,1.661,-96.307,-24.687,0.052,1.715,2.447,-90.497,-40.303,-5.064,-2.044,1.221,-79.054,-51.989,-20.578,-4.775,-2.096,-75.952,-53.923,-38.612,-18.22,-3.258],[-97.076,-43.748,-5.008,-0.276,3.445,-96.56,-43.639,-3.065,1.237,2.367,-96.143,-48.571,-6.15,0.566,3.009,-88.922,-56.507,-10.009,-2.704,0.566,-85.539,-64.056,-35.977,-7.348,-3.82,-79.209,-54.618,-41.567,-31.826,-12.035]],
"vp": [[75.953,-65.517,-16.068,207.401,45.025,34.581,15.457,14.374,23.481,1.292,22.366,14.646,-9.832,5.693,9.029,14.235,15.334,-0.241,6.481,-2.145,10.569,9.005,11.817,0.353,0.251,2.999,6.919,10.806,-0.356,-7.565],[2015,181.922,59.988,134.857,10.494,514.561,76.678,51.864,2.972,-7.41,270.652,30.244,15.489,19.971,2.134,42.363,19.264,-5.268,9.833,18.227,38.577,12.527,-2.22,-4.691,14.353,19.244,5.719,0.898,9.667,30.219],[5466.103,654.781,394.036,185.9,-47.917,1112.53,211.485,57.442,8.118,58.697,529.242,67.814,28.143,26.932,10.853,109.519,46.779,12.854,19.054,15.225,57.048,36.892,12.251,8.824,7.379,29.203,10.072,-7.5,9.335,13.9],[7591.923,2314.326,-344.103,184.207,5.183,1473.603,518.921,12.231,-2.762,19.152,721.583,288.056,47.288,16.937,44.201,104.695,70.954,28.584,26.283,6.256,68.297,61.827,3.391,16.073,5.643,34.208,18.524,23.246,19.353,-11.458],[8260.972,4140.375,789.394,69.169,-87.427,1691.169,958.484,282.651,32.79,134.892,858.135,408.855,73.191,47.504,5.473,158.923,103.544,43.284,7.46,14.947,67.345,59.993,43.345,16.334,14.076,63.039,33.294,23.184,9.41,-14.654],[8797.981,7665.371,1287.422,820.863,-33.658,1744.984,1467.184,219.323,47.68,3.538,870.782,795.994,280.603,42.337,7.938,164.004,152.469,32.924,40.447,4.699,80.799,88.673,85.438,25.703,19.136,26.124,39.706,15.001,31.941,14.85]]
}