{
"KTrans": [[-28.792,-10.561,-6.379,1.543,2.449,-26.929,-6.375,-11.553,-1.018,-5.232,-33.246,-8.779,-9.075,-8.963,2.585,-24.17,-10.826,-4.778,0.738,-4.107,-28.106,-6.305,-0.212,-2.957,-4.931,-17.473,-10.228,-8.641,-0.132,-0.946],[-88.098,-38.016,-20.642,-22.832,-14.175,-86.149,-35.37,-28.251,-18.802,-15.93,-80.294,-42.417,-20.337,-22.399,-16.826,-88.718,-43.253,-33.596,-23.695,-15.774,-88.654,-50.758,-27.321,-22.86,-16.408,-94.126,-39.735,-22.374,-10.396,-13.428],[-100.195,-65.251,-53.262,-32.952,-33.152,-93.996,-78.345,-39.505,-35.114,-26.307,-94.432,-76.163,-52.131,-39.568,-28.452,-104,-80.029,-27.63,-34.586,-25.201,-100.883,-66.226,-39.195,-29.331,-27.485,-97.818,-68.366,-43.04,-31.841,-23.646],[-101.519,-90.623,15.651,-47.511,-31.247,-100.938,-92.11,-69.548,-47.069,-30.205,-101.522,-89.994,-76.59,-45.284,-35.94,-101.524,-89.731,-65.922,-45.978,-36.39,-103.562,-80.896,-59.29,-51.882,-31.846,-102.678,-85.531,-70.807,-30.775,-37.714],[-104.232,-95.157,-75.449,-63.707,-42.401,-102.95,-95.188,-59.717,-17.866,-26.455,-103.037,-95.344,-73.562,-32.019,-45.763,-105.816,-98.953,-82.592,-43.21,-44.106,-104.631,-89.974,-78.114,-51.646,-42.694,-107.77,-97.276,-85.581,-52.698,-59.543],[-105.876,-100.934,-88.462,-50.091,-54.824,-104.303,-97.536,-84.957,-30.136,-65.286,-101.821,-100.885,-85.416,-69.721,-54.833,-105.294,-101.205,-94.187,-58.145,-31.284,-103.754,-100.382,-85.13,-80.555,-64.451,-102.2,-98.854,-89.654,-58.695,-58.004]],
"ve": [[-14.969,7.205,350.965,-1,120.049,-29.731,-7.87,1.043,8.264,-210.35,-154.002,4.984,12.408,29,-16.371,-22.901,161.242,28.903,17.26,-320.819,-4.881,-28.578,16.42,40.181,33.164,-3.775,13.515,-28.441,14.987,-177.725],[-75.395,-35.04,-17.873,-11.678,-8.537,-67.879,-31.84,-21.113,-11.154,-8.467,-76.511,-33.059,-18.819,-13.287,-8.43,-85.546,-36.157,-21.294,-15.843,-6.13,-72.292,-36.071,-18.682,-13.545,-10.07,-101.239,-39.26,-18.972,-12.581,-7.613],[-97.827,-59.641,-62.923,-30.533,-21.718,-80.064,-65.863,-40.738,-28.935,-22.049,-102.59,-65.747,-41.974,-28.688,-22.73,-83.093,-67.921,-35.397,-28.746,-20.712,-107.004,-66.65,-36.502,-26.873,-20.763,-104.898,-64.931,-41.328,-29.661,-19.73],[-110.508,-65.793,-50.86,-44.472,-31.378,-106.548,-132.427,-66.913,-43.714,-29.361,-112.562,-85.238,-67.519,-40.177,-30.788,-110.666,-89.493,-57.063,-43.234,-34.24,-111.976,-63.774,-63.02,-46.648,-28.898,-128.379,-68.074,-68.252,-33.308,-35.245],[-92.856,-98.038,-69.35,-59.741,-43.591,-119.173,-93.961,-75.371,-74.523,-38.361,-113.506,-97.597,-89.568,-50.016,-42.024,-137.833,-93.472,-71.512,-56.188,-43.221,-117.838,-97.817,-80.133,-60.144,-42.457,-122.1,-99.661,-80.846,-53.516,-46.771],[-129.594,-110.615,-86.714,-66.054,-42.168,-120.066,-106.616,-88.838,-68.933,-62.855,-105.737,-100.917,-71.275,-70.869,-54.341,-120.625,-113.22,-92.53,-64.701,-49.513,-113.766,-97.195,-86.134,-72.834,-53.832,-115.67,-95.188,-92.176,-58.267,-58.087]],
"kep": [[-25.135,-10.026,-12.652,1.29,-6.146,-18.34,-4.993,-17.115,-6.118,-15.613,-32.223,-4.564,-16.923,-17.208,-1.19,-22.415,-10.076,-8.49,-5.19,-14.087,-24.244,-6.166,-2.745,-7.883,-16.7,-18.649,-10.031,-13.725,-1.752,-10.923],[-86.235,-15.802,-5.314,-12.916,-6.262,-84.643,-13.655,-10.539,-9.195,-8.095,-87.329,-16.162,-4.578,-10.537,-8.888,-95.369,-22.365,-16.657,-9.303,-10.229,-86.022,-24.477,-11.831,-11.381,-6.764,-91.042,-20.925,-5.71,1.881,-6.553],[-91.803,-60.151,-19.468,-5.133,-14.838,-88.745,-77.127,-10.125,-10.297,-6.987,-92.988,-74.451,-17.449,-16.492,-8.125,-87.261,-71.922,-16.929,-9.241,-6.911,-89.533,-67.771,-14.158,-6.967,-10.395,-88.255,-74.075,-16.911,-6.179,-6.94],[-88.762,-96.575,-37.577,-11.685,-6.573,-92.292,-89.961,-60.052,-14.836,-7.495,-90.309,-85.554,-60.706,-18.426,-10.35,-90.145,-83.243,-49.865,-12.828,-8.534,-92.969,-85.007,-50.744,-22.843,-9.629,-90.486,-90.174,-54.591,-4.348,-5.992],[-93.921,-83.454,-71.939,-44.259,-10.552,-94.586,-81.322,-77.656,-63.588,-8.415,-91.67,-82.26,-79.619,-28.916,-15.921,-90.372,-90.348,-69.106,-29.263,-13.921,-92.682,-82.177,-78.329,-37.674,-9.767,-90.227,-87.344,-84.04,-32.773,-20.372],[-92.123,-81.697,-84.344,-67.305,-28.552,-93.702,-78.76,-82.026,-64.972,-31.478,-92.454,-80.56,-72.267,-59.45,-32.217,-93.746,-78.507,-79.497,-70.434,-22.519,-93.003,-82.614,-79.341,-74.365,-39.057,-92.736,-85.922,-78.088,-61.145,-35.614]],
"vp": [[2838.865,2070.968,2428.207,2474.608,2812.33,629.384,603.82,523.19,540.825,501.193,318.533,210.633,217.153,248.082,179.802,43.371,48.015,42.44,48.351,48.088,23.836,22.026,27.986,26.015,25.911,11.416,13.787,15.218,11.932,12.042],[8237.547,9239.894,7468.857,6773.608,8131.138,1557.896,1418.888,1590.52,1550.943,1751.746,759.585,843.047,696.762,757.34,862.824,184.185,165.646,164.222,172.374,138.142,82.987,81.526,79.44,68.289,90.343,43.336,45.167,39.379,47.021,33.308],[10271.51,12764.581,14535.871,14530.144,12325.574,1885.245,2977.506,2804.865,2700.618,2663.04,1020.478,1505.131,1391.09,1114.737,1402.365,198.474,293.779,221.706,274.251,270.906,108.171,142.024,129.707,133.82,127.977,48.605,71.234,72.063,71.025,63.528],[11286.431,17315.001,15662.614,20931.641,18524.52,2162.763,3523.95,4479.332,3996.872,3421.597,1134.225,1809.006,2182.768,1805.687,1672.91,225.404,365.826,378.794,373.568,383.102,112.15,177.298,203.151,203.779,160.906,57.107,96.622,100.47,75.573,102.909],[12311.5,20395.859,21435.772,25209.23,23710.696,2366.428,3861.404,4813.853,6307.326,4157.418,1146.254,2096.124,2387.985,2153.929,2349.873,258.856,388.913,437.199,492.12,486.473,122.785,201.372,260.379,251.776,244.069,64.824,101.297,126.649,115.621,122.35],[13352.67,21031.431,28553.133,30877.399,32245.731,2355.603,4481.634,5826.221,5911.034,6399.374,1094.844,2024.922,2603.783,2976.493,2890.191,237.695,461.733,570.075,558.356,537.775,114.488,197.653,270.638,311.797,284.82,56.287,96.854,137.599,136.646,158.023]]
}