{
"KTrans": [[-3.118,-3.363,5.086,1.625,-1.855,0.344,15.174,12.114,7.376,9.139,9.199,19.87,10.992,8.804,13.258,89.268,92.795,70.721,74.56,59.536,158.039,199.983,154.506,144.995,141.377,96.492,281.12,322.15,326.864,307.068],[-50.982,-2.033,2.483,-0.501,-1.961,-56.976,-0.302,2.445,6.306,3.934,-43.048,16.425,4.787,8.973,6.846,-9.968,58.083,46.289,42.438,32.909,-7.04,136.331,117.292,87.075,69.217,-155.689,100.806,217.769,174.622,156.676],[-71.699,-11.492,-1.594,2.632,-0.621,-73.694,-12.046,8.992,5.479,2.784,-60.725,1.416,8.733,8.245,6.125,-53.851,36.476,42.388,33.318,29.542,-67.731,70.145,90.66,65.811,54.326,-59.156,42.167,152.919,164.549,131.5],[-87.491,-20.172,3.466,-0.488,1.583,-84.146,-17.379,0.06,3.793,2.892,-84.224,-13.383,4.862,2.155,7.022,-71.389,16.291,41.71,35.624,26.687,-70.202,31.746,90.271,73.208,59.417,-52.966,-25.471,129.639,160.74,124.006],[-88.243,-31.854,-1.857,-1.12,2.046,-87.858,-36.878,1.042,3.207,1.497,-90.014,-31.357,6.674,2.481,4.569,-83.048,-14.194,27.706,27.944,21.487,-90.979,-1.029,81.114,71.354,55.779,-113.167,-6.009,41.618,139.865,116.392],[-94.131,-41.938,-10.614,3.063,-1.953,-91.279,-39.391,-3.761,2.786,1.769,-89.113,-40.159,-1.414,1.939,8.553,-94.637,-20.435,29.509,28.033,27.909,-91.277,-29.634,36.883,53.457,56.489,-81.954,-18.582,20.402,104.636,140.103]],
"ve": [[19.697,26.281,16.012,-50.292,207.232,27.744,13.208,1094.845,-6.011,0.581,43.98,28.755,45.664,-161.527,20.058,57.4,21.478,8.151,0.885,-9.499,85.346,42.145,21.056,-2.371,-10.945,197.296,101.161,-62.655,7.268,3.518],[7.24,3.931,1.464,1.037,2.237,26.759,6.625,3.45,1.522,1.684,34.005,6.954,3.06,2.716,2.576,56.167,26.211,15.512,10.036,7.182,121.145,53.062,32.123,19.667,13.976,204.134,103.802,92.099,45.873,29.884],[-6.177,0.88,1.587,1.642,1.653,13.791,4.579,1.666,1.602,2.024,17.008,7.16,5.578,2.196,1.665,39.793,28.718,17.708,11.305,8.408,-28.514,51.055,32.819,23.216,17.419,197.213,101.626,66.116,46.266,36.354],[22.403,3.161,1.777,1.787,0.614,33.597,7.093,3.437,1.829,1.087,13.645,9.504,3.262,2.517,1.838,93.616,27.964,18.129,12.086,9.729,107.199,51.455,32.956,24.827,19.786,202.155,100.111,67.734,50.552,37.478],[4.014,2.484,1.77,1.201,-0.122,23.945,4.488,3.233,1.995,1.849,0.643,8.312,4.898,3.021,3.689,63.937,32.765,18.101,12.077,10.432,101.714,45.744,34.906,26.866,19.226,212.716,86.896,66.899,51.149,40.378],[15.147,10.194,1.677,1.394,0.547,-7.566,2.532,3.386,2.085,1.15,35.469,9.204,3.956,2.733,2.14,54.252,16.895,17.587,13.6,10.002,98.57,51.529,32.641,26.189,19.865,98.12,102.771,65.839,51.775,40.788]],
"kep": [[-12.53,-8.334,6.758,-2.648,-15.546,-15.979,16.33,12.621,6.554,13.397,-4.955,16.954,6.387,10.303,24.543,19.075,67.097,68.719,91.691,95.855,20.499,116.611,125.818,157.457,184.812,-19.554,105.522,197.979,267.783,317.987],[-58.859,-5.161,2.447,-0.423,-3.168,-63.856,-5.159,0.292,5.588,3.282,-54.377,10.298,2.756,7.094,5.293,-44.774,26.055,27.614,30.602,25.172,-54.29,55.924,64.639,56.905,49.552,-112.581,1.217,91.039,89.232,97.827],[-77.606,-12.612,-2.809,1.17,-1.796,-79.338,-15.959,7.706,4.126,1.247,-69.679,-5.418,3.628,6.211,4.613,-72.521,9.553,21.066,20.246,19.801,-84.004,11.697,42.914,34.681,31.556,-82.641,-25.502,52.854,76.268,68.947],[-90.75,-22.351,2.278,-2.108,1.364,-88.23,-22.495,-3.191,2.049,2.089,-88.772,-20.534,1.938,-0.163,5.363,-82.89,-10.674,19.845,21.149,15.611,-86.301,-13.796,42.711,38.62,32.787,-81.374,-59.801,36.146,71.643,62.292],[-90.695,-33.703,-3.552,-2.213,2.398,-90.746,-39.605,-2.027,1.296,-0.137,-93.219,-36.769,1.729,-0.415,1.081,-89.857,-33.336,8.239,14.257,10.036,-95.978,-35.666,33.363,34.827,30.327,-102.337,-51.64,-15.835,58.088,53.11],[-95.551,-44.842,-12.424,1.9,-2.287,-94.266,-42.762,-7.13,0.832,0.704,-92.192,-45.523,-5.055,-0.664,6.415,-96.623,-39.211,9.664,12.808,16.318,-94.986,-53.575,1.541,22.147,30.159,-92.62,-57.799,-26.435,33.462,68.106]],
"vp": [[833.319,123.45,-243.345,-306.836,-294.279,214.767,67.414,18.866,83.213,91.182,16.276,-9.066,0.194,-11.608,-31.928,13.112,-0.521,-16.248,-3.662,-5.601,2.701,3.059,-6.804,-13.673,-4.827,-14.505,-8.944,-11.817,-13.22,-14.116],[4358.998,1832.134,686.42,-314.785,-688.102,867.917,291.491,89.846,72.47,3.383,405.469,149.883,32.427,33.301,16.616,82.983,10.005,-12.412,-3.976,-1.985,29.498,1.929,-1.092,0.84,-15.899,18.343,2.951,2.732,-2.807,-9.868],[6526.494,4342.154,1252.769,782.246,148.227,1163.663,763.301,483.481,31.698,137.813,594.905,328.646,150.502,6.315,14.954,116.048,82.277,13.796,-3.49,0.941,55.618,31.008,-0.172,-6.317,-16.349,12.644,4.166,-11.902,5.982,2.806],[7078.568,6031.57,4066.263,1642.448,399.301,1510.612,1376.761,599.467,235.195,119.194,738.939,759.116,291.63,107.201,23.116,137.444,163.361,68.931,15.935,-2.375,66.263,47.691,19.524,11.148,5.476,20.202,17.245,1.749,16.244,-3.281],[8478.501,9142.182,5502.323,2295.307,1068.96,1532.342,2061.352,1172.555,576.057,296.604,828.455,990.34,566.188,81.309,144.513,143.33,167.132,96.731,31.054,16.903,79.178,85.026,64.568,37.793,6.547,32.388,22.062,24.533,19.318,-3.725],[9120.044,10975.218,9283.117,3675.787,1515.745,1815.878,2298.215,1637.74,727.738,427.305,832.24,1109.408,900.417,392.615,342.666,150.766,213.158,160.112,84.251,56.718,73.882,116.139,58.475,25.724,20.088,26.401,35.636,21.403,23.163,27.611]]
}