{
"KTrans": [[-1.749,7.636,8.26,10.489,10.212,6.519,14.808,15.99,12.989,12.208,16.876,23.213,17.676,19.318,20.036,124.284,92.746,82.407,76.679,69.559,275.111,200.324,184.536,150.752,145.758,594.207,466.66,411.205,364.766,343.77],[-28.477,-8.428,-1.038,3.955,3.854,-23.769,-2.836,3.528,4.341,8.273,-13.625,4.897,5.655,9.837,8.974,38.932,43.463,37.382,34.221,33.926,105.08,95.643,82.036,71.182,64.076,273.8,228.806,185.785,153.629,142.055],[-46.238,-16.712,-7.178,-1.665,-0.272,-37.613,-12.845,-6.417,-1.875,0.421,-32.93,-7.977,-2.373,1.977,4.475,8.445,24.569,24.86,21.892,22.069,50.829,68.859,51.7,52.946,46.579,78.272,157.954,133.999,111.325,98.235],[-53.765,-26.118,-12.561,-8.997,-4.558,-49.915,-20.503,-11.484,-8.591,-2.609,-48.685,-16.862,-10.763,-3.805,-1.494,-15.263,8.012,10.763,13.504,13.909,15.827,39.952,41.654,35.21,35.379,39.662,110.143,115.681,89.865,83.186],[-61.457,-33.346,-19.435,-13.423,-9.706,-61.954,-27.686,-18.151,-11.683,-7.183,-52.391,-26.846,-16.019,-10.182,-5.839,-38.595,-3.286,1.016,4.513,7.948,-20.02,22.833,27.055,24.065,24.604,-4.02,63.944,79.587,70.555,67.679],[-68.089,-37.271,-23.569,-17.021,-12.784,-68.498,-36.069,-21.443,-17.3,-11.188,-65.858,-29.942,-22.091,-13.696,-9.033,-43.364,-13.578,-2.918,0.094,1.197,-26.428,12.493,17.516,17.451,18.271,-10.962,59.714,61.387,58.36,49.713]],
"ve": [[7.619,20.76,24.965,97.525,151.908,12.923,15.506,30.475,59.796,90.934,13.498,22.787,30.166,33.272,62.805,44.67,17.664,8.135,-1.517,-4.86,92.853,36.716,13.338,0.056,-11.231,192.8,81.148,38.312,14.211,-2.442],[1.028,0.238,1.258,2.847,6.444,5.049,0.61,2.437,3.854,5.931,10.39,3.275,3.707,4.267,6.706,47.245,22.512,13.876,11.039,8.689,92.991,43.008,28.886,21.189,14.586,189.159,92.748,59.776,42.612,29.865],[-0.556,-1.984,-1.008,-0.205,0.613,5.182,-0.051,-1.527,0.184,1.345,8.892,1.562,1.727,2.099,2.088,44.462,21.643,14.322,10.413,8.413,97.145,46.079,29,20.519,17.574,392.348,94.894,61.447,44.873,34.561],[2.689,-4.425,-1.09,-1.88,-0.595,3.468,-1.156,-0.394,-0.796,-0.627,9.27,2.454,0.241,0.543,0.456,48.241,21.322,13.632,9.512,8.172,94.702,45.266,29.5,21.296,16.904,207.344,93.504,61.778,45.629,35.998],[2.951,-2.462,-1.906,-2.187,-2.474,6.4,-0.345,-1.282,-1.562,-1.664,11.635,0.839,-0.043,-0.232,-0.464,43.977,21.278,12.913,9.053,7.098,94.97,44.454,28.814,21.193,16.647,241.643,90.635,61.178,44.473,35.524],[0.895,-2.846,-2.646,-2.935,-2.195,3.441,-1.415,-1.537,-2.032,-1.556,8.003,0.642,-0.355,-0.388,-0.833,49.091,20.044,13.427,9.246,7.034,112.028,45.885,29.922,20.78,15.889,213.492,95.301,61.5,45.266,34.919]],
"kep": [[-28.992,-27.542,-31.435,-32.252,-41.226,-26.103,-21.041,-20.935,-31.888,-36.439,-21.302,-15.917,-24.648,-22.16,-26.645,16.524,23.629,28.678,37.536,38.168,43.884,63.718,88.746,88.487,108.93,73.994,132.091,174.036,202.34,239.769],[-47.254,-31.842,-27.133,-24.717,-27.447,-45.232,-28.075,-24.896,-25.168,-23.978,-41.31,-24.502,-24.171,-21.806,-23.916,-29.799,-12.986,-10.513,-10.166,-8.481,-21.119,1.264,4.756,4.718,6.146,-6.944,25.522,32.018,31.579,38.123],[-59.418,-36.942,-30.392,-26.869,-26.51,-55.8,-35.07,-29.482,-27.33,-26.54,-53.809,-32.669,-28.637,-26.008,-24.169,-44.375,-24.167,-19.078,-18.106,-16.57,-43.194,-14.639,-12.98,-6.015,-7.71,-55.504,-2.809,6.658,7.731,8.883],[-66.12,-42.584,-34.418,-31.269,-28.881,-63.792,-40.375,-34.097,-31.76,-27.418,-64.634,-39.845,-34.051,-29.079,-27.377,-57.708,-33.946,-27.83,-23.244,-22.022,-56.502,-28.886,-19.102,-17.553,-14.283,-65.106,-20.586,-1.722,-3.802,-0.506],[-71.897,-49.251,-39.1,-34.384,-31.438,-73.532,-45.993,-38.502,-33.587,-30.124,-68.036,-46.066,-37.721,-33.304,-29.925,-68.696,-40.999,-33.775,-29.03,-25.394,-69.512,-37.234,-27.074,-24.293,-20.966,-76.326,-37.018,-18,-12.898,-8.593],[-76.542,-52.174,-41.788,-36.7,-33.982,-77.503,-51.666,-40.816,-37.502,-33.217,-76.386,-48.34,-41.978,-35.834,-32.065,-71.726,-46.559,-36.615,-32.084,-30.009,-72.538,-43.008,-33.19,-28.062,-24.476,-77.969,-39.947,-26.468,-19.656,-18.08]],
"vp": [[-211.254,-316.624,-23.726,14.722,-6.703,-81.022,51.574,-76.366,83.345,-13.489,-15.297,12.041,-16.715,22.789,46.95,-17.957,-14.866,-0.268,-7.336,-0.3,-4.364,-0.047,6.949,-12.233,-3.086,-10.179,-1.171,5.979,2.06,0.921],[2807.484,824.015,-492.672,-41.487,-76.653,556.311,154.589,-5.913,-146.639,12.489,225.1,106.957,-34.947,-49.211,-21.98,32.569,9.944,-16.595,-25.804,-9.823,3.702,-12.436,-2.562,-3.188,-6.838,1.823,-7.598,-5.752,-3.693,-7.706],[3794.761,2854.47,1587.965,1122.255,-408.001,1007.659,610.843,155.331,49.992,-35.234,475.822,190.008,144.096,32.416,-20.48,74.461,53.895,25.196,3.056,-7.737,34.731,22.89,-12.219,-0.225,-4.498,13.993,0.124,5.156,-12.859,-9.61],[5752.143,3717.653,2565.741,1019.882,1122.18,1191.603,814.603,661.236,222.039,186.208,573.608,496.355,245.605,156.838,136.495,119.718,87.966,45.789,13.45,25.492,49.395,39.131,20.26,-3.631,5.684,15.98,8.085,16.917,3.782,2.35],[6631.482,7156.634,3135.613,2849.888,1497.538,1345.017,1477.184,893.624,386.951,266.652,681.261,579.93,383.906,283.015,137.286,111.145,155.071,77.381,24.78,26.537,45.207,45.321,31.588,7.663,1.92,27.185,0.498,13.632,-2.571,-0.697],[7155.607,8829.481,5205.885,3067.163,2631.344,1351.603,1727.851,1036.886,510.013,465.439,723.207,857.104,556.013,394.171,156.543,136.069,148.832,115.795,51.149,37.058,66.967,83.393,62.112,22.557,3.531,27.516,36.894,19.631,9.406,-11.529]]
}