{
"KTrans": [[-44.363,-61.057,-60.379,-57.1,-58.866,-25.524,-38.068,-42.456,-40.821,-49.705,-1.672,-27.678,-24.872,-28.205,-26.445,70.981,3.984,10.628,5.196,-1.393,125.975,35.503,33.094,26.766,33.67,254.576,104.06,108.095,94.305,102.724],[-47.034,-56.15,-48.651,-50.051,-47.867,-41.669,-37.753,-21.036,-43.454,-39.485,-32.684,-22.156,-4.953,-22.862,-23.717,-13.728,2.235,21.521,-4.597,0.387,-11.439,7.041,47.376,3.336,2.008,-2.957,16.571,96.906,15.608,15.538],[-55.768,-42.918,-54.083,-47.49,-45.753,-56.684,-34.334,-32.79,-36.043,-32.132,-51.314,-34.704,-25.008,-18.801,-15.734,-47.675,-4.264,1.416,2.209,15.355,-32.817,-0.205,3.097,5.234,27.657,-37.225,3.387,5.349,7.204,54.165],[-74.417,-40.015,-43.629,-42.646,-46.089,-68.87,-34.59,-35.447,-36.554,-39.011,-67.054,-37.832,-25.156,-25.283,-27.064,-63.104,-5.113,-1.128,-0.776,0.148,-64.129,-8.494,0.947,2.678,1.097,-57.235,0.603,4.289,4.009,4.786],[-80.392,-43.976,-40.596,-48.431,-44.181,-80.173,-38.611,-53.486,-29.347,-37.433,-78.419,-34.707,-34.11,-29.678,-26.035,-76.463,-21.161,1.243,1.411,-1.366,-74.915,-15.001,1.271,1.028,1.767,-66.587,-13.109,1.251,3.44,2.696],[-85.351,-44.749,-36.013,-41.272,-39.599,-86.056,-40.131,-44.572,-42.331,-40.747,-84.94,-39.278,-33.28,-23.183,-20.54,-84.298,-31.236,-8.279,-3.279,-3.315,-80.378,-21.107,-5.256,0.66,1.359,-71.85,-24.938,-2.628,2.275,1.285]],
"ve": [[-31.97,-1.844,-60.255,-7.894,-41.723,-17.508,-0.309,32.256,11.496,181.941,-1.037,-143.418,51.827,-35.671,22.039,50.612,27.748,35.138,-35.674,-336.153,123.283,7.122,27.74,1.968,9.223,254.507,48.985,26.356,33.799,-0.359],[-87.608,-84.674,-50.251,-43.044,-25.967,-57.67,-49.867,-22.576,-24.368,-19.492,-41.615,-25.102,-4.077,-10.455,-8.669,-2.705,2.05,16.096,6.366,1.73,9.877,6.898,44.579,0.471,3.547,31.833,17.302,100.412,8.125,16.381],[-57.091,-94.178,-91.202,-58.939,-46.661,-39.708,-77.5,-52.382,-44.772,-31.904,-38.768,-84.393,-45.947,-23.425,-16.16,-14.483,-1.17,0.258,1.752,17.2,3.066,0.466,0.837,1.213,29.865,22.02,4.208,1.189,-0.883,52.833],[-33.11,-112.335,-99.995,-72.809,-66.5,-20.68,-90.347,-75.651,-62.2,-54.255,-1.48,-108.78,-53.697,-43.773,-40.019,-16.894,-1.387,-3.73,-1.988,0.055,-13.144,-2.669,0.354,0.801,0.273,17.347,0.22,1.892,0.716,1.697],[16.338,-112.923,-112.547,-105.495,-76.855,-32.071,-107.106,-165.538,-63.986,-67.743,-15.536,-99.056,-98.019,-63.165,-46.728,-11.773,-8.223,0.632,0.644,-0.715,2.018,-4.625,0.58,0.554,0.083,64.587,-4.449,0.205,1.738,1.135],[-14.459,-104.618,-104.577,-109.522,-83.567,-26.374,-111.557,-156.225,-113.802,-88.889,-21.955,-88.726,-102.805,-63.643,-42.488,-3.245,-35.349,-8.221,-4.647,-12.841,21.479,-7.08,-2,0.529,0.407,101.965,-9.4,-0.849,0.226,0.607]],
"kep": [[-142.302,-14.014,1.03,-7.623,-3.397,-116.665,0.324,-1.911,-5.936,-12.888,-126.19,-2.063,-2.29,2.703,2.505,-142.011,-8.078,-15.582,-7.428,-0.505,-120.302,-27.829,-17.256,-8.681,-18.26,-113.258,-35.379,-28.773,-17.736,-26.924],[-23.087,-10.991,-148.165,-6.108,-6.777,-28.892,-15.04,-127.441,-8.709,-5.69,-29.753,-16.967,-139.138,0.538,3.113,-18.526,-8.697,-128.929,3.115,-7.179,-26.261,-5.434,-136.68,-17.707,-7.896,-29.117,-4.059,-146.202,-24.06,-17.158],[-45.597,-7.642,-0.646,-7.404,-137.788,-51.453,-4.751,-5.261,-13.186,-137.715,-46.149,-3.934,4.215,-6.261,-136.129,-51.51,-6.746,1.979,-8.167,-157.313,-38.213,-1.825,3.932,5.801,-136.024,-48.543,-1.874,6.504,15.397,-128.624],[-73.201,-7.455,-1.712,-4.306,0.477,-62.237,-8.686,-3.822,-4.291,-4.188,-64.112,-6,-3.863,-2.859,3.529,-59.969,-6.05,0.256,-1.583,0.469,-62.707,-8.456,-0.124,1.99,1.358,-62.041,-0.337,1.387,6.047,3.86],[-80.926,-16.362,-2.459,-2.181,-4.283,-76.891,-12.474,0.876,-2.002,-0.141,-79.161,-11.758,-1.416,-3.168,-1.026,-76.264,-18.094,0.158,0.108,-1.243,-76.28,-13.756,0.776,-0.243,4.014,-75.89,-12.582,0.528,0.805,1.253],[-85.138,-21.519,-7.94,-1.804,-2.386,-85.314,-16.245,-2.829,-2.49,-0.729,-85.316,-17.895,-5.826,1.893,-1.409,-86.309,-20.595,-5.74,-2.188,2.776,-84.448,-18.432,-5.073,-0.777,1.017,-86.156,-21.953,-4.142,2.464,0.506]],
"vp": [[-111.58,-157.526,8.064,30.538,37.693,-22.287,22.387,-7.382,4.05,-25.858,6.112,1.658,5.075,0.828,2.495,-1.247,-2.671,-4.565,-0.81,-0.539,-3.218,-1.988,-2.707,-2.905,-2.283,-2.898,-1.084,-2.9,-0.67,-0.779],[950.157,-148.694,-70.983,93.389,70.183,264.875,38.688,14.522,-43.476,10.593,88.591,12.533,4.402,5.332,9.205,15.014,0.015,-1.116,-2.855,-3.326,7.339,-1.617,-0.948,-1.478,-2.392,2.949,-3.065,-2.479,-0.691,-2.71],[2605.237,517.458,-69.59,237.514,-60.464,574.791,78.5,67.343,32.594,3.263,240.694,5.098,-3.662,3.539,-15.957,52.333,7.809,0.658,-0.631,-1.425,17.068,2.406,-2.082,-3.733,-1.066,12.215,-1.237,-1.909,-3.155,-2.212],[4774.097,931.352,257.023,228.352,-6.808,825.882,178.461,117.719,34.98,41.533,416.486,77.314,41.718,-0.583,-3.378,74.3,7.372,0.487,-0.585,1.307,38.45,7.948,0.388,-2.248,0.49,18.359,0.474,-1.475,-1.378,-2.197],[5842.439,2092.585,506.867,193.239,259.537,1100.62,342.869,-35.95,40.526,8.021,560.379,129.554,35.478,56.752,6.081,105.432,37.619,-2.807,-4.745,8.124,52.067,12.317,-1.176,-0.982,-1.549,24.073,6.893,0.111,-2.344,-1.602],[6498.342,2684.58,1079.683,341.622,518.234,1313.118,421.614,50.13,13.256,31.726,641.054,263.221,70.642,44.15,49.743,130.235,55.32,17.693,7.995,-10.603,62.074,19.846,7.185,-1.86,-0.805,29.236,12.596,3.546,-0.725,-0.774]]
}