{
"KTrans": [[1.379,15.046,-8.318,-3.692,-2.296,-3.851,19.217,14.363,6.651,-3.523,4.943,25.089,19.39,17.465,9.322,32.529,63.443,70.793,81.35,84.445,41.414,75.07,96.523,127.767,139.679,-10.408,-21.689,-7.704,74.694,116.94],[-40.372,-17.065,-1.101,2.233,-3.251,-42.711,-18.08,-1.767,3.784,0.418,-39.14,-17.455,2.228,10.624,5.33,-19.697,8.664,4.137,24.069,30.628,1.477,17.772,-2.454,25.947,46.56,9.939,-4.716,-52.172,12.757,23.016],[-56.997,-28.453,-16.833,-11.925,-3.547,-58.866,-28.862,-15.55,-8.893,-0.98,-55.545,-24.419,-15.813,-9.837,-1.598,-40.167,-0.491,1.421,-4.034,0.859,-42.082,-7.041,6.986,2.114,4.55,-66.684,6.068,0.71,-22.723,-47.406],[-70.699,-37.102,-20.62,-15.68,-12.598,-71.644,-36.968,-17.888,-13.995,-11.101,-64.886,-31.718,-19.296,-10.475,-8.627,-59.994,-13.947,-3.639,5.303,0.958,-49.698,19.35,18.068,26.17,10.093,-38.327,3.636,46.096,28.803,13.171],[-73.25,-43.622,-25.911,-16.298,-13.221,-75.471,-42.857,-22.514,-16.135,-10.597,-74.498,-38.96,-24.066,-13.464,-10.643,-68.072,-27.208,-6.489,3.979,5.041,-51.644,-23.356,3.429,18.466,13.483,-60.225,-23.444,27.8,30.631,36.445],[-80.179,-53.108,-30.182,-20.261,-16.103,-77.357,-45.697,-27.461,-16.814,-11.507,-78.793,-45.176,-25.837,-15.874,-11.324,-73.992,-34.409,-10.915,-4.397,3.273,-76.526,-40.146,0.389,17.665,19.218,-66.428,-33.769,6.923,19.302,33.608]],
"ve": [[-21.161,-38.567,11.483,-28.89,-99.514,29.897,-2.637,-15.207,-6.361,-112.707,-82.388,-300.194,-5.331,-160.238,-80.868,12.912,6.748,-9.292,-59.967,-44.219,120.102,17.181,-4.684,-8.255,-26.815,213.793,80.406,25.897,3.356,-18.435],[69.871,31.91,-2.212,-15.256,-9.848,-44.405,6.692,-24.881,-5.978,-44.507,34.082,-19.985,9.579,-3.467,47.22,72.834,22.257,-233.269,-0.231,-2.607,-447.71,51.515,-421.285,92.658,-28.989,105.81,108.774,60.933,36.613,28.057],[-7.903,-6.512,40.62,96.473,-49.936,-0.092,-11.787,68.479,46.587,1.735,-25.795,11.403,2.426,-16.109,7.323,35.276,11.695,11.072,42.979,9.149,39.449,71.529,40.412,43.798,24.099,204.112,101.522,66.705,51.213,27.43],[-5.945,-1.954,-10.344,-40.484,12.79,85.006,-5.028,-7.925,-6.625,122.383,-12.42,-4.311,-4.735,1.251,-14.453,296.152,19.046,28.572,1.178,7.762,73.411,56.853,29.921,25.822,35.324,216.444,98.797,64.032,53.472,73.554],[-59.213,-10.469,-6.674,-3.666,-2.6,-20.076,5.91,-6.575,-3.979,-2.572,-54.457,-3.454,-6.187,-3.135,-6.311,1.467,4.397,12.159,8.487,27.513,34.922,37.317,32.409,22.002,27.089,196.866,96.393,59.876,45.204,27.431],[21.943,-4.621,-4.077,-5.946,-7.116,-234.928,-4.534,-3.252,-2.755,-2.717,-2.256,3.172,-0.546,-2.289,-2.777,92.226,18.721,29.507,7.142,5.921,97.511,48.272,28.508,21.242,15.444,206.457,96.158,58.498,64.576,35.199]],
"kep": [[-118.98,-102.837,-8.232,-31.887,-5.413,-128.901,-103.924,-36.711,-36.854,-31.3,-132.411,-107.091,-57.979,-21.938,-55.206,-143.336,-206.479,-176.097,-187.618,-190.489,-159.305,-258.235,-358.584,-359.451,-350.818,-166.778,-351.509,-594.62,-644.324,-702.971],[-90.798,-103.842,-121.738,-73.377,-24.422,-91.883,-101.652,-124.604,-83.578,-11.064,-88.855,-105.742,-133.885,-83.4,-33.373,-87.608,-88.435,-164.862,-159.46,-113.118,-88.239,-99.167,-195.661,-235.967,-183.761,-92.021,-122.416,-211.171,-251.171,-343.689],[-86.01,-66.442,-73.877,-112.49,-129.616,-87.406,-69.496,-75.399,-101.156,-137.761,-88.358,-65.755,-76.949,-115.709,-141.119,-84.641,-58.389,-65.743,-125.681,-169.428,-92.7,-78.798,-77.409,-118.474,-181.457,-104.852,-87.177,-101.882,-147.607,-263.634],[-92.046,-65.538,-49.483,-56.969,-79.294,-94.157,-67.18,-50.429,-56.876,-80.784,-88.265,-61.468,-54.926,-51.785,-71.175,-92.849,-58.013,-48.607,-46.388,-69.073,-91.771,-49.139,-44.822,-33.866,-71.09,-91.44,-72.868,-43.583,-62.945,-81.106],[-90.179,-64.34,-49.797,-42.424,-44.355,-92.904,-67.681,-46.505,-39.733,-43.049,-92.327,-62.819,-50.414,-40.939,-41.116,-93.051,-63.144,-42.332,-31.259,-31.941,-86.952,-70.951,-48.885,-33.214,-38.646,-96.873,-80.234,-52.732,-41.634,-36.971],[-93.607,-72.359,-48.481,-39.406,-39.374,-92.308,-66.281,-47.99,-38.951,-35.01,-94.177,-66.835,-46.715,-36.814,-34.14,-95.119,-66.359,-42.897,-36.21,-23.721,-98.755,-77.852,-45.941,-25.915,-23.369,-95.885,-84.398,-56.989,-48.762,-35.268]],
"vp": [[-248.969,-12.75,429.366,485.339,100.927,-40.192,-26.299,-28.36,72.486,-13.707,-50.213,-79.027,89.869,4.294,24.89,-4.332,-17.983,-6.094,-5.1,-11.138,-10.079,-13.877,0.088,-12.084,-25.048,-16.603,-16.962,-8.99,-7.943,-5.233],[2956.348,818.735,65.974,-361.898,257.713,406.406,251.648,-108.882,66.499,-50.893,208.802,152.543,-13.207,-77.071,50.563,27.949,6.648,-4.982,-24.344,1.624,13.992,-17.965,-14.497,-19.024,-18.359,-4.054,-9.389,-13.897,-22.456,-3.525],[4653.504,3387.837,1991.946,716.124,166.79,725.531,639.888,442.333,302.975,-59.792,546.195,356.035,235.186,177.379,-34.749,67.855,27.085,36.473,12.119,-12.393,34.092,21.303,8.712,-4.86,-8.236,25.23,7.056,-1.23,-12.833,-18.615],[6122.389,6515.451,3533.429,1910.105,1017.791,1224.153,1229.317,592.662,479.068,340.669,568.883,598.551,374.505,201.634,125.819,120.148,97.504,49.745,40.948,30.036,43.099,45.906,22.597,-1.14,17.686,2.715,11.368,-5.86,1.264,-9.094],[6173.588,7952.921,5086.139,4035.764,2708.654,1241.242,1459.996,1139.825,623.422,622.804,631.842,732.361,510.517,276.962,219.388,114.417,140.369,90.788,72.226,51.617,20.256,64.199,39.976,23.765,9.135,20.328,21.846,8.24,-14.031,-14.327],[6560.075,9822.539,7924.336,4769.546,2773.331,1419.061,1757.698,1281.29,1031.347,771.605,661.912,952.94,644.428,419.043,334.142,144.406,155.194,123.847,82.674,81.559,48.611,70.972,34.986,49.956,33.216,21.178,32.318,13.433,16.643,16.128]]
}