{
"KTrans": [[-68.538,-63.6,-73.029,-77.323,-89.237,-47.246,-66.968,-81.509,-61.494,-73.701,-35.127,-54.567,-69.757,-67.991,-70.54,32.265,-4.451,-7.402,-25.189,-4.422,107.419,73.446,43.95,45.515,45.172,281.846,185.875,200.166,178.984,196.745],[-56.709,-50.598,-44.878,-61.988,-72.294,-56.944,-41.958,-55.955,-59.343,-71.656,-53.056,-33.185,-40.819,-56.711,-51.929,-33.067,-6.131,-1.056,-23.057,-28.078,-12.392,19.469,35.498,13.678,-3.017,61.347,81.689,77.352,83.501,36.218],[-72.746,-49.795,-41.218,-46.306,-51.589,-69.913,-50.447,-47.007,-36.944,-41.596,-70.086,-50.25,-38.221,-37.098,-39.586,-53.35,-36.866,-25.933,-10.937,-14.69,-44.902,-15.958,-4.214,2.842,15.848,-8.32,17.418,26.94,51.763,46.974],[-78.809,-63.649,-54.359,-50.304,-37.457,-77.649,-57.633,-51.093,-41.699,-40.456,-76.749,-56.87,-45.933,-40.864,-35.567,-68.617,-47.057,-31.7,-25.588,-18.087,-54.595,-35.27,-19.917,-12.827,-3.054,-33.908,-8.402,1.306,19.668,19.875],[-83.779,-67.977,-56.172,-46.953,-46.017,-84.69,-63.758,-51.069,-48.411,-42.014,-81.92,-64.292,-47.572,-44.858,-36.441,-77.218,-57.521,-39.31,-30.357,-27.597,-65.92,-47.503,-34.48,-31.931,-26.067,-46.673,-27.089,-9.825,-1.48,-6.383],[-86.797,-72.155,-58.587,-49.029,-50.17,-85.903,-70.119,-56.256,-45.067,-39.233,-85.848,-68.337,-60.197,-44.287,-41.905,-79.739,-64.209,-49.793,-35.226,-30.391,-69.803,-55.297,-43.714,-33.936,-18.271,-56.739,-31.581,-29.147,-16.147,-17.014]],
"ve": [[-73.716,-146.66,-90.245,-53.115,40.119,3.093,38.336,-27.2,-33.139,-63.69,-46.619,-45.797,105.433,-105.461,-32.241,82.525,-81.791,35.624,-40.184,42.768,97.922,-3.071,-26.239,290.643,-57.105,258.714,98.332,-476.591,-1.63,-28.65],[-18.727,-51.165,-43.018,-107.089,-56.959,-24.775,-53.886,-60.379,-51.537,-55.869,11.662,-23.546,-45.191,-52.671,-34.956,21.434,-94.067,-6.514,-26.013,-32.117,-168.469,57.412,31.511,14.768,-2.615,233.508,127.097,87.229,69.232,80.748],[-43.484,-50.905,-56.483,-31.651,-52.68,196.816,-36.202,-67.648,-28.821,-41.085,11.306,-55.566,-46.015,-36.859,-52.187,57.499,-44.104,0.627,-20.076,-22.81,109.428,35.933,2.363,10.733,12.907,240.664,70.706,59.003,71.543,43.334],[-18.543,-54.542,-82.938,-61.848,-32.144,-13.952,-26.444,-70.59,-64.189,-34.988,10.074,-32.042,-60.953,-46.704,-46.538,87.74,-3.771,-31.324,-29.392,-25.213,1214.807,49.228,-14.541,-7.873,-4.514,451.256,65.408,10.953,48.2,35.338],[91.919,-44.07,-80.112,-11.582,-75.079,0.766,-32.996,-59.918,-62.536,-52.84,-17.36,-28.397,-53.005,-68.763,2.075,65.628,-1.296,-36.95,-37.452,-48.707,141.802,28.758,-23.771,-36.258,-29.977,260.145,83.304,51.981,16.242,-6.031],[51.162,-38.513,-49.878,-69.704,-90.934,16.405,-32.156,-62.648,-130.167,-72.418,-5.097,-39.795,-27.887,-42.89,-67.474,76.544,11.736,-42.274,-36.765,-37.913,172.13,21.494,-19.833,-37.363,-20.01,605.223,146.897,39.77,-1.643,-38.166]],
"kep": [[-106.277,-105.808,-48.026,-30.831,53.776,-129.875,-94.234,-15.064,-67.406,-48.882,-119.984,-81.516,-3.268,-34.499,-14.552,-128.259,-97.161,-55.007,-61.964,-64.884,-110.339,-124.018,-123.939,-106.516,-166.144,-108.366,-138.617,-216.711,-246.019,-237.284],[-97.077,-99.084,-131.624,-118.771,0.277,-90.401,-111.091,-133.838,-61.971,-32.064,-93.627,-101.919,-132.221,-91.75,-11.828,-90.655,-83.893,-121.416,-98.64,-35.498,-89.695,-94.77,-127.582,-119.404,-58.266,-83.883,-82.422,-119.871,-163.893,-85.472],[-96.486,-75.773,-59.299,-103.754,-129.336,-95.674,-71.451,-58.398,-95.196,-130.971,-96.113,-70.397,-62.454,-92.123,-127.676,-99.911,-66.913,-60.746,-83.921,-112.575,-96.121,-78.62,-61.477,-93.44,-132.501,-91.231,-57.143,-57.137,-91.091,-113.498],[-98.341,-75.341,-49.965,-54.328,-68.635,-98.294,-76.964,-48.583,-57.335,-64.808,-98.494,-75.439,-44.109,-56.075,-73.069,-98.588,-71.579,-47.682,-37.116,-58.636,-99.916,-76.235,-50.414,-48.788,-57.724,-95.1,-71.971,-47.553,-53.018,-54.24],[-100.874,-80.076,-45.093,-30.641,-42.29,-99.8,-76.959,-50.175,-40.487,-29.99,-100.028,-82.804,-52.356,-34.53,-27.767,-98.897,-78.968,-51.913,-36.332,-31.618,-98.426,-80.195,-51.921,-40.064,-34.015,-94.696,-79.724,-61.017,-43.329,-48.269],[-100.091,-83.5,-59.207,-34.985,-21.111,-100.075,-80.366,-54.825,-30.908,-29.358,-100.057,-79.602,-63.921,-39.296,-24.105,-100.101,-81.757,-54.749,-40.016,-34.642,-99.669,-84.496,-55.981,-38.712,-29.539,-94.575,-85.101,-71.136,-42.837,-29.623]],
"vp": [[-38.007,-153.785,41.449,134.495,628.618,18.635,10.537,45.951,86.688,-38.436,-40.055,-7.888,42.848,-22.522,54.429,-17.434,-0.893,-14.121,1.963,1.328,-11.95,-6.431,-12.61,-11.874,-23.433,-22.938,-4.661,-21.649,-16.329,-13.713],[2731.824,782.451,500.895,-468.33,321.144,525.668,275.388,-69.582,32.896,-129.751,252.94,131.804,-37.223,-74.332,0.122,47.508,16.213,-5.669,-15.255,-17.559,5.29,4.533,-11.896,-2.621,-26.625,-17.452,-7.752,4.83,-18.14,4.357],[4470.222,3338.833,1880.224,1064.365,-394.797,864.743,743.463,249.323,432.361,-41.828,464.157,309.317,212.336,31.591,10.272,91.483,56.505,12.701,5.832,-29.157,37.447,44.533,21.019,0.779,-8.509,3.644,-12.733,1.626,10.899,-8.31],[5484.233,6844.66,2915.083,1853.645,1643.746,1102.712,1204.405,555.025,548.073,284.189,511.331,559.861,279.967,277.005,183.273,96.934,83.347,47.75,11.074,21.923,52.341,43.716,20.072,4.936,1.157,14.185,-1.266,-6.967,7.916,-13.219],[6631.732,7454.527,4760.024,3094.689,2462.339,1272.693,1587.669,1035.285,639.445,503.382,660.721,759.476,578.283,311.817,247.234,113.178,138.598,61.11,54.403,20.898,53.353,60.209,36.865,21.901,22.141,11.62,25.154,13.262,3.674,9.585],[6975.096,8171.21,6912.794,4734.019,2741.154,1439.571,1678.098,1218.248,937.886,507.887,736.35,817.499,825.67,489.243,363.053,139.616,169.896,108.887,80.774,59.932,67.789,65.82,57.271,30.299,25.963,10.338,18.572,33.154,9.482,-6.568]]
}