{
"KTrans": [[-1.693,13.123,0.111,-10.237,7.17,10.076,10.835,16.488,11.993,-8.888,11.85,13.375,16.875,5.51,12.28,31.299,56.587,74.129,69.627,75.207,-37.352,51.744,60.611,109.602,82.395,-297.932,-37.11,-13.72,-13.396,37.006],[-48.63,-16.719,0.241,5.753,-1.211,-43.677,-14.099,-0.688,4.258,5.749,-37.381,-11.239,5.009,12.793,9.377,-10.934,0.667,6.355,22.558,28.82,-26.512,-32.575,-24.093,7.741,28.732,18.011,18.667,-64.955,-43.1,-9.531],[-60.063,-28.844,-15.087,-9.849,-4.09,-53.631,-29.187,-11.285,-6.322,0.962,-58.61,-22.062,-10.904,-8.82,0.152,-54.658,-8.839,-0.373,-0.617,-10.053,-30.328,-14.224,8.37,-32.83,-19.664,-115.248,-88.581,-41.413,-34.427,-40.569],[-71.321,-31.868,-19.721,-14.715,-12.571,-65.598,-31.557,-19.58,-10.967,-10.215,-65.748,-30.637,-14.893,-13.609,-10.118,-67.38,-16.115,-4.163,2.165,-5.045,-65.726,-26.633,-9.291,2.251,-2.25,-91.769,-62.302,12.272,11.916,1.863],[-70.719,-43.181,-22.828,-14.922,-8.392,-79.073,-47.168,-23.747,-16.046,-8.133,-73.289,-36.414,-19.786,-15.621,-9.328,-70.789,-40.562,-9.604,10.525,-11,-61.649,-26.698,-5.439,4.581,-10.719,-44.407,-48.543,20.207,-20.941,0.158],[-83.377,-48.436,-27.248,-18.463,-13.042,-80.147,-49.388,-24.47,-19.773,-8.925,-79.743,-46.948,-21.024,-15.028,-8.754,-74.572,-44.423,-14.895,-1.484,-0.593,-74.925,-45.992,-29.001,-14.482,9.934,-69.318,-43.678,11.108,-22.546,-14.31]],
"ve": [[-54.733,-469.21,-44.335,-189.601,-78.463,21.003,-2.202,-79.208,-51.785,-67.772,-19.422,-34.93,-156.385,64.006,-113.335,48.613,-15.444,-24.544,-75.503,-27.555,90.196,52.962,21.296,-78.789,-36.458,416.367,72.635,23.404,-3.352,-0.66],[-17.546,-22.541,13.473,-31.927,-71.146,58.063,26.309,9.486,-56.605,-12.248,44.244,2.496,2.625,-38.919,-148.875,719.972,10.57,15.656,-1.125,1.362,102.997,85.768,48.775,13.84,4.417,175.109,94.574,69.804,52.422,23.469],[9.98,-25.912,-10.835,41.434,7.175,0.658,-6.797,-5.12,5.146,1.847,10.461,-3.539,0.238,17.608,11.377,65.769,13.305,259.883,-4.339,6.401,92.065,45.373,27.473,26.513,20.482,177.25,96.959,83.858,41.486,36.874],[17.104,-12.835,-6.862,0.135,-5.056,6.321,-13.687,-5.483,21.547,-6.007,-42.494,-18.654,-27.775,16.033,1.646,40.929,32.933,14.942,25.721,3.549,95.23,30.805,37.148,22.258,16.039,189.323,97.586,60.801,37.216,31.421],[-37.612,-11.318,-7.385,5.666,-3.629,-44.819,11.411,-6.259,-1.109,12.813,55.988,-9.042,-8.799,-37.236,-10.225,28.732,20.522,12.231,10.627,9.041,71.194,47.508,27.955,25.41,25.448,183.163,90.565,65.839,46.103,39.227],[-11.922,-8.695,17.043,-4.852,-7.575,19.204,-12.253,-1.801,-11.425,-7.209,11.638,8.55,-2.992,-1.883,-4.005,53.574,15.334,6.855,16.573,7.694,90.744,34.328,30.38,21.594,17.753,765.544,96.043,63.56,53.034,40.962]],
"kep": [[-114.402,-130.644,-68.091,-24.39,-66.131,-111.948,-99.705,-90.191,-70.735,14.56,-130.287,-94.486,-73.007,-19.457,-67.956,-146.124,-169.771,-179.43,-194.754,-160.512,-165.237,-262.552,-313.159,-339.666,-476.772,-184.533,-296.924,-437.348,-576.891,-623.313],[-97.04,-105.752,-110.894,-98.831,-19.127,-91.869,-99.586,-119.135,-85.657,-31.517,-92.709,-100.444,-125.459,-100.533,-51.026,-82.405,-89.482,-154.991,-130.666,-161.248,-91.972,-118.95,-193.423,-218.312,-197.815,-80.148,-82.303,-163.898,-251.025,-292.718],[-90.543,-69.703,-74.986,-106.333,-115.931,-87.711,-71.619,-73.691,-99.284,-128.555,-91.098,-65.375,-68.028,-113.433,-127.118,-92.874,-66.208,-67.609,-108.54,-176.254,-83.602,-75.931,-68.403,-149.72,-189.061,-98.678,-97.052,-105.835,-104.673,-185.831],[-92.776,-59.988,-51.472,-55.111,-78.968,-90.65,-62.503,-50.356,-55.914,-72.956,-91.239,-60.529,-47.092,-56.984,-76.594,-95.551,-60.738,-54.716,-51.663,-82.89,-93.121,-74.503,-63.294,-58.488,-77.146,-94.692,-89.86,-54.713,-55.811,-78.107],[-89.98,-67.36,-45.654,-40.9,-41.042,-97.329,-72.359,-46.824,-43.694,-33.703,-93.646,-63.752,-43.42,-46.982,-41.797,-92.983,-75.139,-47.139,-25.981,-63.621,-92.894,-68.194,-53.345,-42.68,-67.776,-87.322,-78.453,-47.462,-67.549,-56.88],[-96.325,-69.825,-49.923,-35.942,-34.093,-95.49,-71.102,-43.731,-36.846,-30.251,-95.455,-69.379,-43.436,-35.86,-30.332,-94.901,-75.521,-47.074,-31.815,-30.202,-95.666,-77.111,-67.103,-55.907,-27.516,-91.979,-77.661,-52.846,-65.306,-74.697]],
"vp": [[27.921,-271.264,626.072,363.366,-54.752,33.752,-21.374,94.805,-3.331,223.939,29.363,22.159,-17.106,60.497,60.245,-17.695,-17.854,-11.698,7.557,-5.718,-16.729,-29.705,-18.052,-29.997,12.195,-17.575,-11.23,-13.072,-0.296,-14.957],[2275.52,1396.263,-47.422,486.816,-319.099,565.462,177.749,-127.01,5.254,126.539,242.444,78.853,-53.091,-0.385,-13.008,27.335,5.986,-37.933,-26.311,-2.331,10.831,0.569,-2.852,-13.097,-20.22,-14.703,-26.771,-5.411,4.273,-4.137],[3879.513,3687.257,1825.367,1112.539,-600.423,847.884,753.222,407.447,45.448,-47.763,415.319,313.423,193.716,66.917,48.221,92.275,36.7,23.924,-7.962,8.599,23.094,11.72,-17.703,15.97,9.838,-3.98,-14.74,-6.388,-4.209,-9.868],[5125.505,5249.701,3405.912,2806.529,1337.719,1104.263,1227.649,761.737,689.561,383.033,512.146,590.291,401.734,272.562,127.369,99.952,73.247,77.368,29.63,11.749,39.671,37.879,19.263,-10.807,-12.106,11.798,-9.277,0.576,-24.169,-26.957],[6051.333,7407.286,5613.808,4168.866,2217.18,1310.861,1533.292,1038.956,576.798,591.513,636.592,751.295,521.988,313.241,258.412,83.46,149.416,75.434,68.082,67.926,34.56,51.498,40.838,15.609,17.746,-20.891,-7.609,3.155,-9.528,-20.258],[5932.107,8026.608,8118.956,5693.214,3463.885,1440.608,1649.337,1413.338,1037.343,959.058,617.252,939.802,790.81,454.542,392.303,98.902,164.04,124.226,125.369,72.364,47.724,41.493,54.152,36.72,14.517,-3.992,4.153,7.543,8.572,13.182]]
}