{
"KTrans": [[-44.371,-5.63,-5.778,-5.958,2.568,-40.253,-5.12,-10.511,-6.71,2.789,-35.32,-7.927,-10.099,1.369,1.021,-32.114,-5.503,-3.712,-1.122,0.34,-47.744,-13.724,7.455,-5.801,5.303,-35.102,8.451,-1.507,-1.216,-2.236],[-86.429,-41.292,-20.59,-16.556,-12.876,-87.578,-40.431,-20.231,-14.635,-11.608,-90.435,-49.335,-22.027,-17.95,-10.956,-86.602,-45.763,-10.668,-17.752,-11.599,-88.411,-59.747,-15.43,-10.853,-12.535,-86.26,-48.034,-25.71,-19.957,-5.269],[-94.609,-73.555,-40.105,-25.876,-20.945,-93.173,-72.624,-43.854,-23.614,-20.879,-93.939,-80.738,-50.509,-13.296,-18.713,-94.508,-73.768,-35.078,-19.954,-18.11,-96.163,-72.622,-40.706,-21.006,-12.834,-95.366,-66.8,-38.065,-22.734,-17.449],[-97.358,-86.12,-72.917,-44.546,-29.471,-99.283,-87.354,-71.598,-32.768,-22.594,-99.258,-84.983,-62.856,-40.228,-24.823,-96.222,-87.396,-66.723,-37.672,-25.89,-97.937,-83.117,-63.006,-42.235,-24.582,-97.572,-84.895,-62.583,-48.801,-26.293],[-100.015,-85.347,-76.592,-54.79,-33.968,-99.427,-89.143,-75.43,-37.008,-34.854,-98.866,-88.376,-85.454,-51.146,-39.925,-101.751,-88.612,-72.886,-54.274,-37.062,-99.341,-87.722,-73.166,-56.193,-42.191,-97.985,-87.303,-74.379,-50,-40.176],[-101.905,-94.38,-87.517,-72.286,-54.643,-100.343,-92.471,-83.177,-77.437,-47.618,-99.636,-95.082,-76.399,-64.147,-58.483,-102.048,-94.859,-85.08,-55.848,-47.365,-98.406,-93.603,-82.767,-70.622,-50.718,-100.327,-92.102,-87.15,-74.423,-47.833]],
"ve": [[-13.074,-140.171,105.774,-81.269,-122.71,-7.678,131.534,208.069,-210.509,-82.1,-12.401,-11.322,367.469,27.392,-89.391,-10.529,9.087,74.637,-22.31,83.42,-27.982,246.664,23.449,-32.613,39.29,13.2,17.98,1.22,158.668,36.491],[-71.5,-25.649,-15.173,-8.102,-4.081,-63.85,-19.303,-12.031,-7.708,-6.605,-26.787,-30.367,-12.312,-9.113,-3.619,-50.679,-29.021,-9.897,-6.912,-5.237,-69.149,-36.47,-8.557,-6.869,-2.183,-232.971,-28.09,-13.566,-4.679,-3.185],[-84.283,-28.858,-29.984,-19.636,-13.121,-84.51,-57.908,-32.558,-18.606,-13.101,-77.787,-59.252,-33.85,-14.319,-14.163,-115.03,-68.368,-28.476,-18.77,-15.252,-106.81,-54.634,-27.296,-19.749,-12.705,-67.52,-48.083,-183.263,-19.781,-15.424],[-81.443,-76.47,-57.213,-33.923,-24.242,-108.849,-87.512,-55.721,-26.783,-23.5,-99.303,-68.685,-52.842,-33.975,-23.239,2391.752,7.583,-50.694,-29.118,-24.791,-131.144,-65.692,-55.457,-33.781,-21.23,-93.07,-67.542,-48.119,-33.052,-22.642],[-101.245,-69.262,-61.267,-43.651,-32.996,-93.312,-76.07,-65.368,-30.644,-33.151,-93.789,-81.006,-70.413,-41.637,-32.556,-111.922,-76.221,-50.834,-43.548,-30.278,-101.96,-78.279,-58.847,-42.45,-36.901,-90.057,-85.163,-69.046,-45.797,-34.463],[-115.491,-88.145,-78.596,-56.009,-45.076,-112.986,-65.271,-73.848,-58.316,-44.75,-127.113,-90.222,-62.727,-52.707,-49.003,-103.099,-90.239,-48.884,-52.677,-39.242,-89.151,-82.458,-63.612,-57.657,-39.421,42.438,-76.666,-72.362,-58.522,-39.181]],
"kep": [[-53.742,-7.608,-14.679,-23.613,-10.409,-42.937,-12.982,-18.699,-19.887,1.39,-41.829,-11.167,-25.594,-2.056,-2.566,-38.994,-8.612,-7.301,-12.779,-4.83,-57.455,-20.916,3.008,-16.455,3.077,-38.426,3.517,-0.606,-10.716,-12.824],[-87.88,-30.676,-8.086,-8.672,-8.029,-91.971,-25.383,-10.164,-6.559,-4.469,-91.817,-33.159,-11.2,-9.302,-6.946,-88.133,-30.17,-1.953,-11.478,-6.324,-91.798,-43.448,-7.905,-4.607,-9.531,-89.428,-38.614,-14.605,-15.977,-1.524],[-95.381,-74.749,-18.611,-9.417,-8.972,-91.092,-75.158,-17.103,-7.548,-8.941,-92.553,-80.952,-30.992,-2.14,-6.378,-90.323,-68.79,-14.087,-3.473,-3.895,-93.742,-72.404,-22.822,-1.871,-0.898,-95.697,-67.004,-20.984,-4.635,-2.754],[-91.94,-87.378,-64.999,-15.765,-6.647,-96.063,-86.72,-56.181,-12.773,0.393,-95.903,-83.347,-49.867,-10.713,-3.25,-92.69,-84.961,-50.938,-13.463,-1.989,-93.481,-84.854,-55.321,-16.309,-4.475,-91.566,-89.646,-50.54,-25.507,-4.502],[-94.6,-83.632,-72.653,-36.035,-3.63,-93.599,-85.866,-76.338,-32.683,-4.215,-94.848,-87.196,-81.917,-29.364,-11.764,-94.073,-88.615,-76.67,-32.05,-10.565,-94.747,-84.802,-71.596,-40.716,-9.143,-96.673,-86.582,-75.132,-29.515,-10.339],[-96.446,-88.515,-88.06,-65.376,-27.456,-95.074,-84.934,-84.83,-67.315,-21.794,-95.17,-90.011,-76.681,-53.977,-29.088,-95.054,-88.51,-85.351,-58.425,-22.632,-95.868,-87.37,-82.983,-60.014,-30.796,-97.166,-86.389,-88.987,-65.903,-26.356]],
"vp": [[2790.3,2131.728,1867.563,1190.2,1575.256,613.149,375.187,380.846,359.248,227.544,305.133,175.316,233.587,140.029,218.96,36.692,28.95,41.37,30.874,26.035,31.111,24.076,16.611,14.583,16.098,9.552,4.175,7.392,13.847,9.525],[7029.271,8083.027,5645.209,5506.846,4947.267,1307.994,1372.369,1058.342,1195.046,1401.699,777.732,768.874,503.117,561.891,490.19,129.67,133.482,94.907,112.095,106.409,76.091,88.536,48.749,54.172,40.871,37.481,31.606,25.115,16.277,26.077],[8395.237,10539.168,10022.399,9474.021,8864.256,1641.792,2437.759,2247.42,1553.57,1490.039,782.336,1250.395,1151.159,733.704,783.138,169.626,243.212,190.924,192.445,211.549,86.55,112.644,103.968,94.819,86.278,45.458,58.531,45.872,51.481,47.791],[9251.026,14673.395,18082.193,14927.806,13870.368,1942.364,3022.928,3930.098,2286.249,2839.276,1022.023,1369.469,1663.111,1566.088,1325.897,189.574,325.138,330.512,259.823,282.621,89.422,138.124,181.267,163.129,126.901,49.277,77.944,81.078,70.926,63.894],[10380.375,14089.453,19576.498,19243.759,19300.102,1919.58,3094.688,3819.763,3182.73,3889.859,998.074,1657.996,2381.734,1803.791,1859.062,215.041,318.813,402.146,375.802,328.391,99.69,159.475,176.109,190.963,216.792,46.43,78.9,100.881,94.736,101.306],[12362.512,18246.868,24802.238,23801.149,24403.335,2066.723,3316.728,4819.533,4939.483,4480.302,1073.353,1911.114,1864.089,2215.983,2671.985,230.527,379.582,451.062,445.752,436.431,89.487,164.373,225.625,237.792,212.096,54.143,82.355,123.674,126.9,102.598]]
}