{
"KTrans": [[-1.917,22.649,-20.345,-15.833,-9.355,2.401,-4.471,-9.094,-2.762,-5.774,19.018,40.883,16.684,4.726,9.625,23.632,29.805,49.918,58.568,57.905,102.268,-7.079,45.219,53.531,79.943,141.347,-30.523,124.7,9.407,-50.725],[-46,-19.233,-2.596,-2.517,-7.551,-44.719,-12.391,-3.787,0.369,-3.455,-42.011,-15.794,4.352,8.085,9.651,-39.934,-12.512,-5.566,17.36,24.62,-32.361,25.781,-3.307,27.685,20.159,-83.274,-0.967,16.274,-22.477,42.392],[-61.001,-35.454,-16.913,-12.311,-4.804,-59.029,-32.77,-15.131,-11.402,0.327,-57.909,-31.352,-12.663,-4.879,-0.807,-58.146,-24.592,-20.101,3.305,2.264,-55.21,-19.113,-37.934,13.786,3.525,-78.946,34.88,8.96,16.366,-7.147],[-70.594,-41.976,-24.816,-14.528,-14.883,-69.612,-44.849,-24.264,-14.983,-14.621,-71.518,-38.77,-20.297,-12.702,-10.147,-67.62,-28.302,-20.978,-12.584,2.331,-48.782,-31.043,-21.339,-9.01,-11.564,-59.167,-25.787,-13.255,-1.243,-28.54],[-83.896,-50.097,-31.422,-19.254,-12.794,-77.725,-48.23,-32.993,-16.573,-18.383,-75.015,-49.036,-27.011,-18.512,-11.372,-76.305,-49.817,-14.166,-11.21,-10.956,-76.273,-31.247,-46.988,-2.265,-19.187,-58.567,-53.869,-2.711,-0.338,-24.403],[-83.286,-52.86,-42.682,-23.337,-19.114,-80.872,-55.804,-36.505,-25.113,-16.227,-78.781,-58.483,-33.907,-23.719,-16.133,-76.623,-54.046,-33.428,-20.719,-11.499,-75.304,-63.704,-35.22,-33.057,-10.099,-105.543,-69.249,-31.834,2.282,-22.985]],
"ve": [[58.978,-215.508,0.502,-24.846,-62.173,34.258,-136.991,-19.04,4.47,-48.769,-1973.417,-18.207,-20.937,-111.117,-82.49,48.757,-6.519,-34.114,-35.599,-50,90.307,15.967,-7.213,29.31,-40.439,188.407,70.01,27.151,-16.25,-1.786],[10.913,4.298,7.523,-27.218,-40.221,61.35,0.316,58.338,-20.365,24.035,18.709,63.566,61.416,170.354,-44.829,22.151,-369.528,15.443,3.811,-11.844,84.923,45.04,60.366,12.656,0.01,455.778,97.901,53.575,38.194,26.325],[-13.397,4.732,7.959,-52.684,0.066,18.745,14.495,3.216,3.388,-18.772,97.538,20.37,-12.993,13.249,7.743,42.12,-20.946,99.051,21.368,-35.348,83.574,35.105,41.921,37.246,32.629,-85.638,112.274,74.202,67.698,40.107],[-4.107,-27.185,43.835,-13.698,14.105,-17.523,6.546,1.753,3.034,1.692,-4.99,1.576,41.241,-10.606,0.392,26.007,18.279,12.699,29.425,137.301,92.247,-49.821,24.929,39.561,29.056,201.784,79.025,90.278,51.819,39.297],[6.29,-24.583,-45.197,21.403,2.862,-49.104,-83.676,-12.257,-17.323,144.091,-49.059,-27.553,-1.857,-43.726,-2.896,56.096,3.242,-53.062,-3.279,10.875,136.148,50.244,31.88,11.382,31.949,165.91,123.591,64.648,44.622,43.99],[38.739,5.858,-13.196,-4.185,16.516,1.063,-24.354,-4.706,-8.65,-17.835,104.267,-3.419,-3.819,37.366,-4.588,183.024,19.259,9.434,1.581,-6.689,73.859,32.434,22.031,11.886,22.589,166.787,74.548,66.174,34.347,39.913]],
"kep": [[-111.878,-123.103,-41.037,-9.851,-40.282,-116.769,-66.265,-26.985,-71.951,-70.267,-109.367,-138.54,-111.329,-86.798,-61.119,-137.756,-194.332,-164.996,-186.173,-209.259,-110.094,-250.996,-243.055,-356.146,-368.142,-74.297,-230.343,-268.582,-444.825,-631.02],[-96.607,-107.75,-105.552,-91.978,-34.48,-98.094,-105.646,-106.132,-96.89,-25.998,-100.647,-99.544,-106.722,-98.893,-57.424,-101.092,-109.605,-136.608,-141.571,-113.684,-100.557,-82.664,-164.704,-146.574,-202.243,-97.548,-82.538,-103.23,-192.268,-208.407],[-94.305,-82.644,-83.223,-103.367,-102.482,-95.774,-80.294,-74.021,-117.147,-105.566,-93.463,-87.827,-89.666,-101.485,-122.727,-94.782,-86.875,-103.371,-102.259,-157.886,-93.563,-83.175,-114.336,-80.844,-138.86,-96.471,-64.831,-74.852,-84.006,-149.72],[-94.631,-80.838,-66.612,-67.303,-93.157,-94.891,-80.798,-73.116,-74.93,-102.154,-98.543,-78.913,-61.373,-65.309,-85.981,-95.21,-74.105,-74.925,-75.944,-76.536,-91.4,-78.347,-75.736,-70.304,-100.544,-91.306,-74.631,-73.281,-59.943,-96.26],[-99.553,-82.642,-61.053,-54.487,-58.204,-96.24,-80.006,-65.485,-49.448,-61.354,-95.51,-82.501,-61.486,-55.02,-57.948,-97.47,-83.556,-55.65,-59.088,-69.342,-97.727,-74.132,-78.793,-52.429,-78.861,-93.477,-83.255,-56.39,-50.818,-76.097],[-98.678,-80.049,-67.285,-51.019,-51.552,-97.246,-82.928,-63.455,-51.364,-45.151,-96.615,-85.386,-65.721,-53.122,-47.454,-96.379,-81.499,-69.222,-62.698,-48.945,-96.496,-90.216,-72.075,-74.631,-50.577,-97.2,-87.003,-76.747,-49.794,-70.288]],
"vp": [[-260.487,42.903,780.459,-352.539,1500.352,-137.626,-93.346,-25.834,105.988,140.748,-54.224,-28.635,-5.237,80.1,36.564,-7.803,-11.769,-6.054,-23.754,-23.494,-24.676,-7.479,-22.497,-5.806,-10.931,-40.931,-37.327,-40.889,-24.596,-15.98],[1994.27,666.497,409.548,-1095.852,-453.747,440.507,108.493,-74.015,-180.503,-100.751,236.749,182.35,-89.773,-80.584,-11.927,37.419,-12.235,-26.847,-41.036,-1.612,-8.76,-40.944,-41.011,-50.599,-5.988,-13.143,-44.914,-42.938,-24.373,-25.687],[3845.946,2996.189,1859.046,215.58,452.771,719.934,786.56,98.527,232.472,-6.355,293.085,243.821,252.619,101.936,-7.199,60.955,22.408,37.915,-19.716,-6.112,21.788,-26.957,-0.506,-47.053,-33.832,-6.548,-48.399,-43.777,-49.384,-37.168],[3931.486,5801.493,4478.459,2387.249,2515.628,1032.039,1326.274,1089.642,532.876,126.057,393.708,518.743,510.724,192.79,93.519,84.196,79.788,55.773,43.583,-0.754,16.081,31.901,14.645,-11.177,-5.34,-0.054,5.084,-8.353,-25.854,-21.595],[5891.644,6639.024,6237.393,4940.644,3481.869,1020.857,1706.122,1289.426,858.053,695.355,521.1,698.073,594.579,558.466,413.472,105.46,115.608,85.846,63.615,48.578,30.981,41.798,43.663,-4.887,5.516,-13.986,11.643,-17.598,-35.308,-8.905],[6249.323,8859.98,6157.808,5032.81,5464.709,1276.421,2034.068,1956.844,1531.128,969.272,524.695,932.717,856.378,651.419,408.989,100.411,106.948,125.133,123.405,70.146,3.735,54.718,18.803,44.208,27.52,1.78,4.502,-18.029,-13.536,-15.777]]
}