{
"KTrans": [[-33.868,-44.002,-39.454,-44.655,-42.648,-0.558,-9.853,-12.481,-10.626,-12.283,12.822,-0.628,-2.066,-1.214,-2.128,62.067,3.823,-6.365,8.422,-1.558,56.423,29.814,29.735,19.613,27.814,186.81,100.78,78.032,108.296,86.367],[-45.459,-41.728,-37.086,-52.781,-44.782,-24.293,-15.363,-7.225,-16.836,-14.95,-15.232,-2.187,4.52,-0.67,-3.146,1.414,3.933,18.14,-0.328,-1.71,3.784,4.64,19.382,-0.047,0.009,24.712,19.905,49.001,11.234,5.991],[-36.88,-45.367,-41.434,-42.802,-30.902,-21.856,-25.534,-24.85,-14.503,-11.115,-20.073,-11.473,-7.575,-5.075,2.548,-6.187,1.877,0.519,1.228,8.12,-11.055,0.727,1.453,2.281,11.869,-11.753,7.093,10.054,11.477,9.19],[-39.718,-41.044,-39.403,-46.897,-51.554,-35.99,-27.233,-29.671,-23.168,-12.765,-27.617,-12.672,-9.346,-5.899,-3.36,-26.056,0.519,-1.408,0.118,0.802,-30.42,4.48,2.62,2.128,2.021,-27.23,9.053,5.477,0.513,2.797],[-50.89,-35.529,-45.976,-42.334,-42.105,-51.881,-30.529,-20.714,-20.659,-17.967,-51.605,-15.329,-10.696,-8.618,-5.577,-47.198,-1.325,-1.373,0.427,0.083,-42.89,3.741,-0.386,2.432,1.762,-28.749,10.578,4.5,3.495,1.369],[-62.491,-38.316,-32.757,-39.848,-44.954,-62.222,-30.622,-32.202,-20.119,-26.213,-63.303,-24.211,-13.664,-14.643,-6.38,-63.129,-0.584,-0.758,-0.366,-0.174,-54.884,-2.621,-1.558,1.427,1.663,-39.339,3.662,6.137,3.552,2.062]],
"ve": [[-34.943,-19.076,-11.219,-7.516,-5.144,0.049,-3.314,-1.028,2.543,4.422,12.434,2.082,2.623,1.791,3.929,61.642,-0.243,-12.41,12.98,6.148,46.226,23.927,25.89,18.119,21.704,162.493,66.72,-40.642,48.875,46.652],[-128.067,-63.806,-36.987,-39.012,-26.445,-69.273,-23.136,-7.615,-12.043,-9.059,-38.033,-3.511,5.406,-0.337,-1.541,-0.325,1.649,16.944,0.151,-0.568,1.374,2.176,14.633,0.652,0.509,16.626,15.612,35.141,44.972,6.364],[-124.222,-113.887,-68.823,-53.737,-30.125,-50.272,-63.445,-42.305,-18.474,-9.7,-37.774,-31.176,-13.022,-6.743,1.987,-2.031,0.967,-0.042,0.294,9.021,-5.117,0.539,0.228,0.706,10.746,4.817,2.817,3.713,6,5.206],[-100.125,-137.833,-89.974,-82.238,-72.566,-60.477,-87.73,-69.279,-40.389,-17.739,-30.778,-37.061,-20.68,-9.903,-4.602,-12.151,0.541,-0.579,0.039,0.272,-11.244,1.926,0.83,0.978,0.475,24.216,1.575,1.001,-0.519,-0.202],[-67.56,-139.512,-135.263,-94.99,-76.042,-42.628,-119.693,-58.597,-47.212,-31.909,-54.763,-61.92,-26.708,-19.013,-9.688,-24.053,-1.786,-0.725,-0.042,-0.039,-11.619,2.358,-0.212,1.091,0.762,83.482,3.264,1.926,1.198,0.344],[-62.759,-174.926,-111.869,-108.772,-98.745,-46.099,-133.188,-113.596,-52.046,-56.994,-34.292,-105.829,-37.442,-38.381,-13.993,-33.822,-0.047,-0.353,-0.377,-0.223,0.214,-3.047,-1.03,0.666,0.572,167.637,2.92,3.422,1.02,0.552]],
"kep": [[-130.801,-2.339,-1.407,-1.825,-0.256,-121.426,1.652,-1.087,-3.625,-2.872,-120.476,-5.455,-2.333,1.889,-1.076,-122.964,-6.819,0.192,-11.319,-1.113,-2.544,-18.482,-11.62,-1.885,-10.603,38.258,-36.996,-12.017,-27.271,-8.484],[-3.34,1.793,-134.204,1.616,0.371,-2.382,-1.481,-134.704,4.777,-1.643,-3.653,-0.632,-139.826,-3.179,-1.335,1.371,3.794,-100.513,-3.927,0.567,1.078,3.059,-22.925,-11.74,-7.134,0.888,4.379,33.828,-24.764,-10.762],[-10.023,0.796,-0.846,-0.778,-112.802,-9.176,-0.386,-0.18,-1.671,-113.427,-10.372,1.261,-0.21,-0.27,-141.016,-5.816,0.28,1.745,2.869,-77.943,-9.651,-0.507,1.407,4.439,-35.322,-22.591,2.895,9.028,4.602,35.334],[-17.525,-1.093,-1.109,0.1,-0.625,-20.376,-2.269,-0.087,-0.079,-0.367,-16.106,-2.006,-1.085,-0.882,-0.362,-20.272,-0.428,-1.633,-0.022,1.243,-28.085,2.648,2.514,1.651,4.741,-39.385,6.915,5.263,1.21,7.758],[-34.095,-2.982,-0.783,-0.004,0.352,-37.515,-3.301,-0.681,0.499,-0.035,-35.833,-0.263,-2.197,-0.776,-0.464,-35.227,0.526,-1.383,0.61,0.028,-39.493,0.703,-0.305,1.983,1.475,-56.103,6.083,2.335,2.605,1.261],[-44.799,-5.186,-1.49,-0.196,-0.116,-45.175,-4.484,-0.896,-0.684,-0.464,-49.625,-3.776,-3.124,-1.005,0.47,-48.18,-0.742,-0.781,-0.204,-0.071,-53.872,-0.49,-0.961,1.031,1.785,-70.63,-0.69,2.121,2.874,1.968]],
"vp": [[30.592,-4.934,9.088,-37.288,6.353,-3.175,-0.068,0.242,-7.243,-7.292,-1.924,-7.496,8.301,-2.008,-1.248,-0.243,-4.251,3.57,-6.509,-0.89,-4.062,-3.383,-3.602,0.691,-0.699,-0.99,-3.204,2.179,-3.511,2.072],[156.333,-14.762,6.683,-17.615,-49.965,7.071,4.11,-6.834,0.664,-23.749,13.148,3.326,1.449,-5.009,-1.833,2.272,-5.871,-4.366,-0.362,1.446,-0.155,-2.283,-5.192,-2.773,-3.03,-4.788,-1.663,-8.394,-3.493,-1.931],[607.953,36.682,23.682,5.017,3.006,131.497,13.417,-18.166,-0.083,-2.14,68.741,-4.239,4.497,0.234,2.292,4.645,-3.564,0.879,-2.13,-5.053,7.044,-0.275,0.16,-1.419,-3.588,3.411,-2.415,-5.99,-3.946,-2.728],[1422.929,175.526,157.326,-50.379,-75.915,299.758,32.29,3.099,8.707,14.327,132.236,20.976,6.643,13.732,8.217,26.878,-1.954,4.859,0.98,-1.697,18.031,-4.19,-2.973,-3.508,-3.256,14.293,-1.164,-1.879,2.389,-0.621],[2454.526,528.877,101.165,73.116,7.805,549.668,87.886,59.242,-1.703,20.677,272.641,33.05,22.808,-3.274,3.969,55.8,7.796,4.964,0.572,0.233,24.137,-4.385,0.951,-4.876,-3.698,14.678,-2.663,-2.698,-2.568,-0.238],[3520.224,561.517,357.724,119.058,28.213,731.358,131.392,34.416,55.365,22.783,390.095,51.804,49.978,9.572,7.213,81.966,0.504,1.823,3.443,2.106,36.594,7.089,3.917,-2.996,-3.161,25.311,-2.643,-5.269,-2.391,-1.563]]
}