{
"KTrans": [[-49.805,-65.025,-72.826,-79.458,-79.636,-49.466,-77.754,-71.503,-66.515,-69.475,-28.881,-54.477,-70.429,-65.594,-66.827,43.653,1.398,10.225,-11.276,3.157,129.416,58.956,55.587,61.17,45.287,269.415,186.58,156.678,159.997,159.479],[-58.448,-43.971,-54.616,-57.274,-71.756,-54.545,-46.508,-46.17,-61.867,-60.588,-52.383,-41.991,-30.395,-44.647,-54.433,-33.025,-2.992,11.827,-3.023,-21.68,-6.03,19.891,47.113,22.434,8.962,63.873,78.541,63.931,56.165,48.624],[-70.408,-50.459,-42.038,-38.964,-45.796,-71.677,-48.854,-39.434,-31.358,-58.025,-66.065,-43.575,-37.777,-27.169,-36.595,-56.605,-32.178,-14.331,-8.555,0.801,-45.878,-16.999,-1.373,5.099,17.978,-7.244,24.169,37.938,46.322,49.228],[-77.866,-55.837,-45.911,-44.902,-45.714,-76.763,-59.669,-48.716,-37.003,-45.346,-74.828,-57.4,-43.88,-36.265,-38.436,-65.876,-42.648,-27.906,-17.616,-15.662,-54.28,-33.704,-14.114,-13.316,-6.626,-30.43,-1.985,-1.303,19.18,20.452],[-81.864,-64.751,-52.046,-49.276,-49.834,-81.772,-65.063,-48.991,-48.61,-41.744,-81.09,-61.654,-43.536,-42.605,-32.104,-75.626,-57.44,-36.541,-25.727,-21.76,-65.153,-43.98,-29.622,-22.758,-16.396,-49.407,-28.682,-7.129,-2.785,-1.377],[-86.372,-71.367,-52.332,-40.687,-41.754,-85.541,-68.407,-52.078,-49.377,-43.822,-85.896,-69.062,-49.247,-40.666,-43.803,-80.54,-61.377,-42.605,-30.795,-30.528,-72.457,-58.801,-43.391,-29.135,-21.3,-56.949,-42.397,-13.035,-9.99,0.829]],
"ve": [[-72.629,-26.76,-80.91,-15.931,-32.387,-34.69,-20.114,3574.97,-37.412,-70.372,-77.198,-37.083,-202.484,130.421,-98.404,-1.592,8.046,-24.715,6.19,-4.573,113.831,56.926,13.676,-59.511,-81.659,236.2,-14.702,-605.41,-0.46,-19.414],[-1203.604,-33.95,-44.134,-27.079,-27.793,-188.803,-49.548,-47.694,-46.621,-35.319,-30.435,-51.728,-28.71,-33.204,-43.831,132.031,18.882,7.029,-31.947,-30.12,96.058,46.323,42.462,-15.74,18.937,280.024,102.41,53.986,45.727,5.056],[-2.997,-51.613,-64.716,248.593,-48.224,-33.04,-25.659,-58.073,19.867,-55.725,-0.068,-46.052,-52.585,-63.192,-37.505,128.45,-11.037,10.908,-1.234,265.669,177.274,5.11,-8.399,4.684,23.17,236.141,100.897,59.754,52.913,67.121],[-214.153,-57.98,-64.18,-71.523,-57.85,26.944,-58.971,-66.707,-55.928,-60.796,8.751,-57.818,-60.76,-60.456,-57.111,51.938,-21.78,-33.84,-23.911,-19.099,117.408,2.606,-19.901,-11.327,-9.612,180.745,74.273,-5.038,31.582,16.134],[26.815,-30.645,-68.333,-89.634,-76.583,15.099,-41.865,-74.865,-86.577,-57.629,13.101,-33.898,-46.862,-73.451,55.76,73.762,-17.501,-31.017,-38.252,-29.498,160.732,25.224,-41.287,-45.612,-22.258,232.571,69.393,11.049,11.679,-4.306],[-16.749,-53.963,-72.727,-64.054,-72.272,18.913,-23.832,-67.881,-99.923,-79.796,17.368,-23.425,-58.2,-65.568,-87.012,-332.985,-10.838,-39.008,-42.5,-49.689,150.908,72.358,-29.553,-45.071,-65.179,223.918,54.729,13.21,-3.486,-3.88]],
"kep": [[-119.898,-84.771,-27.475,-13.244,-17.249,-118.769,-44.416,-1.174,-31.833,9.84,-135.634,-92.419,-10.472,-8.451,-21.228,-115.477,-73.941,-66.028,-50.1,-41.926,-118.346,-89.919,-78.731,-106.397,-57.652,-90.476,-110.252,-125.812,-115.969,-144.521],[-89.946,-87.263,-135.687,-63.083,-18.866,-89.424,-92.171,-116.213,-62.499,0.696,-85.009,-84.89,-114.334,-73.468,-12.015,-88.448,-84.851,-123.004,-91.78,-29.138,-82.853,-63.965,-131.23,-115.713,-56.965,-80.835,-82.766,-69.416,-109.342,-93.933],[-90.861,-62.411,-55.587,-75.042,-129.755,-92.458,-66.794,-57.062,-90.412,-126.201,-95.06,-60.61,-50.038,-76.864,-118.985,-94.187,-55.601,-46.208,-77.888,-130.301,-89.093,-57.25,-29.994,-62.165,-140.274,-85.609,-61.682,-53.274,-66.428,-112.23],[-96.065,-60.527,-36.557,-22.245,-40.453,-97.271,-66.174,-35.364,-27.79,-47.776,-98.688,-59.727,-36.27,-24.71,-38.351,-96.77,-57.665,-32.064,-28.912,-46.647,-93.151,-62.151,-27.606,-23.703,-28.795,-86.339,-58.451,-32.983,-41.057,-27.27],[-99.13,-74.209,-38.216,-22.971,-18.981,-99.578,-74.059,-36.888,-20.463,-20.265,-97.124,-70.365,-37.224,-23.617,-22.676,-97.47,-67.197,-38.058,-22.296,-10.485,-97.21,-69.546,-31.5,-15.922,-16.468,-92.844,-72.923,-40.649,-30.466,-26.245],[-99.342,-76.479,-42.389,-25.488,-15.247,-99.573,-74.726,-41.337,-19.47,-15.181,-99.923,-79.844,-41.174,-27.03,-11.201,-98.683,-72.156,-42.832,-23.484,-16.736,-99.254,-76.128,-46.24,-24.44,-8.5,-91.923,-76.804,-39.322,-28.363,-15.168]],
"vp": [[158.895,-44.421,262.31,157.1,320.303,34.506,2.339,29.097,24.029,-10.128,8.103,1.481,24.96,31.895,-4.86,-4.872,1.42,-0.913,-2.976,-1.262,3.337,-5.83,-15.039,-9.433,-13.71,-14.016,5.004,-3.698,-2.631,-6.346],[2663.622,886.734,-166.327,-83.223,-441.482,545.902,141.409,12.756,-26.542,193.121,228.955,27.999,7.783,-3.993,7.417,34.415,21.913,-5.918,-9.817,-3.357,8.266,-8.574,-6.48,-20.018,-4.879,-0.83,0.68,-13.31,1.347,-10.348],[4060.563,3197.801,1685.292,829.974,-55.629,907.162,585.295,393.907,265.363,-33.582,478.647,306.329,113.557,110.732,34.875,91.79,59.337,20.743,-1.45,-5.379,38.142,15.121,-4.648,-2.33,-11.58,0.112,1.907,-4.275,-0.618,-11.111],[5850.977,4724.169,2752.033,1323.959,844.783,1237.209,926.276,533.822,277.895,233.011,562.674,478.864,269.198,152.557,98.76,88.36,79.249,48.24,19.925,13.656,39.28,42.679,15.917,-3.016,2.456,-1.9,0.781,0.46,-1.916,-18.732],[6700.303,7211.096,3937.974,1864.357,1678.928,1232.661,1359.98,827.138,408.651,475.382,637.716,585.633,455.626,209.957,255.748,121.637,133.485,75.211,34.608,33.562,59.133,54.19,22.129,-2.207,12.482,16.268,23.095,1.594,12.522,-0.924],[7824.831,8018.71,5045.151,3967.358,2658.281,1381.63,1621.657,1081.975,554.911,458.073,713.211,824.93,462.401,295.714,113.36,130.96,149.701,95.819,59.353,20.363,79.156,71.455,58.052,26.513,1.73,11.139,33.179,-1.873,7.251,-0.576]]
}