{
"KTrans": [[-55.928,-75.969,-90.976,-96.792,-87.389,-40.977,-49.045,-84.263,-94.04,-86.533,-35.072,-62.602,-84.456,-82.76,-76.299,11.651,-6.197,-19.412,-19.678,-22.86,100.167,65.558,53.113,32.852,57.552,309.86,237.886,247.989,215.7,177.247],[-60.721,-46.482,-51.975,-59.33,-57.749,-57.11,-48.873,-39.347,-59.754,-58.559,-58.063,-50.111,-46.2,-58.417,-56.133,-31.049,-8.364,-12.04,-21.709,-34.316,-4.816,15.188,18.717,0.73,-5.936,22.318,67.023,82.414,75.492,64.349],[-76.24,-57.785,-49.368,-44.272,-45.773,-70.599,-54.567,-42.634,-38.306,-45.589,-65.515,-46.106,-38.49,-45.651,-44.853,-47.129,-43.173,-30.396,-28.55,-19.611,-38.086,-20.685,-1.623,8.198,3.79,8.369,22.979,38.398,44.91,44.376],[-80.551,-64.887,-49.038,-40.892,-47.358,-78.86,-60.835,-49.805,-44.256,-36.664,-79.929,-62.472,-53.653,-41.273,-35.342,-72.146,-51.359,-36.78,-27.459,-18.877,-57.292,-37.022,-26.418,-14.825,-6.759,-30.53,-12.23,2.647,14.48,18.083],[-84.243,-66.971,-56.205,-45.589,-46.876,-83.067,-67.242,-52.05,-50.091,-44.633,-82.451,-65.845,-56.036,-44.257,-48.821,-78.717,-59.193,-46.024,-40.906,-34.633,-69.549,-51.1,-33.142,-24.726,-21.697,-52.66,-29.667,-8.476,0.278,5.56],[-87.775,-73.449,-62.421,-57.938,-47.96,-86.035,-70.015,-62.85,-49.983,-48.462,-87.106,-70.705,-60.603,-46.664,-45.505,-78.665,-67.824,-56.894,-42.25,-40.224,-75.005,-55.568,-48.543,-35.438,-34.31,-56.705,-40.781,-25.254,-9.019,-11.741]],
"ve": [[134.584,-71.843,-74.642,-74.411,-20.96,-81.227,-119.227,-56.04,-23.184,-68.381,28.953,-47.592,-93.677,-54.771,-36.187,32.414,-56.615,-38.425,-60.859,-47.927,261.469,-41.084,24.077,-64.677,-84.63,336.723,-80.648,-23.795,-87.598,7.48],[-32.718,-45.281,-59.613,-54.743,-29.116,-680.493,-38.963,4.694,-15.76,-61.946,-58.426,-54.271,-40.016,-47.312,-205.084,0.016,0.205,-21.185,8.764,-4351.73,79.746,43.243,14.996,-11.641,18.265,208.965,127.728,93.435,11.557,19.053],[60.465,-109.405,-30.779,18.944,-50.567,-19.654,-69.805,-72.82,-27.897,-106.176,108.822,-12.069,-62.876,-54.799,-13.763,72.767,-11.536,-39.083,-112.753,51.206,153.328,29.475,152.34,19.187,-9.574,337.168,122.044,125.436,57.647,79.51],[-33.812,-31.969,-56.019,-44.215,-32.762,-17.126,-23.089,-56.318,-51.736,-24.095,-17.023,-37.507,-88.363,-41.395,-32.494,-88.697,-17.658,-8.359,-34.9,-19.94,99.378,71.746,5.945,-14.933,31.79,264.185,196.1,26.033,89.406,24.285],[5.946,-43.225,-51.707,-57.93,-51.401,9.891,-30.873,-1.501,-73.688,-47.5,19.805,260.298,-60.895,-55.168,-64.087,-30.718,12.903,-31.739,-35.167,-42.653,90.845,42.595,14.51,-10.496,-13.119,276.521,102.248,78.881,40.608,62.898],[-5.879,-50.188,-58.006,-101.979,-175.003,-117.739,-7.752,-49.481,-86.017,-70.215,-1.954,-248.931,-28.621,-49.549,-58.185,86.1,29.455,-53.011,-57.7,-51.041,59.485,53.828,-3.812,-16.017,-5.802,303.373,201.995,48.485,39.584,10.094]],
"kep": [[-110.354,-90.127,-72.289,15.655,-64.787,-126.646,-100.62,-66.782,-51.093,-94.508,-119.542,-101.635,-12.664,-51.837,-62.15,-138.021,-111.057,-102.201,-91.09,-74.795,-137.544,-157.325,-136.161,-170.351,-150.896,-138.972,-157.404,-247.609,-243.346,-234.505],[-98.689,-112.571,-105.068,-94.48,-79.081,-102.953,-102.504,-118.87,-94.826,-72.68,-103.216,-99.071,-117.36,-117.89,-49.366,-101.62,-118.065,-110.496,-126.041,-58.19,-96.875,-105.781,-115.85,-130.415,-106.275,-93.624,-97.241,-145.742,-165.407,-144.922],[-102.606,-89.488,-87.259,-100.139,-110.531,-100.865,-84.765,-88.536,-99.699,-119.505,-105.799,-89.396,-92.073,-104.901,-117.576,-99.162,-92.613,-81.168,-95.934,-128.371,-95.708,-78.423,-94.116,-117.641,-121.381,-94.702,-84.802,-92.102,-86.404,-135.693],[-101.107,-88.771,-73.532,-74.52,-86.006,-99.48,-92.69,-71.258,-70.308,-89.217,-100.095,-94.067,-61.565,-68.006,-76.736,-99.168,-87.295,-74.026,-58.736,-87.264,-95.882,-78.942,-70.184,-72.42,-80.446,-98.97,-91.642,-63.43,-87.897,-97.713],[-101.431,-89.668,-64.566,-61.614,-58.513,-101.055,-91.605,-72.332,-58.325,-56.068,-99.056,-89.076,-71.683,-56.48,-52.695,-100.459,-89.191,-68.399,-56.687,-60.499,-96.661,-89.07,-74.855,-58.601,-54.507,-97.409,-87.901,-75.123,-64.322,-70.907],[-99.922,-92.394,-72.639,-59.033,-47.759,-100.149,-91.941,-75.411,-52.198,-41.994,-100.069,-90.008,-72.239,-51.576,-48.853,-101.644,-92.58,-69.406,-53.634,-47.02,-98.805,-90.052,-76.88,-67.713,-50.999,-99.119,-95.969,-70.412,-62.501,-57.85]],
"vp": [[-787.089,-146.747,-229.112,225.836,-959.385,139.892,-72.152,122.612,27.01,43.042,42.046,-58.181,-63.966,-47.693,36.238,-4.913,-13.654,-33.618,3.838,-0.941,-18.832,-0.778,-26.452,-21.951,-5.106,-3.338,-11.419,-7.527,-25.319,-8.878],[3398.413,783.646,-593.951,-68.216,-723.187,633.639,246.311,196.478,-110.878,-68.252,258.238,23.698,4.577,-165.08,-23.227,40.693,26.015,-11.041,-32.896,-6.703,9.603,1.47,-20.736,-7.488,-17.242,-4.055,-24.37,-31.251,-17.916,-22.165],[5705.23,4030.78,1520.11,1354.93,731.719,1126.714,647.528,439.453,226.761,27.058,512.915,342.252,244.328,93.04,45.641,91.135,81.378,-5.898,-23.469,-4.676,22.31,12.147,9.919,-26.369,-15.531,-13.885,-4.741,-1.445,-14.463,-27.428],[5598.826,5832.527,4203.541,3459.778,2088.354,1227.121,1442.222,822.56,471.703,509.88,589.853,578.875,228.182,206.183,225.687,94.803,97.926,90.222,16.25,14.292,38.406,37.935,44.277,-11.094,1.878,-2.761,-7.733,-5.806,-3.95,-14.434],[6476.272,8087.829,5043.502,4533.882,4425.47,1246.232,1595.779,1301.941,914.668,738.092,613.654,749.304,514.422,424.22,308.518,102.008,151.044,73.269,41.678,68.835,56.764,60.819,25.287,36.804,-1.033,-1.57,7.071,5.892,7.397,1.489],[6646.28,8935.711,7665.461,6171.926,4446.074,1552.761,1802.934,1432.613,1264.794,719.436,459.313,921.601,924.134,524.655,549.543,122.166,177.708,113.207,122.298,63.878,37.364,67.294,59.814,57.649,24.864,8.658,15.274,0.577,10.582,4.399]]
}