{
"KTrans": [[-0.601,-3.726,-0.239,4.027,-2.092,5.114,6.878,7.423,7.199,-1.211,2.383,17.345,16.401,20.761,22.115,2.775,50.546,77.316,73.664,80.299,-63.779,-38.614,61.341,112.629,135.605,164.936,122.751,-38.61,93.256,-83.161],[-17.453,-5.543,-0.792,1.08,-1.08,-14.422,2.084,2.231,4.299,3.413,-15.632,6.166,-0.639,8.032,8.048,-19.184,-20.662,-16.508,21.138,28.203,-23.04,-23.696,15.199,11.108,33.673,-26.687,13.7,89.101,-21.667,-5.924],[-35.226,-8.796,-2.913,-1.089,0.122,-34.454,-3.353,3.713,0.341,0.753,-36.755,2.743,7.096,0.841,0.244,-45.675,9.296,-24.598,-2.676,-1.952,-7.487,-2.746,27.73,3.205,15.674,17.851,-4.049,-49.823,8.558,-21.495],[-34.613,-2.551,-3.043,0.848,0.109,-46.185,-11.066,4.846,1.607,0.233,-49.149,-1.534,9.359,2.824,2.045,-63.462,7.487,24.304,16.801,-0.929,-22.162,-14.044,-4.072,11.444,-11.618,-27.877,11.105,77.831,-1.524,-7.786],[-49.014,-14.184,-1.958,-1.775,1.098,-61.952,-12.736,-1.691,-1.261,4.132,-62.259,-14.807,2.719,4.187,4.674,-60.664,-29.87,0.243,2.372,13.52,-54.819,-8.538,-16.253,19.205,14.414,-31.98,-13.682,-24.391,3.727,-18.528],[-69.965,-26.996,-4.208,1.422,-2.922,-65.91,-20.069,-9.022,-0.318,-0.333,-74.856,-28.799,1.337,1.936,4.768,-63.4,-23.581,-10.732,6.013,31.019,-64.469,-1.431,-7.45,-12.146,34.177,-61.36,-22.199,-8.018,16.814,24.232]],
"ve": [[7.303,34.761,-116.195,229.146,-98.135,-0.887,-4.267,18.696,-3.845,-108.348,21.997,-4.141,-160.794,-27.055,-23.938,101.095,24.908,-44.524,-1334.717,294.386,103.273,32.031,6.527,-71.591,51.123,186.649,78.729,35.423,0.202,-15.825],[-595.763,-12.855,8.139,13.857,48.589,-1074.844,58.515,2.299,-5.6,-3.097,6.12,15.494,3.604,22.878,4.312,59.187,24.817,-28.569,39.852,25.412,93.536,58.772,30.25,11.869,5.571,193.4,101.531,63.098,34.205,22.456],[-44.071,-2.197,-0.605,3.44,1.582,-0.309,-17.386,1.793,66.518,10.701,7.915,1.999,-0.598,-37.983,3.276,47.365,25.105,16.615,11.077,12.153,91.433,51.72,48.457,24.652,17.571,191.344,100.684,68.012,48.792,40.84],[-2.043,-0.575,-1.252,0.486,-0.031,16.645,-0.075,0.05,0.007,1.477,5.566,2.676,1.714,-5.582,2.193,55.736,23.378,19.24,14.212,10.001,95.861,53.179,33.846,24.312,21.116,1283.865,98.815,24.467,50.49,38.516],[-6.311,-1.415,0.017,-0.462,-0.239,2.597,0.82,0.586,0.179,0.943,6.711,4.248,2.558,2.084,1.357,45.965,22.418,16.199,12.808,9.794,92.626,49.082,35.681,24.292,21.641,199.707,99.153,68.377,52.687,39.646],[-0.291,9.883,-1.131,0.341,-0.54,0.605,0.339,-0.102,0.792,0.171,74.608,4.545,2.602,1.835,1.565,45.571,23.947,16.77,12.389,15.493,97.173,50.207,31.064,23.901,19.824,197.737,98.608,64.969,50.449,38.339]],
"kep": [[-106.479,-10.14,-2.742,-30.8,9.893,-110.624,-35.741,-23.687,-14.879,16.212,-151.377,-44.01,-24.44,-32.516,-39.007,-102.619,-194.085,-167.854,-164.661,-152.698,-79.063,-285.909,-373.784,-314.917,-317.404,74.549,-8.806,-423.176,-513.938,-720.966],[-38.445,-40.966,-118.221,-20.331,2.371,-44.29,-25.195,-110.498,-25.73,-11.095,-41.979,-25.156,-130.921,-35.916,-15.943,-52.169,-63.204,-146.254,-134.301,-99.378,-54.326,-45.015,-31.721,-203.776,-178.081,-51.528,-2.196,86.832,-69.236,-272.578],[-50.15,-21.838,-11.022,-31.606,-103.131,-58.215,-16.737,-0.995,-32.822,-121.259,-59.77,-15.428,0.301,-36.092,-138.155,-66.536,-27.875,-61.498,-42.756,-113.961,-52.119,-35.737,-8.46,-13.602,-21.87,-57.518,-35.793,-51.861,-11.646,20.214],[-52.59,-9.55,-6.171,2.396,-0.479,-68.183,-20.602,0.976,-2.638,-10.039,-65.85,-17.868,5.26,-3.217,-8.709,-77.188,-23.869,-5.133,-4.834,-29.406,-63.215,-40.57,-32.643,-20.239,-38.072,-71.998,-35.736,5.641,-23.022,-26.583],[-67.57,-26.563,-9.454,-4.716,-0.793,-78.052,-27.067,-8.417,-5.285,5.88,-78.417,-29.71,-3.219,0.088,3.579,-78.384,-52.699,-28.683,-20.069,-6.823,-75.846,-42.548,-42.131,-9.566,-17.404,-73.659,-49.961,-52.206,-30.002,-33.95],[-84.14,-37.575,-10.464,-1.18,-6.617,-80.607,-33.998,-19.177,-3.072,-2.917,-85.34,-46.183,-10.081,-2.205,0.771,-78.921,-46.008,-33.144,-16.464,14.376,-81.038,-42.982,-34.308,-40.978,7.698,-80.93,-56.122,-39.03,-30.801,-9.047]],
"vp": [[171.028,103.765,358.008,-221.724,89.663,4.851,32.182,-2.9,-88.702,-73.924,55.462,-4.392,-39.746,-25.284,-25.721,-46.406,-13.934,-30.862,-2.303,-41.152,-6.578,-19.854,-20.039,-29.759,-34.509,-60.233,-27.938,-17.339,-27.466,9.617],[2175.686,478.029,-198.866,7.006,-113.681,311.692,160.276,-67.143,8.952,68.825,193.118,43.319,19.74,4.405,-0.828,-4.561,-17.573,-8.198,-25.645,-0.755,-21.924,-35.893,-56.134,-25.521,-19.065,-59.935,-27.521,-47.945,-16.028,-7.321],[2857.337,1487.427,614.413,92.988,125.135,529.887,344.028,190.337,107.424,17.887,351.973,200.092,63.062,23.546,-4.089,11.345,7.876,5.491,-36.328,-39.93,-22.899,-23.577,-40.464,-38.37,-61.301,-30.543,-45.091,-15.965,-62.599,-13.264],[4997.109,3268.055,1472.165,344.194,608.427,1030.692,560.488,309.692,117.039,87.455,423.894,277.275,96.441,55.292,30.976,35.17,-3.452,13.121,4.746,-23.141,-9.724,-7.374,-39.591,-46.254,-45.789,-31.418,-34.503,-69.455,-49.541,-61.439],[5323.03,4803.438,1716.584,1490.412,840.354,1187.453,839.524,262.686,101.308,89.122,536.161,319.706,186.64,97.11,41.287,65.755,62.26,39.212,-8.879,6.178,20.223,-1.808,-6.952,-33.74,-5.385,-16.487,-20.973,-33.283,-40.592,-54.428],[5755.345,5492.34,3777.937,2065.267,1599.681,1151.608,832.489,684.436,310.883,173.207,562.358,524.93,269.006,198.225,154.433,28.08,53.482,67.725,44.954,53.649,2.236,-1.423,-23.723,-17.82,-43.711,-31.909,-31.247,-54.191,-31.542,-53.772]]
}