{
"KTrans": [[-7.413,-48.752,-49.036,-43.753,-50.154,-1.988,-0.655,-11.904,-10.978,-7.489,-2.022,4.7,-1.379,2.445,3.205,19.831,49.914,62.731,30.008,41.045,8.307,110,133.11,128.146,123.594,176.693,191.902,202.019,207.698,194.496],[-23.153,-13.123,-10.408,-52.039,-54.53,-14.436,-7.271,-8.508,-16.915,-21.305,-1.899,-4.73,-8.396,1.528,-0.277,-34.888,18.076,14.934,17.572,18.247,19.627,58.671,35.739,21.373,34.225,44.819,-7.099,-41.518,5.284,57.51],[-76.733,-29.704,-28.975,-15.788,-13.933,-66.87,-30.028,-20.683,-11.92,-10.727,-62.433,-23.701,-16.388,0.426,-13.087,-77.68,14.309,27.124,-13.815,7.354,-70.054,0.172,14.886,-19.914,9.627,-72.035,-26.917,0.552,5.908,14.159],[-71.542,-33.161,-29.155,-24.069,-19.427,-68.7,-32.434,-27.36,-23.958,-20.655,-67.999,-15.53,-25.954,-17.453,-17.253,-81.607,-10.154,3.357,4.885,16.315,-61.226,-21.918,-26.514,0.657,14.785,-81.931,5.623,-9.102,20.068,-10.803],[-75.768,-70.5,-22.709,-31.222,-23.732,-82.375,-68.09,-18.464,-22.233,-26.407,-83.27,-65.079,-16.406,-20.452,-22.55,-84.733,-67.39,19.303,-8.368,-0.603,-84.195,-65.762,-5.494,6.333,32.706,-73.733,-34.306,17.489,15.846,-23.347],[-87.272,-58.938,-63.411,-4.936,-25.237,-83.355,-67.858,-60.427,-5.956,-20.584,-84.2,-63.774,-45.501,-7.23,-17.936,-84.82,-64.836,-27.125,-1.081,-8.492,-87.097,-73.284,-13.389,9.949,17.668,-76.585,-71.646,-1.114,-1.514,-28.699]],
"ve": [[-8.04,-24.803,-16.748,-11.458,-10.676,-3.949,-0.496,-3.936,-2.625,-1.664,0.201,2.436,0.812,2.724,3.426,33.935,-399.657,57.66,64.263,68.081,-2.88,40.946,-84.109,-97.078,-104.576,102.634,118.15,51.066,6.222,-15.859],[-42.414,-17.823,-10.433,-39.478,-33.169,-29.855,-8.957,-10.014,-13.303,-13.157,11.196,-7.561,-7.283,0.247,-0.403,61.015,29.297,16.968,12.077,11.232,158.942,47.883,21.684,8.748,33.724,115.61,67.955,57.965,50.177,19.036],[-406.394,-58.818,-43.431,-18.836,-13.847,-376.133,-57.148,-32.621,-13.903,-10.911,-272.101,-47.949,-24.13,0.029,-12.907,-297.979,32.991,45.526,9.909,4.124,-211.562,68.387,23.157,28.172,3.952,2.644,33.316,53.987,43.778,30.145],[-223.325,-96.483,-56.667,-37.229,-26.12,-121.472,-82.077,-52.073,-37.053,-26.66,-160.403,-74.898,-44.544,-27.52,-23.317,-311.926,-29.619,1.476,14.079,23.585,-271.505,109.539,-12.297,34.062,23.978,-54.03,16.197,5.253,26.571,6.813],[-106.793,-355.843,-34.896,-55.163,-37.865,-205.664,-334.281,-39.558,-43.484,-42.295,-179.245,-337.179,-28.917,-39.912,-36.392,-324.9,-249.802,39.93,-17.457,-6.046,-155.273,-298.894,-11.438,80.241,78.417,-218.289,-113.481,71.407,14.415,20.823],[-123.161,-288.618,-218.322,-2.797,-46.447,-129.2,-294.892,-188.504,-2.559,-38.397,-207.34,-228.713,-151.107,-2.779,-29.975,-166.165,-264.566,-106.394,9.365,-22.766,-297.514,-233.12,-11.103,58.829,45.84,-207.042,-242.475,6.953,80.773,3.403]],
"kep": [[132.911,0.584,0.826,1.28,1.483,142.724,-1.44,-0.226,0.363,1.543,96.46,-9.411,-1.032,-3.111,-2.973,102.53,-82.894,-70.233,-37.202,-50.859,95.407,-235.631,-171.699,-148.697,-158.891,136.788,-358.504,-357.323,-308.917,-338.839],[-10.174,-1.605,66.5,-0.234,0.332,-7.518,-4.231,152.781,-2.231,0.393,-17.13,-6.101,98.071,-6.376,-0.76,-49.766,0.15,64.383,-72.137,-33.887,-37.897,24.399,118.895,-149.278,-67.811,-17.925,-7.416,31.061,-245.668,-179.127],[-7.519,-6.77,-3.735,-1.373,98.007,-8.358,-8.066,-0.948,-4.473,113.719,-28.196,-7.562,-5.02,-1.074,109.239,-41.021,-22.08,-22.031,-10.027,104.415,-47.863,-36.162,13.893,-28.234,127.261,-52.993,-25.016,-7.537,0.901,96.029],[-51.67,-7.172,-5.056,-3.251,-0.528,-66.098,-12.245,-5.681,-3.805,-3.431,-55.498,0.315,-8.832,-2.974,-1.676,-53.749,-32.433,-14.377,-20.884,-28.267,-54.35,-56.1,-28.555,-10.114,5.768,-65.585,-22.198,-21.654,-3.747,16.627],[-66.96,-1.025,-11.437,-7.119,-2.895,-66.585,-4.586,-6.298,-3.163,-2.877,-70.388,-1.676,-9.077,-3.538,-3.242,-62.015,-34.797,-12.496,-12.629,-7.187,-75.728,-30.824,-28.484,-41.592,-43.773,-73.226,-41.213,-27.945,-11.261,-17.076],[-77.643,-9.933,-6.822,-4.035,-4.325,-74.514,-23.483,-11.583,-5.667,-3.557,-71.7,-37.699,-8.285,-7.474,-5.086,-75.806,-41.238,-25.753,-14.254,-5.914,-72.461,-50.481,-35.162,-24.366,-32.125,-75.629,-47.068,-30.884,-35.805,-22.741]],
"vp": [[-60.896,-52.632,-93.536,-98.689,-88.639,-52.027,-16.277,-16.612,-12.149,-4.451,-16.279,-25.532,6.48,-17.044,-27.205,-64.38,-17.046,-41.368,9.686,-10.546,-25.61,-46.292,-32.047,-42.173,-36.785,-68.225,-52.63,-37.029,-27.927,-14.941],[461.174,127.208,-68.829,-82.75,-142.305,46.93,28.851,-55.541,-32.143,-25.847,13.939,-7.318,-44.828,-30.835,-10.911,-60.399,-49.102,-75.381,-30.295,-36.135,-23.499,-58.444,-67.278,-16.182,-35.536,-50.961,-51.047,-48.156,-35.691,-34.553],[372.873,373.703,294.106,200.079,-36.308,124.294,142.467,63.179,47.199,-62.706,32.992,51.074,6.993,-16.694,-55.146,-63.411,-53.147,-32.36,-46.849,-78.318,-53.082,-59.249,-48.325,-24.859,-56.18,-28.338,-46.498,-56.707,-58.855,-28.573],[2525.498,954.542,588.093,444.866,323.495,464.523,197.965,150.957,51.681,96.942,131.464,45.742,118.483,58.938,1.757,-30.061,-23.806,-6.191,5.704,-29.55,-26.53,-41.111,-64.364,-64.879,-63.607,-19.368,-36.741,-70.431,-51.765,-61.543],[2507.291,590.632,1344.833,916.517,705.227,561.371,236.866,235.699,151.315,215.762,328.019,69.033,138.731,76.673,54.372,-46.421,-25.634,-8.098,0.23,1.803,-55.59,-44.196,-53.991,-59.489,-41.7,-30.57,-30.369,-21.673,-71.365,-51.709],[4046.77,1786.163,813.059,1245.32,989.395,718.588,353.6,253.079,218.664,178.144,215.682,304.061,83.133,121.973,137.504,-4.019,-6.436,26.097,18.733,-14.865,-22.935,-44.515,-34.607,-44.343,-23.736,-28.127,-19.324,-26.067,-61.211,-42.462]]
}