{
"KTrans": [[11.298,5.197,2.234,2.265,6.422,22.643,10.642,14.361,9.616,12.092,36.185,29.619,16.824,14.287,14.649,188.896,104.092,78.495,67.976,64.884,445.275,229.309,186.513,162.914,150.412,1185.338,604.77,454.157,405.153,363.786],[48.344,11.064,14.497,7.831,7.212,49.685,26.665,12.693,10.28,12.541,84.442,22.329,20.88,14.638,15.992,260.233,89.357,65.342,46.686,42.745,587.018,170.884,105.431,87.37,79.656,1283.323,417.728,251.587,203.648,164.979],[0.071,49.032,16.444,13.804,11.99,13.96,54.16,14.896,13.971,13.379,14.812,54.074,19.367,18.292,7.657,142.314,127.353,59.537,51.368,32.062,358.002,212.81,123.956,83.705,65.883,921.398,428.945,249.07,179.683,130.997],[-64.027,89.677,38.094,23.794,14.899,-66.011,76.541,39.261,34.182,17.391,-63.448,118.098,36.135,32.754,12.85,-25.767,137.337,86.596,56.42,37.268,42.054,344.553,149.813,106.836,70.254,105.384,539.547,290.811,181.274,134.089],[-77.594,54.366,62.461,21.45,22.566,-66.548,75.217,68.518,41.926,22.523,-103.686,85.28,75.956,42.826,29,-55.706,179.279,95.426,64.62,46.388,-10.543,236.807,141.344,102.919,83.285,7.955,427.995,330.899,180.199,145.101],[-80.579,-32.98,145.743,65.578,36.364,-85.376,-42.5,109.186,62.827,26.38,-79.172,-30.497,108.783,52.226,41.748,-80.86,22.434,163.557,89.466,61.176,-4.233,73.854,249.203,144.853,86.544,109.383,300.296,518.074,227.859,153.675]],
"ve": [[1.218,0.48,0.804,2.875,0.944,4.356,1.036,-1.037,-1.118,-3.552,9.11,1.771,-1.906,-3.979,-5.778,46.081,13.659,-1.967,-11.478,-18.752,93.465,32.344,7.923,-7.667,-18.528,191.129,78.631,34.153,10.113,-6.775],[1.268,0.33,1.052,0.384,0.376,4.734,3.083,1.515,1.077,0.92,10.317,4.372,3.289,1.995,1.371,50.398,24.343,15.259,9.604,5.927,100.744,47.598,29.075,19.185,13.085,199.258,97.3,60.748,42.299,28.908],[1.764,1.158,0.456,0.746,0.634,6.957,3.248,1.052,1.18,1.379,5.877,4.944,2.569,2.611,1.051,48.838,25.847,15.585,12.337,8.216,100.291,49.507,32.598,23.007,17.328,199.305,98.402,64.901,47.366,34.942],[0.556,1.02,1.064,0.812,0.459,5.026,2.323,2.328,2.544,1.016,9.839,6.476,2.953,3.111,1.413,51.61,23.83,16.831,12.499,9.093,98.757,50.557,33.623,25.471,18.789,199.889,98.903,66.248,48.355,37.647],[0.83,0.844,0.445,0.269,1.045,5.548,3.173,2.501,2.171,1.254,10.541,5.497,4.061,3.481,2.664,48.761,25.351,16.287,12.433,9.69,99.746,49.63,32.047,24.538,20.245,199.263,98.15,66.299,48.043,38.941],[0.758,1.575,2.569,2.352,1.104,0.371,1.793,2.682,2.133,0.765,11.813,5.436,3.697,2.574,3.227,50.594,25.064,16.902,12.534,10.257,101.654,52.015,33.158,25.735,19.916,199.737,99.651,67.913,49.448,38.912]],
"kep": [[8.797,4.699,2.478,2.221,9.985,16.363,9.442,16.545,13.509,20.374,23.561,27.135,19.63,20.642,25.126,96.345,78.757,81.481,89.46,103.169,180.103,147.459,164.185,183.542,206.4,339.867,293.205,311.775,357.38,395.839],[41.661,8.804,12.136,6.781,6.452,38.066,20.814,9.836,8.406,11.074,61.464,15.335,15.697,11.646,13.967,133.306,50.207,41.9,32.862,33.999,235.693,81.448,57.799,55.953,57.813,356.119,159.945,117.1,112.13,104.327],[-4.252,42.698,13.747,11.48,10.09,4.407,44.87,11.413,11.025,10.732,2.398,41.951,14.039,13.711,5.304,59.335,76.824,35.512,33.224,20.839,124.85,105.026,66.284,47.586,39.996,237.036,162.407,109.111,87.996,69.554],[-62,79.01,32.758,20.229,12.464,-64.529,65.184,32.719,28.244,14.167,-63.85,96.781,28.59,25.888,9.653,-48.701,84.61,55.722,36.522,23.842,-26.873,186.396,83.164,62.173,41.182,-27.859,214.049,130.905,86.58,67.935],[-75.436,45.982,55.115,18.381,19.052,-65.892,61.452,58.332,35.227,18.478,-99.106,67.552,62.937,34.681,23.245,-67.358,112.956,62.818,42.922,30.794,-52.587,117.921,77.671,59.416,50.003,-60.896,159.898,153.135,85.524,73.752],[-78.537,-33.382,129.486,57.523,31.448,-83.626,-43.003,94.919,53.565,21.996,-79.24,-33.536,91.831,43.354,34.139,-84.439,-2.863,116.119,63.118,42.612,-49.87,14.64,151.923,89.734,52.236,-27.642,98.208,257.826,114.153,78.846]],
"vp": [[513.366,446.603,373.971,482.557,527.719,104.798,77.746,128.235,116.898,139.152,50.945,74.7,44.578,48.508,49.121,9.963,10.141,8.577,7.587,10.788,5.18,4.789,5.564,6.219,6.018,2.272,1.932,1.435,2.555,2.021],[897.826,648.091,1690.009,1489.896,1556.871,161.16,327.043,272.928,256.294,399.096,136.189,99.647,164.78,153.057,192.326,31.349,25.42,39.122,27.924,40.023,14.738,8.836,9.831,15.013,17.13,5.169,6.841,6.426,8.784,8.005],[3353.127,1746.747,1704.62,2248.751,2771.244,850.742,386.833,327.113,505.886,494.458,300.525,125.046,162.703,218.764,158.944,44.927,30.554,46.775,45.467,33.145,41.154,13.39,22.301,19.282,16.457,18.899,5.105,8.999,11.119,9.775],[3603.306,3533.443,2240.964,3240.775,2855.575,792.154,472.185,414.234,938.183,713.526,436.643,266.536,179.904,361.709,219.056,104.5,26.288,47.295,50.301,59.407,52.972,38.324,25.822,37.614,31.661,23.831,9.581,13.968,12.707,15.648],[5259.099,6118.586,2245.083,1554.813,2446.206,1008.561,1497.399,581.044,763.203,479.726,659.4,574.291,126.558,251.313,408.121,110.436,143.066,-7.901,47.771,77.329,54.133,47.845,10.525,25.712,41.361,31.352,24.359,6.828,17.026,16.231],[6580.005,7469.664,7845.625,3172.235,4194.116,1270.03,1242.42,911.427,246.193,736.039,676.332,753.018,580.886,390.968,293.264,137.063,157.089,123.867,48.529,77.341,63.527,96.347,62.142,26.211,25.261,32.936,29.607,36.357,10.215,16.678]]
}