{
"KTrans": [[0.139,-0.069,-0.009,0.165,1.159,1.841,0.598,-0.056,0.794,0.3,-2.241,1.186,-0.898,-0.765,-0.025,-0.044,-1.419,1.958,1.346,-3.542,15.626,22.457,10.994,5.212,9.441,-417.077,64.783,35.175,45.015,41.721],[8.314,1.331,1.004,1.06,0.761,0.53,3.299,1.663,1.167,0.53,-11.043,2.595,0.846,0.898,0.695,9.076,-6.37,-4.443,-3.917,-4.186,-24.776,-5.23,-4.964,5.302,-0.907,-110.912,6.44,16.574,8.607,5.822],[-54.343,6.409,3.749,2.121,1.543,-44.934,10.432,2.983,2.292,0.741,-24.424,5.637,3.722,1.247,1.357,-21.274,2.38,1.454,-6.514,-3.525,-36.886,15.775,5.504,-8.58,0.254,-68.504,27.034,18.147,19.97,2.751],[-66.074,24.383,6.224,3.721,2.213,-71.789,13.005,5.596,2.878,2.072,-65.358,11.639,5.078,2.871,1.058,-68.835,26.849,4.944,-4.004,0.726,-70.405,17.658,6.638,2.996,0.394,-25.127,-52.031,13.998,3.346,4.86],[-86.633,-12.902,14.19,5.244,4.204,-84.985,3.017,11.138,6.044,4.211,-84.917,3.435,12.105,4.575,4.607,-89.862,-6.391,2.3,6.329,0.672,-53.411,19.923,30.546,3.143,-0.994,-126.533,-19.227,49.327,15.282,7.416],[-90.568,-16.637,27.97,13.39,6.918,-88.996,-24.193,21.562,9.304,4.569,-87.024,-21.433,14.984,6.429,4.915,-91.338,-29.693,28.861,3.879,1.965,-78.931,-35.788,56.917,1.9,6.108,-92.616,-56.089,5.734,19.829,11.95]],
"ve": [[-1.502,-0.174,0.043,0.214,-1.277,-0.778,-0.212,0.137,-1.03,0.256,-2.197,-0.355,0.446,0.771,1.41,-15.191,-2.961,64.783,-97.002,16.639,-8.075,14.934,-20.433,138.845,-43.679,-70.006,-6.739,713.473,-27.656,-27.479],[0.395,-0.824,-0.838,-0.594,-0.806,-3.947,-0.438,-0.584,-0.765,-0.768,-10.418,-0.508,-1.072,-0.756,-0.769,-32.457,-5.783,-3.307,-1.828,-0.889,-27.972,-9.896,73.775,9.292,5.339,-40.571,-4.885,-7.257,-103.06,-14.282],[-64.723,0.693,-0.081,-0.646,-0.816,-57.593,1.749,-0.621,-0.5,-0.908,-49.794,-0.23,-0.023,-1.057,-0.865,-39.326,-5.545,-1.231,-4.883,-2.66,-43.479,-5.809,-0.468,-6.117,-0.474,-46.028,-0.037,-4.383,2.38,-10.843],[-86.668,5.336,0.35,-0.283,-0.638,-81.046,1.365,0.061,-0.664,-0.712,-79.315,-1.503,0.129,-0.716,-1.183,78.692,-17.355,0.786,-4.619,-1.359,-58.575,-11.322,-3.219,-0.704,-1.655,-21.025,-55.217,-10.315,-8.183,-17.168],[-85.497,-17.734,2.788,0.449,0.067,-88.811,-21.914,1.685,0.699,-0.161,-103.965,-20.09,1.331,-0.29,0.076,-105.275,-52.929,-3.768,0.693,-1.7,-118.384,-34.103,-22.797,-3.488,-2.944,-143.285,-54.35,0.044,9.142,-0.571],[-82.466,-63.747,5.95,2.633,0.833,-93.301,-57.16,5.352,1.455,-0.066,-60.943,-61.358,1.591,0.548,-0.056,-121.882,-45.232,-16.142,-2.151,-1.948,-86.896,-47.845,-11.443,-11.881,1.076,-207.748,-92.599,0.562,2.014,0.527]],
"kep": [[1.486,0.221,0.246,0.579,3.197,2.39,0.97,0.172,2.343,1.106,-1.422,1.585,-0.673,-0.423,0.427,-25.664,-9.646,-5.132,-5.629,-15.055,4.041,-2.62,-15.318,-20.644,-13.785,82.295,30.087,-5.593,-0.491,13.219],[5.54,2.086,1.848,1.663,1.593,2.133,3.653,2.216,1.946,1.318,-7.49,2.825,1.83,1.608,1.461,-34.868,-9.823,-4.378,-3.673,-4.056,-17.652,-28.449,-13.717,-1.865,-4.74,-18.811,-4.755,-15.805,-15.571,-14.874],[-77.787,5.239,3.744,2.766,2.371,-72.216,7.898,3.517,2.78,1.654,-70.389,5.216,3.595,2.241,2.208,-58.497,-8.187,-0.93,-3.616,-2.194,-49.22,-25.47,-7.025,-11.309,-2.939,-41.551,-15.889,-17.329,-6.549,-13.645],[-102.1,15.299,5.649,3.95,2.848,-90.053,7.664,5.275,3.499,2.767,-91.539,8.285,4.45,3.492,2.219,-77.903,-42.871,1.016,-1.936,1.092,-65.26,-26.068,-14.474,-5.219,-2.087,-67.128,-20.016,-13.55,-21.54,-14.036],[-96.191,-16.432,10.463,4.646,4.099,-96.425,-28.882,8.323,5.146,4.308,-97.776,-24.648,9.209,4.635,4.434,-84.119,-70.688,-5.839,3.487,1.302,-85.001,-42.965,-49.459,-6.543,-3.783,-71.241,-40.661,-19.698,-14.18,-12.972],[-90.666,-85.535,17.793,9.908,5.911,-93.304,-77.199,11.5,7.238,4.509,-91.191,-82.515,9.67,5.42,4.794,-91.649,-62.432,-31.191,2.064,2.28,-88.528,-59.252,-37.729,-26.521,-0.075,-83.732,-47.816,-16.336,-16.142,-18.332]],
"vp": [[153.066,58.946,48.428,43.541,2.235,14.646,7.325,21.817,9.834,21.671,31.431,3.011,18.22,20.39,10.43,21.903,10.463,2.554,2.571,16.958,1.206,-9.886,1.438,5.674,0.25,32.7,-12.247,-0.854,-7.415,-13.668],[29.962,119.825,73.859,102.386,84.592,79.596,-2.979,13.722,13.99,35.373,114.041,0.874,20.085,11.812,10.388,25.158,31.097,26.51,25.854,27.26,28.378,29.608,21.465,-4.851,7.871,20.148,3.663,1.521,4.741,7.003],[6593.397,-210.778,-53.192,115.601,153.564,1154.946,-88.107,10.88,0.304,45.909,501.676,1.523,-9.375,28.7,16.221,74.952,10.709,5.928,41.837,30.982,42.142,9.552,-1.191,35.731,6.834,20.953,-2.934,3.565,-14.807,10.413],[8736.867,-1076.098,-238.144,-110.432,132.478,1520.976,-60.472,-27.543,17.285,32.649,763.57,21.393,-11.419,18.987,39.54,145.034,68.515,-9.213,38.957,10.459,57.012,21.866,7.328,4.347,8.19,6.81,59.338,13.254,15.286,8.663],[8809.988,3582.083,-875.942,-299.333,-272.151,1802.475,887.034,-115.604,-80.706,-15.886,996.461,399.031,-49.571,-7.263,-26.441,213.598,212.965,18.924,-9.741,13.89,118.042,67.531,71.51,9.146,14.695,73.165,53.844,-2.93,-4.149,-0.018],[8367.082,12997.337,-1833.846,-1132.398,-613.894,1854.914,2279.95,-342.277,-149.448,-53.75,896.785,1222.516,-56.18,-39.121,-19.2,239.418,204.474,99.146,16.368,18.38,85.344,95.556,29.953,43.197,-8.702,106.037,53.865,-7.029,-6.675,-0.417]]
}