{
"KTrans": [[2.555,1.839,1.206,1.81,1.04,12.739,7.178,5.875,5.626,5.191,27.251,14.883,13.075,11.494,10.402,162.222,95.171,74.368,66.129,61.172,404.314,224.414,174.234,154.196,141.236,1117.108,587.304,455.953,393.116,359.587],[0.88,1.246,1.103,0.733,0.53,9.728,5.566,4.22,3.4,2.992,22.16,11.222,8.344,6.562,5.408,128.56,64.265,44.846,36.139,30.338,313.395,144.434,97.482,77.256,65.946,833.395,356.751,231.393,179.79,150.492],[2.796,0.761,0.925,0.649,0.79,7.998,5.086,3.831,3.375,2.607,20.045,11.315,7.624,5.555,4.881,122.217,60.871,40.824,31.451,25.764,294.379,135.162,87.887,66.039,55.279,767.031,326.81,203.21,150.772,122.467],[1.272,0.993,0.471,0.102,0.599,7.322,5.151,3.517,2.719,2.009,16.537,10.375,7.245,5.674,4.367,115.372,57.669,38.606,28.9,24.102,281.609,130.568,84.29,62.62,51.288,686.835,313.191,192.295,141.108,113.009],[-1.286,0.24,0.506,0.592,0.373,4.321,4.804,3.479,3.344,2.337,17.85,9.19,6.543,5.801,4.66,113.547,57.886,37.755,28.79,22.769,274.649,129.259,81.33,60.89,48.498,642.872,301.508,188.644,136.868,106.602],[-4.121,-0.994,-0.444,-0.031,0.818,5.078,4.639,2.726,2.671,2.087,13.543,8.905,6.832,5.112,4.277,105.271,56.857,36.486,27.863,23.681,245.744,123.351,80.929,59.598,47.727,585.516,295.065,187.558,132.142,103.658]],
"ve": [[1.338,-0.024,-0.251,-0.845,-0.751,4.538,0.837,-1.078,-2.524,-4.145,8.841,1.951,-2.011,-4.979,-7.134,45.189,12.958,-1.564,-11.358,-18.763,93.539,33.214,7.945,-7.525,-18.714,191.836,78.971,35.023,10.215,-6.319],[1.033,0.701,0.202,0.19,0.23,4.947,2.186,1.425,0.911,0.516,10.015,4.665,2.795,1.666,1.035,49.239,23.543,14.313,9.115,5.579,99.329,47.883,29.36,19.306,12.584,199.102,96.859,60.864,41.62,28.685],[1.326,0.633,0.372,0.179,0.169,5.15,2.408,1.654,1.22,0.8,10.05,4.765,3.159,2.221,1.595,50.143,24.54,15.787,11.395,8.499,99.928,49.443,31.984,22.894,17.301,200.078,98.748,64.688,46.812,35.699],[1.448,0.692,0.333,0.18,0.229,4.97,2.449,1.606,1.219,0.756,10.452,4.983,3.342,2.359,1.818,50.286,24.745,16.338,11.904,9.303,100.164,49.71,32.703,23.94,18.751,200.526,99.676,65.543,48.426,37.828],[1.117,0.427,0.357,0.267,0.211,5.206,2.454,1.661,1.36,1.019,10.612,5.029,3.225,2.508,1.97,50.352,24.844,16.483,12.226,9.551,100.198,49.802,32.995,24.527,19.257,200.579,99.824,66.124,49.055,38.616],[1.117,0.562,0.193,0.302,0.273,5.239,2.523,1.582,1.217,1.035,9.956,4.979,3.242,2.475,1.977,49.962,25.04,16.433,12.236,9.878,100.399,49.961,33.111,24.66,19.519,200.67,99.769,66.292,49.383,39.202]],
"kep": [[1.29,1.944,1.586,2.867,2.046,7.901,6.37,7.178,8.551,9.977,16.98,12.752,15.498,17.505,19.095,80.652,72.825,77.215,87.508,98.496,160.588,143.56,154.075,174.916,196.842,317.048,284.028,311.772,347.452,390.625],[-0.137,0.552,0.907,0.546,0.309,4.595,3.316,2.76,2.475,2.472,11.054,6.265,5.403,4.822,4.337,53.146,32.971,26.71,24.769,23.454,107.372,65.286,52.659,48.572,47.398,212.052,132.006,106.002,97.559,94.655],[1.447,0.123,0.553,0.465,0.621,2.747,2.607,2.14,2.128,1.792,9.078,6.255,4.33,3.26,3.233,48.026,29.168,21.616,18.003,15.911,97.229,57.354,42.345,35.104,32.375,188.87,114.719,84.094,70.802,63.935],[-0.149,0.287,0.131,-0.083,0.367,2.223,2.63,1.874,1.479,1.242,5.512,5.132,3.774,3.233,2.5,43.336,26.38,19.134,15.182,13.534,90.651,53.989,38.861,31.201,27.393,161.75,106.901,76.554,62.429,54.54],[-2.373,-0.184,0.142,0.319,0.158,-0.849,2.29,1.778,1.95,1.302,6.492,3.951,3.202,3.209,2.633,42.022,26.465,18.252,14.752,12.057,87.124,53.024,36.325,29.19,24.51,147.072,100.893,73.723,58.899,49.038],[-5.215,-1.545,-0.639,-0.339,0.542,-0.136,2.055,1.111,1.432,1.034,3.26,3.725,3.468,2.568,2.25,36.811,25.42,17.212,13.913,12.555,72.532,48.916,35.909,28.018,23.59,128.161,97.697,72.903,55.388,46.29]],
"vp": [[-56.829,-51.235,-34.639,-33.813,-56.035,-44.907,-38.919,-42.374,-40.82,-44.17,-42.364,-44.926,-38.511,-41.16,-41.758,-44.084,-41.401,-41.96,-41.209,-40.778,-43.577,-42.447,-41.444,-41.055,-41.358,-44.036,-42.491,-41.767,-41.281,-41.115],[-11.536,-35.725,-35.877,-51.78,-41.594,-42.841,-42.685,-43.125,-38.927,-42.501,-46.252,-43.552,-41.838,-41.787,-42.878,-47.695,-45.482,-43.263,-43.433,-43.292,-48.016,-45.399,-43.985,-43.714,-42.315,-47.544,-45.405,-44.525,-42.999,-42.635],[80.611,-41.83,-1.284,-52.531,-34.193,-28.976,-37.875,-43.424,-35.939,-41.541,-37.698,-44.291,-40.881,-45.461,-42.305,-47.95,-47.331,-45.457,-44.342,-44.341,-48.505,-47.704,-45.443,-44.278,-43.436,-47.692,-47.572,-45.276,-45.114,-43.836],[198.381,7.86,-19.985,-52.096,-20.917,-13.791,-32.156,-45.359,-41.047,-46.537,-28.214,-44.774,-41.674,-46.392,-42.721,-47.819,-48.36,-47.099,-46.339,-44.695,-48.309,-48.813,-46.946,-45.99,-44.733,-47.129,-48.824,-47.386,-46.051,-45.082],[371.86,-12.92,-28.094,-24.745,-31.409,23.475,-36.819,-36.382,-37.662,-36.403,-5.266,-45.648,-46.473,-44.275,-39.175,-44.163,-48.57,-47.817,-46.939,-47.07,-46.006,-49.913,-48.331,-46.914,-45.882,-45.83,-49.77,-48.056,-46.652,-45.785],[532.309,41.881,19.597,-2.712,-12.051,86.881,-30.85,-38.117,-42.356,-44.156,3.689,-39.118,-45.735,-44.561,-44.112,-40.674,-49.024,-48.367,-46.385,-45.658,-44.151,-50.097,-49.452,-47.583,-46.929,-43.724,-50.231,-49.38,-47.631,-46.629]]
}