{
"KTrans": [[-7.496,-29.384,-22.954,-38.495,-23.59,-5.564,1.301,2.08,0.704,0.842,-4.198,6.002,1.44,-1.225,-1.903,19.68,17.735,34.674,14.218,36.094,78.825,51.217,78.979,68.76,64.836,173.558,158.372,180.287,128.402,126.185],[-2.556,-1.603,-4.053,-27.489,-44.457,-4.721,-0.989,-3.301,0.499,1.11,-1.117,-0.214,-6.535,1.385,0.208,25.683,43.012,11.344,-7.109,4.292,10.76,10.668,30.275,14.513,10.674,76.914,65.402,56.324,30.139,55.096],[-49.84,-4.718,-12.373,-1.227,-3.062,-49.441,-4.737,-1.52,-0.016,-9.778,-43.263,-2.106,-1.215,0.906,-7.363,-17.806,16.223,13.821,20.542,-13.142,-0.925,24.141,44.049,-21.702,-9.332,5.797,39.773,70.484,-29.426,24.6],[-54.901,-3.477,-6.888,-12.241,-5.947,-60.229,-4.156,-5.416,-3.57,-0.637,-62.765,-4.917,-2.767,-1.881,-1.536,-37.7,20.87,-1.86,6.018,5.443,-40.792,36.803,35.723,25.589,37.97,-15.221,19.396,38.667,28.011,-20.713],[-66.503,-47.069,-6.209,-7.8,-7.543,-67.181,-42.658,-6.085,-4.37,-5.985,-63.072,-39.289,-2.921,-2.221,-1.234,-54.01,-16.972,-6.027,-2.783,-4.218,-62.761,-11.542,55.428,15.6,14.754,-44.846,-4.073,65.452,59.939,-2.102],[-73.65,-54.532,-18.769,-5.572,-11.809,-69.44,-48.892,-12.233,-3.564,-11.505,-72.811,-57.451,-9.167,-3.814,-3.659,-68.324,-27.174,5.895,0.761,-0.037,-56.155,-26.467,45.182,11.287,10.36,-57.753,-13.722,37.68,49.054,56.223]],
"ve": [[-7.132,-14.855,-7.755,-9.871,-4.638,-4.189,0.507,1.008,0.739,1.017,1.544,2.771,1.623,1.641,1.906,5.472,107.978,54.97,53.12,100.715,82.65,8.174,-37.13,-133.346,-125.407,89.732,97.423,16.378,-6.262,-72.114],[-1.976,-1.733,-3.922,-20.864,-26.8,-1.043,-0.378,-4.022,0.119,0.344,-1.133,0.144,-5.365,0.427,-0.037,162.886,73.903,9.605,0.474,3.4,110.736,78.9,25.122,2.828,18.122,170.359,115.699,36.257,30.321,172.725],[-220.887,-4.203,-18.415,-1.334,-3.08,-229.56,-2.419,-0.491,0.047,-9.64,-241.567,-0.498,-0.419,0.561,-8.103,-51.408,17.096,13.256,22.152,-7.003,124.01,67.742,69.552,22.481,-5.114,237.142,151.824,105.937,19.095,46.689],[-198.579,-2.833,-8.303,-19.189,-7.3,-264.732,-3.145,-7.544,-3.828,-0.226,-234.194,-2.841,-0.638,-0.88,-0.58,-45.464,23.686,1.119,3.985,6.03,70.666,167.897,61.202,34.134,57.062,218.263,86.426,29.078,60.059,70.334],[-113.112,-178.638,-2.673,-9.657,-11.067,-167.377,-173.466,-3.115,-5.511,-7.674,-129.161,-163.702,-0.625,-0.792,-0.327,4.487,-105.439,-2.606,-1.36,-2.072,-66.049,-55.525,81.437,27.609,14.571,-16.19,129.411,205.649,17.712,155.542],[-54.267,-297.794,-48.64,-2.29,-19.668,-67.015,-266.108,-25.627,-1.7,-19.679,-41.258,-314.095,-25.034,-1.121,-1.5,-55.514,-62.703,1.408,0.98,-0.666,-108.151,-41.304,103.703,18.59,10.453,10.922,26.199,130.903,99.058,107.291]],
"kep": [[73.993,-0.08,-0.091,0.612,-0.178,61.678,-2.629,-2.181,-1.273,-1.24,8.179,-9.016,-4.552,-3.17,-2.658,150.667,-39.22,-35.362,-10.419,-32.086,81.853,-107.87,-87.6,-67.236,-59.209,106.958,-240.565,-210.543,-155.131,-148.836],[-1.623,-0.354,57.858,-0.512,0.246,-5.047,-1.211,102.428,-1.369,-1.129,-1.611,-1.685,77.129,-4.487,-1.157,-46.468,-39.975,79.479,-20.382,-14.608,-39.415,-25.534,92.072,-86.666,-34.444,-31.774,7.28,123.049,-166.37,-112.137],[-7.359,-2.571,-1.545,0.009,98.528,-5.626,-3.167,-1.584,-0.039,61.669,-1.546,-2.389,-1.355,0.738,168.687,-32.125,-3.794,-2.658,-26.165,68.274,-49.275,-22.616,-21.505,-24.479,113.462,-58.341,-29.072,5.133,19.881,19.144],[-23.368,-2.348,-3.01,-1.353,-1.103,-23.465,-3.027,-2.161,-1.738,-0.611,-37.01,-4.694,-3.039,-1.449,-2.339,-50.795,-1.383,-9.222,0.37,-6.194,-63.356,-43.574,-15.481,-15.538,-57.391,-61.942,-33.376,3.403,21.139,-28.052],[-53.304,-6.718,-4.588,-3.473,-1.43,-54.077,-5.272,-3.983,-1.74,-1.962,-55.362,-3.569,-3.337,-1.92,-1.227,-67.606,-12.391,-9.171,-4.805,-6.816,-70.063,-29.125,0.845,-14.48,-4.095,-63.479,-47.213,-44.711,5.607,-83.802],[-69.947,-4.19,-4.775,-4.137,-2.833,-67.405,-4.177,-4.891,-2.665,-2.51,-74.832,-6.142,-3.035,-3.668,-3,-71.25,-43.691,-1.298,-2.658,-0.575,-66.451,-44.297,-22.133,-9.123,-3.97,-75.225,-39.614,-30.896,-25.662,-10.872]],
"vp": [[-31.112,-38.42,-37.88,-58.786,-45.262,-43.025,-21.357,-28.778,-16.392,-11.932,-40.208,-37.652,-21.749,-10.132,-9.065,-11.465,0.122,-22.697,14.496,-20.744,-26.395,8.615,-20.338,-7.663,-7.373,-27.354,-1.012,-6.379,7.107,6.875],[229.829,63.911,-22.341,-44.223,-90.3,16.084,22.484,-46.605,-12.895,-25.468,16.387,10.182,-26.963,-23.051,-7.422,-43.576,-29.024,-28.13,13.328,-15.782,-13.418,-44.709,-21.506,1.573,-3.226,-48.912,-31.13,-35.15,14.738,-20.747],[388.874,413.33,194.06,52.603,-12.65,118.531,102.853,30.522,3.946,-32.959,23.515,9.958,17.454,-13.506,-11.846,-6.819,-12.618,-28.836,-18.593,-8.445,-58.121,-46.944,-41.879,-39.847,-11.607,-31.842,-15.412,-43.889,-13.034,-44.422],[1516.179,644.378,574.961,275.3,229.596,198.843,141.027,66.093,29.781,27.549,198.162,62.656,17.52,40.987,38.319,9.418,-9.159,21.066,-16.449,7.867,15.325,-23.106,-27.063,-9.912,-14.816,-17.853,-27.388,-44.519,-21.492,-38.529],[3137.024,1062.962,788.937,482.609,362.861,649.531,119.951,192.888,117.894,68.083,265.22,112.254,14.588,32.719,16.329,10.182,-4.296,32.682,27.757,50.255,9,-35.96,-17.793,-1.347,-9.173,-3.507,-8.069,-15.706,-44.339,-42.074],[4702.491,797.528,1117.89,908.61,605.514,780.661,181.307,191.452,145.007,108.223,449.537,79.813,57.578,41.061,77.187,17.813,48.043,10.788,-1.105,16.189,6.798,-18.011,-23.92,0.159,-5.661,-15.177,-17.421,-32.97,-32.975,-38.37]]
}