{
"KTrans": [[-2.617,12.945,8.179,11.356,6.458,-1.398,10.133,10.503,10.886,6.732,15.332,25.262,18.721,19.993,13.985,38.66,93.731,85.42,78.933,74.031,170.3,82.672,90.129,127.948,101.584,58.751,183.321,112.811,55.89,152.496],[-50.696,19.67,10.123,10.29,3.314,-48.267,14.701,14.517,8.447,5.035,-41.747,19.294,17.167,9.503,9.283,-35.593,43.054,65.965,41.689,37.642,14.627,44.058,63.522,80.729,68.735,85.657,64.187,67.065,91.618,88.536],[-68.747,2.07,10.311,10.007,7.958,-71.871,4.864,12.874,10.233,8.287,-58.408,10.667,24.695,12.749,12.997,-59.91,27.823,50.88,48.417,33.856,-34.752,34.911,67.131,58.2,65.88,23.481,59.338,75.686,54.979,86.36],[-81.028,-12.91,8.63,9.413,11.399,-84.796,-14.244,12.254,7.682,8.637,-76.918,-5.273,11.353,11.73,13.082,-58.602,16.225,36.789,45.382,35.122,-57.871,27.736,15.257,43.682,68.056,-26.929,30.81,25.604,21.092,62.537],[-90.588,-26.563,11.977,10.781,8.039,-94.442,-28.894,11.168,18.963,11.411,-88.474,-23.294,16.569,18.43,16.376,-87.962,-20.434,23.087,52.144,33.746,-57.421,-34.959,4.692,52.829,53.72,-30,3.819,22.842,38.614,-7.95],[-96.736,-48.926,9.884,8.281,12.23,-95.591,-42.694,4.515,20.05,16.085,-93.348,-52.659,17.641,15.587,16.006,-86.519,-38.934,0.269,41.75,37.054,-84.943,-25.454,-20.027,41.431,48.654,-41.464,-11.354,24.454,26.712,70.459]],
"ve": [[-157.1,15.337,2.793,19.463,2.516,-11.764,38.516,28.403,-112.255,-19.553,39.435,13.603,19.995,-8.937,-0.753,60.264,35.277,4.364,-5.063,-11.924,98.908,35.201,26.552,-16.76,-17.354,206.828,76.65,36.64,6.815,-10.001],[7.314,1.557,0.434,-0.283,0.059,-12.856,4.81,2.918,0.925,1.983,14.462,5.259,3.517,0.349,2.693,57.468,22.364,15.866,9.17,4.78,112.336,43.16,30.97,21.163,15.231,206.658,101.313,59.611,38.871,3.595],[6.123,2.602,0.9,-0.484,-0.5,-10.971,4.539,2.543,1.146,1.235,15.023,5.115,2.332,2.376,1.639,53.902,24.134,17.367,11.161,8.121,109.213,49.76,31.02,24.435,16.261,200.17,97.523,62.81,46.595,33.35],[27.308,10.477,1.414,-0.372,-1.201,11.175,3.819,0.074,0.162,0.121,5.255,7.603,3.462,1.568,1.417,58.731,25.31,14.03,11.52,9.141,104.653,45.63,32.719,21.884,16.73,198.963,100.297,65.791,48.968,35.46],[16.251,-9.605,1.749,-0.235,-0.338,157.34,10.837,2.373,1.625,0.122,9.858,16.257,3.823,2.969,1.883,43.186,28.598,17.457,12.636,9.035,103.14,50.359,31.596,25.027,18.777,230.097,101.278,64.077,48.57,39.408],[35.829,1.764,0.401,0.704,-0.912,15.632,12.41,2.685,0.544,1.158,14.082,7.058,7.504,2.195,1.132,55.554,30.232,15.132,12.126,9.185,109.638,50.852,35.586,24.896,20.266,202.297,93.682,69.541,48.184,38.096]],
"kep": [[-11.04,17.195,12.329,20.72,9.913,-14.938,6.886,7.673,17.731,9.584,-3.349,25.511,18.689,29.111,24.494,-3.424,67.018,90.959,95.896,119.139,51.926,44.196,72.937,140.836,129.103,-19.618,83.175,75.43,69.925,172.193],[-56.033,20.372,11.387,12.053,4.713,-57.818,11.925,12.749,9.2,4.83,-51.178,13.832,14.339,10.758,7.546,-56.676,18.326,43.947,30.698,32.161,-35.978,3.095,25.734,48.817,47.283,-27.894,-4.17,16.523,41.015,45.393],[-74.922,-0.479,10.891,11.074,8.949,-78.143,1.082,10.439,9.676,7.51,-67.656,5.751,22.009,10.595,11.54,-73.237,3.124,29.167,33.69,24.156,-64.54,-4.997,27.825,28.333,41.481,-52.252,-10.928,15.774,12.259,39.06],[-84.711,-16.643,8.211,10.204,13.214,-87.168,-18.894,12.461,7.838,8.725,-81.474,-12.093,8.029,10.398,11.929,-72.834,-7.911,19.2,30.033,23.945,-77.352,-10.882,-8.493,19.301,43.424,-71.352,-27.14,-15.8,-10.164,21.671],[-92.541,-31.48,9.893,11.344,8.751,-95.471,-34.771,8.295,17.404,11.626,-91.236,-28.936,12.544,14.982,14.488,-91.517,-36.382,4.498,34.543,22.793,-76.833,-52.48,-16.964,22.6,30.575,-73.458,-41.1,-17.465,-1.335,-25.714],[-98.077,-51.258,8.497,7.161,13.779,-96.311,-44.809,0.629,19.591,14.929,-95.626,-57.726,11.523,12.997,14.836,-90.658,-48.915,-14.613,26.165,25.015,-90.022,-48.555,-35.511,14.272,23.794,-77.659,-51.681,-19.751,-7.959,25.885]],
"vp": [[1957.532,8.979,287.848,386.171,63.894,348.913,60.074,-52.012,-72.498,11.249,64.592,25.958,24.929,7.843,-4.012,8.468,-16.982,-32.433,-6.736,-2.973,-24.424,-46.324,-34.063,-30.8,-27.488,-35.902,-53.708,-40.906,-33.882,-30.834],[4173.072,2630.658,833.654,1088.315,642.561,890.544,264.125,108.061,182.92,87.05,418.628,195.676,120.867,61.816,76.045,64.606,28.649,-1.815,-16.722,-20.199,3.019,-13.517,-19.848,-12.818,-9.483,5.584,-34.353,-37.017,-45.043,-17.926],[6003.256,4817.397,2378.022,913.917,1400.775,1109.038,1070.494,575.061,343.027,217.787,484.869,548.409,198.067,199.283,192.27,85.468,55.435,13.441,26.868,7.269,51.645,-8.677,-11.789,-15.692,5.235,-30.995,-23.05,-32.602,-27.71,-23.879],[7247.854,6914.021,4946.376,3315.369,2346.353,1385.864,1389.856,773.441,505.918,177.56,575.855,697.818,276.5,130.025,154.749,84.872,112.702,28.944,30.815,16.878,22.237,18.483,1.377,-48.102,-15.987,14.324,3.58,-24.322,-30.879,-28.371],[6558.723,9848.162,6896.49,3218.827,2531.091,1560.339,2025.158,1338.565,801.022,270.717,681.567,904.81,727.248,375.743,283.635,120.086,129.685,121.003,73.304,20.279,27.865,77.642,31.994,2.567,-5.875,2.712,-2.987,-9.949,-12.22,-1.592],[8199.356,11391.371,10250.624,5172.539,3640.513,1521.45,2028.184,1871.187,973.306,536.02,749.941,1042.55,915.522,547.094,353.441,118.154,175.137,192.418,86.535,48.535,44.896,73.417,85.536,17.329,45.777,-2.606,-3.989,13.848,-8.193,-26.007]]
}