{
"KTrans": [[-8.677,0.48,5.254,1.55,-2.98,-12.711,-2.049,3.184,0.401,0.669,16.044,9.757,5.807,4.982,5.585,32.691,35.118,15.757,15.531,15.235,100.822,74.597,50.999,39.92,38.317,212.007,152.551,129.902,99.675,53.896],[-56.577,-2.417,4.545,-0.016,-1.424,-54.116,-5.236,1.043,-1.716,-0.999,-60.376,1.786,1.23,0.793,0.561,-20.866,13.558,11.567,6.113,6.994,-5.823,52.115,21.398,13.964,11.592,11.471,30.145,60.15,51.161,41.325],[-76.091,-17.203,2.152,0.435,0.771,-73.452,-7.809,-2.784,-0.258,0.056,-71.944,-14.915,0.325,1.688,-1.438,-58.177,4.446,12.79,6.131,3.731,-39.939,-3.982,22.072,18.305,16.147,-15.198,4.817,44.594,45.623,24.737],[-87.949,-37.687,-3.555,0.526,1.349,-89.048,-29.79,-8.817,0.44,1.483,-87.06,-34.921,1.023,-1.513,3.828,-73.538,-19.839,5.736,7.414,11.289,-42.192,9.337,15.894,13.207,16.906,-47.885,25.262,58.454,45.926,28.889],[-90.522,-54.164,-0.486,4.242,-0.645,-90.231,-49.527,-3.753,-4.008,-0.347,-92.024,-51.279,1.647,-2.981,1.004,-76.668,-33.821,7.786,9.993,4.309,-66.851,-17.412,14.944,22.439,18.059,-57.56,12.4,18.867,28.94,22.737],[-93.829,-61.339,-18.427,-5.038,-0.815,-90.733,-56.676,-12.705,3.095,1.378,-93.653,-56.526,-12.633,-0.351,0.867,-86.564,-49.661,-19.73,14.786,9.093,-78.107,-42.175,-10.081,23.795,11.354,-76.071,-23.578,32.844,34.704,34.524]],
"ve": [[21.667,12.801,4.332,5.021,-16.484,-4.685,0.144,9.941,9.982,-45.562,8.161,1.026,22.644,-0.544,134.657,28.767,8.425,-18.487,-39.377,-53.714,36.439,6.297,-22.836,-13.99,-31.573,84.153,5.855,13.451,-15.584,-29.564],[-44.314,-4.653,-2.317,-1.544,-0.901,-36.979,-5.072,-1.811,-1.286,-1.203,-42.689,-2.896,-2.149,-1.937,-1.649,-8.14,-0.11,1.575,-0.427,-0.483,2.972,16.338,-0.159,3.378,-15.589,18.185,17.866,10.244,25.192,8.192],[-45.565,-12.994,-3.433,-3.428,-2.543,-50.046,-10.629,-4.733,-3.351,-2.871,-56.042,-13.191,-3.245,-2.017,-2.325,-31.833,-3.607,1.585,-1.311,-2.034,-20.765,-19.467,4.749,4.433,3.158,-9.997,0.236,8.884,15.928,41.948],[-67.313,-28.154,-6.915,-3.692,-3.174,-59.673,-24.265,-7.898,-4.223,-2.836,-65.029,-27.882,-5.665,-4.663,-2.338,-48.095,-16.97,-0.938,-0.971,0.006,-14.946,6.33,-5.388,-3.264,4.234,7.49,22.593,24.886,11.612,5.585],[-15.439,-44.403,-7.847,-4.333,-4.335,-72.702,-37.846,-9.55,-6.986,-4.893,-70,-36.616,-7.589,-5.739,-3.921,-41.755,-23.643,-6.211,-0.622,-3.075,-43.835,-13.421,-0.001,1.072,3.553,-13.194,14.844,8.965,3.537,-1.449],[-82.004,-43.3,-16.609,-7.241,-4.712,-53.084,-35.073,-17.557,-6.657,-4.965,-317.33,-33.433,-16.661,-7.494,-5.633,-62.733,-34.668,-18.509,-2.604,-3.476,-48.165,-50.567,-13.416,-0.985,-2.482,-10.114,-4.161,16.472,16.126,6.788]],
"kep": [[-12.639,-2.421,6.061,-2.732,-8.915,-14.775,-3.833,4.442,0.469,0.339,9.128,7.395,5.075,9.437,7.001,7.146,23.183,13.386,17.378,25.102,35.606,44.768,41.276,41.299,44.916,71.882,113.393,93.092,83.525,29.932],[-45.281,0.102,6.815,1.92,-0.094,-41.245,-1.383,2.823,-0.427,0.518,-50.146,2.769,3.17,3.046,2.631,-30.185,2.069,8.088,6.084,7.323,-29.519,22.532,8.151,6.617,6.735,-21.131,13.236,21.323,27.067,22.013],[-68.945,-7.32,3.887,3.78,3.4,-65.808,-1.088,1.444,3.005,2.809,-66.001,-7.348,2.682,3.502,0.793,-58.527,3.016,10.043,6.188,5.288,-48.369,-9.381,12.21,9.354,9.575,-47.75,-8.573,15.885,20.057,7.564],[-81.421,-20.625,1.896,3.889,4.281,-84.182,-15.974,-2.706,4.291,4.2,-80.62,-21.544,5.983,2.482,6.173,-68.563,-22.481,3.444,7.8,11.019,-55.894,-12.237,9.751,9.67,10.703,-56.96,-15.063,12.768,19.585,9.347],[-85.895,-31.785,5.454,8.251,3.584,-88.064,-31.423,3.924,1.67,4.428,-88.307,-37.49,7.641,1.654,4.593,-75.04,-27.433,8.374,8.676,6.116,-69.939,-27.879,2.791,13.42,11.425,-67.843,-25.713,-10.979,12.094,14.414],[-88.169,-46.788,-6.633,1.029,3.505,-86.279,-43.21,0.864,8.832,5.89,-88.206,-38.243,-0.148,6.282,6.219,-83.603,-42.89,-11.078,13.895,11.839,-79.43,-42.302,-14.219,13.455,11.233,-77.841,-41.043,0.377,4.823,15.918]],
"vp": [[607.076,271.557,-17.596,-12.858,504.202,101.137,86.075,8.65,81.955,42.481,5.546,-17.855,-12.337,7.679,-6.997,-16.034,-37.351,-10.309,-17.286,-19.844,-44.393,-46.936,-31.739,-28.465,-25.019,-49.174,-28.151,-45.102,-36.553,-12.349],[4021.629,1005.869,354.871,763.765,625.76,799.448,221.917,89.604,137.904,128.93,428.958,104.353,54.299,58.758,48.711,19.396,-10.081,-13.396,-3.598,-11.485,0.776,-35.113,-14.003,-9.227,-6.291,-9.675,-15.114,-23.405,-34.156,-31.007],[5357.073,2785.051,978.023,1122.519,646.897,1058.803,449.867,300.027,245.476,233.113,489.84,285.095,99.792,90.9,85.599,74.1,13.113,-12.09,3.832,8.535,21.472,46.264,-18.732,-19.977,-22.786,5.896,1.859,-18.99,-33.565,-4.627],[6771.31,5784.595,1867.505,1388.618,1320.568,1378.82,1048.991,474.405,280.669,249.913,634.513,577.133,140.12,171.637,70.753,105.603,64.299,5.818,4.143,-10.966,-1.396,-15.776,7.338,11.79,-30.039,-4.712,-24.927,-41.89,-26.95,-21.35],[7148.593,8984.324,2484.566,1540.415,1825.653,1368.878,1539.282,606.453,472.847,381.024,767.245,752.152,213.058,232.829,156.212,79.893,94.888,33.747,0.167,29.981,42.87,28.802,-1.534,-8.018,-25.776,6.891,-19.69,-14.772,-9.594,-10.166],[7934.369,9332.74,4906.866,2896.577,2241.734,1332.47,1523.745,1054.585,550.019,481.827,792.768,848.726,479.033,275.21,256.124,125.319,142.906,113.141,15.213,32.942,45.291,43.848,40.94,-7.387,9.166,1.783,3.458,-29.129,-37.323,-20.815]]
}