{
"KTrans": [[-4.846,9.98,14.067,15.33,20.847,5.346,18.569,19.367,18.672,24.381,16.046,22.819,29.841,29.049,27.341,110.55,100.507,81.233,77.467,85.724,179.43,165.152,162.684,151.46,139.336,329.298,390.864,346.944,307.894,294.355],[-40.422,-5.521,-0.902,6.446,8.746,-35.565,-5.739,-0.185,6.982,10.087,-26.615,1.852,5.744,9.523,10.643,16.659,28.73,35.413,34.243,33.045,38.223,71.138,72.984,66.41,65.11,37.095,154.388,149.883,137.338,116.393],[-58.606,-21.439,-10.723,-5.814,-0.894,-53.82,-22.519,-12.662,-4.307,0.669,-49.261,-15.589,-10.115,-0.002,2.2,-29.301,5.66,10.356,17.783,19.385,7.949,40.68,39.649,37.562,38.604,-7.762,94.211,105.692,94.115,82.067],[-64.705,-32.768,-20.153,-14.658,-6.489,-64.983,-31.339,-21.689,-11.04,-3.731,-62.563,-30.612,-18.207,-9.078,-3.945,-45.874,-8.141,-1.911,4.028,11.493,-34.634,12.758,25.453,22.319,27.122,-25.276,33.365,60.576,65.388,64.555],[-73.186,-42.757,-27.419,-21.191,-15.163,-70.988,-43.052,-28.424,-17.113,-12.479,-68.688,-38.498,-24.447,-18.836,-11.269,-59.616,-24.941,-12.005,-5.271,-0.502,-53.884,-10.375,2.415,12.513,14.583,-30.668,15.006,45.034,52.013,51.364],[-78.558,-48.139,-36.371,-26.8,-19.601,-77.825,-46.213,-33.454,-24.319,-19.002,-76.113,-43.645,-30.996,-21.535,-14.489,-67.313,-32.868,-20.618,-13.029,-8.685,-66.458,-18.796,-7.159,9.026,7.643,-55.159,-5.521,28.549,25.913,31.294]],
"ve": [[24.643,7.521,67.282,-391.945,-2458.665,75.855,905.529,-44.407,495.89,-745.545,-20.72,24.631,36.171,-65.903,179.477,48.878,35.744,24.345,24.6,-14.341,101.483,50.211,35.761,19.564,21.008,184.187,91.813,44.562,21.107,22.078],[16.926,-0.599,5.261,7.679,12.055,-0.909,-0.198,4.879,7.225,15.472,5.754,3.735,6.376,7.883,12.956,47.192,19.575,15.107,13.66,15.134,76.331,44.357,30.786,22.376,19.642,178.696,88.613,65.232,41.162,31.951],[-3114.086,-2.017,-2.579,-0.869,1.872,16.627,-2.025,-0.112,0.721,2.754,8.028,1.294,0.382,-0.044,2.637,49.747,18.161,11.917,9.315,8.272,93.433,43.16,25.295,20.305,17.313,191.374,104.811,58.6,44.211,33.61],[5.425,-4.714,-5.004,-2.95,-1.454,-25.233,-1.125,-4.719,-1.758,-0.795,6.25,0.079,-1.753,-0.978,-0.516,32.263,16.583,9.039,8.599,5.485,139.691,42.597,26.901,18.57,15.242,178.35,94.721,58.786,43.623,35.06],[-2.98,-3.602,-6.439,-5.546,-4.134,7.83,-4.156,-3.798,-4.076,-3.212,19.72,-1.723,-2.823,-3.479,-2.261,40.991,19.273,9.913,6.487,5.342,83.794,40.982,24.629,19.013,14.8,181.189,88.742,55.538,41.682,31.691],[31.621,-4.549,-4.52,-5.351,-3.937,13.353,-1.752,-4.708,-5.405,-4.255,134.071,-1.322,-3.915,-3.134,-3.621,28.269,17.213,9.073,5.057,3.778,102.234,42.803,24.022,17.676,13.642,199.996,86.156,58.599,39.923,32.626]],
"kep": [[-47.32,-46.469,-51.263,-61.687,-63.768,-47.996,-43.918,-46.853,-57.237,-58.608,-43.16,-38.697,-41.867,-42.121,-49.335,-12.583,-4.122,-6.957,-9.188,15.903,-13.773,9.262,26.147,39.022,44.478,-11.61,58.414,85.263,101.921,126.851],[-66.216,-42.805,-43.758,-40.69,-41.935,-64.25,-43.198,-43.066,-40.576,-42.07,-56.951,-41.453,-40.674,-39.538,-41.515,-52.843,-36.386,-30.643,-29.956,-31.268,-58.593,-30.416,-21.991,-19.73,-18.474,-69.31,-21.934,-9.319,-1.244,-3.534],[-75.999,-52.127,-46.074,-43.947,-42.663,-74.329,-52.706,-48.456,-43.78,-42.24,-72.145,-50.305,-46.988,-41.209,-41.441,-70.749,-47.207,-41.938,-36.75,-35.208,-67.433,-42.607,-34.733,-33.02,-30.755,-80.218,-41.475,-24.562,-21.268,-20.149],[-79.978,-58.272,-50.437,-48.467,-44.21,-80.618,-58.395,-51.595,-46.795,-42.97,-78.945,-58.782,-50.983,-46.198,-43.325,-76.819,-53.364,-47.1,-43.864,-37.98,-80.554,-53.397,-42.207,-39.614,-35.343,-83.901,-60.221,-40.471,-32.92,-28.795],[-83.702,-64.612,-54.318,-51.038,-48.126,-84.094,-64.915,-56.192,-49.211,-46.924,-82.826,-62.891,-54.342,-50.665,-46.754,-83.976,-62.89,-52.919,-47.881,-44.683,-85.501,-62.35,-51.855,-44.719,-41.532,-84.875,-64.457,-46.348,-37.632,-33.21],[-87.925,-67.975,-60.702,-54.494,-50.941,-87.582,-67.718,-58.884,-52.982,-50.383,-87.404,-66.136,-57.889,-52.416,-47.893,-87.056,-66.158,-57.275,-51.427,-48.445,-89.954,-66.681,-56.313,-45.829,-44.531,-90.035,-70.624,-52.699,-47.43,-42.263]],
"vp": [[-58.979,-650.812,763.743,-94.881,645.536,31.214,-141.436,27.529,67.886,69.996,-46.956,17.08,25.414,46.291,67.323,-14.233,-5.319,-23.48,-8.201,-13.956,-29.347,-13.657,0.745,2.428,-16.54,-13.696,-16.21,-7.699,-27.25,-14.555],[2982.231,1802.341,-330.775,366.557,97.379,621.097,175.366,-18.501,20.645,85.976,181.191,70.165,27.834,-69.886,24.233,45.504,7.677,-24.072,3.813,-11.075,20.762,-3.323,-5.038,-8.716,5.706,-5.463,-8.682,-14.64,-24.146,-44.454],[4458.511,4141.688,2376.95,1079.932,77.198,995.54,514.861,217.645,-9.91,-26.225,387.116,376.199,163.03,141.544,-88.534,74.083,54.063,17.858,-1.881,-16.262,27.312,21.734,-7.557,-4.893,-14.485,11.716,2.356,-13.609,-8.999,-30.448],[6558.594,6007.327,3878.79,2118.34,1423.408,1146.642,1175.117,833.436,498.453,522.195,539.898,582.964,390.339,352.735,170.233,101.979,133.529,42.966,59.508,36.49,62.412,44.373,30.894,-5.494,-1.498,6.659,16.77,-13.486,-6.554,1.384],[5569.563,8327.399,6186.079,3878.159,2068.595,1343.694,1511.944,1364.778,1044.549,612.403,591.728,684.983,632.306,359.971,278.4,124.418,152.38,98.427,61.809,30.566,43.925,46.128,19.435,28.806,5.34,1.059,14.06,6.542,11.772,-2.507],[7126.91,8745.568,8545.231,6110.514,3456.514,1460.884,1816.868,1545.502,1147.901,804.818,643.636,907.475,691.915,544.367,388.858,125.971,154.789,140.027,86.979,59.877,30.587,69.728,38.234,46.935,31.531,15.437,6.096,28.277,3.236,-6.211]]
}