{
"KTrans": [[-14.826,-8.779,-3.806,-7.197,-6.99,-16.212,-9.81,-9.082,-4.166,-6.873,-15.733,-8.543,-6.667,-7.286,-1.613,-15.845,-9.105,-7.224,-5.153,-6.16,-12.508,-6.494,-8.296,-5.213,-3.13,-16.899,-9.254,-9.493,-3.444,-3.264],[-34.59,-11.478,-18.315,-13.064,-9.476,-43.045,-19.253,-13.704,-15.536,-10.965,-32.929,-21.236,-17.966,-13.279,-10.737,-17.35,-18.384,-11.152,-12.207,-9.815,-48.609,-16.499,-15.891,-13.815,-13.968,-26.698,-21.339,-16.147,-12.192,-12.09],[-74.241,-21.448,-10.797,-23.829,-15.267,-74.269,-29.168,-22.165,-21.65,-16.765,-74.814,-12.144,-15.004,-18.525,-14.545,-73.244,-24.407,-20.992,-18.587,-14.208,-64.626,-20.543,-20.792,-20.573,-14.204,-75.35,4.804,-19.003,-17.51,-17.166],[-89.21,-34.566,-4.72,-15.72,-23.927,-95.656,-36.109,-0.136,-21.096,-16.924,-87.661,-36.923,-10.695,-11.462,-17.166,-99.061,-53.097,-10.623,-18.003,-18.658,-91.272,-37.793,-11.133,-19.479,-16.759,-95.146,-39.315,12.736,-17.193,-15.246],[-100.35,-58.042,9.642,0.578,-14.177,-102.297,-59.168,-15.546,-10.201,-23.259,-101.293,-45.198,-4.558,-10.439,-14.698,-104.812,-71.147,-24.162,-19.493,-23.429,-104.884,-73.273,5.76,-9.664,-26.222,-96.855,-53.838,23.251,-10.607,-17.166],[-108.987,-82.966,-30.939,112.328,-15.798,-111.25,-84.877,-32.351,50.306,-18.434,-112.263,-90.105,-41.068,9.223,-9.755,-102.309,-75.124,-42.053,21.07,-21.025,-108.581,-71.559,-53.6,75.533,-16.817,-105.34,-72.851,-47.238,49.673,-9.427]],
"ve": [[-10.733,-2.298,2.354,9.433,15.413,-11.76,-2.789,3.071,6.86,14.324,-11.762,-1.968,3.551,9.258,13.016,-10.88,-2.604,3.002,8.699,14.052,-9.628,-3.047,3.586,7.117,10.736,-10.155,-2.103,3.696,6.655,13.385],[-34.063,-13.207,-12.589,-7.47,-4.72,-44.274,-15.891,-11.032,-8.378,-4.834,-36.099,-16.611,-10.812,-7.692,-4.677,-35.191,-17.691,-10.163,-6.958,-4.03,-45.783,-17.466,-11.675,-7.927,-4.2,-46.409,-18.794,-12.3,-5.678,-4.308],[-57.772,-31.126,-15.006,-16.238,-11.149,-67.007,-33.278,-16.693,-11.79,-11.2,-70.872,-32.578,-17.279,-13.449,-10.472,-69.259,-31.327,-19.266,-13.235,-10.666,-53.923,-30.781,-18.05,-15.458,-10.665,-68.138,-24.56,-16.6,-14.1,-9.369],[-82.225,-41.692,-18.245,-17.628,-18.869,-94.964,-45.912,-24.411,-20.968,-14.657,-80.792,-48.829,-23.459,-18.86,-16.131,-97.034,-53.418,-28.444,-18.081,-16.532,-90.299,-43.149,-23.646,-20.141,-15.19,-87.067,-48.217,-19.015,-18.554,-14.23],[-99.325,-55.46,-33.191,-22.01,-20.623,-82.675,-58.564,-41.962,-23.298,-23.16,-96.905,-47.821,-37.628,-24.483,-20.063,-99.406,-57.31,-45.685,-23.133,-23.371,-105.342,-68.238,-35.556,-26.49,-22.292,-85.81,-53.773,-35.619,-19.393,-18.756],[-112.317,-77.817,-41.297,-22.169,-18.489,-107.645,-69.544,-44.364,-25.461,-23.414,-120.615,-85.452,-47.028,-45.416,-19.465,-111.273,-77.495,-43.067,-26.184,-25.268,-115.332,-65.42,-51.273,-29.085,-22.834,-108.723,-68.568,-53.241,-17.461,-24.682]],
"kep": [[-4.731,-6.199,-4.907,-12.158,-13.933,-5.085,-6.785,-10.494,-7.668,-13.797,-4.28,-6.348,-8.231,-12.153,-6.97,-5.406,-6.393,-8.53,-9.307,-11.819,-2.986,-2.972,-10.104,-8.688,-8.413,-7.419,-6.867,-11.112,-6.491,-8.195],[-39.941,1.284,-6.111,-5.952,-4.778,-44.93,-4.172,-3.109,-7.512,-6.3,-33.288,-5.035,-7.54,-5.913,-6.187,-24.461,-0.378,-1.247,-5.508,-5.912,-46.491,1.24,-4.79,-6.16,-10.036,-39.518,-2.397,-3.935,-6.78,-7.917],[-56.052,2.879,3.245,-8.015,-4.527,-49.806,2.405,-6.15,-10.789,-6.252,-49.691,12.319,2.438,-5.902,-4.913,-47.459,-5.845,-1.396,-5.758,-3.92,-45.998,5.436,-3.275,-5.453,-3.878,-56.643,12.164,-3.541,-4.098,-8.358],[-58.84,-34.808,12.298,1.404,-4.923,-56.913,-36.773,22.281,1.333,-2.25,-55.676,-39.271,11.952,7.34,-1.199,-57.419,-52.237,17.184,-0.287,-2.694,-55.867,-33.137,13.993,1.434,-1.83,-59.129,-48.648,26.893,1.319,-1.29],[-66.511,-38.611,-36.583,23.665,7.219,-67.756,-39.688,-29.927,13.69,0.687,-65.278,-35.286,-43.109,16.282,5.17,-66.712,-54.012,-43.213,4.696,1.507,-63.441,-42.609,-27.482,15.681,-2.919,-66.777,-35.659,-22.604,9.721,0.561],[-66.023,-47.286,-28.349,14.974,1.861,-70.236,-54.869,-29.318,16.224,6.868,-66.611,-49.564,-34.486,-30.497,10.203,-67.553,-42.906,-36.973,3.741,6.248,-66.054,-45.026,-43.137,0.396,6.243,-67.991,-45.828,-42.775,13.695,17.218]],
"vp": [[1303.724,1081.047,1549.81,1268.146,1115.402,302.844,307.848,202.824,338.44,264.982,156.539,132.451,166.22,132.53,165.76,25.094,27.901,26.073,25.061,26.308,11.047,15.468,10.712,12.664,15.047,6.199,7.214,5.389,7.827,6.665],[3483.616,2862.523,4699.556,4233.209,4590.899,918.482,663.9,827.61,948.366,859.858,374.879,347.785,367.71,444.632,435.438,77.497,80.493,79.922,82.272,73.721,47.773,41.193,43.882,45.511,32.045,20.177,21.02,23.415,14.754,18.983],[5623.053,6623.101,5043.988,7190.437,6950.791,1352.2,1401.767,994.818,879.678,1336.627,727.749,639.947,575.977,575.005,624.495,151.965,126.3,122.358,113.841,132.811,54.322,63.466,55.354,68.42,66.527,34.451,25.417,26.552,31.924,24.788],[8115.566,8542.751,5438.759,7480.218,10410.251,1946.539,1886.976,1618.662,1836.399,1624.567,812.129,986.022,714.297,858.311,942.006,198.771,216.764,189.422,149.809,187.614,93.495,87.571,76.585,86.524,84.808,43.521,50.893,33.021,39.995,39.532],[10065.031,12032.544,10276.823,10086.513,11703.319,2012.703,2396.982,2621.25,2016.542,2530.613,963.732,948.126,1106.076,1068.99,1120.914,198.96,226.99,279.166,183.64,253.129,105.278,144.741,110.682,116.012,117.946,42.002,54.63,56.803,38.797,48.172],[11450.683,15144.175,12667.836,9462.598,8569.894,2160.712,2768.631,2662.726,2167.956,2452.08,1220.629,1761.302,1445.437,1874.129,1011.984,214.766,311.151,255.742,219.168,264.294,117.21,131.995,159.407,123.463,117.984,55.673,68.892,83.496,31.052,67.92]]
}