{
"KTrans": [[41.28,28.881,19.446,17.529,24.103,56.564,35.36,34.594,33.085,22.162,73.837,43.321,26.198,42.295,25.315,243.213,132.729,102.189,95.339,86.928,597.123,274.561,227.044,196.584,176.327,1407.139,705.103,524.067,465.786,422.577],[-36.365,74.96,38.743,31.479,27.973,-56.606,79.674,47.14,39.32,27.121,-20.786,60.851,51.019,47.179,42.446,-27.754,198.946,98.055,64.366,49.734,159.281,307.302,169.539,121.068,101.257,628.191,563.475,314.8,255.368,200.307],[-131.623,98.973,86.853,65.261,38.841,-120.366,106.375,89.825,51.588,45.94,-137.77,137.121,96.347,53.244,52.765,-97.776,230.495,151.646,100.447,82.788,-115.641,315.624,251.125,153.591,107.874,-142.981,612.497,399.423,223.16,212.728],[-119.333,-52.481,190.633,79.887,54.378,-132.391,-117.091,180.816,100.429,46.217,-133.536,-84.13,216.59,87.533,66.834,-140.276,-76.576,242.157,151.638,95.778,-106.313,-36.434,351.423,201.827,142.165,-227.841,123.582,683.603,373.931,214.053],[-117.14,-163.47,143.763,185.72,96.356,-106.299,-174.71,85.59,209.371,98.386,-123.763,-120.31,91.935,173.532,102.86,-115.758,-188.915,179.144,233.745,134.993,-125.388,-209.805,203.462,325.89,175.313,-138.913,-217.674,323.802,459.253,320.865],[-108.092,-134.295,-165.471,210.938,153.114,-111.313,-146.637,-107.513,276.002,157.708,-109.116,-108.185,-32.128,242.418,170.295,-109.914,-165.329,-165.065,224.57,195.794,-140.625,-190.734,0.963,349.564,252.606,-167.541,-209.7,-240.251,449.803,359.375]],
"ve": [[3.999,3.786,-10.324,19.341,2.339,9.137,2.326,5.276,18.226,17.466,12.471,4.065,2.026,-4.148,-70.935,46.63,14.207,-1.217,-11.39,-19.212,97.512,32.809,9.467,-7.109,-18.751,193.457,80.775,36.549,11.994,-4.417],[12.098,3.509,1.555,2.04,1.131,6.911,3.892,3.852,2.574,1.359,14.17,5.431,4.262,4.394,2.66,49.946,27.519,15.919,8.509,4.589,98.527,51.309,31.192,19.018,12.798,200.548,95.866,61.212,44.092,28.934],[3.971,3.172,3.656,3.619,1.051,7.224,4.117,4.049,1.271,2.808,14.826,7.176,4.215,2.603,3.712,54.556,29.038,17.674,14.07,11.474,101.14,51.373,35.913,24.544,18.326,201.948,100.57,65.446,44.95,39.301],[1.334,22.467,3.726,0.376,0.795,8.121,5.8,3.041,3.54,0.381,-5899.911,7.283,8.158,2.031,2.699,45.709,27.616,17.749,14.782,11.014,100.286,49.284,33.956,25.496,21.244,200.966,100.549,69.441,52.659,37.466],[4.14,1.487,6.523,3.124,1.047,16.095,6.288,4.111,3.757,2.616,13.954,7.211,4.024,4.095,3.598,50.624,26.626,18.66,14.158,10.901,102.394,46.384,26.701,27.601,21.153,200.401,101.267,65.631,50.854,41.421],[4.847,0.54,3.588,3.041,3.36,3.679,1.836,3.123,5.043,2.459,11.083,3.795,7.715,4.893,3.806,52.067,26.624,17.255,12.824,10.064,109.033,51.879,37.636,26.502,20.685,196.892,101.677,68.503,50.358,39.609]],
"kep": [[32.586,27.314,21.182,23.84,35.392,41.301,33.017,37.691,44.038,36.641,51.181,38.323,29.112,56.585,41.713,129.393,100.706,103.31,118.51,131.628,249.015,177.201,194.825,215.84,236.84,409.921,341.373,353.191,401.503,443.142],[-42.988,61.261,32.004,26.053,25.088,-61.676,65.32,37.746,33.097,23.73,-34.856,46.206,40.085,39.012,37.639,-52.279,127.169,65.389,46.947,39.438,26.451,160.547,99.362,80.633,74.895,136.876,227.454,150.726,142.08,127.847],[-126.215,78.163,72.676,54.382,32.443,-114.199,82.848,74.156,42.742,37.937,-128.997,106.965,77.954,42.5,42.888,-94.474,145.165,103.961,69.542,60.021,-106.667,163.246,149.879,96.046,69.916,-111.515,242.54,191.241,114.864,119.786],[-114.994,-55.451,163.356,67.404,45.548,-125.642,-111.673,151.728,84.141,37.725,-125.283,-83.058,177.938,72.027,54.704,-123.282,-78.291,171.971,110.095,69.033,-100.261,-56.618,217.869,129.333,92.8,-137.512,11.627,344.312,201.706,118.463],[-113.575,-152.898,117.699,159.542,81.777,-103.601,-161.986,67.392,178.242,82.314,-117.673,-113.617,71.477,144.658,84.776,-107.956,-159.556,120.546,174.686,100.155,-110.308,-164.593,113.406,217.221,116.753,-110.011,-149.588,142.523,253.099,185.994],[-105.928,-126.227,-151.974,179.915,131.224,-108.057,-136.255,-101.532,236.81,133.816,-105.427,-102.863,-36.545,204.524,142.445,-103.44,-143.657,-145.695,164.958,150.133,-117.826,-152.738,-25.018,233.299,175.571,-120.175,-146.365,-173.784,245.934,210.682]],
"vp": [[2024.237,2045.796,1348.802,1697.432,2159.761,332.469,324.542,409.299,361.293,342.269,232.686,169.836,131.629,213.08,163.588,35.309,40.087,33.633,37.226,32.377,21.72,18.185,21.066,19.172,17.497,10.626,9.558,9.348,9.208,9.327],[6950.583,5870.196,5096.841,5560.042,5280.7,1326.548,1159.718,1003.179,1155.229,1114.983,689.692,446.828,546.35,552.417,558.348,124.388,127.23,107.234,94.111,80.353,57.225,58.62,55.332,47.968,41.253,34.711,26.073,23.267,27.476,26.807],[9436.333,11009.512,9291.08,9900.105,8407.376,1418.606,2265.728,1694.485,1616.556,1788.23,974.37,1003.19,914.771,824.377,1007.15,141.324,222.653,184.991,191.635,194.78,92.434,105.828,100.569,98.307,88.502,43.238,50.55,43.587,33.014,47.333],[9910.117,12866.385,14517.323,11261.868,11084.979,2237.488,2966.891,2815.915,2320.341,2074.439,992.76,1460.421,1589.521,1061.436,1156.032,206.157,290.707,259.352,244.016,227.982,87.762,125.989,125.782,113.332,129.114,50.498,63.853,72.469,69.581,56.667],[11034.009,16949.8,17757.021,16829.718,15721.346,1977.617,3269.539,3232.736,3797.619,2959.34,1015.929,1383.755,1853.504,1642.207,1616.046,190.782,308.883,385.335,297.202,322.338,112.49,145.941,188.765,175.893,157.861,52.814,74.152,91.744,84.235,93.83],[10706.296,15960.92,22157.335,22590.409,17784.841,2041.647,3214.706,3974.471,4661.049,3731.731,1084.233,1663.76,2201.435,2294.756,1889.639,240.943,359.22,458.299,429.717,372.75,116.266,172.769,210.418,203.518,173.153,56.492,89.172,111.434,98.601,90.722]]
}