{
"KTrans": [[-1.112,-1.99,0.395,0.424,-0.451,0.935,2.014,2.014,1.52,-1.169,1.257,2.847,2.514,1.513,1.096,16.51,11.403,8.297,6.906,5.844,35.039,17.701,17.788,13.712,10.246,58.733,41.144,33.922,29.562,22.388],[-23.873,-0.967,0.175,-0.661,0.924,-24.686,0.722,-0.212,-0.821,0.217,-23.875,-0.211,1.513,-0.203,1.45,-18.554,7.059,7.319,5.18,4.161,-9.676,15.193,11.857,8.033,7.497,5.276,30.771,18.598,18.787,16.054],[-51.516,-4.12,-2.649,-1.262,-0.292,-52.959,-5.748,-0.822,-0.195,-0.527,-48.401,-4.184,-1.528,0.898,0.955,-46.081,2.699,3.792,3.294,1.44,-38.546,7.276,7.057,7.898,7.17,-35.247,25.157,18.062,15.171,11.542],[-70.304,-11.234,-1.627,-0.565,-0.42,-70.936,-10.425,-3.169,0.37,-0.788,-67.58,-9.791,-1.374,-0.699,0.126,-71.409,-4.304,4.983,3.185,2.064,-63.05,1.56,4.878,7.187,6.722,-59.454,7.085,16.206,14.149,12.967],[-81.621,-20.138,-2.745,-1.529,-0.106,-82.182,-17.639,-0.944,-1.198,-0.563,-81.108,-19.658,-3.111,-1.646,-0.459,-79.182,-12.905,0.201,2.617,3.617,-76.77,-7.034,5.553,5.951,5.84,-75.164,-4.229,17.843,11.797,11.761],[-87.738,-26.899,-5.344,-3.267,-3.713,-87.622,-26.586,-7.049,-2.645,0.614,-88.369,-28.743,-5.776,-1.551,-0.294,-87.8,-23.282,-1.179,1.999,2.379,-85.242,-19.059,1.441,2.55,4.185,-86.024,-17.618,9.263,12.435,11.802]],
"ve": [[1.09,1.754,2.258,5.216,10.674,3.48,1.638,1.772,2.117,10.049,5.016,3.273,3.765,3.825,5.305,7.772,3.053,2.858,1.632,5.107,11.518,3.451,-0.801,-1.998,1.228,22.003,8.592,1.666,-5.23,-3.436],[-9.009,0.011,0.844,0.25,0.659,-7.115,0.334,-0.27,-0.027,0.841,-4.817,0.484,0.301,0.567,0.227,-3.733,2.806,2.105,1.369,0.436,4.268,7.108,3.617,3.167,1.914,14.273,12.724,7.452,4.658,2.722],[-16.78,-0.761,-0.557,-0.04,-0.308,-20.325,-1.581,0.541,-0.059,0.132,-17.006,-1.403,-0.429,0.03,0.539,-15.593,1.523,2.044,1.311,1.061,-8.908,6.261,4.318,3.045,2.514,4.384,11.629,8.042,5.686,4.727],[-30.805,-4.082,-1.067,0.028,-0.35,-32.935,-4.034,0.128,0.211,-0.106,-28.527,-3.042,-0.449,-0.183,0.196,-29.374,-0.59,1.6,1.764,1.226,-18.751,4.261,3.031,3.192,2.103,-5.089,6.129,8.63,6.488,5.126],[-40.142,-7.687,-1.584,-0.012,-0.565,-39.254,-5.832,-0.411,-0.415,-0.013,-39.961,-6.849,-0.936,-0.638,-0.354,-33.428,-3.16,1.323,1.206,1.267,-32.399,-0.871,3.851,2.634,1.987,-22.76,6.054,8.35,6.008,5.966],[-49.664,-10.816,-2.115,-0.745,-0.831,-67.495,-10.346,-2.483,-1.005,0.065,-41.41,-10.263,-2.221,-0.798,-0.106,-47.642,-8.177,0.631,1.572,1.026,-38.7,-4.884,1.852,2.702,2.043,-28.544,0.437,4.915,6.421,5.141]],
"kep": [[-1.673,-2.397,0.325,-0.901,-2.599,-1.578,1.491,3.218,3.06,-2.533,-2.859,1.138,1.585,1.754,1.067,8.304,9.863,8.17,9.063,8.267,20.406,15.187,21.465,20.549,15.629,28.017,31.071,38.324,39.839,38.165],[-17.07,-0.9,-0.516,-0.802,0.436,-19.303,0.446,0.23,-0.645,-0.526,-20.48,-0.721,1.289,-0.671,1.386,-15.77,4.2,5.108,3.811,3.81,-14.59,7.407,7.921,4.837,5.574,-11.65,15.485,10.103,13.462,13.052],[-42.145,-3.277,-2.132,-1.202,0.029,-42.474,-4.249,-1.377,-0.131,-0.629,-38.714,-2.765,-1.15,0.891,0.445,-37.798,1.188,1.686,1.959,0.421,-36.898,0.735,2.614,4.666,4.532,-43.565,11.64,9.094,8.78,6.514],[-59.702,-7.455,-0.672,-0.575,-0.06,-59.759,-6.751,-3.289,0.173,-0.681,-57.713,-7.063,-0.932,-0.532,-0.041,-64.287,-3.638,3.264,1.397,0.825,-58.857,-2.779,1.671,3.825,4.492,-60.388,0.14,6.731,7.022,7.412],[-72.612,-13.437,-1.188,-1.544,0.448,-73.021,-12.604,-0.613,-0.787,-0.547,-72.309,-14.147,-2.294,-1.013,-0.099,-72.877,-10.309,-1.161,1.422,2.308,-71.616,-6.543,1.61,3.268,3.714,-75.262,-10.376,8.345,5.308,5.391],[-79.748,-18.165,-3.331,-2.55,-2.92,-79.579,-18.631,-4.756,-1.662,0.536,-81.043,-20.991,-3.713,-0.764,-0.168,-81.674,-17.075,-1.806,0.4,1.303,-80.749,-15.595,-0.476,-0.226,2.071,-84.174,-20.238,3.721,5.552,6.168]],
"vp": [[55.02,21.007,-88.556,-55.814,-67.241,1.566,-7.573,-5.722,-17.626,20.875,-16.166,-20.332,-10.977,-16.199,-12.982,-11.298,-11.965,-11.285,-12.769,-9.92,-12.499,-11.273,-13.102,-10.553,-10.968,-9.847,-12.878,-11.947,-12.761,-10.293],[1054.895,166.496,-113.764,-13.147,-59.668,159.565,5.054,-0.506,2.339,-27.596,67.42,1.772,-9.244,3.028,-0.594,12.269,-8.671,-11.995,-14.565,-14.435,-2.322,-13.688,-12.331,-13.288,-13.052,-5.87,-12.594,-12.136,-12.006,-12.619],[2187.062,352.397,234.394,108.345,98.951,428.401,66.582,-11.862,9.864,-9.334,207.509,43.47,12.054,-5.084,-14.448,35.033,-3.725,-11.277,-10.144,-9.973,9.301,-10.533,-11.459,-13.985,-12.322,-0.662,-10.828,-12.418,-12.434,-13.307],[3507.844,929.321,293.647,-11.827,166.263,675.826,177.946,29.978,14.297,30.831,305.043,69.804,21.387,12.143,2.734,62.99,4.037,-8.941,-14.003,-11.192,21.81,-7.167,-6.898,-12.368,-12.035,5.236,-5.377,-12.82,-12.649,-14],[4414.572,1628.371,504.974,106.034,299.395,870.654,256.547,31.531,63.275,5.366,432.306,153.73,40.182,21.229,22.875,74.111,17.262,-5.291,-10.707,-9.921,31.627,2.627,-9.167,-9.461,-10.819,11.026,-5.023,-11.644,-11.26,-14.152],[5089.47,2249.068,710.349,339.546,526.556,994.873,467.859,160.372,79.302,2.663,504.352,221.597,61.886,31.493,16.579,96.677,34.204,-2.837,-10.755,-11.423,40.155,11.384,-4.312,-11.32,-12.055,16.506,0.096,-6.48,-11.965,-13.445]]
}