{
"KTrans": [[-4.769,14.703,9.003,11.294,7.637,-12.259,5.168,4.285,8.496,4.866,-8.42,11.374,12.049,8.978,0.09,-0.543,13.708,18.313,9.156,25.678,54.178,60.194,42.404,29.225,19.85,80.056,84.435,106.589,97.153,75.245],[-75.242,-14.376,7.437,-1.124,-0.321,-79.772,-15.168,-0.936,2.281,3.48,-83.513,-20.244,-6.417,-0.466,-1.646,-57.003,1.554,16.705,6.024,7.772,-48.134,38.715,18.817,10.283,11.144,-18.266,13.807,56.724,35.156,39.645],[-87.454,-35.434,-8.579,-2.396,-1.957,-87.773,-41.462,5.218,-0.007,3.904,-92.128,-36.836,3.03,0.272,3.41,-84.698,-23.098,3.357,12.793,3.97,-75.93,-12.062,16.589,6.022,8.475,-55.223,3.464,33.471,37.932,34.202],[-94.477,-61.355,-20.174,-5.949,2.844,-93.907,-67.589,-5.612,-4.53,-2.049,-92.42,-63.326,-12.738,-2.958,0.461,-91.789,-52.396,-2.256,12.111,5.598,-83.156,-53.371,16.05,9.101,2.78,-64.457,2.388,32.103,22.46,12.014],[-95.518,-68.736,-40.073,-7.475,-3.131,-96.374,-76.193,-28.275,-13.246,-0.089,-95.912,-79.519,-34.681,-5.156,3.548,-90.967,-64.034,-16.344,-0.665,9.737,-89.068,-57.544,-10.033,-0.785,13.573,-77.669,-47.229,-5.523,37.685,21.006],[-96.074,-83.383,-49.356,-19.76,3.401,-97.46,-85.457,-53.24,-18.245,3.387,-95.951,-85.139,-38.493,-12.919,-2.379,-93.603,-81.321,-47.371,-12.42,-0.789,-92.833,-67.237,-35.351,0.881,-0.287,-79.677,-65.546,-17.121,6.742,9.536]],
"ve": [[-32.199,10.957,65.24,-15.414,-2090.472,36.336,4.915,-71.465,55.152,-8.173,73.229,-4.455,-0.172,-50.694,-225.152,-19.894,-44.658,-15.946,1246.882,-12.038,20.473,20.573,-13.921,-5.566,-42.407,26.282,57.265,0.357,-9.81,-2.267],[87.734,0.736,0.025,-0.585,1.234,-47.016,-8.672,-0.415,-0.383,1.512,-60.737,-6.516,-1.403,-0.039,1.887,-21.543,2.41,7.253,1.994,2.086,-50.292,18.384,1.62,1.418,-12.179,-11.877,32.957,15.747,1.116,-1.601],[-50.512,-19.7,-5.862,-3.942,-1.947,-32.753,-27.4,-0.77,-1.171,-0.982,-71.388,-14.48,-2.771,-2.606,-0.702,70.241,-12.135,-1.306,2.58,-0.878,-43.912,-6.1,-0.763,0.446,1.814,2.52,127.768,9.187,11.678,10.56],[-132.677,-36.367,-14.073,-4.314,-1.798,-77.006,-44.779,-7.712,-6.152,-2.64,-76.056,-43.263,-11.661,-4.394,-2.879,-67.54,-17.598,-5.669,0.112,-1.3,-62.818,-45.717,8.447,2.792,-1.15,-38.249,-24.622,11.142,4.473,2.797],[-56.199,-32.806,-21.105,-7.022,-4.713,-68.035,-55.913,-18.412,-8.811,-3.542,-66.453,-57.326,-23.638,-7.708,-1.223,-62.645,-42.5,-14.511,-8.605,-2.904,21.048,-42.32,-12.593,-7.186,2.649,-76.97,-30.518,61.022,11.75,7.179],[-56.186,-55.766,-32.973,-12.076,-2.323,-82.888,-59.382,-38.647,-11.147,-2.631,-74.606,-62.707,-26.136,-12.666,-3.904,-85.617,-57.516,-28.306,-11.286,-3.93,-83.179,-42.511,-22.304,-5.537,-4.282,-25.065,-28.342,-11.926,-3.619,0.686]],
"kep": [[-26.615,7.54,6.54,12.734,7.659,-27.132,-2.205,0.127,6.224,-1.716,-33.653,-0.471,5.056,5.55,-12.884,-31.562,-3.552,9.347,3.438,37.446,6.953,20.845,30.885,13.115,-1.185,37.448,50.701,75.089,70.249,69.362],[-77.579,-12.263,7.463,0.002,-0.299,-82.086,-12.198,-0.745,3.51,2.634,-84.984,-17.792,-5.242,0.268,-2.312,-64.503,-8.829,8.839,4.378,6.908,-57.824,6.696,10.158,1.543,7.671,-44.098,3.413,21.634,7.256,20.461],[-86.427,-26.854,-4.069,0.489,-0.758,-88.165,-32.339,2.364,0.441,4.512,-93.369,-30.079,4.428,2.275,3.724,-86.681,-23.019,-0.293,7.647,4.282,-76.56,-22.981,11.869,0.989,4.547,-69.742,-25.838,-1.506,10.159,14.595],[-96.414,-52.227,-10.42,-2.866,3.292,-92.262,-58.011,-1.728,0.032,-0.001,-92.041,-57.361,-3.036,-0.427,2.544,-91.306,-47.361,1.588,9.365,5.759,-84.596,-50.538,-3.319,1.401,1.122,-74.711,-27.685,-5.824,5.632,-2.191],[-94.385,-57.753,-30.1,-2.361,0.722,-96.775,-69.389,-16.313,-6.502,2.459,-95.457,-70.274,-26.652,-0.151,3.392,-92.861,-60.777,-10.175,4.039,11.08,-87.654,-60.706,-14.779,0.313,6.007,-80.559,-52.129,-23.8,9.436,5.412],[-97.577,-75.292,-37.502,-10.113,3.376,-97.218,-79.38,-42.885,-9.126,4.24,-96.539,-78.661,-25.563,-4.995,-0.163,-93.607,-73.039,-34.165,-5.967,1.282,-91.846,-67.465,-29.975,-0.047,0.457,-86.189,-73.123,-33.448,-10.555,-6.079]],
"vp": [[674.331,105.08,-344.311,-297.046,-40.22,193.329,68.369,21.538,-28.935,-67.803,62.202,8.053,-27.467,-37.024,4.079,12.455,-11.874,-7.581,-14.675,-26.876,-8.118,-30.837,-25.831,-18.662,-11.931,-3.113,-25.605,-33.561,-30.864,-31.245],[5119.833,1938.983,397.247,707.291,555.854,1097.167,494.15,121.569,146.214,-15.729,587.083,230.084,120.188,75.932,67.717,68.183,11.698,-22.043,-1.92,-13.997,48.487,-34.042,-8.028,-11.875,-6.956,0.522,-33.842,-24.403,-20.051,-32.533],[6217.012,4516.298,2050.163,1792.744,1312.7,1284.823,1071.108,151.271,102.913,94.563,755.492,415.71,168.115,111.286,63.549,117.99,63.587,6.3,-13.284,8.611,48.016,17.91,10.745,3.553,0.824,-3.022,-14.8,-16.008,-26.765,-32.367],[7739.038,8085.968,4397.632,2072.652,854.484,1514.545,1800.957,499.227,448.923,284.627,703.544,941.511,366.525,158.79,129.19,148.956,117.296,31.675,-1.926,13.427,67.964,74.637,-27.351,-6.287,10.449,18.598,-9.544,-17.184,-8.821,2.595],[7922.666,9689.125,7432.729,2727.982,2446.612,1630.819,2306.152,1174.594,806.558,402.248,851.51,1269.188,776.186,316.931,80.483,143.579,175.788,91.74,74.763,32.807,64.758,83.944,16.993,28.479,-19.711,35.112,32.278,5.26,-25.565,-13.229],[7250.751,12846.181,10171.173,5723.367,1177.652,1666.538,2632.421,2340.019,914.464,264.216,837.122,1263.84,853.254,497.432,190.724,141.425,252.228,194.995,94.117,41.029,69.437,88.235,69.812,27.665,30.701,12.618,27.456,20.261,3.826,-2.302]]
}