{
"KTrans": [[-30.373,-9.797,-5.938,-3.335,-7.147,-24.845,-12.599,-6.83,-7.611,-8.511,-24.789,-5.805,-7.605,-5.712,-2.887,-15.275,-5.388,-6.503,-3.486,-6.371,-31.158,3.639,-0.838,-2.098,-1.856,-25.725,-9.534,-6.702,-7.154,-1.345],[-80.218,-33.253,-17.188,-18.183,-8.979,-75.112,-34.462,-22.433,-15.209,-14.302,-77.503,-35.053,-19.185,-12.069,-11.305,-81.4,-27.902,-16.115,-14.566,-12.484,-79.951,-26.815,-17.904,-16.508,-11.649,-77.629,-30.18,-17.761,-8.353,-11.002],[-90.286,-65.239,-34.134,-21.913,-25.373,-91.09,-67.235,-29.061,-25.749,-18.98,-91.206,-60.151,-34.815,-15.653,-17.252,-90.448,-65.802,-33.476,-24.956,-18.24,-88.682,-65.06,-33.645,-27.671,-13.344,-91.858,-59.18,-28.152,-21.906,-19.447],[-96.383,-75.274,-54.61,-35.04,-22.098,-95.76,-76.083,-55.364,-31.367,-23.808,-93.576,-83.319,-52.863,-33.909,-22.898,-100.629,-73.728,-53.132,-29.608,-22.725,-95.116,-79.046,-49.314,-36.605,-24.636,-96.654,-75.889,-54.291,-28.452,-28.925],[-98.947,-85.787,-68.945,-45.949,-32.008,-96.968,-86.922,-63.542,-40.238,-32.227,-100.911,-83.609,-60.463,-49.944,-35.479,-99.118,-77.575,-64.793,-45.356,-29.286,-102.59,-81.789,-71.981,-49.907,-33.638,-95.436,-86.575,-65.187,-47.135,-35.769],[-100.801,-89.334,-75.452,-51.101,-38.135,-100.833,-92.503,-71.769,-57.737,-29.091,-101.424,-91.51,-71.183,-53.013,-41.626,-101.134,-86.847,-74.709,-55.2,-40.932,-100.867,-90.795,-67.88,-61.668,-43.436,-100.111,-87.849,-74.418,-62.059,-44.485]],
"ve": [[-5.041,2.848,20.863,54.743,88.746,-28.622,6.033,13.428,-361.538,52.586,-16.255,2.42,17.397,177.551,82.5,-13.716,1.041,16.876,63.719,-31.945,-19.411,10.81,8.186,28.76,-7.955,-8.627,-15.195,71.524,53.588,94.349],[-59.02,-24.559,-12.421,-8.315,-5.909,-60.792,-23.896,-13.396,-8.612,-5.04,-59.236,-23.997,-13.285,-8.829,-6.071,-57.061,-23.655,-11.489,-8.305,-5.194,-0.314,-18.979,-13.002,-7.703,-5.218,-93.272,-19.554,-11.682,-7.237,-4.429],[-84.833,-50.998,-27.859,-17.37,-14.14,-83.06,-49.569,-25.789,-18.776,-13.225,-72.575,-43.454,-25.839,-15.033,-14.61,-75.629,-47.418,-27.188,-16.29,-12.252,-71.115,-47.949,-24.265,-18.408,-12.493,-79.591,-42.359,-22.995,-20.532,-12.374],[-81.154,-59.379,-40.788,-30.517,-20.441,-92.75,-67.689,-44.043,-29.319,-20.441,-88.37,-70.669,-38.939,-27.294,-21.493,-107.147,-101.86,-36.57,-27.299,-20.459,-81.245,-123.299,-42.571,-25.157,-20.11,-86.55,-57.989,-16.26,-23.241,-19.942],[-82.422,-71.486,-59.892,-38.628,-26.375,-92.161,-78.378,-49.149,-31.963,-26.46,-116.302,-70.104,-50.218,-40.403,-26.909,-104.467,-68.857,-53.121,-37.353,-26.073,-111.418,-73.232,-60.44,-41.068,-25.543,-82.252,-32.326,-50.114,-41.561,-26.346],[-105.14,-79.173,-62.234,-42.638,-32.17,-101.68,-86.239,-62.88,-46.321,-31.658,-108.76,-86.463,-65.271,43.848,-34.638,-116.262,-85.136,-59.67,33.482,-31.126,-102.913,-92.325,-59.814,-52.833,-30.213,-102.394,-79.518,-67.538,-49.329,-36.124]],
"kep": [[-23.778,-7.811,-9.733,-8.148,-18.726,-16.262,-12.135,-8.365,-16.122,-20.137,-21.612,-3.975,-10.75,-12.626,-5.636,-11.296,-4.552,-11.027,-7.584,-16.906,-25.833,4.337,-3.553,-9.549,-8.539,-16.732,-9.393,-11.876,-12.07,-6.853],[-82.471,-10.778,-5.143,-10.537,-2.694,-76.904,-14.29,-10.126,-6.681,-9.294,-75.734,-15.047,-6.306,-3.554,-5.215,-80.83,-10.87,-5.207,-6.343,-7.329,-79.961,-10.7,-6.049,-9.36,-6.418,-76.291,-13.102,-7.227,-1.102,-6.545],[-82.258,-56.098,-8.298,-5.475,-12.347,-85.74,-54.577,-4.888,-8.536,-6.203,-85.74,-49.302,-9.846,-1.467,-2.696,-88.382,-52.52,-7.525,-9.77,-6.592,-82.338,-54.149,-11.335,-10.637,-1.449,-87.401,-57.875,-9.714,-1.75,-7.702],[-88.108,-71.462,-30.596,-4.268,-1.872,-86.07,-73.656,-33.963,-2.879,-3.548,-85.062,-78.551,-29.931,-8.743,-1.461,-88.079,-74.762,-37.459,-1.974,-2.773,-85.071,-75.598,-29.752,-13.381,-4.836,-87.845,-74.528,-34.246,-5.47,-10.146],[-88.347,-76.325,-67.674,-18.564,-5.755,-85.13,-77.841,-58.81,-16.209,-6.801,-89.145,-72.547,-57.267,-19.261,-9.456,-88.744,-73.519,-57.273,-16.394,-3.98,-89.421,-75.163,-66.423,-19.729,-8.486,-90.526,-75.501,-61.599,-20.569,-9.5],[-90.445,-73.733,-68.049,-37.731,-6.841,-91.654,-82.768,-65.35,-43.904,0.009,-90.802,-74.611,-65.096,-39.191,-10.35,-90.357,-69.611,-69.414,-41.99,-10.506,-91.799,-78.011,-62.677,-46.208,-16.493,-91.752,-76.716,-74.128,-49.985,-13.211]],
"vp": [[2053.352,1540.706,1686.457,1294.319,1568.951,484.369,310.757,241.214,407.373,362.448,201.075,150.161,142.011,152.762,178.793,36.08,31.605,26.073,26.96,30.052,20.516,18.523,13.855,14.339,17.556,10.532,7.763,6.665,8.009,7.349],[6556.278,6234.39,4361.32,4852.181,5610.658,1269.224,1059.999,978.487,1074.109,832.618,605.689,566.128,502.12,460.426,568.783,129.747,109.062,90.464,111.846,114.223,66.012,49.659,50.034,49.783,49.281,28.365,25.475,21.368,24.672,27.492],[8102.464,10444.501,9226.117,7830.88,8170.31,1650.015,2056.331,1824.17,1619.623,1779.975,811.06,938.245,842.308,664.513,945.246,169.636,202.033,181.372,139.037,158.11,69.963,94.131,75.583,82.413,84.418,41.52,46.119,36.722,47.549,38.842],[9129.482,13447.612,14755.206,13831.439,12056.303,1769.935,2806.184,2851.42,2700.873,2335.499,812.686,1446.821,1156.164,1172.427,1230.332,217.021,263.148,242.78,246.975,237.175,85.174,141.766,140.615,95.533,111.636,49.345,61.676,65.021,47.567,53.072],[9171.558,14055.032,19542.429,16262.571,13946.099,1856.491,3125.947,3063.333,2634.236,2831.252,1135.706,1375.253,1576.094,1716.197,1332.987,199.873,278.697,331.478,319.894,285.349,114.717,151.041,198.708,179.113,125.22,40.642,84.73,82.279,92.127,65.444],[10599.367,16238.872,18889.172,18549.047,16898.543,2113.275,3481.338,3781.308,3805.24,3452.655,1135.613,1713.094,1970.849,2111.251,1777.183,214.005,342.078,353.98,356.253,291.361,108.707,173.403,177.218,221.487,144.548,52.06,76.533,108.935,100.912,93.705]]
}