{
"KTrans": [[2.913,0.969,0.368,0.798,0.741,12.614,6.889,5.999,4.934,4.827,27.026,15.429,12.485,11.487,9.907,163.196,94.584,74.963,65.989,60.277,412.614,224.831,176.432,153.224,141.024,1141.573,591.285,456.176,398.622,362.108],[2.271,0.802,0.886,0.415,0.356,12.839,6.547,4.398,3.106,2.504,22.618,12.262,8.249,6.545,5.302,133.66,65.787,45.163,35.67,30.517,325.383,146.977,99.298,77.944,65.545,873.919,365.455,235.942,181.53,151.276],[2.156,1.735,0.742,0.75,0.265,11.744,6.332,4.194,2.931,2.437,24.069,11.396,7.976,6.036,5.065,126.727,62.225,40.932,31.388,26.079,308.268,139.043,90.051,67.368,55.161,806.768,331.708,207.283,154.228,123.388],[0.159,2.43,1.498,0.903,0.467,8.383,6.384,4.301,3.133,2.4,17.083,11.483,7.897,6.57,5.211,122.95,60.696,40.378,29.742,24.706,283.895,136.068,85.863,64.331,51.294,721.209,327.043,200.617,145.052,114.112],[-1.795,2.258,1.827,1.103,0.738,4.409,5.569,4.244,3.373,2.823,18.097,11.828,8.066,6.404,5.153,117.281,60.023,39.031,29.693,23.922,256.615,133.401,84.839,63.256,49.978,623.253,316.538,196.24,139.465,109.823],[-5.201,1.797,1.743,1.387,1.014,1.109,6.737,4.246,3.199,2.926,10.571,11.678,8.571,6.178,4.771,104.033,60.893,40.318,29.619,23.552,240.313,132.056,84.457,62.052,48.911,557.03,317.779,194.106,138.875,108.53]],
"ve": [[0.852,0.369,-0.229,-1.583,-1.916,4.836,0.367,-1.453,-3.265,-4.903,8.624,1.525,-2.49,-5.783,-7.701,45.236,13.273,-1.956,-11.918,-19.049,93.244,32.848,7.802,-7.596,-18.596,192.165,79.026,35.156,10.106,-6.466],[1.165,0.626,0.249,0.092,-0.016,5.21,2.395,1.345,0.859,0.311,10.131,4.836,2.807,1.684,0.848,50.104,23.88,14.362,9.139,5.463,99.872,48.007,29.529,19.327,12.604,199.478,97.079,61.089,41.579,28.785],[1.489,0.897,0.346,0.285,0.186,5.509,2.386,1.698,1.221,0.932,10.254,5.029,3.319,2.31,1.601,50.769,24.812,16.075,11.325,8.426,100.761,49.479,32.348,23.029,17.415,200.906,99.271,64.76,46.961,35.717],[1.181,0.789,0.44,0.39,0.312,5.545,2.823,1.76,1.354,1.049,10.394,5.318,3.559,2.476,1.961,50.81,25.219,16.547,12.23,9.371,100.574,50.142,32.912,24.255,18.819,200.955,100.064,65.918,48.656,37.95],[1.831,0.754,0.564,0.406,0.384,5.506,2.979,1.903,1.385,1.067,10.721,5.197,3.508,2.623,2.086,50.552,25.174,16.667,12.315,9.762,100.717,50.202,33.308,24.583,19.378,201.788,100.323,66.472,49.278,38.966],[1.447,0.707,0.645,0.506,0.447,5.428,2.78,1.764,1.433,1.217,10.743,5.174,3.579,2.659,2.112,51.138,25.292,16.77,12.601,9.958,101.05,50.424,33.451,24.859,19.805,202.654,100.546,66.759,49.728,39.359]],
"kep": [[3.824,2.391,2.501,4.391,4.811,9.3,8.365,9.532,10.54,12.451,18.941,15.692,17.445,20.542,21.392,84.339,74.686,81.471,91.742,101.416,169.746,148.599,160.71,178.636,201.1,331.982,292.527,318.306,360.386,402.253],[2.831,1.843,2.309,1.988,2.038,9.041,5.778,4.724,3.926,3.883,13.214,8.858,7.037,6.516,6.146,58.284,36.042,29.03,26.368,25.808,116.382,69.628,56.407,51.584,49.443,230.586,140.076,111.99,102.133,98.329],[2.335,2.504,2.052,2.123,1.729,7.669,5.579,4.147,3.366,3.164,14.389,7.819,6.232,5.348,5.114,52.892,32.125,23.421,19.97,18.199,106.733,62.555,45.968,38.282,34.326,206.279,120.224,89.579,75.84,67.31],[0.627,3.314,2.725,2.169,1.806,4.437,5.17,4.183,3.434,3.007,7.817,7.62,5.909,5.706,4.889,50.252,30.453,22.431,17.508,15.9,94.545,59.829,42.146,34.433,29.431,177.371,116.981,84.167,67.562,57.767],[-1.96,3.165,2.927,2.351,2.005,0.57,4.222,3.983,3.641,3.413,8.437,8.054,6.133,5.394,4.702,46.695,29.971,21.129,17.375,14.759,80.638,57.953,40.942,33.201,27.701,143.634,111.376,80.885,63.06,53.476],[-5.055,2.75,2.761,2.538,2.221,-2.469,5.572,4.124,3.416,3.364,1.509,7.942,6.549,5.13,4.296,37.234,30.537,22.148,17.012,14.214,72.083,56.812,40.501,31.925,26.34,120.779,111.76,79.273,62.169,52.099]],
"vp": [[8.94,46.214,26.415,84.03,-113.92,-6.934,-6.242,2.972,18.02,1.137,-0.114,-0.182,-10.556,2.902,-9.757,-0.416,-0.783,0.843,-0.035,-0.599,-0.104,-1.996,-1.028,-0.845,-0.928,-1.043,-1.034,-0.468,-1.24,-1.28],[280.902,39.528,-60.687,93.378,-57.801,77.057,22.858,-0.277,8.779,10.719,17.107,0.667,-3.494,-1.268,-0.652,1.887,0.292,-0.835,-1.081,-3.185,1.038,-1.569,-1.621,-1.569,-0.451,0.148,-1.26,-0.751,-1.033,-1.199],[1221.551,325.342,-78.101,17.98,18.515,278.918,23.202,30.619,-0.637,4.722,143.918,14.749,13.739,5.998,2.144,24.889,-1.228,-0.356,-1.725,-1.757,10.096,-0.244,-0.153,-0.595,-0.895,6.784,-2.477,-2.425,-0.963,-1.757],[2680.004,197.925,-113.229,-73.61,-17.846,522.373,54.854,57.738,11.977,11.625,253.049,18.858,26.658,12.706,11.4,53.941,8.208,-2.015,0.167,-0.369,24.085,1.894,-2.701,-1.622,-1.54,13.228,-1.074,-0.159,-0.559,-1.919],[4101,719.647,279.518,64.306,-123.731,830.285,69.719,52.253,21.806,22.373,396.43,58.315,-5.076,24.872,17.168,84.446,6.151,0.429,1.66,0.791,41.932,3.574,0.332,0.708,-1.093,20.979,1.433,0.401,-1.681,-1.938],[5479.607,1375.628,166.371,253.33,122.141,1043.138,253.952,41.274,5.752,63.317,543.33,113.619,15.74,7.673,1.255,105.931,24.431,5.299,4.431,1.883,52.664,10.091,-0.668,-0.362,-0.628,27.187,5.396,2.213,-0.966,-0.923]]
}