{
"KTrans": [[3.727,4.193,4.159,3.314,3.342,3.909,7.13,2.077,2.78,3.991,5.711,6.687,5.898,5.699,4.033,23.456,17.817,8.75,6.555,10.693,46.088,25.71,14.329,17.624,23.971,43.515,57.576,53.461,46.462,64.482],[-20.084,-1.453,0.721,2.858,2.804,-13.543,-3.632,1.355,1.342,1.975,-23.935,-2.199,1.954,2.287,2.989,-13.946,-0.633,3.498,5.471,6.517,5.605,-2.661,2.306,12.539,4.849,-13.269,36.506,26.382,25.606,25.949],[-53.91,-8.588,-2.81,-2.043,0.156,-53.293,-13.18,-5.752,-1.792,-1.218,-50.47,-8.739,-3.205,-2.082,0.727,-44.491,-7.632,-1.667,0.731,1.507,-41.08,-1.739,5.441,2.982,3.407,-62.491,6.417,22.039,12.03,3.014],[-75.701,-17.56,-11.769,-5.715,-3.494,-72.287,-23.109,-12.198,-4.621,-2.172,-70.049,-25.72,-11.643,-6.642,-2.002,-69.795,-22.282,-13.184,-2.282,-1.313,-63.005,-17.513,-15.301,-0.541,1.09,-67.592,-14.804,-3.166,11.459,-0.571],[-83.941,-32.779,-18.522,-10.692,-7.894,-85.785,-32.21,-19.116,-11.443,-6.543,-86.386,-33.723,-17.761,-10.423,-5.394,-84.504,-35.897,-19.592,-9.489,-6.511,-68.998,-32.124,-19.443,-6.325,-2.162,-82.845,-39.128,0.48,-4.405,-3.96],[-90.012,-44.69,-24.315,-14.966,-10.861,-88.611,-45.128,-24.051,-16.333,-10.227,-87.884,-44.545,-24.333,-17.506,-9.371,-84.671,-48.476,-20.708,-16.742,-8.581,-88.117,-44.993,-20.011,-15.138,-6.934,-83.716,-58.837,-12.547,-13.608,-5.584]],
"ve": [[2.927,2.935,5.102,8.349,9.667,3.654,3.227,4.844,12.191,9.725,2.293,3.112,5.383,6.601,12.026,-4.718,10.52,42.65,13.353,43.578,11.508,263.322,-18.184,-206.002,-47.182,36.627,-39.636,-8.109,-60.025,-38.448],[-8.675,-0.5,0.102,1.101,1.227,-7.787,-1.138,0.111,0.609,1.649,-10.792,-0.226,0.756,1.549,1.891,-3.579,0.877,2.028,3.174,2.373,20.436,-0.851,2.314,5.624,4.134,14.787,22.697,9.901,-12.667,83.282],[-30.837,-3.302,-0.588,-0.685,0.004,-25.444,-5.648,-2.043,-0.521,-0.147,-28.084,-2.52,-0.833,-0.833,0.423,-16.845,0.112,0.047,0.86,0.708,-9.268,0.522,5.228,2.881,1.967,-15.487,16.764,13.272,8.827,2.169],[-44.658,-8.279,-4.241,-2.184,-1.117,-40.508,-10.751,-4.075,-1.552,-0.734,-43.337,-10.216,-4.265,-1.832,-0.676,-36.545,-6.831,-4.913,0.785,0.007,-22.246,-5.149,-6.913,1.773,1.234,-31.578,17.844,2.811,10.788,-0.032],[-56.481,-16.492,-7.834,-3.463,-2.614,-56.504,-16.32,-7.654,-3.99,-2.273,-59.997,-15.433,-6.936,-3.847,-1.885,-55.743,-14.002,-8.754,-3.592,-1.662,-18.964,-10.504,-6.356,0.703,0.905,-21.268,-11.02,7.545,2.037,-1.048],[-51.434,-22.645,-9.624,-5.223,-3.828,-52.746,-23.325,-8.905,-6.132,-3.869,-57.351,-21.123,-8.903,-6.897,-2.748,-45.263,-29.994,-7.791,-5.168,-2.07,-50.157,-21.775,-3.951,-4.956,-0.64,6.673,-24.306,5.59,4.268,0.713]],
"kep": [[-7.059,-5.359,-6.638,-9.281,-10.219,-7.344,-3.012,-8.008,-10.777,-9.026,-5.434,-3.65,-5.279,-5.48,-10.129,-6.41,1.143,-7.259,-11.019,-2.099,-24.203,-10.621,-16.087,-9.614,6.411,19.661,-34.582,-16.203,-19.061,27.403],[-22.084,-8.596,-6.91,-5.833,-5.965,-15.719,-9.973,-6.349,-6.772,-7.101,-24.256,-9.757,-6.416,-6.764,-6.42,-31.448,-10.829,-6.927,-5.941,-3.912,-26.822,-19.148,-11.501,-3.143,-7.619,-36.918,-28.763,-9.414,-5.383,-1.285],[-44.711,-13.404,-9.65,-8.76,-7.324,-46.633,-15.527,-11.139,-8.711,-8.466,-43.826,-13.923,-9.882,-8.692,-7.198,-55.28,-16.425,-9.997,-8.172,-7.126,-57.305,-20.903,-10.589,-9.29,-7.675,-63.022,-19.248,-13.739,-11.406,-12.631],[-69.033,-18.285,-14.997,-10.925,-9.707,-67.636,-21.727,-15.525,-10.434,-8.862,-66.284,-24.652,-14.828,-12.121,-8.743,-70.451,-24.817,-16.845,-10.632,-8.969,-68.911,-37.691,-20.228,-11.529,-8.585,-67.286,-37.92,-31.236,-12.566,-13.767],[-78.77,-27.529,-18.766,-14.565,-12.514,-81.271,-27.337,-19.545,-14.825,-11.571,-81.928,-29.804,-18.748,-13.947,-10.881,-80.891,-35.467,-19.986,-13.814,-12.392,-73.461,-47.929,-23.795,-15.375,-11.428,-76.559,-45.267,-27.378,-19.396,-16.109],[-88.006,-36.446,-23.282,-17.243,-14.324,-84.469,-38.865,-23.758,-17.769,-13.748,-83.823,-38.118,-23.943,-18.374,-13.914,-81.979,-49.105,-22.741,-19.411,-13.992,-80.845,-55.391,-26.368,-18.543,-14.327,-83.489,-59.174,-41.824,-27.532,-18.352]],
"vp": [[-131.833,-181.643,-150.247,-81.102,-120.041,-35.295,-58.482,5.573,-19.706,-18.383,-5.451,-24.761,-26.141,-20.648,-18.34,-13.508,-16.129,-0.59,3.347,-8.523,-10.073,-5.38,4.057,-2.729,-11.388,-18.704,-6.557,-9.234,-6.227,-20.996],[934.801,56.239,-62.64,-313.568,-285.34,148.928,37.918,-15.111,-16.161,-27.833,116.459,10.755,-13.826,-23.139,-39.27,13.254,3.354,-4.898,-15.708,-15.262,-17.199,16.935,7.52,-14.548,3.736,-4.169,-18.249,-12.107,-15.326,-19.333],[3362.776,676.066,54.761,259.79,-1.756,550.339,211.454,109.441,40.616,60.375,313.83,52.746,19.273,30.626,-10.615,42.801,5.669,3.526,-1.566,-1.478,17.718,2.687,-13.263,-4.996,-1.231,15.164,-11.945,-21.018,-7.551,10.854],[5058.354,1616.899,1117.956,817.687,452.186,839.974,433.453,223.222,86.431,55.987,454.851,212.767,120.351,61.668,25.934,87.855,31.915,38.686,-6.019,2.911,32.267,15.123,31.479,-1.385,-0.026,25.682,-7.878,2.976,-18.462,10.704],[6213.235,3478.423,2296.101,1307.08,1151.521,1280.332,697.123,447.711,326.539,180.988,613.485,324.904,217.393,139.939,68.906,128.996,63.33,63.801,34.112,23.126,22.401,27.406,27.245,-1.018,0.201,20.286,18.717,-8.276,2.565,11.725],[6904.961,4763.98,2895.987,1986.993,1773.791,1221.378,1008.059,541.278,466.795,361.948,643.89,457.898,269.885,278.514,137.458,118.541,137.398,54.766,46.22,19.625,60.021,57.125,16.688,26.395,8.659,2.347,34.297,-3.79,13.99,4.898]]
}