{
"KTrans": [[22.933,12.76,15.295,20.19,7.964,31.806,18.566,15.867,18.047,18.431,67.133,32.164,24.932,20.814,13.306,230.084,127.505,92.343,83.524,82.161,471.899,270.743,194.724,177.96,157.481,1311.11,645.577,512.401,436.858,378.034],[36.655,45.305,29.306,17.058,7.083,44.792,51.28,29.747,21.836,8.285,27.067,60.763,54.244,17.145,21.1,190.989,123.735,65.953,62.923,46.088,436.079,223.591,147.217,106.286,84.874,1059.523,463.555,274.875,226.041,179.107],[-98.005,137.237,33.111,42.325,19.58,-82.007,143.567,72.616,34.687,34.195,-89.333,170.632,77.097,39.014,42.371,-56.641,228.848,121.912,62.839,57.844,64.002,338.76,171.876,120.841,73.526,16.602,867.348,305.952,191.206,160.158],[-106.096,-34.402,118.905,48.806,23.566,-96.577,-54.378,131.557,74.001,46.122,-88.017,-17.289,120.397,52.125,30.64,-75.384,-69.023,201.815,81.172,67.014,-122.885,-2.709,235.3,133.325,82.27,-107.576,237.729,506.993,261.926,187.6],[-89.311,-120.571,196.907,94.947,71.378,-88.253,-93.076,112.914,124.753,63.713,-95.09,-96.293,141.45,86.567,79.333,-95.194,-47.699,237.885,166.25,90.182,-95.494,-54.479,272.736,235.933,131.016,-104.277,-36.556,507.159,446.67,212.242],[-98.374,-116.974,-57.829,235.847,79.869,-113.815,-103.651,-63.839,193.658,91.278,-94.012,-82.328,-95.939,241.406,95.908,-77.711,-87.17,-53.965,304.102,143.797,-87.553,-113.46,-18.027,380.559,147.491,-112.48,11.741,-159.38,593.552,250.66]],
"ve": [[1.758,1.804,1.766,0.719,6.606,5.206,0.72,-0.71,0.342,-0.604,11.282,2.242,-1.727,-2.821,0.759,48.046,14.712,-1.401,-11.332,-18.574,93.292,35.168,7.383,-7.047,-18.914,191.921,78.882,36.229,10.831,-6.833],[2.925,1.568,1.893,0.488,-0.117,5.397,3.272,2.386,1.633,0.619,12.311,5.812,6.065,1.506,1.14,51.618,24.327,13.541,9.976,5.763,107.288,48.313,30.678,20.06,12.093,199.586,96.868,60.705,42.4,29.079],[1.802,2.623,-0.612,2.816,0.743,5.439,2.51,4.049,1.666,2.467,12.793,6.287,5.222,2.957,4.159,47.872,25.852,18.431,11.072,9.397,112.082,49.983,32.858,24.18,16.558,207.157,99.531,64.82,45.898,35.403],[3.056,1.535,1.086,0.519,-0.46,6.567,4.612,2.686,3.198,2.602,9.72,5.67,3.498,2.321,1.306,45.486,27.829,17.116,12.215,9.759,101.63,50.743,33.09,23.975,17.486,201.275,99.231,68.152,49.301,39.303],[2.355,2.285,3.421,1.892,1.905,3.418,5.205,2.011,2.933,2.241,9.646,5.864,3.349,1.821,3.687,49.675,19.15,15.419,14.155,9.321,98.431,50.487,32.811,26.035,20.535,199.681,64.418,67.921,51.261,39.039],[0.76,0.336,0.864,1.069,-0.073,8.941,1.146,1.439,0.906,0.645,10.093,5.119,4.901,3.916,2.938,48.99,24.045,16.946,12.123,10.779,103.131,51.206,34.162,26.08,20.35,201.28,100.042,68.827,50.834,39.12]],
"kep": [[18.339,11.225,17.217,26.421,12.653,22.845,17.496,18.519,24.368,28.001,47.582,28.49,28.521,29.043,22.321,119.878,96.3,93.503,106.19,124.312,192.489,171.529,172.011,196.496,214.861,379.575,313.855,347.184,381.309,409.648],[26.278,37.316,24.117,14.794,6.312,28.829,40.568,23.831,17.957,6.686,10.544,46.825,42.569,13.563,18.646,86.051,74.773,42.869,45.72,36.437,159.498,112.498,85.302,68.768,62.005,281.17,180.552,129.369,125.578,113.39],[-94.189,116.801,27.581,35.083,16.084,-80.425,121.496,59.339,28.297,27.982,-86.853,137.696,61.961,30.855,34.032,-66.6,148.882,81.314,41.732,40.912,-15.696,180.175,98.054,72.806,45.451,-56.26,366.716,139.567,95.338,88.251],[-101.424,-36.084,102.399,41.045,19.425,-93.57,-54.03,111.206,61.506,37.643,-85.016,-23.791,99.588,41.723,24.206,-79.409,-71.346,142.432,55.326,46.577,-105.99,-33.084,140.265,80.97,49.89,-97.559,67.022,249.345,134.675,101.215],[-86.729,-112.234,168.847,81.851,60.665,-85.76,-87.377,93.401,105.724,53.377,-92.394,-90.057,116.556,71.285,64.901,-93.35,-54.051,169.27,121.61,65.001,-93.405,-64.642,164.7,153.856,84.551,-97.025,-62.948,246.426,246.13,116.232],[-94.979,-109.453,-54.985,205.636,68.733,-109.102,-96.977,-60.154,166.685,77.442,-91.733,-78.574,-88.834,204.963,80.347,-82.008,-84.243,-56.91,231.589,108.242,-90.624,-102.222,-34.95,258.613,96.765,-101.365,-39.505,-127.195,336.709,140.785]],
"vp": [[990.258,1041.76,1379.893,1388.412,823.193,193,163.658,169.298,245.979,247.008,139.853,101.451,108.825,96.372,87.194,22.97,28.608,25.581,26.312,23.109,8.246,14.095,9.13,12.535,12.015,5.412,5.392,6.051,6.19,4.205],[4628.507,3035.463,3821.436,3036.534,2473.659,761.093,683.437,645.977,644.939,434.225,489.266,366.133,472.748,252.923,301.702,90.502,52.522,46.818,66.679,62.365,48.114,27.052,36.099,33.994,34.976,20.28,13.012,13.634,17.527,15.168],[6269.11,6570.97,4234.008,6001.084,4806.763,1296.978,984.813,1290.602,1103.418,1321.106,657.599,607.5,615.684,543.645,694.421,99.266,86.376,119.197,102.271,117.786,54.767,41.256,53.583,61.465,40.399,33.7,33.112,23.1,20.81,25.898],[8214.619,8482.589,9476.132,6130.418,5354.549,1655.626,1680.637,1258.92,1709.479,1609.133,721.266,824.523,611.742,586.626,650.736,111.641,232.097,141.056,100.25,148.636,85.289,97.11,57.376,61.479,61.274,41.43,39.666,34.981,36.335,35.102],[8032.265,12077.983,13258.844,6436.494,10375.976,1430.176,2280.94,1808.31,1495.986,1663.518,781.924,1075.71,770.733,584.472,1133.459,188.087,187.587,169.721,193.99,180.629,75.421,113.06,110.262,94.716,79.082,46.127,53.585,66.808,63.411,42.516],[8871.155,12794.329,12232.04,9667.204,8913.795,2429.203,2280.815,2368.284,2314.203,2022.902,937.296,1056.666,1333.117,1066.906,835.536,178.72,231.936,222.037,243.118,227.076,100.005,144.013,109.942,93.507,86.222,51.657,56.344,74.58,50.185,48.484]]
}