{
"KTrans": [[60.269,25.405,34.488,32.871,29.233,73.122,52.072,38.444,39.238,29.441,94.001,51.508,41.774,37.617,41.649,314.264,151.658,124.08,110.258,109.543,623.093,317.879,226.912,203.656,200.257,1547.9,748.686,561.951,510.705,433.642],[219.734,129.058,68.192,53.106,30.761,48.746,112.144,56.112,52.962,38.939,525.456,119.11,71.782,61.698,46.709,452.082,226.985,136.483,95.961,73.81,569.823,362.738,179.551,154.361,112.636,-164.675,722.66,365.654,298.546,254.166],[-269.628,637.071,131.4,88.919,62.778,-324.569,675.753,143.887,80.508,80.083,-284.455,753.604,160.417,96.135,68.028,-545.235,1114.436,211.089,130.395,113.843,-666.172,1594.816,299.562,180.55,130.478,-1306.959,2631.023,495.179,304.975,200.914],[-196.041,-351.082,386.592,146.322,81.521,-207.15,-279.688,365.843,157.816,111.007,-222.773,-247.659,463.291,176.054,106.289,-263.693,-261.469,527.091,202.911,134.22,-455.959,-363.322,733.433,288.372,187.908,-713.37,-277.92,1256.094,418.173,291.218],[-180.295,-280.074,-70.069,268.1,148.099,-176.774,-317.222,324.444,337.408,141.507,-195.364,-292.686,477.021,324.832,160.752,-278.509,-448.658,729.845,451.597,226.68,-298.496,-481.194,601.082,572.607,278.789,-488.961,-793.108,260.597,893.534,401.985],[-175.418,-252.631,-229.186,-543.63,327.25,-152.596,-248.381,-183.07,1327.762,322.672,-172.447,-253.809,-115.568,-1128.442,262.559,-210.908,-325.474,-227.495,-1228.958,388.214,-326.903,-442.668,-188.888,-2512.682,426.432,-433.282,-719.638,-188.452,-5531.747,676.487]],
"ve": [[1.893,2.204,7.203,138.536,-19.695,4.815,1.772,1.816,14.645,-94.238,10.232,1.356,-0.456,0.111,18.369,48.621,12.716,-1.888,-12.578,-20.321,95.365,34.486,7.694,-8.34,-18.692,193.116,81.173,36.597,12.988,-6.383],[2.276,3.315,3.361,2.147,0.99,9.459,3.589,1.42,2.458,1.764,12.205,6.416,4.331,4.502,2.119,50.293,26.715,16.034,11.324,4.869,99.699,50.241,29.127,21.935,11.912,199.743,99.542,61.956,44.505,33.156],[2.379,3.518,3.705,3.674,2.632,9.161,5.62,4.164,3.984,5.735,12.493,7.494,6.991,5.345,3.805,53.768,28.737,18.868,14.173,12.224,101.423,56.289,35.01,24.024,17.491,201.307,103.874,65.923,49.072,33.587],[2.088,4.161,5.816,3.914,0.947,6.717,3.474,3.411,2.979,4.336,17.444,8.87,8.23,6.176,5.043,52.896,26.487,19.09,15.477,11.793,102.22,51.925,36.394,28.251,21.116,198.224,101.511,70.874,50.446,40.407],[2.373,2.209,5.244,1.496,1.091,7.902,4.128,5.42,4.055,3.014,14.366,9.576,8.125,4.569,4.142,54.389,26.192,19.183,18.083,12.733,104.223,53.885,35.323,28.66,21.338,200.691,99.046,67.607,52.988,38.763],[6.933,2.707,4.538,2.723,3.061,8.541,4.295,4.538,5.046,5.079,11.365,8.282,4.22,3.932,2.718,54.085,26.706,24.858,14.251,13.494,100.569,53.211,33.666,28.856,20.65,199.389,104.761,69.663,51.925,42.636]],
"kep": [[49.581,23.295,38.539,42.737,43.533,57.02,48.247,42.664,51.652,44.426,69.083,46.494,46.099,50.463,64.341,170.46,116.563,123.657,136.251,160.366,261.415,204.136,197.815,225.069,263.289,454.374,363.062,379.703,436.092,463.981],[190.478,107.749,57.258,45.959,27.262,37.769,91.086,45.841,44.949,34.383,418.857,93.681,57.787,51.6,41.066,250.261,146.269,94.305,71.357,59.787,228.068,195.063,107.588,102.961,83.743,-105.588,299.511,179.087,168.946,161.616],[-247.126,552.057,111.034,74.443,52.73,-290.225,574.426,119.209,66.425,66.423,-247.725,626.074,129.976,77.821,55.503,-372.833,782.815,147.956,93.179,84.243,-362.953,942.67,182.27,114.624,86.997,-482.425,1187.245,242.826,162.348,115.071],[-183.364,-314.499,334.179,124.054,68.052,-190.297,-248.1,311.345,131.935,91.974,-199.631,-216.376,388.045,144.782,86.775,-198.82,-207.029,389.349,148.983,99.023,-266.006,-251.367,475.674,189.334,125.824,-292.952,-171.929,660.313,227.967,166.809],[-170.988,-256.189,-62.421,231.134,125.77,-164.739,-286.146,281.513,287.761,119.024,-178.105,-261.137,406.532,273.448,133.347,-210.392,-351.592,550.583,344.325,171.965,-191.754,-332.286,389.31,392.798,192.239,-222.054,-421.602,113.818,515.236,237.42],[-167.674,-233.612,-206.298,-474.606,281.721,-144.013,-227.404,-164.218,1152.382,275.457,-159.593,-229.12,-102.855,-968.791,221.523,-167.624,-262.205,-190.155,-978.378,302.303,-206.636,-309.27,-150.228,-1821.174,302.454,-204.794,-390.723,-139.26,-3396.022,414.016]],
"vp": [[2305.947,1912.143,2609.645,2566.333,2510.513,487.165,544.04,471.079,520.528,449.156,245.806,239.178,216.934,210.154,255.683,56.309,48.692,49.935,51.9,51.784,24.882,26.194,20.74,21.332,25.241,11.346,12.616,11.284,14.577,11.453],[8026.942,8325.226,8063.415,8119.295,6221.559,1655.102,1381.512,1263.592,1497.304,1377.02,663.395,714.514,746.509,774.455,739.103,131.074,155.201,164.51,148.096,133.204,71.419,71.387,60.851,72.003,65.26,34.638,35.251,30.84,41.726,44.002],[10254.569,11231.392,12458.998,13308.074,12408.784,2225.132,2619.881,2452.128,2315.066,2605.215,1076.383,1331.192,1260.892,1318.625,1194.875,213.319,278.663,231.83,230.401,272.839,102.971,137.227,121.467,115.616,114.131,53.896,63.22,55.79,59.3,49.422],[11513.067,18582.169,19825.328,17096.186,14909.951,2457.071,3537.193,3159.106,3558.232,3615.828,1486.523,1733.427,1815.285,1779.852,1637.337,234.312,332.86,357.389,328.297,351.613,128.963,159.159,196.945,176.642,177.141,55.107,84.884,86.155,79.07,86.827],[11519.062,19606.261,26026.554,18886.149,21459.249,2582.884,3968.412,5391.718,4533.395,4125.671,1335.733,2110.945,2140.531,2320.714,2082.638,274.763,394.964,435.159,457.631,447.105,131.289,199.194,270.206,190.756,229.921,61.277,94.647,93.595,130.009,116.089],[15768.51,21802.973,24806.888,32875.832,27373.903,2625.083,4414.922,5730.968,5482.491,5128.544,1200.79,2399.729,2590.877,2599.721,2304.425,291.203,441.99,612.111,599.79,616.211,120.304,239.216,259.398,360.732,247.916,63.706,116.077,129.485,113.733,142.007]]
}