{
"KTrans": [[0.497,-1.276,-6.657,-14.121,-9.441,8.364,12.908,-6.169,1.415,-5.03,6.584,20.054,16.244,14.057,15.386,39.885,33.189,71.618,63.051,75.113,0.445,-12.065,51.271,65.287,92.056,105.064,-60.545,-20.754,31.284,66.705],[-43.751,-16.107,-4.738,5.821,0.309,-36.509,-9.096,-3.409,4.579,1.134,-36.994,-7.5,0.994,2.144,4.89,-7.322,9.311,19.844,18.01,27.291,-64.742,-5.161,-30.193,28.685,28.381,-31.254,-97.436,-17.196,12.155,-21.135],[-55.603,-26.426,-20.164,-9.473,-1.769,-58.541,-29.27,-11.37,-9.206,-0.043,-55.569,-21.513,-14.179,-5.827,1.4,-37.485,-7.807,-2.827,-12.615,1.766,-30.543,-13.087,-1.366,2.871,-16.742,-62.093,-36.841,-17.479,-0.218,-36.463],[-68.765,-39.182,-17.474,-14.588,-11.538,-68.636,-31.402,-17.863,-11.307,-9.142,-60.68,-30.996,-18.995,-9.367,-7.109,-58.934,-20.951,-6.916,-9.064,2.191,-52.855,-34.191,-30.251,-13.871,-9.25,-71.597,-70.16,-16.321,-51.412,-63.152],[-74.523,-41.632,-23.935,-13.357,-9.101,-74.409,-37.506,-26.701,-11.845,-9.017,-70.92,-41.203,-24.216,-9.02,-10.255,-71.78,-36.639,-17.206,-3.903,3.056,-98.888,-31.129,-23.185,6.576,10.113,-78.921,-19.553,-10.611,-11.404,0.692],[-80.036,-50.314,-25.59,-17.908,-10.412,-80.761,-46.772,-27.614,-15.831,-8.991,-77.08,-46.538,-26.309,-13.897,-8.688,-76.514,-47.835,-17.276,-7.956,-0.708,-79.825,-45.998,-17.587,-2.909,-7.554,-75.359,-106.001,-17.177,-25.993,-11.342]],
"ve": [[108.047,-3.581,82.643,-15.378,12.298,-6.037,-107.055,-134.582,-48.637,-56.83,12.601,48.649,76.382,-69.228,-200.795,40.315,-7.975,71.593,-36.677,-72.499,96.811,16.621,-12.845,-63.414,-41.111,157.61,75.116,29.135,1.423,-4.058],[8.692,7.626,4.138,-8.364,-24.303,-184.341,12.28,37.102,-19.106,-7.143,24.058,8.555,9.688,-5.224,-9.491,66.095,-167.662,92.484,11.994,3.007,98.495,42.076,-3.561,19.307,19.365,192.717,94.576,18.601,45.545,30.267],[46.813,-62.769,61.115,-12.057,13.296,-45.813,11.625,-23.128,-7.169,-0.408,30.024,27.245,-27.463,9.41,-0.964,39.801,30.149,4.177,6.683,13.094,87.952,34.372,35.228,19.298,-4.393,210.517,96.841,53.359,47.288,33.526],[-288.626,-7.907,-17.755,2.051,3.758,-25.584,-7.761,-14.607,0.316,3.394,-118.205,-0.08,-21.416,-9.414,-1.432,74.341,10.877,11.768,67.122,11.878,69.391,47.023,34.251,24.893,-11.263,209.378,98.582,54.598,47.197,34.661],[-82.101,-14.002,-9.797,-2.162,55.344,-72.775,-53.353,-2.069,-7.776,-22.541,42.137,-4.577,-0.516,-3.216,8.232,41.18,3.455,7.821,7.66,-5.089,152.591,34.849,43.241,13.801,9.911,189.466,91.435,62.65,48.145,35.449],[-36.932,-39.645,-3.946,-3.012,-1.75,34.794,1.548,5.359,-1.174,-1.029,12.494,-5.245,-10.729,-4.061,-26.069,45.477,19.534,6.19,7.165,2.812,84.231,40.701,26.92,7.319,17.205,191.617,103.103,64.411,48.795,38.36]],
"kep": [[-119.154,-73.358,-17.719,-39.623,-26.005,-119.299,-112.738,-42.99,-39.628,-18.662,-118.268,-89.24,-88.583,-51.943,-86.525,-145.077,-215.293,-157.008,-218.584,-201.539,-150.287,-287.547,-315.972,-386.057,-399.608,-77.688,-263.148,-442.554,-507.012,-613.374],[-91.343,-92.085,-118.461,-93.217,-31.793,-89.411,-99.283,-124.11,-93.379,-26.043,-88.577,-91.085,-137.05,-83.405,-23.721,-85.179,-87.675,-135.355,-157.944,-121.619,-100.213,-104.592,-183.992,-187.704,-184.44,-86.455,-106.806,-121.168,-208.896,-294.787],[-88.492,-68.852,-92.102,-99.773,-133.438,-91.6,-74.514,-70.452,-115.898,-106.671,-90.838,-67.677,-78.664,-103.574,-127.202,-85.982,-65.019,-69.719,-126.78,-157.008,-86.281,-70.687,-81.223,-103.596,-188.648,-89.105,-79.268,-69.979,-83.311,-153.297],[-92.147,-70.559,-45.438,-58.949,-81.707,-92.122,-60.688,-51.479,-53.832,-71.861,-88.573,-61.751,-53.154,-53.181,-72.351,-89.524,-68.998,-52.515,-71.57,-64.991,-88.483,-72.645,-76.319,-75.744,-96.254,-91.754,-91.085,-70.979,-85.765,-130.245],[-93.26,-65.436,-47.652,-39.304,-43.51,-93.696,-62.54,-54.508,-40.664,-42.943,-92.312,-68.537,-51.15,-35.796,-42.42,-94.159,-72.604,-54.731,-43.603,-36.434,-102.026,-71.614,-71.009,-44.478,-35.503,-93.782,-66.763,-54.771,-65.801,-51.145],[-95.154,-73.986,-45.141,-39.728,-29.78,-95.956,-71.763,-50.455,-35.617,-29.053,-95.18,-71.221,-50.891,-31.296,-29.454,-95.22,-77.187,-54.517,-43.418,-34.249,-94.949,-77.158,-56.191,-49.368,-54.694,-92.228,-97.08,-58.639,-64.612,-70.236]],
"vp": [[-1015.399,-681.885,-78.702,869.455,575.828,96.119,-55.576,-153.461,-74.982,-6.522,50.843,-15.509,15.608,-81.086,104.204,-41.26,-6.671,-12.506,4.094,14.597,-28.47,-5.118,3.155,-11.566,-4.225,-39.434,-17.289,-13.119,4.573,-26.138],[2849.081,1258.953,-144.687,-397.692,1253.14,581.44,248.074,76.047,-115.889,37.765,306.351,97.955,-72.99,-62.345,-88.49,29.289,-2.325,-33.889,-13.839,-2.321,-11.517,-23.182,-30.858,-32.848,-0.521,-20.888,-23.366,-36.757,-45.39,-2.098],[4763.539,3557.14,1659.816,620.686,-196.397,797.941,750.727,471.584,168.72,252.986,469.298,363.959,172.072,50.99,-47.033,62.497,58.599,18.61,-1.467,-14.798,16.933,-11.968,7.577,-10.051,-3.995,-7.263,4.394,-47.066,-32.707,-7.498],[6014.33,6341.172,4966.642,2295.108,1902.022,1200.501,1022.227,573.438,634.187,311.29,535.445,422.559,389.34,266.919,237.614,79.292,92.754,49.866,64.316,22.809,0.826,33.826,13.399,1.286,0.688,3.264,15.582,-6.391,-7.591,-11.134],[5813.029,7851.324,5643.834,4638.325,3046.618,1352.701,1422.443,1219.085,716.79,348.542,598.767,613.91,637.746,443.444,285.605,95.018,133.248,79.336,77.417,69.833,53.188,16.838,37.145,0.427,-7.508,-6.315,4.09,-18.257,-28.037,-34.736],[6453.888,8637.351,7325.165,7245.253,3876.267,1403.021,1797.557,1894.906,1134.331,917.712,650.11,984.308,732.693,586.745,324.288,123.743,148.406,187.238,117.103,82.335,37.222,49.436,42.498,49.837,27.294,-5.142,35.105,-3.284,3.068,-1.572]]
}