{
"KTrans": [[4.652,2.841,2.649,2.403,2.983,16.009,10.155,8.381,6.959,6.909,30.062,20.133,14.861,13.887,12.094,145.525,107.242,77.793,75,62.114,80.413,135.144,163.075,146.052,138.783,214.849,80.529,41.957,201.481,137.06],[11.093,4.793,3.785,2.915,2.437,16.843,8.889,7.617,5.485,4.641,34.193,16.107,11.117,9.581,7.925,36.516,82.577,48.343,39.566,33.349,17.887,94.926,121.535,84.731,74.221,46.392,-63.369,134.727,154.475,139.514],[19.53,6.325,4.486,3.336,2.659,37.502,13.72,8.277,5.98,5.393,51.262,17.898,11.61,9.228,7.71,0.04,98.62,50.317,40.461,30.255,6.992,-15.136,141.27,84.719,63.671,13.926,6.265,78.031,139.031,127.174],[-6.646,7.202,5.667,4.566,3.645,-10.861,15.906,8.975,8.087,5.47,-23.836,28.937,12.919,9.85,8.308,-43.723,102.059,53.559,37.911,29.954,-41.887,22.115,159.491,63.493,64.51,-3.117,-4.718,55.721,66.778,130.079],[-55.513,15.54,7.913,4.567,4.121,-67.85,29.982,11.605,6.937,7.183,-50.406,29.987,16.12,10.993,9.513,-62.313,29.476,90.385,49.885,29.193,-47.305,6.098,94.409,91.273,74.085,-31.005,16.733,-38.85,68.867,176.505],[-69.547,12.716,12.955,6.977,4.995,-90.785,38.048,14.191,8.723,7.567,-73.11,46.29,21.742,14.605,9.036,-70.775,-33.924,92.934,42.001,32.52,-45.409,-17.671,13.584,104.122,63.229,-43.089,-14.375,-27.087,88.367,86.383]],
"ve": [[0.645,-0.964,-1.36,-1.23,-3.524,3.745,-0.309,-2.647,-4.176,-5.209,7.794,0.412,-3.11,-6.787,-9.155,42.76,14.039,-1.724,-11.793,-18.486,91.351,29.09,12.319,-5.353,-15.306,188.523,76.191,42.159,14.205,1.295],[0.576,-0.01,-0.347,-0.592,-0.754,4.549,1.833,0.537,0.197,-0.432,9.647,4.052,2.227,0.901,0.071,49.592,23.434,13.58,8.524,4.874,99.249,49.341,30.045,19.159,12.55,200.058,99.281,69.075,36.97,31.112],[0.902,-0.066,-0.034,-0.342,-0.362,5.726,2.19,1.021,0.577,0.171,10.15,4.629,2.501,1.614,0.934,49.317,24.076,15.458,11.11,7.922,100.682,49.499,32.504,22.869,17.153,199.246,100.259,62.427,45.9,36.02],[2.097,-0.038,0.003,-0.153,-0.301,7.185,2.282,1.274,0.794,0.349,11.193,4.993,2.849,1.837,1.322,50.289,24.88,15.768,11.497,8.714,97.34,50.021,33,22.963,18.478,205.073,98.72,65.407,48.656,38.395],[15.997,0.382,0.002,-0.286,-0.252,5.104,3.269,1.423,0.619,0.56,10.468,4.728,2.972,2.006,1.518,49.989,24.151,16.838,12.263,8.987,103.973,50.309,32.714,23.863,19.354,207.206,96.688,71.52,47.05,39.702],[0.935,0.215,0.396,-0.065,-0.294,4.536,3.137,1.629,1.016,0.66,9.916,5.219,3.238,2.271,1.334,51.216,25.512,16.185,11.626,9.325,104.958,49.181,34.019,23.758,18.954,199.347,97.781,66.598,49.657,36.74]],
"kep": [[4.156,4.055,4.274,4.276,7.367,11.981,10.638,11.586,11.997,13.319,20.789,19.847,18.789,22.694,23.826,64.184,81.277,81.322,99.266,99.554,7.75,70.126,138.047,161.595,183.551,26.914,19.788,6.15,164.064,138.514],[10.277,4.84,4.164,3.541,3.232,11.569,6.94,7.064,5.296,5.12,21.915,11.578,8.709,8.619,7.865,-4.573,46.912,30.372,28.558,27.173,-32.102,31.188,68.539,54.386,54.497,-40.096,-64.965,45.416,72.764,82.289],[17.066,6.328,4.526,3.696,3.037,28.426,11.208,7.189,5.382,5.22,35.264,12.525,8.869,7.498,6.724,-30.404,57.312,29.697,26.17,20.626,-41.267,-37.16,78.545,49.23,39.246,-54.836,-35.479,13.029,61.115,65.464],[-9.24,7.021,5.604,4.722,3.961,-17.35,13.008,7.557,7.221,5.103,-31.686,22.327,9.717,7.852,6.888,-59.479,58.243,31.736,23.396,19.409,-66.282,-15.104,89.844,32.104,38.237,-62.446,-43.987,-0.429,14.395,63.302],[-55.826,14.251,7.757,4.828,4.371,-68.182,24.918,9.877,6.239,6.567,-53.919,22.905,12.568,8.744,7.856,-72.185,3.764,60.669,32.821,18.37,-70.134,-25.126,44.394,52.358,44.735,-72.779,-36.059,-54.264,15.938,92.607],[-68.634,11.242,12.023,6.944,5.267,-89.282,31.902,11.958,7.501,6.82,-74.216,36.717,17.475,11.899,7.55,-77.946,-44.742,62.754,26.578,20.878,-69.92,-41.468,-12.72,61.266,36.137,-77.531,-52.162,-49.246,27.452,33.174]],
"vp": [[107.751,9.03,87.822,99.801,70.077,4.483,16.246,38.14,17.608,6.752,-18.526,20.55,0.742,6.505,2.457,3.906,6.464,-10.67,14.613,-6.816,-24.881,-7.455,-11.383,-11.933,2.671,-20.936,-20.032,-8.506,-16.137,-21.06],[60.907,-55.967,185.401,298.342,176.092,-2.941,-3.225,48.022,36.33,0.875,-19.961,3.019,23.44,21.157,22.328,-5.763,-10.591,-14.597,-7.328,-4.583,-26.576,-11.127,-2.249,-10.717,2.926,-22.366,0.019,-15.599,6.767,-14.539],[4505.672,114.712,-23.816,177.717,230.413,1079.224,-47.826,21.692,44.109,63.993,563.035,-22.496,-4.901,16.412,9.355,69.115,-46.348,-4.944,15.352,1.03,34.227,4.105,-1.403,-1.089,0.169,-7.86,-8.276,-28.62,-24.444,-15.133],[8343.993,-71.239,-183.079,219.354,236.379,1625.631,-87.922,-3.682,33.675,16.047,857.42,-102.97,-18.572,-22.103,7.676,199.312,1.447,-22.51,-13.926,-4.566,47.417,7.173,-13.435,-34.96,-3.45,25.903,-5.466,-25.668,-14.071,-12.795],[8710.234,4272.7,-463.922,-240.521,36.83,1793.465,1336.562,-210.887,-11.11,13.908,1037.882,641.373,-81.684,-30.958,24.652,197.713,100.395,-27.8,-5.575,-11.198,113.89,66.559,-23.318,-23.993,2.663,56.571,11.768,-11.973,-39.636,-9.832],[9656.15,13790.883,-1683.694,-634.605,-67.179,1889.5,2794.738,-262.822,-197.445,11.024,1027.375,1185.674,-210.2,-35.331,-45.794,218.177,260.703,-39.709,-44.004,-7.278,128.719,111.329,24.534,-39.619,-23.241,31.941,40.038,50.836,-24.218,-28.431]]
}