{
"KTrans": [[-50.074,-9.928,6.558,-2.166,3.549,-47.502,-18.664,1.077,3.653,-6.604,-37.754,0.061,-13.376,1.724,3.929,-34.504,-10.387,2.452,-2.024,-0.601,-48.966,-5.969,9.785,6.098,15.241,-41.221,5.78,2.55,15.627,1.567],[-91.932,-61.676,-24.575,-9.333,-13.322,-89.31,-58.52,-18.358,-18.592,-18.157,-89.009,-58.382,-17.836,-10.238,-12.895,-95.138,-52.82,-18.228,-9.432,-10.57,-91.273,-44.482,-15.624,-3.459,-11.99,-89.338,-47.342,-14.283,-19.433,-3.002],[-95.778,-77.113,-46.469,-32.916,-24.251,-96.993,-77.016,-48.846,-15.452,-20.655,-94.637,-78.674,-44.079,-25.954,-17.468,-99.139,-79.594,-51.046,-23.928,-15.806,-93.584,-76.718,-47.659,-28.544,-14.154,-94.835,-77.602,-57.665,-32.999,-19.45],[-98.885,-84.301,-61.232,-49.009,-28.034,-96.891,-85.803,-66.359,-39.79,-25.581,-99.881,-84.237,-68.733,-42.192,-32.45,-98.888,-87.196,-67.839,-45.194,-29.766,-99.414,-84.959,-68.163,-53.961,-25.847,-98.773,-89.024,-71.57,-47.839,-23.03],[-101.195,-91.219,-83.023,-56.657,-42.192,-99.335,-91.041,-80.497,-53.643,-49.373,-100.336,-93.905,-80.445,-67.385,-47.647,-99.387,-88.03,-81.243,-51.309,-44.147,-99.894,-90.617,-80.023,-64.077,-45.727,-98.927,-93.296,-80.721,-57.903,-47.362],[-100.676,-94.746,-80.331,-69.161,-55.025,-98.772,-92.993,-84.22,-72.582,-55.266,-99.952,-93.621,-83.117,-69.93,-57.142,-99.762,-95.555,-84.201,-75.846,-59.865,-100.234,-93.804,-82.85,-73.886,-61.3,-100.273,-93.89,-84.517,-67.769,-58.676]],
"ve": [[12.204,28.202,-1.396,-21.057,133.664,-9.683,-64.999,32.246,-10.692,-78.849,-24.505,3.008,154.529,-35.591,-244.983,-0.906,23.587,-170.836,-54.815,49.269,79.615,334.735,-7936.498,-87.965,-245.734,-29.502,-35.73,-19.166,106.952,-76.966],[20.378,-28.628,-9.772,-2.902,-5.142,-72.903,-305.714,-17.802,3.401,5.939,-72.54,-30.822,-13.501,-2.964,-1.242,-72.005,-13.125,-14.316,-2.837,2.084,-85.878,-28.608,-11.349,0.373,0.137,-52.302,1.808,-5.7,-4.28,1.269],[-134.318,0.373,-29.946,-15.163,-13.479,-30.821,-23.136,-22.478,-11.457,-11.51,23.343,-59.287,-20.424,-18.188,-11.206,-81.234,-61.602,-31.332,-18.293,-14.794,-148.193,-55.972,-25.34,-17.758,-12.95,456.175,-40.42,-38.308,-6.156,-11.088],[-96.665,-40.907,-31.475,-32.973,-22.206,-60.744,-72.911,-40.759,-28.697,-16.435,-46.321,-7.506,-35.736,-24.997,-23.308,-138.16,-68.471,-51.644,-32.5,-23.211,-125.137,-56.252,-42.441,-32.647,-18.931,-110.342,-53.782,-46.892,-28.667,-17.834],[-115.964,-68.759,-26.507,-49.797,-30.59,-107.872,-139.813,-60.819,-38.274,-36.441,-78.273,-87.534,-74.271,-45.88,-32.367,-109.907,27.805,-45.926,70.102,-29.516,-140.43,-66.708,-58.475,-42.653,-28.786,-85.333,-73.089,-67.626,3.55,-30.587],[-95.42,-80.43,-63.608,-40.431,-37.698,-85.029,-85.383,-76.847,-62.326,-40.316,-142.129,-170.369,-49.332,-46.255,-41.402,-140.099,-88.346,-65.11,-55.301,-41.678,-203.641,-87.892,-64.041,-56.235,-42.273,-149.577,-54.689,-72.138,-53.527,-39.05]],
"kep": [[-69.877,-30.721,2.445,-23.269,-19.498,-68.248,-34.417,-7.423,-6.268,-24.753,-62.922,-14.196,-33.577,-20.49,-17.714,-57.009,-23.597,-8.091,-12.258,-25.451,-68.685,-15.588,-0.241,-2.731,11.426,-63.241,-8.278,-9.775,3.523,-13.184],[-97.689,-58.283,-17.423,-4.025,-8.99,-91.308,-53.693,-11.028,-13.909,-15.384,-91.135,-57.489,-7.98,-5.303,-10.716,-96.149,-48.261,-12.998,-3.596,-8.568,-90.069,-45.709,-5.588,-3.275,-11.64,-92.484,-47.091,-8.937,-14.553,-0.486],[-95.887,-78.448,-36.153,-19.393,-12.631,-96.626,-77.698,-37.246,-6.248,-10.448,-94.88,-82.068,-33.089,-10.545,-7.514,-100.14,-78.079,-40.425,-7.505,-2.108,-94.265,-79.113,-35.34,-13.339,-1.415,-94.923,-76.046,-48.813,-15.253,-8.854],[-97.018,-83.727,-55.983,-30.631,-8.065,-96.214,-85.579,-62.986,-21.72,-12.465,-97.142,-84.058,-62.782,-31.099,-10.559,-99.205,-86.46,-65.252,-33.407,-10.676,-98.705,-86.483,-61.215,-37.974,-10.908,-98.114,-89.101,-66.938,-32.027,-7.81],[-98.314,-95.425,-79.686,-44.279,-24.115,-97.691,-89.469,-80.947,-40.717,-24.339,-97.039,-94.133,-79.704,-57.268,-25.084,-98.062,-85.531,-81.588,-44.661,-22.905,-97.648,-86.504,-77.458,-51.632,-25.997,-98.634,-89.896,-79.215,-46.782,-26.578],[-98.189,-92.365,-79.42,-64.898,-43.789,-96.841,-88.357,-79.658,-68.556,-43.441,-97.317,-91.137,-83.04,-68.156,-37.269,-98.302,-92.584,-84.279,-74.626,-48.715,-98.927,-92.937,-82.616,-70.369,-43.895,-97.566,-93.351,-83.032,-63.221,-41.254]],
"vp": [[2566.85,2229.06,1265.24,2130.377,1832.037,510.595,477.393,331.209,350.401,591.122,246.856,106.91,242.26,244.169,82.156,41.12,53.778,30.61,28.995,34.399,28.775,10.981,12.309,12.576,10.677,12.571,6.086,6.613,5.485,4.421],[7249.524,6835.286,5342.497,4391.23,5546.956,1270.112,1607.857,1120.33,1028.579,1183.053,626.984,702.423,605.111,444.255,492.667,129.778,119.79,79.028,94.064,86.997,69.35,65.184,51.817,28.857,34.179,29.336,35.994,26.914,27.345,23.024],[8930.061,10834.613,10261.066,10226.152,8677.411,1752.462,2314.667,2082.886,1318.412,1775.306,783.166,1183.32,982.986,962.48,921.569,206.24,239.512,232.513,187.709,173.897,76.295,107.174,94.883,87.083,87.655,35.832,51.908,63.56,58.356,37.234],[8627.663,12855.646,13097.689,16246.399,12521.752,1668.299,2409.152,2818.215,2821.026,2035.257,954.376,1273.626,1524.697,1270.511,1482.413,182.804,298.354,335.797,279.122,285.958,97.336,125.519,140.938,152.901,109.343,45.994,77.988,80.836,72.258,56.016],[10976.364,15641.064,21577.504,18325.07,17662.951,1988.615,3154.139,4338.489,3286.632,4127.506,978.608,1765.107,1969.168,1838.209,1716.016,196.746,277.014,383.911,348.238,333.466,102.466,153.682,191.827,185.99,160.25,48.75,82.282,95.12,86.22,87.524],[9982.863,16982.275,20329.91,21482.045,20058.648,1683.818,3103.546,4029.174,4918.481,4346.178,1078.927,1664.353,2094.964,2167.871,2362.288,192.727,349.752,407.183,467.524,478.771,97.969,155.335,203.492,234.717,219.393,49.727,85.034,111.361,112.896,109.533]]
}