{
"KTrans": [[4.09,4.038,1.447,4.569,5.336,17.264,8.68,11.761,7.197,6.073,13.274,15.935,19.29,14.049,13.311,144.846,94.267,81.242,67.09,62.33,377.164,233.991,185.643,156.046,144.346,1047.098,575.408,453.146,402.35,352.5],[-25.835,4.709,2.277,3.315,0.349,-15.75,13.889,10.969,8.198,4.06,-12.661,14.712,11.072,8.885,7.93,65.248,70.253,46.461,38.002,33.201,190.21,159.115,92.767,77.285,71.564,592.369,369.122,239.011,185.415,158.724],[-49.967,1.081,8.593,-0.035,4.785,-44.385,8.181,10.956,4.699,2.979,-39.92,20.124,10.342,6.115,8.662,19.542,68.35,47.184,34.858,28.564,92.029,141.699,86.24,74.659,56.133,336.541,336.705,218.318,165.478,133.404],[-72.071,8.573,10.523,7.214,5.906,-63.654,8.54,4.676,5.577,6.868,-59.712,9.055,16.166,5.654,10.052,-12.792,59.081,46.865,38.991,30.433,37.581,126.999,96.164,67.55,48.735,195.837,306.881,204.093,150.332,113.777],[-80.125,-10.642,17.081,8.616,5.755,-74.034,-9.354,7.917,8.673,11.299,-71.636,0.938,14.148,8.411,7.517,-44.029,43.494,56.507,38.158,28.861,-8.301,114.622,87.02,79.159,54.494,102.687,235.663,221.724,150.041,125.039],[-81.556,-8.967,15.994,12.706,11.982,-81.284,-15.661,12.459,8.721,7.692,-77.655,-11.945,16.038,16.398,8.502,-68.52,25.181,41.868,35.926,31.974,-38.57,83.249,103.866,77.962,65.711,69.185,200.193,237.186,168.837,126.473]],
"ve": [[8.163,5.459,14.982,9.932,4.935,11.069,5.789,3.883,8.706,11.406,13.054,5.276,6.151,1.21,4.66,47.983,15.284,0.905,-8.159,-15.245,94.913,36.297,8.936,-6.177,-17.372,195.455,80.537,36.17,11.216,-5.365],[-9.354,2.206,0.83,0.914,0.243,7.143,4.423,1.911,0.867,0.238,14.459,5.507,3.685,2.081,1.384,15.801,25.007,14.094,9.44,6.228,104.131,49.856,29.383,18.919,12.711,202.09,97.118,60.292,42.401,29.262],[2.725,1.184,0.894,0.132,0.586,8.627,3.859,2.573,1.815,1.332,83.879,5.631,3.599,1.754,2.337,47.451,25.862,16.29,11.187,8.43,100.632,50.483,32.082,23.937,17.125,204.279,99.535,64.582,47.065,36.42],[-9.682,1.634,0.437,1.262,0.864,8.719,5.314,1.085,0.949,1.258,-1.435,6.931,3.768,2.049,2.107,45.643,25.186,16.406,13.04,9.497,108.909,51.415,32.748,23.912,18.257,201.634,100.615,66.358,48.406,37.275],[4.236,-0.038,1.045,0.785,0.668,15.539,3.238,1.593,1.728,1.511,13.851,5.739,3.971,1.64,1.911,55.197,26.011,17.077,12.123,9.082,111.598,50.402,33.611,25.23,18.764,198.63,101.379,66.01,49.988,38.745],[3.62,3.852,1.377,1.19,0.796,6.994,3.666,2.262,1.367,1.376,49.897,7.643,3.648,3.198,2.04,-88.172,27.294,16.869,12.189,10.073,86.432,47.681,34.371,25.596,20.206,204.06,99.72,68.17,50.694,39.237]],
"kep": [[0.045,3.387,-3.699,4.361,10.921,8.489,7.141,14.915,7.76,10.423,3.134,13.432,22.485,19.367,22.956,66.524,70.599,83.347,87.045,96.311,147.054,147.118,163.611,174.948,198.873,289.497,274.929,307.245,352.978,379.998],[-31.067,2.51,1.569,2.54,0.394,-22.011,9.062,8.995,7.395,4.103,-23.487,8.342,7.083,6.872,6.666,6.386,36.239,28.275,26.052,25.571,43.169,72.716,48.815,49.11,52.316,129.308,137.939,111.269,100.378,99.914],[-52.617,-0.701,7.339,-0.328,3.933,-49.365,3.605,7.7,2.693,1.473,-47.295,13.141,6.21,3.938,6.013,-22.812,33.347,26.102,20.871,18.397,-5.584,59.748,40.766,40.662,32.967,43.232,118.36,92.907,80.111,70.723],[-74.714,5.294,9.296,5.402,4.68,-66.998,3.057,2.608,4.07,5.079,-66.118,1.643,11.22,3.09,7.35,-44.525,26.053,25.307,22.327,18.664,-32.977,49.372,47.1,34.765,25.37,-3.275,102.514,82.291,68.196,55.194],[-81.732,-11.666,15.13,7.044,4.586,-76.768,-13.087,5.316,6.058,9.143,-74.876,-5.493,8.903,5.915,4.891,-64.183,13.588,32.706,22.422,17.643,-55.567,41.988,39.255,42.257,29.466,-33.383,66.351,92.659,66.09,61.628],[-83.323,-12.66,13.3,10.405,10.408,-82.61,-19.115,8.882,6.368,5.551,-81.353,-18.246,10.656,11.603,5.703,-79.951,-1.294,20.27,20.327,19.05,-70.673,21.23,50.721,40.832,36.952,-44.079,48.494,99.702,77.369,61.839]],
"vp": [[412.991,-143.796,260.526,196.17,30.208,98.345,-0.945,49.665,32.095,20.428,43.487,-7.597,46.9,37.244,10.694,6.821,2.199,3.308,2.496,0.856,-0.069,1.941,0.876,0.051,-1.591,0.966,-0.126,-1.433,-0.107,-0.79],[2894.023,822.594,480.656,645.539,271.34,527.483,81.526,111.568,113.939,38.15,218.221,38.045,7.95,50.445,40.068,44.535,13.282,10.375,5.392,3.739,24.865,5.593,2.729,1.352,2.597,11.862,2.404,0.385,0.661,2.662],[4110.528,942.654,347.298,635.568,795.78,779.021,293.945,227.421,99.613,62.865,370.94,179.567,69.271,60.919,56.977,61.535,35.655,18.343,12.193,12.69,43.639,16.576,1.881,8.569,-0.612,19.783,8.368,3.185,2.861,3.664],[4708.162,3572.428,1844.699,1244.794,409.142,992.246,738.521,150.676,216.227,115.749,538.938,343.668,124.228,8.977,31.736,95.988,56.259,27.542,25.17,12.202,45.435,32.689,14.236,7.076,4.386,23.618,15.597,3.879,3.398,1.987],[5858.866,4881.847,2319.68,1009.841,1010.144,1165.864,756.031,295.754,238.377,270.008,509.879,455.506,241.266,76.31,78.426,112.388,101.071,51.808,14.886,11.556,57.999,44.135,14.016,15.236,5.276,26.7,22.755,10.153,4.141,3.252],[6239.335,6890.416,3914.31,1567.166,1768.431,1235.863,1115.195,703.142,187.247,254.913,656.974,556.651,350.68,238.59,67.821,135.335,104.738,58.693,22.733,12.746,64.917,77.002,33.56,11.531,8.932,29.028,29.975,24.384,11.384,4.274]]
}