{
"KTrans": [[0.114,1.1,0.272,0.13,-0.288,-2.928,0.799,-1.139,-1.818,-0.782,-0.03,-0.21,-0.232,-0.74,-1.054,-11.207,-3.942,-3.627,-1.986,-3.064,-15.796,-5.441,-4.26,-6.368,-6.182,-23.042,-18.653,-9.549,-7.298,-5.828],[-9.479,0.206,0.168,0.223,-0.01,-8.844,-1.56,-0.066,-0.947,-0.695,-12.038,-0.465,0.633,-0.049,-0.087,-22.845,-6.187,-3.241,-3.688,-1.776,-28.301,-8.33,-4.357,-5.723,-2.879,-37.339,-19.616,-15.343,-7.153,-7.593],[-29.719,-0.084,0.799,-0.065,-0.034,-32.554,-0.996,-0.429,-0.317,0.28,-34.038,-1.479,0.225,-0.252,-0.42,-38.798,-6.672,-4.609,-1.017,-1.921,-48.165,-10.394,-4.266,-6.115,-1.426,-52.009,-21.757,-12.862,-10.68,-7.469],[-55.318,-3.35,1.054,-0.022,0.076,-50.789,-2.961,-0.886,-0.511,0.078,-54.824,-5.148,-1.67,-0.277,-0.24,-66.002,-8.975,-2.563,-1.49,-1.316,-69.663,-15.49,-6.227,-5.805,-3.874,-73.219,-23.994,-16.033,-12.076,-8.346],[-71.37,-3.938,0.769,0.358,0.775,-69.945,-6.266,-0.861,-0.393,0.079,-71.662,-8.009,-0.919,-0.485,0.403,-80.124,-12.46,-4.823,-2.954,-1.581,-80.382,-18.655,-7.224,-5.717,-4.156,-82.205,-28.553,-19.953,-11.793,-6.891],[-81.594,-10.569,-0.528,0.616,0.621,-83.121,-12.033,-0.697,-0.203,1.06,-83.286,-10.289,-1.617,1.326,0.44,-86.576,-16.675,-5.11,-1.355,-1.507,-86.824,-24.767,-7.783,-5.072,-4.123,-84.435,-38.861,-17.682,-12.404,-8.933]],
"ve": [[0.097,-0.092,1.057,1.093,2.545,-0.082,0.228,1.13,2.349,2.963,0.13,0.053,0.357,1.455,3.976,-3.364,0.672,2.451,3.764,7.934,-4.288,3.73,7.986,16.437,27.084,-18.877,-10.271,155.826,-7.629,37.145],[-3.141,0.211,-0.051,-0.059,-0.053,-3.242,-0.53,-0.088,-0.21,-0.387,-4.814,-0.745,-0.323,-0.088,-0.551,-11.588,-2.585,-1.31,-0.904,-0.409,-12.719,-3.391,-1.904,-1.482,-0.316,-18.085,-9.212,-4.372,-1.337,-0.373],[-13.215,-0.174,-0.114,0.047,-0.064,-16.001,-1.686,-0.313,-0.225,-0.188,-15.327,-0.726,-0.677,-0.443,-0.162,-19.456,-3.087,-2.58,-0.615,-0.669,-29.248,-5.404,-1.718,-2.73,-0.883,-37.003,-11.451,-6.139,-4.328,-2.513],[-28.189,-1.917,-0.299,-0.25,-0.39,-26.018,-1.583,-0.558,-0.364,-0.248,-28.883,-1.986,-0.82,-0.434,-0.366,-40.379,-4.531,-2.426,-1.061,-0.885,-42.669,-9.859,-3.143,-2.618,-2.08,-57.562,-13.925,-8.319,-5.99,-3.438],[-40.9,-2.568,-0.106,-0.011,-0.206,-41.535,-3.507,-0.377,-0.435,-0.011,-42.879,-4.147,-1.137,-0.474,-0.232,-53.408,-6.688,-2.658,-1.598,-1.11,-57.075,-10.006,-4.289,-2.837,-1.925,-72.545,-16.261,-11.445,-6.3,-3.439],[-51.644,-6.06,-1.071,-0.312,-0.106,-53.844,-6.137,-0.757,-0.454,-0.203,-53.85,-5.452,-1.227,-0.015,-0.263,-60.341,-7.858,-3.549,-1.398,-1.375,-65.792,-12.213,-4.214,-3.238,-2.296,-64.643,-21.242,-9.731,-6.498,-4.124]],
"kep": [[0.053,1.752,-0.049,0.211,-0.557,-2.674,1.062,-1.318,-3.103,-2.264,-0.067,0.101,0.203,-0.957,-3.072,-8.915,-4.115,-4.737,-3.635,-6.551,-15.261,-7.82,-7.573,-11.777,-14.251,-30.748,-27.466,-19.31,-22.563,-19.896],[-6.73,-0.032,0.223,0.307,0.084,-6.003,-1.049,0.032,-0.713,-0.275,-8.162,0.239,0.954,0.059,0.505,-14.192,-3.988,-2.037,-2.829,-1.378,-22.618,-5.921,-2.951,-4.52,-2.653,-43.573,-16.066,-13.083,-6.689,-7.604],[-20.172,0.054,0.918,-0.109,0.038,-20.856,0.583,-0.101,-0.096,0.471,-22.663,-0.796,0.875,0.179,-0.247,-26.947,-3.96,-2.18,-0.454,-1.294,-37.888,-6.644,-3.009,-3.721,-0.718,-60.242,-16.019,-9.096,-7.715,-5.656],[-40.145,-1.557,1.321,0.225,0.465,-35.731,-1.556,-0.349,-0.148,0.323,-37.874,-3.407,-0.878,0.147,0.131,-48.705,-5.088,-0.258,-0.48,-0.475,-61.889,-7.262,-3.569,-3.467,-1.96,-78.82,-17.251,-10.062,-7.505,-5.749],[-54.68,-1.619,0.793,0.368,0.959,-53.21,-3.099,-0.558,0.023,0.082,-54.691,-4.249,0.196,-0.036,0.648,-65.005,-6.809,-2.378,-1.44,-0.506,-73.205,-10.952,-3.403,-3.221,-2.456,-86.054,-22.165,-11.291,-6.807,-4.32],[-66.959,-5.151,0.496,0.901,0.713,-68.522,-6.619,-0.044,0.237,1.251,-69.191,-5.399,-0.478,1.327,0.697,-75.32,-9.73,-1.721,-0.013,-0.178,-83.072,-15.642,-4.121,-2.131,-2.071,-85.416,-30.083,-10.872,-7.317,-5.625]],
"vp": [[72.275,20.709,31.047,30.236,18.677,23.13,-0.704,14.986,25.035,16.719,6.532,8.93,5.165,5.096,7.987,12.212,6.65,6.042,5.116,6.238,8.482,4.474,4.817,7.073,7.162,8.037,8.935,5.468,4.242,4.582],[421.461,-29.426,70.491,39.061,18.553,71.742,35.297,8.709,25.264,26.15,53.615,16.832,-1.23,-2.006,9.126,24.841,12.651,9.741,11.612,9.071,13.868,8.3,6.326,10.459,5.756,13.082,11.023,10.686,6.082,8.337],[1393.13,6.829,20.28,17.772,144.906,325.099,61.513,23.569,13.654,4.055,161.828,20.825,16.101,20.856,14.703,41.727,12.422,16.644,3.269,8.997,29.399,11.401,4.843,13.526,3.997,18.775,12.077,10.275,10.201,8.499],[2896.737,384.216,59.192,90.868,147.773,527.862,69.489,35.427,30.321,21.853,292.379,46.543,24.815,21.641,13.799,82.496,19.31,12.101,9.404,7.23,45.339,19.968,9.642,11.026,10.934,30.425,13.786,13.638,12.725,9.687],[4196.65,507.53,18.415,-22.474,45.805,846.316,158.623,23.721,40.956,-3.642,442.939,83.112,32.477,24.783,9.152,107.343,29.045,15.466,12.649,12.519,58.661,20.321,12.967,11.831,10.669,35.408,16.376,18.113,13.175,8.434],[5239.078,1235.999,268.21,115.715,33.867,1142.547,246.23,43.594,30.494,3.799,557.869,113.531,45.471,-2.331,5.697,123.709,33.413,21.931,12.555,12.505,67.446,24.512,12.184,12.517,10.692,32.518,21.052,14.491,12.989,10.449]]
}