{
"KTrans": [[-47.68,-77.93,-65.515,-59.165,-62.187,-32.353,-54.14,-56.971,-63.571,-55.821,-29.006,-45.571,-54.77,-47.525,-48.737,-25.659,-24.194,-1.262,1.862,-1.784,-152.336,75.329,106.018,46.242,62.537,27.721,68.281,149.45,158.462,119.062],[-54.225,-52.19,-48.91,-55.414,-63.787,-44.868,-34.201,-37.795,-45.056,-44.977,-46.46,-37.729,-34.34,-47.726,-41.25,-10.9,-14.939,-7.505,-11.813,-29.206,-11.357,-23.315,-4.183,17.586,20.813,-4.935,-31.455,14.345,2.699,65.258],[-65.11,-46.799,-48.15,-48.937,-49.089,-61.529,-48.054,-39.682,-41.642,-33.592,-59.719,-42.32,-34.264,-38.606,-30.622,-36.245,-18.538,-14.711,-19.882,-16.615,-44.564,-9.264,7.222,-20.484,-6.378,-20.507,-31.686,-82.414,-29.643,-15.265],[-75.655,-42.179,-43.387,-33.377,-42.298,-68.908,-41.137,-42.734,-48.411,-47.415,-68.064,-48.072,-39.561,-43.14,-28.768,-58.275,-27.86,-18.425,-23.188,-12.419,-52.498,-25.421,-19.786,-11.769,-14.063,-44.785,-10.452,1.148,2.874,-54.001],[-80.119,-53.647,-50.844,-36.951,-49.479,-77.813,-48.664,-47.476,-40.226,-37.62,-74.061,-53.915,-36.901,-34.672,-38.282,-74.932,-27.573,-28.718,-22.012,-32.547,-68.008,-37.208,-13.133,3.016,-11.956,-70.518,-16.711,-14.218,-20.919,-17.766],[-84.737,-55.719,-41.585,-41.836,-37.02,-83.02,-55.913,-45.06,-34.504,-41.403,-82.489,-58.842,-39.601,-36.495,-34.95,-84.782,-50.712,-33.444,-26.603,-36.264,-76.759,-56.763,-31.741,-9.252,-22.973,-86.731,-41.839,-24.483,-21.398,8.462]],
"ve": [[-45.454,-652.958,-48.852,-103.7,-21.445,-31.125,-1.433,-47.247,-4242.773,4.142,-29.428,-32.21,-55.964,-112.783,-67.557,18.795,531.736,22.733,-662.572,-2613.919,42.184,46.488,-68.96,-6.575,36.858,126.439,86.224,37.804,-7.001,-37.607],[-49.528,-71.825,-49.77,-35.588,-26.986,-58.118,-54.773,-37.019,-43.688,-21.672,-64.67,-58.351,-45.779,-43.824,-22.093,37.572,-24.249,1.304,-12.544,-7.984,135.025,-11.648,-1.558,13.289,-9.711,108.027,-54.164,4.656,31.419,19.843],[-52.814,-89.343,-77.637,-64.965,-49.694,-22.562,-103.82,-63.725,-53.096,-33.781,-19.183,-91.862,-56.22,-27.299,-44.81,40.231,-53.477,-33.116,-16.613,-9.028,-47.365,39.302,26.593,0.686,-2.47,88.726,69.294,-3.377,35.171,-5.523],[-29.93,-79.157,-91.745,-55.66,-59.696,-46.491,-91.795,-95.445,-83.963,-69.445,-36.595,-119.167,-74.806,-75.852,-39.631,33.085,-68.311,-37.923,-39.028,-19.073,36.337,-31.163,-73.738,-14.954,-8.801,-21.533,-54.725,3.005,8.162,-11.603],[-33.968,-109.308,-130.382,-74.836,-87.966,-29.666,-118.512,-121.339,-80.202,-65.188,20.436,-137.107,-92.378,-72.358,-65,37.212,48.863,-86.972,-45.932,444.028,-31.715,-27.767,3.68,17.382,-29.082,-55.461,82.215,-10.382,16.12,-23.232],[-62.816,-93.932,-99.816,-106.61,-73.721,-14.721,-118.302,-117.66,-74.811,-80.902,-4.162,-107.494,-97.286,-79.771,-71.681,-16.098,-54.941,-89.528,-65.214,-78.006,128.751,-80.872,-73.811,-10.667,-69.195,10.007,12.89,-51.804,-24.945,29.194]],
"kep": [[-131.986,1.056,-11.477,4.65,12.423,-131.721,-10.001,-1.503,-11.17,-4.65,-116.085,-33.354,-5.19,-11.626,-2.764,-100.084,-35.844,-22.991,-35.093,-38.904,-19.504,-153.095,-150.325,-97.771,-80.843,38.123,-207.244,-268.012,-230.886,-199.43],[-49.558,-21.698,-107.056,-9.987,3.326,-45.106,-18.372,-100.074,-16.553,0.39,-45.061,-24.397,-130.691,-12.741,8.432,-56.355,-38.743,-118.19,-38.971,-24.269,-59.478,-14.935,1.429,-127.011,-66.308,-39.171,24.439,68.55,-114.922,-153.516],[-64.654,-14.755,-2.622,-13.565,-114.001,-65.737,-11.124,-8.646,-4.989,-124.468,-68.267,-11.024,-4.038,-9.851,-138.958,-62.329,-22.614,-19.616,-38.785,-76.028,-50.833,-34.838,-32.929,-39.381,-7.986,-53.747,-44.035,-19.399,-32.808,11.793],[-79.288,-19.144,-4.256,-1.777,-1.151,-72.426,-18.059,-4.593,-5.049,-1.601,-72.519,-19.275,-11.061,-0.823,-1.158,-73.774,-32.285,-21.174,-16.874,-28.953,-66.553,-39.105,-23.469,-17.866,-32.052,-65.757,-30.261,-22.215,-5.824,-1.933],[-84.476,-33.165,-8.86,-1.563,2.636,-84.718,-27.408,-6.995,-4.52,-3.216,-85.624,-28.954,-8.776,-3.745,-5.256,-79.985,-52.947,-11.909,-11.362,-5.585,-73.596,-51.082,-44.245,-24.18,-21.736,-74.398,-52.326,-32.433,-37.423,-9.8],[-84.138,-40.819,-14.174,-1.957,-5.567,-88.149,-38.426,-13.179,-8.552,-6.442,-88.96,-43.735,-13.021,-5.49,-4.322,-84.132,-60.11,-26.262,-10.922,-8.323,-84.458,-56.47,-37.995,-32.406,-7.334,-82.702,-54.501,-38.654,-26.476,-24.707]],
"vp": [[20.324,-208.97,8.13,119.964,62.105,-9.672,23.298,5.234,-58.889,47.93,-9.269,-18.025,-14.938,-23.853,-47.237,-12.418,24,-14.339,3.66,-5.545,-10.584,-16.95,-23.749,9.679,-11.008,-41.522,-21.872,4.913,4.506,18.134],[1423.899,240.049,-124.081,122.499,-112.065,349.682,48.143,-2.812,34.904,-22.308,107.291,10.295,-30.1,-22.249,17.441,1.302,-49.593,-23.084,4.82,-13.355,-26.409,-38.05,-39.896,-23.694,-23.079,-35.183,-43.753,-39.548,-6.207,-28.715],[3176.421,1247.363,375.884,214.364,65.915,689.242,158.527,92.985,34.832,17.733,293.006,13.098,39.523,-22.689,1.217,20.929,-16.135,-25.559,-16.394,-17.712,-26.019,-32.501,-45.569,-44.272,-23.818,-50.013,-39.206,-16.515,-58.995,-37.282],[4926.084,2352.031,812.171,911.949,223.86,766.412,372.661,135.275,30.695,16.671,419.332,137.79,86.042,10.188,49.786,32.663,5.714,32.381,-2.604,6.378,-13.075,-20.56,-38.32,-42.7,-47.375,-42.233,-43.702,-58.876,-45.495,-22.214],[5045.143,3234.245,1172.676,966.933,423.58,977.409,521.33,228.056,194.857,90.902,518.93,202.164,166.431,91.437,59.391,35.813,59.602,15.226,25.427,-10.282,-13.136,-34.777,-22.918,-23.124,-25.008,-37.512,-52.544,-51.876,-49.02,-22.155],[5228.215,4142.421,2499.881,1513.775,1297.291,1177.975,718.989,424.595,315.848,275.073,577.007,359.22,118.078,141.523,125.393,87.656,86.624,39.179,43.688,14.067,4.236,26.359,1.741,-25.375,-46.81,-26.393,-32.289,-37.624,-50.672,-44.777]]
}