{
"KTrans": [[1.149,0.624,-0.961,0.179,0.631,0.249,1.839,1.326,1.535,1.49,5.165,4.313,2.403,2.397,3.059,31.544,17.743,15.795,12.511,12.045,66.084,38.144,29.731,26.648,23.697,143.518,82.233,65.592,55.919,52.513],[-4.447,-0.261,-0.074,-0.149,-0.322,-0.586,1.138,0.619,0.881,0.942,1.076,2.841,1.677,1.364,1.568,22.449,15.491,9.772,8.001,6.572,58.393,30.089,21.142,15.388,13.437,121.774,62.135,42.867,33.902,28.682],[-13.518,-1.463,-0.117,0.316,-0.066,-11.403,1.562,0.306,1.399,0.203,-8.855,2.816,1.44,1.292,0.972,9.801,13.028,10.036,6.709,5.633,37.863,29.492,19.463,14.396,11.347,84.257,62.551,40.586,30.025,23.992],[-24.206,-1.579,-0.574,-0.227,0.023,-23.463,0.713,0.048,0.582,0.107,-21.25,-0.576,1.643,1.369,1.641,-6.241,13.619,8.425,6.336,5.512,14.839,27.989,18.596,13.289,11.871,49.402,63.707,41.462,30.861,23.636],[-41.786,-3.8,-0.925,-0.52,-0.234,-38.386,-1.272,-0.586,-0.482,0.593,-35.361,-0.257,0.939,1.036,0.229,-21.385,11.708,9.476,6.408,5.728,-11.61,24.302,19.851,14.292,12.383,9.853,56.185,40.71,28.948,24.359],[-50.694,-7.076,-0.138,-0.148,-0.275,-49.308,-4.338,-0.284,0.728,0.959,-47.178,-2.871,0.598,1.683,0.68,-33.673,8.555,9.198,6.562,5.46,-33.943,20.845,18.596,13.919,11.275,-13.067,48.534,38.484,29.438,23.469]],
"ve": [[0.885,0.592,1.473,1.548,0.173,0.623,0.296,1.044,-0.178,0.176,2.352,0.237,0.236,-0.092,-1.596,10.546,2.15,-2.255,-4.738,-7.971,21.184,4.587,-2.662,-8.012,-12.152,42.977,11.534,-2.191,-10.544,-17.266],[-0.693,-0.211,0.061,0.101,0.063,-0.321,0.789,-0.078,0.21,0.127,0.783,1.312,0.753,0.284,0.27,11.321,5.442,3.181,1.917,1.078,26.221,11.651,6.796,4.189,2.249,50.199,23.62,14.122,8.706,5.181],[-3.77,0.298,-0.121,0.058,0.182,-3.191,0.144,0.336,0.229,0.139,-2.517,1.036,0.76,0.352,0.389,7.746,6.089,3.939,2.858,2.033,23.078,12.938,7.838,5.462,3.855,45.887,25.909,15.927,11.064,8.121],[-8.942,-0.677,-0.161,-0.052,0.047,-8.26,0.294,0.284,0.134,0.265,-7.119,0.521,0.396,0.483,0.436,2.616,6.711,3.925,2.982,2.493,16.384,13.229,8.422,5.832,4.517,38.49,27.136,17.314,12.179,9.21],[-16.31,-1.596,-0.201,-0.153,0.133,-13.23,-0.656,0.027,0.191,0.2,-12.996,-0.181,0.839,0.552,0.486,-2.475,5.984,4.363,3.139,2.346,9.508,12.982,8.638,6.438,5.142,29.426,25.998,17.917,12.567,10.136],[-20.919,-1.98,-0.291,-0.115,0.089,-19.812,-1.138,-0.096,0.229,0.185,-18,-0.553,0.642,0.453,0.297,-6.919,4.529,4.392,3.212,2.376,-2.447,11.582,8.922,6.144,4.902,22.102,24.478,17.708,13.14,10.024]],
"kep": [[0.42,0.471,-1.768,-0.423,1.398,-0.158,1.787,0.782,2.496,2.457,2.97,4.359,2.526,3.204,5.836,19.027,15.497,18.88,18.703,22.451,36.997,32.299,33.654,38.359,41.544,69.892,63.413,69.673,74.917,85.588],[-3.803,-0.028,-0.114,-0.222,-0.355,-0.267,0.356,0.71,0.702,0.848,0.372,1.521,0.931,1.097,1.328,10.058,9.571,6.411,5.998,5.459,25.397,16.518,13.428,10.775,10.971,47.547,31.043,25.14,23.176,22.36],[-10.142,-1.762,0.02,0.263,-0.24,-8.427,1.416,-0.024,1.178,0.07,-6.499,1.751,0.689,0.946,0.596,1.976,6.57,5.88,3.748,3.533,11.883,14.622,10.773,8.468,7.218,26.079,28.961,21.215,17.038,14.667],[-16.901,-0.898,-0.401,-0.179,-0.024,-16.783,0.487,-0.23,0.439,-0.15,-15.444,-1.083,1.252,0.884,1.201,-9.083,6.47,4.331,3.252,2.947,-3.042,13.018,9.383,7.031,7.032,7.226,28.733,20.516,16.61,13.18],[-31.066,-2.219,-0.723,-0.371,-0.365,-29.554,-0.64,-0.626,-0.658,0.392,-26.277,-0.042,0.106,0.477,-0.262,-20.195,5.406,4.882,3.16,3.298,-19.996,9.966,10.294,7.376,6.882,-16.935,23.973,19.241,14.518,12.896],[-38.785,-5.163,0.158,-0.042,-0.36,-37.816,-3.231,-0.177,0.491,0.769,-36.603,-2.301,-0.042,1.222,0.385,-29.862,3.867,4.59,3.25,3.009,-35.793,8.235,8.87,7.312,6.075,-30.785,19.309,17.581,14.343,12.195]],
"vp": [[-36.007,-22.985,67.175,-31.803,-18.969,-8.607,-19.749,-30.718,-14.446,-29.114,-23.099,-23.111,-20.131,-26.093,-25.896,-23.448,-22.555,-23.038,-22.161,-21.701,-24.119,-22.347,-22.209,-21.941,-22.626,-23.556,-22.286,-22.057,-21.817,-21.8],[188.729,8.192,-22.772,-26.741,-81.852,16.894,-29.465,-10.844,-26.458,-23.766,-10.5,-23.775,-25.572,-21.036,-25.177,-22.676,-24.194,-23.386,-22.816,-22.683,-26.077,-25.075,-23.77,-23.248,-22.767,-25.053,-24.65,-24.467,-23.708,-23.509],[421.864,-1.123,64.567,-13.511,-10.918,58.794,8.677,-19.573,-24.555,-15.031,24.84,-20.478,-20.558,-18.062,-22.705,-15.636,-25.913,-24.466,-24.511,-24.335,-22.742,-25.977,-25.271,-24.188,-23.696,-22.769,-26.154,-24.789,-24.103,-23.959],[948.911,118.948,-3.318,72.136,17.209,178.077,-3.918,-3.006,-18.241,-17.801,77.246,-6.688,-17.994,-22.637,-27.391,-4.524,-25.954,-24.766,-24.884,-25.207,-15.545,-27.137,-25.477,-23.885,-24.942,-18.823,-27.654,-26.385,-25.419,-24.729],[1670.98,332.172,114.447,82.656,-26.958,272.457,32.12,0.167,-20.795,-14.711,135.504,6.089,-21.693,-17.205,-14.472,7.116,-23.852,-25.833,-25.553,-25.553,-8.754,-25.381,-25.427,-26.021,-25.922,-13.618,-26.053,-26.956,-25.887,-26.293],[2169.55,463.938,118.701,4.093,73.64,406.986,50.096,10.03,-8.941,-13.214,186.468,12.721,-9.24,-16.294,-13.958,14.655,-18.35,-25.575,-25.673,-25.865,2.595,-23.469,-27.282,-24.867,-25.15,-10.797,-24.129,-26.449,-26.324,-25.775]]
}