{
"KTrans": [[1.3,9.119,4.862,7.865,9.815,16.841,11.972,12.795,13.226,14.834,27.206,22.895,22.688,23.066,14.762,135.248,96.609,80.327,75.415,66.969,261.414,206.811,173.192,147.981,146.935,229.093,444.229,388.012,353.401,330.621],[-25.494,-7.916,0.103,2.603,4.036,-18.216,0.203,1.394,4.929,8.107,-9.924,9.327,8.118,8.216,8.493,34.329,42.298,38.014,37.365,31.56,84.547,100.84,80.851,69.746,63.769,43.512,231.833,204.248,155.732,137.722],[-40.28,-12.061,-7.189,-1.309,0.059,-35.386,-11.419,-6.185,1.659,2.46,-33.257,-5.891,-1.737,1.654,4.453,6.966,23.869,24.988,23.033,21.319,21.526,69.369,54.18,48.947,46.668,-36.32,135.239,124.697,121.546,102.876],[-51.165,-21.016,-12.384,-7.115,-3.459,-43.28,-13.628,-9.757,-4.616,-2.628,-46.217,-13.308,-8.22,-2.564,0.125,-29.63,24.029,19.991,15.828,14.242,-6.372,50.509,45.764,38.244,37.119,-57.617,104.487,115.403,94.597,86.636],[-57.652,-28.384,-18.524,-11.951,-8.205,-62.746,-25.753,-15.886,-8.861,-7.928,-56.169,-22.084,-13.046,-9.666,-4.195,-47.377,3.666,3.069,8.361,9.824,-46.765,57.572,40.719,31.955,30.825,-62.315,61.528,86.255,90.511,71.636],[-67.895,-34.565,-22.874,-15.367,-10.646,-69.606,-31.334,-17.186,-12.468,-9.387,-67.181,-29.016,-18.293,-11.63,-7.672,-62.89,-9.157,0.462,1.509,6.952,-56.432,24.198,22.21,26.698,20.46,-73.86,10.831,72.263,80.666,53.761]],
"ve": [[11.313,20.443,28.885,68.009,121.406,13.117,17.104,18.776,32.112,59.058,13.919,8.798,12.891,20.786,73.773,47.537,18.033,5.854,-1.38,-2.965,87.243,36.036,12.927,-1.02,-11.824,183.778,85.876,37.199,15.631,2.872],[0.553,0.216,0.719,4.042,5.091,3.914,2.915,2.117,3.687,4.197,11.623,3.106,3.059,4.696,5.556,50.615,22.074,14.646,10.356,9.256,92.723,45.607,29.143,20.08,14.892,185.621,95.078,60.574,42.743,29.998],[1.905,-1.397,-1.576,-0.606,0.953,5.782,1.549,0.312,0.144,0.92,9.017,2.582,2.793,1.858,2.135,44.99,22.166,14.695,9.707,8.562,97.73,45.295,28.427,21.419,17.418,181.673,92.979,60.225,46.199,35.479],[0.325,-2.287,-2.074,-1.178,-0.569,3.613,0.401,-0.065,-0.831,0.084,8.775,1.845,-0.082,1.008,0.57,42.43,22.12,14.045,10.382,7.942,113.382,46.018,28.622,22.535,16.722,191.21,89.562,62.169,45.223,36.359],[1.596,-1.839,-1.985,-1.603,-1.408,4.562,0.378,-0.765,-0.886,-0.817,9.942,2.112,0.582,0.099,0.086,51.853,20.711,13.521,10.246,7.27,108.74,47.539,29.814,21.719,17.076,195.632,102.406,62.326,45.227,35.659],[5.236,-2.632,-2.29,-2.332,-2.097,6.047,-0.342,-1.116,-1.448,-1.202,11.723,0.624,1.148,-0.653,-0.607,50.733,21.474,12.637,8.949,7.248,74.231,47.009,28.538,21.465,16.378,194.142,89.188,60.891,46.359,34.963]],
"kep": [[-25.337,-20.414,-29.793,-31.541,-35.531,-14.812,-20.534,-18.675,-21.278,-24.139,-8.967,-8.861,-10.738,-9.479,-25.751,24.592,31.065,35.039,44.055,40.195,42.372,75.852,88.9,96.296,120.303,-10.09,127.351,172.262,207.067,235.914],[-42.006,-28.596,-22.74,-23.315,-23.003,-38.555,-24.189,-22.779,-21.179,-19.339,-37.054,-17.669,-18.55,-19.696,-19.909,-30.745,-9.69,-6.646,-3.389,-6.496,-27.554,6.338,8.438,9.543,10.599,-58.568,29.677,45.84,38.195,41.479],[-54.081,-30.798,-26.742,-23.066,-23.229,-52.574,-32.354,-27.528,-21.339,-21.357,-52.313,-28.738,-25.891,-22.679,-20.742,-42.881,-21.452,-15.705,-13.2,-13.517,-51.942,-10.493,-7.438,-5.18,-3.3,-78.771,-7.22,7.577,16.704,15.406],[-62.524,-37.184,-30.677,-27.199,-24.794,-57.227,-33.268,-30.007,-25.502,-24.685,-61.907,-33.935,-28.772,-25.331,-22.904,-63.68,-21.764,-18.479,-18.845,-18.107,-62.58,-20.935,-12.704,-12.874,-9.166,-86.59,-20.662,1.532,2.817,5.398],[-67.663,-43.335,-35.599,-30.701,-27.928,-72.495,-42.665,-34.257,-28.772,-28.117,-69.123,-40.911,-33.075,-30.135,-25.894,-73.307,-33.645,-29.829,-23.904,-20.754,-78.217,-18.245,-16.72,-16.411,-13.713,-87.89,-38.349,-12.321,0.433,-2.613],[-75.823,-47.851,-38.819,-32.911,-29.336,-77.907,-46.629,-35.099,-31.218,-29.032,-77.247,-45.357,-37.365,-31.159,-28.09,-80.889,-42.32,-31.071,-27.924,-22.891,-83.063,-35.223,-26.82,-19.619,-20.037,-91.352,-56.472,-18.552,-5.66,-12.344]],
"vp": [[-170.094,42.914,102.935,-264.984,-538.684,59.106,-21.606,106.434,25.558,166.561,34.876,-14.218,46.195,93.642,5.153,-4.754,1.989,-10.715,8.539,0.576,-16.323,-6.881,3.223,-17.115,-6.427,-10.82,-1.833,-0.47,-8.361,10.775],[2213.549,483.068,251.896,-323.628,74.188,500.907,154.158,-49.112,-32.869,16.916,219.213,107.607,-60.115,7.612,9.384,41.864,0.138,-5.213,12.145,-9.557,6.73,-1.962,-8.841,-5.243,-5.441,-6.27,-12.977,1.212,-7.475,-3.552],[4794.207,2285.05,888.447,917.917,-211.844,951.309,579.786,197.026,228.705,55.373,375.949,273.17,120.275,60.613,3.22,67.76,41.624,6.318,3.344,1.398,18.883,4.204,-19.601,-6.845,-5.28,-0.15,-16.46,-24.613,-3.968,-9.485],[5302.413,4244.477,2597.706,1361.255,1295.015,1207.403,958.272,440.072,304.268,240.404,531.637,440.967,248.358,196.321,94.708,111.454,102.252,50.255,50.537,4.068,31.761,15.114,-6.201,10.693,4.089,19.86,0.605,-2.104,-15.104,-1.774],[7189.696,7114.89,3962.438,1790.407,1637.217,1252.753,1279.879,676.62,544.031,218.591,638.088,654.998,367.992,265.711,146.697,123.158,104.184,68.272,30.518,8.189,49.658,67.939,29.947,17.568,14.84,29.234,44.468,2.693,8.173,-9.025],[7236.672,8576.237,4481.607,3451.273,2050.343,1621.486,1748.957,872.947,678.302,413.153,750.29,737.91,548.257,287.485,182.496,159.34,158.282,98.769,41.884,50.829,62.187,72.198,30.672,34.201,-4.057,22.944,27.739,12.309,13.364,-18.696]]
}