{
"KTrans": [[-40.111,-59.033,-47.489,-60.829,-62.347,-22.854,-36.4,-43.162,-38.871,-34.963,-11.409,-31.266,-33.93,-32.897,-28.492,-6.527,21.865,29.236,25.929,28.542,71.597,89.586,57.941,59.189,69.554,134.847,111.199,174.537,126.445,166.298],[-41.51,-48.007,-43.675,-48.02,-49.487,-38.281,-37.378,-20.749,-31.441,-30.468,-26.248,-22.284,-23.897,-29.189,-27.995,4.241,18.064,-20.56,-3.317,-3.035,41.8,19.821,-6.823,5.343,13.436,39.661,-33.584,43.241,2.197,13.275],[-42.736,-44.716,-37.349,-45.913,-41.99,-46.314,-36.075,-36.072,-25.959,-33.297,-45.124,-25.539,-30.874,-25.159,-13.239,-23.289,-14.629,-13.512,-1.331,-13.596,-0.235,22.881,31.466,-2.109,-23.694,15.621,25.658,-0.776,40.59,-37.19],[-60.434,-35.344,-40.719,-39.604,-43.791,-59.046,-40.766,-37.402,-43.853,-33.844,-61.951,-30.595,-37.124,-29.392,-41.548,-42.052,-30.222,-19.27,-15.657,-9.972,-34.315,19.398,10.37,4.976,18.707,-8.714,20.505,36.545,31.802,32.391],[-69.336,-41.075,-33.163,-35.363,-45.139,-70.513,-41.702,-38.374,-34.853,-32.072,-70.377,-41.138,-27.335,-40.007,-30.5,-57.703,-32.853,-19.195,-21.489,-14.449,-49.616,-13.633,3.582,-4.9,-4.698,-37.825,-13.026,42.767,44.249,36.486],[-79.588,-44.181,-31.838,-31.983,-38.143,-74.888,-38.047,-37.454,-35.022,-39.302,-78.763,-41.365,-43.457,-25.14,-26.491,-75.76,-38.87,-25.185,-15.64,-22.52,-64.584,-21.042,-0.289,-10.577,-9.322,-59.978,-20.536,34.834,46.998,46.231]],
"ve": [[-34.722,16.611,-8.964,-6.601,-22.924,-39.018,-10.494,-15.719,7.969,14.439,-13.494,-65.055,-19.372,-49.365,19.781,4.685,13.849,172.389,3.983,131.243,81.286,20.792,-79.935,3.149,-85.992,104.824,77.107,13.884,-17.306,-23.657],[-98.399,-72.181,-44.935,-34.676,-29.526,-97.022,-56.595,-20.208,-21.23,-17.228,-51.853,-36.02,-24.79,-18.38,-15.893,30.842,17.997,-10.158,1.9,0.904,1.675,58.498,-8.074,9.784,6.433,233.623,107.077,45.913,25.757,1.988],[-72.996,-110.47,-59.876,-57.726,-41.655,-111.503,-85.095,-60.51,-32.422,-35.376,-66.512,-54.865,-52.938,-32.998,-14.005,31.923,-50.658,-69.465,-7.899,-5.267,142.726,85.514,36.973,35.669,-11.57,242.613,195.736,78.38,64.217,-22.159],[-85.715,-98.323,-94.956,-68.853,-60.225,-51.065,-123.423,-82.829,-76.598,-47.083,-75.161,-87.697,-80.063,-50.984,-59.765,-21.412,-106.552,-35.462,-29.488,-18.267,39.728,55.021,-6.272,-5.057,13.757,202.013,16611.152,161.281,117.736,63.36],[-58.385,-128.387,-91.036,-75.739,-80.584,-61.75,-140.788,-100.286,-73.471,-55.859,-59.666,-145.969,-81.591,-84.895,-53.977,0.036,-111.477,-52.897,-56.364,-29.23,138.414,6.613,14.489,-27.111,-14.145,130.134,65.778,163.951,120.264,96.17],[-29.854,-146.966,-85.856,-80.318,-78.197,-40.469,-158.629,-110.595,-87.75,-84.184,-67.469,-153.971,-156.604,-55.408,-52.772,49.89,-75.302,-92.329,-47.866,-51.103,120.583,-10.684,-37.92,-36.279,-26.718,219.09,136.944,192.652,179.367,71.935]],
"kep": [[-108.667,4.473,3.231,-1.442,-0.489,-117.224,8.971,4.327,-1.497,-0.452,-108.647,-1.241,-9.381,-1.971,-2.401,28.207,-41.66,-34.17,-26.877,-29.41,49.774,-124.152,-69.727,-57.141,-66.931,102.144,-185.101,-208.147,-146.657,-175.805],[-8.366,-5.408,-124.597,0.159,1.613,-7.979,-2.804,-124.504,3.566,1.83,-13.754,-3.123,-107.08,-1.473,-3.178,-41.514,-15.742,-17.844,-25.661,-12.813,-11.327,-18.931,50.475,-78.112,-35.908,-45.609,-29.805,76.905,-133.908,-74.004],[-24.448,-0.101,-2.679,-3.685,-129.196,-25.151,-2.225,-0.131,-6.412,-113.614,-32.7,-4.339,1.075,1.337,-111.842,-54.101,-4.092,1.42,-8.12,-48.83,-55.435,-47.272,-23.052,-71.194,3.907,-56.09,-56.297,-32.455,-2.317,123.78],[-46.406,-6.682,0.992,-0.437,-3.626,-49.511,-5.88,-2.677,-0.036,-0.702,-53.055,-6.032,-2.804,-0.126,2.906,-54.657,-8.727,-9.441,-2.777,-2.377,-59.523,-31.225,-9.465,-8.62,-7.745,-64.585,-23.156,-38.883,-49.367,-18.098],[-60.604,-9.558,-2.637,-2.416,-1.243,-64.807,-10.341,-5.087,-2.089,-0.703,-67.341,-8.255,-1.218,-2.037,-1.347,-67.16,-21.467,-3.766,-1.067,0.723,-74.757,-42.534,-19.359,-2.667,-9.131,-70.005,-51.564,-41.866,-34.868,-51.722],[-77.464,-15.911,-6.867,-2.761,-2.212,-71.753,-9.021,-7.089,-2.506,-0.951,-74.502,-14.033,-1.694,-5.249,-2.173,-80.591,-43.914,-3.384,-0.553,0.922,-79.622,-46.637,-12.117,-8.416,-3.529,-81.639,-63.066,-51.714,-60.384,-14.204]],
"vp": [[18.759,71.674,35.802,-135.301,-61.136,-13.779,-7.048,-7.41,1.241,-10.213,1.409,16.623,-28.026,2.823,-6.27,-4.609,-16.742,-14.974,-15.882,-20.42,-20.394,-21.861,-5.395,-0.665,-12.319,-31.064,3.463,-16.805,-3.374,-14.025],[480.462,16.631,37.314,11.671,-88.372,53.194,9.743,-2.335,7.791,11.221,45.31,16.237,-10.308,8.063,0.795,-1.556,-10.551,-11.468,-13.474,-9.076,-49.578,-20.434,-23.269,-0.693,-17.021,-12.022,-24.712,-34.308,28.624,7.38],[1772.017,182.186,217.815,54.951,-48.947,263.876,18.811,13.031,26.128,-6.25,153.954,49.478,-12.019,-0.171,-4.17,28.469,-30.369,-9.144,-20.75,-22.874,-26.059,-21.151,-33.395,-23.017,-11.115,-41.505,-15.534,-28.967,-41.111,2.965],[2773.946,716.663,348.34,148.092,126.438,683.458,97.463,60.848,-10.516,13.445,323.02,59.518,58.054,30.89,-5.783,18.361,4.772,10.537,4.091,-8.64,-31.579,-26.14,-18.822,-7.077,-31.657,-33.518,-34.247,-21.722,-38.538,-39.565],[3709.928,1633.473,562.995,556.756,223.281,816.732,212.794,142.879,120.476,43.524,426.07,120.953,2.013,33.757,28.346,38.241,27.06,16.613,-25.741,-13.104,13.068,10.449,3.282,-11.375,2.976,-26.315,-25.698,-38.215,-14.767,-12.797],[5366.321,1501.536,1309.067,663.548,550.578,1033.403,348.086,247.111,146.481,57.269,466.291,180.441,49.602,88.293,83.031,121.695,69.487,3.961,2.299,8.526,46.349,-3.474,-17.572,4.681,1.897,8.22,-2.804,-18.506,-14.496,1.587]]
}