{
"KTrans": [[2.056,5.53,2.416,6.795,2.272,10.42,10.311,7.767,6.32,6.352,25.766,15.748,14.788,11.778,12.194,155.5,101.33,76.199,70.59,66.907,407.511,218.158,185.509,149.061,144.663,1177.387,594.605,472.664,387.702,360.283],[-12.047,2.194,1.096,1.659,2.137,0.187,8.364,7.406,9.285,6.135,18.546,11.508,10.109,9.448,6.118,115.251,74.318,46.554,42.333,31.316,283.517,146.305,101.315,77.179,69.868,720.149,347.681,232.592,181.465,154.768],[-38.38,5.207,7.817,3.047,2.301,-32.256,13.412,9.334,6.001,6.021,-18.526,12.348,9.067,13.104,12.448,43.405,77.286,51.078,36.912,27.933,175.161,143.756,98.321,66.666,63.527,495.018,357.469,213.063,158.974,120.93],[-55.698,9.335,8.026,5.461,4.831,-52.193,14.389,12.507,7.668,8.375,-45.477,24.368,13.621,10.143,9.28,3.553,73.033,45.599,31.116,29.937,91.03,149.857,97.579,70.335,61.01,290.063,329.702,199.197,149.347,126.852],[-69.961,11.917,15.557,3.381,7.592,-63.455,1.022,7.866,7.117,5.442,-57.378,5.498,22.421,6.403,6.768,-25.718,71.725,55.943,47.804,23.748,10.241,137.976,108.341,73.775,59.306,201.284,323.837,189.917,165.536,120.691],[-76.287,-6.488,19.38,1.89,3.946,-71.994,-3.192,19.976,18.242,6.73,-67.584,5.187,23.135,17.635,7.738,-34.581,45.993,64.356,41.201,28.099,-11.633,107.369,101.94,67.825,58.433,138.053,245.026,198.016,138.735,124.282]],
"ve": [[5.972,4.346,3.551,1.52,6.658,6.236,2.785,4.131,3.17,2.814,11.021,4.551,0.904,3.795,-2.263,46.883,13.999,-0.54,-10.179,-17.99,93.069,33.462,7.784,-6.312,-17.573,191.428,79.037,35.558,11.067,-6.119],[9.27,1.295,0.31,0.938,0.407,8.148,2.354,1.7,1.081,0.909,14.084,4.919,2.829,1.734,1.239,51.95,24.954,14.546,9.102,5.428,101.268,48.652,29.057,18.937,12.471,201.712,96.41,60.127,41.173,28.47],[3.024,0.553,0.574,0.603,0.052,5.951,3.313,2.013,1.318,1.509,13.931,4.866,3.056,2.927,2.24,58.769,25.951,16.63,12.172,8.979,100.013,49.526,32.692,22.721,18.223,200.347,98.72,64.517,46.932,35.259],[1.179,1.245,0.97,0.453,0.117,6.178,3.283,1.892,1.074,1.311,8.694,6.137,3.319,2.596,1.786,28.539,25.539,16.964,11.589,9.55,102.202,50.96,33.379,23.582,19.478,202.986,99.6,65.461,48.171,38.073],[2.434,2.458,1.097,-0.004,0.475,6.238,3.032,1.459,0.868,1.056,12.565,5.285,3.559,1.565,1.716,49.449,24.978,17.178,12.967,8.711,84.521,51.741,34.291,24.167,19.346,272.679,101.021,65.448,50.35,39.172],[15.973,1.341,1.064,0.358,-0.285,10.885,2.797,2.266,2.123,0.761,17.275,6.064,3.018,2.678,1.672,51.783,24.55,18.1,12.522,9.869,110.359,46.834,33.088,24.336,19.716,185.459,100.023,66.313,48.879,39.76]],
"kep": [[-1.95,4.272,3.863,12.509,1.91,6.302,9.544,7.502,9.25,9.418,14.916,12.647,17.036,14.843,22.552,74.937,77.966,78.72,91.911,106.478,163.6,138.894,165.447,166.878,197.915,338.328,288.324,322.847,339.905,391.016],[-15.963,0.757,0.605,0.708,1.841,-7.511,5.676,5.678,8.127,5.223,4.026,5.974,6.888,7.45,4.828,40.969,39.159,27.779,30.337,24.469,90.059,65.514,55.747,48.857,50.853,172.485,127.798,107.382,99.031,98.096],[-40.782,3.783,6.682,2.259,1.954,-36.873,9.173,6.769,4.327,4.265,-28.686,6.854,5.294,9.62,9.788,-6.313,40.185,29.041,21.654,17.036,35.324,62.346,48.746,35.381,38.01,97.736,129.492,89.806,75.824,62.958],[-56.534,7.097,6.233,4.458,4.299,-55.462,9.537,9.701,5.936,6.615,-51.907,15.849,9.299,6.516,6.958,-31.347,37.026,23.761,17.026,18.1,-6.684,64.705,47.361,37.262,34.297,28.91,114.122,80.137,67.743,63.708],[-71.789,7.794,13.207,2.605,6.371,-66.614,-2.726,5.361,5.482,3.85,-62.049,-0.865,16.941,4.151,4.389,-51.612,36.064,31.904,30.051,13.194,-45.518,55.737,54.031,38.997,32.782,-0.348,109.614,74.531,75.68,57.913],[-77.663,-9.07,16.783,0.802,3.5,-73.884,-6.764,15.928,14.932,5.413,-71.561,-2.058,18.197,13.649,5.376,-56.994,16.236,38.051,24.584,15.979,-56.985,37.109,50.215,34.136,31.515,-20.92,71.693,78.165,59.398,59.511]],
"vp": [[443.22,282.875,140.994,171.685,224.734,26.32,22.387,17.132,34.666,58.613,9.367,30.018,40.983,12.85,9.319,2.065,1.519,1.946,0.059,5.255,0.604,-0.063,1.308,1.022,-0.186,1.089,0.46,1.376,-0.219,-0.171],[1820.987,253.279,382.686,159.609,471.224,340.873,151.167,71.154,93.015,95.759,216.464,57.368,16.641,28.869,14.86,46.753,13.821,4.726,10.729,4.341,20.36,6.281,1.838,2.254,2.601,7.211,0.645,0.994,1.075,1.944],[3026.637,1176.05,529.607,559.3,365.135,683.89,191.229,-12.101,51.981,120.696,324.295,67.29,28.256,46.616,56.499,62.929,19.094,15.94,9.207,7.247,31.433,10.667,3.991,1.868,4.429,15.698,6.063,4.15,1.056,1.747],[3754.993,2113.743,725.536,460.75,861.903,862.198,468.929,187.021,104.217,166.019,447.216,292.25,68.668,61.939,74.551,94.094,42.279,11.149,2.227,18.469,50.661,19.727,7.868,5.215,4.505,24.769,10.656,1.378,2.175,4.559],[5628.012,4255.214,1134.743,167.801,651.706,1060.342,476.017,133.726,115.827,163.381,422.686,290.056,125.574,27.18,42.343,98.576,75.791,35.941,16.202,8.032,59.15,48.939,14.702,5.706,7.218,28.06,16.123,4.57,4.345,3.75],[6189.315,5456.327,2068.399,830.792,445.918,1208.077,894.639,524.883,204.669,168.52,641.062,530.712,227.599,64.65,101.511,111.877,85.586,53.57,8.747,5.269,63.048,45.153,24.746,9.193,6.162,25.34,25.708,9.147,4.005,4.77]]
}