{
"KTrans": [[2.178,1.807,0.417,1.363,1.006,12.313,7.198,7.496,5.373,5.447,27.494,15.774,12.151,11.487,10.944,163.076,94.991,73.656,67.547,59.96,264.511,208.528,166.432,155.453,139.245,69.074,327.501,305.754,328.989,296.334],[-1.022,-0.615,0.286,0.593,0.644,7.469,5.471,4.432,3.418,3.239,23.015,11.185,7.76,7.16,6.699,111.162,60.172,43.031,36.449,32.092,9.388,143.056,97.557,76.613,65.772,45.06,-9.13,246.164,181.914,151.754],[-9.048,-0.609,-0.935,-0.276,0.451,0.952,2.914,3.406,2.419,2.67,14.44,9.706,6.136,5.78,4.44,15.48,63.414,40.31,30.358,25.651,-58.702,130.667,99.269,69.732,54.092,-25.833,-45.493,246.446,158.014,124.126],[-11.631,-0.697,-0.239,-0.206,-0.474,-7.697,-0.001,1.298,2.34,2.177,0.12,7.427,5.465,4.477,4.476,-58.139,60.635,39.358,29.663,23.816,-19.118,128.383,104.169,64.469,46.197,-34.149,-104.283,187.339,169.083,111.53],[-28.807,-0.63,-1.562,-0.816,-0.327,-15.931,0.003,0.849,0.172,1.08,-17.396,3.178,5.059,3.766,2.848,-59.457,78.094,36.299,27.033,22.955,-51.769,41.593,94.21,61.143,52.362,-46.37,-42.782,38.21,139.149,119.498],[-41.491,0.379,-0.801,-2.633,-0.908,-38.166,1.317,2.077,0.139,-0.526,-40.332,13.131,3.767,3.407,3.186,-75.578,62.834,37.147,27.583,19.269,-95.377,25.282,115.245,53.464,44.503,-84.232,-58.258,-19.46,183.329,120.7]],
"ve": [[2.551,0.693,1.403,2.548,3.345,4.505,1.855,0.008,0.166,-0.493,9.168,2.588,-0.449,-1.945,-4.507,45.929,14.398,-0.194,-9.885,-17.869,97.603,36.462,8.752,-5.967,-16.8,191.203,77.377,25.572,42.335,6.859],[0.856,0.328,0.311,0.268,0.365,5.652,2.67,1.368,0.761,0.883,9.864,4.503,2.655,1.73,1.051,49.255,23.154,14.629,9.616,5.985,100.571,47.862,29.657,19.728,13.198,197.428,96.909,62.362,43.276,29.846],[0.677,0.291,-0.05,0.197,0.176,5.279,1.79,1.456,1.061,0.893,10.666,4.808,3.096,2.196,1.687,50.779,24.83,15.923,11.119,8.524,98.097,48.052,32.548,23.288,17.481,202.272,102.691,67.286,47.658,36.098],[0.571,0.461,0.397,0.058,0.047,5.433,1.966,1.454,0.992,0.784,10.262,4.966,3.144,2.16,1.782,50.263,24.468,16.164,11.875,9.158,98.782,50.624,33.316,24.381,18.477,195.486,104.136,65.643,49.669,38.337],[2.09,0.725,0.47,0.113,0.008,6.125,2.054,1.601,1.017,0.875,9.554,4.516,3.251,2.225,1.76,50.847,25.19,16.263,11.988,9.567,98.589,51.055,32.728,24.346,19.382,201.151,97.582,64.78,48.271,39.037],[1.868,0.692,-0.029,-0.006,0.076,6.538,2.837,1.771,1.18,0.824,11.343,5.59,3.261,2.383,1.631,52.771,25.496,16.273,12.309,9.525,104.465,49.585,33.691,24.258,19.253,203.242,99.479,67.596,49.073,39.563]],
"kep": [[-1.905,-0.544,-2.286,-2.036,-2.94,5.662,3.523,5.892,3.93,5.124,14.681,10.996,11.029,12.341,14.97,75.292,66.954,71.104,82.555,91.707,80.639,120.746,139.954,166.516,182.37,-24.807,129.605,177.107,260.172,293.841],[-3.855,-2.904,-2.01,-1.684,-1.716,-0.188,0.691,0.978,0.595,0.294,9.723,4.282,2.889,3.246,3.482,37.211,27.063,22.136,21.942,22.137,-40.376,58.941,48.756,44.274,43.384,-44.361,-48.116,106.382,91.669,89.262],[-11.559,-2.911,-2.868,-2.483,-1.755,-6.192,-0.925,-0.122,-0.697,-0.294,0.982,2.514,0.852,1.413,0.628,-23.857,27.543,18.345,14.867,13.413,-74.147,49.923,46.203,34.427,28.349,-69.868,-64.198,99.226,69.151,60.394],[-14.561,-3.236,-2.648,-2.285,-2.537,-14.86,-3.947,-2.195,-0.72,-0.67,-11.667,0.155,0.145,0.175,0.564,-71.175,25.192,17.225,13.426,11.061,-57.654,46.04,48.295,29.02,20.693,-74.294,-93.322,66.249,73.395,48.8],[-32.163,-3.517,-4.037,-2.943,-2.365,-23.291,-4.16,-2.824,-2.859,-1.839,-27.061,-3.443,-0.357,-0.557,-0.993,-71.845,37.707,14.435,10.94,9.838,-73.493,-8.061,41.352,26.293,24.658,-78.885,-66.718,-16,55.352,52.998],[-44.628,-2.597,-2.865,-4.618,-3.006,-43.632,-3.936,-1.801,-3.073,-3.352,-47.726,4.496,-1.628,-1.082,-0.548,-81.846,25.178,14.98,11.074,6.576,-94.537,-18.323,54.702,20.362,18.305,-91.906,-75.027,-48.162,80.869,53.049]],
"vp": [[-45.26,-80.846,15.454,34.652,-41.333,-21.012,4.289,31.776,-22.695,8.527,0.566,-7.276,8.867,-14.52,3.011,-3.722,7.311,-2.757,5.644,-16.429,-2.881,5.543,-14.637,5.608,1.105,-14.985,-1.504,11.222,13.763,1.852],[1016.158,171.592,-13.528,18.136,-90.031,140.916,27.949,-7.864,-2.764,21.485,85.67,1.241,-9.972,-5.083,-19.342,1.061,-17.874,-9.508,4.541,2.876,-3.315,-22.782,-16.956,-4.125,-4.053,-21.559,-13.035,-12.498,7.271,-0.898],[2577.948,369.225,-186.443,-21.758,-2.081,613.504,56.851,50.941,20.672,10.054,266.977,51.293,23.395,-11.258,-11.643,37.22,7.731,-6.475,-9.333,-10.562,0.042,-19.172,4.781,-10.873,-10.856,-13.476,6.679,-7.87,-17.557,-14.591],[4306.853,1464.709,343.905,55.452,180.499,885.99,226.13,29.816,29.783,41.415,437.986,92.101,15.395,38.797,11.934,71.529,5.085,5.61,1.589,0.154,6.928,6.209,15.599,-4.398,-21.507,-5.24,-1.332,-22.412,1.378,-21.5],[5573.434,2406.292,626.477,490.36,267.247,1113.509,431.586,121.164,62.621,48.015,474.939,141.315,41.671,47.152,-8.254,98.488,49.749,7.642,5.518,-0.536,21.078,16.302,-11.766,-4.87,7.01,7.197,-7.28,-21.21,-26.896,-7.375],[6376.952,3518.501,1383.493,619.562,413.431,1235.043,736.958,266.387,97.612,53.656,608.436,323.806,131.284,91.712,56.888,117.446,67.363,4.837,14.302,4.472,65.09,24.541,23.354,-19.71,-20.365,8.54,6.02,6.103,-14.2,-3.857]]
}