{
"KTrans": [[5.896,7.378,2.009,0.228,2.581,13.816,9.983,5.239,6.435,6.437,29.698,17.928,12.526,11.979,11.443,166.672,94.486,79.502,68.865,65.062,132.512,204.091,187.528,148.69,139.023,21.167,110.436,170.608,283.335,281.689],[-4.139,3.718,3.256,2.034,1.56,5.747,5.687,6.431,5.313,4.371,12.812,12.839,8.69,8.169,7.018,58.615,75.26,44.617,38.903,33.42,-57.805,180.575,111.542,77.49,65.767,-64.952,55.706,210.995,171.322,156.086],[-30.01,3.284,2.003,3.107,2.257,-16.231,9.133,6.569,4.523,3.447,-21.236,18.302,9.629,7.72,6.93,-18.455,74.383,49.787,36.756,26.859,-14.047,138.661,92.408,80.24,59.191,-42.491,-12.289,184.367,164.855,129.077],[-46.453,1.432,3.095,0.867,0.534,-41.21,13.058,5.47,4.664,4.306,-26.938,17.418,12.432,8.195,7.223,-43.948,82.422,45.828,32.508,26.999,-40.018,47.932,122.021,74.561,57.145,-50.919,-3.938,9.823,185.073,127.853],[-64.683,0.207,3.569,2.951,4.694,-66.231,5.502,7.15,4.846,5.266,-64.822,16.281,11.602,7.919,6.324,-71.405,51.159,53.155,30.68,30.055,-67.473,26.162,119.596,71.263,54.347,-84.245,-34.371,53.61,152.937,160.593],[-77.151,0.956,5.389,3.6,1,-72.709,3.965,9.475,8.119,4.435,-76.366,13.176,9.821,10.702,7.261,-76.338,18.329,53.153,35.443,30.108,-88.946,-23.177,132.844,87.254,78.804,-74.487,-14.784,0.672,126.293,150.849]],
"ve": [[1.111,-0.791,2.825,6.471,5.245,8.544,2.861,2.432,0.233,-0.228,9.349,2.522,0.862,0.257,-2.182,46.897,15.125,-0.378,-9.46,-17.082,91.467,35.283,10.345,-5.072,-16.333,188.385,35.784,37.309,10.522,9.407],[1.604,0.33,-0.178,0.131,-0.29,6.514,2.558,1,0.471,-0.269,11.185,4.837,2.359,1.55,0.706,51.664,23.695,14.127,9.272,4.997,104.197,47.445,29.875,19.151,12.815,202.611,100.225,68.387,42.577,29.185],[1.953,0.726,-0.151,-0.201,-0.498,7.236,2.299,1.526,0.986,1.043,77.98,5.071,3.076,1.593,1.496,52.707,23.541,15.22,11.113,8.569,98.585,52.225,31.326,23.352,17.377,248.518,99.925,70.262,53.57,35.694],[6.949,0.714,-0.067,-0.182,-0.365,5.523,3.029,1.538,0.882,0.739,10.528,5.639,3.217,2.118,1.511,51.623,24.941,15.84,10.969,9.043,102.165,55.941,32.844,24.118,18.361,204.62,100.835,65.735,49.382,38.106],[3.033,0.836,0.248,-0.075,-0.053,6.52,2.732,1.921,0.911,0.609,11.055,6.031,3.002,2.748,1.685,41.938,29.186,16.722,11.659,9.084,104.938,61.94,32.533,23.747,18.928,205.346,100.276,64.345,52.419,39.742],[3.057,1.911,0.316,0.617,-0.257,3.738,2.611,1.703,1.092,0.663,11.449,5.606,2.782,2.518,1.681,51.297,25.866,16.503,11.976,9.828,106.949,50.789,33.894,25.063,19.961,205.549,100.36,64.234,49.762,39.272]],
"kep": [[6.891,11.038,2.344,-1.703,3.663,6.558,8.997,6.353,9.679,12.968,20.378,17.017,13.982,18.185,19.35,80.216,70.153,82.404,89.277,102.171,22.835,123.238,160.951,163.759,187.902,-37.742,19.323,78.876,231.958,288.577],[-4.811,3.725,3.584,2.196,2.077,-0.79,3.188,5.602,5.058,4.831,1.092,7.813,6.41,6.692,6.506,3.39,41.193,26.757,27.312,27.343,-71.402,86.068,62.055,48.848,46.992,-77.46,-13.728,89.646,88.855,97.533],[-32.222,2.916,2.225,3.445,2.833,-22.958,6.912,5.12,3.574,2.441,-29.931,12.729,6.454,6.131,5.414,-46.24,40.181,29.804,22.994,16.964,-52.033,54.906,45.459,45.65,35.459,-74.162,-47.233,68.322,77.303,67.575],[-49.55,0.624,3.233,1.099,0.936,-45.764,9.677,3.876,3.791,3.587,-35.724,10.97,9.003,6.029,5.664,-61.881,44.25,25.596,19.287,16.502,-66.942,-0.724,64.953,39.912,32.295,-78.367,-45.516,-29.683,87.879,63.411],[-66.682,-0.608,3.256,3.048,4.76,-69.032,2.41,5.172,3.937,4.646,-69.359,9.275,8.315,5.066,4.576,-79.683,19.536,30.7,16.843,19.152,-80.678,-14.327,63.026,37.341,29.383,-91.247,-60.824,-4.498,66.154,83.397],[-78.644,-0.847,4.937,2.95,1.269,-74.755,0.955,7.634,6.943,3.804,-79.113,6.736,6.714,7.978,5.485,-82.693,-6.638,30.559,20.815,18.388,-91.334,-45.917,70.518,48.213,48.243,-88.158,-52.708,-34.183,48.326,76.862]],
"vp": [[381.467,115.397,199.394,-118.198,34.111,69.191,12.356,16.247,27.737,46.835,36.25,-18.095,15.145,-8.575,28.254,13.362,11.027,7.872,16.162,15.074,2.93,-2.477,8.665,-2.375,9.491,12.876,3.38,12.471,-9.186,-6.012],[2948.892,307.452,268.356,258.927,113.658,618.6,123.18,-25.967,-50.927,0.49,352.47,45.292,-11.806,22.319,25.423,53.119,11.82,-3.181,6.053,10.902,51.151,19.051,11.659,-13.166,3.182,25.549,15.95,-2.411,-10.582,1.559],[6199.59,926.158,-180.721,38.469,-177.425,1354.433,212.435,50.774,-27.423,48.776,600.429,160.696,18.95,30.924,28.944,137.701,29.634,27.02,22.589,4.388,43.218,42.189,-8.356,23.9,0.883,47.625,12.912,17.225,1.284,-2.272],[8820.042,3495.495,562.823,57.451,-248.227,1618.824,836.218,121.694,30.714,36.71,837.012,312.541,8.695,-2.555,13.792,142.007,118.547,24.883,3.578,5.204,83.367,61.318,22.866,16.305,9.744,54.228,24.67,4.826,17.383,6.719],[9405.493,6978.414,1038.786,459.388,483.44,1743.22,1251.896,330.532,164.698,100.799,960.642,764.437,136.765,100.906,19.914,196.859,159.993,92.357,9.135,42.759,103.65,55.499,17.654,-0.532,6.587,56.611,33.711,3.831,-2.864,28.785],[9421.951,10605.465,2885.179,816.78,-94.936,1784.77,2246.675,335.852,46.202,-21.08,964.072,1166.598,226.796,44.441,-57.71,180.876,221.86,77.968,24.877,18.273,112.205,89.482,80.904,34.809,64.721,63.173,41.047,-1.229,27.629,15.919]]
}