{
"KTrans": [[-43.489,-60.607,-63.134,-61.019,-58.869,-28.06,-39.487,-46.709,-54.767,-50.91,-15.798,-45.362,-38.292,-29.198,-34.283,35.848,11.414,-0.196,8.615,18.913,30.814,3.438,70.483,32.918,42.549,229.007,130.807,147.789,98.286,114.798],[-44.686,-49.366,-39.085,-50.513,-48.511,-46.362,-34.176,-29.913,-39.956,-30.571,-43.122,-28.834,-23.414,-28.309,-34.746,-17.495,4.801,-1.507,-20.926,-15.183,21.122,63.457,1.271,-3.522,12.474,74.875,35.487,26.53,13.486,26.147],[-57.927,-49.619,-42.841,-50.125,-48.226,-58.288,-38.54,-36.583,-38.953,-31.598,-58.307,-36.865,-27.101,-22.706,-17.895,-35.079,-12.888,-11.409,-7.706,-2.271,-5.579,-9.094,7.236,11.398,-2.816,7.262,53.184,63.381,17.648,11.519],[-72.307,-48.616,-43.068,-48.529,-50.999,-68.954,-41.054,-34.419,-36.761,-36.141,-70.712,-36.194,-33.296,-26.2,-24.351,-53.447,-27.565,-22.593,-11.625,-15.445,-42.042,-16.982,-16.097,-12.765,5.758,-10.103,2.448,22.937,33.335,39.55],[-78.846,-44.396,-39.16,-51.58,-44.274,-77.987,-43.411,-32.302,-44.299,-40.594,-78.414,-38.589,-35.107,-30.273,-38.68,-69.22,-37.289,-24.563,-16.734,-15.01,-50.668,-22.073,-18.187,-11.368,-9.429,-42.666,5.404,16.865,0.583,12.447],[-83.418,-47.604,-33.485,-39.723,-33.105,-83.553,-48.062,-33.283,-38.291,-36.019,-81.282,-42.141,-37.698,-32.93,-31.368,-74.339,-41.642,-32.656,-26.936,-15.632,-64.413,-27.644,-20.913,-17.067,-11.733,-53.483,-0.132,13.3,-2.992,1.935]],
"ve": [[-4.354,-24.436,4.997,33.494,-13.687,-28.74,-37.112,-32.016,-1.907,21.747,-26.685,-29.972,-11.336,77.727,105.292,28.98,-8.157,-4.363,-37.015,-221.22,38.499,-35,-83.219,-40.631,2242.627,167.323,54.889,-0.73,83.818,-52.023],[-84.459,-75.454,-38.131,-38.86,-26.042,-78.721,-53.387,-30.329,-28.212,-14.591,-70.106,-41.566,-24.46,-17.844,-14.342,-25.429,-4.465,-2.34,-1.239,-9.031,128.83,104.945,-7.996,-3.992,-29.878,196.128,85.46,15.713,18.925,18.275],[-77.476,-112.549,-73.831,-66.619,-49.04,-72.803,-81.191,-60.042,-49.827,-26.78,-57.48,-81.24,-47.77,-29.083,-17.941,-20.067,-37.871,-18.714,-17.325,-3.567,21.93,-45.546,-8.568,14.162,1.176,273.909,80.752,100.952,8.474,9.006],[-43.941,-140.444,-94.256,-84.088,-73.148,-39.662,-107.181,-74.727,-61.225,-51.206,-32.273,-82.212,-74.355,-46.517,-33.096,9.717,-88.543,-53.435,-21.25,-24.585,83.885,-63.102,-44.866,-32.182,4.185,290.389,-15.885,26.072,34.357,51.98],[-43.466,-126.313,-98.728,-115.415,-75.909,-38.286,-111.349,-93.038,-103.763,-73.183,-6.774,-79.517,-99.886,-64.514,-67.089,4.761,-75.585,-68.054,-32.745,-26.633,105.232,9.04,-66.112,-30.254,-22.911,235.526,67.219,10.617,14.93,6.772],[-15.144,-110.012,-99.353,-99.246,-65.191,-10.384,-89.956,-97.143,-96.565,-75.904,-8.175,-51.124,-113.875,-80.638,-66.783,47.554,-85.342,-82.129,-70.578,-33.62,97.715,31.288,-53.487,-64.213,-23.203,276.644,179.501,30.02,-23.437,-3.744]],
"kep": [[-119.67,19.28,7.279,-3.984,-1.665,-129.85,-4.194,3.868,2.414,-11.599,-99.454,-4.103,-2.597,-7.767,1.809,-79.145,-38.352,-16.375,-23.436,-22.443,26.86,-25.447,-63.896,-20.087,-27.508,33.231,-135.91,-132.841,-69.259,-88.009],[-23.148,-12.331,-122.881,-1.122,-2.477,-29.903,-12.215,-142.507,-8.106,4.905,-28.349,-16.589,-114.853,12.957,-3.934,-31.511,-14.505,-49.768,-14.768,-2.716,-66.122,-63.759,29.935,-51.371,-29.866,-45.598,-21.37,46.207,-70.94,-59.697],[-47.393,-9.755,0.927,-7.092,-131.038,-47.082,-10.811,-1.766,0.018,-113.358,-50.456,-6.892,2.282,-7.978,-126.365,-50.961,-2.783,-6.985,-16.172,-61.864,-56.538,-14.986,-5.232,-10.206,-35.95,-67.515,-18.959,-22.751,25.45,39.652],[-67.246,-9.56,-4.439,-1.883,0.053,-66.807,-9.794,-3.431,-3.624,-2.491,-67.817,-13.349,-2.895,0.433,-4.75,-70.081,-7.64,-1.29,-1.302,-2.833,-75.136,-19.289,-6.03,-0.35,-2.527,-77.602,-36.878,-26.609,-21.219,-43.681],[-77.518,-13.831,-8.157,-0.288,-5.601,-76.911,-18.101,0.414,2.534,-0.295,-81.174,-18.148,-1.807,-3.636,-2.886,-78.425,-21.891,-3.789,-1.75,-1.653,-76.155,-41.019,-5.625,0.652,-0.594,-80.951,-43.44,-20.941,-18.489,-6.729],[-85.538,-24.392,-5.319,-3.061,-4.86,-87.145,-27.341,-6.364,-2.575,-2.698,-84.026,-27.359,-7.222,-3.446,-1.282,-84.109,-27.607,-11.461,-4.303,-1.742,-82.728,-48.995,-12.915,4.563,-3.202,-85.135,-69.082,-27.05,-8.438,-4.917]],
"vp": [[29.686,133.202,-65.751,-62.008,11.707,-6.941,12.672,24.464,-43.363,-9.039,-14.722,-3.949,13.803,-9.939,7.759,-14.491,-8.25,5.646,-4.367,-9.432,-13.155,14.145,-23.554,11.464,2.123,-29.744,-4.636,-9.375,4.19,4.191],[907.874,57.993,104.157,12.079,17.944,203.268,54.051,-4.276,-3.067,62.618,73.258,24.205,-8.261,31.806,-16.148,-3.167,-13.122,-5.938,15.427,-7.123,18.938,-17.314,-12.077,4.255,-22.625,-17.557,-7.325,-10.752,6.217,-11.27],[2278.153,338.799,158.431,-116.003,-43.36,490.574,127.582,46.367,-27.456,-1.965,296.701,46.072,8.089,23.88,4.478,34.38,-9.437,13.847,5.719,-0.42,4.24,-8.659,-21.289,-20.577,-0.325,4.706,-13.529,-18.73,-29.583,-15.725],[4306.797,860.572,366.31,103.572,-33.353,824.99,238.955,92.16,69.727,-2.441,481.734,112.078,31.889,4.537,20.022,60.826,11.405,8.154,8.104,-0.236,43.623,-18.715,-1.682,-13.306,2.883,6.866,-12.041,-16.454,-10.375,1.477],[5365.657,2139.331,987.969,150.911,367.242,1068.388,351.456,129.623,-17.771,48.247,555.438,204.501,42.748,19.517,33.319,99.505,52.521,14.413,22.092,10.426,17.34,25.478,-10.322,15.928,-5.744,6.754,7.647,12.452,10.718,-1.834],[6042.836,2766.236,1079.137,978.51,856.125,1330.623,715.507,322.237,113.616,93.601,601.187,385.552,116.081,87.328,33.097,101.102,64.517,12.534,-17.19,1.537,55.172,42.986,-0.292,-12.523,6.648,17.724,21.785,5.968,4.993,2.07]]
}