{
"KTrans": [[1.444,0.584,1.141,1.107,0.671,1.087,0.351,1.403,0.177,0.377,1.104,2.398,0.122,0.896,0.491,4.379,2.326,4.325,0.816,4.294,21.37,10.791,1.586,10.786,5.557,80.259,43.714,27.483,15.181,16.528],[-6.557,-0.107,0.231,0.339,0.988,-4.854,0.082,0.026,0.69,0.398,-3.721,0.485,0.308,0.61,0.843,-7.308,6.349,0.689,0.958,0.382,-3.427,3.017,2.606,8.139,4.214,22.718,14.473,15.334,5.147,5.236],[-18.122,-4.832,-1.471,-0.447,-0.364,-25.331,-4.319,-1.728,-0.799,-0.393,-15.759,-3.316,-2.237,-0.895,0.282,-31.866,-4.228,-0.899,0.394,0.984,-31.213,-1.159,4.659,1.841,2.298,-50.966,9.876,4.119,4.367,4.517],[-46.105,-6.874,-2.972,-1.928,-0.478,-40.716,-6.713,-3.641,-0.909,-0.705,-41.759,-8.922,-2.279,-0.839,-0.384,-55.472,-6.769,-1.599,1.67,2.065,-56.78,3.772,-1.577,-3.639,3.955,-55.513,5.225,6.62,0.103,4.535],[-64.43,-14.064,-5.112,-2.559,-2.124,-67.028,-10.289,-6.211,-3.025,-1.652,-72.28,-13.382,-5.782,-2.023,-2.076,-72.046,-7.189,-3.268,-2.734,-1.276,-66.576,-10.899,-0.014,-4.559,-0.778,-67.421,-26.537,0.837,-2.144,-1.403],[-80.771,-18.668,-8.911,-5.201,-3.199,-79.942,-15.254,-6.924,-4.725,-3.165,-80.785,-19.218,-6.551,-5.02,-3.442,-77.702,-7.124,-8.737,-5,-2.601,-71.057,-31.074,-2.319,-5.438,-4.585,-78.316,-14.628,3.517,-5.232,-1.663]],
"ve": [[0.311,0.172,0.658,1.275,1.824,0.828,0.989,0.985,2.281,2.342,0.229,0.502,1.341,2.399,3.024,2.112,3.571,4.669,9.882,9.82,-38.021,20.685,51.165,-99.874,858.871,27.466,-0.995,91.964,-31.407,-39.691],[-2.91,-0.028,0.166,0.159,0.311,-2.977,-0.025,0.006,0.287,0.31,-0.665,0.212,0.047,0.128,0.254,-4.672,4.035,0.133,0.31,0.377,-7.753,1.36,1.151,3.277,1.659,16.638,7.194,6.882,3.517,4.338],[-9.321,-1.599,-0.499,-0.155,-0.002,-13.222,-1.809,-0.645,-0.226,0.122,-8.352,-1.209,-0.814,-0.398,-0.103,-20.395,-3.204,-0.063,-0.156,0.529,-20.864,-1.316,3.361,1.07,1.041,-38.582,3.257,1.51,1.375,1.608],[-27.184,-3.125,-1.148,-0.611,-0.101,-23.813,-3.113,-1.585,-0.239,-0.115,-23.589,-3.344,-1.033,-0.049,-0.174,-33.886,-3.302,-0.066,1.268,1.268,-37.551,0.86,-0.63,-2.155,2.453,-13.868,0.385,5.959,-0.564,2.32],[-40.609,-5.947,-2.349,-0.93,-0.806,-46.177,-5.306,-2.338,-1.182,-0.566,-47.529,-5.278,-2.577,-0.797,-0.828,-46.794,-3.367,0.275,-1.145,-0.678,-35.454,-6.957,2.354,-2.117,0.029,-33.265,-16.201,-1.633,-2.387,-1.451],[-54.211,-8.858,-3.375,-1.811,-1.238,-56.332,-8.356,-2.525,-1.842,-1.171,-52.806,-9.897,-2.76,-1.882,-1.277,-50.815,-2.052,-4.029,-2.221,-1.027,-31.223,-19.976,-0.63,-3.345,-3.095,-45.47,-12.082,1.443,-3.532,-1.725]],
"kep": [[-0.646,-1.091,-0.958,-1.314,-2.3,-1.611,-2.171,-0.932,-3.257,-2.817,-1.059,0.327,-2.491,-2.427,-3.12,-3.454,-3.186,0.46,-4.664,1.883,-8.851,-3.613,-10.221,3.665,-4.968,-16.303,-3.893,-3.761,-17.254,-15.605],[-6.167,-1.727,-1.564,-1.433,-0.942,-4.833,-1.622,-1.617,-1.225,-1.524,-5.102,-1.466,-1.383,-1.151,-1.038,-8.117,-0.438,-1.629,-1.305,-1.771,-23.785,-3.535,-2.485,1.985,0.189,-16.637,-11.064,-0.882,-4.948,-3.326],[-13.469,-4.997,-2.626,-1.916,-1.974,-17.633,-4.352,-2.751,-2.194,-2.127,-12.259,-3.85,-3.086,-2.14,-1.253,-32.084,-3.672,-2.957,-1.356,-1.372,-46.675,-4.801,-2.346,-2.109,-1.125,-57.36,-11.14,-6.17,-2.92,-1.611],[-33.629,-5.943,-3.511,-2.944,-1.996,-29.251,-5.904,-3.758,-2.314,-2.212,-30.312,-7.791,-2.944,-2.432,-1.843,-59.184,-5.991,-3.644,-1.429,-0.964,-64.03,0.577,-3.784,-4.042,-0.873,-63.348,-28.263,-4.183,-5.248,-1.929],[-52.692,-11,-4.538,-3.282,-2.935,-57.325,-8.136,-5.684,-3.493,-2.713,-62.933,-11.093,-5.033,-2.894,-2.879,-69.023,-7.527,-5.466,-3.408,-2.424,-71.268,-11.72,-4.729,-5.026,-3.151,-73.052,-49.394,-3.266,-5.083,-4.089],[-70.674,-13.459,-7.63,-5.067,-3.588,-71.907,-11.215,-6.347,-4.615,-3.646,-73.981,-13.78,-5.747,-4.879,-3.82,-75.554,-9.291,-6.987,-4.838,-3.33,-72.448,-40.753,-3.834,-4.507,-3.722,-76.286,-40.792,-1.873,-5.603,-3.433]],
"vp": [[-37.66,5.763,-34.285,-82.963,-23.338,-6.497,-1.651,-16.704,4.481,3.758,-1.902,-11.545,5.557,-3.658,2.897,-0.45,-0.006,-3.417,2.077,-5.788,-4.034,-2.239,5.669,-6.781,-0.75,-14.202,-9.146,-5.312,0.462,-1.13],[253.422,-2.453,-16.315,-32.593,-110.38,63.753,0.737,4.298,-16.312,-5.457,8.495,-5.474,-2.302,-1.247,-5.175,10.951,-16.958,1.46,0.975,3.458,11.6,-1.34,-0.261,-14.358,-6.221,-7.278,-2.736,-8.047,0.878,-0.377],[954.764,296.399,131.323,59.244,75.007,267.016,73.735,40.992,20.833,3.954,89.747,22.867,26.01,17.942,5.307,45.473,16.046,1.982,2.909,-4.723,23.045,4.612,-10.191,-2.895,-3.733,24.161,-1.079,-0.481,-0.343,-1.621],[2783.914,606.678,235.66,228.786,14.529,497.781,129.898,98.25,19.252,9.466,242.463,64.702,27.12,-5.04,5.492,71.161,14.916,1.222,-11.181,-14.857,39.934,-0.77,3.399,11.955,-13.141,8.118,1.274,-8.887,3.388,-4.937],[4303.84,1162.172,663.47,353.425,347.042,933.368,208.445,135.808,83.812,56.053,490.794,100.81,82.295,29.437,34.966,95.353,13.906,-2.169,10.756,7.282,36.6,15.372,-7.571,10.489,0.889,18.122,18.482,4.646,7.19,5.968],[5526.839,1731.723,990.588,657.774,595.648,1138.796,332.171,141.74,147.27,117.281,560.333,199.267,86.44,76.232,60.448,100.316,7.904,26.014,19.777,9.847,31.467,44.336,2.442,16.222,19.199,24.88,13.545,-1.388,9.447,6.921]]
}