{
"KTrans": [[-62.918,-76.561,-84.206,-81.736,-104.199,-36.177,-68.806,-73.199,-77.727,-73.687,-37.536,-63.283,-88.655,-71.387,-74.271,10.154,-47.677,-8.704,-36.747,-37.243,73.109,57.473,57.352,71.423,37.352,189.179,123.935,220.493,121.725,205.966],[-62.789,-51.213,-40.728,-69.412,-74.153,-59.82,-48.63,-49.698,-61.84,-64.466,-51.033,-33.058,-52.039,-46.563,-59.43,-26.944,-10.093,-13.802,-18.453,-30.009,-8.86,-8.808,7.925,7.669,-12.743,49.375,-21.805,36.132,35.834,63.474],[-66.822,-49.063,-42.391,-48.942,-44.723,-70.382,-50.106,-43.114,-41.367,-48.32,-66.125,-48.004,-38.484,-41.464,-30.926,-54.197,-30.738,-16.859,-22.417,-16.251,-34.617,-8.03,-7.579,2.068,-1.979,-25.729,0.11,0.108,4.119,7.488],[-80.92,-56.15,-46.568,-45.869,-38.567,-78.679,-54.893,-52.195,-45.841,-39.902,-76.806,-55.177,-45.679,-46.152,-37.739,-68.885,-45.927,-37.607,-34.419,-19.057,-55.181,-28.087,-24.602,-12.609,-11.553,-56.465,-18.906,-25.374,8.632,6.032],[-82.796,-64.707,-49.683,-50.001,-40.049,-84.422,-63.076,-54.96,-45.257,-36.63,-78.926,-61.94,-47.228,-40.555,-40.353,-77.279,-53.423,-43.032,-35.609,-26.098,-63.643,-40,-23.823,-13.758,-11.005,-70.72,-22.689,-13.471,-4.976,-2.294],[-87.271,-69.869,-51.297,-47.71,-42.064,-87.696,-69.723,-57.298,-48.996,-48.728,-85.357,-71.366,-47.474,-46.49,-42.323,-82.45,-63.331,-41.348,-33.906,-33.678,-75.92,-48.054,-29.942,-28.411,-23.607,-83.436,-51.391,-24.814,-6.771,-4.024]],
"ve": [[-60.097,-38.39,-34.905,-85.673,29.732,-34.685,-43.732,0.129,14.295,-36.124,567.276,-42.717,-40.408,-46.843,-66.022,16.513,156.864,-53.282,-33.413,-48.581,76.849,24.261,-16.059,-29.861,-90.517,256.567,81.414,38.367,-105.716,-25.925],[-8.353,-56.599,-48.371,-87.59,282.052,-42.952,-51.416,-55.102,-46.903,-42.165,133.537,-34.649,-57.44,-45.296,-29.821,-23.007,-18.667,-19.396,-1.122,-17.156,-75.376,44.9,21.844,18.94,690.687,312.956,116.948,75.168,57.815,30.153],[-5.716,-28.252,-45.703,-54.262,-35.523,-9.543,-37.293,-54.132,-46.296,-52.227,-7.433,-49.794,-59.06,-53.021,-149.506,10.036,8.353,-27.205,-31.996,-13.693,191.314,93.568,2.173,-58.327,0.167,209.945,53.049,42.893,-16.434,43.916],[5.66,-47.902,-49.229,-59.014,95.133,-14.228,-82.393,-76.817,-56.234,982.63,-39.133,-69.636,-62.718,-70.171,-73.913,42.478,-20.015,-45.994,-57.832,-16.129,120.625,53.76,-41.924,-19.548,5.134,-95.131,52.684,-10.211,56.813,27.592],[-5.09,-32.452,-54.83,-82.387,-48.471,15.144,-54.968,-80.514,-162.836,-203.677,-4.687,-43.959,-77.671,-63.951,-65.447,115.803,-49.097,-43.254,-62.268,-42.244,237.929,44.916,16.983,0.275,-18.151,132.284,93.584,70.207,52.836,50.523],[-24.269,-20.362,-50.601,-89.258,-53.535,-21.203,-56.76,-59.55,-85.91,-73.834,-9.325,-29.078,-35.537,-71.634,114.667,61.752,24.801,-30.927,-43.582,-50.976,78.361,79.601,39.642,-48.243,-39.542,337.696,8407.209,35.954,49.17,-5.673]],
"kep": [[-117.419,-98.927,-19.098,7.183,77.915,-131.049,-80.58,-49.585,-25.716,-44.658,-119.229,-74.808,-4.054,-2.69,34.326,-127.387,-126.152,-97.711,-31.817,-38.416,-129.995,-188.592,-156.781,-184.245,-117.543,-74.396,-162.76,-237.703,-231.957,-337.047],[-99.531,-93.208,-112.647,-59.3,-9.116,-93.357,-81.868,-118.901,-67.044,-0.174,-94.998,-84.519,-119.051,-78.804,-57.811,-87.424,-96.405,-113.252,-144.358,-49.052,-83.236,-101.411,-131.912,-140.537,-95.22,-82.198,-74.475,-83.611,-128.186,-172.039],[-97.01,-67.9,-75.858,-98.773,-103.673,-97.922,-67.313,-55.67,-91.539,-103.682,-94.534,-64.528,-66.272,-79.912,-134.109,-91.606,-75.327,-70.729,-82.754,-130.422,-92.475,-66.51,-59.968,-51.203,-124.76,-82.867,-60.161,-59.469,-61.656,-133.885],[-98.998,-69.533,-49.315,-33.62,-56.312,-95.975,-65.714,-49.476,-26.539,-52.955,-92.713,-65.406,-52.126,-35.739,-55.795,-93.18,-70.093,-48.419,-44.441,-67.932,-92.608,-75.743,-45.729,-57.882,-68.316,-85.979,-63.74,-44.033,-58.363,-52.226],[-98.6,-84.073,-52.126,-28.384,-33.434,-99.236,-70.287,-45.721,-27.962,-26.31,-96.392,-75.928,-37.684,-33.584,-28.304,-99.164,-71.059,-53.095,-29.229,-26.012,-99.506,-71.307,-62.318,-44.696,-35.638,-92.22,-69.833,-55.723,-50.15,-68.12],[-98.277,-81.381,-50.347,-26.416,-21.419,-99.831,-76.684,-54.577,-29.051,-18.609,-97.787,-85.217,-53.461,-32.838,-18.822,-99.813,-86.518,-52.359,-28.827,-29.902,-95.437,-83.179,-66.972,-34.96,-29.735,-95.794,-70.339,-54.87,-58.47,-29.284]],
"vp": [[-70.507,-511.112,196.68,125.366,-22.597,99.116,-109.81,-17.619,-38.372,65.594,-37.527,-32.21,7.723,-11.266,79.301,-30.399,-18.675,4.743,-2.274,-6.957,-32.224,-22.076,-3.288,-24.035,16.112,-28.635,1.192,-31.353,-10.778,-26.537],[2140.321,741.185,765.824,-984.725,-371.124,409.254,92.089,-4.829,-7.527,116.078,280.232,95.985,-133.572,-30.701,-25.348,36.233,14.959,-22.178,-33.836,-21.222,9.488,-26.965,-19.235,-22.643,-28.594,-41.643,-23.455,-45.984,-32.553,-25.936],[4233.37,3674.057,2250.697,744.902,606.55,861.516,673.076,212.084,218.833,-59.562,441.446,297.811,146.215,2.785,-16.321,60.398,45.897,27.109,-16.65,-27.378,-3.917,-15.458,-15.721,-27.289,-53.616,-17.76,-48.445,-43.256,-48.677,-2.681],[5995.448,5218.138,3280.456,1841.134,1645.161,977.06,799.016,601.292,292.072,166.89,583.242,490.266,276.567,172.89,141.514,88.283,57.672,42.086,-6.246,25.409,12.719,10.548,-2.716,-9.149,-12.166,-16.577,-14.001,-40.491,-42.17,-44.089],[5723.829,7887.877,5536.898,2468.972,3019.039,1256.265,1208.348,982.264,396.858,438.65,600.869,558.766,332.459,330.067,168.711,126.291,75.978,86.119,4.305,11.544,42.91,32.832,21.251,2.68,6.401,-20.902,-9.504,-11.121,-33.518,-43.008],[6889.233,8127.677,6805.589,3157.855,2838.684,1298.081,1449.344,1274.985,1004.38,680.719,636.147,849.845,703.152,407.963,357.875,134.055,148.468,127.65,53.159,68.722,24.636,48.118,48.142,-0.148,-3.938,7.449,-12.352,-24.198,-9.965,-27.31]]
}