{
"KTrans": [[-0.166,-0.478,2.808,3.069,3.999,12.499,8.456,5.347,6.686,6.521,20.925,16.161,17.84,13.502,14.398,152.209,85.411,76.522,64.04,59.971,389.19,235.073,181.033,156.076,148.029,1032.472,594.917,443.721,406.97,362.785],[-36.879,12.092,5.997,4.891,3.837,-27.808,12.033,8.225,0.018,5.997,-23.975,16.295,12.029,8.708,7.544,55.57,71.265,48.582,36.048,34.601,194.134,148.154,103.522,85.636,71.41,507.402,357.539,240.788,187.322,151.789],[-62.708,2.657,11.284,-1.257,4.21,-53.676,5.214,9.471,6.069,5.376,-51.624,15.597,11.864,9.169,6.863,-1.502,66.419,46.546,35.299,24.361,63.252,130.755,104.001,74.078,60.085,244.157,343.497,230.572,153.032,124.87],[-74.565,2.473,6.701,4.472,2.797,-69.63,4.478,4.862,9.192,3.302,-71.193,20.572,12.714,6.905,7.92,-50.045,65.232,43.769,36.328,24.584,23.169,123.98,97.458,67.159,55.266,177.539,295.394,204.146,150.359,120.817],[-78.648,-10.082,10.252,11.398,-2.671,-82.545,-9.481,13.042,12.674,6.106,-78.691,-9.56,17.613,12.526,13.889,-64.909,24.441,56.466,31.804,28.001,-1.062,83.729,107.172,64.363,62.286,73.425,237.178,184.454,148.284,126.67],[-90.687,-21.173,12.414,10.197,9.288,-84.961,-18.978,10.692,13.072,8.685,-82.925,-25.259,16.782,9.818,11.894,-63.055,22.801,35.33,42.956,32.133,-35.65,54.858,86.832,85.144,54.571,58.258,187.53,172.417,146.248,125.79]],
"ve": [[10.971,7.458,10.258,17.187,-21.476,8.026,9.497,12.092,12.708,34.504,14.623,4.946,6,5.887,0.29,49.172,19.667,1.652,-7.159,-16.473,94.18,35.748,10.207,-5.642,-17.791,195.866,82.278,36.917,10.353,-6.061],[-26.41,2.666,1.638,0.969,0.511,9.145,4.094,2.55,1.641,0.478,19.254,4.694,3.015,3.054,1.651,53.372,24.518,14.821,9.656,5.871,102.653,48.241,29.695,19.034,13.491,202.714,96.419,61.006,41.531,28.232],[4.495,1.964,1.785,0.734,0.525,-5.373,2.885,3.009,0.819,1.305,12.895,7.129,3.563,2.865,1.881,56.546,27.157,16.125,12.031,8.691,115.424,49.961,32.405,23.555,17.654,196.102,101.899,64.373,46.144,36.178],[4.766,5.609,0.649,0.6,-0.212,-91.673,4.528,1.438,1.644,0.15,49.169,6.503,3.768,1.891,1.881,41.445,27.554,16.113,11.91,8.55,105.294,51.124,33.061,25.01,18.321,202.78,101.852,66.067,48.981,38.058],[-0.501,0.871,1.13,1.379,0.055,-0.846,3.737,2.088,1.906,1.325,11.103,7.797,4.115,2.867,3.071,49.185,25.284,17.238,11.806,9.468,104.809,51.261,33.732,23.95,20.4,197.636,99.908,66.137,50.211,39.762],[1.588,4.409,2.893,0.751,0.555,17.631,-49.945,2.15,1.44,1.374,6.354,7.189,4.215,2.885,2.203,59.26,26.892,16.711,13.548,10.256,96.081,80.092,34,25.403,19.576,197.751,98.784,66.469,48.817,39.719]],
"kep": [[-5.296,-1.418,3.322,4.334,3.833,3.841,5.022,5.469,5.652,10.827,8.438,15.369,20.298,21.022,24.182,69.323,58.174,79.803,82.949,97.463,155.259,148.518,157.972,174.13,206.11,284.412,282.271,298.547,360.796,395.087],[-42.402,9.049,4.272,4.16,3.843,-34.162,7.684,5.61,-1.165,5.951,-33.302,11.192,8.655,5.706,6.313,1.372,37.211,29.751,24.231,27.423,45.008,67.708,56.758,56.003,51.017,101.349,132.842,111.506,102.909,96.15],[-66.39,0.235,9.088,-2.187,3.458,-59.414,1.747,6.065,5.026,3.849,-59.352,7.537,7.712,5.817,4.738,-37.099,30.326,25.92,20.63,14.276,-20.115,53.465,53.837,40.689,35.967,12.781,119.35,100.659,72.99,64.91],[-76.842,-1.698,5.067,3.388,2.615,-73.262,-0.331,2.975,6.804,2.955,-75.376,11.511,8.023,4.476,5.609,-68.28,28.91,23.134,21.047,14.511,-40.901,47.556,48.064,33.29,30.813,-9.388,96.212,82.538,67.477,59.472],[-81.235,-11.468,8.186,9.222,-3.196,-84.399,-13.864,9.988,10.001,4.13,-82.396,-16.933,12.107,8.54,10.021,-77.459,-1.121,32.673,16.982,16.506,-51.848,21.32,53.795,31.924,34.221,-43.31,68.177,70.658,64.505,61.538],[-92.213,-23.468,8.818,8.439,7.874,-87.239,-23.209,7.616,10.25,6.58,-85.793,-30.367,10.986,5.964,8.766,-77.047,-3.472,15.219,25.13,19.296,-68.402,2.524,38.337,46.448,28.41,-49.013,43.288,62.886,64.558,60.974]],
"vp": [[704.687,260.163,154.238,146.462,-133.773,86.351,51.411,-23.744,68.556,45.581,66.681,26.162,16.054,15.244,21.962,14.407,3.314,4.917,1.755,1.383,4.402,1.887,-0.563,1.271,0.41,2.284,0.983,1.019,0.386,0.429],[2874.163,688.307,317.409,561.648,643.455,502.556,232.848,66.058,7.704,59.774,254.046,43.747,40.751,27.207,27.192,48.069,12.464,6.196,6.967,8.048,24.586,7.189,2.011,1.123,7.239,11.21,3.01,1.471,2.636,0.764],[4176.799,1804.873,827.228,354.47,595.915,918.261,245.761,200.352,24.714,129.796,482.942,195.83,79.434,57.092,35.398,77.135,45.778,12.407,7.842,2.712,40.54,22.403,5.034,5.3,4.494,18.53,10.765,2.448,-0.283,1.657],[5632.152,4559.201,1176.839,469.621,497.494,1033.743,710.207,318.945,163.732,48.084,503.168,487.737,102.587,88.488,83.573,110.587,86.036,22.508,7.918,7.23,46.159,38.843,11.209,5.344,2.267,23.584,18.548,3.384,2.737,1.735],[5953.093,4084.419,2992.605,882.397,758.622,1310.567,1112.407,357.564,328.029,294.032,594.925,532.837,264.454,147.067,136.649,124.347,83.066,50.014,17.66,10.598,54.853,56.94,35.623,6.41,8.243,26.589,24.884,6.661,6.295,5.763],[7140.158,7360.42,5181.923,2277.414,1620.739,1337.91,1331.239,737.523,486.143,120.71,676.393,634.894,443.252,131.488,99.404,129.936,117.329,42.281,41.392,26.246,57.461,67.96,45.976,15.058,5.798,30.207,27.75,15.617,3.097,6.11]]
}