{
"KTrans": [[2.07,0.306,9.417,9.541,1.138,-1.84,-0.183,16.525,8.825,3.948,-23.418,13.607,8.049,4.233,5.603,22.659,30.804,27.169,17.134,21.132,76.507,58.639,54.674,40.618,34.88,89.079,95.865,135.02,96.174,101.774],[-64.234,-14.229,-3.361,10.556,0.11,-66.7,-21.442,0.497,0.095,-0.384,-75.808,-2.477,3.706,4.612,-1.074,-52.196,18.199,17.106,5.595,5.745,-22.182,33.678,18.09,21.729,14.447,33.652,80.775,81.264,50.903,38.528],[-80.882,-23.778,-7.988,-1.286,0.759,-82.563,-31.245,1.756,-1.236,1.47,-79.709,-25.597,-4.586,0.792,3.523,-72.239,-16.784,11.737,5.938,5.573,-52,5.258,27.19,20.116,8.816,-4.878,27.547,57.449,53.637,31.32],[-90.223,-54.06,-6.762,-0.85,3.14,-91.764,-56.85,-8.001,-4.148,0.487,-88.368,-47.396,-8.47,-2.714,-0.635,-87.068,-40.12,7.695,4.832,8.636,-71.921,-24.718,13.608,16.048,15.83,-63.847,7.638,40.889,43.791,33.034],[-94.497,-65.455,-31.174,-5.948,2.12,-94.311,-63.099,-29.275,-7.697,0.245,-94.311,-64.441,-24.2,-3.343,3.519,-90.418,-52.085,-12.851,-0.735,4.471,-77.911,-32.727,-17.028,14.905,19.375,-57.792,-17.128,3.682,25.867,29.056],[-95.009,-74.704,-35.809,-5.836,-3.836,-94.983,-76.12,-34.066,-11.926,-0.792,-95.582,-76.456,-35.001,-4.494,-0.74,-87.281,-67.456,-25.142,1.674,5.65,-82.738,-58.936,-28.205,-5.316,2.854,-63.635,-43.26,-4.838,16.983,32.098]],
"ve": [[-50.775,-18.433,-6.029,4.112,97.674,7.527,0.431,20.747,-29.764,193.204,8.66,-46.593,-8.539,-12.304,-70.973,6.549,16.639,-10.252,-34.67,32.412,18.263,12.637,47.8,-0.885,-18.5,30.365,15.394,2.044,-20.836,-20.549],[-4.032,-8.592,-5.86,0.196,-1.42,-32.83,-9.773,-4.016,-2.733,0.005,-49.937,-2.218,-0.834,-1.582,0.677,-24.951,4.658,4.607,-3.112,-3.73,-2.732,11.067,1.623,-1.558,18.23,25.249,40.962,20.594,9.85,6.664],[-45.377,-6.595,-6.371,-4.396,-1.83,-58.83,-19.968,-4.689,-4.829,-4.401,-39.287,-19.085,-7.705,-4.742,-1.765,-48.78,-2.228,-2.043,-0.309,-0.745,-25.32,-1.765,5.449,6.756,-1.641,28.869,19.942,15.573,15.173,19.399],[-73.361,-36.654,-9.74,-4.827,-2.705,-68.217,-36.558,-9.174,-6.311,-5.016,-45.517,-34.583,-12.01,-4.565,-4.325,-56.968,-26.701,-4.517,-4.329,-1.568,-38.908,-15.96,-2.578,3.649,1.238,4.419,-15.695,23.047,18.671,9.174],[-70.065,-41.98,-20.961,-8.167,-3.762,-68.492,-42.848,-19.457,-8.066,-5.021,-58.563,-42.421,-18.421,-6.994,-4.334,-52.674,-36.765,-12.278,-7.969,-1.495,-47.083,-18.055,-14.156,-3.463,3.559,25.638,-16.135,-7.781,7.129,2.391],[-78.089,-51.932,-25.14,-12.117,-7.486,-71.444,-47.745,-24.682,-12.103,-6.248,-54.803,-55.275,-30.975,-18.38,-6.295,-429.841,-52.012,-29.65,-5.472,-5.634,-47.636,-38.841,-25.178,-10.58,24.679,-86.806,-7.828,4.412,3.093,8.52]],
"kep": [[-18.32,-4.639,5.059,17.041,-11.834,-11.236,-8.461,16.299,5.111,0.433,-32.736,7.048,11.618,-1.846,9.657,-14.298,17.476,23.658,10.489,30.358,9.521,30.679,38.737,34.457,31.773,43.045,61.296,98.492,100.479,120.667],[-66.856,-13.885,-2.835,10.151,2.685,-66.976,-14.476,4.566,2.913,0.424,-73.377,-3.3,4.907,6.722,-0.604,-60.102,8.736,12.609,5.233,3.431,-40.842,6.777,3.28,13.631,7.473,-21.042,26.92,35.341,13.775,20.931],[-80.28,-15.007,-3.027,2.359,2.689,-79.643,-20.02,5.354,3.307,5.985,-76.78,-17.407,0.866,5.109,5.066,-74.386,-21.382,7.495,5.692,5.871,-61.857,-7.291,13.431,10.017,7.162,-50.719,-15.261,18.069,24.784,8.11],[-89.848,-40.37,1.791,2.705,4.853,-89.145,-44.331,-1.822,1.308,5.202,-88.487,-36.979,0.246,0.793,3.54,-85.262,-39.166,6.554,6.055,9.334,-73.463,-30.265,1.824,9.472,12.777,-68.623,-20.256,7.251,10.893,9.699],[-92.587,-53.095,-17.994,0.039,5.43,-91.555,-50.795,-19.234,-1.5,4.369,-91.566,-53.437,-10.124,1.976,7.021,-86.227,-49.186,-9.022,5.234,4.885,-78.937,-38.463,-17.056,8.913,13.836,-71.053,-37.091,-17.001,4.338,15.42],[-94.262,-63.445,-20.361,5.216,2.172,-93.472,-64.947,-19.437,-2.183,4.371,-92.58,-67.782,-21.862,2.755,5.032,-85.569,-57.116,-17.824,1.95,9.085,-83.416,-55.747,-25.857,-6.204,9.945,-78.247,-50.191,-20.342,0.58,13.059]],
"vp": [[447.605,462.859,-4.806,313.545,194.516,74.398,148.974,-8.531,-57.777,-11.184,150.799,-57.417,14.021,3.593,10.653,1.071,-24.874,-26.269,-19.354,-20.972,-25.503,-28.586,-29.939,-27.288,-23.75,-23.323,-30.152,-43.616,-24.999,-35.399],[4255.746,1552.199,1238.367,-529.886,951.795,834.097,446.102,231.367,243.092,136.744,512.211,126.842,67.771,36.505,92.51,62.322,-17.813,-10.803,5.324,-3.349,9.566,-26.355,-10.113,-18.849,-19.155,-15.687,-43.901,-39.264,-30.918,-27.166],[5501.722,3671.59,2245.924,1385.132,1205.576,1150.59,952.208,296.885,343.178,315.879,504.749,429.659,231.011,116.163,84.369,88.139,55.312,2.467,4.033,3.679,19.008,4.104,-16.103,-34.196,15.454,-19.366,-22.566,-26.406,-33.136,-18.451],[7116.211,7914.134,3037.475,1868.543,1369.041,1377.287,1625.028,600.733,427.349,349.576,545.041,704.989,332.473,205.875,187.834,108.332,105.577,23.691,26.385,7.396,38.57,33.572,6.079,-18.645,-8.884,-19.531,5.132,-39.294,-40.895,-28.428],[8065.739,9071.017,6207.197,3201.702,2097.867,1522.43,1804.469,1229.229,646.37,538.496,674.082,912.64,551.088,266.673,203.342,128.127,144.503,77.962,68.542,8.948,33.706,32.538,48.398,12.457,-23.028,-14.89,17.909,10.743,-16.959,-6.549],[6920.881,11597.291,8466.419,4750.657,3974.556,1465.02,2333.009,1645.946,961.05,634.239,700.03,1100.487,869.515,368.609,275.52,98.39,203.276,158.879,43.784,57.21,31.238,87.719,69.279,40.641,47.582,-18.664,6.921,-5.315,-6.039,-27.45]]
}