{
"KTrans": [[7.393,3.128,5.247,8.104,9.177,7.573,12.38,11.274,14.236,12.471,24.932,20.314,15.197,17.804,17.48,109.805,89.756,81.086,69.411,67.409,115.443,188.219,166.055,156.087,141.182,-16.431,253.498,223.863,274.623,290.806],[-20.291,-4.588,0.077,2.823,3.451,-15.802,-0.595,2.242,5.582,5.038,-12.236,1.077,10.541,8.476,9.736,35.15,53.138,42.004,35.284,33.217,-11.805,101.314,100.494,69.788,66.373,91.14,-1.168,176.491,151.166,131.923],[-36.177,-11.533,-4.824,-1.327,0.41,-30.657,-11.835,-0.313,0.988,1.16,-27.1,-3.158,3.075,2.66,5.019,-2.926,37.553,28.28,22.954,24.616,-60.824,70.988,66.37,54.013,47.592,-33.204,-13.206,126.676,114.745,97.182],[-51.175,-16.288,-8.375,-5.776,-1.907,-52.194,-13.117,-4.639,-2.734,-0.552,-48.281,-7.443,-3.022,-1.346,1.047,-52.035,33.523,20.483,21.324,18.71,-39.413,50.53,53.255,45.318,44.798,-103.068,-31.872,100.907,105.287,94.972],[-60.788,-23.35,-15.383,-8.366,-4.699,-59.967,-20.565,-11.208,-7.831,-4.313,-58.374,-15.966,-9.549,-4.707,-1.209,-60.382,9.935,14.539,15.608,12.98,-53.361,13.369,51.069,33.668,36.633,-85.321,-31.48,43.775,95.041,75.705],[-71.228,-25.134,-19.741,-11.679,-9.098,-68.628,-25.386,-14.055,-11.897,-6.496,-63.648,-19.959,-11.946,-9.603,-6.423,-59.706,-2.733,9.486,9.274,9.252,-86.394,-36.781,35.475,27.955,32.177,-48.462,-59.668,56.854,91.157,74.304]],
"ve": [[10.535,12.431,53.545,51.942,67.994,12.712,11.871,14.13,16.394,31.447,13.129,10.5,14.884,15.964,36.522,47.314,19.283,4.92,-1.409,-7.124,94.728,44.015,11.084,-0.758,-11.416,183.446,81.128,116.684,13.767,-46.69],[2.507,-0.278,0.996,1.618,3.734,5.458,1.152,2.353,2.082,4.418,12.547,5.05,2.876,3.327,4.238,52.249,21.983,14.753,9.51,7.346,104.554,47.245,30.255,20.752,14.728,195.884,92.934,69.704,43.334,31.793],[2.172,-1.829,-1.398,0.231,0.838,7.488,1.104,0.91,0.041,1.917,7.954,3.953,3.018,1.617,2.177,48.431,22.719,14.847,10.011,8.597,98.008,48.721,29.658,22.004,16.432,187.539,103.024,66.339,47.64,34.19],[4.828,-1.205,-1.618,-1.076,-0.466,7.387,0.893,0.035,0.135,0.491,10.8,2.266,1.882,0.85,1.026,48.546,24.14,13.716,11.346,8.701,87.335,48.618,29.902,21.948,17.564,209.776,100.67,65.56,47.133,36.953],[0.568,-2.131,-0.986,-1.49,-0.851,5.442,-0.614,-0.032,-1.004,-0.411,-122.831,2.282,1.628,0.197,1.247,49.571,22.647,14.783,10.282,7.958,94.047,47.403,30.25,21.987,18.276,200.377,97.567,63.269,47.657,36.858],[3.207,-1.48,-1.801,-1.74,-1.193,6.744,0.205,-0.526,-0.509,-0.288,9.864,3.613,1.386,0.584,0.117,52.664,22.613,14.706,10.296,8.267,95.301,48.258,31.183,22.448,17.595,202.926,96.153,64.669,48.814,37.362]],
"kep": [[-12.972,-20.325,-21.572,-22.575,-23.288,-15.049,-10.057,-13.538,-11.328,-19.55,-6.986,-7.222,-10.898,-6.266,-10.894,19.643,33.227,44.85,47.344,56.526,-5.59,72.448,95.371,115.507,129.11,-53.686,59.014,83.832,166.882,218.045],[-35.178,-20.657,-18.06,-16.357,-17.487,-33.828,-18.618,-17.513,-14.445,-16.822,-35,-20.387,-11.215,-13.252,-13.023,-25.643,3.351,2.067,1.978,2.594,-60.509,12.05,26.501,15.883,19.558,-42.462,-55.345,37.994,43.833,44.729],[-48.292,-25.566,-20.304,-18.84,-17.92,-46.108,-27.963,-18.606,-16.741,-18.193,-44.229,-23.014,-17.435,-16.648,-15.311,-45.699,-8.031,-8.104,-7.965,-5.444,-80.432,-5.308,5.042,3.699,4.302,-75.468,-56.034,12.66,18.861,20.6],[-61.167,-30.015,-23.235,-21.504,-18.762,-62.809,-28.813,-21.35,-19.94,-18.48,-62.254,-25.403,-21.483,-19.383,-17.604,-72.524,-11.938,-12.918,-10.385,-10.094,-72.398,-17.608,-3.516,-2.322,1.267,-95.576,-67.214,-0.762,13.481,16.409],[-68.927,-35.283,-29.565,-23.371,-20.822,-69.644,-33.967,-26.764,-23.326,-20.852,-69.397,-32.319,-26.619,-21.644,-19.591,-77.221,-26.71,-18.149,-13.783,-13.862,-78.29,-35.962,-5.876,-10.163,-5.114,-91.991,-67.521,-27.546,7.049,4.736],[-77.071,-37.527,-32.652,-25.941,-24.267,-75.949,-38.884,-28.821,-27.065,-22.788,-72.692,-36.486,-28.51,-25.985,-23.028,-77.584,-34.847,-21.706,-18.59,-16.971,-92.484,-63.929,-15.883,-14.337,-7.807,-83.415,-78.99,-22.384,4.194,3.202]],
"vp": [[-3.561,-268.405,244.146,337.398,-118.283,29.464,-72.288,-73.994,12.838,20.332,25.828,-17.889,8.533,7.456,21.616,-32.578,-9.774,5.623,-13.956,4.858,-16.693,-4.609,0.259,10.373,-5.883,-10.615,-5.671,2.586,-21.611,1.373],[2344.986,918.272,-258.927,-54.89,260.906,490.312,73.975,-142.298,-58.9,74.08,222.636,69.891,-1.842,-59.736,65.034,39.842,-1.587,-3.364,-24.317,-26.403,24.867,-23.251,8.662,-19.137,0.598,-17.155,-12.089,-16.712,-7.243,-8.74],[4524.033,2315.978,1292.568,541.997,36.353,867.594,421.594,329.529,-14.605,-99.422,438.478,234.246,148.288,56.025,-6.986,59.395,47.398,8.995,-8.833,0.987,20.598,-6.284,-13.986,-10.903,-30.129,-17.652,-15.069,-24.489,-17.368,-40.856],[5939.95,4706.878,1854.886,626.617,444.645,1059.538,765.97,336.067,213.266,270.292,552.394,332.351,263.261,146.298,25.369,93.963,93.03,44.334,27.91,18.387,37.877,26.054,-3.657,-9.776,5.406,16.672,3.156,-4.082,-21.323,-18.452],[6577.109,5921.669,3718.472,1953.198,1457.017,1289.501,1032.917,774.637,270.152,159.007,603.67,626.578,348.651,106.535,142.497,128.834,115.678,84.77,54.664,29.645,27.262,18.203,18.525,-12.385,14.326,14.913,10.678,-7.048,-5.705,-17.543],[6647.568,8091.746,5158.295,2326.32,1044.512,1354.817,1652.83,934.987,397.657,195.859,651.363,807.973,495.749,343.036,186.188,117.596,109.316,100.634,29.243,52.787,55.215,50.089,39.627,10.216,28.347,0.183,10.883,8.216,6.386,-8.906]]
}