{
"KTrans": [[8.051,4.688,4.185,3.421,3.745,21.043,11.758,9.525,8.806,6.712,32.976,20.126,16.509,14.522,12.536,21.886,100.707,84.883,69.234,65.28,91.589,106.194,87.766,114.576,114.994,388.563,171.897,64.214,166.722,52.636],[20.344,7.598,5.636,5.202,4.152,27.284,13.236,10.098,7.555,6.523,56.293,19.747,14.303,11.927,9.421,57.395,105.234,51.031,38.466,37.209,22.433,13.855,104.753,82.831,79.469,165.907,136.971,-21.007,73.553,89.591],[18.445,13.463,10.016,6.639,5.471,43.087,18.202,12.519,9.75,7.332,13.371,27.505,17.374,12.646,10.599,-1.499,65.844,59.297,51.084,34.582,3.635,71.621,90.371,89.044,63.942,49.998,35.348,117.437,1.898,77.779],[-10.742,25.601,9.199,9.058,6.984,-34.944,30.2,15.472,11.565,9.147,-30.248,45.412,20.562,13.89,11.542,-24.045,11.19,94.948,45.966,34.827,-30.788,7.592,27.12,93.716,78.003,-13.412,37.823,6.815,40.932,68.43],[-67.821,42.117,15.53,10.736,8.702,-73.455,51.106,22.259,14.405,9.875,-52.452,50.793,27.945,17.817,11.725,-39.872,35.829,82.462,56.64,37.478,-27.397,2.641,-34.157,87.325,85.995,9.656,37.135,48.21,38.944,45.192],[-81.227,23.927,27.563,16.999,10.063,-69.518,31.921,29.334,18.453,15.31,-75.142,13.189,32.456,16.923,14.566,-67.425,-12.774,35.648,53.582,40.603,-43.834,-11.299,60.413,14.167,135.007,-8.099,21.486,30.112,38.829,33.59]],
"ve": [[0.112,-1.695,-2.604,-2.584,-3.461,3.694,-0.893,-2.937,-4.997,-6.702,7.262,0.323,-4.439,-7.557,-9.969,43.571,15.294,-1.864,-11.585,-19.279,93.113,29.682,3.786,-10.06,-19.965,189.018,78.043,32.172,7.268,-7.323],[0.851,-0.142,-0.894,-1.343,-1.687,4.21,1.431,0.175,-0.461,-0.945,9.641,3.764,1.522,0.436,-0.594,47.312,23.727,12.972,7.835,4.343,101.968,47.207,29.494,19.377,12.227,199.022,94.802,63.177,38.614,17.83],[-0.161,0.048,-0.295,-0.811,-1.127,76.068,1.707,0.56,0.206,-0.393,9.687,4.203,2.298,1.121,0.541,53.135,23.814,14.873,10.866,7.404,99.352,48.961,31.564,22.311,16.316,208.97,100.246,63.004,40.531,34.882],[0.393,0.058,-0.758,-0.552,-0.875,4.796,1.908,0.957,0.306,-0.026,11.283,4.245,2.672,1.462,0.71,52.715,27.562,15.581,11.046,8.273,101.133,50.027,31.02,23.071,18.322,209.345,99.442,65.215,47.478,37.605],[0.747,0.385,-0.453,-0.605,-0.73,2.015,2.046,1.063,0.445,-0.071,9.051,4.588,2.713,1.743,0.861,50.373,23.219,15.524,11.65,8.666,99.175,49.028,33.1,23.562,18.747,180.491,96.597,66.441,45.215,38.709],[1.271,0.387,-0.092,-0.178,-0.668,4.913,18.792,1.113,0.567,0.355,8.17,3.63,2.73,1.347,1.005,48.258,24.501,16.645,11.438,8.709,95.934,48.349,31.836,24.675,19.932,199.022,98.863,66.57,47.346,39.076]],
"kep": [[8.11,6.796,7.335,6.735,8.114,16.978,12.982,13.176,15.166,15.018,24.122,20.092,22.319,24.418,25.629,-8.124,74.231,88.935,92.128,105.668,15.657,59.683,65.573,121.87,150.275,88.911,75.829,44.535,154.183,63.734],[18.956,7.782,6.609,6.659,5.963,21.471,11.673,9.929,8.069,7.57,41.233,15.362,12.605,11.468,10.108,9.438,62.65,33.261,28.337,31.481,-30.11,-13.766,55.168,52.271,59.341,-0.692,30.588,-35.817,24.843,45.629],[16.151,13.173,10.344,7.525,6.69,33.843,16.021,11.874,9.532,7.766,2.391,22.013,14.679,11.395,10.009,-30.234,32.733,37.446,35.651,25.132,-41.96,20.156,42.234,52.984,40.118,-41.541,-21.122,37.271,-22.301,30.992],[-12.464,24.536,9.899,9.644,7.928,-37.018,26.773,14.185,11.194,9.177,-37.07,38.084,17.178,12.195,10.738,-46.044,-7.892,65.376,30.753,24.264,-59.963,-21.822,0.43,54.535,48.71,-65.013,-22.518,-26.519,2.432,24.851],[-66.019,39.147,15.566,11.299,9.473,-72.534,44.822,20.314,13.733,9.901,-55.479,41.061,24.014,15.613,10.73,-57.244,9.665,54.658,39.209,26.085,-60.113,-26.524,-42.439,48.357,54.1,-58.767,-24.785,-4.596,-1.094,8.316],[-79.281,21.075,26.307,16.902,10.709,-68.996,24.932,26.587,17.449,14.788,-75.134,6.859,27.667,14.986,13.301,-74.986,-27.669,16.618,36.434,28.605,-68.913,-36.72,21.325,-5.883,90.241,-65.652,-33.446,-15.668,-0.571,1.584]],
"vp": [[222.948,243.747,273.104,188.568,231.302,34.592,33.749,36.164,34.458,20.176,-6.183,8.809,4.501,2.392,-8.526,-31.371,-3.967,-9.534,-21.165,-14.964,-25.046,-40.249,-19.722,-25.619,-18.658,-50.78,-34.211,-23.38,-41.966,-17.534],[775.874,704.953,658.47,803.066,667.661,123.185,129.626,129.417,125.738,136.734,64.66,37.674,36.771,68.562,53.889,-35.251,-1.637,-22.982,-26.725,-3.691,3.043,-24.401,-6.312,-17.44,-7.236,-40.704,-39.063,-13.007,-21.988,-23.587],[2426.956,758.014,1207.379,1154.024,1088.099,629.006,90.131,191.736,175.022,194.898,235.868,29.054,82.649,77.925,115.969,58.529,-10.004,-12.236,35.332,9.319,-7.658,-21.927,-7.619,-17.713,-20.828,-15.597,-21.151,-39.257,-12.125,-23.461],[4156.682,1094.693,913.415,1289.185,1413.753,794.117,225.674,145.013,220.882,274.074,447.657,49.611,96.34,111.519,126.601,81.323,41.945,0.924,1.839,10.727,-1.068,11.06,-28.303,-21.875,3.724,-7.275,-28.977,-14.57,-28.988,-30.852],[5241.076,2734.514,1249.428,1486.965,1630.582,1196.96,483.575,267.737,315.166,287.684,515.301,310.973,101.99,119.224,126.179,50.671,9.652,-21.324,12.682,11.929,-7.552,-9.362,28.457,-3.178,-11.946,-6.58,-36.076,-8.691,-24.076,-10.405],[5955.225,4710.352,1611.115,1721.553,1872.714,1040.835,1189.301,342.727,275.313,363.316,502.167,491.095,122.562,145.714,168.505,63.151,94.502,42.868,-34.264,5.492,-23.899,16.639,-18.964,22.395,34.654,-28.813,-6.168,-30.097,-15.644,-12.23]]
}