{
"KTrans": [[2.217,1.061,1.304,1.952,1.312,11.428,8.57,6.913,5.474,5.438,24.843,17.189,13.552,10.823,10.7,160.076,94.591,76.409,68.445,60.416,406.518,223.488,174.823,151.372,140.575,1115.394,591.695,451.568,391.368,360.206],[-0.718,0.784,0.219,-0.137,0.46,7.588,6.141,4.813,3.269,3.268,18.212,11.581,8.429,6.545,6.526,129.99,63.942,44.296,35.693,30.497,317.749,146.871,99.886,77.369,66.505,846.889,357.795,229.789,181.02,151.208],[-5.49,0.683,0.444,0.465,0.242,2.819,5.56,3.259,3.463,2.654,11.785,10.983,7.96,6.101,5.159,120.92,59.884,40.801,31.263,25.874,278.845,134.026,88.414,66.723,55.149,772.533,330.629,201.231,151.603,123.441],[-14.296,1.169,1.175,0.012,0.814,-2.581,3.995,3.812,2.352,2.514,7.37,12.833,6.934,6.033,4.474,95.84,57.467,39.321,29.801,24.196,254.889,133.369,83.723,62.539,51.305,670.144,311.588,194.704,142.304,112.218],[-18.174,-0.079,0.299,0.868,-0.173,-13.82,5.172,3.529,2.223,1.482,-3.157,9.255,6.733,5.219,4.939,79.302,57.576,38.429,28.444,23.283,203.947,128.131,80.107,60.393,49.048,611.565,308.636,188.65,136.001,107.145],[-27.455,0.529,0.711,-0.22,0.673,-21.792,3.707,2.961,2.591,2.143,-11.098,9.923,6.991,4.993,4.866,61.381,54.528,36.347,28.206,22.759,178.764,126.997,82.967,60.607,48.031,548.28,308.055,185.223,133.85,104.335]],
"ve": [[2.134,0.66,-0,-0.213,1.288,5.252,1.614,-0.704,-1.693,-3.079,9.321,1.451,-2.057,-3.492,-6.599,45.869,13.278,-1.45,-11.97,-18.462,93.596,32.819,8.076,-7.047,-18.32,191.683,78.508,35.272,10.323,-6.266],[1.109,0.53,0.414,0.68,0.161,4.879,2.671,1.261,1.015,0.402,10.377,4.492,2.846,1.655,1.106,51.024,24.075,14.413,9.268,5.493,99.366,47.834,29.079,19.187,12.422,198.71,97.089,61.314,41.373,28.586],[1.455,0.665,0.45,0.06,0.164,5.277,2.633,1.789,1.009,0.922,10.657,5,3.154,2.371,1.838,49.677,24.372,16.131,11.496,8.491,100.481,49.253,32.222,23.099,17.525,199.922,98.852,64.428,46.687,35.608],[1.717,0.861,0.489,0.332,0.167,5.921,1.954,1.785,1.062,1.074,11.226,5.248,3.264,2.576,1.8,50.361,24.993,16.495,12.038,9.261,100.675,49.449,32.895,24.186,18.689,200.204,99.552,65.729,48.258,37.574],[2.637,0.968,0.607,0.383,0.257,5.646,2.676,1.726,1.212,0.969,11.177,5.096,3.391,2.449,1.964,50.62,24.975,16.618,12.176,9.479,100.964,49.673,32.852,24.472,19.212,200.856,99.893,65.842,48.903,38.61],[2.333,0.952,0.33,0.38,0.319,6.743,2.807,1.451,1.228,1,10.595,4.889,3.748,2.373,1.945,51.274,25.138,16.61,12.28,9.674,101.813,49.749,32.911,24.589,19.501,200.787,99.573,66.515,49.232,39.122]],
"kep": [[0.386,0.983,1.982,3.33,1.303,6.292,7.381,8.213,8.38,10.05,14.658,15.959,16.58,15.844,19.471,78.711,72.015,79.392,91.893,97.486,161.946,143.77,154.54,170.699,195.021,317.025,287.678,307.931,345.587,391.204],[-1.773,0.289,-0.149,-0.762,0.344,2.748,3.444,3.553,2.283,2.907,7.291,6.842,5.476,4.863,5.428,52.448,32.202,26.168,24.218,23.75,109.842,67.085,54.903,48.857,48.15,217.26,132.313,104.464,98.819,95.399],[-6.821,0.047,0.001,0.421,0.098,-2.354,2.892,1.467,2.457,1.741,1.096,5.767,4.687,3.668,3.285,47.673,28.576,21.276,17.764,16.042,89.117,56.843,42.535,35.456,32.034,190.988,116.61,83.242,71.541,64.792],[-15.63,0.382,0.711,-0.292,0.659,-7.923,2.034,1.996,1.298,1.44,-3.36,7.254,3.569,3.39,2.636,30.228,26.026,19.622,15.86,13.677,76.925,56.261,38.244,30.912,27.489,156.687,106.348,77.852,63.453,54.271],[-20.16,-1.01,-0.283,0.49,-0.421,-18.312,2.479,1.816,1.004,0.515,-12.55,3.991,3.252,2.724,2.921,19.184,26.127,18.701,14.511,12.621,51.27,52.457,35.598,28.873,25.033,136.682,104.519,74.083,58.517,49.454],[-29.047,-0.353,0.407,-0.595,0.362,-26.546,0.923,1.519,1.349,1.141,-19.453,4.815,3.143,2.585,2.877,6.793,23.523,16.94,14.201,11.943,38.347,51.644,37.696,28.921,23.885,115.661,104.616,71.34,56.718,46.89]],
"vp": [[-9.311,11.115,13.827,14.381,40.317,13.115,1.503,4.197,-9.231,8.895,13.518,8.172,2.531,4.42,-1.81,0.786,0.451,-0.201,-0.549,-1.178,-0.327,-0.996,-0.96,-0.49,-0.293,-0.207,-0.218,-0.25,-0.059,-0.327],[250.956,56.606,4.041,38.66,-13.369,57.665,10.195,-2.985,8.367,9.953,26.345,14.234,1.874,-5.251,6.22,8.082,0.139,-0.135,-0.63,-1.251,2.828,-0.057,-0.448,-0.642,0.43,1.154,0.224,-0.164,-0.192,-0.413],[913.274,88.314,8.128,2.609,-6.981,203.158,24.573,5.98,-6.835,17.821,93.136,2.594,0.475,5.903,1.024,21.297,2.262,-0.254,-0.654,0.283,8.755,-0.069,-0.303,-0.551,-0.439,4.051,-0.071,-0.569,0.066,-0.199],[1648.314,131.426,141.143,13.94,37.318,331.114,38.59,4.747,10.89,17.465,177.507,31.731,15.273,8.164,-9.088,33.558,2.979,2.869,-0.81,-0.393,15.273,1.528,0.221,-0.09,0.474,7.331,0.797,0.103,-0.463,-0.337],[2215.611,439.837,108.679,63.694,-24.671,494.23,74.308,26.403,-13.834,-1.373,230.523,34.896,18.909,1.763,0.405,44.449,8.6,1.784,1.484,1.069,22.957,3.348,0.762,0.344,0.629,12.351,1.722,0.061,-0.3,-0.107],[3147.554,647.854,211.904,109.54,-5.577,604.659,147.859,19.982,9.584,-0.802,302.325,61.618,16.904,7.285,6.328,59.96,12.84,3.067,-0.208,0.668,31.21,6.372,1.633,0.791,0.116,15.679,2.993,0.575,-0.091,-0.396]]
}