{
"KTrans": [[0.809,8.879,6.282,6.478,6.347,14.463,10.399,10.215,13.246,13.03,33.108,17.988,16.048,19.937,18.548,109.13,86.614,80.178,69.69,71.074,141.433,157.161,138.729,144.181,133.245,81.159,133.775,88.313,191.346,177.444],[-19.412,-0.703,-0.098,1.996,6.095,-15.745,4.219,2.351,5.385,4.511,-8.117,6.222,7.85,8.176,8.41,-10.743,36.598,39.484,38.094,33.233,-26.353,95.39,77.721,71.014,66.294,18.307,-8.766,115.451,110.02,131.921],[-40.741,-11.643,-4.293,0.263,0.016,-34.527,-9.157,-5.433,1.659,3.823,-37.426,-0.686,-1.124,3.441,4.36,-41.85,30.509,27.629,23.601,25.18,-33.745,40.497,62.029,54.326,47.506,-19.328,11.584,40.912,106.578,103.43],[-58.118,-20.497,-11.213,-6.125,-2.673,-55.11,-11.575,-7.653,-3.741,-0.833,-54.139,-10.614,-5.306,-1.254,0.569,-44.106,14.549,28.631,17.564,15.501,-41.24,-47.92,71.517,48.174,40.385,-53.363,-83.509,17.551,60.763,79.498],[-69.021,-24.982,-13.236,-10.11,-6.531,-63.888,-23.05,-10.842,-7.233,-5.207,-61.776,-16.14,-8.625,-5.824,-3.565,-62.724,3.512,15.743,13.401,13.67,-54.953,-30.842,22.664,42.871,32.92,-58.363,-41.652,-37.486,58.322,66.077],[-75.996,-26.799,-19.306,-13.071,-9.397,-75.741,-28.522,-17.08,-12.678,-7.757,-71.635,-29.048,-11.049,-11.135,-5.945,-67.07,-22.31,3.76,10.123,5.73,-68.672,-29.752,13.17,24.348,24.255,-54.131,-28.767,-53.095,20.996,90.025]],
"ve": [[11.735,14.378,17.826,87.602,-17.079,12.587,18.14,-118.432,-67.772,299.551,14.949,14.269,28.228,15.578,-13.191,74.368,22.541,7.902,6.267,-3.444,91.123,35.886,-41.01,0.706,-3.856,197.519,42.228,39.085,6.547,-8.439],[2.282,-0.3,1.416,0.887,2.731,6.272,2.486,2.95,3.48,4.626,14.087,4.242,4.544,3.657,5.224,52.856,22.726,13.594,9.922,8.716,96.439,40.715,31.615,20.342,15.82,202.89,72.425,53.463,79.569,41.863],[-4.939,-0.293,-0.676,-0.18,0.373,6.97,0.079,1.628,0.439,0.892,10.641,3.072,2.03,1.502,1.656,46.16,23.68,15.091,10.878,8.395,95.385,47.434,31.177,22.059,17.672,200.188,95.154,58.481,62.29,37.066],[3.059,-1.899,-1.103,-0.933,-1.254,0.429,0.852,0.007,0.042,0.101,11.001,2.288,1.793,0.926,1.236,46.505,24.133,14.211,10.756,8.572,66.73,47.33,31.269,23.032,17.562,202.924,99.011,62.831,46.653,36.894],[-14.567,-1.715,-2.013,-1.364,-1.165,6.944,0.185,0.17,-0.815,-0.092,12.41,3.561,0.865,0.363,0.557,46.888,23.777,14.583,10.11,8.276,95.88,46.496,29.351,22.882,17.716,192.684,98.13,54.837,44.169,38.41],[6.966,-1.6,-0.757,-1.78,-1.89,5.787,-0.129,0.055,-1.165,-0.853,92.848,3.051,1.176,0.73,-0.116,54.112,23.054,14.678,9.561,7.586,94.314,50.172,32.33,22.213,17.111,200.465,96.718,62.353,64.529,38.093]],
"kep": [[-20.114,-15.345,-23.164,-28.12,-31.83,-12.764,-16.111,-19.19,-15.617,-21.98,-3.038,-11.746,-13.868,-8.85,-9.983,14.992,27.051,40.848,41.394,58.572,7.414,54.062,66.938,100.759,116.974,-25.691,17.337,16.553,106.428,116.434],[-35.263,-18.49,-19.592,-17.515,-15.431,-35.456,-16.821,-18.804,-16.904,-18.536,-34.305,-16.814,-15.662,-14.862,-16.012,-52.469,-9.575,-0.123,2.226,0.007,-61.94,7.611,9.68,15.484,16.622,-56.984,-49.265,7.566,14.244,40.607],[-52.554,-27.76,-21.577,-18.282,-18.98,-50.114,-26.18,-24.332,-17.658,-16.35,-54.694,-21.222,-21.226,-17.057,-16.494,-66.539,-14.794,-10.108,-9.511,-6.288,-69.078,-22.521,-0.613,2.289,1.557,-71.499,-47.31,-28.439,10.71,20.281],[-67.263,-33.766,-27.011,-22.998,-19.935,-66.748,-28.798,-24.932,-21.747,-19.499,-66.901,-29.065,-24.441,-20.519,-19.303,-68.487,-25.263,-8.889,-13.956,-13.671,-72.871,-67.294,3.985,-2.951,-3.37,-82.103,-83.964,-38.933,-12.126,5.41],[-76.067,-38.037,-27.976,-25.985,-23.203,-72.883,-37.935,-27.78,-23.97,-22.906,-72.469,-34.41,-26.483,-23.782,-22.084,-78.722,-32.616,-18.481,-16.555,-14.881,-79.365,-58.936,-23.3,-6.375,-8.85,-84.427,-69.985,-63.752,-12.667,-3.18],[-81.457,-39.836,-33.94,-28.136,-25.046,-81.659,-42.33,-32.802,-28.338,-24.454,-79.5,-44.408,-28.668,-28.322,-23.548,-81.314,-49.072,-27.028,-18.639,-20.321,-84.878,-59.192,-31.255,-17.982,-14.293,-84.895,-66.896,-71.191,-32.26,9.026]],
"vp": [[-252.909,72.78,164.534,-131.513,175.921,-89.542,-84.453,85.374,21.906,-26.763,-0.013,17.98,36.043,77.374,-17.834,-20.282,-10.716,9.85,-18.208,23.28,-34.203,-33.358,-4.918,4.007,-17.169,-20.12,-16.98,-13.659,-12.044,-1.94],[2689.115,981.082,-84.112,-626.566,308.121,484.449,282.42,21.675,7.242,5.186,308.079,124.802,63.733,-4.716,27.695,45.587,-14.853,-21.517,-7.127,6.142,-6.226,-27.021,-18.178,-19.689,-4.202,-17.046,-40.977,-29.974,-3.029,7.381],[4146.24,2540.771,1608.021,994.685,-200.961,851.097,404.799,90.216,150.313,35.727,352.423,293.243,55.551,65.567,17.451,47.942,46.526,-1.635,-7.739,-2.818,21.503,0.531,-16.72,-25.511,-25.472,-8.132,-28.157,-35.12,-5.732,-22.469],[5830.757,4470.911,2734.146,1009.59,1268.635,1148.615,968.919,565.234,335.413,220.203,594.905,435.856,160.203,144.91,57.727,67.859,51.484,63.833,13.634,-12.561,9.724,32.066,-0.912,-2.958,-11.801,18.396,-16.746,-24.814,-21.085,-25.396],[6220.798,6499.213,3798.914,2472.281,964.724,1306.886,1144.968,642.92,521.643,129.282,603.081,692.715,427.557,171.555,140.576,91.729,89.702,48.77,24.185,17.173,7.793,33.577,-13.423,8.831,0.738,4.992,-8.756,-1.787,-32.732,-29.106],[6271.552,8661.468,5772.914,4234.52,1626.772,1303.774,1512.386,1077.988,679.407,356.243,704.444,677.05,469.036,385.159,123.284,91.393,132.397,87.769,56.83,0.809,18.386,62.585,51.616,14.114,-10.415,-13.602,-16.251,-3.55,-13.653,5.578]]
}