{
"KTrans": [[0.893,3.03,4.654,0.222,1.493,11.511,5.354,8.165,6.879,6.863,30.7,21.117,13.794,10.939,11.913,171.244,96.7,75.658,67.847,58.981,389.322,237.966,173.21,155.492,141.956,590.171,563.511,427.707,383.926,347.389],[-16.394,1.842,2.187,0.994,1.846,-5.034,8.33,5.87,4.012,3.325,0.554,8.165,8.979,6.434,5.405,85.685,67.773,45.663,35.281,32.092,126.903,140.546,104.1,77.575,69.156,-32.927,378.926,246.795,175.632,150.417],[-30.871,1.926,3.213,0.57,2.331,-28.505,4.423,4.174,5.671,3.606,-27.858,12.611,8.989,6.784,6.03,29.518,65.809,41.88,33.641,26.248,15.703,132.152,90.071,72.343,55.826,-125.048,289.135,210.373,150.464,130.51],[-54.202,-1.322,4.136,0.997,1.771,-50.6,3.163,4.308,3.482,2.552,-48.28,11.588,7.47,4.571,6.368,-26.355,58.66,43.148,31.56,25.054,-20.953,120.909,82.719,67.296,53.268,-28.671,247.607,207.966,146.819,113.302],[-60.199,-4.843,0.949,1.145,0.769,-64.044,-1.6,8.816,4.852,4.089,-56.883,1.526,5.33,7.267,5.675,-41.459,40.985,40.91,30.072,22.987,-43.207,100.107,89.679,61.414,52.085,-24.816,173.141,205.559,143.5,113.286],[-75.427,-10.72,-1.193,2.685,1.743,-72.526,-8.531,4.045,2.163,1.161,-75.814,2.005,8.178,7.935,5.126,-58.443,35.847,42.007,28.581,25.324,-56.822,78.858,93.93,66.848,49.04,-75.127,59.242,199.247,147.044,108.341]],
"ve": [[4.613,0.821,3.025,19.583,22.142,9.343,5.157,0.733,1.521,4.275,13.965,3.955,0.616,3.431,-1.008,48.908,14.957,-0.103,-9.856,-16.044,99.126,33.969,9.734,-6.676,-17.299,194.329,80.348,36.778,10.951,-4.738],[1.702,0.832,-0.144,0.745,0.229,9.957,2.943,1.752,0.926,1.258,12.65,4.922,2.349,2.814,0.91,52.647,23.527,15.59,9.094,6.085,99.503,48.119,30.498,19.232,12.328,198.571,97.396,61.608,41.361,28.712],[24.147,1.384,-0.362,0.965,0.099,-72.648,3.282,1.64,1.456,1.162,8.058,4.998,3.62,2.855,1.23,54.688,24.406,15.54,11.225,8.99,105.614,49.505,32.595,23.641,17.577,198.863,99.073,63.89,46.66,35.614],[14.132,0.52,0.525,0.854,0.338,5.925,2.474,2.109,1.229,0.886,22.583,5.592,3.662,2.607,1.983,52.205,25.384,16.501,12.266,9.049,103.868,49.335,32.658,24.521,18.419,204.042,101.189,66.099,48.233,37.43],[5.251,1.831,0.763,0.122,0.314,10.298,2.892,2.109,1.439,0.664,14.233,6.32,3.581,2.587,2.009,86.864,25.369,16.383,12.33,9.128,100.716,52.549,33.917,24.285,19.164,197.032,99.732,66.458,49.542,38.55],[-18.207,0.39,1.079,0.406,0.345,12.833,3.634,1.771,0.784,0.982,11.192,6.537,3.171,2.292,1.756,44.225,26.197,16.923,12.393,9.672,99.243,56.395,33.012,25.141,19.204,198.253,97.521,67.822,48.896,39.733]],
"kep": [[-1.698,4.36,6.728,-2.601,3.053,4.909,2.625,10.737,10.66,15.263,16.905,19.511,16.536,14.769,20.746,84.042,72.358,78.03,89.676,93.744,145.223,153.056,150.688,176.029,194.702,134.692,267.713,285.939,337.233,371.538],[-17.107,1.522,2.578,0.58,1.936,-13.458,5.431,4.236,3.321,2.43,-10.302,3.399,6.672,3.81,4.719,21.673,35.997,26.255,24.222,24.767,11.835,62.433,56.374,48.986,50.709,-75.084,140.894,114.14,94.754,94.482],[-33.611,0.774,3.682,-0.195,2.318,-34.047,1.513,2.584,4.279,2.482,-36.991,7.597,5.385,3.824,4.86,-15.796,33.144,22.887,20.153,15.925,-43.687,54.561,43.219,39.333,32.529,-105.184,93.737,88.464,70.34,69.86],[-57.72,-1.768,3.688,0.249,1.46,-54.777,0.671,2.256,2.303,1.69,-54.929,5.83,3.803,1.976,4.33,-52.07,26.597,22.895,17.22,14.693,-60.772,47.327,37.426,34.197,29.371,-73.985,71.022,84.163,65.933,54.915],[-62.36,-6.437,0.26,1.148,0.469,-67.603,-4.349,6.63,3.429,3.451,-62.82,-4.265,1.777,4.63,3.625,-62.316,12.257,21.036,15.755,12.707,-70.921,30.976,41.307,29.684,27.593,-73.042,36.06,82.137,62.133,53.422],[-77.446,-11.113,-2.21,2.329,1.406,-75.351,-11.797,2.271,1.445,0.197,-79.92,-4.096,4.842,5.59,3.373,-72.974,7.013,21.388,14.441,14.315,-78.561,16.706,45.462,33.007,24.864,-90.152,-20.147,77.3,64.909,48.503]],
"vp": [[203.974,-12.797,58.738,160.651,-80.501,80.298,-14.615,-8.569,-15.073,26.804,0.303,19.666,7.249,5.694,-18.383,8.988,2.78,0.912,-1.579,-2.164,5.754,-1.88,-4.18,-4.875,-5.364,-7.736,-7.527,-4.885,-13.261,-6.312],[2584.977,198.421,94.767,116.29,237.29,520.771,107.017,60.124,2.213,37.359,256.105,30.052,28.958,4.599,-14.557,49.764,-1.171,6.733,-5.869,6.87,12.246,-5.002,6.013,-11.412,-3.631,14.72,-2.506,4.018,-7.358,-5.666],[4504.107,937.328,263.193,334.056,-42.565,1011.911,266.166,44.427,57.695,23.775,505.521,148.194,27.719,54.018,6.289,79.505,21.742,1,9.864,9.333,45.209,11.151,-2.459,15.119,3.136,16.114,-0.817,-7.063,-7.195,4.792],[6914.395,2594.201,810.947,289.185,482.808,1328.004,550.333,146.716,-6.721,44.808,647.091,281.132,84.036,18.635,32.937,108.586,59.052,23.464,9.781,-5.873,56.88,31.587,9.789,17.343,2.656,16.093,22.578,3.662,-3.714,-5.095],[7301.149,4333.451,1822.622,414.246,650.068,1486.827,864.718,311.733,224.776,63.975,725.496,450.537,113.783,17.895,3.494,134.159,69.53,42.467,11.022,-1.992,54.378,46.897,22.297,7.934,-4.093,18.348,7.472,8.366,7.37,-2.215],[8429.76,6149.877,2341.874,1011.89,665.706,1665.906,1409.234,381.534,198.807,120.327,809.596,731.54,258.85,101.214,55.483,151.515,150.953,49.009,23.191,14.438,60.791,82.459,40.883,16.225,3.546,27.603,18.753,19.342,-0.766,-1.009]]
}