{
"KTrans": [[24.809,20.809,13.85,17.385,18.666,24.495,15.923,18.373,17.054,17.725,24.868,15.474,16.623,16.921,20.226,40.182,30.545,32.767,27.299,30.485,62.632,54.309,50.051,43.99,39.522,102.821,105.436,97.295,83.855,89.591],[-51.252,-5.247,2.531,5.07,9.06,-44.48,-6.122,1.744,8.034,8.708,-40.902,-1.327,6.884,8.278,9.605,-37.702,-1.712,5.965,14.646,14.088,-33.109,13.881,12.987,22.881,20.994,-17.716,26.337,25.341,28.797,31.228],[-69.922,-30.396,-14.456,-2.757,-0.265,-73.427,-25.223,-12.802,-3.591,0.667,-70.193,-32.954,-14.149,-3.266,-0.621,-69.144,-32.483,-9.99,-2.094,3.326,-49.263,-24.278,-6.301,0.467,7.842,-43.714,-9.527,2.038,22.037,15.459],[-85.249,-48.994,-30.118,-15.195,-10.819,-84.828,-48.872,-29.534,-16.907,-7.321,-82.857,-49.331,-23.698,-14.239,-8.717,-75.964,-47.87,-30.145,-13.207,-2.249,-72.346,-41.464,-19.826,-10.877,-1.884,-61.454,-35.393,-13.285,4.374,7.648],[-88.001,-63.592,-40.958,-29.938,-17.067,-89.606,-63.575,-39.637,-27.417,-15.528,-89.449,-61.321,-40.905,-25.888,-18.648,-81.974,-56.977,-42.372,-29.361,-16.106,-79.424,-58.465,-39.683,-22.698,-17.058,-71.73,-47.893,-33.375,-18.856,-10.931],[-91.843,-73.086,-51.529,-37.769,-27.304,-90.101,-68.781,-50.018,-36.552,-25.331,-92.199,-71.438,-52.747,-41.256,-24.026,-87.414,-67.849,-52.611,-36.762,-25.895,-83.472,-66.31,-54.553,-38.626,-25.029,-77.88,-66.395,-41.764,-31.214,-25.929]],
"ve": [[15.002,-48.848,57.204,47.907,176.085,-3.95,38.007,-191.235,48.552,809.92,956.244,91.818,77.315,-225.476,88.304,31.997,147.913,16.883,-12.918,79.135,32.344,53.077,-296.002,-72.822,-62.454,69.397,25.921,48.613,-26.889,-21.657],[-22.537,-1.565,1.478,5.135,7.333,-12.37,1.326,1.4,4.97,8.014,-5.537,0.824,2.858,4.839,6.723,1.548,5.13,7.295,7.826,11.058,-0.801,18.537,12.081,11.179,14.83,68.22,9.839,23.335,22.305,765.544],[-21.661,-10.005,-4.691,-2.096,2.015,-46.178,-8.094,-3.379,-0.779,0.776,171.698,-10.792,-4.725,0.124,0.825,-27.74,-5.717,1.492,1.329,4.619,1.735,5.908,6.801,3.873,7.836,51.185,12.243,19.683,19.909,13.984],[-35.514,-19.548,-10.912,-6.678,-3.817,-39.604,-17.213,-9.976,-5.596,-2.024,-68.093,-17.869,-8.572,-5.108,-2.807,-30.975,-11.403,-7.373,-0.944,1.897,8.551,53.667,2.08,2.593,3.756,35.315,20.06,17.052,16.274,12.264],[-52.754,-22.177,-15.375,-11.447,-5.991,-48.548,-22.798,-14.261,-9.683,-5.899,-71.458,-23.989,-14.153,-8.936,-5.848,-23.927,-14.729,-11.413,-8.126,-3.434,-8.011,-0.934,-6.714,-2.179,-0.958,45.711,12.606,5.398,6.267,3.216],[-58.898,-31.19,-19.903,-14.316,-10.43,-48.042,-27.964,-18.398,-13.157,-8.696,-36.479,-27.04,-19.821,-14.093,-8.022,56.279,-22.276,-15.196,-10.908,-7.695,-28.05,-16.526,-13.107,-9.097,-3.967,30.797,1.029,6.12,0.765,-0.906]],
"kep": [[-18.449,-24.047,-34.318,-33.859,-37.089,-18.405,-28.838,-28.151,-35.931,-38.85,-23.563,-26.669,-31.062,-37.818,-37.371,-24.705,-23.536,-18.17,-31.117,-23.522,-31.014,-20.655,-18.998,-25.012,-32.182,-47.226,-22.112,-2.77,-9.281,3.071],[-62.799,-32.818,-28.918,-29.573,-28.19,-58.874,-35.484,-29.563,-27.576,-28.865,-58.489,-32.057,-27.037,-27.13,-27.356,-59.779,-35.331,-31.229,-25.093,-27.526,-69.27,-34.637,-30.366,-22.701,-25.021,-77.325,-42.501,-33.615,-26.62,-25.269],[-76.435,-46.756,-37.381,-30.457,-31.566,-77.615,-43.942,-37.001,-32.115,-29.933,-76.313,-48.594,-37.332,-32.43,-30.954,-79.521,-51.027,-38.396,-32.828,-31.012,-77.037,-51.995,-39.709,-32.934,-30.331,-79.762,-56.566,-43.643,-30.477,-30.768],[-86.798,-56.904,-45.453,-36.547,-35.127,-86.266,-57.04,-45.792,-38.617,-33.893,-87.179,-57.812,-42.347,-36.992,-34.426,-84.219,-60.642,-47.903,-38.986,-33.099,-86.816,-60.1,-46.294,-39.987,-34.469,-85.671,-68.73,-50.966,-38.692,-34.142],[-89.581,-67.895,-51.783,-44.944,-38.51,-90.19,-67.837,-51.443,-43.922,-37.359,-91.177,-65.773,-52.522,-43.339,-39.669,-87.772,-66.885,-55.629,-46.764,-39.517,-89.456,-71.045,-56.292,-45.549,-41.844,-91.116,-74.517,-60.471,-49.435,-41.471],[-92.102,-73.633,-58.55,-49.609,-43.464,-92.128,-70.536,-57.959,-49.302,-42.895,-92.744,-73.097,-59.422,-52.443,-42.415,-91.859,-73.283,-61.777,-50.693,-44.242,-91.382,-77.327,-64.713,-53.473,-46.273,-92.225,-82.42,-64.631,-54.119,-49.542]],
"vp": [[-502.539,-592.293,-231.559,-334.24,-469.807,-60.467,-60.071,-105.402,-87.872,-102.937,-21.902,-2.437,-26.262,-41.055,-96.547,-13.145,-13.45,-8.676,-11.146,-11.889,-6.976,-6.545,-11.384,-3.657,4.871,-6.082,-9.784,-10.488,-0.309,-13.004],[3023.95,511.177,-276.743,-296.868,-836.366,537.728,-11.854,3.117,-146.501,-149.95,192.124,6.43,-70.663,-59.151,-44.933,54.531,12.818,2.603,-17.02,-17.704,33.964,-15.071,5.617,-12.642,-1.783,5.27,-2.324,3.091,1.998,-0.291],[4360.176,2057.543,1695.937,540.901,-119.761,979.437,347.886,219.434,26.333,-14.027,479.447,302.723,170.863,11.414,37.087,100.399,63.862,23.547,21.563,-2.657,25.167,16.387,6.678,18.683,-7.436,1.798,5.993,7.805,-19.745,1.46],[6537.362,4974.845,3773.895,2418.853,1766.946,1179.317,994.647,704.663,431.389,170.097,623.783,485.401,295.019,201.81,142.838,95.022,101.685,84.568,31.474,-5.847,32.982,47.164,17.227,18.664,3.972,10.037,13.725,1.183,-12.646,-7.627],[7096.62,6422.945,5654.477,4807.319,2626.653,1377.965,1353.904,1016.92,848.69,510.985,700.175,684.241,539.734,357.795,350.733,97.982,118.744,118.927,108.814,57.912,47.639,62.67,57.993,36.051,37.206,4.954,13.882,22.531,20.854,25.096],[7914.345,8502.905,7363.481,6456.015,5352.182,1355.677,1576.337,1386.746,1262.88,896.954,799.13,862.307,746.171,724.039,413.815,115.357,147.622,141.728,129.016,114.279,49.634,69.044,94.057,77.452,53.469,18.171,49.306,16.592,30.559,42.084]]
}