{
"KTrans": [[9.582,32.94,23.674,28.787,15.16,39.99,38.62,35.032,22.776,27.766,61.861,52.697,41.796,38.017,35.47,147.358,153.559,121.35,100.817,84.536,534.364,290.512,217.268,182.602,166.788,1295.7,713.77,526.423,479.092,420.526],[-73.788,52.478,47.002,29.554,33.537,-74.615,56.583,53.295,44.576,29.875,-80.164,91.644,40.181,34.612,31.09,-35.079,171.481,105.43,75.65,60.337,57.997,231.033,167.046,126.866,95.616,223.096,583.486,350.358,253.039,206.989],[-113.407,44.507,75.642,55.899,46.772,-99.162,33.266,70.458,61.804,62.263,-108.01,51.531,105.312,56.128,37.65,-92.639,50.558,152.776,100.993,76.666,-98.187,157.63,203.689,151.963,114.172,-53.7,380.445,406.412,260.5,222.066],[-105.847,-48.672,108.571,100.182,83.093,-119.683,-97.528,130.366,89.548,74.944,-107.933,-71.916,102.129,111.767,77.583,-103.506,-70.964,141.363,163.531,99.639,-105.55,-34.788,243.815,209.331,141.257,-127.074,112.974,468.134,302.065,260.191],[-109.156,-119.228,32.8,111.452,102.652,-109.456,-114.003,11.413,139.735,117.728,-108.889,-106.863,18.864,143.346,111.804,-102.227,-127.986,52.624,219.086,134.072,-109.463,-159.798,52.461,285.666,202.53,-128.252,-119.278,126.611,401.312,348.027],[-108.994,-121.619,-105.075,79.509,156.044,-107.135,-123.246,-56.385,72.926,147.451,-108.146,-122.458,-74.86,128.383,165.543,-117.656,-159.508,-100.625,174.624,221.98,-122.196,-183.432,-112.188,196.437,254.867,-94.84,-169.991,-55.369,286.082,362.772]],
"ve": [[14.824,8.374,11.179,19.075,-63.809,12.963,10.398,-28.369,-304.398,692.182,23.325,7.058,8.972,17.198,20.982,52.677,18.65,1.93,-10.42,-16.659,96.071,36.553,7.364,-7.049,-18.652,194.488,80.748,34.923,11.058,-5.303],[2.092,0.724,3.436,1.054,2.467,12.2,4.496,4.07,3.71,2.36,27.936,9.632,3.631,4.11,1.179,80.549,26.381,15.914,9.902,5.791,106.93,47.905,31.969,20.587,12.027,281.583,99.692,64.108,43.301,28.751],[6.525,8.692,2.875,2.403,2.561,-45.704,5.326,1.331,2.567,5.144,18.65,-0.17,7.432,3.347,1.382,45.441,26.287,19.073,12.89,9.936,106.234,47.581,32.638,23.657,17.361,191.379,103.335,67.91,49.46,38.319],[3.716,6.214,5.243,2.931,4.594,9.511,2.588,6.969,5.155,3.676,17.537,2.034,2.083,4.821,3.049,52.948,33.169,19.604,14.64,10.3,130.835,52.558,35.538,26.298,18.874,192.363,100.493,69.16,51.141,41.157],[1.556,2.259,3.951,-0.122,2.686,5.128,7.427,6.216,2.036,4.857,7.305,6.415,8.729,5.287,4.797,51.709,26.873,20.298,13.137,12.026,99.945,48.893,23.314,28.635,21.532,188.885,99.113,67.468,50.045,43.51],[-1.639,5.463,2.332,6.828,2.155,9.344,5.361,21.031,5.513,2.888,10.227,7.817,7.157,2.42,3.575,82.784,25.138,19.029,12.185,11.979,96.09,50.938,35.519,29.17,22.478,216.956,100.223,68.589,52.499,41.878]],
"kep": [[-6.264,29.74,25.617,35.887,19.741,21.478,33.008,38.946,27.445,39.406,34.679,46.439,46.436,51.75,54.023,59.769,113.229,119.232,128.51,126.89,215.58,183.068,193.244,203.442,227.634,370.973,348.408,361.647,417.4,446.16],[-76.854,43.267,38.722,24.823,29.602,-79.345,42.792,43.574,37.439,25.775,-81.979,68.043,30.608,27.122,27.871,-58.543,105.63,71.161,55.478,48.416,-24.902,114.313,96.258,83.794,69.409,3.677,236.232,168.893,141.281,133.638],[-110.544,30.579,62.272,46.264,38.96,-96.71,18.933,58.17,51.149,50.951,-106.959,32.719,82.979,44.749,30.372,-94.75,13.749,102.74,70.942,55.249,-96.496,59.633,118.17,95.666,75.227,-83.013,131.745,193.653,133.78,128.143],[-105.22,-53.607,88.837,84.719,69.409,-115.228,-97.255,103.242,72.459,61.491,-105.597,-74.725,79.031,90.652,63.949,-100.944,-78.48,89.48,118.359,72.713,-100.73,-58.502,140.388,134.832,93.723,-109.128,4.842,224.164,157.53,147.237],[-107.428,-114.351,20.389,94.232,86.598,-106.771,-112.166,-1.87,117.69,97.18,-105.969,-103.988,2.287,116.593,92.226,-99.775,-117.959,19.086,163.164,98.823,-103.139,-134.16,3.907,186.498,137.512,-107.776,-105.738,30.645,216.496,202.89],[-107.584,-117.974,-103.679,62.824,133.854,-104.319,-117.734,-60.935,54.779,122.754,-105.261,-117.402,-76.698,104.01,140.748,-110.405,-142.04,-97.418,124.203,168.046,-109.678,-149.101,-105.195,118.188,174.184,-95.963,-130.711,-72.373,140.259,211.546]],
"vp": [[2248.653,1757.634,1578.463,1851.554,1355.326,461.972,342.08,430.488,273.525,405.942,323.635,186.23,202.16,165.772,203.806,46.805,47.175,43.74,41.078,38.171,24.08,19.064,12.546,14.471,12.673,10.572,9.914,9.348,8.96,9.138],[7002.646,5928.419,6061.091,5592.868,5944.949,1433.964,1256.013,1195.841,1337.243,1100.329,762.552,649.251,513.101,460.623,484.545,142.667,142.972,110.082,98.905,104.774,67.879,58.407,51.894,52.055,42.063,35.273,32.194,30.077,28.531,26.525],[8797.112,14148.775,10845.24,9651.057,9483.218,1670.575,2375.427,1828.785,1808.839,2128.353,969.582,1169.988,1085.819,954.102,770.615,169.993,243.552,244.32,191.524,186.89,93.907,120.495,89.624,98.809,91.575,41.477,56.494,53.831,45.573,50.056],[9894.134,14618.276,18827.336,14708.295,14346.411,2082.159,2855.287,3715.115,3061.994,2884.744,980.676,1266.268,1538.534,1568.976,1354.843,199.942,311.837,283.234,296.341,255.932,96.863,148.291,157.902,134.646,127.823,52.816,66.851,82.876,63.457,73.558],[10575.907,16779.148,20167.233,16670.987,17877.485,1950.207,3334.435,4329.018,3449.248,3904.556,1044.606,1587.632,2007.421,2087.964,1763.471,197.629,328.992,428.249,414.566,304.42,100.505,166.479,208.164,218.06,183.408,46.86,82.149,103.618,98.342,102.985],[11116.97,16286.735,22846.069,25395.944,23086.561,2109.674,3688.4,4614.628,4536.139,3789.557,1068.006,1733.838,2292.702,2454.356,2093.194,216.293,415.822,433.615,473.17,453.887,110.544,190.229,225.276,275.129,214.32,50.426,83.973,115.357,133.942,107.678]]
}