{
"KTrans": [[-7.899,41.705,32.813,43.008,30.781,-29.58,39.305,37.63,37.48,31.133,-32.152,37.207,59.731,39.828,25.837,104.924,136.922,91.056,111.091,101.014,193.403,287.881,267.725,205.014,200.489,653.824,629.479,552.697,501.165,435.902],[-101.524,32.263,46.31,44.619,35.91,-87.242,-10.545,76.672,53.434,47.749,-89.164,16.314,55.321,57.708,40.511,-51.764,73.312,92.86,83.505,82.068,-20.466,174.994,150.476,148.913,119.384,54.342,311.91,380.959,236.662,210.567],[-99.176,-47.235,66.109,57.258,50.165,-102.317,-60.187,39.561,66.997,59.569,-101.944,-37.453,46.999,64.989,63.177,-102.193,-15.553,92.231,106.415,97.633,-81.247,22.15,122.122,167.35,125.171,-41.856,82.413,306.75,310.397,245.828],[-108.606,-90.857,6.653,89.222,87.454,-110.652,-86.569,32.255,85.589,103.382,-99.229,-82.738,20.533,76.047,85.535,-101.303,-60.162,21.584,115.44,112.561,-111.32,-113.489,61.716,160.53,151.765,-77.628,-130.871,146.041,289.924,238.409],[-105.082,-116.082,-34.086,62.018,112.153,-100.757,-109.392,-52.181,77.007,91.223,-107.7,-108.836,-55.882,37.688,108.587,-102.151,-96.427,-78.258,65.138,146.53,-111.83,-127.759,6.13,112.171,198.356,-82.819,-134.733,61.795,191.417,200.121],[-101.606,-109.694,-93.781,1.9,78.047,-102.339,-115.692,-99.934,-17.424,72.229,-106.437,-118.276,-104.085,15.701,93.101,-105.712,-122.128,-65.895,-15.11,75.459,-110.069,-116.17,-70.778,2.006,178.167,-109.157,-132.459,-54.042,78.431,183.262]],
"ve": [[29.585,74.844,-37.229,-30.889,2.773,-8.029,257.365,-117.8,-4.168,-119.032,27.403,39.024,-1.226,2835.988,153.614,-4.574,32.575,16.052,8.689,-11.482,-358.745,39.666,45.059,2.445,-11.73,200.034,80.97,39.614,15.505,-0.898],[14.554,15.995,3.264,4.618,3.429,37.054,40.348,8.374,2.167,4.013,-41.655,5.439,8.005,5.529,4.371,75.775,28.899,15.271,14.411,7.059,58.217,56.179,33.823,20.939,14.968,251.942,107.352,65.367,44.332,31.626],[10.038,38.61,6.197,1.364,3.366,-1185.461,-12.077,6.778,4.967,4.026,42.503,13.682,7.118,3.848,7.462,-338.076,32.836,19.26,13.776,13.928,103.15,60.13,35.773,27.18,18.594,187.817,61.816,72.128,53.301,40.164],[-16.252,5.376,4.598,7.704,3.342,47.009,7.05,9.474,6.85,6.505,23.222,17.471,-3.119,5.13,5.658,55.496,-8.951,19.832,18.108,12.377,101.399,49.618,32.501,30.637,20.635,177.489,101.437,70.975,54.288,42.039],[2.737,294.83,6.444,5.463,6.247,-10.966,13.279,0.596,8.493,4.607,9.364,12.605,22.68,7.164,6.682,61,33.825,18.404,17.609,11.847,-175.321,59.497,31.386,27.33,24.395,191.87,113.893,80.173,49.215,39.75],[4.86,6.683,-0.929,11.373,2.314,8.782,25.441,3.572,6.314,1.988,-10.755,2.473,7.775,-2.108,4.258,16.253,21.227,17.212,15.893,11.047,-296.906,70.251,35.422,21.85,25.182,213.43,102.132,73.702,53.028,47.683]],
"kep": [[-29.313,26.257,28.672,57.008,43.875,-50.253,25.35,30.433,55.712,34.314,-62.13,23.283,74.541,44.668,30.562,23.472,95.844,79.328,133.951,152.584,32.764,185.795,233.709,217.672,257.037,146.465,304.164,370.584,423.603,444.783],[-103.973,14.883,37.968,36.832,32.842,-93.408,-20.65,59.963,49.381,42.446,-93.75,2.542,40.869,48.32,34.098,-74.657,31.676,61.68,59.533,67.877,-66.789,70.964,83.397,102.703,87.397,-54.913,98.929,188.275,129.746,132.964],[-100.868,-55.442,49.335,49.228,41.942,-103.352,-67.233,26.715,52.038,48.188,-101.392,-50.249,31.249,52.152,48.899,-100.646,-40.605,54.068,73.003,68.968,-91.278,-24.622,55.979,104.88,82.193,-81.075,-14.195,132.798,163.361,141.444],[-107.427,-91.034,-3.515,70.226,72.208,-107.853,-88.983,15.832,64.791,86.541,-99.468,-86.014,2.992,58.323,68.854,-102.281,-74.219,-4.081,76.648,82.098,-105.358,-107.106,12.479,94.86,97.922,-94.092,-114.139,41.635,145.822,130.255],[-104.411,-114.416,-43.333,45.461,92.989,-100.737,-108.589,-59.866,54.118,72.827,-107.072,-107.839,-63.578,20.234,88.338,-102.333,-97.187,-82.787,33.99,107.874,-105.89,-117.527,-29.084,57.111,131.476,-94.099,-114.994,-7.585,84.488,104.997],[-101.679,-108,-94.224,-11.301,59.469,-102.395,-113.33,-103.037,-26.276,57.279,-105.999,-115.908,-103.914,-0.392,71.325,-103.442,-115.629,-74.735,-32.154,49.163,-104.449,-108.589,-79.869,-22.375,112.106,-102.549,-114.397,-74.262,13.024,88.461]],
"vp": [[3866.549,3386.688,2472.946,2598.942,2481.022,882.787,301.687,351.583,394.816,453.515,420.98,187.643,268.531,239.499,150.059,66.409,40.086,33.663,50.262,41.647,26.826,17.267,11.205,23.615,17.06,17.487,2.894,10.47,9.63,11.114],[8072.142,10317.884,7559.626,6318.59,6553.564,1584.06,1682.821,1591.88,1293.281,1523.344,729.329,784.404,723.39,623.238,696.32,162.603,149.629,155.04,131.778,137.026,82.572,96.386,67.581,71.547,61.809,39.124,48.794,40.109,29.335,31.206],[10526.651,13440.469,15765.978,11402.012,10911.145,2043.91,2662.841,2720.303,2191.904,2142.901,953.56,1285.894,1171.888,1029.052,1153.641,173.91,294.433,297.882,233.108,266.27,84.597,131.176,138.581,120.8,106.261,43.115,71.818,78.103,60.639,58.612],[9583.493,16215.746,20472.537,18495.221,16028.181,1872.099,3479.733,4120.416,3860.578,3721.524,975.78,1769.991,2079.169,1719.936,1649.591,214.524,335.255,406.923,403.717,320.863,91.931,179.774,193.796,178.574,152.965,48.825,80.74,98.247,94.293,84.788],[9804.096,19861.554,19945.016,24776.726,25024.962,1854.971,3448.289,4493.426,5419.346,4901.508,1155.736,1890.902,2210.632,2515.038,2294.002,199.876,333.198,488.332,454.451,463.428,110.577,204.661,240.021,218.403,230.674,50.173,88.112,109.615,104.363,100.234],[9306.021,16017.159,22358.075,29610.542,25378.215,1894.87,3870.156,5535.847,5534.718,5514.344,1118.06,1868.721,2584.213,2843.513,3037.924,216.492,374.912,454.773,588.744,582.005,101.025,189.248,212.749,280.395,315.611,55.635,100.059,125.343,150.751,147.572]]
}