{
"KTrans": [[-58.803,-55.923,-81.765,-84.74,-82.865,-51.993,-69.341,-71.2,-72.363,-79.137,-50.73,-53.634,-75.949,-87.604,-80.624,-1.971,-4.214,-51.105,-35.237,-10.479,81.325,67.809,55.843,-19.961,-16.606,114.444,48.624,204.416,162.07,77.3],[-58.102,-50.725,-57.441,-63.14,-72.639,-60.678,-48.398,-54.483,-61.217,-65.389,-59.922,-52.65,-45.199,-58.285,-58.549,-27.393,2.624,-30.563,-39.869,-33.601,-10.352,3.566,7.228,-24.178,-24.452,-19.685,52.671,56.991,20.696,44.336],[-74.082,-54.391,-44.106,-50.403,-52.176,-73.803,-51.638,-47.482,-44.962,-44.78,-67.461,-47.152,-49.693,-32.626,-51.984,-59.985,-34.357,-33.706,-19.575,-7.219,-45.513,-13.241,-17.825,-12.907,-20.758,-16.156,-19.088,-1.946,19.124,-8.39],[-77.172,-58.491,-51.582,-48.101,-49.642,-76.872,-55.829,-51.498,-37.343,-40.465,-76.792,-52.192,-41.051,-43.135,-41.136,-70.549,-43.791,-35.329,-29.965,-31.373,-68.536,-35.596,-23.243,-7.929,-20.998,-33.26,-44.061,-24.977,-17.807,2.719],[-84.71,-67.411,-46.095,-52.184,-44.558,-82.404,-62.178,-53.466,-43.491,-49.913,-83.331,-68.211,-49.518,-47.843,-31.385,-76.631,-55.959,-33.46,-38.344,-30.707,-71.83,-42.201,-31.234,-26.288,-8.657,-72.83,-40.571,-25.566,-19.159,-5.81],[-88.337,-74.045,-58.895,-49.384,-47.519,-86.966,-67.94,-56.586,-49.201,-43.92,-85.973,-69.266,-56.258,-50.859,-37.581,-79.263,-61.659,-43.274,-42.715,-38.144,-80.889,-64.165,-39.83,-17.268,-34.495,-71.25,-59.727,-38.455,-12.655,-11.882]],
"ve": [[964.334,-65.54,-50.033,-72.927,-61.663,-75.564,-24.606,-31.927,-73.665,20.075,-34.948,-36.613,-30.791,-54.418,-54.86,16.391,-37.903,-16.049,-43.744,-71.192,73.837,70.463,4.398,-25.483,-46.773,16.45,76.573,110.077,18.573,6.137],[-24.675,-58.51,-59.142,-51.656,-48.604,11.42,-40.402,-56.452,-63.084,-42.606,-9.977,-51.165,-98.515,-49.565,-58.93,29.094,6.962,-27.753,-46.538,-42.528,30.359,37.457,11.678,-21.535,-6550.298,221.249,123.544,116.314,28.044,29.279],[-75.179,-55.795,-51.323,-63.412,-54.334,-24.128,-68.818,-63.428,-39.893,-48.903,15.768,-54.973,-69.585,-32.251,-48.104,109.105,2.998,-50.887,-48.906,-5.709,53.928,48.673,6.708,5.707,-0.817,138.559,78.727,36.346,40.076,17.341],[-132.145,-35.571,-65.13,-126.389,-74.323,1.526,-24.212,-73.685,-93.141,-45.52,2.407,786.234,-32.186,-64.745,-48.204,39.142,-11.919,-57.517,-37.982,100.293,93.589,44.481,-13.236,-7.469,-19.527,374.532,78.839,19.543,22.81,23.704],[65.884,-49.733,-76.134,-113.463,-70.86,-85.827,-59.653,-91.992,-43.476,-71.329,79.274,-64.018,-47.033,-89.538,-32.795,31.876,-27.865,-12.848,-69.956,-41.797,161.632,91.712,2.844,-27.656,-3.693,226.242,93.724,24.754,16.242,68.605],[-42.853,-34.595,-47.826,-62.383,-76.266,-5.551,-5.054,-50.108,-57.75,-69.936,-5.327,-27.435,-66.528,-77.815,-68.857,96.152,34.354,-14.293,-67.01,-28.497,200.501,38.688,-5.701,24.048,-41.694,178.334,147.616,30.987,5.248,-24.012]],
"kep": [[-124.116,-152.649,-13.561,-26.97,25.841,-103.73,-77.525,-21.559,-53.281,18.847,-119.874,-80.368,-3.726,-20.247,-25.785,-140.425,-113.346,-96.635,-42.949,-121.604,-105.404,-204.419,-127.596,-114.6,-202.702,-97.409,-108.567,-262.55,-357.244,-335.391],[-92.107,-110.171,-119.202,-67.345,4.889,-92.861,-115.028,-111.988,-86.502,-22.782,-96.447,-89.292,-95.365,-52.551,-21.145,-89.727,-98.939,-109.679,-86.884,-66.634,-91.662,-80.69,-127.109,-152.291,-138.57,-81.702,-61.294,-99.424,-111.321,-188.481],[-95.536,-79.249,-74.894,-87.697,-100.47,-96.723,-74.786,-71.242,-84.524,-105.932,-97.924,-79.33,-78.16,-91.794,-93.27,-100.65,-79.849,-69.49,-120.438,-142.761,-90.908,-77.831,-64.821,-79.573,-135.623,-84.082,-67.832,-61.995,-49.723,-67.234],[-97.159,-79.105,-55.646,-57.305,-56.336,-97.192,-77.455,-55.059,-54.687,-74.292,-98.785,-75.517,-58.381,-65.238,-67.944,-96.651,-77.523,-44.825,-56.394,-59.141,-98.317,-76.545,-61.987,-58.379,-56.434,-95.043,-71.591,-51.901,-51.137,-55.532],[-100.009,-87.035,-57.017,-37.518,-52.217,-96.984,-85.958,-64.167,-50.359,-31.147,-98.986,-83.285,-63.581,-24.64,-46.222,-96.396,-74.003,-65.107,-40.895,-43.857,-98.927,-80.562,-60.49,-52.86,-52.409,-93.693,-72.98,-67.37,-43.056,-71.919],[-97.808,-90.449,-68.692,-44.811,-30.246,-99.256,-91.298,-67.028,-50.753,-34.097,-98.946,-82.567,-59.191,-41.186,-23.29,-97.985,-86.923,-68.601,-50.105,-40.54,-98.893,-86.083,-69.602,-52.605,-52.581,-95.092,-85.043,-61.114,-44.292,-30.237]],
"vp": [[-632.567,-542.793,805.037,22.347,985.514,-121.034,22.566,108.172,136.761,143.188,-78.061,50.268,44.768,-21.055,89.715,-26.463,-14.845,-10.346,-13.234,0.695,-31.618,-40.056,-23.697,15.044,-22.672,-45.934,-37.787,-23.8,-18.059,-13.134],[3291.723,762.772,-178.176,112.767,112.992,508.584,126.174,-42.754,-34.802,54.29,264.262,51.284,-4.537,46.433,65.187,14.986,0.895,-43.673,-4.035,-22.45,4.314,-45.419,-36.715,-31.213,-38.483,-56.449,-53.433,-19.888,-58.519,-41.172],[2800.935,3225.987,1915.376,996.203,594.359,781.774,651.074,302.219,228.9,16.578,377.446,388.352,55.929,141.256,-17.585,53.009,40.185,-17.48,4.046,-12.822,-4.163,-8.937,-34.042,-26.727,-56.246,-40.704,-49.409,-41.928,-40.17,-50.469],[4556.118,5446.179,3587.642,1997.465,1480.701,975.478,950.81,778.608,489.344,370.535,488.499,362.268,357.688,251.846,92.782,84.021,101.532,10.578,9.051,-8.068,11.23,6.849,-17.322,-2.17,-41.392,-15.826,-6.569,-42.603,-48.961,-57.479],[6418.431,6952.07,6158.448,2941,2793.837,1318.201,1464.703,995.175,1014.79,358.691,475.496,575.913,470.732,298.269,346.842,46.875,105.845,68.987,48.605,36.206,24.874,3.04,17.514,6.537,-6.61,-0.379,-6.145,-19.384,-56.93,-24.735],[6171.306,7858.682,7161.445,5108.164,3519.09,1090.866,1921.374,1338.661,1063.601,698.375,564.908,711.383,682.654,536.468,426.594,88.071,137.015,105.679,49.079,64.818,32.068,45.437,24.828,30.025,-10.941,0.886,17.157,-31.118,-23.872,-46.432]]
}