{
"KTrans": [[-3.833,2.041,-1.741,-0.032,-0.857,-2.313,2.311,2.608,4.346,0.042,-5.867,-0.901,0.838,1.913,1.519,-5.224,-1.335,-1.14,0.998,1.186,1.707,4.694,-0.54,5.204,1.535,-3.934,3.736,0.045,0.816,1.823],[-36.621,0.197,-0.499,1.47,0.314,-38.175,-5.262,-3.321,-0.913,-1.122,-39.093,-2.863,1.892,0.947,0.676,-36.811,-3.87,1.272,0.977,-0.781,-38.538,-0.634,3.603,2.573,0.82,-32.745,-0.4,1.744,0.567,-0.072],[-62.959,-10.061,-3.226,-0.981,0.234,-60.387,-6.788,-0.301,-1.085,0.002,-65.094,-6.678,0.254,-1.371,-1.28,-64.021,-5.745,2.346,-0.469,-0.545,-63.371,-7.951,-0.105,0.372,0.506,-64.512,-6.479,-0.478,-0.341,-0.14],[-81.442,-14.599,-3.2,-2.892,-0.931,-80.406,-12.869,-1.501,-1.134,0.267,-78.425,-16.541,-4.347,1.087,1.426,-78.955,-17.774,-2.353,0.017,-0.289,-77.245,-18.786,1.471,-0.104,0.423,-81.364,-16.128,-3.258,1.247,-0.59],[-85.879,-23.352,-6.744,-1.911,1.713,-86.639,-28.797,-9.518,0.514,0.825,-85.6,-24.433,-3.349,0.817,-0.788,-88.078,-22.831,-7.208,-3.786,-1.46,-86.171,-25.315,-2.489,-0.815,-0.524,-86.85,-27.364,-3.514,-0.361,-0.455],[-91.935,-38.104,-5.54,-2.901,-0.507,-90.267,-33.017,-6.753,-1.575,-0.838,-92.093,-35.044,-8.031,-1.782,-1.586,-89.441,-35.67,-9.825,-2.817,-0.517,-90.145,-34.399,-6.797,-3.644,-1.441,-91.836,-35.971,-6.08,-2.336,0.021]],
"ve": [[12.114,5.862,10.012,10.715,21.439,2.595,3.867,11.673,4.059,24.36,4.767,8.68,10.094,15.577,22.906,4.636,6.503,-7.907,17.969,-464.866,6.715,4.965,7.375,5.56,28.278,9.733,5.867,16.836,14.59,25.748],[-7.619,0.516,-0.025,-0.07,0.077,-8.234,1.275,0.277,0.29,0.083,-9.136,-0.011,0.321,0.616,-0.931,-7.669,0.53,0.859,0.442,0.203,-10.023,0.175,0.599,-0.155,1.368,-6.195,1.756,1.041,0.624,1.093],[-23.619,-2.864,-0.386,0.571,0.151,-16.128,-2.573,0.624,0.535,-0.205,-25.112,-2.827,0.808,0.019,-0.21,-20.907,-0.141,0.163,0.633,0.429,-20.171,-2.558,1.399,0.301,-0.149,-19.025,-1.035,-0.216,0.161,0.188],[-38.125,-3.708,-0.972,-0.556,0.262,-28.279,-5.077,-0.821,0.422,0.068,-30.822,-4.728,-0.868,0.442,-0.068,-28.451,-4.141,-0.799,-0.275,0.14,-33.778,-5.715,0.004,0.708,0.421,-30.437,-3.958,-0.442,0.433,0.264],[-36.374,-7.119,-1.051,-0.15,-0.017,-38.708,-9.925,-1.07,0.151,0.005,-38.274,-7.971,-1.418,0.28,-0.126,27.658,-7.539,-1.74,-0.91,0.136,-39.973,-9.045,-0.535,-0.41,0.289,-36.806,-8.225,-0.757,-0.461,-0.45],[-65.517,-13.982,-2.065,-0.955,-0.591,-42.341,-12.945,-1.209,-0.459,0.004,23.664,-14.353,-2.81,-0.448,-0.248,-42.239,-14.803,-3.255,-0.925,-0.242,-43.931,-12.404,-1.959,-1.183,-0.313,-42.495,-12.92,-2.673,-0.941,-0.017]],
"kep": [[-8.55,1.963,-5.839,-0.943,-2.323,-2.75,1.75,2.111,7.472,-1.583,-7.276,-4.448,0.078,0.325,-0.113,-7.456,-4.301,-5.289,-1.746,2.791,-2.39,4.744,-0.972,7.009,0.202,-8.486,1.406,-3.092,-1.84,1.879],[-30.839,-0.046,-0.374,1.841,0.477,-32.343,-6.187,-3.539,-0.999,-0.966,-34.174,-2.869,1.899,0.632,1.922,-32.381,-4.148,0.616,0.806,-0.718,-33.485,-0.625,3.258,2.91,-0.23,-29.12,-2.223,0.928,0.237,-0.891],[-58.58,-7.236,-2.756,-1.465,0.122,-54.286,-4.176,-0.947,-1.477,0.257,-57.333,-3.906,-0.54,-1.249,-0.959,-57.335,-5.482,2.244,-1.01,-0.871,-57.085,-5.832,-1.447,0.072,0.734,-58.273,-5.065,-0.168,-0.438,-0.274],[-75.517,-11.318,-2.29,-2.346,-1.141,-74.775,-8.066,-0.608,-1.521,0.223,-72.725,-12.429,-3.367,0.684,1.474,-73.295,-14.151,-1.623,0.403,-0.394,-71.317,-13.757,1.581,-0.835,0.029,-76.288,-12.446,-2.785,0.827,-0.807],[-81.248,-17.687,-5.753,-1.775,1.75,-81.385,-21.001,-8.582,0.394,0.862,-80.234,-18.058,-1.854,0.54,-0.664,-83.169,-17.088,-5.43,-2.898,-1.578,-81.213,-18.359,-1.954,-0.405,-0.815,-81.937,-21.114,-2.581,0.175,0.039],[-88.225,-28.698,-3.524,-1.908,0.112,-85.746,-23.627,-5.517,-1.115,-0.802,-87.953,-24.617,-5.416,-1.323,-1.337,-84.341,-26.65,-6.668,-1.862,-0.285,-86.342,-25.711,-4.853,-2.427,-1.071,-87.824,-27.195,-3.425,-1.483,0.045]],
"vp": [[1.86,32.65,121.361,19.73,77.009,9.157,-9.852,-30.67,-20.96,-4.418,15.471,-6.269,-0.365,-15.433,-9.887,5.163,0.621,-0.079,-1.434,-0.772,-0.076,-1.263,0.466,-3.082,0.277,0.515,-0.946,-0.527,-0.248,-1.115],[1342.15,215.695,26.919,-71.201,-56.109,259.375,21.841,16.444,24.461,51.69,123.034,20.72,-4.143,-14.867,7.349,26.016,0.916,-5.066,-2.932,0.068,12.411,0.298,-0.076,-1.29,-0.548,5.243,-0.649,-0.49,-0.374,-0.248],[2384.361,672.395,282.025,-99.506,12.782,430.603,144.776,-12.613,0.052,-14.877,272.837,65.047,2.995,8.916,23.848,48.885,7.727,-0.312,3.095,-1.147,23.804,5.445,-0.529,-0.31,-0.364,12.251,1.66,-0.051,-0.564,-0.234],[3781.555,1174.933,372.885,214.814,49.021,721.182,224.191,72.575,17.747,0.006,357.3,113.661,41.655,-6.579,-4.571,69.091,20.887,7.408,1.922,-2.373,33.878,11.489,0.44,1.352,0.339,18.093,5.349,1.271,-0.716,-0.378],[4206.643,1676.696,404.017,225.724,-37.748,840.21,434.334,134.41,9.265,-0.095,412.61,196.553,54.231,9.213,8.941,86.565,35.639,15.382,7.116,1.774,41.548,21.354,3.15,0.937,-1.551,20.78,9.514,2.161,0.772,0.95],[5019.693,3044.013,785.755,510.717,280.304,970.65,562.838,127.355,63.665,21.452,510.937,310.121,107.455,15.534,26.051,94.872,59.952,18.101,6.885,2.729,48.058,27.982,7.327,4.778,0.917,25.242,13.977,5.204,1.197,-0.133]]
}