{
"KTrans": [[12.32,14.669,15.45,17.313,16.945,14.211,9.599,17.625,18.906,14.923,14.473,12.513,14.725,14.713,21.629,33.494,28.6,30.352,26.089,21.937,52.801,43.44,37.133,46.605,41.887,90.186,82.557,81.65,67.934,79.186],[-45.345,-7.509,0.883,7.567,8.726,-38.69,-3.878,0.93,6.59,12.2,-35.123,-6.913,3.262,6.732,9.7,-34.323,-3.562,5.599,10.085,13.406,-21.032,11.898,13.211,21.343,19.091,-15.833,15.243,29.481,34.205,27.539],[-69.919,-34.291,-11.734,-2.575,-0.031,-70.464,-27.857,-11.948,-3.21,2.608,-71.131,-28.992,-13.664,-5.081,1.932,-65.279,-26.745,-11.165,2.081,2.66,-59.672,-21.214,-8.241,-2.056,7.727,-50.47,-12.426,4.902,9.046,16.047],[-83.371,-41.071,-25.619,-15.949,-6.342,-81.612,-42.02,-27.059,-13.207,-7.134,-84.112,-44.646,-24.699,-15.851,-8.372,-79.908,-41.249,-26.616,-12.794,-6.006,-74.926,-47.44,-24.225,-10.507,-2.89,-68.707,-37.398,-17.641,-2.634,4.927],[-91.198,-62.14,-43.51,-27.42,-17.63,-88.062,-59.697,-37.735,-26.726,-17.875,-89.782,-59.177,-42.968,-29.276,-16.781,-87.897,-58.808,-39.848,-26.347,-16.2,-81.499,-57.876,-37.505,-24.656,-13.5,-77.285,-54.598,-34.201,-21.502,-11.794],[-92.406,-69.191,-50.607,-34.519,-24.35,-93.432,-67.661,-49.663,-36.681,-25.097,-92.207,-65.266,-49.352,-34.513,-26.35,-88.865,-66.281,-48.884,-36.717,-25.294,-86.06,-68.048,-49.638,-34.369,-22.392,-82.937,-67.036,-47.579,-34.62,-22.403]],
"ve": [[12.955,10.368,-92.179,49.885,175.961,17.257,188.236,-8.858,-24.154,112.083,9.046,37.028,28.188,44.767,-23.101,30.78,20.141,66.909,-495.394,24.558,60.635,32.889,39.143,97.007,85.578,89.964,54.111,20.026,-13.575,-7.085],[-19.399,-2.848,1.046,5.377,6.691,-11.442,-2.941,2.513,4.647,5.765,-8.212,-0.181,0.885,4.127,7.901,-19.553,4.245,6.85,7.343,8.013,22.093,15.478,11.133,10.299,11.766,36.954,27.555,20.659,20.797,16.931],[-26.32,-12.793,-3.605,-0.995,0.588,-27.72,-9.824,-3.53,-1.948,0.63,-29.909,-7.908,-3.185,-2.101,1.551,-27.545,-0.775,-0.029,3.122,3.43,-6.365,4.859,3.956,5.719,6.603,24.84,21.005,16.485,11.671,11.773],[-41.165,-15.675,-10.101,-5.003,-2.927,-16.599,-15.91,-9.706,-4.426,-2.793,-49.998,-16.29,-7.121,-4.989,-2.41,-29.928,-9.296,-6.994,-1.85,-0.159,1.697,-6.14,-1.155,1.312,3.459,30.385,11.854,9.382,11.126,9.583],[-32.828,-26.683,-16.159,-10.694,-5.884,-45.171,-25.388,-14.181,-9.617,-6.156,-50.62,-24.693,-14.593,-9.665,-5.884,-25.545,-16.731,-9.377,-7.219,-4.341,5.292,-10.192,-5.003,-2.994,-0.422,23.142,8.125,6.255,3.204,4.994],[-64.189,-29.399,-18.903,-13.555,-8.477,-53.041,-29.64,-19.652,-13.228,-7.889,-50.019,-26.645,-17.205,-12.341,-9.199,-37.075,-21.021,-17.182,-11.231,-6.03,-11.731,-14.981,-11.623,-6.673,-3.402,8.825,-2.711,-0.796,-2.302,0.436]],
"kep": [[-28.244,-25.174,-29.906,-30.106,-36.644,-26.377,-33.848,-26.844,-32.698,-43.088,-27.171,-29.19,-31.692,-37.987,-30.424,-20.634,-20.592,-20.158,-26.681,-36.525,-26.294,-16.586,-18.936,-7.74,-9.857,-24.14,-7.289,4.12,-1.065,18.199],[-57.803,-32.763,-28.554,-26.983,-26.786,-53.622,-30.052,-29.688,-27.074,-24.028,-52.03,-33.683,-27.092,-26.589,-27.016,-57.258,-34.756,-29.482,-26.697,-24.52,-55.246,-31.726,-27.557,-21.469,-23.624,-61.011,-36.926,-24.083,-20.905,-22.147],[-74.596,-47.72,-34.902,-30.097,-29.125,-75.021,-43.98,-35.374,-29.701,-27.238,-75.248,-45.729,-36.735,-30.957,-28.495,-73.447,-48.344,-37,-29.565,-29.225,-72.629,-47.602,-37.455,-34.18,-28.086,-76.861,-49.357,-36.605,-30.812,-26.254],[-84.18,-52.496,-41.435,-37.146,-31.353,-82.638,-52.344,-43.143,-35.648,-32.044,-84.716,-54.332,-42.644,-37.103,-33.165,-83.996,-54.749,-44.406,-36.873,-33.052,-82.576,-61.291,-45.957,-37.436,-33.243,-83.8,-61.266,-47.241,-38.03,-32.183],[-90.201,-64.855,-52.41,-42.51,-37.815,-89.142,-63.294,-49.008,-42.592,-37.938,-90.011,-63.914,-52.869,-44.49,-37.186,-90.12,-66.291,-53.456,-43.746,-37.706,-87.227,-68.332,-53.811,-44.988,-38.385,-88.406,-71.296,-56.788,-46.297,-40.528],[-92.382,-69.857,-57.137,-46.581,-41.379,-93.198,-68.634,-56.545,-48.496,-42.339,-92.06,-68.054,-57.451,-47.274,-42.494,-90.089,-70.684,-56.807,-49.778,-43.554,-90.647,-74.295,-60.093,-50.324,-43.219,-90.759,-77.429,-63.015,-52.947,-45.338]],
"vp": [[-101.945,-68.145,-463.859,-577.605,-578.386,50.933,-32.955,-96.893,-127.132,-100.521,-14.559,11.762,-30.792,-69.799,-62.45,-8.664,-8.785,-13.819,-12.342,1.952,-9.969,-6.333,-1.854,-11.294,-6.759,-4.112,-7.412,-10.06,-0.48,-9.262],[2807.617,624.179,-9.921,-819.45,-513.708,458.578,84.797,22.061,-109.788,-221.574,188.664,60.837,6.642,-33.481,-83.889,37.873,16.622,-2.867,-5.582,-18.417,8.449,-6.637,-3.177,-12.243,-10.65,9.759,1.079,-5.651,-13.267,-0.715],[4223.881,3401.592,959.317,191.473,-277.109,865.338,420.194,235.399,94.002,-50.124,463.942,220.011,130.73,76.602,-21.581,81.154,34.739,23.592,-3.59,0.782,35.838,14.858,16.152,13.315,-4.381,15.667,2.665,-1.023,2.322,-5.169],[6101.355,3749.832,3019.13,1971.879,815.226,1067.503,710.055,647.744,290.527,231.51,595.977,427.577,230.748,211.591,123.954,105.559,71.569,73.29,37.743,24.178,48.509,47.821,34.493,17.648,6.109,20.644,16.791,13.445,2.253,-1.2],[7503.577,6772.286,5785.669,4118.318,2782.702,1286.654,1300.308,974.633,803.622,624.52,703.366,719.194,560.78,430.734,309.64,134.227,117.853,91.91,87.98,60.358,59.052,58.618,49.465,36.777,24.926,25.634,25.209,19.38,23.272,15.99],[7330.958,7959.381,6557.914,5877.53,3849.484,1615.537,1556.484,1383.856,1220.091,814.671,755.15,751.391,648.34,571.246,500.832,137.523,144.796,157.617,130.683,86.586,60.308,75.078,71.78,60.443,39.769,34.557,38.798,35.591,37.816,26.61]]
}