{
"KTrans": [[-17.453,24.475,43.508,34.598,28.113,10.613,24.888,29.763,45.261,27.055,-2.428,48.555,60.797,44.516,34.713,84.198,130.911,149.097,130.955,114.075,315.032,290.286,274.868,201.243,218.183,527.659,735.76,538.636,495.79,475.203],[-88.168,37.692,65.43,59.938,43.534,-90.532,47.078,53.492,59.685,48.135,-80.306,28.411,80.386,46.806,49.387,-77.57,94.832,99.966,111.499,85.548,-52.377,146.082,205.65,139.223,150.364,32.25,348.447,376.163,287.224,234.76],[-102.308,-26.275,59.667,71.444,73.348,-104.905,-35.419,73.143,66.39,66.745,-102.047,-43.569,54.59,107.704,65.257,-103.393,-38.559,99.294,104.949,93.379,-91.567,-30.598,158.352,169.373,148.556,-128.534,142.856,323.961,284.825,257.805],[-106.606,-87.58,-1.714,86.328,127.46,-101.048,-81.745,49.006,83.214,92.36,-99.575,-114.534,49.628,94.845,97.855,-106.317,-101.94,54.594,123.661,135.116,-89.98,-123.049,-13.239,229.341,190.204,-64.191,-42.952,203.383,313.098,271.346],[-105.682,-114.342,-76.835,58.163,128.017,-105.863,-120.169,-52.469,46.414,140.528,-105.451,-115,-47.185,25.062,124.404,-107.502,-138.109,-77.151,46.306,146.898,-121.362,-111.082,-70.696,147.163,191.505,-113.545,-127.744,-69.007,199.14,359.556],[-105.297,-129.549,-106.747,-13.871,79.725,-104.931,-124.119,-89.071,-9.548,73.729,-104.929,-129.342,-110.993,14.83,94.873,-117.33,-135.477,-110.944,-8.221,114.458,-110.237,-142.917,-83.01,-14.927,186.049,-111.883,-161.882,-93.192,-7.901,265.387]],
"ve": [[-4.946,-54.227,-5.994,32.485,0.928,2.462,15.194,507.003,581.219,-52.699,84.301,4.567,8.743,-202.859,-54.537,55.704,55.523,15.696,1.913,-5.6,104.17,42.448,17.737,-10.115,-16.265,199.776,80.83,40.473,14.583,-3.382],[9.096,7.006,6.315,4.002,4.552,-36.007,-23.034,9,4.018,4.53,25.3,13.114,7.432,1.764,4.776,54.789,31.195,19.856,13.867,9.181,112.175,54.078,32.627,21.746,17.02,240.184,92.259,65.651,42.454,33.216],[5.798,2.109,6.032,4.078,2.996,28.914,7.926,4.257,2.974,4.095,39.908,35.395,278.053,5.889,3.942,60.667,31.708,17.748,15.115,11.438,105.489,47.621,69.554,22.239,20.763,188.246,102.8,71.597,47.885,39.674],[17.097,5.493,6.122,3.359,5.297,-0.934,8.859,6.739,5.79,4.36,6.756,7.249,17.112,7.011,4.31,45.203,29.676,21.729,13.389,12.537,109.713,41.687,31.713,27.557,24.742,206.925,74.857,70.618,53.294,40.242],[11.857,6.594,4.415,7.17,0.537,11.047,6.968,-13.178,-0.698,4.937,-7.426,9.585,7.366,5.173,12.052,63.25,23.078,21.423,18.782,14.496,84.744,45.388,-17.782,31.335,21.816,233.669,108.254,73.592,48.82,44.816],[3.517,-0.062,4.128,6.38,2.669,16.274,5.996,-2.043,5.614,4.105,13.437,12.572,-3.643,9.451,-6.974,52.049,40.725,-0.894,17.712,12.02,109.438,53.525,38.329,33.305,25.08,204.984,101.854,70.95,51.779,40.424]],
"kep": [[-38.028,16.122,39.23,46.434,38.401,-17.566,6.706,22.827,58.393,31.084,-26.204,34.584,66.909,57.424,47.638,7.026,94.843,140.914,157.613,167.488,98.551,173.277,226.385,226.842,286.903,100.815,351.475,364.1,427.174,507.422],[-90.231,24.231,53.044,52.276,38.348,-94.87,26.524,40.242,51.521,42.823,-90.849,5.844,62.693,40.033,43.54,-86.966,42.472,64.044,81.959,67.031,-82.254,56.932,124.035,92.143,111.597,-59.006,113.83,182.08,165.301,147.761],[-104.079,-39.442,40.164,59.944,61.774,-105.263,-44.26,51.663,52.562,55.246,-103.611,-53.221,38.941,88.003,53.588,-102.802,-56.26,59.821,71.635,68.238,-95.139,-56.762,83.131,109.31,98.254,-110.16,11.926,141.656,150.238,150.648],[-107.04,-88.839,-13.072,70.712,104.063,-102.769,-84.904,29.491,65.672,76.227,-98.654,-112.283,26.895,72.193,78.839,-104.087,-98.933,15.775,87.664,97.405,-96.882,-110.621,-38.224,142.68,124.807,-89.053,-76.871,67.949,162.892,152.586],[-106.834,-113.47,-80.535,40.436,107.544,-105.565,-116.91,-61.034,27.591,116.567,-104.971,-112.701,-55.12,8.952,100.109,-103.197,-127.996,-82.552,17.112,103.186,-110.831,-106.214,-79.535,80.085,127.217,-103.504,-112.703,-83.489,89.167,210.157],[-105.105,-125.286,-104.696,-27.213,63.956,-104.555,-120.471,-91.527,-19.376,56.311,-104.574,-123.255,-110.485,-1.809,71.748,-110.464,-126.856,-109.948,-29.061,75.277,-105.463,-126.932,-88.96,-40.169,119.278,-104.836,-127.746,-95.145,-43.341,142.564]],
"vp": [[2988.271,1713.294,2217.783,2828.842,3100.529,707.834,317.616,512.711,548.018,491.475,257.476,244.371,282.383,158.417,167.75,71.502,51.541,47.5,59.577,57.27,27.001,24.115,27.684,20.309,17.562,13.975,12.544,4.605,7.836,9.91],[7454.341,9479.798,8703.089,7686.126,7345.878,1710.678,2469.341,1632.457,1692.413,1561.667,879.76,876.008,865.332,642.919,795.392,158.353,216.514,139.018,184.505,154.998,87.488,96.849,77.327,63.635,86.536,43.314,49.242,37.524,38.103,36.659],[9884.376,14411.584,16724.263,13907.432,12720.549,2095.499,2791.22,3016.977,2732.393,2340.97,964.908,1391.779,1306.52,1228.477,1268.723,188.437,326.02,275.795,238.238,222.484,86.655,138.318,138.776,123.494,116.061,55.511,71.924,83.272,55.043,65.329],[9171.829,16082.322,19416.962,20298.197,21711.878,2278.353,3651.939,4011.526,3979.232,3521.169,1052.518,1588.49,2144.506,1992.357,1937.333,211.382,326.267,395.774,355.496,372.126,109.12,157.593,177.289,224.828,182.483,48.027,91.593,87.128,100.776,94.552],[10951.93,19040.472,23875.433,28377.389,24317.646,2287.339,4076.474,4340.842,4836.79,5171.678,1006.065,1771.379,2331.117,2294.454,2434.753,223.093,398.717,470.152,592.657,471.755,120.245,185.707,237.777,266.48,232.709,54.961,96.866,127.503,112.36,142.676],[10814.504,19541.844,27552.602,31234.709,31110.032,2347.883,4125.041,4161.839,5879.912,5726.99,1128.793,1991.518,2629.389,3026.837,3066.982,226.453,416.782,578.477,608.841,589.623,102.85,217.851,265.166,323.648,291.767,54.584,98.739,130.056,144.514,149.78]]
}