{
"KTrans": [[-40.899,-72.494,-73.891,-72.983,-77.694,-34.684,-71.955,-65.661,-63.488,-66.252,-21.146,-59.693,-55.041,-45.436,-50.21,50.238,10.125,-1.152,-3.645,-2.085,134.748,59.487,49.709,32.527,45.99,269.037,141.46,118.438,125.867,120.192],[-55.205,-39.948,-33.016,-61.433,-59.422,-50.316,-34.474,-42.135,-61.944,-60.327,-52.559,-30.738,-26.917,-50.03,-44.022,-29,-4.284,15.84,-7.052,-20.221,5.398,20.653,37.215,5.112,-6.175,67.543,78.321,69.8,22.322,31.01],[-70.091,-53.621,-42.243,-38.854,-46.118,-68.08,-45.79,-38.99,-42.658,-37.966,-63.621,-38.675,-42.724,-35.36,-32.691,-58.065,-29.864,-13.306,1.664,8.548,-39.967,-8.53,-1.218,14.151,21.016,4.349,28.705,41.503,44.582,49.058],[-76.541,-49.194,-48.302,-45.196,-49.966,-76.555,-48.49,-41.085,-41.543,-34.03,-75.091,-48.606,-38.215,-41.459,-37.641,-67.979,-34.899,-18.948,-14.146,-6.865,-55.604,-31.797,-17.222,-8.337,-2.195,-27.107,0.657,13.322,17.821,22.158],[-81.986,-57.71,-46.138,-44.527,-48.482,-80.868,-51.73,-45.723,-42.538,-47.356,-81.377,-57.191,-36.163,-39.804,-40.542,-73.52,-45.063,-29.685,-20.636,-17.971,-67.357,-40.856,-19.409,-11.669,3.551,-42.503,-20.951,-11.777,4.2,5.371],[-86.379,-61.011,-50.934,-45.941,-46.76,-86.586,-66.113,-44.482,-40.593,-44.794,-84.746,-63.409,-47.872,-44.177,-37.57,-79.817,-57.306,-31.39,-19.231,-9.915,-73.916,-51.028,-26.554,-21.132,-9.906,-53.957,-24.089,-20.946,-8.831,2.332]],
"ve": [[-64.021,-3.567,-633.817,-76.357,-185.171,-32.87,47.711,-19.631,-64.687,-7.516,-23.802,-45.248,118.727,253.248,-40.237,24.955,-73.355,0.208,83.624,-213.586,115.94,30.707,-9.347,-15.459,-38.022,246.95,48.899,-26.397,9.275,-15.186],[-34.355,-48.574,-32.894,-47.118,-85.318,-68.252,-40.498,-40.286,-41.914,-29.056,-28.926,-42.011,-23.131,-39.275,-11.166,42.585,-1.737,24.326,-14.041,-11.274,-126.425,39.841,38.1,0.505,-27.45,297.839,95.437,63.859,13.972,-8.434],[-14.882,-85.95,-60.604,-40.611,-45.072,-33.007,-76.377,-59.217,-50.217,-33.659,-11.696,-49.134,-67.05,-41.715,-33.481,76.718,-49.928,-10.923,-398.273,8.101,89.702,8.41,12.204,43.597,31.234,233.678,42.988,63.232,52.711,50.702],[0.532,-50.566,-89.744,-74.502,-69.024,20.015,-52.636,-82.285,-58.839,-41.76,-27.264,-51.934,-70.57,-74.395,-54.328,37.288,-27.978,-31.434,-27.846,-9.324,105.663,-35.669,-26.832,-16.812,-6.908,263.187,67.739,11.15,15.065,21.887],[-10.435,-51.135,-100.71,-89.23,-85.098,18.241,-42.446,-92.771,-85.918,-87.706,86.428,-54.052,-65.467,-80.988,-72.591,3443.825,-44.983,-48.033,-37.157,-32.72,194.939,12.565,-23.07,-27.319,-1.452,248.437,50.849,1.732,4.186,2.488],[20.983,-44.084,-108.612,-102.73,-97.067,0.12,-61.155,-79.452,-89.289,-94.029,18.135,-44.431,-86.047,-98.137,-75.82,59.899,5536.955,-43.619,-29.552,-23.132,88.507,-29.022,-25.987,-40.399,-24.471,449.592,89.51,-18.996,-23.385,-10.116]],
"kep": [[-125.503,-25.881,-23.443,-6.339,-19.61,-131.363,-19.355,-0.429,4.659,26.504,-128.468,-55.062,-35.224,-5.998,6.418,-113.003,-43.222,-35.153,-10.419,-25.906,-114.719,-75.429,-58.907,-8.745,-29.85,-72.913,-98.309,-70.92,-67.456,-56.514],[-82.238,-64.714,-135.606,-21.363,-11.584,-77.7,-64.661,-124.25,-32.656,-1.436,-74.845,-48.023,-131.857,-38.915,-3.812,-80.427,-62.851,-137.088,-53.355,-9.668,-66.465,-55.976,-104.63,-52.912,-23.809,-74.2,-51.161,-64.909,-65.973,-67.133],[-87.847,-34.435,-22.548,-63.741,-126.654,-81.237,-31.294,-26.358,-53.148,-115.609,-83.886,-37.236,-14.14,-50.124,-128.287,-84.174,-30.131,-19.522,-51.523,-121.112,-82.207,-32.341,-25.559,-62.562,-107.704,-75.574,-32.622,-42.358,-53.122,-106.713],[-93.5,-41.255,-17.988,-11.716,-10.804,-95.527,-38.833,-13.75,-12.802,-17.608,-91.578,-43.06,-13.709,-6.328,-14.026,-88.86,-38.612,-11.512,-11.143,-19.743,-87.647,-38.988,-19.62,-9.641,-32.896,-88.918,-49.432,-15.287,-8.788,-29.825],[-91.655,-51.758,-13.728,-8.958,-5.856,-94.858,-49.364,-20.407,-10.873,0.269,-96.871,-53.084,-16.878,-8.672,-5.416,-97.092,-48.1,-18.655,-10.463,-5.085,-93.443,-53.385,-19.292,-0.264,-2.24,-89.516,-55,-28.44,-8.374,-12.692],[-99.883,-59.972,-23.76,-9.299,-5.94,-97.762,-59.044,-23.89,-9.729,-2.316,-96.616,-59.128,-27.659,-14.578,-6.301,-94.955,-61.042,-24.61,-11.415,0.416,-93.039,-55.521,-28.729,-12.42,-3.199,-89.358,-64.489,-33.375,-12.509,-11.146]],
"vp": [[103.211,156.485,79.248,203.243,-157.215,26.103,-64.627,69.859,26.524,2.317,0.553,0.074,-10.094,18.154,39.699,-6.22,-2.896,3.761,3.175,-8.6,-11.934,-4.579,-3.462,0.1,-6.918,-9.956,-1.422,0.843,-3.533,-0.755],[3003.219,813.712,432.748,265.891,-205.836,542.807,136.125,-8.581,-69.031,-44.024,186.711,60.664,19.697,-31.34,42.903,35.788,8.63,-7.806,-7.932,2.868,0.733,3.606,-2.079,-6.033,7.979,-0.555,0.432,-5.654,5.081,-4.669],[4546.964,1518.481,691.976,967.74,198.375,797.056,294.359,189.41,126.674,78.639,422.684,177.931,43.247,22.974,-30.318,75.228,21.872,10.742,5.577,1.501,36.722,15.053,10.283,8.453,-8.936,8.221,-2.072,-5.61,-8.764,-5.931],[5834.142,3552.585,1665.947,851.436,159.164,1180.684,770.911,137.342,125.896,90.812,564.278,363.679,130.208,30.295,31,101.683,58.911,22.092,23.149,14.138,49.661,23.757,18.066,10.318,7.409,25.123,7.539,-9.902,-3.545,-2.976],[5971.021,5322.922,1937.398,1134.845,719.215,1305.896,917.319,441.904,162.088,87.312,677.191,514.608,242.187,134.163,43.562,126.736,77.686,48.766,9.664,3.66,50.578,45.98,16.457,11.764,-11.503,16.591,15.366,11.982,-4.811,-1.774],[7543.353,6542.836,2862.841,1687.526,857.178,1525.036,1292.281,739.635,372.128,139.211,690.587,702.191,390.758,162.253,104.124,139.884,136.595,56.665,45.024,8.949,56.711,48.195,34.204,12.895,-4.441,16.471,16.199,15.974,-2.189,4.83]]
}