{
"KTrans": [[14,16.957,14.438,12.568,11.094,26.612,16.435,10.668,12.304,14.941,21.698,18.412,17.503,17.688,15.003,25.028,34.8,39.69,26.557,27.227,58.599,47.382,44.717,62.513,49.207,-11.335,90.785,112.003,70.532,104.926],[-40.322,1.884,-1.036,4.695,6.2,-37.788,-5.417,2.727,4.635,5.692,-34.144,-2.092,4.792,8.702,6.136,-25.116,-1.541,5.648,13.133,12.236,-37.362,0.002,11.189,18.467,20.252,-2.048,-2.242,43.635,33.027,36.207],[-73.217,-16.947,-10.383,-5.629,1.471,-72.362,-21.383,-12.841,-3.016,-1.146,-64.856,-21.332,-6.987,-3.97,1.45,-60.082,-16.02,-3.96,0.854,5.964,-54.272,-6.159,-3.53,7.029,11.608,-91.431,-11.106,19.78,20.167,30.316],[-85.464,-37.553,-24.76,-12.298,-8.053,-83.686,-40.641,-22.008,-12.126,-7.127,-81.379,-35.503,-23.628,-12.045,-6.658,-77.922,-38.772,-22.896,-11.465,-4.178,-77.656,-31.071,-17.776,-6.416,2.517,-80.096,-51.392,-6.296,0.581,6.661],[-88.079,-53.725,-34.853,-22.329,-14.248,-89.94,-49.692,-34.349,-21.753,-14.431,-84.784,-54.557,-36.565,-26.424,-16.105,-83.056,-51.97,-37.692,-20.767,-12.232,-74.716,-53.133,-28.434,-22.049,-8.069,-77.617,-70.967,-28.378,-10.174,4.977],[-89.094,-71.258,-40.102,-26.384,-20.549,-90.152,-67.767,-45.585,-34.147,-21.147,-88.1,-65.116,-38.15,-28.839,-22.284,-86.372,-60.777,-40.467,-30.833,-23.249,-92.852,-59.555,-43.327,-28.986,-15.545,-75.761,-73.442,-48.354,-25.785,-6.521]],
"ve": [[-12.018,26.115,18.818,32.788,-31.785,35.131,22.819,39.186,35.147,73.011,10.091,8.997,-27.617,38.347,786.637,5.747,8.223,12.366,14.349,-187.58,36.906,14.274,-0.653,-13.138,-22.221,55.818,38.928,1.083,2.402,-24.115],[-17.691,-1.302,1.913,2.512,3.977,-12.028,-0.623,1.495,4.094,4.58,-7.753,-0.494,1.994,3.436,4.433,3.037,9.006,5.672,7.807,6.788,17.528,5.128,-214.743,14.651,-10.381,56.446,38.309,22.184,3.013,1.941],[-31.128,-5.198,-2.649,-2.666,0.761,-55.775,-8.624,-3.666,-0.472,0.238,-27.193,-4.88,-1.975,-0.624,1.63,-27.374,-2.218,3.51,2.254,2.421,15.615,10.107,13.472,7.012,7.148,66.317,27.797,21.248,11.182,14.198],[-45.322,-15.326,-9.436,-4.684,-1.904,-43.245,-15.662,-6.579,-4.121,-2.161,-54.299,-13.734,-7.237,-3.915,-2.055,-18.033,-14.571,-5.689,-2.544,-0.004,1.299,1.282,1.958,2.193,4.796,48.98,0.065,14.237,6.725,1.446],[-46.167,-22.832,-12.735,-8.962,-4.473,4.497,-24.226,-12.275,-7.259,-4.692,-51.304,-24.337,-14.253,-8.898,-5.173,-34.151,-20.629,-10.774,-4.358,-1.818,0.249,-1.899,-4.097,-8.784,3.11,27.203,-7.244,13.002,7.422,11.396],[-44.456,-34.452,-16.851,-10.203,-8.047,-46.459,-32.062,-15.335,-12.595,-7.542,-72.113,-31.69,-14.481,-10.539,-7.827,-28.137,-25.663,-13.275,-8.657,-6.966,-27.367,-15.626,-7.984,-41.633,-0.816,53.376,-3.757,5.587,1.438,6.407]],
"kep": [[-15.196,-13.584,-15.096,-18.715,-31.906,-9.299,-14.212,-23.286,-24.323,-21.427,-11.432,-13.324,-15.199,-16.72,-25.433,-35.95,-10.094,1.158,-12.023,-12.148,-19.542,-34.635,-24.264,14.26,-3.304,39.062,2.346,4.856,-46.852,17.144],[-49.458,-18.752,-22.996,-18.731,-18.622,-45.703,-24.914,-19.536,-19.795,-19.47,-46.152,-22.641,-18.598,-16.597,-18.979,-53.847,-28.752,-21.673,-16.377,-16.43,-55.1,-38.553,-26.663,-18.631,-15.649,-43.498,-38.985,-30.838,-28.195,-20.257],[-73.005,-31.619,-27.55,-23.195,-20.21,-75.158,-33.929,-28.855,-22.857,-21.848,-70.951,-35.603,-25.115,-23.627,-20.81,-71.894,-35.901,-27.725,-22.59,-18.509,-72.539,-44.376,-31.707,-22.667,-19.216,-74.064,-40.346,-33.411,-28.411,-16.644],[-84.66,-43.21,-34.846,-27.517,-25.822,-85.533,-46.848,-34.505,-27.624,-24.879,-82.28,-42.632,-35.68,-27.771,-24.623,-82.531,-52.979,-36.813,-28.718,-24.511,-77.043,-54.732,-40.552,-29.972,-24.138,-78.9,-55.423,-38.91,-40.739,-31.433],[-87.918,-55.133,-41.93,-32.654,-29.053,-90.517,-52.196,-41.883,-33.547,-29.087,-87.704,-57,-42.656,-36.45,-30.123,-85.813,-63.48,-47.08,-35.077,-29.646,-82.907,-67.371,-46.295,-38.787,-30.688,-82.345,-62.506,-56.704,-44.969,-30.829],[-88.909,-68.362,-43.986,-35.918,-31.872,-90.303,-68.193,-50.291,-40.945,-32.688,-89.367,-64.983,-44.631,-37.666,-33.499,-89.549,-67.495,-48.099,-41.319,-35.418,-87.472,-71.21,-57.107,-44.283,-33.668,-84.32,-69.464,-58.984,-54.7,-36.672]],
"vp": [[-223.8,-751.562,-218.112,-328.479,-327.81,-100.184,-41.359,-110.115,-127.239,-88.741,-34.236,-49.869,-61.715,-93.002,-40.263,-4.095,-25.152,-40.15,-19.199,-28.959,-23.236,-3.135,-6.736,-37.22,-13.4,-18.399,-28.068,-30.435,-11.662,-31.22],[2585.939,193.798,214.738,-198.456,-276.129,362.966,65.449,-7.341,-16.466,-95.215,145.305,58.808,-7.285,-75.223,-29.014,5.456,11.211,-8.902,-19.01,-13.709,3.389,14.233,5.817,-14.723,-21.126,-10.806,-23.705,-22.43,-4.388,-9.407],[5039.916,1140.708,912.376,963.03,-126.732,984.779,416.342,285.099,110.727,45.459,392.582,147.937,84.015,39.132,-17.456,62.26,33.335,-14.352,5.993,-7.917,2.313,-6.92,5.199,-13.285,-14.849,-18.448,-18.434,-22.307,-12.321,-36.693],[5804.191,3492.967,3038.923,1760.428,861.847,1217.142,746.114,461.384,319.927,209.861,562.183,343.349,247.593,152.432,94.395,83.276,99.419,55.614,38.434,8.779,34.616,17.919,17.865,6.141,-6.608,-9.182,26.916,-14.185,5.645,6.303],[6966.747,5373.066,4091.064,3757.853,2149.669,1313.535,1244.77,896.676,615.159,494.039,598.931,636.202,514.053,414.528,251.364,91.634,112.965,97,48.415,34.381,21.422,30.663,33.855,49.106,-6.797,6.534,31.436,-5.367,-0.288,-25.971],[6158.266,8586.23,5699.612,4326.761,4006.541,1272.333,1599.463,1070.577,1146.499,735.29,521.535,852.857,520.225,484.085,406.889,83.606,114.911,115.937,102.04,90.984,61.241,58.836,48.223,47.254,15.921,-9.46,31.848,13.132,18.292,-4.939]]
}