{
"KTrans": [[-59.185,-61.654,-63.769,-60.323,-62.335,-30.811,-59.587,-58.097,-49.612,-41.391,-19.165,-39.671,-46.07,-36.01,-39.741,44.063,-10.897,6.463,4.219,7.853,47.984,55.471,28.226,36.593,40.259,104.901,146.344,119.887,179.853,116.779],[-53.908,-49.501,-44.589,-63.473,-49.424,-48.111,-38.029,-37.148,-43.125,-45.011,-41.73,-35.029,-17.963,-38.778,-33.713,-11.012,-2.53,-2.872,-13.77,-11.591,29.437,22.733,-5.834,-2.442,-1.405,52.471,84.629,33.771,14.448,22.502],[-62.149,-45.132,-45.922,-52.719,-48.61,-59.041,-42.464,-39.217,-36.88,-35.145,-57.352,-36.228,-28.55,-23.312,-24.296,-36.97,-29.384,-17.226,-1.067,-4.901,-13.138,15.339,12.398,7.55,7.101,-3.977,75.982,48.359,-16.79,-4.765],[-72.31,-36.508,-41.355,-43.815,-39.079,-74.481,-29.526,-37.644,-42.738,-33.57,-71.836,-40.202,-43.549,-32.143,-36.474,-55.157,-30.342,-24.507,-20.219,-22.749,-31.258,-11.622,-14.495,-10.822,-5.562,-23.782,20.889,51.824,32.724,35.189],[-74.896,-47.763,-45.16,-45.137,-47.034,-77.404,-44.261,-35.627,-42.494,-46.638,-76.123,-40.749,-32.924,-35.52,-33.359,-60.843,-33.671,-30.527,-25.6,-17.1,-52.172,-17.565,-6.296,-18.352,-12.726,-31.001,3.185,18.885,33.409,28.898],[-83.223,-50.193,-34.712,-43.837,-44.951,-83.796,-46.803,-41.727,-37.541,-32.693,-80.967,-50.319,-39.955,-36.857,-35.437,-70.217,-45.33,-30.968,-27.797,-22.903,-65.409,-26.946,-14.515,-20.444,-12.873,-51.135,-7.272,19.235,17.716,17.458]],
"ve": [[-64.936,-39.888,-42.702,-42.697,-16.02,-28.962,-9.153,-30.771,-36.887,-77.332,-13.331,-21.394,-3.219,18.371,-7.856,54.196,-3.11,-26.406,4.755,-6.497,54.435,6.966,-6.111,-5.114,-119.454,96.551,114.291,40.319,-7.426,-73.871],[-86.796,-81.735,-47.222,-46.396,-25.674,-76.858,-55.556,-35.298,-20.994,-22.357,-66.346,-54.357,-20.025,-33.616,-16.349,5.772,-8.417,-3.51,-1.301,-20.154,110.452,30.166,2.079,-25.423,227.783,243.971,58.146,57.645,23.971,-18.536],[-44.22,-98.229,-76.799,-66.317,-48.816,-57.576,-93.144,-67.087,-44.99,-34.321,-108.41,-78.874,-49.908,93.548,-19.251,1.294,-60.388,-22.753,-0.822,-2.666,96.859,25.59,12.62,3.728,9.062,311.778,216.641,63.797,28.562,16.733],[-54.017,-75.245,-86.73,-74.799,-54.616,-65.282,-59.139,-76.762,-76.845,-47.053,-68.019,-114.664,-101.439,-54.112,-52.757,34.573,-68.992,-52.172,45.083,-36.312,208.423,-8.721,-35.209,-28.024,-12.359,175.902,22.389,125.648,63.209,71.342],[-31.253,-104.835,-116.308,-97.223,-84.093,-41.362,-101.804,-84.001,-92.622,-82.785,-24.126,-111.755,-92.215,-70.511,-54.576,91.038,-65.822,-85.923,-54.884,-31.924,150.154,44.567,-49.136,-57.818,-21.912,279.426,29.465,20.806,64.66,45.371],[-23.268,-101.153,-96.316,-111.191,-95.13,-11.891,-74.391,-121.491,-92.572,-63.779,-51.444,-96.862,-121.08,-89.065,-75,67.719,-90.653,-86.273,-70.083,-45.18,159.821,4.67,-70.305,-50.205,-39.794,241.837,188.112,37.404,-1.536,18.242]],
"kep": [[-108.099,10.262,-3.935,5.894,-3.822,-88.548,-6.522,5.083,-9.826,1.382,-109.089,-1.671,-5.644,-0.266,-11.356,-71.865,-6.671,-45.394,-17.514,-16.799,-11.967,-114.666,-43.702,-32.859,-17.545,60.959,-150.625,-130.525,-184.202,-110.021],[-40.347,-10.387,-114.565,-3.51,2.11,-33.132,-11.768,-111.26,0.573,-0.348,-29.651,-10.666,-111.66,-13.53,6.216,-41.607,-26.591,-79.478,-27.578,-8.143,-44.82,-6.178,-9.008,-57.287,-27.399,-42.304,23.837,-0.306,-118.785,-73.829],[-59.636,-5.689,-0.697,-11.898,-111.263,-56.836,-8.91,-0.471,-6.386,-137.949,-53.795,-6.708,2.696,-17.287,-132.303,-56.167,-19.621,-10.914,-30.7,-107.008,-64.005,-27.231,-25.28,-12.802,-32.834,-74.765,-50.106,-2.156,-5.771,-6.737],[-68.392,-15.544,-4.968,-2.437,-1.493,-70.909,-11.741,-6.905,-1.128,-4.38,-68.103,-7.602,-1.88,-1.681,-2.173,-72.511,-20.278,-7.054,-0.695,2.487,-78.172,-38.689,-17.583,-5.912,-19.562,-64.055,-23.849,-36.607,-39.749,-31.683],[-77.383,-23.76,-8.651,-3.862,-0.049,-76.873,-21.119,-8.329,-1.878,-3.447,-77.632,-15.705,-2.38,-5.536,-7.356,-80.827,-27.029,-2.557,-4.271,-1.783,-81.142,-58.191,-7.141,-3.173,-12.22,-78.49,-39.719,-24.03,-41.19,-35.225],[-84.152,-27.988,-7.192,-4.158,-2.875,-87.525,-30.536,-8.586,-4.122,-5.272,-84.571,-30.253,-7.681,-4.752,-3.104,-84.235,-39.778,-10.6,-1.769,-3.537,-84.433,-49.37,-11.015,-10.226,2.236,-81.84,-65.734,-30.158,-11.567,-18.55]],
"vp": [[-96.779,175.226,4.454,29.123,61.903,-5.287,-18.975,6.727,-19.584,-12.565,-23.595,-3.821,-11.702,-9.258,-3.21,-7.686,-1.952,-10.618,0.302,13.627,-10.153,-2.119,13.145,7.904,7.369,-33.194,-7.826,1.891,-14.625,9.829],[1365.273,68.097,-13.459,-231.422,137.222,283.224,47.335,-1.022,29.08,-1.16,110.472,7.988,0.483,-12.552,-21.649,1.672,-16.542,-12.703,-12.235,-10.18,-1.897,-19.618,-7.706,7.78,7.109,-7.463,-43.006,-30.75,17.727,-3.387],[3335.493,626.566,295.929,17.363,33.685,628.433,109.148,5.368,20.82,-2.4,248.998,62.395,9.261,31.641,2.191,41.799,29.289,2.598,0.422,-4.066,11.001,-3.622,-8.504,-21.556,-29.897,17.149,-15.06,-46.619,-11.698,-8.027],[4380.899,1497.272,719.602,305.812,266.648,932.712,296.749,116.057,-1.618,61.988,417.704,103.703,0.382,41.208,-19.416,63.043,36.088,7.511,-4.549,-18.548,14.123,9.785,1.149,-26.065,-0.514,-2.989,-16.439,-7.235,-25.519,-17.005],[4986.029,2564.834,836.385,499.382,297.374,975.92,512.693,260.877,19.697,-26.045,538.552,160.199,60.043,63.611,58.988,91.629,60.814,17.652,4.407,3.462,16.903,25.398,-18.182,-18.246,7.537,-3.208,-23.617,-10.749,-8.965,-7.956],[5757.754,3329.731,1596.448,733.453,128.335,1307.828,809.696,296.282,215.214,194.599,557.54,339.316,83.941,69.07,18.087,115.444,66.884,46.056,26.738,23.959,30.079,34.01,-8.01,20.025,2.74,10.325,-10.34,-17.373,-27.82,-13.758]]
}