{
"KTrans": [[-19.301,-7.9,-5.268,-1.8,-0.969,-21.399,-2.345,-5.971,-4.518,-7.078,-17.304,-6.356,-4.74,-4.798,-2.147,-6.133,-6.876,-7.008,2.065,-5.509,-15.445,-5.002,-5.263,-3.492,-5.81,-19.272,-9.725,1.477,-4.438,-2.059],[-66.414,-11.933,-10.139,-7.553,-5.942,-65.856,-23.903,-11.231,-7.565,-8.892,-60.568,-26.533,-16.324,-11.008,-5.452,-60.159,-24.521,-7.329,-3.206,-9.892,-63.228,-16.357,-11.784,-6.693,-8.34,-68.678,-24.408,-14.054,-3.959,-9.771],[-82.932,-47.987,-18.055,-11.212,-9.863,-84.139,-33.828,-13.777,-12.612,-16.545,-79.608,-36.224,-10.627,-15.143,-8.753,-80.42,-37.677,-11.072,-16.349,-14.001,-76.082,-37.107,-15.14,-13.401,-9.831,-79.763,-37.269,-16.089,-13.555,-8.686],[-86.536,-48.782,-13.987,-12.215,-16.715,-90.138,-57.692,-28.247,-13.942,-11.346,-89.019,-55.053,-26.061,-13.784,-12.319,-86.13,-53.752,-19.361,-8.578,-11.82,-92.119,-59.396,-7.345,-11.55,-19.658,-84.811,-54.409,-26.61,-9.569,-14.857],[-94.717,-71.877,-43.551,-15.785,-13.583,-93.048,-58.55,-40.451,-16.441,-13.572,-92.182,-64.28,-42.911,-14.116,-11.275,-93.181,-72.641,-40.042,-17.299,-16.873,-88.766,-69.349,-34.79,-6.246,-11.464,-92.052,-65.92,-41.522,-23.408,-14.257],[-94.998,-80.032,-60.851,-24.209,-13.858,-96.365,-76.699,-58.694,-24.361,-9.97,-97.675,-74.224,-41.536,-23.309,-5.727,-95.748,-73.228,-49.672,-14.589,-5.469,-95.457,-76.546,-51.993,-39.222,-11.308,-97.612,-76.781,-49.227,-32.563,-14.064]],
"ve": [[-7.993,6.302,11.235,16.922,71.754,-7.496,1.713,9.024,22.627,31.596,-6.698,0.193,8.667,25.561,29.274,-5.514,0.885,8.659,10.386,30.546,-5.897,2.918,11.411,18.193,34.177,-4.009,6.816,4.835,22.87,19.83],[-45.56,-10.779,-6.714,-4.103,-3.033,-54.88,-16.01,-8.541,-5.151,-4.397,-40.871,-18.043,-9.044,-5.807,-2.613,-38.162,-15.758,-6.781,-4.195,-3.411,-29.727,-16.072,-6.079,-5.474,-3.319,-47.249,-14.246,-7.181,-5.162,-2.689],[-67.066,-35.245,-16.621,-9.319,-8.104,-63.159,-29.814,-14.508,-10.727,-8.489,-49.62,-25.88,-14.545,-10.474,-7.761,-50.307,-32.225,-13.685,-12.397,-7.122,-53.797,-33.34,-11.04,-8.946,-9.181,-54.969,-30.323,-13.655,-10.845,-7.857],[-74.486,-40.097,-21.542,-14.647,-11.909,-77.819,-46.941,-21.95,-11.812,-11.787,-72.287,-42.232,-26.06,-14.425,-13.342,-61.76,-39.544,-23.098,-11.526,-10.558,-79.794,-50.101,-21.673,-13.338,-13.937,-72.141,-42.092,-25.975,-16.171,-11.037],[-87.092,-53.001,-35.758,-18.725,-13.544,-78.552,-41.871,-37.288,-19.729,-15.74,-79.007,-52.641,-40.378,-22.579,-15.585,-81.959,-65.169,-37.769,-20.122,-16.859,-30.813,-55.267,-31.865,-19.236,-16.583,-76.526,-52.367,-28.021,-21.639,-16.605],[-78.431,-63.284,-42.601,-36.366,-20.508,-84.001,-64.537,-47.691,-23.816,-16.837,-90.105,-39.133,-63.745,-31.976,-18.664,-73.934,-58.332,-35.801,-24.857,-15.004,-49.943,-63.929,-47.142,-36.189,-18.624,-91.905,-62.747,-45.025,-31.143,-19.536]],
"kep": [[-14.306,-9.569,-10.069,-4.527,-5.196,-15.658,-2.198,-8.718,-7.672,-16.754,-11.18,-4.142,-5.992,-12.311,-6.373,-3.476,-5.732,-9.96,0.979,-12.991,-11.299,-5.433,-7.751,-7.001,-12.114,-16.562,-10.362,1.619,-10.093,-5.571],[-64.05,-2.873,-3.906,-3.615,-2.67,-62.935,-9.53,-3.18,-2.567,-4.469,-60.595,-10.158,-8.217,-5.218,-2.504,-57.911,-11.906,-1.036,0.979,-6.353,-60.336,-1.553,-6.533,-1.281,-4.992,-64.079,-12.495,-7.246,0.956,-7.064],[-76.971,-37.238,-1.94,-2.473,-2.103,-76.863,-22.409,0.757,-2.185,-8.759,-75.124,-29.038,2.953,-4.81,-1.23,-74.839,-32.269,1.545,-3.932,-7.516,-70.193,-32.575,-5.018,-5.133,-0.744,-76.38,-27.643,-4.575,-3.522,-1.163],[-77.834,-45.682,-3.46,0.999,-5.393,-83.983,-56.311,-14.033,-3.919,0.231,-82.368,-52.688,-8.982,0.001,1.59,-79.427,-54.516,-8.739,1.896,-1.291,-84.67,-56.416,1.768,0.417,-6.738,-77.694,-53.714,-12.493,6.249,-4.58],[-84.364,-64.457,-35.046,-4.102,-0.622,-83.079,-57.818,-39,-0.911,2.19,-84.933,-57.181,-43.016,0.473,4.068,-83.231,-64.282,-37.725,-3.13,0.16,-81.002,-63.528,-37.437,8.374,4.511,-84.824,-58.097,-39.279,-6.237,3.106],[-87.141,-67.934,-56.611,-24.907,6.803,-85.985,-62.252,-53.68,-22.33,4.233,-85.795,-64.35,-40.131,-20.98,12.904,-85.324,-64.273,-46.534,-13.394,9.318,-87.403,-64.887,-51.026,-25.683,6.661,-87.962,-66.729,-50.967,-23.285,2.243]],
"vp": [[1253.895,794.61,818.425,884.162,1093.114,288.458,171.788,196.171,147.085,201.679,101.186,138.95,91.565,94.71,96.359,20.224,26.882,24.779,22.785,18.714,10.939,7.9,8.9,9.945,11.424,6.421,5.704,4.417,4.001,3.621],[4695.02,2684.814,2501.36,2420.113,3194.878,1082.879,676.226,709.819,602.258,800.409,489.54,430.963,309.478,348.251,242.084,83.441,70.52,50.646,56.559,60.082,45.167,41.361,21.436,39.616,30.276,25.281,18.416,12.048,17.002,11.678],[7002.417,7179.541,5525.527,4360.738,5602.648,1339.339,1300.806,908.136,1035.54,994.48,600.225,492.864,506.791,479.527,454.242,122.852,131.336,96.911,109.922,78.667,54.645,69.087,32.508,38.982,64.782,32.848,33.71,21.698,23.547,25.001],[7121.562,7941.927,7101.038,6477.602,6134.02,1541.044,1887.5,1376.404,978.581,1309.35,719.185,932.46,857.769,600.692,781.709,130.561,162.681,148.384,102.595,112.049,82.845,97.887,71.199,55.032,76.294,33.336,44.078,40.586,38.071,30.523],[9162.647,11643.718,11164.413,7881.549,6847.144,1644.51,1714.112,2243.623,1660.506,1722.031,800.468,1115.459,1282.935,1006.886,906.054,163.467,233.948,242.431,171.387,184.412,69.94,110.353,92.132,82.965,97.972,38.472,49.736,63.559,44.671,45.107],[8206.173,13522.89,11909.71,16180.283,11403.58,1708.146,2568.571,2994.356,2273.996,1805.723,920.561,1091.935,1218.921,1381.719,1029.531,164.879,231.346,212.14,210.575,161.554,83.634,131.913,139.712,150.474,100.211,47.396,65.714,68.797,63.011,52.174]]
}