{
"KTrans": [[-1.213,3.199,4.246,4.7,2.913,5.207,4.851,4.405,4.341,3.15,2.906,5.282,5.348,5.536,5.485,11.711,10.654,19.669,11.15,12.154,65.651,38.351,29.531,18.485,29.602,9.478,88.929,77.677,56.308,40.717],[-18.933,-1.914,-0.247,1.71,3.556,-19.653,-4.302,-0.051,3.119,2.142,-18.568,-2.331,0.606,2.681,2.913,-7.103,0.265,1.751,4.4,1.981,-14.658,9.307,10.714,17.031,6.276,18.216,31.591,9.154,10.828,23.731],[-52.624,-13.667,-4.885,-1.089,0.527,-52.14,-12.896,-2.583,-1.56,0.548,-58.682,-14.25,-4.181,-1.708,0.274,-47.44,-11.47,-4.093,-1.194,0.278,-40.773,-8.756,4,3.618,3.85,-66.326,-44.212,10.136,19.439,17.259],[-77.613,-22.616,-11.818,-7.33,-4.223,-76.739,-25.445,-10.52,-5.541,-2.184,-75.847,-22.032,-12.231,-5.653,-1.899,-65.768,-24.395,-9.238,-2.295,-2.673,-75.006,-20.131,-10.406,-6.331,-2.37,-48.306,-19.771,-9.558,2.241,7.631],[-85.74,-36.106,-22.525,-10.985,-7.523,-87.447,-32.129,-20.884,-8.873,-6.962,-85.381,-32.46,-14.886,-12.346,-7.606,-78.725,-38.793,-15.54,-9.272,-2.587,-71.361,-35.582,-12.005,-5.034,-8.354,-85.602,-20.738,-30.808,4.746,7.731],[-90.581,-45.462,-24.464,-15.83,-9.637,-90.491,-41.159,-25.912,-16.329,-8.1,-87.156,-47.252,-27.087,-16.051,-10.306,-84.377,-47.178,-21.02,-13.588,-9.015,-86.679,-45.848,-16.796,-7.771,-2.861,-98.405,-44.353,-15.373,-14.459,-7.222]],
"ve": [[0.483,2.49,5.604,8.471,13.317,2.128,5.252,5.097,10.334,12.847,2.452,2.055,7.064,6.322,11.702,2.37,25.196,44.553,-4846.415,75.424,30.678,74.055,-7.456,-39.622,-54.288,22.969,7.809,-27.666,-24.936,-43.951],[-8.87,-0.867,0.033,0.799,1.528,-9.211,-1.237,-0.014,0.872,1.487,-7.103,-0.699,0.46,1.275,1.198,-0.964,1.759,1.41,2.367,2.15,5.751,2.7,6.353,8.015,5.409,72.067,23.801,-0.803,14.368,14.487],[-30.346,-4.469,-1.511,0.269,0.5,-33.242,-4.941,-1.142,-0.916,0.121,-38.653,-5.319,-1.627,-0.655,0.06,-21.254,-4.501,0.196,-0.242,0.188,-17.168,-4.898,5.342,2.57,2.262,-3.917,2.35,3.097,6.721,12.259],[-50.5,-9.557,-4.132,-2.215,-1.619,-48.051,-11.763,-3.601,-1.753,-1.152,-46.167,-10.053,-3.697,-2.084,-1.054,-35.056,-6.312,-1.879,0.098,-0.426,-27.893,-2.794,-3.156,-2.301,-1.176,3.842,24.232,3.901,3.373,5.833],[-57.078,-16.362,-9.041,-4.541,-2.883,-60.747,-14.607,-8.37,-3.445,-3.029,-58.715,-15.842,-5.638,-4.245,-2.569,-38.121,-19.318,-5.158,-2.804,0.051,-20.211,-10.746,-2.706,1.448,-3.974,-27.704,10.389,-3.754,7.422,7.589],[-62.666,-25.158,-10.264,-6.24,-3.647,-63.778,-23.7,-10.589,-6.404,-2.547,-63.917,-25.858,-9.83,-6.343,-3.159,-58.614,-23.625,-7.093,-3.901,-2.163,-50.215,-15.544,-3.202,0.988,2.653,-68.439,1.075,12.898,-2.585,-1.707]],
"kep": [[-9.105,-5.607,-5.953,-6.866,-10.389,-4.942,-5.885,-5.691,-7.193,-10.41,-7.681,-3.408,-6.827,-4.875,-7.151,-15.198,-8.554,6.516,-4.218,-0.632,0.062,-1.826,2.04,-15.733,13.598,36.969,-8.508,4.106,-19.82,-40.872],[-19.361,-8.555,-7.522,-6.407,-5.333,-21.255,-10.403,-7.299,-5.161,-6.602,-21.898,-9.16,-7.251,-5.949,-5.646,-34.595,-11.752,-8.089,-6.069,-7.682,-29.418,-18.348,-7.827,-0.963,-7.207,-32.856,-25.737,-33.364,-22.042,-3.596],[-46.854,-17.042,-10.564,-8.557,-7.244,-47.769,-15.831,-8.801,-7.962,-6.877,-54.75,-16.737,-9.94,-8.328,-7.094,-56.269,-17.496,-12.379,-8.943,-7.592,-50.774,-39.765,-12.342,-8.91,-7.283,-56.252,-22.531,-31.797,-12.026,-6.952],[-71.899,-22.339,-14.964,-12.205,-9.748,-71.059,-23.533,-14.225,-10.952,-8.29,-70.511,-21.157,-15.808,-10.758,-8.145,-67.852,-29.61,-15.811,-9.995,-9.792,-70.706,-41.576,-19.774,-14.55,-10.623,-66.375,-44.349,-26.779,-20.316,-12.053],[-81.638,-31.628,-21.565,-13.696,-11.775,-83.821,-28.89,-20.527,-12.708,-11.117,-83.167,-28.825,-16.956,-15.29,-12.158,-79.001,-40.074,-19.213,-14.608,-10.212,-74.355,-44.362,-22.863,-15.976,-14.117,-76.853,-43.406,-36.413,-20.623,-12.549],[-87.307,-36.365,-23.123,-17.086,-13.133,-87.404,-35.312,-24.615,-17.392,-12.715,-85.181,-40.033,-25.785,-17.232,-14.256,-82.175,-53.107,-22.524,-17.446,-14.297,-82.358,-51.75,-29.443,-17.19,-13.369,-79.919,-57.701,-39.682,-44.235,-20]],
"vp": [[249.334,-58.046,-179.423,-173.552,-121.377,-25.579,-43.773,-28.042,-19.113,6.219,-3.703,-7.472,-17.197,-17.532,-33.742,4.171,1.152,-25.919,-6.924,-10.035,-31.694,-19.068,-14.749,-2.153,-18.53,-13.348,-26.502,-22.063,-12.309,-4.938],[1021.12,141.101,4.299,-211.459,-371.608,215.132,45.411,13.277,-56.671,-34.399,94.999,28.806,2.41,-31.698,-23.701,-4.7,1.01,1.718,-6.268,5.343,-0.667,-1.644,-4.75,-24.836,-0.369,-33.788,-18.886,13.35,10.05,-14.542],[3314.305,921.158,430.214,-105.966,-205.293,715.18,190.087,36.232,72.074,-11.713,413.018,116.412,48.654,24.289,-1.102,49.322,25.907,3.782,11.771,8.7,23.327,19.039,-10.489,-2.324,-2.656,10.812,6.16,-2.557,-18.504,-16.692],[5411.384,2076.624,1167.221,911.287,683.649,1058.244,480.615,205.274,113.945,85.565,519.108,221.35,102.529,72.341,44.234,80.205,32.149,15.801,1.309,9.608,36.945,12.656,17.881,18.712,15.947,5.442,-20.032,1.787,2.251,-5.685],[6255.579,3393.356,2850.077,1789.179,1422.706,1362.352,614.81,491.384,264.902,253.875,655.766,351.039,175.463,152.283,135.734,84.866,90.025,35.073,29.529,-1.669,24.586,29.392,14.664,-1.442,29.498,24.524,-7.07,15.164,-9.578,-14.409],[6675.956,5273.613,3217.159,2512.974,1493.377,1434.781,1018.438,659.144,513.134,195.435,595.434,558.525,294.303,251.194,155.34,111.728,110.215,50.473,34.282,19.053,60.663,40.637,16.747,0.161,-14.674,46.876,6.798,-18.824,12.24,12.951]]
}