{
"KTrans": [[11.743,21.091,21.891,20.856,22.957,21.176,7.312,16.713,29.312,25.18,41.296,20.474,29.562,19.876,25.352,48.9,35.741,39.335,32.732,41.97,95.866,69.151,72.33,56.193,60.838,178.875,137.337,121.508,122.368,96.926],[-47.462,-10.213,-0.271,11.303,11.172,-43.906,-7.149,5.309,8.772,11.293,-43.343,1.32,2.061,6.933,12.168,-33.164,-4.453,9.392,13.446,18.378,-15.396,7.376,21.115,23.379,21.187,-9.327,25.756,49.331,39.645,32.608],[-73.502,-29.821,-15.994,-4.219,1.916,-72.347,-35.417,-15.999,-4.897,1.197,-76.177,-30.135,-11.531,-2.503,0.901,-68.067,-30.696,-15.617,-0.956,5.785,-60.461,-17.13,-6.613,3.368,9.247,-45.219,-11.064,16.385,13.046,19.653],[-84.519,-46.15,-32.502,-16.514,-11.69,-83.846,-49.18,-28.048,-19.625,-6.783,-82.905,-52.412,-28.419,-17.181,-8.847,-76.152,-53.522,-29.362,-16.577,-5.132,-66.595,-45.378,-27.866,-13.324,-2.643,-59.373,-42.644,-13.072,0.319,4.192],[-85.696,-57.097,-44.109,-31.195,-20.163,-87.707,-68.174,-44.928,-32.335,-18.526,-85.859,-64.01,-44.239,-28.272,-21.151,-85.483,-61.975,-43.831,-27.457,-18.459,-78.826,-60.382,-41.045,-26.269,-17.904,-66.838,-50.95,-35.833,-15.986,-6.467],[-90.877,-71.871,-52.086,-43.173,-31.779,-90.888,-73.354,-56.595,-38.165,-27.046,-91.085,-72.933,-53.535,-36.857,-30.087,-86.624,-72.226,-54.287,-39.391,-29.17,-83.332,-70.767,-50.416,-36.996,-26.142,-77.703,-65.182,-46.881,-29.256,-25.754]],
"ve": [[54.614,242.17,-619.864,-5226.981,-1931.229,-5.981,12.712,-1323.071,-131.429,-701.861,-4.316,-17.817,-28.857,41.839,-112.116,32.887,-227.727,283.499,-28.086,-13.345,47.075,0.847,70.274,-11.746,-39.922,122.43,-41.388,-51.758,-928.711,-9.013],[-11.897,0.04,3.855,5.236,12.24,-15.027,0.351,3.563,7.692,11.916,-5.057,3.646,3.265,7.581,8.799,16.988,6.307,10.038,11.705,16.149,23.489,12.518,17.079,16.486,18.756,-33.792,30.706,66.884,16.601,-15.406],[-33.124,-8.885,-4.705,-1.716,2.301,-110.465,-11.742,-3.982,-1.138,1.948,-9.124,-8.165,-1.627,1.288,2.062,-3.802,-2.075,1.152,4.735,5.731,1.107,130.734,7.665,9.554,8.162,69.264,25.521,11.695,12.286,17.129],[896.722,-15.701,-11.222,-5.602,-4.322,-40.51,-18.394,-10.222,-6.212,-3.255,-30.602,48.69,-8.705,-4.283,-2.015,-23.961,-12.006,-4.111,-1.6,0.565,51.329,0.59,6.68,4.432,4.207,51.48,20.968,21.85,15.293,13.523],[-26.842,-23.806,-15.493,-10.779,-6.984,-42.081,-25.613,-16.062,-11.356,-6.294,-43.972,-27.888,-16.294,-8.968,-7.265,-20.2,-5.523,-10.777,-6.407,-3.174,20.893,-5.236,-1.972,-1.473,-0.242,43.875,15.444,7.429,18.915,10.074],[-50.605,-26.273,-19.894,-15.257,-10.578,-40.442,-27.879,-19.503,-13.198,-8.508,-48.722,-27.433,-19.193,-12.752,-9.675,-23.17,-17.867,-15.024,-10.045,-7.388,17.821,-19.455,-6.709,-6.361,-3.697,33.921,0.497,51.087,9.098,3.628]],
"kep": [[-38.246,-33.158,-41.661,-48.503,-51.535,-32.792,-46.482,-43.465,-34.719,-47.966,-20.156,-39.609,-29.145,-48.359,-46.217,-33.661,-33.639,-26.862,-38.03,-29.923,-30.571,-25.988,-13.858,-32.57,-23.254,-31.796,-18.645,-13.406,1.907,-23.477],[-65.047,-40.914,-37.801,-31.418,-34.174,-64.863,-40.808,-34.074,-34.652,-35.005,-65.059,-37.247,-36.189,-35.596,-32.736,-66.585,-42.174,-36.184,-34.394,-32.964,-70.848,-43.406,-34.351,-31.813,-33.269,-74.775,-50.248,-32.902,-33.982,-35.86],[-80.626,-52.203,-43.806,-37.734,-36.369,-81.075,-54.314,-43.991,-38.498,-36.352,-82.209,-51.743,-42.728,-38.484,-36.766,-81.613,-56.2,-46.864,-39.595,-35.977,-83.087,-56.542,-46.017,-40.142,-35.866,-85.19,-64.997,-45.291,-41.518,-35.72],[-89.991,-59.867,-51.731,-43.931,-41.014,-89.301,-60.998,-49.526,-45.409,-38.504,-88.552,-64.895,-50.171,-45.043,-40.625,-87.115,-67.647,-53.694,-46.254,-40.095,-86.365,-68.709,-55.833,-47.887,-40.879,-86.382,-76.837,-57.56,-47.382,-42.812],[-90.121,-66.379,-58.606,-51.072,-45.289,-90.8,-72.759,-58.675,-51.546,-44.822,-90.868,-70.103,-57.782,-49.915,-45.942,-92.142,-72.825,-60.577,-51.016,-46.596,-89.544,-77.381,-62.341,-52.939,-48.107,-90.151,-80.237,-66.249,-54.579,-46.785],[-94.141,-76.018,-62.368,-57.363,-51.475,-93.516,-77.363,-66.388,-55.046,-49.345,-93.385,-77.442,-64.214,-54.153,-50.682,-92.989,-79.725,-66.272,-57.606,-51.558,-93.122,-80.752,-67.403,-58.009,-51.659,-91.529,-85.175,-72.582,-60.454,-55.823]],
"vp": [[-232.23,-367.142,-903.68,-835.424,-735.568,-80.159,1.204,-103.859,-193.036,-216.589,-115.032,-70.351,-91.421,-55.777,-62.86,-2.967,-14.339,-21.075,7.939,-25.651,-21.494,-18.301,-23.063,-0.574,-13.019,-35.01,-15.685,-17.604,-16.244,-6.809],[2689.534,562.228,130.952,-1295.044,-427.701,569.69,98.834,-64.849,-112.825,-146.909,239.054,-17.063,-39.912,-34.297,-61.68,30.542,30.096,-11.391,-7.57,-30.987,-1.164,11.146,-2.348,-14.265,-4.027,-3.273,-3.021,-16.239,-2.723,10.976],[5230.945,2105.264,1409.569,129.317,-448.958,952.782,679.26,357.69,135.561,25.798,556.72,295.684,82.176,-5.157,-19.581,94.849,62.568,45.022,-4.187,-6.625,41.307,-2.836,8.216,-6.076,6.783,-4.509,-0.531,-17.744,8.429,-4.749],[6235.949,3998.858,3988.838,2174.928,2067.006,1288.959,1066.082,639.791,607.639,175.454,637.359,514.238,282.818,220.751,113.162,112.974,129.134,63.26,51.628,7.447,38.853,36.978,47.325,21.075,14.891,7.876,18.757,2.499,-1.399,-1.447],[6364.294,5769.146,5826.983,4962.208,3282.896,1259.557,1700.055,1220.375,1111.712,639.347,655.069,789.138,609.17,392.957,437.083,138.624,137.764,123.824,97.816,76.493,41.557,65.734,48.886,41.005,49.162,0.84,19.872,32.021,3.554,1.301],[7101.507,8651.892,7635.539,7724.476,5744.613,1393.546,1914.733,1750.233,1248.504,899.264,740.001,883.841,837.311,592.376,545.456,131.253,192.712,175.174,126.853,115.092,34.432,92.851,66.304,76.93,57.933,21.387,48.572,34.127,13.852,44.828]]
}