{
"KTrans": [[-0.916,0.072,0.076,0.014,-0.32,-0.671,-0.383,0.042,0.161,-0.031,-0.444,-0.301,0.104,-0.202,0.071,1.051,0.062,-0.321,0.478,0.128,0.057,0.388,-0.054,0.017,0.071,0.486,0.16,0.277,-0.145,0.133],[-1.177,-0.174,-0.203,0.017,-0.022,-0.552,-0.393,-0.04,-0.042,-0.08,0.02,-0.341,-0.071,-0.333,0.238,-0.43,0.105,0.122,-0.084,-0.022,-0.421,0.046,0.09,-0.077,-0.019,0.74,0.087,0.017,0.274,0.115],[-2.513,-0.172,-0.144,-0.032,-0.055,-2.41,0.146,-0.071,0.153,0.263,-2.029,0.211,0.417,-0.098,-0.095,-1.499,0.531,0.092,0.07,0.013,-1.763,-0.072,0.233,0.125,0.097,-2.3,-0.018,-0.079,-0.008,-0.044],[-5.35,-0.355,0.016,0.117,0.003,-4.114,-0.382,0.051,0.125,0.157,-4.912,-0.602,0.455,0.039,0.003,-5.311,-0.371,-0.362,-0.085,-0.083,-3.937,-0.085,-0.186,-0.062,0.037,-4.016,0.569,0.22,0.127,0.054],[-7.239,-0.486,-0.646,-0.363,-0.029,-8.67,-0.681,-0.044,-0.11,0.041,-7.806,-1.065,-0.048,-0.163,-0.004,-8.753,0.093,-0.07,-0.293,0.111,-7.808,-0.441,0.286,-0.067,0.064,-7.807,-0.309,-0.069,0.027,-0.069],[-15.679,-0.578,-0.24,-0.12,0.056,-15.639,0.043,-0.455,0.091,-0.036,-11.351,-0.422,0.503,-0.005,-0.298,-13.234,-0.49,-0.182,-0.108,0.036,-13.805,-0.938,0.335,0.118,-0.172,-13.017,-0.59,0.048,-0.176,0.017]],
"ve": [[0.015,0.157,-0.101,0.155,0.498,0.15,0.22,-0.016,-0.068,0.13,-0.507,0.055,0.078,0.564,-0.179,0.147,0.01,0.517,-0.185,0.184,0.018,0.033,0.018,0.116,0.471,0.163,0.109,0.083,0.143,-0.021],[-0.285,-0.098,-0.003,-0.037,0.014,-0.155,-0.127,-0.023,-0.086,-0.131,-0.253,-0.153,0.009,0.044,-0.028,0.063,0.009,-0.026,-0.015,0.024,-0.379,0.075,0.042,0.044,0.096,0.155,0.03,0.104,0.034,0.104],[-0.985,-0.022,-0.061,-0.065,0.013,-0.64,0.018,0.037,0.065,0.002,-0.96,-0.047,-0.023,0.076,0.039,-0.745,-0.014,0.047,0.023,0.014,-0.618,0.01,0.051,0.065,-0.019,-0.512,-0.163,0.048,0.01,-0.018],[-2.031,-0.251,-0.077,-0.039,-0.005,-1.733,0.032,0.029,0.08,-0.034,-2.074,-0.099,0.116,0.055,0.057,-1.809,-0.085,0.065,0.002,0.034,-1.88,-0.244,-0.076,-0.071,0.093,-1.608,0.031,0.036,0.009,0.039],[-2.458,-0.199,-0.125,0.021,-0.031,-3.216,-0.243,0.029,-0.03,0.001,-3.051,-0.219,-0.056,-0.035,-0.007,-2.973,0.011,0.06,0.04,0.029,-3.308,-0.073,0.118,-0.005,0.1,-3.61,-0.117,0.085,0.068,-0.033],[-5.726,-0.256,-0.035,0.018,0.056,-5.546,-0.25,-0.17,-0.017,-0.023,-4.607,-0.198,0.003,-0.029,-0.039,-5.211,0.003,-0.093,-0.019,0.005,-6.229,-0.219,0.005,-0.028,-0.032,-5.683,-0.307,0.048,-0.019,0.077]],
"kep": [[-0.919,-0.043,0.247,-0.07,-0.668,-0.781,-0.558,0.134,0.329,0.008,0.096,-0.301,0.109,-0.648,0.39,0.922,0.094,-0.752,0.76,0.055,0.053,0.407,-0.004,0.007,-0.294,0.326,0.1,0.275,-0.174,0.304],[-0.905,-0.075,-0.195,0.056,-0.031,-0.383,-0.264,-0.014,0.047,0.056,0.274,-0.187,-0.078,-0.372,0.27,-0.513,0.099,0.152,-0.067,-0.042,-0.035,-0.026,0.051,-0.118,-0.11,0.562,0.062,-0.086,0.243,0.017],[-1.521,-0.151,-0.082,0.035,-0.068,-1.776,0.127,-0.108,0.089,0.262,-1.08,0.256,0.439,-0.172,-0.133,-0.756,0.548,0.045,0.049,0,-1.187,-0.085,0.183,0.061,0.118,-1.826,0.144,-0.124,-0.016,-0.024],[-3.38,-0.107,0.093,0.156,0.008,-2.412,-0.417,0.02,0.045,0.191,-2.904,-0.503,0.34,-0.015,-0.054,-3.572,-0.292,-0.426,-0.086,-0.117,-2.085,0.158,-0.108,0.01,-0.055,-2.45,0.54,0.184,0.119,0.016],[-4.937,-0.287,-0.521,-0.385,0.003,-5.633,-0.437,-0.075,-0.079,0.04,-4.945,-0.847,0.008,-0.128,0.004,-5.979,0.087,-0.129,-0.332,0.083,-4.731,-0.371,0.169,-0.063,-0.036,-4.432,-0.195,-0.155,-0.041,-0.035],[-10.745,-0.332,-0.208,-0.137,0.001,-10.717,0.298,-0.285,0.107,-0.013,-7.146,-0.228,0.501,0.025,-0.259,-8.481,-0.492,-0.087,-0.089,0.032,-8.154,-0.73,0.329,0.145,-0.14,-7.801,-0.291,-0.001,-0.157,-0.061]],
"vp": [[-3.495,-4.837,5.075,-13.104,2.875,-0.083,-1.147,4.083,-0.072,-1.476,2.667,-0.052,-0.896,0.168,0.348,-0.372,-0.067,0.27,-0.239,-0.368,0.038,-0.216,0,-0.079,-0.122,-0.072,-0.112,-0.02,-0.058,-0.139],[29.377,6.579,-11.315,1.61,5.744,6.276,1.589,-1.248,-1.061,3.985,3.579,1.517,-0.911,0.825,-1.148,0.284,-0.185,-0.097,0.107,0.023,0.369,-0.21,-0.14,-0.078,-0.127,-0.064,0,-0.102,-0.189,-0.145],[113.395,-10.35,20.273,-20.216,7.194,17.796,-1.777,2.25,-2.392,-4.285,7.974,2.288,-0.989,-0.916,0.535,1.782,-0.265,-0.444,-0.035,-0.127,0.488,0.085,0.086,-0.117,0.043,0.248,0.06,-0.057,-0.065,0.01],[209.542,33.481,31.033,6.13,1.684,34.214,-0.328,-4.083,-2.136,-3.345,20.47,3.102,-1.923,0.703,-4.669,3.591,0.293,-0.1,-0.38,0.098,1.721,0.451,0.117,0.115,-0.179,0.78,-0.097,0.015,-0.03,-0.085],[269.108,39.045,28.381,-7.371,5.592,68.237,7.771,-2.276,1.882,-0.926,32.905,3.164,0.086,2.733,0.51,6.11,0.738,-0.094,0.113,-0.17,3.349,0.174,-0.238,0.131,-0.162,1.818,0.02,-0.058,-0.116,-0.038],[596.24,45.677,8.959,-6.401,-29.617,112.354,6.772,11.056,1.521,-0.63,47.185,3.215,0.122,0.962,1.304,10.957,0.628,0.206,0.317,0.133,6.232,0.702,-0.039,-0.11,0.02,2.849,0.232,-0.078,0.056,0.011]]
}