{
"KTrans": [[0.772,0.777,1.42,1.185,0.707,12.422,6.742,6.763,5.999,5.228,24.339,14.989,12.753,11.514,11.484,161.046,92.99,73.675,65.466,61.778,396.425,224.252,175.958,153.257,140.79,1089.724,584.121,454.932,390.278,357.918],[1.159,0.451,0.338,0.582,1.099,6.781,5.089,3.378,3.719,2.659,21.512,10.493,8.648,7.872,5.259,122.898,63.052,44.675,36.031,30.175,298.434,141.536,97.264,77.624,66.092,754.053,352.227,231.096,178.852,150.649],[-7.503,1.996,-0.713,0.889,0.75,2.36,6.885,3.046,2.768,1.601,12.461,10.459,7.074,5.877,5.521,116.722,59.415,40.959,29.531,25.65,251.812,133.837,87.073,66.657,56.249,628.208,312.985,204.995,149.466,121.855],[-9.199,0.066,0.286,0.434,0.416,-4.967,4.557,2.82,2.866,2.146,6.577,9.333,5.904,4.389,4.649,87.212,55.618,39.225,28.853,24.255,231.802,126.479,83.701,62.195,50.55,520.577,303.152,189.26,139.459,111.409],[-17.659,0.625,-0.049,-0.804,-0.239,-8.697,3.402,2.48,2.322,2.678,-2.307,8.84,8.077,5.848,4.89,71.124,55.664,38.344,28.49,21.86,179.265,124.517,80.669,61.194,48.53,398.415,281.676,185.963,135.353,108.048],[-23.962,-2.487,0.54,1.144,0.11,-18.947,0.985,1.425,1.884,0.979,-11.293,5.836,5.973,4.464,4.137,51.306,54.148,34.949,28.21,22.381,143.67,115.945,79.277,59.958,47.282,322.807,275.409,178.51,130.837,104.154]],
"ve": [[1.884,1.016,0.558,-0.124,0.071,4.758,1.803,-0.897,-2.96,-3.686,8.159,3,-1.556,-4.37,-7.759,44.928,13.281,-0.838,-10.892,-18.489,93.527,33.016,7.863,-7.422,-18.5,191.968,79.318,35.007,10.635,-6.259],[1.637,0.702,0.283,0.329,0.026,5.658,2.382,1.452,0.845,0.629,10.698,4.708,2.907,1.501,1.357,48.981,23.898,14.366,8.901,5.711,99.406,47.849,29.443,19.069,12.738,200.15,96.831,61.03,41.641,28.8],[1.412,0.662,0.639,0.641,0.301,5.844,2.628,1.764,1.272,0.923,9.782,5.155,3.356,2.23,1.786,49.892,24.581,16.068,11.429,8.366,101.041,49.242,32.056,23.031,17.614,200.254,98.944,64.695,47.117,35.504],[1.306,0.921,0.162,0.477,0.392,5.811,2.486,1.888,1.132,1.055,10.666,5.204,3.461,2.327,2.039,50.755,24.753,16.516,12.088,9.375,101.531,49.553,32.773,24.158,18.934,201.946,99.505,65.757,48.405,37.804],[1.743,0.532,0.415,0.277,0.302,6.886,2.268,1.808,1.418,0.993,11.777,5.161,3.493,2.487,2.077,50.202,25.429,16.62,12.272,9.661,100.663,49.901,32.858,24.768,19.138,205.419,99.692,66.178,49.235,38.98],[1.548,0.703,0.593,0.338,0.311,185.019,2.824,1.598,1.398,1.057,11.366,5.339,3.214,2.468,1.971,51.898,25.303,16.757,12.342,9.603,103.136,50.377,33.398,24.785,19.674,200.456,100.096,66.347,49.484,39.285]],
"kep": [[-0.711,0.123,1.38,2.111,1.332,7.586,5.231,8.172,10.141,10.158,15.123,11.89,15.025,17.275,21.585,80.275,70.572,75.428,86.05,98.916,156.784,143.87,156.007,173.739,195.706,307.658,281.608,311.127,343.271,388.624],[-0.494,-0.23,0.092,0.294,1.115,1.107,2.683,1.927,2.87,2.04,9.882,5.558,5.629,6.311,3.895,49.582,31.626,26.499,24.94,23.159,99.881,63.378,52.406,49.188,47.343,184.541,129.716,105.598,96.88,94.617],[-8.742,1.335,-1.328,0.246,0.453,-3.157,4.123,1.268,1.479,0.677,2.469,5.065,3.61,3.572,3.677,44.678,27.942,21.439,16.249,15.951,74.958,56.692,41.639,35.457,32.843,142.532,107.522,85.174,69.549,63.709],[-10.392,-0.867,0.121,-0.047,0.015,-10.202,1.987,0.911,1.713,1.069,-3.587,3.943,2.36,2.008,2.551,24.261,24.71,19.483,14.958,13.606,64.649,51.401,38.314,30.602,26.569,105.744,102.011,74.471,61.333,53.393],[-18.888,0.068,-0.491,-1.085,-0.554,-14.542,1.149,0.639,0.88,1.659,-12.338,3.484,4.424,3.267,2.749,14.009,24.094,18.607,14.438,11.108,38.927,49.734,35.968,29.18,24.647,64.999,91.058,72.018,57.647,49.665],[-25.067,-3.213,-0.083,0.777,-0.219,-23.663,-1.787,-0.179,0.462,-0.088,-20.176,0.432,2.657,1.932,2.117,-0.008,23.028,15.543,14.088,11.635,20.812,43.555,34.334,28.149,23.04,40.088,87.556,67.388,54.365,46.547]],
"vp": [[0.833,-47.737,-6.203,-2.599,-58.058,-47.15,-49.461,-37.239,-48.038,-53.41,-48.699,-43.481,-47.832,-48.316,-44.972,-49.037,-47.407,-46.532,-45.719,-45.898,-49.593,-48.175,-47.199,-47.584,-46.682,-49.286,-47.788,-47.118,-46.314,-46.702],[86.751,-19.484,-37.478,-25.129,-42.86,-33.26,-38.435,-57.018,-56.812,-43.957,-35.679,-52.726,-45.726,-46.216,-47.289,-51.771,-49.603,-48.845,-47.314,-47.442,-51.974,-51.108,-50.041,-48.575,-47.815,-49.986,-50.797,-49.788,-48.846,-47.75],[241.367,28.165,-60.252,37.048,-7.979,20.763,-38.372,-38.838,-44.995,-54.318,-19.607,-46.164,-40.081,-46.387,-45.747,-44.918,-51.389,-50.819,-50.066,-49.806,-49.787,-51.86,-50.649,-49.858,-48.711,-49.832,-51.9,-50.691,-50.048,-49.486],[677.099,79.459,-42.03,-18.454,-28.308,78.29,-20.119,-49.986,-46.769,-46.773,22.526,-37.704,-45.27,-48.603,-53.293,-38.216,-51.865,-51.389,-50.461,-48.964,-44.451,-52.495,-51.299,-50.92,-50.123,-45.239,-53.126,-52.126,-51.358,-50.208],[1018.118,159.155,63.686,-34.562,-71.484,177.518,-18.461,-33.413,-43.382,-41.706,55,-28.855,-46.572,-42.95,-47.397,-33.994,-50.13,-52.089,-52.903,-51.836,-39.333,-51.886,-52.909,-51.097,-52.144,-42.067,-53.373,-52.695,-52.434,-51.466],[1488.889,285.917,131.87,115.375,50.165,245.343,16.957,-28.717,-27.705,-46.598,96.618,-18.25,-38.297,-43.355,-38.867,-22.433,-47.808,-51.355,-50.731,-52.411,-33.847,-51.13,-52.555,-52.331,-50.98,-38.483,-51.23,-53.531,-52.459,-52.317]]
}