{
"KTrans": [[-1.077,0.774,0.684,0.925,0.564,0.01,1.201,0.961,0.57,0.769,0.994,0.515,1.209,0.773,1.031,1.99,0.671,1.934,1.503,1.606,3.529,2.548,2.109,2.257,2.26,6.098,3.906,3.706,4.021,4.369],[-3.566,-1.169,-0,0.524,0.647,-4.26,-1.407,0.026,0.28,0.608,-9.409,-0.36,0.417,0.52,0.315,-1.106,-0.006,0.175,1.054,0.82,-4.879,0.269,0.604,1.421,1.117,-3.627,1.457,1.668,1.679,1.942],[-13.22,-3.238,-1.138,0.061,0.028,-24.604,-3.602,-1.452,-0.379,0.269,-19.342,-1.604,-1.397,0.069,0.189,-14.96,-2.325,-0.352,0.301,0.436,-24.916,-3.057,-0.707,-0.022,0.231,-24.443,-3.173,-0.597,0.346,0.936],[-37.453,-6.509,-2.635,-1.419,-0.684,-36.145,-6.501,-3.277,-1.159,-0.333,-40.465,-4.799,-2.346,-1.177,-0.496,-40.476,-6.815,-3.152,-1.596,0.097,-42.55,-7.17,-2.376,-1.006,-0.621,-41.832,-7.677,-2.261,-0.888,0.479],[-54.39,-9.745,-4.632,-2.223,-1.784,-58.778,-10.822,-4.759,-2.037,-1.631,-59.888,-9.208,-4.449,-2.716,-1.864,-59.394,-11.372,-5.157,-2.952,-0.762,-57.038,-11.242,-4.228,-1.686,-1.3,-58.597,-15.29,-4.785,-2.564,-1.195],[-69.981,-11.812,-6.686,-5.55,-2.24,-76.519,-14.356,-7.504,-3.292,-2.163,-73.019,-12.935,-4.832,-3.522,-3.161,-73.505,-19.076,-8.216,-3.381,-2.034,-75.437,-14.681,-8.285,-3.805,-2.416,-73.393,-20.707,-6.888,-3.649,-1.921]],
"ve": [[-0.498,0.391,0.833,0.902,2.203,0.705,0.435,0.924,1.442,1.48,0.493,0.318,0.47,1.344,1.17,1.544,1.245,1.365,0.939,1.231,2.829,0.691,0.957,0.533,0.757,4.484,1.86,0.609,0.082,-1.112],[-1.251,-0.325,-0.097,0.243,0.278,-1.756,-0.71,0.153,0.165,0.285,-3.876,-0.061,0.256,0.235,0.312,-0.366,0.107,0.325,0.425,0.385,0.466,0.563,0.595,0.567,0.457,1.867,1.585,1.097,0.895,0.877],[-6.19,-1.326,-0.27,-0.041,0.084,-12.05,-1.391,-0.455,0.029,0.027,-9.623,-0.745,-0.389,0.091,0.025,-7.055,-0.362,0.156,0.275,0.263,-10.024,-0.266,0.092,0.156,0.267,-8.177,0.656,0.6,0.793,0.834],[-20.513,-2.857,-1.179,-0.433,-0.234,-20.552,-2.422,-1.316,-0.422,-0.168,-23.912,-2.049,-0.953,-0.487,-0,-20.778,-2.455,-0.803,-0.445,0.075,-22.603,-2.351,-0.237,0.001,0.011,-18.627,-0.871,-0.003,0.331,0.474],[-32.299,-4.187,-1.769,-0.885,-0.69,-35.244,-5.167,-1.612,-0.928,-0.515,-35.799,-3.889,-1.549,-1.204,-0.59,-35.382,-4.701,-1.58,-0.827,-0.128,-32.872,-3.728,-1.115,-0.334,-0.14,-31.421,-5.278,-0.537,-0.178,0.117],[-46.912,-5.218,-2.825,-2.247,-0.777,-50.604,-6.22,-2.842,-1.291,-0.73,-45.834,-5.806,-1.826,-1.293,-1.072,-46.67,-8.112,-2.838,-1.101,-0.59,-48.393,-5.722,-2.655,-0.999,-0.606,-43.864,-7.664,-1.465,-0.334,-0.188]],
"kep": [[-2.455,-1.226,-1.653,-1.403,-2.837,-2.563,-0.846,-1.382,-2.189,-1.937,-1.329,-1.408,-0.793,-1.856,-1.336,-1.324,-2.158,-0.875,-0.767,-0.729,-1.13,0.208,-0.379,0.285,0.371,-0.386,0.371,1.551,2.528,4.161],[-4.786,-2.568,-1.599,-1.409,-1.319,-5.088,-2.441,-1.823,-1.572,-1.361,-8.162,-2.024,-1.534,-1.407,-1.675,-3.254,-1.854,-1.85,-1.073,-1.254,-7.92,-2.043,-1.686,-0.851,-1.026,-8.345,-1.871,-1.145,-0.924,-0.639],[-11.018,-3.726,-2.577,-1.592,-1.746,-17.366,-4.048,-2.692,-2.096,-1.451,-14.93,-2.703,-2.712,-1.717,-1.527,-12.062,-3.755,-2.232,-1.671,-1.517,-20.156,-4.616,-2.508,-1.874,-1.727,-20.837,-5.621,-2.903,-2.14,-1.591],[-26.524,-5.81,-3.208,-2.689,-2.138,-25.945,-6.192,-3.697,-2.44,-1.856,-28.674,-4.828,-3.129,-2.396,-2.181,-29.899,-6.392,-4.082,-2.846,-1.676,-31.575,-6.898,-3.839,-2.698,-2.318,-32.921,-8.884,-3.976,-2.916,-1.695],[-40.831,-8.064,-4.694,-3.052,-2.783,-43.898,-8.292,-4.986,-2.826,-2.803,-43.626,-7.64,-4.686,-3.229,-2.96,-45.246,-9.263,-5.357,-3.829,-2.331,-44.076,-10.029,-4.903,-3.058,-2.847,-45.935,-12.805,-6.019,-4.098,-2.995],[-54.468,-9.432,-5.766,-5.063,-3.162,-59.486,-11.422,-6.593,-3.744,-3.133,-57.383,-10.064,-4.924,-3.973,-3.779,-56.635,-14.492,-7.306,-4.05,-3.14,-59.268,-12.36,-7.555,-4.549,-3.504,-58.789,-16.703,-7.296,-5.025,-3.425]],
"vp": [[72.269,-38.689,-19.958,-69.446,-12.977,-7.494,-11.533,-10.291,3.576,-3.4,-0.747,3.323,-5.091,-1.243,-5.475,-1.46,-0.161,-1.224,-0.924,-0.503,-0.726,0.007,-0.128,-0.293,-0.192,-0.61,-0.245,0.054,-0.347,-0.369],[111.742,72.465,16.076,-68.544,-96.094,35.188,25.016,-2.796,-3.754,-10.923,42.324,-0.205,-6.577,-2.811,-0.077,1.892,0.039,0.188,-1.686,-1.121,1.084,0.046,0.165,-0.708,-0.462,0.625,-0.154,-0.117,-0.159,-0.413],[619.393,241.669,66.652,-6.664,-46.306,246.088,54.151,26.693,2.333,-0.871,98.351,11.218,10.817,-5.937,-1.275,15.412,2.769,0.225,-1.36,-0.803,11.542,2.158,1.152,0.505,0.168,5.709,0.749,0.595,0.125,-0.522],[2087.066,541.363,295.3,149.839,83.081,421.159,98.572,78.994,27.559,0.854,250.027,40.456,23.863,14.555,0.429,44.33,10.201,5.567,5.166,-0.722,24.116,6.034,2.199,0.89,1.472,11.007,2.394,1.422,0.843,0.069],[3301.858,852.797,483.409,278.548,313.308,720.345,200.249,86,67.73,46.012,366.926,77.222,41.966,45.039,27.831,73.852,20.426,10.591,7.371,1.87,35.144,9.043,4.433,2.252,1.943,17.605,6.627,2.12,1.708,1.005],[4764.991,1005.072,814.089,885.829,351.306,1038.608,238.859,169.734,90.428,60.957,488.602,118.484,49.896,46.247,49.931,96.045,34.053,18.151,8.937,6.543,50.865,12.636,9.31,5.092,4.268,23.912,9.232,3.667,2.003,1.792]]
}