{
"KTrans": [[-2.117,9.531,8.336,6.169,4.474,-1.806,26.278,14.499,9.144,13.356,4.885,30.165,21.425,21.815,12.802,67.614,90.706,92.684,68.059,61.044,146.561,91.887,112.839,127.597,105.273,219.368,208.715,124.843,112.046,134.626],[-53.88,12.856,4.012,8.224,7.356,-57.249,8.123,13.602,13.021,8.506,-41.103,13.446,18.725,16.748,9.903,-34.311,64.266,69.578,37.431,37.73,-9.765,71.051,59.526,97.026,71.3,36.751,84.505,125.672,58.633,106.226],[-67.088,-13.892,14.262,4.97,5.898,-81.415,-0.137,17.59,6.01,11.507,-69.685,15.294,14.477,10.089,12.597,-63.749,9.733,58.317,52.817,37.395,-30.313,27.493,61.969,70.364,66.737,53.788,41.673,64.717,44.074,67.263],[-89.288,-12.693,11.829,9.921,4.641,-88.198,-27.734,13.905,10.46,9.991,-84.591,-14.037,21.973,13.304,13.547,-73.777,-19.447,41.759,43.462,35.792,-63.778,-10.634,21.844,56.052,73.547,-35.914,31.504,50.118,-6.434,76.177],[-92.563,-40.285,10.171,16.305,5.348,-88.755,-33.706,20.187,12.587,14.497,-90.199,-37.222,15.124,23.521,19.722,-80.411,-31.297,15.861,46.015,38.387,-79.941,-31.277,36.324,42.331,80.661,-17.465,26.173,35.559,-4.161,60.788],[-91.648,-53.086,-3.184,18.743,12.784,-94.157,-47.999,2.658,17.63,14.319,-90.996,-49.147,11.092,20.682,16.306,-85.502,-44.023,8.601,31.073,40.821,-73.927,-37.439,-1.91,45.698,60.973,-52.776,7.999,32.558,10.55,10.419]],
"ve": [[66.61,-87.568,22.052,5.245,56.406,-44.838,149.361,-86.566,3.849,15.681,-8.936,-2017.172,-38.376,162.756,-214.759,87.595,16.415,2.844,-16.573,-10.586,100.261,36.154,14.14,-13.826,-15.381,203.772,81.167,39.441,13.675,-5.04],[25.76,5.264,3.89,0.667,-0.089,18.976,6.422,3.548,0.889,0.729,23.379,5.983,5.231,0.666,2.806,48.812,29.888,14.905,8.567,6.978,94.292,47.468,628.66,21.232,12.938,217.771,96.602,59.742,21.116,31.057],[4.568,5.237,0.208,1.35,-0.024,7.979,7.236,1.519,1.599,0.647,11.344,8.425,2.443,2.919,0.996,59.113,21.184,20.292,11.126,8.708,27.741,52.662,27.084,25.067,16.633,200.089,106.48,64.833,47.64,34.366],[14.35,25.553,0.429,-0.605,0.515,24.547,12.156,2.332,0.641,0.855,-27.362,9.142,4.072,2.443,0.851,47.328,25.063,20.051,12.857,7.772,110.287,53.067,33.649,23.068,18.778,212.413,99.246,65.077,49.507,36.979],[0.199,3.213,1.317,1.332,0.28,16.032,5.951,2.23,1.018,0.316,-18.392,5.804,9.135,2.158,1.669,58.581,26.581,17.516,10.672,9.345,109.139,52.421,32.884,22.168,20.16,204.317,102.071,65.225,51.568,37.063],[-7.055,13.924,3.146,-0.101,-0.529,137.961,4.837,8.431,1.051,2.049,27.377,5.62,4.29,3.026,1.841,40.927,209.818,19.002,12.608,8.843,103.777,53.964,34.951,22.64,23.195,201.894,101.479,65.817,54.664,37.359]],
"kep": [[-21.021,9.106,9.291,20.259,5.294,-20.069,26.578,15.696,12.536,29.562,-21.484,25.494,25.194,33.675,18.242,12.18,69.838,99.584,89.312,97.195,36.379,46.958,92.421,140.717,142.727,32.167,102.123,89.438,106.107,169.611],[-62.075,10.573,2.006,9.931,9.848,-67.396,3.787,11.174,14.563,9.392,-56.812,6.456,15.072,17.538,9.309,-57.919,29.883,48.549,28.188,30.527,-52.511,15.717,23.805,60.568,53.34,-44.766,7.833,42.826,17.032,58.018],[-73.336,-16.7,15.335,4.623,6.879,-87.008,-5.437,16.681,5.158,11.737,-77.825,7.328,12.338,8.099,12.186,-77.77,-12.316,30.857,37.288,27.195,-62.816,-9.864,22.14,37.111,42.908,-44.091,-19.223,7.633,3.409,25.858],[-92.294,-16.994,12.041,11.286,4.38,-91.938,-32.423,12.475,10.461,9.34,-88.876,-21.695,18.295,10.935,13.059,-83.575,-35.545,18.549,27.415,26.142,-79.76,-36.291,-4.849,27.144,45.094,-74.556,-27.085,-2.778,-27.753,31.185],[-94.497,-42.068,8.392,15.249,5.439,-91.672,-39.579,18.112,12.033,14.422,-92.357,-42.471,9.67,21.349,17.907,-87.147,-45.965,-1.693,31.423,26.324,-88.408,-50.717,3.36,15.601,49.458,-69.195,-32.676,-12.613,-30.399,18.864],[-93.457,-55.124,-6.724,19.008,13.528,-95.492,-51.62,-1.525,16.128,12.06,-94.474,-53.474,5.974,17.201,14.27,-90.027,-55.064,-8.494,15.196,29.391,-85.735,-55.814,-23.918,16.58,32.128,-81.621,-41.944,-13.699,-19.775,-12.364]],
"vp": [[1253.803,-232.541,-442.241,89.798,-281.592,164.123,76.371,-60.696,-78.637,68.205,150.371,-15.419,125.272,-28.919,17.534,-7.356,-24.229,-16.817,-23.122,-34.255,-24.945,-24.624,-39.583,-28.32,-37.93,-26.361,-35.69,-41.114,-32.535,-40.514],[5152.75,2751.235,1354.243,1227.349,1227.493,868.399,392.658,223.395,79.036,54.684,441.881,108.389,79.797,122.431,40.168,42.068,28.869,12.832,-21.373,-6.175,12.448,-11.809,-8.082,-2.302,-24.043,-11.888,-32.638,-48.751,-22.785,-26.908],[5571.306,5197.58,3505.767,2239.44,1398.169,1224.939,1300.752,544.596,394.608,409.113,612.147,616.384,224.127,120.5,-1.74,122.99,53.018,74.4,39.632,17.163,23.69,13.791,-0.5,3.657,-17.529,-40.177,5.716,-48.946,-23.162,-37.373],[7616.769,8576.104,4589.116,2598.774,1935.253,1212.983,1789.017,998.595,513.858,250.833,639.913,818.966,570.865,320.197,165.099,99.455,150.135,131.105,37.841,-5.89,43.802,50.402,32.977,-7.82,-5.623,16.127,-10.514,-26.963,-11.856,-32.053],[5802.812,10927.386,7870.209,4712.256,2576.193,1564.17,2102.799,1674.308,923.001,541.435,716.144,884.973,769.241,491.637,375.398,116.172,159.399,133.214,39.46,42.842,49.451,64.84,53.131,-13.834,19.631,-5.454,-0.797,-20.21,13.441,-33.592],[7032.92,10789.872,11990.74,6445.753,4703.693,1365.952,2316.257,2136.979,1724.027,867.271,661.598,925.032,812.391,708.71,384.311,108.009,169.597,167.299,83.768,49.161,42.512,54.939,69.672,18.792,44.895,-18.343,0.715,12.177,17.006,-19.287]]
}