{
"KTrans": [[3.426,1.371,13.146,-12.196,-9.442,8.464,2.958,6.9,2.371,8.196,10.625,19.988,14.726,14.48,21.396,36.709,68.64,81.77,79.928,90.686,-27.655,57.613,73.199,123.908,135.167,-118.378,-38.512,-12.25,61.685,128.642],[-45.58,-15.323,-1.257,2.881,0.434,-39.972,-17.192,0.762,6.183,4.046,-39.792,-16.023,1.382,9.098,5.738,-23.626,7.993,13.888,22.099,30.675,5.303,16.741,10.284,24.706,45.588,10.573,97.789,-20.81,-24.211,31.695],[-63.89,-26.465,-15.803,-10.821,-2.436,-57.258,-27.905,-14.842,-10.611,-2.285,-59.878,-27.843,-15.364,-8.255,-0.556,-40.271,-4.178,2.658,0.446,0.635,-30.638,10.962,12.953,-1.466,-2.946,-62.095,19.589,0.487,8.703,-20.072],[-70.765,-37.059,-22.37,-17.139,-11.977,-69.014,-38.205,-18.065,-15.566,-9.864,-68.575,-34.967,-17.705,-11.004,-8.038,-54.223,-19.975,-2.255,3.776,3.475,-53.418,-4.938,12.341,19.777,14.216,-37.665,26.271,16.239,24.173,9.914],[-78.531,-44.424,-25.148,-19.286,-13.065,-74.545,-39.442,-22.389,-16.191,-13.206,-74.953,-42.233,-23.144,-12.846,-10.123,-62.344,-24.624,-4.591,1.329,0.261,-65.475,-19.561,4.191,11.042,10.513,-54.048,-11.568,9.3,17.467,23.558],[-77.854,-50.302,-29.106,-20.614,-14.288,-81.877,-46.142,-29.519,-17.52,-13.248,-78.279,-44.76,-26.276,-18.414,-12.198,-67.735,-39.277,-11.393,-4.78,2.341,-68.839,-28.933,-1.201,13.149,9.502,-68.086,-21.07,-12.156,24.131,24.955]],
"ve": [[6.538,-21.662,-153.285,47.482,201.469,12.079,-26.594,-66.329,-9.418,-34.318,0.497,-7.293,-57.465,-0.175,-47.96,46.785,-7.553,-25.939,-25.847,58.721,70.765,68.513,17.829,34.159,-52.255,61.901,77.627,31.191,2.935,-18.157],[34.832,-42.886,9.555,-4.962,26.015,-71.583,11151.215,2.327,-33.018,5.166,4.886,-11.536,31.179,13.998,-0.237,25.855,32.624,17.583,58.476,25.749,77.789,54.329,34.525,-69.229,-2.141,163.928,96.453,57.454,51.784,26.098],[-26.38,-10.28,-149.202,-36.378,12.982,-41.497,-7.683,-9.657,4.994,-1.07,-10.72,34.445,-1.523,17.178,-3.118,34.838,22,-101.247,12.976,12.515,1.924,36.881,24.145,3.514,22.076,177.289,104.645,38.304,24.623,35.631],[-2.903,2.064,0.002,-0.404,-15.26,12.861,-13.111,-7.498,-25.287,-35.855,-360.916,6.158,-2.333,-41.598,16.367,28.309,16.378,4.892,2.339,-0.697,79.975,55.426,49.712,-3.908,27.518,68.07,129.658,59.427,44.965,39.076],[-390.087,-7.612,-2.727,-10.732,-4.969,-15.794,-11.017,74.645,15.667,-2.539,-14.273,20.999,-1.071,4.713,-2.791,44.626,12.352,2.181,7.597,5.694,132.374,44.724,32.374,15.456,18.938,150.367,-876.267,70.547,72.066,40.483],[-44.24,-5.242,-4.083,-4.383,-4.368,-0.301,-6.288,6.405,-3.463,-4.594,-26.129,14.211,-3.616,0.083,-2.063,16.509,47.645,12.466,14.784,4.338,18.374,56.032,35.358,19.564,40.567,194.185,101.514,106.609,39.687,38.784]],
"kep": [[-108.118,-86.617,-89.324,-11.275,16.93,-124.254,-77.728,-42.213,-14.539,-48.841,-125.509,-112.717,-68.951,-33.675,-112.846,-139.256,-200.107,-202.085,-206.726,-219.009,-208.3,-290.67,-377.907,-382.17,-403.763,-219.583,-378.269,-557.271,-676.616,-656.201],[-93.272,-95.62,-116.983,-86.929,-28.677,-89.844,-109.549,-116.242,-86.843,-30.011,-91.061,-106.392,-119.435,-90.323,-44.382,-89.843,-89.328,-138.96,-156.349,-104.215,-84.743,-100.664,-166.801,-224.468,-190.764,-93.678,-55.555,-187.984,-307.816,-321.26],[-92.956,-66.856,-72.725,-102.528,-124.923,-86.698,-67.209,-72.302,-115.364,-130.076,-90.7,-73.066,-78.782,-104.211,-135.952,-87.87,-62.803,-64.437,-107.696,-180.355,-87.133,-64.208,-74.698,-130.208,-211.497,-103.507,-75.385,-102.523,-119.163,-215.166],[-91.15,-66.093,-57.244,-61.222,-79.535,-90.871,-67.145,-50.438,-63.969,-74.046,-91.856,-66.066,-48.357,-52.31,-71.824,-88.797,-66.073,-44.857,-45.525,-55.218,-92.739,-63.438,-51.975,-44.158,-63.494,-92.496,-62.68,-67.273,-64.851,-90.68],[-93.659,-65.938,-47.867,-47.712,-45.692,-91.57,-62.894,-49.285,-44.087,-49.967,-93.691,-66.638,-48.618,-39.11,-40.55,-89.85,-62.079,-41.566,-31.987,-42.421,-95.019,-69.12,-49.532,-42.309,-44.172,-95.615,-74.337,-59.835,-59.32,-56.428],[-92.743,-70.782,-48.429,-39.823,-33.91,-95.623,-66.483,-52.48,-37.39,-39.014,-93.866,-66.059,-47.165,-38.904,-35.275,-90.698,-70.174,-44.437,-36.847,-29.663,-94.967,-70.921,-51.723,-33.276,-32.245,-95.478,-77.025,-72.085,-46.341,-41.114]],
"vp": [[-271.633,-392.225,-76.632,-49.144,-100.206,40.259,-42.184,-72.614,1.634,70.986,-15.31,20.627,30.031,-11.416,-1.858,5.165,-10.689,-1.627,7.024,8.643,-7.009,-12.252,12.218,-5.861,3.896,-4.623,-8.873,-7.996,-4.988,-13.502],[3348.672,898.793,-595.31,-754.163,-40.509,369.814,221.627,-0.412,-10.117,46.3,233.524,117.048,-23.521,-81.8,-32.716,32.718,1.021,-20.55,-9.5,-25.832,7.925,7.061,-5.42,-28.804,-18.731,-6.525,-28.211,-13.189,-8.3,-17.077],[4952.339,3414.457,1797.297,543.86,-393.168,891.257,674.27,344.163,303.528,-30.618,496.007,319.458,164.056,79.609,27.876,85.432,36.748,27.908,-8.018,-5.277,34.454,27.068,2.135,-9.296,-0.555,10.385,3.599,4.582,-11.702,-14.434],[5896.26,5781.127,3800.917,2113.405,1302.717,1179.188,1263.274,655.167,462.66,454.034,568.713,520.828,265.725,157.234,145.315,97.169,105.934,39.656,21.467,24.618,44.948,45.124,28.057,-6.204,-1.022,18.073,5.035,5.588,-0.912,-5.195],[6148.969,7906.771,5258.852,4460.511,3532.214,1300.09,1520.403,995.284,632.412,560.7,575.544,760.216,570.983,328.126,87.923,106.875,117.058,110.812,55.659,54.389,52.808,73.292,60.543,22.689,28.717,17.551,17.38,11.486,16.979,2.5],[6755.083,9670.28,8329.564,5204.454,3375.868,1361.426,1909.884,1270.374,1060.33,722.964,693.033,884.276,666.919,519.011,510.275,111.626,149.973,142.793,106.353,40.805,53.792,81.381,74.188,44.37,21.311,7.933,27.714,30.525,15.182,-0.61]]
}