{
"KTrans": [[-50.488,-70.628,-71.217,-72.249,-67.885,-33.489,-59.684,-70.34,-60.986,-64.702,-31.464,-62.181,-56.568,-53.667,-53.983,-23.412,-8.845,-9.936,-5.995,-17.867,10.995,22.087,62.573,45.592,77.741,60.652,87.152,234.306,218.884,274.23],[-57.019,-46.556,-45.225,-64.015,-59.37,-51.146,-41.499,-38.939,-48.223,-67.817,-48.914,-28.629,-33.111,-39.345,-46.798,-22.582,-22.828,-11.13,-23.087,-32.572,-16.241,-10.975,-28.095,10.392,1.537,-60.457,-75.532,-5.016,27.472,59.589],[-65.223,-48.569,-48.605,-38.384,-40.63,-63.991,-45.09,-43.563,-37.406,-46.667,-63.037,-44.509,-35.649,-32.084,-37.395,-54.268,-29.295,-31.731,-17.038,-13.489,-57.387,-11.565,-6.051,-14.82,-22.283,-28.608,-23.252,-37.282,-16.999,-45.142],[-76.666,-52.417,-50.189,-38.963,-47.072,-77.279,-53.096,-48.813,-38.659,-43.418,-73.588,-51.871,-41.178,-39.35,-45.003,-67.338,-30.294,-27.957,-23.222,-27.605,-64.201,-16.04,-13.843,-7.486,-6.476,-58.365,-27.755,-34.271,-34.372,-13.451],[-81.543,-58.258,-43.499,-46.219,-49.742,-79.036,-51.106,-43.935,-45.487,-44.755,-80.642,-51.878,-43.488,-42.154,-37.831,-74.39,-44.359,-21.558,-36.097,-33.341,-73.512,-45.143,-22.908,-10.079,-13.905,-81.428,-17.303,-59.057,-8.957,-7.197],[-85.343,-66.937,-56.373,-39.431,-42.207,-84.893,-61.525,-48.456,-37.887,-48.591,-83.458,-61.338,-50.424,-41.509,-40.762,-83.182,-51.587,-35.147,-30.196,-36.471,-78.335,-47.36,-26.223,-14.265,-19.288,-89.548,-48.357,-37.127,-12.006,-14.09]],
"ve": [[-46.063,-60.841,-20.191,-100.583,-88.41,-5.633,-47.602,-44.887,-306.985,-35.815,-46.615,-41.274,-70.092,-40.592,136.379,15.217,2.564,-480.796,44.468,30.824,130.798,1.859,-17.364,9.755,53.046,242.378,81.299,65.11,1.179,-39.862],[-84.672,-44.679,-44.2,-50.561,-34.324,-35.917,796.495,-39.583,-53.943,-8.801,-44.907,-30.747,-33.766,-32.824,73.288,43.21,-9.052,-6.108,2.625,1535.549,166.039,-4.712,-9.856,4.344,-40.775,84.994,5.035,9.593,43.448,29.935],[-41.321,-82.873,-85.324,-46.972,-47.283,-31.299,-81.626,-82.474,-66.254,-46.553,-19.203,-64.564,-37.051,-51.664,-34.415,-20.326,-54.653,-54.144,-8.174,-13.81,70.28,-12.013,19.981,-18.782,8.568,35.504,38.333,-11.916,-11.306,3.901],[2.13,-81.68,-104.009,-62.713,-65.122,-76.106,-100.012,-101.373,-51.394,-62.079,-55.638,-76.287,-78.156,-68.045,-60.961,-10.447,-17.949,-55.266,-45.615,-50.381,108.431,1.028,-45.039,-9.403,12.483,93.448,111.739,10.272,-22.949,6.703],[3.438,-109.325,-111.77,-95.035,-86.211,-0.703,-86.074,-84.869,-86.168,-76.251,8.355,-58.047,-90.774,-85.39,-62.632,108.141,-27.531,-43.378,-80,-66.138,-11.027,-10.582,-0.08,2.986,-23.08,317.358,-15.591,20.312,26.975,-8.428],[-29.23,-85.033,-123.645,-79.097,-81.452,-35.322,-80.49,-103.741,-82.956,-100.855,-4.386,-72.499,-91.35,-97.973,-76.178,9.455,11.752,-46.957,-76.892,280.312,56.918,22.799,-39.585,-17.222,-29.474,95.403,-6.415,-35.363,3.623,-18.393]],
"kep": [[-92.247,-33.786,25.47,18.697,-12.686,-106.593,-36.437,-11.161,24.047,-8.073,-112.261,-24.324,-32.499,32.116,29.032,-119.704,-75.86,-53.701,-27.197,-21.776,-110.201,-132.247,-149.186,-84.143,-141.735,26.466,-123.692,-331.725,-299.552,-421.709],[-67.946,-59.128,-110.085,-22.694,-8.648,-71.709,-44.752,-92.383,-15.033,-5.266,-71.078,-49.447,-107.637,0.256,-5.152,-75.674,-60.116,-130.895,-84.904,-35.456,-69.455,-38.557,-62.45,-143.293,-50.648,-47.329,-26.087,20.092,-114.026,-184.774],[-77.578,-30.702,-11.089,-45.428,-92.424,-76.876,-26.348,-21.808,-51.111,-124.765,-78.84,-27.601,-12.578,-46.557,-109.056,-68.805,-22.453,-29.076,-70.129,-141.56,-69.941,-31.57,-41.853,-14.152,-92.758,-57.843,-42.252,-18.894,6.829,-35.338],[-92.482,-33.82,-15.509,-9.259,-13.318,-84.719,-35.033,-10.614,-8.158,-16.904,-82.202,-44.965,-14.578,-7.555,0.126,-78.705,-49.092,-22.299,-12.507,-14.034,-84.074,-41.721,-21.658,-18.354,-52.4,-73.077,-60.31,-38.571,-12.161,-5.316],[-93.159,-36.926,-6.506,-7.288,-4.392,-89.778,-39.094,-22.266,-11.177,-8.511,-93.171,-47.606,-19.056,-9.423,-4.508,-94.14,-59.012,-28.74,-13.084,-10.309,-80.911,-54.755,-45.707,-23.978,-27.58,-82.503,-44.76,-55.14,-39.734,-14.846],[-94.479,-60.6,-26.44,-14.284,-8.934,-92.617,-55.394,-24.823,-10.46,-2.38,-92.61,-57.028,-29.699,-9.627,-8.372,-90.878,-68.485,-38.095,-12.599,-12.364,-86.168,-64.731,-36.263,-34.553,-34.125,-88.725,-61.221,-40.59,-30.827,-19.114]],
"vp": [[253.229,119.402,383.544,123.553,-99.119,66.979,6.478,27.942,3.637,-25.398,-5.174,-6.93,-18.377,18.322,2.218,-53.952,-2.744,15.243,-6.133,6.563,-51.351,12.158,-15.841,17.409,-23.796,-46.902,-28.768,-24.15,-24.589,-45.023],[1839.079,632.749,28.736,105.156,208.814,451.591,110.841,9.088,29.31,-88.926,193.645,41.747,16.042,59.485,-35.166,14.034,-40.794,-34.185,-31.931,-17.033,-29.831,-47.829,-16.863,-24.552,-8.29,-29.438,-50.675,-43.323,-8.698,-30.717],[3499.659,1667.983,737.035,816.573,246.67,585.734,282.728,183.951,69.983,-89.96,373.445,156.894,66.874,41.24,-1.592,25.739,-21.781,-27.942,-15.471,-29.931,-14.13,-36.744,-32.265,-46.458,-23.591,-50.059,-50.795,-44.841,-46.427,-1.472],[5713.286,3032.929,1068.036,1039.025,466.06,869.059,521.552,294.788,223.153,74.347,444.643,394.063,132.737,79.559,25.226,53.188,4.034,-10.6,1.659,6.496,-3.118,-33.137,-35.142,-47.188,-21.04,-45.461,-18.096,-51.503,-47.184,-48.103],[5708.184,3269.289,1656.811,1423.703,929.466,1133.55,849.105,562.64,234.059,139.534,653.728,445.581,194.891,113.775,116.425,75.921,47.138,4.815,5.354,-17.343,8.034,2.024,-6.495,-18.092,-15.713,-28.332,-37.926,-29.274,-41.936,-40.458],[6446.793,6059.152,3237.862,2265.97,1561.114,1054.204,1297.15,780.427,502.418,163.189,462.486,564.013,445.495,173.171,202.28,87.519,58.709,66.82,-3.046,0.99,38.515,20.221,-15.728,-4.861,7.854,13.5,-45.344,-38.941,-38.991,-45.033]]
}