{
"KTrans": [[1.252,2.154,-1.047,-2.696,0.639,4.846,10.649,6.761,16.18,13.248,8.139,21.854,21.423,17.762,23.05,-6.493,27.259,68.713,81.201,83.321,-46.605,24.742,73.936,100.197,119.315,193.213,-106.553,-135.598,5.926,20.499],[-17.249,-6.951,0.258,2.023,0.599,-12.688,1.108,2.496,4.057,3.184,-12.313,3.383,4.675,9.644,8.114,-40.052,-14.191,0.534,19.056,30.215,-35.439,29.476,-11.292,15.351,38.44,117.217,84.605,32.996,53.903,20.612],[-33.996,-5.724,-0.577,-2.504,0.354,-23.602,3.816,1.793,1.286,0.234,-23.251,6.438,3.747,3.513,0.959,-38.22,31.199,1.231,15.301,-1.309,-36.312,-44.917,-2.137,-34.521,-9.18,-50.112,-11.523,-11.694,-27.471,-20.708],[-45.039,-6.619,-4.33,0.71,0.192,-40.5,-0.723,0.343,-0.438,0.292,-35.413,0.857,7.486,4.843,6.128,-34.626,-42.652,12.709,31.702,18.849,-51.405,-7.977,-2.798,14.891,5.36,-2.748,-30.417,5.409,-22.96,-20.43],[-57.091,-13.575,-0.322,-3.662,1.298,-56.734,-10.494,1.577,2.157,-0.376,-67.291,-6.131,1.433,3.82,6.209,-65.323,-21.9,-5.305,22.764,20.913,-50.964,-28.703,36.857,1.048,36.101,-48.787,14.882,34.626,45.106,-83.758],[-57.633,-14.14,1.046,-1.795,-2.152,-62.195,-15.93,-5.027,2.652,2.09,-74.73,-11.621,4.268,3.597,2.783,-65.917,-12.851,22.818,21.945,25.805,-64.324,-10.664,-21.273,-35.011,-2.537,-87.403,-47.893,-61.185,-35.724,-61.075]],
"ve": [[-10.281,-16.572,-47.401,55.158,19.988,7.48,45.14,-23.355,-63.605,-108.63,-10.294,28.912,-64.743,54.6,-156.538,-87.443,10.644,-37.237,-30.484,-149.416,102.18,33.521,5.555,-60.758,-45.446,191.551,78.624,32.878,1.8,-18.358],[-16.194,-8.16,-1.305,-12.717,53.349,-3.94,0.872,-2.502,22.21,14.924,64.374,-0.312,2.846,2.869,6.974,47.38,35.19,16.851,263.435,-7.981,101.661,48.81,27.126,18.424,24.599,193.428,99.083,64.853,42.905,24.324],[-6.014,-2.181,-1.403,-1.507,0.8,-1.062,0.683,-0.149,1.081,0.796,2.906,2.941,0.33,4.592,2.222,44.164,25.44,16.842,9,14.497,97.738,49.599,34.826,25.098,19.29,205.538,99.772,66.684,51.777,39.328],[-5.437,-0.479,-0.244,-0.701,-0.509,4.331,1.023,0.608,0.286,-1.889,5.233,3.341,2.342,1.681,1.001,46.031,19.717,15.841,11.306,13.196,101.067,47.937,32.512,24.68,22.395,193.612,102.249,65.515,49.241,41.691],[2.688,-2.142,-0.322,-0.719,-0.029,6.073,-0.64,0.751,0.768,0.559,14.977,3.57,2.485,2.231,1.493,42.426,24.253,17.196,11.587,3.97,88.351,106.712,36.206,31.953,7.662,143.308,96.675,66.016,50.225,41.785],[-46.816,-0.465,-0.143,-0.349,-0.563,-2.832,6.852,0.502,1.186,0.724,20.415,2.914,2.103,1.845,1.499,46.351,24.59,13.717,1.421,9.861,92.748,47.183,34.864,24.922,20.108,200.756,98.4,65.615,49.509,40.594]],
"kep": [[-113.969,-28.917,4.735,12.439,1.044,-119.362,-50.217,-4.776,-37.853,-23.018,-130.602,-64.974,-40.449,-35.817,-43.968,-133.739,-274.566,-183.563,-202.122,-201.045,-73.111,-313.467,-348.651,-347.209,-361.544,46.107,-110.495,-541.986,-634.992,-730.84],[-40.271,-46.792,-112.317,-17.367,-2.085,-38.847,-25.77,-126.107,-42.128,-12.772,-44.724,-26.37,-123.714,-53.989,-20.972,-67.398,-72.756,-121.388,-166.476,-115.603,-65.449,-9.108,-97.817,-208.353,-186.671,-24.606,-3.06,23.632,9.572,-304.951],[-49.31,-13.403,-9.858,-37.43,-122.204,-45.213,-3.401,-0.066,-17.633,-128.716,-47.6,-1.946,-6.156,-20.585,-131.311,-62.77,-3.863,-31.146,-13.872,-134.561,-67.247,-66.522,-45.796,-81.896,-71.465,-65.642,-43.017,-37.585,-34.531,-8.62],[-61.142,-15.971,-9.341,-1.706,-4.441,-59.574,-11.523,-4.284,-3.217,-7.931,-55.535,-12.216,-0.957,2.094,7.216,-62.013,-68.555,-10.057,17.278,2.476,-72.365,-44.37,-39.185,-12.79,-37.129,-63.172,-52.225,-37.111,-40.633,-43.985],[-72.572,-18.872,-3.971,-7.253,5.659,-72.484,-20.535,-4.52,0.829,-4.097,-80.098,-21.037,-5.538,0.459,4.536,-78.925,-46.822,-32.007,4.163,7.637,-74.517,-56.221,-8.014,-30.984,12.904,-77.748,-37.429,-20.324,-14.016,-96.386],[-70.3,-24.517,-4.023,-3.73,-4.691,-76.996,-27.479,-11.295,0.359,-1.191,-85.676,-26.332,-6.24,-0.969,0.433,-82.066,-39.86,-6.772,1.501,10.676,-80.639,-45.87,-50.851,-56.634,-32.757,-87.352,-64.272,-68.394,-54.328,-66.644]],
"vp": [[-79.56,197.51,264.405,68.595,80.193,-52.487,-33.474,72.447,8.062,54.068,1.828,-3.582,-18.166,-17.762,19.605,-23.868,18.098,1.875,2.733,-5.544,-16.815,-12.477,4.876,-9.213,-20.768,-45.699,-7.161,-0.478,-9.556,0.548],[2015.769,848.199,-119.147,18.605,93.776,351.052,118.474,-11.461,-46.745,15.392,170.576,46.764,9.092,8.216,-37.43,8.981,7.523,-8.973,-13.021,18.865,3.238,-43.22,-11.345,-28.155,-21.112,-59.927,-31.159,-28.328,-31.273,-16.868],[3785.674,1537.213,702.218,635.241,-84.571,732.152,283.849,141.958,28.092,-46.22,349.851,205.316,42.773,5.248,8.208,42.555,-2.501,13,-11.323,-27.926,-24.994,-19.37,-22.483,-31.232,-18.317,2.549,-21.991,-30.136,-29.194,-32.909],[5154.409,3268.594,1325.233,707.686,64.037,1038.855,630.903,259.192,54.189,68.607,369.06,361.021,143.808,40.102,-11.636,23.684,89.139,-22.375,-14.232,-14.676,17.621,-16.43,-14.11,-33.079,-22.161,-39.275,-34.871,-47.825,-40.669,-27.041],[6002.879,3731.896,2195.295,683.13,990.229,1122.428,813.904,409.734,210.358,86.58,531.317,491.347,236.11,113.962,106.406,76.151,65.145,59.655,2.182,12.236,16.967,12.31,-28.226,-4.296,-35.439,-8.037,-37.025,-46.322,-21.528,-41.542],[5941.687,5858.411,3565.788,1884.6,1536.78,1127.477,1260.054,631.78,452.463,138.125,587.098,552.833,339.847,176.62,113.873,101.824,98.869,56.532,34.111,42.04,30.141,0.423,18.028,-5.885,-16.333,1.045,-26.848,-14.445,-48.709,-24.345]]
}