{
"KTrans": [[3.152,2.057,1.5,0.783,0.934,13.488,7.912,6.459,5.988,5.294,26.781,16.172,12.873,11.843,10.613,163.579,93.364,75.557,66.407,60.859,409.004,219.752,176.835,153.893,143.455,1141.731,592.758,457.764,390.987,358.485],[2.219,1.542,1.335,0.81,1.006,13.027,6.385,4.196,3.639,3.185,25.086,13.172,8.957,6.859,5.989,137.298,64.529,45.951,36.631,31.085,387.475,148.202,102.792,79.054,67.689,1292.271,374.796,236.466,178.764,153.566],[4.629,2.672,1.714,1.029,1.177,13.47,7.668,4.204,3.468,3.077,24.126,11.524,8.376,6.246,5.485,156.809,62.614,41.95,31.732,26.55,449.492,140.085,91.319,68.311,55.876,471.18,370.921,219.209,152.713,123.971],[3.719,2.73,1.983,1.388,1.176,14.914,7.955,4.579,3.71,2.885,23.577,12.37,8.51,6.387,5.372,148.239,62.834,41.488,30.074,24.639,403.698,144.776,88.802,64.433,52.754,230.77,413.913,216.83,148.222,115.016],[2.479,2.791,2.288,1.327,1.228,15.469,7.108,5.277,4,3.16,24.275,12.898,8.213,6.273,5.438,124.114,60.908,39.131,30.762,24.334,308.835,150.388,91.36,63.877,51.291,176.189,423.749,219.567,143.182,113.066],[4.985,3.257,2.427,1.894,1.405,14.009,8.032,5.594,4.124,3.449,24.899,13.471,8.953,7.021,5.319,137.481,64.228,40.539,31.3,23.869,138.818,155.213,84.867,61.216,50.756,13.119,435.043,220.687,142.644,110.558]],
"ve": [[0.829,-0.169,-0.321,-0.034,-0.368,4.416,0.575,-1.446,-3.258,-3.926,8.624,1.243,-1.853,-5.113,-7.555,44.709,13.039,-1.681,-11.384,-18.895,93.204,32.728,7.789,-7.455,-18.77,191.297,78.998,35.268,9.938,-6.3],[0.992,0.325,0.076,0.035,-0.008,4.864,2.282,1.218,0.761,0.29,9.906,4.468,2.738,1.593,0.806,49.189,23.283,14.112,8.911,5.349,99.437,47.568,29.389,19.146,12.425,200.87,96.712,60.685,41.128,28.584],[0.818,0.351,0.216,0.056,-0.015,5.062,2.412,1.407,1.007,0.665,9.704,4.792,3.019,2.083,1.525,49.935,24.219,15.724,11.215,8.297,100.076,49.026,31.93,22.881,17.129,201.316,98.912,64.738,46.616,35.453],[0.886,0.438,0.219,0.1,0.069,4.996,2.45,1.51,0.999,0.834,10.221,4.807,3.012,2.277,1.673,49.407,24.613,16.208,11.736,9.068,100.385,49.545,32.514,23.87,18.584,201.048,99.879,65.885,48.377,37.667],[0.874,0.35,0.224,0.05,0.082,5.049,2.51,1.624,1.111,0.812,10.112,4.875,3.243,2.314,1.798,49.15,24.718,16.195,12.053,9.45,110.08,49.767,32.94,24.276,19.088,199.099,99.714,66.298,48.857,38.637],[0.91,0.43,0.146,0.185,0.022,4.968,2.562,1.458,1.148,0.892,10.179,4.895,3.283,2.292,1.803,50.152,24.682,16.433,12.205,9.616,101.568,49.782,32.7,24.336,19.414,201.658,99.494,66.351,49.192,39.002]],
"kep": [[2.345,2.288,1.923,0.951,1.471,8.732,7.35,8.084,9.651,9.773,16.772,14.789,15.067,17.973,19.802,82.039,71.081,78.619,87.87,98.438,162.876,140.824,156.839,174.366,199.759,323.638,286.382,312.023,346.386,389.109],[1.221,1.216,1.263,0.78,1.021,7.802,4.02,2.947,2.862,2.891,13.818,8.339,6.059,5.189,5.149,58.771,33.424,27.895,25.456,24.435,143.14,68.05,56.68,50.261,49.154,356.215,140.536,109.128,97.394,97.15],[3.782,2.315,1.496,0.974,1.196,8.025,5.134,2.759,2.439,2.398,13.139,6.425,5.201,4.08,3.903,70.776,30.856,22.647,18.442,16.854,172.028,60.865,44.944,36.942,33.067,90.092,135.671,93.423,72.22,65.269],[2.754,2.285,1.763,1.288,1.108,9.426,5.369,3.025,2.685,2.034,12.052,7.214,5.335,4.018,3.638,65.432,30.593,21.731,16.401,14.271,149.203,63.369,42.368,32.701,28.792,11.487,155.409,90.521,67.094,56.09],[1.614,2.427,2.059,1.277,1.146,9.875,4.48,3.595,2.858,2.329,12.793,7.644,4.813,3.869,3.576,49.476,28.935,19.705,16.682,13.593,102.529,66.733,43.804,31.805,27.008,-6.318,160.02,91.686,63.132,53.553],[4.008,2.805,2.275,1.707,1.383,8.537,5.326,4.075,2.941,2.534,13.222,8.156,5.482,4.623,3.453,57.248,31.588,20.667,17,12.994,18.31,69.795,39.158,29.597,26.214,-60.568,165.105,92.142,62.384,51.33]],
"vp": [[41.224,-18.776,23.483,12.824,9.283,14.199,24.107,8.935,7.944,8.084,18.106,14.431,6.547,17.326,4.656,10.699,6.998,13.946,9.566,9.324,10.693,3.763,10.414,11.213,14.742,8.547,10.514,10.951,6.018,7.458],[-24.879,-24.039,23.549,20.947,20.948,15.33,29.477,14.318,18.417,15.752,24.066,23.239,15.576,15.067,13.584,14.95,10.024,16.848,13.947,12.41,26.811,12.569,20.165,13.369,16.209,27.957,14.426,12.226,7.501,12.92],[88.967,-54.446,-10.377,-13.512,26.627,49.889,23.007,5.82,17.047,11.474,37.25,9.451,8.256,8.603,17.963,34.6,13.875,18.383,12.233,14.929,37.28,13.671,17.583,13.665,12.692,24.676,20.635,20.452,10.881,12.19],[324.425,-152.46,-72.896,8.751,-12.857,162.784,3.652,-0.103,10.082,14.288,82.581,2.3,11.906,13.583,17.531,38.715,16.003,18.303,8.61,12.458,56.806,22.824,17.784,13.611,16.631,33.481,31.241,24.164,18.527,14.289],[1055.597,-286.297,-107.864,-171.08,-54.426,276.869,-12.164,-1.911,6.593,9.192,136.36,15.068,12.371,-0.461,16.125,60.84,18.713,7.486,19.384,12.843,53.65,26.612,24.734,17.553,19.225,34.73,34.167,28.169,16.297,18.606],[2509.417,-248.691,-245.545,-178.293,-100.738,488.803,-48.989,-65.287,-1.624,-9.328,289.534,2.77,1.22,3.489,-5.122,119.303,18.768,18.015,21.125,11.296,82.939,30.788,10.562,9.551,21.039,51.589,37.378,26.98,16.462,17.362]]
}