{
"KTrans": [[-0.433,0.448,-1.394,-6.471,-6.772,5.611,17.41,14.146,2.022,10.357,16.078,21.604,21.211,19.224,21.163,22.317,69.46,88.581,88.48,87.626,-28.797,23.316,102.149,125.54,133.973,-130.816,-46.03,-30.5,87.593,113.329],[-37.943,-14.647,-0.438,4.17,-2.332,-32.05,-11.422,0.069,4.622,4.673,-24.221,-9.076,5.685,9.32,7.807,-7.338,16.662,-0.64,18.121,35.892,10.291,-25.997,-23.7,32.188,49.202,21.77,-1.776,-42.317,-42.723,14.202],[-54.688,-17.738,-11.536,-7.146,-1.251,-48.543,-12.649,-9.892,-5.8,-1.046,-42.913,-12.819,-2.381,-2.501,0.309,-36.931,21.782,8.739,4.814,1.663,-56.399,13.112,14.606,7.989,-15.231,-11.753,-6.937,-34.623,-24.76,-79.6],[-63.11,-22.272,-9.535,-8.638,-6.481,-57.607,-20.331,-8.934,-5.617,-6.147,-54.447,-17.688,-4.824,-2.806,-0.776,-42.51,6.54,18.19,19.89,15.429,-34.309,15.738,43.876,33.759,10.741,-33.276,-79.517,62.407,36.663,-10.797],[-66.866,-30.173,-14.352,-8.83,-6.471,-66.795,-30.06,-10.631,-5.224,-2.642,-67.638,-21.14,-6.973,-2.835,-3.027,-48.248,2.077,14.25,17.741,11.867,-73.419,11.116,17.916,35.944,23.946,-69.437,-22.15,25.293,44.574,7.794],[-72.237,-31.067,-17.444,-9.705,-5.421,-73.868,-32.836,-11.143,-6.371,-4.666,-69.943,-32.104,-8.6,-3.784,-2.327,-67.048,-14.554,12.628,14.789,17.685,-49.946,-12.309,31.538,34.497,28.803,-64.662,-17.366,4.643,48.805,29.804]],
"ve": [[11.131,-41.019,-36.084,9.022,-138.176,44.298,17.437,2066.03,-51.397,-72.857,-11.633,59.724,-33.577,-1.681,-488.41,57.962,-19.237,42.629,198.171,-55.851,92.765,28.42,-123.72,-2.405,-71.029,170.749,83.586,33.73,0.498,-17.513],[-4.844,60.571,5.363,9.292,8.993,5.449,4.095,-4.7,14.442,-10.728,-0.655,-110.251,-20.97,18.934,-10.804,45.821,32.859,21.416,2.778,-28.201,86.186,42.696,35.104,8.15,-5.94,214.204,108.504,64.329,41.392,23.464],[-13.331,-7.789,0.971,-9.487,0.263,-11.403,-1.448,-3.511,1.122,-2.647,-80.688,-740.651,-8.174,4.363,-0.117,48.569,25.715,13.683,11.15,7.685,87.535,47.858,44.527,14.724,21.332,181.388,113.255,68.396,48.218,38.295],[-24.844,-2.869,-2.417,-3.896,-6.967,16.393,-3.554,-0.724,-2.075,-46.591,5.277,0.015,-0.864,-1.903,7.747,39.94,31.46,7.087,10.793,28.119,97.745,63.628,32.294,25.523,20.124,202.091,325.67,67.62,57.996,38.951],[-8.584,-3.618,-2.568,-2.328,-2.631,-5.229,-1.403,-0.455,-0.023,-2.43,-2.482,1.587,1.139,1.252,-0.91,70.453,21.36,13.834,10.539,-0.196,99.685,45.537,30.833,20.131,10.435,194.227,101.513,63.801,42.238,40.643],[-11.877,-3.731,-1.893,-0.891,-0.656,-3.445,-2.845,-0.42,-0.368,-0.434,-3.684,6.332,0.832,0.323,0.595,34.942,25.888,14.959,10.294,8.815,92.909,46.37,28.599,20.297,18.861,195.354,95.98,66.4,62.311,36.204]],
"kep": [[-133.059,-57.692,-17.545,-20,22.769,-119.36,-87.632,-52.664,15.679,-48.011,-112.878,-85.707,-70.537,-31.282,-38.143,-159.93,-187.57,-198.494,-183.09,-187.3,-184.032,-334.728,-350.747,-349.647,-395.055,-129.983,-325.031,-576.28,-595.163,-730.326],[-78.808,-88.381,-122.586,-52.14,-3.534,-73.387,-81.771,-127.54,-49.376,-16.332,-69.507,-76.829,-129.533,-69.76,-17.166,-72.021,-65.701,-184.595,-181.119,-108.801,-72.795,-121.274,-213.699,-201.604,-189.661,-73.725,-96.928,-183.762,-312.938,-326.537],[-79.634,-43.721,-47.931,-87.324,-115.779,-74.837,-39.402,-47.69,-86.968,-131.228,-71.127,-40.407,-33.75,-79.478,-133.074,-78.491,-27.134,-43.364,-84.146,-176.447,-90.802,-51.592,-54.495,-85.423,-229.139,-79.432,-72.785,-105.891,-106.45,-245.8],[-81.577,-38.01,-25.099,-32.748,-46.432,-76.579,-39.618,-25.441,-23.331,-45.679,-76.119,-39.299,-22.842,-24.357,-33.064,-79.36,-34.763,-11.81,-6.041,-19.735,-78.7,-43.699,-13.296,-14.854,-58.644,-81.637,-99.883,-25.775,-29.747,-83.953],[-82.553,-45.497,-27.793,-21.728,-22.414,-83.586,-47.718,-25.118,-15.973,-17.795,-84.885,-39.654,-23.715,-15.906,-17.623,-79.577,-35.265,-14.701,-5.63,-12.022,-94.201,-42.147,-28.632,-2.855,-16.223,-90.597,-72.344,-47.323,-23.418,-53.308],[-85.92,-46.109,-29.341,-19.758,-15.657,-87.506,-48.077,-22.9,-18.829,-14.777,-85.925,-47.929,-21.854,-14.979,-15.229,-87.937,-45.739,-16.915,-8.445,0.429,-83.49,-58.527,-18.34,-5.82,-3.963,-90.706,-64.267,-53.844,-19.459,-34.581]],
"vp": [[-336.856,276.13,441.252,124.041,124.053,26.01,47.112,82.828,13.67,-31.627,-30.577,-19.672,19.594,28.923,52.121,-13.695,-12.398,-11.126,-15.603,-14.753,-4.337,1.295,-14.421,2.309,-13.66,-9.417,-4.38,4.735,-4.041,-1.147],[2534.544,1168.1,-253.296,-0.84,523.268,419.844,260.015,-4.397,15.919,-33.636,243.525,46.727,-6.167,-39.77,27.064,21.136,1.918,-3.012,-3.363,-12.728,-2.326,-7.947,-4.252,-16.176,-10.699,-13.482,-16.903,-6.999,-12.764,-4.293],[4650.337,2657.299,755.341,847.436,347.868,856.922,519.074,318.681,172.39,8.737,459.962,309.773,171.889,78.256,-4.922,69.779,69.303,6.271,20.116,-12.826,35.847,18.003,10.798,-13.279,-19.388,-17.497,-14.528,-16.315,-0.651,-7.273],[5720.924,5423.822,2672.45,1807.519,1093.581,1076.898,967.39,389.313,245.894,50.723,584.666,402.88,284.134,183.011,135.347,107.284,106.047,39.196,10.712,-3.593,28.231,36.15,9.486,3.718,27.106,4.845,19.238,1.454,-25.97,-23.266],[6570.702,6953.198,3619.853,1866.568,1846.551,1302.459,1133.132,656.857,496.396,340.356,653.921,596.304,383.131,216.628,142.003,125.399,127.059,50.766,60.456,5.015,53.055,52.729,23.667,5.658,12.036,15.708,28.701,3.467,-11.572,6.23],[7379.107,8494.592,5665.134,3721.238,2499.106,1343.534,1669.195,931.067,672.028,197.681,738.993,772.799,541.634,194.271,174.601,114.783,138.985,133.663,66.967,35.793,45.77,87.946,39.752,24.277,-8.985,23.081,4.386,25.04,6.775,15.959]]
}