{
"KTrans": [[4.948,2.933,2.43,2.171,1.633,15.258,9.442,7.687,6.242,5.943,28.298,17.149,14.246,12.364,11.842,160.641,99.676,81.858,66.588,64.336,14.817,198.314,169.685,151.544,140.855,88.668,110.673,171.068,224.904,241.801],[10.068,3.6,3.166,2.701,2.24,15.843,8.781,6.099,5.028,4.499,29.935,14.031,11.088,8.965,7.774,37.859,78.404,48.901,36.34,32.504,14.403,183.456,111.868,82.581,69.619,-18.866,12.974,166.693,175.496,151.404],[14.905,4.934,3.58,2.789,2.564,19.306,12.463,7.084,5.055,4.527,41.621,16.356,11.56,8.447,7.125,-36.802,85.417,43.186,36.745,29.091,-57.441,44.722,131.844,76.094,62.244,-39.526,57.375,48.583,167.404,138.902],[7.778,5.183,5.114,3.746,3.18,-6.982,14.633,7.114,5.776,4.982,10.291,15.811,12.675,8.699,7.097,-51.101,99.147,56.074,36.264,27.252,-54.027,8.385,133.361,83.036,52.481,-8.685,-35.432,-20.908,151.262,139.328],[-37.402,7.539,6.329,4.641,4.236,-32.127,14.704,7.752,6.14,5.273,-48.936,23.618,10.662,9.074,7.989,-58.559,84.589,65.837,37.62,27.986,-66.777,-33.746,139.106,78.973,53.799,-50.456,-71.584,-31.943,104.881,139.435],[-64.255,11.12,6.427,6.09,5.864,-63.074,20.453,9.503,6.418,5.127,-62.163,29.274,15.228,10.182,8.275,-81.243,-0.11,76.694,39.415,30.626,-63.315,-40.033,84.947,100.225,57.366,-54.203,-14.14,-48.066,-12.296,151.265]],
"ve": [[0.368,-0.715,-1.541,-1.852,-1.642,3.735,0.103,-2.223,-3.956,-4.396,8.312,1.195,-3.447,-5.497,-8.528,45.801,13.349,-1.263,-10.907,-18.971,92.188,38.948,10.137,-5.823,-17.238,194.581,107.253,35.236,1.516,-17.175],[1.078,0.178,-0.156,-0.439,-0.635,4.782,1.709,1.002,0.137,-0.154,9.423,4.227,2.495,1.18,0.256,49.544,23.395,13.853,8.645,5.083,100.349,49.82,29.522,19.427,12.242,199.38,97.486,67.945,43.261,29.206],[0.511,0.246,-0.098,-0.09,-0.306,4.769,2.256,1.172,0.691,0.37,9.891,4.617,2.638,1.826,1.195,46.686,24.096,15.236,11.039,7.941,100.813,47.869,32.833,22.706,17.198,201.672,97.775,67.012,47.993,35.97],[2.145,0.086,0.054,0.01,-0.245,5.061,2.528,1.3,0.838,0.503,8.54,4.508,2.979,1.963,1.419,50.177,24.306,16.252,11.703,8.888,99.418,49.295,32.35,24.044,17.871,195.245,102.621,64.575,44.871,38.335],[-20.798,0.317,0.184,0.015,-0.114,0.216,2.528,1.261,0.942,0.541,10.276,5.043,2.831,2.092,1.522,48.921,26.472,16.423,11.951,9.159,102.198,47.634,32.429,24.081,18.721,201.28,101.276,64.45,48.757,38.376],[2.612,0.428,0.027,0.105,-0.038,3.002,2.613,1.379,0.94,0.585,13.467,5.118,2.956,2.121,1.602,50.76,24.543,16.86,12.03,9.545,100.703,50.471,31.408,24.704,18.877,201.977,100.037,67.134,48.436,38.719]],
"kep": [[4.666,3.822,4.287,4.446,3.789,11.32,9.487,10.302,10.909,11.281,18.574,15.936,18.585,19.231,22.721,76.67,75.942,84.298,87.405,103.551,-27.702,117.098,144.614,166.81,191.317,-11.583,25.152,92.88,182.66,239.969],[8.93,3.456,3.341,3.167,2.904,10.435,6.96,5.066,4.902,4.676,18.405,9.414,8.396,7.707,7.516,-5.052,43.721,30.616,25.459,26.115,-34.817,85.73,62.303,52.469,50.982,-61.542,-31.577,64.444,91.025,93.487],[13.749,4.63,3.683,2.889,2.887,13.073,9.912,5.835,4.342,4.148,27.368,11.136,8.68,6.503,5.864,-53.256,47.664,23.974,23.007,19.552,-72.093,-0.11,72.024,42.779,38.1,-72.162,-13.313,-6.641,78.258,73.895],[4.194,4.942,5.034,3.733,3.435,-12.158,11.587,5.705,4.886,4.456,-0.658,10.574,9.365,6.596,5.595,-63.784,57.32,33.493,21.753,16.794,-72.722,-23.302,72.378,46.479,29.004,-64.711,-58.775,-43.415,65.79,70.584],[-38.542,6.769,6.047,4.606,4.351,-35.604,11.283,6.313,5.125,4.697,-53.002,17.012,7.508,6.799,6.36,-69.68,45.072,41.368,22.588,17.121,-79.831,-51.339,75.964,42.853,29.037,-79.074,-79.217,-51.383,36.659,69.457],[-63.628,9.831,6.205,5.9,5.874,-63.624,16.539,7.807,5.35,4.487,-64.153,21.607,11.66,7.807,6.54,-84.528,-19.672,49.61,23.905,19.064,-78.241,-56.136,37.508,58.264,31.565,-81.485,-52.335,-60.979,-36.159,76.781]],
"vp": [[2.822,66.977,-41.512,-25.674,73.254,9.384,26.521,9.805,0.149,33.679,7.982,13.355,-8.645,18.174,17.274,-5.561,11.639,26.022,2.533,18.569,-3.027,1.853,3.714,4.424,8.604,49.132,-1.898,-4.872,-8.849,-1.382],[171.775,17.007,60.396,96.319,69.521,112.232,22.858,15.862,26.959,44.349,-15.308,18.806,41.255,44.333,42.933,21.917,16.297,9.074,-7.797,8.688,30.986,21.887,10.329,6.864,8.187,22.876,11.466,-19.848,0.862,-2.608],[4133.798,-131.172,171.024,93.743,141.525,754.069,-15.223,8.8,35.944,18.969,479.394,-0.044,41.926,0.029,31.412,32.691,15.493,-3.114,22.35,12.857,66.349,3.783,39.47,11.202,18.823,40.094,13.005,11.155,8.449,9.22],[8230.035,-145.037,-300.171,-127.029,-75.909,1279.762,-16.113,-66.578,-38.966,24.885,818.387,-57.606,34.865,-6.119,4.437,133.447,40.003,40.221,18.571,6.288,79.159,41.093,14.978,23.893,-11.694,18.222,68.985,-8.223,-3.109,15.146],[8724.896,128.843,-1082.706,-352.056,-313.289,1667.368,365.356,-182.126,-64.81,-13.278,806.829,369.855,-124.008,-19.252,-17.101,193.051,114.603,60.322,20.246,13.935,111.674,50.977,9.426,13.135,-2.784,66.542,52.871,2.989,-1.414,-1.79],[8724.624,11034.139,-1272.253,-896.542,-580.767,1611.04,2114.894,-380.652,-92.962,-77.196,913.797,1171.412,-76.811,-92.449,-3.242,267.335,180.549,117.46,21.73,17.581,121.591,134.571,23.111,39.429,-2.055,71.04,62.43,33.478,26.638,5.351]]
}