{
"KTrans": [[2.188,1.714,0.566,1.294,0.454,13.431,8.044,8.558,5.98,5.597,26.105,17.003,13.588,11.798,10.028,159.677,95.248,75.519,66.123,60.414,404.202,220.759,175.294,152.184,138.92,1120.992,584.397,454.66,390.701,357.129],[-3.255,0.388,1.777,0.119,0.23,5.039,5.564,4.378,2.984,2.69,17.207,9.672,8.702,7.722,5.847,130.88,64.654,44.119,35.903,30.689,315.232,146.678,97.362,76.119,67.308,791.428,357.93,233.85,178.796,151.355],[-11.333,0.14,1.01,-0.343,1.56,-0.702,3.185,3.74,3.478,2.647,7.258,10.77,7.338,6.382,4.984,105.894,58.32,41.589,31.154,26.063,260.164,135.659,86.958,67.245,54.822,631.214,328.71,204.567,152.051,122.309],[-19.861,2.032,1.509,0.211,0.434,-8.332,4.145,3.068,2.768,2.279,-3.964,9.956,7.914,6.696,3.608,77.215,54.209,38.854,30.036,23.978,201.638,127.027,83.155,62.701,50.703,469.913,307.796,191.795,143.033,114.148],[-27.468,-1.159,1.578,1.154,0.931,-24.614,1.742,3.116,2.03,1.233,-10.535,7.729,5.445,4.509,4.531,52.16,54.764,39.091,28.439,22.788,149.318,125.165,80.328,61.557,48.627,365.865,289.58,187.233,134.672,105.322],[-38.691,-2.707,1.09,0.228,-0.298,-33.396,1.138,2.277,2.762,2.254,-24.469,8.909,6.867,5.835,3.9,36.802,50.739,35.848,27.816,23.282,121.534,115.425,77.942,59.264,47.825,296.528,275.711,181.06,134.18,105.168]],
"ve": [[1.594,1.78,0.412,0.504,3.377,3.411,1.543,-3.231,-1.728,-3.962,9.58,2.66,-1.633,-4.12,-4.195,46.192,13.189,-1.19,-10.717,-18.273,93.598,33.403,8.135,-7.53,-18.068,193.209,78.789,35.482,10.629,-5.955],[2.046,0.917,0.009,0.356,0.362,5.364,2.399,1.593,1.302,0.52,9.922,4.383,2.914,1.543,1.281,49.206,23.84,14.506,9.234,5.496,100.393,48.262,29.612,19.397,12.469,199.748,97.272,61.021,41.283,28.908],[2.2,0.917,0.405,0.267,0.564,5.962,2.818,1.531,1.344,0.753,10.358,5.42,3.56,2.164,1.752,51.209,24.854,15.891,11.474,8.663,101.051,49.217,31.917,23.117,17.344,200.83,99.484,64.995,46.579,35.783],[3.415,0.555,0.231,0.229,0.381,6.87,2.869,2.01,1.32,1.049,11.303,5.505,3.488,2.358,1.582,51.534,24.943,16.373,11.914,9.352,102.281,49.836,32.734,24.123,18.642,201.594,99.604,65.565,48.577,38.198],[2.892,0.49,0.312,0.578,0.035,6.977,2.889,1.764,1.309,0.848,11.279,4.992,3.508,2.518,1.74,52.402,25.551,16.457,12.222,9.648,101.823,50.255,32.795,24.394,19.24,202.302,99.933,66.533,49.43,38.703],[1.845,0.691,0.291,0.252,0.379,6.45,2.266,1.586,1.395,0.942,10.97,5.284,3.329,2.695,1.999,69.127,25.274,16.67,12.319,9.826,95.278,50.606,33.31,24.556,19.479,201.971,100.364,66.335,49.503,39.361]],
"kep": [[0.898,0.697,0.945,2.026,-1.254,10.021,7.076,12.839,9.004,11.181,15.61,14.525,16.634,17.763,16.673,77.851,72.807,78.056,86.873,97.032,160.773,140.721,154.892,173.238,192.18,316.681,283.044,309.614,343.835,386.289],[-4.821,-0.497,1.81,-0.167,-0.048,-0.066,3.144,2.78,1.708,2.212,6.72,5.109,5.672,6.159,4.575,54.792,33.016,25.891,24.441,23.915,107.263,66.427,52.285,47.523,48.814,197.419,132.145,107.339,97.352,95.005],[-13.34,-0.749,0.635,-0.591,1.003,-6.204,0.366,2.185,2.102,1.9,-2.925,5.124,3.667,4.141,3.191,36.173,26.835,22.193,17.665,16.028,79.354,57.996,41.725,35.833,31.946,143.191,114.927,84.577,71.948,63.713],[-21.651,1.496,1.27,-0.015,0.054,-14.198,1.247,1.039,1.416,1.218,-13.371,4.236,4.278,4.243,2.001,17.123,23.427,19.305,16.189,13.37,49.196,51.495,37.979,31.065,27.021,89.24,104.274,76.212,63.559,54.948],[-29.031,-1.608,1.237,0.569,0.887,-28.848,-1.12,1.337,0.708,0.374,-19.776,2.617,1.863,1.932,2.735,-0.054,23.244,19.39,14.437,11.981,23.928,49.892,35.773,29.841,24.631,54.388,94.844,72.394,57.029,48.005],[-40.202,-3.421,0.775,-0.046,-0.686,-37.129,-1.159,0.69,1.336,1.296,-32.02,3.436,3.432,3.04,1.856,-9.396,20.281,16.416,13.793,12.244,9.683,42.954,33.453,27.831,23.706,31.589,87.439,68.926,56.588,47.199]],
"vp": [[5.817,90.861,-45.965,-9.959,10.78,-7.202,-16.094,-24.861,-18.149,-20.581,-17.417,-24.722,-27.052,-17.85,-13.676,-22.492,-22.658,-21.714,-22.145,-23.197,-23.451,-21.872,-22.296,-22.567,-21.603,-23.988,-22.844,-21.785,-21.738,-21.467],[361.653,53.978,-19.904,-47.575,-44.202,36.565,-25.623,-20.798,-24.329,-13.745,-5.569,-16.706,-16.889,-26.201,-19.127,-18.601,-23.791,-23.174,-24.831,-23.573,-21.285,-23.954,-24.762,-23.346,-21.435,-22.862,-24.419,-22.782,-23.515,-22.801],[892.224,173.655,33.737,-18.157,39.796,162.508,20.904,-13.117,-11.068,-14.286,74.239,-12.112,-27.561,-25.687,-28.169,-3.459,-25.68,-21.993,-22.208,-22.451,-15.238,-25.261,-23.734,-23.833,-23.256,-18.506,-24.317,-25.445,-24.633,-23.277],[1572.438,373.004,56.567,55.804,43.332,267.228,41.645,-12.891,4.639,-16.567,139.668,8.452,-9.498,-25.084,-31.456,11.818,-23.845,-24.367,-24.675,-23.893,-9.047,-24.784,-26.558,-24.487,-23.76,-13.442,-26.771,-26.239,-24.265,-24.35],[2288.586,488.826,229.13,130.393,-67.35,437.283,66.533,27.558,-6.512,-4.079,206.261,18.077,-0.048,-15.139,-19.176,31.479,-15.612,-24.075,-23.817,-24.986,0.481,-21.808,-25.99,-24.516,-25.483,-10.143,-24.439,-24.924,-25.498,-24.205],[3234.647,756.488,338.043,152.448,114.278,625.021,146.74,49.009,15.013,19.39,275.077,62.71,-2.136,-11.461,-10.73,35.977,-9.839,-21.303,-22.939,-23.345,9.283,-17.487,-23.976,-24.873,-24.954,-4.225,-21.046,-24.936,-24.922,-25.939]]
}