{
"KTrans": [[-1.3,2.958,-2.223,-4.515,-5.121,1.476,8.344,6.348,6.284,7.815,7.629,21.222,19.989,16.974,15.349,29.831,73.997,92.002,95.247,92.2,32.368,55.916,122.837,145.929,156.763,-58.882,-197.139,18.558,105.876,155.616],[-30.557,-15.03,-3.614,-0.936,-3.141,-31.55,-13.356,-1.008,1.192,1.43,-20.906,-7.299,-0.638,5.679,3.302,14.517,18.741,-3.998,26.604,36.523,64.585,60.986,-24.808,13.069,57.139,120.036,110.567,-52.208,-83.338,25.515],[-46.941,-19.655,-13.27,-10.622,-4.317,-44.833,-16.583,-9.956,-9.569,-2.677,-42.767,-14.759,-9.099,-6.914,-2.028,-9.305,17.23,17.875,3.505,-8.009,18.338,53.914,46.546,18.4,-27.981,49.687,103.787,93.981,48.374,-61.172],[-59.035,-25.481,-15.415,-11.79,-10.679,-56.974,-23.833,-14.085,-9.758,-8.328,-53.327,-20.661,-11.252,-8.372,-7.067,-30.462,3.202,10.851,11.894,7.513,-11.548,32.531,39.63,34.739,25.766,5.251,76.621,88.577,76.539,59.854],[-64.557,-33.061,-20.298,-13.957,-12.533,-63.451,-30.279,-18.126,-12.878,-10.113,-61.276,-27.772,-15.825,-10.309,-9.49,-45.689,-6.953,3.354,6.722,7.721,-31.544,16.032,27.857,29.159,27.282,-21.873,45.021,66.259,65.218,63.045],[-70.859,-38.44,-23.301,-18.318,-14.549,-70.648,-36.49,-22.278,-15.795,-12.626,-67.067,-33.473,-19.307,-13.839,-11.442,-55.413,-17.847,-3.605,1.314,3.441,-48.965,-1.442,17.318,20.678,22.508,-42.859,22.464,46.804,55.421,57.561]],
"ve": [[-2.124,-23.379,-174.745,-21.419,4.28,-57.259,-12.488,-6.254,-23.259,9.383,195.004,-131.74,1191.769,10.759,-50.389,42.059,-14.24,-63.32,-87.322,-102.539,81.384,29.527,-6.847,-31.609,-46.116,237.875,84.7,32.602,3.944,-15.384],[-13.609,-5.659,1.667,43.411,2.751,-3.568,-1.537,11.426,8.772,4.547,-2.47,18.631,-0.105,5.071,247.667,45.476,13.544,40.614,0.937,55.146,82.283,39.545,44.358,18.577,-5.149,191.036,97.694,72.544,44.958,27.083],[-6.913,-3.128,-8.33,-12.891,-0.808,-13.639,11.474,-4.687,48.813,1.635,-2.732,-0.196,-3.934,107.753,3.046,38.351,19.909,12.023,9.701,-0.1,71.527,40.854,27.785,13.309,20.572,45.829,167.036,188.876,36.707,41.753],[-18.421,-3.743,-2.476,-3.661,-8.626,-11.17,-1.862,-1.284,3.412,-9.083,0.502,1.127,0.295,-1.196,-7.113,38.923,21.043,13.766,9.288,4.018,89.853,44.397,29.467,23.983,15.981,182.07,83.858,59.098,42.213,13.077],[7.633,-2.758,-2.349,-2.281,-2.747,-14.667,-1.522,-0.78,-1.076,-1.695,-8.081,1.022,0.347,0.08,-0.924,45.752,20.713,13.643,9.808,7.603,90.035,43.93,29.42,22.351,17.087,150.96,85.271,60.153,44.686,34.357],[-22.687,-2.372,-2.753,-2.33,-2.652,17.505,-1.329,-0.393,-1.065,-1.834,-0.519,1.608,0.589,0.201,-0.245,60.194,20.401,14.442,9.694,7.558,89.146,42.915,29.516,22.121,17.501,193.621,86.45,59.539,45.264,36.337]],
"kep": [[-125.077,-21.633,-0.924,14.335,10.067,-128.299,-24.547,-2.949,-8.472,-3.836,-129.511,-61.905,-28.69,-20.661,-21.197,-173.948,-255.726,-176.515,-180.98,-187.074,-208.82,-432.616,-398.893,-383.89,-388.204,-269.805,-726.794,-735.536,-769.873,-796.02],[-61.061,-75.636,-112.087,-3.867,10.919,-65.309,-78.155,-136.287,-0.202,-0.778,-55.29,-66.648,-149.242,-20.675,0.555,-55.587,-62.37,-252.952,-206.213,-92.157,-52.946,-47.998,-305.542,-382.665,-206.44,-67.595,-67.889,-318.252,-571.733,-449.796],[-67.41,-41.963,-48.965,-93.43,-147.397,-66.306,-42.692,-44.919,-92.263,-150.829,-65.755,-42.05,-46.687,-88.043,-155.452,-59.825,-28.756,-24.882,-96.3,-292.128,-63.191,-23.396,-22.53,-92.65,-374.505,-75.624,-34.592,-29.129,-94.626,-393.316],[-74.163,-42.6,-35.729,-40.625,-59.876,-73.741,-42.886,-35.533,-39.583,-53.819,-72.339,-41.834,-33.268,-37.351,-56.266,-70.352,-35.89,-24.124,-23.399,-41.432,-73.016,-31.385,-14.799,-15.027,-32.959,-83.955,-39.268,-13.202,-14.798,-32.829],[-77.728,-48.846,-37.651,-33.02,-38.619,-78.242,-46.595,-35.192,-33.657,-35.524,-76.967,-46.912,-35.338,-30.04,-36.5,-76.865,-42.46,-27.394,-22.508,-23.196,-79.412,-41.094,-22.38,-14.021,-11.502,-88.982,-50.547,-24.674,-14.36,-9.004],[-81.824,-51.963,-37.382,-36.199,-35.096,-83.183,-51.244,-37.89,-33.402,-33.158,-80.457,-49.47,-35.833,-32.828,-32.064,-81.183,-49.137,-33.009,-26.219,-24.303,-86.462,-50.836,-29.294,-21.046,-13.665,-93.579,-58.587,-34.276,-18.24,-6.479]],
"vp": [[-162.829,-326.669,13.343,-223.108,-5.233,33.416,-25.043,23.678,-18.569,29.358,-11.226,-10.074,-21.979,-16.914,-38.805,-11.34,-15.133,-11.967,-8.504,-12.068,-12.3,-15.598,-6.521,-10.842,-9.822,-10.683,-11.159,-9.191,-8.723,-8.971],[1943.076,394.056,-61.724,-29.101,61.567,369.729,136.212,-69.126,-9.07,13.576,179.997,72.243,-18.627,-24.407,-6.268,37.774,8.427,-14.271,-15.223,-19.442,7.953,-7.02,-9.02,-14.593,-13.659,-0.385,-8.5,-8.473,-11.213,-12.207],[4071.955,1133.388,401.182,421.553,453.844,738.672,260.496,53.098,149.116,-17.686,363.81,127.174,85.137,50.506,-20.488,56.526,7.361,-11.707,4.742,-12.371,24.293,-3.169,-3.26,-4.484,-8.58,6.249,-5.122,-9.775,-9.44,-9.681],[4899.555,2333.872,537.204,691.175,175.156,1078.014,425.097,156.296,151.271,59.393,517.483,214.953,62.188,43.219,66.939,88.497,28.311,3.47,1.433,0.849,35.162,5.308,-8.56,-8.396,-10.075,16.03,-2.722,-14.484,-11.27,-10.866],[6168.469,3887.9,1276.32,709.348,-102.199,1232.064,631.291,261.516,151.658,9.259,587.467,351.863,175.336,19.411,72.833,106.561,62.546,3.156,4.717,-1.498,51.116,23.469,-1.601,-9.057,-10.085,20.06,8.435,-9.628,-10.545,-10.143],[6665.803,5783.461,2399.395,1787.959,913.646,1357.634,1149.996,559.698,304.421,176.575,611.863,483.574,241.835,106.069,75.439,118.959,96.959,27.59,11.675,0.13,56.255,35.347,8.37,-4.197,-16.25,24.4,9.309,-1.274,-9.843,-15.027]]
}