{
"KTrans": [[-43.5,-72.523,-75.058,-78.307,-70.27,-40.513,-58.492,-58.587,-66.099,-59.808,-18.347,-40.218,-48.607,-51.693,-57.845,73.927,25.554,16.463,15.935,10.453,136.647,99.653,64.364,67.651,59.424,314.481,236.059,182.435,166.588,148.797],[-56.284,-43.68,-46.697,-68.271,-65.309,-52.636,-33.351,-43.291,-50.787,-56.113,-49.24,-28.748,-30.996,-48.485,-49.617,-26.362,4.919,23.17,3.076,-0.492,-9.512,14.404,44.852,16.451,10.081,25.992,39.498,98.871,81.693,38.405],[-69.728,-49.633,-40.429,-41.598,-55.09,-68.735,-47.521,-41.817,-44.591,-40.789,-66.696,-36.831,-29.591,-22.973,-31.631,-52.687,-20.231,-5.239,0.025,11.184,-45.84,-10.586,4.192,13.299,29.195,-22.214,3.601,18.092,23.589,54.633],[-78.968,-52.341,-42.48,-57.715,-44.696,-77.885,-51.122,-49.704,-38.419,-38.613,-75.377,-49.553,-51.06,-30.677,-29.97,-69.285,-33.112,-13.459,-8.633,-4.21,-64.124,-21.247,-6,3.527,7.103,-45.299,-18.721,2.512,5.912,11.551],[-83.588,-55.764,-42.399,-40.109,-55.068,-82.414,-56.322,-43.379,-37.039,-44.77,-79.905,-54.492,-37.716,-41.428,-39.517,-76.111,-42.964,-23.056,-11.231,-7.454,-70.427,-38.428,-8.07,-0.159,2.515,-56.683,-40.526,-2.379,6.393,4.039],[-86.011,-61.832,-46.828,-44.711,-57.421,-84.922,-58.748,-40.935,-41.069,-40.417,-84.192,-58.512,-43.671,-40.73,-35.738,-81.173,-58.927,-23.983,-15.671,-15.447,-77.315,-54.46,-20.909,-3.648,1.793,-70.135,-49.583,-12.942,1.283,3.773]],
"ve": [[-42.915,-78.484,-25.997,-27.139,-68.048,-44.341,-49.009,-7.5,-140.09,-169.976,-11.542,-37.854,-113.115,-32.359,-1.378,69.759,-43.331,-14.33,-42.237,161.545,128.117,-90.501,2.961,-13.773,-3.457,313.284,100.763,125.547,-81.891,12586.361],[-2554.735,-10.855,-43.931,-38.381,-46.84,-79.656,-28.314,-41.63,-7.751,-47.471,-45.811,-26.973,-31.987,-40.239,-97.191,26.929,24.267,21.274,3.523,-2.703,143.881,30.459,-5.587,1.682,4.691,193.249,60.712,93.243,46.43,67.39],[-64.32,-74.057,-39.962,-44.989,-50.605,2.558,-78.254,-65.727,-61.939,-44.363,-14.254,-52.74,-38.482,-31.456,-31.884,36.613,-8.825,-3.62,5.692,10.292,92.709,1.098,6.062,15.319,29.076,181.151,16.97,-2106.975,27.929,54.486],[2.87,-71.588,-77.096,-101.341,-65.722,-42.784,-60.866,-92.128,-58.836,-55.197,16.054,-65.031,-98.947,-50.125,-30.129,-16.34,-21.551,-16.478,-17.044,-3.924,99.172,-1.104,-1.4,3.611,2.931,169.742,8.218,6.885,2.376,7.284],[3.5,-56.542,-84.835,-73.542,-98.778,41.378,-256.019,-83.599,-68.392,-74.488,3.661,-51.225,-70.128,-80.393,-69.643,94.085,-9.004,-33.551,-18.624,-13.404,111.671,-3.092,-2.808,-0.374,1.585,199.352,-0.185,2.275,2.718,3.892],[23.538,-77.355,-80.1,-101.972,-120.166,53.387,-32.767,-57.995,-84.633,-81.141,28.863,-36.732,-86.974,-87.042,-69.07,67.677,-26.704,-17.195,-29.572,-28.276,44.169,-11.761,-6.327,-10.829,-5.388,162.388,-1.932,-3.724,1.27,1.841]],
"kep": [[-125.201,-46.156,-5.909,17.796,-8.032,-122.315,-34.618,-17.921,-8.895,-4.443,-134.191,-42.62,-18.784,-7.71,10.589,-141.217,-71.866,-36.037,-26.957,-7.173,-137.526,-105.03,-55.965,-60.636,-54.3,-148.301,-142.386,-95.654,-84.519,-67.093],[-72.771,-73.788,-135.542,-22.232,-10.294,-73.373,-71.694,-124.41,-10.193,-17.101,-70.817,-67.942,-127.178,-57.654,-7.179,-70.517,-65.364,-135.72,-41.315,-23.559,-75.28,-39.273,-134.055,-51.456,-24.584,-73.632,-44.83,-146.702,-127.096,-48.464],[-84.323,-37.283,-26.207,-65.274,-146.107,-84.97,-30.417,-22.854,-56.45,-127.107,-81.598,-28.369,-31.706,-47.247,-151.282,-80.598,-30.963,-28.126,-54.781,-138.261,-81.844,-25.549,-9.254,-52.767,-139.239,-83.074,-20.158,-8.726,-38.671,-135.539],[-95.802,-39.989,-17.489,-7.204,-19.158,-90.941,-38.258,-20.134,-20.151,-19.493,-92.401,-40.694,-17.539,-6.711,-22.431,-89.33,-31.685,-13.77,-1.217,-20.752,-90.922,-30.803,-11.593,-7.24,-3.436,-88.39,-31.751,-10.493,3.803,-0.849],[-96.973,-46.704,-14.348,-12.77,-5.495,-94.748,-53.402,-18.862,-12.062,-11.146,-92.03,-47.19,-16.947,-8.877,-4.123,-94.167,-48.127,-14.325,-6.654,-5.529,-93.961,-46.742,-9.344,-3.491,-5.371,-92.528,-46.212,-8.841,3.114,-0.227],[-98.086,-57.087,-26.2,-12.43,-6.557,-96.61,-55.914,-25.949,-14.261,-7.351,-97.642,-55.27,-23.01,-14.837,-8.256,-97.44,-57.69,-20.845,-5.526,-5.848,-93.285,-55.672,-21.745,-1.669,3.359,-93.252,-51.882,-18.823,-3.37,1.125]],
"vp": [[368.986,-22.458,-85.591,123.742,-144.111,-72.071,39.583,61.602,-31.412,44.091,10.162,-18.784,32.425,-12.596,9.255,-6.417,0.466,-5.529,-5.311,-4.779,-2.75,-6.884,-8.257,-4.09,-4.982,-5.292,-5.548,-5.306,-4.973,-3.696],[1973.269,872.923,266.321,-179.916,-480.392,458.524,187.355,-38.775,-56.498,-20.027,180.386,112.351,-8.175,-64.834,-43.433,42.838,16.095,-6.975,-4.924,-10.438,19.297,3.521,-6.715,-4.572,-4.559,8.45,-0.785,-5.589,-8.614,-7.488],[4217.339,2041.376,1430.516,880,-230.57,849.635,272.997,105.095,74.362,-21.08,434.944,161.842,133.924,58.264,1.31,71.814,29.729,15.219,3.934,-4.314,36.193,13.014,2.038,-0.231,-3.683,16.667,-1.41,-3.067,-1.719,-7.449],[6387.932,3498.247,1746.755,-143.464,663.236,1112.699,744.345,252.358,197.737,148.654,566.499,291.952,65.576,96.728,54.284,109.953,49.122,10.138,-3.302,4.724,53.591,18.632,11.402,-5.388,-4.515,21.922,9.92,0.959,0.69,-3.408],[6976.083,4683.068,2255.19,1405.906,-61.423,1309.29,1043.388,406.766,263.762,175.641,600.384,492.439,225.604,78.334,26.801,121.241,92.3,31.936,19.028,8.036,56.739,40.173,13.231,2.122,-2.8,24.82,21.869,1.363,-3.257,0.464],[7437.069,6889.553,3470.777,1274.292,183.594,1389.838,1197.087,771.558,395.544,154.924,699.94,586.147,251.145,153.789,83.427,137.493,132.193,56.352,26.008,18.617,61.569,61.598,27.514,0.703,-5.601,29.285,27.912,8.993,0.402,-2.725]]
}