{
"KTrans": [[24.917,19.269,20.5,25.589,26,25.884,24.459,18.956,26.554,12.79,40.328,23.259,26.582,20.362,26.544,44.649,31.241,43.766,50.397,39.816,89.237,75.613,60.273,64.167,51.28,168.132,133.19,134.224,120.767,100.001],[-46.489,-13.588,-3.589,9.49,11.046,-54.571,-7.999,3.24,8.951,12.405,-46.099,-6.614,3.727,12.517,11.29,-37.606,-1.274,13.121,18.077,21.934,-31.058,21.679,17.643,18.209,27.995,-9.531,34.11,40.262,43.253,42.15],[-73.461,-34.639,-13.103,-3.267,5.058,-77.863,-36.156,-14.917,-1.994,1.001,-70.277,-27.971,-9.587,-4.575,0.344,-60.279,-33.784,-10.539,4.395,5.575,-54.25,-23.725,-12.182,8.987,10.804,-36.902,-13.037,8.242,16.642,20.531],[-85.851,-56.086,-31.147,-22.181,-11.933,-80.109,-50.791,-35.056,-20.693,-11.01,-81.548,-44.773,-31.237,-19.099,-9.089,-73.729,-42.494,-27.98,-15.834,-4.152,-66.256,-43.319,-22.028,-10.62,-4.566,-58.947,-34.399,-17.272,-7.704,7.273],[-88.912,-63.198,-46.288,-32.127,-22.952,-89.13,-64.339,-47.119,-34.652,-18.491,-87.007,-66.901,-46.034,-28.998,-19.009,-81.281,-61.763,-42.403,-30.625,-16.504,-81.57,-58.238,-41.27,-27.888,-13.289,-71.717,-52.26,-32.527,-19.295,-7.346],[-91.745,-73.009,-56.638,-41.008,-28.783,-90.267,-70.023,-55.05,-43.006,-32.201,-91.724,-71.34,-55.956,-41.529,-33.934,-88.124,-71.141,-57.789,-41.933,-27.985,-83.775,-66.964,-53.024,-37.299,-28.042,-75.009,-62.753,-48.39,-32.614,-21.064]],
"ve": [[12.498,21.787,74.117,-40.262,-131.842,28.251,13.297,133.94,-58.466,-53.525,8.7,171.886,116.022,-6.101,-64.973,62.728,-832.372,108.029,191.737,169.998,9.776,37.955,-79.844,44.141,-23.527,76.462,37.89,-8.565,-6.47,-4.852],[4322.547,0.122,4.951,7.587,14.497,-31.735,0.654,5.84,7.076,13.621,-17.066,-0.691,4.344,7.616,15.611,8.197,-11.856,10.774,13.751,17.746,8.532,23.895,-0.123,22.4,25.643,61.569,-474.692,32.667,-3.939,-3961.249],[-30.84,-14.158,-4.921,-0.874,0.862,-34.852,-10.686,-5.775,-1.065,3.143,-54.771,-9.268,-2.688,-0.131,2.483,-9.602,-0.965,1.584,4.578,6.214,24.785,8.484,6.171,10.847,10.198,68.459,209.794,63.18,22.24,19.78],[-43.193,-16.189,-10.231,-8.272,-3.558,-26.906,-16.782,-9.612,-5.45,-3.418,-24.127,-10.765,-8.798,-6.34,-2.575,-12.945,-7.235,-1.358,-1.833,1.991,11.429,5.464,6.298,3.498,3.639,31.317,22.774,-54.075,12.766,15.059],[-45.208,-16.063,-16.336,-11.644,-7.76,-55.865,-22.573,-16.53,-10.907,-7.111,-180.209,-17.445,-16.226,-10.316,-6.645,-12.863,-8.829,-8.632,-7.267,-3.597,-19.134,5.586,-5.079,-1.868,1.503,54.745,18.506,10.168,35.305,9.679],[-57.179,-25.802,-21.861,-15.099,-11.463,-59.599,-27.171,-20.055,-15.311,-10.458,-23.93,-23.837,-19.333,-14.241,-10.536,-32.52,-22.086,-16.861,-10.623,-7.014,-401.958,-7.793,-7.517,-3.491,-4.985,39.262,1.381,6.754,3.939,4.434]],
"kep": [[-37.573,-41.315,-46.856,-48.019,-50.078,-35.347,-29.762,-47.213,-39.84,-76.997,-27.114,-36.844,-39.381,-58.077,-58.279,-34.972,-40.265,-33.873,-24.391,-38.408,-33.249,-21.773,-30.669,-25.405,-40.756,-40.943,-24.629,-8.863,-11.516,-12.32],[-68.897,-45.57,-43.238,-36.366,-39.116,-70.402,-43.357,-39.281,-37.106,-37.461,-66.232,-42.852,-38.503,-35.439,-39.662,-71.031,-44.191,-37.034,-35.913,-34.884,-74.978,-40.566,-38.515,-39.71,-35.787,-79.744,-47.63,-38.996,-34.122,-33.476],[-84.676,-55.203,-44.54,-40.076,-36.455,-85.426,-56.246,-45.148,-40.051,-40.095,-82.506,-52.808,-43.812,-41.718,-40.19,-78.534,-58.892,-46.82,-39.386,-39.546,-81.945,-59.623,-50.266,-40.388,-38.916,-82.665,-63.373,-51.114,-42.698,-38.963],[-90.041,-68.262,-53.629,-48.634,-44.473,-85.537,-64.124,-56.343,-49.04,-43.848,-87.2,-63.126,-54.553,-47.637,-43.412,-86.416,-63.46,-55.979,-48.306,-43.079,-86.015,-68.338,-56.299,-47.896,-44.491,-88.087,-72.43,-59.413,-51.726,-44.481],[-92.556,-72.435,-61.275,-53.502,-49.33,-92.468,-72.073,-61.696,-55.564,-46.749,-92.884,-74.848,-61.43,-52.311,-47.466,-89.327,-74.414,-62.276,-54.717,-47.402,-92.352,-76.242,-64.056,-55.832,-48.366,-92.4,-79.716,-66.238,-57.368,-49.785],[-94.806,-77.738,-66.78,-58.059,-51.261,-93.329,-76.218,-66.524,-59.334,-54.23,-94.197,-77.156,-67.484,-58.973,-55.332,-94.76,-80.092,-69.75,-60.75,-53.153,-93.604,-81.388,-70.164,-61.095,-54.505,-92.979,-85.038,-72.437,-61.914,-55.23]],
"vp": [[-680.688,-876.821,-596.595,-849.102,-787.747,-34.757,-82.097,-40.487,-146.099,17.115,-21.785,-2.154,-61.216,9.487,-83.269,-23.305,-1.355,-20.017,-26.435,-9.192,-21.135,-20.285,-15.453,-4.877,-3.736,-18.164,-14.484,-19.25,-13.542,-4.623],[2768.888,1159.088,666.116,-855.807,-701.754,709.818,175.432,-22.546,-186.804,-212.245,347.027,95.78,-56.913,-35.712,-115.591,42.646,25.033,3.384,-34.34,-30.015,26.795,-28.53,1.466,12.28,-21.153,2.237,-13.244,-8.753,-10.531,-12.221],[5162.25,2716.313,1406.887,125.524,-545.538,1296.576,709.204,284.814,-8.846,-94.277,519.631,233.179,46.934,110.405,55.058,78.637,71.361,30.989,-15.345,-8.917,23.65,23.543,30.18,-19.006,0.281,2.307,7.702,-4.489,-6.702,-2.264],[6593.493,6390.719,3033.892,3676.853,2258.867,1169.176,958.066,838.855,563.966,446.455,533.372,362.342,356.447,283.714,114.338,95.697,80.408,50.221,39.229,4.935,21.737,47.336,19.111,18.011,24.383,11.662,12.408,14.119,20.031,-6.221],[7015.7,7435.652,6381.882,4748.627,4285.887,1447.901,1462.121,1405.166,1174.876,618.257,671.364,799.854,649.236,495.686,344.198,99.627,141.582,115.257,110.914,72.06,60.83,68.588,55.183,46.354,26.374,16.715,22.369,20.136,16.593,7.46],[6990.235,8928.997,8945.922,7817.757,5219.542,1343.115,1801.128,1786.789,1569.58,1228.973,722.708,820.657,804.789,717.257,687.7,150.305,178.176,192.91,136.836,115.074,65.183,86.895,85.33,53.836,62.73,19.371,46.091,42.126,33.438,30.944]]
}