{
"KTrans": [[-34.884,-3.786,2.854,13.088,5.071,-31.347,-2.566,1.115,0.725,-3.215,-28.417,15.795,1.042,13.023,12.839,-47.142,-17.992,-11.606,8.756,1.874,-23.412,-12.318,-3.298,3.581,-1.988,-31.679,-4.077,10.383,3.994,15.429],[-89.866,-61.478,-22.542,-15.426,-15.129,-90.343,-56.132,-19.023,-17.466,-18.472,-94.834,-61.982,-28.501,-9.92,-17.236,-94.817,-42.044,-18.639,-16.817,-12.183,-88.434,-53.538,-30.853,-10.801,-1.094,-89.859,-54.124,-17.399,-19.115,-12.524],[-100.015,-83.562,-56.085,-29.134,-27.424,-95.654,-82.978,-48.347,-29.414,-25.853,-100.939,-77.787,-66.024,-29.247,-24.539,-98.372,-81.902,-57.756,-45.108,-30.506,-95.883,-82.938,-50.91,-34.363,-27.752,-98.216,-69.384,-52.589,-38.37,-21.997],[-101.617,-93.9,-73.464,-58.123,-45.64,-101.158,-94.648,-74.689,-58.535,-40.501,-101.156,-95.123,-81.121,-46.166,-28.438,-100.207,-93.9,-80.995,-46.398,-36.517,-100.124,-88.113,-77.663,-58.896,-34.252,-101.299,-85.2,-76.925,-53.761,-37.716],[-101.517,-99.04,-80.249,-74.688,-46.737,-102.173,-97.074,-87.935,-75.677,-54.313,-100.902,-96.904,-86.206,-67.437,-47.899,-102.341,-95.136,-81.095,-69.198,-59.567,-103.539,-97.673,-87.493,-76.31,-49.781,-101.653,-95.88,-87.669,-67.171,-53.045],[-102.087,-102.504,-91.296,-82.555,-65.256,-101.537,-96.053,-93.792,-87.967,-67.772,-102.168,-98.743,-91.814,-74.919,-55.474,-101.114,-99.911,-92.413,-87.792,-69.776,-102.038,-97.252,-98.089,-88.567,-66.125,-101.495,-96.912,-92.866,-78.983,-64.614]],
"ve": [[78.698,7.295,-174.347,-64.63,-37.428,36.106,58.346,2.526,-58.819,224.978,-21.44,-12.138,-35.78,-585.873,-22539.049,-44.94,22.128,-11.504,28.01,-5.459,22.001,14.792,12.205,-104.346,0.339,-21.48,-71.297,213.898,-30.249,634.84],[-64.201,-44.685,-20.043,-7.147,-34.673,-44.772,-36.881,-13.867,-9.475,1.19,-95.197,-33.974,-18.92,-10.712,-3.083,-117.942,6.324,-15.393,-10.847,2.243,-85.23,-41.048,-16.808,-8.856,-2.593,-116.457,-243.206,-31.526,-10.658,-5.27],[-96.356,-89.014,-40.992,-22.984,-23.883,25.14,-112.526,-39.095,-28.602,-19.053,29.294,-64.718,-22.877,-26.719,-19.917,-96.106,-63.229,-44.987,-33.147,-20.056,-99.817,-64.227,-39.606,-26.71,-16,6.004,-66.435,-81.515,-25.999,-18.344],[-122.371,-80.154,-37.288,-46.985,-36.172,-161.277,-34.073,-72.714,-48.687,-40.506,-184.257,-93.206,-65.483,-39.996,-30.209,-78.481,-79.488,-25.568,-42.328,-30.638,-103.5,-90.429,-67.173,-45.844,-28.818,-109.621,-71.976,-59.397,-37.956,-32.008],[-112.896,-100.196,-1.511,-64.457,-43.225,-166.885,-124.609,-64.106,-66.151,-49.133,-53.22,-260.713,-73.203,50.934,-40.651,-103.783,-96.724,-71.505,-62.816,-48.257,305.585,-91.032,-77.959,-64.417,-42.57,-128.398,-89.144,-79.308,-39.798,-49.887],[-106.748,-69.946,-81.704,-74.517,-58.201,-134.781,-96.956,-90.377,-76.257,-59.81,-111.175,-101.996,-89.815,-67.611,-54.748,-117.319,-99.182,-87.407,-74.109,-61.351,-113.618,-82.986,-100.186,-80.367,-56.135,-110.266,-138.864,-85.437,-68.436,-52.24]],
"kep": [[-45.487,-15.14,-12.93,1.522,-6.845,-56.651,-10.474,-9.825,-18.908,-19.545,-47.095,3.671,-15.44,-1.218,8.473,-58.267,-24.608,-26.419,-2.908,-12.911,-49.196,-25.667,-20.56,-5.939,-16.355,-50.128,-13.768,5.867,-5.967,17.211],[-88.149,-50.225,-5.442,-8.624,-8.151,-91.554,-41.041,-8.298,-7.56,-15.183,-95.679,-52.287,-15.37,1.749,-11.153,-100.773,-37.989,-6.433,-7.152,-6.859,-91.928,-40.391,-18.37,-2.732,2.968,-86.25,-43.302,-3.785,-8.649,-6.635],[-93.688,-82.546,-34.572,-12.938,-10.055,-93.077,-84.888,-28.016,-3.33,-8.204,-95.726,-74.094,-43.269,-7.621,-9.123,-96.465,-79.909,-35.822,-19.657,-13.22,-97.326,-75.655,-30.281,-20.537,-11.372,-95.238,-79.329,-29.125,-17.476,-5.444],[-96.927,-89.335,-63.997,-35.078,-19.47,-92.034,-93.907,-71.089,-35.169,-11.017,-101.535,-93.232,-78.619,-20.215,-2.758,-97.638,-93.687,-69.541,-24.445,-12.302,-95.067,-87.909,-77.773,-35.559,-14.218,-97.165,-89.052,-67.743,-36.6,-12.002],[-96.186,-89.708,-84.715,-64.223,-26.166,-95.916,-91.366,-83.325,-67.527,-28.853,-97.35,-92.283,-90.948,-59.253,-22.513,-97.57,-93.665,-76.699,-65.07,-26.222,-96.63,-92.35,-81.273,-60.516,-26.68,-96.157,-94.219,-82.468,-62.676,-27.911],[-96.429,-91.527,-86.369,-79.557,-46.944,-95.124,-88.023,-92.193,-82.802,-48.269,-93.919,-92.653,-88.471,-72.27,-41.847,-96.571,-91.731,-90.46,-79.258,-55.851,-96.543,-88.233,-91.688,-83.994,-47.317,-97.32,-93.711,-86.463,-73.849,-49.195]],
"vp": [[2817.167,2660.275,2103.059,2278.716,2830.995,657.351,519.111,486.909,439.882,303.568,268.373,245.648,220.883,244.591,184.012,69.287,56.507,58.309,61.324,37.734,28.193,31.472,25.609,21.761,23.488,12.881,11.02,14.279,12.172,8.139],[7855.318,10325.705,7613.89,7649.053,7480.659,1682.753,2118.641,1399.046,1642.504,1463.645,906.903,898.173,805.323,753.124,886.523,185.863,162.566,123.096,129.593,166.49,87.379,87.914,81.177,62.308,58.078,38.821,45.09,36.861,35.228,37.906],[9741.795,15399.027,15111.444,11172.646,15175.854,1814.711,3100.988,2698.564,3102.752,2328.269,1017.963,1331.5,1824.698,1474.854,1102.254,200.977,291.236,317.944,316.245,249.17,96.158,133.247,146.16,132.016,127.81,46.208,72.765,69.315,71.781,59.108],[11936.188,16750.133,19509.311,21514.639,20458.396,2105.453,3616.176,4319.122,4550.304,4270.223,1177.547,1733.663,2048.979,1754.404,1760.46,218.951,354.821,429.255,403.401,375.771,102.506,164.477,194.783,207.844,177.157,52.602,76.594,102.32,98.74,94.456],[11226.828,18844.518,23049.327,27587.888,22282.339,2282.659,4137.886,4631.972,5736.071,5437.152,1113.598,1855.282,2323.033,2643.279,2231.536,221.266,369.873,452.694,576.412,542.919,112.135,199.33,244.773,276.453,238.312,60.111,96.951,131.813,119.472,134.815],[11230.797,22493.151,26002.535,31444.394,31445.884,2120.474,3716.073,5492.927,6407.348,6603.531,1112.961,2036.87,2695.088,2962.767,3077.53,217.212,413.804,549.372,599.198,686.024,114.517,187.267,294.416,347.017,321.325,56.42,97.991,127.95,141.03,138.048]]
}