{
"KTrans": [[-11.772,6.207,4.591,9.805,-1.223,-16.802,5.255,9.556,5.486,2.704,-13.911,17.232,14.065,9.147,6.059,11.962,26.437,26.654,18.555,22.65,66.606,52.84,49.067,43.101,36.084,186.902,132.068,107.971,102.305,76.541],[-68.142,-19.423,7.565,1.965,4.061,-75.424,-11.209,6.661,1.17,2.536,-71.958,-4.1,0.877,4.507,-0.938,-64.407,8.374,6.3,7.532,8.261,-17.542,19.653,33.898,16.813,17.418,27.332,57.617,69.83,44.822,36.166],[-87.02,-37.613,-4.822,1.083,2.48,-89.611,-35.16,-9.277,-0.285,-1.962,-90.061,-36.451,5.192,-2.856,2.948,-75.485,-32.99,4.576,4.831,5.682,-71.926,-3.058,15.445,15.895,9.505,-25.057,19.482,49.329,39.541,37.861],[-91.82,-51.953,-21.227,2.525,-0.902,-91.189,-61.108,-14.406,-0.196,-1.832,-90.89,-64.868,-15.845,-3.77,2.521,-84.676,-47.547,-5.941,3.824,3.373,-80.632,-49.082,8.532,12.186,11.697,-41.222,-1.803,33.327,34.986,34.418],[-93.896,-70.056,-34.8,-9.934,0.184,-94.58,-74.954,-36.32,-9.913,-1.29,-94.215,-71.224,-32.015,-7.817,1.723,-89.578,-68.908,-23.547,3.919,3.078,-84.636,-54.766,-27.316,17.963,17.569,-67.156,-17.263,11.746,23.782,23.987],[-95.406,-74.999,-49.386,-16.336,-2.199,-96.134,-77.689,-52.249,-20.722,-6.554,-96.05,-81.07,-47.364,-12.559,-2.461,-91.365,-71.229,-33.32,-17.966,2.663,-85.36,-61.712,-26.901,10.11,6.528,-79.503,-45.339,-2.996,5.356,30.297]],
"ve": [[0.804,-106.213,2.089,-81.677,-99.047,-48.573,-237.232,-2.555,-37.117,-14.555,-1568.442,22.521,-66.732,11.571,1018.075,-1661.369,-1048.696,3.318,89.737,50.06,22.119,3.824,-9.928,-11.907,27.729,53.808,20.511,3.658,-128.56,-20.099],[-49.87,-13.275,1.542,6.031,0.264,-41.581,-9.387,0.674,1.972,-0.673,-27.32,-288.181,-2.861,-0.092,1.448,-81.649,2.109,3.134,1.869,2.483,1.86,7.823,37.966,-0.132,2.236,47.351,31.711,31.367,15.047,1.698],[-79.894,-18.239,-5.688,-1.125,-2.404,-80.143,-20.544,-9.226,-3.284,-1.877,-48.865,-22.846,-3.717,-4.191,-1.255,-111.375,-23.899,-3.501,-1.032,-0.776,-57.721,-3.888,3.7,2.306,3.042,14.483,11.425,22.293,5.895,29.395],[9.914,-31.398,-12.575,-4.039,-4.089,-68.475,-38.223,-12.92,-3.72,-2.971,-73.642,-40.917,-14.156,-4.107,-2.757,-63.872,-28.428,-10.686,-3.342,-1.329,-57.307,-27.212,-8.377,0.576,1.779,4.081,13.032,11.371,4.51,6.092],[-74.943,-47.165,-25.161,-8.365,-4.639,-52.42,-60.735,-23.332,-11.284,-4.964,-73.878,-50.605,-18.931,-8.309,-4.619,32.959,-45.976,-17.541,-6.773,-3.787,-46.915,-26.135,-29.735,5.073,0.768,-238.65,1.599,7.429,8.384,8.225],[-30.528,-45.172,-38.611,-12.941,-5.913,-71.368,-56.771,-35.163,-13.656,-8.817,-61.914,-52.555,-28.95,-10.467,-4.181,-28.322,6.438,-22.596,-14.462,-3.309,-34.217,-42.42,-20.908,-3.395,-5.164,-24.688,-14.368,-0.347,0.224,6.704]],
"kep": [[-30.737,0.449,7.323,13.417,-19.588,-36.685,-6.151,3.397,3.848,-5.338,-31.405,10.592,15.088,5.556,6.62,-18.912,12.318,14.134,16.286,29.077,19.269,19.463,21.934,42.501,32.911,54.724,65.17,86.58,75.313,77.051],[-74.195,-15.312,6.221,0.436,4.857,-79.121,-7.864,4.855,-0.463,4.749,-69.949,-4.813,4.197,5.462,-1.067,-71.158,3.642,-0.725,4.877,7.675,-44.496,-1.271,16.945,8.966,10.261,-28.648,18.26,16.426,14.465,18.66],[-87.515,-31.607,-0.997,1.765,3.822,-88.444,-26.785,-2.528,2.303,-0.374,-87.747,-26.682,6.341,0.667,3.979,-78.15,-32.558,3.234,4.158,6.059,-74.826,-17.166,3.648,10.72,6.482,-54.336,-17.805,2.482,13.504,14.704],[-90.179,-39.878,-11.821,4.754,2.428,-92.143,-49.855,-5.144,2.121,0.482,-90.903,-50.602,-9.659,-1.464,4.56,-83.498,-45.542,-1.957,3.564,2.97,-78.409,-50.005,-1.296,8.16,7.042,-64.791,-27.24,1.069,9.738,12.776],[-93.891,-58.847,-19.909,-3.71,4.509,-94.203,-65.135,-23.407,-3.214,3.152,-93.611,-65.473,-21.442,-1.872,5.856,-88.816,-62.451,-13.925,4.648,5.376,-85.14,-57.939,-27.534,6.948,9.855,-76.148,-38.555,-17.371,3.058,2.888],[-94.091,-67.645,-32.168,-7.559,2.387,-94.917,-70.349,-36.767,-10.248,1.377,-95.04,-73.995,-32.677,-6.336,0.393,-90.272,-64.546,-25.697,-11.528,3.191,-88.276,-62.65,-25.98,6.637,6.661,-82.635,-58.409,-24.332,-11.193,9.507]],
"vp": [[621.829,649.249,349.578,183.535,84.842,155.963,26.398,-8.688,69.98,19.068,126.734,-36.465,5.771,-50.775,23.815,5.704,-24.306,-29.045,-10.423,-30.213,-15.339,-23.331,-23.492,-18.296,-21.946,-30.483,-28.005,-28.156,-34.487,-30.993],[5055.776,2227.87,84.261,710.73,183.087,967.421,461.717,6.166,70.582,102.705,441.548,119.74,104.313,44.272,106.038,77.799,9.008,2.105,-7.665,-9.999,-1.134,-14.185,-31.8,-13.876,-22.464,-23.784,-36.114,-42.082,-21.378,-15.849],[6295.565,5082.824,1922.459,1005.447,933.861,1320.363,931.317,575.606,232.946,210.171,672.888,505.085,91.668,191.535,55.685,94.942,99.241,37.166,5.276,7.489,42.852,10.028,-13.134,-4.778,0.667,-9.302,-9.777,-31.541,-17.738,-28.281],[6583.199,6846.283,3951.085,1623.119,1786.699,1478.471,1483.551,824.33,268.53,243.008,667.907,866.64,514.304,173.137,106.238,129.859,117.586,66.537,28.625,24.63,59.367,54.648,0.919,2.64,-14.058,-4.139,-17.464,-23.122,-11.377,-20.174],[7033.396,10139.905,7609.077,3438.567,2133.567,1385.443,2311.245,1525.358,906.068,469.956,677.776,979.018,695.704,345.942,179.915,104.107,199.562,111.774,31.217,33.587,52.691,56.637,44.985,-8.218,-6.785,15.444,-5.227,-15.397,-16.18,-23.889],[7199.779,10794.152,10620.739,5180.727,3133.055,1539.129,2223.637,2175.16,1118.708,894.191,789.62,1259.501,972.436,468.271,204.726,111.41,189.267,155.399,130.456,24.494,33.17,70.783,65.382,10.625,29.72,14.884,10.842,-5.456,-2.115,-16.236]]
}