{
"KTrans": [[-51.97,-50.775,-57.358,-52.758,-57.597,-25.558,-39.193,-34.664,-29.866,-32.979,-12.599,-37.942,-31.184,-35.119,-33.347,7.595,15.447,16.053,24.119,15.936,65.159,57.816,53.969,47.599,47.677,183.248,79.238,92.63,150.732,159.939],[-48.269,-45.863,-42.843,-36.159,-44.268,-33.52,-36.926,-25.488,-26.6,-27.139,-30.013,-18.756,-15.757,-32.828,-22.884,-4.378,8.524,-6.106,-13.659,-0.676,26.646,57.118,-13.037,-4.709,4.004,107.114,31.873,39.344,34.651,34.198],[-44.27,-36.541,-47.793,-50.033,-45.265,-45.969,-35.625,-34.797,-28.784,-20.274,-43.726,-45.366,-19.012,-26.389,-8.831,-16.373,-27.208,-0.847,0.327,-10.271,-4.096,26.786,21.997,8.71,-10.881,12.538,80.756,24.271,-1.844,14.481],[-57.575,-40.485,-36.913,-43.228,-41.545,-52.84,-43.977,-33.535,-34.004,-29.769,-54.898,-36.116,-29.212,-25.16,-23.458,-32.014,-21.91,-29.353,-18.432,-8.098,-23.637,7.627,5.514,6.13,14.895,-6.63,40.151,54.491,56.074,41.941],[-74.25,-38.928,-45.872,-36.818,-35.176,-68.887,-38.276,-36.463,-35.771,-31.763,-63.948,-32.66,-25.933,-27.288,-30.953,-53.189,-21.436,-16.213,-19.87,-15.646,-46.146,-4.372,-6.045,-8.881,-6.234,-24.858,22.679,52.385,56.963,47.743],[-76.095,-31.201,-41.26,-35.848,-39.918,-76.176,-42.022,-36.467,-33.393,-27.664,-73.983,-37.5,-36.105,-34.942,-24.914,-60.596,-38.184,-27.054,-21.249,-13.772,-55.339,-19.145,-3.75,-12.101,-11.273,-48.224,18.145,38.636,41.974,21.007]],
"ve": [[-53.801,-18.592,-20.421,-5.236,7.377,-27.1,-22.98,-6.431,2.712,23.775,-16.767,-4.592,17.053,23.802,17.033,28.881,-48.765,-7.79,-114.736,129.554,66.2,83.861,15.138,-781.223,-928.444,151.665,67.463,-72.158,30.137,-6.601],[-132.702,-69.955,-35.582,-26.292,-26.066,-89.268,-58.932,-24.94,-17.854,-16.079,-79.935,-32.779,-14.794,-32.057,-12.878,-16.157,5.999,-3.137,-1.994,0.596,92.116,115.156,-1.781,16.339,15.601,304.344,88.073,61.501,81.548,12.844],[-94.415,-89.653,-81.191,-63.568,-44.741,-95.57,-87.099,-58.96,-35.945,-13.918,-85.748,-113.561,-28.548,-33.88,-8.478,-30.284,-69.832,-8.157,-9.432,-9.081,97.596,67.295,0.842,5.865,-1.398,304.792,181.708,81.888,60.08,22.155],[-81.161,-117.221,-76.918,-74.914,-58.017,-62.676,-152.621,-72.241,-57.352,-41.479,-68.326,-104.087,-64.82,-43.921,-32.943,51.184,-79.015,-66.806,-37.799,-15.902,245.33,3.549,-16.27,5.837,16.354,168.475,315.072,133.798,101.812,52.457],[-57.191,-125.227,-130.57,-77.737,-61.348,-33.993,-140.39,-106.457,-77.285,-56.157,-24.109,-110.477,-65.345,-57.954,-55.527,56.167,-98.826,-53.229,-49.669,-27.165,129.692,-17.129,-47.683,-33.325,-19.981,402.299,86.57,142.14,114.465,61.941],[-49.417,-95.505,-137.103,-89.636,-84.676,-34.491,-115.07,-116.594,-86.197,-55.869,-29.898,-138.453,-102.365,-86.378,-53.025,25.519,-135.764,-112.658,-43.558,-30.346,110.582,-13.859,-37.831,-42.713,-27.246,208.624,94.668,145.15,115.765,23.264]],
"kep": [[-114.632,-2.763,-3.899,3.433,0.359,-126.759,4.957,3.518,-4.138,-7.69,-102.649,-1.992,-1.525,-6.211,-6.024,-23.242,-39.514,-17.491,-24.712,-10.553,35.008,-87.561,-51.015,-29.038,-28.014,59.993,-157.451,-121.899,-136.677,-139.461],[-3.786,-0.18,-122.467,2.35,5.23,-4.558,3.866,-111.476,1.026,-0.631,-5.999,4.845,-117.434,-2.804,-0.109,-30.514,-21.987,-8.617,-17.165,-15.447,-35.511,-51.282,52.043,-49.229,-24.201,-42.329,9.094,16.316,-136.117,-77.528],[-23.197,-1.232,3.063,1.996,-124.074,-22.931,-1.362,0.484,-1.026,-124.564,-24.665,-0.718,-6.057,1.778,-113.051,-38.878,-6.795,-0.702,-5.386,-9.272,-53.422,-36.687,8.043,1.461,1.305,-61.715,-28.794,-15.155,-23.645,1.803],[-41.044,-6.331,-4.626,0.01,-1.452,-39.755,-2.241,-2.273,-1.123,-1.464,-46.87,-6.464,-0.362,0.046,-0.27,-58.167,-5.949,-2.915,1.983,4.481,-76.481,-23.082,3.692,-6.805,-21.72,-63.644,-69.932,-31.714,-38.081,-4.668],[-64.915,-10.65,-2.115,-2.515,-2.013,-63.339,-6.739,0.147,-1.405,-0.244,-61.752,-7.64,-4.141,-1.842,0.826,-70.75,-4.269,-1.693,1.145,-1.892,-70.192,-31.234,-1.916,0.142,0.165,-79.804,-38.691,-33.357,-38.946,-18.066],[-69.119,-10.826,-3.016,-2.931,-1.271,-76.249,-17.752,-3.462,-2.379,-2.628,-73.625,-9.725,-7.48,-3.021,-1.445,-72.229,-23.719,0.729,-4.457,-0.148,-74.174,-45.518,-4.817,-1.9,-4.164,-79.973,-40.433,-38.868,-38.578,-13.63]],
"vp": [[-100.955,-57.222,-111.25,52.53,-79.2,-14.532,14.209,-21.213,-28.446,-31.463,2.132,3.25,-6.398,-21.54,-17.099,-7.472,-8.919,-3.548,-7.168,5.511,-4.926,-9.023,-6.828,-1.425,3.468,-14.347,10.778,2.202,-12.158,-11.849],[217.438,77.208,-47.572,83.565,-2.197,76.048,-15.522,-0.236,-14.373,-20.069,12.1,-3.781,-0.837,-16.585,-9.666,0.947,0.915,-15.643,9.549,-26.917,-26.331,-22.126,-12.077,10.882,-1.786,-18.056,-18.306,-25.117,-2.121,-10.038],[1265.136,258.126,33.797,-31.716,-6.153,267.08,11.88,1.265,14.998,-13.789,168.979,13.439,50.302,-7.304,2.397,-0.461,15.87,-13.963,-14.745,-26.413,-6.223,9.999,-33.605,-24.607,-13.382,-7.076,-29.088,-34.821,-27.036,-27.884],[2975.513,635.86,350.486,267.236,134.598,496.678,38.683,72.524,59.601,24.246,323.795,43.978,48.104,15.499,6.129,27.967,3.303,9.656,-15.215,-11.757,11.11,-6.741,-22.356,-2.523,-1.443,-3.112,-11.729,-19.449,-27.028,-19.584],[4907.872,1108.735,336.037,475.007,262.757,843.695,196.848,88.356,41.163,27.537,400.835,118.628,67.222,54.013,17.777,58.111,9.827,0.437,-3.755,5.403,7.689,0.248,-7.302,-8.437,-15.397,-5.794,-29.608,-11.494,-25.934,-21.13],[4524.016,1997.993,612.06,654.536,378.059,1240.698,428.144,206.666,59.705,98.367,505.439,202.348,102.07,101.061,20.881,55.207,39.815,-5.825,41.29,4.608,34.735,6.726,-6.432,-8.941,-4.028,-3.096,-37.914,-31.808,-2.156,-16.086]]
}