{
"KTrans": [[3.396,2.155,1.804,1.942,1.531,13.333,9.012,6.812,6.54,6.329,27.112,17.037,14.297,11.999,10.976,173.858,95.79,75.98,66.791,60.921,371.536,224.716,180.732,149.656,144.304,-69.394,411.057,382.284,365.22,332.487],[7.529,2.255,2.037,1.627,1.246,11.016,7.12,4.924,4.22,3.303,25.5,13.648,9.87,7.654,6.236,199.562,77.521,47.748,39.603,31.243,14.317,192.288,100.795,80.624,68.296,-44.795,246.102,261.614,186.968,159.502],[8.154,2.378,2.511,1.906,1.527,21.225,8.239,5.8,3.958,3.78,35.714,13.659,9.667,7.476,6.386,95.63,79.915,44.803,33.121,28.616,-17.013,199.741,99.377,75.157,58.671,14.987,-163.741,274.812,162.394,135.795],[1.495,5.735,2.69,2.59,2.254,22.425,9.573,6.512,4.646,3.916,39.67,16.046,9.906,8.218,6.354,-45.003,72.917,47.386,32.526,27.03,0.213,235.285,102.136,71.484,59.617,-71.688,65.441,319.434,183.661,118.722],[0.796,9.139,5.347,3.673,2.492,10.262,10.651,7.193,5.556,3.708,16.899,19.903,12.076,8.018,6.367,-13.786,93.681,44.956,33.078,25.836,-70.026,118.84,134.223,71.225,53.599,-39.85,3.257,252.944,182.666,129.595],[-14.569,7.137,4.158,2.955,2.702,-26.098,14.09,7.915,6.214,4.891,-17.822,21.02,12.643,7.487,6.887,-41.508,112.176,44.585,29.925,29.242,-80.063,15.137,130.779,78.544,56.224,-71.109,-13.203,62.993,280.318,133.806]],
"ve": [[0.709,-0.04,-0.574,-1.295,-0.937,4.101,0.038,-1.761,-3.772,-5.012,8.696,1.327,-2.848,-5.44,-7.711,45.594,13.337,-1.287,-11.354,-18.813,93.282,34.262,9.015,-6.565,-17.618,189.233,126.637,42.439,14.477,-4.254],[0.739,0.328,-0.047,-0.109,-0.255,4.576,2.188,0.97,0.541,0.197,9.611,4.451,2.449,1.447,0.657,49.142,24.045,14.114,8.895,5.273,100.383,48.819,29.205,19.172,12.626,199.912,95.111,61.803,41.843,29.338],[0.676,0.175,-0.001,0.008,-0.121,4.612,2.342,1.264,0.81,0.549,10.356,4.635,3.049,1.957,1.315,48.64,24.594,15.801,11.245,8.233,100.264,48.526,31.793,23.027,17.164,199.517,101.842,65.247,46.548,35.882],[0.721,0.34,-0.063,-0.002,-0.079,4.962,2.379,1.426,0.93,0.667,10.317,4.978,2.818,2.182,1.649,52.506,24.103,16.106,11.674,9.057,97.191,49.236,32.366,23.867,18.663,200.687,99.247,66.311,48.63,37.23],[1.366,0.464,0.247,0.074,-0.082,5.986,2.437,1.365,0.965,0.638,10.527,4.948,3.294,2.264,1.614,49.679,24.745,16.165,11.984,9.34,100.269,49.469,33.306,24.116,18.978,198.396,100.717,67.534,48.759,38.563],[3.018,0.421,0.169,-0.036,0.006,4.816,2.478,1.529,1.105,0.784,10.844,4.986,3.289,2.275,1.757,49.238,25.007,16.053,11.782,9.738,101.021,48.218,33.018,24.533,19.339,200.157,98.615,65.813,50.17,38.689]],
"kep": [[2.752,2.295,2.58,3.499,2.827,8.956,9.095,8.907,10.955,12.253,17.018,15.625,17.793,18.677,20.588,86.736,72.664,78.427,88.499,98.601,138.577,140.837,157.009,167.102,196.742,-69.839,175.643,241.53,307.591,352.44],[6.73,1.936,2.1,1.749,1.515,6.106,4.83,3.925,3.672,3.111,14.414,8.802,7.245,6.127,5.554,96.098,42.677,29.392,28.177,24.675,-36.727,94.026,54.894,51.383,49.363,-70.435,74.167,120.945,101.212,99.983],[7.257,2.182,2.518,1.901,1.654,15.615,5.749,4.481,3.125,3.217,22.493,8.587,6.418,5.412,5.007,29.663,43.459,24.883,19.602,18.806,-54.373,97.259,50.382,42.009,35.233,-55.591,-120.9,122.319,77.348,72.702],[0.331,5.338,2.753,2.591,2.335,15.875,6.947,5.005,3.681,3.228,25.662,10.433,6.88,5.902,4.629,-62.123,38.155,26.614,18.561,16.427,-46.498,118.184,51.431,37.908,34.236,-85.352,-13.664,144.579,88.236,58.246],[-1.467,8.496,5.056,3.591,2.575,3.274,7.873,5.713,4.537,3.049,4.949,14.052,8.462,5.613,4.674,-40.922,53.585,24.443,18.694,15.009,-82.089,43.779,73.599,37.29,28.825,-75.978,-44.162,107.142,86.547,64.26],[-16.615,6.423,3.921,2.972,2.689,-30.235,11.004,6.211,5.029,4.069,-26.326,14.853,8.963,5.065,5.03,-59.55,66.889,24.107,16.055,17.676,-86.796,-21.322,70.86,42.496,30.49,-87.314,-52.182,0.451,146.637,66.423]],
"vp": [[83.023,30.778,-70.433,-22.768,73.895,18.073,29.19,12.976,-3.332,12.896,14.68,18.732,28.554,13.291,6.703,7.287,8.836,8.454,7.28,-0.825,-4.367,1.804,12.148,-0.056,14.112,6.746,2.146,3.616,6.083,-2.748],[-51.973,-0.954,-12.088,59.712,23.385,1.362,13.716,13.558,19.604,9.17,23.406,36.396,13.291,27.301,13.664,15.445,31.836,13.783,29.261,5.342,43.564,27.79,0.625,9.173,10.356,27.062,-0.573,11.543,4.56,12.681],[306.404,-114.367,-74.876,-20.267,-15.726,67.064,9.352,4.009,9.578,11.529,121.922,-0.885,15.265,14.11,18.238,18.374,24.147,14.181,13.864,23.099,45.103,4.035,11.556,20.768,13.534,29.634,36.642,15.326,0.593,14.579],[3488.031,-635.066,-260.155,-102.256,-65.073,1014.321,-88.562,-7.519,-3.328,4.116,499.103,-42.825,15.017,24.465,22.461,107.019,2.244,26.495,7.76,14.999,24.295,37.755,8.394,13.913,30.896,42.242,25.036,18.336,17.561,-2.706],[6994.053,-1074.494,-598.156,-262.147,-62.365,1406.571,-77.931,-83.76,-67.125,-16.3,682.57,-72.913,19.045,8.317,-15.326,90.112,72.455,3.686,14.274,14.111,83.125,27.605,42.609,9.775,11.655,36.736,51.308,26.615,8.734,12.965],[8370.312,-991.429,-887.78,-639.32,-302.614,1406.59,-279.809,-202.089,-107.489,-36.161,764.699,-129.085,-47.179,-57.828,-46.53,134.36,138.265,-17.903,-12.091,30.04,87.89,13.05,40.149,20.85,17.675,53.909,22.252,17.909,43.971,10.167]]
}