{
"KTrans": [[-34.649,38.907,23.369,23.498,30.917,-23.881,50.76,31.918,34.203,21.907,-4.435,34.501,35.228,49.631,40.495,92.73,127.871,106.71,90.074,79.005,355.258,303.014,217.633,192.893,166.68,742.454,712.32,543.808,467.453,413.085],[-80.195,40.875,50.074,42.739,26.304,-92.938,44.56,53.506,30.806,42.958,-75.166,43.64,55.354,48.03,48.335,-49.4,81.357,97.557,82.003,59.103,3.45,197.478,168.28,129.717,103.718,116.072,421.198,319.28,283.63,222.784],[-101.869,-34.086,66.854,89.705,39.707,-110.155,-40.867,45.43,67.324,55.211,-97.651,-3.901,70.072,71.224,60.443,-104.674,-20.069,117.172,116.425,83.049,-54.275,11.951,189.417,176.377,141.29,-119.979,175.118,308.748,292.658,189.306],[-104.91,-85.436,46.537,73.367,72.893,-107.809,-94.591,-0.77,67.981,82.345,-100.382,-98.072,38.688,92.156,69.839,-112.442,-49.288,82.184,135.697,121.724,-110.273,-70.505,88.196,203.921,147.639,-162.118,11.531,195.107,287.102,260.368],[-101.242,-110.873,-52.755,120.261,99.926,-100.138,-108.638,-48.992,65.553,94.584,-107.389,-104.629,-55.124,58.453,129.749,-106.116,-116.907,-9.454,126.947,108.815,-95.406,-96.784,5.704,202.616,180.611,-121.002,-127.345,12.926,212.579,307.921],[-103.666,-119.888,-95.952,4.118,104.71,-105.327,-114.329,-87.329,36.14,101.073,-104.724,-123.003,-92.301,3.393,140.683,-104.032,-100.824,-88.257,29.989,144.106,-113.549,-118.931,-47.672,25.999,195.94,-102.41,-96.005,-32.377,159.935,227.453]],
"ve": [[-7.006,-12.217,-86.454,-27.612,136.512,14.154,22.487,10.463,80.846,32.713,-11.246,55.034,-22.99,13.291,53.214,80.194,22.703,-11.51,4.419,34.57,102.005,39.466,11.82,-4.091,-15.7,215.288,85.015,37.937,12.889,-5.194],[-16.066,5.39,6.8,3.758,1.096,17.029,9.502,7.271,1.902,6.705,53.664,11.995,5.885,5.421,4.806,51.042,36.61,17.28,9.754,6.136,105.078,52.214,30.391,21.597,12.798,203.672,103.074,61.32,46.874,32.325],[2.615,4.802,2.381,5.245,0.74,39.94,15.388,5.798,4.733,1.77,14.043,9.966,4.759,4.52,5.803,46.098,22.535,17,14.714,11.177,111.799,39.459,36.855,26.745,22.314,201.63,104.919,67.061,50.018,36.565],[18.847,8.463,10.187,3.551,2.23,83.706,6.026,3.792,2.223,4.672,5.129,10.656,10.475,6.473,1.457,68.928,30.339,20.501,17.773,13.755,102.195,26.243,30.385,28.474,20.538,211.812,83.45,68.205,46.447,40.009],[14.019,-12.253,6.649,20.488,1.529,9.874,4.934,10.505,2.345,1.942,11.712,-17.264,-6.924,4.459,7.555,44.179,8.94,22.123,17.873,9.402,123.391,55.449,66.912,28.666,22.693,350.195,108.285,76.046,53.367,45.318],[6.971,1.712,-6.376,6.344,4.361,22.988,5.807,2.451,5.293,3.952,10.655,6.246,11.497,4.604,6.077,112.122,22.464,16.199,16.518,10.512,100.761,56.02,37.245,25.197,38.605,195.842,100.646,62.88,50.272,42.67]],
"kep": [[-47.878,32.289,20.708,23.791,42.938,-45.276,39.428,29.841,39.122,34.864,-34.573,29.763,35.929,68.223,58.731,21.04,90.942,102.791,108.254,116.76,124.113,188.729,186.015,217.267,224.781,179.658,342.638,357.476,407.363,447.454],[-83.464,25.504,38.926,35.903,23.88,-95.759,27.156,44.272,26.268,35.489,-80.649,22.972,41.496,38.263,41.483,-67.175,36.36,63.135,61.064,47.264,-54.332,88.754,99.985,84.984,76.861,-29.999,154.146,153.114,158.479,141.125],[-101.588,-43.064,53.249,77.718,32.882,-108.874,-52.03,31.326,54.029,45.988,-97.821,-21.261,51.892,57.816,48.889,-102.303,-41.808,75.531,83.326,60.107,-77.154,-30.909,105.564,110.096,93.693,-105.15,30.59,136.623,152.66,105.427],[-103.705,-87.966,28.516,58.805,61.758,-106.98,-93.026,-10.788,54.794,67.063,-101.354,-97.412,21.101,71.84,56.186,-106.789,-64.152,43.935,92.442,88.044,-104.079,-82.512,31.501,127.181,97.145,-119.573,-44.986,67.891,147.782,147.78],[-101.613,-108.348,-56.005,95.732,84.536,-100.924,-106.167,-57.76,48.107,79.069,-106.807,-103.849,-58.738,42.202,102.472,-104.214,-111.65,-29.799,85.875,79.008,-97.241,-97.525,-26.646,122.179,118.051,-105.864,-109.597,-37.84,98.064,172.023],[-102.582,-117.381,-95.001,-5.361,86.055,-104.322,-112.316,-86.621,20.705,82.656,-103.425,-118.345,-90.537,-10.547,113.725,-101.4,-97.176,-91.139,4.146,107.151,-106.187,-110.138,-65.298,-5.14,127.544,-99.16,-96.815,-55.694,64.54,121.638]],
"vp": [[2889.515,2625.151,1815.844,1781.616,2553.097,746.546,600.365,292.254,354.953,392.426,244.476,229.815,110.34,213.2,273.457,60.274,35.33,32.923,23.841,14.821,29.799,26.288,20.715,14.377,8.1,16.699,8.652,10.295,9.166,10.335],[7248.588,8520.941,6538.518,6461.211,5893.597,1512.334,1614.026,1221.705,890.74,1322.96,661.127,881.108,632.509,686.011,697.575,127.622,155.053,125.592,145.945,98.083,80.062,85.695,59.588,59.132,48.767,35.13,39.575,28.784,28.595,26.86],[8869.469,12376.126,10383.009,13366.459,8623.973,2054.064,2877.117,2273.081,2260.85,2007.345,855.25,1436.093,1152.166,1038.107,1124.869,184.465,265.731,228.649,217.207,220.782,82.452,120.17,114.541,121.648,106.285,46.317,61.801,57.944,50.262,38.492],[10229.062,14342.452,19197.455,18393.146,15004.193,2046.071,2884.978,3471.995,2560.085,3298.134,905.807,1625.058,1890.465,1689.113,1251.38,201.777,297.619,360.827,379.988,317.178,97.231,167.36,172.857,185.448,151.322,55.347,65.795,89.86,79.311,80.003],[9836.065,17766.045,21484.703,24148.014,18010.31,2246.956,3296.889,4464.974,4400.343,3776.939,1094.154,1712.047,1919.253,2299.901,2616.75,208.803,335.497,431.518,459.171,349.236,103.159,171.615,224.715,213.278,211.078,58.456,84.74,110.914,119.871,116.14],[9722.699,18294.105,23218.419,26383.953,25249.364,2049.581,3651.828,4484.937,5073.111,5330.72,1028.43,1779.011,2102,2822.595,2602.291,219.423,333.235,488.465,521.253,447.29,108.286,201.984,253.302,236.53,297.209,48.963,78.474,82.561,121.346,113.18]]
}