{
"KTrans": [[-0.497,6.036,9.263,7.284,8.714,7.514,13.526,14.217,15.137,13.271,18.912,19.815,18.586,17.558,19.102,138.768,92.358,81.55,72.112,66.396,282.752,187.73,170.841,144.263,137.338,105.07,391.355,367.514,304.915,311.032],[-23.158,-3.397,0.208,4.34,5.139,-21.332,-1.377,3.012,5.472,7,-12.274,5.609,9.26,8.597,10.373,51.741,49.52,38.562,35.947,33.697,72.641,108.961,81.607,71.887,66.815,-77.143,205.059,183.258,155.024,140.037],[-42.809,-13.122,-7.836,-1.727,-0.459,-39.006,-12.374,-6.717,-0.391,2.212,-34.354,-7.97,-1.674,0.698,3.516,-10.411,28.272,27.601,26.151,22.665,-37.877,79.491,59.811,47.853,46.476,-108.451,100.569,135.954,114.055,102.307],[-57.372,-19.405,-13.359,-7.425,-3.69,-48.949,-17.155,-7.929,-6.949,-2.474,-47.731,-15.701,-9.835,-1.709,-1.86,-27.199,19.955,16.945,16.225,14.628,-21.281,60.561,39.988,40.533,41.51,-78.79,35.932,105.873,84.194,88.46],[-66.68,-25.833,-16.96,-9.924,-6.615,-64.926,-27.548,-16.845,-10.898,-5.757,-61.184,-20.565,-11.518,-10.592,-4.541,-38.339,-5.772,6.601,10.125,10.958,-50.827,25.87,35.241,29.248,30.12,-89.887,-10.513,84.527,66.665,76.502],[-71.372,-36.058,-19.92,-16.054,-10.191,-71.514,-28.587,-19.637,-13.876,-9.232,-67.943,-29.526,-16.737,-12.339,-8.359,-58.284,-4.001,-2.053,3.807,3.648,-60.35,19.743,26.882,29.024,22.041,-65.245,-31.467,78.505,67.616,55.004]],
"ve": [[17.826,19.268,31.212,35.418,-4.319,13.222,60.088,22.031,54.848,24.199,14.51,19.705,19.288,68.581,48.713,48.934,20.587,7.897,3.975,-4.5,98.203,46.658,14.624,-0.736,-7.865,201.497,87.676,53.114,20.537,10.902],[0.277,0.16,0.606,2.471,4.292,5.096,1.755,2.557,3.8,4.64,11.733,4.452,2.568,3.173,4.943,50.011,23.24,14.76,10.257,9.062,101.33,45.669,28.135,20.911,15.606,182.206,96.782,63.027,43.119,31.493],[1.616,-1.407,-1.148,0.41,0.255,4.929,0.833,0.952,0.614,1.057,9.256,2.486,1.702,1.701,2.912,47.244,22.318,14.424,11.085,9.082,81.722,46.256,29.996,21.73,16.652,192.725,96.681,62.546,44.791,36.03],[-1.873,-2.319,-1.757,-1.282,-0.454,3.074,0.772,0.12,-0.325,-0.584,13.015,2.701,0.589,1.168,0.612,48.692,22.882,14.416,9.538,6.956,98.057,47.242,29.331,20.76,17.625,189.281,92.39,62.986,44.729,37.047],[3.601,-1.246,-2.459,-1.675,-1.581,6.374,-0.733,-1.019,-1.449,-0.731,10.647,3.482,0.538,0.491,0.01,50.28,21.48,13.545,9.227,7.03,140.119,47.363,29.499,21.451,16.736,192.451,94.193,62.887,45.473,36.817],[1.153,-3.636,-2.017,-2.314,-1.639,29.473,-1.281,-1.534,-1.822,-1.132,10.845,3.631,0.172,0.086,0.15,50.443,21.85,13.236,9.315,7.446,91.403,46.768,29.556,22.209,16.791,190.865,90.416,61.65,44.462,35.705]],
"kep": [[-27.237,-22.74,-24.795,-33.192,-33.929,-21.859,-19.436,-19.045,-19.498,-29.305,-16.588,-17.038,-13.701,-19.796,-19.053,25.608,26.935,34.667,35.018,42.117,49.78,59.839,84.707,93.472,106.484,-36.191,103.819,158.818,167.168,214.512],[-40.183,-24.901,-22.712,-20.71,-21.658,-41.728,-24.461,-22.085,-21.154,-20.513,-38.299,-21.304,-17.277,-18.361,-18.286,-21.518,-6.017,-6.295,-4.37,-4.839,-32.215,10.47,9.421,10.194,11.642,-87.821,18.892,33.616,37.278,41.035],[-56.458,-31.703,-27.783,-24.215,-23.112,-54.028,-32.642,-28.458,-23.345,-21.71,-52.741,-30.088,-25.162,-23.339,-22.152,-53.085,-19.138,-13.837,-12.156,-13.034,-75.242,-6.239,-5.312,-6.16,-2.954,-97.476,-21.319,10.867,13.411,14.429],[-67.558,-35.958,-31.668,-27.431,-25.161,-61.697,-36.178,-28.73,-27.781,-24.136,-64.018,-36.472,-30.673,-24.825,-24.528,-62.067,-24.584,-20.931,-18.039,-17.181,-68.266,-16.583,-16.709,-10.294,-7.09,-90.336,-45.936,-3.728,-2.162,5.718],[-74.468,-41.628,-34.188,-29.122,-26.62,-74.403,-43.546,-35.038,-30.027,-26.568,-73.319,-40.437,-31.951,-31.136,-26.181,-68.503,-40.14,-27.521,-22.06,-19.932,-79.344,-34.769,-19.719,-18.02,-14.003,-94.075,-63.101,-14.074,-12.095,-0.936],[-78.33,-48.547,-36.744,-33.577,-29.404,-79.601,-44.049,-36.857,-32.184,-29.008,-77.91,-47.478,-35.69,-32.287,-29.262,-78.504,-39.376,-33.275,-26.612,-25.465,-83.345,-38.161,-24.732,-18.794,-19.45,-88.442,-71.876,-16.307,-11.646,-12.125]],
"vp": [[-88.842,-74.63,387.367,143.066,177.799,-48.744,55.537,7.555,-39.918,151.768,3.605,-69.541,42.681,71.926,24.4,0.756,-2.172,7.808,-14.608,-18.832,-8.471,-9.269,2.033,-23.127,-7.276,-7.51,-3.911,-7.803,-13.482,3.77],[2478.652,846.841,31.063,124.121,61.453,499.147,90.366,7.82,-14.965,-50.413,233.012,147.973,-2.349,-12.971,22.528,38.341,24.75,-7.459,-4.45,-5.726,6.312,-7.276,-17.519,-1.4,7.879,-1.149,-16.66,-2.94,-9.863,-0.699],[4479.775,2704.348,1194.6,1045.268,-180.303,842.148,388.368,433.216,95.869,11.413,457.602,317.437,139.719,52.162,43.838,84.133,58.631,19.897,19.917,-10.878,35.773,22.407,7.92,-14.26,-13.306,8.114,-4.092,-16.276,-24.833,-15.093],[5752.413,5692.636,2411.081,1727.146,1164.489,1265.926,1093.644,510.149,327.222,202.728,617.475,490.614,159.399,162.619,80.686,93.588,84.478,51.221,13.241,5.492,33.922,37.396,-6.086,-15,9.948,-2.655,-2.76,-16.04,-26.555,-5.956],[5981.251,6709.089,3950.9,2199.122,1943.849,1179.308,1331.196,604.853,300.525,288.757,654.528,706.108,427.593,97.531,86.659,130.134,108.913,60.737,42.518,23.889,45.014,55.429,22.263,1.266,11.706,13.055,17.505,9.842,-29.405,3.414],[6831.811,7125.633,4900.396,3495.312,2154.389,1466.584,1793.404,1110.368,591.298,692.242,725.946,828.506,489.397,288.559,250.432,133.497,148.666,102.67,66.784,47.332,42.422,82.2,35.689,49.75,6.54,9.635,18.839,1.131,-13.638,-23.056]]
}