{
"KTrans": [[-4.16,12.751,12.814,12.267,15.66,5.958,17.487,16.281,19.52,18.88,10.65,25.92,20.592,29.255,22.688,120.178,92.812,81.499,73.764,73.801,244.761,182.655,167.221,154.41,150.134,447.521,405.518,353.686,331.731,314.719],[-38.009,-8.829,-0.126,6.755,6.269,-23.786,-5.598,4.451,7.209,6.518,-26.83,0.702,6.385,10.949,11.303,14.157,28.924,37.188,32.776,31.191,66.487,76.474,70.258,70.722,64.745,137.814,182.991,161.949,137.723,133.015],[-52.628,-19,-11.467,-6.757,0.505,-48.483,-19.891,-9.014,-4.13,1.782,-53.444,-16.154,-5.477,0.613,3.496,-18.525,11.353,15.079,17.653,18.459,8.062,38.828,42.769,44.262,41.408,86.432,110.441,108.016,91.482,86.279],[-63.957,-33.146,-19.909,-13.008,-8.107,-59.667,-33.335,-19.229,-13.781,-6.779,-57.443,-31.641,-19.271,-9.841,-3.528,-39.861,-10.318,2.172,6.086,8.613,-20.239,22.69,25.886,25.584,26.439,10.066,59.857,65.368,65.505,63.579],[-68.31,-42.044,-28.398,-19.512,-15.232,-68.494,-41.394,-25.673,-19.087,-13.792,-66.731,-36.321,-27.027,-15.749,-10.126,-49.145,-21.721,-7.418,-5.226,0.591,-35.57,-0.411,7.781,13.121,14.69,-16.73,30.251,41.803,41.864,50.459],[-78.243,-47.986,-34.539,-25.034,-19.588,-75.297,-45.385,-31.39,-23.955,-18.527,-73.991,-47.66,-32.64,-23.048,-15.315,-61.501,-31.873,-18.14,-9.541,-5.704,-48.093,-11.427,1.521,6.503,8.257,-48.8,15.24,34.131,32.769,33.438]],
"ve": [[21.111,54.781,100.305,683.967,186.249,73.294,66.591,84.172,112.657,-130.777,28.784,-36.405,180.473,192.658,-329.559,51.75,22.25,30.282,140.559,-7.282,96.551,40.769,21.585,8.578,-9.971,222.451,82.541,43.7,19.015,0.845],[2.36,0.804,2.443,5.895,11.925,19.715,0.962,2.362,7.857,12.972,8.42,2.705,4.839,7.501,12.989,41.751,21.256,14.516,14.315,12.641,92.66,43.865,27.653,20.591,18.812,174.956,94.147,58.788,43,31.548],[0.649,-2.137,-1.732,-1.195,1.078,0.608,-0.981,-2.515,-1.131,3.187,8.885,-0.102,-1.094,0.948,3.421,47.012,20.273,11.113,9.888,8.343,88.467,41.581,26.877,19.363,17.621,203.515,90.811,58.379,43.743,34.297],[-4.744,-5.781,-4.498,-2.564,-2.165,2.937,-1.026,-3.04,-3.072,-1.792,14.709,0.682,-2.298,-1.853,-0.758,43.965,18.894,11.841,8.042,5.35,82.625,40.957,26.105,19.042,15.065,173.644,91.898,57.035,42.428,33.25],[5.72,-4.111,-4.727,-4.085,-3.469,2.84,-2.392,-3.817,-4.473,-2.866,45.028,-0.856,-1.645,-2.416,-1.907,40.335,17.681,10.435,6.004,5.099,95.644,41.856,26.979,17.3,13.958,132.681,88.26,57.973,40.178,32.33],[2.342,-5.374,-6.814,-4.801,-4.569,2.511,-3.724,-3.341,-5.521,-3.478,7.651,0.209,-2.946,-2.938,-3.452,48.393,17.969,10.266,6.434,4.733,83.858,42.108,25.066,17.645,14.077,176.581,89.966,57.324,41.929,31.73]],
"kep": [[-47.298,-42.585,-49.399,-64.636,-66.923,-42.769,-39.24,-46.737,-54.941,-65.131,-43.31,-32.202,-45.742,-40.268,-59.181,-9.199,-2.069,-4.986,-4.508,1.044,9.126,24.144,36.658,48.853,61.291,13.08,68.059,92.929,122.186,150.638],[-61.897,-44.889,-40.481,-38.82,-41.985,-56.563,-43.289,-37.934,-39.516,-42.501,-58.412,-40.209,-38.463,-37.65,-39.894,-50.537,-35.488,-27.709,-29.669,-29.274,-47.526,-26.06,-19.487,-14.589,-16.106,-50.317,-12.726,-1.405,-0.196,6.533],[-70.467,-49.917,-45.701,-43.215,-40.041,-68.861,-50.906,-43.754,-41.626,-40.684,-73.364,-49.218,-42.514,-40.053,-39.751,-65.914,-44.198,-37.767,-35.49,-34.284,-66.335,-41.122,-32.432,-27.441,-27.743,-62.071,-34.447,-21.597,-20.299,-16.92],[-77.758,-57.062,-49.504,-46.247,-43.501,-76.095,-59.205,-49.787,-46.54,-42.995,-76.233,-58.899,-50.289,-44.776,-41.498,-74.819,-54.479,-45.073,-40.975,-38.17,-74.562,-47.828,-40.271,-36.768,-34.036,-76.759,-50.322,-37.33,-30.533,-26.494],[-81.684,-63.322,-54.792,-49.617,-47.249,-81.01,-63.639,-53.481,-49.069,-46.702,-81.282,-61.266,-55.362,-48.136,-44.938,-78.351,-59.891,-49.641,-46.326,-42.581,-79.565,-57.939,-49.098,-42.166,-39.681,-82.523,-58.635,-46.578,-39.509,-32.076],[-86.972,-66.683,-57.67,-52.705,-49.393,-85.292,-65.706,-57.245,-51.709,-49.38,-85.176,-68.092,-58.224,-52.374,-47.289,-83.968,-65.072,-55.369,-49.016,-45.942,-83.769,-62.636,-51.359,-45.785,-43.101,-89.084,-63.603,-49.4,-44.161,-39.464]],
"vp": [[-9.592,-95.655,121.341,402.564,-56.097,-8.668,-45.793,144.247,138.304,14.641,-44.026,15.672,-20.658,65.327,11.528,-6.196,-26.626,-10.617,-15.882,-27.567,-3.826,-19.974,-1.382,4.616,-9.902,-14.059,-11.259,-6.175,-10.182,-13.38],[2878.491,846.375,-547.46,40.481,-96.262,499.664,347.584,-37.933,-121.426,-146.583,268.046,75.143,-58.522,-101.991,15.834,12.506,13.785,-8.046,-18.772,-20.521,1.727,3.667,-14.937,-2.205,-2.74,-5.702,-5.121,-5.768,-16.189,-9.472],[5226.453,2137.778,2001.417,366.682,684.338,796.335,671.597,289.928,115.417,-13.963,456.358,346.333,227.537,47.544,23.27,90.458,82.858,14.555,16.54,-31.443,20.096,17.94,10.112,4.12,-0.043,16.775,1.908,-5.024,-11.72,-10.941],[5887.34,5471.53,3883.183,2922.369,1424.268,1322.894,1300.921,821.453,348.91,452.648,547.748,606.928,263.374,166.634,161.224,101.594,97.395,77.347,38.125,6.035,34.197,51.292,29.111,19.393,4.243,2.233,12.919,-2.424,-5.966,-9.091],[7025.405,8385.369,4874.478,2644.63,2172.307,1156.704,1515.593,996.896,613.575,410.288,619.062,705.557,599.082,292.481,241.668,99.522,142.043,116.875,57.292,33.947,50.487,74.453,61.333,13.942,27.288,14.422,10.05,4.012,-17.778,0.682],[6536.589,9214.039,6874.175,5082.476,3806.349,1410.292,2001.725,1606.349,992.384,732.343,660.497,877.107,706.946,525.41,253.091,124.695,165.459,144.402,89.197,53.246,55.647,81.583,65.901,57.562,56.734,9.241,34.471,30.97,21.411,-5.622]]
}