{
"KTrans": [[28.389,37.422,16.232,28.063,32.125,17.378,27.465,25.722,40.769,30.833,17.538,40.248,48.003,42.736,39.136,125.984,139.594,118.155,118.657,101.518,232.276,296.291,217.553,211.534,185.203,760.001,699.848,533.401,497.645,418.508],[-76.58,43.865,51.383,34.271,33.008,-73.779,50.738,51.196,58.439,33.611,-74.953,91.532,62.019,62.38,38.066,-41.531,137.714,125.12,81.014,73.265,-26.806,225.662,185.73,132.348,121.035,184.757,454.352,361.151,287.577,209.07],[-113.237,-48.459,68.13,55.537,56.702,-107.495,-1.875,79.747,74.512,66.91,-105.859,2.79,82.143,81.46,60.008,-92.346,38.669,142.13,111.62,91.022,-122.464,28.304,208.989,168.021,113.178,-162.974,235.201,346.622,282.103,185.423],[-104.351,-105.783,24.489,97.266,71.655,-106.025,-106.175,49.935,114.63,72.452,-105.087,-84.927,66.776,82.061,84.011,-110.211,-60.754,63.916,137.639,130.358,-101.81,-84.814,116.893,197.459,141.655,-133.395,-55.675,203.227,350.903,279.196],[-106.531,-126.986,-32.21,72.592,133.061,-109.634,-120.399,-38.707,92.333,122.125,-109.669,-120.597,-55.585,108.152,121.663,-106.628,-100.888,-30.622,92.862,170.493,-112.096,-96.13,-22.683,194.166,225.088,-112.287,-161.736,75.964,340.205,250.472],[-107.571,-119.868,-128.344,45.501,130.616,-105.43,-131.518,-96.265,-0.947,101.839,-104.94,-119.562,-91.775,0.349,130.752,-104.348,-116.47,-90.922,17.45,146.682,-105.983,-117.784,-120.296,100.23,180.001,-103.437,-123.713,-86.367,126.979,262.378]],
"ve": [[-8.633,-114.702,-236.666,414.688,95.176,24.728,47.786,10.758,8.174,-28.19,-96.868,5.808,-3.771,17.256,-14.925,52.352,24.577,4.613,-9.462,33.342,100.804,35.421,13.776,-3.268,-16.262,189.806,87.528,36.677,14.637,-4.82],[9.887,2.386,2.853,3.372,2.706,17.586,7.125,2.619,5.196,5.235,25.041,13.257,3.852,4.473,3.109,62.918,30.285,17.764,10.533,7.524,113.934,54.757,33.523,20.955,15.574,214.076,104.338,63.352,47.166,30.083],[6.441,2.386,2.795,1.993,3.532,-105.007,6.746,2.249,5.866,4.322,16.635,13.644,8.156,5.337,4.189,33.172,29.223,19.455,13.066,10.533,99.415,53.472,34.719,24.466,17.502,194.86,100.761,66.225,50.56,35.549],[10.013,-0.559,3.555,3.325,2.578,0.573,0.251,1.929,3.517,1.894,13.045,72.09,9.006,3.473,3.153,60.786,31.048,15.633,17.256,12.031,97.78,46.894,35.493,27.845,20.341,207.282,133.299,84.504,51.557,40.95],[10.001,4.363,8.714,2.842,3.264,-7.505,-1.794,9.482,4.886,3.332,14.649,10.347,5.782,7.801,6.293,62.652,29.899,16.809,13.862,14.284,107.425,51.072,39.601,28.959,22.576,220.331,97.139,70.523,54.37,41.299],[-7.374,15.771,5.505,8.748,2.968,5.227,6.888,4.094,4.458,3.044,-7.892,8.274,9.775,4.905,4.749,65.604,25.051,6.175,-1.615,11.933,102.146,19.61,35.455,32.299,21.396,199.283,106.646,72.682,50.196,38.868]],
"kep": [[6.839,33.025,11.695,26.734,48.394,1.69,20.279,22.877,54.336,43.091,-4.408,33.454,55.48,57.062,52.936,36.14,98.053,113.491,153.734,146.032,68.992,189.63,182.21,226.603,243.12,182.396,330.109,364.077,426.297,445.331],[-82.979,32.751,43.301,28.134,29.814,-79.498,35.496,42.749,49.233,27.243,-81.081,65.449,49.952,53.632,33.244,-64.292,74.452,86.791,60.327,57.331,-67.555,105.4,109.184,86.893,88.367,-4.992,166.039,174.848,160.701,133.201],[-111.536,-55.862,55.283,44.781,47.488,-105.24,-17.327,65.489,60.752,55.007,-104.588,-13.882,61.002,66.688,48.723,-96.371,3.062,92.849,79.673,66.619,-110.69,-17.795,120.195,107.24,75.609,-120.617,61.673,158.339,147.468,103.218],[-104.454,-106.571,11.953,82.202,59.103,-104.354,-105.328,34.625,93.245,59.019,-104.806,-87.087,46.849,66.333,69,-106.65,-69.77,32.746,95.078,96.172,-99.222,-88.968,51.665,124.073,91.606,-109.656,-78.473,75.562,187.799,159.406],[-105.517,-123.686,-41.335,55.15,114.695,-108.017,-117.28,-47.632,70.502,101.172,-108.157,-118.365,-60.193,84.248,98.004,-103.65,-100.307,-45.703,58.779,126.439,-104.99,-96.106,-47.061,118.867,151.609,-103.027,-127.26,-0.001,175.081,138.142],[-107.557,-115.103,-124.818,30.013,109.981,-104.322,-126.429,-97.652,-9.76,84.408,-104.678,-114.729,-95.338,-12.094,107.635,-103.142,-110.424,-90.031,-5.144,106.656,-101.676,-109.328,-112.64,46.224,115.582,-101.463,-109.263,-91.76,43.864,144.555]],
"vp": [[3243.345,1138.51,1535.478,2158.769,2749.662,694.276,274.534,504.951,334.943,335.183,236.889,109.787,182.546,235.826,231.683,64.38,40.013,42.105,48.89,41.685,31.351,19.618,15.521,23.661,19.033,15.299,11.022,4.681,13.886,8.435],[7979.964,6642.111,6160.42,5735.306,5083.803,1388.572,1510.977,1220.246,1572.324,1235.243,742.264,985.118,607.641,739.407,548.829,148.457,187.302,157.156,115.731,146.79,76.551,84.073,60.186,57.954,70.512,29.112,43.364,32.109,31.933,26.323],[10103.512,12853.746,11479.755,10686.781,11475.381,1969.394,2970.224,2219.461,2364.834,2318.18,922.622,1473.424,1186.07,1101.535,1032.589,181.384,262.497,255.08,219.754,231.487,101.906,127.379,120.415,113.341,94.587,49.266,60.697,59.936,58.942,39.159],[10574.927,16133.245,17307.536,16919.01,14351.428,1876.93,3219.194,3589.492,3328.411,3008.477,1022.384,1609.462,1852.354,1405.983,1527.494,216.035,269.07,298.626,352.234,309.305,95.258,148.478,180.486,178.338,136.569,52.8,81.509,92.377,84.744,82.965],[11580.954,17665.463,23321.802,19226.86,22601.584,2240.644,3612.916,4764.306,4909.622,4276.499,1012.998,1797.47,2124.046,2425.231,2214.667,233.489,365.615,436.47,390.477,460.216,98.78,169.21,229.934,210.344,227.854,51.55,93.769,114.603,122.952,110.943],[11032.025,17670.229,24979.227,28213.727,27026.547,2313.563,4060.066,4502.275,4803.613,5198.213,1213.975,1792.679,2513.155,2648.714,2427.08,246.328,375.455,475.578,585.622,501.413,115.347,191.069,242.226,281.957,247.156,56.324,98.943,117.345,116.838,125.485]]
}