{
"KTrans": [[0.067,0.093,0.104,0.105,0.044,0.437,0.069,0.305,0.13,0.251,1.737,0.132,0.322,0.337,0.439,5.907,4.274,2.355,2.894,1.704,25.305,5.48,-1.757,3.255,0.921,115.117,39.876,40.505,23.588,12.79],[-1.353,-0.072,0.015,0.059,0.048,-1.115,0.12,0.058,0.289,0.152,-1.755,-0.334,-0.184,0.063,0.29,2.699,0.214,1.072,1.984,1.218,19.575,4.947,5.544,4.279,0.986,5.091,17.392,14.175,9.796,3.366],[-3.157,-0.773,-0.266,-0.052,0.024,-1.941,-0.574,-0.171,-0.227,0.026,1.148,-0.734,0.42,0.202,0.184,-5.596,-2.23,2.972,0.249,0.73,-8.308,6.025,-2.351,-0.254,0.489,-13.314,20.945,12.859,-0.442,1.044],[4.59,-2.326,-0.909,-0.265,-0.12,4.788,-0.788,-0.497,-0.121,-0.265,4.759,-1.795,-0.936,-0.313,0.004,-32.541,-1.551,3.159,1.251,0.734,-39.586,15.817,9.112,-0.776,-0.283,-30.777,27.505,12.661,3.074,0.234],[-32.984,-1.315,-1.195,-0.846,-0.204,-41.832,-1.439,-1.144,-0.989,-0.502,-48.494,-2.462,-1.018,-0.36,-0.309,-60.193,1.653,1.205,0.337,0.487,-55.447,19.206,-3.485,2.806,2.518,-35.199,7.832,4.582,10.152,3.594],[-63.693,1.545,-0.813,-0.397,-0.749,-66.211,7.606,-1.575,-1.122,-0.579,-67.818,0.332,-2.372,-1.064,-0.286,-66.145,16.248,-0.473,0.864,1.097,-58.423,-26.763,1.555,-1.431,0.351,-60.03,-35.822,34.312,10.956,3.615]],
"ve": [[0.03,-0.021,-0.09,-0.15,-0.203,0.192,-0.041,-0.131,-0.158,-0.323,0.785,-0.027,-0.072,-0.186,-0.333,2.114,1.698,2.386,2.937,5.662,12.855,10.654,27.937,53.115,740.152,37.442,-41.566,19.369,-21.536,-104.081],[-0.78,-0.008,0.004,0.009,-0.009,-0.725,0.07,0.02,0.094,0.004,-0.68,-0.235,-0.131,-0.012,0.04,0.571,-0.301,0.382,0.681,0.295,7.138,1.6,2.28,1.567,0.328,15.134,6.298,5.747,4.07,2.187],[-1.935,-0.469,-0.068,-0.011,0.011,-0.951,-0.365,-0.047,-0.109,0.006,0.609,-0.1,0.277,0.107,0.075,-1.184,-1.813,1.767,-0.004,0.292,-12.49,3.676,-2.057,-0.657,-0.08,0.981,8.677,6.581,-1.317,-0.244],[-1.786,-1.014,-0.374,-0.134,-0.041,-1.815,-0.43,-0.162,-0.076,-0.123,-1.699,-0.813,-0.344,-0.149,0.053,-17.882,-3.311,2.334,0.632,0.372,-26.066,7.807,6.012,-1.038,-0.476,-22.69,-0.182,9.459,1.014,-0.608],[-21.978,-1.078,-0.48,-0.317,-0.125,-25.835,-0.95,-0.8,-0.437,-0.194,-29.312,-1.709,-0.341,-0.117,-0.208,-36.785,0.587,0.7,-0.204,0.402,-25.445,5.509,-3.773,1.984,1.61,-8.699,2.05,-2.542,5.755,1.328],[-47.183,-1.331,-0.69,-0.394,-0.255,-52.413,1.135,-1.01,-0.301,-0.213,-46.278,-1.212,-1.05,-0.682,-0.037,-48.643,2.199,-1.308,0.544,0.796,-41.257,-20.884,-1.442,-2.106,0.101,-26.24,-33.046,6.564,5.784,1.046]],
"kep": [[0.196,0.276,0.357,0.418,0.411,0.37,0.264,0.607,0.478,0.778,0.958,0.287,0.59,0.782,1.115,-0.851,2.075,1.389,3.14,1.861,-2.195,-3.981,-9.499,-2.354,-6.065,6.757,4.927,19.434,7.583,-6.831],[-0.449,0.098,0.173,0.212,0.219,-0.301,0.203,0.194,0.355,0.308,-1.109,0.022,0.089,0.225,0.406,0.746,-0.252,0.402,1.182,0.935,-15.004,-0.047,1.443,1.8,0.204,-22.14,-6.522,1.415,1.51,-0.784],[-1.849,-0.152,-0.038,0.12,0.175,-1.794,-0.07,0.033,0.041,0.181,-0.479,-0.53,0.288,0.246,0.264,-20.222,-1.005,1.023,0.142,0.444,-38.571,0.186,-1.785,-0.517,0.023,-49.316,2.73,0.26,-3.531,-1.261],[2.602,-1.22,-0.382,0.03,0.082,2.521,-0.278,-0.19,0.113,0.017,2.039,-0.972,-0.461,-0.016,0.106,-45.072,1.457,0.667,0.573,0.355,-55.831,8.936,2.274,-0.457,-0.308,-58.642,-8.344,-0.864,-1.336,-1.142],[-21.338,-0.416,-0.576,-0.373,0.082,-30.716,-0.697,-0.232,-0.402,-0.151,-40.837,-1.113,-0.563,-0.098,0.051,-64.244,0.192,0.343,0.517,0.09,-63.322,11.249,-0.377,0.363,0.533,-64.914,-27.152,6.143,1.817,0.304],[-55.067,1.948,-0.056,0.146,-0.336,-61.361,5.092,-0.527,-0.683,-0.212,-60.744,0.318,-1.294,-0.269,-0.1,-68.755,11.584,0.621,0.296,0.323,-68.189,-30.692,2.892,0.225,0.033,-70.248,-47.437,25.162,3.496,0.895]],
"vp": [[-4.183,-8.848,-13.393,-3.88,-14.7,-5.073,-0.125,-7.021,-3.089,-4.932,-9.987,-0.043,-2.502,-3.515,-4.629,-3.484,-5.198,-3.01,-5.028,-2.476,-8.973,-0.151,6.17,-0.083,2.241,-26.372,-10.68,-15.008,-7.622,-2.048],[83.476,3.075,-1.932,-11.869,-13.437,15.585,-2.858,-1.804,-13.135,-5.102,6.12,5.456,4.713,-0.382,-6.277,-1.283,1.498,-2.737,-7.597,-4.96,-7.598,-3.272,-7.773,-7.523,-0.188,-7.189,-5.42,-8.597,-6.817,-0.374],[188.806,106.719,19.815,6.303,-7.055,16.296,16.693,3.007,10.021,-1.073,-7.89,0.66,-9.152,-5.052,-5.064,0.814,7.777,-12.124,0.064,-3.768,12.833,-8.222,7.054,3.434,0.881,-1.211,-8.955,-10.97,3.95,1.953],[185.121,199.034,114.205,66.216,26.142,36.946,18.132,9.953,8.527,14.117,16.483,15.705,9.73,6.61,-3.563,36.097,14.916,-15.772,-5.56,-4.376,26.961,-16.701,-19.971,4.859,2.867,11.148,0.956,-16.224,-2.204,1.981],[2213.598,226.881,145.008,125.8,83.775,515.681,38.718,53.239,35.837,19.865,354.239,34.276,9.449,4.966,12.79,77.016,-3.556,-4.597,2.448,-4.888,23.946,-11.678,12.397,-9.1,-9.31,3.483,-2.112,4.75,-12.58,-3.524],[4723.704,307.445,233.89,197.087,123.863,1054.646,-35.582,63.954,20.342,21.931,468.761,24.714,30.519,29.977,1.395,98.082,-8.385,8.627,-4.748,-8.923,42.399,42.246,4.978,9.603,-0.71,11.991,34.03,-9.578,-12.339,-2.522]]
}