{
"KTrans": [[1.506,1.005,2.684,2.103,0.669,2.696,11.692,10.429,7.279,9.851,6.883,25.15,23.734,20.689,21.156,35.93,78.358,97.593,99.882,96.878,16.684,37.84,132.246,151.827,158.814,33.814,-278.322,24.109,120.061,165.887],[-15.884,-7.009,-1.047,-0.811,-1.585,-9.068,-0.972,1.415,3.623,4.108,0.308,4.814,1.197,7.851,8.373,88.756,66.396,-3.082,31.745,38.772,202.069,154.898,-25.897,18.781,59.507,362.324,303.213,-60.368,-116.272,36.721],[-24.737,-8.101,-4.617,-4.155,-1.134,-20.015,-3.242,-1.065,-0.915,-0.701,-14.076,2.047,3.157,1.841,0.454,49.578,50.682,43.805,32.451,-8.769,123.999,120.378,101.367,81.651,-32.731,236.881,255.367,222.016,162.281,-63.592],[-34.983,-10.679,-5.314,-4.367,-3.228,-28.601,-7.091,-3.029,-2.275,-0.797,-21.391,-0.037,1.699,2.034,0.949,19.488,39.305,35.103,30.446,25.862,71.979,95.962,82.173,70.894,62.335,145.763,203.791,177.864,158.22,139.736],[-39.966,-13.725,-7.593,-5.66,-4.46,-38.252,-10.252,-5.064,-3.557,-2.805,-32.585,-6.578,-1.111,-0.53,0.602,3.628,31.323,28.305,23.975,22.449,42.698,77.603,66.244,61.013,54.444,79.115,164.84,156.447,133.444,121.386],[-49.314,-17.135,-9.773,-6.968,-4.786,-43.75,-12.363,-7.509,-4.198,-2.96,-39.502,-9.396,-3.99,-1.595,-0.354,-10.585,22.318,24.258,21.238,19.674,16.37,60.891,58.939,52.285,46.97,58.254,131.756,132.606,119.67,108.019]],
"ve": [[11.997,-4.08,13.199,7.02,-61.25,-6.373,30.274,43.167,-50.768,509.776,7.014,247.064,33.584,-21.725,-195.115,63.648,-11.194,-76.721,-122.605,-633.253,99.896,30.302,-6.928,-30.584,-45.534,202.498,83.317,33.155,3.635,-15.248],[-2.196,-2.163,1.856,46.462,-0.035,2.36,-0.695,2.479,5.99,3.62,7.469,2.312,2.995,11.221,5.38,49.018,24.134,19.835,-2.528,-49.557,96.713,47.496,34.606,18.404,0.062,188.79,93.786,70.842,44.832,27.012],[-1.325,-0.815,-1.114,-3.677,1.04,1.986,1.382,0.88,0.864,0.804,7.218,3.77,2.14,-5.961,1.363,46.275,24.187,16.658,11.336,13.472,96.753,49.594,33.49,23.575,21.92,195.325,98.173,66.039,47.26,28.657],[-1.211,-0.449,-0.404,-0.59,-1.139,2.836,0.925,0.851,0.347,0.328,7.804,4.005,2.85,1.989,0.852,45.934,24.367,16.457,12.41,9.72,95.861,48.853,33.404,25.332,19.885,190.007,98.098,66.061,49.849,39.383],[0.02,-0.189,-0.229,-0.614,-0.606,1.928,1.455,0.956,0.453,0.19,7.65,4.06,2.689,1.775,1.155,46.869,24.184,16.241,12.207,9.769,95.87,48.606,32.874,24.977,20.184,185.578,97.847,65.737,49.67,40.226],[-0.957,-0.19,-0.486,-0.343,-0.318,2.892,1.77,0.623,0.548,0.423,7.021,3.792,2.902,1.844,1.456,47.38,24.182,16.16,12.154,9.61,95.271,48.179,32.393,24.587,20.029,187.088,96.867,65.714,49.605,40.106]],
"kep": [[-124.803,-9.228,-7.849,-2.594,-0.281,-129.51,-19.959,-10.109,-3.529,-14.962,-147.126,-50.403,-37.019,-33.748,-33.436,-171.219,-246.624,-186.622,-179.233,-179.583,-225.395,-489.066,-375.032,-362.907,-384.589,-224.129,-822.994,-737.402,-739.53,-770.164],[-31.768,-37.805,-119.458,-4.125,7.996,-26.018,-26.399,-129.384,-15.601,-7.285,-21.648,-17.985,-159.196,-22.016,-12.756,14.952,43.896,-249.375,-177.253,-92.906,36.965,84.975,-313.967,-360.535,-202.116,27.69,93.439,-333.822,-654.245,-413.634],[-35.862,-18.837,-18.647,-38.663,-119.283,-35.53,-14.462,-12.61,-30.544,-150.433,-33.336,-11.227,-9.804,-25.551,-165.524,-11.523,18.89,32.313,29.581,-316.517,-1.415,46.764,70.21,84.716,-402.381,-6.52,69.494,113.305,95.298,-396.919],[-44.593,-19.515,-13.466,-14.812,-21.079,-41.425,-15.806,-12.507,-12.58,-13.266,-38.869,-11.938,-6.651,-7.298,-13.714,-31.078,6.195,15.117,19.541,25.061,-26.255,24.919,40.505,50.84,62.586,-33.045,41.873,66.924,89.735,109.366],[-48.15,-21.172,-13.955,-14.364,-14.501,-49.31,-19.619,-13.374,-12.294,-13.391,-47.108,-17.502,-9.532,-9.58,-9.655,-39.908,-1.186,6.277,9.062,13.559,-38.677,11.287,21.891,33.835,40.179,-53.252,21.017,50.468,60.687,74.948],[-57.331,-23.944,-16.269,-13.316,-12.487,-53.924,-20.238,-14.628,-10.996,-10.775,-52.618,-19.515,-13.384,-9.074,-8.196,-48.345,-8.281,2.767,5.067,7.653,-51.464,-0.898,14.562,20.445,26.091,-58.057,3.984,33.047,46.055,56.412]],
"vp": [[6.611,-140.83,-167.621,1.168,275.064,-8.417,13.704,31.758,-23.197,-23.724,6.666,19.023,-13.123,-2.417,-20.117,-2.968,-1.518,-5.381,-6.044,-3.094,-3.172,-3.525,-5.229,-4.554,-3.61,-3.605,-4.85,-3.738,-3.844,-3.176],[1154.928,427.896,16.78,93.83,89.726,289.867,69.675,3.935,-10.214,11.255,89.526,49.817,4.733,-25.038,20.546,25.631,0.604,-2.238,-9.095,-5.031,5.021,-1.226,-3.013,-4.955,-4.201,-0.757,-2.475,-3.751,-4.517,-4.123],[2965.262,559.053,131.064,105.408,103.547,585.616,141.315,22.624,2.197,7.829,281.322,54.867,-16.06,29.867,-12.638,58.817,2.015,4.99,-0.753,-0.857,22.709,-3.404,-4.803,-3.974,-4.623,7.192,-4.782,-8.088,-3.779,-3.2],[4634.605,1599.382,635.091,34.615,315.444,893.284,224.875,40.877,49.3,4.462,472.151,112.673,35.243,14.521,-26.188,81.029,14.876,0.249,-1.309,-2.079,35.833,0.803,-5.38,-5.381,-2.981,16.211,-2.897,-2.809,-5.517,-5.035],[5797.623,2182.611,322.341,686.394,44.117,1153.905,427.722,90.632,-13.448,-10.866,565.856,193.09,51.164,-2.013,20.116,112.55,34.514,4.932,2.588,-7.886,51.918,11.106,-4.961,-4.412,-5.391,25.435,1.822,-6.19,-4.453,-5.387],[6570.187,3157.943,759.376,669.891,496.087,1259.762,693.05,102.649,40.153,20.746,632.27,330.562,140.392,5.106,26.018,117.536,61.881,8.598,1.039,-4.844,56.186,18.736,3.667,-5.027,-2.216,27.696,11.93,-3.764,-8.866,-8.088]]
}