{
"KTrans": [[-10.693,29.337,22.468,23.409,18.352,47.143,27.368,32.99,26.419,29.032,51.171,41.914,22.178,19.875,33.794,155.998,118.846,109.701,86.803,94.171,395.584,278.527,225.886,207.644,184.512,1066.289,696.288,544.202,460.664,420.432],[-73.369,44.945,40.349,40.839,24.481,-78.81,48.178,46.262,42.094,43.834,-69.467,81.603,59.665,23.242,28.412,-24.977,153.548,101.841,80.79,69.489,8.683,261.548,169.525,135.894,104.549,229.049,497.679,334.182,267.29,207.044],[-99.079,5.044,66.535,65.554,44.728,-91.834,7.894,91.539,60.011,53.323,-100.728,5.327,75.577,61.538,40.771,-108.072,84.076,162.455,128.01,67.652,-81.939,106.891,211.113,133.432,113.207,-120.69,192.1,410.301,279.218,206.278],[-112.316,-75.082,70.043,92.999,70.66,-106.087,-78.726,58.706,79.893,62.379,-104.508,-52.712,116.201,115.247,76.466,-93.682,-89.416,133.548,127.846,113.205,-110.784,-47.813,223.628,173.74,123.917,-114.229,-23.523,357.717,413.877,234.113],[-108.4,-105.829,-30.951,113.804,102.889,-104.096,-114.849,-72.772,121.951,84.922,-99.155,-110.362,-31.359,155.945,108.431,-97.289,-123.679,2.182,141.07,159.244,-96.86,-94.575,26.379,176.788,167.081,-145.998,-69.149,169.897,366.318,296.38],[-105.003,-133.059,-67.155,51.264,172.94,-107.98,-116.038,-78.294,44.146,106.542,-107.937,-116.341,-44.239,73.675,183.561,-110.68,-139.705,-75.041,44.812,165.653,-114.469,-125.813,-107.723,166.422,261.726,-145.3,-144.093,35.903,132.707,357.13]],
"ve": [[9.603,4.506,155.277,-4.256,46.558,11.222,14.302,31.794,82.045,6.144,21.61,-15.01,5.663,25.044,-119.296,69.154,17.793,1.212,-6.121,-9.879,100.907,34.49,9.767,-5.416,-15.16,198.559,83.366,37.813,14.394,-4.504],[4.483,1.853,3.065,1.996,1.948,8.066,4.009,2.506,4.447,2.314,12.786,10.558,5.803,1.974,2.344,57.607,25.458,15.663,11.789,6.721,101.498,51.505,30.734,21.161,13.937,199.929,102.207,63.928,44.036,29.613],[8.565,5.087,1.1,2.866,0.795,2.802,4.122,4.475,3.976,4.264,4.809,7.625,4.847,4.275,1.582,61.961,26.22,17.629,15.011,8.537,106.897,57.14,35.87,22.247,18.971,220.903,111.38,68.983,49.945,37.013],[7.851,4.904,0.876,3.568,3.426,8.442,7.248,4.185,1.354,1.383,16.189,4.49,9.064,6.199,4.371,64.282,26.028,19.03,14.342,13.24,99.231,53.015,40.468,24.71,17.195,209.721,103.763,68.432,52.96,40.575],[5.539,6.522,4.161,3.833,3.426,26.127,6.002,3.52,5.196,2.367,-0.126,5.465,3.2,7.256,3.158,-27.881,29.786,20.592,15.566,12.372,105.15,54.053,40.738,24.237,19.278,157.014,97.754,64.365,51.691,40.062],[-3.253,-13.96,6.194,2.758,4.634,8.859,3.51,4.09,1.392,0.395,532.164,-2731.862,2.972,5.996,7.138,45.82,29.079,21.006,11.586,13.876,101.716,48.429,30.985,28.502,21.057,284.643,90.322,69.525,57.005,41.312]],
"kep": [[-27.36,25.585,20.651,29.85,18.247,26,20.603,35.912,31.142,42.046,23.736,34.444,19.962,25.116,48.822,60.939,88.063,109.948,106.618,137.598,143.829,179.755,197.061,226.975,238.825,292.024,332.512,366.307,390.928,444.246],[-77.972,32.159,32.843,36.968,21.253,-81.912,36.354,37.933,33.894,40.523,-75.939,59.31,48.01,16.869,24.228,-52.657,96.307,68.797,59.377,56.286,-48.003,133.534,99.682,90.701,75.605,6.172,189.462,159.469,149.946,132.721],[-99.903,-6.615,55.557,55.507,38.342,-92.969,-4.907,74.203,48.436,43.326,-99.231,-9.414,57.284,48.118,33.327,-102.913,37.517,113.06,92.526,48.484,-90.41,27.447,120.101,82.821,73.679,-104.281,40.664,194.031,146.167,116.789],[-109.339,-77.19,54.225,78.464,59.175,-105.371,-82.071,41.46,65.804,52.579,-103.518,-58.051,89.034,93.407,62.208,-95.673,-92.541,84.094,89.791,81.556,-103.441,-66.761,127.651,107.696,81.1,-104.802,-63.259,159.738,226.777,129.937],[-107.881,-105.86,-36.856,94.73,86.64,-102.336,-111.698,-73.242,98.794,70.521,-98.838,-107.188,-37.041,126.917,90.34,-98.415,-114.65,-19.698,97.836,118.91,-97.859,-94.203,-13.323,108.642,109.777,-113.883,-81.315,55.052,193.485,169.799],[-104.128,-128.798,-68.518,37.133,146.165,-104.993,-111.327,-80.894,30.642,87.41,-105.376,-111.999,-48.153,54.089,152.443,-105.771,-127.68,-77.079,21.436,121.517,-106.446,-114.401,-101.195,97.663,180.046,-114.073,-116.551,-20.798,45.571,207.344]],
"vp": [[2606.677,2601.755,1586.669,2003.956,2011.056,643.769,300.432,400.661,414.436,358.294,270.572,200.021,124.188,183.186,190.753,65.872,39.846,30.156,43.462,33.399,26.675,18.467,16.867,19.86,20.954,12.286,9.98,7.931,10.197,8.225],[7748.738,6696.122,5186.192,6770.708,5276.769,1370.765,1331.655,1132.491,1281.123,1117.06,604.735,812.694,634.584,456.303,501.28,142.386,159.62,109.049,109.167,120.905,68.402,71.619,47.699,56.328,58.03,34.031,37.001,29.565,30.34,27.918],[9484.1,13076.47,10194.871,9968.821,9156.125,1615.392,2485.959,2261.044,1862.58,2124.733,899.063,1115.007,1124.105,1068.782,816.899,182.711,245.754,209.253,212.572,170.862,90.658,121.007,107.108,88.283,90.601,48.319,64.399,59.934,47.871,46.02],[9611.904,14689.032,14351.609,14540.732,14196.218,2053.664,3072.416,3297.46,2514.339,2413.995,1014.457,1312.493,1842.994,1587.917,1327.412,185.675,333.75,308.191,285.468,281.568,89.048,147.82,185.866,126.378,111.255,49.484,79.134,84.267,91.755,66.95],[10586.543,17791.683,21181.998,19868.711,19139.581,1890.376,3402.421,3911.427,3778.197,2938.283,975.73,1553.021,1877.498,2314.721,1761.738,205.73,323.249,416.206,406.899,382.143,95.859,167.596,219.739,178.9,167.245,56.104,74.215,85.696,89.889,92.066],[11440.813,18748.564,21893.263,24674.338,26481.651,2378.727,3406.99,4749.98,5019.462,4136.452,1027.189,1781.226,2208.57,2353.735,2778.642,207.172,388.508,435.171,438.153,529.635,114.699,174.439,191.77,264.041,238.358,54.516,86.236,113.408,118.903,127.995]]
}