{
"KTrans": [[-20.24,14.281,9.001,5.735,4.276,-11.412,26.029,9.06,7.995,9.887,-10.084,24.284,19.614,24.224,18.092,10.747,75.066,72.626,68.504,80.552,127.478,109.073,119.188,132.098,120.721,163.518,192.48,142.245,137.944,71.422],[-57.556,5.796,8.854,4.307,6.954,-67.785,14.405,4.969,6.169,5.268,-56.432,23.48,19.934,12.072,10.904,-43.406,59.121,41.512,48.629,34.37,-18.962,32.557,80.879,79.053,82.279,77.849,83.353,47.578,71.716,96.617],[-83.164,-15.691,2.226,8.748,3.859,-83.29,-15.615,10.991,12.256,9.758,-75.917,-3.579,9.372,13.308,15.321,-79.686,-6.98,45.725,47.829,38.819,-62.054,36.733,53.086,73.53,63.539,-18.801,60.205,36.704,79.87,73.937],[-86.197,-32.282,1.845,11.518,6.326,-89.577,-20.056,9.785,13.768,12.654,-93.935,-22.326,10.408,20.258,10.436,-91.31,-12.572,38.04,40.226,41.544,-61.874,-24.038,25.586,84.236,75.127,-33.712,-6.123,25.8,39.96,88.375],[-92.661,-55.684,-8.203,11.053,9.504,-96.742,-50.946,-5.861,10.568,9.53,-97.31,-39.648,2.857,13.092,8.995,-89.178,-30.609,13.695,36.649,36.889,-78.559,-15.222,33.469,47.28,65.672,-61.159,-20.267,-9.891,47.304,52.197],[-98.307,-65.961,-11.271,3.92,14.293,-95.484,-57.097,-8.146,6.704,3.808,-97.766,-64.091,-14.08,19.43,14.234,-95.039,-53.086,-6.055,35.573,30.029,-82.388,-54.454,0.668,10.619,38.404,-53.109,-0.503,3.416,1.019,22.624]],
"ve": [[18.764,105.755,32.45,-1143.478,11.532,4.545,29.447,42.202,-48.997,94.983,31.112,-16.441,-20.748,-0.65,-24.431,42.441,12.572,6.957,-7.092,0.307,111.48,38.93,-5.15,-0.297,-30.688,258.065,80.815,39.992,9.78,1.55],[-3.524,5.681,2.796,-0.475,2.699,10.782,8.555,2.938,4.617,0.277,399.896,9.656,5.55,2.995,4.39,44.299,26.804,19.399,10.273,8.498,115.843,45.639,32.694,22.62,14.606,200.741,99.188,63.16,36.59,29.726],[20.813,8.139,2.38,0.814,1.285,-10.665,0.857,2.415,1.249,0.977,-10.365,10.795,3.343,4.592,1.805,72.038,27.687,17.108,12.53,8.104,109.15,49.684,-40.596,23.478,18.07,199.837,100.001,68.465,42.353,36.271],[22.582,8.763,4.157,0.191,0.547,20.775,5.487,2.282,0.846,1.071,21.934,10.756,4.733,2.692,2.503,47.71,41.56,17.045,13.162,9.426,115.594,52.859,34.064,25.305,18.646,214.705,103.494,65.731,45.879,31.311],[25.098,-0.037,3.632,0.594,0.332,22.514,17.005,3.433,1.86,1.131,115.816,7.74,4.792,3.032,2.808,46.312,14.427,21.197,12.071,9.366,98.4,54.545,32.177,23.468,20.393,240.815,103.838,67.203,50.075,37.54],[1.691,1.364,1.497,1.184,0.33,13.018,3.69,5.685,1.731,0.636,-14.618,2.707,4.296,3.725,2.809,55.737,38.335,18.322,13.897,8.868,103.479,52.33,35.77,25.237,19.663,204.175,103.748,72.653,51.465,42.238]],
"kep": [[-37.357,8.53,9.594,6.764,4.35,-34.636,23.599,8.642,8.986,12.925,-32.086,13.609,10.209,37.421,28.936,-27.598,47.798,69.208,91.635,127.91,16.242,58.1,89.764,143.34,166.895,10.901,76.341,91.424,123.701,90.179],[-67.031,0.292,9.091,7.319,7.875,-78.276,8.772,4.068,5.313,7.698,-69.34,15.724,17.53,11.491,10.6,-67.695,27.016,18.485,37.038,26.305,-58.645,-8.438,38.55,47.463,61.102,-34.883,4.847,-1.371,22.964,48.405],[-90.091,-19.549,0.697,8.712,3.105,-89.753,-21.842,10.823,12.011,10.068,-83.828,-11.123,6.514,9.653,14.389,-87.087,-25.186,25.145,32.292,29.705,-79.52,-5.339,14.423,39.765,38.406,-69.415,-11.581,-12.199,25.688,30.463],[-91.645,-37.134,-0.816,12.328,6.593,-94.361,-28.338,7.542,13.73,12.122,-97.773,-30.915,5.819,17.874,8.533,-95.097,-30.841,17.14,24.426,29.67,-81.023,-47.183,-6.211,45.76,47.014,-75.163,-47.65,-16.276,-0.024,38.423],[-94.854,-59.132,-10.377,11.137,9.595,-98.972,-56.68,-9.038,8.413,8.97,-99.736,-46.979,-1.561,9.628,6.203,-94.237,-45.946,-5.459,22.609,25.559,-89.773,-43.361,-0.33,18.705,36.165,-84.239,-56.034,-39.959,1.831,11.566],[-99.481,-68.704,-12.86,2.866,14.301,-97.688,-60.471,-12.827,5.47,3.263,-99.109,-68.964,-18.737,16.211,11.935,-97.331,-63.587,-20.617,18.302,19.177,-90.662,-68.031,-24.934,-8.964,15.871,-82.62,-47.802,-34.163,-27.61,-7.99]],
"vp": [[1502.765,1508.735,266.85,-62.495,-644.772,96.758,235.825,42.45,96.609,32.876,58.958,71.152,-52.922,83.773,-17.442,4.143,-42.416,-23.311,-32.557,-10.403,-8.55,-30.609,-21.511,-42.963,-21.067,-24.76,-41.24,-30.657,-29.411,-25.897],[4724.331,3712.744,147.077,346.334,1430.25,936.06,667.448,153.011,170.961,161.678,484.276,314.461,195.08,114.93,55.211,73.949,26.693,8.11,-15.695,-7.598,25.792,-1.446,-23.43,-33.625,8.127,-13.262,-26.751,-15.786,-20.994,-30.217],[6463.266,6656.929,3307.064,2770.498,1410.233,1181.163,1577.763,762.341,204.985,306.124,641.296,626.099,255.297,342.302,173.425,111.456,103.01,22.557,53.268,11.871,40.987,19.162,0.974,-12.921,-7.202,-0.231,-13.885,-16.72,-23.232,-16.469],[6199.378,9330.967,8401.922,3841.534,2396.451,1225.088,1981.812,1335.941,860.854,274.553,695.154,1046.714,546.808,371.461,228.168,115.503,158.476,84.049,79.885,42.233,32.493,54.737,42.136,19.658,1.536,14.405,14.368,-9.305,-23.128,-37.031],[6682.156,10869.755,10523.614,6183.135,3255.003,1609.774,2359.932,1726.477,1189.454,760.985,812.018,1045.414,787.408,623.917,285.46,106.422,187.337,165.435,48.099,52.548,49.742,81.329,39.962,16.309,27.46,19.294,11.879,8.542,1.492,-30.792],[7608.888,13326.726,12317.814,8008.865,6324.794,1544.552,2269.573,2620.556,1854.492,890.373,722.815,1230.231,1100.038,1140.83,477.104,131.28,205.883,214.607,183.337,58.306,43.785,93.266,95.75,56.436,35.579,-9.329,16.959,32.172,20.12,3.668]]
}