{
"KTrans": [[15.216,6.999,5.761,2.901,4.224,24.407,17.411,9.362,10.222,9.923,46.799,22.12,18.033,15.559,13.116,79.76,97.526,84.033,72.026,62.981,18.904,96.817,127.909,106.843,112.19,286.99,163.125,22.673,185.042,29.861],[3.743,9.875,7.261,5.133,4.997,23.773,15.511,9.414,9.022,7.8,18.523,20.603,15.09,12.54,9.558,20.24,69.507,65.751,46.089,35.765,39.507,49.552,110.705,97.545,69.738,80.923,68.835,121.974,113.161,66.234],[-27.306,14.976,9.819,7.908,7.454,-30.123,20.72,14.414,9.258,8.767,-18.771,26.789,19.186,12.093,10.914,-20.914,49.971,76.284,42.642,37.411,-3.11,66.595,62.234,92.999,75.93,70.174,75.383,89.166,80.068,47.545],[-67.231,14.259,11.749,9.713,8.852,-56.543,23.328,18.482,12.136,9.37,-59.454,40.213,20.012,14.706,12.34,-37.455,20.613,80.774,41.725,34.87,-9.527,24.313,37.957,100.193,78.382,23.84,62.417,9.257,59.241,2.82],[-82.499,21.017,20.07,11.67,8.767,-88.062,38.425,24.849,13.416,11.383,-71.65,26.834,22.91,18.961,14.3,-76.065,-26.551,69.464,46.415,37.748,-44.049,18.082,20.376,40.299,101.943,0.937,-3.142,-6.484,12.382,38.21],[-87.018,-7.179,34.62,11.899,9.655,-76.099,6.252,33.483,23.051,14.836,-80.837,-7.819,21.557,20.835,15.015,-67.016,-10.21,45.273,52.856,45.952,-38.708,-0.542,0.772,-0.059,82.71,4.017,12.8,11.177,5.793,-4.285]],
"ve": [[2.398,2.079,3.271,1.696,2.354,5.627,-1.637,0.371,-1.587,-3.562,9.13,3.188,0.29,-3.61,-3.29,42.053,14.483,-2.095,-10.372,-16.381,98.457,32.44,10.108,6.688,-5.441,196.375,5.838,33.443,11.521,-6.258],[1.408,-0.251,0.046,-0.579,-0.994,6.932,0.874,0.703,-0.983,-1.261,10.878,3.723,2.012,-0.094,0.082,48.367,22.558,13.548,8.34,4.815,98.733,47.497,29.61,20.805,11.94,195.164,94.438,54.043,40.899,23.525],[4.034,0.059,0.272,-0.811,-1.237,6.89,2.286,0.548,0.31,-0.781,8.956,4.412,2.596,1.707,0.593,56.776,26.071,15.261,10.324,7.465,194.954,49.571,31.336,22.795,17.202,196.25,100.152,89.527,45.519,34.776],[-2.709,-0.404,-0.498,-0.177,-0.977,5.981,1.759,1.387,0.02,-0.357,12.604,4.898,2.34,1.225,1.096,49.592,23.636,15.467,10.847,8.568,103.448,49.89,32.487,25.248,18.032,207.922,97.516,65.135,43.074,36.311],[-0.69,1.671,0.716,-0.732,-1.226,5.183,3.164,1.125,0.148,0.091,11.058,5.557,2.85,1.624,1.144,54.076,26.433,16.384,11.065,8.227,98.477,48.199,45.522,24.64,19.639,200.545,104.83,68.898,49.631,38.049],[2.878,-0.106,0.175,-0.897,-1.101,3.13,1.39,0.941,1.072,0.532,14.145,2.859,1.981,1.944,1.207,52.049,23.822,27.42,10.645,9.035,106.343,50.268,33.208,27.084,18.696,198.437,99.497,67.744,50.732,39.775]],
"kep": [[15.62,8.37,8.546,6.577,11.384,20.951,21.983,13.195,18.354,23.553,36.166,20.501,21.673,26.394,25.949,28.959,73.078,89.684,94.168,98.692,-22.322,48.192,105.916,115.238,143.556,53.729,77.454,19.283,167.042,43.821],[2.393,10.564,7.449,5.994,6.246,16.406,14.813,8.93,10.334,9.402,6.765,16.455,13.04,12.937,9.731,-15.22,37.08,45.553,34.852,29.58,-21.021,8.864,60.591,62.603,51.42,-28.502,-1.531,45.002,50.97,27.812],[-30.461,15.05,9.568,8.907,8.901,-35.188,18.108,13.905,9.054,9.691,-27.696,21.349,16.214,10.291,10.362,-42.385,19.802,51.59,29.143,27.803,-44.811,15.968,24.978,55.037,48.91,-35.774,-1.851,22.824,27.016,11.538],[-66.125,14.038,12.32,10.01,9.986,-59.674,20.623,16.842,12.145,9.823,-63.458,32.184,17.293,13.306,11.229,-56.136,-0.785,54.378,27.25,24.023,-49.864,-13.307,7.317,58.604,49.356,-52.747,-10.593,-25.098,11.74,-18.615],[-82.188,17.803,18.812,12.474,10.129,-86.939,32.392,23.013,13.058,11.302,-72.731,18.064,19.179,16.974,12.983,-81.896,-37.911,43.157,30.715,26.787,-68.556,-16.906,-5.003,12.005,65.114,-62.194,-44.231,-35.52,-16.152,3.302],[-85.58,-8.423,33.086,12.591,10.804,-76.003,1.315,31.213,21.497,14.086,-81.61,-12.568,18.016,18.153,13.522,-76.033,-26.38,23.66,36.694,32.983,-66.208,-31.154,-21.261,-16.463,51,-61.898,-38.591,-26.381,-23.115,-23.968]],
"vp": [[522.501,310.838,295.769,350.207,122.771,42.302,90.21,101.386,73.407,-11.728,19.582,17.667,-2.952,12.751,-20.768,-30.023,-28.121,-16.473,-13.184,-19.25,-20.727,-32.668,-24.621,-33.922,-14.233,-41.536,-20.969,-32.111,-32.716,-29.247],[2906.513,928.204,850.355,617.963,753.118,601.022,198.797,117.736,111.258,119.866,300.613,26.6,78.149,46.187,38.085,3.399,-16.678,8.688,6.554,-4.394,-21.92,-18.933,-20.27,5.826,-29.113,-43.55,-35.036,-37.073,-34.061,-13.754],[5382.517,1669.886,998.34,1327.585,1333.878,1044.991,274.934,258.202,261.327,205.345,474.975,154.551,102.01,174.65,95.39,56.586,4.31,15.34,-0.453,15.709,-3.341,0.236,-31.951,-8.428,5.229,-41.614,-22.716,-42.891,-31.837,-14.414],[6192.419,3873.24,2217.961,1917.11,2077.882,1233.484,723.558,375.824,307.237,346.793,588.27,397.672,154.542,134.083,171.571,75.926,28.572,4.138,2.792,12.319,38.939,-0.4,-9.375,-13.505,1.934,-6.785,-32.502,-5.737,-25.634,-11.124],[6824.989,7611.605,2384.439,2002.423,1814.246,1346.572,1380.621,470.239,274.634,427.902,526.881,629.068,300.531,171.08,189.244,128.42,112.26,29.664,-12.069,7.42,22.825,4.151,7.772,25.968,24.359,-21.042,1.345,8.574,-7.141,-15.772],[6925.442,7446.679,4221.133,2305.822,2008.428,1132.223,1567.619,905.166,513.383,425.169,714.926,742.998,283.219,177.743,157.192,115.912,110.091,54.313,-9.105,14.341,19.872,46.243,51.671,24.196,-24.122,-16.073,-4.085,12.722,2.005,-1.661]]
}