{
"KTrans": [[-22.053,-12.377,-13.27,-10.693,-4.92,-30.436,-11.678,-11.476,-2.386,-2.567,-20.408,-10.331,2.533,-7.631,-7.515,-14.732,-10.81,-10.062,-1.182,-7.335,-18.561,-6.133,-7.66,-6.817,-4.911,-29.452,-8.18,-9.618,-5.339,-4.542],[-85.141,-33.231,-24.024,-15.262,-14.809,-62.954,-36.621,-24.374,-15.501,-17.557,-89.46,-38.805,-25.463,-19.954,-13.761,-86.228,-43.519,-24.691,-22.349,-16.352,-84.565,-45.185,-24.193,-15.38,-16.64,-87.447,-35.597,-19.338,-18.241,-14.41],[-88.503,-64.621,-34.54,-34.546,-28.625,-97.133,-73.815,-43.066,-27.533,-26.61,-93.751,-61.805,-34.422,-26.668,-24.967,-97.039,-64.571,-33.229,-32.419,-22.667,-95.594,-54.29,-44.639,-28.055,-21.762,-93.082,-58.436,-41.973,-30.944,-20.326],[-103.25,-92.078,-65.879,-38.942,-32.361,-107.106,-83.027,-37.749,-39.765,-33.456,-102.156,-78.155,-57.465,-40.417,-32.376,-97.922,-73.522,-39.708,-40.103,-33.421,-105.083,-89.828,-33.18,-45.82,-34.848,-103.58,-87.364,-50.495,-41.338,-28.338],[-107.98,-90.825,-61.022,-38.165,-32.69,-107.456,-101.111,-77.081,-60.249,-36.467,-102.859,-86.693,-55.215,-65.659,-35.065,-104.425,-85.086,-58.975,-43.383,-43.616,-105.101,-87.977,-78.54,-38.986,-44.817,-105.471,-88.558,-72.171,-40.162,-46.706],[-108.086,-102.806,-94.46,-44.959,-61.28,-107.104,-97.532,-86.262,-67.875,-24.294,-110.422,-96.75,-91.046,-62.002,-41.631,-108.431,-102.274,-93.108,-64.297,-53.555,-106.608,-92.487,-86.298,-50.952,-57.917,-106.846,-105.733,-76.282,-49.846,-40.295]],
"ve": [[-18.798,1.887,51.097,15.33,126.139,-18.141,-1.661,19.688,59.917,-4.593,-18.73,-4.68,3.43,29.521,180.729,-15.331,2.962,23.438,19.711,8.311,-16.667,-0.479,13.045,-10.144,59.755,-5.748,0.105,17.967,9.119,23.624],[-71.048,-31.407,-18.995,-11.965,-8.775,-68.397,-35.637,-20.47,-11.369,-7.843,-49.525,-42.01,-20.665,-12.808,-7.862,-72.303,-35.416,-20.062,-13.859,-8.022,-66.034,-33.671,-19.12,-12.444,-7.298,-71.687,-33.061,-18.757,-13.026,-7.647],[-54.132,-67.373,-37.929,-26.357,-21.283,-90.708,-55.281,-44.255,-26.07,-20.483,-89.647,-62.989,-37.914,-24.129,-20.14,-97.466,-59.014,-35.713,-27.688,-17.598,-95.957,-61.452,-40.398,-26.382,-18.663,-100.467,-66.703,-37.831,-27.475,-17.485],[-115.676,-116.266,-57.658,-40.313,-28.965,-119.706,-79.78,-56.993,-38.484,-30.129,-108.415,-74.444,-57.456,-38.509,-29.815,-104.51,-80.475,-46.729,-39.295,-27.583,-110.656,-90.844,-49.456,-39.521,-29.727,-104.183,-120.199,-59.901,-36.641,-29.141],[-127.66,-93.472,-66.196,-60.158,-35.697,-124.975,-105.35,-76.749,-53.275,-38.923,-107.439,-95.515,-68.511,-62.711,-35.653,-112.633,-84.618,-73.444,-56.564,-39.291,-119.509,-93.153,-72.733,-45.837,-40.276,-118.648,-86.641,-70.534,-53.978,-41.088],[-116.961,-103.981,-88.291,-65.749,-54.241,-123.803,-113.055,-85.566,-66.395,-49.912,-137.465,-115.727,-78.792,-62.848,-49.528,-127.163,-103.162,-92.2,-64.768,-55.978,-123.404,-91.192,-86.728,-71.356,-51.808,-123.789,-110.294,-77.588,-63.272,-48.917]],
"kep": [[-10.406,-10.156,-17.26,-18.619,-13.43,-16.977,-7.41,-14.876,-6.543,-10.632,-7.112,-6.79,5.12,-15.134,-16.216,-1.296,-9.615,-13.763,-5.587,-16.488,-5.856,-3.559,-8.808,-16.526,-14.177,-16.217,-5.28,-12.553,-11.887,-14.234],[-87.325,-6.863,-6.877,-4.78,-6.858,-77.996,-4.973,-6.621,-6.123,-10.212,-84.494,-13.038,-6.196,-8.603,-6.478,-91.615,-11.307,-6.56,-10.065,-9.03,-80.781,-22.005,-8.463,-4.236,-10.206,-82.495,-9.781,-2.668,-6.614,-7.011],[-84.727,-55.308,-3.307,-12.463,-10.274,-81.959,-65.946,-11.376,-4.632,-7.901,-79.504,-51.273,-5.073,-5.173,-6.585,-87.627,-60.511,-5.115,-6.447,-7.066,-86.425,-47.97,-6.661,-3.454,-4.979,-85.341,-63.567,-10.144,-5.475,-5.203],[-87.472,-84.882,-40.42,-3.586,-7.726,-84.012,-73.375,-36.55,-10.637,-7.087,-90.07,-80.006,-35.65,-6.567,-5.953,-82.228,-80.636,-19.453,-8.092,-9.546,-85.371,-87.786,-25.368,-10.045,-8.25,-89.373,-92.132,-40.217,-11.414,-3.922],[-87.225,-76.617,-65.281,-29.56,-6.615,-85.326,-72.987,-81.771,-29.863,-3.571,-89.461,-70.546,-64.065,-29.773,-7.435,-89.286,-73.425,-78.233,-23.681,-10.833,-87.993,-82.207,-64.927,-24.52,-11.676,-85.528,-68.83,-73.149,-27.217,-9.495],[-89.702,-74.334,-73.703,-48.719,-24.782,-88.87,-71.093,-73.339,-55.162,-9.075,-88.27,-73.056,-72.371,-50.754,-22.665,-90.256,-73.923,-78.977,-58.932,-31.176,-90.701,-73.401,-74.771,-59.75,-12.508,-90.353,-75.853,-69.3,-47.753,-21.886]],
"vp": [[2237.758,2759.292,2258.385,2236.016,1966.328,523.65,547.047,455.041,511.583,485.205,252.023,289.745,243.871,249.373,210.351,48.106,51.033,49.698,48.547,41.883,26.993,21.154,26.923,19.981,22.88,13.163,12.452,11.09,11.647,12.511],[8255.11,6945.2,7544.238,7205.869,7806.161,1430.881,1660.91,1671.594,1270.293,1564.812,840.099,691.346,779.546,791.961,727.877,159.961,160.316,156.305,147.688,139.556,80.259,67.933,75.568,70.056,58.899,41.014,38.677,38.44,38.137,36.172],[9067.659,13943.019,13030.029,11040.492,12215.117,1972.905,2774.989,2382.384,2597.793,2537.404,953.619,1333.088,1195.827,1130.842,1276.547,201.991,255.673,238.918,266.451,214.809,97.417,131.307,140.805,128.187,118.456,47.045,71.64,60.089,64.87,52.455],[11824.346,19682.793,18467.4,18760.189,16709.467,2473.597,3284.347,3681.991,3353.928,3497.423,1075.714,1523.526,1977.126,1724.316,1760.972,209.238,331.06,293.727,345.284,296.475,116.318,188.076,170.323,173.406,166.456,54.079,95.29,95.471,76.793,87.418],[12996.553,18688.247,20965.73,19960.922,18917.056,2634.398,4567.398,4847.489,4401.531,4576.7,1140.382,1764.407,2274.678,2796.961,1863.92,229.335,358.109,452.96,505.598,416.966,124.028,193.135,228.706,187.509,215.309,59.168,90.954,108.864,115.488,113.044],[12299.503,21231.473,28068.367,28458.128,28352.711,2434.054,4183.22,5374.605,5408.709,5495.155,1418.73,2101.675,2823.443,2628.378,2698.581,260.561,419.232,564.579,538.426,577.21,126.357,182.763,275.774,308.334,280.697,63.295,110.69,118.399,139.036,126.35]]
}