{
"KTrans": [[2.456,0.016,0.017,0.016,0.015,13.284,0.046,0.043,0.042,0.04,26.252,0.092,0.086,0.079,0.072,134.569,0.896,0.717,0.752,0.683,248.03,3.74,3.906,4.344,4.563,627.711,27.478,45.608,58.147,67.313],[-0.12,-0.014,0.792,0.008,0.01,-0.084,0.002,3.858,0.02,0.02,-0.048,0.021,6.713,0.036,0.032,0.306,0.143,41.417,0.237,0.188,0.705,0.248,70.442,0.648,0.514,1.549,0.26,174.56,2.226,1.794],[-0.394,-0.079,-0.024,-0.006,0.564,-0.355,-0.063,-0.012,0.002,1.96,-0.311,-0.041,-0,0.012,4.522,0.079,0.119,0.101,0.061,23.406,0.546,0.326,0.19,0.074,38.093,1.522,0.685,0.328,-0.082,87.173],[-0.813,-0.18,-0.067,-0.029,-0.012,-0.776,-0.162,-0.056,-0.02,-0.005,-0.728,-0.14,-0.042,-0.011,0.003,-0.361,0.025,0.066,0.073,0.061,0.043,0.274,0.191,0.158,0.111,0.861,0.715,0.476,0.277,0.162],[-1.372,-0.317,-0.126,-0.061,-0.032,-1.341,-0.298,-0.115,-0.053,-0.026,-1.304,-0.275,-0.102,-0.041,-0.017,-1.027,-0.071,0.006,0.035,0.045,-0.619,0.139,0.15,0.134,0.127,-0.223,0.613,0.448,0.317,0.239],[-2.066,-0.49,-0.201,-0.103,-0.058,-2.05,-0.471,-0.19,-0.094,-0.052,-2.031,-0.446,-0.172,-0.083,-0.043,-1.873,-0.249,-0.059,-0.002,0.02,-1.703,-0.033,0.09,0.091,0.095,-1.565,0.44,0.374,0.316,0.259]],
"ve": [[2.457,0.005,0.006,0.007,0.007,13.291,0.02,0.022,0.026,0.031,26.265,0.041,0.046,0.052,0.058,134.602,0.436,0.328,0.357,0.363,247.959,1.851,1.488,1.423,1.369,628.083,13.708,15.587,15.205,14.465],[-0.052,-0.005,0.792,0.003,0.003,-0.037,-0,3.859,0.008,0.007,-0.026,0.005,6.712,0.015,0.013,0.089,-0.004,41.433,0.126,0.089,0.173,-0.113,70.398,0.392,0.263,0.341,-0.611,174.61,1.485,0.985],[-0.18,-0.033,-0.009,-0.002,0.564,-0.162,-0.027,-0.005,0,1.96,-0.145,-0.019,-0.002,0.003,4.522,0.019,0.028,0.018,-0.01,23.412,0.194,0.077,0,-0.096,38.064,0.579,0.107,-0.118,-0.493,87.112],[-0.381,-0.079,-0.028,-0.011,-0.005,-0.363,-0.072,-0.024,-0.008,-0.002,-0.342,-0.063,-0.019,-0.005,0,-0.184,-0.007,0.015,0.018,0.01,-0.031,0.089,0.043,0.024,-0.007,0.302,0.22,0.095,-0.023,-0.118],[-0.653,-0.143,-0.054,-0.025,-0.013,-0.64,-0.135,-0.05,-0.022,-0.01,-0.621,-0.126,-0.045,-0.017,-0.007,-0.505,-0.035,-0.009,0.006,0.011,-0.285,0.034,0.038,0.03,0.027,-0.254,0.212,0.128,0.055,0.012],[-0.994,-0.225,-0.089,-0.044,-0.024,-0.987,-0.217,-0.084,-0.04,-0.021,-0.977,-0.205,-0.076,-0.036,-0.018,-0.921,-0.12,-0.036,-0.008,0.002,-0.825,-0.042,0.019,0.016,0.02,-0.835,0.149,0.105,0.084,0.055]],
"kep": [[-245.547,-0.015,-0.012,-0.011,-0.01,-265.617,-0.067,-0.052,-0.052,-0.054,-262.251,-0.132,-0.107,-0.103,-0.103,-246.455,-0.663,-0.495,-0.522,-0.522,-200.752,-1.305,-1.033,-1.029,-1.044,-275.325,-2.647,-2.093,-1.996,-2.278],[-0.076,-0.012,-237.511,-0.015,-0.009,-0.046,0.024,-231.374,-0.054,-0.031,-0.012,0.068,-200.963,-0.102,-0.057,0.283,0.424,-247.787,-0.492,-0.283,0.641,0.896,-196.415,-0.945,-0.565,1.364,1.812,-233.483,-1.892,-1.159],[-0.223,-0.053,-0.021,-0.006,-282.224,-0.198,-0.037,-0.002,0.028,-195.737,-0.168,-0.017,0.021,0.071,-225.904,0.08,0.146,0.209,0.403,-233.766,0.386,0.354,0.431,0.846,-187.915,0.989,0.75,0.883,1.709,-190.635],[-0.443,-0.109,-0.047,-0.025,-0.014,-0.421,-0.096,-0.036,-0.012,0.004,-0.392,-0.079,-0.022,0.003,0.026,-0.171,0.054,0.094,0.135,0.203,0.089,0.231,0.236,0.292,0.418,0.581,0.571,0.539,0.591,0.859],[-0.733,-0.183,-0.08,-0.044,-0.027,-0.713,-0.17,-0.071,-0.036,-0.018,-0.693,-0.154,-0.059,-0.023,-0.005,-0.523,-0.024,0.036,0.064,0.091,-0.326,0.131,0.157,0.177,0.217,0.04,0.445,0.404,0.399,0.447],[-1.091,-0.275,-0.122,-0.068,-0.043,-1.081,-0.262,-0.113,-0.06,-0.036,-1.07,-0.247,-0.101,-0.05,-0.026,-0.962,-0.124,-0.013,0.025,0.046,-0.882,0.024,0.099,0.117,0.136,-0.731,0.319,0.321,0.314,0.326]],
"vp": [[-0.191,-0.628,-0.822,-0.889,-0.889,-0.187,-0.279,-0.307,-0.332,-0.334,-0.193,-0.23,-0.266,-0.257,-0.235,-0.197,-0.204,-0.171,-0.212,-0.184,-0.21,-0.19,-0.19,-0.196,-0.176,-0.185,-0.196,-0.196,-0.175,-0.226],[5.235,1.137,-0.173,-0.905,-1.296,0.753,0.037,-0.191,-0.351,-0.405,0.273,-0.099,-0.219,-0.273,-0.277,-0.231,-0.21,-0.2,-0.221,-0.215,-0.269,-0.256,-0.225,-0.186,-0.209,-0.317,-0.268,-0.203,-0.184,-0.223],[18.012,6.647,2.859,0.91,-0.177,3.245,1.118,0.34,0.004,-0.224,1.46,0.401,0.07,-0.105,-0.19,-0.053,-0.144,-0.194,-0.179,-0.185,-0.224,-0.238,-0.197,-0.218,-0.227,-0.338,-0.26,-0.212,-0.232,-0.253],[38.103,15.785,8.345,4.587,2.353,7.278,2.881,1.464,0.683,0.258,3.429,1.282,0.582,0.25,0.012,0.364,0.021,-0.11,-0.191,-0.194,0.021,-0.214,-0.191,-0.22,-0.206,-0.171,-0.288,-0.282,-0.201,-0.225],[65.311,28.551,16.33,10.124,6.406,12.821,5.424,3.01,1.817,1.079,6.227,2.528,1.386,0.717,0.391,1.013,0.134,0.05,-0.052,-0.126,0.275,-0.084,-0.145,-0.17,-0.22,0.124,-0.25,-0.262,-0.221,-0.211],[99.525,45.044,26.602,17.507,11.945,19.776,8.689,5.078,3.244,2.175,9.787,4.12,2.297,1.459,0.926,1.85,0.48,0.216,0.068,-0.021,0.822,0.075,-0.072,-0.086,-0.135,0.417,-0.172,-0.197,-0.234,-0.235]]
}