{
"KTrans": [[-4.799,2.626,-2.857,-2.308,0.711,-2.389,0.389,0.589,1.851,1.921,-6.244,0.311,-1.308,-0.997,-0.242,-1.672,1.617,1.24,1.563,0.843,1.955,7.045,-0.375,0.742,-0.913,2.743,5.861,2.984,2.291,0.592],[-42.41,-1.645,-1.465,1.178,0.128,-35.186,-1.949,-1.974,-0.131,1.479,-40.602,-1.67,-0.385,-0.146,-0.997,-35.739,-2.196,0.175,-0.643,-0.075,-37.606,-1.679,0.851,0.773,0.269,-34.396,0.433,1.96,-0.825,0.454],[-65.443,-3.998,-0.096,-0.995,0.18,-65.651,-6.262,0.536,-0.837,0.013,-60.787,-8.659,-2.794,-0.314,-0.47,-61.06,-8.071,-0.193,0.778,-0.567,-63.124,-5.345,-0.359,-0.151,0.405,-62.993,-3.735,-2.858,-0.357,0.919],[-72.321,-14.632,-1.734,-1.282,0.013,-79.953,-12.114,-2.963,0.296,0.008,-78.059,-16.443,-5.034,-0.232,0.239,-76.54,-15.421,-0.42,1.06,0.222,-77.016,-13.583,-0.765,-1.449,0.254,-76.876,-15.702,-3.317,0.036,0.125],[-85.303,-21.211,-4.198,-0.706,0.614,-88.022,-23.928,-5.178,-1.163,-0.984,-86.65,-19.502,-3.68,-2.592,-1.572,-86.144,-24.974,-2.446,-2.604,0.254,-86.564,-24.423,-4.989,-1.936,-1.058,-87.58,-25.73,-4.89,0.676,0.161],[-92.062,-32.652,-6.809,-0.95,0.763,-91.316,-28.613,-7.421,-0.793,-2.561,-91.185,-33.474,-7.244,-1.703,-0.163,-90.965,-36.892,-9.055,-2.171,0.017,-89.315,-35.677,-11.029,-2.824,-0.833,-90.449,-34.759,-6.635,-0.625,-0.902]],
"ve": [[3.928,5.025,10.201,16.724,9.577,4.188,8.605,10.101,-4.243,11.476,8.296,5.224,9.769,24.764,13.514,2.822,5.344,6.738,273.228,15.122,5.083,3.566,10.487,11.072,24.459,2.832,5.346,0.93,3.493,61.86],[-11.19,-0.253,0.03,0.538,0.568,-10.386,-0.846,-0.512,1.234,-0.72,-11.783,0.084,-0.202,-0.398,0.182,-8.152,-1.751,1.679,-0.084,0.656,-10.505,-0.028,-0.116,0.606,0.5,-10.326,1.157,0.918,1,0.425],[-61.903,-1.683,-0.132,0.548,0.086,-22.196,-3.039,0.165,-0.208,0.112,-20.916,-2.471,-0.333,0.107,0.316,-17.826,-3.331,-0.033,0.172,0.278,-21.124,-2.407,-0.516,-0.286,0.217,-20.896,-1.568,0.092,0.006,-0.029],[-25.161,-4.636,-0.509,-0.108,-0.115,-36.231,-4.384,-1.347,0.314,-0.467,-32.75,-5.214,-1.4,-0.249,-0.039,-27.655,-5.307,0.248,0.24,-0.146,-27.848,-3.573,-0.963,-0.27,-0.005,-24.457,-4.134,0.296,0.23,-0.132],[-34.861,-7.705,-1.9,-0.039,-0.37,-42.672,-10.159,-2.4,-0.488,-0.062,-33.615,-6.468,-1.094,-0.465,-0.422,-27.147,-8.804,-0.828,-0.462,0.14,-43.934,-7.324,-1.292,-0.449,0.324,-40.215,-9.111,-0.788,0.881,-0.362],[-41.128,-11.963,-2.239,-0.706,-0.212,-47.765,-11.689,-2.261,-0.153,-0.649,-49.629,-13.063,-3.08,-0.761,-0.156,-42.701,-14.196,-2.685,-0.733,-0.028,-41.929,-12.751,-3.204,-0.725,0.296,-62.558,-12.932,-2.537,-0.359,-0.035]],
"kep": [[-5.891,1.401,-7.199,-5.968,2.045,-3.887,-1.531,-2.876,4.16,2.575,-10.37,-0.967,-4.046,-4.543,-1.131,-2.12,0.953,0.356,2.86,-0.381,-1.032,6.513,-2.913,-0.156,-3.853,1.498,3.973,5.916,4.662,1.752],[-35.946,-1.303,-1.315,0.841,-0.067,-29.501,-0.975,-1.295,-1.081,2.477,-33.908,-1.599,-0.056,0.492,-0.873,-30.128,-0.318,-1.154,-0.36,-0.503,-31.524,-1.626,1.156,0.374,0.1,-28.991,-0.608,1.165,-1.539,0.433],[-58.752,-2.373,0.036,-1.477,0.148,-58.402,-3.128,0.366,-0.624,-0.026,-53.905,-6.461,-2.418,-0.393,-0.732,-55.703,-4.81,-0.147,0.691,-0.753,-56.411,-2.769,0.298,0.215,0.239,-57.613,-2.116,-2.876,-0.255,1.053],[-65.45,-10.267,-1.232,-1.107,0.181,-73.913,-8.138,-1.571,-0.036,0.486,-71.646,-12.163,-3.727,0.114,0.299,-70.476,-10.993,-0.682,0.82,0.372,-71.39,-10.35,0.255,-1.129,0.304,-70.352,-12.11,-3.585,-0.153,0.315],[-80.152,-14.755,-2.338,-0.704,0.983,-82.979,-15.439,-2.981,-0.668,-0.895,-81.323,-13.826,-2.717,-2.167,-1.172,-80.881,-18.122,-1.62,-2.166,0.134,-81.089,-18.648,-3.69,-1.444,-1.393,-82.177,-18.229,-4.098,-0.187,0.523],[-88.337,-24.093,-4.63,-0.26,0.998,-87.26,-19.799,-5.323,-0.613,-1.924,-86.198,-24.099,-4.241,-0.967,-0.028,-86.068,-27.321,-6.489,-1.441,0.069,-84.258,-26.941,-8.201,-2.099,-1.127,-85.616,-26.165,-4.334,-0.204,-0.846]],
"vp": [[174.753,-4.467,100.416,136.082,-11.114,33.847,31.893,-2.616,6.209,-9.224,21.862,-5.518,16.127,9.794,6.505,3.431,-1.59,-0.358,-0.479,-2.387,0.507,-2.082,0.131,0.45,1.796,-0.121,-0.551,-0.573,0.044,-0.146],[1584.577,295.364,291.76,-69.073,-17.247,252.84,64.084,26.018,7.99,7.044,144.653,5.364,9.478,27.246,19.303,24.171,5.098,-2.184,1.688,-0.513,14.959,-0.146,0.97,-1.935,-0.322,5.864,-1.045,-1.054,0.361,-0.449],[2709.3,443.365,67.514,203.368,61.028,543.762,117.456,18.02,40.632,0.615,250.548,69.937,19.133,9.28,0.285,44.724,11.754,1.446,-3.634,-0.319,24.033,5.768,3.151,-0.337,1.02,11.42,1.77,0.284,0.981,0.244],[3048.413,1067.652,502.382,44.975,97.752,757.362,229.371,69.88,18.055,29.056,356.489,113.241,51.731,10.779,4.03,67.996,23.187,1.759,-1.948,-1.587,34.325,9.465,2.114,1.14,0.271,15.914,5.08,0.507,-0.124,-0.08],[4233.901,1699.457,572.021,163.478,168.966,918.778,417.676,168.646,47.12,16.879,448.479,147.838,57.311,32.421,27.231,84.884,39.178,9.628,2.915,-1.595,43.4,16.481,5.135,3.061,-0.722,22.618,9.731,1.615,-0.364,0.287],[5206.415,2691.469,840.346,387.517,-52.686,1016.897,523.58,174.688,29.362,73.22,504.772,277.732,102.072,36.333,8.876,99.098,60.448,18.147,6.833,3.007,46.959,28.065,10.694,4.485,0.796,24.259,13.818,3.775,1.917,0.603]]
}