{
"KTrans": [[1.748,2.917,5.298,3.55,3.463,0.681,6.41,4.194,3.106,2.618,2.057,5.252,2.839,4.431,4.345,-0.207,21.493,20.71,10.779,4.599,-148.628,18.546,26.019,16.982,29.497,-320.035,-312.29,-18.812,-0.828,-13.279],[-11.412,-3.898,-0.254,1.901,2.061,-22.579,-2.238,1.124,1.88,2.886,-13.072,-6.091,0.357,1.058,2.91,-37.105,7.284,-0.198,2.884,3.428,-11.604,-40.615,14.602,15.989,6.798,8.409,-69.132,-11.682,25.438,32.984],[-46.408,-9.9,-6.513,-1.059,-0.254,-38.27,-13.679,-6.44,-1.067,0.753,-63.542,-11.731,-5.72,-0.951,0.133,-30.067,-6.779,2.072,1.987,2.883,-42.528,-29.664,12.917,4.31,0.853,-42.484,-17.919,-47.259,20.963,19.8],[-72.785,-18.276,-12.659,-5.568,-2.955,-68.125,-8.566,-11.813,-4.809,-2.187,-64.729,-12.256,-11.463,-6.761,-2.816,-61.922,1.64,-12.872,-4.56,-0.068,-31.387,-17.019,-3.024,1.28,5.05,-21.917,21.644,-8.753,-44.455,23.099],[-82.649,-18.791,-17.237,-12.229,-7.741,-80.953,-17.663,-20.18,-7.355,-7.237,-76.138,-26.625,-16.574,-11.603,-6.217,-67.3,-12.765,-10.43,-9.112,-12.492,-67.461,-1.28,-4.185,2.57,4.303,-61.753,-14.246,-3.743,-2.443,2.907],[-86.168,-45.253,-24.702,-14.625,-9.994,-84.172,-42.752,-21.016,-15.72,-10.225,-84.024,-49.403,-8.44,-12.528,-10.147,-84.606,-36.896,-4.066,-13.53,-8.918,-82.744,-23.325,-11.294,-5.971,-7.229,-75.672,-21.627,-12.87,2.93,-45.065]],
"ve": [[-0.036,2.199,1.726,3.654,4.546,1.996,1.174,3.918,6.187,6.958,2.589,2.965,5.88,4.187,9.192,15.149,-7.088,0.076,-610.177,-25.587,15.446,-54.716,-15.627,18.949,-25.665,4.974,40.499,-5.835,-11.945,-30.069],[-7.28,-1.598,0.139,0.692,0.856,-8.503,-0.652,0.588,0.798,0.571,-4.79,-2.452,0.576,0.395,1.117,15.078,3.752,1.627,2.532,3.821,41.103,7.058,4.548,1.411,-15,41.595,7.278,19.045,7.586,-6.192],[-24.495,-4.338,-1.797,-0.242,-0.055,-18.555,-4.349,-2.457,-0.367,0.3,-36.818,-5.118,-2.747,-0.276,-0.192,-2.086,3.377,3.391,1.56,1.429,-4.276,13.34,9.698,-3.329,5.663,-10.587,17.208,13.58,14.959,5.016],[-41.655,-8.364,-5.207,-2.159,-1.044,-40.947,-5.923,-4.743,-1.448,-0.83,-39.206,-7.51,-4.344,-2.174,-0.878,-23.492,-1.166,-7.294,-1.035,0.576,44.245,7.032,3.231,0.167,4.45,44.264,26.615,9.272,9.22,13.461],[-55.348,-15.229,-6.855,-4.737,-2.627,-53.916,-16.059,-9.155,-3.086,-2.606,-7.59,-14.726,-6.904,-2.648,-2.404,-10.438,0.477,-4.696,-3.542,-6.749,-8.647,16.579,0.947,5.607,5.968,38.101,11.361,7.481,19.092,12.527],[-59.265,-29.085,-10.885,-5.854,-3.9,-51.786,-22.248,-8.637,-5.703,-3.711,-43.179,-32.68,-4.77,-5.009,-3.551,-28.12,-12.883,-4.632,-4.56,-2.41,-27.822,7.65,0.071,4.037,0.407,-55.405,-1.928,13.119,17.16,14.176]],
"kep": [[-3.814,-4.305,-1.444,-4.301,-4.815,-6.744,-0.086,-4.19,-6.319,-6.455,-7.033,-2.702,-5.797,-3.345,-4.939,-27.175,-3.964,6.239,-6.948,-28.239,24.783,-45.366,-29.007,-47.68,-10.707,42.123,29.099,11.647,-9.998,-83.112],[-11.436,-7.639,-5.709,-4.183,-4.171,-21.451,-7.043,-4.858,-4.306,-3.135,-16.728,-9.492,-5.687,-4.766,-3.641,-50.732,-9.679,-9.921,-6.349,-5.686,-34.811,-27.998,-12.487,-5.446,-10.585,-24.469,9.153,-15.941,-24.843,-10.038],[-44.514,-11.264,-9.945,-6.122,-5.515,-37.782,-15.247,-9.352,-6.008,-4.913,-66.277,-12.675,-8.528,-6.058,-5.066,-47.682,-26.417,-8.549,-6.408,-5.035,-46.866,-29.622,-13.958,-11.133,-11.091,-49.883,-20.081,-6.377,-18.697,-17.58],[-69.625,-16.986,-13.059,-8.67,-7.16,-65.792,-10.237,-12.736,-8.621,-6.644,-64.537,-13.765,-12.889,-9.945,-7.253,-62.396,-20.092,-17.303,-10.583,-6.729,-61.478,-24.028,-9.733,-12.346,-7.888,-59.956,-24.574,-6.739,-11.06,-10.353],[-75.579,-18.944,-16.484,-12.916,-10.355,-78.205,-17.658,-17.768,-9.694,-9.897,-74.002,-27.585,-16.324,-14.278,-9.189,-74.409,-31.797,-18.244,-13.397,-13.592,-72.07,-29.76,-17.648,-13.808,-9.26,-72.984,-41.106,-21.569,-10.994,-27.97],[-80.619,-47.676,-22.905,-14.5,-11.413,-79.393,-46.13,-20.008,-15.859,-11.846,-81.206,-54.29,-12.142,-13.496,-11.97,-80.427,-51.62,-22.165,-17.248,-12.629,-82.114,-44.449,-27.65,-24.437,-17.542,-75.682,-44.172,-31.233,-17.522,-26.546]],
"vp": [[19.992,-95.232,-180.255,-142.357,-104.294,-14.646,-57.055,-48.21,-29.913,-18.167,-3.587,-22.026,0.804,-24.606,-20.877,-34.96,-18.9,-26.935,-4.42,14.03,-15.106,-22.273,-15.083,-3.217,-19.097,2.275,-28.626,-28.263,-25.148,-36.502],[783.173,281.305,53.041,-205.279,-218.721,181.874,21.731,-15.132,-40.787,-30.454,45.744,75.012,-11.053,3.605,-25.794,-26.895,-20.245,13.483,6.151,0.368,-35.761,-4.247,-11.661,-19.855,2.851,-17.744,-1.213,-28.883,-26.669,-27.257],[2544.951,876.867,575.702,42.484,55.708,391.055,167.063,151.925,9.414,-29.648,449.962,107.492,97.773,8.119,14.032,-0.859,-6.809,-20.48,-7.736,-7.441,14.013,-21.183,-29.33,0.288,14.85,12.211,-12.015,-16.326,-29.072,-17.314],[4461.497,1700.569,1577.271,818.056,408.391,866.216,256.982,296.219,96.216,55.991,397.533,164.709,133.436,79.464,46.778,51.344,10.019,55.661,9.52,-5.013,-46.992,-10.686,-4.75,3.885,-14.41,-16.616,-25.181,-10.864,-16.039,-37.135],[5905.838,3314.522,2136.95,1806.021,1224.057,1084.838,691.766,569.065,265.301,246.526,464.673,306.066,209.617,72.399,125.582,21.68,7.488,32.553,37.03,85.069,18.635,-31.811,3.445,-25.303,-31.133,-15.883,-15.054,-0.363,-34.127,-31.701],[6405.985,6163.551,3187.14,2275.177,2081.348,1083.602,918.98,495.568,411.252,372.471,439.676,710.83,156.939,211.172,175.094,60.784,42.56,39.073,41.295,26.417,31.651,-13.695,4.207,-13.725,3.471,32.599,8.873,-17.53,-32.121,-33.81]]
}