{
"KTrans": [[-21.181,7.074,0.735,14.633,11.796,-31.148,3.812,1.395,9.906,8.603,-30.582,9.397,18.351,11.358,3.941,-25.81,17.886,28.017,12.056,8.973,12.787,23.768,37.826,26.97,12.406,25.746,77.381,58.12,62.956,40.963],[-83.277,-19.257,6.228,3.388,3.743,-85.532,-28.59,-0.738,6.83,-1.714,-86.521,-11.385,-5.696,8.804,1.268,-77.78,-24.767,6.717,8.652,5.696,-71.756,-19.611,16.574,5.061,10.325,-48.293,28.449,42.935,16.286,17.927],[-94.617,-56.369,-6.652,-1.246,-0.439,-94.689,-57.528,-12.763,1.129,1.791,-94.212,-54.126,-20.83,-1.911,-2.965,-95.143,-62.252,-3.533,11.399,1.62,-89.125,-43.332,-12.889,8.034,5.228,-79.835,-32.489,-7.723,9.236,15.109],[-98.064,-75.673,-29.966,-14.032,-5.939,-96.374,-83.814,-37.441,-5.892,-4.369,-96.928,-77.722,-32.438,-8.615,-0.223,-96.215,-76.12,-35.078,1.013,0.782,-92.701,-64.578,-32.784,6.405,-1.636,-90.93,-50.151,-11.946,1.307,5.085],[-97.276,-88.325,-46.037,-19.322,-9.314,-98.926,-87.407,-55.856,-18.845,-3.105,-98.905,-85.807,-58.607,-22.776,-7.549,-97.946,-87.935,-48.082,-8.367,-6.816,-97.105,-80.666,-50.123,-14.124,11.517,-94.046,-73.894,-33.763,-16.295,-3.13],[-98.362,-90.63,-65.737,-36.218,-8.196,-98.908,-91.485,-65.373,-28.141,-7.932,-96.92,-92.632,-70.184,-32.908,-14.832,-99.509,-89.092,-66.728,-31.397,-7.819,-94.281,-90.683,-62.988,-32.146,-3.845,-97.566,-82.887,-44.004,-23.955,-6.44]],
"ve": [[-64.672,5.88,-261.879,-9.8,11.271,102.382,14.279,-75.17,56.3,-106.392,-53.214,-4.167,24.251,7.55,45.31,79.701,39.692,52.933,-39.935,-52.434,4.724,24.372,37.589,-28.243,1438.373,0.516,11.628,-25.501,-33.441,30.237],[-48.205,-3.056,1.963,1.093,4.2,91.474,-18.024,0.603,3.404,4.026,7.83,2.816,-2.438,4.254,3.583,-57.261,-5.607,-6.36,2.22,3.057,-24.693,-13.322,14.502,17.287,-5.072,-32.69,6.875,12.909,1.592,-0.685],[-94.416,-28.961,-1.096,-2.084,-0.093,-83.406,-31.468,-7.043,-0.986,1.772,209.589,-28.382,-6.263,-0.415,-0.222,-18.262,-9.651,0.746,1.778,0.382,-25.494,-18.473,16.51,6.972,5.359,-26.307,-0.679,-3.377,-5.755,-0.906],[17.19,-41.222,-13.631,-6.267,-2.341,-107.244,-55.19,-15.139,-3.445,-1.581,-241.056,-38.389,-18.015,-4.658,-2.311,-75.865,-53.435,-15.129,-1.927,0.942,-63.46,-27.966,-19.717,1.25,-0.311,-64.759,38.993,-7.261,-4.371,3.108],[-97.787,-57.834,-25.184,-10.583,-3.828,-104.465,-111.66,-29.555,-10.38,-4.219,-107.763,-61.328,-31.745,-12.428,-5.721,-70.531,-43.435,-23.441,-5.548,-5.589,-92.533,-52.652,-25.62,-11.127,3.057,-66.466,-38.908,-13.634,-14.917,6.073],[-75.712,-29.588,-42.769,-18.255,-6.58,-94.081,-75.242,-34.441,-16.425,-4.404,-82.845,-77.894,-47.062,-15.948,-9.577,-203.664,-64.619,-34.17,-16.742,-4.268,-111.929,67.334,-51.097,-16.114,-4.143,-78.699,-27.751,-18.669,-16.704,-4.965]],
"kep": [[-43.534,-2.136,-14.686,17.02,11.334,-56.123,-9.518,-10.847,-2.399,-3.415,-58.52,-8.86,9.918,0.259,-1.731,-56.888,-9.171,20.659,-4.522,-7.164,-42.583,-21.139,18.2,7.59,-18.251,-36.73,5.796,1.433,22.41,0.996],[-90.716,-20.972,2.761,2.925,3.91,-93.373,-26.995,-1.115,5.044,-4.484,-93.13,-17.635,-8.529,4.531,-0.444,-84.97,-28.932,-0.499,5.658,4.553,-81.082,-34.984,1.403,-1.619,3.691,-64.949,-18.269,-3.501,-4.569,2.065],[-100.389,-51.587,-8.473,-0.675,-1.158,-100.877,-55.925,-10.287,1.071,-0.476,-97.764,-50.049,-18.164,-2.43,-3.267,-97.663,-61.135,-6.332,6.92,0.997,-91.211,-51.663,-19.212,-2.411,-0.414,-81.4,-53.189,-33.193,-10.16,-1.951],[-100.266,-70.42,-25.477,-10.075,-4.524,-100.317,-80.492,-32.446,-4.223,-4.276,-100.231,-74.783,-25.131,-6.965,0.792,-99.513,-73.309,-32.939,-0.908,-1.994,-94.927,-65.384,-34.752,-1.642,-3.626,-91.202,-65.807,-34.9,-22.028,-7.693],[-99.468,-87.492,-39.084,-14.059,-6.802,-99.926,-86.648,-45.359,-12.648,-0.91,-100.036,-86.497,-49.743,-15.916,-3.273,-98.566,-84.275,-44.226,-8.258,-4.124,-96.443,-81.857,-49.842,-13.825,5.057,-94.01,-79.144,-45.794,-34.003,-17.196],[-98.805,-90.462,-58.405,-25.58,-3.941,-99.597,-91.419,-56.283,-21.465,-7.499,-98.219,-93.162,-62.476,-26.839,-7.526,-99.872,-88.255,-57.496,-24.188,-6.301,-96.311,-90.403,-65.055,-27.626,-7.454,-94.459,-84.455,-54.514,-35.675,-17.678]],
"vp": [[644.226,272.927,118.008,-291.656,-654.936,280.573,126.262,92.485,-71.589,-15.012,190.234,3.905,-108.299,-87.553,26.007,15.534,-7.066,-24.443,8.633,-5.206,-7.44,-2.908,-23.201,-16.61,-5.411,2.512,-14.19,-12.282,-21.721,-11.189],[5805.297,2233.405,81.249,222.221,102.349,1311.719,620.906,291.009,-49.251,146.094,627.125,110.874,101.962,-39.882,-1.82,103.543,71.128,7.625,-11.512,-1.827,42.58,19.732,-11.021,2.651,-9.347,17.859,-17.473,-24.063,-2.245,-16.825],[7575.53,6829.154,1496.802,1346.565,723.751,1745.315,1432.912,534.578,210.248,37.734,808.21,628.432,314.839,108.582,99.481,170.407,150.675,25.345,-15.269,18.943,66.065,44.305,22.351,-17.578,-0.599,16.184,7.013,4.061,-1.007,-10.296],[8984.348,9270.727,5138.102,2929.711,1904.559,1744.841,2436.959,1235.138,422.245,357.189,864.509,1007.34,568.477,199.05,130.386,164.764,205.335,125.906,27.564,8.538,80.058,83.977,68.657,-2.608,5.37,27.691,19.141,18.626,9.288,6.886],[8992.943,13866.388,8463.264,4694.222,2782.878,1917.998,2500.796,2036.175,896.46,505.591,968.014,1267.676,1054.496,533.234,289.565,161.657,258.643,164.583,47.25,67.825,96.867,106.786,82.925,49.329,-14.686,31.042,42.454,20.778,26.598,16.062],[9159.673,14656.692,12694.595,8024.384,3461.753,1995.104,2900.807,2365.703,1430.608,501.133,710.423,1574.905,1451.395,718.31,470.879,195.845,276.89,242.582,158.382,47.01,78.626,139.433,116.056,69.782,30.5,45.194,55.058,23.454,19.577,12.128]]
}