{
"KTrans": [[-56.542,-73.312,-92.558,-87.798,-84.976,-56.84,-75.919,-75.313,-80.62,-72.318,-35.573,-72.181,-83.678,-86.934,-73.985,4.807,-10.703,-16.304,-36.783,-21.178,21.688,31.941,7.937,84.86,31.13,-75.957,-127.768,176.546,144.598,201.445],[-55.374,-49.781,-47.762,-56.681,-71.568,-54.424,-46.911,-43.745,-58.585,-70.07,-51.557,-32.852,-38.857,-46.315,-62.053,-28.816,-17.415,-14.743,-25.899,-43.671,-11.045,0.088,5.349,2.333,-9.789,-24.636,0.864,10.188,9.783,54.198],[-71.988,-50.208,-47.876,-44.815,-44.138,-72.501,-48.915,-39.221,-47.674,-40.01,-67.989,-44.22,-35.14,-43.072,-45.073,-54.066,-30.321,-22.193,-21.778,-25.841,-49.963,-11.121,-1.405,-9.525,-12.733,-22.175,-38.492,-16.004,14.479,3.586],[-78.554,-64.454,-47.926,-43.219,-48.662,-78.57,-60.257,-42.41,-41.246,-38.441,-74.975,-54.678,-41.13,-44.755,-31.261,-67.337,-40.524,-35.244,-33.09,-30.765,-61.151,-24.561,-22.625,-22.974,-15.799,-79.098,-27.698,-3.671,7.377,9.208],[-84.46,-65.714,-50.77,-48.996,-44.918,-82.46,-62.538,-50.99,-48.953,-44,-83.758,-60.82,-48.636,-38.353,-42.316,-77.022,-49.804,-45.153,-32.619,-28.398,-68.449,-45.303,-20.298,-16.301,-15.382,-78.408,-22.059,-34.286,-0.661,-24.762],[-86.922,-71.035,-55.174,-47.783,-49.356,-86.806,-66.447,-57.488,-48.604,-45.695,-86.557,-68.561,-53.605,-42.247,-44.845,-80.199,-61.795,-50.73,-30.388,-36.077,-77.393,-47.362,-38.914,-27.366,-29.501,-80.579,-49.401,-22.011,-22.102,-4.487]],
"ve": [[-49.541,-34.116,-46.024,24.431,-75.148,59.861,-45.538,-46.504,-59.724,-59.791,120.691,1418.915,-61.15,-70.948,-19.152,-2.553,-91.051,-56.696,-53.454,-419.184,150.347,38.448,-9.86,6.414,-96.108,194.705,122.747,46.303,22.155,9.313],[41.874,-242.263,-58.474,-63.292,-47.74,-67.515,-59.722,-63.589,-51.821,-41.812,-18.187,-26.28,-40.216,-44.486,-49.03,22.39,-27.426,-11.918,1.538,-43.969,45.245,69.715,5.128,2.1,-18.538,186.145,123.657,83.983,47.804,1.553],[-31.873,-59.566,-67.343,-49.964,-48.257,-169.298,-56.163,-49.189,-52.666,-42.954,-31.333,-45.67,-38.969,-37.478,-45.628,75.378,-0.452,-35.918,-11.26,-28.821,185.924,54.432,20.709,23.764,-6.652,181.446,57.08,-21.917,22.9,37.252],[-8.69,-58.818,-53.484,-63.361,-51.952,32.681,-92.123,-46.694,-52.583,-45.841,28.718,-27.463,-22.688,-56.457,-56.74,80.195,19.954,-38.596,-77.356,-26.548,89.27,106.456,-23.37,56.06,9.6,265.786,66.253,12.337,-9.463,37.117],[-33.396,-38.347,-67.938,-60.944,-66.506,-14.56,-48.122,-62.386,-74.541,-64.709,-28.586,-25.939,-76.809,-61.394,-37.815,7.624,-0.173,-52.778,-47.838,-54.488,146.76,-1.553,20.903,13.25,-20.343,155.696,114.989,-10.853,-0.109,24.511],[-36.498,-38.518,-60.486,-81.297,-114.876,16.232,-22.532,-91.948,-125.875,-82.611,100.561,-12.292,-74.62,-59.405,-72.871,18.222,-3.617,-50.979,-25.337,-60.376,146.717,86.252,14.899,-12.722,-48.539,194.985,178.832,41.021,56.567,-4.723]],
"kep": [[-108.514,-86.811,-44.598,-44.312,-99.589,-99.809,-82.771,-12.176,-37.492,-39.25,-109.259,-43.859,6.231,11.551,-35.243,-119.627,-139.397,-90.55,-13.311,-120.751,-130.999,-134.708,-153.338,-186.406,-145.914,-82.653,-194.358,-265.349,-226.379,-296.484],[-98.369,-94.767,-127.28,-79.118,26.552,-84.377,-72.229,-113.821,-51.683,-3.044,-83.628,-107.926,-120.163,-90.413,-45.868,-93.49,-79.436,-110.76,-104.467,-44.919,-84.075,-97.951,-92.27,-137.561,-77.118,-87.7,-77.57,-53.325,-165.846,-167.254],[-90.026,-75.981,-69.385,-83.851,-118.22,-92.484,-66.956,-62.494,-86.188,-116.005,-94.665,-62.607,-59.692,-114.695,-88.102,-96.917,-65.433,-55.293,-91.373,-138.238,-95.013,-73.978,-54.679,-121.14,-101.526,-81.247,-55.057,-65.908,-28.702,-96.387],[-97.616,-69.913,-52.345,-32.137,-53.187,-94.309,-74.464,-58.922,-39.319,-58.142,-98.462,-79.573,-56.101,-43.494,-36.098,-98.061,-78.954,-51.522,-42.5,-64.525,-92.457,-79.283,-41.402,-79.274,-52.509,-93.717,-62.893,-40.007,-30.312,-63.245],[-95.675,-79.714,-46.287,-27.602,-26.987,-99.946,-75.743,-47.545,-26.377,-25.712,-97.248,-80.74,-37.625,-27.731,-29.076,-97.191,-76.55,-53.155,-41.667,-26.131,-94.589,-71.45,-58.637,-62.12,-41.334,-91.828,-70.73,-50.471,-38.394,-48.184],[-98.28,-83.047,-55.793,-34.237,-26.777,-99.034,-79.959,-54.179,-32.598,-22.342,-99.915,-84.131,-51.344,-35.846,-30.549,-96.992,-82.27,-59.788,-42.49,-30.609,-96.456,-78.527,-69.361,-49.82,-31.911,-93.372,-80.499,-59.63,-64.151,-32.985]],
"vp": [[394.411,-14.323,-260.152,664.328,-508.227,-46.953,183.531,60.928,54.649,73.089,-17.288,75.484,71.882,31.871,12.843,-6.002,-21.037,-30.934,-18.026,1.147,-41.205,0.418,25.414,-9.748,8.496,-32.196,-12.163,-38.076,-24.722,-17.852],[3023.418,1286.421,653.426,206.497,401.496,535.339,136.803,26.056,90.805,-68.087,231.353,107.186,-20.291,-17.468,-38.777,42.497,-20.106,0.991,-21.51,-40.348,-21.941,-4.375,-36.749,-37.267,-15.219,-29.131,-27.063,-24.207,-56.782,-37.18],[3423.233,3366.387,1692.759,1038.644,535.601,506.487,493.392,440.344,64.992,106.48,365.685,268.867,224.882,63.318,4.758,74.326,40.078,-13.139,0.959,-38.663,-6.099,-7.785,-20.019,-26.928,-45.631,-7.13,-48.305,-27.628,-32.768,-32.612],[5551.897,4518.848,3993.675,1737.045,1374.097,1029.691,1178.249,606.135,259.025,334.394,601.367,536.404,401.863,150.399,105.853,44.304,93.11,34.502,36.845,0.255,-13.411,-5.985,-23.679,-11.899,-36.227,-0.084,-30.334,5.802,-43.878,-33.295],[5536.307,7851.448,5258.194,3036.022,1651.489,1245.432,1250.745,907.275,554.44,441.233,661.942,667.879,333.996,286.428,175.366,55.049,107.858,45.735,62.619,24.325,13.975,25.553,19.82,26.932,-16.061,-32.876,-31.967,-31.606,-38.769,-11.769],[6529.533,8706.794,6622.281,3819.835,3107.869,1162.183,1559.375,1001.788,1019.073,555.824,577.524,876.259,554.347,542.715,413.376,105.944,112.457,83.823,99.645,57.744,51.34,13.34,26.798,7.666,-14.141,13.733,3.274,-14.398,-18.423,-32.158]]
}