{
"KTrans": [[0.682,1.28,1.247,1.956,1.058,13.088,7.097,6.389,5.613,5.16,27.491,16.15,13.322,11.919,10.967,160.893,94.296,77.485,65.959,61.439,411.147,218.266,174.709,152.625,138.837,798.325,564.84,440.618,387.063,352.755],[-0.333,0.17,1.205,1.027,1.006,10.079,4.611,4.105,3.537,2.789,18.556,9.424,9.119,6.82,6.048,139.711,65.536,43.408,35.634,30.258,379.792,142.928,99.728,78.156,67.766,-159.872,355.306,228.616,178.666,147.034],[-2.964,0.936,0.111,0.418,0.42,4.221,2.813,3.388,2.404,2.685,17.796,9.765,7.214,5.523,5.003,117.339,57.602,38.449,30.492,26.032,94.209,143.274,90.413,66.623,53.986,-120.33,463.383,196.711,152.486,125.418],[-10.714,1.412,-0.383,-0.01,0.408,-2.567,2.158,2.336,1.521,2.023,10.744,8.461,6.444,4.412,4.223,86.372,56.361,36.472,28.395,23.18,-8.81,161.071,82.861,60.866,49.591,-34.271,435.13,202.576,144.789,112.275],[-9.462,0.293,-1.454,-0.16,-0.086,-5.011,2.701,1.754,1.885,1.569,1.237,8.73,6.854,3.909,3.884,44.503,62.812,36.838,28.418,22.629,-60.161,153.801,77.772,58.758,49.801,-101.549,217.594,214.899,139.846,110.972],[-20.431,-3.448,-0.033,-0.808,-0.07,-10.602,0.754,3.54,1.147,1.73,-2.176,8.92,5.671,3.783,3.563,10.348,62.058,39.631,28.547,21.967,-48.703,160.774,80.771,61.785,46.369,-91.157,107.443,274.772,150.797,104.731]],
"ve": [[1.054,0.776,1.039,-0.511,1.236,4.155,1.277,-0.391,-0.391,-2.267,8.86,2.718,-1.704,-4.674,-6.397,45.312,13.662,-1.539,-11.298,-18.489,94.515,33.591,8.771,-6.592,-17.723,207.13,81.818,36.432,11.565,-5.478],[0.866,0.587,0.092,0.148,0.175,5.275,2.377,1.483,0.841,0.885,9.194,4.523,2.932,1.793,1.264,49.563,23.725,14.313,9.257,5.765,98.783,47.584,29.661,19.6,13.026,198.044,96.657,61.032,41.975,29.204],[1.128,0.848,0.604,0.246,0.065,4.701,2.63,1.666,1.193,0.838,10.053,5.069,3.179,2.278,1.723,49.322,24.127,15.806,11.313,8.409,100.204,49.442,32.197,23.105,17.424,200.848,100.641,64.152,47.235,35.895],[1.057,0.516,0.354,0.088,0.194,4.829,2.316,1.627,1.154,0.784,9.851,4.747,3.252,2.464,1.777,51.516,24.652,16.273,11.744,9.177,101.173,50.617,32.816,23.948,18.71,200.263,100.594,65.432,48.381,37.779],[2.24,0.712,0.236,0.392,0.19,5.809,2.453,1.577,1.345,0.909,10.709,4.917,3.119,2.564,1.864,51.126,24.927,16.173,12.012,9.636,99.265,50.117,32.912,24.195,19.182,199.313,103.169,65.736,49.043,39.122],[1.101,0.439,0.347,0.163,0.187,5.69,2.802,1.643,0.994,0.921,10.434,4.947,3.374,2.336,1.836,50.824,25.469,16.805,12.203,9.612,109.429,51.072,32.719,24.78,19.578,199.051,99.883,68.064,49.929,38.89]],
"kep": [[-1.024,-0.062,-0.215,2.234,-0.051,7.991,5.194,6.34,5.887,7.52,16.411,12.431,14.746,17.072,18.261,77.909,69.672,79.105,86.032,97.032,159.23,136.172,150.602,168.541,188.36,198.782,261.729,292.869,333.368,375.649],[-1.977,-1.213,0.288,0.055,0.009,3.775,1.347,1.733,1.832,1.064,7.669,3.844,5.141,4.087,3.869,58.112,32.595,24.384,23.132,22.152,135.177,62.834,52.566,47.678,47.215,-112.501,127.337,101.639,94.356,89.457],[-4.783,-0.743,-1.312,-0.66,-0.483,-1.342,-0.637,0.846,0.349,0.985,6.18,3.593,3.049,2.311,2.366,43.315,25.717,18.505,16.233,15.284,-3.882,60.608,42.614,34.13,29.986,-101.901,173.978,78.382,69.568,64.293],[-12.394,0.069,-1.561,-0.934,-0.623,-7.854,-0.994,-0.127,-0.477,0.386,-0.114,2.663,2.223,1.052,1.545,21.538,24.139,16.331,13.908,11.87,-54.142,70.858,36.23,28.548,24.916,-75.142,158.961,80.013,62.999,52.489],[-12.243,-1.26,-2.504,-1.383,-1.116,-11.179,-0.636,-0.682,-0.31,-0.188,-9.584,2.754,2.738,0.456,1.131,-6.21,28.986,16.683,13.645,10.892,-78.946,66.096,32.284,26.597,24.531,-97.982,54.353,86.54,58.884,49.969],[-22.142,-4.69,-1.22,-1.804,-1.1,-16.293,-2.846,0.999,-0.694,-0.04,-12.558,2.845,1.354,0.555,0.84,-27.495,27.697,18.401,13.564,10.32,-73.712,69.606,34.564,28.339,21.269,-94.581,1.957,118.514,64.947,45.74]],
"vp": [[18.774,71.918,-24.541,25.029,11.794,12.044,7.254,-9.601,19.926,-8.74,2.531,6.203,14.873,-13.557,-8.369,-3.784,4.661,8.356,-5.634,-5.092,-6.388,-5.553,3.171,0.326,-3.578,-4.393,6.118,-2.949,1.456,-3.6],[629.792,241.057,-136.353,-137.676,-69.553,162.172,-3.097,-15.797,-20.071,-15.747,61.366,-8.685,21.276,11.409,6.468,13.461,2.542,-6.621,-1.714,-8.237,-4.375,-10.245,2.332,0.356,9.12,0.233,-16.287,-12.456,-0.227,-3.87],[1876.196,491.458,105.242,30.396,13.23,459.238,24.639,33.645,17.596,-0.154,206.518,18.947,16.768,-0.814,5.338,34.467,0.301,-8.547,-1.578,-4.371,10.866,-1.065,-0.057,-4.975,-4.43,11.406,3.791,-16.543,-6.41,-4.735],[3605.813,1001.93,134.136,97.575,130.536,711.007,106.003,0.594,-18.422,16.596,347.562,64.981,26.891,1.989,25.395,67.421,14.486,-5.257,-4.478,-2.453,31.041,22.531,-1.071,-6.418,-12.642,5.381,2.45,-8.773,-7.524,-8.5],[5497.358,1783.205,374.418,415.967,124.7,1116.777,254.858,168.15,63.11,-5.567,542.797,108.317,67.101,14.004,33.708,94.082,38.289,6.435,10.66,9.299,40.991,14.636,0.955,-9.856,1.022,22.139,16.244,-11.402,-4.538,7.569],[5748.545,2756.286,867.021,326.959,196.781,1248.152,523.24,211.845,13.406,97.176,623.017,272.771,22.752,37.202,19.431,99.12,57.601,18.112,12.257,-4.328,43.196,36.997,4.587,3.042,-1.409,12.265,3.801,19.404,2.294,-11.859]]
}