{
"KTrans": [[2.348,2.807,-1.831,1.358,1.409,1.771,12.451,11.463,9.08,9.056,-7.621,23.107,25.333,22.161,21.231,-35.249,43.28,71.889,80.29,82.719,-0.451,-0.046,41.333,63.219,112.21,-169.112,-33.732,-204.464,-165.317,-19.373],[-2.618,1.283,1.127,1.081,0.037,7.859,6.137,1.151,4.642,4.139,14.827,16.128,-0.201,8.542,8.617,-53.924,-15.473,1.543,20.115,31.98,3.726,-55.911,4.109,-15.863,39.371,-9.819,127.805,-32.484,25.614,-34.364],[-0.108,4.578,1.506,0.717,-0.114,5.094,5.526,3.767,3.048,0.741,3.377,12.246,9.488,6.496,-1.27,3.237,-3.818,22.665,-15.228,-1.904,-5.827,1.164,96.668,-20.434,26.369,-16.336,48.951,24.57,20.572,11.773],[-15.01,9.549,0.129,0.013,-0.278,-12.956,4.474,4.335,5.023,3.334,-22.385,9.398,10.076,10.626,5.488,-37.093,24.633,32.337,35.341,-5.408,-3.451,-53.629,42.795,-38.137,-2.465,39.104,-21.968,-48.228,60.753,5.942],[-37.719,3.632,-1.555,0.989,-0.025,-38.979,4.895,2.942,4.519,4.546,-34.441,12.528,9.348,4.324,6.946,-33.336,-3.788,42.292,38.5,31.764,0.117,-17.021,-42.648,-20.775,-17.298,-31.22,-19.047,28.297,53.744,6.771],[-55.514,2.54,-0.127,-0.517,1.29,-50.119,16.922,3.975,2.84,2.855,-61.736,9.717,7.645,6.483,6.916,-62.444,-29.874,21.295,26.409,27.616,-49.39,-18.135,26.233,64.243,-4.2,-37.29,18.427,19.018,11.141,-1.963]],
"ve": [[0.851,6.491,-2.991,8.408,-110.449,5.574,6.931,6.154,24.202,25.371,7.856,-92.117,105.784,18.423,64.824,50.291,5.658,-70.287,-62.657,-462.972,98.266,31.096,-12.236,-38.213,-64.559,198.724,79.224,32.805,3.35,-17.981],[-0.204,-0.359,44.18,2.184,0.501,4.424,2.43,1.438,4.282,2.386,9.305,4.634,3.691,47.975,5.622,49.253,24.86,16.858,13.863,27.49,114.721,44.403,32.353,18.16,53.28,207.276,99.173,66.188,45.515,27.525],[-0.417,0.71,0.214,-0.341,1.062,4.416,2.646,1.601,0.893,1.621,10.437,4.691,3.38,1.851,2.097,49.459,24.832,18.579,12.8,9.83,97.253,50.22,33.859,26.579,19.563,198.662,99.088,68.42,54.093,41.501],[-0.816,0.939,0.067,0.086,-0.095,3.217,2.216,1.727,1.443,1.052,7.378,4.457,3.338,2.873,1.968,49.11,24.559,17.278,16.654,10.976,93.037,50.791,32.731,24.73,22.301,199.15,91.712,69.996,51.109,41.116],[-0.299,0.481,-0.23,0.118,0.071,2.931,2.14,1.758,1.362,1.293,14.57,4.465,3.21,2.276,2.085,49.691,26.93,17.55,17.023,11.811,97.377,52.734,31.931,24.008,21.195,203.863,101.622,66.274,51.372,40.983],[-0.975,0.057,0.065,-0.08,0.396,1.168,2.76,1.491,1.227,1.11,5.022,1.242,3.159,2.437,2.115,48.404,25.105,17.264,12.764,10.777,97.417,48.875,34.651,26.781,19.304,190.413,112.408,65.243,49.612,39.892]],
"kep": [[-100.374,-6.64,10.659,0.09,0.317,-142.347,-23.933,-15.796,-12.23,-13.82,-176.599,-46.251,-44.115,-36.165,-33.508,-38.09,-219.004,-204.822,-200.248,-205.505,48.275,-360.946,-383.74,-422.826,-375.722,-8.858,13.206,-581.263,-715.102,-748.985],[-5.171,-1.211,-104.652,-1.219,1.687,-2.038,5.115,-141.326,-13.207,-5.279,-0.455,21.205,-148.491,-27.579,-15.507,-63.787,-38.903,36.033,-161.374,-86.391,-30.508,-65.516,47.056,-274.988,-185.412,-51.713,43.406,38.622,102.47,-350.3],[-9.864,5.248,3.733,-1.109,-132.595,-8.849,4.512,5.168,2.965,-139.375,-17.972,6.585,11.213,9.029,-162.811,-36.984,-30.1,-7.735,-51.05,-21.502,-47.151,-26.336,54.614,-40.322,113.103,-62.42,-7.44,-9.148,28.426,7.539],[-29.249,7.221,0.122,-0.414,-1.517,-29.889,-0.339,3.548,6.97,10.541,-42.29,0.636,8.484,14.291,10.198,-56.726,-10.745,9.48,24.332,-36.804,-53.879,-59.081,4.029,-59.841,-24.234,-48.515,-53.53,-62.535,16.038,-13.273],[-50.149,-2.686,-2.112,1.191,0.761,-52.768,-3.561,1.56,4.447,7.02,-51.335,0.857,4.535,3.067,9.051,-63.822,-31.738,15.1,24.335,24.821,-58.126,-42.716,-53.216,-44.335,-49.297,-73.68,-51.318,-26.672,-4.878,-20.982],[-65.446,-5.655,-2.755,-0.784,2.594,-64.22,4.211,0.049,1.706,2.814,-72.144,-6.02,1.731,3.516,7.248,-75.545,-47.704,-4.368,9.012,16.646,-77.467,-49.197,-13.296,19.189,-29.978,-73.813,-44.697,-24.404,-26.154,-29.702]],
"vp": [[-12.322,-17.504,34.622,38.693,-130.401,-5.933,-23.364,-14.143,-6.761,-32.981,-8.904,-12.404,2.053,-16.497,-20.64,-32.07,-6.009,5.616,-4.965,-2.702,-31.563,-27.152,4.407,4.03,-15.653,-37.127,-25.15,-5.602,13.158,-10.499],[582.569,-12.119,-48.504,-161.876,-167.056,109.702,-1.509,9.306,-33.443,-12.696,41.954,-5.092,-22.358,-13.701,-23.369,-15.973,-61.003,-31.538,-12.56,-27.527,-31.404,-64.427,-32.775,7.786,-25.87,-52.431,-46.512,-37.573,-19.249,11.433],[1951.9,457.847,261.327,74.96,40.843,301.478,68.743,6.549,15.186,-3.238,186.082,56.08,11.441,11.309,24.378,-5.539,-29.657,0.018,-44.282,-19.22,-40.933,-51.066,-47.955,-10.011,-40.047,-60.897,-51.572,-53.612,-45.736,-52.082],[3630.309,1303.208,723.546,271.589,-71.472,560.73,296.175,185.712,87.512,58.458,246.569,71.076,53.774,70.94,9.452,22.462,-12.426,-21.557,2.628,-14.835,-18.972,-39.213,-37.554,-34.918,-42.878,-39.281,-28.64,-19.721,-44.846,-31.596],[3771.54,1784.068,928.581,806.037,592.142,702.261,244.753,92.715,86.218,80.351,321.685,197.697,85.698,49.47,40.321,39.131,13.491,-3.181,-4.984,19.928,-28.321,-21.735,-51.175,-27.906,-17.585,-45.804,-23.525,-26.041,-51.965,-65.228],[4699.586,3295.543,1370.617,853.914,932.762,996.268,450.674,338.224,187.36,138.399,318.567,314.475,71.39,85.03,136.737,4.316,15.743,-2.655,-11.37,12.347,-8.852,-2.561,-12.686,-11.576,-20.371,-39.165,-22.784,-47.758,-56.119,-46.229]]
}