{
"KTrans": [[-0.029,-0.01,-0.027,-0.015,-0.022,-1.362,-0.75,-0.79,-0.615,-0.497,-3.183,-1.942,-1.434,-1.389,-1.083,-16.738,-9.551,-7.803,-5.44,-6.602,-29.483,-16.816,-15.195,-12.105,-10.903,-45.48,-27.947,-24.847,-21.028,-26.266],[1.422,0.365,0.192,0.133,0.11,-0.513,-0.489,-0.352,-0.229,-0.17,-2.389,-1.267,-0.988,-0.674,-0.603,-19.808,-8.8,-5.792,-4.718,-3.369,-33.335,-16.809,-12.135,-7.782,-7.98,-53.897,-28.453,-21.603,-17.352,-13.991],[4.367,1.098,0.532,0.348,0.253,1.926,0.108,0.014,-0.016,-0.019,-0.335,-0.575,-0.486,-0.509,-0.501,-17.037,-9.251,-5.902,-4.723,-3.731,-44.233,-15.511,-11.705,-8.753,-6.731,-59.374,-35.294,-22.555,-16.725,-14.526],[8.833,2.117,1.04,0.634,0.435,5.654,1.353,0.427,0.262,0.145,3.035,0.137,-0.219,-0.348,-0.293,-23.429,-8.121,-5.892,-4.126,-3.759,-49.73,-19.863,-12.571,-8.805,-7.258,-26.386,-39.267,-21.267,-14.865,-12.94],[13.462,3.799,1.71,1.036,0.687,11.784,2.329,1.128,0.537,0.348,7.598,1.347,0.436,0.19,0.119,-20.447,-9.186,-5.883,-4.262,-2.536,-54.847,-17.566,-13.53,-8.586,-8.033,74.209,-42.723,-25.26,-16.356,-15.332],[19.983,5.3,2.456,1.44,0.975,20.584,4.313,1.902,1.096,0.657,12.896,2.848,1.293,0.483,0.282,-30.643,-8.858,-4.22,-4.122,-2.771,-30.664,-24.772,-12.303,-7.969,-6.394,29.728,-47.258,-27.852,-18.898,-14.917]],
"ve": [[-0.195,-0.129,-0.113,-0.109,-0.103,-0.641,-0.161,0.092,0.256,0.353,-1.281,-0.229,0.286,0.748,0.942,-6.027,-0.139,2.921,4.571,8.728,-10.009,1.576,9.677,15.862,22.785,-22.089,27.127,96.942,109.871,271.391],[0.109,-0.111,-0.12,-0.121,-0.121,-0.851,-0.481,-0.309,-0.212,-0.162,-1.72,-0.788,-0.528,-0.32,-0.236,-10.555,-4.077,-2.186,-1.335,-0.643,-18.834,-7.7,-4.436,-2.019,-1.233,-51.856,-13.164,-7.654,-4.187,-1.615],[1.09,0.068,-0.067,-0.089,-0.1,-0.078,-0.392,-0.293,-0.227,-0.192,-1.192,-0.702,-0.492,-0.418,-0.363,-9.695,-4.954,-2.849,-2.064,-1.492,-26.863,-7.813,-5.422,-3.694,-2.49,-53.071,-19.584,-10.718,-7.007,-5.295],[2.697,0.362,0.055,-0.028,-0.071,1.23,-0.03,-0.213,-0.193,-0.188,0.05,-0.622,-0.532,-0.46,-0.364,-14.979,-4.737,-3.166,-2.145,-1.799,-33.75,-10.9,-6.65,-4.28,-3.297,-86.692,-23.146,-10.879,-7.017,-5.681],[4.574,0.918,0.25,0.068,-0.016,3.526,0.211,-0.02,-0.155,-0.162,1.611,-0.235,-0.384,-0.318,-0.258,-14.44,-5.793,-3.443,-2.396,-1.39,-45.751,-9.98,-7.303,-4.383,-4.035,-119.388,-26.103,-14.033,-8.299,-7.48],[7.049,1.415,0.48,0.182,0.055,6.806,0.927,0.178,0.008,-0.092,3.403,0.223,-0.046,-0.266,-0.26,-21.472,-5.818,-2.67,-2.541,-1.652,-60.83,-15.107,-6.974,-4.248,-3.337,-117.073,-29.968,-15.797,-10.169,-7.572]],
"kep": [[0.166,0.119,0.087,0.095,0.082,-0.731,-0.59,-0.88,-0.865,-0.843,-1.95,-1.719,-1.708,-2.107,-1.984,-11.975,-9.442,-10.203,-9.039,-13.261,-23.654,-17.903,-21.161,-21.122,-23.01,-46.61,-33.938,-38.862,-40.724,-61.794],[1.311,0.476,0.313,0.255,0.231,0.333,-0.01,-0.044,-0.017,-0.008,-0.71,-0.489,-0.465,-0.356,-0.369,-11.085,-5.083,-3.747,-3.46,-2.759,-21.297,-10.472,-8.318,-6.003,-6.904,-49.937,-20.324,-15.954,-14.136,-12.781],[3.236,1.029,0.6,0.438,0.353,1.983,0.5,0.307,0.211,0.174,0.817,0.121,0.004,-0.093,-0.139,-8.972,-4.687,-3.214,-2.747,-2.293,-29.248,-8.976,-6.878,-5.401,-4.451,-69.988,-23.003,-14.413,-11.011,-10.13],[5.953,1.748,0.984,0.662,0.506,4.314,1.38,0.641,0.456,0.333,2.861,0.755,0.312,0.111,0.07,-11.83,-3.751,-2.884,-2.065,-2.02,-35.363,-10.839,-6.644,-4.883,-4.209,-115.436,-24.955,-12.873,-9.077,-8.135],[8.416,2.852,1.457,0.967,0.704,7.836,2.107,1.147,0.692,0.51,5.599,1.569,0.819,0.508,0.378,-10.104,-3.862,-2.597,-1.952,-1.185,-50.413,-9.35,-7.021,-4.536,-4.261,-162.83,-27.656,-14.673,-9.447,-8.9],[11.815,3.826,1.965,1.256,0.919,12.441,3.342,1.718,1.087,0.749,8.446,2.593,1.334,0.748,0.542,-18.321,-3.527,-1.68,-1.662,-1.162,-77.82,-12.629,-6.111,-4.041,-3.265,-144.499,-31.241,-15.83,-10.464,-8.348]],
"vp": [[13.51,12.396,14.013,13.614,14.335,13.568,11.987,15.38,13.649,12.148,14.604,14.118,12.794,13.988,11.806,15.285,13.443,13.408,10.257,13.737,14.374,12.047,13.689,12.075,11.575,13.597,11.396,12.253,11.249,15.774],[-18.879,7.402,13.548,16.102,16.879,15.856,17.521,16.477,14.235,13.025,16.649,15.313,16.244,13.811,14.34,21.336,17.356,15.547,15.518,12.722,19.133,16.659,16.449,12.454,15.154,19.798,14.732,14.947,14.587,13.548],[-117.538,-30.118,-2.056,4.675,10.106,-0.167,12.874,13.891,13.267,13.133,11.062,12.677,13.153,15.257,16.997,19.147,20.037,17.742,18.048,17.268,26.961,15.728,17.141,16.418,14.908,27.276,20.251,17.231,15.938,16.565],[-277.236,-89.797,-40.004,-20.778,-3.351,-26.343,-1.936,8.38,9.834,12.115,-1.547,10.987,14.116,16.277,15.686,29.973,18.791,19.085,17.475,18.973,33.909,21.901,20.38,17.799,17.725,43.418,23.518,16.664,14.645,15.497],[-466.754,-200.16,-99.495,-58.958,-31.2,-71.988,-11.621,-3.579,6.505,9.068,-17.031,2.985,9.474,9.927,9.431,28.869,23.086,20.552,19.178,13.665,45.413,19.802,22.086,17.736,20.986,59.763,26.329,21.385,16.939,19.671],[-713.542,-299.374,-169.85,-106.592,-67.96,-137.143,-40.356,-15.28,-6.895,1.677,-34.863,-6.13,-1.308,7.564,9.418,42.878,23.047,15.506,20.183,16.198,60.624,30.351,20.878,16.886,16.769,58.509,30.146,23.926,20.658,19.442]]
}