{
"KTrans": [[69.808,40.377,32.372,31.292,18.603,64.026,47.065,33.335,36.716,27.455,94.188,65.689,38.156,50.64,40.357,250.02,153.751,96.267,96.553,88.451,568.463,312.388,238.929,199.236,182.234,1409.469,778.642,511.37,477.248,435.567],[-45.548,97.361,56.434,39.949,32.595,-85.269,98.106,71.489,45.211,34.491,-32.861,127.268,73.037,48.771,45.035,14.237,211.246,112.259,92.101,76.409,101.16,303.419,189.807,133.929,115.689,377.177,658.604,370.751,265.949,233.743],[-132.308,87.847,91.654,60.042,62.263,-104.831,127.377,98.689,76.968,56.221,-116.874,87.12,144.606,69.498,57.275,-139.578,174.094,214.295,113.509,87.678,-231.364,320.063,260.844,156.603,135.198,-233.846,636.388,494.306,297.151,221.039],[-123.556,-125.458,193.12,110.803,56.748,-135.079,-132.763,183.47,114.022,71.072,-129.428,-95.58,227.227,143.008,88.526,-136.095,-112.717,252.752,173.482,116.283,-158.272,-180.386,391.809,231.873,155.63,-258.859,-11.171,595.92,429.823,243.254],[-116.222,-195.23,117.66,209.331,124.888,-134.254,-215.182,72.625,255.866,105.059,-125.095,-182.112,78.41,186.885,118.655,-134.714,-169.723,80.285,253.8,151.836,-156.486,-208.436,215.2,424.458,206.736,-185.866,-344.591,313.829,595.429,352.964],[-122.252,-173.933,-114.303,95.075,201.273,-115.023,-187.084,-145.016,151.835,193.706,-121.53,-186.467,-121.327,217.829,199.123,-111.124,-232.688,-136.354,243.759,229.224,-135.751,-290.704,-190.424,267.255,333.363,-191.042,-263.446,-253.483,464.941,538.518]],
"ve": [[15.585,5.414,43.149,25.206,112.313,7.185,2.608,5.241,7,-302.21,13.109,4.721,-7.814,0.117,-1141.708,49.887,14.764,-1.285,-12.193,-19.386,97.232,37.378,10.833,-7.186,-17.609,191.885,82.865,34.371,11.332,-5.964],[4.051,4.858,3.144,1.254,1.625,13.16,3.544,4.929,2.979,1.821,12.494,7.318,5.754,3.465,3.073,52.073,27.689,15.801,11.735,6.802,96.503,48.434,31.853,19.765,14.089,203.634,99.24,64.464,42.614,32.113],[1.571,5.061,-0.257,1.339,3.156,7.327,4.689,2.305,4.636,2.64,13.166,7.132,8.002,2.153,2.678,52.098,29.25,20.371,13.43,10.894,90.852,52.634,33.708,23.97,20.004,200.822,101.946,68.571,50.255,38.143],[1.458,3.024,3.14,1.701,-0.268,9.184,3.634,6.648,3.288,2.329,8.993,6.093,4.909,7.748,2.793,50.719,28.879,19.125,12.372,11.431,112.027,54.237,35.241,24.281,20.426,198.829,102.25,67.12,52.377,38.577],[0.199,5.202,2.303,1.851,2.532,12.351,5.69,8.892,6.962,2.402,6.431,4.963,7.405,4.355,2.649,26.194,26.806,18.566,15.237,10.964,98.499,50.42,36.114,30.816,17.227,202.414,100.217,79.437,52.333,42.453],[3.205,3.91,-0.171,2.684,3.726,9.33,3.908,7.295,5.906,2.661,12.471,7.379,7.765,7.739,3.739,55.461,24.999,21.538,12.407,8.974,101.306,56.709,35.098,27.788,21.837,200.199,101.005,68.541,53.358,41.191]],
"kep": [[57.316,36.128,35.634,38.24,23.507,49.872,44.438,37.132,50.174,42.503,68.619,59.848,42.699,67.547,64.093,128.697,118.034,95.508,122.087,134.121,235.056,197.264,202.984,218.255,239.551,411.615,377.502,350.261,414.522,463.64],[-53.505,80.309,46.973,34.335,29.055,-88.73,80.587,58.083,37.833,30.586,-46.868,100.83,59.019,39.447,38.939,-28.72,134.256,77.227,67.958,61.481,-1.961,161.38,112.78,88.977,84.141,58.228,270.591,179.629,150.626,148.291],[-127.539,68.204,78.202,49.577,52.624,-100.854,101.054,81.828,62.728,47.304,-113.654,62.247,117.136,57.013,46.651,-122.815,103.116,151.16,79.73,63.94,-161.058,161.563,157.609,97.97,89.829,-138.907,249.057,241.77,156.97,125.999],[-118.488,-121.591,163.551,94.364,47.091,-128.933,-124.297,150.886,95.054,58.275,-121.665,-95.438,188.891,117.522,72.141,-120.352,-106.431,179.535,127.078,85.007,-127.057,-149.89,243.386,149.839,102.378,-149.209,-52.68,295.665,234.3,137.024],[-113.328,-182.87,94.069,180.436,106.027,-129.162,-196.967,50.715,217.806,87.498,-118.616,-167.617,54.301,155.416,98.472,-119.659,-148.603,43.937,189.177,113.487,-124.213,-162.133,119.166,285.845,141.472,-125.227,-211.663,134.553,335.206,206.206],[-118.397,-164.607,-108.227,79.169,174.32,-111.936,-173.619,-137.973,122.577,164.596,-116.568,-170.849,-115.959,180.478,167.335,-105.3,-193.904,-123.711,180.652,175.359,-116.185,-216.091,-157.792,170.861,233.384,-127.655,-172.98,-181.012,252.671,325.926]],
"vp": [[2563.637,2380.423,2267.826,2432.279,1821.48,443.077,451.96,468.755,448.517,461.178,243.998,267.922,189.945,257.71,220.555,49.654,49.323,41.113,37.07,38.615,26.883,25.135,22.65,17.062,20.367,11.65,12.868,6.955,10.589,10.473],[7652.828,7324.415,6499.76,6495.139,6117.295,1571.48,1374.951,1455.161,1309.86,1198.133,800.054,730.693,738.33,668.798,667.319,170.262,160.318,114.788,127.602,129.918,68.064,63.994,65.709,62.421,66.829,35.098,38.006,32.296,31.924,37.311],[9227.886,13040.345,8528.476,9071.288,10824.495,1654.7,2283.05,1867.27,2014.101,2218.574,974.715,1247.598,1174.017,940.666,1026.759,175.977,275.285,249.922,209.7,208.254,97.018,125.65,104.187,103.968,113.831,45.688,70.475,54.267,55.273,53.894],[10693.37,16800.068,18358.139,14196.671,11534.179,2226.658,3082.328,3347.028,2721.85,2862.999,968.288,1436.653,1620.972,1718.438,1534.725,201.34,327.209,317.254,322.93,309.021,102.611,183.955,166.013,157.214,145.208,50.656,76.936,80.678,89.422,66.55],[10200.081,18841.218,21120.932,20311.876,18693.025,2741.542,4085.033,5341.201,4548.612,3370.514,1146.303,1650.228,2513.395,1820.877,1825.83,225.387,366.289,460.706,401.674,332.749,115.699,175.482,223.38,245.534,174.992,52.455,91.272,107.996,100.012,100.336],[12354.105,19511.99,21253.052,24216.672,24419.147,2463.546,3752.498,5536.506,5718.052,4131.542,1179.992,2093.106,2658.788,2789.643,2334.721,220.658,386.425,502.14,513.692,448.623,113.518,233.255,234.005,263.763,239.963,51.905,88.313,120.41,122.862,137.512]]
}