{
"KTrans": [[-1.169,-1.739,1.83,-0.253,2.82,0.677,4.429,2.535,1.932,-2.344,-4.893,5.936,-1.551,-0.296,1.809,-0.973,9.542,0.939,0.581,4.707,9.066,14.315,4.211,7.36,4.278,69.85,37.675,34.056,28.309,12.589],[-43.796,-1.946,-0.331,0.325,-0.278,-44.405,-3.055,-0.153,1.639,0.164,-43.725,-3.055,1.864,0.333,0.552,-44.6,-0.025,1.557,-0.202,-0.005,-37.703,-2.04,4.874,1.683,1.925,-8.531,23.43,2.17,8.108,3.399],[-72.337,-12.026,-1.644,-1.025,0.188,-76.84,-11.382,-0.778,0.468,0.631,-77.004,-8.801,-0.091,1.095,-0.882,-71.773,-7.201,-2.212,0.812,1.424,-65.382,-3.771,-4.631,-0.049,1.151,-58.396,6.03,5.034,1.209,7.802],[-87.544,-23.341,-5.984,0.131,-0.434,-88.58,-22.933,-5.795,0.024,-0.224,-89.089,-24.628,-2.643,-1.531,2.119,-84.944,-23.019,-4.939,-1.15,0.898,-80.219,-32.102,-2.454,2.265,1.947,-59.876,-23.166,0.606,1.997,-1.811],[-93.949,-39.672,-7.144,-3.067,-1.944,-94.126,-38.883,-10.616,-2.031,0.567,-92.831,-37.947,-10.945,-1.355,-0.937,-90.878,-38.981,-7.122,1.019,-0.347,-85.913,-39.935,-3.716,-0.879,0.98,-76.567,-37.985,-10.181,-1.488,8.195],[-97.214,-53.212,-13.521,-3.313,-0.77,-96.926,-54.21,-10.017,-6.08,-1.857,-96.149,-50.656,-14.589,-3.762,-0.53,-92.728,-52.511,-15.927,-1.049,-0.805,-91.065,-58.596,-13.917,-3.473,-1.55,-81.498,-56.849,-13.795,-6.486,-3.915]],
"ve": [[5.285,7.665,6.16,15.589,4.355,3.916,4.189,6.435,7.044,54.036,6.29,2.328,10.081,52.206,8.814,4.295,8.897,0.066,-21.742,20.672,70.535,30.629,1051.11,-51.588,12.2,105.257,-403.844,4.525,-325.858,-46.676],[-16.882,-0.259,0.463,-0.302,-0.068,-16.374,-1.523,-0.294,0.511,-0.072,-17.746,-1.895,0.144,1.001,0.247,-13.513,0.414,0.85,0.585,1.046,-9.147,1.297,3.094,1.056,1.294,-5.55,10.843,2.089,3.102,2.345],[-36.018,-3.768,0.236,-0.28,0.349,-52.219,-4.525,0.023,0.429,0.283,-39.321,-3.188,-0.397,-0.041,-0.286,-39.082,-2.412,-1.263,0.293,0.405,-29.849,-0.924,-2.765,-0.749,0.162,-43.873,5.795,1.049,-0.045,3.88],[-67.618,-10.55,-2.749,-0.084,-0.336,-50.443,-10.451,-2.96,0.005,0.034,-51.991,-10.681,-0.678,-0.384,0.178,4.953,-8.408,-2.333,-0.356,0.602,-80.875,-16.142,-1.101,0.162,1.321,-17.866,-13.879,1.053,-1.581,-2.013],[-99.989,-19.006,-2.362,-1.639,-1.062,-61.126,-17.457,-5.788,-0.656,-0.233,-48.524,-16.04,-4.051,-0.673,-0.042,-113.437,-16.749,-5.72,-0.302,-0.604,-57.384,-20.145,0.088,-0.137,0.493,-33.817,-13.608,-5.321,-1.63,4.97],[-73.192,-26.688,-6.256,-2.486,-0.662,-35.341,-28.471,-4.803,-1.779,-0.924,-71.867,-25.778,-7.288,-2.158,-0.701,-62.542,-24.656,-6.771,-1.215,-0.705,-60.606,-32.37,-5.357,-2.744,-0.701,-47.461,-35.104,-4.607,-3.037,-1.411]],
"kep": [[-5.857,-5.171,2.356,-1.073,5.687,-1.57,3.546,1.438,0.296,-7.731,-7.644,5.867,-5.673,-2.05,1.544,-6.475,4.344,-2.723,-2.016,3.996,-10.93,3.997,-5.495,3.049,0.027,-4.25,-0.568,13.717,18.209,-10.296],[-34.57,-1.755,-0.604,0.812,0.018,-36.279,-1.746,0.2,1.283,0.446,-35.112,-1.281,1.767,-0.55,0.605,-42.05,-0.894,0.283,-0.748,-0.976,-47.437,-6.743,0.623,-0.081,0.282,-54.321,0.598,-5.126,2.374,-0.353],[-62.596,-9.203,-1.959,-0.799,-0.111,-68.6,-7.193,-0.859,0.074,0.381,-66.812,-6.075,0.2,1.147,-0.57,-66.865,-5.788,-1.652,0.385,0.917,-70.293,-6.577,-3.335,-0.215,0.426,-75.074,-16.297,-2.691,-2.376,1.787],[-80.555,-15.121,-3.381,0.075,-0.106,-81.285,-14.755,-2.97,-0.087,-0.311,-82.621,-16.899,-2.115,-1.26,1.932,-81.954,-17.663,-3.046,-1.161,0.161,-82.11,-25.486,-2.867,1.202,0.169,-74.433,-36.477,-5.058,0.196,-2.177],[-88.236,-28.06,-5.21,-1.479,-1.021,-89.057,-27.435,-5.304,-1.598,0.731,-88.599,-27.366,-7.45,-0.875,-0.962,-88.44,-30.2,-2.418,1.186,0.04,-87.254,-34.297,-5.557,-1.559,-0.155,-84.835,-48.647,-12.576,-2.873,1.32],[-94.843,-38.759,-8.207,-0.947,-0.287,-94.151,-38.567,-5.795,-4.534,-1.012,-93.943,-36.224,-7.925,-1.715,0.116,-90.627,-41.848,-10.504,-0.31,-0.237,-91.355,-50.064,-11.026,-1.3,-1.491,-85.811,-65.644,-21.177,-6.549,-4.566]],
"vp": [[-77.214,14.196,-43.885,92.115,-129.363,18.873,-23.018,-6.232,-30.036,26.393,26.305,-14.981,3.194,10.11,-12.415,0.697,-9.661,-1.016,0.491,-9.591,1.387,-2.826,-2.23,-3.699,-1.329,-12.476,-7.122,-6.966,-8.358,-0.191],[2157.62,206.597,156.656,83.455,173.086,383.21,87.287,36.907,-7.015,34.896,203.25,45.182,-9.823,2.901,8.528,36.617,1.334,-0.546,-2.748,3.57,19.317,0.797,-6.922,-1.139,-2.512,5.392,-9.796,0.457,-4.221,0.289],[4077.838,937.671,162.523,274.909,-41.481,886.366,162.255,94.929,-28.148,-1.701,436.047,86.818,26.247,8.609,10.54,85.488,15.722,9.554,-1.909,-0.428,32.658,3.982,10.874,4.088,0.548,20.098,-5.185,0.28,2.817,-10.074],[5824.051,2334.231,1024.465,10.279,358.683,1176.012,467.756,177.642,14.382,36.851,564.048,223.155,13.885,15.222,-2.099,109.939,36.276,16.807,8.732,0.687,49.266,36.131,5.159,-0.586,-4.424,6.55,13.705,-1.279,4.092,5.937],[6708.775,4079.609,724.92,553.614,637.121,1336.456,763.73,380.031,107.698,39.892,656.02,336.958,159.105,22.758,24.9,125.307,73.926,34.096,4.262,5.664,57.386,42.587,1.567,0.827,-2.975,18.411,16.166,7.908,4.605,-12.415],[7672.801,5534.9,1925.822,1266.727,458.217,1508.395,1186.03,328.103,170.949,83.56,746.047,542.99,214.406,89.901,32.072,136.112,106.533,38.292,10.636,8.312,66.273,67.818,16.927,12.834,5.743,23.039,34.533,7.793,6.895,3.097]]
}