{
"KTrans": [[-52.745,-65.816,-76.777,-70.998,-65.723,-50.703,-60.152,-66.789,-58.91,-57.71,-26.38,-62.708,-63.629,-58.464,-49.768,28.095,-14.739,-10.632,-12.562,-22.052,60.353,64.606,38.727,57.969,62.48,192.943,51.503,166.013,210.438,161.815],[-55.537,-45.007,-48.085,-53.269,-49.954,-47.135,-34.866,-41.27,-55.376,-55.011,-48.636,-34.241,-25.041,-49.632,-51.874,-18.941,2.466,-1.905,-17.878,-24.409,-26.636,18.859,-15.642,18.769,9.041,10.681,44.315,19.202,35.576,45.969],[-69.148,-48.028,-40.38,-37.139,-53.983,-60.328,-46.576,-40.815,-39.385,-43.455,-65.914,-43.627,-35.524,-33.317,-29.573,-49.507,-20.228,-11.847,-6.88,-4.773,-24.362,-1.762,3.415,-7.516,-1.638,-32.714,-8.299,-8.87,-18.03,-36.896],[-75.359,-47.727,-39.875,-42.023,-53.659,-72.858,-51.598,-37.116,-43.555,-41.218,-72.114,-51.17,-33.389,-39.42,-42.574,-61.61,-29.071,-25.321,-26.093,-25.148,-45.69,-21.83,-11.582,-0.263,-15.298,-15.035,-24.915,22.208,6.854,-0.775],[-81.375,-56.102,-49.917,-46.27,-42.401,-83.757,-55.549,-41.214,-41.986,-37.753,-79.474,-49.165,-40.103,-39.271,-42.031,-74.893,-38.708,-35.516,-40.676,-29.022,-69.25,-20.974,-22.337,-11.552,-12.219,-71.712,-15.359,-9.92,11.172,-20.413],[-85.813,-60.1,-43.544,-38.488,-43.848,-83.766,-59.708,-46.461,-40.639,-46.474,-83.998,-64.233,-47.378,-40.263,-35.021,-77.605,-50.789,-24.534,-35.673,-31.757,-76.023,-51.1,-20.254,-11.184,-19.331,-72.11,-42.343,-23.155,-8.354,-7.282]],
"ve": [[11.612,-24.62,2.159,-298.092,-68.641,-38.332,-39.427,24.533,-30.314,-49.93,-27.529,-36.474,-29.513,-290.875,-32.102,42.751,-5.124,-40.646,-654.091,-841.369,95.24,21.845,-50.816,9.527,-39.371,190.423,75.436,31.081,8.02,-21.688],[-61.372,-57.024,-42.64,-42.531,-32.854,-11.884,15.527,-42.4,-42.458,-28.416,-44.494,-27.512,-28.688,-32.485,-31.75,123.14,152.363,2.169,-9.086,-13.619,22.274,28.772,16.39,8.223,-14.992,-41.617,53.185,101.058,41.469,13.483],[-38.713,-82.251,-61.85,-31.022,-53.814,0.353,-87.263,-62.646,-51.24,-43.922,-46.846,-69.157,-51.122,-45.99,-24.313,76.513,-37.247,-21.222,-10.802,-1.691,149.683,61.07,24.692,6.784,5.726,96.462,55.686,32.096,47.103,6.209],[-22.551,-62.094,-71.293,-73.568,-78.753,-48.394,-86.122,-69.724,-72.599,-58.477,-34.802,-78.523,-64.102,-67.787,-66.051,35.741,8.942,-58.338,-56.02,-40.872,120.069,14.773,-30.738,-12.784,-9.462,173.001,62.411,98.201,37.634,34.953],[-31.323,-84.609,-110.856,-94.447,-73.471,-51.6,-18.979,-88.853,-89.88,-63.886,-1.345,-41.703,-71.184,-77.879,-73.54,20.182,-4.97,-40.252,-91.133,-53.273,90.691,101.183,-64.843,-22.304,-38.171,85.83,-18.482,-24.644,49.795,43.292],[-12.704,-63.254,-95.07,-81.171,-83.543,-31.844,-49.869,-87.95,-91.596,-100.857,11.48,-91.044,-102.752,-88.869,-68.791,103.366,-17.863,-51.598,-75.252,-60.105,48.781,-8.856,20.433,-12.578,-40.961,150.66,62.887,57.465,43.144,30.788]],
"kep": [[-114.538,-17.851,21.984,20.646,1.775,-105.375,-30.827,14.404,-21.191,-3.312,-113.856,-25.999,-16.464,-6.09,-6.248,-134.561,-76.654,3.542,-32.219,-51.641,-86.836,-154.355,-86.397,-78.699,-85.023,-3.479,-177.202,-274.152,-246.055,-224.842],[-61.075,-55.136,-114.672,-21.371,2.347,-62.012,-40.285,-130.028,-26.605,-3.065,-68.233,-52.223,-108.305,-16.503,-1.997,-76.984,-77.814,-117.433,-55.4,-8.641,-62.867,-28.487,-94.82,-132.011,-48.533,-40.556,-20.037,24.122,-97.074,-139.357],[-80.756,-25.38,-14.024,-55.698,-117.837,-76.007,-21.823,-10.643,-25.264,-141.786,-77.118,-25.212,-19.101,-23.585,-114.031,-83.055,-25.09,-28.776,-45.301,-133.076,-73.536,-54.418,-37.643,-45.794,-87.069,-61.587,-40.122,-34.664,-39.317,9.295],[-86.58,-38.526,-13.583,-1.886,-1.4,-85.304,-33.181,-10.862,-4.627,-14.005,-80.947,-39.649,-11.087,-4.517,6.093,-79.377,-59.526,-13.248,-3.048,-10.397,-77.016,-48.822,-29.309,-12.627,-36.909,-70.01,-45.968,-41.391,-21.539,-32.505],[-91.71,-38.433,-16.685,-6.697,2.379,-90.142,-45.055,-15.057,0.048,-5.972,-90.174,-47.417,-19.858,-6.232,-4.776,-85.095,-55.026,-31.496,-5.197,-8.198,-83.818,-62.747,-26.552,-25.058,-2.384,-81.765,-42.254,-26.127,-45.097,-63.097],[-90.753,-53.9,-18.385,-10.207,-8.285,-89.472,-54.978,-24.723,-7.525,-3.706,-94.905,-52.305,-23.238,-9.515,-4.223,-93.659,-60.273,-20.264,-16.906,-7.879,-86.747,-60.591,-51.702,-31.829,-22.593,-85.889,-62.569,-55.358,-43.008,-36.566]],
"vp": [[-79.56,197.51,264.405,68.595,80.193,-52.487,-33.474,72.447,8.062,54.068,1.828,-3.582,-18.166,-17.762,19.605,-23.868,18.098,1.875,2.733,-5.544,-16.815,-12.477,4.876,-9.213,-20.768,-45.699,-7.161,-0.478,-9.556,0.548],[2015.769,848.199,-119.147,18.605,93.776,351.052,118.474,-11.461,-46.745,15.392,170.576,46.764,9.092,8.216,-37.43,8.981,7.523,-8.973,-13.021,18.865,3.238,-43.22,-11.345,-28.155,-21.112,-59.927,-31.159,-28.328,-31.273,-16.868],[3785.674,1537.213,702.218,635.241,-84.571,732.152,283.849,141.958,28.092,-46.22,349.851,205.316,42.773,5.248,8.208,42.555,-2.501,13,-11.323,-27.926,-24.994,-19.37,-22.483,-31.232,-18.317,2.549,-21.991,-30.136,-29.194,-32.909],[5154.409,3268.594,1325.233,707.686,64.037,1038.855,630.903,259.192,54.189,68.607,369.06,361.021,143.808,40.102,-11.636,23.684,89.139,-22.375,-14.232,-14.676,17.621,-16.43,-14.11,-33.079,-22.161,-39.275,-34.871,-47.825,-40.669,-27.041],[6002.879,3731.896,2195.295,683.13,990.229,1122.428,813.904,409.734,210.358,86.58,531.317,491.347,236.11,113.962,106.406,76.151,65.145,59.655,2.182,12.236,16.967,12.31,-28.226,-4.296,-35.439,-8.037,-37.025,-46.322,-21.528,-41.542],[5941.687,5858.411,3565.788,1884.6,1536.78,1127.477,1260.054,631.78,452.463,138.125,587.098,552.833,339.847,176.62,113.873,101.824,98.869,56.532,34.111,42.04,30.141,0.423,18.028,-5.885,-16.333,1.045,-26.848,-14.445,-48.709,-24.345]]
}