{
"KTrans": [[-40.068,-9.911,-2.207,-7.697,-6.233,-40.142,6.747,-2.685,-3.393,-4.175,-38.228,-5.748,-3.412,0.471,-2.402,-28.48,-7.62,-5.693,-0.929,-6.479,-28.716,-7.472,2.74,-4.088,-1.262,-31.031,-13.888,-5.308,2.925,-0.484],[-84.814,-35.749,-21.009,-13.976,-10.543,-87.274,-44.084,-13.082,-14.156,-8.923,-85.863,-37.169,-24.369,-18.214,-8.579,-88.038,-41.066,-23.012,-16.05,-5.354,-86.883,-33.647,-20.347,-17.051,-12.82,-84.724,-43.688,-12.015,-10.99,-12.291],[-94.091,-67.918,-41.503,-27.627,-21.754,-95.986,-73.3,-32.765,-27.298,-15.853,-90.274,-72.743,-38.731,-23.623,-21.456,-93.599,-73.603,-30.795,-21.035,-17.499,-95.457,-71.202,-34.637,-28.093,-20.95,-95.737,-79.311,-33.912,-19.067,-16.575],[-98.349,-83.769,-63.626,-31.913,-26,-96.723,-82.82,-65.434,-39.25,-29.604,-97.226,-79.095,-68.389,-26.147,-27.186,-101.451,-87.069,-56.092,-36.602,-24.224,-97.458,-87.805,-56.333,-39.933,-17.675,-96.582,-81.159,-72.169,-21.221,-21.627],[-97.975,-91.17,-77.114,-42.477,-34.084,-98.354,-86.464,-79.856,-52.765,-34.365,-100.869,-83.551,-66.94,-56.542,-22.409,-100.672,-90.269,-74.749,-49.717,-20.297,-100.536,-91.934,-58.681,-57.429,-30.053,-99.836,-89.853,-61.104,-55.756,-32.953],[-100.144,-93.745,-83.722,-58.322,-50.061,-101.69,-95.076,-83.373,-66.081,-51.915,-102.558,-93.441,-85.132,-67.641,-38.393,-101.153,-93.097,-86.828,-62.801,-40.859,-101.638,-92.844,-83.679,-65.692,-53.757,-102.138,-89.501,-84.808,-68.62,-47.735]],
"ve": [[-20.456,-1.741,-10.836,32.558,10.927,-24.511,-41.17,-154.863,48.983,19.329,-24.782,27.789,10.72,-262.298,-800.873,-45.76,24.847,-29.88,106.814,352.668,9.601,-66.68,-220.992,23.179,-105.133,-5.564,1.252,34.561,37.637,-28.671],[-35.711,-26.808,-13.818,-7.57,-3.958,-29.081,-43.186,-11.465,-9.277,-5.155,-116.837,-26.418,-12.853,-9.575,-5.281,-86.172,-18.768,-16.021,-7.998,-4.282,-60.015,-28.488,-14.533,-8.053,-3.816,-74.333,-26.471,-11.527,-7.652,-4.357],[-90.518,-52.255,-33.644,-20.997,-15.551,-115.966,-52.288,-23.869,-19.922,-13.31,-84.872,-60.984,-29.404,-17.951,-14.728,70.686,-55.103,-31.298,-17.867,-15.293,-89.084,-50.986,-29.417,-22.167,-15.355,-94.226,-61.87,-31.594,-17.062,-16.081],[-95.403,-65.147,-47.953,-28.905,-20.614,-100.888,-64.94,-55.753,-29.476,-23.785,-113.144,-145.291,-52.955,-25.935,-21.024,-198.996,-86.116,-40.64,-29.141,-20.397,-88.131,-63.159,-42.977,-30.386,-22.007,-89.532,-78.423,-50.195,-29.452,-23.147],[-104.876,-86.314,-63.645,-40.91,-31.607,-780.812,-75.406,-52.949,-42.537,-31.568,-98.669,-74.91,151.744,-42.922,-28.177,-103.663,-74.729,-49.986,-43.588,-30.298,-110.164,-75.166,-47.038,-45.663,-30.832,36.796,-80.721,-61.772,-48.106,-28.863],[-109.976,-91.011,-72.48,-48.529,-43.604,-117.634,-93.399,-62.276,-50.863,-43.053,-63.864,-79.174,-76.183,-54.253,-34.006,-101.843,-115.466,-75.532,-49.649,-38.284,-106.322,-53.375,-73.094,-57.156,-45.865,-118.062,-82.498,-119.151,-52.835,-39.607]],
"kep": [[-37.896,-8.498,-8.278,-17.983,-16.972,-43.423,4.456,-8.27,-6.808,-17.381,-40.575,-6.3,-10.656,-1.765,-13.972,-33.227,-8.32,-15.191,-6.714,-17.917,-29.697,-14.158,1.631,-12.371,-12.074,-35.702,-14.816,-8.495,-0.641,-9.454],[-86.486,-19.703,-8.048,-7.41,-6.334,-86.963,-24.068,-2.919,-5.521,-3.499,-88.808,-19.64,-13.623,-9.059,-2.792,-90.571,-24.76,-7.633,-8.32,-0.951,-94.018,-18.541,-7.105,-10.438,-9.195,-87.779,-28.105,-2.678,-3.1,-7.514],[-90.366,-65.246,-13.299,-9.184,-7.077,-93.496,-68.101,-14.518,-9.088,-4.481,-86.68,-66.063,-14.567,-7.745,-7.624,-90.642,-70.733,-3.08,-4.571,-3.591,-92.063,-66.52,-13.612,-8.394,-6.44,-92.813,-78.767,-12.279,-2.999,-1.041],[-89.872,-88.997,-49.103,-5.866,-6.679,-91.957,-84.306,-47.413,-12.622,-7.225,-92.229,-83.978,-51.022,-4.55,-8.565,-92.616,-88.45,-42.144,-9.768,-5.259,-91.139,-88.906,-37.98,-17.428,2.905,-92.486,-82.235,-58.322,0.715,1.866],[-92.37,-86.173,-75.601,-24.632,-4.523,-96.269,-84.861,-78.551,-35.012,-4.332,-92.15,-81.235,-70.512,-31.754,2.63,-94.567,-88.059,-72.205,-26.202,5.102,-91.671,-87.7,-60.385,-35.689,-1.111,-92.682,-85.04,-65.552,-23.948,-6.271],[-95.652,-83.396,-82.577,-47.511,-20.594,-94.545,-83.755,-83.027,-57.976,-19.854,-93.235,-83.497,-85.024,-61.392,-12.36,-95.695,-86.83,-86.027,-56.782,-15.356,-93.896,-84.935,-83.695,-56.166,-20.914,-94.946,-82.475,-83.038,-56.845,-18.036]],
"vp": [[2681.603,2133.589,1810.765,2160.255,1722.638,574.038,355.228,404.715,353.435,312.366,268.236,214.849,192.185,166.664,224.411,44.567,28.735,42.549,29.079,34.536,21.357,18.029,18.822,17.862,19.852,11.389,8.94,8.284,9.532,7.44],[6708.384,6084.631,5783.805,5004.385,5285.83,1556.224,1487.713,963.558,1234.648,1205.22,694.233,598.2,565.875,585.805,661.621,146.632,125.437,115.739,127.432,116.446,69.654,67.96,55.599,43.781,56.586,33.683,31.241,23.815,30.271,25.005],[9111.951,11445.015,11451.031,9662.116,10475.117,1810.035,2386.56,1681.035,1997.609,1789.613,737.518,1264.428,1022.07,846.118,829.304,166.565,224.035,233.261,154.578,206.014,91.556,100.463,101.021,98.67,101.92,46.573,66.474,52.088,39.271,55.984],[8672.208,15181.958,14207.638,12925.82,11065.84,1893.146,2589.507,3842.278,2473.441,2622.537,987.438,1383.913,1605.554,1193.613,1058.623,222.549,327.969,280.479,251.267,222.199,93.683,141.333,131.375,125.557,127.577,46.497,75.155,88.23,63.156,67.05],[9732.143,16926.63,20292.86,17091.543,17651.915,1965.296,3357.931,3833.084,3538.297,3470.109,1053.134,1475.609,1847.48,1793.987,1729.103,213.332,317.561,414.704,375.888,348.15,102.914,169.72,137.659,185.54,175.355,56.364,82.949,89.548,107.497,75.061],[10934.422,18168.961,22413.431,19266.034,24116.301,2134.154,3624.483,4491.261,4396.671,4704.817,1156.287,1888.954,2326.881,2185.964,1698.893,219.671,346.283,478.886,425.564,394.462,107.452,173.152,219.649,250.329,251.26,59.807,83.26,104.133,111.572,106.612]]
}