{
"KTrans": [[-21.703,-3.624,-1.968,-1.828,-4.886,-19.235,-10.657,-8.168,-1.234,-4.144,-21.123,-8.28,-4.122,-1.731,-4.669,-24.708,-8.319,-6.468,-0.236,-2.728,-27.979,-9.845,-9.051,-1.862,-0.518,-13.13,-7.679,-2.142,-6.491,-3.458],[-71.818,-27.435,-9.745,-6.359,-9.953,-67.274,-27.712,-9.875,-9.566,-6.166,-68.946,-10.764,-16.2,-7.879,-12.101,-63.364,-19.915,-12.449,-9.886,-6.301,-67.874,-17.376,-16.332,-9.187,-7.288,-66.163,-20.698,-7.112,-7.002,-6.439],[-83.67,-42.779,-13.053,-10.647,-11.948,-81.044,-44.476,-14.612,-10.843,-8.775,-82.404,-51.956,-24.07,-9.954,-6.214,-84.378,-44.226,-19.634,-10.362,-12.199,-82.447,-40.184,-14.968,-18.072,-11.892,-85.21,-41.441,-17.786,-5.229,-9.385],[-90.206,-55.462,-31.703,-19.502,-17.096,-90.096,-64.597,-23.438,-20.067,-15.16,-89.072,-62.412,-25.248,-12.344,-12.852,-89.524,-63.074,-28.081,-18.516,-14.878,-88.637,-53.07,-28.557,-11.78,-12.423,-90.075,-63.874,-23.825,-22.821,-8.434],[-94.953,-64.771,-44.172,-23.791,-18.169,-92.583,-74.648,-38.831,-21.323,-11.743,-92.986,-77.021,-45.261,-30.825,-11.078,-93.64,-71.257,-52.123,-16.789,-10.462,-95.986,-77.177,-47.287,-19.282,-9.285,-94.689,-70.081,-58.375,-26.557,-12.051],[-96.553,-78.173,-51.943,-34.153,-16.757,-94.754,-73.16,-49.786,-32.3,-22.478,-97.135,-76.194,-36.564,-44.55,-11.478,-95.75,-81.848,-44.785,-18.933,-15.627,-98.001,-73.333,-53.414,-28.529,-6.547,-94.621,-77.886,-61.923,-27.708,-3.34]],
"ve": [[-17.979,5.541,22.977,35.629,-148.298,-12.219,4.818,14.801,29.023,7.819,-6.949,3.284,14.252,12.833,2.861,-8.757,5.361,20.766,9.202,47.426,-6.002,8.56,11.407,31.477,25.443,-23.025,9.503,6.515,54.702,41.947],[-48.734,-16.879,-6.841,-3.962,-2.308,-51.518,-17.06,-5.502,-5.1,-2.662,-44.877,-10.434,-10.357,-3.73,-3.103,-35.233,-12.362,-7.757,-4.755,-2.5,-45.24,-12.954,-7.94,-5.863,-2.864,-40.509,-12.405,-5.658,-3.524,-1.895],[-79.181,-28.737,-16.513,-9.593,-7.777,-63.428,-38.225,-15.007,-11.609,-9.06,-67.416,-37.105,-16.275,-11.252,-6.199,-61.774,40.46,-19.178,-10.744,-7.725,-55.948,-27.807,-13.775,-10.296,-6.952,-61.955,-32.911,-15.231,-7.174,-7.727],[-52.61,-40.047,-25.532,-13.814,-12.071,-66.088,-49.626,-23.224,-15.268,-11.818,-69.331,-45.644,-21.289,-13.397,-11.506,-68.471,-49.958,-25.486,-16.402,-12.754,-69.619,-32.671,-22.302,-14.69,-13.786,-75.727,-46.932,-22.353,-16.106,-11.382],[-94.678,-53.637,-45.632,-17.423,-16.386,-69.699,-57.896,-30.223,-20.424,-17.189,-82.474,-66.3,-35.017,-24.251,-13.863,-75.307,-49.419,-42.69,-19.676,-13.958,-82.889,-57.389,-41.1,-26.597,-16.759,-79.002,-51.157,-44.743,-26.499,-13.472],[-87.85,-71.195,-42.748,-35.678,-22.964,-74.672,-47.149,-41.686,-30.599,-22.423,-86.231,-62.185,-33.182,-38.566,-19.358,-79.818,-65.944,-34.561,-20.591,-17.494,-90.378,-25.248,-48.466,-24.176,-18.832,-169.02,-55.35,-151.577,-31.73,-12.574]],
"kep": [[-22.579,-4.498,-2.1,-5.557,-13.418,-18.761,-9.506,-11.687,-2.532,-11.291,-18.385,-9.94,-7.759,-2.032,-14.168,-20.311,-8.725,-10.819,-1.722,-7.108,-22.694,-12.314,-11.442,-4.577,-3.154,-12.862,-11.163,-2.573,-15.692,-9.702],[-69.872,-13.48,-3.253,-2.456,-7.505,-61.615,-15.586,-5.164,-4.239,-3.503,-67.442,-1.209,-5.969,-4.475,-8.998,-60.255,-10.194,-5.285,-5.466,-3.841,-67.481,-7.057,-8.807,-3.187,-4.166,-61.806,-9.802,-2.179,-3.774,-4.464],[-78.61,-35.637,0.51,-1.742,-4.495,-74.393,-40.22,-1.355,-0.161,0.098,-80.356,-39.419,-10.041,0.796,-0.656,-83.684,-33.47,-1.933,0.191,-5.098,-78.51,-35.955,-3.66,-9.015,-5.388,-81.256,-39.071,-5.147,1.533,-2.258],[-84.469,-55.374,-18.505,-7.411,-5.359,-84.062,-63.637,-11.947,-5.371,-4.07,-85.422,-57.047,-17.95,0.126,-1.74,-82.775,-58.674,-14.983,-2.181,-2.321,-84.287,-49.968,-13.477,0.76,0.532,-86.545,-58.494,-20.127,-8.05,2.607],[-88.57,-58.761,-38.638,-10.552,-1.308,-86.432,-66.621,-35.078,-5.807,4.574,-87.149,-66.847,-44.821,-11.201,2.303,-88.032,-64.813,-49.095,-2.931,1.932,-88.914,-70.227,-41.247,-2.742,5.058,-88.526,-67.56,-52.599,-10.528,-0.586],[-89.185,-65.707,-49.484,-26.011,3.228,-87.966,-63.931,-47.64,-23.459,-2.304,-88.273,-69.942,-34.819,-33.389,1.28,-88.662,-70.052,-43.023,-16.364,-4.734,-91.028,-63.308,-54.683,-18.062,8.398,-87.36,-68.699,-56.221,-24.081,0.205]],
"vp": [[1200.651,1012.311,910.971,956.101,874.115,242.705,234.162,123.313,157.126,246.557,138.578,98.546,76.745,56.226,100.431,27.52,23.505,22.849,19.003,19.336,18.403,9.497,8.739,8.318,9.894,6.992,3.099,6,4.874,3.676],[5242.96,3793.593,2736.938,3284.569,3295.854,954.932,831.195,451.569,614.142,527.138,465.303,290.101,364.143,217.324,264.705,80.866,60.129,63.497,57.035,67.764,49.362,27.374,27.189,34.211,25.683,21.642,14.128,13.459,13.397,12.01],[7122.472,5723.928,5793.857,4502.637,4978.603,1264.998,1488.735,1004.69,1111.01,1246.306,642.544,793.206,495.591,563.583,346.113,130.579,146.662,139.409,100.144,95.417,60.949,57.896,47.821,44.944,39.777,31.121,32.575,26.812,17.516,23.513],[7259.477,8132.027,8406.323,5184.018,6322.352,1526.352,2037.365,1496.706,1278.762,1313.031,721.597,971.476,623.969,558.935,638.987,145.224,211.974,165.029,138.869,143.238,74.072,68.396,72.269,62.491,82.877,37.711,51.93,33.824,31.694,34.421],[8482.811,11323.29,13728.527,9185.591,8267.04,1402.229,2301.939,1924.58,1683.611,1934.153,774.143,1324.685,1107.219,991.17,803.863,154.16,226.66,266.639,169.058,152.991,83.765,128.874,128.976,121.554,97.546,40.819,52.29,70.643,51.588,35.996],[8150.474,13847.424,12786.668,15567.084,12396.117,1482.692,2307.398,2626.214,2622.623,2455.387,865.968,1264.496,1043.644,1541.494,1074.356,159.4,262.211,211.758,170.067,175.805,93.646,103.535,150.722,94.537,111.002,38.447,59.347,69.604,67.77,31.273]]
}