{
"KTrans": [[-42.425,-55.683,-47.824,-55.167,-60.107,-36.01,-42.752,-42.503,-41.506,-46.095,-17.271,-31.284,-36.826,-32.526,-34.121,-61.821,43.933,30.882,30.954,38.849,-1.9,89.541,79.24,55.241,49.625,-69.943,110.408,162.833,238.984,190.447],[-47.073,-48.518,-43.28,-58.24,-49.446,-38.94,-36.316,-29.151,-45.34,-44.205,-36.64,-38.695,-28.532,-27.355,-41.701,-18.813,0.839,-23.256,3.066,6.402,-11.517,-13.352,-35.632,31.36,1.538,32.827,-4.413,26.433,34.915,31.298],[-54.262,-38.54,-45.2,-33.224,-42.204,-47.944,-39.841,-38.548,-35.804,-33.974,-47.044,-38.005,-42.857,-37.183,-24.262,-36.921,-8.497,-9.611,-32.302,-15.375,-56.693,-35.29,-0.591,-41.483,-38.306,-58.617,-16.862,-40.36,-14.918,-28.135],[-64.731,-48.992,-41.352,-42.627,-45.518,-60,-46.933,-36.817,-28.299,-39.969,-65.35,-40.949,-33.033,-28.083,-32.433,-78.526,-32.21,-26.598,-20.088,-11.134,-59.336,-20.56,-35.484,-19.265,-16.179,-17.599,8.611,-5.873,15.321,-36.266],[-70.426,-55.72,-36.524,-37.58,-41.407,-69.55,-51.898,-39.592,-29.104,-39.439,-68.874,-48.063,-40.139,-34.938,-36.76,-72.691,-32.572,-17.621,-31.398,-21.802,-84.186,-39.351,-10.09,-17.288,1.488,-68.715,-47.424,-50.638,-22.128,-11.174],[-77.799,-56.955,-43.152,-40.568,-37.246,-80.008,-54.781,-43.217,-38.826,-28.794,-77.969,-60.147,-49.774,-31.46,-30.755,-83.701,-45.922,-19.02,-36.186,-20.414,-71.055,-43.672,-11.185,16.063,-3.541,-91.231,-57.527,-57.6,-20.695,0.995]],
"ve": [[-28.362,-35.892,1.861,22.131,-206.314,-35.7,-64.104,-24.583,10.42,7.757,-12.54,85.434,-17.284,-457.769,-39.206,13.117,4.998,20.468,22.368,75.369,71.369,28.694,-36.174,35.414,-109.235,15.842,123.399,44.258,9.711,-5.821],[-124.964,-76.009,-42.181,-44.807,-28.648,-69.1,-55.865,-28.577,35.464,-26.044,-96.291,-63.639,-27.066,-19.985,-24.415,-40.688,-7.855,-11.236,23.272,0.08,-30.576,22.146,-22.4,28.189,-8.223,108.282,68.832,13.477,56.548,14.714],[-102.183,-92.645,-72.58,-46.025,-42.785,-68.516,-93.355,-61.083,-46.131,-33.487,-82.857,-85.627,-72.575,-51.183,-18.786,5.71,-42.598,-28.508,-14.737,-14.966,7.102,17.157,-7.098,11.96,-22.392,-138.061,28.494,28.218,40.13,-22.718],[-84.405,-151.946,-92.802,-73.099,-63.733,-98.842,-135.987,-84.501,-45.839,-56.258,-95.548,-96.561,-70.04,-45.893,-46.695,-53.654,-141.304,-68.19,-40.509,-15.141,-104.714,-75.493,-33.409,-11.657,18.827,-131.938,21.033,-28.047,12.598,3.461],[-41.694,-230.56,-88.504,-70.432,-72.777,7.904,-151.583,-96.422,-63.929,-68.299,-38.127,-154.831,-98.091,-70.029,-64.088,-87.943,-55.378,-71.125,-52.239,-41.682,-193.881,-161.279,27.488,-43.55,7.938,-36.035,-160.564,-31.143,26.582,5.875],[-2.567,-191.094,-133.966,-97.703,-73.82,-40.213,-151.661,-138.346,-89.372,-56.225,-21.131,-181.577,-159.276,-69.059,-60.881,-106.577,-171.1,-72.897,-81.174,-41.483,-0.071,-135.304,41.092,55.634,-4.742,66.107,-166.691,-84.834,-10.65,48.627]],
"kep": [[-113.303,7.731,-0.477,1.298,1.906,-99.723,-8.863,-4.747,3.616,-0.326,-113.156,-6.399,2.241,-8.726,-3.815,-47.021,-84.635,-40.042,-34.222,-52.023,50.357,-192.676,-120.273,-81.482,-65.644,92.736,-327,-301.859,-318.238,-275.484],[-5.854,-0.234,-116.518,-11.229,2.386,-21.493,-0.255,-125.622,3.494,2.553,-14.948,-13.071,-130.108,-4.472,-5.825,-23.693,-1.613,-39.249,-55.636,-28.699,-30.197,-5.441,85.952,-144.445,-44.685,-36.522,6.807,90.487,-188.86,-145.722],[-37.424,-0.815,-3.031,-3.026,-132.398,-41.874,-4.497,-5.024,-8.181,-124.795,-39.094,-3.792,0.777,1.257,-137.848,-55.79,-14.401,-7.154,-54.709,20.111,-59.741,-29.397,5.891,-49.621,56.803,-50.777,-35.122,-20.498,19.245,110.862],[-54.892,-6.812,0.027,0.354,-1.383,-52.701,-9.215,-1.646,-3.516,-1.02,-61.488,-15.059,-2.96,-0.679,2.621,-72.241,-15.687,-12.074,-7.904,-24.181,-62.601,-26.452,-27.039,-23.798,-42.688,-56.908,-37.102,-15.433,9.798,2.88],[-71.732,-6.698,-7.29,-7.704,0.079,-79.098,-22.382,-7.311,0.215,-1.949,-73.133,-20.393,-7.978,-5.539,-0.067,-70.743,-40.513,-9.418,-8.167,-7.931,-70.088,-28.106,-37.547,-20.145,-35.541,-76.135,-40.079,-40.123,-24.372,-20.553],[-81.531,-25.13,-8.035,-4.011,-4.031,-77.991,-32.426,-8.512,-6.702,-3.626,-80.307,-35.893,-10.131,-8.307,-3.96,-75.703,-36.93,-13.983,-19.291,-9.13,-79.49,-43.729,-50.558,-30.194,-27.023,-81.9,-49.437,-44.125,-28.478,-28.527]],
"vp": [[16.178,51.982,35.874,-72.06,-100.117,-19.152,-14.175,4.681,-14.026,-27.18,3.097,-2.425,-19.559,-7.476,-27.568,-9.154,-11.477,-13.401,-16.553,-29.077,-32.034,-27.44,-5.301,25.58,10.73,-39.885,-37.398,-6.581,-29.941,-3.506],[483.354,94.313,27.212,-142.509,-45.431,166.38,21.027,-9.993,-27.333,-42.812,46.242,-27.032,-25.167,-14.042,-40.112,-47.743,-50.837,-38.369,-2.774,-34.521,-35.837,-58.098,-19.269,-35.497,43.156,-45.019,-30.654,-53.982,-24.39,-3.969],[1856.181,638.467,212.912,189.336,11.054,339.696,30.504,88.627,0.476,-6.98,155.664,59.588,-11.37,-10.875,-10.652,-7.457,-35.186,-29.853,-33.109,-30.948,-21.359,-35.649,-44.918,-45.682,-47.49,-43.305,-43.441,-49.635,-23.344,-49.369],[2690.676,918.326,370.687,437.751,186.888,501.913,246.566,83.006,114.89,35.074,238.721,153.55,54.264,49.124,15.482,5.439,-47.114,-17.668,20.43,-9.821,-18.269,-44.446,-50.372,-26.722,-50.869,-63.945,-41.787,-74.03,-37.856,-23.775],[4179.082,925.765,1251.739,728.617,472.261,925.923,482.488,275.727,115.818,80.721,369.866,244.771,129.432,70.206,74.531,11.41,-9.754,-9.824,-5.065,-7.474,-8.363,-17.429,-38.926,-54.585,-30.153,-37.209,-51.939,-38.464,-46.257,-47.772],[4040.322,2692.105,1526.05,983.813,942.452,947.913,833.207,222.546,253.489,291.635,458.755,282.813,97.421,116.451,63.667,36.027,-6.358,-14.365,13.685,8.596,-22.537,-26.594,-13.579,-14.591,-5.698,-15.673,-47.446,-42.482,-34.407,-23.621]]
}