{
"KTrans": [[2.516,0.706,2.678,1.602,0.895,10.707,8.386,7.274,5.128,5.866,25.896,16.252,11.19,11.798,10.895,164.099,91.096,76.654,64.773,59.879,407.479,225.316,179.271,154.764,141.229,1125.021,598.327,452.767,393.763,358.658],[-3.971,1.12,0.817,0.575,1.25,12.739,4.635,4.097,3.287,2.366,20.439,12.308,7.719,7.192,6.008,125.748,65.299,44.852,35.933,30.408,310.249,148.648,102.046,77.756,67.472,857.914,356.053,232.367,179.262,152.047],[-5.863,1.473,0.407,0.827,0.819,4.302,4.687,3.747,3.263,2.042,9.914,11.287,7.507,5.895,5.606,110.967,59.605,41.012,31.784,26.016,271.624,134.083,86.195,67.603,55.736,744.864,327.899,207.347,151.789,123.847],[-13.481,-1.569,0.67,0.726,0.438,-10.324,4.429,4.03,3.265,2.501,2.185,11.028,7.291,5.195,4.864,86.342,56.374,38.457,31.844,25.251,243.179,134.203,81.514,63.046,52.415,686.899,314.532,196.421,141.58,114.327],[-25.768,2.214,1.965,-0.236,1.085,-15.561,6.691,3.226,4.05,1.978,-7.24,8.546,8.485,5.755,4.435,71.19,59.384,36.854,29.644,23.396,199.683,131.896,79.953,61.89,48.707,617.762,307.289,194.73,137.479,108.432],[-30.027,-0.277,1.215,1.603,-0.13,-25.644,3.362,3.377,3.538,3.591,-23.387,8.944,6.861,5.737,4.672,51.137,57.286,37.946,28.589,22.687,172.833,127.506,82.412,59.46,48.817,493.217,297.922,189.427,137.375,106.204]],
"ve": [[0.582,1.76,-0.189,0.079,1.051,4.764,0.512,-0.778,-1.889,-4.588,9.393,1.605,-1.366,-4.774,-6.319,46.219,13.965,-1.464,-11.193,-17.983,94.362,33.736,8.191,-7.274,-18.63,191.397,78.61,35.009,10.244,-6.474],[0.847,0.798,0.568,-0.197,0.219,6.014,2.532,1.338,0.856,0.388,10.523,4.964,2.737,1.385,0.819,50.026,23.777,14.489,9.324,5.42,99.363,47.267,29.628,19.661,12.426,198.553,96.669,60.979,41.281,28.505],[1.923,0.26,0.245,0.124,0.241,5.549,2.869,1.399,1.191,0.844,11.13,4.947,3.433,2.306,1.384,50.297,24.945,15.916,11.213,8.458,100.16,49.305,31.782,22.992,17.485,199.987,99.106,64.43,46.738,35.251],[3.902,0.595,0.438,0.051,0.316,6.533,2.846,1.717,1.093,0.888,10.538,5.107,3.439,2.586,1.882,50.599,24.773,16.161,11.996,9.371,100.973,50.08,32.272,23.988,18.702,201.399,99.681,65.526,48.408,37.951],[3.402,0.985,0.089,0.015,0.316,6.771,3.03,1.62,1.188,0.817,11.587,4.866,3.447,2.496,1.872,51.198,24.911,16.422,12.125,9.539,100.602,49.914,32.891,24.334,19.144,201.038,99.798,66.083,48.972,38.614],[1.645,0.23,0.45,0.242,-0.103,6.328,2.614,1.66,1.348,1.043,11.993,5.218,3.346,2.379,1.926,51.521,25.431,16.716,12.136,9.763,102.367,50.109,32.978,24.582,19.58,200.623,99.589,66.136,49.446,39.272]],
"kep": [[2.48,-0.341,3.993,3.13,1.768,6.177,8.425,9.076,8.268,12.75,15.468,15.094,13.584,18.328,19.829,81.019,68.087,79.919,86.247,95.733,161.469,143.517,158.496,175.181,197.05,320.636,291.315,309.668,348.136,390.681],[-4.709,0.381,0.313,0.814,1.108,6.544,2.174,2.782,2.459,2.045,9.229,7.066,4.9,5.788,5.2,50.635,33.574,26.551,24.376,23.757,105.992,68.854,55.912,48.602,48.994,221.126,131.971,106.53,97.69,96.171],[-7.507,1.276,0.191,0.723,0.589,-0.918,1.806,2.322,2.06,1.209,-0.781,6.066,3.956,3.529,4.185,40.434,27.759,21.694,18.506,16.199,86.017,56.865,41.304,36.297,32.583,181.792,114.932,86.94,71.606,65.521],[-14.716,-2.174,0.244,0.676,0.138,-15.558,1.536,2.272,2.165,1.608,-7.434,5.696,3.747,2.553,2.929,23.892,25.433,19.233,17.73,14.524,71.123,56.157,37.258,31.516,28.409,161.758,107.664,79.106,62.782,55.38],[-27.565,1.261,1.902,-0.25,0.768,-20.539,3.534,1.578,2.844,1.15,-16.598,3.481,4.898,3.176,2.514,14.267,27.69,17.548,15.633,12.658,49.399,54.712,35.431,30.212,24.812,138.643,103.931,77.451,59.418,50.372],[-31.162,-0.482,0.759,1.359,-0.031,-30.038,0.735,1.695,2.159,2.52,-31.526,3.506,3.404,3.258,2.695,0.093,25.415,18.18,14.677,11.766,35.458,51.577,37.174,28.004,24.451,96.854,99.44,74.225,58.839,48.06]],
"vp": [[32.217,-27.21,-8.176,25.226,60.88,9.756,7.821,-6.56,-4.5,-11.63,9.256,-7.82,-2.416,3.368,-1.386,1.625,-1.954,-0.112,0.701,0.788,-0.003,0.397,0.85,-0.751,-0.915,-0.079,0.196,-0.064,-0.348,0.011],[268.642,-81.058,14.483,-3.062,55.924,86.204,8.669,13.359,3.212,6.697,45.236,1.852,0.951,-4.785,5.538,7.648,0.895,-0.264,0.955,-0.833,3.024,0.725,0.012,-0.298,0.34,1.365,0.349,-0.185,-0.463,-0.292],[1133.65,206.691,47.5,89.87,-77.158,249.016,25.136,3.627,20.708,8.261,104.68,26.975,-0.887,-3.662,8.023,24.752,3.936,2.645,-0.73,0.161,9.71,0.999,-0.334,-0.479,-0.073,5.945,0.701,0.244,0.703,0.02],[1991.083,152.961,-21.324,-3.427,-24.823,409.412,38.898,24.06,-0.86,-11.883,204.314,22.065,14.524,9.478,10.088,35.634,3.841,1.349,-0.618,4.136,22.831,2.025,0.808,0.301,0.178,9.959,1.187,0.547,-0.409,0.381],[2978.719,650.519,38.189,-6.669,-0.218,607.642,123.258,12.796,-0.631,-8.031,287.675,66.183,24.944,18.017,-1.354,53.537,8.994,3.298,2.631,-0.939,27.463,5.597,0.505,0.572,0.626,14.086,2.448,0.682,0.317,0.015],[3725.791,849.537,177.832,182.918,32.457,729.225,158.191,29.265,-6.218,30.139,417.101,88.895,26.165,14.18,-10.321,76.957,17.284,6.664,5.324,1.92,37.665,8.756,0.812,-0.629,0.708,19.502,3.578,1.474,1.105,0.413]]
}