{
"KTrans": [[-2.064,-19.888,-30.856,-33.775,-39.796,-9.676,1.873,1.111,2.168,-1.043,1.508,-2.323,2.188,-2.661,-0.71,43.65,35.886,39.144,25.22,16.791,55.135,79.769,71.799,91.937,61.684,253.616,157.027,145.715,172.706,138.02],[-8.987,-11.222,-4.143,-32.272,-50.203,-0.803,-1.31,-7.075,0.62,-15.155,-2.5,0.339,-6.724,0.391,0.767,17.776,31.59,16.722,12.35,-2.933,29.635,32.512,16.051,24.611,8.314,83.325,47.62,34.007,44.716,68.086],[-51.06,-11.336,-13.038,-13.991,-7.329,-48.086,-12.398,-6.252,-0.079,-7.371,-37.948,-10.25,-1.752,0.989,-5.531,-19.932,18.963,14.959,21.41,3.752,-6.64,-30.243,1.835,-6.844,18.127,15.045,32.744,44.933,21.335,3.996],[-62.276,-6.04,-10.32,-19.055,-19.631,-63.558,-5.114,-8.381,-10.156,-8.778,-58.326,-7.752,-9.067,-0.795,0.16,-44.963,28.849,10.372,1.938,9.85,-41.194,10.289,49.451,29.518,37.885,-14.252,17.269,56.725,13.998,-16.435],[-73.863,-47.414,-7.408,-13.62,-17.458,-64.377,-52.086,-1.168,-9.201,-16.299,-59.933,-38.748,-2.968,-9.502,-6.686,-61.462,-14.946,3.181,0.806,4.843,-63.237,-18.46,45.189,21.135,13.219,-31.37,-2.403,34.449,46.069,-24.443],[-75.662,-61.559,-15.795,-2.122,-15.951,-73.344,-59.054,-16.59,-6.759,-13.157,-71.698,-47.932,-12.007,-2.354,-12.378,-77.823,-27.284,13.167,0.447,0.848,-65.669,-38.213,13.935,20.617,9.723,-48.239,-26.727,28.479,-10.104,-5.935]],
"ve": [[-2.338,-10.221,-10.488,-8.7,-8.322,-9.683,0.691,0.669,1.339,0.155,2.12,-0.499,2.191,1.188,2.568,39.219,84.629,59.448,58.613,81.651,99.206,5.252,19.716,-87.994,-86.176,189.695,89.747,24.961,-16.413,-81.921],[-2.772,-15.143,-3.935,-24.524,-30.293,-1.109,-1.587,-6.137,0.163,-9.438,-1.779,0.332,-7.049,-0.061,0.174,55.116,43.042,10.353,9.435,1.124,18.896,69.666,25.664,-6.86,21.222,239.976,75.95,55.904,44.286,13.852],[-260.067,-19.894,-19.987,-17.385,-7.067,-245.454,-18.032,-8.661,-0.024,-7.05,-226.702,-16.527,-2.995,0.636,-7.148,3.45,32.141,22.726,22.159,0.358,1.097,69.515,63.558,9.921,16.054,90.906,73.789,104.991,28.25,37.554],[-255.21,-3.095,-18.44,-30.854,-26.31,-225.734,-2.791,-14.662,-15.73,-12.29,-177.726,-2.644,-14.307,-0.568,0.146,-89.669,44.672,9.672,12.231,8.135,50.285,26.918,86.545,41.094,61.947,182.984,78.262,100.327,81.335,54.291],[-186.726,-195.334,-3.05,-27.777,-28.354,-109.516,-197.003,-1.284,-17.747,-25.195,-101.53,-123.731,-1.269,-16.186,-10.719,-117.018,-83.316,4.227,0.776,2.948,-30.156,87.719,172.43,23.719,24.388,115.355,59.222,35.608,10.719,68.573],[-70.79,-358.328,-26.611,-1.904,-29.715,-76.303,-296.91,-45.328,-2.823,-25.817,-22.781,-240.837,-24.026,-1.161,-23.063,-76.272,-142.985,7.979,0.378,0.14,-138.889,-48.077,24.01,34.379,12.294,59.974,24.178,108.62,43.91,80.498]],
"kep": [[114.604,-0.233,0.283,0.547,0.747,131.414,-3.213,-1.775,-2.325,0.093,84.155,-4.118,-5.088,-2.204,-3.422,92.696,-56.395,-40.468,-26.952,-13.44,85.345,-139.466,-88.866,-94.482,-64.633,115.292,-241.386,-219.045,-209.741,-185.219],[-7.608,-1.457,59.927,-0.497,0.517,-1.147,-0.234,63.655,-1.547,-0.843,-4.525,-0.797,108.372,-3.847,-1.787,-24.13,-15.612,102.208,-45.426,-10.293,-9.98,-4.467,91.067,-104.577,-38.046,-28.29,-13.458,61.315,-200.683,-130.623],[-3.527,-3.017,-0.939,0.521,32.774,-4.04,-5.158,-1.144,0.435,57.452,-2.437,-3.811,0.109,1.087,129.959,-42.562,-10.347,-15.847,-20.186,113.183,-38.784,-41.145,-23.674,8.704,87.441,-42.314,-14.461,-20.878,26.274,16.734],[-27.035,-4.884,-2.278,-1.382,-1.231,-36.578,-4.595,-1.649,-1.237,0.572,-44.436,-8.144,-3.376,-0.045,0.628,-53.235,-16.118,1.506,-11.504,0.672,-61.003,-24.334,-14.369,-14.504,-43.578,-68.141,-28.568,-18.511,-16.867,-19.647],[-56.567,-5.454,-5.797,-0.963,-1.742,-59.003,-10.087,-1.189,-1.08,-2.588,-57.787,-13.196,-3.238,-2.141,-0.723,-62.053,-22.627,-7.728,-2.845,1.104,-69.111,-50.326,-40.942,-1.876,-11.736,-67.622,-41.142,-7.248,11.098,-38.415],[-73.958,-3.301,-8.169,-1.087,-2.069,-72.652,-10.721,-5.168,-5.203,-1.061,-70.979,-10.33,-5.607,-2.317,-2.238,-76.588,-27.718,-2.87,-2.488,-0.967,-67.757,-46.758,-23.266,-7.714,-5.064,-74.641,-51.172,-31.979,-32.258,-28.096]],
"vp": [[-26.378,-37.208,-55.395,-59.513,-74.668,-30.076,-27.539,-20.352,-35.449,-0.055,-27.334,-3.737,-22.983,2.311,-10.238,-21.606,-19.653,-24.067,-0.646,19.937,-30.802,-11.55,-1.082,-20.625,0.823,-42.049,-2.119,0.688,-5.205,1.162],[233.476,99.1,-21.215,-57.711,-101.109,31.733,13.315,-21.14,-15.356,-18.805,31.158,10.29,-28.801,-12.952,-17.208,-47.504,-30.893,-43.814,-30.219,9.161,-23.71,-52.569,-30.107,-9.813,2.58,-50.751,-36.397,-32.116,-6.375,-17.822],[316.21,413.644,230.607,52.098,9.782,94.844,83.43,40.117,13.598,-40.496,19.025,66.055,-5.685,-15.514,-29.23,-46.052,-26.79,8.783,-17.631,-42.81,-54.05,-15.873,-37.507,-25.838,-40.536,-32.524,-35.348,-51.293,-21.241,-52.603],[1438.23,635.009,432.881,342.769,108.168,397.704,116.32,133.23,46.084,-13.698,134.004,51.028,40.876,32.989,-0.852,-19.276,1.664,-8.627,23.107,-16.917,-0.079,-24.795,-29.336,-26.388,-29.856,-44.674,-18.814,-52.051,-34.839,-40.224],[2788.956,947.982,891.449,504.069,456.067,546.053,244.727,101.182,101.77,92.493,136.295,37.882,42.147,65.645,16.866,4.805,-4.23,-3.425,9.147,-14.133,-8.191,-2.68,-27.65,-36.649,-8.741,-29.602,-13.551,-36.398,-59.653,-46.107],[4723.984,700.964,1007.699,920.186,824.89,758.057,152.754,131.686,223.63,151.835,446.585,86.573,149.385,52.386,17.913,48.464,-23.606,-1.776,6.259,11.95,-8.798,-2.58,-30.394,-1.372,-13.819,-13.857,-14.114,-16.769,-52.309,-54.535]]
}