{
"KTrans": [[-2.314,0.999,1.943,1.727,0.89,9.16,9.641,6.37,5.653,5.505,23.723,19.689,11.485,10.577,11.253,151.911,92.43,71.337,65.957,59.718,372.027,220.077,174.866,149.325,141.892,998.421,561.127,439.39,389.488,358.444],[-5.065,-0.82,0.739,0.182,0.781,0.025,4.502,5.415,3.423,2.979,14.247,8.618,7.515,5.32,6.566,103.518,61.415,41.987,35.551,30.583,236.688,139.284,98.501,77.92,63.994,542.39,328.845,217.647,178.437,145.832],[-16.765,-1.515,0.039,-0.547,0.997,-12.391,1.549,3.042,1.163,3.641,-8.422,5.952,5.3,4.005,3.465,63.954,54.734,37.636,30.832,24.69,151.075,118.537,82.355,64.719,50.439,312.919,283.574,192.16,147.283,117.778],[-36.104,-5.617,-2.423,-1.812,0.557,-35.568,1.189,1.746,1.177,1.345,-20.213,1.938,5.709,2.746,2.99,25.785,50.161,36.768,27.249,22.944,85.976,112.431,78.663,58.363,47.644,200.676,242.195,175.757,134.19,108.702],[-43.313,-6.885,-1.445,-0.603,0.15,-42.253,-3.759,-1.23,1.457,3.249,-37.421,0.192,5.886,3.67,3.939,0.005,40.268,32.473,24.802,20.817,37.666,90.279,70.119,58.405,44.622,99.289,207.662,162.263,118.49,98.247],[-57.8,-15.1,-5.586,-2.807,-2.784,-53.578,-6.768,-0.33,-0.417,2.505,-51.503,-2.505,0.739,2.668,4.324,-22.425,30.916,29.682,26.112,18.413,22.635,72.924,65.672,53.216,46.639,59.321,168.593,143.763,120.472,94.085]],
"ve": [[1.235,2.339,0.837,2.559,1.548,7.128,2.429,0.629,-0.199,-1.755,9.003,2.786,0.005,-1.644,-5.627,46.774,14.728,-0.767,-10.198,-17.994,95.202,33.697,7.651,-7.678,-18.115,192.894,79.705,36.35,10.781,-5.964],[2.116,0.879,0.803,1.006,0.448,5.041,3.582,1.564,1.214,0.785,11.85,5.059,3.281,2.586,1.011,51.646,24.375,14.639,9.746,5.98,100.86,49.053,30.602,19.819,13.01,202.212,98.697,60.838,41.799,28.991],[2.324,1.299,0.804,0.388,0.483,8.01,2.384,1.783,1.119,1.125,-35.406,5.688,3.518,2.387,1.855,51.473,25.179,15.992,12.232,8.987,103.014,49.772,32.197,23.318,17.875,204.219,100.225,65.29,47.461,35.643],[7.373,1.408,0.679,0.475,0.54,10.816,3.052,2.25,1.337,1.068,12.132,5.297,3.695,2.478,2.084,52.632,25.629,16.969,12.453,9.456,102.795,50.348,33.194,24.508,18.855,190.124,101.229,66.552,48.676,38.255],[1.665,1.509,0.762,0.944,0.33,9.87,3.394,2.077,1.585,1.328,11.983,5.793,4.025,2.663,2.106,56.598,26.243,17.048,12.254,9.846,103.462,50.921,33.521,25.248,19.585,210.397,103.675,67.258,49.251,38.953],[-0.99,0.937,0.7,0.459,0.161,11.543,3.757,2.338,1.628,1.523,15.359,6.258,3.708,2.556,2.291,56.724,26.731,17.19,12.572,10.043,103.567,51.152,33.795,25.058,20.137,207.275,102.938,67.604,49.835,39.326]],
"kep": [[-2.744,-0.188,2.49,2.046,2.216,2.268,8.105,7.075,8.109,10.341,14.211,17.351,12.633,13.951,20.848,72.227,68.082,73.369,85.723,96.023,142.35,139.782,155.743,170.709,196.091,275.355,267.963,295.871,342.137,387.889],[-6.896,-1.577,0.013,-0.762,0.427,-4.752,0.949,3.833,2.28,2.258,2.178,3.432,4.138,2.73,5.586,34.292,29.791,23.877,23.541,23.269,68.018,60.594,51.997,48.494,45.113,112.643,115.723,97.417,96.331,90.548],[-19.113,-2.786,-0.741,-0.938,0.502,-18.599,-0.821,1.21,0.053,2.483,-18.918,0.23,1.69,1.576,1.578,8.352,23.554,18.563,16.547,14.407,23.57,45.917,37.893,33.548,27.562,35.956,91.461,76.628,67.63,60.526],[-37.935,-6.947,-3.103,-2.305,-0.009,-39.573,-1.805,-0.539,-0.202,0.246,-28.886,-3.206,1.87,0.234,0.853,-16.91,19.411,16.886,13.124,12.281,-8.484,41.258,34.065,27.101,24.172,-1.166,70.123,65.447,57.43,50.868],[-44.962,-8.337,-2.27,-1.583,-0.217,-46.232,-7.006,-3.329,-0.186,1.884,-44.237,-5.283,1.712,0.927,1.74,-34.617,11.083,13.09,11.119,9.945,-32.081,26.156,27.272,26.376,20.866,-34.86,52.06,56.66,46.253,42.603],[-58.551,-15.927,-6.273,-3.3,-2.998,-56.935,-10.257,-2.65,-2.086,0.92,-57.403,-8.325,-2.98,0.038,1.91,-49.816,3.332,10.532,11.905,7.518,-39.91,14.644,23.724,22.447,21.989,-47.815,33.018,45.494,47.071,39.189]],
"vp": [[-63.746,-81.104,-105.797,-74.932,-84.22,-92.215,-92.412,-85.48,-83.536,-91.735,-89.534,-87.261,-88.604,-87.652,-89.867,-89.829,-88.998,-89.665,-88.756,-88.898,-89.247,-89.032,-88.843,-88.888,-88.749,-89.423,-89.141,-89.046,-88.76,-88.974],[-18.897,-59.189,-83.284,-69.261,-107.613,-77.762,-88.784,-83.995,-78.867,-91.909,-84.494,-88.587,-92.498,-87.142,-88.71,-88.507,-89.869,-90.263,-88.959,-89.314,-89.082,-90.041,-89.784,-89.76,-89.15,-88.742,-89.962,-89.843,-89.214,-89.384],[135.037,-41.106,-59.352,-57.081,-55.978,-55.857,-79.478,-81.783,-97.421,-89.223,-73.043,-82.421,-87.468,-88.243,-88.02,-86.6,-89.677,-89.783,-89.652,-90.076,-87.86,-90.198,-90.227,-89.604,-89.922,-87.421,-89.72,-90.132,-89.492,-89.82],[208.889,-4.601,-34.532,-61.977,-55.255,-23.764,-73.756,-80.169,-88.23,-81.575,-63.316,-83.18,-84.076,-87.984,-92.85,-83.983,-88.399,-89.836,-89.141,-90.378,-85.293,-89.155,-90.477,-89.963,-89.768,-86.454,-89.329,-90.27,-89.895,-89.993],[294.1,81.894,-18.279,-93.309,-76.421,-9.957,-58.636,-75.465,-73.439,-83.264,-47.383,-77.237,-82.096,-89.336,-82.048,-81.67,-86.06,-89.852,-89.607,-90.738,-84.659,-88.607,-90.088,-89.487,-89.982,-84.998,-88.481,-89.902,-90.312,-90.229],[364.889,70.952,3.373,-8.909,-50.83,7.78,-41.915,-64.936,-74.513,-76.103,-35.797,-67.027,-82.226,-84.846,-82.682,-77.254,-84.827,-89.264,-88.493,-89.181,-82.973,-87.59,-89.261,-90.206,-89.633,-85.025,-87.514,-89.414,-90.429,-90.377]]
}