{
"KTrans": [[-49.164,-73.034,-87.958,-72.393,-81.277,-49.065,-64.881,-61.537,-61.639,-81.028,-32.609,-64.841,-76.15,-48.759,-62.303,14.633,-7.853,-8.69,-17.481,-25.427,92.362,25.305,38.948,33.916,54.223,255.883,211.686,136.832,114.871,157.722],[-58.474,-49.274,-43.404,-63.736,-65.793,-56.551,-38.002,-53.701,-65.932,-67.188,-51.293,-40.27,-40.582,-52.504,-54.976,-31.076,-4.254,-4.316,-27.884,-20.85,-8.147,17.708,37.133,16.892,-3.83,66.506,96.119,56.867,65.423,39.744],[-71.886,-48.426,-44.029,-40.072,-44.551,-68.345,-47.012,-45.414,-32.691,-30.431,-65.916,-48.852,-34.473,-29.963,-40.899,-50.336,-31.295,-19.38,-11.501,-12.575,-34.804,-17.484,-3.808,6.089,15.139,7.64,41.511,43.83,38.314,41.126],[-77.911,-60.255,-53.971,-42.812,-41.033,-77.223,-55.594,-44.298,-44.458,-45.491,-77.763,-54.546,-39.834,-36.44,-38.569,-68.309,-45.637,-33.961,-29.191,-20.435,-56.833,-32.101,-17.379,-13.851,-10.175,-30.279,12.541,18.379,18.695,28.059],[-83.265,-60.87,-52.953,-45.229,-48.986,-84.82,-64.367,-50.564,-43.893,-38.118,-81.94,-61.393,-47.041,-42.292,-41.985,-76.074,-58.128,-39.036,-31.32,-15.357,-65.235,-42.084,-34.068,-16.914,-21.132,-40.719,-16.827,-9.828,4.408,14.234],[-85.892,-69.946,-51.933,-47.088,-46.116,-85.431,-71.159,-54.359,-41.334,-45.542,-85.668,-68.397,-52.078,-43.14,-41.271,-81.787,-61.823,-45.69,-32.636,-36.948,-72.529,-53.343,-35.546,-33.172,-27.824,-59.829,-25.017,-18.564,-0.589,-4.917]],
"ve": [[-35.141,-11.051,-179.54,-48.133,-71.155,-52.253,-72.157,-53.378,-1822.038,-61.854,-47.537,-42.224,-61.803,-32.533,31.793,28.952,-25.77,-44.744,81.084,-44.253,-93.132,9.122,15.398,-7.246,-53.659,311.185,71.371,500.399,-1.203,-83.044],[34.371,-69.292,-41.849,-49.184,-10.192,-22.557,-16.287,-56.463,-46.048,-47.065,2.093,-43.873,-12.479,-39.096,-48.793,18.395,1.098,-8.792,-21.184,-29.987,91.773,-11.581,39.816,-8.273,-46.461,274.042,133.777,87.374,47.384,57.698],[-12.042,-60.162,-71.807,-45.371,-32.225,6.227,-53.478,-54.204,-30.449,-29.057,17.292,-56.154,-35.555,-34.314,-46.437,63.047,-34.838,-2.037,-7.645,-16.399,92.352,-15.639,-2.962,11.791,14.495,259.186,197.588,51.003,29.188,37.999],[-5.389,-62.69,-102.12,-63.488,-48.287,10.128,-56.193,-76.67,-38.703,-60.093,-12.286,-318.3,-56.522,-60.266,-52.322,52.302,4.467,-39.426,-42.227,-22.309,115.595,89.675,-13.595,-17.1,-15.953,250.772,151.983,31.02,18.193,29.044],[28.297,-59.399,-80.173,-73.146,-78.406,-3.515,-34.223,-81.362,-77.158,-43.031,15.735,-44.616,-66.002,-68.01,-68.672,286.948,-28.359,-56.465,-56.021,-24.947,108.722,37.09,-40.721,-17.154,-32.686,321.729,124.604,26.463,-14.156,14.858],[67.845,-26.305,-67.26,-87.966,-83.076,20.528,-29.037,-75.158,-68.402,-82.946,25.529,-39.808,-59.404,-83.433,-78.832,49.947,-2.038,-23.099,-45.503,-70.222,128.928,1.571,-20.477,-49.171,-56.653,207.467,155.393,25.248,23.474,2.728]],
"kep": [[-137.655,-59.417,-2.177,-34.954,22.471,-118.579,-94.886,-23.195,-106.091,2.849,-135.527,-63.844,-16.048,-16.571,-11.249,-103.402,-64.193,-70.147,-46.469,-21.427,-99.275,-85.622,-37.177,-70.674,-75.013,-90.773,-159.167,-124.705,-122.677,-148.505],[-87.458,-84.106,-124.056,-45.294,-0.297,-89.562,-95.015,-118.727,-60.524,-13.321,-90.393,-89.179,-127.046,-42.816,-22.296,-87.874,-79.915,-119.186,-62.134,-52.711,-83.609,-66.052,-126.559,-117.352,-64.432,-75.344,-67.668,-68.468,-123.498,-108.333],[-93.295,-51.951,-45.683,-83.171,-130.927,-97.713,-56.382,-47.986,-84.63,-132.636,-97.198,-57.046,-55.483,-82.707,-99.731,-95.406,-49.26,-59.334,-72.111,-108.505,-85.842,-51.849,-41.268,-79.735,-120.465,-82.221,-63.653,-46.047,-76.938,-79.093],[-95.597,-64.432,-32.236,-25.648,-54.32,-97.456,-57.901,-26.584,-27.455,-29.051,-94.656,-56.887,-32.383,-26.146,-29.424,-98.125,-68.77,-42.084,-26.065,-45.052,-94.106,-63.618,-44.205,-34.604,-39.885,-89.27,-72.699,-36.401,-35.185,-51.999],[-100.196,-61.344,-38.466,-22.93,-19.351,-98.799,-73.399,-35.224,-21.306,-11.75,-97.666,-67.442,-34.329,-20.694,-20.841,-96.665,-67.034,-33.837,-14.625,-13.854,-96.35,-74.462,-41.638,-33.34,-22.897,-92.554,-74.031,-53.691,-14.03,-28.648],[-101.468,-79.678,-42.476,-23.404,-15.226,-98.577,-78.331,-46.663,-27.816,-15.811,-98.487,-77.87,-46.973,-19.177,-10.512,-98.427,-76.684,-49.58,-27.917,-17.296,-96.13,-73.955,-48.228,-33.57,-14.711,-90.559,-78.727,-53.025,-38.528,-39.151]],
"vp": [[314.3,347.614,59.23,438.584,516.115,-107.426,-83.738,-11.581,-62.283,13.527,-35.851,2.32,23.444,62.305,3.91,-2.832,7.937,-12.755,-31.663,18.072,-13.344,17.444,-12.858,-6.318,-9.743,-13.316,-20.316,9.578,8.674,-8.668],[2523.186,517.242,537.122,-290.423,562.299,484.333,252.671,-40.439,-137.875,-0.824,237.055,73.869,-26.486,-5.257,-15.057,55.434,5.822,-20.78,7.253,-11.604,16.708,-1.975,-14.8,-9.64,-11.473,-7.889,-8.525,-13.83,-14.389,-7.777],[4459.843,2654.921,1396.569,745.665,396.776,1072.447,485.978,215.433,239.939,159.585,469.304,240.444,168.222,94.611,-27.979,75.877,27.36,40.415,-0.373,-6.243,21.861,2.398,0.131,2.581,-10.171,3.354,-7.017,-22.561,-5.732,-23.42],[5599.175,4563.303,1663.613,1918.251,1200.603,1135.816,988.901,406.886,276.76,81.317,563.159,419.86,272.344,178.665,49.524,123.582,119.296,58.045,-2.225,2.996,52.053,23.367,27.076,25.569,-1.411,11.144,6.909,-6.275,-12.519,-3.724],[7103.037,5891.325,4112.266,2587.111,1327.323,1326.347,1400.843,736.116,384.004,275.942,638.789,612.621,304.202,204.957,85.929,128.547,124.314,26.724,21.086,22.682,43.69,67.133,38.694,33.706,-3.372,12.619,6.335,5.364,-32.873,-11.482],[6377.573,8552.603,5567.356,3885.893,2449.587,1278.171,1657.256,1087.691,654.126,432.515,735.224,802.391,599.171,228.673,203.368,101.123,164.978,143.591,74.288,24.779,49.263,56.585,38.93,50.613,4.773,9.4,16.242,7.68,4.408,4.778]]
}