{
"KTrans": [[6.675,1.165,3.21,5.745,3.862,6.907,2.68,5.145,4.981,3.972,3.042,3.491,4.878,3.455,4.237,30.739,17.752,6.746,6.901,9.637,50.334,27.804,26.437,22.319,25.05,-41.673,88.663,57.596,45.656,53.135],[-20.141,-2.341,1.929,2.204,3.039,-19.668,1.371,1.583,2.553,3.244,-18.355,-2.125,2.148,2.829,3.734,-14.245,0.065,1.759,2.173,4.527,3.325,11.262,8.522,5.294,9.904,-25.655,42.698,32.828,30,22.369],[-51.361,-14.727,-3.759,-1.288,-0.206,-52.752,-13.474,-5.046,-1.208,1.331,-49.656,-13.392,-3.647,-1.916,-0.361,-50.261,-11.133,-0.055,0.629,1.181,-54.744,-14.039,4.04,0.346,2.325,-48.508,15.814,20.462,16.283,15.215],[-74.116,-23.337,-12.365,-6.803,-3.39,-75.407,-21.634,-8.717,-5.525,-1.849,-76.193,-21.692,-10.833,-6.152,-2.699,-77.632,-19.578,-8.248,-3.723,-1.76,-64.054,-13.749,-12.197,-0.422,1.23,-76.848,1.453,4.609,3.436,3.944],[-84.611,-28.371,-17.129,-12.149,-5.085,-83.628,-33.006,-15.209,-11.341,-5.024,-83.509,-27.671,-17.258,-13.28,-6.54,-75.542,-33.275,-11.667,-8.693,-5.934,-75.192,-34.582,-15.654,-7.302,-3.468,-76.676,-27.877,-5.42,0.561,-0.301],[-88.447,-47.162,-22.028,-14.96,-11.221,-89.99,-45.403,-25.239,-15.577,-10.048,-90.222,-42.671,-25.17,-15.681,-11.128,-84.787,-44.346,-20.681,-12.328,-10.888,-78.884,-54.894,-21.31,-9.461,-4.33,-92.617,-50.197,-31.374,-10.14,-8.495]],
"ve": [[2.146,3.338,4.95,4.245,11.886,2.809,1.952,4.165,4.091,10.715,5.284,5.268,4.736,8.895,10.736,15.325,17.406,-75.761,62.153,55.009,13.32,-1921.503,-46.086,-91.642,260.056,31.108,-1.032,-8.759,6.79,-59.152],[-8.111,0.133,0.335,0.914,1.33,-7.858,1.529,0.822,1.031,1.446,-6.493,-0.271,1.099,1.338,1.346,-1.652,0.902,1.094,1.687,2.246,19.372,6.827,4.579,4.45,5.223,16.756,30.206,15.289,26.452,6.059],[-28.481,-5.685,-1.862,-0.739,-0.098,-28.19,-5.46,-1.558,-0.671,0.483,-23.929,-5.97,-1.122,-0.405,0.026,-25.54,-5.773,1.53,1.113,-0.141,-32.966,-5.548,4.777,0.335,1.062,13.961,27.414,12.073,11.625,8.347],[-43.748,-10.637,-4.428,-2.238,-1.115,-47.532,-10.551,-3.586,-1.823,-0.672,-30.213,-9.255,-3.908,-2.263,-0.534,-43.874,-6.175,-2.591,-0.816,-0.217,-9.938,5.218,-5.254,1.632,1.658,-23.769,29.768,8.117,2.954,2.448],[-53.374,-14.64,-7.656,-4.194,-1.785,-53.411,-15.168,-6.194,-4.249,-2.117,-45.544,-12.485,-7.151,-5.695,-2.358,-37.997,-15.992,-4.221,-1.931,-2.012,-33.661,-15.377,-6.103,-0.379,-0.357,-24.352,3.24,11.435,17.562,1.381],[-71.609,-24.479,-9.724,-5.969,-3.833,-64.744,-20.936,-9.816,-5.822,-3.671,-67.008,-21.172,-10.042,-5.382,-3.881,-51.796,-15.863,-6.025,-3.19,-3.114,-22.457,-28.953,-6.63,-0.816,1.562,-41.415,-0.604,-7.353,-0.871,-2.257]],
"kep": [[-3.079,-7.982,-6.83,-3.475,-8.02,-3.59,-5.486,-4.428,-3.874,-7.986,-9.444,-7.655,-5.498,-8.489,-8.624,-0.489,0.812,-9.643,-8.328,-2.156,-19.964,-6.714,-3.923,-2.55,9.678,46.02,-11.332,-7.21,-18.916,10.419],[-21.243,-9.58,-5.594,-5.785,-5.34,-21.659,-7.541,-6.377,-5.574,-5.29,-22.374,-8.955,-6.074,-5.646,-4.732,-35.81,-9.979,-7.589,-7.267,-5.239,-23.685,-10.521,-7.756,-8.533,-3.668,-41.024,-21.329,-13.565,-1.166,-3.636],[-46.618,-16.612,-8.968,-7.57,-7.101,-45.304,-15.864,-10.485,-7.549,-6.239,-44.259,-15.197,-9.626,-8.479,-7.39,-58.738,-15.027,-9.447,-8.154,-6.205,-57.746,-34.639,-10.858,-9.768,-7.761,-60.689,-21.569,-16.674,-10.156,-6.965],[-67.778,-21.407,-15,-11.417,-9.195,-67.656,-20.608,-12.325,-10.659,-8.144,-72.121,-22,-14.137,-10.864,-9.072,-75.543,-23.944,-13.845,-10.388,-8.741,-70.793,-35.392,-17.642,-11.168,-8.914,-72.22,-34.34,-27.647,-17.151,-13.461],[-80.594,-25.392,-17.097,-14.954,-10.181,-78.828,-28.599,-16.87,-14.128,-9.842,-79.382,-25.897,-17.738,-14.729,-11.091,-77.857,-36.504,-16.065,-14.072,-11.156,-76.231,-53.109,-21.32,-15.433,-11.176,-76.794,-45.768,-34.053,-19.525,-14.673],[-85.188,-38.543,-20.915,-16.107,-14.279,-85.842,-37.933,-23.683,-17.038,-13.307,-88.224,-35.709,-23.54,-17.537,-14.193,-81.094,-46.634,-23.538,-16.613,-15.058,-80.569,-61.801,-25.105,-17.197,-13.778,-80.771,-59.845,-45.538,-29.223,-20.694]],
"vp": [[-122.593,66.827,-119.442,-238.937,-113.395,-27.782,-2.53,-37.79,-15.437,-32.116,-19.236,-18.984,-10.373,-2.907,-16.613,-27.103,-17.284,0.39,6.344,-7.503,-17.759,-6.546,-10.776,-8.624,-13.075,-12.492,-21.204,-12.135,-6.147,-12.67],[908.247,38.769,-155.878,-198.426,-332.64,173.062,-64.733,-41.883,-68.027,-63.26,75.753,6.028,-30.254,-35.74,-38.665,6.814,4.324,2.16,4.686,-5.233,-16.534,-7.537,-1.141,2.235,-11.871,-5.027,-27.853,-14.601,-21.327,-11.473],[3145.89,1124.004,411.669,234.966,40.819,629.563,230.747,98.304,34.787,-51.028,265.793,115.248,22.587,22.011,18.96,62.981,31.144,-5.392,-2.038,6.784,43.37,22.483,-10.261,7.527,4.544,-1.036,-26.76,-16.181,-13.277,-11.697],[4794.734,2256.303,1247.289,816.212,525.84,1037.21,425.73,206.203,146.69,52.946,520.505,193.041,101.896,86.843,18.084,108.843,34.105,19.209,9.123,6.943,15.216,-8.27,26.082,-2.635,-2.152,20.615,-20.944,-7.614,-1.002,4.23],[5864.865,3029.678,2414.6,1715.676,698.973,1127.248,664.361,356.274,320.954,161.567,597.172,249.076,220.784,234.954,115.22,86.241,72.911,32.647,18.741,25.36,41.349,40.571,26.368,6.379,6.071,18.593,2.813,-11.394,-7.752,4.048],[6363.179,5124.286,3029.419,2279.955,1753.57,1381.162,864.539,585.246,455.12,373.178,705.744,452.548,302.785,219.334,194.142,114.926,95.142,37.425,26.6,34.691,26.329,69.036,26.629,6.129,-8.673,30.033,6.879,18.698,9.207,14.362]]
}