{
"KTrans": [[4.446,2.711,2.309,2.017,1.934,14.332,9.164,7.715,6.632,6.161,28.424,16.903,14.325,12.875,11.41,154.3,96.812,76.811,70.483,62.942,114.94,204.096,166.408,146.405,143.051,-30.72,328.845,224.846,265.11,279.139],[8.245,3.451,2.598,2.061,1.849,16.329,8.433,5.944,5.071,4.202,34.187,14.301,9.977,8.363,7.333,25.659,79.774,49.8,38.887,32.616,16.457,200.672,112.786,78.184,70.328,-36.489,-59.42,212.188,186.458,154.336],[16.74,3.007,3.58,2.602,2.266,24.497,9.629,7.435,4.991,4.177,49.01,14.845,10.082,8.189,6.893,-26.018,90.99,50.381,35.355,26.982,-40.335,161.491,129.765,80.112,58.008,-48.442,26.355,168.859,169.298,124.094],[7.505,4.588,4.274,3.32,2.752,23.676,12.332,6.523,5.386,4.469,18.632,14.562,11.414,9.439,7.016,-55.339,94.475,42.868,37.603,27.252,-41.672,47.064,139.069,75.949,58.402,-15.883,-51.921,22.848,205.659,140.771],[-25.197,6.542,4.546,3.75,2.925,-28.156,19.728,7.948,6.338,4.707,-44.181,26.293,11.814,10.069,8.007,-54.471,116.657,60.081,37.162,26.965,-57.006,-2.655,127.653,91.867,71.551,-26.439,-11.308,-25.407,182.164,151.788],[-53.586,8.155,7.948,4.834,3.434,-61.526,14.958,5.809,6.808,5.509,-56.57,28.867,12.957,10.206,7.565,-81.361,36.121,75.279,36.669,27.47,-74.366,-39.892,151.784,100.976,65.03,-32.28,-10.928,-45.973,34.376,158.242]],
"ve": [[0.373,-0.598,-1.258,-1.842,-2.385,3.717,-0.085,-2.293,-4.012,-5.527,8.039,0.878,-3.069,-6.312,-8.506,44.64,13.285,-1.441,-11.542,-19.04,74.107,35.817,9.837,-6.231,-16.898,194.309,78.321,29.417,-16.653,-29.638],[0.835,0.062,-0.176,-0.377,-0.526,4.604,1.964,0.92,0.296,-0.151,9.764,4.256,2.301,1.172,0.352,49.383,23.657,14.04,8.775,5.13,98.643,49.169,29.817,18.988,12.471,200.074,97.238,63.199,43.092,29.662],[1.236,-0.081,-0.026,-0.205,-0.286,4.866,2.131,1.314,0.697,0.364,10.066,4.44,2.744,1.821,1.2,50.036,24.572,15.7,10.967,7.982,101.856,48.892,32.768,22.989,16.88,199.668,98.911,64.863,46.954,35.244],[0.692,-0.006,-0.014,-0.118,-0.207,5.391,2.287,1.198,0.776,0.494,9.707,4.422,2.926,2.108,1.418,49.849,24.176,15.566,11.727,8.859,102.466,48.22,32.987,23.729,18.384,195.411,100.324,66.007,50.469,38.205],[2.085,0.104,-0.046,-0.114,-0.219,-20.046,2.667,1.327,0.904,0.535,9.46,5.171,2.875,2.191,1.602,53.837,24.598,16.45,11.939,9.136,101.515,49.544,32.058,24.639,19.626,200.05,98.921,66.717,52.679,38.806],[-1.616,0.167,0.198,-0.03,-0.188,5.071,2.085,0.988,0.906,0.625,11.385,5.253,2.993,2.164,1.561,51.01,21.847,16.898,11.895,9.301,102.158,40.42,33.336,24.663,19.473,195.725,96.381,68.097,48.939,39.108]],
"kep": [[4.058,3.33,3.618,3.945,4.447,10.226,9.264,10.257,11.11,12.405,18.822,15.905,17.991,20.544,21.83,74.026,73.452,79.485,93.045,101.745,18.025,123.598,141.909,162.507,192.396,-49.16,144.9,134.073,215.04,288.342],[7.261,3.384,2.779,2.447,2.388,11.056,6.337,4.977,4.761,4.36,21.891,9.609,7.5,7.108,6.958,-12.648,44.55,31.164,27.624,26.153,-33.472,97.305,62.78,49.431,51.268,-66.898,-66.531,90.198,98.614,94.99],[14.686,3.05,3.601,2.812,2.559,18.018,7.286,6.033,4.262,3.799,34.116,9.86,7.127,6.25,5.624,-46.476,51.72,29.554,21.843,17.554,-64.302,71.251,71.015,45.756,34.97,-75.249,-29.285,61.45,80.864,64.404],[5.443,4.438,4.253,3.435,2.963,15.662,9.621,5.229,4.566,3.953,6.809,9.495,8.2,7.164,5.514,-66.621,53.905,23.178,22.903,16.819,-66.354,0.499,76.593,41.315,33.369,-66.818,-68.043,-22.037,98.714,71.928],[-26.214,6.054,4.51,3.843,3.142,-32.188,16.11,6.443,5.359,4.14,-49.321,19.526,8.55,7.67,6.29,-66.571,70.361,36.565,22.246,16.193,-75.048,-31.528,68.293,52.476,42.668,-71.36,-49.933,-48.32,83.745,78.052],[-53.42,7.188,7.518,4.81,3.605,-62.546,11.704,4.577,5.787,4.83,-59.136,21.429,9.456,7.79,5.88,-85.102,7.986,48.458,21.737,16.433,-83.664,-56.075,84.011,58.859,37.371,-74.189,-50.245,-60.943,-7.701,81.681]],
"vp": [[45.573,27.142,32.145,39.816,39.987,8.223,16.718,20.443,22.433,15.732,11.605,1.658,14.759,28.128,1.338,-15.129,4.532,5.923,21.748,12.306,-6.869,-2.653,-1.896,-5.467,14.856,25.304,-17.917,-8.73,-3.424,-6.843],[-292.666,-17.728,48.759,60.436,77.023,-50.04,7.978,20.779,45.007,18.893,21.459,7.269,7.677,22.782,17.039,11.308,24.051,16.064,14.291,9.896,14.057,22.441,14.984,-4.679,11.679,29.433,-7.631,-3.328,8.239,3.898],[-471.207,-319.005,-74.267,16.49,64.39,583.261,-57.79,30.599,6.167,15.84,358.931,-9.21,-7.154,22.24,25.35,62.933,37.259,28.126,17.26,-2.921,71.974,14.595,43.61,25.037,4.558,33.397,5.007,0.151,2.899,-8.701],[6830.231,-897.117,-395.561,-151.738,-17.338,1349.192,-240.975,-81.35,-0.518,9.537,618.105,-106.172,-19.209,21.082,23.163,144.914,38.204,-14.442,34.506,8.315,130.144,22.199,36.693,13.897,14.591,61.172,41.577,16.738,32.9,15.619],[8049.307,-3143.526,-1053.682,-538.1,-251.415,2416.894,-638.047,-229.335,-93.404,-34.996,1073.249,-269.351,-61.178,-15.979,17.716,233.611,49.728,40.818,20.036,2.288,157.928,40.228,-3.371,41.865,59.138,49.322,44.981,35.186,18.239,19.379],[13079.011,5957.136,-2465.751,-1112.438,-598.205,2279.935,1747.794,-310.749,-203.038,-99.837,1493.903,887.726,-209.95,-78.42,-52.967,192.455,138.941,113.631,6.983,-1.147,200.015,60.051,84.904,36.964,29.17,45.859,21.744,66.472,28.357,19.153]]
}