{
"KTrans": [[-10.558,3.017,7.811,4.243,0.42,-12.2,-1.655,0.396,3.697,5.189,-21.362,7.508,7.513,0.462,2.364,6.664,11.755,6.271,7.307,4.208,42.46,26.127,22.739,6.837,14.625,38.231,63.928,41.655,49.04,28.625],[-70.471,-2.48,3.881,0.82,0.333,-74.51,1.143,1.234,3.384,0.007,-61.892,-3.453,-1.53,-1.502,2.218,-59.918,-1.059,-0.984,-6.35,-0.359,-31.862,6.872,5.049,-1.543,-0.245,-16.426,16.985,24.642,10.428,6.965],[-91.746,-26.375,4.061,-1.797,2.813,-93.066,-20.684,-1.036,4.919,1.699,-92.65,-17.485,7.292,-0.638,1.314,-82.146,-23.747,0.983,-0.784,2.58,-83.89,-14.905,4.889,-0.669,0.091,-84.191,-10,20.322,10.086,5.023],[-95.914,-55.798,-5.606,5.463,2.397,-94.959,-54.092,-3.607,1.416,-1.43,-96.623,-57.981,-7.175,3.664,-0.605,-96.087,-50.759,-1.001,-9.09,1.445,-88.466,-45.098,-1.295,10.327,5.794,-84.362,-13.169,13.725,8.475,4.34],[-98.302,-72.369,-16.748,2.189,4.14,-98.683,-74.846,-22.499,4.492,1.32,-98.243,-78.612,-18.397,0.894,1.701,-95.028,-75.424,-14.701,-4.147,-0.256,-95.704,-67.32,-23.611,1.966,-3.073,-96.879,-52.621,0.802,11.893,1.177],[-99.631,-89.708,-42.152,3.008,5.034,-97.791,-83.322,-40.783,0.879,2.014,-98.352,-85.279,-39.91,-2.393,4.838,-100.036,-82.095,-36.394,-8.705,3.645,-100.668,-78.846,-22.634,7.354,9.202,-95.644,-65.293,-14.654,-2.109,13.735]],
"ve": [[11.909,94.047,11.141,103.304,9.715,-5.277,9.653,8.771,587.997,-42.089,-11.766,15.362,15.051,179.257,40.911,10.061,8.452,-298.196,-25.741,53.721,3.576,-22.702,-20.828,-39.187,-39.607,5.833,10.209,-24.326,-22.337,-31.724],[-22.776,-2.12,0.143,0.29,0.591,-47.318,-2.517,0.81,0.302,-0.617,3.338,-3.088,0.046,-0.436,-0.03,-39.169,0.904,-0.177,-2.193,1.067,-27.251,-31.785,1.596,3.482,8.037,-8.52,-0.148,2.551,-668.21,43.169],[-69.983,-16.676,-0.253,-1.218,0.161,-72.384,-12.764,-1.115,-0.402,-0.471,-76.254,-12.207,0.357,-2.247,-1.012,-71.105,-18.946,-2.439,-0.612,0.804,-59.169,-13.06,-1.659,-2.607,-0.636,-89.676,-31.39,5.617,-42.435,14.765],[-72.646,-34.057,-5.667,-0.222,-1.042,-35.112,-35.281,-6.041,-0.662,-1.166,-85.19,-34.105,-6.477,-0.484,-1.616,-90.435,-32.046,-6.767,-6.473,-2.23,-66.796,-31.764,-10.601,3.032,0.653,-61.148,-11.704,-2.649,-0.222,5.707],[-109.2,-54.468,-12.442,-2.19,-0.99,-77.494,-51.51,-12.521,-1.264,-1.451,-91.342,-61.063,-11.241,-2.207,0.046,-88.765,-82.346,-12.028,-4.223,-2.638,-115.328,-49.717,-23.662,-3.891,-6.635,-96.688,-42.852,-2.327,-9.594,-9.529],[-95.768,-74.52,-26.758,-3.105,-0.184,-82.229,-69.002,-23.847,-3.702,-1.391,-93.21,-71.036,-23.998,-5.673,-0.963,-100.96,-54.274,-28.735,-9.977,-2.812,-115.98,-15.874,-18.936,-9.051,1.09,-98.16,-38.788,-6.867,-7.781,0.646]],
"kep": [[-14.978,0.059,10.779,6.781,0.408,-14.598,-4.375,-2.405,3.308,7.297,-23.56,1.81,7.652,-3.025,0.104,-16.139,-3.036,-0.387,5.968,-3.748,-3.909,-7.254,0.278,-18.996,-2.093,27.919,18.06,-11.876,24.582,-12.894],[-69.664,-2.479,3.45,0.531,-0.012,-68.579,1.829,0.021,3.054,0.984,-64.269,-2.387,-2.606,-0.987,2.544,-61.265,-5.972,-3.154,-4.673,-1.042,-56.949,-10.141,-4.712,-6.934,-4.886,-50.028,-19.142,-10.123,-9.201,-7.048],[-92.297,-19.487,2.581,-0.958,2.516,-91.704,-14.718,-0.905,4.811,2.058,-94.85,-13.464,5.207,1.167,2.089,-84.816,-24.773,1.077,-1.805,0.977,-80.123,-36.195,-7.031,-2.172,-2.612,-71.036,-33.191,-10.127,-9.08,-6.236],[-97.057,-46.009,-2.916,4.696,3.099,-95.537,-44.202,-0.504,0.928,-0.651,-97.76,-46.508,-2.794,3.268,0.596,-95.649,-46.382,-0.35,-4.294,2.466,-88.796,-50.407,-7.511,4.411,2.302,-79.847,-34.29,-22.918,-4.969,-4.489],[-99.451,-66.78,-10.607,2.33,4.281,-100.427,-67.098,-14.976,4.658,2.253,-98.209,-73.542,-11.56,1.666,0.95,-96.805,-71.72,-14.804,-2.537,1.01,-92.923,-65.661,-33.154,-3.227,0.704,-85.376,-58.879,-32.002,-27.537,-12.389],[-98.546,-87.116,-28.315,3.617,3.851,-97.981,-81.765,-30.686,2.222,1.822,-98.59,-82.752,-28.808,0.749,3.744,-97.806,-81.671,-35.577,-3.908,4.897,-95.763,-80.853,-28.095,-0.549,5.982,-86.782,-70.244,-38.338,-23.32,1.511]],
"vp": [[868.346,253.591,112.613,50.823,72.766,155.59,81.865,24.685,-5.2,-38.204,126.057,-12.758,-43.905,24.251,19.579,1.553,-9.114,5.218,-0.251,-3.053,-1.974,-9.19,-11.322,0.254,-4.758,-7.346,-13.108,-8.527,-15.789,-6.724],[4994.706,823.668,180.942,2.172,24.228,1034.97,105.746,0.554,-6.562,78.82,382.629,78.758,34.485,51.161,10.823,68.996,1.007,12.065,36.1,11.445,29.159,-1.796,0.493,12.614,7.353,5.573,0.389,-8.727,-0.634,-3.206],[7683.084,3708.921,45.392,860.403,-90.118,1576.786,545.846,122.454,12.426,22.955,800.635,255.083,-8.955,87.954,31.451,126.253,77.683,12.826,12.105,-0.078,65.83,35.621,12.423,13.766,7.526,45.678,20.809,-9.267,5.697,7.422],[8698.153,7179.03,1772.635,66.66,392.22,1702.688,1482.722,370.27,83.601,126.621,918.895,729.605,196.701,2.861,62.469,179.534,140.951,46.629,59.382,20.125,79.192,49.02,33.495,-14.567,-1.32,30.682,10.168,-2.44,-7.037,5.772],[9830.03,11304.177,3672.113,794.393,332.474,1990.864,2252.806,794.73,84.396,151.338,972.88,1241.484,360.059,100.573,17.419,168.486,251.352,80.629,36.801,22.372,79.768,105.02,79.533,21.185,39.982,50.335,41.913,2.654,19.837,19.471],[10251.109,15427.109,8162.51,1245.112,-53.046,1885.768,2651.13,1459.343,289.429,147.836,980.719,1391.789,740.272,215.203,22.866,216.151,247.531,173.596,83.992,23.085,111.345,125.174,45.814,16.843,-10.394,52.372,37.711,9.989,16.885,-4.294]]
}