{
"KTrans": [[4.398,5.187,3.8,3.385,3.13,17.798,11.7,9.557,7.517,7.287,31.315,19.262,14.878,14.385,13.792,43.759,97.968,81.342,72.773,63.678,87.444,63.736,117.988,129.095,126.228,234.658,51.086,137.051,-6.967,60.703],[17.738,7.077,5.209,3.773,3.732,28.703,12.059,8.447,7.218,5.696,46.774,19.522,12.943,10.795,9.258,14.914,100.203,57.414,45.861,34.381,31.699,66.682,111.323,81.769,71.09,34.502,128.33,92.441,72.82,120.044],[36.095,10.855,6.466,5.742,4.366,22.136,14.035,9.991,7.807,6.344,30.08,22.132,14.383,11.025,9.488,13.588,93.58,60.072,43.64,33.166,-7.04,37.389,102.062,88.833,64.126,41.587,27.636,86.478,103.114,104.78],[-39.263,13.818,10.984,8.195,5.625,-31.463,21.902,13.048,8.694,8.215,-16.766,30.614,17.917,13.561,9.489,-13.082,18.945,84.257,42.296,30.749,18.07,4.909,14.955,90.172,78.031,10.315,22.742,41.576,37.247,87.369],[-50.319,40.865,15.35,9.498,7.173,-58.795,45.46,19.996,12.781,8.675,-53.469,63.721,20.984,17.098,12.188,-41.192,2.812,124.923,58.338,35.471,-34.841,-5.808,31.438,103.122,67.822,2.399,34.657,23.137,69.288,1.342],[-75.609,41.922,19.82,11.537,9.791,-76.231,35.99,27.454,12.386,10.791,-61.383,41.499,27.528,18.151,15.086,-61.882,-12.577,75.414,45.761,47.254,-50.639,-7.061,49.753,51.774,106.532,7.984,14.071,-3.365,-3.338,78.402]],
"ve": [[0.309,-1.806,-2.298,-2.947,-3.651,3.31,-0.989,-3.275,-4.286,-6.388,7.909,0.289,-3.013,-7.188,-9.786,38.577,13.072,-1.818,-11.419,-19.373,91.855,31.152,-3.622,16.249,-2.233,190.472,80.502,33.753,11.445,-114.95],[0.247,-0.25,-0.543,-0.675,-1.208,4.571,1.426,0.71,-0.411,-0.732,8.958,3.792,1.737,0.727,-0.529,48.858,23.583,13.834,8.561,4.537,103.673,44.546,31.66,18.736,12.127,209.046,96.418,59.195,39.267,25.856],[1.851,0.065,-0.409,-0.781,-0.75,3.694,1.604,0.893,0.299,-0.061,10.194,4.048,2.285,1.401,0.616,49.305,24.027,15.282,10.819,7.658,98.892,47.909,31.787,22.729,16.661,189.914,97.801,63.558,46.658,38.295],[2.863,-0.494,-0.242,-0.339,-0.658,6.27,2.027,0.742,0.231,0.129,11.303,4.253,2.56,1.544,1.151,50.008,24.238,16.164,11.16,8.252,96.403,51.765,31.031,23.359,18.443,197.447,104.248,67.383,48.204,35.502],[0.054,0.688,-0.15,-0.393,-0.475,3.734,2.253,1.367,0.655,0.258,9.001,5.024,2.612,2.005,1.189,48.326,23.423,16.26,11.952,8.96,100.402,49.341,31.751,23.902,18.421,196.697,99.321,63.459,47.356,38.57],[6.37,0.399,-0.198,-0.395,-0.51,4.03,2.346,1.47,0.514,0.301,9.73,5.598,2.682,2.107,1.429,51.421,24.34,16.036,10.899,9.34,103.171,48.904,32.857,23.344,19.412,196.868,100.928,68.767,48.562,39.28]],
"kep": [[4.303,7.352,6.628,6.937,7.793,14.198,13.007,13.538,12.803,15.214,21.668,19.107,18.741,23.707,26.833,1.486,74.558,84.863,95.586,103.804,10.998,22.251,92.993,138.329,165.001,36.221,11.976,95.956,-5.608,62.827],[17.109,7.362,5.806,4.491,5.023,22.542,10.505,7.698,7.68,6.498,33.817,15.102,11.031,10.018,9.868,-17.419,59.247,37.718,34.11,28.565,-25.913,17.847,59.884,52.542,52.245,-42.329,26.549,28.926,23.005,65.736],[31.511,10.668,6.898,6.586,5.166,15.631,12.104,9.002,7.496,6.417,16.746,17.067,11.819,9.491,8.824,-20.22,52.035,37.746,29.3,23.557,-47.788,-2.282,49.652,52.265,40.009,-45.378,-25.233,19.793,40.643,49.287],[-39.563,13.736,11.158,8.543,6.327,-34.311,18.933,12.116,8.417,8.074,-24.676,24.267,14.799,11.798,8.233,-39.39,-2.022,56.377,27.437,20.571,-37.188,-24.036,-8.838,51.644,48.773,-57.676,-30.851,-7.244,-0.051,36.165],[-50.069,37.745,15.199,9.841,7.653,-59.311,39.947,17.961,11.942,8.36,-56.476,53.029,17.407,14.65,10.825,-57.417,-15.073,88.22,40.176,24.022,-63.401,-32.119,2.667,61.025,40.243,-61.416,-26.57,-19.236,17.788,-19.95],[-74.307,38.131,19.152,11.76,10.242,-75.112,29.737,24.749,11.531,10.356,-63.489,31.872,23.194,15.412,13.365,-71.903,-27.407,47.603,30.146,33.895,-71.719,-34.82,14.289,22.352,69.19,-60.199,-37.243,-35.284,-27.905,29.235]],
"vp": [[174.83,313.053,214.266,86.646,139.919,18.262,23.042,31.201,17.281,21.254,5.273,-0.365,-1.729,1.267,10.514,-16.848,-20.425,-12.332,-1.145,-14.537,-26.246,-13.092,-17.884,-15.369,-8.093,-28.623,-21.931,-32.647,-8.232,-12.463],[662.723,590.255,487.026,534.426,545.033,104.772,97.406,99.782,93.215,111.064,24.793,36.584,40.704,56.214,48.799,2.531,-6.07,5.44,13.1,-16.686,-10.56,-37.197,-5.083,-25.919,-16.815,-2.814,-25.006,-37.581,-15.008,-5.461],[3171.096,648.484,685.655,827.371,716.486,488.08,62.721,129.222,142.939,157.864,279.587,7.731,46.945,70.435,81.081,-2.817,-9.707,-1.244,11.798,8.049,-3.989,-22.192,-3.279,-8.849,-10.668,-14.349,-46.047,-33.198,-29.451,-17.65],[5792.753,1082.954,824.583,1160.203,1148.865,1046.537,217.088,94.73,163.186,214.423,528.699,53.17,35.742,99.009,88.569,45.732,20.222,-13.599,-16.559,-12.943,-23.299,-1.921,-18.933,-23.529,0.379,-30.02,2.857,-17.422,-24.915,-29.511],[5473.357,2488.927,927.939,653.053,970.587,1162.453,415.727,191.934,197.021,201.511,576.736,278.67,18.07,73.857,104.471,56.923,27.579,10.477,31.729,-0.122,30.588,4.931,-27.842,-28.215,-19.768,-14.185,-18.635,-8.875,-39.295,-15.979],[7030.422,5496.887,858.689,1243.007,1214.355,1237.279,1063.361,116.428,143.33,267.711,565.453,529.988,88.346,127.347,98.93,98.795,116.649,-2.553,-11.274,34.705,40.703,26.117,11.768,-26.526,16.892,-18.335,5.915,11.136,-17.074,-9.346]]
}