{
"KTrans": [[35.353,8.9,11.815,13.998,13.784,22.983,8.883,19.758,14.54,13.152,9.675,15.263,13.32,15.049,15.893,32.111,26.409,23.357,26.348,26.791,55.606,48.512,45.927,34.674,32.29,135.17,108.124,83.767,88.072,73.175],[-42.489,-0.563,2.574,4.56,7.112,-41.234,-6.337,0.93,4.299,8.903,-41.242,-4.074,3.823,5.843,10.094,-25.492,1.403,10.13,9.645,11.982,-17.621,0.38,13.953,11.246,15.298,-1.919,17.493,31.879,26.463,31.744],[-69.46,-25.951,-12.985,-5.999,0.236,-65.603,-32.598,-13.369,-5.355,-0.044,-66.79,-28.514,-11.611,-4.622,0.46,-68.442,-27.553,-12.49,-2.325,2.657,-62.35,-25.01,1.447,-2.669,12.947,-50.807,-10.203,-2.393,11.233,15.979],[-82.906,-48.388,-25.707,-12.762,-6.519,-81.956,-47.017,-28.818,-14.11,-5.985,-80.512,-48.804,-28.211,-16.545,-7.239,-79.063,-42.846,-26.134,-11.882,-4.225,-69.391,-48.009,-20.177,-9.778,0.333,-61.719,-36.769,-20.753,-3.394,4.952],[-89.368,-58.316,-39.608,-24.611,-16.142,-86.906,-54.137,-41.222,-26.315,-16.632,-89.754,-57.674,-38.181,-24.662,-17.316,-87.016,-55.874,-39.126,-23.497,-13.729,-82.486,-55.261,-34.433,-22.062,-12.917,-76.739,-52.49,-36.893,-23.509,-12.422],[-93.004,-68.21,-48.648,-36.284,-24.759,-92.818,-67.907,-47.902,-35.643,-25.51,-90.779,-71.659,-50.315,-34.975,-24.951,-88.558,-67.049,-48.425,-34.422,-26.486,-86.387,-68.338,-44.805,-31.765,-20.907,-80.317,-61.362,-51.357,-24.077,-16.516]],
"ve": [[2.257,12.433,15.347,25.761,-12.477,25.599,32.86,39.141,-15.935,-65.024,-15.937,25.245,14.569,66.679,-64.159,14.266,30.835,-17.919,46.807,142.59,44.939,124.083,-19.884,-13.716,83.322,90.2,14.181,-32.091,-61.446,-2.09],[-16.291,-0.902,1.596,3.792,5.65,-16.108,0.18,1.706,5.122,5.751,-25.505,-2.151,1.583,3.813,6.555,-144.095,4.692,6.297,6.165,7.334,16.962,9.74,10.529,9.637,11.338,54.588,71.936,21.917,20.053,19.418],[-20.448,-9.845,-4.359,-1.387,0.832,-27.58,-10.701,-3.775,-1.112,0.927,-28.181,-9.06,-2.951,-1.153,0.572,-19.964,-3.079,-2.261,0.427,3.175,-11.498,2.187,6.707,4.855,8.297,12.453,11.907,11.873,13.142,12.245],[-53.545,-17.678,-9.849,-4.142,-1.983,-39.474,-16.387,-9.611,-5.737,-2.325,-19.795,-17.508,-8.908,-5.596,-2.424,-82.16,-11.292,-4.997,-2.345,0.601,-6.392,-8.821,-0.211,2.976,2.887,10.805,7.972,7.186,9.045,9.799],[-54.971,-22.809,-15.169,-8.885,-5.924,-41.519,-19.617,-15.385,-9.298,-5.744,-55.611,-22.92,-14.906,-8.717,-5.418,33.49,-16.567,-11.521,-4.183,-2.662,0.427,-12.571,-4.459,-2.872,-0.705,1.525,-82.408,0.605,-0.154,3.04],[-60.399,-28.168,-19.68,-12.782,-9.398,-52.047,-27.024,-18.476,-12.742,-9.71,-56.58,-31.334,-20.177,-11.745,-8.36,-103.678,-36.678,-14.65,-9.53,-6.45,-20.435,-17.416,-7.791,-6.057,-3.141,23.742,-0.485,-7.247,5.485,2.905]],
"kep": [[-8.047,-26.048,-30.319,-30.177,-37.17,-18.834,-27.532,-21.479,-32.364,-42.254,-25.201,-22.523,-26.991,-27.983,-35.501,-24.947,-17.933,-21.508,-21.101,-20.848,-25.007,-12.21,-13.782,-21.676,-21.376,-24.41,-0.612,-2.968,15.382,6.619],[-54.681,-26.543,-25.397,-25.425,-24.813,-53.864,-31.729,-26.831,-26.532,-23.639,-52.551,-28.147,-24.472,-24.441,-23.414,-52.362,-29.745,-23.883,-23.752,-22.736,-56.855,-34.483,-24.63,-25.478,-23.223,-66.423,-37.254,-22.997,-23.089,-18.21],[-73.823,-40.63,-33.265,-29.817,-26.748,-70.352,-45.547,-33.791,-29.535,-27.02,-70.206,-43.224,-33.22,-29.031,-26.418,-75.567,-46.496,-34.655,-28.577,-26.733,-78.846,-47.881,-31.173,-32.358,-23.492,-82.068,-50.169,-38.591,-30.124,-25.008],[-82.982,-54.848,-39.789,-33.165,-29.838,-81.999,-54.774,-42.53,-32.955,-29.088,-82.165,-55.475,-42.366,-35.128,-30.046,-84.022,-54.18,-43.24,-33.707,-30.052,-83.11,-60.583,-42.51,-35.846,-28.463,-84.639,-62.091,-48.407,-36.253,-30.777],[-89.478,-61.616,-48.404,-39.236,-34.476,-87.444,-59.622,-49.69,-40.469,-34.95,-90.07,-61.015,-47.23,-39.628,-35.824,-90.278,-62.849,-50.387,-41.534,-34.826,-90.107,-64.503,-50.339,-41.501,-35.733,-90.991,-70.806,-56.172,-45.444,-38.817],[-93.12,-68.988,-53.848,-46.543,-39.198,-92.684,-68.957,-53.669,-46.178,-39.543,-91.416,-71.511,-55.205,-46.122,-39.94,-90.478,-69.56,-56.795,-47.333,-42.344,-92.88,-74.454,-57.162,-47.297,-40.212,-93.435,-77.366,-64.347,-48.555,-41.474]],
"vp": [[-883.44,-14.206,-170.684,-659.981,-457.067,-83.903,-24.336,-142.038,-135.7,-96.275,3.149,-35.781,-27.224,-4.037,-78.497,-11.159,-2.31,-5.899,-5.528,-1.507,-5.842,-9.893,-15.858,6.728,1.648,-24.201,-14.042,-8.012,-10.654,-6.179],[2490.278,-171.157,-14.289,-162.038,-475.862,467.666,31.755,-36.585,-50.213,-92.455,221.934,43.136,-24.012,-30.391,-88.913,25.403,7.486,-13.923,-5.727,-7.797,5.551,8.799,-8.697,5.372,2.702,-4.592,-0.573,-8.14,-1.798,-8.573],[4341.684,2294.291,1331.408,472.256,19.922,738.451,557.532,232.591,122.787,42.382,433.299,224.952,108.532,80.173,13.38,93.011,44.13,43.013,21.794,-4.394,41.587,25.93,-2.323,15.79,-27.576,14.345,1.178,11.774,-0.245,-5.602],[6015.557,4653.395,3126.152,1301.458,891.583,1234.155,803.769,587.157,368.744,96.761,518.893,470.384,315.889,231.04,107.287,105.251,82.665,59.215,41.329,8.789,40.181,56.302,26.903,7.771,3.68,4.9,20.092,17.602,4.376,-3.539],[7034.803,6135.867,5068.621,3433.109,2427.576,1212.651,993.404,1098.976,786.028,526.131,698.554,602.529,525.528,355.262,296.338,130.753,109.454,110.063,52.004,40.769,67.064,62.798,39.059,37.477,21.404,29.977,22.998,35.939,32.022,21.246],[7551.656,7448.975,6783.202,6159.224,4602.302,1656.599,1506.397,1273.852,1135.242,1020.873,711.44,862.115,735.733,541.161,437.923,124.729,164.944,132.733,112.559,95.545,68.661,86.499,53.113,53.396,33.832,23.849,27.222,48.937,5.631,14.458]]
}