{
"KTrans": [[-24.22,-0.875,2.184,-1.51,0.016,-38.85,-17.409,-4.183,-8.995,-5.886,-32.76,-6.154,-10.198,6.61,4.579,-31.555,-5.262,1.105,-3.998,-0.988,-33.396,-6.106,3.271,-2.129,0.934,-29.021,-5.654,-2.076,-4.699,-2.994],[-90.469,-44.164,-20.381,-17.534,-10.066,-87.225,-45.553,-24.131,-18.45,-16.36,-81.784,-41.928,-20.068,-14.769,-12.054,-92.446,-42.636,-24.932,-19.63,-14.251,-86.455,-50.688,-24.403,-15.892,-9.002,-90.455,-48.26,-26.842,-12.055,-14.746],[-99.159,-77.814,-55.811,-24.056,-25.018,-98.339,-74.056,-42.357,-32.161,-22.12,-98.563,-82.534,-46.351,-22.14,-20.351,-96.111,-59.003,-40.531,-29.395,-20.584,-94.832,-74.241,-36.521,-36.516,-21.441,-95.527,-82.449,-42.964,-29.917,-25.071],[-100.949,-73.896,-64.85,-44.1,-36.94,-101.317,-89.697,-74.271,-43.281,-28.196,-99.25,-91.033,-68.526,-45.976,-29.899,-101.961,-91.62,-60.846,-34.862,-31.712,-100.956,-88.555,-68.371,-43.583,-27.273,-96.058,-80.562,-69.361,-45.616,-27.811],[-102.489,-94.716,-74.933,-52.656,-37.301,-102.443,-92.583,-78.889,-65.108,-26.646,-100.557,-89.713,-85.485,-62.019,-33.755,-102.381,-91.717,-89.573,-57.349,-49.029,-101.658,-91.784,-86.362,-62.025,-36.583,-100.528,-96.349,-71.344,-59.103,-46.898],[-102.596,-99.13,-84.282,-52.647,-54.956,-103.802,-102.276,-86.957,-65.609,-59.185,-104.098,-96.171,-86.225,-64.093,-31.057,-100.545,-98.06,-80.368,-74.339,-48.89,-103.498,-96.445,-90.066,-79.822,-32.715,-102.548,-97.09,-82.018,-69.874,-62.027]],
"ve": [[-5.678,14.665,-813.364,-304.187,-11.95,-21.476,24.605,49.339,-54.421,212.734,-21.388,-11.132,18.022,54.635,7.377,-33.771,25.306,-62.089,6.774,-46.238,6.727,-68.103,-5.039,46.744,69.144,-8.786,-10.346,22.182,23.411,35.141],[-23.744,-33.155,-16.291,-11.328,-4.819,-75.362,-34.851,-15.488,-10.117,-6.74,-65.801,-36.61,-18.016,-10.107,-5.955,-76.86,-30.56,-19.786,-11.353,-5.42,-68.055,-39.069,-16.634,-10.275,-6.554,-70.2,-31.71,-16.317,-12.084,-5.444],[-108.918,-59.399,-39.4,-22.455,-18.892,-99.751,-62.557,-35.713,-25,-19.311,-104.585,-77.436,-19.898,-23.789,-17.892,-84.7,-59.119,-35.544,-23.351,-17.843,-92.018,-63.923,-26.173,-26.805,-16.997,-67.435,-57.675,-35.94,-25.631,-17.788],[-100.885,-68.141,-53.784,-39.297,-30.157,-107.986,-84.096,-61.14,-39.85,-26.628,-89.223,-88.802,-57.612,-36.882,-29.698,-111.156,-90.479,-54.861,-34.354,-29.79,-114.796,-81.018,-54.434,-37.715,-27.007,-91.751,-74.152,-58.46,-41.5,-25.471],[-108.592,-87.299,-69.432,-47.334,-39.391,-105.048,-101.726,-65.168,-54.487,-31.083,-104.974,-87.585,-73.928,-55.947,-36.033,-101.596,-133.702,-78.862,-50.619,-42.632,-106.038,-89.43,-77.184,-56.432,-37.405,-104.167,-36.284,-75.65,-49.036,-40.123],[28.974,-102.445,-78.768,-53.343,-52.98,-120.455,-100.365,-86.131,-63.433,-52.99,-123.09,-90.919,-76.514,-59.981,-40.714,-94.517,-102.312,-8.653,-66.02,-50.805,-107.598,-90.419,-78.239,-67.57,-43.749,-119.495,-96.347,-68.562,-56.552,-54.79]],
"kep": [[-22.764,-5.72,2.963,-11.46,-9.825,-32.74,-19.286,-8.026,-22.263,-21.429,-29.689,-6.873,-14.008,5.402,-0.239,-33.831,-5.166,-0.081,-15.844,-9,-38.65,-6.323,1.316,-9.608,-5.025,-32.508,-3.533,-7.635,-15.695,-12.538],[-91.285,-24.858,-6.426,-7.416,-5.509,-87.007,-23.26,-11.682,-9.946,-9.597,-91.567,-17.839,-3.685,-6.775,-5.733,-92.202,-21.637,-7.892,-8.849,-9.096,-88.394,-32.593,-10.296,-7.063,-2.89,-90.859,-30.155,-11.999,-0.007,-9.252],[-93.608,-72.676,-31.14,-5.884,-7.882,-93.937,-61.224,-16.899,-10.849,-3.803,-94.183,-74.919,-14.853,-1.841,-3.157,-92.078,-68.249,-19.44,-10.2,-4.828,-91.753,-68.939,-11.199,-14.554,-6.875,-93.394,-75.508,-22.444,-7.088,-9.987],[-93.491,-88.478,-41.378,-17.165,-10.06,-90.664,-88.763,-54.466,-14.277,-4.474,-92.758,-87.292,-49.997,-16.431,-2.786,-92.681,-90.632,-52.708,-9.501,-6.356,-91.611,-86.976,-52.952,-15.163,-2.947,-93.234,-82.968,-68.97,-19.708,-6.676],[-89.954,-89.071,-80.808,-27.839,-7.366,-90.404,-89.308,-73.5,-46.65,-6.023,-92.684,-88.792,-80.759,-37.543,-5.629,-93.5,-84.415,-88.627,-32.18,-13.88,-92.619,-89.114,-82.024,-48.74,-7.481,-95.384,-86.743,-78.823,-32.51,-15.959],[-95.743,-86.059,-85.066,-51.543,-26.212,-93.221,-82.468,-83.235,-64.055,-26.962,-93.134,-86.625,-84.778,-57.936,-19.247,-93.543,-89.351,-79.847,-75.941,-22.145,-93.764,-82.757,-82.953,-69.319,-20.314,-96.058,-88.47,-81.318,-65.179,-33.439]],
"vp": [[2670.675,1943.93,1960.972,2546.231,1811.304,558.516,382.16,404.99,475.901,539.576,275.383,200.554,179.81,212.054,183.954,61.042,41.501,38.125,52.668,34.832,28.866,19.158,23.32,19.65,19.043,11.791,12.479,8.748,8.901,6.608],[8328.184,7492.771,7024.413,6875.659,5866.914,1507.093,1705.325,1106.728,1290.302,1628.793,837.16,889.865,767.056,574.015,653.34,163.083,158.768,157.888,150.514,121.515,75.704,88.662,61.198,59.227,70.239,38.737,40.543,37.049,37.359,39.652],[10567.957,12909.614,13088.075,12218.248,11148.259,2072.278,2749.961,2385.231,2517.133,2579.772,1021.052,1460.921,1390.659,1182.809,1152.028,188.569,238.568,246.325,222.345,221.725,94.958,130.06,116.97,122.2,106.572,46.388,67.089,56.608,60.146,57.844],[10601.693,14453.098,17903.595,17280.928,17213.73,2114.674,3289.259,4096.22,3561.488,3135.983,1022.012,1637.439,1852.031,1599.847,1736.51,230.041,338.989,352.575,302.993,364.616,106.035,168.073,178.235,165.504,164.325,44.026,76.614,95.594,85.498,71.14],[11071.09,18385.282,22471.521,20195.314,22762.356,2046.302,3751.493,3952.523,4577.299,3249.984,1052.011,1825.992,2325.27,2405.494,1975.236,231.66,374.27,483.332,444.57,472.612,104.828,177.889,250.37,230.988,200.352,51.504,98.512,110.825,106.674,109.034],[11779.718,20870.533,24308.062,23036.043,29591.367,2617.919,4271.954,5182.129,5293.146,5710.51,1220.748,1856.84,2536.994,2393.546,2189.003,200.975,396.371,423.188,556.005,579.148,113.837,180.971,255.446,279.628,235.047,62.268,103.905,108.229,132.074,144.743]]
}