{
"KTrans": [[-5.095,-1.351,0.161,1.103,2.655,-6.367,-1.909,1.911,4.006,2.117,-2.02,-1.441,0.393,3.21,4.787,20.655,20.95,10.487,13.829,13.728,56.186,33.874,27.408,24.795,20.224,95.726,87.101,63.116,43.412,50.326],[-57.066,-3.462,-0.621,-0.724,0.15,-49.701,-4.014,-3.407,-2.458,0.251,-48.537,-3.77,2.251,0.529,2.925,-47.855,7.374,5.333,6.656,7.153,-34.77,16.944,20.297,16.93,12.709,-6.782,45.983,35.659,30.713,21.517],[-79.501,-18.192,-4.024,-3.748,1.413,-76.841,-15.034,0.727,-0.766,1.214,-78.23,-11.268,-1.12,-0.493,2.487,-71.027,-1.763,4.447,2.473,4.579,-64.191,6.132,12.309,13.304,8.791,-58.115,18.696,30.032,21.905,23.186],[-89.45,-29.122,-8.264,-3.701,-0.283,-89.483,-26.1,-4.728,-2.62,-0.37,-88.095,-24.651,-10.451,-0.446,-0.951,-84.969,-23.854,0.126,2.513,5.468,-83.528,-15.151,6.137,10.708,8.349,-68.62,-9.333,23.617,24.36,23.257],[-92.456,-45.72,-13.516,-4.186,-2.112,-92.588,-42.616,-14.445,-3.709,-3.65,-93.565,-42.675,-10.014,-4.925,-2.622,-91.532,-38.811,-6.492,1.177,2.897,-88.838,-36.022,5.805,8.325,6.058,-85.386,-27.834,9.746,12.9,20.462],[-95.385,-58.157,-17.037,-6.569,-3.278,-96.039,-56.78,-19.414,-7.428,-2.279,-94.526,-58.798,-15.08,-5.391,-3.104,-95.223,-52.373,-15.06,-0.793,1.446,-92.818,-50.058,-10.904,1.386,4.648,-89.28,-43.36,-4.891,10.743,14.993]],
"ve": [[13.164,6.178,13.766,11.471,43.194,2.454,12.01,17.228,11.214,20.094,11.455,12.766,17.546,18.544,18.516,13.457,-4.197,14.962,4.401,-3.267,26.951,7.132,4.811,5.968,5.296,37.677,14.71,6.567,8.353,0.03],[-15.442,-0.952,0.069,1.204,-0.031,-11.274,-0.333,1.152,0.54,0.741,-63.269,0.732,1.3,0.897,0.385,-10.398,4.865,3.551,3.082,1.405,-2.734,8.4,7.182,5.801,2.809,36.285,22.257,12.785,8.766,5.552],[-31.726,-6.368,-1.093,-1.382,0.625,-27.827,-5.668,0.241,-0.462,-0.128,-22.647,-2.624,-0.217,0.037,0.621,-13.627,2.311,2.334,1.724,1.648,-12.079,4.99,6.895,5.681,3.796,-13.224,17.712,12.168,9.425,8.952],[-35.135,-10.627,-3.062,-0.667,-0.631,-36.275,-8.603,-0.898,-0.717,0.334,-41.692,-9.223,-2.533,0.036,-0.649,-14.72,-6.446,1.14,1.414,1.93,-96.57,0.632,5.021,5.406,3.946,13.799,5.881,14.286,10.978,8.564],[-45.077,-17.102,-4.157,-1.732,0.075,-46.784,-15.583,-4.543,-0.903,-0.609,-48.983,-17.876,-3.945,-1.122,-0.555,-35.162,-12.695,-1.027,1.331,1.365,-56.561,-6.738,4.366,4.564,2.536,-13.934,4.086,10.735,7.633,8.595],[-51.156,-24.235,-6.761,-2.182,-0.562,-50.855,-24.979,-7.255,-3.323,-1.159,-57.973,-22.857,-5.643,-2.253,-0.996,-46.766,-17.891,-5.2,0.771,1.599,-41.502,-14.623,-0.798,2.612,3.984,-17.962,-5.749,4.64,8.184,8.029]],
"kep": [[-9.814,-3.26,-0.723,2.572,3.053,-11.294,-4.498,-1.433,7.361,1.657,-9.038,-5.342,-4.637,1.443,7.619,5.667,13.759,10.222,16.784,24.619,23.67,28.252,28.131,30.153,33.191,19.66,61.397,56.798,49.48,71.193],[-51.324,-2.324,-0.503,-1.419,0.5,-46.378,-3.739,-4.335,-2.459,-0.12,-43.458,-4.626,0.976,-0.138,3.138,-46.665,2.442,1.916,3.726,6.077,-43.454,7.334,12.118,10.648,9.811,-38.929,17.888,19.111,19.578,15.145],[-73.997,-12.681,-3.062,-2.259,0.841,-72.659,-9.435,0.388,-0.183,1.464,-74.547,-8.828,-0.943,-0.419,1.882,-69.226,-4.58,2.045,0.68,2.92,-66.392,0.134,4.847,7.004,4.847,-73.744,-1.263,15.514,10.945,12.832],[-86.953,-21.612,-5.504,-3.213,0.442,-86.093,-19.378,-4.07,-1.935,-0.697,-85.01,-17.555,-8.036,-0.499,-0.334,-83.683,-19.192,-1.095,1.081,3.464,-83.88,-17.5,1.104,4.881,4.222,-78.766,-22.1,7.423,11.818,13.321],[-89.502,-35.824,-9.663,-2.526,-2.203,-90.236,-33.344,-10.225,-2.9,-3.088,-92.092,-32.278,-6.157,-3.767,-2.122,-90.601,-31.551,-5.498,-0.234,1.512,-89.592,-33.321,0.859,3.494,3.225,-90.565,-36.615,-1.898,4.593,10.854],[-93.606,-47.101,-11.335,-4.601,-2.867,-94.322,-45.847,-13.526,-4.204,-1.149,-92.718,-48.059,-10.288,-3.233,-2.149,-94.606,-43.807,-10.335,-1.703,0.057,-93.661,-45.652,-11.002,-1.197,0.53,-93.025,-45.623,-11.482,2,6.226]],
"vp": [[131.254,168.194,60.233,62.398,-225.369,0.987,5.14,0.114,-27.108,-14.525,-6.912,15.258,-23.052,-21.036,-33.634,-17.887,-24.791,-17.263,-26.008,-20.8,-19.706,-16.639,-19.466,-21.282,-17.585,-19.182,-22.204,-21.267,-18.55,-22.388],[2187.924,530.631,163.838,-99.491,53.735,389.927,83.93,49.479,-16.784,6.232,154.924,34.318,-11.608,-1.944,-43.115,26.869,-13.587,-15.994,-19.603,-19.882,2.539,-18.285,-21.518,-24.466,-19.898,-12.357,-22.25,-19.386,-20.793,-18.285],[3832.248,1662.954,316.04,611.44,88.552,717.712,228.306,-22.467,73.487,-8.44,354.156,71.787,22.879,-0.494,-11.809,53.955,-1.534,-13.8,-11.37,-18.792,17.671,-8.138,-20.386,-23.324,-19.638,-1.938,-14.318,-18.591,-20.16,-25.051],[4726.627,2535.174,941.398,359.535,219.644,967.821,400.936,102.013,101.279,-23.259,454.857,194.3,111.29,17.231,22.444,73.247,27.905,-8.55,-10.069,-13.615,30.133,0.365,-14.208,-19.1,-16.871,-0.845,-7.926,-20.095,-21.483,-22.165],[5003.15,3969.945,1536.814,995.139,113.338,1090.551,677.482,326.338,111.579,113.201,542.409,394.403,128.614,68.504,36.512,93.305,57.406,13.923,-9.288,-8.66,37.083,18.42,-11.649,-16.901,-13.473,7.876,-1.868,-15.676,-13.705,-23.421],[5830.087,5218.019,2126.8,980.794,435.623,1203.135,1046.483,449.047,276.183,163.335,536.845,524.138,197.127,116.894,50.652,105.969,80.611,32.996,-1.656,-7.425,41.05,32.945,6.361,-8.588,-20.988,13.23,6.817,-4.81,-15.613,-19.724]]
}