{
"KTrans": [[9.488,21.162,14.815,17.881,21.257,9.793,16.94,19.54,14.146,18.256,29.472,33.405,21.882,21.733,17.688,59.591,31.508,33.783,36.237,36.098,87.964,76.486,59.474,59.418,52.834,105.975,117.07,109.834,96.466,105.006],[-45.778,-6.959,0.399,5.346,8.267,-49.443,-9.069,5.859,9.524,9.13,-47.97,-0.63,1.107,8.428,14.803,-34.415,-3.046,12.268,16.873,13.982,-21.721,14.448,13.98,27.025,23.355,-20.562,36.672,40.818,44.492,39.496],[-72.3,-30.631,-13.75,-7.04,1.879,-75.762,-28.211,-11.925,-3.568,2.085,-69.031,-34.541,-14.242,-3.643,5.029,-65.777,-24.826,-6.36,3.48,4.442,-47.276,-23.9,-9.651,4.821,6.779,-28.632,-5.641,12.141,21.007,20.023],[-80.759,-50.669,-30.136,-20.141,-11.075,-84.096,-50.112,-29.767,-17.059,-7.639,-81.915,-50.653,-26.046,-17.238,-11.554,-79.328,-42.193,-29.849,-13.783,-6.206,-68.699,-42.886,-21.639,-7.68,-4.782,-60.629,-35.906,-10.694,4.225,5.183],[-92.857,-62.269,-44.339,-26.896,-20.385,-88.046,-63.533,-42.402,-27.867,-17.817,-86.994,-61.309,-45.486,-29.78,-19.189,-78.219,-63.111,-37.006,-24.464,-15.99,-81.957,-60.312,-36.996,-23.902,-12.252,-80.715,-50.423,-30.869,-13.743,-4.203],[-93.112,-73.664,-49.338,-40.568,-28.117,-90.18,-66.701,-49.918,-42.626,-25.47,-90.841,-69.239,-50.241,-34.727,-29.519,-88.183,-69.585,-50.958,-37.865,-27.201,-81.417,-67.766,-50.873,-32.08,-24.619,-86.74,-51.301,-43.609,-29.099,-18.129]],
"ve": [[192.917,283.64,-331.901,7.723,-22.282,-99.735,-270.599,-24.453,17.48,49,-11.074,67.995,12.193,-44.001,21.552,-14.839,44.712,31.098,-35.372,26.509,-16.781,202.341,-104.707,2.042,-17.094,57.747,21.149,6.361,-11.412,70.991],[-32.034,-1.37,0.783,5.348,9.329,61.874,-1.153,2.552,5.822,10.603,-55.232,0.881,3.632,6.792,7.667,5.493,7.893,9.994,9.406,11.33,43.597,19.575,10.127,15.607,18.358,52.488,27.705,15.002,-16.643,-26.135],[-12.244,-11.182,-5.409,0.095,0.593,-16.586,-8.886,-4.253,-0.46,0.717,-17.342,-10.19,-4.338,-0.319,2.733,-13.372,0.062,3.224,4.397,3.984,21.26,9.536,9.949,7.568,7.94,84.691,25.636,16.775,41.212,17.961],[-25.87,-16.229,-11.549,-5.431,-2.896,-12.957,-19.83,-9.054,-5.599,-2.888,-54.153,-12.55,-8.632,-4.358,-3.446,-36.126,-7.41,-5.957,-1.319,-0.589,265.869,1.241,19.605,4.054,2.672,32.543,14.285,14.944,18.836,15.442],[-50.556,-24.419,-15.769,-9.4,-6.945,-34.685,-18.505,-14.477,-10.095,-6.329,-41.546,-21.962,-16.102,-9.905,-6.626,-20.619,-5.423,-8.826,-5.749,-1.588,-12.639,-33.986,-5.107,-1.711,1.51,81.119,15.048,-0.894,10.697,11.762],[-59.211,-35.615,-18.137,-15.157,-10.454,-28.937,-23.256,-18.957,-16.202,-9.383,-46.667,-26.123,-18.079,-11.972,-9.35,-49.043,-23.241,-16.999,-10.185,-8.599,-5.514,-4.54,-6.243,-3.45,-4.873,23.966,19.028,1.73,2.492,7.632]],
"kep": [[-38.593,-27.698,-37.924,-39.811,-42.282,-36.259,-27.861,-32.617,-45.58,-46.695,-20.433,-19.075,-25.707,-37.062,-54.678,-24.235,-28.164,-18.896,-22.569,-29.722,-28.919,-13.097,-21.197,-16.037,-26.044,-21.211,-28.246,-22.144,-19.016,4.091],[-62.022,-35.385,-31.941,-30.989,-31.457,-63.148,-37.475,-29.275,-28.561,-31.04,-64.981,-32.909,-32.949,-30.287,-26.213,-61.102,-39.337,-30.25,-26.696,-28.025,-69.677,-38.523,-33.706,-25.412,-28.855,-66.6,-42.682,-32.004,-24.241,-25.11],[-79.353,-47.051,-37.942,-36.636,-30.96,-80.643,-46.837,-37.508,-33.958,-30.88,-75.839,-51.267,-39.102,-34.277,-30.236,-80.857,-50.563,-38.891,-32.73,-31.548,-78.224,-57.401,-44.058,-34.41,-33.176,-77.193,-60.424,-45.38,-34.329,-33.267],[-84.884,-59.557,-46.565,-42.613,-37.652,-87.58,-59.088,-48.081,-40.319,-35.231,-87.55,-62.203,-46.037,-41.205,-37.603,-86.42,-59.231,-50.098,-40.779,-36.113,-84.604,-65.107,-50.287,-40.253,-37.66,-82.495,-73.545,-52.479,-42.508,-39.403],[-93.676,-68.155,-55.65,-45.342,-41.977,-91.853,-67.838,-55.11,-45.668,-40.323,-89.712,-67.604,-56.437,-46.976,-41.229,-86.507,-71.72,-53.717,-46.129,-42.019,-91.345,-76.236,-57.036,-48.095,-42.088,-89.636,-80.538,-64.903,-50.8,-43.623],[-95.792,-74.575,-59.136,-52.836,-45.56,-92.617,-70.632,-58.916,-53.798,-44.133,-92.851,-73.114,-59.371,-50.084,-47.318,-92.426,-77.25,-62.19,-53.655,-46.021,-90.602,-80.277,-64.823,-53.019,-46.817,-90.059,-77.887,-70.034,-58.292,-49.713]],
"vp": [[-198.52,-596.279,-762.783,-608.218,-566.973,-6.562,-79.704,-75.118,-68.565,-63.163,-55.965,-94.957,-40.956,-84.488,-79.624,-18.001,-6.639,-6.784,-14.335,-29.937,-23.512,-27.022,-10.877,-6.721,-3.148,-25.547,-8.985,-11.814,-7.119,-15.031],[2812.963,844.283,153.483,-164.991,-294.54,572.569,145.253,-4.219,-255.488,-180.23,249.224,-14.965,31.179,-66.667,-115.924,38.139,8.964,-17.486,-28.807,1.759,8.769,-15.299,1.281,-22.726,-16.492,4.342,-10.59,-13.068,-12.078,-9.378],[4692.135,2710.584,1288.383,601.752,212.13,1032.885,441.594,228.272,31.908,-10.284,439.804,308.928,174.27,26.375,-104.308,76.716,24.983,8,-12.01,-3.76,3.743,21.063,24.778,-2.026,5.855,-23.316,-1.093,-6.259,-10.719,-2.6],[4966.697,5147.276,3933.993,2834.711,1514.776,1237.158,1086.491,686.983,421.706,254.591,601.3,463.581,312.412,213.332,193.758,120.384,77.817,80.458,25.957,32.698,27.13,48.437,22.314,0.19,26.314,13.198,18.924,4.49,-3.745,-2.152],[8457.201,6588.833,6092.829,3686.41,3508.665,1368.321,1598.415,1094.341,820.022,629.037,639.084,698.003,665.187,489.573,327.23,93.509,151.68,92.408,68.339,38.62,63.537,67.463,53.598,36.182,21.472,-15.908,18.615,25.914,3.584,-2.934],[8263.025,9996.046,6982.948,6829.01,4934.974,1415.056,1462.025,1434.981,1554.913,906.87,726.423,836.871,740.88,538.125,547.329,161.1,150.694,140.967,135.643,131.261,30.623,78.866,87.6,44.676,52.605,28.647,-3.065,29.132,29.622,15.786]]
}