{
"KTrans": [[4.156,11.771,10.995,12.719,9.269,7.848,10.382,17.034,14.277,11.098,22.021,17.034,19.499,20.462,20.58,80.378,93.677,74.077,73.656,67.54,-58.978,171.843,143.547,145.647,144.873,57.316,193.4,160.281,216.223,179.563],[-22.724,-4.334,-1.401,2.007,5.274,-20.094,5.033,3.115,6.227,7.369,-20.396,6.565,7.664,9.885,10.797,-3.192,40.611,38.963,35.781,31.954,28.357,101.004,75.718,69.731,64.055,88.401,-8.896,143.254,140.606,127.898],[-49.039,-14.74,-3.976,-4.168,-0.324,-44.207,-12.378,-3.546,-0.565,0.96,-42.88,-4.995,2.657,0.392,4.639,-28.114,29.349,24.687,21.233,20.607,-51.549,62.739,59.388,52.62,50.831,-1.533,-35.263,62.123,118.845,97.992],[-59.944,-18.712,-12.853,-8.433,-4.471,-54.328,-15.091,-9.188,-8.336,-1.766,-59.75,-14.39,-4.975,-4.191,0.51,-45.281,8.799,12.378,15.273,15.299,-64.452,19.729,36.89,37.855,32.619,-65.503,-3.849,31.545,88.374,81.046],[-76.158,-33.227,-19.367,-10.556,-10.02,-75.307,-27.28,-17.182,-9.994,-5.909,-67.363,-24.523,-13.065,-8.074,-5.961,-63.689,-3.352,4.389,8.751,8.331,-66.186,-8.521,14.195,38.542,30.042,-70.018,-37.154,17.674,88.283,65.576],[-79.984,-37.699,-24.819,-17.094,-9.752,-75.491,-31.519,-19.11,-15.676,-10.621,-75.598,-31.995,-21.05,-10.437,-9.506,-63.895,-14.16,-4.05,1.674,7.608,-82.307,-47.935,16.134,21.849,13.737,-63.809,-37.579,-62.43,48.869,51.437]],
"ve": [[16.828,48.316,0.082,36.86,186.949,11.194,24.959,-412.234,-82.607,206.586,19.99,32.845,33.89,189.214,38.538,56.65,22.037,19.237,3.728,5.236,99.774,41.922,21.263,-31.394,-19.901,155.689,77.332,42.327,5.197,-14.821],[3.599,-0.603,1.896,3.994,3.392,7.216,3.453,1.633,5.064,5.103,12.134,4.479,1.848,3.855,6.431,54.251,21.517,14.048,10.963,9.517,89.362,45.514,30.845,21.475,17.292,186.828,96.458,52.436,48.478,34.409],[5.302,-0.645,-1.422,-0.191,0.187,1.431,-0.006,-0.56,0.183,1.153,12.489,1.663,3.259,2.173,2.4,47.854,22.975,14.17,10.543,9.429,96.662,45.544,31.182,22.574,17.334,192.15,93.699,59.758,47.167,37.314],[3.138,-0.906,-1.172,-1.493,-1.359,6.232,1.774,-1.504,-0.114,-0.767,64.924,4.055,-0.161,-0.517,0.884,45.456,22.201,13.711,9.156,8.047,108.993,43.741,30.876,22.251,16.875,181.944,94.714,61.687,46.971,37.387],[0.531,-1.907,-2.111,-2.763,-1.932,-1.324,0.136,-1.128,-1.076,-1.253,34.768,2.074,0.053,0.402,0.237,48.868,21.968,12.536,8.498,7.552,94.445,49.694,28.278,21.689,16.648,182.082,92.492,62.6,48.958,36.106],[-37.47,-2.092,-3.393,-3.767,-2.088,5.329,-0.15,-1.542,-1.81,-0.738,8.947,1.8,0.593,-0.893,-1.027,14.941,23.313,12.98,9.395,7.045,95.647,41.274,31.776,21.146,16.077,208.713,92.234,64.974,47.072,35.718]],
"kep": [[-27.027,-22.246,-24.439,-31.372,-40.718,-22.688,-24.079,-19.85,-26.76,-39.022,-21.03,-21.726,-19.917,-19.339,-20.709,-11.606,25.301,23.811,36.513,34.139,-76.584,48.373,56.353,85.987,106.066,-34.451,29.346,38.748,93.326,91.375],[-43.647,-27.098,-26.655,-25.632,-22.774,-43.256,-22.797,-23.465,-23.199,-22.594,-46.144,-22.291,-20.041,-20.002,-21.185,-50.467,-12.819,-8.291,-7.658,-8.796,-48.095,2.505,1.074,4.985,5.43,-44.764,-57.185,10.331,23.193,29.132],[-62.832,-35.228,-26.484,-27.734,-25.151,-60.809,-33.872,-27.082,-25.321,-24.864,-61.538,-29.361,-24.989,-25.995,-23.15,-64.858,-21.312,-18.012,-17.461,-17.213,-78.029,-18.768,-9.085,-6.985,-3.465,-70.71,-68.068,-26.526,11.254,8.104],[-71.583,-38.205,-33.565,-30.051,-27.214,-68.567,-36.923,-30.67,-30.975,-25.651,-72.884,-37.655,-28.339,-27.556,-25.103,-72.22,-33.232,-26.108,-20.764,-19.861,-83.439,-38.831,-21.44,-15.73,-14.897,-86.795,-59.837,-38.418,-5.856,-1.714],[-82.307,-48.73,-38.056,-30.973,-31.03,-83.301,-45.44,-37.061,-31.532,-28.372,-78.26,-44.162,-34.773,-31.218,-29.507,-81.083,-41.434,-30.681,-24.822,-24.381,-84.218,-52.614,-33.504,-15.227,-16.606,-87.994,-70.313,-44.121,-6.863,-9.51],[-85.281,-52.077,-41.53,-35.32,-30.813,-82.487,-48.721,-38.365,-35.502,-32.383,-83.509,-50.008,-40.938,-32.129,-31.359,-81.076,-48.134,-36.44,-30.424,-24.614,-91.084,-71.287,-34.687,-24.979,-26.665,-88.172,-71.847,-77.728,-24.399,-17.043]],
"vp": [[188.461,-63.858,200.759,453.539,90.125,-162.074,51.35,75.297,21.98,-10.108,-46.182,-8.729,46.477,-23.989,-13.529,-4.265,-12.096,-28.831,-5.662,1.464,-20.405,-15.102,-14.246,-3.247,-2.003,-5.283,-39.82,-17.356,2.038,9.77],[2785.348,909.52,-248.142,-167.628,877.302,515.102,307.404,70.12,34.718,-123.125,280.12,92.638,5.023,15.414,-36.661,53.797,-25.012,-24.232,-13.338,-22.842,-18.272,-13.427,-22.982,-0.327,-8.137,-29.236,-8.829,-12.862,-4.754,-8.166],[4107.779,2495.184,1959.038,753.031,-292.567,911.628,548.16,294.231,178.131,-48.081,416.752,266.638,177.509,80.274,-19.217,85.017,52.79,21.462,-3.577,-18.983,24.855,15.615,-11.575,-6.462,0.816,-9.987,-13.3,-10.06,-17.69,-14.034],[5426.528,5015.538,2720.765,1634.013,1412.562,1167.082,1099.241,454.265,134.638,376.412,582.343,475.585,261.62,52.455,102.457,91.741,75.944,42.708,12.512,22.255,39.269,14.312,11.028,-6.487,-21.554,4.323,-14.83,1.344,-1.09,-18.615],[5686.212,6601.958,5094.673,2468.797,1449.862,1284.374,1426.202,960.858,568.849,403.293,618.017,668.181,472.414,368.753,272.114,94.841,129.643,75.982,25.07,22.472,38.24,39.094,-9.365,24.525,-19.063,-4.585,-17.901,-21.843,-4.104,-30.4],[6376.666,8184.126,5431.961,4746.742,3328.904,1362.788,1863.128,1146.857,807.671,703.747,617.339,753.153,652.936,467.437,225.211,96.722,143.497,96.594,79.545,66,41.724,33.583,56.181,18.345,-14.247,-10.889,-4.839,16.543,-10.651,-20.975]]
}