{
"KTrans": [[-19.376,-10.902,-2.376,-7.076,-5.784,-18.162,-9.999,-7.098,-1.377,-8.817,-16.863,-7.639,-9.768,-3.177,-4.091,-12.368,-7.133,-10.516,-6.648,-3.283,-16.285,-8.32,-3.247,-8.424,-6.034,-14.525,-9.156,-4.194,-7.328,-6.736],[-63.276,-25.913,-13.191,-12.285,-10.06,-59.344,-17.325,-17.875,-13.399,-11.978,-56.131,-20.816,-12.914,-16.75,-8.257,-66.138,-23.321,-16.098,-19.631,-8.824,-62.092,-23.15,-19.672,-14.091,-7.323,-59.967,-26.548,-14.188,-15.287,-8.221],[-82.9,-28.404,-33.389,-22.113,-17.65,-77.669,-34.761,-21.194,-18.153,-16.615,-76.333,-17.915,-17.22,-18.748,-15.721,-82.861,-42.288,-20.187,-22.619,-18.124,-76.953,-27.323,-20.1,-15.14,-14.793,-77.708,-37.635,-19.754,-15.412,-16.788],[-90.188,-59.292,-27.394,-24.478,-17.814,-92.731,-59.222,-21.248,-20.713,-20.112,-92.791,-51.242,-33.211,-19.631,-21.754,-93.114,-59.253,-24.112,-17.478,-21.157,-91.68,-63.475,-22.423,-13.644,-22.444,-85.844,-39.077,-17.661,-21.617,-22.302],[-103.819,-77.214,-45.702,-14.696,-19.111,-95.61,-62.978,-46.799,-21.123,-18.362,-102.63,-65.983,-18.055,-10.808,-20.619,-100.501,-69.616,-44.234,-26.854,-20.731,-106.879,-76.822,-43.986,-28.552,-23.211,-100.711,-69.786,-31.644,-25.946,-24.926],[-106.635,-76.797,-48.125,-23.762,-13.173,-105.785,-73.943,-69,-8.997,-18.814,-103.875,-76.101,-63.08,41.566,-20.17,-105.491,-87.64,-46.986,-37.399,-21.62,-100.815,-77.643,-53.524,-23.198,-12.759,-102.293,-78.507,-58.087,-21.12,-21.662]],
"ve": [[-11.302,-2.174,3.135,12.478,19.603,-12.443,0.046,4.557,6.107,21.036,-11.513,-1.09,6.226,9.882,13.264,-10.165,-1.78,6.472,9.81,15.409,-12.904,-0.583,3.925,9.679,14.898,-9.813,-1.38,5.793,9.981,24.645],[-53.925,-17.28,-12.321,-7.525,-3.824,-43.944,-15.664,-12.181,-7.082,-3.621,-43.504,-18.064,-10.618,-7.021,-4.516,-52.69,-19.634,-12.248,-7.608,-4.794,-43.48,-19.503,-13.462,-7.052,-4.79,-51.555,-19.791,-10.085,-7.178,-4.473],[-73.441,-25.614,-23.063,-16.322,-12.067,-68.51,-37.252,-21.547,-14.956,-9.419,-64.886,-31.393,-19.026,-15.175,-11.295,-72.749,-41.675,-17.389,-14.674,-12.336,-67.672,-31.307,-21.647,-13.852,-9.831,-63.359,-35.976,-20.242,-16.332,-11.723],[-84.553,-56.427,-29.48,-19.671,-17.133,-90.515,-54.131,-24.352,-20.271,-14.977,-81.867,-45.614,-33.987,-18.935,-16.453,-90.513,-60.253,-27.497,-19.908,-17.56,-80.163,-61.117,-26.35,-17.504,-15.495,-81.564,-45.069,-30.754,-21.223,-15.643],[-106.388,-63.225,-46.237,-31.116,-20.166,-98.009,-56.322,-48.32,-31.869,-19.629,-105.764,-66.972,-34.623,-23.18,-22.498,-94.397,-61.758,-48.143,-25.275,-20.112,-120.622,-67.456,-51.18,-25.232,-22.697,-98.4,-59.755,-32.454,-25.865,-21.833],[-122.742,-72.072,-46.885,-38.435,-22.551,-106.42,-69.994,-59.776,-31.933,-27.31,-103.117,-70.724,-58.599,-21.702,-25.968,-109.905,-78.17,-58.388,-48.921,-26.612,-97.241,-70.622,-57.872,-43.205,-22.656,-98.688,-64.17,-51.288,-32.083,-25.313]],
"kep": [[-9.143,-8.33,-2.884,-11.392,-13.251,-7.307,-8.799,-8.728,-3.083,-16.993,-5.65,-5.804,-12.301,-8.187,-9.106,-2.965,-4.825,-13.443,-10.81,-8.254,-4.163,-6.571,-4.626,-12.383,-12.303,-4.598,-7.042,-6.133,-12.174,-14.269],[-62.615,-8.9,-0.95,-4.939,-6.326,-55.175,-3.575,-6.203,-6.654,-8.551,-58.339,-3.163,-2.804,-10.252,-3.705,-61.907,-4.761,-4.109,-12.692,-4.046,-62.36,-4.32,-7.074,-7.169,-2.338,-61.241,-7.411,-4.894,-8.539,-3.825],[-68.531,-23.429,-11.533,-5.861,-5.829,-63.46,-21.596,0.193,-3.726,-7.894,-65.781,-12.383,0.188,-3.817,-4.847,-66.621,-22.088,-3.909,-9.003,-6.287,-65.201,-14.003,2.521,-1.155,-5.515,-65.692,-28.942,0.373,0.532,-5.37],[-68.189,-60.039,-3.443,-5.279,-0.596,-71.657,-56.941,-4.186,-2.111,-5.693,-69.91,-51.694,-2.862,-1.691,-5.942,-69.052,-51.954,-3.619,1.164,-3.644,-71.37,-56.872,-1.45,4.695,-7.852,-65.739,-44.93,12.008,-0.671,-7.684],[-73.189,-59.419,-54.337,11.931,0.773,-72.664,-47.515,-50.061,11.676,-0.146,-76.328,-46.732,-30.463,10.81,2.068,-74.845,-48.513,-55.162,-0.591,-0.224,-74.018,-57.868,-45.851,-3.618,-0.326,-77.472,-52.214,-36.842,0.673,-1.881],[-79.044,-54.7,-36.886,-29.154,8.427,-77.082,-46.206,-50.9,-3.808,10.422,-77.28,-48.168,-51.506,8.18,7.038,-79.274,-56.432,-47.666,-26.18,6.873,-79.923,-54.911,-43.33,-30.342,11.237,-78.308,-60.221,-49.324,-17.248,0.409]],
"vp": [[1547.157,1434.233,1498.747,1210.464,1463.913,352.586,201.92,263.632,285.604,269.97,144.14,140.405,165.952,180.532,149.098,30.549,29.373,23.242,32.581,30.567,16.864,9.768,18.517,10.695,13.658,8.248,7.634,6.917,6.269,7.176],[5042.532,3278.7,5038.558,4172.024,3664.295,842.806,634.288,896.824,844.007,593.169,499.664,407.533,424.193,341.135,463.389,118.242,91.006,89.134,79.321,88.106,43.392,44.274,51.988,39.025,48.579,25.457,21.251,18.504,19.435,23.025],[7589.404,6611.719,6869.417,7097.742,7524.227,1340.853,1622.829,1436.355,1406.387,1028.809,634.241,695.108,624.328,702.69,681.695,148.121,171.981,108.817,123.041,143.999,68.323,67.22,75.778,66.992,56.509,31.509,39.477,33.321,40.747,35.955],[8254.799,11468.3,9148.799,8007.24,9698.559,1767.513,2163.735,1421.044,1749.392,1564.247,809.516,992.959,1099.615,792.534,850.47,174.679,208.376,168.756,170.054,193.693,76.888,130.612,84.13,78.63,80.063,37.749,46.277,50.877,45.565,39.477],[11104.169,12375.796,14076.845,13739.779,10914.072,1978.058,2305.391,3031.425,2855.948,2051.109,1048.069,1359.465,1077.356,1031.135,1228.802,191.952,248.788,297.023,202.036,209.511,117.108,143.011,159.922,97.841,121.952,48.523,60.221,47.654,50.53,57.069],[12422.82,14259.261,14333.495,14963.352,11693.118,2141.1,2773.557,3564.902,2727.686,2948.579,1040.024,1435.042,1747.469,877.041,1347.308,222.57,314.916,364.625,433.23,279.035,95.98,140.195,180.18,188.416,118.317,49.812,63.559,76.61,65.269,66.197]]
}