{
"KTrans": [[-44.337,-4.707,-2.366,-4.295,0.264,-41.747,-3.295,4.385,-4.172,3.817,-45.533,0.722,-3.853,-1.364,6.776,-41.543,-2.66,1.486,4.842,0.16,-50.666,-6.95,-3.474,-3.322,0.151,-38.233,-1.625,-1.699,-5.677,5.871],[-85.527,-56.739,-20.956,-13.223,-7.139,-78.537,-49.714,-22.117,-17.698,-11.524,-86.697,-51.701,-18.761,-17.398,-9.69,-86.069,-55.896,-22.666,-12.324,-15.744,-81.642,-42.403,-18.424,-13.948,-12.05,-83.229,-43.343,-18.652,-10.149,-7.107],[-92.556,-68.213,-40.698,-27.136,-14.564,-93.056,-71.626,-46.022,-22.548,-19.016,-95.253,-74.753,-42.14,-20.312,-16.764,-93.481,-71.692,-51.013,-26.692,-23.063,-92.261,-74.172,-45.775,-31.154,-20.065,-91.168,-75.76,-46.49,-19.387,-17.847],[-95.743,-87.133,-62.717,-36.918,-25.812,-96.939,-81.056,-61.102,-40.532,-27.262,-97.732,-85.148,-66.137,-31.406,-31.191,-97.13,-84.26,-65.093,-46.735,-22.597,-97.383,-83.469,-57.509,-47.038,-22.036,-96.544,-85.77,-53.786,-30.356,-27.924],[-98.241,-87.653,-75.745,-57.943,-42.752,-98.334,-89.52,-71.136,-55.487,-44.602,-97.965,-90.529,-71.494,-51.168,-41.826,-98.896,-84.53,-71.188,-63.33,-44.738,-98.526,-86.605,-72.683,-63.914,-42.037,-98.099,-83.147,-75.876,-50.327,-37.945],[-99.216,-91.829,-82.398,-66.47,-58.45,-99.595,-92.341,-79.153,-67.006,-53.536,-98.638,-88.285,-73.036,-71.313,-52.201,-98.834,-89.625,-80.982,-61.773,-54.369,-101.358,-91.138,-74.961,-66.199,-49.349,-99.313,-86.929,-79.814,-62.469,-52.378]],
"ve": [[8.669,-47.197,-19.283,-178.6,79.133,11.72,15.323,6.718,-43.034,-44.88,-57.058,-8.582,-7.028,-50.818,3.351,-24.734,53.199,-34.201,89.103,1796.091,-4.931,-56.481,52.912,-286.327,-67.758,3.099,75.484,-1171.052,-409.766,7.025],[-37.524,-25.707,-5.378,-7.385,0.255,-71.343,-24.956,-6.771,-16.164,-3.18,-63.674,-27.985,-10.789,-7.316,-2.207,-54.956,-7.137,-8.547,-6.373,-2.239,-41.619,-65.857,-13.948,-4.544,-3.101,-134.058,-23.436,-8.018,-5.829,-2.413],[-90.689,-47.1,-28.771,-16.673,-10.286,-102.678,-48.829,-27.922,-16.442,-10.122,-82.049,-55.057,-35.904,-16.334,-11.923,-61.986,-54.385,-31.94,-18.301,-13.233,11.554,-98.707,-42.12,-16.95,-10.904,-60.673,-46.438,-28.383,-15.629,-10.793],[-67.966,-80.182,-43.689,-24.863,-17.89,-76.842,-59.064,-42.429,-29.426,-17.697,-127.205,-64.275,-49.174,-27.333,-20.379,-119.739,-8.663,-29.419,-31.966,-15.26,-94.059,-62.874,-39.475,-30.37,-16.582,-75.859,-73.747,-37.603,-24.723,-19.877],[-99.738,-69.143,-69.696,-36.158,-29.634,-89.639,-84.435,-53.757,-40.469,-30.054,-94.37,-79.922,-52.794,-9.51,-27.727,-249.06,-54.51,-42.452,-38.838,-34.341,-89.229,-68.557,-54.194,-46.157,-31.347,-83.113,-58.463,-55.637,-50.851,-21.526],[-95.785,-86.053,-67.435,-46.944,-42.131,-38.51,-79.203,-64.559,-44.722,-41.319,-83.917,-70.495,-55.761,-53.896,-38.494,-21.627,-77.176,-202.765,-59.199,-37.158,-151.424,-81.55,-66.476,-46.347,-35.817,-57.872,-68.705,-59.782,-43.702,-35.485]],
"kep": [[-63.388,-10.336,-15.848,-15.676,-9.274,-59.328,-8.619,3.25,-18.985,-10.669,-51.198,-1.752,-14.991,-19.003,-1.921,-50.423,-16.703,-8.367,-7.128,-13.941,-62.979,-18.094,-11.627,-15.625,-4.544,-57.346,-8.297,-11.995,-17.537,-3.76],[-87.144,-51.243,-11.382,-5.401,-6.854,-80.249,-40.017,-17.258,-12.696,-6.274,-88.093,-45.028,-11.066,-10.466,-5.575,-89.08,-47.96,-14.729,-5.14,-11.708,-85.54,-35.391,-11.462,-8.952,-7.473,-87.014,-36.266,-12.997,-5.769,-2.908],[-91.848,-62.958,-27.8,-12.987,-4.255,-93.623,-74.073,-33.921,-8.585,-9.873,-96.126,-74.601,-31.022,-6.34,-4.53,-92.03,-68.692,-35.114,-12.087,-10.695,-91.523,-72.111,-37.267,-17.925,-10.319,-92.112,-75.419,-31.551,-7.041,-7.589],[-96.144,-83.832,-53.768,-19.781,-10.312,-94.142,-77.541,-55.758,-20.183,-12.332,-94.483,-83.232,-62.074,-13.493,-12.561,-95.068,-85.87,-56.786,-29.188,-11.108,-93.122,-81.093,-48.616,-28.6,-8.251,-95.696,-83.967,-49.014,-17.512,-13.256],[-97.07,-85.403,-72.469,-51.107,-23.864,-94.453,-86.382,-68.966,-47.097,-25.368,-95.626,-87.276,-76.08,-42.251,-22.076,-96.076,-80.428,-72.358,-54.818,-19.685,-96.101,-82.363,-74.369,-54.89,-22.451,-96.894,-79.344,-75.458,-42.383,-23.632],[-95.356,-86.246,-84.056,-61.582,-43.775,-97.313,-87.386,-76.135,-60.867,-38.007,-97.357,-85.356,-71.779,-65.022,-35.921,-97.646,-85.275,-80.746,-55.455,-40.07,-97.739,-88.552,-71.988,-66.386,-34.829,-97.099,-82.101,-79.289,-58.008,-39.498]],
"vp": [[2598.374,2190.997,1453.069,1854.366,1217.166,491.177,212.085,291.053,308.618,262.282,297.878,196.569,96.59,215.227,90.315,45.608,25.77,23.324,30.773,20.028,28.552,20.638,9.958,20.624,13.311,9.721,6.955,4.999,7.718,6.499],[6281.048,7007.881,5966.74,5551.819,3385.5,1021.397,1334.179,1049.073,918.866,997.647,629.523,796.845,504.297,557.165,465.128,142.005,140.567,105.973,87.808,90.62,55.574,55.358,48.323,47.722,42.519,29.613,29.163,23.866,20.356,24.205],[7171.684,8773.946,9404.346,7898.324,6972.925,1631.657,2062.911,2214.631,1661.619,1508.079,851.835,1177.623,990.009,970.384,774.874,145.325,214.629,243.006,199.795,159.265,72.077,107.557,84.464,83.821,86.898,36.207,56.287,50.577,38.445,37.85],[8135.27,15534.604,15168.144,11931.956,9705.92,1808.728,2682.095,2808.88,2604.278,2064.024,957.336,1420.394,1507.725,1316.723,1190.955,173.538,289.538,238.236,297.682,167.016,84.326,131.362,139.172,139.702,113.521,38.506,68.558,55.24,52.163,51.061],[9061.82,14787.674,16414.208,15942.406,15920.645,1941.928,3171.125,3321.653,3613.385,3179.255,910.463,1588.115,1795.463,1668.871,1550.142,187.423,242.057,333.647,389.815,416.334,101.147,141.579,167.265,208.068,185.137,48.63,59.517,92.017,76.463,63.495],[9389.121,15761.693,20360.589,21134.298,22480.298,1923.987,3349.443,3991.185,3608.173,4235.392,889.905,1364.132,1726.328,2263.573,1956.069,181.678,293.404,400.532,355.187,399.577,112.056,162.077,177.102,208.066,193.901,50.127,72.029,89.954,103.553,89.631]]
}