{
"KTrans": [[-42.162,-51.741,-54.924,-51.24,-54.883,-18.833,-39.434,-35.018,-37.267,-40.205,1.026,-19.888,-19.676,-15.149,-20.113,76.731,18.527,15.17,16.263,10.233,145.605,74.008,67.516,61.117,55.838,332.025,247.311,189.513,178.696,174.722],[-48.106,-41.41,-40.66,-51.797,-54.589,-38.789,-34.387,-21.72,-31.396,-38.177,-31.573,-24.395,-4.033,-25.283,-16.589,2.251,9.842,25.382,10.943,6.05,11.041,17.094,48.75,22.651,14.912,55.243,25.333,105.979,66.403,48.097],[-49.564,-46.015,-48.002,-46.517,-39.84,-51.431,-33.945,-33.497,-33.91,-19.607,-43.05,-26.857,-22.79,-20.005,-7.622,-26.421,5.819,5.9,3.874,14.118,-3.158,16.897,8.927,7.252,27.516,32.611,35.891,22.054,13.158,67.569],[-63.456,-39.371,-53.823,-50.33,-43.993,-60.88,-42.101,-26.263,-34.854,-29.465,-62.49,-22.564,-21.319,-28.203,-19.148,-47.808,-0.282,4.18,4.368,2.857,-40.129,10.823,12.434,8.81,6.606,-9.799,35.511,23.468,17.057,12.022],[-75.187,-46.088,-36.227,-53.588,-42.115,-70.733,-38.714,-41.63,-40.51,-45.129,-71.481,-27.813,-28.546,-24.073,-29.086,-64.505,-4.471,4.654,1.579,2.54,-55.194,11.587,8.546,9.543,6.936,-43.349,39.983,25.557,16.467,14.862],[-81.37,-41.306,-42.984,-49.962,-42.314,-81.328,-33.212,-33.17,-42.726,-43.014,-81.711,-32.252,-27.003,-31.7,-31.712,-74.392,-8.166,1.929,1.194,3.745,-73.103,2.308,9.277,12.178,6.298,-53.246,25.633,27.553,16.761,13.776]],
"ve": [[-46.596,-28.437,-105.645,48.345,-15.711,-20.065,38.716,50.893,-13.543,20.519,-16.048,-92.327,65.379,12.331,-42.732,66.782,26.03,6.081,44.02,-16.507,139.634,-30.574,150.098,75.192,48.844,330.035,109.837,320.246,126.073,-8.214],[-102.228,-48.02,-41.214,-39.71,-31.793,-73.847,-52.349,-21.6,-18.683,-21.472,-68.243,-38.081,-2.054,-18.848,-17.535,0.9,0.959,23.497,13.064,5.297,4.98,2.082,47.806,30.456,14.21,18.891,-2.109,101.768,40.527,50.296],[-41.527,-106.618,-81.437,-58.083,-38.034,-90.623,-79.995,-53.598,-41.368,-19.041,-25.444,-67.626,-40.161,-25.802,-7.488,-8.076,1.453,1.338,-0.764,11.987,1.195,6.116,1.186,-0.845,25.974,21.362,8.313,0.036,-9.519,69.891],[-39.333,-110.179,-125.859,-86.866,-61.938,-27.838,-126.432,-57.395,-57.564,-41.842,-52.675,-52.172,-48.876,-49.726,-27.683,-18.757,0.042,1.586,0.75,0.417,-6.418,3.019,3.195,1.629,-0.022,11.424,10.564,5.77,1.139,-0.998],[-31.216,-141.312,-98.489,-120.693,-75.228,-31.991,-119.648,-118.439,-89.846,-83.077,-24.552,-85.418,-81.108,-53.684,-54.049,-15.757,-1.89,-1.755,-2.275,0.501,-15.855,5.103,2.702,2.669,1.324,-1.751,14.472,8.427,3.875,2.584],[-33.81,-131.536,-141.946,-134.651,-91.506,-22.305,-73.203,-110.583,-116.402,-94.744,-34.535,-73.848,-86.384,-88.861,-70.196,-17.833,-3.022,0.033,-5.526,1.394,-11.83,1.008,3.54,3.916,1.877,35.347,11.388,10.539,4.257,2.952]],
"kep": [[-133.504,-11.944,2.689,-8.808,-3.906,-129.28,-2.251,-2.4,2.851,-8.072,-125.489,-10.81,-7.707,-2.978,-0.96,-142.963,-25.245,-17.453,-21.186,-15.889,-128.625,-58.807,-46.582,-44.006,-43.554,-135.132,-130.876,-83.962,-81.841,-82.727],[-19.335,-6.069,-147.944,-10.189,0.016,-16.835,-6.34,-146.084,-8.056,-1.52,-10.547,0.082,-143.861,-6.093,-6.124,-1.344,15.331,-154.556,-30.856,-12.295,4.246,34.774,-137.657,-43.54,-22.948,30.412,52.071,-130.029,-83.08,-47.168],[-40.48,-4.705,1.974,-9.133,-153.636,-34.563,-2.73,-7.006,-9.447,-130.953,-36.898,0.858,-1.093,-5.979,-140.184,-26.57,4.488,8.998,12.526,-141.437,-9.883,12.264,14.534,30.452,-128.088,3.44,31.273,40.124,79.855,-169.539],[-55.685,-7.38,-1.478,-1.346,0.654,-55.332,-5.739,-1.86,-5.216,1.558,-51.649,-7.708,-1.122,-0.251,1.689,-43.704,-1.795,2.054,8.011,8.085,-40.512,8.229,12.147,13.808,20.825,-24.538,23.796,21.358,30.039,34.616],[-70.259,-13.017,-2.555,-0.909,-2.523,-63.933,-11.647,-3.237,-1.849,3.286,-65.168,-7.108,-1.214,-0.406,1.505,-61.321,-5.93,3.943,2.747,3.143,-51.087,5.193,6.202,10.062,11.572,-45.088,21.359,18.108,17.795,20.423],[-76.456,-13.091,-4.017,-2.552,-1.547,-78.906,-15.053,-3.99,-0.134,0.367,-76.179,-15.481,-2.919,-0.1,-0.095,-69.777,-7.894,1.16,3.034,3.883,-70.356,-0.516,5.766,10.713,7.243,-57.277,11.051,15.826,15.62,16.219]],
"vp": [[-8.791,36.144,78.689,41.659,64.662,-2.299,-2.557,0.444,-26.635,-13.168,-9.963,-9.569,-5.22,-10.822,-6.438,-5.62,-4.405,-6.908,-6.695,-4.146,-6.731,-7.814,-8.098,-6.165,-5.378,-5.653,-6.538,-7.533,-5.933,-6.072],[652.617,168.747,7.608,-156.261,-94.265,134.993,-1.146,-8.892,4.938,-13.649,47.715,-12.754,-3.421,-21.975,-9.086,1.54,-8.782,-7.083,-11.892,-8.478,-0.395,-10.054,-6.285,-8.577,-5.764,-8.067,-6.167,-6.844,-7.887,-7.329],[2321.702,225,49.199,56.409,117.776,321.247,52.022,-4.19,22.077,-11.622,196.331,15.423,-3.91,9.982,-5.744,24.07,-4.191,-9.376,-6.218,-7.83,2.129,-11.491,-7.18,-7.4,-6.572,-6.891,-10.651,-9.385,-10.362,-5.651],[3472.341,864.069,-112.718,136.829,194.098,685.303,117.676,79.575,50.265,-3.176,332.698,75.232,12.486,-8.244,22.074,51.889,2.717,-8.322,-7.23,-6.917,19.89,-5.309,-11.346,-10.834,-8.71,1.291,-11.261,-10.981,-10.377,-10.506],[4987.229,1369.659,714.746,-9.95,83.491,880.507,201.088,39.854,6.685,-50.359,456.078,97.199,22.358,8.257,-12.025,76.122,8.689,-13.546,-3.827,-5.968,31.468,-10.066,-8.278,-11.74,-9.244,12.506,-14.785,-13.429,-10.74,-11.985],[5670.688,1965.363,655.236,39.431,205.273,1095.994,446.364,79.271,30.196,10.038,560.343,204.575,76.355,-15.846,-5.99,101.91,12.756,0.16,-10.193,-13.488,46.609,-1.535,-10.422,-16.847,-10.383,16.805,-11.26,-16.083,-10.557,-10.829]]
}