{
"KTrans": [[6.057,-0.339,-0.172,0.583,1.692,9.972,4.92,3.546,3.857,4.907,20.062,14.178,12.035,10.284,8.877,129.088,76.897,62.013,56.356,53.601,318.97,186.025,142.456,127.102,117.236,810.662,464.011,358.061,316.321,289.148],[-11.245,0.147,1.723,0.106,-0.387,3.09,1.824,3.337,2.495,3.36,13.641,8.181,6.378,5.353,5.55,93.47,55.463,38.665,29.491,26.198,210.489,115.937,80.423,65.418,55.646,467.683,274.65,188.762,147.906,122.761],[-16.407,0.312,-0.522,-0.749,0.505,-16.194,2.134,1.855,1.801,2.481,-9.132,7.889,5.861,4.757,4.033,49.255,46.952,34.089,25.839,21.675,133.842,101.098,75.727,58.855,46.669,267.133,243.326,160.257,123.552,103.752],[-33.474,-2.596,-1.669,-2.188,0.354,-28.161,-1.336,2.67,2.34,1.342,-23.841,4.266,2.886,4.644,3.212,19.509,43.213,31.365,24.767,19.407,78.541,92.315,67.681,52.926,42.843,148.45,212.856,154.149,115.772,93.509],[-46.64,-6.681,-0.032,0.572,0.57,-41.843,-3.497,1.386,1.084,-0.146,-36.837,2.79,3.995,3.986,2.087,-3.591,34.864,27.82,22.87,18.808,34.107,82.667,68.368,47.454,38.9,73.382,183.91,140.941,110.397,89.075],[-56.267,-8.711,-3.382,-1.355,-1.15,-51.302,-9.327,-3.529,0.197,1.487,-48.081,-5.791,1.77,2.181,1.518,-21.917,28.319,25.759,21.853,14.916,14.311,67.574,59.415,46.361,37.172,50.769,152.857,133.055,106.826,86.753]],
"ve": [[2.059,1.448,2.127,2.149,-0.509,4.824,1.596,2.499,-0.401,-1.967,8.538,2.068,-0.357,-3.387,-4.684,40.49,12.458,-1.625,-10.411,-18.328,82.467,28.888,5.817,-9.06,-18.484,169.083,67.225,28.363,5.078,-9.536],[0.549,0.308,0.812,0.731,0.395,3.623,2.486,1.297,0.963,0.487,8.876,4.2,2.882,1.753,0.712,44.087,20.688,12.679,7.915,5.277,88.492,42.343,26.049,17.279,10.964,178.624,85.785,53.316,36.12,24.071],[0.491,0.642,0.235,0.592,0.186,3.003,2.363,1.418,1.424,0.926,8.615,4.865,2.618,2.096,1.55,44.49,22.407,14.243,10.234,7.593,87.91,43.527,28.494,20.662,15.315,170.11,88.723,57.142,41.473,31.613],[-0.289,0.742,0.162,0.42,0.381,2.475,1.853,1.688,1.24,1.262,7.78,4.51,2.792,2.351,1.777,46.869,22.073,15.038,11.035,8.165,87.555,44.178,29.022,21.531,16.783,170.16,87.736,58.652,43.153,33.754],[-3.706,0.451,0.361,0.491,0.713,1.066,2.264,2.026,1.188,0.868,7.839,4.125,2.796,2.244,1.799,40.327,21.864,14.58,11.066,8.663,88.247,44.277,29.646,21.573,17.148,170.524,88.034,58.989,43.607,34.561],[-7.235,0.159,0.768,0.479,0.38,2.016,1.376,0.74,1.262,1.065,0.592,3.504,3.203,2.012,1.633,41.019,21.603,14.625,10.739,8.532,83.508,43.593,29.452,22.15,17.191,166.295,87.622,58.886,44.343,34.848]],
"kep": [[4.319,-1.111,-0.77,0.652,4.321,5.266,4.017,2.482,5.587,9.612,11.257,12.651,13.776,15.663,16.241,63.356,57.91,65.194,75.574,89.488,130.21,122.19,129.444,150.36,167.282,238.662,237.624,257.043,296.548,330.605],[-11.565,-0.176,0.955,-0.574,-0.707,-0.39,-0.52,2.068,1.581,2.925,4.672,3.861,3.43,3.592,4.856,34.485,28.8,23.1,20.03,19.938,64.909,51.636,43.174,41.043,40.29,105.363,101.608,88.325,82.11,79.55],[-16.725,-0.37,-0.728,-1.344,0.321,-18.229,-0.233,0.428,0.383,1.543,-16.174,2.866,3.179,2.596,2.45,3.366,20.059,17.308,14.143,13.095,24.605,40.076,36.692,31.598,27.151,33.285,81.904,65.573,57.978,54.777],[-33.244,-3.355,-1.865,-2.613,-0.061,-29.748,-3.058,0.948,1.064,0.066,-29.385,-0.247,0.088,2.226,1.391,-16.776,17.306,14.082,12.327,10.359,-4.529,33.359,29.921,25.774,22.274,-9.846,66.575,60.164,50.674,44.606],[-46.521,-7.13,-0.417,0.054,-0.172,-42.495,-5.666,-0.642,-0.153,-1.043,-41.273,-1.319,1.135,1.678,0.233,-32.353,10.713,11.528,10.595,9.307,-28.273,26.658,29.835,21.197,18.507,-36.878,50.951,51.454,46.401,40.438],[-55.033,-8.785,-4.167,-1.867,-1.548,-52.483,-10.586,-4.248,-1.1,0.387,-51.315,-9.029,-1.41,0.112,-0.174,-44.933,5.559,9.622,9.994,5.831,-37.844,16.8,23.126,19.74,16.992,-44.955,34.947,46.663,43.247,38.421]],
"vp": [[-89.569,-80.871,-85.419,-94.052,-69.95,-90.033,-83.434,-83.884,-89.645,-82.346,-86.34,-87.291,-85.948,-87.147,-84.747,-87.344,-86.848,-86.738,-86.186,-86.743,-87.444,-86.914,-86.742,-86.691,-86.721,-86.86,-87.027,-86.62,-86.637,-86.984],[-38.617,-68.643,-75.661,-97.552,-81.797,-70.45,-81.07,-77.849,-85.331,-87.71,-81.729,-85.473,-85.307,-85.701,-88.118,-86.059,-87.563,-87.199,-87.261,-87.345,-87.927,-87.821,-87.689,-87.465,-87.069,-86.769,-88.146,-87.554,-87.264,-87.047],[153.661,-33.28,-66.196,-53.921,-63.364,-48.938,-76.453,-83.757,-85.567,-83.853,-72.877,-86.583,-86.394,-85.837,-89.118,-84.286,-87.706,-86.944,-87.401,-87.812,-85.492,-88.643,-87.789,-87.703,-87.644,-85.236,-88.02,-88.229,-88.039,-87.317],[275.503,17.673,-34.293,-70.175,-95.499,-21.62,-71.577,-79.916,-75.192,-83.957,-58.202,-80.745,-87.463,-84.979,-84.815,-80.81,-86.245,-88.057,-87.605,-87.751,-83.374,-87.527,-88.04,-88.035,-88.048,-83.167,-87.613,-88.229,-88.343,-88.062],[355.903,45.615,2.321,-54.195,-63.29,9.115,-60.81,-72.465,-76.231,-82.105,-45.26,-71.502,-78.477,-83.144,-80.146,-78.23,-85.509,-87.353,-87.863,-87.827,-81.715,-86.272,-87.85,-88.161,-88.218,-82.536,-87.141,-88.139,-88.364,-88.287],[445.094,165.428,41.917,2.804,-33.223,15.089,-42.26,-68.705,-77.746,-73.593,-31.983,-68,-80.455,-80.737,-77.624,-75.985,-84.516,-86.564,-88.065,-88.099,-81.018,-85.416,-87.774,-88.431,-88.544,-82.579,-85.953,-87.789,-88.528,-88.008]]
}