{
"KTrans": [[0.053,5.584,2.047,3.207,1.579,12.115,8.902,7.964,8.04,4.057,26.126,16.474,14.078,10.249,9.713,164.188,99.248,80.642,66.715,58.591,408.365,220.665,176.177,152.825,140.311,781.797,577.659,454.306,382.8,362.498],[-5.06,-0.632,1.367,0.621,1.2,-4.589,7.057,5.158,3.775,2.826,11.781,11.739,9.118,7.227,6.168,95.944,66.249,43.214,35.557,30.305,220.499,157.978,100.346,76.628,67.057,140.761,392.871,237.239,183.438,154.144],[-20.247,2.252,0.827,2.923,0.184,-11.453,6.693,4.351,4.062,2.979,-9.704,9.908,8.692,7.36,4.881,66.476,62.813,43.424,31.742,25.867,101.785,142.399,92.096,65.46,57.77,52.107,356.321,221.2,153.017,126.718],[-34.681,1.748,3.67,1.218,0.459,-39.394,3.054,2.383,3.488,4.163,-30.852,10.012,8.692,6.126,5.746,7.516,58.194,41.966,30.159,26.698,10.83,124.859,93.301,65.427,54.797,-33.164,259.515,210.37,154.696,125.518],[-54.05,-1.81,1.522,1.346,1.467,-53.619,3.746,3.105,4.351,2.967,-56.075,10.6,8.255,7.437,5.389,-22.391,57.488,36.674,30.399,23.565,-24.059,128.512,90.888,61.462,52.929,37.998,242.886,216.534,146.069,109.925],[-61.863,-4.077,2.409,2.106,0.154,-64.687,-0.128,3.715,2.573,3.995,-59.83,2.729,7.426,5.084,4.109,-41.698,52.079,40.613,28.927,25.571,-27.539,103.8,94.177,63.229,52.213,-72.045,136.8,213.42,158.287,112.089]],
"ve": [[2.449,1.231,2.155,0.377,4.689,6.208,3.209,0.722,0.014,4.46,10.333,3.708,-0.449,0.338,0.212,46.681,13.741,-1.367,-10.343,-16.554,94.646,34.173,8.807,-6.983,-17.464,184.781,80.354,36.276,10.923,-5.301],[2.009,0.665,0.562,0.026,0.116,5.471,2.117,1.206,1.477,0.527,12.702,4.207,3.143,1.747,1.347,49.414,24.088,14.901,9.478,5.903,99.035,49.856,29.214,19.007,12.743,198.207,98.651,61.197,42.109,28.775],[4.46,1.671,0.408,0.376,0.217,6.466,2.637,1.558,1.77,0.694,12.936,5.404,3.226,2.279,1.42,51.165,24.939,16.118,10.78,8.118,162.419,50.074,32.138,22.795,17.197,175.594,99.856,63.763,46.396,35.621],[11.351,0.832,0.15,0.225,0.032,10.659,2.347,1.825,1.334,1.037,14.93,5.55,3.753,2.507,2.132,50.824,25.234,15.939,11.749,9.695,102.154,49.251,32.858,23.944,18.995,200.283,99.071,65.665,48.603,38.477],[-0.935,0.62,0.308,0.632,0.281,12.589,3.485,1.93,1.003,0.416,11.586,5.267,2.962,2.629,1.944,49.663,25.48,16.599,12.23,9.645,88.695,50.367,32.919,23.72,19.234,374.183,100.345,67.021,48.666,38.53],[0.384,0.639,0.502,0.059,0.07,11.937,3.721,1.993,0.891,1.103,12.451,5.7,3.722,2.57,1.781,52.458,25.725,16.174,12.283,9.849,139.474,49.635,33.402,24.586,19.25,199.38,96.479,66.495,49.671,39.078]],
"kep": [[-0.842,6.554,2.609,5.865,3.423,6.773,7.773,9.767,11.599,5.904,16.209,14.493,17.285,13.97,14.577,80.786,76.576,84.461,87.642,92.797,161.505,139.285,154.33,173.102,192.9,195.412,274.855,307.005,335.396,388.652],[-6.705,-1.092,0.977,0.806,1.263,-9.41,4.906,4.054,2.446,2.461,-0.578,7.398,6.069,5.576,4.911,28.881,34.1,24.786,23.99,23.216,58.718,71.699,54.948,48.474,48.281,-16.437,145.973,108.606,99.179,97.287],[-23.651,0.667,0.49,2.594,0.039,-16.504,4.097,2.814,2.337,2.329,-20.294,4.372,5.376,5.06,3.468,9.904,30.184,23.626,18.948,16.45,-1.157,60.755,45.247,34.722,34.59,-46.985,126.584,95.319,72.464,67.018],[-37.477,1.029,3.586,1.024,0.449,-43.722,0.765,0.627,2.183,3.116,-39.202,4.316,4.774,3.596,3.566,-29.222,26.29,22.447,16.498,15.539,-44.242,49.812,45.188,33.38,30.079,-75.131,77.969,86.096,70.874,62.583],[-55.814,-2.495,1.204,0.734,1.208,-57.293,0.459,1.147,3.313,2.547,-61.45,5.141,5.251,4.731,3.376,-49.056,25.52,17.223,16.209,12.684,-62.077,51.132,43.357,30.341,28.199,-52.132,70.652,88.32,64.89,51.26],[-63.697,-4.768,1.899,2.069,0.116,-68.12,-3.694,1.754,1.683,2.88,-64.906,-2.791,3.604,2.448,2.291,-62.126,20.764,20.951,14.763,14.284,-63.561,35.729,45.292,30.729,27.591,-88.639,17.828,86.731,71.754,51.965]],
"vp": [[158.441,13.477,-42.811,33.335,146.245,67.475,-3.432,37.681,30.627,11.198,44.51,-4.336,11.676,14.041,-2.862,2.159,-1.508,4.909,1.761,-3.108,10.002,3.768,-3.19,2.663,3.026,-0.712,-0.527,0.608,-3.773,4.998],[1734.711,75.958,199.747,-35.658,143.116,343.202,95.434,58.392,51.579,-14.628,213.669,28.535,28.758,-5.773,15.907,38.273,8.514,-5.025,1.404,5.534,2.601,16.721,0.23,-8.592,3.397,-1.926,10.508,-0.2,2.037,1.634],[4761.272,799.65,194.516,200.299,-58.773,816.745,106.175,18.193,44.485,-14.261,346.901,85.152,26.05,16.52,-18.088,71.468,22.036,8.905,4.702,0.067,45.387,7.167,1.834,-0.977,3.182,4.437,7.648,5.179,-3.601,4.464],[6028.366,1618.385,610.207,84.484,269.161,1238.601,391.454,68.372,54.626,108.76,607.715,198.195,32.906,26.403,11.335,101.202,26.243,11.153,1.082,13.554,46.367,5.222,18.363,3.794,15.976,26.095,12.245,1.108,6.285,18.7],[6763.904,3108.525,986.238,173.272,22.048,1452.997,675.216,215.449,15.268,81.529,766.765,404.867,54.404,27.667,22.491,136.26,79.43,13.667,13.072,-0.885,54.926,37.213,17.978,0.308,10.191,14.368,17.767,11.534,8.852,-4.885],[7661.249,4383.25,1565.579,563.132,635.743,1593.799,1081.717,244.654,56.985,55.147,797.609,465.242,187.842,41.399,37.143,148.178,111.048,39.702,23.088,23.053,60.943,43.695,37.315,9.063,2.762,34.618,31.817,17.475,11.995,1.578]]
}