{
"KTrans": [[-3.139,0.515,0.354,1.944,0.447,6.331,6.105,7.157,6.464,4.904,22.985,15.345,14.524,12.659,8.49,148.172,91.534,75.202,65.53,63.657,366.397,215.595,175.047,150.014,138.06,970.993,590.276,449.905,388.528,358.629],[-23.856,2.385,2.711,0.609,0.435,-20.588,0.91,2.519,4.199,3.976,-3.246,12.409,5.077,5.689,4.944,70.964,62.011,44.365,35.957,29.979,172.662,143.909,100.173,76.815,64.712,430.109,318.113,229.012,179.938,151.004],[-48.071,1.822,1.717,3.632,0.639,-39.778,1.985,3.85,3.06,1.586,-39.984,5.983,4.855,5.361,4.297,14.716,47.859,37.508,30.034,24.685,90.904,130.217,80.91,64.128,53.758,201.249,287.266,198.146,148.438,120.026],[-64.169,-5.998,0.198,-1.553,1.338,-65.156,-1.376,3.163,2.573,1.858,-58.345,4.177,6.232,5.317,6.484,-23.214,37.995,37.244,27.539,25.611,29.23,110.405,81.2,63.698,49.418,133.977,225.977,182.155,142.339,113.654],[-76.004,-12.693,-2.583,-1.192,0.703,-69.974,-7.085,0.903,2.935,1.273,-68.86,-6.479,2.785,4.616,5.682,-38.218,34.675,35.128,28.363,22.349,-28.667,81.791,77.171,56.653,47.568,22.857,196.038,180.141,130.008,109.35],[-77.859,-18.498,-2.709,1.138,0.316,-76.254,-14.362,1.526,2.519,1.086,-77.567,-12.947,7.121,6.622,4.874,-59.668,17.988,29.741,23.476,22.448,-29.004,64.919,73.352,56.806,46.404,10.856,154.443,150.974,126.663,100.743]],
"ve": [[11.808,5.926,19.906,10.095,3.482,10.751,6.043,6.515,5.818,18.303,11.697,6.135,4.473,48.616,1.117,50.125,16.281,1.362,-8.106,-17.577,97.502,35.437,8.566,-5.658,-15.32,194.997,80.483,36.199,10.046,-6.31],[5.863,1.497,2.018,-0.009,1.017,9.563,4.203,2.103,1.961,1.185,14.637,5.239,2.894,2.304,1.433,63.201,25.466,15.534,10.033,6.639,104.976,49.232,30.152,19.576,12.544,206.514,97.267,61.27,41.756,28.388],[4.691,0.737,1.29,0.596,0.731,13.314,4.026,2.161,1.145,0.876,9.09,5.923,4.012,2.952,1.743,54.735,26.258,16.754,11.277,8.651,104.708,50.519,32.512,23.462,17.237,229.679,101.1,65.725,47.162,35.793],[5.235,0.851,1.64,0.524,0.516,7.003,4.505,1.861,1.095,1.029,14.206,6.205,4.343,2.79,2.647,51.362,26.427,16.972,12.987,9.304,92.465,52.137,33.532,24.393,18.694,194.818,102.534,65.722,49.137,38.048],[-7.186,2.609,1.064,0.409,0.325,7.159,4.153,2.86,1.248,1.107,-10.29,6.605,3.081,3.464,2.76,57.904,26.219,17.293,12.713,9.862,105.851,51.291,33.777,24.815,19.257,206.783,101.369,66.619,49.564,39.064],[14.973,1.407,1.403,0.647,0.756,29.65,3.076,1.363,2.172,1.321,1.4,6.846,4.139,3.256,2.517,63.598,27.369,17.182,12.234,10.033,97.574,49.587,34.04,24.594,19.679,213.04,103.283,67.058,50.258,39.253]],
"kep": [[-8.747,-1.948,-2.344,2.897,0.03,-1.001,4.221,6.41,9.489,5.731,12.32,13.116,15.927,21.016,16.147,67.289,66.667,75.947,82.999,102.102,137.801,135.069,155.263,166.5,185.938,264.51,283.231,305.261,345.119,391.662],[-28.267,1.256,0.944,0.839,-0.097,-28.768,-2.799,0.765,2.575,2.927,-14.754,7.21,2.334,3.668,3.814,11.19,29.655,25.255,23.86,22.094,34.085,63.748,54.001,48.058,46.523,73.143,112.041,104.3,97.576,95.751],[-50.856,1.031,0.587,3.197,0.03,-46.665,-1.861,1.784,1.973,0.795,-48.385,0.232,0.915,2.416,2.644,-25.51,17.562,17.977,16.906,14.827,-6.431,53.306,36.635,32.998,31.242,-1.473,92.463,79.964,68.813,62.098],[-66.873,-6.849,-1.435,-2.003,0.84,-68.844,-5.527,1.326,1.519,0.883,-63.977,-1.741,1.991,2.565,3.786,-50.504,9.368,17.326,12.879,14.986,-37.965,38.649,35.687,31.67,25.961,-24.075,61.068,70.282,62.427,54.802],[-77.527,-14.923,-3.597,-1.608,0.342,-73.089,-10.731,-1.87,1.554,0.206,-73.323,-12.204,-0.249,1.115,2.815,-60.291,6.784,15.185,13.882,11.396,-65.892,20.567,32.428,25.513,23.686,-60.268,47.234,68.126,53.73,50.54],[-79.929,-19.608,-4.086,0.478,-0.416,-79.093,-17.039,0.092,0.317,-0.222,-81.319,-18.267,2.964,3.316,2.263,-74.976,-6.341,10.751,10.039,11.268,-65.727,9.235,29.371,25.858,22.312,-64.094,25.823,50.475,50.766,44.144]],
"vp": [[275.838,241.549,-187.305,76.588,-68.196,21.484,-54.091,-19.856,-46.35,-13.635,-14.292,-21.205,-18.183,-7.952,-15.488,-21.808,-21.507,-26.521,-24.074,-25.419,-22.294,-26.179,-25.622,-30.084,-27.03,-27.256,-27.117,-25.479,-25.356,-27.287],[1821.915,350.6,34.933,240.582,123.293,373.997,25.137,-10.083,10.716,-5.159,132.402,-7.074,-26.1,-21.212,-20.44,3.1,-22.774,-25.665,-26.305,-26.187,-10.105,-22.946,-26.286,-26.748,-29.559,-13.371,-28.462,-27.531,-26.15,-26.766],[2822.348,591.372,375.184,181.757,81.037,570.734,118.14,47.964,3.977,14.716,296.713,75.927,-8.912,-3.601,2.282,28.239,-13.814,-25.761,-22.882,-28.861,2.77,-18.351,-28.055,-25.552,-28.408,-9.335,-24.149,-29.049,-26.868,-28.418],[3677.573,1856.851,893.374,258.918,155.8,745.431,363.137,72.598,51.956,43.235,376.401,150.642,47.981,8.824,7.795,45.243,1.602,-8.788,-28.207,-25.704,17.66,-8.658,-23.055,-26.299,-28.603,-7.766,-17.399,-27.1,-26.114,-27.099],[4509.824,2977.74,1245.924,289.617,196.84,815.047,480.884,204.554,128.721,49.724,423.106,253.955,71.302,48.093,4.287,58.923,32.092,-8.275,-15.766,-24.513,20.334,2.515,-12.374,-27.053,-29.889,0.146,-15.691,-21.294,-28.438,-28.454],[4923.456,4098.622,1871.059,1055.264,669.05,963.758,692.12,301.22,201.667,94.783,473.561,353.987,190.682,69.231,34.186,78.001,53.4,4.603,-13.718,-17.636,26.399,17.356,-10.09,-19.293,-21.034,1.154,-3.931,-19.218,-25.222,-27.404]]
}