{
"KTrans": [[-1.256,-4.678,-9.163,-8.641,-13.737,-9.731,18.07,8.857,2.501,19.158,16.437,18.715,21.747,16.59,14.947,26.652,42.171,74.926,73.163,76.914,-74.116,84.997,35.135,66.992,110.432,-12.359,6.699,58.542,67.562,112.049],[-39,-15.782,-1.127,-1.692,1.38,-31.642,-7.222,-0.851,6.133,2.061,-42.886,-7.112,4.824,8.257,9.707,-27.833,6.886,-0.675,18.749,28.853,-41.006,39.121,2.761,-2.92,32.297,21.654,-36.63,-26.424,-50.768,-15.833],[-54.694,-19.987,-14.846,-4.857,-0.327,-55.949,-15.017,-11.438,-7.255,-0.758,-49.263,-18.433,-6.61,-4.303,2.987,-47.058,-4.979,2.901,-7.659,-9.038,-51.679,-69.369,4.152,10.145,-26.987,27.465,-34.197,-29.879,-22.504,-25.817],[-65.014,-27.905,-12.003,-4.68,-7.041,-61.064,-27.752,-8.749,-4.221,-4.848,-59.767,-24.258,-8.916,-4.098,-3.628,-56.398,-1.823,14.111,10.134,8.953,-69.616,-21.009,-8.341,9.421,-7.597,-103.405,4.028,-15.192,-18.842,9.789],[-64.034,-34.584,-14.323,-5.485,-5.915,-70.841,-31.252,-17.835,-5.407,-2.288,-69.352,-33.804,-7.99,-2.359,-1.218,-64.879,-26.877,0.711,11.343,13.492,-68.27,-20.02,-22.609,10.261,25.473,-67.043,-63.274,-15.855,3.317,-41.485],[-78.314,-41.224,-19.701,-6.92,-6.846,-80.312,-32.875,-14.31,-7.812,-5.988,-73.817,-36.287,-13.976,-8.054,-3.861,-73.829,-28.899,-2.14,-1.413,5.23,-76.171,-31.222,-0.309,7.269,7.875,-74.308,-38.997,-51.909,-26.428,-19.812]],
"ve": [[-9.485,-2.846,7.349,27.851,-86.512,-1.425,22.661,-43.715,-29.649,-0.103,12.842,-77.981,-23.924,-73.931,-42.949,39.942,46.291,-139.588,-40.444,-4.795,164.972,16.893,-16.437,-27.638,-26.888,189.07,81.159,31.675,-30.108,-18.413],[-7.119,-1.308,5.307,-6.552,-14.943,-14.541,26.329,-7.421,301.254,-34.316,3.354,52.306,3.728,-1.097,-15.219,39.32,23.829,220.399,-0.523,-5.559,87.693,40.612,27.298,23.431,10.023,195.761,95.443,63.006,41.653,27.367],[211.92,24.097,6.722,309.951,72,-16.46,17.835,-2.326,4.552,4.476,9.114,15.238,-18.182,1516.263,-14.979,56.226,17.236,30.715,37.047,11.553,98.137,50.381,30.114,34.639,19.587,180.666,94.1,63.255,48.443,39.222],[-3.52,-11.28,-0.821,-4.94,3.471,-5.766,-4.407,-1.186,-2.594,-1.236,19.798,-0.021,-5.952,1.121,1.685,84.567,18.358,10.863,10.367,-0.244,1043.224,47.01,34.504,21.966,11.001,310.304,95.565,69.312,50.827,39.144],[28.261,-5.487,-3.302,-1.515,-6.232,0.053,-1.117,0.534,-1.737,-56.508,1.455,11.09,1.085,4.249,-1.559,36.314,21.12,42.357,8.191,192.607,91.554,22.228,30.193,21.842,17.963,220.116,97.441,49.113,50.854,39.017],[0.212,-0.017,-2.584,-0.887,-1.798,11.006,0.43,1.817,-0.32,-1.573,-29.411,-0.753,-1.184,-0.146,-16.822,59.045,18.686,13.568,9.169,8.997,92.067,47.359,32.766,22.827,18.259,196.492,98.157,64.985,49.38,40.281]],
"kep": [[-137.897,-50.011,-6.978,13.372,4.834,-123.831,-105.713,-43.525,-23.338,-68.057,-122.57,-112.684,-83.599,-24.543,-22.294,-141.828,-241.426,-207.722,-207.485,-161.93,-163.677,-228.765,-365.28,-450.191,-408.174,-73.385,-195.126,-387.967,-558.155,-641.066],[-83.238,-90.994,-120.349,-61.014,-20.522,-79.551,-75.835,-125.208,-93.301,-9.233,-94.69,-85.039,-119.928,-81.022,-39.545,-82.377,-74.687,-160.178,-185.255,-90.677,-86.136,-42.827,-121.418,-257.586,-208.244,-58.517,-72.848,-98.013,-213.048,-319.707],[-82.476,-51.138,-66.5,-81.891,-108.154,-83.922,-44.224,-61.358,-94.193,-141.729,-82.195,-53.237,-50.384,-86.544,-118.351,-82.851,-52.495,-46.632,-108.479,-176.058,-85.292,-102.963,-55.744,-54.2,-191.732,-62.812,-64.068,-63.889,-78.837,-112.591],[-85.852,-49.666,-30.458,-26.245,-50.097,-83.587,-51.23,-31.988,-30.91,-50.634,-83.794,-47.712,-35.353,-31.26,-52.606,-86.162,-44.819,-24.58,-23.551,-43.857,-92.188,-56.266,-51.521,-37.059,-76.514,-91.279,-57.39,-63.579,-60.164,-34.469],[-84.331,-56.606,-28.582,-16.884,-27.736,-87.485,-50.959,-36.898,-18.265,-23.581,-88.814,-55.908,-25.475,-15.204,-16.493,-88.796,-58.471,-31.248,-13.596,-16.124,-90.15,-60.332,-56.949,-27.088,-6.209,-87.598,-73.595,-60.376,-41.331,-79.569],[-92.612,-57.564,-33.077,-16.742,-14.298,-94.939,-50.624,-29.973,-20.126,-18.792,-89.694,-55.69,-30.13,-21.915,-18.435,-91.569,-57.905,-33.091,-29.181,-16.506,-93.035,-64.566,-44.232,-30.246,-31.572,-87.596,-68.135,-72.423,-61.431,-56.288]],
"vp": [[28.641,264.558,300.994,687.706,406.569,72.178,26.52,91.17,55.224,-82.328,-6.888,0.54,0.256,88.749,73.844,-23.065,-7.366,-19.585,5.67,-20.975,-8.8,-18.965,9.152,22.464,-7.158,-35.761,-23.628,-25.271,-16.513,-26.747],[2001.053,1084.951,4.071,358.684,604.066,525.663,146.82,14.778,-171.205,148.961,286.121,108.033,-13.728,-27.248,58.383,47.633,0.404,1.752,-3.901,-9.348,23.104,-16.968,-27.705,5.986,-8.519,-9.544,-15.516,-24.544,-9.321,0.786],[4147.687,3798.943,1831.036,557.499,241.489,871.463,693.356,343.968,38.868,-0.954,383.773,303.727,220.057,40.5,-34.996,68.244,44.815,2.501,-1.507,-5.698,41.315,30.433,-6.232,-30.217,-13.244,-31.995,-28.15,-28.414,-23.982,-15.719],[5713.381,5378.135,3901.389,1834.915,1082.41,910.373,851.324,671.562,434.253,359.904,573.543,518.217,244.411,249.521,184.244,89.755,85.742,47.744,6.281,38.737,39.785,24.775,10.583,3.265,3.919,22.494,-15.148,-2.92,-23.18,-26.264],[6643.268,6745.368,5084.006,3489.777,1672.344,1076.924,1269.41,853.672,652.911,487.37,600.412,708.03,461.589,251.782,273.167,135.413,109.425,86.772,63.887,50.601,24.872,47.705,28.532,-17.535,-24.44,5.051,9.816,-6.689,-33.764,-17.977],[6706.798,8275.803,5603.814,5430.652,3125.718,1329.678,1557.814,1330.27,948.533,499.198,670.355,837.679,631.52,468.682,180.181,101.258,150.939,112.672,80.014,34.304,51.999,47.002,62.252,19.524,10.137,-0.535,5.877,10.405,-14.149,-3.866]]
}