{
"KTrans": [[0.522,1.343,2.035,3.238,3.177,6.474,5.451,6.159,4.701,2.544,-2.382,3.915,-2.677,5.524,1.314,26.36,7.397,9.092,5.344,1.04,39.963,14.641,23.062,12.795,9.158,78.526,80.274,47.319,48.3,27.617],[-60.114,3.469,-1.507,3.533,1.304,-55.303,3.907,2.49,0.347,1.965,-63.729,1.571,2.307,0.304,2.847,-50.801,7.991,1.169,1.743,1.508,-33.715,23.829,-8.75,-4.473,2.981,-34.3,48.394,18.082,27.851,2.91],[-90.168,-8.787,1.502,3.285,3.437,-89.198,-22.302,4.46,1.612,2.421,-90.062,-17.468,4.591,-0.21,1.189,-85.598,-10.774,6.793,2.437,-1.53,-76.985,2.655,12.339,2.915,2.943,-54.819,6.672,14.224,13.043,3.189],[-94.964,-51.008,-2.743,2.786,4.109,-96.538,-38.215,1.912,4.628,1.73,-94.951,-35.206,-7.879,1.893,3.691,-95.636,-38.573,5.242,3.758,-0.547,-85.718,-21.078,9.757,4.2,4.446,-109.442,-13.724,19.752,8.739,2.631],[-97.102,-70.147,-6.362,7.359,5.28,-96.151,-65.737,-10.772,4.949,3.008,-97.906,-72.513,-1.357,6.515,3.787,-96.924,-67.998,-1.56,2.865,0.602,-94.645,-60.962,-10.344,-3.347,1.96,-81.339,-45.598,-2.417,1.558,5.54],[-97.629,-82.523,-22.696,6.012,5.722,-98.012,-82.913,-34.683,4.615,3.205,-97.266,-82.491,-29.803,-1.599,4,-97.328,-77.882,-30.209,-7.882,9.841,-95.852,-73.443,-31.816,0.541,7.145,-99.707,-58.806,-31.903,6.015,21.746]],
"ve": [[-1.409,-19.358,8.646,14.898,16.492,4.097,5.991,-1.936,12.608,-29.671,-50.935,97.496,6.703,21.634,2.478,-16.074,-54.722,-29.493,-84.161,-413.241,11.189,1.465,4800.051,-161.065,-12.391,31.548,-2.89,-35.838,-827.084,-40.643],[-37.416,0.334,-0.893,-0.749,-0.055,-26.575,-0.874,-0.075,-0.054,-0.488,-36.413,-2.356,-1.64,-0.889,-0.044,-33.754,1.831,-2.243,-0.104,-0.33,-39.175,11.038,-12.445,0.461,4.506,-20.788,15.42,-4.003,-86.245,-144.453],[-77.08,-8.036,-0.853,-0.425,-0.793,-37.277,-13.641,0.443,-0.65,-0.73,733.087,-10.334,0.509,-0.656,-1.136,-71.016,-9.135,1.766,-0.774,-2.14,-66.005,-3.917,5.098,-0.604,0.636,-42.481,-5.315,-1.86,-1.494,-216.166],[-57.218,-31.648,-4.627,-0.67,-0.585,-91.685,-27.665,-2.871,-0.409,-1.019,-86.665,-24.307,-6.365,-0.369,0.475,-97.626,-33.51,-2.377,-1.914,-3.033,-58.767,-20.346,-2.306,-2.198,-0.29,-130.01,-3.403,-0.329,-0.822,-2.584],[-86.068,-54.065,-7.317,-1.11,-0.184,-97.447,-41.542,-8.869,-1.527,-1.187,-388.77,-57.146,-5.42,-0.278,-0.156,-116.456,-50.373,-5.958,-1.777,-2.466,-114.558,-45.526,-14.959,12.722,-3.031,-75.145,-35.543,-9.37,-4.566,-3.755],[-95.973,-64.853,-15.021,-1.165,-0.048,-93.51,-75.801,-20.6,-1.271,-1.265,-78.574,-72.651,-21.368,-3.872,-0.858,-125.906,-67.489,-23.346,-9.324,2.61,-94.339,-57.211,-33.567,-2.631,0.896,-115.071,-51.797,-34.998,3.307,2.866]],
"kep": [[-2.096,-0.518,2.838,4.378,4.685,1.159,3.691,5.227,5.357,3.734,-7.716,-0.996,-6.535,5.71,1.717,-5.705,-3.29,4.29,2.032,-9.133,-0.831,-17.711,1.719,-1.35,-9.305,28.486,25.42,3.717,21.912,-11.996],[-55.195,1.74,-0.978,4.376,1.542,-53.711,1.921,2.33,0.309,2.659,-57.844,2.271,3.637,1.155,3.123,-57.906,1.963,1.133,1.056,1.735,-52.153,1.798,-13.417,-7.691,-0.509,-32.732,-7.732,-13.55,6.357,-13.951],[-90.684,-5.345,1.261,3.597,4.107,-86.771,-13.704,2.823,1.919,2.995,-92.835,-11.963,2.833,0.133,2.168,-84.66,-12.988,3.299,1.941,0.013,-75.318,-22.099,-1.629,-1.093,-0.66,-59.716,-20.652,-10.841,-8.77,-6.584],[-99.236,-36.476,0.039,2.678,4.352,-99.516,-31.025,2.935,4.28,2.395,-97.568,-27.025,-3.133,1.64,2.893,-92.601,-47.559,3.76,3.515,1.559,-83.843,-42.429,-1.665,0.59,1.498,-76.025,-40.331,-22.383,-10.178,-8.889],[-96.944,-63.462,-3.305,7.743,5.054,-96.774,-59.79,-6.787,5.166,3.539,-98.884,-68.942,0.664,5.254,3.375,-96.394,-64.632,-5.641,2.654,1.468,-91.264,-58.499,-19.352,-6.062,1.777,-81.571,-55.295,-27.181,-8.409,-6.371],[-97.912,-81.286,-17.291,5.364,4.913,-97.081,-87.917,-22.76,3.701,3.551,-97.878,-83.145,-20.821,0.728,3.881,-97.039,-79.066,-26.369,-2.338,5.725,-91.443,-73.623,-37.058,-0.293,3.814,-87.274,-68.664,-36.18,-15.021,10.523]],
"vp": [[308.114,-10.175,233.353,-86.361,-210.498,50.427,-36.694,-51.81,-25.174,-18.606,37.097,-20.882,22.274,-28.767,13.263,-14.128,-0.468,-6.355,-8.17,3.596,-13.211,2.671,-10.523,-7.831,-4.004,-13.284,-19.561,-12.378,-18.008,-5.746],[4038.637,-24.783,471.776,-102.455,-26.801,667.33,49.261,6.846,29.951,40.585,407.228,45.28,29.278,40.499,-31.049,71.944,-7.056,15.827,1.093,2.218,14.72,-22.45,32.749,18.655,-1.176,10.132,-19.537,-3.735,-22.145,12.142],[7652.962,1662.567,359.465,89.656,94.934,1486.712,577.647,-21.993,50.475,34.663,772.432,226.997,-12.806,35.707,47.289,138.918,37.394,-12.531,7.134,22.881,67.49,7.94,-16.381,4.91,-1.212,21.981,5.924,3.978,-1.087,10.754],[9272.604,6485.657,1285.574,307.766,142.927,1835.012,1162.854,161.885,36.128,85.105,923.405,493.831,199.742,24.473,-29.036,182.061,137.409,8.317,15.244,31.285,72.165,43.789,4.109,9.78,-0.58,68.525,1.072,1.311,-0.037,7.999],[9097.305,10988.336,2174.709,240.669,-70.212,1748.281,2085.633,562.742,85.205,106.94,984.59,1162.057,188.388,-6.618,-6.317,200.335,205.177,29.886,12.49,22.995,98.317,90.25,47.579,23.501,15.043,25.782,36.196,10.019,10.714,9.682],[9131.899,14339.613,4874.091,463.189,-27.804,1912.411,3077.893,1293.777,37.961,104.145,951.671,1436.676,642.75,168.978,18.243,198.647,276.149,140.481,77.449,-32.668,96.398,112.814,96.798,14.214,-8.341,57.19,50.953,53.778,-8.135,-8.408]]
}