{
"KTrans": [[-56.272,-70.621,-71.378,-71.46,-67.984,-39.134,-70.493,-55.088,-64.929,-56.546,-20.225,-39.045,-51.361,-48.64,-51.567,74.443,33.861,8.995,0.236,6.319,136.856,43.263,58.295,41.796,58.313,284.906,183.533,125.585,146.314,128.349],[-56.535,-54.211,-45.747,-61.136,-64.73,-56.295,-39.014,-31.956,-41.825,-57.285,-47.475,-25.639,-29.309,-43.969,-45.588,-27.375,1.73,14.342,-1.657,-19.797,0.343,27.21,44.396,20.859,-2.36,68.853,86.86,87.797,53.875,15.628],[-67.714,-48.562,-47.059,-37.252,-51.909,-68.217,-44.592,-41.594,-33.816,-44.025,-67.207,-37.637,-39.846,-34.016,-29.612,-53.706,-20.014,-7.844,-0.221,8.278,-41.579,-5.251,3.185,16.089,26.696,-0.314,12.966,35.56,47.117,46.291],[-78.101,-47.054,-42.507,-50.045,-42.417,-75.343,-50.743,-47.778,-42.813,-39.262,-74.778,-43.341,-41.53,-40.884,-35.813,-66.615,-33.458,-19.291,-11.875,-9.649,-57.426,-16.321,-10.553,-4.709,1.687,-38.942,-3.014,11.223,11.596,14.026],[-83.125,-53.348,-45.046,-44.095,-54.314,-81.03,-54.018,-45.211,-42.766,-38.397,-81.819,-53.083,-37.4,-38.707,-33.657,-76.251,-47.233,-20.729,-14.07,-12.7,-67.53,-39.768,-18.239,-8.362,-2.901,-49.713,-26.387,-9.575,7.754,15.239],[-85.567,-63.585,-45.585,-42.111,-39.954,-86.104,-66.699,-47.758,-42.319,-42.251,-85.963,-61.727,-40.619,-38.816,-35.842,-77.328,-62.245,-29.12,-19.922,-13.401,-75.488,-50.242,-32.292,-9.671,-5.702,-57.747,-30.863,-16.151,-0.916,-0.469]],
"ve": [[-64.218,-59.885,92.33,-67.013,-59.877,-34.915,-46.888,-37.494,-85.573,-38.805,-18.865,-19.435,-20.2,50.142,-73.677,86.899,-80.642,-23.131,-35.142,30.618,124.632,2.949,-98.13,-7.681,-21.062,268.834,70.584,106.062,-9.987,-40.315],[-40.404,-56.48,-31.241,-50.833,-503.446,-40.235,-41.519,-28.625,-35.143,-33.033,-33.094,-20.312,-26.532,-39.271,-45.364,-121.96,23.593,15.502,8.314,11.687,107.038,40.535,142.446,7.312,-3.568,212.834,130.109,85.459,33.936,23.69],[-23.21,-79.13,-57.331,-39.807,-48.918,-19.219,-76.801,-65.04,-35.286,-44.909,-19.482,-51.082,-60.812,-39.531,-29.988,182.409,-24.644,-9.576,-5.861,7.461,76.24,-11.058,3.887,19.724,24.908,174.652,48.519,39.627,42.327,42.461],[-13.004,-70.802,-75.983,-85.102,-60.4,15.17,-79.863,-97.284,-68.929,-55.857,-0.976,-41.182,-83.401,-78.728,-48.942,28.171,-30.938,-29.405,-26.791,2.516,91.049,-10.622,-18.113,-12.178,2.428,199.5,44.437,13.207,7.481,17.203],[2.038,-50.007,-91.085,-88.303,-95,-2.438,-60.017,-98.483,-89.045,-68.893,11.979,-29.786,-79.618,-77.644,-60.046,54.238,-13.081,-22.963,-27.033,-26.931,97.073,-9.826,-28.271,-19.447,19.238,175.385,27.598,2.914,11.074,3.933],[4.66,-44.209,-94.321,-86.311,-77.543,15.206,-54.224,-100.085,-93.996,-82.247,9.227,-32.865,-71.244,-80.585,-72.158,86.97,-27.93,-27.607,-26.008,-20.425,90.049,-17.114,-30.492,-15.013,-13.046,256.496,84.601,2.112,2.469,-7.298]],
"kep": [[-137.999,-26.603,-5.596,-2.94,4.294,-120.877,-16.926,-22.971,3.089,-16.36,-138.984,-51.099,-18.003,-6.27,-1.289,-141.72,-71.985,-28.761,-4.625,-27.538,-121.077,-53.146,-53.302,-33.032,-56.071,-93.822,-125.609,-63.256,-92.062,-69.869],[-71.662,-60.648,-129.083,-32.973,-1.264,-77.812,-61.702,-122.909,-27.64,2.138,-69.569,-66.705,-113.633,-38.164,-0.223,-64.408,-60.947,-135.44,-54.233,-9.468,-59.513,-71.126,-124.662,-73.408,-17.048,-58.797,-65.954,-105.099,-114.731,-30.517],[-85.155,-32.692,-23.851,-57.749,-127.747,-82.385,-31.409,-20.228,-55.292,-129.203,-84.351,-29.008,-22.002,-48.123,-128.525,-82.07,-23.274,-16.985,-39.316,-123.964,-79.763,-25.318,-18.448,-45.064,-111.826,-75.203,-34.102,-15.922,-25.903,-75.26],[-89.341,-32.045,-16.245,-9.746,-19.23,-89.21,-35.327,-11.497,-8.502,-9.691,-90.186,-41.383,-13.78,-1.729,-13.351,-86.438,-29.458,-16.555,-1.713,-14.681,-86.747,-27.265,-11.673,-1.701,-17.378,-86.843,-42.062,-8.945,-9.186,-22.161],[-93.959,-45.681,-16.676,-8.485,-9.192,-93.756,-45.414,-13.752,-8.178,-2.216,-93.988,-49.733,-14.608,-8.188,1.928,-94.237,-52.73,-17.722,-4.615,0.792,-90.649,-46.046,-15.348,-3.472,-11.602,-88.24,-48.936,-23.073,-4.682,10.352],[-96.273,-58.029,-21.496,-14.237,-6.58,-96.254,-61.839,-25.582,-11.338,-9.062,-95.828,-56.508,-21.072,-13.7,-5.477,-96.588,-60.807,-20.547,-13.135,-9.312,-93.733,-54.489,-24.808,-6.99,-2.903,-93.617,-67.385,-26.665,-9.729,-3.678]],
"vp": [[-110.851,-235.54,-64.607,232.808,233.243,31.03,-4.711,24.857,54.851,3.431,-3.664,-20.814,-26.405,16.066,21.808,-6.931,-11.257,0.552,-4.641,-3.233,-2.291,-2.105,-7.828,-0.941,-3.167,-7.681,-3.355,-1.211,-6.204,2.228],[1978.538,382.179,-25.231,-316.854,88.594,395.824,205.775,65.777,60.236,-4.945,197.686,92.275,16.302,-24.029,19.795,27.474,7.915,-11.474,-7.483,-1.156,2.584,9.173,-10.435,-16.174,-1.281,-5.795,-0.115,-9.809,-2.959,-1.285],[4751.292,1956.951,980.187,912.094,-109.717,836.49,355.373,113.801,164.512,-16.267,416.113,182.42,58.265,47.332,-3.847,71.055,15.938,11.628,1.993,-6.768,37.645,4.109,-0.499,-6.826,-7.662,3.411,0.618,-5.205,-12.041,-6.961],[5765.085,2806.932,1695.792,449.956,934.016,1120.211,562.037,132.029,154.79,179.649,543.114,303.287,82.729,-7.137,53.156,84.346,42.667,18.984,-8.791,13.683,43.032,1.434,9.006,-0.402,7.103,22.356,7.669,-4.49,-1.856,10.178],[6310.562,4716.529,2267.189,861.463,445.808,1270.685,937.017,350.915,119.614,97.347,676.159,583.547,140.705,102.988,66.21,125.686,97.372,31.377,14.753,-7.89,51.11,40.651,14.074,-1.29,5.504,10.54,14.875,7.388,-2.071,-15.683],[6719.675,6765.715,2894.01,2093.867,1242.712,1436.995,1459.164,574.953,289.123,243.9,691.798,649.769,336.581,159.885,55.363,133.184,146.548,71.523,40.341,17.808,56.894,45.882,42.174,5.954,4.589,28.05,25.366,13.034,3.855,-3.443]]
}