{
"KTrans": [[2.416,1.953,0.627,-0.036,-1.369,1.431,12.6,10.39,8.894,10.291,-3.29,21.889,22.918,21.258,21.222,34.693,48.379,76.362,79.949,84.535,-4.731,-0.797,60.018,99.737,121.463,-161.162,80.245,23.481,128.353,110.372],[2.306,0.843,0.23,0.355,-0.004,0.89,7.331,0.831,3.478,3.294,23.204,10.999,-0.812,9.195,7.715,-14.491,9.929,-10.699,22.443,30.601,78.783,6.293,16.466,-9.366,35.891,29.539,111.34,72.083,66.56,1.274],[-1.464,0.357,1.204,0.805,0.052,2.526,6.604,4.083,5.199,0.375,-20.524,12.197,10.511,8.79,-2.611,-3.843,5.567,-13.693,14.35,-2.062,4.222,16.016,-53.363,11.006,5.467,57.684,22.86,62.668,8.567,45.257],[-29.241,-1.826,0.63,0.612,0.351,-34.47,-0.309,5.195,3.955,3.984,-30.978,12.45,9.513,7.445,6.37,-33.822,16.123,7.222,-7.593,-2.472,-9.201,-21.099,-23.968,-14.618,-1.948,-3.906,13.739,-10.753,-82.566,-12.543],[-49.324,4.361,2.605,4.267,1.875,-46.288,3.445,7.172,6.11,4.112,-55.319,7.952,9.775,9.036,6.021,-50.165,-11.611,15.493,34.546,9.516,-13.546,-22.094,3.648,22.177,19.616,-63.888,-52.371,2.075,-46.733,12.687],[-56.934,-1.768,8.038,0.233,1.602,-67.919,7.739,3.766,1.89,1.881,-55.578,-18.496,3.937,3.947,4.285,-62.749,11.655,46.72,33.508,20.622,-39.954,-18.777,-6.105,34.997,57.867,-68.549,-89.601,34.119,2.405,5.259]],
"ve": [[1.843,10.334,1.628,4.753,24.582,8.511,-13.482,30.734,6.258,20.583,7.264,-2.302,12.795,43.678,82.562,48.727,510.783,-67.67,-14.844,373.591,98.836,28.52,-22.536,-39.213,-63.825,203.732,82.246,32.93,0.357,-17.884],[0.249,0.088,-0.28,2.093,0.405,2.612,0.601,2.147,4.842,1.642,5.474,4.976,3.394,1.426,5.77,49.371,25.296,16.571,-3.309,4.089,99.145,48.898,32.686,16.301,-19.301,196.068,99.142,64.326,42.982,25.821],[-1.52,-0.094,0.145,-0.519,0.359,4.382,2.472,1.739,1.405,1.064,9.147,4.641,3.302,3.412,0.772,54.177,25.073,19.986,12.841,9.606,97.936,47.493,35.549,26.701,19.465,194.636,101.652,63.859,50.636,39.495],[0.707,-0.073,0.052,0.172,0.206,5.043,1.938,1.684,1.399,1.001,8.018,4.159,3.338,2.664,2.062,50.6,24.345,17.75,11.884,10.768,97.578,49.632,36.106,25.381,21.526,197.271,92.095,69.298,53.461,41.554],[0.683,0.576,0.53,0.431,0.363,3.66,2.191,1.919,1.636,1.111,11.476,3.448,3.17,2.739,2.125,46.178,24.145,18.048,12.467,10.378,97.397,51.077,34.287,26.525,20.065,201.263,104.954,67.634,51.499,40.408],[-1.231,-0.658,0.571,0.221,0.365,3.715,2.058,1.468,1.082,1.153,6.616,5.299,2.443,2.182,2.061,63.341,25.575,17.34,11.911,10.27,93.842,49.238,32.144,25.827,20.122,196.924,105.17,64.004,47.702,38.613]],
"kep": [[-110.436,-2.371,2.357,5.267,5.691,-143.204,-23.682,-11.928,-6.284,-17.372,-131.468,-37.93,-35.139,-29.272,-31.109,67.459,-215.358,-181.81,-189.805,-166.083,44.639,-321.271,-346.768,-343.588,-354.144,13.909,161.988,-437.837,-515.443,-633.392],[-3.717,1.141,-102.925,-1.055,4.007,-7.564,8.979,-130.348,-7.85,-1.199,4.124,5.74,-153.833,-36.751,-12.836,-33.463,-4.305,19.609,-137.559,-107.482,-14.234,-10.317,73.191,-260.978,-174.711,-33.055,39.188,101.461,134.714,-294.431],[-14.494,-0.539,1.765,4.61,-104.04,-15.781,4.902,4.687,19.418,-141.51,-37.045,3.528,13.918,20.118,-172.026,-47.3,-21.052,-37.87,11.572,-17.152,-44.116,-15.844,-63.831,-0.032,67.191,-39.154,-31.637,13.988,16.854,95.694],[-42.09,-4.168,-0.254,0.704,2.564,-51.057,-6.108,5.229,5.899,9.584,-46.097,1.965,6.502,8.26,12.892,-59.868,-15.916,-16.854,-34.742,-25.138,-53.879,-39.892,-43.068,-33.59,-17.582,-60.414,-37.356,-35.876,-74.53,-14.75],[-59.983,-3.369,0.097,6.05,3.869,-63.14,-8.183,3.186,5.811,5.036,-68.057,-7.549,4.208,7.797,7.204,-70.744,-38.236,-11.122,19.287,-9.954,-58.101,-47.321,-26.609,-2.246,-8.107,-75.698,-69.381,-35.137,-52.205,-17.313],[-69.361,-12.188,3.189,-0.369,3.091,-77.455,-9.097,-0.965,-0.753,1.482,-66.892,-34.967,-4.528,0.234,3.209,-75.611,-27.681,12.589,16.967,7.447,-70.635,-48.715,-32.298,-0.101,24.901,-79.967,-72.211,-23.153,-22.705,-19.169]],
"vp": [[-12.428,26.956,-39.978,-87.584,-75.28,-18.113,-49.806,-19.447,-13.994,-14.543,-16.643,0.972,-20.603,-35.318,-3.268,-17.363,-14.51,-14.111,-6.945,-27.891,-31.281,-24.781,-8.785,-16.143,-29.31,-39.447,-30.081,-20.797,-44.722,-27.212],[705.003,204.575,-47.045,-60.049,-84.765,73.187,1.479,-37.078,-75.763,-44.163,60.666,-4.275,-31.634,-16.582,-36.957,-34.789,-63.863,-25.234,-36.499,3.854,-41.929,-65.632,-42.995,-1.972,-16.474,-56.572,-46.882,-70.48,-32.541,-18.575],[2217.286,550.385,344.244,13.834,94.793,365.103,119.89,-0.986,-0.003,-6.387,96.392,96.386,-4.194,21.381,7.769,0.967,-43.619,-36.643,-58.764,-48.335,-46.46,-64.345,-32.17,-63.993,-35.351,-37.66,-47.781,-76.961,-42.752,-61.25],[3011.454,603.056,745.851,337.271,191.813,655.387,269.871,125.173,-8.263,28.835,189.441,108.722,41.268,14.077,11.158,24.395,3.671,5.265,-6.145,-28.003,-29.111,-43.487,-3.848,-56.115,-49.991,-34.258,-69.907,-48.028,-17.114,-39.957],[3541.092,1522.847,695.989,1093.395,832.637,765.531,298.121,214.252,234.575,150.404,362.848,116.161,130.215,30.786,66.659,-21.26,-18.141,16.648,-25.269,14.964,-21.909,-40.738,-31.88,-54.427,-33.798,-4.607,-14.659,-60.418,-37.337,-63.3],[5212.002,3191.824,1946.645,1384.018,1365.499,974.865,691.809,288.508,170.87,174.448,358.258,298.792,182.888,108.826,37.028,27.491,46.094,8.154,-41.97,0.98,-48.533,-19.316,-40.142,-37.505,-19.194,-36.038,-1.53,-35.47,-44.233,-80.687]]
}