{
"KTrans": [[1.711,3.09,2.766,2.648,2.192,0.787,3.748,1.893,3.273,2.475,5.672,3.992,4.347,5.14,4.709,3.597,10.299,6.258,6.544,6.022,12.243,13.4,10.567,10.798,8.526,20.698,16.467,17.415,17.852,16.96],[-22.384,-1.934,0.39,1.47,1.757,-13.958,-3.687,0.013,0.859,1.119,-18.87,-1.642,1.667,2.616,2.347,-18.629,-0.971,0.541,1.021,3.363,-15.722,1.567,5.712,4.7,5.214,-18.203,3.455,4.009,7.672,6.896],[-49.042,-9.725,-3.452,-1.306,-1.299,-49.375,-12.432,-4.167,-0.952,1.194,-51.772,-10.391,-4.396,-1.948,-0.659,-49.922,-13.066,-3.97,0.208,0.78,-47.033,-8.596,-2.395,-0.25,2.982,-47.872,-8.231,0.45,1.668,3.883],[-71.164,-19.555,-8.892,-5.566,-2.89,-71.463,-23.251,-8.847,-5.853,-2.126,-70.893,-23.084,-10.198,-5.7,-2.806,-73.539,-22.791,-7.195,-3.44,-1.397,-70.764,-21.475,-9.008,-4.454,-0.957,-68.854,-21.431,-8.784,-2.875,-0.114],[-82.04,-26.926,-15.481,-9.285,-5.722,-82.732,-31.285,-17.585,-8.954,-6.241,-82.184,-34.637,-16.909,-9.411,-5.884,-79.566,-31.452,-19.482,-8.861,-4.895,-83.82,-36.335,-16.461,-10.659,-5.499,-81.238,-35.333,-20.81,-9.704,-2.853],[-89.985,-42.331,-24.174,-13.657,-9.155,-90.002,-40.507,-19.288,-14.456,-6.628,-89.176,-41.691,-24.791,-12.403,-8.495,-87.362,-46.504,-19.912,-13.937,-8.649,-88.478,-42.946,-26.009,-11.242,-7.974,-83.672,-47.987,-27.762,-14.954,-9.184]],
"ve": [[1.015,1.551,4.62,6.485,12.523,1.282,2.451,4.733,6.432,10.562,2.642,2.555,4.043,4.854,8.181,3.925,3.925,3.497,5.719,8.344,8.592,5.677,4.303,3.695,7.607,16.669,9.175,7.181,7.7,3.791],[-8.862,-0.514,0.428,0.703,1.168,-4.757,-0.891,0.107,0.695,1.011,-7.323,-0.877,0.252,1.107,0.923,-5.141,1.438,0.826,1.168,1.722,1.572,3.552,3.084,2.632,2.473,5.517,6.973,4.789,4.546,3.884],[-24.722,-3.475,-1.287,-0.161,-0.098,-26.324,-5.663,-1.316,-0.186,0.208,-24.83,-3.153,-1.717,-0.789,0.003,-21.898,-3.17,-0.695,0.73,0.844,-18.536,0.071,1.151,1.005,1.597,-6.599,3.536,3.925,3.52,3.235],[-42.471,-7.702,-3.402,-1.891,-1.131,-38.871,-8.953,-2.724,-1.988,-0.673,-40.806,-8.392,-3.223,-1.928,-1.051,-49.22,-7.44,-2.272,-0.622,-0.22,-33.362,-6.562,-1.229,0.018,0.455,-27.787,-2.224,1.059,1.507,2.13],[-51.976,-11.254,-5.767,-2.963,-2.242,-54.878,-13.928,-6.575,-2.835,-2.006,-8.301,-15.16,-6.607,-3.122,-2.011,-47.35,-12.208,-6.762,-2.325,-1.19,-49.175,-13.283,-4.069,-2.437,-0.798,-39.735,-8.584,-4.667,-0.727,1.31],[-133.319,-20.74,-10.058,-5.065,-3.226,-64.396,-18.957,-7.375,-5.204,-2.265,-60.491,-19.264,-9.993,-4.567,-2.932,-58.085,-20.222,-6.673,-4.631,-2.803,-75.958,-16.092,-8.384,-2.794,-1.791,-37.928,-15.826,-7.206,-2.334,-0.768]],
"kep": [[-6.651,-5.25,-7.586,-8.593,-10.901,-7.973,-5.403,-8.355,-7.946,-11.356,-4.942,-5.356,-5.467,-5.312,-7.773,-7.885,-0.932,-3.72,-4.372,-5.619,-5.207,0.139,-0.435,1.819,-1.886,-5.976,-0.997,3.995,7.024,9.749],[-23.087,-8.63,-7.235,-6.4,-6.52,-18.714,-9.96,-7.223,-6.943,-6.973,-21.183,-8.118,-5.846,-5.709,-5.746,-22.665,-9.737,-7.422,-7.231,-5.594,-25.278,-9.524,-4.897,-5.289,-4.602,-32.006,-11.091,-8.147,-4.475,-4.48],[-41.894,-13.577,-9.22,-8.192,-8.242,-41.105,-14.402,-9.891,-7.869,-6.204,-44.381,-14.485,-9.776,-8.236,-7.735,-43.965,-17.188,-10.315,-7.659,-7.193,-44.026,-16.016,-10.536,-8.356,-5.899,-51.242,-18.49,-10.671,-8.988,-6.668],[-61.298,-20.124,-12.599,-10.658,-8.796,-60.532,-22.652,-13.187,-10.848,-8.489,-59.022,-22.988,-13.975,-10.789,-8.784,-62.6,-23.497,-12.168,-9.818,-8.251,-64.37,-23.114,-14.742,-11.311,-8.465,-67.295,-26.879,-16.573,-11.391,-9.289],[-72.178,-25.455,-17.14,-13.289,-10.495,-72.17,-27.701,-18.428,-13.118,-11.191,-71.989,-30.436,-17.727,-13.318,-10.821,-69.919,-29.365,-20.219,-13.49,-10.653,-75.695,-33.737,-19.517,-15.071,-11.606,-77.004,-36.171,-23.515,-15.756,-11.072],[-81.435,-35.079,-22.26,-15.707,-12.884,-82.01,-34.566,-19.701,-16.409,-11.351,-81.186,-35.099,-22.958,-14.897,-12.528,-79.421,-39.37,-20.954,-16.451,-12.829,-82.147,-38.852,-25.72,-15.485,-13.064,-81.572,-44.611,-28.406,-19.455,-15.154]],
"vp": [[36.859,-22.356,-13.085,16.205,22.699,4.212,-21.029,5.052,-20.118,3.93,-11.683,-7.363,-15.14,-26.063,-24.494,2.878,-6.695,-2.676,-1.632,-2.579,-1.281,-3.311,-1.514,-1.987,-0.347,-0.493,0.199,-1.345,-2.47,-1.498],[1016.616,62.75,-42.725,-48.6,-92.655,105,49.345,7.146,-14.508,-3.494,85.467,19.065,-13.771,-32.567,-14.491,18.185,1.654,3.677,3.283,-2.481,5.458,-0.433,-3.757,-1.678,-3.163,4.359,-0.037,0.922,-1.689,-0.335],[2657.774,595.078,276.367,44.468,246.009,564.841,220.76,70.397,-1.505,-23.472,277.437,68.471,46.173,38.811,21.276,55.569,18.118,9.282,-1.984,-1.157,25.937,5.823,1.436,4.074,-2.632,10.66,2.759,0.672,-0.015,-1.023],[4647.569,1517.86,887.428,639.711,438.685,893.996,369.593,145.993,143.9,41.058,444.122,179.689,92.228,75.378,46.345,98.919,37.004,14.841,9.205,5.04,43.018,19.472,9.346,5.514,3.018,22.697,8.077,5.262,3.156,1.338],[5734.869,2256.01,1654.909,1009.604,919.252,1190.324,593.948,394.665,203.658,178.8,594.743,317.785,196.324,122.329,91.134,109.736,58.171,46.047,22.596,16.13,60.561,34.163,17.396,15.415,9.938,28.723,15.34,14.171,7.717,1.881],[6778.982,4339.4,2965.275,1899.426,1420.957,1430.946,791.175,434.646,393.934,165.305,684.974,410.629,317.179,173.459,130.057,129.702,93.272,45.738,42.6,29.994,65.545,39.997,31.29,15.641,12.952,27.52,22.645,17.163,10.411,7.871]]
}