{
"KTrans": [[-8.766,4.905,18.787,16.732,14.956,6.642,17.811,25.738,15.392,17.403,19.492,19.805,25.053,26.207,25.176,89.434,90.536,75.779,78.604,82.35,184.604,175.958,161.264,148.672,144.298,271.541,364.433,309.127,302.683,286.359],[-38.688,-7.547,0.229,3.21,7.839,-36.181,-2.966,-0.334,5.589,9.683,-28.528,-3.421,4.191,9.792,9.868,5.874,34.042,31.409,33.86,31.628,39.57,76.138,76.081,66.651,62.965,74.681,148.143,153.992,136.932,125.955],[-58.298,-26.459,-11.107,-5.07,-1.751,-57.517,-22.513,-10.475,-1,-0.806,-53.202,-15.041,-3.67,-1.45,0.28,-26.677,7.925,11.546,16.611,20.085,-21.208,37.264,40.919,39.806,43.019,-27.062,67.612,103.8,89.765,84.97],[-65.485,-37.272,-18.894,-13.529,-7.863,-65.824,-34.787,-22.112,-12.672,-6.955,-61.917,-28.051,-15.842,-11,-5.937,-40.902,-13.504,4.506,5.326,8.925,-31.393,12.478,17.741,29.36,23.701,-44.567,49.003,63.439,62.276,60.77],[-73.002,-44.273,-30.107,-18.594,-14.441,-73.307,-44.044,-25.877,-18.677,-11.651,-72.057,-43.097,-24.773,-17.164,-10.579,-61.736,-22.119,-15.646,-5.729,0.413,-60.458,-2.983,7.379,6.682,14.104,-73.384,9.55,41.051,46.232,49.277],[-79.939,-46.796,-36.211,-25.088,-19.175,-78.145,-47.715,-32.983,-25.371,-19.454,-77.993,-44.963,-32.398,-23.832,-16.41,-71.632,-35.497,-21.215,-13.257,-6.436,-62.069,-13.502,-3.394,-0.527,6.562,-57.353,-9.829,18.94,33.781,35.321]],
"ve": [[59.182,92.415,-106.548,-1543.534,64.695,96.986,5.628,398.268,63.97,-10.849,33.535,0.535,-60.244,52.154,-44.396,52.86,39.699,69.478,103.049,6.674,94.401,44.075,46.035,28.049,1.676,215.356,96.045,93.326,25.966,18.243],[-13.278,-1.735,4.738,10.033,15.96,1049.588,1.249,4.701,7.546,14.285,22.23,2.179,6.088,7.759,17.078,159.707,19.974,15.171,16.445,16.43,81.005,45.358,29.077,22.093,19.663,190.758,104.665,61.055,42.107,33.947],[-17.286,-4.533,-1.954,-2.583,0.112,6.829,0.221,-1.542,0.452,1.316,20.031,-0.04,-0.546,0.961,4.342,51.93,18.572,12.823,10.544,8.26,83.501,43.831,26.463,20.425,16.195,188.919,87.897,59.312,41.723,33.802],[2.495,-5.879,-4.661,-3.995,-1.4,6.523,-2.538,-3.169,-2.431,-1.737,9.294,-0.297,-3.392,-1.912,-1.35,47.137,18.464,10.833,9.072,6.67,160.097,42.399,24.628,18.452,13.857,181.633,87.386,60.014,41.015,32.549],[-51.262,-5.129,-4.881,-4.691,-4.736,5.992,-2.548,-4.034,-3.474,-3.093,1.674,-0.355,-3.744,-2.992,-2.147,43.994,16.325,9.913,5.566,5.09,86.419,41.027,24.227,18.744,13.764,182.497,87.35,59.725,43.314,32.268],[7.406,-2.861,-5.548,-5.871,-5.381,9.102,-3.63,-5.021,-3.826,-4.546,16.587,0.757,-2.908,-4.211,-3.958,61.762,20.735,10.064,5.124,3.98,94.096,40.367,24.789,16.551,13.404,180.035,81.189,55.805,42.302,32.217]],
"kep": [[-54.861,-53.152,-48.351,-63.079,-71.675,-43.754,-42.586,-41.438,-65.23,-70.748,-38.094,-40.506,-46.152,-49.552,-61.105,-24.25,-9.189,-14.402,-4.358,1.501,-14.365,17.348,23.406,32.981,45.056,-25.368,41.531,66.103,90.846,118.31],[-64.91,-44.218,-43.035,-43.967,-44.126,-63.966,-42.672,-43.847,-41.838,-43.125,-62.754,-44.555,-41.874,-39.804,-43.887,-59.126,-34.341,-33.084,-32.454,-33.334,-57.8,-29.386,-20.501,-20.279,-20.104,-63.275,-25.541,-8.71,-3.548,-2.054],[-74.634,-54.625,-47.056,-43.252,-42.802,-75.356,-54.278,-47.069,-42.613,-42.923,-74.542,-50.055,-43.51,-43.131,-43.951,-71.77,-46.965,-42.513,-38.594,-35.525,-75.379,-44.449,-35.503,-32.665,-28.631,-83.464,-48.637,-26.253,-22.917,-20.167],[-80.808,-60.671,-50.515,-47.651,-45.744,-81.043,-60.604,-53.196,-48.086,-45.035,-79.519,-57.548,-49.181,-47.325,-44.576,-76.145,-57.451,-45.176,-43.927,-40.791,-79.032,-54.16,-45.354,-36.872,-37.151,-87.523,-54.134,-40.983,-33.675,-29.899],[-85.316,-65.289,-57.187,-50.388,-47.928,-85.447,-66.281,-55.079,-51.051,-47.143,-85.533,-66.663,-54.697,-50.441,-46.966,-84.633,-61.155,-55.425,-48.288,-44.671,-87.839,-60.272,-49.917,-47.983,-42.029,-92.95,-66.525,-48.983,-41.207,-35.027],[-88.449,-67.72,-60.621,-53.924,-50.447,-87.585,-68.178,-58.935,-55.015,-51.146,-88.479,-67.524,-59.387,-53.963,-49.524,-88.879,-68.17,-58.492,-52.171,-47.917,-88.548,-64.827,-55.369,-50.69,-45.74,-90.491,-71.397,-56.047,-46.027,-41.17]],
"vp": [[-390.092,-289.5,-90.194,477.762,1063.297,-151.973,-126.713,170.997,-2.02,128.679,-13.495,-113.589,-42.876,70.108,-28.821,-42.307,-24.21,1.681,-21.668,0.816,-29.869,-31.878,3.616,4.512,-17.403,-15.511,-1.474,-9.886,10.567,-19.397],[2435.422,938.354,-1155.253,-13.011,97.287,491.519,259.363,-64.389,-152.18,-162.482,311.187,65.688,53.466,61.558,20.482,55.413,29.283,-7.376,6.69,-6.489,2.433,-13.754,-16.772,-18.733,-9.599,-2.205,-17.687,-9.203,-16.853,-10.141],[3927.611,3436.663,1592.639,1575.794,-1333.147,797.93,711.338,318.393,287.146,-83.832,405.846,373.494,276.87,69.781,-46.417,82.319,63.617,37.345,9.68,-11.124,13.021,12.242,4.349,-6.892,-1.848,6.808,-11.094,-4.893,-22.66,-22.01],[5735.961,4718.294,3778.4,2076.521,2663.895,1193.248,1270.733,730.421,572.514,319.053,560.376,572.126,323.85,245.988,127.381,85.784,105.424,109.463,21.231,12.374,33.407,58.604,5.404,24.318,-16.895,0.711,-5.969,0.574,-29.054,-13.445],[6192.164,8002.516,5227.863,4500.818,2860.229,1304.205,1635.645,1370.353,655.481,743.742,649.965,718.903,545.853,444.83,394.613,101.663,135.632,103.168,47.57,65.858,56.107,73.551,30.603,29.647,5.063,24.38,15.644,9.557,7.58,-0.761],[6147.309,10355.603,7167.017,4879.13,2724.41,1291.744,1746.499,1589.447,1263.405,775.694,785.311,872.322,804.434,573.632,361.723,120.712,179.626,171.568,106.633,63.827,46.583,73.37,82.068,52.078,50.343,3.13,-1.096,-0.43,22.784,9.101]]
}