{
"KTrans": [[0.135,4.057,-0.714,-1.173,-2.862,6.338,15.307,7.365,7.764,12.948,10.229,26.055,21.251,22.349,23.075,36.14,78.834,97.834,95.483,94.401,52.932,63.58,133.143,146.638,157.796,7.008,-276.495,58.108,112.237,165.85],[-23.486,-9.729,-0.389,2.95,-0.05,-17.071,-4.584,0.604,5.086,2.883,-14.685,-0.219,2.032,9.868,9.376,55.714,44.907,11.211,30.547,38.6,137.903,120.558,2.994,20.025,56.822,288.423,170.864,-36.811,-54.427,38.106],[-36.238,-8.486,-6.09,-4.143,-1.409,-31.27,-4.221,-0.872,-1.346,0.607,-24.732,2.74,4.121,1.473,1.449,24.307,47.508,36.569,27.669,4.981,67.288,113.601,90.906,61.894,-4.98,157.922,240.299,203.551,136.488,-33.713],[-46.17,-15.008,-5.822,-3.794,-3.225,-40.934,-9.127,-3.235,-0.433,-2.02,-36.157,-1.463,0.563,3.294,2.356,0.424,38.279,36.94,30.549,25.004,31.173,88.139,80.226,77.46,60.053,69.096,174.276,171.088,165.396,119.277],[-52.464,-13.589,-7.955,-3.883,-4.148,-50.298,-11.715,-3.878,-0.863,-1.543,-47.596,-10.31,0.006,0.438,0.925,-14.014,28.215,32.234,25.139,23.941,6.425,77.129,72.097,58.495,55.266,54.723,151.533,159.633,144.406,128.213],[-59.248,-20.992,-9.564,-6.7,-2.746,-56.391,-17.766,-5.897,-3.322,-1.481,-51.286,-11.622,-3.352,0.496,-0.031,-28.988,15.683,20.882,21.477,20.129,-17.893,63.755,62.507,50.36,47.365,14.146,131.195,142.796,121.16,109.653]],
"ve": [[-5.756,-22.657,-19.612,-889.563,-1.281,4.352,20.611,35.948,13.429,-314.683,28.01,-16.546,10.353,-93.589,-3.505,47.614,-0.522,103.807,797.112,356.257,103.481,31.015,-9.439,-32.234,-47.124,194.072,87.381,32.902,3.958,-15.237],[-8.351,-3.268,14.43,-8.276,-35.015,12.396,30.375,-9.599,11.593,3.061,6.027,6.008,17.832,11.287,16.011,70.912,26.359,16.077,1.891,4.807,95.914,46.328,32.206,18.836,-11.524,210.304,100.766,41.481,54.846,27.306],[-4.691,-1.971,-1.822,9.542,-0.782,-2.503,0.327,-0.468,-0.259,4.088,4.418,3.375,0.836,-3.795,2.03,48.304,23.103,14.486,5.514,13.686,80.013,47.681,26.956,22.423,21.996,91.346,95.182,68.929,51.671,191.136],[-1.267,-0.998,-1.157,-1.104,-2.016,2.516,1.492,0.802,0.213,2.292,8.672,3.43,2.465,1.425,0.421,48.398,24.049,16.05,12.314,8.991,91.235,46.944,32.359,24.911,18.935,166.09,92.813,65.36,51.328,49.45],[-2.372,-1.607,-1.149,-0.705,-0.852,0.046,0.609,0.332,0.78,0.058,64.552,3.361,3.074,1.413,0.715,44.386,23.28,16.353,11.78,10.014,90.296,47.576,32.517,24.661,20.113,197.596,75.148,63.944,49.443,38.621],[103.428,-1.075,-0.814,-0.489,-0.634,-1.141,1.229,0.936,0.642,0.347,5.854,3.689,2.49,2.617,1.639,46.868,23.739,15.653,11.594,9.492,92.427,47.113,32.626,23.869,19.795,1128.518,101.712,65.053,49.028,39.384]],
"kep": [[-120.771,-36.464,-3.777,-4.432,-5.565,-120.73,-47.859,-6.238,-11.386,-27.226,-125.929,-66.707,-34.091,-52.399,-48.981,-157.079,-227.635,-186.312,-181.378,-186.106,-156.579,-408.287,-350.214,-361.645,-389.583,-196.522,-777.488,-648.024,-734.691,-751.906],[-48.2,-54.285,-128.48,-33.506,-1.234,-43.921,-45.503,-128.148,-31.829,-5.194,-49.41,-43,-134.664,-50.13,-20.906,-15.658,-8.651,-158.641,-175.993,-101.672,-3.179,34.84,-209.83,-331.715,-209.545,7.914,-5.978,-256.386,-460.981,-394.04],[-52.136,-22.653,-25.574,-52.545,-134.088,-50.798,-16.989,-14.663,-40.755,-122.106,-47.577,-10.105,-11.737,-31.573,-130.69,-32.122,11.192,17.103,5.647,-185.487,-32.952,37.923,49.532,30.081,-241.725,-33.854,62.299,87.338,71.053,-277.227],[-59.916,-24.733,-12.335,-15.246,-22.147,-55.862,-21.114,-13.224,-10.671,-22.024,-55.133,-14.135,-8.855,-3.223,-10.602,-46.666,6.052,19.065,20.426,20.804,-46.683,17.261,37.813,59.013,59.724,-58.576,22.378,62.144,97.306,73.147],[-63.28,-21.241,-15.362,-10.422,-13.573,-63.883,-20.261,-12.183,-5.429,-9.137,-63.668,-21.816,-7.711,-6.162,-8.869,-54.223,-6.006,10.574,8.716,16.522,-58.171,10.024,25.706,27.572,40.018,-59.176,11.055,51.056,69.857,78.644],[-70.133,-28.564,-15.679,-13.018,-7.511,-68.063,-27.552,-12.558,-9.749,-8.965,-65.587,-23.491,-11.73,-5.924,-7.722,-61.739,-14.744,-0.761,5.513,7.699,-69.732,-0.308,18.692,19.406,27.422,-72.444,1.273,39.271,46.763,57.385]],
"vp": [[-41.357,381.428,-363.739,108.428,-48.52,9.498,23.367,-21.119,22.198,-27.443,-6.943,-42.303,-1.842,7.23,0.381,-1.104,-0.375,-10.134,-4.234,-3.477,-4.203,-8.75,-9.082,-2.406,-0.968,-5.259,0.841,-9.548,-1.658,-3.372],[1821.5,940.998,92.034,-303.067,-250.189,433.494,99.192,-14.145,-11.336,-20.237,235.489,68.431,19.839,10.405,23.675,38.341,20.532,-2.084,-9.077,-0.04,17.629,4.34,-6.553,-4.542,0.388,-2.331,-1.388,-4.424,-6.145,-5.009],[4175.583,1618.034,577.77,335.469,228.124,814.665,216.343,151.457,41.38,-28.407,410.323,138.356,79.952,16.4,-19.043,66.982,21.065,11.134,6.929,-4.638,36.227,12.789,-2.581,7.047,-0.066,12.021,-1.524,2.326,-2.762,-6.935],[5702.265,3097.548,1085.101,488.432,442.049,1043.704,588.301,213.974,130.329,85.996,579.782,283.239,100.18,23.007,68.006,107.29,43.641,4.726,5.373,-1.336,45.2,16.482,-2.932,5.086,-5.011,21.148,11.61,-6.108,-1.817,0.683],[6309.205,3767.792,1877.043,748.018,227.642,1357.781,856.436,301.518,62.109,-45.942,643.972,403.454,148.038,48.684,78.463,131.751,82.82,23.26,18.087,10.897,62.017,28.654,19.342,1.057,-0.124,25.06,20.921,5.992,-1.424,1.479],[7438.754,5957.79,2154.694,1262.739,743.842,1424.392,1259.324,503.455,230.567,244.018,711.348,615.935,282.407,176.079,62.92,137.757,115.631,38.651,13.419,17.717,67.377,55.301,16.691,4.854,1.668,29.453,38.601,5.5,2.616,-5.01]]
}