{
"KTrans": [[-27.406,-10.691,-11.785,-8.528,-8.67,-27.397,-9.214,-5.296,-4.095,-0.695,-29.336,-9.264,-7.681,-6.961,-7.064,-32.67,-13.378,-4.368,-8.083,-5.187,-27.318,-8.364,-5.841,-7.289,-8.658,-24.491,-12.872,-5.191,-5.2,-3.156],[81.752,-35.018,-21.548,-21.975,-21.28,-52.564,-41.913,-23.755,-21.237,-15.33,54.909,-36.615,-27.234,-20.934,-14.37,18.561,-46.42,-25.636,-16.748,-15.67,-71.583,-41.954,-26.851,-19.472,-16.325,-16.358,-43.497,-22.286,-20.91,-15.511],[-83.788,-41.41,-37.498,-32.46,-25.176,-99.423,10.708,-44.796,-37.235,-28.898,-109.281,27.609,-37.429,-37.046,-24.093,-92.874,3.391,-43.275,-28.394,-25.229,-87.497,-39.141,-40.692,-29.736,-28.966,-96.4,120.061,-49.19,-37.275,-29.896],[-108.068,-49.695,-45.822,-29.605,-36.001,-113.381,-69.528,-11.912,-41.586,-38.231,-113.763,-54.428,-32.528,-50.832,-38.686,-106.828,-69.175,-27.901,-45.12,-34.039,-113.471,-89.498,-58.172,-41.944,-36.165,-108.841,-43.077,-32.053,-48.244,-31.248],[-113.082,-82.1,-77.932,-47.879,-44.501,-99.829,-79.994,-25.225,-46.313,-38.158,-96.302,-95.938,-18.273,-34.15,-41.266,-113.223,-98.584,29.33,-45.546,-48.794,-101.319,-104.703,-77.605,-30.865,-39.9,-114.406,-87.538,-62.414,-33.491,-42.404],[-97.84,-103.484,-74.393,1602.039,-54.445,-106.594,-105.619,-78.957,224.69,-37.844,-106.015,-110.811,-80.104,-37.016,-19.235,-106.108,-104.546,-91.842,1279.077,-34.084,-77.252,-97.594,-93.617,-39.641,-9.465,-104.254,-112.089,-89.023,2456.81,-41.72]],
"ve": [[-21.389,-5.883,5.313,22.166,95.64,-21.204,-5.23,2.582,12.219,-83.984,-22.312,-5.156,3.978,20.992,163.168,-21.362,-4.947,1.477,27.234,-284.691,-21.771,-4.61,2.591,18.081,10.062,-21.061,-4.941,2.614,22.123,42.018],[-58.359,-31.834,-19.04,-13.568,-10.327,-75.631,-35.342,-21.169,-13.762,-8.956,-64.958,-32.625,-20.868,-14.612,-8.2,-77.829,-35.762,-21.509,-13.017,-9.014,-72.284,-36.141,-21.892,-14.269,-8.448,-82.598,-35.144,-19.839,-14.324,-9.358],[-97.646,-70.286,-39.718,-27.874,-19.972,-113.737,-60.022,-40.594,-30.128,-21.675,-114.261,-53.621,-35.341,-30.835,-21.71,-107.798,-68.298,-40.041,-24.525,-19.144,-96.569,-50.924,-38.947,-27.109,-22.147,-108.325,-51.049,-40.732,-28.824,-21.688],[-108.703,-93.428,-57.509,-34.725,-29.884,-127.486,-81.377,-62.358,-39.508,-31.976,-135.773,-79.535,-56.855,-43.208,-31.857,-125.346,-85.85,-57.149,-39.831,-30.226,-125.601,-83.196,-63.069,-39.149,-32.284,-101.206,-85.648,-57.537,-44.644,-30.312],[-139.565,-96.999,-72.963,-60.115,-43.388,-131.578,-97.692,-74.794,-57.949,-43.601,-127.05,-108.889,-64.474,-54.715,-42.46,-130.575,-103.635,-69.305,-52.13,-46.097,-136.809,-106.666,-76.455,-52.213,-38.149,-137.503,-97.572,-77.709,-49.552,-41.852],[-133.464,-116.597,-82.077,-31.529,-57.201,-141.535,-113.492,-89.405,-51.23,-49.909,-148.046,-113.58,-91.662,-68.498,-45.282,-136.029,-109.79,-86.982,-85.478,-49.441,-122.835,-104.911,-91.02,-71.301,-44.839,-114.547,-118.259,-91.209,-133.408,-50.799]],
"kep": [[-8.781,-5.198,-13.126,-13.367,-18.394,-8.141,-4.264,-5.702,-7.933,-6.197,-9.426,-4.506,-8.368,-11.917,-15.699,-14.686,-8.946,-4.569,-13.01,-13.134,-7.543,-4.212,-6.308,-12.129,-17.519,-5.661,-8.43,-5.598,-9.621,-9.613],[-21.8,-7.086,-5.301,-10.461,-12.518,-30.309,-11.598,-4.099,-9.376,-7.214,-17.448,-9.113,-8.927,-7.375,-7.205,-22.031,-15.246,-6.16,-5.447,-7.73,-24.368,-9.419,-7.441,-6.688,-8.921,-38.605,-11.737,-4.586,-8.206,-7.541],[-51.882,-30.772,-3.637,-8.86,-7.996,-55.627,-21.025,-8.695,-10.305,-9.643,-56.163,-9.607,-10.571,-8.789,-4.653,-54.915,-21.15,-9.453,-7.29,-8.579,-51.713,-6.521,-7.952,-5.557,-9.575,-52.883,1.378,-13.731,-12.02,-10.903],[-60.498,-60.315,-12.791,-5.622,-9.597,-63.529,-33.713,-31.175,-7.932,-9.485,-64.775,-36.121,-17.768,-10.949,-10.12,-60.505,-46.256,-16.946,-10.906,-7.831,-58.241,-38.642,-17.378,-8.737,-7.836,-58.959,-43.312,-19.929,-7.056,-4.542],[-72.068,-56.419,-27.854,-17.788,-8.289,-76.569,-56.851,-19.406,-10.465,-2.952,-72.636,-57.072,-12.433,-12.167,-5.981,-68.78,-53.177,-24.338,-12.905,-9.995,-69.026,-56.289,-28.432,-8.874,-8.48,-68.898,-47.345,-36.654,-11.124,-7.5],[-75.648,-55.84,-40.261,31.356,-14.337,-76.59,-51.362,-41.054,10.366,-14.2,-75.605,-58.111,-47.443,-12.65,-9.037,-76.03,-54.549,-44.265,-36.548,-14.637,-75.649,-54.462,-38.964,-2.577,3.736,-76.289,-55.366,-42.326,-110.604,-17.395]],
"vp": [[2555.378,2962.09,2300.748,1990.27,2538.521,522.78,528.075,538.333,503.484,519.391,267.575,259.736,275.506,255.51,247.584,43.928,44.577,50.982,42.32,52.272,27.021,22.536,28.424,24.683,21.267,13.327,11.117,15.269,13.212,11.965],[6128.691,7138.099,6984.701,6836.157,7977.465,1606.599,1497.807,1692.076,1436.142,1548.762,683.012,690.689,735.066,857.613,692.82,164.651,146.858,163.777,148.376,150.942,75.634,80.64,79.503,82.342,68.491,43.271,38.204,38.387,39.841,39.737],[9892.675,14886.835,13625.635,12280.903,11680.596,2374.67,2503.155,2702.689,2742.563,2585.193,1185.808,1112.028,1074.029,1450.79,1392.397,223.524,291.448,266.048,223.782,221.137,98.287,104.548,128.103,127.681,129.554,56.518,54.648,64.445,62.949,61.841],[13346.491,19219.398,18726.902,14731.732,16239.253,2629.874,3398.499,3965.801,3481.971,3587.373,1415.666,1650.114,1825.465,1898.627,1762.468,259.736,357.805,367.02,340.254,333.937,129.919,170.66,205.563,167.953,180.684,62.759,88.975,88.651,100.668,89.272],[14221.02,19834.086,21977.348,25858.521,24036.373,2671.537,4060.197,4805.193,5030.312,5008.653,1297.476,2281.056,1984.255,2381.371,2360.62,266.461,427.328,439.792,437.102,509.416,140.453,222.752,239.023,220.546,206.537,70.622,101.293,121.458,105.873,113.703],[13618.33,23879.041,25348.663,12702.008,30728.712,2872.627,4676.963,5622.654,4276.06,5273.328,1529.173,2303.211,2858.673,2951.81,2356.535,276.344,451.106,543.018,709.308,504.929,123.528,212.853,285.901,306.196,252.18,56.507,121.585,144.349,273.966,134.093]]
}