{
"KTrans": [[61.373,33.37,46.017,34.233,27.663,78.333,52.977,44.455,32.565,32.065,104.067,64.458,46.102,48.089,40.722,305.897,160.193,131.42,101.924,88.143,653.336,315.456,238.027,201.898,199.554,1607.563,759.666,581.287,474.443,451.527],[-124.548,103.89,77.403,52.644,41.218,-6.259,132.692,66.774,53.714,40.942,-17.335,113.425,77.775,58.794,43.553,44.439,275.64,123.717,89.098,76.686,278.871,341.819,202.632,160.566,114.139,202.684,791.506,392.786,282.716,243.402],[-200.98,377.489,145.468,88.984,67.559,-281.319,431.787,144.418,110.234,56.378,-219.522,392.456,130.289,93.987,60.523,-381.748,542.303,246.362,149.646,106.648,-549.87,843.835,323.552,179.341,126.575,-1018.698,1737.22,541.15,320.91,240.15],[-202.829,-279.454,386.888,146.645,118.832,-199.643,-326.98,430.993,195.427,117.36,-214.134,-334.507,503.66,179.826,100.408,-283.91,-249.269,465.36,246.076,145.744,-384.543,-450.879,873.341,271.945,201.756,-795.51,-484.956,1200.494,461.973,333.881],[-164.708,-261.115,-292.603,371.337,169.672,-190.371,-261.97,-124.675,378.581,149.589,-162.319,-287.156,-117.076,501.437,166.559,-275.585,-346.619,-23.853,454.012,145.083,-251.269,-465.429,129.547,574.559,328.523,-600.772,-661.311,-144.068,851.038,449.074],[-157.421,-263.947,-353.142,289.44,343.445,-149.952,-277.508,-302.449,192.085,360.668,-170.17,-268.825,-322.903,315.618,364.497,-240.003,-328.611,-408.132,158.625,505.211,-271.427,-481.539,-452.983,176.757,531.196,-463.986,-551.844,-427.217,847.71,796.346]],
"ve": [[1.453,3.861,4.811,-12.135,-90.231,7.287,1.662,3.769,63.89,24.071,11.556,3.171,1.814,4.339,-21.629,48.055,13.847,-0.847,-13.208,-22.641,97.235,32.669,7.69,-9.415,-18.876,193.926,80.955,36.801,9.999,-6.035],[6.651,2.391,4.873,2.596,1.72,10.224,6.092,3.091,2.729,1.716,13.889,5.035,4.998,2.767,2.482,52.375,28.482,14.747,8.997,5.092,101.563,46.876,31.141,21.82,11.513,188.358,98.983,62.874,43.103,31.255],[4.758,3.254,3.784,3.362,2.964,10.833,7.463,1.855,5.921,1.825,6.215,7.151,4.205,5.05,2.319,55.503,29.79,20.936,14.71,10.531,99.871,55.689,36.902,24.254,17.139,201.185,101.554,67.17,49.415,37.517],[3.368,3.212,1.343,3.438,4.747,5.545,-0.687,4.298,6.089,4.86,15.852,2.995,5.484,5.851,4.284,53.71,27.534,16.608,15.047,12.375,103.472,53.845,36.097,25.762,22.506,205.777,104.7,69.052,50.721,43.776],[3.397,3.09,2.549,2.169,2.573,4.915,2.926,0.366,5.957,3.059,14.77,6.471,6.509,9.355,4.271,54.64,29.47,56.202,14.47,6.939,101.524,55.613,36.479,30.619,25.914,201.368,103.658,70.444,52.454,42.799],[4.405,9.9,-0.948,3.813,3.205,8.275,9.647,5.645,5.226,5.561,13.011,13.953,9.007,6.935,6.34,50.125,28.741,20.502,16.148,13.266,104.902,54.74,35.965,30.935,23.689,201.482,102.655,70.402,54.1,42.913]],
"kep": [[51.002,29.824,49.878,43.248,38.378,59.853,49.632,47.575,41.268,47.083,75.26,57.337,50.228,62.487,61.208,165.714,122.719,129.232,128.451,136.921,273.287,205.119,207.467,225.517,262.147,472.959,370.115,392.662,418.751,481.413],[-119.227,86.961,64.395,44.747,36.579,-19.24,108.1,54.358,45.111,35.81,-30.316,88.666,62.123,48.593,37.669,-7.781,179.308,84.47,66.088,61.971,79.494,183.867,121.665,107.46,85.126,-1.492,331.819,193.263,160.467,155.571],[-186.929,325.957,121.497,73.956,56.358,-254.225,364.521,119.341,90.86,45.966,-194.254,320.938,106.032,76.307,49.914,-271.163,365.199,173.958,107.108,78.633,-308.112,484.207,198.159,113.894,83.769,-389.214,770.011,267.464,171.447,138.479],[-190.635,-250.757,334.55,124.79,99.295,-183.63,-290.972,366.965,163.346,97.413,-192.445,-293.855,421.56,148.248,81.918,-212.263,-201.392,342.785,181.717,107.867,-232.73,-308.435,567.525,178.284,135.63,-320.337,-273.532,631.577,254.609,192.289],[-156.317,-239.547,-261.298,320.035,143.747,-177.784,-236.87,-112.557,323.191,125.515,-150.441,-257.211,-108.395,422.243,138.391,-209.447,-275.141,-35.443,346.742,108.352,-168.547,-321.999,62.132,393.839,227.479,-259.62,-359.787,-113.99,488.527,266.103],[-151.298,-243.941,-318.148,250.226,295.295,-142.389,-254.514,-271.279,159.31,307.49,-158.562,-241.962,-285.385,266.322,307.842,-187.18,-264.707,-331.242,111.608,394.263,-180.632,-334.072,-334.268,105.982,379.259,-215.603,-309.374,-273.852,487.621,490.669]],
"vp": [[2359.956,2306.327,2976.8,2765.549,2638.773,478.88,506.199,521.362,476.622,532.355,274.595,269.785,253.02,289.9,249.859,55.544,52.575,54.919,44.512,42.701,28.944,26.425,25.043,23.009,27.88,13.212,12.619,13.63,9.954,12.898],[8667.123,6952.421,8641.899,8098.265,7830.659,1739.053,1656.288,1404.371,1594.699,1409.356,672.489,738.487,776.112,856.413,686.824,152.687,182.292,149.674,135.85,154.467,85.125,65.545,80.592,82.367,66.998,44.311,40.559,38.363,35.921,41.698],[10940.099,12457.821,13336.666,12466.676,12913.74,2258.165,2131.321,2495.474,2985.111,2193.739,837.519,1415.498,1226.562,1267.38,1204.2,210.888,321.892,275.27,289.124,267.956,107.87,145.037,130.044,112.821,106.515,51.801,60.582,60.394,64.555,64.224],[11438.34,16884.284,18807.97,17058.489,20020.664,2267.031,3795.895,3469.781,4040.562,4019.844,1195.111,1545.473,2092.391,1843.019,1662.432,239.297,338.665,297.273,388.749,334.384,122.681,194.306,205.034,163.668,188.468,64.576,95.235,91.044,83.583,106.399],[12394.062,20400.714,24197.848,21596.531,23143.669,2378.711,3680.974,4108.589,5694.847,4087.141,1329.597,1958.558,2148.125,2522.785,2219.696,265.074,442.458,542.166,466.755,358.007,127.804,227.815,236.416,258.198,265.903,58.206,108.371,118.255,125.577,135.405],[13614.509,22492.693,23316.908,37910.925,29249.488,2478.422,4948.966,5823.657,5851.705,6702.582,1276.509,2372.84,2947.349,3366.553,2681.1,237.367,454.322,518.463,587.11,612.138,126.802,237.136,266.6,315.466,298.48,61.083,114.372,148.974,156.059,159.179]]
}