{
"KTrans": [[-29.73,14.81,13.079,6.646,7.497,-26.88,-0.315,3.932,25.296,14.851,-14.351,28.112,12.034,14.659,6.353,-10.244,28.025,32.104,25.445,25.829,58.367,95.674,37.769,26.365,20.82,212.12,149.331,121.062,89.69,70.17],[-75.731,-22.099,1.435,2.585,3.492,-80.36,-14.449,7.111,-0.021,8.031,-70.695,-27.358,0.76,5.864,14.599,-54.838,-9.368,4.809,15.705,4.002,-46.965,14.409,24.919,19.891,13.866,-15.929,55.814,51.498,41.98,43.692],[-92.165,-56.13,-2.866,-9.86,5.896,-92.977,-55.346,-13.921,-3.886,0.273,-93.057,-48.752,1.573,-4.624,-0.968,-87.577,-40.662,-2.214,7.915,6.304,-77.667,-22.376,11.507,17.452,9.387,-50.644,-2.308,32.214,38.014,33.87],[-93.701,-70.176,-25.545,-14.919,-3.296,-91.422,-67.49,-29.468,-8.037,-4.365,-94.593,-65.149,-24.203,-3.941,-2.203,-93.325,-63.128,-28.431,-7.937,2.666,-81.085,-48.926,-20.815,10.328,4.332,-69.291,-17.076,5.347,34.782,20.797],[-94.727,-72.393,-44.561,-21.177,-6.368,-98.119,-76.298,-48.453,-16.563,-6.597,-96.679,-75.087,-49.143,-18.372,-0.428,-92.309,-78.781,-25.738,-10.168,4.983,-90.053,-61.18,-21.432,4.569,1.497,-73.511,-49.084,-27.487,29.656,11.309],[-96.203,-86.63,-59.759,-26.321,-13.34,-97.164,-86.082,-58.067,-29.884,-17.064,-94.554,-84.029,-48.674,-27.676,-6.772,-94.207,-80.015,-47.275,-11.913,-4.09,-89.366,-80.836,-54.78,-11.775,-4.824,-95.289,-51.843,-18.026,19.043,26.432]],
"ve": [[-57.653,-22.793,16.794,43.437,-52.099,-29.845,46.26,56.839,-56.866,-7.958,-168.67,-27.281,-40.704,10.831,775.17,-123.203,64.491,122.936,120.204,-127.727,15.087,22.943,-6.661,-1179.639,328.57,64.267,26.321,5.422,138.798,86.298],[-20.52,-14.825,0.81,4.235,1.902,-38.068,-99.157,2.303,2.411,1.102,-57.819,-4.482,-21.503,1.78,13.835,-10.581,-2.224,1.093,38.268,45.874,-21.055,3378.852,12.762,7.368,6.445,-16.572,30.796,30.181,0.516,-5.508],[-60.547,-31.809,-5.334,-4.543,-0.397,-21.109,-27.918,-8.184,-3.348,-1.923,-76.228,-28.556,-13.143,-2.013,-1.676,10.371,-20.042,-2.074,0.334,5.846,-22.103,-8.389,1.329,2.008,1.38,-23.918,12.896,18.123,10.006,2.455],[-266.252,-7.497,-18.646,-8.859,-2.304,-70.012,-38.23,-24.203,-5.538,-3.014,-80.432,-36.957,-16.262,-4.348,-2.868,-63.818,-33.733,-19.185,-8.109,-2.154,-55.82,-22.217,-13.722,-3.006,2.35,-31.792,6.615,13.623,9.814,3.172],[-57.949,-46.622,-35.092,-14.861,-6.301,-33.738,-41.072,-32.013,-12.782,-6.51,-98.139,-49.362,-30.951,-13.551,-4.04,-41.582,-58.848,-16.009,-8.407,-3.594,-46.128,-37.326,-15.75,0.609,7.874,17.61,0.344,9.076,9.468,-3.568],[-66.079,-64.938,-36.895,-17.447,-9.184,-66.12,-41.011,-32.484,-18.36,-11.677,-119.486,-52.311,-34.084,-19.297,-6.673,-100.961,-61.757,-28.032,-12.4,-5.418,7263.885,-33.607,-39.467,-10.357,-12.103,20.903,-17.184,-12.17,5.577,10.43]],
"kep": [[-49.746,-5.853,7.817,8.127,6.806,-45.502,-13.839,-9.377,23.317,14.575,-39.718,15.765,1.265,9.624,-6.445,-36.121,-0.325,26.172,23.004,35.181,3.946,55.515,12.603,2.96,-4.503,55.176,59.491,77.356,57.746,74.366],[-79.565,-25.744,1.237,1.6,4.215,-84.164,-14.427,4.915,0.913,9.301,-76.713,-25.704,-2.28,4.933,9.49,-72.225,-23.856,1.145,11.506,-0.139,-60.853,-11.789,8.351,6.996,7.544,-47.763,4.363,16.155,15.017,21.587],[-95.232,-49.303,-2.073,-6.416,5.965,-94.444,-46.334,-8.175,-1.214,1.935,-93.07,-42.138,1.147,-4.026,-0.053,-89.765,-38.39,-4.992,5.524,3.223,-82.169,-37.245,-2.798,4.921,4.323,-67.33,-28.481,0.972,14,13.293],[-95.703,-65.184,-16.999,-8.672,-2.064,-94.401,-64.689,-22.791,-4.765,-2.575,-97.285,-58.04,-16.07,-2.517,-0.534,-93.978,-60.312,-20.639,-3.45,4.541,-87.509,-49.176,-22.82,9.041,0.259,-78.052,-42.648,-17.116,10.438,3.248],[-96.241,-70.055,-34.623,-11.445,-0.925,-97.54,-71.123,-35.886,-6.669,-1.761,-96.842,-74.377,-37.156,-11.609,1.302,-92.695,-73.157,-22.432,-7.302,7.206,-88.699,-64.142,-27.277,-3.977,0.205,-83.569,-57.279,-36.871,2.549,2.995],[-95.61,-82.4,-45.797,-17.854,-7.234,-96.514,-84.036,-46.441,-20.642,-9.763,-96.318,-79.966,-35.167,-13.453,-2.27,-94.219,-77.307,-42.529,-10.685,-4.429,-90.001,-75.639,-50.935,-12.208,-3.774,-87.328,-61.278,-33.664,-5.419,2.775]],
"vp": [[1307.147,96.279,224.727,534.243,449.005,338.031,48.929,52.217,-241.659,-111.945,61.5,-97.146,43.784,-49.349,-16.215,16.586,-18.362,-19.009,-24.834,-22.881,-19.78,-46.818,-16.009,-18.441,-17.956,-38.727,-37.083,-35.536,-31.012,-20.289],[4705.923,2572.815,944.078,476.69,1021.741,1028.022,525.673,60.155,216.027,-15.244,389.591,328.656,74.471,80.626,-120.35,75.961,33.234,10.527,-26.713,-3.585,18.343,-1.704,-11.363,-12.719,-8.372,9.452,-29.908,-34.98,-15.366,-39.271],[7327.947,6983.688,1658.369,2765.788,825.511,1425.982,1469.555,741.477,284.871,165.4,726.956,649.929,153.759,147.576,167.971,110.27,100.991,30.325,-2.559,-0.462,37.068,17.528,-1.94,-13.016,-2.148,10.683,-17.144,-27.246,-20.05,-14.056],[7731.512,9979.52,5971.905,4075.487,1208.144,1215.306,1752.651,1271.357,594.931,373.905,806.085,850.69,502.248,203.268,204.655,133.389,178.454,115.052,71.603,22.449,48.667,59.379,50.106,14.897,4.181,21.323,-8.389,-17.965,-20.098,-4.197],[7910.87,10162.165,8236.91,6127.441,3528.801,1649.181,2312.944,1977.065,1089.94,684.088,712.347,1091.943,1025.076,551.446,198.597,128.848,200.222,111.693,83.232,43.245,46.194,73.089,37.691,4.847,4.813,0.976,9.248,-11.392,-17.417,9.169],[7235.011,12670.807,11953.167,7815.016,5090.405,1370.856,2728.955,2268.576,1566.029,1287.196,719.391,1209.709,1051.165,738.373,337.65,135.017,227.945,172.913,120.542,66.298,61.903,94.347,119.194,50.874,40.248,-6.744,18.905,1.639,-13.943,-29.006]]
}