{
"KTrans": [[7.504,3.166,1.276,1.247,-0.084,14.156,8.184,2.659,6.512,4.286,23.124,15.37,14.827,12.211,13.271,167.29,94.134,77.103,63.22,60.33,395.318,227.961,173.128,152.093,141.087,956.532,563.889,455.117,405.05,356.853],[-6.804,3.27,1.996,0.24,0.968,2.848,6.692,3.899,2.858,3.358,13.78,11.538,6.967,8.134,5.895,120.065,65.762,46.686,36.833,31.267,271.695,143.624,100.107,77.635,69.33,263.997,363.304,237.359,187.986,153.63],[-20.893,1.937,1.692,2.087,1.068,-12.024,7.212,4.901,3.886,3.151,-7.469,9.269,8.324,5.564,5.478,59.637,60.885,42.486,31.375,24.899,107.42,138.556,92.927,66.83,55.304,67.673,357.733,229.968,153.74,125.42],[-41.793,1.936,2.2,2.214,0.953,-37.384,6.285,4.328,3.545,3.61,-22.964,11.463,8.063,6.313,5.698,12.515,55.425,38.087,32.383,25.53,25.872,146.321,87.315,68.085,53.722,-24.87,308.993,192.214,151.996,113.656],[-49.757,-0.664,3.129,3.096,1.601,-48.461,5.308,4.187,3.41,2.921,-35.359,5.986,8.373,5.65,5.238,-5.061,55.391,41.228,28.333,24.868,1.606,133.775,82.792,62.31,50.091,-43.318,291.21,209.984,143.634,109.901],[-62.192,-3.054,-0.149,2.115,1.623,-57.966,2.161,3.942,2.81,2.363,-53.799,7.416,7.625,5.421,4.294,-45.371,51.093,38.005,30.836,23.666,-42.12,107.598,83.568,64.657,53.123,-10.138,170.859,207.545,159.743,109.221]],
"ve": [[4.598,1.258,3.043,2.314,7.381,5.396,0.692,3.961,0.28,2.431,10.014,3.1,-1.729,-2.191,-7.816,45.169,13.9,-0.672,-10.502,-18.038,94.133,33.648,8.589,-6.969,-17.962,200.03,81.1,35.33,11.173,-5.627],[4.198,0.93,0.392,0.759,0.175,6.091,2.75,1.638,0.876,0.736,11.22,4.861,2.635,1.673,0.612,50.796,23.632,14.431,9.184,5.83,102.397,47.584,29.581,19.373,12.309,195.377,97.161,61.267,41.744,28.687],[3.355,1.088,0.145,0.252,0.05,8.332,3.659,1.456,0.888,0.878,13.242,4.798,2.931,2.078,1.313,54.62,25.197,16.434,11.413,8.357,101.92,50.38,31.524,22.496,17.265,199.835,98.183,65.433,47.239,35.498],[-23.227,1.057,0.765,0.321,0.161,8.583,3.025,1.765,1.277,1.26,9.597,4.704,3.954,2.285,1.838,50.846,25.079,16.348,12.119,8.902,98.974,50.95,32.757,23.848,18.761,206.757,100.696,65.251,48.653,37.853],[9.841,0.418,0.49,0.481,0.117,2.813,3.174,1.595,1.039,0.784,16.806,4.298,3.679,2.233,1.982,51.337,25.477,15.994,12.043,9.745,95.075,50.435,32.517,24.769,19.041,201.566,100.407,66.267,48.815,38.768],[-1.068,0.903,0.035,0.432,0.4,3.324,2.314,1.87,1.199,0.999,13.884,5.98,3.131,2.515,1.862,47.772,25.653,16.821,12.46,9.54,89.737,50.283,33.336,25.017,19.662,203.323,101.8,66.131,49.852,39.191]],
"kep": [[4.03,3.697,0.727,2.682,-1.647,9.588,9.455,1.487,9.676,7.212,12.817,13.29,18.727,17.34,26.818,85.252,71.617,79.844,83.876,98.379,155.238,146.211,152.361,172.081,195.485,257.271,266.275,310.232,354.603,384.674],[-9.993,2.507,1.846,-0.376,0.903,-2.888,4.083,2.376,2.073,2.737,3.203,6.562,4.4,6.598,5.378,45.805,34.077,28.334,25.448,24.198,82.856,64.808,54.46,48.876,50.892,22.083,133.669,108.705,103.019,97.078],[-22.906,0.878,1.644,1.906,1.102,-18.214,3.517,3.502,3.039,2.309,-19.235,4.351,5.294,3.466,4.166,4.235,28.526,22.468,17.938,15.299,2.16,58.204,46.5,36.201,32.447,-40.939,128.861,98.911,72.113,66.223],[-43.927,0.983,1.484,1.937,0.815,-41.871,3.177,2.593,2.247,2.342,-32.239,6.765,3.966,3.96,3.83,-26.064,24.273,18.737,18.083,15.28,-37.096,62.72,40.855,35.68,29.374,-72.952,101.26,76.184,69.18,54.812],[-51.979,-1.123,2.652,2.68,1.5,-52.115,2.147,2.604,2.345,2.134,-43.919,1.521,4.52,3.359,3.207,-37.942,23.722,21.748,14.513,13.816,-48.692,54.681,37.652,29.974,26.017,-79.969,92.591,85.208,63.272,51.086],[-63.372,-3.933,-0.157,1.695,1.238,-61.375,-0.094,2.108,1.654,1.363,-59.642,1.383,4.311,2.879,2.404,-64.75,20.091,18.041,16.336,12.877,-70.995,37.826,37.318,31.578,27.895,-68.768,34.163,83.914,72.73,49.976]],
"vp": [[434.59,-132.279,108.998,51.931,-88.187,62.247,31.905,-44.072,27.512,-7.104,5.368,1.445,0.163,5.376,12.002,4.314,-1.384,3.425,-4.313,4.811,1.765,-2.443,0.187,-3.082,1.549,-1.196,-3.047,-0.321,7.117,0.174],[1774.6,606.59,133.544,142.944,-137.643,333.157,23.424,64.182,16.259,-0.26,200.387,50.564,15.481,29.867,-1.732,32.82,-4.287,7.642,-2.52,-1.036,16.856,0.756,0.629,-3.062,9.102,7.372,-2.613,1.777,4.826,-3.111],[4076.461,688.621,-78.53,106.228,9.421,788.666,164.076,11.995,32.01,-33.747,378.284,51.075,40.037,-18.082,4.179,95.928,22.288,14.364,2.668,-6.75,47.156,15.398,0.608,0.128,-4.565,12.917,4.434,14.686,2.083,-0.796],[5912.428,2006.747,699.276,224.385,30.049,1168.813,338.202,106.094,-4.462,28.501,581.375,152.961,54.531,13.808,16.575,107.706,33.55,3.978,20.609,0.18,43.024,27.807,2.307,15.629,11.16,25.895,23.276,-0.553,8.155,-3.486],[7061.981,2829.09,974.418,244.045,44.637,1407.082,660.394,144.257,72.63,40.259,650.091,275.798,111.827,44.979,0.68,120.078,68.262,14.9,6.437,19.031,59.63,35.901,-3.287,10.1,-0.99,32.71,32.006,10.947,5.613,3.201],[7599.965,4325.288,1115.843,452.939,436.129,1503.777,971.399,255.547,100.75,18.864,749.623,441.419,144.783,78.012,39.947,153.816,98.406,21.376,19,5.916,65.064,49.398,17.455,10.004,16.586,19.958,28.482,14.081,19.341,3.691]]
}