{
"KTrans": [[19.777,14.884,14.92,14.148,14.902,14.933,17.415,8.858,16.075,14.237,25.542,18.847,19.777,21.589,13.262,26.346,32.407,29.503,26.772,25.338,-28.881,39.006,53.423,44.535,39.169,-223.134,85.678,59.635,95.123,75.524],[-41.548,-7.039,-0.385,7.782,5.897,-37.18,-5.355,1.052,3.336,6.495,-34.68,-7.887,-0.768,7.457,7.639,-28.002,5.615,10.266,9.725,15.319,-29.767,9.593,17.523,20.967,17.424,-15.781,-44.964,21.13,48.429,38.462],[-71.949,-17.771,-10.223,-3.455,1.805,-74.309,-19.603,-9.948,-4.478,-0.168,-67.772,-20.822,-12.134,-2.438,1.854,-55.488,-24.904,-0.268,0.467,4.223,-55.81,-34.082,0.035,3.422,6.372,-43.465,-71.887,13.705,27.626,21.539],[-82.609,-41.667,-25.032,-12.93,-5.321,-79.888,-45.613,-24.546,-14.905,-6.102,-77.394,-46.165,-24.328,-12.374,-6.83,-68.371,-42.908,-15.78,-10.855,-4.665,-84.6,-34.53,-8.927,-10.316,1.057,-74.744,-67.419,-48.97,17.277,15.109],[-86.937,-50.834,-39.184,-23.419,-17.184,-87.66,-49.518,-36.252,-23.328,-13.455,-86.532,-51.637,-39.814,-22.332,-13.242,-86.437,-45.943,-24.493,-19.719,-14.774,-84.411,-49.904,-25.958,-17.479,-10.447,-67.617,-61.781,-52.095,-9.098,-6.371],[-90.944,-63.455,-41.891,-35.235,-24.226,-90.006,-67.909,-44.07,-32.55,-24.236,-88.575,-74.04,-39.574,-32.863,-23.367,-96.239,-59.526,-42.196,-28.367,-21.554,-84.511,-67.591,-31.877,-25.447,-21.453,-88.64,-71.735,-35.251,-39.209,-4.544]],
"ve": [[22.878,15.903,-59.969,-359.405,11.195,-115.227,20.073,38.044,-2.687,-79.432,9.104,-32.344,-1.744,9.425,64.386,9.474,-2.561,-3.646,-11.88,-62.28,27.237,7.143,7.747,-100.756,-23.889,88.385,31.976,15.949,-26.624,-15.643],[-15.887,-2.136,1.798,3.312,5.067,-4.161,-0.211,2.783,3.129,5.742,-11.608,0.441,2.098,3.798,4.805,13.17,13.214,8.18,8.596,9.755,21.615,15.807,7.144,-23.249,2.764,50.61,29.971,23.324,18.032,8.263],[-34.623,-6.704,-3.355,-1.857,0.852,-26.047,-7.331,-3.805,-1.272,1.001,-31.036,-6.03,-2.887,-1.008,1.848,-17.47,-1.553,3.943,1.843,4.665,10.721,4.957,2.826,11.052,7.57,64.021,34.52,26.801,19.294,73.54],[-51.243,-16.398,-9.321,-3.952,-2.016,-42.921,-15.105,-9.47,-4.924,-2.157,-38.143,-16.916,-7.845,-5.442,-2.267,152.92,-13.654,-2.264,-1.525,-0.524,-10.526,-0.47,2.99,3.46,5.223,39.525,29.96,22.882,22.087,9.081],[-55.531,-24.282,-13.151,-8.637,-6.102,-54.932,-21.092,-14.404,-7.759,-4.944,-44.916,-24.084,-14.701,-7.817,-3.983,-23.141,-11.143,-5.37,-4.646,-3.496,4.823,-2.888,-0.039,-1.118,1.736,19.696,11.752,14.751,10.003,6.808],[-51.411,-33.48,-17.275,-13.441,-8.362,-57.312,-35.03,-18.418,-12.224,-8.226,-45.708,-38.047,-12.177,-10.9,-7.389,-62.922,-23.313,-10.258,-8.534,-6.207,-22.198,-10.865,0.469,-4.518,-5.075,48.615,3.055,11.129,1.338,-5.148]],
"kep": [[-11.134,-17.3,-20.406,-23.329,-25.014,-20.639,-11.98,-29.492,-19.955,-28.053,-11.647,-14.224,-12.315,-11.585,-29.943,-35.482,-15.664,-17.81,-21.603,-24.858,-7.786,-45.54,-22.252,-27.781,-37.975,0.481,-3.614,-14.917,3.025,-15.316],[-50.035,-25.984,-23.15,-17.754,-20.264,-49.362,-26.576,-22.67,-21.105,-20.392,-49.745,-28.895,-23.552,-18.506,-18.899,-55.952,-26.439,-20.57,-20.082,-16.124,-50.561,-40.465,-25.217,-19.633,-20.029,-49.378,-35.295,-44.077,-17.174,-22.599],[-74.535,-32.257,-27.564,-23.138,-20.933,-76.457,-33.506,-27.185,-24.278,-22.566,-74.1,-35.499,-29.457,-22.972,-21.644,-70.65,-44.326,-26.61,-23.814,-22.222,-66.625,-53.813,-32.449,-27.028,-23.822,-65.34,-61.103,-42.338,-26.109,-27.829],[-84.435,-47.979,-35.913,-29.241,-24.347,-81.999,-50.915,-35.683,-30.031,-24.973,-81.139,-51.723,-36.3,-27.757,-25.418,-74.687,-58.861,-33.789,-30.072,-25.697,-78.289,-54.599,-37.629,-34.306,-27.01,-80.556,-64.558,-54.233,-31.88,-27.669],[-88.298,-51.972,-45.811,-34.761,-31.029,-88.137,-53.095,-42.606,-35.148,-28.773,-89.275,-55.757,-46.031,-34.549,-29.507,-88.75,-59.881,-39.825,-35.472,-31.631,-82.815,-64.857,-48.882,-39.558,-33.162,-80.305,-67.967,-55.691,-50.342,-40.089],[-91.637,-63.48,-46.105,-41.785,-35.708,-90.423,-69,-47.615,-40.493,-35.523,-90.575,-72.974,-47.526,-41.526,-35.577,-88.057,-68.706,-52.637,-39.916,-35.542,-87.987,-73.564,-54.962,-44.341,-38.512,-87.095,-72.639,-58.279,-62.14,-37.524]],
"vp": [[-352.196,-505.09,-649.586,-713.284,-633.756,12.286,-65.287,8.039,-126.252,-90.222,-11.558,-63.027,-58.493,-57.16,-20.66,-24.104,-4.194,-20.537,-7.302,-12.91,-11.104,-15.546,-19.203,-8.203,-6.141,-21.526,-50.905,-27.748,-27.725,-28.521],[2388.87,747.526,233.343,-768.534,-346.524,399.508,39.241,78.303,-11.848,-152.625,166.131,44.449,51.363,-47.697,-67.797,-10.553,-14.444,-25.717,-2.023,-28.445,0.644,-14.983,-7.654,-10.958,-9.034,-6.92,-14.378,-26.236,-32.895,-16.899],[4493.135,1313.559,1153.889,645.766,-434.591,1017.769,356.247,232.248,87.764,-2.693,436.321,138.988,130.81,59.779,-28.369,49.83,39.944,-2.897,11.226,-20.483,9.481,-13.76,-4.604,7.32,-2.843,-6.79,-19.547,-30.289,-30.066,-9.69],[5871.278,3694.376,3027.489,1469.471,687.367,1073.856,782.074,615.934,423.675,223.685,427.063,450.497,269.697,194.625,89.497,58.044,79.534,24.647,38.155,24.335,47.334,11.993,-4.105,24.133,-3.534,2.54,-11.514,-18.02,-42.392,-17.733],[6426.286,5957.822,4537.755,3622.919,2985.22,1337.342,1120.961,1053.113,688.048,453.568,567.37,617.806,546.093,344.02,179.284,76.267,83.041,49.161,60.998,57.496,14.77,28.576,15.178,29.683,9.928,-10.598,12.39,-2.85,-7.824,13.849],[6685.553,8068.6,5753.407,6364.842,4733.902,1354.168,1793.306,1327.119,1018.348,859.875,655.732,1115.148,416.586,470.729,372.557,135.859,137.179,114.133,91.528,89.438,29.018,53.749,9.116,32.928,51.2,-2.955,22.699,2.07,20.467,-19.049]]
}