{
"KTrans": [[-0.109,-0.081,-0.067,-0.042,-0.037,-1.434,-0.895,-0.7,-0.602,-0.518,-3.251,-1.86,-1.394,-1.396,-1.146,-16.123,-9.93,-7.232,-6.363,-6.088,-30.415,-18.786,-14.686,-13.481,-11.751,-56.692,-33.983,-28.221,-24.571,-22.633],[0.909,0.244,0.124,0.081,0.066,-0.732,-0.419,-0.335,-0.263,-0.228,-2.692,-1.321,-0.887,-0.737,-0.586,-17.455,-8.145,-5.351,-4.421,-3.56,-34.733,-15.712,-10.667,-8.395,-6.807,-63.508,-31.767,-20.384,-17.069,-14.211],[2.815,0.758,0.366,0.23,0.168,1.049,-0.022,-0.102,-0.121,-0.11,-1.256,-0.917,-0.727,-0.538,-0.433,-18.449,-7.993,-5.487,-4.116,-3.316,-39.302,-16.6,-10.779,-8.237,-6.282,-70.342,-33.392,-21.082,-16.264,-12.725],[5.605,1.526,0.725,0.435,0.303,3.62,0.676,0.201,0.066,0.02,1.107,-0.293,-0.374,-0.361,-0.296,-19.884,-8.07,-5.189,-3.726,-3.023,-43.982,-17.438,-11.351,-8.183,-6.413,-78.144,-34.966,-22.285,-16.581,-13.339],[9.074,2.52,1.174,0.705,0.478,7.049,1.625,0.656,0.326,0.192,3.984,0.558,0.017,-0.105,-0.18,-18.963,-8.317,-5.183,-3.742,-2.946,-45.597,-18.877,-11.14,-8.388,-6.458,-83.634,-39.502,-22.047,-17.409,-12.743],[13.667,3.658,1.731,1.025,0.689,11.442,2.763,1.175,0.65,0.397,8.472,1.719,0.536,0.204,0.033,-19.564,-7.815,-5.041,-3.777,-2.881,-52.697,-18.109,-11.505,-8.788,-6.576,-87.972,-41.749,-24.531,-17.541,-13.175]],
"ve": [[-0.166,-0.093,-0.065,-0.057,-0.05,-0.615,-0.14,0.102,0.276,0.402,-1.24,-0.19,0.293,0.77,1.009,-5.713,-0.382,2.276,4.433,6.737,-10.738,0.129,6.165,12.073,16.355,-18.477,5.211,21.731,38.083,58.248],[0.029,-0.082,-0.086,-0.085,-0.084,-0.747,-0.355,-0.242,-0.172,-0.13,-1.69,-0.732,-0.431,-0.294,-0.187,-9.099,-3.626,-1.953,-1.228,-0.644,-18.571,-6.927,-3.796,-2.195,-1.089,-37.933,-14.448,-7.173,-4.286,-1.989],[0.634,0.03,-0.047,-0.066,-0.071,-0.234,-0.335,-0.248,-0.201,-0.166,-1.398,-0.747,-0.519,-0.362,-0.275,-10.286,-4.076,-2.596,-1.76,-1.264,-22.595,-8.319,-4.924,-3.394,-2.268,-45.61,-17.307,-9.692,-6.655,-4.498],[1.642,0.25,0.037,-0.027,-0.048,0.637,-0.16,-0.202,-0.187,-0.164,-0.606,-0.618,-0.466,-0.37,-0.29,-11.682,-4.438,-2.709,-1.842,-1.4,-26.437,-9.25,-5.665,-3.838,-2.805,-55.279,-19.019,-11.139,-7.692,-5.743],[2.967,0.563,0.157,0.038,-0.013,1.958,0.14,-0.086,-0.136,-0.137,0.399,-0.39,-0.388,-0.329,-0.299,-11.61,-4.856,-2.897,-1.996,-1.513,-27.845,-10.454,-5.803,-4.202,-3.083,-64.312,-22.581,-11.39,-8.632,-5.951],[4.799,0.961,0.325,0.121,0.037,3.734,0.514,0.056,-0.053,-0.096,2.24,0.005,-0.245,-0.264,-0.26,-12.412,-4.859,-2.987,-2.164,-1.595,-33.528,-10.228,-6.197,-4.614,-3.329,-87.961,-24.477,-13.208,-9.01,-6.457]],
"kep": [[0.057,0.012,-0.002,0.014,0.013,-0.825,-0.756,-0.801,-0.875,-0.915,-2.039,-1.673,-1.681,-2.147,-2.132,-11.091,-9.587,-9.273,-10.294,-11.944,-22.243,-18.876,-19.516,-22.582,-23.766,-47.374,-36.816,-40.095,-43.614,-48.463],[0.88,0.326,0.211,0.167,0.15,0.014,-0.065,-0.093,-0.091,-0.097,-1.022,-0.593,-0.459,-0.445,-0.4,-9.261,-4.703,-3.47,-3.236,-2.936,-20.13,-9.498,-7.167,-6.351,-5.785,-42.959,-20.521,-14.324,-13.4,-12.489],[2.167,0.728,0.414,0.296,0.239,1.285,0.314,0.146,0.08,0.056,0.14,-0.172,-0.209,-0.177,-0.159,-9.176,-4.098,-2.974,-2.401,-2.08,-21.99,-9.095,-6.183,-5.026,-4.115,-47.992,-19.723,-12.728,-10.352,-8.646],[3.899,1.272,0.688,0.462,0.352,2.962,0.838,0.404,0.253,0.183,1.718,0.326,0.092,0.008,-0.006,-9.398,-3.817,-2.555,-1.923,-1.647,-24.45,-9.1,-6.056,-4.535,-3.721,-57.028,-20.001,-12.651,-9.682,-8.085],[5.929,1.946,1.016,0.667,0.491,4.988,1.483,0.742,0.463,0.33,3.559,0.951,0.407,0.224,0.119,-8.482,-3.657,-2.361,-1.785,-1.458,-25.66,-9.486,-5.693,-4.383,-3.491,-67.166,-22.205,-12.153,-9.665,-7.257],[8.456,2.672,1.401,0.903,0.652,7.418,2.237,1.118,0.703,0.493,6.077,1.713,0.783,0.469,0.294,-8.436,-3.127,-2.125,-1.652,-1.31,-30.674,-8.863,-5.69,-4.392,-3.368,-92.44,-23.347,-13.181,-9.44,-7.223]],
"vp": [[13.091,13.496,13.536,12.056,11.931,13.551,13.45,12.973,12.6,11.801,14.451,13.111,12.074,13.618,12.099,14.172,13.715,12.115,11.972,12.397,13.968,13.308,12.623,13.041,12.182,14.861,12.843,12.903,12.511,12.371],[-8.459,6.13,10.297,12.452,12.931,14.05,12.964,13.455,12.976,12.952,16.603,14.637,13.569,13.826,12.801,18.376,15.461,13.953,14.263,13.22,18.883,14.915,13.883,13.381,12.458,19.546,15.879,13.525,13.94,13.301],[-69.879,-17.19,-1.761,4.895,8.214,3.428,11.543,12.369,13.176,13.116,13.43,14.163,14.832,13.782,13.192,20.518,16.451,16.216,15.381,14.758,22.676,16.934,15.564,15.094,13.574,23.022,17.774,15.459,15.042,13.822],[-170.941,-62.155,-27.811,-10.898,-2.972,-14.032,4.191,9.148,11.32,12.008,5.404,11.294,12.682,13.362,12.86,23.273,17.682,16.365,15.056,14.716,26.464,18.565,17.331,15.983,15.062,27.82,19.199,17.145,16.218,15.69],[-303.518,-124.923,-64.528,-37.696,-21.23,-40.536,-8.074,1.784,6.872,8.831,-4.637,6.633,10.104,11.292,12.926,23.072,19.297,17.303,16.014,15.328,27.778,20.926,17.497,17.122,15.929,32.456,22.74,17.244,17.746,15.511],[-486.672,-205.456,-115.992,-71.685,-46.496,-76.103,-23.147,-6.895,-0.214,4.378,-23.089,-1.39,5.615,8.489,10.644,24.68,19.254,17.738,17.207,15.896,33.491,20.356,18.584,18.629,16.905,43.833,24.578,19.948,18.278,16.525]]
}