{
"KTrans": [[-62.665,-74.943,-74.271,-74.827,-81.298,-46.662,-71.218,-78.934,-63.62,-64.241,-29.085,-61.274,-56.709,-64.229,-61.147,34.713,-8.649,-19.336,-21.242,-17.872,75.135,23.064,29.641,47.25,42.146,144.246,183.656,140.219,208.677,142.613],[-58.608,-51.888,-43.729,-67.882,-68.373,-58.842,-43.315,-40.074,-54.36,-54.804,-50.695,-32.694,-32.861,-49.402,-58.455,-29.364,-5.26,-3.622,-15.049,-21.771,-1.585,32.042,21.923,-1.953,-2.816,49.624,52.973,35.446,61.8,31.302],[-69.716,-48.649,-44.406,-47.19,-52.524,-68.018,-45.133,-42.908,-32.631,-40.046,-62.831,-40.862,-39.812,-31.658,-31.75,-53.786,-35.566,-24.265,-4.252,-7.958,-32.21,4.739,1.519,-4.508,8.132,-30.759,17.265,45.859,0.583,-19.99],[-78.22,-55.161,-37.921,-49.579,-40.657,-74.472,-52.849,-45.76,-40.599,-41.5,-74.629,-52.868,-38.013,-37.53,-38.071,-66.037,-34.876,-29.748,-22.747,-20.239,-47.652,-16.517,-14.376,-0.152,-8.091,-36.6,7.313,37.712,28.864,21.269],[-81.977,-60.304,-48.344,-41.138,-46.166,-83.501,-58.807,-48.754,-43.039,-42.362,-80.331,-56.879,-37.511,-40.006,-38.404,-71.32,-48.384,-33.147,-29.696,-35.355,-60.577,-30.702,-27.769,-20.258,-14.304,-49.325,-12.421,-6.182,15.162,27.764],[-88.098,-63.069,-50.786,-42.283,-43.469,-86.368,-63.146,-47.267,-47.048,-40.348,-85.044,-67.165,-41.861,-36.825,-40.232,-78.633,-54.346,-42.399,-33.239,-42.948,-72.975,-38.21,-22.612,-22.977,-25.964,-63.01,-34.979,-10.588,5.124,5.663]],
"ve": [[-47.102,140.38,-34.527,-104.989,-50.861,-45.237,-89.192,-36.653,-55.482,-67.018,-47.969,64.189,-80.413,-56.902,-31.766,28.83,47.937,64.398,-78.729,-38.391,100.956,99.684,-37.549,-2.651,-25.145,162.66,73.985,6.104,20.237,15.273],[-88.646,-69.268,-46.918,-52.189,-37.811,-250.324,-60.406,-34.381,-40.865,-32.158,37.951,-25.07,-70.093,-43.776,-39.714,21.826,-20.279,5.038,-10.502,-26.096,97.567,56.588,-0.387,-3.535,-86.58,325.416,95.651,78.96,56.599,44.369],[-27.324,-77.613,-67.482,-52.404,-53.912,-33.304,-52.674,-64.433,-40.314,-38.869,-23.822,-57.055,-56.94,-26.434,-30.749,8.797,-46.657,-41.533,-1.15,-3.971,147.678,22.478,0.481,-0.26,5.195,200.927,46.843,80.994,33.274,-15.225],[-15.906,-72.484,-57.939,-85.437,-57.064,31.459,-72.353,-93.017,-68.552,-53.395,55.937,-75.682,-49.577,-60.269,-56.226,34.059,-39.101,-54.531,-39.919,-26.559,166.504,3.324,-34.846,110.101,-23.984,502.221,90.989,128.956,23.784,47.028],[16.948,-65.556,-95.138,-84.013,-83.339,24.711,-83.184,-93.739,-87.814,-78.307,4.808,-67.428,-64.777,-82.108,-75.207,66.475,-18.366,-58.074,-53.463,-68.558,245.86,43.648,-30.204,-34.898,-30.661,134.588,62.039,8.553,42.119,43.806],[-5.608,-36.532,-103.077,-103.578,-86.115,-19.905,-60.738,-72.922,-108.959,-76.986,-0.117,-44.198,-62.075,-72.674,-77.737,37.458,-12.034,-66.654,-67.845,-94.992,-26.114,42.5,20.196,-57.496,-57.28,195.168,107.811,122.028,23.752,-11.212]],
"kep": [[-112.771,-50.85,-14.589,-5.732,-4.098,-110.765,-35.916,14.858,-14.681,-19.489,-120.435,6.638,-5.44,-20.689,5.523,-112.733,-100.053,-23.854,-6.318,-34.785,-92.631,-112.773,-67.781,-71.97,-87.601,-35.77,-118.216,-174.516,-233.426,-175.276],[-77.132,-54.352,-110.189,-22.11,4.164,-75.036,-50.422,-126.955,-35.511,0.579,-77.418,-59.666,-116.6,-41.752,12.073,-74.339,-64.331,-114.676,-65.724,-38.815,-75.532,-54.719,-130.522,-87.982,-25.933,-66.176,-39.951,-69.904,-159.969,-106.397],[-84.923,-34.57,-28.447,-55.145,-127.107,-83.849,-40.577,-25.692,-56.698,-108.373,-82.095,-37.301,-27.938,-57.461,-117.706,-78.362,-41.318,-22.588,-68.131,-131.585,-89.839,-39.821,-39.803,-44.17,-70.078,-74.844,-51.235,-41.271,-38.92,-21.023],[-93.793,-46.368,-21.705,-12.359,-23.567,-93.515,-41.388,-13.983,-7.987,-8.688,-91.971,-43.294,-17.017,-10.669,-26.073,-88.479,-38.978,-23.274,-16.995,-30.538,-86.768,-48.394,-25.459,-30.453,-28.517,-89.402,-50.279,-38.836,-26.502,-55.575],[-92.678,-53.079,-20.592,-8.16,-2.417,-94.606,-50.828,-21.494,-9.078,2.032,-94.678,-50.628,-19.759,-9.605,-5.728,-92.652,-59.365,-21.659,-19.126,-5.674,-87.633,-64.697,-42.573,-23.317,-14.985,-82.273,-52.709,-47.886,-43.008,-33.203],[-95.955,-65.591,-25.453,-7.618,-7.498,-96.065,-55.475,-26.547,-10.317,-9.17,-96.344,-67.606,-28.289,-10.778,-9.208,-93.075,-67.619,-32.086,-16.247,-6.622,-89.784,-69.022,-49.133,-14.397,-9.758,-87.143,-70.681,-70.269,-40.872,-15.453]],
"vp": [[-204.664,-145.923,169.283,-42.155,-163.959,-16.292,-2.895,-12.454,-7.194,-64.139,-13.895,7.64,14.16,-37.518,29.617,-23.701,-5.763,-11.3,-10.727,-8.761,-17.609,10.54,-12.985,-19.094,-10.335,-27.544,-14.311,-3.781,-24.617,1.018],[2322.457,431.987,163.334,-216.791,17.186,333.982,72.345,-14.741,-15.225,12.642,236.612,88.16,3.618,18.935,-12.763,33.769,-13.025,-3.539,-15.539,-19.633,-18.147,-39.593,9.437,15.245,-5.986,-13.035,-36.59,-27.644,-37.988,9.33],[4365.739,1724.517,942.032,491.63,-158.379,780.7,520.738,124.432,175.703,21.467,364.196,187.195,52.045,61.544,12.49,55.269,21.733,-16.046,3.041,4.292,27.872,-14.566,-30.362,-13.334,-20.955,-8.14,-27.716,-15.289,-24.08,1.686],[5998.741,3644.33,2363.436,890.997,659.767,1183.649,810.538,292.397,138.778,45.359,557.277,334.458,222.896,60.142,22.052,107.011,47.679,14.45,29.197,30.193,18.612,6.222,-13.482,0.469,-15.735,16.464,-31.335,-24.624,-21.82,-23.612],[5965.659,5438.906,2581.164,1213.681,628.944,1110.083,1002.498,545.066,251.627,165.533,602.848,479.819,309.837,89.624,48.801,112.818,99.006,31.204,30.687,7.453,25.901,33.686,26.543,11.063,2.38,-8.015,-9.893,-4.982,-10.68,-13.151],[6147.571,7396.944,3358.085,1258.807,1500.952,1412.08,1290.47,922.669,293.221,368.699,622.558,807.297,403.902,242.918,103.541,104.07,117.24,71.123,58.435,-18.503,45.049,22.615,59.425,3.929,-4.194,6.124,6.516,24.131,-21.064,-20.219]]
}