{
"KTrans": [[-72.221,-73.976,-86.268,-87.776,-88.063,-50.841,-69.749,-75.971,-76.521,-75.787,-50.334,-74.351,-64.207,-86.487,-90.417,19.498,22.869,-4.123,-19.074,-34.983,94.69,59.33,37.537,53.675,29.419,232.713,211.002,207.675,199.227,213.121],[-58.508,-54.273,-64.613,-61.018,-69.289,-61.82,-57.657,-52.286,-66.434,-62.355,-54.961,-43.474,-40.627,-54.472,-62.45,-34.978,-6.666,-6.94,-19.402,-32.283,-12.294,8.441,29.329,-0.028,-13.775,51.209,63.24,66.327,48.91,52.4],[-69.588,-52.89,-45.131,-48.746,-57.058,-73.706,-56.707,-40.472,-35.808,-55.006,-73.11,-49.424,-45.53,-39.772,-45.922,-57.358,-33.889,-26.631,-22.165,-22.766,-41.984,-20.84,-9.745,4.667,-12.245,2.422,17.707,42.728,28.272,38.545],[-81.753,-57.685,-52.774,-43.669,-46.316,-79.81,-62.713,-44.155,-44.947,-37.156,-79.356,-60.125,-47.054,-42.589,-42.024,-70.894,-48.421,-33.772,-30.791,-24.052,-56.032,-34.996,-21.121,-10.093,-18.833,-37.792,-7.559,3.288,5.988,20.69],[-85.057,-69.885,-53.775,-50.099,-43.454,-83.843,-65.94,-52.722,-42.983,-45.372,-83.942,-68.097,-53.772,-41.935,-52.367,-75.262,-57.921,-46.137,-38.407,-39.213,-63.471,-51.289,-31.911,-25.56,-26.337,-42.607,-21.447,-20.097,-3.703,4.341],[-87.08,-71.543,-59.77,-57.921,-44.295,-88.317,-70.935,-58.688,-48.848,-44.712,-89.073,-71.944,-57.612,-56.451,-41.798,-82.205,-63.075,-52.578,-44.921,-36.808,-73.588,-54.016,-41.734,-36.21,-31.745,-64.543,-36.288,-22.16,-17.792,-14.473]],
"ve": [[-66.97,-12.585,-47.045,-23.065,-91.963,-62.887,-52.305,-65.11,-32.76,-38.234,-146.922,-58.438,-108.413,-52.455,-31.742,55.563,11.411,-106.419,-55.786,-42.923,47.003,-15.257,178.294,-49.222,-55.387,255.119,85.564,32.432,347.68,-2.819],[-39.3,5.618,-69.291,-52.662,-43.442,-21.859,-30.921,-74.381,-50.996,-54.426,-8.583,132.252,-22.406,-45.708,-53.554,-29.797,6.719,-2.237,-56.375,-22.348,174.543,-535.582,19.603,-17.507,13.416,281.945,115.209,87.923,37.868,46.865],[-16.107,-31.239,-72.55,-51.014,13.214,102.756,-58.818,-35.195,-38.741,-53.631,-66.441,-45.65,-39.288,-37.14,-38.26,-13.622,-23.475,7.727,-62.388,-15.957,65.644,33.507,-21.801,18.633,-9.849,352.802,119.611,92.822,96.443,73.291],[-16.079,-42.166,-57.805,-448.35,-16.154,14.025,-50.198,70.385,-127.212,-44.722,-179.846,-46.072,-45.495,-49.086,-50.297,-10.448,17.687,-60.927,-17.046,-23.329,159.066,-2309.368,42.735,7.844,-3.797,-2.468,164.18,67.827,41.49,137.564],[-96.895,-36.227,-32.065,-72.696,-48.478,31.52,-35.489,-44.428,-23.762,-55.523,-67.636,-22.258,-44.101,-43.456,-86.947,50.368,-0.275,-21.581,-91.731,-72.387,209.362,43.306,3.869,-15.95,-28.559,359.361,159.723,5.664,11.868,46.123],[-74.115,-15.246,-33.923,-105.385,-78.43,-13.035,-28.875,-3300.867,-52.783,-60.166,-5.872,-6.061,-60.089,-87.235,-55.312,103.27,14.398,-72.554,-32.791,-53.415,207.521,103.997,-12.274,-37.265,-41.481,434.636,182.1,69.57,5.503,1.403]],
"kep": [[-113.476,-95.46,-34.858,-71.823,-41.166,-120.306,-103.86,-100.689,-51.25,-60.509,-127.55,-122.316,-104.138,-38.375,-48.912,-105.345,-147.243,-135.699,-83.754,-63.424,-131.933,-151.143,-150.21,-159.718,-113.953,-138.573,-168.436,-177.581,-272.645,-317.558],[-107.026,-109.249,-120.102,-85.907,-52.367,-104.819,-112.859,-109.033,-97.244,-43.209,-99.343,-93.043,-138.857,-98.019,-60.937,-99.408,-99.871,-125.562,-116.154,-75.551,-97.505,-105.77,-138.021,-109.526,-81.365,-99.605,-86.448,-135.906,-146.929,-123.89],[-99.846,-86.034,-91.573,-103.209,-111.094,-100.083,-87.234,-95.504,-106.833,-120.044,-103.446,-89.905,-95.212,-104.427,-129.363,-100.77,-90.157,-91.233,-113.532,-103.494,-97.887,-91.408,-78.668,-101.255,-119.06,-98.988,-78.612,-86.627,-73.462,-137.419],[-99.838,-81.26,-63.543,-69.647,-82.907,-100.892,-89.332,-68.705,-68.428,-81.02,-98.177,-84.848,-70.877,-77.3,-75.21,-98.24,-90.063,-71.144,-67.756,-89.038,-100.888,-92.021,-77.044,-66.015,-75.455,-97.348,-85.144,-69.652,-86.26,-96.451],[-100.212,-87.836,-74.948,-51.549,-55.483,-101.26,-98.031,-71.012,-58.536,-52.454,-100.337,-90.628,-69.419,-53.407,-51.633,-100.455,-91.301,-70.615,-59.788,-47.614,-101.66,-89.336,-74.024,-58.174,-54.018,-97.174,-90.683,-66.559,-56.066,-65.152],[-99.386,-92.793,-75.027,-60.865,-43.85,-101.037,-91.686,-72.065,-54.306,-48.11,-100.411,-93.624,-64.588,-58.017,-43.343,-101.577,-91.793,-73.675,-63.005,-43.533,-101.736,-95.642,-78.359,-56.908,-52.516,-99.087,-94.988,-77.094,-53.305,-56.401]],
"vp": [[-933.803,939.761,982.073,-181.462,93.234,-89.316,14.172,66.065,133.461,57.977,67.68,-124.369,-36.29,56.431,-42.698,-10.319,-1.898,-5.671,-21.294,-27.298,-28.715,-31.184,-2.171,-15.566,-10.06,-25.761,-4.235,-1.191,-24.221,-11.311],[2612.014,969.77,-744.121,-48.374,-479.522,544.054,105.904,-92.151,-180.515,85.769,233.081,129.762,-21.245,-63.519,-56.699,50.54,37.38,10.935,-13.132,7.871,13.256,-28.171,-10.591,-11.912,-12.69,3.708,-22.733,-23.761,-5.213,-0.426],[6190.479,4540.091,2390.487,1133.894,-399.918,707.148,806.902,522.62,365.936,-141.769,514.09,431.791,149.686,92.328,-119.9,71.128,29.455,23.034,9.96,-9.677,31.993,27.057,-4.241,-6.87,-10.617,-6.712,-2.739,-29.441,-19.349,-11.536],[6048.651,5955.525,3576.618,3722.34,1329.932,1090.451,1191.546,1019.585,544.392,368.897,545.343,519.42,510.764,227.593,130.2,52.244,114.501,71.189,44.541,29.773,21.811,28.253,41.44,13.006,-15.077,-11.276,-18.023,-20.842,-17.19,-7.473],[6130.456,7391.135,6601.396,4809.541,2837.529,1144.89,1898.817,1202.01,1050.908,541.975,675.299,843.544,579.866,298.562,178.386,113.082,118.59,119.673,64.745,19.971,50.778,59.705,41.885,32.536,14.267,4.313,13.721,-5.901,-11.178,-11.164],[5798.133,10668.893,8544.782,7053.978,3834.319,1288.145,1961.381,1695.398,1176.879,1139.576,674.199,943.988,738.47,546.065,424.334,100.684,180.569,161.806,135.878,79.364,62.678,71.176,65.238,35.247,22.838,5.691,19.047,23.659,-0.91,6.439]]
}