{
"KTrans": [[3.364,4.068,10.184,6.663,10.668,10.728,13.116,11.995,13.266,12.565,21.413,14.89,20.765,19.501,17.409,99.495,89.662,84.828,76.711,64.708,-116.981,161.881,111.285,138.309,135.453,-21.506,-17.936,32.106,-89.505,114.569],[-22.688,-1.921,1.656,3.395,3.842,-8.827,1.182,1.79,5.015,7.402,-2.657,4.475,8.348,9.943,8.716,-5.318,52.52,45.977,40.642,32.769,-30.913,34.358,83.987,68.75,67.323,-16.532,-38.632,6.547,116.869,113.673],[-45.031,-13.927,-3.538,-1.091,0.203,-42.164,-10.058,-3.83,0.706,2.246,-36.576,-3.629,0.812,3.232,2.593,-38.539,26.571,25.806,26.999,22.656,-30.009,16.311,57.83,55.007,49.029,-3.495,39.745,30.325,85.954,95.657],[-58.765,-14.153,-10.959,-6.289,-3.51,-51.923,-16.311,-7.229,-2.918,-2.244,-62.132,-10.321,-5.883,-1.609,-1.038,-37.908,6.766,17.491,17.814,16.647,-57.063,-10.548,37.847,46.184,38.509,-45.502,-21.813,29.317,61.636,83.414],[-73.113,-26.906,-13.155,-7.999,-5.293,-70.522,-23.838,-11.795,-8.346,-6.063,-72.21,-16.277,-9.665,-5.085,-3.166,-73.376,-18.561,7.766,16.564,12.185,-53.868,-45.951,9.583,36.429,36.495,-64.403,-8.653,-40.497,-26.243,59.472],[-78.687,-36.703,-17.889,-13.85,-8.717,-82.745,-25.326,-11.631,-9.637,-7.535,-80.478,-20.672,-11.533,-7.651,-6.14,-80.037,-20.994,14.836,10.335,5.343,-60.284,-45.651,1.849,25.547,27.328,-57.051,-18.139,-47.057,-17.261,52.572]],
"ve": [[6.949,46.203,46.887,87.893,-626.943,14.091,18.139,15.715,62.267,67.121,19.973,34.941,14.248,9.606,494.359,51.444,24.424,7.539,4.028,-1.098,75.636,32.305,7.092,-5.185,-12.994,196.068,76.765,36.74,13.234,-13.844],[2.107,0.882,1.75,2.039,4.531,5.523,2.836,2.905,2.577,3.935,11.949,4.856,3.334,3.497,4.973,43.387,23.94,14.821,10.328,8.588,98.038,39.036,33.49,21.958,17.346,195.127,97.25,47.342,44.462,33.781],[5.594,-1.759,-0.525,0.076,0.711,6.485,0.942,0.293,0.418,0.823,10.317,3.279,2.934,2.795,2.161,54.163,25.105,13.736,10.889,8.785,93.952,50.116,31.986,22.902,17.341,190.293,35.754,61.734,52.171,48.872],[0.903,-1.355,-1.867,-0.507,-0.065,9.773,1.147,0.305,-0.131,-0.481,6.488,3.729,1.954,0.759,1.131,47.276,21.961,14.016,10.578,8.591,114.807,47.431,30.818,23.53,17.778,197.34,95.011,61.484,47.687,40.101],[41.553,-0.757,-1.523,-1.429,-1.504,12.513,-0.47,-0.699,-0.62,-0.701,7.653,2.871,0.989,0.799,-0.313,48.977,23.057,13.743,10.768,8.424,97.049,51.074,32.128,22.582,18.603,201.571,95.225,59.78,59.888,39.587],[-3.348,-1.951,-2.885,-1.964,-1.414,7.206,0.237,-0.695,-0.668,-0.762,13.125,4.073,1.476,0.584,-0.416,46.638,26.531,15.582,10.153,7.75,94.948,48.906,29.631,22.949,17.208,196.945,102.44,63.239,45.31,37.55]],
"kep": [[-19.135,-23.892,-17.688,-26.779,-23.816,-16.473,-15.857,-15.806,-18.474,-22.584,-15.001,-15.48,-4.497,-11.309,-15.389,6.934,26.73,43.764,50.73,44.815,-82.903,52.367,40.799,94.509,117.656,-49.967,-36.458,-14.43,-96.821,62.458],[-37.255,-21.417,-19.103,-17.933,-19.676,-29.64,-20.357,-19.875,-17.274,-16.392,-29.341,-18.975,-15.101,-13.918,-16.128,-47.124,-1.155,2.347,2.735,-1.496,-65.927,-24.771,12.471,11.298,14.645,-65.71,-60.325,-41.47,19.199,27.061],[-57.174,-29.023,-21.686,-20.443,-19.813,-56.34,-28.021,-22.69,-19.174,-18.314,-53.443,-24.879,-21.074,-19.176,-19.119,-65.638,-19.56,-11.316,-7.925,-9.184,-67.563,-36.589,-3.611,1.142,1.932,-68.012,-38.355,-32.648,0.993,13.434],[-67.5,-29.772,-26.989,-24.205,-22.358,-64.644,-33.141,-25.446,-21.82,-20.898,-71.904,-30.467,-25.701,-21.477,-21.299,-65.52,-30.125,-17.442,-14.53,-13.699,-79.343,-47.777,-15.994,-5.418,-5.797,-80.321,-61.466,-32.361,-10.99,5.458],[-79.854,-41.025,-29.156,-24.947,-22.673,-77.603,-38.421,-28.527,-25.879,-23.926,-79.996,-34.578,-27.986,-24.262,-21.849,-83.661,-46.297,-24.252,-15.643,-16.949,-79.4,-67.07,-33,-11.542,-7.983,-86.638,-57.937,-65.731,-55.988,-9.266],[-83.131,-48.401,-32.046,-29.386,-25.603,-87.485,-40.558,-28.505,-26.978,-25.113,-85.526,-39.781,-29.984,-26.162,-24.275,-87.589,-48.534,-20.791,-19.889,-21.544,-82.053,-68.171,-36.984,-18.697,-13.243,-85.314,-62.732,-68.628,-49.575,-11.433]],
"vp": [[101.804,198.869,746.407,182.157,248.192,-50.889,41.881,6.998,36.317,116.456,-60.663,-3.885,9.472,29.668,29.397,-12.14,13.216,-5.701,13.491,-19.608,-17.643,-23.826,5.982,-4.195,-21.814,-18.915,-20.13,-14.152,13.659,-10.233],[2499.777,1575.676,345.308,21.471,204.535,522.978,191.653,-169.992,-113.312,3.459,217.54,85.26,-13.357,-18.849,14.874,14.229,1.58,-4.61,-4.845,-16.517,-1.277,-36.478,-22.834,-18.304,2.714,-18.177,-33.937,-15.644,-16.687,-8.391],[3978.15,2311.991,1454.323,448.458,130.919,677.518,536.706,288.955,177.781,60.289,363.115,340.097,83.02,25.704,-83.459,52.362,64.957,-9.924,-4.621,-14.866,5.223,-2.767,-22.391,-24.047,-41.54,-17.111,-35.694,-32.66,-43.035,-35.646],[5109.902,4348.425,2136.925,1430.972,1153.792,1164.331,955.767,433.014,335.819,146.889,565.936,523.325,306.739,201.231,86.549,49.244,33.13,17.444,19.231,5.738,1.099,4.701,-24.555,-16.673,-9.746,-13.866,-22.074,-32.982,-37.621,-27.289],[6843.448,6622.854,3626.02,3121.926,2027.662,1060.225,1382.551,793.719,645.489,280.81,451.535,652.347,467.591,309.78,175.852,98.026,103.27,30.853,73.65,13.749,12.059,35.755,4.479,-6.481,0.156,-6.759,-27.164,-41.409,-26.868,-20.027],[5649.174,7161.61,6588.838,3311.329,3067.411,1339.273,1596.82,1293.734,759.799,556.267,703.999,788.668,644.769,363.187,229.958,107.058,125.011,126.441,58.113,27.325,28.952,38.602,15.735,-1.57,-6.918,-21.651,-9.42,-21.503,-28.48,-33.916]]
}