{
"KTrans": [[21.927,45.401,27.962,21.438,32.489,43.465,31.509,47.992,37.871,36.777,20.191,39.014,25.225,22.973,31.763,39.198,67.37,60.22,48.176,52.933,126.79,90.322,91.898,85.425,78.003,170.808,154.209,155.126,164.32,156.882],[-53.782,-12.148,7.028,13.137,10.659,-40.907,-7.442,9.681,10.288,13.074,-42.786,-2.319,14.405,6.682,16.38,-32.095,0.835,16.454,22.089,31.56,-21.695,24.501,29.903,30,32.876,23.745,53.493,45.12,56.815,49.468],[-78.34,-33.358,-13.168,-2.434,2.846,-67.9,-28.179,-23.555,-3.086,1,-70.008,-32.082,-13.581,-10.374,4.443,-64.096,-27.758,-12.576,6.324,6.458,-57.766,-23.248,-3.334,7.749,14.611,-38.767,-7.694,17.541,17.275,33.066],[-86.553,-55.883,-31.855,-22.979,-13.074,-84.776,-48.801,-34.724,-21.728,-12.254,-83.222,-47.593,-29.49,-14.571,-5.524,-73.003,-43.841,-31.537,-13.707,-5.409,-61.498,-41.624,-18.285,-8.823,-0.416,-56.513,-25.353,-17.158,-6.134,8.144],[-89.009,-66.607,-46.874,-36.557,-22.353,-86.102,-63.834,-49.97,-26.169,-20.506,-83.527,-61.312,-45.119,-32.215,-24.215,-79.839,-60.451,-41.651,-24.366,-18.906,-78.109,-54.744,-44.595,-26.625,-16.872,-72.322,-45.36,-24.375,-14.029,-4.255],[-89.955,-75.175,-54.881,-41,-32.633,-88.239,-70.943,-54.408,-37.53,-31.662,-89.085,-74.575,-51.556,-39.199,-32.181,-84.256,-69.593,-53.722,-45.026,-28.909,-83.125,-64.69,-53.44,-39.581,-27.383,-81.327,-62.315,-43.687,-34.796,-24.86]],
"ve": [[57.492,-25.294,275.596,-91.014,150.268,24.504,-22.922,-32.475,-45.828,-255.178,52.249,-29.729,93.951,-50.855,-2.727,117.389,12.304,-87.123,8.912,-74.312,113.332,11.155,-115.917,-222.666,-415.074,107.838,60.189,102.243,-21.207,71.231],[-38.431,3.37,20.851,28.433,23.628,-7.214,3.549,2.212,198.933,34.565,50.749,-4.138,18.049,28.763,23.608,-0.604,18.24,14.274,24.252,24.479,54.555,32.87,9.283,22.659,33.557,99.617,51.403,32.583,22.639,10.8],[-64.529,-11.031,-2.579,-1.197,5.575,-5.883,-54.656,-5.191,4.543,5.468,-44.989,115.49,-0.691,2.963,6.915,-10.298,7.238,9.635,9.737,10.883,32.922,164.987,12.754,16.87,1.614,93.368,12.748,36.156,20.887,36.705],[-601.839,-17.467,-10.447,-2.627,-4.365,-52.687,-14.818,-9.493,-5.402,-3.626,-28.329,-10.635,7.02,-4.541,-1.372,-2.029,-14.698,-0.705,4.669,1.813,19.899,1.678,9.669,5.412,7.211,-77.065,31.253,10.407,-0.976,16.704],[-56.989,-13.842,-11.278,-10.7,-5.74,-10.087,-12.107,-14.351,-7.553,-8.348,-81.356,-26.779,-11.403,-3.327,-8.2,45.963,-3.183,-6.045,-4.273,-2.486,41.006,8.892,-4990.309,-15.298,-5.376,74.689,40.814,35.167,13.36,16.267],[-39.831,-11.922,-17.937,-14.055,-12.324,-417.877,-110.484,-15.65,-12.723,-10.814,-21.954,-35.122,-16.333,-12.517,-10.009,-56.771,-5.661,-11.023,-6.431,-5.044,95.346,3.86,1.389,-1.904,0.996,53.528,-108.273,-3.711,2.411,9.468]],
"kep": [[-59.245,-40.238,-61.2,-76.439,-78.391,-48.476,-50.571,-38.544,-53.919,-62.239,-55.93,-38.732,-62.845,-71.917,-78.242,-56.33,-34.727,-41.505,-62.034,-53.129,-36.928,-38.371,-32.472,-26.95,-47.428,-48.199,-37.563,-20.462,2.579,5.808],[-80.175,-50.894,-45.094,-43.282,-47.355,-72.124,-48.492,-40.92,-45.401,-48.73,-76.931,-49.571,-39.584,-47.242,-44.054,-73.667,-53.488,-43.465,-42.58,-37.667,-77.748,-51.548,-42.441,-41.159,-39.992,-72.278,-52.816,-47.788,-38.563,-44.046],[-90.836,-60.773,-49.845,-46.075,-45.949,-84.62,-57.516,-56.585,-47.547,-47.002,-87.849,-61.657,-51.527,-51.604,-46.023,-86.267,-66.009,-54.657,-44.627,-46.569,-86.5,-67.235,-53.358,-49.32,-45.665,-86.583,-71.649,-54.829,-52.842,-43.698],[-95.306,-71.944,-58.183,-56.318,-50.827,-93.702,-68.493,-60.01,-54.994,-50.565,-91.764,-68.889,-59.383,-51.136,-47.82,-88.971,-68.621,-62.677,-54.233,-49.455,-88.433,-72.987,-60.482,-53.183,-49.76,-89.842,-75.859,-68.088,-61.301,-52.093],[-96.884,-78.851,-67.143,-61.241,-54.963,-93.992,-77.156,-69.055,-56.749,-53.228,-92.567,-76.181,-66.787,-59.569,-55.414,-92.283,-78.251,-66.091,-57.651,-55.231,-92.924,-79.895,-72.762,-61.794,-56.856,-93.042,-79.389,-70.87,-62.8,-55.63],[-95.017,-82.898,-70.125,-62.899,-58.425,-94.938,-81.067,-69.666,-61.713,-58.612,-94.979,-83.081,-68.793,-62.511,-59.396,-93.826,-83.117,-72.157,-66.391,-59.791,-94.608,-83.8,-76.074,-66.948,-61.181,-94.73,-87.636,-76.592,-71.564,-63.973]],
"vp": [[-985.711,-1029.98,-945.709,-813.104,-915.809,-78.656,-221.414,-392.444,-196.753,-252.26,18.011,-29.438,-22.044,-12.965,-127.164,-32.957,-26.719,-36.368,-5.813,-14.855,-27.135,-33.31,-23.683,-24.781,-14.389,-27.219,-17.213,-24.968,-29.214,-24.415],[3390.619,1670.857,-563.31,-1002.726,-1185.494,643.522,186.1,68.796,-293.379,-224.709,221.72,102.602,-82.995,15.483,-73.718,42.304,-3.286,9.54,-44.014,-49.759,-4.933,-16.838,-14.891,-13.023,-4.256,-38.738,-21.47,-6.128,-8.193,6.398],[6506.634,3094.122,1754.081,-204.513,-685.862,846.183,636.648,766.721,57.02,-86.812,494.73,279.614,193.424,162.116,-29.943,83.872,42.783,37.845,-5.178,-10.724,18.326,29.619,24.433,-9.701,-6.566,-19.044,4.773,-15.539,4.043,-27.229],[7048.455,6376.047,4068.994,4221.861,2313.823,1355.609,986.474,958.293,734.847,508.834,734.924,347.11,420.283,229.34,51.147,79.687,85.702,95.183,34.865,18.341,12.411,36.369,19.605,12.195,3.31,-11.878,-9.152,24.821,21.86,4.179],[7631.946,8889.639,5713.14,6172.834,3277.496,1331.484,1273.935,1488.202,842.409,628.878,580.656,768.016,572.68,516.993,535.13,98.597,175.2,125.843,70.55,87.308,28.86,47.433,72.253,55.937,45.659,2.702,-10.834,-2.715,4.195,-4.81],[7221.298,9174.219,9251.956,7196.461,6999.21,1429.696,1571.114,1614.488,1127.332,1468.097,723.322,1012.545,706.838,716.119,572.407,96.228,161.785,183.237,205.587,118.977,55.498,60.079,83.174,72.1,47.846,21.277,25.265,49.687,48.915,34.126]]
}