{
"KTrans": [[2.408,0.557,0.054,-0.58,0.149,2.187,-1.311,-2.049,-0.786,0.373,-1.13,0.685,-0.861,0.458,-1.687,3.077,-4.39,-0.675,-1.462,4.014,17.824,11.103,14.56,0.185,3.782,-24.373,63.74,33.704,22.468,30.61],[-8.975,0.071,0.019,1.46,1.019,-11.413,0.381,1.076,-0.325,0.287,-7.29,2.899,0.743,0.761,1.7,-5.526,2.157,-0.92,-3.523,-1.802,-1.974,13.14,-0.2,1.433,-0.752,-35.591,17.962,11.35,-0.431,4.475],[-55.814,5.586,1.673,1.344,1.072,-59.291,2.515,2.598,0.431,0.738,-60.094,-0.064,-0.159,1.142,0.274,-46.49,-8.545,-1.328,-0.257,-1.064,-39.856,6.603,-8.175,-5.38,-2.24,-67.796,-26.278,1.582,4.767,1.635],[-84.225,0.676,4.592,3.995,1.227,-80.689,-2.639,4.804,3.65,2.075,-81.975,3.986,3.071,-0.025,0.674,-72.241,-7.08,-3.758,-1.275,-0.916,-63.186,0.524,-14.531,-4.273,3.239,-66.453,-8.723,17.353,-7.685,-1.457],[-92.046,-11.131,5.476,4.618,2.516,-90.518,-5.467,4.842,2.489,2.277,-89.214,-3.748,8.026,2.627,2.63,-85.183,-18.519,-0.975,-0.806,-1.178,-79.952,-18.162,-3.15,-1.502,-6.981,-95.374,-27.637,28.44,8.173,-3.779],[-94.37,-24.274,10.816,5.566,4.15,-94.056,-34.235,7.079,6.012,2.794,-94.648,-35.871,8.476,5.307,2.625,-94.908,-33.923,7.3,1.776,0.925,-98.796,-35.282,-10.651,3.511,3.11,-102.156,-26.916,-10.819,11.384,-5.826]],
"ve": [[1.739,0.011,0.428,2.379,2.37,0.181,0.789,1.392,2.964,2.531,-1.272,0.681,1.808,3.181,6.304,-0.568,26.033,-11.911,-56.811,146.946,-3.101,-25.732,104.158,-31.811,-22.822,-9.737,-20.522,-28.772,-88.449,-48.549],[-6.382,-0.686,-0.55,-0.303,-0.399,-6.959,-0.72,-0.605,-0.944,-0.431,-8.125,-0.277,-0.603,-0.716,-0.621,-10.955,-0.189,-0.652,-1.23,-0.746,-14.935,4.228,0.207,1.995,2.441,-16.207,-12.907,-249.721,1.5,-17.094],[-33.276,0.634,-0.293,-0.175,-0.529,-37.411,-0.869,-0.339,-0.772,-0.616,-40.765,-2.194,-1.032,-0.601,-0.591,-39.05,-7.077,-2.267,-1.321,-1.199,-24.877,-1.814,-7.633,-3.858,-1.429,-50.788,-26.81,-21.13,-4.873,13.148],[-64.635,-2.677,0.502,0.491,-0.403,-61.598,-3.089,0.854,0.069,-0.443,-67.326,-0.974,-0.124,-1.238,-0.87,-54.389,-8.421,-4.028,-2.355,-1.866,-54.911,-19.426,-11.454,-3.628,0.839,-55.088,-39.278,-1.484,-14.555,-1.619],[-72.382,-8.999,0.847,0.617,-0.227,-79.892,-5.942,0.713,0.2,-0.138,-73.164,-4.16,1.401,-0.339,-0.011,-82.777,-29.809,-3.366,-2.165,-2.169,-61.661,-16.473,-7.104,-2.828,-5.754,-100.494,-17.533,-11.291,1.565,-5.146],[-95.688,-19.901,1.229,1.416,0.504,-89.658,-23.855,-0.089,1.11,0.446,-86.546,-32.502,1.132,0.636,-0.599,-96.669,-32.914,-0.493,-1.734,-0.691,-121.955,-32.155,-18.811,0.96,0.596,-105.773,-46.171,-21.518,-5.583,-6.653]],
"kep": [[0.444,0.886,0.585,-1.205,-0.11,1.621,-1.754,-2.526,-1.785,0.191,-0.778,0.295,-1.434,-0.389,-3.936,-15.932,-12.025,-8.204,-8.974,3.633,-33.93,-19.134,-2.595,-26.516,-20.009,42.166,-5.697,-30.785,-50.005,-29.469],[-5.152,0.525,0.57,1.777,1.46,-7.788,0.916,1.657,0.627,0.748,-2.976,2.773,1.233,1.482,2.343,-33.211,-2.464,-2.079,-3.325,-1.612,-32.385,-10.359,-6.283,-3.474,-4.042,-14.418,-17.714,-21.712,-17.37,-11.738],[-42.26,4.296,1.844,1.483,1.587,-45.01,2.889,2.865,1.187,1.341,-49.2,1.057,0.747,1.667,0.836,-56.6,-9.587,-1.48,-0.101,-0.587,-42.333,-23.279,-10.596,-6.372,-3.375,-45.454,-22.105,-32.727,-16.059,-9.562],[-79.741,2.129,3.819,3.417,1.603,-76.71,-0.891,3.63,3.46,2.492,-79.845,3.051,2.872,1.104,1.485,-71.77,-16.372,-2.882,-0.113,0.05,-67.779,-47.732,-19.567,-6.099,-0.392,-60.851,-41.456,-28.517,-24.265,-9.991],[-90.765,-5.247,4.102,3.735,2.672,-92.191,-3.187,3.429,2.154,2.348,-89.204,-2.844,5.796,2.775,2.549,-83.037,-48.211,-0.934,-0.402,0.14,-73.035,-37.564,-21.38,-4.294,-4.953,-73.97,-34.228,-48.202,-15.237,-14.642],[-95.945,-16.948,8.194,3.836,3.528,-96.393,-24.117,5.328,4.52,2.232,-96.087,-38.612,5.905,4.297,3.133,-85.272,-50.441,1.202,1.778,0.657,-82.291,-53.632,-40.705,-2.042,-0.334,-79.045,-58.385,-37.316,-33.315,-15.452]],
"vp": [[-13.238,34.33,-50.296,86.879,-4.45,1.438,19.095,55.247,14.223,-0.031,23.38,0.019,6.7,-2.12,21.447,7.716,14.909,6.026,12.055,-4.627,10.458,4.62,-5.445,13.345,7.786,1.575,-6.293,4.064,9.564,0.574],[646.715,92.949,81.435,-78.872,-52.624,158.574,39.502,17.49,43.236,27.307,82.905,-0.81,5.045,11.042,1.007,20.233,-1.462,6.022,18.614,15.722,13.77,-6.693,5.219,3.822,6.866,6.041,5.003,6.223,12.271,6.081],[3456.21,-180.012,-72.029,-53.332,132.237,771.289,5.826,4.097,42.306,38.012,413.612,42.995,26.558,14.257,15.345,72.662,30.018,13.816,7.42,11.385,23.105,1.156,26.993,19.17,9.765,24.548,33.446,18.404,6.081,6.454],[6822.786,541.275,-163.305,-358.247,32.153,1271.423,104.765,-67.674,-35.572,10.337,670.503,21.433,-1.621,37.197,31.572,114.271,31.273,22.984,17.427,17.134,45.403,40.635,40.984,16.027,-6.225,27.2,40.221,1.576,24.174,8.96],[8034.495,1876.65,-214.067,-347.779,-52.432,1645.026,223.455,-49.96,-42.498,-8.919,763.667,77.151,-43.689,1.342,-12.605,165.847,117.203,19.117,15.337,21.282,60.044,31.734,21.031,10.769,30.308,54.408,15.233,15.042,-6.834,15.473],[8845.592,4042.569,-471.756,-714.777,-381.102,1805.021,980.793,14.474,-94.35,-72.634,891.046,674.214,-34.523,-30.877,12.378,196.248,135.304,1.608,13.611,3.867,123.883,62.59,59.754,-5.667,-4.937,53.78,46.018,35.06,8.998,20.061]]
}