{
"KTrans": [[21.305,7.161,8.127,10.994,13.541,37.362,23.174,15.06,11.348,10.903,47.117,37.977,22.776,19.788,21.218,216.458,121.806,91.682,90.06,68.619,456.818,245.925,192.136,171.997,156.837,1271.376,638.242,504.433,411.956,383.278],[-28.514,36.016,17.973,14.234,18.067,-16.495,41.012,33.149,21.79,23.45,-0.429,59.022,27.228,26.466,18.481,53.2,112.152,72.789,61.938,45.088,223.136,255.717,117.642,117.135,85.765,529.796,464.845,266.001,233.171,165.361],[-85.664,57.502,50.194,25.339,27.152,-86.182,103.473,51.514,33.364,18.605,-68.713,46.938,59.861,31.354,26.952,-52.348,148.229,102.469,69.252,39.963,6.624,261.574,127.432,95.353,99.959,78.937,579.336,293.734,204.859,167.634],[-86.68,15.641,88.519,46.614,25.73,-100.437,-39.599,80.02,35.538,37.907,-86.317,4.398,117.056,53.18,49.655,-60.736,-9.602,175.908,78.817,56.345,-97.307,69.7,269.694,124.952,94.617,38.816,150.477,399.888,270.402,162.089],[-105.697,-86.319,87.071,76.771,39.687,-101.208,-70.947,64.983,76.682,53.785,-100.704,-68.65,99.798,104.267,65.383,-83.825,-61.569,140.9,131.236,89.299,-75.346,-40.108,215.558,191.338,135.992,-32.313,10.333,372.201,296.804,215.248],[-93.845,-102.329,-22.594,177.494,94.419,-99.893,-82.822,-35.232,140.802,72.98,-101.403,-97.235,-8.301,169.978,95.844,-93.209,-74.034,-9.812,129.961,113.602,-70.154,-79.436,-29.869,298.97,164.059,-66.723,-101.398,85.512,368.779,256.295]],
"ve": [[4.92,4.507,7.901,6.519,19.455,7.654,3.596,2.724,6.951,12.832,8.851,2.575,0.662,4.348,-3.565,47.972,14.34,-0.571,-10.03,-17.813,94.709,34.144,8.071,-7.182,-18.568,192.346,79.008,36.337,10.736,-6.378],[2.632,2.4,0.864,0.906,1.255,8.68,2.395,3.172,1.548,1.103,11.413,6.976,2.642,2.568,1.37,51.267,23.993,14.902,10.506,5.531,103.455,51.38,29.008,21.808,12.6,201.961,97.883,59.863,43.487,27.747],[5.803,1.232,1.602,1.1,2.009,5.542,4.678,1.77,2.434,1.16,10.886,3.707,4.951,2.978,2.015,39.201,24.796,17.86,11.751,8.055,108.117,50.809,31.061,22.826,19.833,204.461,101.611,64.529,46.764,36.7],[-36.771,2.71,2.122,1.321,0.004,4.085,1.808,2.162,1.282,1.654,10.167,7.485,5.364,2.609,3.493,53.697,25.164,17.743,12.78,9.337,101.941,50.704,34.174,23.932,19.015,199.1,99.312,66.674,50.854,38.144],[3.153,1.466,1.694,0.847,0.068,3.661,2.098,7.757,1.913,2.04,13.198,5.531,1.439,4.67,4.077,52.51,26.123,17.841,13.063,10.712,108.275,50.128,33.251,25.509,21.795,201.09,98.93,67.859,49.128,39.644],[2.675,1.511,-0.555,4.575,2.281,6.527,4.843,5.34,1.923,1.962,12.414,4.292,4.798,4.649,3.678,49.718,26.772,15.176,13.436,10.677,98.262,51.506,32.084,25.675,20.622,203.093,102.548,24.017,49.846,40.085]],
"kep": [[15.198,4.689,5.234,14.295,20.585,25.909,20.626,16.149,15.381,15.512,33.446,35.469,26.257,24.205,34.218,110.78,92.696,92.429,112.137,107.121,184.024,155.878,168.941,191.731,214.095,366.907,310.462,341.061,360.165,414.114],[-33.665,29.015,14.698,12.078,16.242,-25.423,33.042,26.381,18.523,21.129,-14.377,44.114,20.633,21.727,16.301,0.457,66.526,47.36,44.779,36.117,58.813,130.525,65.841,76.241,62.942,107.538,180.086,125.148,129.578,105.263],[-85.421,48.315,41.607,20.919,22.204,-85.422,84.478,43.021,26.925,14.487,-70.706,34.845,47.827,24.161,21.951,-65.975,89.96,66.568,47.01,26.742,-44.4,132.169,68.638,55.223,63.697,-36.622,229.499,132.991,103.17,92.524],[-85.281,8.912,74.376,39.017,21.435,-98.613,-41.668,66.34,28.639,31.496,-86.108,-5.294,96.347,43.044,40.089,-72.233,-27.815,122.626,53.603,38.876,-95.666,13.072,163.594,75.055,58.11,-51.032,25.264,189.876,139.455,85.134],[-102.937,-82.511,72.145,65.041,33.782,-99.016,-68.211,51.205,64.409,45.174,-98.064,-68.166,78.708,85.328,52.933,-86.638,-66.904,94.417,94.473,64.273,-84.674,-57.832,123.202,121.531,87.467,-75.222,-41.09,172.011,154.916,118.801],[-91.822,-98.133,-24.505,152.335,80.886,-97.335,-80.137,-37.245,119.832,62.135,-98.936,-92.11,-14.036,141.848,81.061,-93.159,-76.171,-22.268,92.489,84.116,-83.927,-82.004,-46.116,198.413,109.536,-88.146,-95.254,10.01,199.274,144.781]],
"vp": [[1253.895,794.61,818.425,884.162,1093.114,288.458,171.788,196.171,147.085,201.679,101.186,138.95,91.565,94.71,96.359,20.224,26.882,24.779,22.785,18.714,10.939,7.9,8.9,9.945,11.424,6.421,5.704,4.417,4.001,3.621],[4695.02,2684.814,2501.36,2420.113,3194.878,1082.879,676.226,709.819,602.258,800.409,489.54,430.963,309.478,348.251,242.084,83.441,70.52,50.646,56.559,60.082,45.167,41.361,21.436,39.616,30.276,25.281,18.416,12.048,17.002,11.678],[7002.417,7179.541,5525.527,4360.738,5602.648,1339.339,1300.806,908.136,1035.54,994.48,600.225,492.864,506.791,479.527,454.242,122.852,131.336,96.911,109.922,78.667,54.645,69.087,32.508,38.982,64.782,32.848,33.71,21.698,23.547,25.001],[7121.562,7941.927,7101.038,6477.602,6134.02,1541.044,1887.5,1376.404,978.581,1309.35,719.185,932.46,857.769,600.692,781.709,130.561,162.681,148.384,102.595,112.049,82.845,97.887,71.199,55.032,76.294,33.336,44.078,40.586,38.071,30.523],[9162.647,11643.718,11164.413,7881.549,6847.144,1644.51,1714.112,2243.623,1660.506,1722.031,800.468,1115.459,1282.935,1006.886,906.054,163.467,233.948,242.431,171.387,184.412,69.94,110.353,92.132,82.965,97.972,38.472,49.736,63.559,44.671,45.107],[8206.173,13522.89,11909.71,16180.283,11403.58,1708.146,2568.571,2994.356,2273.996,1805.723,920.561,1091.935,1218.921,1381.719,1029.531,164.879,231.346,212.14,210.575,161.554,83.634,131.913,139.712,150.474,100.211,47.396,65.714,68.797,63.011,52.174]]
}