{
"KTrans": [[0.449,0.673,-1.508,-0.192,0.691,-1.887,0.196,-0.485,0.08,0.517,-0.889,0.814,-0.52,-0.024,1.175,-0.552,-0.604,0.911,0.044,0.347,0.339,0.303,-0.382,0.319,-0.285,-1.168,0.275,0.488,0.182,0.223],[-5.064,-0.677,0.01,0.122,-0.118,-4.864,0.203,-0.287,-0.029,0.149,-5.33,0.406,-0.191,-0.101,0.017,-6.306,0.187,-0.006,0.18,0.132,-4.219,0.494,0.316,-0.406,0.159,-2.461,0.328,0.613,0.116,0.247],[-13.618,-0.245,-0.203,0.182,0.036,-12.34,0.414,-0.333,0.534,-0.323,-13.267,0.625,-0.425,-0.03,-0.09,-16.744,-1.245,0.256,-0.156,0.114,-14.548,-0.366,-0.144,0.175,-0.284,-16.349,0.291,0.411,-0.5,0.064],[-25.588,-0.983,-0.554,-0.68,-0.102,-27.46,0.345,-1.136,-0.038,-0.128,-27.572,-2.309,0.084,-0.042,0.331,-29.269,-1.389,-0.438,-0.363,0.035,-28.363,-1.875,-0.697,-0.45,0.256,-28.952,0.171,0.368,0.705,0.222],[-43.268,-2.844,-0.527,-0.251,0.378,-41.589,-1.905,-0.488,0.076,0.077,-42.022,-1.864,0.131,-0.109,-0.483,-41.168,-1.073,0.326,0.264,0.379,-42.361,-2.738,0.353,-0.135,-0.159,-41.755,-1.564,-0.582,-0.29,-0.115],[-52.551,-5.532,0.527,0.482,0.046,-54.217,-4.043,-1.101,0.408,0.078,-52.473,-4.311,-0.661,0.029,-0.036,-49.716,-3.423,0.343,0.046,0.098,-54.192,-5.505,-0.449,-0.687,0.255,-54.174,-4.793,-1.247,-0.02,0.513]],
"ve": [[0.542,0.462,1.684,1.782,0.128,-0.23,0.201,1.458,0.531,0.805,0.422,0.098,0.922,1.24,0.077,0.2,0.636,0.085,1.074,0.02,0.364,0.685,1.14,0.609,1.939,1.031,0.324,0.281,0.896,2.163],[-0.973,-0.365,0.038,0.05,0.11,-2.003,0.338,-0.334,-0.046,-0.008,-2.429,0.288,0.162,-0.17,0.091,-2.143,-0.491,-0.03,-0.128,-0.019,-1.052,-0.133,-0.04,0.284,-0.264,-0.771,0.147,0.219,0.232,-0.082],[-4.376,0.41,-0.159,-0.136,0.163,-4.697,-0.395,-0.028,0.022,-0.064,-5.862,-0.186,0.017,-0.159,0.097,-6.343,-0.509,-0.054,0.128,-0.017,-4.483,-0.002,-0.227,0.005,-0.066,-5.947,-0.065,0.033,0.109,-0.002],[-10.664,-0.357,-0.156,-0.07,0.063,-11.209,-0.079,-0.242,-0.199,0.028,-11.416,-0.748,-0.325,-0.018,0.06,-12.082,-0.171,-0.209,0.044,0.256,-10.815,-0.953,-0.197,0.001,-0.081,-11.6,-0.095,0.088,0.002,0.094],[-18.638,-1.257,-0.136,-0.068,0.089,-17.074,-1.089,-0.161,-0.008,-0.022,-18.956,-1.261,0.162,0.04,0.069,-18.183,-0.531,-0.036,0.067,-0.021,-17.304,-0.84,-0.056,0.105,-0.004,-17.029,-1.358,-0.068,0,0.087],[-24.749,-1.592,-0.207,-0.011,0.124,-25.874,-1.701,-0.377,-0.001,-0.159,-24.363,-1.713,-0.236,-0.161,-0.108,-22.404,-1.759,0.023,-0.084,-0.118,-24.749,-2.089,-0.242,-0.21,-0.123,-24.718,-1.761,-0.385,-0.079,0.125]],
"kep": [[0.057,0.644,-2.48,-1.05,1.458,-1.397,0.232,-1.412,0.342,0.844,-1.069,1.032,-1.037,-0.492,2.225,-0.634,-0.933,1.237,-0.238,1.083,0.149,-0.019,-0.887,0.546,-1.138,-2.048,0.34,0.706,-0.095,-0.266],[-4.228,-0.303,-0.008,0.101,-0.199,-2.909,-0.126,0.062,0.053,0.195,-2.888,0.139,-0.337,0.09,-0.039,-4.252,0.721,0.042,0.339,0.179,-3.21,0.658,0.374,-0.657,0.457,-1.728,0.216,0.422,-0.083,0.362],[-9.751,-0.662,-0.029,0.325,-0.118,-8.043,0.804,-0.297,0.521,-0.252,-7.977,0.802,-0.429,0.13,-0.173,-11.244,-0.719,0.325,-0.275,0.138,-10.476,-0.375,0.089,0.183,-0.21,-11.072,0.363,0.383,-0.593,0.072],[-17.05,-0.651,-0.392,-0.611,-0.163,-18.631,0.438,-0.895,0.158,-0.149,-18.599,-1.577,0.418,-0.023,0.275,-19.972,-1.228,-0.214,-0.405,-0.215,-20.467,-0.949,-0.499,-0.456,0.344,-19.987,0.272,0.284,0.702,0.133],[-31.244,-1.616,-0.398,-0.18,0.29,-30.16,-0.853,-0.329,0.084,0.103,-29.543,-0.557,-0.037,-0.151,-0.556,-29.487,-0.56,0.354,0.192,0.393,-30.886,-1.958,0.396,-0.233,-0.148,-30.726,-0.172,-0.504,-0.29,-0.192],[-38.619,-4.032,0.731,0.481,-0.072,-39.748,-2.395,-0.724,0.399,0.239,-38.829,-2.659,-0.441,0.185,0.075,-36.13,-1.712,0.309,0.139,0.216,-40.966,-3.526,-0.208,-0.477,0.378,-40.386,-3.013,-0.876,0.052,0.392]],
"vp": [[7.125,-41.889,114.273,12.064,-16.063,11.844,0.941,-1.605,8.917,-13.394,0.947,-0.899,3.527,-7.02,-8.174,0.733,0.581,-0.17,-0.156,0.051,-0.098,0.262,-0.167,-0.178,-0.334,-0.266,0.065,0.086,-0.011,-0.075],[217.37,31.564,-36.23,-25.416,-38.412,46.338,-8.641,12.309,-1.129,-3.461,21.93,-0.761,-4.516,3.883,-1.821,4.367,1.233,-0.391,0.497,-0.79,1.366,-0.246,0.222,-0.315,0.357,0.554,0.074,-0.355,-0.162,-0.376],[483.687,-28.47,94.433,54.174,-7.583,89.658,25.318,3.199,-12.283,1.446,58.195,3.78,2.079,3.402,-0.068,12.361,0.81,0.239,-0.096,-0.213,4.949,0.178,-0.28,0.076,0.303,2.971,0.095,0.042,-0.072,-0.07],[1111.547,24.79,-14.297,76.607,-9.771,234.199,10.282,22.619,6.343,5.787,119.238,20.466,3.72,-4.121,-6.307,24.48,1.236,1.097,0.313,-1.18,11.733,1.333,0.919,-0.067,-0.098,5.833,-0.194,0.095,-0.371,-0.243],[1898.879,248.352,63.612,23.301,-29.235,347.355,42.534,9.749,2.936,-1.161,193.716,26.486,-2.128,1.231,7.419,38.004,2.014,0.311,-0.006,-0.599,17.813,2.389,0.417,-0.344,-0.042,8.941,1.275,0.344,-0.053,-0.219],[2536.991,369.199,98.929,-22.61,-13.265,525.353,72.141,20.69,-0.643,11.816,250.408,32.959,12.897,4.494,10.156,46.313,6.427,0.036,0.573,0.253,25.516,3.862,0.189,0.54,0.085,12.448,1.82,0.788,0.421,-0.356]]
}