{
"KTrans": [[-40.512,-62.585,-74.438,-99.26,-117.898,-53.713,-58.363,-90.168,-103.469,-77.995,-52.998,-57.194,-83.89,-71.059,-97.172,-2.044,-24.683,-34.325,-41.608,-1.931,91.477,70.597,68.568,20.48,33.578,252.318,138.963,169.031,200.565,233.373],[-67.5,-46.509,-56.923,-63.917,-60.132,-65.881,-50.707,-52.071,-57.55,-67.039,-59.151,-43.332,-30.359,-47.252,-55.181,-35.023,-10.941,-15.17,-46.496,-30.809,2.447,11.819,4.009,-2.898,8.376,1.143,42.55,49.774,40.527,58.123],[-73.199,-56.129,-56.71,-42.699,-54.793,-69.269,-56.8,-44.624,-48.788,-47.085,-68.378,-49.126,-44.181,-42.678,-50.551,-59.157,-39.482,-29.043,-19.015,-19.81,-40.962,-14.311,-4.919,-2.441,-3.927,-16.646,-4.59,33.288,31.897,33.19],[-82.077,-60.289,-50.475,-40.626,-42.81,-83.845,-57.002,-54.474,-43.873,-45.879,-81.37,-61.398,-52.288,-36.905,-41.435,-66.51,-43.235,-39.31,-36.353,-22.445,-57.314,-37.21,-24.544,-20.929,-21.586,-37.04,-15.425,-3.942,-1.578,-1.102],[-87.695,-65.466,-54.712,-47.909,-47.452,-82.922,-68.022,-56.774,-48.711,-43.943,-81.307,-65.17,-55.08,-52.821,-42.993,-78.57,-57.007,-44.888,-39.654,-30.147,-66.408,-49.889,-32.096,-26.104,-20.757,-63.514,-39.675,-8.066,-23.785,-5.937],[-88.492,-71.624,-55.207,-52.284,-46.367,-88.401,-73.801,-62.823,-53.095,-51.913,-87.036,-72.019,-58.408,-50.421,-44.879,-80.355,-66.924,-54.6,-46.405,-37.828,-70.72,-53.528,-40.303,-26.3,-28.561,-63.178,-46.006,-26.185,-11.674,-18.857]],
"ve": [[-46.584,-39.792,-972.559,-51.245,-61.824,2130.575,-65.608,-61.443,-41.177,-81.785,-46.813,-18.119,-44.662,-7.642,-43.177,33.614,1.028,125.297,-139.392,-55.981,132.668,-8.531,-17.604,-61.068,-77.973,275.7,35.123,73.438,20.547,1.276],[-31.809,-124.016,-77.527,-32.78,-43.256,-62.35,-56.3,-50.475,-54.13,-51.439,12.394,-199656.228,-30.73,-173.348,-33.914,-76.727,-19.753,-10.938,-0.97,-47.068,198.636,4.952,-13.684,-20.352,51.646,203.923,77.34,85.576,50.119,-10.811],[-17.972,-253.645,-79.041,-44.114,-46.845,15.262,1.996,-43.408,-55.595,-40.563,-2.112,-27.184,-48.389,-16.022,-50.574,49.322,9.439,15.382,-19.995,-22.131,193.61,34.868,111.019,19.655,0.724,232.119,54.712,99.167,67.886,49.046],[-67.007,-26.63,-3.982,-48.231,-60.077,-7.817,-3.851,-62.199,-8.644,-50.891,-12.041,6.382,-113.553,36.989,-127.098,93.51,31.48,-35.728,-60.966,-9.042,121.573,68.272,39.05,-7.956,-10.92,435.381,94.61,47.875,32.964,-13.407],[22.953,-18.603,-37.199,-68.729,-60.699,171.985,-8.973,-43.053,0.373,126.692,29.409,-32.423,-79.343,-68.813,-57.247,95.195,30.235,-65.439,-45.042,-21.579,83.5,8.386,-16.982,-14.746,13.24,242.471,-26.794,107.808,-3.154,7.421],[-76.702,-6.202,-38.801,-60.899,-64.655,28.579,-149.59,-46.124,-50.639,-67.925,-46.092,-58.648,-36.701,-105.386,-56.147,57.686,34.537,-41.462,-87.047,-42.692,143.262,64.797,18.899,9.917,-22.996,295.693,114.725,88.976,72.642,2.619]],
"kep": [[-125.593,-94.599,-61.941,-67.699,75.03,-111.794,-145.076,-49.543,50.8,-62.43,-96.526,-97.158,-32.846,-68.053,7.276,-120.724,-95.733,-96.436,-44.864,-141.721,-128.775,-184.071,-207.893,-121.882,-191.397,-118.395,-172.881,-218.326,-262.747,-375.004],[-104.59,-104.909,-119.371,-103.204,-69.586,-98.157,-97.327,-114.441,-119.247,-21.74,-99.719,-96.842,-129.222,-94.219,-69.171,-98.513,-90.219,-114.097,-105.235,-77.385,-109.919,-99.361,-106.088,-151.628,-116.577,-99.288,-66.874,-133.597,-177.313,-159],[-100.488,-98.265,-84.685,-112.939,-109.115,-102.957,-91.355,-83.258,-108.096,-100.132,-96.778,-89.824,-83.175,-108.239,-123.638,-102.482,-89.781,-89.297,-104.335,-115.69,-97.112,-86.107,-88.512,-105.633,-139.359,-93.323,-80.785,-99.951,-115.285,-139.714],[-98.63,-91.271,-85.087,-68.205,-81.214,-99.09,-86.908,-71.705,-73.266,-80.57,-99.298,-89.075,-69.439,-80.068,-88.638,-104.416,-83.289,-68.831,-71.841,-89.181,-99.789,-92.49,-88.401,-89.704,-88.746,-99.508,-95.141,-62.356,-66.392,-69.097],[-102.063,-91.171,-77.555,-63.896,-55.117,-100.243,-90.3,-83.109,-67.622,-62.454,-101.55,-87.936,-70.153,-56.014,-65.644,-99.952,-89.38,-80.966,-66.078,-61.774,-96.726,-83.566,-78.831,-61.193,-63.41,-97.924,-92.449,-81.413,-71.005,-64.73],[-101.137,-93.5,-78.509,-61.684,-57.65,-100.145,-89.111,-82.597,-65.126,-54.609,-100.414,-91.63,-71.542,-70.41,-50.239,-102.745,-96.843,-74.631,-62.942,-46.731,-98.661,-89.69,-79.407,-67.465,-60.693,-97.207,-86.458,-84.657,-74.672,-56.636]],
"vp": [[-455.427,1038.802,657.477,87.618,898.563,9.158,1.522,134.502,425.805,11.853,19.493,38.727,47.789,155.183,94.39,-8.215,-37.266,-10.835,-16.641,-12.351,-26.686,-35.246,-17.405,-34.317,-6.634,-21.087,-31.469,-15.92,-13.428,-5.241],[2317.005,1951.564,-593.946,-5.942,591.302,406.79,325.477,8.21,-67.626,151.935,237.985,106.913,50.551,33.024,-14.478,16.313,-0.786,-4.422,-23.749,-19.289,-2.01,-16.862,-36.036,-45.684,-0.419,-25.354,-35.219,-18.59,-44.94,-38.832],[4262.956,3731.247,1795.938,1326.634,107.719,917.396,554.237,457.172,136.493,214.305,412.196,407.706,209.763,168.792,-0.807,75.826,40.122,4.869,18.199,-13.95,10.991,-5.195,-11.752,-24.842,-29.298,-20.696,-26.933,-11.964,-26.477,-27.871],[4304.573,5149.813,6225.906,3513.727,2302.968,1140.967,1363.61,724.335,792.452,255.977,643.36,581.184,352.944,303.799,94.193,83.589,96.614,69.582,54.446,34.721,13.762,35.412,8.037,9.721,-11.728,-16.274,-11.094,-19.626,-25.587,-40.19],[5219.144,7333.117,5727.528,5181.639,2903.668,1516.112,1620.341,1304.502,893.325,807.371,735.382,677.15,554.188,358.414,300.72,86.432,118.728,135.695,50.892,61.991,22.776,40.916,15.283,14.835,23.247,-1.359,5.57,3.535,-11.275,-38.693],[6447.56,9170.118,7982.895,6417.429,6928.416,1127.425,1529.576,1603.17,1364.906,778.536,628.916,896.978,711.707,817.577,427.563,95.199,118.686,139.85,121.284,49.538,33.288,51.419,70.247,51.574,37.948,-14.064,5.097,14.638,7.606,13.039]]
}