{
"KTrans": [[-1.266,-0.083,2.332,-0.62,2.794,13.142,12.81,7.56,3.955,7.674,20.496,17.211,12.539,12.646,10.346,150.931,94.892,79.85,65.5,64.992,412.425,234.445,176.462,155.105,142.047,1016.159,595.28,456.346,385.957,366.503],[-13.501,6.599,-1.143,2.883,1.986,-19.798,7.935,6.41,4.272,3.312,1.591,14.643,9.335,9.975,9.344,91.437,69.683,46.021,36.178,31.837,215.699,134.535,101.257,78.876,64.28,646.543,355.448,237.837,180.757,147.877],[-50.147,5.597,0.785,0.609,0.111,-52.19,11.258,3.907,6.452,2.593,-34.726,14.006,10.897,5.118,7.14,12.867,59.583,42.214,31.195,27.055,128.442,145.756,95.931,68.338,57.188,336.428,331.276,213.676,158.386,125.984],[-65.392,-0.85,4.679,0.78,0.132,-55.411,6.321,4.239,3.654,4.442,-54.891,11.118,12.735,5.875,8.227,-8.542,53.189,42.056,34.744,27.059,29.885,143.846,90.111,61.573,51.344,201.06,303.568,212.797,148.975,117.729],[-73.623,-7.14,8.576,3.447,4.985,-72.411,-4.723,8.481,7.093,4.817,-60.988,4.422,9.485,9.566,6.632,-40.094,52.431,44.419,35.984,24.363,8.028,105.275,87.287,63.003,58.505,135.523,279.805,198.665,145.062,115.53],[-79.684,-15.377,7.103,7.043,4.368,-81.421,-7.022,7.41,8.163,5.591,-75.992,-4.518,7.278,8.546,11.357,-56.8,36.259,48.516,30.027,31.904,-22.019,89.582,89.047,62.594,55.207,94.06,206.149,190.852,141.664,115.382]],
"ve": [[10.13,7.523,4.264,9.947,15.313,9.971,3.846,9.588,12.58,4.757,11.873,5.137,1.872,-0.002,1.621,48.791,15.99,-1.156,-6.897,-16.479,95.101,33.225,9.123,-6.616,-17.512,194.798,79.845,35.346,10.625,-6.277],[6.062,0.989,0.077,1.562,1.275,7.414,3.491,1.801,0.43,0.814,13.214,4.928,2.517,1.741,0.86,52.778,25.73,15.378,9.821,6.096,101.923,48.987,29.725,19.85,12.703,200.974,97.649,60.995,41.499,28.865],[31.571,1.688,1.092,0.854,0.095,4.04,3.109,1.776,0.89,0.714,-243.393,4.587,4.264,2.438,2.484,85.044,24.781,16.748,10.78,8.703,102.441,50.716,31.96,22.946,17.328,221.399,99.834,65.719,47.233,35.605],[-0.368,1.868,0.342,0.294,0.224,7.107,3.405,1.334,1.306,0.819,14.403,6.944,3.909,2.34,2.268,46.402,24.998,15.93,12.405,9.459,111.624,51.024,32.989,23.388,18.912,201.336,100.31,66.68,49.19,38.258],[10.118,1.003,0.73,0.455,0.608,11.509,2.22,2.031,1.309,0.779,16.002,6.185,4.195,3.356,1.64,46.28,25.508,16.226,12.758,9.276,59.099,50.778,33.368,24.021,19.747,215.364,101.84,66.206,48.989,38.915],[2.728,2.161,0.531,-0.059,0.175,23.638,4.153,2.203,1.019,1.601,58.204,6.798,3.269,2.437,2.55,15.069,26.402,16.966,12.062,10.086,98.357,50.018,33.859,24.538,19.591,217.297,99.3,65.82,49.278,39.725]],
"kep": [[-3.316,-3.115,4.863,-2.006,1.639,6.375,12.135,4.646,4.619,14.155,9.721,15.234,14.828,20.273,19.147,71.157,70.544,83.572,83.003,103.344,164.835,152.525,155.866,174.765,195.59,280.334,287.3,311.719,339.97,398.943],[-19.401,5.676,-1.109,1.485,1.007,-25.614,4.242,4.64,4.009,2.668,-9.821,9.25,6.818,8.081,8.649,25.163,35.182,26.501,24.101,24.519,56.516,57.519,55.164,49.302,45.907,148.335,130.892,109.974,98.451,92.391],[-53.124,3.578,-0.422,-0.412,-0.082,-56.919,7.479,2.003,5.301,1.859,-43.325,8.461,6.124,2.457,4.574,-27.618,27.787,21.64,18.292,16.72,12.85,62.832,48.303,36.833,33.852,43.764,115.992,89.244,75.34,66.433],[-67.577,-3.025,4.116,0.22,-0.333,-59.119,2.402,2.539,2.101,3.378,-60.952,3.59,8.218,3.27,5.562,-41.598,22.158,22.254,19.676,15.789,-36.06,61.187,42.714,30.718,27.038,-1.32,101.224,87.677,66.67,57.223],[-75.399,-8.514,7.183,2.547,4.106,-75.125,-7.21,5.693,5.426,3.625,-66.591,-2.578,4.757,5.597,4.58,-61.091,21.042,23.5,20.183,13.428,-47.56,35.988,40.175,31.06,32.094,-22.686,88.538,79.247,64.154,54.84],[-81.301,-17.423,5.945,6.653,3.823,-84.206,-11.267,4.54,6.523,3.596,-79.723,-11.384,3.329,5.521,8.152,-73.409,7.658,26.62,15.416,19.433,-61.874,25.961,40.387,30.164,29.356,-37.039,52.901,75.105,61.365,53.634]],
"vp": [[243.518,44.407,-199.997,-3.089,-110.956,83.299,95.158,34.985,15.892,39.243,21.296,10.557,12.043,-4.106,27.107,7.923,2.4,-1.217,0.733,1.031,2.604,0.708,0.472,1.734,-1.233,-0.096,0.223,-0.612,-0.356,0.633],[2142.846,472.466,274.634,-104.832,489.801,418.574,111.437,38.55,84.393,40.907,195.709,38.759,15.378,51.309,22.393,41.415,6.452,3.298,1.368,4.746,20.425,2.327,2.858,-0.812,1.871,8.196,1.226,-0.485,-0.586,-0.302],[3808.544,1135.413,440.296,366.172,346.155,787.093,284.219,131.224,71.726,49.16,351.895,116.651,59.48,11.929,43.001,80.521,19.013,13.214,3.562,9.622,30.318,13.132,1.848,2.838,1.411,17.22,4.277,2.581,1.322,0.464],[4793.815,1988.576,619.946,405.21,412.893,937.078,481.85,143.666,125.029,62.661,440.701,207.568,98.147,21.109,3.537,88.907,45.647,20.495,1.545,8.019,48.011,32.27,2.319,2.171,1.017,23.324,13.34,5.134,1.805,1.392],[5381.661,4070.8,1513.292,754.922,585.344,1080.875,801.87,298.186,79.433,105.813,488.799,377.267,107.392,58.977,37.263,105.994,75.664,25.024,11.838,2.195,51.322,36.922,14.279,7.287,6.111,27.271,18.565,6.014,3.594,0.264],[6172.326,3682.152,2273.153,468.207,1000.991,1253.66,995.324,427.615,203.743,162.587,642.397,563.25,171.374,79.596,90.391,119.283,108.532,44.65,16.657,14.731,58.466,47.912,20.233,4.225,5.896,28.713,27.984,11.841,4.055,1.27]]
}