{
"KTrans": [[-58.124,-13.353,1.987,-2.363,1.678,-46.934,-2.311,-2.863,11.961,-0.943,-58.15,-4.557,3.293,9.044,1.688,-46.581,-12.719,-0.005,5.455,1.122,-46.467,-4.971,14.104,3.512,1.272,-38.14,-2.085,7.87,0.862,8.212],[-88.457,-58.332,-23.3,-15.882,-7.483,-92.344,-44.461,-13.659,-13.505,-5.332,-90.098,-54.01,-25.205,-18.915,-11.7,-91.028,-63.153,-20.389,-12.854,-2.703,-90.04,-53.272,-23.911,-11.766,-10.307,-87.819,-52.639,-23.353,-11.903,-12.889],[-96.963,-79.689,-55.111,-27.657,-14.26,-95.415,-82.788,-51.049,-22.654,-24.075,-97.52,-79.248,-55.508,-30.565,-16.008,-94.781,-78.959,-50.525,-29.711,-18.936,-96.239,-84.461,-53.761,-33.121,-21.415,-96.709,-75.951,-51.485,-29.766,-15.992],[-99.168,-91.161,-77.844,-51.028,-30.36,-97.962,-85.389,-69.009,-52.454,-34.052,-99.34,-92.859,-81.461,-54.2,-31.687,-98.861,-87.917,-70.253,-52.132,-29.199,-98.023,-85.464,-71.939,-40.774,-28.372,-99.514,-90.939,-74.499,-48.48,-33.512],[-100.215,-92.908,-82.011,-67.594,-48.335,-101.109,-95.378,-78.068,-65.741,-37.343,-100.951,-93.201,-79.983,-70.223,-53.269,-99.214,-94.978,-82.971,-65.28,-52.571,-100.181,-95.47,-85.775,-69.997,-50.099,-99.695,-91.263,-85.844,-64.24,-48.048],[-103.532,-92.855,-84.925,-79.533,-58.594,-101.238,-91.704,-81.311,-81.899,-59.882,-98.868,-98.139,-89.493,-81.355,-61.303,-100.198,-95.475,-80.818,-79.199,-68.098,-100.064,-95.034,-86.199,-85.071,-54.803,-99.239,-94.712,-85.624,-81.573,-65.578]],
"ve": [[22.157,9.267,15.871,15.872,-23.66,2931.083,10.148,-34.988,-73.626,-21.24,124.277,26.081,48.647,33.061,-38.384,62.62,207.584,-70.565,-230.898,-31.46,-114.731,2.262,12.437,18.484,199.686,-4.486,-234.425,-86.468,-67.394,-129.634],[-96.958,-45.538,1.35,-7.728,-1.966,-86.223,-27.477,-14.192,-4.205,-20.953,-77.39,-37.256,-12.243,-7.025,-1.134,-85.905,-40.306,-63.544,-6.609,-0.285,-8.972,-26.985,-5.115,-3.819,-0.394,-65.758,-70.713,-11.707,-9.155,0.284],[-69.363,-65.932,-36.723,-21.716,-13.27,-70.881,-63.335,-33.358,-17.316,-14.193,-67.081,-58.917,-41.005,-24.44,-14.309,-63.57,-71.149,-67.705,-20.059,-11.718,-108.524,5.036,-34.106,-29.71,-13.461,-104.621,-54.273,-35.253,-20.917,-11.58],[745.708,-61.198,-17.131,-36.738,-26.782,-105.123,-73.75,-42.031,-37.15,-24.811,-111.904,-83.199,-69.053,-36.452,-23.983,-81.926,-67.833,-48.004,-39.76,-21.192,-106.623,-63.235,-50.063,-34.594,-23.503,-90.574,-76.605,-123.242,-30.052,-25.32],[-114.502,-75.34,-79.017,-48.673,-33.989,-82.916,-83.209,377.821,-49.006,-29.01,-98.993,-80.693,-66.687,-56.238,-39.434,-73.981,-90.714,-72.938,-56.17,-42.469,-131.332,-88.896,-69.844,-53.826,-38.745,-87.002,-77.925,-70.877,-48.883,-36.5],[-105.733,-78.067,-69.957,-49.872,-47.319,-138.295,-47.836,-69.727,-61.918,-42.494,-90.592,-98.701,-76.591,-73.466,-47.313,-87.127,-66.484,-83.751,-65.479,-64.115,-108.269,-83.649,-71.221,-71.24,-46.926,-92.591,-78.877,-65.783,-61.993,-46.196]],
"kep": [[-81.524,-27.705,-15.269,-24.488,-11.28,-70.972,-14.603,-21.797,-3.425,-24.772,-79.834,-22.259,-8.488,-6.673,-19.248,-68.971,-32.554,-18.564,-3.24,-15.713,-74.831,-18.332,-4.014,-15.421,-22.898,-70.918,-22.364,3.458,-17.872,-12.3],[-94.054,-53.24,-14.295,-7.845,-5.065,-96.887,-50.403,-1.558,-7.877,-0.226,-93.986,-54.214,-13.625,-12.305,-8.443,-94.049,-63.299,-14.616,-9.898,0.248,-94.382,-53.029,-20.067,-5.755,-7.717,-92.225,-50.688,-16.497,-5.973,-10.87],[-97.796,-79.9,-40.609,-14.648,-3.403,-95.287,-87.903,-42.312,-9.919,-12.115,-96.94,-84.87,-43.896,-13.706,-1.932,-97.65,-83.908,-43.489,-13.242,-7.659,-94.844,-83.993,-44.577,-19.38,-10.223,-99.85,-77.779,-38.617,-14.48,-5.974],[-97.943,-92.144,-75.669,-28.869,-8.778,-101.098,-85.586,-64.37,-31.595,-15.13,-98.928,-96.449,-79.002,-35.778,-14.164,-97.758,-90.344,-69.07,-30.917,-11.564,-96.573,-86.8,-66.638,-22.689,-12.127,-97.05,-89.569,-72.716,-34.489,-13.561],[-98.759,-92.312,-78.305,-57.923,-28.065,-97.184,-93.795,-78.557,-57.94,-17.862,-97.539,-92.121,-80.195,-66.33,-30.688,-98.487,-92.519,-86.711,-58.469,-28.265,-98.522,-94.947,-86.894,-64.534,-28.217,-98.458,-90.374,-85.163,-61.29,-22.75],[-95.893,-87.755,-89.598,-71.335,-50.7,-98.908,-90.493,-80.291,-76.948,-43.893,-97.795,-94.743,-89.116,-79.007,-43.277,-97.766,-93.459,-85.64,-75.814,-54.376,-98.351,-92.487,-86.072,-86.462,-45.201,-98.663,-93.722,-85.384,-78.949,-48.495]],
"vp": [[4325.006,2554.036,1511.655,2077.67,1555.686,692.032,489.111,410.372,290.597,421.005,399.821,209.614,198.515,152.829,206.727,68.523,54.008,40.563,22.635,23.086,34.482,20.117,12.814,6.789,20.729,11.217,11.399,8.418,7.934,7.405],[7036.887,8053.622,6367.598,5409.912,6767.018,1693.434,1446.527,1329.606,1113.982,1201.023,764.412,785.882,678.78,639.222,448.483,149.929,176.414,104.182,129.937,116.542,68.455,78.449,56.036,46.49,66.117,32.36,37.897,25.814,30.777,24.611],[8504.583,11764.615,13325.729,9634.245,7895.726,1627,2777.589,2535.339,1969.446,2018.548,904.572,1347.568,1312.011,975.246,932.55,175.586,260.537,235.069,236.501,197.109,85.591,125.269,123.823,100.052,101.893,47.726,57.251,58.013,59.452,42.911],[9899.662,15830.476,19682.099,15336.7,16509.504,1842.222,2757.52,3525.004,3502.697,2958.47,1032.57,1638.967,2244.291,1513.175,1244.061,185.559,296.826,313.488,364.085,283.543,85.011,139.39,159.629,163.338,115.853,45.969,75.848,95.273,69.886,69.358],[10826.496,16096.777,19916.968,22223.258,20200.878,2122.579,3607.891,3764.796,4587.242,3047.358,1063.41,1641.989,1803.884,2535.079,2396.389,204.009,341.578,424.427,407.006,420.893,100.267,183.624,213.484,245.833,203.097,50.238,80.406,109.671,108.504,105.19],[11380.781,15745.167,21415.434,24739.572,25460.563,2376.116,3481.091,3700.188,5009.898,4509.428,925.72,2008.507,2357.824,2888.862,2719.299,196.154,328.757,442.735,509.478,523.662,96.585,171.554,224.834,307.274,264.861,46.698,83.429,102.205,132.129,122.157]]
}