{
"KTrans": [[-1.31,6.791,6.405,3.627,5.096,6.088,5.304,3.665,6.862,6.159,6.56,8.491,5.893,8.383,6.025,26.484,13.972,10.397,11.88,11.597,51.945,24.646,28.653,21.971,16.094,126.428,68.176,66.341,42.968,36.499],[-21.093,-4.355,1.515,3.305,2.53,-28.005,-3.963,-1.121,1.478,3.238,-27.613,-2.355,0.45,3.202,2.862,-24.686,-2.398,3.687,5.961,4.138,-18.013,7.507,5.376,6.04,11.288,1.905,18.208,33.242,24.72,26.328],[-64.137,-12.837,-6.384,-1.254,1.621,-56.195,-16.348,-6.265,-1.463,0.566,-54.618,-16.874,-5.468,-2.13,-0.222,-52.023,-17.458,-3.487,1.796,2.76,-42.086,-14.968,-2.944,8.287,2.367,-20.652,-8.742,10.472,4.721,9.509],[-78.959,-32.312,-16.207,-8.255,-3.986,-80.783,-32.799,-14.915,-6.476,-2.84,-80.202,-27.257,-15.874,-5.814,-3.479,-72.63,-31.378,-14.594,-11.439,-1.407,-68.294,-31.113,-16.25,-4.874,-0.048,-69.19,-19.018,-8.637,-3.747,-4.716],[-87.812,-42.04,-22.478,-12.067,-7.962,-88.925,-46.774,-21.735,-14.965,-8.654,-88.243,-40.426,-20.723,-14.298,-6.715,-81.041,-39.324,-19.814,-10.252,-8.792,-80.759,-40.255,-17.258,-13.279,-5.409,-76.191,-39.916,-26.495,-9.451,-1.758],[-90.884,-55.929,-34.444,-18.384,-12.32,-89.811,-56.823,-30.101,-20.905,-12.096,-92.359,-52.965,-32.17,-21.262,-13.595,-86.65,-53.124,-31.604,-20.286,-12.49,-85.864,-53.89,-29.902,-22.267,-14.575,-83.218,-42.042,-32.566,-18.414,-9.898]],
"ve": [[1.225,3.84,6.491,14.462,35.995,3.905,7.203,9.627,11.856,21.644,4.278,6.185,11.564,17.248,22.383,10.805,92.08,63.728,46.607,66.443,15.911,67.628,546.063,-11.747,-5.181,48.631,0.668,0.771,28.656,-210.228],[-8.453,-0.842,0.787,1.235,1.993,-12.203,-0.331,-0.182,1.444,2.555,-10.256,0.629,0.707,2.364,2.342,-8.073,1.585,2.852,2.707,2.807,-5.021,6.448,4.83,3.973,5.603,26.613,23.665,21.163,14.789,12.422],[-35.229,-4.334,-2.246,-0.258,0.592,-28.646,-6.207,-1.633,-0.744,0.11,-28.292,-6.23,-1.886,-0.521,0.169,-15.213,-4.742,0.606,1.185,2.131,-4.164,-2.884,1.05,5.736,2.094,36.141,0.15,10.82,5.249,6.05],[-46.012,-11.851,-5.826,-3.112,-1.512,-49.197,-14.253,-5.122,-2.267,-1.445,-48.737,-11.479,-5.78,-2.156,-1.322,-35.081,-10.532,-4.306,-3.662,0.113,-22.49,-14.504,-3.656,-0.37,1.489,-12.494,6.19,2.875,1.957,-0.937],[-57.419,-18.219,-7.927,-4.383,-3.05,-58.739,-19.154,-8.74,-5.232,-2.585,-59.407,-18.162,-8,-4.745,-2.617,-43.003,-12.936,-5.733,-2.315,-2.712,-35.629,-14.573,-1.862,-3.37,-0.085,-13.943,-6.554,-11.313,1.068,2.616],[-58.427,-28.793,-13.853,-6.358,-4.405,-57.513,-28.883,-12.349,-7.694,-4.753,-71.618,-26.056,-13.15,-7.446,-5.1,-75.716,-22.286,-10.712,-5.602,-3.445,-44.785,-18.245,-8.198,-6.645,-3.752,-26.809,-1.852,-7.448,-2.385,0.459]],
"kep": [[-12.703,-6.698,-8.028,-15.805,-15.288,-8.963,-10.742,-13.192,-9.266,-12.85,-9.123,-7.01,-10.676,-7.053,-12.828,-5.509,-7.085,-9.519,-7.444,-6.699,-8.703,-6.702,1.589,-4.196,-10.642,-27.508,-13.033,9.71,-5.7,-9.462],[-26.975,-14.13,-10.066,-8.728,-10.067,-29.476,-14.306,-11.582,-10.559,-9.96,-31.804,-13.902,-10.922,-9.873,-10.134,-34.643,-15.658,-10.741,-8.076,-9.569,-45.731,-13.661,-12.444,-10.197,-6.355,-37.541,-23.065,-6.241,-5.875,-0.944],[-58.115,-19.561,-14.69,-11.623,-9.765,-51.672,-21.444,-15.111,-11.418,-10.273,-50.103,-21.837,-14.214,-12.191,-11.037,-58.519,-24.031,-14.78,-10.518,-10.356,-62.024,-26.702,-16.301,-9.522,-11.47,-61.289,-43.138,-17.129,-16.157,-11.193],[-72.132,-32.752,-20.813,-15.541,-13.026,-74.608,-31.252,-20.436,-14.727,-12.017,-73.524,-28.697,-20.753,-14.148,-12.722,-74.265,-34.317,-20.889,-18.52,-12.25,-74.92,-36.251,-24.589,-15.583,-12.817,-70.911,-48.534,-26.792,-20.413,-16.929],[-83.734,-38.968,-25.678,-18.115,-15.306,-83.504,-43.2,-24.339,-20.032,-16.341,-83.892,-37.654,-23.892,-19.862,-14.515,-82.87,-40.673,-24.732,-18.321,-16.623,-83.949,-45.1,-26.249,-20.693,-16.184,-77.886,-60.55,-35.468,-24.524,-16.949],[-86.992,-47.317,-32.646,-22.571,-18.202,-86.762,-48.599,-30.179,-23.933,-17.742,-89.439,-46.166,-31.4,-24.305,-18.794,-86.896,-50.365,-32.725,-25.243,-19.396,-85.383,-57.281,-34.134,-27.269,-21.582,-82.726,-63.435,-45.494,-28.622,-21.985]],
"vp": [[32.75,-144.44,-268.186,-201.569,-207.962,-19.931,-56.873,-17.67,-76.043,-26.9,-10.835,-34.46,-5.618,-27.846,-15.296,-14.904,-7.714,-3.21,-4.382,-4.913,-17.148,-4.723,-11.582,-5.505,1.477,-22.19,-9.168,-14.625,-3.276,0.006],[949.942,94.056,-203.729,-207.666,-203.562,280.201,26.429,48.542,-11.247,-74.858,129.491,2.448,1.814,-41,-19.363,32.842,3.972,-5.791,-6.721,3.515,16.139,-4.506,-1.461,1.622,-14.502,-4.174,-6.375,-22.294,-13.926,-17.171],[3876.097,765.482,562.291,77.31,-222.39,662.841,263.875,97.527,59.292,16.62,336.592,131.23,66.05,18.733,13.515,57.032,30.338,2.124,-3.104,-11.262,12.809,17.189,5.732,-18.718,2.832,-12.351,7.555,-7.011,2.605,-3.548],[5216.802,2570.383,1712.181,1051.113,522.952,1163.58,613.704,311.335,158.022,92.442,567.798,251.147,181.029,86.825,63.622,87.509,54.435,35.819,42.871,4.062,33.29,35.329,21.842,10.06,0.279,18.707,5.502,5.274,7.514,17.43],[6722.825,3889.543,2334.749,1565.452,1358.111,1355.761,857.22,512.526,403.778,245.377,683.147,388.634,237.997,185.631,110.463,105.523,62.233,42.558,21.151,35.492,50.794,43.279,11.357,23.225,7.867,17.142,16.063,33.757,8.652,1.437],[7176.211,6243.808,4356.582,2429.138,2032.352,1305.584,1265.4,778.237,598.406,437.963,760.023,579.384,418.331,299.146,248.242,125.066,105.238,74.516,50.472,40.491,59.348,50.939,35.479,37.149,30.055,24.844,10.295,21.733,14.474,8.295]]
}