{
"KTrans": [[-14.159,0.276,3.47,2.808,3.798,5.954,18.965,3.683,4.985,7.935,20.19,15.525,15.141,13.577,10.738,129.265,91.187,79.717,66.478,59.229,286.355,219.812,170.554,151.18,139.154,620.518,545.918,436.533,383.351,352.942],[-36.891,1.544,2.959,2.101,3.226,-34.418,10.471,3.615,4.377,2.024,-27.987,12.862,13.557,5.49,5.805,27.548,68.461,44.149,35.128,28.156,72.281,135.216,104.31,79.76,67.21,176.312,306.219,243.74,186.671,147.291],[-62.804,-7.667,-1.675,-1.131,-0.869,-62.347,2.023,3.007,2.906,2.919,-62.353,6.078,8.349,3.538,6.423,-37.802,51.89,37.29,31.157,27.517,15.873,119.931,90.784,69.761,55.522,50.389,253.164,193.534,157.154,120.328],[-71.235,-14.645,1.203,-1.594,2.587,-75.567,-10.113,1.363,2.481,3.153,-75.428,-3.355,6.042,4.966,5.974,-53.006,35.138,30.999,26.355,21.498,-64.09,78.397,85.502,66.763,56.071,-33.716,157.771,193.804,134.032,112.823],[-84.768,-25.806,-5.544,2.286,1.36,-85.564,-17.532,0.635,1.967,3.985,-80.332,-17.542,5.517,7.161,3.554,-69.139,14.359,31.819,28.732,17.938,-63.801,49.528,71.858,59.812,50.553,-52.2,102.044,151.425,141.925,106.716],[-86.147,-32.661,-8.171,-0.573,-0.69,-88.525,-28.154,-2.851,3.341,3.8,-89.118,-25.564,-0.288,3.381,7.481,-73.816,-2.439,25.96,23.386,23.284,-67.849,19.191,59.442,53.059,47.032,-70.276,40.981,125.541,127.248,108.155]],
"ve": [[12.696,14.162,19.19,16.433,62.743,18.507,7.41,13.166,-62.356,16.927,24.968,16.033,-8.633,-4.16,11.147,56.179,16.302,-0.092,-4.216,-12.828,98.807,35.878,10.998,-5.541,-16.287,188.648,83.344,39.819,11.753,-3.55],[5.359,3.381,1.18,2.423,0.924,13.562,4.254,3.673,2.133,2.142,18.731,8.336,2.76,3.197,1.732,47.292,27.423,16.205,10.375,4.874,101.813,49.593,29.089,20.47,13.457,202.673,98.93,61.982,42.139,29.32],[13.689,2.011,1.485,1.099,0.314,5.102,5.382,2.056,1.4,1.994,11.345,6.917,4.689,3.061,2.127,57.394,26.182,16.772,12,9.206,109.351,52.98,32.613,23.919,17.526,198.99,100.95,65.777,47.573,36.706],[6.492,3.115,0.277,0.507,0.243,14.492,5.711,2.694,1.664,2.023,9.553,6.246,3.474,2.877,1.866,55.377,26.822,15.733,12.311,8.519,97.133,52.691,33.221,24.568,18.574,220.516,101.538,68.14,48.59,38.385],[22.931,1.965,0.89,1.229,0.477,-60.878,6.507,1.701,2.317,1.046,14.776,5.556,5.691,3.333,2.038,-106.355,29.447,17.611,12.936,9.125,150.898,52.823,34.417,24.749,19.677,214.22,103.051,67.204,49.644,39.353],[16.637,3.911,0.673,0.594,0.561,13.703,6.034,2.968,2.226,1.32,473.94,8.611,4.053,2.489,2.303,62.687,27.158,18.054,12.806,10.365,80.442,52.018,33.597,25.437,19.835,198.232,106.907,60.393,50.702,39.391]],
"kep": [[-22.019,-3.808,4.642,2.161,3.941,-3.952,18.24,1.664,8.436,15.164,5.722,11.932,14.962,16.897,18.874,48.493,70.153,84.077,84.335,92.112,96.895,138.663,148.118,172.237,191.785,142.301,254.145,287.615,336.292,375.066],[-41.937,-1.018,2.347,0.266,3.077,-42.196,7.121,0.413,2.924,0.589,-37.826,4.72,11.131,2.903,4.81,-18.13,33.02,24.357,22.849,22.741,-18.816,57.639,58.63,49.759,47.74,-9.693,102.641,112.205,101.741,91.358],[-68.899,-9.181,-2.938,-1.953,-0.877,-66.345,-3.145,1.253,1.786,1.171,-68.827,-0.715,3.85,0.81,4.434,-61.934,20.483,17.847,17.245,16.937,-45.272,43.666,44.031,37.161,32.434,-49.84,75.044,77.191,74.122,61.239],[-74.498,-16.829,1.119,-1.998,2.485,-79.466,-14.301,-1.04,0.936,1.325,-80.033,-8.682,2.665,2.156,4.224,-71.181,6.809,13.29,12.592,12.024,-84.117,16.9,38.857,33.768,31.618,-78.426,25.815,74.185,57.105,53.473],[-87.277,-27.225,-6.463,0.969,0.966,-88.431,-22.348,-0.762,-0.366,2.921,-84.294,-21.988,0.011,3.763,1.598,-81.457,-10.765,12.212,13.963,8.041,-83.492,-0.867,28.058,28.24,25.741,-84.015,0.07,49.26,61.476,48.238],[-88.466,-35.106,-8.625,-1.225,-1.188,-90.865,-31.666,-5.528,1.171,2.536,-91.457,-30.547,-3.962,0.928,5.135,-84.339,-23.932,6.731,9.47,11.621,-85.561,-21.258,19.415,21.823,22.625,-89.952,-31.949,33.084,50.418,49.131]],
"vp": [[253.341,30.896,107.059,96.841,191.702,37.862,48.974,-11.862,-32.542,-17.28,63.335,8.364,-21.614,24.11,-10.294,-7.815,-21.703,-21.837,-16.542,-12.518,-18.395,-17.256,-17.303,-23.707,-17.575,-18.126,-19.582,-16.981,-22.301,-15.339],[2744.696,402.015,220.324,276.672,272.224,469.164,107.13,57.034,17.5,13.389,279.603,66.164,4.209,15.83,-2.864,39.976,-4.829,-12.546,-12.984,-25.023,16.292,-12.079,-16.937,-19.847,-15.408,-9.322,-14.822,-13.674,-17.489,-19.876],[4554.905,2482.85,555.333,69.883,158.15,865.371,483.824,50.574,38.553,57.545,416.565,234.318,36.164,-3.173,26.502,74.393,20.31,-11.946,-6.71,-17.84,26.423,1.151,-15.695,-17.085,-18.846,-2.638,-6.949,-23.454,-9.976,-25.48],[5425.119,4167.338,1842.198,453.426,862.753,1104.902,841.23,320.503,56.954,58.072,552.921,357.781,154.251,126.429,30.325,87.782,54.959,-5.009,-10.775,-19.049,38.831,16.085,-8.292,-15.233,-3.691,2.483,4.109,-6.66,-23.269,-17.646],[6108.021,6438.115,2416.23,1485.917,1034.226,1285.927,1099.286,477.997,216.961,141.762,630.583,562.337,252.082,126.835,55.376,99.418,106.25,24.134,8.224,-18.591,47.902,32.97,8.021,-2.167,-8.69,8.213,3.459,-0.8,-5.372,-15.775],[6623.615,7435.442,3558.415,1887.438,1385.25,1314.749,1391.961,814.123,403.79,241.269,617.256,680.691,407.318,208.232,131.102,113.195,125.7,52.055,8.983,-3.967,49.129,42.811,9.576,-5.369,-10.425,5.877,36.774,11.508,-5.786,-11.287]]
}