{
"KTrans": [[20.093,15.651,17.958,19.7,21.572,11.649,14.712,15.54,20.577,18.919,33.351,30.528,24.125,21.082,25.549,18.436,32.711,40.925,36.144,38.695,76.503,65.662,58.531,60.971,65.179,119.926,119.273,112.682,113.013,97.244],[-43.318,-6.371,2.678,7.69,12.025,-44.718,-11.916,-0.633,5.833,8.053,-35.346,-3.725,2.676,10.543,11.471,-44.461,0.299,10.662,14.206,17.352,-32.44,13.855,16.969,22.441,24.268,-4.644,27.067,43.062,43.569,44.119],[-71.091,-35.195,-19.277,-4.327,3.824,-74.392,-30.976,-14.207,-5.406,3.089,-69.709,-28.347,-17.305,-3.595,1.023,-68.982,-29.643,-12.16,3.509,5.523,-62.346,-24.644,-6.316,5.737,10.336,-46.509,-11.668,6.639,12.811,22.133],[-84.409,-50.302,-33.637,-19.098,-8.365,-82.257,-51.302,-33.976,-17.922,-10.941,-82.083,-51.674,-30.422,-17.856,-9.464,-78.071,-50.941,-30.381,-13.84,-7.93,-73.216,-48.022,-23.259,-15.793,-2.27,-66.085,-35.359,-13.862,-7.755,3.375],[-89.759,-65.528,-47.177,-34.197,-20.353,-88.175,-64.236,-44.821,-27.684,-22.7,-86.872,-60.754,-46.961,-33.065,-21.616,-85.24,-61.362,-44.968,-29.697,-16.049,-79.397,-62.233,-42.005,-25.09,-16.133,-68.808,-57.773,-32.606,-23.223,-11.314],[-91.328,-69.668,-53.124,-43.095,-29.83,-91.79,-72.365,-57.473,-42.964,-30.024,-92.788,-72.493,-53.757,-41.961,-30.396,-87.754,-73.308,-54.335,-45.14,-28.227,-82.61,-69.696,-53.975,-39.591,-27.666,-77.072,-63.641,-47.838,-34.458,-22.51]],
"ve": [[8.172,639.655,-53.243,-351.552,102.974,5.526,236.794,-34.097,26.95,-92.483,3035.816,84.661,-324.805,-459.838,-70.474,78.598,-178.18,-68.915,0.526,-144.972,26.036,5.895,-15.178,197.291,25.553,81.947,-111.081,11.993,547.504,-41.647],[4.318,5.888,3.024,6.581,10.447,-6.989,2.251,6.154,8.76,13.735,-14.235,3.471,3.419,7.594,11.106,8.543,9.086,8.937,10.269,16.322,30.254,20.587,14.619,15.054,19.151,63.223,36.73,37.487,29.13,34.777],[-22.783,-11.866,-7.395,0.046,1.809,-10.451,-9.463,-5.063,-3.586,1.403,-38.912,-9.845,-3.715,0.054,1.312,-16.307,-3.374,3.339,5.306,5.245,29.873,7.616,8.799,7.516,8.763,65.332,33.512,21.237,18.973,18.89],[-49.193,-18.373,-11.899,-6.886,-4.119,-10.715,-18.155,-10.729,-6.407,-4.317,-103.464,-32.864,-9.761,-5.095,-3.973,-40.946,-11.255,-6.268,-1.99,1.262,55.69,4.143,3.421,2.06,4.087,19.207,38.452,18.558,11.051,12.472],[-45.473,-23.174,-17.172,-12.387,-7.443,-39.344,-22.932,-15.982,-9.54,-7.774,-51.814,-19.16,-15.26,-10.479,-7.851,-29.633,-18.158,-10.154,-6.235,-2.997,-26.529,-3.497,-4.251,-0.468,0.415,43.303,18.169,12.76,7.809,7.88],[-51.197,-24.983,-19.94,-15.886,-11.433,-49.291,-25.53,-18.501,-15.445,-11.037,-43.304,-20.227,-19.541,-15.466,-10.96,-63.754,-18.392,-14.287,-13.249,-7.295,-2.708,-137.804,-9.925,-5.975,-3.611,48.752,9.771,4.407,3.752,4.458]],
"kep": [[-35.375,-42.023,-45.705,-49.276,-59.103,-37.954,-44.001,-49.347,-49.697,-61.508,-26.448,-29.426,-42.255,-51.572,-47.961,-48.804,-36.73,-30.304,-38.504,-38.514,-31.601,-25.914,-25.289,-20.313,-12.069,-45.066,-20.5,-11.232,-3.664,-6.259],[-63.878,-41.616,-37.466,-36.355,-36.293,-66.162,-45.124,-40.958,-38.061,-40.054,-61.676,-41.727,-37.901,-35.484,-36.279,-68.625,-43.435,-36.554,-35.028,-35.996,-68.411,-41.928,-36.704,-33.903,-34.277,-73.92,-47.383,-34.359,-30.725,-30.069],[-80.702,-54.796,-46.053,-40.605,-36.664,-80.678,-53.196,-44.15,-39.112,-36.888,-79.94,-51.164,-46.918,-40.311,-38.085,-81.93,-55.399,-47.396,-38.974,-37.903,-84.374,-57.085,-47.564,-39.267,-37.297,-86.11,-61.787,-48.785,-42.431,-36.824],[-87.419,-62.658,-53.819,-46.303,-40.872,-88.031,-62.673,-54.655,-45.771,-42.356,-85.62,-64.11,-52.581,-46.432,-41.631,-86.395,-66.465,-54.259,-45.821,-43.701,-87.637,-69.916,-54.665,-49.259,-42.151,-90.284,-70.719,-56.181,-49.767,-43.946],[-92.071,-72.471,-60.993,-53.689,-46.761,-91.481,-72.438,-59.826,-50.701,-48.138,-90.604,-70.685,-61.662,-53.927,-47.35,-90.435,-72.489,-62.596,-54.021,-46.578,-90.811,-75.721,-63.335,-53.839,-48.586,-90.477,-79.723,-64.426,-57.159,-49.68],[-94.007,-74.919,-64.415,-58.358,-51.105,-93.961,-77.561,-67.842,-58.565,-51.515,-94.445,-76.901,-65.157,-57.732,-51.764,-92.672,-80.188,-67.624,-61.487,-52.303,-92.529,-79.537,-68.886,-60.684,-53.675,-93.478,-81.8,-70.312,-61.962,-54.904]],
"vp": [[-504.482,-256.268,-319.868,-606.059,-1333.869,6.859,-136.502,-20.609,-195.923,-131.306,-72.981,-100.063,-99.058,-16.182,-74.375,11.927,-5.877,-16.001,-17.117,-15.544,-18.363,-18.282,-3.431,-1.121,-14.893,-6.81,-4.386,-10.279,-12.674,-5.696],[2199.699,413.986,-289.128,45.157,-710.664,430.134,175.367,-26.312,-107.804,-94.626,185.525,-6.076,-13.516,-71.535,-95.113,64.463,8.193,0.255,2.306,-23.977,29.406,-7.157,-4.365,-10.522,-14.07,4.883,-1.724,-16.378,-9.616,-13.445],[4409.769,3383.51,2540.279,212.387,-1118.651,970.917,453.629,323.84,223.613,-178.262,406.707,260.063,175.283,6.754,22.687,118.542,57.393,13.253,-22.876,-12.321,43.715,23.061,9.284,-1.306,3.838,11.942,5.327,-1.659,4.475,-12.87],[6465.174,4719.615,4313.65,2935.437,1577.881,1195.292,1193.09,681.955,416.011,422.821,632.21,548.746,369.486,219.892,157.114,126.08,114.834,86.296,34.926,29.178,60.186,46.385,19.327,35.526,12.674,23.239,18.011,1.008,18.253,5.229],[7579.357,7284.999,7457.678,5558.55,3443.052,1233.85,1453.04,1280.421,746.868,862.61,645.738,609.792,641.622,531.611,389.838,132.495,149.859,125.544,105.63,53.433,48.127,76.525,61.663,32.749,34.136,6.234,33.009,19.841,25.044,11.69],[7657.572,7850.753,7246.212,7732.362,5534.635,1541.356,1703.864,1714.558,1513.135,1158.725,847.764,943.93,765.79,763.683,579.559,143.876,170.624,161.994,188.649,116.645,59.057,93.399,85.948,73.053,58.794,18.206,33.176,38.805,29.457,25.087]]
}