{
"KTrans": [[11.709,11.029,9.842,11.59,12.847,9.773,6.323,9.813,10.33,13.782,1.69,11.587,10.594,14.46,13.059,18.447,14.625,16.784,20.51,20.341,38.252,25.947,26.201,29.06,27.048,62.013,49.591,48.26,43.572,48.239],[-38.755,-7.633,-0.534,6.471,4.97,-40.253,-5.547,2.317,4.323,4.636,-34.559,0.419,1.757,5.019,6.337,-27.38,0.079,4.456,7.41,7.971,-25.187,3.147,10.143,14.471,11.734,-11.704,8.426,21.423,19.271,20.973],[-66.408,-19.771,-8.826,-1.628,-0.059,-70.71,-27.504,-10.383,-5.613,-0.662,-69.282,-19.352,-11.417,-4.758,1.864,-62.786,-27.441,-9.269,0.174,2.325,-61.187,-22.123,-0.006,1.532,7.047,-53.09,-14.25,0.146,7.708,9.867],[-87.274,-37.831,-23.781,-10.812,-4.596,-82.164,-40.892,-19.269,-13.757,-5.744,-83.571,-39.211,-23.378,-11.157,-7.482,-80.199,-36.826,-20.611,-10.781,-5.923,-76.507,-42.046,-22.533,-11.952,-3.077,-69.668,-36.305,-15.492,-4.618,2.216],[-89.2,-56.157,-34.837,-19.087,-11.545,-89.202,-51.755,-32.873,-20.125,-15.032,-88.479,-55.108,-36.941,-20.891,-12.669,-84.473,-55.719,-30.992,-21.996,-11.581,-82.69,-55.546,-35.566,-17.953,-8.828,-80.586,-52.927,-33.291,-15.653,-8.32],[-91.922,-61.27,-47.229,-31.522,-19.764,-93.822,-65.538,-45.454,-29.143,-20.935,-94.128,-62.795,-47.012,-29.572,-21.622,-91.429,-66.88,-43.408,-29.731,-19,-86.716,-70.294,-43.245,-28.553,-18.421,-83.833,-63.925,-40.731,-26.51,-15.142]],
"ve": [[14.292,19.063,17.772,157.451,58.163,7.513,56.244,28.827,366.959,-76.056,14.164,13.227,21.522,14.789,-19.771,27.764,18.305,22.816,20.284,69.348,44.489,18.973,18.051,15.699,63.956,50.229,27.129,18.928,104.965,16.653],[-12.647,-1.557,1.086,3.735,3.915,-14.297,-0.784,1.125,3.342,4.454,-11.535,1.2,1.371,2.743,4.949,-5.152,4.619,4.224,5.248,6.491,10.489,7.553,6.947,7.943,7.572,33.419,19.101,15.785,11.947,10.448],[-11.45,-5.854,-2.147,-1.667,-0.193,-29.345,-10.167,-2.573,-2.05,0.569,-27.726,-5.291,-3.808,-1.433,1.388,-17.848,-5.366,-0.903,1.234,2.36,-9.889,0.511,4.875,4.204,4.647,14.481,13.207,8.954,9.824,8.319],[-52.807,-13.726,-9.158,-3.497,-2.603,-44.707,-16.699,-6.765,-4.665,-1.405,-15.382,-14.592,-8.987,-3.627,-2.12,-36.939,-10.734,-4.635,-1.755,-0.374,-10.194,-6.614,-4.001,-0.295,2.159,2.497,6.137,5.65,6.851,6.379],[-34.218,-27.26,-13.027,-5.843,-4.156,-47.706,-21.103,-11.617,-7.641,-5.511,-67.323,-25.034,-13.28,-7.018,-4.167,-38.688,-19.863,-7.943,-5.527,-2.3,-22.216,-15.572,-7.545,-1.993,0.006,20.469,-6.161,-0.765,1.983,3.661],[-55.297,-27.577,-18.623,-12.06,-7.04,-56.59,-32.367,-18.227,-10.915,-8.065,-65.546,-29.133,-18.128,-10.401,-7.68,-52.454,-25.518,-14.584,-8.803,-5.225,-24.651,-23.906,-11.885,-6.328,-3.044,-5.473,-10.592,-5.259,-0.845,1.21]],
"kep": [[-18.108,-18.391,-20.444,-22.369,-24.487,-17.749,-21.002,-21.383,-24.939,-20.14,-26.591,-17.572,-21.455,-19.19,-24.674,-19.268,-17.42,-18.258,-14.077,-12.366,-12.25,-13.354,-8.811,-4.452,-8.67,-14.179,-4.051,3.663,4.484,16.82],[-45.65,-25.83,-21.708,-18.175,-19.386,-47.22,-24.75,-19.5,-19.519,-19.806,-44.371,-21.681,-20.128,-18.589,-19.104,-44.758,-24.259,-20.297,-18.631,-18.987,-47.773,-24.063,-18.142,-15.518,-17.028,-49.556,-27.911,-16.783,-15.148,-12.62],[-66.83,-33.918,-26.064,-20.38,-20.295,-70.422,-37.008,-26.959,-23.379,-21.373,-69.479,-33.515,-27.084,-23.145,-20.006,-66.142,-39.534,-27.522,-21.355,-20.358,-68.484,-39.153,-24.364,-22.485,-18.558,-69.222,-40.783,-27.086,-22.103,-19.34],[-85.314,-44.48,-33.95,-26.65,-22.148,-80.972,-45.252,-31.666,-28.252,-24.009,-81.374,-44.686,-33.459,-26.725,-24.795,-78.436,-45.325,-34.253,-27.856,-24.925,-79.284,-51.737,-36.205,-29.929,-24.528,-78.588,-53.65,-36.911,-29.189,-23.721],[-87.296,-53.89,-41.437,-31.831,-26.641,-86.989,-52.921,-40.359,-31.488,-28.6,-86.966,-54.425,-43.005,-32.536,-27.541,-82.965,-57.827,-41.051,-34.455,-28.061,-83.535,-59.982,-45.073,-33.707,-27.624,-85.596,-61.288,-47.406,-34.62,-29.872],[-90.557,-59.573,-48.908,-38.569,-31.585,-92.419,-62.05,-47.871,-37.091,-31.773,-92.61,-60.756,-49.379,-37.617,-32.588,-89.637,-66.079,-48.041,-39.16,-32.136,-87.525,-70.195,-49.607,-39.843,-33.165,-87.561,-69.417,-51.358,-41.495,-33.442]],
"vp": [[-587.667,-415.194,-226.611,-492.394,-618.375,-30.759,-13.352,-54.632,-45.161,-77.215,-9.809,-29.591,-40.199,-47.632,-54.398,-3.612,0.829,-7.313,-9.62,-6.067,-5.885,-0.616,2.048,-2.792,-5.962,-4.855,-0.595,-1.19,-0.28,-3.731],[1711.752,390.97,152.637,-795.146,-374.815,438.082,76.758,3.318,-67.542,-9.421,183.738,-20.194,-12.944,-36.188,-56.745,26.218,-2.754,-1.08,-6.333,-8.856,11.264,1.463,-1.656,-11.421,-2.186,3.347,0.791,-5.81,-3.125,-3.036],[3813.58,1252.107,202.145,166.297,213.778,913.08,451.673,142.474,185.852,40.665,446.392,147.256,117.196,81.027,-46.328,72.588,44.61,21.461,2.973,1.798,37.51,19.715,-2.05,0.244,-7.599,14.646,6.118,4.983,-0.58,-1.337],[6800.876,3118.789,2755.579,1126.746,593.374,1172.223,814.527,402.577,378.413,95.25,593.148,355.871,274.865,122.634,104.269,112.119,66.968,45.342,27.582,24.99,54.092,36.988,31.719,20.179,7.446,23.926,14.167,9.495,5.271,1.133],[7256.198,6217.156,4292.79,2291.01,1611.269,1325.104,1030.178,769.857,620.494,530.163,680.753,612.733,474.726,291.464,198.337,119.652,116.6,68.37,61.754,33.049,53.521,60.833,46.071,26.645,13.755,26.867,28.514,21.76,14.418,8.643],[7166.173,6526.816,6100.862,5008.678,3355.329,1558.78,1552.284,1207.469,892.304,784.547,814.949,689.686,653.017,460.893,392.274,154.481,150.273,116.881,91.269,63.584,63.19,82.877,61.135,45.317,31.161,29.468,36.48,28.604,20.875,13.8]]
}