{
"KTrans": [[16.409,12.191,12.639,8.973,5.951,24.588,23.728,15.382,16.739,13.999,53.215,20.887,20.168,14.394,21.116,174.305,112.723,90.876,74.008,74.703,465.856,240.127,192.365,175.133,159.983,1296.977,642.747,472.767,408.855,376.207],[31.519,23.887,17.592,5.206,15.018,31.552,29.447,16.775,12.596,12.937,27.688,38.112,24.328,17.285,13.835,194.691,93.722,62.219,49.526,41.538,402.849,192.043,124.546,99.22,70.127,892.463,434.725,247.187,207.034,168.15],[-71.642,72.574,35.81,18.796,13.09,-70.092,67.186,40.753,21.535,19.186,-47.031,83.853,31.429,19.614,26.601,-5.63,178.43,72.024,57.578,44.226,25.691,287.84,126.897,92.323,73.958,135.212,557.573,273.34,188.383,155.859],[-81.426,74.976,42.749,31.205,29.317,-97.611,60.066,69.715,37.017,25.468,-94.873,92.156,99.053,33.667,15.131,-56.595,110.473,111.191,78.539,42.964,12.467,250.066,199.845,109.613,80.043,93.272,459.763,330.46,228.401,160.79],[-76.06,-44.398,108.315,55.894,42.165,-93.08,-82.186,135.174,65.179,45.969,-92.174,-12.62,106.623,67.855,40.317,-65.6,-25.368,185.609,89.514,62.722,-16.934,37.935,256.218,137.594,111.422,-44.058,125.777,542.24,223.666,185.816],[-103.898,-82.648,29.591,58.716,55.411,-92.385,-88.345,24.302,111.4,39.615,-92.723,-82.936,33.14,108.679,83.341,-87.061,-63.006,110.584,138.618,78.368,-90.707,-7.112,149.726,212.318,116.345,-24.772,10.367,273.181,360.199,184.984]],
"ve": [[2.507,1.709,-0.167,1.972,8.139,4.057,1.709,0.303,-1.151,0.937,11.353,2.49,-0.201,-1.79,-4.542,44.62,14.484,-0.256,-11.415,-17.677,93.304,33.396,8.051,-7.085,-17.5,192.872,80.584,35.421,9.749,-6.5],[3.301,0.827,0.84,-0.031,0.731,5.38,3.071,2.05,0.711,0.684,10.316,5.035,3.199,2.387,1.499,57.85,24.377,14.098,9.093,5.94,100.638,47.891,29.927,20.371,11.506,200.297,97.89,59.912,41.429,28.93],[1.04,1.396,1.463,0.838,0.227,5.982,3.145,2.718,1.642,1.417,9.184,6.392,3.642,1.758,2.875,52.584,26.262,16.124,12.11,8.542,99.062,49.967,31.798,23.015,17.534,198.469,99.349,64.672,46.699,36.592],[-3.976,2.397,-0.3,0.647,1.349,3.448,3.628,2.389,1.783,1.55,10.69,7.352,5.79,2.369,0.809,49.871,26.213,16.87,13.432,8.824,93.198,50.267,33.261,25.132,18.864,196.978,101.884,64.902,50.34,38.541],[-1.665,2.036,2.027,0.804,1.407,7.285,3.709,3.217,2.159,2.463,11.166,9.739,4.671,4.205,2.023,51.238,25.344,17.513,12.505,10.057,101.42,52.449,33.218,24.6,20.628,200.772,101.472,68.389,48.435,40.113],[0.995,-1.479,-1.635,-1.675,0.681,4.485,4.203,1.913,3.307,0.749,10.476,5.24,4.579,3.772,4.667,50.972,26.123,18.329,13.2,10.591,104.681,47.392,32.633,26.74,20.217,201.511,99.446,67.394,51.161,39.348]],
"kep": [[12.788,11.241,15.225,11.451,7.205,18.508,22.175,17.977,23.153,21.918,36.132,17.606,22.198,20.803,33.722,87.975,85.082,91.141,97.011,113.659,190.478,153.624,169.235,195.161,214.261,374.786,309.682,321.163,362.299,407.33],[22.319,19.798,14.595,4.363,13.755,19.433,22.999,12.622,10.624,11.505,11.201,28.235,18.729,13.475,11.499,89.411,52.405,39.95,35.471,32.623,145.826,93.866,70.153,63.615,51.015,227.516,166.991,114.924,114.738,106.253],[-70.344,63.069,30.047,15.426,10.828,-69.648,54.883,33.269,17.095,15.537,-50.215,65.86,23.547,15.126,21,-35.037,112.618,43.92,38.184,30.722,-35.805,151.167,68.323,53.18,45.681,-18.414,222.474,122.38,93.263,85.053],[-78.957,63.512,36.398,26.652,24.845,-93.683,47.268,58.668,30.262,20.892,-92.078,70.408,81.014,26.315,11.332,-68.368,61.163,74.124,53.243,28.078,-42.205,124.157,117.058,63.898,48.29,-32.603,169.839,153.169,114.412,84.794],[-74.24,-45.484,93.646,48.107,35.964,-91.225,-78.857,115.117,54.754,38.266,-91.448,-18.444,89.05,55.475,32.806,-74.427,-38.777,130.82,62.48,43.567,-56.097,-8.114,154.858,84.076,70.803,-78.657,13.935,269.207,111.376,99.163],[-101.54,-79.273,22.387,51.463,47.961,-91.073,-84.919,17.188,95.415,33.303,-91.551,-80.019,22.221,91.314,69.441,-89.073,-67.348,70.561,100.616,55.915,-92.535,-35.786,79.26,137.976,73.962,-73.154,-40.84,118.046,193.564,98.679]],
"vp": [[600.803,659.024,873.77,827.008,694.753,133.851,174.002,167.105,174.21,174.842,96.745,62.452,70.319,68.033,83.568,15.302,16.019,18.646,12.981,16.977,7.102,5.548,6.318,9.306,7.339,4.923,4.173,3.208,2.523,3.233],[3826.884,1703.296,2209.664,1490.19,2827.467,727.858,425.116,428.487,434.713,458.126,368.533,274.959,236.738,206.36,211.482,74.765,41.727,42.054,46.805,37.085,39.031,18.74,22.643,25.214,17.68,18.006,10.281,7.689,12.475,10.797],[5368.574,4395.686,3902.893,3753.514,3605.862,1074.338,760.861,758.146,681.469,827.339,444.976,405.326,318.07,285.476,449.785,113.111,96.657,68.524,64.63,85.08,56.41,44.235,26.674,30.675,37.21,26.879,22.59,14.64,17.878,16.908],[5703.834,8415.004,4651.351,4254.639,5322.067,1324.68,1305.97,854.346,949.769,909.842,700.095,921.659,579.161,464.27,316.543,123.91,159.516,95.833,94.182,89.737,58.312,70.03,60.793,22.035,42.527,28.121,49.739,25.025,22.953,28.303],[5652.036,10038.983,7343.718,5995.755,6698.998,1648.018,1884.535,1729.523,1045.505,1177.548,794.405,907.476,646.785,665.842,655.356,140.943,166.246,161.503,101.635,112.594,64.186,89.656,74.428,60.59,69.275,36.66,47.805,48.494,23.402,31.595],[8690.23,10151.633,11794.411,5375.703,6777.56,1620.226,2116.218,2066.446,1291.692,801.375,852.523,1003.956,1177.418,672.169,854.484,151.409,220.115,217.889,168.717,110.085,85.702,85.149,103.414,52.065,47.88,42.682,38.603,46.778,47.842,33.23]]
}