{
"KTrans": [[13.121,15.671,12.357,16.612,15.181,5.96,13.719,13.753,15.926,19.403,15.919,24.142,20.373,17.826,17.006,27.74,33.954,35.122,27.926,26.252,62.384,60.372,44.99,52.236,48.082,149.1,109.29,93.414,93.874,103.728],[-49.373,-1.341,0.11,5.48,9.482,-47.873,-11.105,0.309,3.012,7.311,-39.656,-0.46,1.573,9.694,10.255,-24.917,-1.619,8.741,11.952,16.184,-27.853,2.596,16.02,24.246,20.801,-3.013,23.117,32.671,35.127,33.511],[-75.903,-32.086,-12.699,-3.226,0.905,-73.548,-30.093,-13.419,-1.743,0.021,-71.18,-31.104,-12.68,-2.42,2.05,-65.819,-31.32,-5.233,-1.967,1.522,-51.063,-23.409,-5.953,6.533,8.01,-40.886,-6.189,-1.776,24.311,20],[-81.161,-47.19,-27.839,-14.602,-9.276,-84.641,-51.791,-27.162,-15.894,-7.852,-84.022,-48.085,-28.031,-13.093,-5.892,-78.921,-48.295,-29.697,-15.014,-5.004,-71.575,-39.389,-26.103,-12.886,-3.526,-63.894,-39.371,-13.1,-2.473,0.074],[-86.768,-63.592,-39.195,-27.315,-20.089,-90.121,-63.022,-41.869,-27.61,-15.942,-87.076,-59.468,-37.595,-25.668,-16.096,-85.958,-59.449,-41.562,-23.286,-17.067,-76.019,-59.46,-36.542,-21.945,-10.46,-66.258,-55.136,-26.978,-17.787,-7.367],[-91.513,-71.369,-46.578,-38.465,-27.985,-92.227,-68.247,-54.047,-39.134,-28.715,-91.732,-71.136,-52.434,-36.396,-25.961,-86.245,-69.59,-49.732,-36.984,-24.245,-85.214,-67.996,-52.885,-36.146,-24.108,-77.154,-61.228,-45.504,-33.563,-21.934]],
"ve": [[23.623,88.872,-3719.948,66.747,69.068,6.622,22.593,-23.948,129.392,140.577,-18.929,33.468,-971.75,5.048,-92.04,33.295,26.327,45.222,18.05,-48.237,26.217,20.3,-77.4,-43.979,-44.54,89.85,-6.464,-10.704,0.294,-112.621],[-5.943,-1.01,0.846,4.957,6.671,-13.857,-1.432,2.733,5.822,6.932,-10.688,1.34,2.513,3.524,9.112,3.023,8.153,6.662,7.982,8.409,9.233,17.381,13.778,14.709,14.667,62.47,-671.599,61.933,20.97,31.37],[-53.269,-11.082,-5.062,-0.698,0.352,-33.025,-10.471,-3.472,-0.492,0.446,-52.328,-8.667,-3.866,-0.323,1.659,-15.664,-4.6,2.325,1.412,3.193,12.722,5.172,6.445,7.288,6.722,42.23,20.802,14.156,20.531,16.366],[-942.736,-17.288,-8.626,-5.448,-3.171,-40.04,-19.346,-10.579,-4.514,-2.562,-55.225,-16.466,-8.745,-4.555,-2.297,-21.818,-11.559,-7.835,-2.375,1.254,-9.82,8.356,-1.679,1.06,3.079,42.717,9.013,9.64,-1.271,8.697],[-32.283,-25.118,-14.188,-9.418,-6.677,-45.784,-22.908,-15.852,-8.329,-5.395,-46.591,-24.462,-12.485,-8.592,-4.842,-37.313,-18.35,-11.897,-5.051,-4.794,-14.314,-11.272,-5.566,-1.808,1.484,-6.642,3.311,17.846,6.893,5.484],[-21.189,494.498,-17.986,-14.309,-9.32,-44.065,-29.37,-21.113,-14.561,-10.064,-41.163,-31.672,-18.785,-13.198,-9.617,-24.286,34.407,-13.563,-10.601,-6.897,-26.868,-14.364,-16.065,-6.276,-4.205,25.427,0.477,3.542,0.044,1.805]],
"kep": [[-30.296,-29.293,-36.075,-34.913,-42.029,-32.965,-27.972,-35.18,-35.597,-36.293,-28.687,-23.02,-27.507,-34.367,-42.64,-30.743,-23.273,-18.327,-26.781,-37.289,-33.09,-16.201,-25.042,-7.969,-9.874,-31.842,-17.868,-9.383,3.299,25.961],[-62.124,-30.529,-29.707,-28.517,-26.937,-59.989,-36.571,-30.687,-30.821,-28.631,-54.035,-31.469,-29.904,-24.841,-27.636,-54.535,-36.719,-28.205,-26.403,-23.9,-65.936,-39.888,-28.245,-23.423,-25.054,-69.098,-43.055,-30.856,-25.359,-22.622],[-79.779,-46.954,-35.378,-31.361,-29.002,-76.32,-45.436,-36.953,-30.352,-29.645,-77.545,-47.392,-36,-30.991,-29.11,-79.346,-50.824,-35.477,-32.143,-30.672,-76.669,-52.637,-38.684,-30.669,-29.052,-80.071,-55.086,-43.096,-29.324,-28.286],[-84.033,-55.836,-44.705,-36.412,-33.953,-85.467,-59.105,-42.913,-38.026,-33.354,-85.902,-57.184,-44.627,-36.029,-32.18,-84.862,-60.122,-47.204,-38.904,-34.026,-85.431,-60.817,-48.119,-40.475,-34.493,-83.837,-69.967,-49.437,-41.397,-37.193],[-88.298,-66.797,-50.966,-43.656,-39.671,-91.301,-66.166,-51.801,-44.511,-37.475,-90.265,-63.083,-50.489,-42.929,-37.891,-90.967,-66.75,-54.637,-43.397,-38.807,-87.897,-72.391,-53.664,-44.814,-38.233,-87.597,-78.686,-57.277,-47.827,-39.919],[-93.177,-72.01,-55.205,-49.793,-44.238,-92.713,-69.489,-59.735,-50.066,-44.327,-93.095,-71.594,-59.519,-48.722,-42.481,-90.466,-74.157,-59.728,-50.844,-42.816,-92.421,-78.018,-62.383,-53.272,-44.684,-90.549,-80.197,-65.4,-55.57,-48.031]],
"vp": [[-312.246,-677.401,-417.337,-465.496,-391.163,-37.627,-45.353,-104.792,-71.745,-127.116,-74.615,-77.938,-51.997,-61.384,-69.499,4.231,-12.829,-21.272,3.872,-10.312,-4.127,-10.16,-0.221,-6.421,-13.537,-24.07,-13.867,-5.236,-8.237,-17.9],[2893.414,93.985,-157.713,-395.553,-695.907,580.226,204.734,-48.253,23.779,-67.309,210.056,6.496,-3.676,-47.663,-111.819,11.557,3.335,-10.403,-11.991,-22.598,18.615,7.072,-10.31,-27.416,-13.569,-3.918,2.454,-5.263,-6.121,-0.516],[5546.972,3010.777,928.958,104.696,-149.777,1003.265,501.067,289.104,35.247,51.271,454.622,247.954,130.311,35.968,-54.031,77.848,67.175,6.214,20.356,21.257,25.2,21.305,9.754,-8.718,1.643,7.478,3.261,14.776,-19.696,-16.504],[5521.92,4532.611,2955.975,1999.822,1397.283,1241.782,1116.037,649.374,369.367,211.217,625.388,456.528,290.256,158.208,75.09,108.157,101.576,94.002,49.756,3.606,52.702,20.665,34.955,28.298,13.071,4.537,20.601,10.651,-2.153,11.564],[5727.409,7053.969,5207.294,4087.468,3481.062,1490.231,1355.256,1116.916,696.206,452.474,647.37,706.435,481.392,402.103,244.079,136.95,136.72,115.7,58.592,74.429,38.926,63.469,50.213,31.061,10.765,6.587,31.846,5.672,13.612,13.142],[7396.083,8529.759,6053.71,6280.374,5006.96,1413.814,1577.227,1561.742,1317.59,1137.376,738.198,924.401,719.687,583.777,568.529,108.298,153.949,122.338,126.174,93.001,65.678,73.793,101.646,59.428,47.662,9.167,30.976,39.805,33.981,29.209]]
}