{
"KTrans": [[-55.895,-66.877,-81.382,-82.009,-85.39,-49.442,-71.079,-82.1,-78.846,-79.51,-37.107,-60.145,-67.964,-69.81,-68.013,7.951,-18.934,-2.997,-53.242,-29.213,49.643,60.46,59.257,45.988,8.329,144.323,-12.169,208.797,173.424,226.264],[-60.944,-45.216,-60.968,-62.127,-69.418,-60.87,-43.163,-46.454,-55.887,-71.143,-53.378,-33.527,-42.762,-57.694,-65.089,-31.623,-26.005,-8.728,-14.929,-37.625,-12.343,-8.837,16.956,4.89,-15.808,44.042,22.925,1.165,57.183,27.881],[-68.541,-50.268,-46.451,-47.769,-60.687,-66.77,-55.778,-42.475,-44.927,-55.16,-67.843,-43.786,-39.447,-40.593,-43.891,-56.266,-27.461,-28.309,-16.735,-25.892,-50.726,-15.874,3.77,-10.544,-17.543,-44.153,-18.975,25.912,14.392,-15.324],[-80.603,-61.225,-48.212,-53.258,-44.666,-77.407,-55.616,-48.986,-46.766,-37.169,-76.747,-56.058,-43.401,-30.211,-35.492,-68.685,-43.335,-31.054,-21.132,-22.743,-62.489,-31.793,-22.907,-15.594,-12.694,-52.995,-26.125,-6.675,-2.954,6.837],[-82.057,-67.085,-50.631,-47.516,-45.752,-83.198,-65.551,-50.711,-45.273,-45.547,-82.848,-67.08,-51.981,-39.928,-42.371,-75.212,-51.776,-35.574,-31.859,-27.246,-70.118,-47.178,-44.165,-19.162,-24.423,-68.952,-44.654,-1.008,-4.927,-3.603],[-87.72,-69.559,-53.131,-52.166,-48.292,-85.797,-71.123,-53.448,-50.125,-46.067,-87.005,-68.413,-51.452,-41.9,-40.822,-81.615,-62.521,-46.148,-32.167,-29.638,-74.173,-54.516,-33.966,-24.359,-27.498,-92.128,-47.999,-19.369,-21.486,-3.02]],
"ve": [[-61.46,-68.288,-53.136,9.949,-29.615,1086.826,-47.066,-821.014,20.725,-92.583,-18.436,-7.343,-63.666,-85.539,-44.855,11.2,-30.84,-29.435,-12.907,-42.139,102.12,100.943,100.535,-24.033,-71.222,131.15,39.758,-27.289,-3783.069,-5.238],[-90.679,-49.06,-57.36,-57.73,-18.033,-262.328,-25.01,-38.977,-474.647,-54.698,-1.986,-27.277,-52.367,-18.716,-32.552,55.972,-17.171,0.41,-24.241,-46.603,64.575,55.857,19.37,-7.662,-5.937,242.52,80.381,51.855,12.248,0.265],[-19.081,-38.861,-58.322,-55.711,-67.859,-77.625,-59.831,-48.311,-45.955,-58.52,-122.933,-13.462,-69.145,-48.975,-41.862,2.325,-22.608,-56.168,-24.587,-27.98,91.651,-0.51,24.105,-9.355,-1.897,158.151,57.859,51.391,36.845,28.631],[8.539,321.017,-72.078,-69.291,-49.281,-136.692,-25.336,127.922,-62.014,-66.325,-3.406,-39.706,-9.989,-42.532,-42.032,168.711,5.453,-21.94,-27.54,-17.19,106.257,74.323,-15.637,-10.242,-17.445,198.46,43.958,44.013,34.68,13.294],[10.435,-17374.569,-63.456,-96.246,-69.744,-30.234,-36.909,-65.309,-50.056,-63.433,1.377,-62.979,-83.736,-49.936,-65.845,98.203,-10.147,-29.5,-53.85,-38.647,108.258,109.471,-70.263,-26.909,-43.308,322.242,134.384,46.454,33.955,33.954],[17.412,-9.683,-41.307,-94.838,-86.137,-125.028,-52.446,-51.049,-78.744,-73.53,-67.615,-12.444,-54.531,-29.976,-72,81.196,24.239,-13.075,-39.6,-33.899,136.936,73.365,23.981,-48.629,60.43,197.278,92.349,23.452,-34.446,23.307]],
"kep": [[-129.64,-77.141,-34.956,34.202,36.693,-120.571,-46.494,10.763,-14.653,-17.922,-130.612,-72.637,-53.411,-15.819,-22.823,-127.203,-105.31,-102.762,-8.086,-48.739,-137.082,-151.127,-174.854,-119.209,-88.633,-72.994,-161.985,-273.304,-349.224,-281.06],[-86.387,-90.029,-122.679,-93.603,6.861,-100.328,-94.978,-135.521,-73.569,-6.591,-93.77,-84.787,-131.025,-76.537,-12.186,-87.799,-75.713,-130.132,-146.181,-40.029,-82.391,-102.176,-142.44,-160.444,-90.226,-76.432,-60.366,-99.187,-149.055,-136.998],[-93.341,-77.264,-62.84,-78.089,-96.426,-92.501,-61.221,-66.383,-83.058,-120.112,-95.59,-78.292,-57.739,-90.735,-107.023,-95.336,-65.31,-61.48,-102.548,-134.414,-87.834,-56.025,-63.388,-80.843,-119.517,-79.536,-62.098,-52.194,-63.896,-102.137],[-100.499,-77.361,-41.196,-45.946,-64.338,-100.811,-71.867,-47.261,-27.432,-59.061,-96.911,-76.598,-45.683,-38.397,-61.709,-94.858,-82.461,-57.402,-37.041,-69.238,-93.344,-87.085,-57.169,-62.059,-40.169,-87.345,-63.463,-48.884,-60.032,-38.643],[-98.839,-82.268,-47.938,-38.071,-26.395,-99.254,-80.486,-53.509,-33.946,-28.298,-98.989,-74.691,-45.732,-38.424,-23.402,-98.203,-75.069,-52.093,-45.596,-21.585,-93.045,-80.755,-43.017,-33.538,-45.379,-94.111,-78.082,-48.227,-50.241,-51.005],[-101.627,-83.763,-55.281,-29.114,-19.387,-97.05,-79.208,-55,-38.595,-24.414,-97.472,-81.84,-53.796,-29.421,-21.567,-97.873,-86.565,-59.88,-37.793,-34.229,-95.363,-85.295,-66.622,-29.693,-49.045,-98.251,-79.266,-50.945,-34.529,-52.175]],
"vp": [[-484.614,37.953,313.335,943.938,-32.511,-33.689,131.271,145.167,-23.906,-38.746,-2.622,-21.821,51.605,-62.756,-66.105,-15.959,-18.156,10.825,20.955,-10.114,-23.658,-10.337,-30.359,-2.28,4.53,-44.419,-18.906,-27.917,-31.517,-15.003],[2384.484,1216.016,-597.456,-402.629,496.363,530.288,175.469,5.758,81.93,12.087,230.338,77.874,-23.386,-40.347,43.192,10.611,-16.655,-15.633,-34.156,-12.115,-4.919,4.448,-20.742,-53.607,-26.092,-39.253,-22.797,-47.279,-38.122,5.333],[4565.741,3261.798,1511.334,136.692,-672.217,823.178,557.532,354.141,228.648,-14.214,427.996,454.357,186.358,89.522,-81.777,51.886,21.327,19.235,-17.769,-25.428,10.192,-0.813,-12.657,-48.573,-25.465,-21.741,-36.121,-45.559,-27.314,-32.162],[5077.047,5266.271,2785.162,1436.759,1615.553,1175.261,1034.126,625.895,236.142,361.509,562.338,555.72,290.121,255.82,184.751,88.877,89.468,46.569,19.739,9.615,24.717,18.957,2.036,-10.866,-14.9,-13.086,-30.166,-38.269,-39.808,-47.316],[6658.074,6862.093,4717.445,3499.32,2368.032,1192.58,1488.58,1013.285,666.234,349.381,514.697,640.687,391.018,414.398,214.085,108.584,83.633,62.005,67.853,11.275,1.672,18.434,5.164,7.935,-23.333,-4.951,-25.751,-36.394,-10.674,-22.677],[6858.365,8836.068,6137.259,3964.334,3092.043,1155.761,1418.661,1474.746,908.749,800.209,679.095,892.556,636.653,448.79,325.672,83.797,142.954,100.087,80.064,62.275,15.448,45.763,21.998,-21.876,22.609,10.946,-23.362,-25.598,-55.539,-10.121]]
}