{
"KTrans": [[25.591,20.497,28.739,16.758,20.132,22.76,23.423,16.921,21.034,20.199,27.655,22.618,16.452,19.771,27.621,49.465,39.213,41.199,31.452,32.874,78.073,57.143,60.096,46.252,50.284,98.576,133.198,90.608,117.199,77.616],[-43.151,-6.028,1.155,9.41,11.119,-45.919,-13.811,4.486,6.118,7.441,-52.767,-2.635,1.829,4.79,10.659,-40.243,1.313,9.575,17.177,15.637,-23.776,7.942,16.656,24.492,27.495,14.853,31.72,48.596,28.987,33.737],[-72.658,-33.858,-17.571,-3.434,2.573,-71.149,-28.628,-17.072,-9.287,-0.555,-65.923,-27.672,-14.329,-3.026,0.671,-59.7,-23.532,-12.317,1.001,3.743,-61.036,-22.174,-4.059,0.267,8.275,-53.787,-5.555,14.534,26.081,24.611],[-83.67,-52.418,-31.152,-15.299,-9.145,-82.013,-49.654,-29.471,-19.881,-8.142,-80.254,-45.222,-32.611,-20.035,-5.418,-77.769,-49.313,-27.719,-14.845,-6.059,-71.288,-35.912,-22.66,-11.654,-0.492,-71.461,-28.396,-13.354,1.302,11.317],[-88.885,-61.918,-42.616,-29.143,-19.64,-86.436,-62.644,-44.061,-28.219,-19.627,-87.993,-62.872,-43.119,-29.955,-19.113,-83.737,-57.605,-37.132,-29.788,-17.467,-78.357,-52.798,-36.238,-26.498,-17.249,-80.177,-50.227,-29.594,-24.621,-2.037],[-90.519,-71.44,-54.449,-38.573,-28.61,-91.382,-66.799,-52.553,-38.202,-26.536,-91.116,-66.48,-54.568,-38.349,-29.276,-88.968,-69.172,-51.541,-40.483,-29.04,-81.344,-69.52,-47.224,-33.427,-24.195,-78.996,-61.955,-46.658,-31.005,-21.741]],
"ve": [[-43.041,112.237,11.752,-127.971,-641.403,19.431,-149.829,-727.766,-52.524,-225.621,27.682,54.729,-17.249,-69.214,-18.56,29.209,-92.88,-189.277,-36.043,-228.967,37.361,11.604,-25.41,-5.641,193.987,77.341,26.101,5.468,-152.727,-26.009],[-4.205,-0.374,2.964,6.391,7.75,-15.389,-2.717,4.158,3.909,9.747,-25.606,-0.706,3.387,7.802,8.18,-5.21,3.633,7.711,8.974,10.487,21.611,-19.603,38.144,23.829,19.436,84.597,37.072,13.52,-4.638,30.734],[-25.142,-9.659,-5.895,-0.36,1.423,-38.495,-10.539,-4.19,-0.85,0.168,-23.706,-7.511,-2.56,-0.027,1.771,0.508,-1.841,0.744,2.064,4.046,8.776,1.664,8.331,6.378,9.245,42.058,37.231,25.512,23.803,45.96],[-46.589,-17.69,-12.143,-5.596,-3.888,-35.536,-8.27,-9.518,-5.728,-2.716,-76.081,-17.457,-10.255,-5.644,-2.526,-19.275,-9.104,-6.126,-1.243,-1.173,12.414,8.234,3.691,1.546,5.228,60.551,24.642,12.582,19.445,16.649],[-37.608,-25.049,-14.699,-10.046,-7.71,-14.758,-26.373,-17.024,-10.075,-6.696,-4.578,-24.69,-15.539,-9.085,-6.421,-20.156,-13.012,-8.933,-8.19,-3.842,11.411,-3.504,-1.205,-3.058,-0.982,46.247,21.397,2.308,121.842,13.445],[-44.528,-29.718,-20.706,-14.615,-9.997,-54.051,-26.227,-18.821,-13.824,-8.987,-70.057,-27.11,-21.24,-12.895,-8.962,-47.591,-21.267,-15.556,-12.268,-8.178,11.092,-1.774,-9.922,-5.242,-2.612,44.501,8.863,1.549,5.557,1.36]],
"kep": [[-20.385,-25.749,-21.358,-42.636,-44.805,-22.097,-24.691,-33.159,-39.232,-39.435,-21.794,-25.509,-40.57,-35.981,-26.23,-31.377,-25.663,-22.387,-31.775,-39.319,-43.428,-33.024,-19.368,-32.428,-24.498,-41.194,-20.919,-41.274,-12.605,-65.034],[-62.404,-35.41,-32.158,-29.293,-28.844,-61.983,-39.803,-31.443,-29.817,-32.364,-65.639,-32.918,-31.743,-32.08,-29.189,-70.383,-35.331,-30.816,-26.241,-27.49,-70.945,-42.787,-32.922,-27.026,-23.74,-64.055,-51.03,-31.597,-35.108,-31.483],[-77.706,-50.851,-40.658,-33.979,-31.142,-78.812,-46.508,-41.25,-37.491,-32.187,-75.386,-47.829,-40.738,-33.913,-32.524,-76.545,-49.01,-41.711,-33.06,-32.005,-79.617,-57.22,-40.655,-36.697,-32.877,-73.59,-66.713,-43.079,-34.55,-30.953],[-87.524,-61.657,-47.345,-39.079,-35.698,-86.739,-59.811,-47.389,-42.337,-35.702,-86.237,-55.976,-49.605,-42.592,-34.016,-86.752,-64.189,-48.252,-41.571,-35.571,-85.41,-62.339,-49.763,-42.076,-36.465,-86.527,-68.099,-55.78,-44.404,-35.848],[-91.057,-66.312,-54.794,-46.592,-40.929,-89.144,-67.726,-54.601,-45.844,-41.473,-91.362,-68.046,-55.117,-47.797,-41.228,-90.635,-67.032,-54.286,-48.389,-42.073,-89.086,-71.957,-57.528,-49.639,-44.271,-89.002,-78.266,-63.371,-55.227,-42.718],[-92.941,-73.268,-61.664,-51.478,-46.289,-93.246,-71.537,-61.083,-51.727,-45.314,-94.731,-71.761,-61.618,-52.312,-47.396,-92.635,-75.78,-61.93,-54.41,-47.868,-89.831,-81.595,-64.173,-53.972,-47.745,-91.094,-81.938,-73.791,-59.291,-51.096]],
"vp": [[-284.42,-528.192,-1061.13,-645.26,-799.724,-67.185,-65.731,-59.617,-231.448,-170.562,-69.319,-81.928,-45.007,-51.259,-98.795,-15.933,-22.573,-34.695,-16.156,-14.51,-17.827,-7.08,-9.075,-0.812,-5.216,-25.764,-26.337,-3.584,-16.691,5.418],[2587.446,517.639,-54.884,-795.818,-988.948,490.256,250.026,-167.058,-36.226,-36.26,333.34,34.267,20.295,35.061,-74.009,46.684,12.467,-1.049,-23.975,-17.535,8.163,-1.079,-4.68,-7.512,-13.858,-18.76,-7.493,-22.685,4.261,5.707],[4924.641,2921.69,1959.806,-32.729,-131.185,932.059,488.501,340.501,303.614,139.004,524.595,236.765,111.248,23.592,-15.864,65.383,38.233,37.248,8.49,1.924,16.094,22.136,-0.523,11.01,-3.628,4.92,-18.059,-10.941,-26.067,-12.363],[6244.379,4966.516,3988.406,1848.526,1957.978,1146.561,959.456,660.061,546.104,186.042,527.727,469.526,426.236,314.039,78.247,103.637,102.32,82.907,35.406,35.499,37.16,2.557,45.102,28.659,-5.744,-3.716,0.852,7.083,-10.951,-16.086],[6533.863,7224.376,5612.697,4332.317,3399.248,1177.035,1618.089,1143.934,865.95,628.293,701.364,704.271,592.22,404.53,374.481,110.491,119.693,92.435,109.7,66.047,26.809,39.925,43.351,48.029,43.695,4.051,6.691,15.648,38.067,-14.215],[6840.124,9078.36,8293.575,6824.1,5666.496,1473.484,1439.903,1611.161,1346.282,957.021,682.153,697.887,839.35,591.119,513.697,141.098,160.665,156.382,146.772,124.442,24.846,91.404,75.643,60.079,45.858,5.106,23.675,38.273,23.77,32.786]]
}