{
"KTrans": [[0.887,1.359,0.858,1.029,0.215,-1.752,0.889,1.55,-0.098,-0.374,-2.275,-0.665,-0.725,0.341,0.391,10.094,3.866,-5.625,-1.817,1.322,45.329,17.295,9.947,9.056,8.057,-462.329,54.062,37.674,39.239,32.375],[6.818,2.345,1.957,0.65,0.856,2.369,0.773,1.403,0.394,0.569,0.072,0.869,0.351,1.141,0.004,5.686,8.192,-7.984,-0.724,-1.674,-4.31,0.713,0.318,-8.777,-3.189,-71.111,37.737,20.523,0.546,4.463],[-27.114,7.899,3.08,1.946,0.952,-28.971,8.677,3.159,1.589,1.575,-21.702,8.124,1.527,1.135,1.089,-19.474,-4.207,-2.048,-3.348,-0.397,-38.819,22.916,-0.802,-2.817,-0.397,-55.713,-11.559,-5.161,2.827,3.106],[-71.937,14.968,6.834,3.947,3.066,-73.178,18.976,6.461,2.413,2.073,-67.489,18.134,3.702,2.887,1.973,-66.181,13.843,-5.192,0.482,-0.605,-64.023,14.55,-2.734,-4.221,-5.994,-71.499,43.611,4.195,8.58,1.949],[-81.639,30.903,11.656,6.782,3.375,-86.308,24.946,13.06,5.022,3.859,-81.303,17.863,8.757,3.001,3.054,-83.845,-4.197,-1.759,2.33,-0.675,-79.535,2.653,-1.138,-6.794,-5.962,-95.196,1.453,30.708,7.805,6.566],[-88.582,-16.187,24.603,7.027,5.145,-86.844,-16.934,24.434,9.292,5.048,-84.09,-1.803,20.518,7.846,4.998,-85.83,-8.974,8.277,5.596,0.692,-86.985,-13.973,25.782,-5.84,-10.171,-110.199,-21.005,-13.216,8.042,-0.914]],
"ve": [[0.122,-0.486,-0.557,-0.761,-0.926,-1.848,-0.571,-0.763,0.631,0.826,-1.437,-0.092,0.26,0.017,0.626,16.271,-25.748,-143.093,-54.162,-68.282,-5.84,-32.267,-1.297,-43.987,-965.163,-83.433,-4.046,-30.738,-49.854,-38.844],[-1.176,-0.356,-0.558,-0.561,-0.557,-1.758,-0.743,-0.481,-0.826,-0.633,-3.21,-0.576,-0.928,-0.728,-0.731,-7.671,3.527,-4.655,-0.529,-0.402,-15.175,-51.114,5.51,-0.934,2.813,-34.079,14.197,-14.655,25.412,-30.25],[-23.206,1.248,0.129,-0.328,-0.6,-27.289,1.68,-0.624,-0.533,-0.523,-23.459,1.19,-1.021,-0.65,-0.791,-43.163,-7.626,-2.863,-2.791,-1.072,-54.779,1.809,-2.507,-2.834,-1.028,-94.916,-10.5,-21.201,-10.634,-29.256],[-73.234,4.115,1.009,0.075,-0.128,-68.986,4.011,1.097,-0.444,-0.323,-56.814,4.468,0.005,-0.177,-0.407,-62.217,-3.325,-6.759,-0.897,-1.483,-39.916,-15.432,-8.232,-4.567,-4.848,-99.639,-44.228,-15.164,-1.519,-4.023],[-140.638,5.702,2.353,1.06,-0.059,-97.944,3.735,2.702,0.527,0.008,-77.17,-0.163,1.62,-0.745,-0.18,-82.787,-32.924,-4.95,-1.061,-2.261,-87.373,-16.875,-22.141,-6.352,-5.426,-128.517,-58.257,-18.551,-1.776,0.829],[-95.861,-20.527,6.487,1.312,0.58,-86.548,-23.369,5.841,1.904,0.403,-86.6,-35.586,5.11,1.318,0.538,-92.339,-19.376,-8.437,0.96,-1.634,-112.35,-15.539,-23.594,-7.581,-9.968,-152.874,-40.618,-17.162,-21.23,-9.599]],
"kep": [[0.615,2.04,1.708,2.11,1.642,-0.328,1.593,2.627,-0.286,-0.028,-1.871,-0.498,-0.496,1.118,0.956,-11.322,-4.002,-15.059,-8.474,-4.251,-6.747,-12.528,-15.232,-12.407,-11.111,129.385,7.687,-30.862,-16.109,-16.259],[6.378,2.634,2.503,1.216,1.435,1.947,1.419,1.873,1.218,1.212,0.885,1.16,1.16,1.844,0.719,-30.281,0.585,-6.283,-1.3,-1.908,-12.323,-18.591,-8.573,-11.376,-6.328,-3.716,5.797,-15.788,-21.095,-13.196],[-19.882,6.311,2.896,2.268,1.559,-32.587,6.504,3.723,2.116,2.095,-34.531,6.283,2.442,1.741,1.862,-53.93,-10.49,-2.203,-1.908,-0.205,-48.589,-23.117,-10.683,-6.608,-2.793,-50.983,-8.439,-38.71,-16.671,-11.088],[-89.773,8.859,5.608,3.834,3.182,-81.578,12.968,5.131,2.831,2.38,-75.769,11.166,3.434,3.006,2.342,-64.657,-19.247,-2.871,-0.024,0.045,-49.026,-31.044,-15.115,-7.865,-4.771,-61.609,-47.875,-23.767,-15.927,-11.268],[-97.891,15.548,8.545,5.563,3.411,-97.668,13.843,9.392,4.367,3.811,-93.424,7.377,6.404,3.601,3.179,-76.397,-53.891,-2.4,1.298,0.652,-73.895,-40.864,-48.325,-9.064,-5.977,-71.55,-46.924,-38.499,-21.643,-7.852],[-99.408,-28.75,15.016,5.346,4.471,-95.162,-31.337,15.323,6.999,4.544,-93.921,-47.732,12.305,6.066,4.349,-86.029,-42.28,-5.316,2.356,1.446,-84.078,-35.745,-55.399,-12.328,-7.257,-79.299,-54.509,-18.877,-48.033,-24.152]],
"vp": [[28.234,3.989,27.351,-34.564,68.107,36.975,9.262,-1.309,6.601,20.111,14.903,8.95,16.863,7.518,6.41,-0.171,0.187,20.679,9.182,3.717,-12.211,-0.93,3.218,2.056,0.57,40.234,-4.66,6.371,-1.736,-2.999],[106.66,-16.711,13.999,99.291,65.137,32.202,17.503,-0.14,28.263,24.937,36.689,6.183,20.354,7.886,19.938,14.799,-17.259,36.487,7.583,13.436,14.425,13.148,9.263,27.105,13.26,15.233,-15.17,-2.623,14.885,7.07],[2351.816,-314.525,-40.565,-30.255,113.324,542.479,-71.669,14.934,13.864,10.32,229.455,-37.622,23.873,17.564,13.429,84.866,31.495,17.064,23.387,9.421,55.628,-11.809,15.142,16.098,8.155,47.168,8.878,29.795,9.147,6.996],[7424.108,-908.97,-368.762,-157.354,-140.753,1354.581,-177.13,-90.896,0.797,-13.424,585.178,-100.867,-10.672,-5.83,-2.639,123.074,8.687,43.836,3.474,12.079,37.645,28.564,20.797,20.159,26.104,48.92,47.076,14.027,0.646,7.234],[8780.219,-1124.843,-757.353,-560.289,-187.93,1806.383,-152.815,-172.526,-74.366,-34.047,841.441,5.388,-52.32,14.376,-5.995,166.569,134.69,28.512,5.96,20.129,87.722,36.027,65.838,26.228,28.861,63.981,59.615,27.97,5.253,-3.748],[9592.586,4027.913,-2006.722,-714.139,-549.305,1757.514,926.743,-359.626,-171.143,-58.03,849.729,702.518,-161.313,-62.332,-40.268,184.365,75.965,25.446,-12.072,12.928,112.492,28.227,72.27,43.534,53.572,76.861,39.026,26.635,43.714,23.379]]
}