{
"KTrans": [[0.294,1.5,3.159,3.069,2.785,-1.274,2.338,2.627,4.356,2.185,4.501,0.875,1.019,3.577,2.757,11.207,5.123,1.21,7.328,7.515,21.022,20.95,20.835,14.572,7.79,50.796,33.516,19.02,37.195,31.361],[-17.732,-3.465,-0.4,1.432,2.028,-9.535,-0.95,1.402,1.541,1.901,-14.4,-5.642,1.354,0.789,2.322,-1.199,0.236,1.94,2.79,5.065,-12.767,3.273,5.715,4.907,4.355,9.56,12.018,20.468,5.878,12.286],[-46.803,-7.635,-4.728,0.333,0.339,-47.957,-12.147,-4.486,-1.258,0.828,-41.632,-10.26,-3.462,-1.048,-0.31,-45.644,-12.891,-5.791,-0.044,2.304,-33.807,-7.776,-1.642,2.026,4.083,-22.797,1.684,10.053,2.881,6.192],[-68.469,-19.751,-7.939,-4.081,-2.637,-68.712,-20.661,-8.459,-4.833,-1.343,-73.529,-13.732,-7.731,-3.713,-1.633,-65.85,-16.991,-4.175,-3.48,-0.758,-62.076,-15.514,-4.11,-2.173,-0.719,-61.892,-33.286,6.155,1.227,4.161],[-84.182,-31.347,-13.257,-6.545,-4.869,-82.478,-29.481,-14.952,-8.236,-4.152,-87.115,-29.72,-13.288,-5.937,-5.697,-75.496,-30.888,-13.291,-7.258,-2.466,-76.721,-19.776,-13.034,-4.881,-3.698,-81.445,-20.735,-14.903,-4.132,-0.522],[-89.242,-37.722,-21.486,-13.648,-7.824,-88.748,-36.516,-22.319,-12.644,-6.463,-89.92,-40.505,-19.854,-11.374,-7.943,-85.16,-36.44,-19.705,-13.24,-7.147,-79.302,-36.969,-13.755,-8.134,-7.519,-85.195,-40.907,-11.662,-11.163,-1.446]],
"ve": [[-0.212,1.717,2.394,5.998,7.193,-0.289,1.733,4.061,4.938,8.347,1.584,2.939,4.321,5.432,8.692,6.623,5.256,11.521,11.763,21.152,18.928,9.07,18.397,27.241,149.944,-5.45,-53.418,-44.91,-21.479,-35.507],[-7.989,-0.947,-0.07,0.412,1.051,-4.279,-0.334,0.563,0.616,0.798,-6.061,-2.017,0.314,0.826,1.035,6.086,1.469,0.785,1.29,2.016,0.005,2.969,3.035,2.531,2.839,24.074,7.675,10.532,4.361,6.522],[-24.523,-3.359,-1.478,0.006,-0.001,-25.182,-4.192,-1.485,-0.719,0.349,-21.08,-3.756,-1.101,0.083,0.089,-22.38,-4.751,-2.218,0.7,1.176,-9.939,0.604,0.322,1.848,2.552,17.97,8.989,7.408,2.369,3.327],[-38.667,-7.834,-3.018,-1.36,-0.575,-40.201,-8.773,-2.997,-1.714,-0.373,-45.232,-5.486,-3.186,-1.235,-0.56,-38.246,-3.992,-0.918,-0.705,0.091,-33.321,-3.277,-0.347,0.784,0.314,-14.615,-27.012,11.889,2.613,3.292],[-55.545,-13.961,-5.199,-2.608,-1.653,-53.15,-13.673,-5.128,-2.992,-1.465,-61.454,-12.918,-4.867,-1.866,-2.04,-44.978,-12.406,-4.627,-1.758,-0.52,-43.297,-6.593,-2.9,0.123,-0.569,-56.076,-5.506,-6.412,1.372,2.496],[-62.798,-17.559,-8.11,-5.241,-2.873,-60.95,-18.778,-8.908,-4.48,-2,-60.838,-19.519,-7.415,-3.912,-3.002,-54.407,-16.171,-6.498,-4.814,-1.61,-34.738,-17.891,-2.437,-0.812,-1.744,-43.661,-15.209,-0.626,-1.992,3.017]],
"kep": [[-5.481,-5.196,-4.059,-6.284,-7.334,-7.027,-4.751,-5.565,-4.286,-8.422,-3.27,-6.907,-7.215,-5.097,-7.738,-5.187,-5.137,-9.431,-1.505,-1.494,-11.391,0.678,8.371,1.867,-10.122,-38.926,-17.365,-18.631,7.894,4.475],[-17.921,-8.219,-5.971,-4.671,-4.691,-13.129,-6.388,-4.883,-4.765,-4.568,-15.713,-9.301,-4.733,-5.676,-4.4,-17.035,-8.178,-5.081,-4.491,-2.922,-36.587,-9.386,-4.985,-4.418,-4.955,-25.827,-13.165,-3.102,-7.926,-2.283],[-36.977,-10.349,-8.88,-5.365,-5.328,-39.203,-13.92,-8.605,-6.192,-5.202,-35.417,-12.393,-7.957,-6.754,-6.021,-46.58,-14.914,-9.661,-6.599,-4.724,-53.089,-17.093,-8.773,-6.551,-4.864,-53.395,-24.929,-8.961,-8.765,-5.876],[-58.033,-18.598,-10.656,-8.325,-7.624,-58.756,-18.762,-11.246,-8.712,-6.591,-62.094,-15.342,-10.368,-8.08,-6.705,-68.266,-19.637,-9.251,-8.553,-6.629,-70.256,-19.587,-11.003,-9.267,-7.245,-72.125,-43.909,-13.793,-9.522,-6.908],[-74.112,-26.056,-14.126,-9.596,-8.774,-73.632,-25.612,-15.669,-10.86,-8.286,-76.945,-25.576,-14.517,-9.64,-9.214,-74.548,-26.792,-14.767,-11.219,-7.667,-77.171,-24.617,-16.415,-11.377,-9.217,-72.298,-46.562,-18.635,-13.577,-10.478],[-81.295,-31.639,-20.064,-14.218,-10.542,-80.442,-28.651,-19.948,-13.843,-10.03,-85.229,-32.174,-19.095,-13.157,-10.537,-83.329,-31.528,-19.619,-14.34,-11.144,-81.808,-38.149,-17.24,-13.32,-11.796,-80.947,-55.255,-17.46,-16.935,-11.776]],
"vp": [[84.74,96.277,-52.217,-126.524,-94.777,19.212,-8.166,-20.459,-40.93,-9.902,-6.995,2.916,12.653,-7.027,-7.139,-6.006,0.844,9.318,-2.055,-4.765,-2.632,-9.992,-9.594,-6.408,1.074,-1.657,-1.154,3.915,-8.528,-6.013],[890.398,239.32,63.822,-90.234,-220.075,95.525,12.354,-31.774,-25.506,-34.677,67.552,51.433,-6.228,-3.352,-22.32,-5.056,-2.477,0.455,-2.247,-13.155,7.82,-0.028,-3.396,-1.449,-0.659,-9.317,-0.099,-10.731,3.206,-5.039],[2624.618,655.662,349.864,-136.467,34.174,552.668,176.311,87.511,33.687,-34.923,227.357,72.643,26.832,6.03,3.908,53,24.583,20.693,-2.421,-8.736,11.688,3.143,2.144,-2.07,-7.9,-5.11,-2.948,-7.354,1.532,-1.859],[4139.426,1556.554,757.938,506.738,174.767,871.12,349.177,145.428,122.433,28.101,491.807,111.192,90.552,36.625,22.318,85.465,17.842,6.578,10.64,2.982,42.009,10.738,5.965,0.565,3.753,13.068,32.94,-16.169,-0.416,-3.732],[5982.539,2942.654,1542.021,875.403,775.173,1142.286,567.443,299.831,230.265,118.27,670.331,266.319,149.062,58.439,81.921,100.566,55.185,31.332,15.443,5.038,51.911,18.478,11.779,3.006,6.139,33.037,10.831,16.802,1.799,-2.414],[6653.57,3689.125,2420.397,2036.299,1305.273,1277.809,765.761,548.696,334.099,161.219,718.123,409.735,212.258,148.687,141.246,117.843,72.062,41.467,44.092,16.354,40.157,43.277,10.831,6.137,12.53,29.322,20.976,5.335,9.287,-4.365]]
}