{
"KTrans": [[-1.662,11.029,10.878,11.956,15.194,1.781,18.493,27.691,21.388,14.79,25.371,25.79,32.03,17.235,23.673,135.605,107.532,94.999,86.695,73.661,371.737,258.427,206.257,182.684,156.917,976.043,658.825,517.028,406.024,394.478],[-64.132,14.668,25.412,29.268,21.492,-56.255,44.893,27.034,21.461,28.169,-62.345,48.504,38.014,28.756,30.639,-48.407,89.225,77.856,68.192,57.611,35.17,181.616,130.686,106.874,91.454,222.483,434.182,297.605,206.227,186.003],[-90.957,1.436,35.412,41.316,30.369,-90.978,18.002,56.154,54.509,36.226,-86.139,-5.134,60.785,40.226,36.138,-68.01,43.914,98.17,76.811,53.886,-41.228,84.883,187.3,117.999,91.948,42.912,271.919,308.287,206.724,178.224],[-95.445,-54.701,36.303,56.977,40.526,-98.678,-38.061,55.659,65.99,41.669,-83.862,-53.88,45.412,48.362,61.651,-85.376,-46.532,101.324,106.154,92.979,-61.709,-3.615,149.583,161.459,107.143,-44.342,110.078,260.919,218.446,177.614],[-98.369,-71.355,-14.816,61.788,62.213,-99.81,-83.034,-12.286,63.514,72.898,-102.237,-96.242,-34.624,65.058,62.766,-95.204,-63.979,-22.626,81.668,91.115,-80.724,-42.312,48.957,147.444,117.246,-45.104,-71.628,130.151,271.79,230.98],[-96.543,-101.493,-58.5,23.479,71.619,-98.785,-90.124,-77.424,29.705,94.913,-100.925,-81.538,-91.239,45.909,81.512,-92.87,-81.092,-53.387,65.303,129.799,-88.189,-72.183,-12.164,102.363,154.472,-62.52,-11.672,-28.536,190.765,187.853]],
"ve": [[24.238,17.502,1992.217,75.361,-13.545,15.97,9.01,15.537,35.793,4.786,36.255,15.311,-76.292,-20.018,106.252,52.036,14.94,3.406,-5.723,-8.183,104.012,36.059,9.451,-7.372,-16.013,194.718,82.363,33.685,11.166,-5.62],[2.902,1.737,2.598,3.538,2.273,-32.619,5.469,3.276,0.771,3.898,10.953,19.947,4.603,2.652,3.526,47.084,-8.84,16.648,10.41,6.387,263.499,50.441,29.392,21.367,15.37,204.681,99.498,61.055,40.419,30.339],[-8.892,-0.128,2.389,1.843,1.732,9.638,-28.72,4.232,4.282,2.771,10.737,8.316,5.597,3.123,3.208,49.027,33.184,16.205,13.413,9.223,102.611,47.133,33.458,24.4,18.339,197.65,100.505,66.951,47.021,37.743],[2.001,3.343,3.16,1.24,1.932,-45.896,5.099,4.192,3.022,1.6,12.397,6.467,5.974,3.443,4.412,52.576,24.904,19.647,13.895,11.424,99.163,47.814,37.628,25.135,19.468,199.991,101.19,68.83,47.304,38.032],[5.215,1.053,1.736,1.858,0.504,-17.24,6.829,3.216,3.005,2.557,21.696,4.942,5.381,4.132,2.54,17.293,23.346,-8914.926,11.483,10.507,102.313,48.185,35.336,24.182,20.73,189.289,99.33,69.361,51.577,38.591],[-2.018,1.912,1.607,6.05,0.321,10.8,5.473,4.894,1.744,4.001,14.873,8.396,5.745,3.162,4.535,54.5,24.421,18.584,14.721,11.249,155.17,52.656,34.275,24.226,20.155,197.061,99.407,-116.44,51.958,38.698]],
"kep": [[-19.009,6.248,7.715,10.283,29.924,-13.239,14.34,32.389,31.791,24.583,2.682,20.711,35.039,20.852,35.403,56.723,83.896,94.154,108.374,106.01,135.512,163.037,181.597,207.206,210.583,259.631,314.87,359.393,355.117,424.741],[-67.84,9.979,19.419,23.71,17.917,-61.983,33.125,20.031,18.902,23.132,-68.516,35.204,30.337,23.816,25.524,-66.323,45.892,49.143,50.05,46.661,-31.049,82.615,74.201,67.903,63.691,2.035,165.51,142.462,114.867,116.813],[-91.707,-6.685,26.287,34.769,25.923,-92.022,6.57,44.133,44.437,29.615,-87.711,-15.713,47.381,31.829,28.818,-78.722,7.877,65.235,51.892,36.882,-70.933,21.101,107.826,71.183,58.678,-52.451,83.101,137.777,103.485,98.417],[-94.724,-57.875,26.866,48.227,33.164,-97.422,-41.851,42.337,54.177,33.609,-86.059,-57.746,30.061,37.33,49.201,-89.391,-55.813,61.128,73.78,66.987,-80.07,-36.584,76.316,100.528,68.327,-81.209,3.983,106.843,109.297,95.734],[-98.064,-71.037,-19.268,50.459,53.149,-98.655,-82.771,-20.37,50.94,60.628,-101.024,-94.031,-39.569,50.258,50.602,-96.504,-69.862,-33.122,53.924,65.781,-90.356,-60.805,5.51,90.058,72.676,-81.708,-83.846,34.648,135.743,129.044],[-96.575,-98.611,-58.719,14.538,60.873,-98.528,-89.773,-76.793,19.354,78.402,-99.721,-80.976,-89.452,33.047,65.211,-95.236,-81.74,-59.44,37.703,94.718,-93.326,-80.073,-35.793,52.888,100.637,-87.229,-52.825,-54.277,86.757,98.386]],
"vp": [[2429.704,1366.37,1396.364,1434.334,1218.025,451.099,230.083,305.637,298.508,231.497,241.142,94.709,132.036,87.981,121.65,29.141,7.876,26.214,33.789,27.804,18.966,12.278,8.285,13.847,10.546,11.939,6.891,3.894,4.665,3.751],[5136.545,4333.819,3363.323,4756.102,4343.996,1117.678,852.007,738.144,674.805,878.562,567.332,448.424,385.78,385.947,480.636,130.554,92.66,93.579,89.797,73.357,43.447,42.57,31.977,36.126,32.743,33.583,25.248,17.601,14.128,19.058],[7103.648,8258.117,6735.636,7159.937,6609.57,1482.861,1811.566,1501.061,1471.864,1298.7,755.501,898.349,680.795,625.767,620.579,136.187,221.274,138.142,130.698,118.424,72.35,76.379,84.536,57.544,53.412,33.405,38.103,34.841,28.685,29.26],[7719.169,12657.178,10767.651,9232.283,7707.667,1681.228,1974.815,2332.429,1955.619,1854.356,776.402,1120.178,1258.469,763.384,1042.568,158.516,197.338,225.179,204.217,201.035,75.697,105.061,133.349,112.59,82.449,36.801,56.405,58.129,45.687,37.892],[8607.494,11501.249,13665.405,13297.565,12205.398,1555.635,2552.403,2940.192,2751.43,2460.087,937.692,1364.732,1348.224,1451.46,1165.995,176.169,253.107,246.542,177.224,212.473,81.877,122.089,141.984,109.436,104.71,41.008,71.219,64.299,75.464,58.779],[8414.025,15610.289,15259.739,16556.668,12800.401,1794.922,2986.835,3242.265,3515.176,3494.927,950.417,1415.329,1773.937,1185.543,1582.197,172.193,264.146,333.482,325.497,328.592,85.721,137.658,197.038,177.457,138.602,44.054,63.476,80.82,84.782,65.073]]
}