{
"KTrans": [[-40.84,-54.114,-49.349,-50.321,-53.675,-15.457,-28.464,-28.453,-24.757,-30.35,-0.332,-21.808,-26.412,-23.684,-19.243,21.01,4.022,4.122,17.074,10.467,82.191,40.489,47.983,26.96,42.56,208.022,121.391,85.483,129.377,120.292],[-46.905,-37.549,-41.853,-47.778,-46.031,-31.947,-29.876,-14.808,-24.196,-32.209,-28.807,-23.658,-8.614,-19.707,-26.353,-7.624,2.607,-3.698,-9.165,-9.496,20.037,50.866,12.809,15.151,7.207,98.433,93.635,46.853,16.576,9.34],[-43.707,-43.583,-36.016,-44.069,-39.956,-37.785,-27.129,-26.674,-22.252,-20.558,-43.793,-27.706,-23.163,-27.455,-10.595,-30.985,-25.548,-11.549,-4.449,-5.904,-10.22,-6.742,15.055,25.93,3.574,41.79,95.41,74.208,12.956,-2.676],[-53.107,-35.401,-35.897,-36.106,-40.295,-56.534,-41.46,-24.788,-26.983,-35.403,-52.57,-35.179,-20.261,-19.151,-23.926,-40.883,-13.537,-12.598,-13.473,-15.025,-29.816,8.248,-9.662,-1.204,2.815,12.097,61.31,52.405,50.224,36.395],[-69.58,-36.889,-38.155,-38.37,-43.225,-67.272,-37.533,-27.211,-19.706,-21.326,-65.263,-34.825,-24.783,-25.006,-16.839,-58.565,-19.063,-16.676,-14.771,-11.032,-37.733,-3.835,-12.025,-6.946,2.184,-27.315,25.029,39.653,20.381,17.544],[-76.39,-39.98,-37.165,-33.65,-40.241,-74.207,-34.838,-29.65,-32.474,-26.26,-72.297,-38.368,-32.469,-30.866,-18.901,-66.475,-32.669,-13.55,-17.892,-9.73,-54.614,-6.233,-11.795,-0.593,-19.935,-43.027,-2.13,12.428,4.136,-0.296]],
"ve": [[-104.595,-24.325,19.444,-5.051,-2.797,237.522,-12.042,-1.91,-1.93,0.489,-366.53,0.035,6.34,0.08,-8.867,21.701,-0.674,35.572,-168.389,-389.473,91.578,51.389,-13.747,-207.513,-85.958,263.007,57.937,9.701,45.035,-18.634],[-117.139,-57.66,-66.496,-34.28,-26.871,-80.197,-45.202,-19.163,-16.814,-19.075,-76.362,-36.068,-8.689,-13.119,-15.261,-41.279,-1.169,-4.056,-7.22,-3.769,38.574,88.485,0.357,-17.562,-5.279,389.044,117.791,67.297,16.852,-35.548],[-106.948,-107.186,-60.212,-55.942,-39.881,-105.039,-65.146,-43.111,-28.109,-20.137,-97.726,-67.763,-39.749,-35.2,-10.737,-45.555,-58.625,-18.79,-10.574,-3.652,71.984,-12.816,13.557,26.125,-6.056,246.024,247.372,163.341,42.478,4.415],[-87.491,-107.218,-78.647,-61.886,-55.967,-113.225,-127.131,-52.688,-46.242,-49.766,-86.475,-107.094,-46.083,-33.861,-34.131,-18.047,-46.868,-34.657,-25.139,-25.536,81.013,-28.467,-31.128,-8.899,-1.612,265.441,125.633,87.731,73.189,31.485],[-74.089,-125.462,-106.843,-83.991,-76.458,-94.425,-126.548,-73.839,-41.476,-36.133,-63.799,-117.135,-66.571,-51.222,-27.617,1.625,-48.024,-48.509,-38.26,-24.162,57.353,-16.175,-43.725,-21.446,-4.935,282.377,135.263,86.527,25.974,13.428],[-52.232,-130.6,-114.803,-80.477,-87.048,-47.799,-84.222,-86.515,-84.207,-55.407,-52.725,-147.519,-98.423,-79.486,-37.45,40.189,-129.214,-51.411,-42.758,-22.028,83.077,7.215,-68.071,-11.278,-51.374,357.895,12.395,40.465,-1.843,-21.318]],
"kep": [[-133.605,4.696,-0.067,-2.239,-5.352,-122.345,3.05,-1.791,-2.832,4.14,-111.077,-4.957,-2.738,4.181,0.756,0.234,-21.442,-4.887,-20.611,-17,9.366,-75.721,-44.581,-9.924,-24.945,-0.59,-144.671,-92.754,-103.277,-91.792],[-10.446,1.813,-128.831,6.391,-0.647,-6.473,-2.423,-113.179,-1.163,1.141,-6.945,-4.426,-117.447,-0.606,-2.317,-8.383,-13.024,-25.793,-17.175,-6.083,-31.688,-49.246,58.729,-72.955,-29.544,-54.357,23.162,22.217,-93.382,-48.333],[-18.917,-0.509,1.002,2.776,-138.791,-16.151,-0.576,-2.573,-1.65,-112.222,-21.457,-0.906,1.89,-0.017,-97.375,-41.832,-5.508,-1.125,-2.712,-28.577,-53.131,-4.972,-12.659,-28.734,49.071,-57.006,-31.238,-55.853,14.926,57.887],[-35.36,-4.765,-1.481,-1.111,-0.576,-37.549,-5.516,-2.797,-1.715,0.351,-37.042,-3.42,-0.464,0.469,0.469,-56.089,-1.081,-0.169,0.063,3.472,-68.713,-3.82,-2.519,-2.208,0.239,-65.472,-27.327,-24.344,-31.429,5.824],[-56.209,-8.276,-1.787,-1.189,-1.259,-53.964,-8.787,-2.514,-1.431,-1.66,-55.87,-7.995,-3.089,-3.329,-1.774,-68.947,-10.166,-2.707,1.824,3.304,-67.451,-21.063,-2.339,0.638,2.965,-75.488,-46.488,-27.059,-9.251,-3.917],[-69.02,-12.547,-5.374,-4.174,-0.329,-66.131,-15.486,-5.033,-1.377,-0.458,-66.051,-10.334,-4.292,-1.865,-2.916,-79.312,-12.909,0.797,-2.17,-0.836,-75.058,-35.705,3.286,1.275,1.288,-85.952,-41.073,-30.899,-9.624,4.518]],
"vp": [[-21.118,-5.301,23.188,-9.229,-83.59,-2.752,20.979,-3.177,-6.777,11.412,5.71,-2.743,-13.777,2.378,-11.765,-13.833,3.106,9.416,-4.248,1.346,-22.408,-0.644,-5.051,15.383,3.137,-18.202,-1.549,4.78,-2.567,0.29],[381.457,144.157,-55.766,15.953,22.426,78.452,11.63,-0.314,9.502,-9.429,12.097,-0.457,1.556,13.032,-0.489,-1.754,2.448,-7.16,3.322,3.454,-11.933,3.971,-15.233,-19.039,-7.36,-17.135,-32.997,-20.071,4.476,4.771],[1151.818,156.931,134.303,-52.672,32.846,193.112,11.896,17.41,16.122,16.689,149.144,18.768,-0.311,-6.729,-0.589,26.407,15.9,25.118,-15.506,-14.792,5.914,-7.322,5.082,4.816,-16.996,-16.806,-24.288,-8.415,-11.302,-4.245],[2183.77,550.317,392.688,212.44,93.679,426.503,94.297,96.222,29.473,4.967,234.923,69.072,24.675,10.832,-9.632,45.214,16.669,-10.88,6.804,-22.481,15.345,3.096,2.032,-5.982,-7.741,-13.357,-11.606,-17.771,-9.829,-16.005],[4183.16,951.457,369.073,212.47,161.948,780.517,188.333,80.656,85.18,81.812,364.877,93.138,47.889,53.213,49.168,72.866,23.927,-8.68,-11.548,-9.679,3.652,-5.926,-3.609,5.72,-16.058,6.37,-12.111,-8.562,-1.28,-10.567],[4624.56,1912.472,754.893,779.551,295.727,842.17,374.458,198.698,116.959,96.839,439.503,138.144,98.482,35.964,41.102,84.212,36.453,19.863,8.139,-5.71,25.646,8.323,17.209,6.038,-6.255,9.005,6.738,-8.072,13.905,0.267]]
}