{
"KTrans": [[2.61,1.63,1.325,1.178,1.092,12.719,7.905,6.414,5.692,5.27,26.088,16.072,13.004,11.531,10.669,161.985,94.335,75.114,66.124,60.958,404.634,224.516,176.189,154.03,141.427,1132.627,592.561,456.224,395.453,361.409],[2.709,1.379,0.975,0.786,0.677,11.478,5.973,4.26,3.442,2.968,22.954,11.866,8.445,6.816,5.874,135.398,65.017,45.162,36.021,30.848,327.635,146.454,99.092,78.068,66.376,886.343,359.353,233.905,180.626,151.734],[3.204,1.531,1.022,0.785,0.65,11.842,5.893,4.025,3.129,2.61,23.138,11.477,7.844,6.101,5.089,133.478,61.439,40.959,31.475,26.084,321.389,137.049,88.8,67.253,55.23,866.491,332.703,205.99,152.195,123.17],[3.759,1.757,1.138,0.849,0.686,12.4,6.045,4.045,3.082,2.523,23.691,11.533,7.734,5.909,4.844,133.94,60.485,39.642,29.947,24.391,322.369,134.372,85.466,63.57,51.299,869.255,324.836,196.977,142.735,113.307],[4.314,2.015,1.283,0.941,0.747,12.988,6.275,4.145,3.121,2.524,24.325,11.722,7.78,5.879,4.768,135.012,60.3,39.147,29.281,23.633,324.48,133.592,84.066,61.92,49.486,876.813,322.191,193.011,138.357,108.737],[4.847,2.287,1.445,1.048,0.823,13.555,6.537,4.284,3.199,2.566,24.965,11.973,7.889,5.917,4.768,136.405,60.446,38.971,28.989,23.25,327.277,133.524,83.451,61.069,48.5,881.516,321.672,191.147,136.171,106.208]],
"ve": [[0.776,0.032,-0.391,-0.733,-1.044,4.117,0.524,-1.433,-2.96,-4.311,8.395,1.352,-2.369,-5.206,-7.642,44.939,13.002,-1.685,-11.449,-18.882,93.008,33.091,7.82,-7.633,-18.575,191.348,78.745,34.985,10.127,-6.397],[0.938,0.421,0.228,0.115,0.033,4.871,2.276,1.327,0.785,0.403,9.795,4.606,2.715,1.641,0.889,49.378,23.547,14.241,9.045,5.483,99.096,47.698,29.358,19.259,12.459,198.814,96.72,60.797,41.378,28.63],[0.945,0.444,0.271,0.179,0.118,4.919,2.394,1.527,1.07,0.776,9.89,4.835,3.1,2.188,1.604,49.725,24.455,15.802,11.278,8.396,99.602,49.136,31.888,22.907,17.214,199.469,98.743,64.462,46.712,35.549],[0.946,0.448,0.281,0.195,0.14,4.932,2.423,1.575,1.141,0.872,9.915,4.892,3.196,2.327,1.788,49.817,24.694,16.21,11.874,9.192,99.745,49.52,32.576,23.93,18.589,199.662,99.308,65.507,48.292,37.702],[0.947,0.449,0.283,0.2,0.148,4.937,2.433,1.593,1.168,0.908,9.925,4.914,3.232,2.38,1.859,49.855,24.788,16.371,12.109,9.505,99.802,49.679,32.853,24.339,19.142,199.746,99.533,65.934,48.947,38.596],[0.948,0.448,0.284,0.201,0.151,4.94,2.437,1.601,1.18,0.924,9.932,4.924,3.249,2.405,1.892,49.879,24.836,16.45,12.224,9.658,99.837,49.757,32.988,24.541,19.416,199.785,99.655,66.146,49.274,39.046]],
"kep": [[1.82,1.598,1.723,1.926,2.158,8.262,7.343,7.96,8.916,10.013,16.323,14.524,15.746,17.656,19.826,80.756,71.974,78.115,87.603,98.426,161.458,143.831,156.159,175.025,196.502,323.078,287.457,312.065,349.892,392.947],[1.754,0.955,0.746,0.67,0.643,6.3,3.614,2.894,2.636,2.554,11.986,6.94,5.579,5.092,4.94,57.585,33.566,27.066,24.738,24.046,114.789,66.864,53.908,49.312,47.943,230.087,133.506,107.657,98.494,95.704],[2.238,1.082,0.749,0.605,0.531,6.598,3.417,2.46,2.037,1.82,12.056,6.336,4.602,3.829,3.43,55.938,29.716,21.724,18.15,16.318,111.114,58.948,43.152,36.081,32.433,222.735,117.72,86.056,71.898,64.642],[2.787,1.303,0.854,0.653,0.545,7.118,3.537,2.431,1.919,1.637,12.533,6.331,4.398,3.5,3.002,56.15,28.703,20.163,16.155,13.92,111.454,56.75,39.894,31.986,27.583,223.449,113.156,79.435,63.687,54.904],[3.336,1.559,0.997,0.74,0.598,7.672,3.751,2.512,1.93,1.602,13.1,6.489,4.406,3.418,2.856,56.826,28.458,19.571,15.317,12.901,112.451,56.062,38.549,30.225,25.468,225.879,111.59,76.583,60.028,50.608],[3.863,1.831,1.158,0.845,0.671,8.209,4.003,2.64,1.995,1.627,13.675,6.718,4.494,3.43,2.822,57.73,28.526,19.34,14.939,12.395,113.813,55.935,37.945,29.331,24.355,227.406,111.2,75.236,58.213,48.301]],
"vp": [[11.569,11.372,11.452,11.175,11.078,12.621,11.73,11.167,11.116,11.031,12.681,11.634,11.454,11.032,10.991,12.927,11.783,11.508,11.165,10.962,12.89,11.505,11.151,11.024,11.005,12.843,11.684,11.356,11.299,10.99],[-5.58,6.215,9.188,10.303,10.882,12.524,12.569,12.029,11.915,11.715,14.676,13.256,12.328,12.147,11.966,16.355,13.558,12.792,12.422,11.939,16.715,13.855,12.567,12.436,11.805,16.941,13.958,12.92,12.211,11.702],[-52.978,-12.85,-1.012,4.22,6.745,4.89,10.117,11.38,11.553,11.458,11.879,12.926,12.674,12.554,12.274,17.973,15.19,14.301,13.129,12.745,19.403,15.546,13.93,13.331,12.558,19.448,15.776,14.172,13.516,12.82],[-130.133,-46.486,-20.714,-8.766,-2.179,-8.078,4.607,7.991,9.605,10.488,6.906,11.445,11.818,12.043,12.397,18.801,16.521,14.87,14.059,13.313,21.16,16.7,15.235,14.338,13.498,22.868,17.604,15.458,14.289,13.767],[-237.852,-95.8,-50.257,-28.941,-16.714,-28.762,-3.976,3.179,6.656,8.497,-2.515,7.532,9.661,11.187,11.182,19.707,16.438,15.619,14.722,14.173,23.582,18.189,15.95,14.958,14.359,26.595,18.591,16.317,15.343,14.292],[-376.214,-158.181,-89.25,-56.065,-37.129,-55.69,-15.718,-3.695,1.728,4.602,-13.444,2.358,7.063,8.937,10.054,19.217,16.751,15.253,15.011,14.441,25.769,18.945,16.896,15.96,15.065,31.061,19.99,17.37,16.108,14.949]]
}