{
"KTrans": [[0.544,3.923,3.747,1.4,3.599,16.095,9.743,9.47,7.108,6.691,26.561,18.356,15.933,14.19,11.964,147.187,91.346,73.39,69.138,63.146,352.931,221.877,169.615,154.721,146.685,792.353,545.531,420.63,374.646,352.404],[-5.42,-1.444,1.694,0.22,1.951,-3.807,3.737,3.064,3.841,4.266,7.727,7.462,6.426,8.07,7.024,104.32,54.829,40.515,36.516,31.834,216.705,130.276,94.725,79.613,65.959,339.484,308.908,211.944,171.399,144.732],[-21.971,-3.818,-1.459,-0.64,0.179,-11.531,-3.128,-0.42,1.626,2.484,-9.614,5.988,3.721,5.406,4.64,49.964,44.93,33.444,27.996,24.157,113.5,109.095,74.207,62.506,51.086,-73.989,300.641,183.337,140.873,110.124],[-32.25,-8.374,-4.742,-2.81,-1.278,-24.623,-5.327,-1.902,0.235,-0.258,-19.467,1.486,1.49,1.434,2.971,19.708,34.477,28.385,24.297,20.301,28.978,96.528,71.324,54.367,44.832,-3.298,233.27,174.832,125.853,103.066],[-40.163,-14.11,-6.907,-3.969,-3.043,-33.277,-6.738,-4.352,-1.828,-0.962,-35.607,-3.298,-1.665,-0.127,0.349,5.244,32.213,24.636,22.502,18.133,27.214,94.304,58.625,50.735,39.956,-5.217,188.907,154.041,103.723,101.263],[-48.46,-16.988,-9.187,-5.886,-3.615,-46.229,-9.243,-7.325,-4.404,-2.186,-44.585,-7.106,-2.957,-1.289,-1.225,-27.291,24.712,17.858,17.932,16.38,-32.4,83.015,56.689,40.758,37.998,-42.524,162.659,141.12,108.007,89.354]],
"ve": [[2.248,2.999,4.907,12.235,11.407,7.888,4.346,3.302,5.871,8.025,8.274,4.236,2.095,1.724,3.684,44.791,14.618,0.932,-8.143,-14.479,94.478,35.058,9.487,-5.876,-16.754,198.535,79.659,36.612,12.759,-4.351],[2.691,-0.652,0.82,0.963,1.697,5.466,2.217,1.415,2.015,1.543,10.45,4.309,3.069,2.387,1.724,49.939,22.622,14.137,9.471,6.484,99.05,47.04,29.196,19.852,12.732,190.245,97.199,61.774,41.881,29.011],[0.715,0.727,-0.027,0.346,0.479,4.779,2.002,0.992,1.247,0.883,10.597,4.126,2.661,2.306,1.96,49.293,23.653,15.443,11.617,8.645,100.653,48.961,30.921,22.49,17.393,-8.591,99.074,63.108,46.479,35.069],[2.444,-0.384,-0.322,-0.105,-0.317,5.082,2.023,0.683,0.693,0.626,9.705,4.772,2.363,1.853,1.382,48.209,23.742,15.615,11.44,8.839,95.274,48.403,32.04,23.455,18.115,192.925,101.203,65.203,48.512,37.744],[0.792,-0.938,-0.067,-0.453,-0.408,6.126,1.925,0.841,0.836,0.205,11.33,3.747,2.364,1.306,1.417,36.593,23.735,15.434,11.397,8.954,104.533,48.667,31.567,23.624,18.297,197.256,98.348,64.514,47.676,38.771],[1.846,-0.85,-0.552,-0.551,-0.4,3.168,1.76,0.702,0.372,0.253,11.749,4.353,2.554,1.378,1.148,51.08,23.682,15.476,11.297,9.241,96.847,49.247,31.809,23.411,19.002,194.871,98.121,64.76,48.36,38.654]],
"kep": [[-9.188,-6.583,-7.616,-13.929,-10.626,-0.136,-2.159,-1.319,-3.854,-5.711,8.337,5.109,5.754,5.016,2.637,56.834,53.635,58.38,70.506,77.015,113.246,118.521,126.454,149.061,173.285,175.522,228.576,249.64,286.786,335.468],[-15.17,-8.906,-7.386,-8.887,-7.97,-16.176,-6.872,-6.727,-6.593,-5.745,-10.14,-5.428,-5.237,-3.141,-3.418,24.477,15.804,12.881,14.435,13.626,45.051,43.255,38.105,37.426,35.031,33.531,88.774,76.211,75.157,73.908],[-28.922,-12.309,-9.592,-9.182,-8.581,-22.297,-12.839,-9.561,-7.957,-6.825,-24.942,-6.655,-7.347,-5.499,-5.875,-8.242,7.376,5.96,5.111,4.775,-2.803,28.163,21.835,21.57,17.986,-89.91,82.834,58.531,50.448,42.49],[-39.126,-15.572,-12.362,-10.794,-9.201,-34.223,-14.904,-10.653,-8.71,-9.118,-32.672,-11.126,-9.086,-8.679,-6.874,-26.639,-0.333,1.774,2.227,1.341,-40.672,20.801,18.691,14.591,12.36,-69.052,51.22,51.435,39.002,34.962],[-46.224,-20.487,-14.554,-11.549,-10.743,-42.411,-15.955,-13.024,-10.739,-9.386,-46.949,-14.456,-11.933,-9.578,-9.278,-36.178,-2.106,-1.062,0.796,-0.615,-42.08,19.124,10.304,11.677,8.394,-69.888,31.823,40.489,26.111,32.653],[-53.513,-23.19,-16.267,-13.234,-11.276,-53.588,-18.209,-15.638,-12.664,-10.547,-54.362,-18.298,-13.208,-10.72,-10.457,-56.267,-7.721,-6.494,-2.883,-2.353,-68.932,11.659,8.631,4.402,6.244,-80.622,18.99,33.043,28.097,24.956]],
"vp": [[-240.239,183.519,319.11,80.12,57.158,46.54,28.053,-18.701,-28.851,-9.187,17.269,7.214,-11.021,4.608,-2.499,-12.684,3.694,-7.946,-1.109,-7.196,-8.329,2.173,-9.39,-1.636,2.505,-6.322,-1.587,-4.558,2.519,4.672],[1986.409,823.365,257.12,-16.726,86.735,372.811,144.431,-34.435,9.651,-5.638,168.177,22.139,-5.568,-30.6,-4.108,31.551,-2.212,-4.752,10.894,2.246,7.639,-5.3,-4.258,7.951,0.987,0.65,-3.819,-5.472,0.448,-8.16],[4080.575,1301.122,562.222,636.746,-105.041,812.523,109.508,71.373,101.083,-8.617,429.525,167.425,56.728,71.834,1.866,60.713,24.959,-1.405,9.209,0.313,28.084,7.496,-14.359,-7.329,-6.226,17.832,8.296,-5.237,-5.478,-15.676],[5389.011,2384.317,844.299,-306.867,380.739,1066.361,419.708,164.377,94.394,92.849,506.129,294.079,109.524,3.601,37.486,98.163,29.233,8.999,7.105,3.341,44.794,15.379,8.569,4.936,-6.639,20.779,14.76,7.432,5.219,-0.721],[6434.556,4039.412,1504.009,544.493,425.027,1350.204,818.07,410.827,277.132,98.893,624.639,389.437,99.386,31.432,70.598,130.292,68.093,30.848,20.274,7.812,54.952,45.058,4.654,7.047,4.511,19,8.727,-0.981,-12.273,14.326],[7022.978,5123.916,2402.229,467.368,531.345,1395.757,1147.204,378.416,268.18,66.734,667.965,661.681,283.753,81.96,35.418,131.963,113.216,18.689,19.948,19.105,62.378,50.829,21.36,3.093,13.51,19.159,21.272,3.714,-2.37,3.984]]
}