{
"KTrans": [[1.506,6.017,6.17,6.743,7.706,5.712,9.332,12.715,9.396,13.752,22.98,19.74,19.787,19.283,19.058,125.55,90.799,76.876,69.556,69.382,319.09,200.645,170.887,155.884,143.178,733.991,491.657,418.215,365.214,346.521],[-25.274,-5.62,-0.59,1.044,4.14,-14.634,-0.298,1.306,5.191,6.508,-6.466,3.643,6.531,7.392,7.289,49.082,45.306,40.081,35.338,31.764,131.607,104.707,80.036,71.37,64.183,329.928,231.661,184.248,157.366,141.156],[-38.03,-12.879,-6.057,-4.82,-0.184,-34.268,-9.943,-3.032,0.317,1.646,-29.417,-7.909,-0.162,2.859,3.821,15.652,28.162,26.534,24.04,23.215,85.476,70.474,60.484,54.183,46.002,202.943,172.684,133.771,114.77,102.111],[-49.3,-19.195,-11.843,-6.023,-4.652,-47.625,-19.909,-10.637,-6.22,-1.752,-35.172,-14.677,-8.566,-4.143,-0.036,-7.221,9.218,15.46,15.078,15.763,40.78,51.969,45.14,39.625,36.832,123.505,125.765,112.94,92.662,84.411],[-56.671,-27.04,-15.996,-9.59,-7.946,-52.367,-25.262,-13.95,-9.602,-6.42,-50.173,-21.66,-13.326,-8.462,-4.667,-23.813,0.03,6.432,9.486,9.505,12.502,37.911,30.793,30.242,29.898,84.863,103.714,87.987,81.336,70.467],[-64.989,-33.78,-20.673,-16.112,-11.011,-61.367,-30.962,-20.097,-12.268,-9.531,-59.405,-29.683,-18.62,-11.324,-8.508,-36.417,-7.575,-1.735,3.691,4.238,-2.847,18.31,22.172,24.594,23.758,45.922,67.627,72.886,67.506,59.275]],
"ve": [[3.362,10.571,24.006,32.471,25.544,8.379,9.652,13.706,44.631,29.182,13.185,9.217,12.412,22.029,22.038,45.366,16.093,6.073,-2.489,-9.908,93.181,34.866,11.1,-3.752,-13.967,187.859,78.244,36.219,11.316,-4.298],[0.03,0.247,1.938,2.438,3.718,2.176,1.998,2.63,3.052,3.766,9.91,4.177,2.83,3.787,5.6,44.451,22.994,13.567,10.892,8.334,97.993,44.723,29.189,19.785,14.954,190.724,92.99,58.899,41.06,29.71],[-0.646,-1.718,-0.825,0.414,0.23,2.511,0.522,0.398,0.352,0.991,8.749,3.422,1.162,0.89,2.435,48.676,21.513,14.318,10.699,8.763,94.714,46.081,29.225,21.761,16.649,192.647,96.331,61.372,45.428,34.376],[-1.563,-1.588,-1.85,-1.799,-1.079,3.365,-0.675,-0.526,-0.296,-0.369,8.881,2.396,1.412,0.727,0.882,47.268,21.088,13.723,10.056,8.266,96.193,45.326,29.224,22.236,17.449,192.966,94.176,62.795,46,36.007],[1.631,-2.371,-2.223,-1.79,-1.275,2.26,-0.312,-0.655,-0.723,-0.666,10.593,2.249,0.665,-0.051,0.07,46.432,21.303,13.814,9.664,7.652,94.963,45.959,29.859,21.94,17.101,194.986,94.867,61.946,45.473,35.835],[1.147,-2.049,-2.25,-2.123,-1.727,4.323,0.235,-0.92,-1.522,-0.664,10.487,2.192,0.708,0.187,-0.352,47.209,23.349,13.291,9.509,7.612,104.907,45.849,29.197,21.52,17.281,195.088,94.251,62.18,45.931,35.895]],
"kep": [[-20.023,-20.468,-25.957,-30.231,-32.559,-21.324,-18.707,-17.098,-28.228,-19.253,-12.585,-11.489,-11.342,-11.99,-15.515,23.758,31.294,33.815,39.601,52.121,71.618,76.521,93.671,111.432,125.118,128.86,162.346,200.92,230.316,269.107],[-40.688,-25.529,-22.819,-22.063,-20.594,-33.847,-22.605,-21.885,-19.336,-18.883,-32.482,-21.323,-18.119,-18.231,-19.71,-18.111,-6.636,-2.606,-3.663,-3.965,-7.498,11.744,10.026,12.915,12.682,16.696,35.509,41.02,43.91,46.606],[-50.531,-30.029,-25.268,-25.205,-21.416,-48.996,-29.212,-23.801,-21.158,-20.606,-48.202,-29.721,-22.075,-19.578,-20.052,-38.318,-16.664,-12.682,-11.616,-10.664,-24.758,-7.889,-2.068,-0.16,-1.313,-18.399,9.441,14.134,16.429,18.554],[-59.075,-35.19,-29.136,-24.537,-24.009,-59.706,-36.335,-29.126,-25.812,-22.26,-52.917,-34.173,-28.88,-24.961,-21.886,-50.057,-28.849,-19.937,-17.546,-15.697,-43.244,-17.533,-11.404,-9.957,-8.132,-39.889,-8.356,3.048,3.985,6.866],[-66.021,-40.879,-32.292,-27.383,-26.513,-63.034,-40.732,-31.69,-28.222,-25.727,-64.2,-39.506,-32.063,-27.771,-24.91,-58.827,-34.899,-26.271,-21.304,-19.798,-54.371,-25.515,-20.596,-15.813,-12.568,-50.545,-17.649,-8.52,-1.767,-1.125],[-72.517,-46.628,-35.955,-32.423,-28.607,-70.674,-45.669,-36.378,-29.772,-28.204,-70.173,-45.678,-36.244,-30.226,-27.588,-65.758,-40.8,-31.606,-25.353,-23.635,-60.449,-35.975,-25.443,-19.186,-16.819,-60.996,-32.019,-16.015,-9.553,-7.632]],
"vp": [[277.086,-124.242,70.348,-12.752,2.282,-120.929,-38.51,59.465,-23.931,-28.937,6.142,-28.175,41.453,38.288,10.093,-7.996,-6.7,4.824,-17.375,-7.244,-2.259,-6.636,-4.771,-5.952,-4.987,-6.416,-9.09,-3.542,-9.949,-4.888],[2036.381,1170.74,11.985,-1058.477,476.267,446.705,243.507,68.326,-23.17,-7.294,266.811,101.361,-28.246,-27.035,5.628,33.906,22.189,-8.738,-6.359,-8.595,20.625,2.844,-7.763,-9.917,-5.387,3.587,-4.301,-8.995,-6.46,-4.783],[4500.978,2295.511,1303.452,637.16,-114.483,845.701,295.076,252.781,149.271,-4.721,430.308,183.874,113.196,98.973,-31.782,76.511,32.626,22.303,0.131,-7.327,35.9,22.641,5.992,6.461,-12.993,14.511,8.526,-6.557,-5.074,-5.218],[5453.99,4275.108,1836.574,1220.164,913.337,1132.71,780.419,228.807,273.659,174.468,637.206,375.459,198.571,81.002,78.27,103.657,48.121,28.887,1.102,13.374,51.513,30.904,10.658,8.347,3.287,15.3,13.221,7.016,-1.944,0.859],[6768.443,5802.18,2574.392,1769.913,635.155,1330.117,1106.43,606.85,289.377,124.09,660.953,686.286,279.326,140.741,86.507,119.242,103.375,48.594,36.655,11.169,57.943,55.195,24.34,1.918,4.56,28.956,23.817,8.745,-1.227,-1.655],[7508.593,7768.353,4019.592,2252.516,1203.407,1340.612,1391.126,806.064,482.099,338.732,701.18,755.661,359.285,222.377,139.852,133.916,142.215,62.635,42.209,18.053,65.306,71.622,28.693,21.199,9.445,29.606,32.652,20.076,6.043,-7.214]]
}