{
"KTrans": [[0.04,0.008,0.042,0.015,0.021,0.032,0.058,0.124,0.043,-0.033,-0.006,0.298,0.421,0.082,-0.158,1.49,-0.103,-0.743,-0.57,0.966,8.369,1.706,-0.063,3.521,-0.017,11.764,3.183,4.668,1.824,9.952],[-0.509,-0.054,0.007,0.015,0.025,-0.381,0.133,-0.057,0.063,0.006,0.204,0.009,-0.037,0.127,0.077,1.08,1.772,0.293,-0.618,0.45,5.292,-0.294,-0.346,1.576,-1.113,13.183,6.329,3.008,0.454,1.984],[-1.299,-0.5,-0.098,-0.031,-0.001,-1.177,-0.18,0.083,-0.053,0.018,-1.051,-0.339,-0.121,-0.009,0.038,4.797,0.058,0.238,0.017,0.126,9.107,0.168,-1.107,-1.311,1.331,2.637,2.353,0.854,1.741,-0.657],[-3.75,-0.842,-0.257,-0.135,-0.062,-1.645,-1.324,-0.413,-0.034,-0.066,-2.368,-0.38,-0.142,-0.146,0.01,11.464,-0.106,-0.095,-0.157,0.318,-19.151,1.411,1.926,0.518,0.293,-30.989,4.122,4.408,2.206,-0.314],[-2.184,-1.58,-0.524,-0.249,-0.171,3.948,-2.374,-0.507,-0.239,-0.212,-2.543,-0.722,-0.647,-0.259,-0.208,-33.704,1.543,-0.239,0.022,-0.115,-46.809,1.878,0.755,1.012,0.472,-58.47,14.233,2.755,4.312,-1.786],[-3.458,-1.562,-1.069,-0.417,-0.29,-4.01,-0.527,-0.965,-0.518,-0.235,-0.267,-2.32,-1.123,-0.313,-0.143,-53.299,-1.626,0.602,0.594,-0.33,-62.613,11.619,-0.815,0.014,0.791,-52.583,8.36,6.52,2.711,2.577]],
"ve": [[0.016,-0.017,-0.048,-0.073,-0.106,-0.016,-0.023,-0.071,-0.085,-0.064,-0.076,0.004,-0.132,-0.111,0.072,0.315,0.046,0.462,0.989,0.045,3.179,1.016,1.734,1.128,5.07,3.679,4.948,8.079,18.342,18.596],[-0.285,-0.023,0.001,-0.002,-0.006,-0.227,0.073,-0.04,0.011,-0.017,0.391,-0.013,-0.04,0.03,-0.002,0.041,0.96,0.028,-0.33,0.07,2.203,-0.684,-0.473,0.476,-0.397,5.046,2.553,0.93,-0.115,0.555],[-0.877,-0.207,-0.047,-0.01,-0.002,-0.756,-0.038,0.061,-0.029,0.003,-0.695,-0.151,-0.075,-0.008,0.007,2.394,-0.368,-0.009,-0.068,-0.003,-1.799,-0.419,-0.962,-0.973,0.586,-9.605,-0.688,-0.072,0.535,-0.652],[-1.988,-0.427,-0.132,-0.068,-0.017,-1.327,-0.665,-0.181,0.005,-0.032,-1.267,-0.19,-0.123,-0.086,0.006,2.332,-0.287,-0.196,-0.151,0.146,-14.748,1.402,0.911,0.119,0.021,-29.166,-0.366,2.447,1.04,-0.577],[-2.505,-0.823,-0.303,-0.135,-0.082,-0.847,-1.001,-0.225,-0.058,-0.107,-2.037,-0.366,-0.294,-0.138,-0.118,-23.086,0.624,-0.197,-0.068,-0.162,-34.939,-0.746,0.404,0.642,0.119,-39.456,2.292,2.095,3.253,-1.661],[-4.783,-1.013,-0.537,-0.239,-0.138,-4.512,-0.622,-0.414,-0.243,-0.106,-4.903,-1.416,-0.516,-0.211,-0.118,-40.025,-0.627,0.27,0.233,-0.313,-38.526,3.151,-1.4,-0.117,0.439,-22.761,0.444,4.448,1.553,1.921]],
"kep": [[0.116,0.117,0.183,0.18,0.22,0.132,0.172,0.29,0.225,0.13,0.129,0.379,0.652,0.304,-0.103,0.427,-0.213,-0.939,-0.936,1.821,2.277,0.148,-0.973,4.483,-1.098,-4.289,-2.787,1.024,-2.211,13.162],[-0.136,0.061,0.098,0.109,0.123,-0.068,0.149,0.074,0.143,0.115,-0.109,0.107,0.091,0.187,0.17,1.044,0.721,0.261,-0.248,0.436,2.727,-0.22,-0.118,0.968,-0.749,6.916,0.91,0.59,-0.279,1.03],[-0.391,-0.202,0.041,0.07,0.092,-0.411,-0.053,0.113,0.068,0.107,-0.315,-0.101,0.043,0.089,0.121,2.948,0.422,0.274,0.131,0.188,13.205,0.302,-0.349,-0.43,0.715,-30.56,1.658,-0.138,0.486,-0.393],[-2.055,-0.329,-0.034,0.026,0.047,-0.671,-0.583,-0.142,0.053,0.058,-1.641,-0.111,0.07,0.03,0.094,7.288,0.264,0.146,0.043,0.233,-28.804,0.216,0.929,0.363,0.238,-51.51,5.328,1.296,0.624,-0.123],[-1.304,-0.7,-0.132,-0.022,0.002,2.977,-1.327,-0.194,-0.091,-0.014,-2.385,-0.306,-0.267,-0.032,0,-28.531,0.967,0.03,0.149,0.112,-54.099,3.07,0.341,0.345,0.344,-64.797,14.959,0.585,0.672,-0.408],[-1.565,-0.562,-0.45,-0.087,-0.061,-2.684,0.099,-0.473,-0.187,-0.037,1.85,-0.961,-0.531,-0.014,0.066,-53.31,-1.117,0.406,0.429,0.053,-61.378,8.185,0.67,0.156,0.363,-64.038,4.794,2.344,1.027,0.489]],
"vp": [[-2.208,-2.085,-5.568,-4.966,-4.654,0.217,-0.785,-2.351,-0.402,0.671,0.802,-2.41,-4.412,-0.875,2.167,-0.699,0.971,2.341,1.992,-1.912,-3.656,-0.325,1.002,-3.347,0.883,-0.837,0.597,-1.06,0.456,-4.788],[31.162,6.187,-0.787,-2.733,-5.885,4.947,-3.152,2.838,-2.253,0.462,-4.67,0.302,1.303,-2.458,-1.724,-0.015,-4.521,-0.33,3.555,-1.804,-2.333,1.591,1.767,-2.812,3.651,-2.711,-2.849,-1.526,0.832,-1.659],[93.019,41.96,17.66,5.116,0.797,15.794,1.432,-3.892,2.851,-0.645,7.108,3.041,2.579,0.264,-0.696,-5.245,1.784,0.107,0.555,-0.136,2.037,0.938,3.248,4.605,-3.831,4.02,0.985,0.105,-1.252,2.069],[197.991,89.651,45.46,33.354,9.763,27.202,27.05,11.178,-0.327,3.978,12.086,4.034,4.54,3.997,-0.312,-4.752,1.222,1.33,1.295,-1.794,14.406,-3.307,-2.924,-0.549,-0.154,14.77,0.592,-4.07,-2.4,1.691],[252.444,168.901,100.296,62.6,47.589,19.838,38.825,14.035,4.031,12.009,19.411,7.572,8.954,6.086,6.696,46.472,-2.588,1.214,0.64,1.919,35.107,1.72,-1.4,-2.954,-0.633,19.359,-2.203,-3.633,-7.512,4.752],[484.746,212.042,166.833,107.169,76.604,89.84,27.697,24.894,20.345,11.735,50.828,28.92,15.511,9.683,7.428,80.014,1.931,-1.651,-1.783,3.578,37.88,-6.252,4.673,0.452,-2.464,14.698,-0.64,-7.31,-3.426,-5.599]]
}