{
"KTrans": [[-43.068,-17.575,-4.462,-0.955,-2.921,-34.039,-13.17,-4.753,-6.349,-7.661,-34.605,-8.969,-4.806,-7.408,-5.578,-39.942,-8.17,-10.109,0.438,-0.962,-44.581,-2.408,-5.079,-2.005,-1.255,-36.644,-11.579,-2.441,-4.317,-0.217],[-84.492,-49.081,-29.851,-12.546,-10.302,-88.243,-48.625,-16.545,-16.64,-13.438,-86.782,-48.065,-22.007,-20.746,-10.264,-82.905,-43.137,-22.18,-10.412,-10.366,-85.368,-46.935,-21.546,-12.884,-12.087,-87.293,-46.694,-14.162,-14.452,-13.365],[-96.013,-75.2,-42.203,-29.558,-18.985,-94.757,-69.282,-36.732,-23.267,-21.977,-93.198,-74.092,-42.83,-28.94,-19.979,-94.386,-65.318,-42.339,-24.674,-18.92,-93.681,-69.568,-42.82,-23.882,-17.707,-92.441,-67.713,-37.162,-27.981,-17.488],[-96.688,-80.185,-54.323,-41.947,-23.513,-96.333,-85.042,-57.412,-44.979,-27.537,-95.746,-80.427,-54.778,-34.844,-29.388,-95.308,-86.078,-58.909,-42.313,-29.93,-96.788,-81.3,-66.888,-44.071,-28.65,-95.05,-80.369,-64.746,-39.317,-28.131],[-99.354,-84.189,-70.324,-56.95,-34.936,-98.408,-85.755,-69.692,-58.916,-38.368,-99.358,-87.894,-73.615,-55.922,-38.834,-97.397,-86.03,-69.339,-56.097,-35.945,-99.248,-86.254,-63.314,-63.394,-40.316,-98.006,-88.475,-75.729,-59.596,-33.017],[-99.065,-95.316,-79.72,-67.43,-48.563,-99.759,-90.564,-83.006,-70.493,-54.636,-98.365,-92.727,-81.334,-69.472,-55.103,-100.871,-88.468,-82.685,-68.908,-52.663,-97.91,-91.615,-75.751,-69.591,-58.783,-100.85,-92.478,-82.116,-67.402,-56.77]],
"ve": [[-11.344,21.279,22.823,-122.415,21.387,-16.873,58.577,-3.363,63.179,-181.728,-196.781,8.568,5.828,59.354,23.48,7.979,-2.743,-39.601,74.508,-13261.445,8.312,-37.826,-27.796,-37.051,-75.236,1.949,-37.604,33.698,41.523,2.133],[-38.824,-30.356,-14.572,-6.499,-1.401,-41.56,-33.056,-9.135,-6.743,-3.43,-55.13,-11.126,-32.994,-6.228,-1.172,35.263,-20.84,-10.252,-3.545,-2.793,-46.512,-26.314,-9.695,-5.268,-2.432,-46.538,-32.155,-8.728,-5.197,-0.573],[-81.26,-48.99,-25.509,-19.141,-11.869,-64.065,-46.001,-22.546,-18.168,-12.597,-36.449,-52.345,-26.509,-18.743,-11.664,-76.314,29.632,-26.956,-15.667,-11.241,-80.82,-51.781,-29.743,-41.19,-9.429,-31.373,-47.443,-31.516,-17.298,-10.005],[-101.317,-67.448,-36.199,-28.522,-21.68,-65.062,-63.838,-40.303,-28.531,-23.481,-75.789,-55.267,-47.552,-27.605,-22.206,-89.153,-75.367,-42.356,-28.512,-18.769,-103.369,-15.02,-38.447,-29.486,-17.646,-84.985,-68.379,-41.704,-27.538,-19.724],[-120.422,-70.667,-46.612,-44.356,-27.464,-93.182,-62.093,-52.107,-39.334,-28.826,-89.356,-74.583,-47.904,-41.327,-28.972,-64.7,-70.388,-52.74,-43.97,-26.729,-110.261,-71.346,-46.009,-45.785,-29.926,-102.654,-67.07,-61.09,-48.073,-26.278],[-62.372,-81.99,-70.518,-53.152,-38.082,-113.548,-77.964,-49.223,-19.831,-38.62,-92.53,-36.229,-19.304,-52.943,-41.359,-67.991,-89.157,-74.718,-78.124,-34.825,-78.778,-85.865,-55.121,-57.712,-42.541,-81.959,-65.558,-61.796,-48.385,-40.232]],
"kep": [[-55.137,-23.75,-13.369,-7.509,-18.471,-49.784,-23.637,-11.351,-16.712,-27.461,-37.699,-18.903,-19.929,-21.914,-13.625,-52.628,-16.399,-22.482,-7.776,-6.267,-52.69,-9.744,-13.706,-16.138,-11.345,-48.611,-17.427,-7.505,-19.826,-10.404],[-87.893,-38.901,-19.602,-5.676,-7.452,-90.687,-41.135,-8.243,-9.843,-9.301,-90.992,-42.158,-13.407,-14.941,-7.254,-84.67,-34.031,-9.777,-5.084,-6.15,-86.718,-38.173,-11.922,-7.166,-8.895,-88.54,-38.066,-6.37,-8.321,-11.717],[-94.589,-74.311,-27.619,-13.336,-8.159,-93.608,-66.381,-23.775,-6.748,-10.004,-92.289,-72.161,-30.72,-12.711,-9.493,-93.05,-62.638,-24.766,-12.183,-7.793,-93.898,-70.373,-24.205,-7.716,-8.877,-90.966,-63.927,-25.183,-13.417,-8.05],[-92.63,-78.487,-46.884,-22.346,-1.691,-92.303,-81.333,-47.726,-25.685,-5.029,-92.86,-78.055,-50.182,-15.172,-8.244,-92.929,-87.842,-51.707,-22.506,-12.398,-94.452,-78.825,-59.088,-29.139,-13.096,-91.343,-77.977,-58.359,-22.857,-11.623],[-96.664,-81.872,-63.266,-41.792,-14.93,-95.319,-81.079,-65.126,-43.756,-13.656,-94.486,-85.552,-68.347,-44.302,-15.905,-94.797,-80.32,-70.225,-40.311,-16.326,-94.406,-82.267,-60.035,-50.877,-17.333,-96.636,-87.532,-73.592,-48.933,-11.866],[-96.919,-87.825,-78.878,-63.343,-30.995,-96.687,-85.372,-78.743,-65.581,-37.562,-95.876,-83.93,-76.077,-65.207,-38.205,-96.888,-81.554,-85.493,-62.398,-37.82,-97.311,-87.252,-71.11,-62.379,-40.451,-95.989,-89.05,-81.222,-62.328,-38.21]],
"vp": [[2466.956,1824.229,1623.969,1702.083,1570.158,464.325,450.421,284.189,199.21,127.799,224.445,184.15,180.589,160.266,148.748,41.424,39.523,37.67,32.058,24.98,24.868,13.98,9.974,13.622,17.826,10.323,8.395,8.16,6.42,6.804],[6941.618,7032.04,6613.076,4272.612,4236.482,1337.921,1244.947,1070.564,1171.599,882.088,729.229,709.72,580.138,393.922,408.585,118.359,140.474,127.177,90.009,91.055,63.061,60.1,56.287,45.655,38.738,33.378,27.101,16.554,23.077,20.007],[8736.959,11686.265,8510.673,9882.999,7463.429,1640.157,2179.095,1746.62,1743.322,1731.627,807.331,1186.698,876.107,831.914,663.573,166.891,188.781,185.242,142.995,135.533,79.957,108.136,93.363,93.183,74.514,38.793,48.132,41.207,40.977,29.586],[9030.231,12948.951,12150.773,12321.006,12638.97,1609.906,2798.017,2691.539,2567.11,2883.287,862.521,1117.906,1257.558,1362.245,1348.872,157.262,299.736,269.309,279.237,206.812,89.019,126.326,149.781,124.077,92.714,38.466,64.303,77.027,64.486,57.097],[10407.702,14448.268,14123.055,15887.926,15056.927,1792.178,2640.404,3403.178,3311.959,3269.139,1025.183,1538.184,1979.66,1775.24,1540.123,176.162,284.11,305.102,386.51,308.423,94.28,131.686,139.678,196.286,165.91,48.98,78.287,94.49,95.162,66.614],[9691.966,18281.502,20857.294,23010.768,20177.425,2050.897,3145.318,4017.27,4589.994,4102.08,909.4,1635.482,2240.46,2181.948,2312.78,195.003,285.264,433.753,474.623,394.167,88.151,164.731,179.618,223.163,230.38,52.346,77.25,100.107,112.007,108.505]]
}