{
"KTrans": [[2.335,1.077,2.567,2.128,0.755,2.973,1.037,2.149,1.735,1.052,2.319,2.275,4.438,1.207,1.614,21.486,7.147,0.646,7.519,3.171,53.085,25.336,17.637,17.472,13.318,-267.063,64.415,53.502,51.637,40.864],[-8.16,-1.813,0.625,1.243,1.32,-13.974,-1.256,0.493,0.87,0.769,-1.886,-2.264,-0.601,0.029,0.46,6.817,3.511,3.44,6.829,3.318,-13.736,4.552,8.336,6.061,6.139,-19.063,25.388,38.224,20.192,19.604],[-26.992,-6.958,-3.784,-0.985,-0.304,-31.029,-3.423,-1.35,-1.34,0.614,-36.883,-5.688,-3.158,0.897,0.341,-28.496,-1.54,1.459,-0.403,2.319,-23.53,13.906,-4.615,2.782,1.748,-49.538,3.188,13.354,9.422,10.051],[-63.937,-17.815,-5.503,-2.955,-0.935,-64.785,-9.936,-4.536,-1.885,-1.485,-58.438,-10.801,-7.008,-2.097,-0.835,-59.295,-5.493,-5.833,-1.397,0.624,-54.59,-2.035,-3.597,0.512,6.733,-40.162,-16.372,8.307,12.211,4.392],[-81.01,-13.695,-7.337,-5.305,-2.097,-77.766,-7.289,-8.097,-5.862,-3.116,-78.512,-13.175,-6.642,-5.016,-2.127,-69.723,-10.332,-12.295,-4.525,-2.553,-75.063,-18.712,-3.498,-3.34,1.994,-75.898,-31.175,0.297,9.685,9.701],[-81.834,-18.221,-14.151,-7.126,-3.173,-83.722,-22.164,-9.252,-9.697,-5.608,-82.757,-20.305,-12.882,-6.581,-5.736,-85.888,-37.049,-9.131,-7.936,-4.084,-79.369,-25.603,11.067,-2.493,1.219,-66.308,-37.879,-13.331,6.987,6.877]],
"ve": [[0.576,0.532,0.422,1.405,3.149,0.773,0.637,0.868,1.413,3.179,1.387,1.455,0.178,3.325,2.965,-18.279,12.796,45.907,95.051,37.808,18.094,-9.816,-16.168,-457.186,-97.583,-30.207,-8.74,-13.759,14.298,-47.046],[-5.233,-0.457,0.158,0.226,0.363,-5.684,-0.658,0.341,0.221,0.451,-0.578,-0.54,-0.114,0.113,0.24,3.614,1.588,1.49,2.683,1.294,11.615,8.112,3.894,3.422,3.188,28.421,11.897,13.829,4.702,-4.523],[-16.125,-2.544,-1.456,-0.208,-0.123,-16.278,-1.928,-0.45,-0.38,0.183,-22.726,-2.091,-1.556,0.427,0.112,-6.704,0.335,1.969,-0.305,0.829,-4.711,8.544,-3.972,1.278,0.701,-4.99,17.813,-0.935,7.478,5.809],[-42.198,-7.834,-2.244,-1.044,-0.396,-40.3,-5.205,-1.372,-0.536,-0.571,-37.94,-3.875,-3.175,-0.621,-0.176,-33.545,-1.67,-2.997,-0.283,0.708,-19.415,-0.764,-0.034,-0.164,4.242,35.866,-7.482,11.199,-2.991,1.949],[-56.011,-6.774,-2.967,-2.095,-0.872,-34.485,-4.345,-3.016,-1.978,-1.066,-58.017,-7.764,-1.902,-1.61,-0.813,-25.073,-6.963,-7.494,-1.692,-0.696,-42.021,-3.848,0.783,-0.231,2.56,-32.051,-8.71,14.645,7.037,6.799],[-53.052,-11.149,-6.302,-3.059,-1.588,-50.054,-14.886,-3.942,-3.447,-1.839,-54.122,-13.711,-6.097,-2.414,-2.18,-70.77,-22.032,-6.826,-3.083,-1.713,-43.138,-12.916,6.214,-1.504,2.427,-27.787,-9.252,-2.77,3.553,5.822]],
"kep": [[-0.82,-1.66,0.17,-0.853,-3.719,-0.349,-1.805,-0.707,-1.271,-3.344,-2.061,-1.41,2.316,-2.953,-2.552,-3.043,-1.568,-9.454,1.583,-5.795,-21.92,-7.873,-3.222,-0.825,-2.104,64.426,-24.109,-17.891,2.323,-18.567],[-7.265,-3.759,-1.882,-1.321,-1.38,-12.262,-3.059,-2.203,-1.686,-1.997,-5.046,-4.16,-2.862,-2.428,-2.106,-15.543,-3.088,-1.536,1.081,-0.751,-29.138,-12.624,-3.369,-1.963,-0.575,-31.619,-13.271,-1.812,-3.854,1.675],[-19.376,-7.12,-4.683,-3.089,-2.499,-23.199,-4.193,-3.26,-3.278,-1.906,-29.355,-6.227,-4,-1.915,-2.122,-41.335,-5.964,-3.781,-3.087,-1.302,-44.534,-13.249,-9.572,-3.861,-3.338,-57.312,-4.929,-21.77,-8.404,-4.49],[-55.28,-13.552,-5.685,-4.229,-2.859,-60.982,-8.202,-5.643,-3.673,-3.231,-56.352,-10.131,-6.401,-3.849,-2.998,-60.385,-8.964,-6.786,-4.068,-2.811,-63.973,-25.825,-10.644,-4.251,-1.203,-65.787,-26.729,-10.104,-9.755,-7.938],[-75.894,-11.658,-7.038,-5.592,-3.548,-72.407,-7.7,-7.91,-6.273,-4.375,-75.051,-10.926,-7.423,-5.808,-3.67,-70.327,-17.86,-9.256,-5.813,-4.583,-73.654,-38.307,-11.108,-8.184,-4.205,-72.754,-53.374,-30.057,-10.676,-5.725],[-76.118,-14.26,-11.208,-6.579,-3.946,-77.793,-16.356,-8.461,-8.754,-6.149,-77.441,-15.09,-10.328,-6.664,-5.97,-77.358,-43.846,-6.873,-8.053,-5.193,-76.834,-45.996,-6.836,-5.069,-4.684,-74.049,-53.558,-29.643,-17.22,-6.216]],
"vp": [[-56.581,-24.395,-135.717,-125.581,-28.363,-15.706,0.841,-16.433,-23.131,-3.384,-8.545,-12.242,-28.383,-2.461,-6.566,-16.568,-2.654,9.837,-9.004,2.315,-21.367,-8.06,-7.247,-7.668,-5.132,16.299,-14.506,-13.785,-16.706,-9.754],[569.584,116.144,-27.603,-69.711,-109.117,121.087,15.856,-10.565,-14.718,-7.91,4.56,12.41,16.519,11.643,8.498,-5.437,-4.565,-8,-24.147,-9.228,-9.353,3.776,-6.391,-5.358,-7.516,-12.91,-10.258,-26.208,-10.92,-14.589],[1609.841,507.835,416.156,106.547,102.013,333.889,81.102,21.112,33.687,-18.25,222.642,42.9,44.79,-18.199,-2.649,12.038,-0.772,-12.75,5.626,-7.775,7.453,-20.156,18.187,-2.628,1.624,5.365,-17.012,-3.874,-3.149,-6.372],[4384.495,1544.369,674.586,447.016,166.737,817.153,219.158,76.908,37.355,55.359,389.505,74.44,98.509,20.014,7.257,68.717,6.825,21.338,4.49,-6.081,22.008,-2.348,1.184,3.561,-23.75,-19.439,12.434,-17.569,-13.318,0.063],[5737.304,1353.93,904.783,842.583,418.017,1009.13,180.817,172.536,159.218,95.557,552.753,162.724,49.25,60.576,36.584,76.918,29.026,48.844,15.631,7.543,46.49,13.477,-2.096,2.084,-13.091,18.624,12.379,-21.873,-14.741,-16.3],[5396.089,2263.685,1872.672,1254.48,791.012,1023.356,615.596,231.326,273.48,171.489,549.74,284.425,181.1,93.226,106.925,147.988,95.569,46.492,26.49,19.957,46.493,29.764,-19.207,8.67,-12.933,16.283,11.482,7.478,-5.057,-14.321]]
}