{
"KTrans": [[0.689,3.91,2.972,4.225,3.735,1.058,3.43,3.925,4.373,2.854,-1.416,5.604,5.569,4.864,3.458,28.759,21.379,13.298,10.646,8.74,-118.258,47.562,42.476,25.495,22.162,-222.646,-140.016,50.62,59.595,37.003],[-13.641,-2.323,0.414,2.439,2.423,-14.438,-2.426,1.379,1.095,2.504,-19.027,-6.255,0.224,1.961,2.361,-8.048,7.374,6.173,5.116,8.65,-0.623,10.743,18.916,18.25,16.541,-22.365,-56.31,17.859,28.682,24.805],[-54.463,-11.117,-5.145,-1.425,0.262,-49.888,-8.923,-5.477,-1.362,-0.661,-47.628,-9.648,-5.34,-1.878,0.105,-43.625,1.518,-1.507,-2.995,3.193,-24.309,-31.29,4.804,3.996,5.082,-30.379,-8.766,-60.191,23.597,19.645],[-71.203,-13.621,-10.214,-5.806,-2.869,-71.735,-17.643,-10.216,-5.516,-2.734,-77.28,-13.48,-7.565,-6.573,-2.813,-69.192,-7.82,-5.107,-0.075,-1.956,-53.881,-13.495,4.746,-4.682,5.201,-55.446,-17.182,2.047,-10.462,10.419],[-81.072,-19.841,-14.368,-10.935,-5.548,-77.99,-17.133,-13.213,-9.167,-5.758,-80.374,-19.688,-8.508,-9.116,-7.837,-81.453,-20.164,-6.645,-5.798,-4.85,-72.898,-18.67,-18.354,-0.692,-2.38,-50.613,-14.402,1.27,-27.605,10.503],[-83.696,-41.709,-16.177,-12.649,-8.255,-88.321,-47.621,-18.16,-15.72,-6.742,-87.695,-47.652,-9.881,-13.447,-10.889,-82.622,-40.129,-11.672,-12.417,-10.127,-78.677,-25.261,-23.173,-8.795,-3.998,-70.165,-44.217,-31.221,-37.687,-34.6]],
"ve": [[0.798,0.938,2.527,2.365,4.465,2.223,1.83,1.457,2.286,5.447,-0.376,2.752,2.224,3.101,6.644,9.819,-2.535,-42.136,-38.013,-11.951,30.559,-1.512,-16.361,20.898,-43.496,0.934,8.801,21.972,-6.526,-27.281],[-6.893,-0.58,-0.245,0.835,0.948,-7.876,-1.302,0.455,0.612,1.017,-8.138,-2.591,0.27,0.345,0.987,0.886,10.308,3.325,2.675,3.022,22.45,17.366,-1.998,-23.578,57.721,0.063,36.013,20.968,29.712,-2.392],[-28.535,-4.924,-1.99,-0.659,-0.074,-27.955,-3.839,-2.241,-0.165,-0.156,-25.182,-3.497,-1.745,-0.637,-0.054,-8.18,1.651,0.256,-1.758,1.791,27.548,2.417,1.84,-269.439,3.241,10.462,32.05,13.493,13.726,319.381],[-46.165,-6.79,-4.08,-1.978,-1.168,-41.55,-8.265,-4.18,-1.942,-1.242,-52.823,-4.791,-1.535,-2.715,-1.038,-18.734,2.874,0.244,1.676,-0.79,-14.136,8.57,7.326,-0.395,3.703,2.713,18.429,38.821,10.473,3.617],[-65.559,-14.395,-5.044,-4.268,-1.622,-42.793,-11.186,-5.443,-3.497,-2.038,-42.861,-7.92,-3.414,-2.882,-2.823,-44.423,-4.639,-0.137,-1.152,-1.254,-12.715,5.446,-5.798,3.766,0.041,51.938,23.37,22.46,2.215,7.071],[-48.644,-27.906,-7.114,-5.027,-2.953,-51.664,-27.862,-7.469,-5.821,-2.473,-54.766,-27.659,-4.183,-3.858,-4.345,-37.235,-19.261,-5.83,-5.856,-3.906,-41.936,2.349,2.302,-4.688,0.608,12.773,19.579,2.328,24.655,9.8]],
"kep": [[-4.971,-1.647,-3.739,-2.15,-3.402,-6.215,-3.008,-1.876,-1.713,-5.026,-7.175,-1.76,-0.758,-1.15,-4.193,-13.806,0.113,-4.385,-3.874,-8.326,8.63,0.677,5.471,-12.3,-28.192,36.706,35.292,7.146,-0.222,-36.944],[-13.716,-6.522,-4.173,-3.238,-3.355,-13.889,-5.99,-3.894,-4.326,-3.343,-18.838,-8.78,-4.923,-3.286,-3.472,-26.617,-8.61,-4.419,-3.82,0.087,-23.6,-20.655,-7.449,0.152,0.941,-28.084,-1.872,-18.934,-17.757,-22.911],[-49.51,-11.486,-7.91,-5.53,-4.452,-48.969,-10.549,-8.048,-5.962,-5.277,-51.408,-11.719,-8.529,-6.056,-4.655,-47.158,-13.651,-8.884,-8.25,-4.2,-50.023,-24.186,-17.766,-9.826,-6.514,-47.423,-26.565,-15.818,-13.594,-11.009],[-69.738,-13.006,-11.115,-8.55,-6.434,-70.333,-16.049,-11.148,-8.329,-6.257,-73.343,-15.54,-10.937,-8.708,-6.562,-67.586,-29.278,-12.709,-7.951,-7.105,-63.4,-27.53,-15.665,-14.885,-6.386,-63.906,-36.609,-22.534,-5.568,-23.562],[-76.072,-17.884,-14.628,-11.547,-8.602,-75.862,-17.264,-13.193,-10.488,-8.461,-77.639,-22.038,-10.53,-11.168,-9.826,-73.55,-34.717,-14.281,-10.546,-9.526,-75.279,-38.972,-28.672,-14.406,-11.692,-74.827,-42.663,-21.847,-15.069,-21.291],[-79.601,-41.727,-15.771,-12.729,-10.019,-83.798,-48.635,-17.94,-15.173,-9.026,-79.247,-48.542,-12.111,-14.732,-11.552,-82.219,-48.28,-24.467,-15.388,-12.605,-75.719,-44.341,-35.222,-25.849,-13.045,-76.254,-60.254,-35.491,-44.526,-40.96]],
"vp": [[-59.04,-136.557,-232.587,-160.943,-179.069,-10.394,-20.756,-20.768,-34.848,-18.759,27.218,-28.004,-28.488,-21.492,-16.426,-21.706,-20.505,-10.36,-6.997,0.601,-25.212,-29.31,-28.273,-11.009,-5.155,4.986,-20.201,-35.759,-31.346,-26.091],[697.968,142.269,30.12,-293.348,-316.949,179.478,38.302,-32.257,-1.74,-63.281,91.309,65.034,2.357,-13.725,-21.882,5.825,-17.806,-11.899,-7.444,-28.965,-21.277,-37.376,-20.943,-27.002,-26.607,6.088,-37.072,-33.449,-19.319,-10.518],[3006.475,1023.471,531.401,173.484,27.701,600.976,169.966,133.439,17.235,37.361,276.48,72.54,57.473,26.222,13.178,24.39,-4.624,4.289,27.088,-13.852,-21.711,2.385,-6.691,2.061,-2.918,-0.485,-27.043,-17.833,-28.265,-16.325],[5089.667,1450.371,1251.195,763.748,450.313,980.206,349.145,251.742,175.353,124.209,567.391,95.235,34.788,102.968,56.347,44.451,-12.83,-1.166,-14.734,12.897,12.611,-14.154,-20.465,17.517,-15.956,5.931,-13.694,-62.121,-20.093,-3.537],[5553.437,3158.451,1501.356,1691.535,745.392,914.49,499.505,305.329,289.027,184.391,442.458,150.406,114.142,104.762,146.714,102.757,17.374,1.98,13.994,14.101,23.102,-3.362,25.912,-10.736,5.782,-25.236,-24.503,-32.671,2.931,-22.009],[5026.555,5957.148,2157.009,1911.787,1435.037,1133.206,1199.804,443.208,439.03,267.25,586.76,585.452,123.432,138.02,224.494,82.842,85.741,35.499,54.273,43.677,50.4,-2.449,0.841,25.262,0.483,-1.363,-15.934,6.234,-46.654,-21.303]]
}