{
"KTrans": [[0.097,0.654,1.92,2.143,2.11,-0.88,1.963,1.419,1.991,1.751,0.64,2.634,2.967,1.984,3.602,4.849,6.238,3.48,3.983,3.456,8.188,4.971,5.652,5.795,5.652,12.859,9.154,10.567,7.245,9.159],[-13.544,-1.602,-0.67,0.358,1.985,-9.911,-1.82,0.425,1.275,1.479,-8.335,-2.073,-0.155,1.123,0.869,-12.711,-0.799,2.312,1.807,2.329,-8.773,-1.382,1.681,2.594,2.474,-15.149,-0.905,3.958,4.027,3.898],[-39.014,-7.103,-2.883,-0.904,-0.398,-42.981,-7.173,-1.108,-0.761,0.324,-39.046,-6.668,-1.974,-0.083,-0.381,-36.356,-6.873,-1.528,-0.608,0.874,-43.602,-9.567,-1.752,0.184,1.448,-43.527,-8.299,-1.61,1.288,2.697],[-62.521,-14.473,-7.22,-4.305,-0.763,-69.779,-13.767,-5.467,-2.692,-1.769,-63.423,-13.474,-4.956,-3.426,-1.264,-64.724,-17.078,-6.358,-3.185,-1.411,-64.682,-21.571,-5.778,-2.632,-1.419,-64.285,-19.038,-7.526,-2.493,0.014],[-78.516,-21.962,-11.608,-5.365,-3.463,-80.896,-22.233,-11.916,-7.307,-4.801,-79.724,-21.935,-11.023,-6.483,-2.916,-78.959,-25.009,-10.716,-5.927,-4.148,-79.109,-27.716,-12.672,-7.116,-2.872,-75.32,-30.71,-11.046,-5.99,-3.83],[-87.092,-29.802,-16.371,-10.222,-5.306,-87.69,-32.251,-16.155,-8.732,-5.597,-87.686,-31.726,-17.256,-9.855,-6.33,-83.609,-32.409,-16.684,-9.344,-5.22,-84.169,-40.423,-19.531,-8.581,-5.907,-83.314,-37.096,-20.689,-10.432,-5.78]],
"ve": [[0.718,2.021,2.203,3.49,4.481,0.279,1.411,2.454,3.363,4.765,1.06,1.586,2.249,4.682,3.456,2.742,1.972,2.819,3.026,3.292,6.317,3.148,3.637,2.587,1.431,9.649,5.119,2.748,2.328,0.226],[-6.431,-0.646,0.037,0.439,0.911,-5.476,-0.519,0.192,0.632,1.055,-4.374,-0.405,0.06,0.752,0.64,-3.529,0.614,1.416,0.785,1.191,1.204,1.523,1.609,1.63,1.244,2.022,3.326,3.206,2.463,2.247],[-20.793,-2.378,-1.256,-0.326,0.259,-22.222,-3.074,-0.19,0.157,0.253,-19.263,-1.876,-0.4,-0.028,0.088,-16.096,-1.509,-0.282,0.173,0.539,-17.925,-1.887,0.426,0.874,0.928,-12.747,0.432,2.259,1.993,1.99],[-37.762,-6.278,-2.639,-1.431,-0.441,-41.48,-5.545,-1.865,-0.872,-0.726,-37.721,-5.192,-1.774,-0.883,-0.562,-35.121,-5.968,-1.765,-0.611,-0.426,-33.571,-7.245,-0.962,-0.199,0.236,-28.576,-3.451,-0.379,1.039,1.504],[-50.237,-9.564,-4.104,-2.03,-1.019,-53.541,-9.083,-4.555,-2.575,-1.547,-53.082,-9.032,-4.457,-1.937,-0.936,-48.045,-9.926,-3.414,-1.475,-1.203,-46.14,-9.881,-3.568,-1.525,-0.202,-37.031,-9.822,-1.11,-0.264,0.151],[-63.207,-13.395,-6.301,-3.7,-1.82,-61.276,-15.133,-6.301,-3.238,-2.075,-63.986,-14.77,-6.559,-3.727,-2.159,-55.416,-13.489,-5.712,-2.873,-1.672,-53.436,-16.868,-6.336,-2.152,-1.288,-46.183,-13.376,-5.849,-1.928,-0.376]],
"kep": [[-5.358,-5.331,-3.887,-4.877,-5.104,-5.888,-3.611,-4.821,-4.535,-5.58,-5.296,-3.26,-3.191,-5.84,-2.59,-2.971,-0.222,-3.084,-2.516,-2.819,-3.136,-2.565,-2.107,-0.375,1.02,-2.045,-0.504,3.262,0.816,5.486],[-14.023,-5.654,-5.169,-4.531,-3.429,-10.693,-5.894,-4.293,-3.866,-4.051,-11.222,-6.139,-4.71,-4.126,-4.226,-15.282,-5.969,-3.685,-3.501,-3.371,-15.696,-7.403,-4.433,-3.557,-3.284,-22.681,-8.51,-3.788,-3.008,-2.91],[-30.304,-9.586,-6.111,-5.068,-5.103,-35.257,-8.926,-5.425,-5.364,-4.402,-31.868,-9.648,-6.108,-4.553,-4.939,-31.397,-10.094,-5.761,-5.242,-4.155,-38.025,-12.321,-6.646,-5.155,-3.983,-41.248,-13.269,-8.176,-5.172,-3.819],[-51.317,-13.48,-9.156,-7.304,-4.804,-56.681,-13.643,-8.103,-6.274,-5.502,-49.791,-13.635,-7.742,-6.988,-5.166,-53.699,-16.341,-9.196,-7.012,-5.437,-53.637,-19.786,-9.304,-6.838,-6.065,-54.959,-20.57,-11.49,-7.857,-5.892],[-64.429,-18.87,-12.172,-7.819,-6.868,-67.753,-19.548,-12.13,-9.195,-7.655,-67.207,-19.693,-11.373,-8.97,-6.409,-65.703,-22.115,-11.949,-8.869,-7.341,-67.835,-24.85,-13.728,-9.991,-7.058,-66.347,-27.997,-14.331,-10.025,-8.296],[-76.075,-24.885,-15.315,-11.076,-7.918,-76.398,-25.933,-14.909,-10.015,-7.962,-77.416,-25.425,-15.865,-10.689,-8.61,-72.224,-27.105,-16.047,-10.958,-7.971,-73.736,-32.939,-18.357,-10.876,-9.012,-74.325,-32.909,-19.922,-12.894,-9.7]],
"vp": [[-4.081,4.434,-59.892,-45.692,-55.657,14.641,-11.999,3.173,-3.838,10.792,7.961,-0.357,-1.484,-4.801,-19.088,-0.122,-3.516,-1.925,-1.039,-0.803,-1.371,0.457,-0.779,-1.022,-0.411,-0.529,-0.138,-0.63,0.278,-0.12],[635.254,132.313,145.239,-7.452,-198.986,107.121,22.426,-9.038,-21.466,-22.765,47.502,17.91,5.922,-5.591,8,12.011,2.211,-4.257,0.112,-3.535,3.12,1.434,-0.15,-0.882,-0.127,3.331,1.287,-0.462,-0.307,-0.152],[2233.142,460.293,272.881,107.89,-42.074,473.386,117.889,-10.15,-0.704,-9.12,211.703,40.229,5.375,-8.771,11.316,37.266,8.526,3.622,2.07,-1.18,22.958,7.674,2.377,0.848,-0.797,11.259,3.528,0.798,-0.222,-0.74],[3972.912,1173.872,710.897,516.689,88.75,879.33,215.522,85.051,52.95,59.37,397.084,103.553,47.35,32.97,16.52,76.762,27.015,12.779,6.82,6.501,39.943,18.994,6.523,4.069,3.321,19.284,7.163,4.29,1.881,0.211],[5264.498,1951.174,1226.287,726.589,396.117,1136.41,371.381,258.398,195.562,148.849,560.34,184.846,127.44,75.319,37.899,106.354,44.168,23.489,13.678,13.74,53.11,24.688,14.157,10.037,3.839,23.551,13.801,5.278,4.145,3.64],[6573.888,2691.8,1841.623,1393.141,721.658,1299.555,621.377,364.841,251.224,168.121,670.416,300.674,204.419,142.697,101.187,120.191,58.842,36.66,25.513,18.286,60.349,39.113,22.878,11.184,9.778,28.6,17.858,12.829,7.477,4.334]]
}