{
"KTrans": [[5.762,3.259,3.213,3.105,3.058,17.495,11.475,8.898,7.928,7.453,30.477,18.478,14.375,13.506,12.354,100.53,92.075,75.763,66.521,61.366,41.587,133.562,139.253,138.669,128.81,140.856,-22.693,96.673,213.897,181.142],[14.438,6.274,4.476,3.418,3.239,22.605,11.16,6.987,6.152,5.418,43.896,17.914,12.388,9.476,8.54,-20.732,79.014,56.367,40.955,34.264,18.495,60.972,116.616,86.094,71.499,126.288,103.513,107.242,113.043,134.563],[18.251,9.983,5.897,4.515,3.79,50.541,14.868,7.931,6.83,5.467,35.245,19.492,12.224,9.444,8.431,-5.267,149.784,56.315,36.879,31.265,-12.116,50.083,113.841,80.355,69.252,17.602,36.06,82.608,103.634,141.083],[-7.295,17.956,7.592,5.567,4.689,-35.708,17.639,11.455,7.587,6.406,-32.859,14.8,16.381,12.285,9.639,-16.767,48.909,67.091,39.917,37.573,-41.709,-28.79,87.156,85.573,69.873,11.642,-6.188,56.093,-25.189,108.561],[-59.12,23.643,9.354,7.618,5.763,-54.753,29.454,15.061,9.057,7.609,-61.894,48.392,19.896,13.428,10.376,-44.842,-3.395,74.296,42.062,36.005,-22.151,-10.127,37.698,139.065,65.572,21.529,-32.218,-37.555,44.605,99.083],[-76.561,34.142,10.132,9.085,7.602,-60.974,49.512,18.647,12.298,7.236,-78.836,64.699,28.366,16.607,9.858,-61.065,-6.686,102.972,50.877,35.954,-52.677,1.994,14.029,140.333,81.874,-26.255,-5.261,42.213,30.255,100.951]],
"ve": [[1.314,-0.927,-1.635,-2.741,-3.374,3.664,-0.418,-3.031,-5.462,-6.408,7.548,0.711,-3.122,-6.542,-9.391,39.608,13.657,-1.52,-11.316,-18.54,96.289,30.098,-21.323,-0.518,-16.916,200.628,80.155,31.587,4.917,33.164],[0.86,-0.028,-0.636,-0.749,-0.869,4.845,1.701,0.45,-0.101,-0.551,10.164,3.994,1.847,0.832,-0.124,51.074,23.067,14.089,8.621,4.848,103.986,47.282,30.029,19.272,12.394,199.833,98.208,59.565,37.968,35.812],[0.65,0.143,-0.335,-0.49,-0.613,5.4,2.171,0.909,0.34,0.068,11.516,4.282,2.314,1.5,0.873,49.732,24.709,15.52,10.692,7.729,98.761,48.864,31.797,22.653,17.165,202.627,101.514,64.386,46.039,39.164],[0.531,0.439,-0.236,-0.568,-0.444,4.332,2.05,1.078,0.585,0.232,9.522,3.996,2.769,1.73,1.132,48.887,24.327,16.048,11.311,9.041,101.785,49.771,32.315,23.368,18.535,202.191,101.585,63.569,48.218,35.705],[-1.153,0.076,-0.169,-0.214,-0.439,6.139,2.037,1.412,0.506,0.381,9.803,4.905,2.617,1.934,1.221,49.891,24.409,15.937,11.318,9.136,102.985,50.204,32.496,24.765,18.633,201.737,103.824,69.366,48.141,38.725],[1.31,0.178,-0.479,-0.147,-0.311,4.493,2.974,1.299,0.836,0.27,11.003,5.186,3.02,2.024,1.094,48.2,22.007,15.831,11.928,9.403,100.21,48.596,32.259,24.275,19.29,204.909,99.776,65.14,51.679,39.557]],
"kep": [[4.605,4.449,5.292,6.55,7.265,13.481,12.161,12.549,14.603,15.382,21.432,17.831,18.369,21.88,24.501,36.983,68.539,78.48,88.039,98.635,-8.667,72.032,111.484,148.35,177.839,7.71,-31.69,54.017,185.423,188.201],[13.392,6.331,5.164,4.218,4.16,16.607,9.302,6.527,6.274,6.029,29.825,13.379,10.365,8.586,8.699,-40.83,44.115,36.642,29.655,28.037,-31.277,12.476,64.701,55.259,52.144,-15.439,14.784,33.878,49.92,79.012],[15.734,9.74,6.255,5.033,4.441,40.463,12.283,6.943,6.472,5.406,20.5,14.43,9.661,7.823,7.497,-33.005,94.26,34.422,23.411,21.73,-50.018,5.444,58.879,45.562,43.702,-53.168,-22.627,16.178,39.492,72.189],[-10.365,16.963,7.795,6.157,5.157,-39.191,14.748,10.171,6.945,6.162,-38.671,9.856,13.133,10.348,8.406,-42.143,18.678,42.47,25.287,25.895,-66.141,-45.668,39.826,48.708,42.352,-57.526,-44.58,1.049,-41.633,49.776],[-57.514,21.942,9.253,7.782,6.206,-55.58,25.287,13.176,8.417,7.179,-63.932,39.434,16.459,11.2,9.002,-60.184,-19.793,48.047,26.877,24.299,-57.233,-35.389,5.454,86.726,38.24,-55.493,-58.577,-53.303,1.847,42.067],[-74.932,30.969,10.085,9.081,7.873,-61.96,42.321,16.591,11.178,6.878,-78.337,52.788,23.777,14.042,8.605,-71.372,-23.672,70.984,33.714,23.899,-72.996,-28.686,-10.513,86.99,50.475,-72.03,-47.235,-9.385,-9.119,43.199]],
"vp": [[199.379,110.618,212.92,113.022,126.873,21.862,18.925,27.955,37.089,38.08,-7.36,6.77,6.609,0.986,-7.932,-14.773,-18.843,-19.931,-17.294,-13.994,-8.128,-17.008,-11.738,-9.514,-27.813,-18.725,-14.423,-21.732,-27.562,-20.869],[411.639,368.645,314.046,446.338,409.808,84.292,41.728,42.765,51.394,78.33,46.594,15.521,24.376,23.08,37.719,11.696,-20.313,2.217,-1.603,-6.6,21.405,-34.434,-6.133,-9.364,-12.185,-22.671,-13.843,-31.227,-22.357,-19.974],[3196.835,391.652,309.225,455.555,504.36,602.763,3.614,46.194,87.359,83.582,360.127,0.332,-1.245,43.215,49.162,27.836,-18.012,6.291,-3.656,-2.644,-0.365,-22.711,-17.25,-8.966,3.843,4.605,-2.33,-27.221,-24.694,3.097],[6503.578,382.876,146.021,430.997,692.512,1607.837,106.808,58.143,91.552,88.886,674.105,-28.188,-6.806,64.349,62.568,115.148,8.154,-26.44,-2.401,34.699,38.101,26.384,-19.799,-15.218,3.834,9.937,-14.525,-42.039,-10.168,-23.306],[7714.194,2103.678,321.721,337.719,585.836,1619.94,551.881,-7.825,42.181,119.251,893.107,193.899,16.707,-0.284,39.777,133.777,50.774,-48.461,-18.958,7.311,61.825,30.145,-12.196,-12.776,-16.121,6.253,15.485,13.682,-28.729,-20.661],[9285.531,8067.539,223.908,114.066,279.341,1530.096,2097.791,43.43,79.943,27.713,936.231,896.116,35.3,1.086,32.697,136.929,171.965,-24.894,-21.447,-1.31,55.695,35.059,-7.667,-27.354,-6.564,3.247,14.119,-22.162,13.434,-16.268]]
}