{
"KTrans": [[-33.664,3.833,15.977,9.284,7.356,-30.476,13.159,19.958,15.655,3.434,-30.432,7.529,6.093,8.085,11.657,-32.851,13.45,8.693,7.107,-0.311,-2.533,1.875,20.416,14.787,11.612,9.45,-17.701,52.089,47.024,33.183],[-88.111,-18.141,-0.25,5.559,2.546,-85.634,-14.681,-9.027,-0.367,1.971,-84.667,-25.546,0.384,3.993,-1.707,-82.416,-20.364,6.817,2.017,-3.923,-73.698,-6.333,10.457,9.625,-2.864,-96.923,-23.54,9.534,10.557,14.448],[-92.139,-64,-8.215,-1.944,4.382,-92.623,-55.814,-13.263,5.703,5.696,-95.313,-53.265,-3.565,5.158,-3.939,-94.902,-59.61,-5.818,0.879,-0.089,-105.002,-48.041,-15.683,-0.688,-1.513,-135.705,-39.272,-7.738,2.297,-0.736],[-98.538,-82.03,-26.186,-10.809,5.532,-98.679,-80.145,-32.344,-5.311,3.282,-97.607,-81.379,-31.889,-0.645,3.654,-94.642,-71.419,-37.379,-9.127,-3.608,-101.525,-70.379,-26.522,-2.721,0.333,-129.204,-63.89,-15.626,-9.809,7.377],[-98.307,-91.193,-51.313,-16.141,2.161,-97.886,-87.112,-53.987,-20.75,-2.792,-97.403,-87.793,-55.091,-14.522,-3.193,-100.583,-85.543,-50.112,-28.268,-5.472,-101.257,-83.136,-53.241,-23.048,-3.949,-125.704,-69.207,-35.924,-9.644,7.805],[-98.521,-93.134,-65.51,-29.218,-5.533,-99.534,-94.184,-71.564,-31.743,-8.153,-98.668,-95.31,-72.964,-30.966,-8.852,-99.669,-93.776,-73.73,-23.902,-4.869,-105.632,-91.884,-58.428,-25.093,-1.461,-115.332,-96.35,-63.807,-12.729,0.435]],
"ve": [[-6.083,6.478,-115.03,57.893,-47.454,-418.856,2.27,14.36,-20.153,-252.146,20.593,-24.168,-84.717,-71.936,-11.411,-31.327,17.021,101.432,-18.855,-8.761,-7.38,-27.354,-16.463,-41.315,182.489,-0.107,-32.88,-40.366,-13.8,-39.308],[-49.791,-0.026,5.358,2.827,3.358,-49.567,4.369,1.773,3.966,2.703,-48.572,24.748,2.792,2.891,3.118,-55.707,3.675,8.212,-114.01,4.198,-47.154,4.084,-1.913,7.553,-46.555,-49.095,-26.573,7.844,-4.737,2.802],[-152.567,-31,-19.146,-2.201,-1.54,-51.659,177.141,-4.194,2.79,2.659,-346.961,-26.786,8.225,0.962,0.233,-75.275,-12.774,-1.202,-0.235,-0.134,-74.293,-29.277,-9.951,-14,0.769,-569.98,-77.648,9.187,-16.546,-6.038],[-103.774,-49.829,-15.928,-4.496,0.65,-104.343,-32.22,-16.429,-3.201,0.34,-123.222,-51.77,-18.451,-3.202,0.006,-82.772,-62.389,-19.291,-6.932,-3.981,-113.134,-37.17,-16.256,-21.337,-3.104,-144.928,50.431,-14.394,-13.169,-1.188],[-104.056,-73.371,-30.977,-10.872,-0.111,-62.591,-72.457,-32.554,-10.364,-3.024,-130.756,-70.424,-35.866,-8.267,-2.185,-52.683,-68.225,-30.735,-17.103,-5.245,-1247.32,-66.754,-36.008,-16.672,-5.588,-144.508,-41.937,-14.561,-3.756,3.67],[-59.674,-82.692,-38.988,-15.883,-5.537,-49.278,52.754,-49.311,-18.383,-6.421,-97.742,-6.724,-51.656,-16.775,-6.499,-113.184,-86.259,-52.223,-15.555,-5.184,-114.913,-84.697,-39.835,-23.755,-5.491,-143.253,-124.385,-49.632,-16.717,-4.139]],
"kep": [[-56.339,-9.517,4.519,2.357,2.586,-50.066,2.006,10.227,10.697,-8.254,-54.743,-2.597,-4.846,-4.745,3.351,-67.259,-12.393,-12.829,-3.874,-25.264,-39.928,-40.204,-11.645,-16.993,-16.68,8.994,62.508,12.674,1.876,-28.831],[-93.906,-19.818,-5.767,3.173,1.756,-88.379,-19.674,-10.383,-3.328,0.535,-91.467,-26.905,-3.783,1.665,-2.16,-88.901,-27.762,-1.695,2.777,-5.462,-79.879,-27.901,-4.231,-1.65,-10.609,-55.491,-23.385,-14.871,-18.741,-4.984],[-95.413,-60.22,-7.786,-0.87,5.165,-97.757,-54.572,-13.098,0.979,2.444,-100.358,-53.507,-5.848,3.384,-4.301,-96.679,-59.078,-9.001,-1.973,-1.671,-88.047,-55.421,-27.73,-6.547,-5.506,-75.104,-48.301,-32.611,-23.135,-17.694],[-99.687,-78.041,-22.279,-9.585,3.814,-101.299,-77.041,-25.383,-5.225,1.532,-101.024,-79.119,-23.995,-0.287,2.398,-96.504,-78.35,-34.561,-7.678,-2.723,-93.24,-74.974,-38.47,-13.137,-1.712,-84.073,-59.633,-35.39,-34.49,-10.87],[-100.784,-89.902,-42.224,-10.915,-0.501,-99.732,-88.293,-45.197,-13.585,-1.823,-100.2,-89.978,-44.973,-9.471,-2.01,-99.022,-94.245,-47.298,-23.012,-3.444,-95.529,-83.247,-55.248,-26.858,-7.223,-89.773,-71.871,-47.549,-27.506,-16.184],[-99.964,-95.59,-57.63,-21.732,-2.803,-100.373,-96.433,-65.447,-21.506,-5.065,-100.187,-98.486,-65.428,-22.886,-6.473,-98.728,-96.175,-70.511,-21.982,-3.936,-95.029,-91.131,-61.776,-33.174,-8.704,-90.693,-78.452,-58.126,-32.242,-18.881]],
"vp": [[2042.908,175.922,-483.443,-149.125,340.426,351.726,7.176,-220.158,-20.54,71.681,190.151,13.276,-23.214,-4.617,-56.175,51.649,14.095,0.245,8.737,6.146,11.259,15.555,-1.756,1.769,2.902,-4.214,14.803,-10.381,-8.075,4.013],[6803.243,2364.857,79.628,-89.558,505.031,1165.126,266.455,202.671,121.321,-76.824,591.325,225.131,20.348,18.965,90.361,127.324,38.422,4.656,17.742,18.686,51.3,2.354,-0.903,-8.788,10.555,26.441,27.165,6.508,11.348,-11.409],[7527.613,7538.194,1719.738,1305.162,446.652,1560.35,1388.414,472.239,-13.949,-135.549,868.298,668.088,171.398,-16.239,106.813,177.038,150.914,24.325,22.02,11.943,95.066,66.593,45.268,21.295,13.728,60.547,32.605,29.265,11.549,13.424],[10395.49,12142.481,4933.255,2463.856,131.587,2161.562,2464.266,1151.501,315.695,67.765,959.749,1190.402,602.867,129.652,0.601,163.854,211.004,153.028,66.229,52.289,120.406,104.207,55.097,25.652,18.744,74.312,43.301,25.436,34.579,-3.54],[10359.744,14638.003,9632.45,4557.828,549.24,1850.713,2904.678,2127.718,1090.069,380.383,1000.298,1487.99,1071.308,374.664,105.904,236.479,309.296,195.93,151.77,58.497,117.503,143.091,114.982,77.223,33.377,80.457,54.148,46.733,20.484,-7.782],[9812.747,16202.556,13550.695,6732.885,2850.394,2165.375,3373.95,3008.552,1536.324,776.576,958.675,1719.641,1557.791,738.026,354.411,216.356,331.103,332.584,137.094,55.664,131.732,170.251,125.381,90.698,25.042,72.902,88.154,89.043,35.939,5.419]]
}