{
"KTrans": [[12.452,20.802,26.682,19.18,21.574,19.84,22.948,20.607,19.69,16.163,24.407,24.825,29.388,20.502,26.537,43.637,34.67,45.243,38.522,33.851,88.106,80.232,59.196,57.56,59.428,129.408,130.125,110.881,122.932,120.338],[-50.586,-4.705,3.902,10.251,12.53,-45.982,-8.514,1.119,12.655,8.6,-45.21,-1.665,4.822,8.323,8.574,-36.961,1.961,9.071,17.347,17.386,-5.776,7,26.951,21.009,23.033,-46.838,31.015,40.731,41.962,43.632],[-77.499,-27.899,-15.568,-3.94,2.006,-77.398,-21.519,-13.359,-3.116,-0.601,-76.503,-28.316,-10.884,-4.725,1.042,-64.976,-30.491,-12.205,-2.962,6.585,-51.427,-20.115,-1.27,7.011,13.909,-55.633,-4.835,17.172,15.357,24.49],[-86.409,-55.269,-28.149,-20.996,-8.469,-82.86,-46.617,-29.509,-17.226,-8.739,-85.213,-48.992,-31.468,-16.038,-9.118,-73.933,-48.227,-28.821,-15.571,-5.514,-68.291,-41.695,-13.169,-13.069,-6.539,-78.381,-67.61,-22.639,1.224,9.481],[-88.857,-62.974,-42.306,-29.519,-18.477,-85.653,-60.206,-46.488,-27.3,-16.462,-86.739,-65.419,-39.139,-32.584,-18.392,-83.624,-57.852,-44.402,-25.617,-16.489,-76.18,-60.052,-37.565,-22.573,-13.925,-78.941,-64.365,-26.067,-17.673,-6.184],[-93.078,-71.401,-49.655,-39.837,-29.079,-93.658,-69.157,-53.648,-37.886,-28.616,-90.223,-73.45,-52.583,-41.581,-27.005,-82.231,-65.89,-49.28,-39.429,-28.488,-85.911,-61.943,-49.21,-37.426,-23.972,-87.016,-71.613,-44.545,-32.498,-24.219]],
"ve": [[76.925,102.608,10.329,-49.757,87.46,-17.752,96.451,995.579,-14.999,-8.518,-12.894,20.33,68.794,-16.061,-216.428,-24.347,4.684,28.175,-209.258,-8.568,118.218,-87.617,-39.164,-12.028,-200.171,111.596,34.044,6.769,12.112,-11.508],[1.422,2.38,1.722,5.967,8.092,72.128,4.215,5.249,4.804,11.831,-17.744,17.591,4.541,7.689,11.785,-2.948,3.065,-947.309,12.396,16.74,48.906,12.305,19.953,28.202,24.016,71.66,38.589,21.111,70.609,-55.698],[-45.188,-7.43,-1.948,-1.438,1.751,-41.194,-6.159,-3.922,-1.165,-0.286,-36.091,-6.51,-4.129,-0.295,3.554,9.661,-0.061,1.661,4.484,3.955,28.092,9.285,294.697,9.215,7.8,50.738,28.377,56.222,-2.742,25.237],[-42.42,-26.756,-9.751,-6.092,-3.522,-39.282,-15.097,-9.805,-5.544,-3.521,-57.17,-14.532,-10.852,-6.19,-2.985,-8.744,-9.479,-5.824,-1.589,0.153,-252.549,-2.07,4.79,2.213,2.839,51.12,12.647,11.063,-1.48,13.387],[-45.377,-22.511,-15.279,-10.394,-6.805,-34.996,-19.298,-15.596,-7.716,-6.281,-48.959,-37.199,-11.355,-9.741,-7.924,-17.831,-12.461,-9.752,-5.117,-2.963,-1.042,-10.092,-2.186,0.394,0.118,65.83,13.752,12.621,0.051,48.645],[-89.671,-22.331,-19.708,-15.276,-10.303,187.876,-28.465,-18.336,-14.563,-10.204,-19.868,-29.195,-18.362,-15.421,-8.631,136.523,-14.703,-14.551,-11.076,-7.433,28.895,-6.279,-6.909,-14.401,-2.71,39.716,16.099,-0.385,-1.953,-0.291]],
"kep": [[-36.938,-29.022,-28.281,-41.026,-45.826,-35.838,-29.745,-37.504,-41.27,-57.35,-27.094,-25.4,-23.192,-40.298,-35.914,-34.407,-34.345,-18.818,-33.089,-40.951,-18.702,-15.917,-27.926,-29.328,-24.574,-38.873,-37.147,-28.066,-4.363,6.886],[-70.351,-37.423,-29.91,-29.198,-28.65,-68.322,-39.257,-33.778,-26.156,-32.889,-65.36,-35.187,-32.064,-31.582,-33.062,-68.806,-37.743,-31.795,-28.268,-28.656,-62.872,-47.231,-28.161,-31.145,-28.618,-66.468,-57.266,-39.511,-30.943,-25.521],[-85.02,-48.511,-42.568,-34.511,-32.598,-86.97,-45.45,-39.596,-33.969,-32.892,-84.108,-49.484,-38.063,-35.978,-34.413,-81.083,-54.272,-42.576,-37.698,-31.288,-77.972,-56.711,-42.288,-35.057,-29.912,-76.654,-63.263,-45.266,-39.995,-33.068],[-91.64,-62.863,-47.226,-43.817,-36.36,-90.712,-59.285,-48.173,-41.437,-36.713,-91.478,-60.494,-48.986,-40.295,-37.268,-86.546,-65.108,-49.955,-42.596,-37.075,-86.616,-64.496,-47.573,-44.117,-39.787,-81.964,-75.702,-62.662,-46.78,-38.908],[-93.467,-69.565,-55.582,-47.611,-41.462,-90.438,-67.581,-57.666,-47.721,-40.468,-91.588,-71.547,-54.712,-50.186,-40.828,-91.181,-69.623,-59.648,-48.087,-42.572,-88.699,-75.791,-59.281,-49.771,-43.268,-86.08,-78.567,-65.28,-55.584,-46.019],[-95.693,-75.471,-58.737,-52.983,-47.337,-95.981,-73.639,-62.712,-51.77,-47.08,-94.432,-76.269,-61.928,-54.19,-46.724,-91.031,-75.636,-62.143,-55.172,-48.802,-89.794,-79.426,-65.905,-57.007,-48.877,-90.328,-83.358,-70.293,-62.225,-54.991]],
"vp": [[-34.634,-542.415,-670.536,-553.062,-736.285,-72.167,-21.9,-82.541,26.601,35.338,9.093,-66.644,-76.425,-27.933,-95.625,-1.031,-20.788,-28.101,-14.136,-8.24,-35.769,-24.056,-8.383,-12.365,-13.368,-41.116,-23.895,-13.553,-26.748,-17.784],[2840.789,327.958,148.211,-1233.604,-651.646,579.022,204.763,-32.636,-195.161,-80.004,225.088,20.343,-55.19,-53.771,-62,32.033,15.623,11.244,-18.422,-9.734,-12.7,7.832,-23.552,1.429,0.987,-12.207,-19.679,-9.161,-9.603,-17.148],[6814.47,2390.73,1562.547,410.434,-319.706,1111.742,357.354,350.771,71.72,96.587,593.852,246.29,168.233,100.894,-20.19,79.965,61.969,19.695,25.452,-8.996,-2.635,15.581,2.147,-1.58,-8.416,7.216,-5.834,-22.44,8.25,-7.159],[6747.121,6245.462,3419.483,2931.012,1396.351,1108.24,966.926,752.97,486.655,348.169,705.718,533.259,386.78,250.485,183.134,90.661,99.042,83.679,53.303,28.242,37.619,37.352,2.546,28.172,31.254,5.977,19.728,18.785,-0.554,-5.067],[6723.201,7030.141,6050.633,4826.266,3141.283,1100.757,1409.583,1313.384,720.294,522.851,640.387,763.611,432.734,500.123,400.884,100.929,129.13,123.454,87.608,48.176,23.27,88.939,46.83,24.524,24.876,12.169,6.449,13.052,13.241,4.855],[8784.367,8499.879,8096.058,7728.528,5031.541,1664.045,1697.474,1540.961,1362.421,1139.231,715.448,947.405,763.103,813.653,465.726,127.786,143.613,157.047,143.217,127.17,54.322,67.342,67.94,78.424,48.915,6.855,27.378,37.019,38.184,43.914]]
}