{
"KTrans": [[-4.019,3.783,5.93,6.833,3.022,18.568,6.518,10.962,9.35,10.02,22.439,23.375,16.123,16.278,13.375,93.82,97.496,80.713,73.264,60.322,3.999,146.933,138.104,150.024,133.455,25.668,-14.765,36.456,166.63,105.691],[-31.706,7.05,5.563,3.552,3.062,-21.364,13.257,6.55,7.122,4.438,-13.531,10.594,13.903,9.096,9.068,-0.313,91.017,48.709,43.193,34.068,8.22,42.334,100.123,80.692,70.527,5.364,53.433,131.255,113.114,120.533],[-62.126,7.154,6.122,3.842,5.86,-54.523,15.701,9.114,7.39,4.45,-56.949,16.009,12.877,11.06,8.064,-48.112,70.67,59.696,36.678,32.841,-13.846,18.863,99.566,96.277,67.673,47.582,54.278,63.618,64.327,112.526],[-81.801,-1.071,6.152,5.13,4.529,-75.65,4.742,10.183,8.33,7.946,-73.53,8.921,13.204,15.117,8.171,-69.24,7.176,53.087,41.484,34.646,-47.135,23.787,95.112,95.418,59.136,-3.8,-2.852,-14.591,102.32,102.356],[-87.82,-13.695,5.984,8.221,5.038,-87.875,1.927,15.56,7.39,9.532,-84.903,-3.866,15.828,13.4,11.702,-69.769,-23.572,59.292,38.419,32.647,-48.619,-22.24,26.325,94.23,71.892,-53.278,-9.725,43.212,42.477,59.91],[-90.051,-15.809,19.424,8.203,8.53,-88.789,-21.432,8.767,17.014,8.527,-91.025,-18.95,18.56,15.078,10.32,-79.807,-18.461,45.708,54.075,35.653,-69.496,-33.076,-12.5,69.185,103.789,-47.512,-7.755,-17.334,22.839,41.973]],
"ve": [[12.803,11.543,12.261,17.455,75.178,681.84,6.6,18.847,-134.196,13.787,-30.295,7.93,2.613,15.912,-16.935,49.626,16.938,5.518,-8.885,-11.769,97.443,38.946,6.469,-44.2,-26.937,193.77,57.4,13.728,11.217,-3.882],[0.149,2.688,0.053,0.564,-0.949,8.69,1.449,2.346,0.645,0.31,15.669,7.944,3.269,1.159,1.253,54.162,24.714,15.101,8.197,4.755,102.705,57.405,28.247,18.697,13.601,210.678,96.085,59.044,41.257,38.758],[-37.961,1.55,1.443,0.167,-0.64,15.89,2.184,1.945,1.127,-0.06,232.386,5.759,1.946,2.072,0.805,55.687,22.374,15.945,11.392,8.443,106.469,51.417,33.196,23.098,16.857,193.966,103.186,66.621,47.112,43.387],[4.103,2.143,0.661,-0.014,0.233,7.708,3.167,1.152,1.101,0.409,4.017,5.344,4.538,2.09,1.243,55.688,25.886,17.863,11.447,8.887,103.772,48.905,33.05,24.067,17.915,200.917,98.923,66.278,47.19,38.315],[-1.796,-0.313,-0.341,-0.389,-0.841,6.171,1.15,2.721,1.377,0.629,8.565,7.913,4.217,1.88,1.42,48.691,25.943,16.37,11.381,8.391,102.496,43.361,34.737,23.528,18.686,204.941,101.65,64.29,54.223,36.073],[5.526,0.834,0.698,-0.779,-0.467,311.606,1.31,1.686,0.244,0.594,31.133,10.701,3.076,1.98,1.234,53.131,26.134,18.284,12.693,9.328,104.268,49.974,33.425,24.406,19.763,202.01,98.479,71.761,49.703,52.447]],
"kep": [[-8.751,1.58,8.201,9.993,4.591,10.502,6.454,10.697,15.521,16.941,7.384,21.897,22.727,26.896,24.361,29.134,73.5,77.402,96.06,94.289,-28.428,78.486,110.234,164.279,180.551,-28.121,-16.114,19.452,142.098,116.254],[-37.416,5.325,6.32,3.809,4.748,-27.712,12.616,5.026,7.335,5.091,-23.981,3.483,11.104,8.691,8.57,-33.402,52.09,29.403,33.028,28.585,-40.312,0.417,54.769,52.157,50.295,-53.285,-8.981,45.542,48.902,68.237],[-67.414,6.205,5.321,3.98,6.829,-61.51,13.567,7.286,6.353,4.705,-65.693,10.001,11.254,8.989,7.584,-64.205,36.512,37.228,22.802,22.635,-53.495,-16.008,47.957,58.178,43.201,-45.008,-12.965,7.092,15.434,53.922],[-84.89,-2.64,5.796,5.203,4.507,-80.176,1.929,8.963,7.29,7.673,-79.144,2.635,8.917,12.964,7.023,-78.511,-14.673,29.189,26.786,23.715,-70.239,-12.634,44.582,55.201,34.362,-62.686,-42.972,-37.84,37.056,45.346],[-89.993,-15.271,6.192,8.803,6.063,-90.147,-2.83,12.572,5.99,8.894,-87.644,-11.611,11.17,11.497,10.221,-79.873,-39.147,35.167,23.991,22.242,-72.347,-44.686,-4.75,55.066,43.291,-79.998,-49.235,-8.12,0.007,15.55],[-91.114,-18.942,18.256,9.055,9.097,-91.098,-25.705,6.342,16.667,8.024,-92.236,-24.961,15.017,12.84,9.055,-85.653,-34.395,22.574,35.732,23.63,-82.897,-51.495,-30.819,34.875,68.04,-79.63,-49.334,-45.116,-13.494,5.671]],
"vp": [[807.416,344.43,-120.181,-258.062,49.846,188.897,28.676,-7.785,54.274,48.258,44.37,46.023,-2.436,-0.955,19.191,4.983,-25,5.147,-16.029,-2.688,-6.086,-9.96,-12.16,-16.19,-19.538,-5.254,-11.011,-16.642,-27.512,-24.285],[4583.335,1413.684,898.312,281.662,121.318,964.039,290.757,189.729,174.616,72.628,388.917,102.607,65.064,4.467,70.421,66.302,-0.711,-8.43,-26.92,-2.928,34.354,-15.795,-31.584,-21.256,-8.755,28.344,-22.114,-22.09,-12.309,-22.562],[8184.857,4333.184,1266.493,477.318,1214.04,1468.223,709.643,206.339,171.982,111.291,754.26,417.786,94.292,31.167,67.45,125.191,50.426,-10.108,-25.22,21.175,36.219,19.093,-8.993,2.124,-0.661,3.215,10.639,-13.932,-19.297,-2.039],[8008.142,8002.712,2657.298,1003.837,1217.22,1525.278,1505.728,539.049,219.238,128.365,814.765,752.814,298.039,103.116,26.593,142.566,146.262,26.342,6.751,19.897,72.721,15.346,19.089,2.41,-21.982,30.987,15.667,-4.181,-47.572,-28.72],[8079.73,11029.186,4307.448,1266.338,1044.223,1694.718,2229.025,1126.361,453.823,299.867,861.848,1144.305,481.936,191.406,142.445,146.579,200.013,81.551,8.959,7.394,64.077,103.745,32.937,-22.401,-11.27,44.517,35.696,-5.611,-17.072,5.247],[9324.884,14027.825,8956.445,2462.449,705.831,1618.829,2383.876,1692.318,655.02,285.187,920.613,1331.261,817.112,378.993,203.018,150.158,222.907,152.745,53.69,11.563,69.508,120.426,77.378,-1.691,1.004,29.999,42.181,32.981,12.719,-2.633]]
}