{
"KTrans": [[-1.612,-0.215,0.228,-0.969,1.188,4.028,-1.424,0.25,1.072,0.153,-0.497,-1.167,-2.207,-0.794,-1.228,-21.463,-6.115,-4.692,-6.328,-6.226,-38.36,-19.838,-16.042,-14.128,-7.998,-44.349,-35.36,-16.213,-22.922,-22.323],[-31.195,-1.124,-0.811,2.038,0.124,-30.031,0.799,0.568,-0.973,-0.433,-30.382,-2.621,-2.712,-0.226,0.547,-48.152,-8.078,-6.461,-4.905,-3.791,-58.235,-16.268,-12.485,-9.385,-8.398,-70.5,-32.657,-21.143,-20.659,-15.622],[-53.335,-5.978,-0.419,1.863,0.619,-64.237,-6.06,-2.632,0.109,-0.27,-65.776,-4.495,-1.963,-1.527,-0.088,-70.527,-14.739,-7.302,-4.67,-2.927,-76.99,-22.148,-11.326,-7.393,-6.611,-82.238,-38.826,-25.373,-19.106,-14.076],[-82.725,-11.913,0.342,1.132,0.423,-77.874,-12.093,-3.805,-2.009,-0.46,-77.232,-12.085,-3.01,-1.842,0.39,-86.773,-22.166,-6.905,-4.931,-3.445,-87.416,-32.766,-13.426,-8.338,-6.593,-89.908,-44.356,-27.43,-17.355,-13.461],[-90.738,-18.196,-2.347,-0.559,0.868,-90.688,-21.389,-3.049,0.806,-0.175,-90.915,-22.009,-6.179,-0.476,-1.038,-93.855,-27.784,-10.821,-4.522,-3.956,-94.308,-38.789,-17.268,-9.804,-6.382,-93.677,-58.62,-24.951,-18.479,-12.637],[-94.137,-30.544,-3.9,-1.398,-0.766,-95.922,-28.411,-5.073,0.159,-0.144,-95.336,-31.97,-4.675,-0.028,-1.83,-97.303,-37.36,-11.782,-5.337,-3.357,-97.205,-43.701,-18.765,-8.694,-6.444,-96.484,-62.338,-30.46,-23.573,-16.235]],
"ve": [[1.971,2.35,1.998,9.088,29.162,0.943,1.3,4,5.924,22.364,-0.044,0.416,4.156,9.848,10.232,-6.006,2.617,5.884,19.458,22.513,-2.857,8.789,27.309,316.969,62.592,-14.67,-173.162,-27.091,-47.523,-436.753],[-11.984,0.034,-0.72,-0.323,-0.304,-11.456,-0.44,0.285,0.299,-0.026,-13.021,-0.791,-0.573,0.498,-0.155,-21.714,-3.369,-2.552,-1.173,-0.558,-27.167,-8.424,-4.113,-1.894,-0.784,-115.392,-13.762,-6.846,-4.64,-1.608],[-23.092,-2.341,-0.019,0.424,0.063,-29.969,-2.926,-1.429,0.025,-0.147,-31.653,-2.744,-0.722,-0.736,0.013,-36.696,-7.189,-2.509,-2.28,-1.096,-45.189,-11.064,-5.587,-3.131,-2.606,-58.947,-21.033,-12.817,-7.969,-5.317],[-48.715,-4.589,-0.383,-0.071,0.24,-41.189,-5.599,-1.046,-0.303,-0.307,-41.901,-5.952,-1.225,-1.047,-0.436,-52.826,-10.223,-3.012,-1.994,-1.602,-54.419,-16.797,-6.717,-3.695,-2.991,-81.511,-24.924,-14.756,-7.431,-5.95],[-60.05,-8.375,-1.188,-0.157,-0.285,-54.051,-8.809,-1.222,-0.339,-0.276,-62.468,-11.684,-2.158,0.023,-0.384,-62.06,-13.895,-5.3,-2.183,-1.728,-154.419,-20.823,-8.407,-5.621,-3.371,-128.567,-35.473,-13.054,-9.478,-5.784],[-65.516,-14.04,-2.202,-0.791,-0.13,-65.4,-13.969,-3.237,-0.596,-0.468,-71.44,-14.824,-2.851,-0.874,-0.997,-80.396,-17.794,-5.854,-2.777,-1.915,-83.821,-23.613,-10.579,-4.958,-2.764,-110.357,-40.638,-15.895,-11.992,-8.443]],
"kep": [[-2.679,-0.53,1.373,-2.493,1.097,3.838,-1.254,-1.051,1.087,1.017,-0.195,-0.314,-2.458,-2.229,-2.975,-14.34,-6.394,-5.783,-11.674,-13.021,-34.6,-22.288,-22.533,-26.679,-14.682,-46.688,-44.907,-25.937,-46.781,-53.005],[-22.988,-1.093,-0.134,2.398,0.573,-21.727,1.11,0.286,-1.146,-0.294,-21.888,-2.029,-2.058,-0.609,0.861,-35.49,-5.043,-3.962,-3.672,-3.092,-45.319,-9.334,-8.883,-7.68,-7.616,-69.453,-23.956,-16.057,-17.21,-14.243],[-42.523,-3.918,-0.46,1.415,0.574,-51.638,-3.413,-1.281,0.052,-0.127,-51.93,-1.994,-1.397,-0.806,-0.088,-57.793,-8.411,-5.017,-2.513,-1.862,-65.843,-13.126,-6.448,-4.553,-4.149,-78.708,-26.868,-15.677,-12.69,-9.636],[-70.617,-7.778,0.602,1.17,0.169,-66.818,-7.204,-2.876,-1.75,-0.158,-65.853,-6.71,-1.957,-0.823,0.813,-77.856,-13.716,-4.185,-3.122,-1.885,-79.604,-19.824,-7.626,-5.032,-3.806,-94.366,-30.867,-15.883,-11.16,-8.385],[-82.582,-11.244,-1.298,-0.5,1.132,-81.901,-14.132,-1.884,1.11,0.089,-82.814,-12.089,-4.273,-0.554,-0.681,-86.271,-17.198,-6.264,-2.494,-2.325,-91.432,-24.022,-10.125,-4.65,-3.243,-100.473,-41.799,-15.138,-10.765,-7.695],[-87.367,-20.635,-1.77,-0.71,-0.669,-90.771,-17.809,-1.994,0.614,0.286,-89.535,-20.893,-2.142,0.786,-0.863,-94.474,-24.813,-6.688,-2.711,-1.525,-96.189,-29.257,-9.768,-4.2,-3.896,-102.365,-45.575,-19.182,-13.855,-8.965]],
"vp": [[170.941,67.422,118.833,-16.82,-64.48,22.12,26.332,5.22,8.221,47.144,9.571,26.799,27.396,12.053,13.317,23.355,10.213,9.8,13.527,10.097,17.884,14.256,14.572,13.315,10.47,12.941,14.931,8.135,12.725,12.758],[1391.751,82.113,128.902,-72.04,108.469,271.905,56.173,2.866,31.923,-3.921,153.3,28.614,36.596,13.408,11.063,47.501,15.15,19.061,17.589,14.457,30.477,19.101,17.055,15.96,15.992,27.349,16.968,13.856,18.391,15.412],[2589.048,619.291,-43.448,-143.035,68.994,625.611,97.448,87.934,25.176,34.156,349.513,52.53,24.399,29.258,15.678,80.464,30.296,18.388,18.976,14.451,48.449,22.537,17.644,14.063,16.097,31.595,22.363,20.932,19.28,16.198],[5055.146,970.774,139.84,135.965,26.581,903.634,238.507,106.055,50.227,52.502,448.972,116.995,36.031,33.394,16.823,115.975,43.779,16.956,20.091,16.502,65.55,35.077,19.604,16.142,16.621,41.166,25.99,23.156,16.46,16.051],[6440.842,1797.804,306.126,141.585,101.582,1234.014,374.418,100.747,18.607,37.315,631.477,243.924,73.555,9.881,37.865,142.5,57.598,34.095,18.165,19.452,77.608,42.659,26.426,21.943,16.288,49.029,36.695,20.521,19.121,15.011],[6851.583,3053.546,762.552,355.483,234.161,1466.861,582.261,193.899,48.144,38.887,734.006,314.682,85.02,39.614,51.304,162.777,72.339,36.601,22.745,19.973,83.998,48.697,33.222,19.547,14.332,51.828,41.271,24.177,25.185,21.852]]
}