{
"KTrans": [[0.316,2.384,2.445,1.882,1.574,0.223,12.493,11.685,10.964,11.41,16.575,23.368,23.759,22.82,22.059,22.216,51.278,81.479,89.088,91.227,151.769,-17.823,95.212,115.763,120.087,217.392,-169.153,-33.97,51.505,108.114],[3.976,1.883,0.469,0.929,0.753,16.334,7.683,1.317,5.057,4.334,25.154,16.946,-2.216,9.352,9.317,-46.859,91.037,-2.916,23.575,35.598,26.179,-60.502,67.274,16.456,44.515,-92.303,-73.236,59.322,-1.171,-24.086],[4.963,0.644,1.336,0.849,0.184,16.81,8.998,5.004,4.693,2.24,34.068,15.069,9.032,9.225,-0.12,-56.791,59.196,49.807,25.785,5.434,-39.357,14.7,12.474,3.946,4.075,4.284,59.621,118.632,19.395,12.203],[12.663,3.588,1.607,0.495,0.635,12.001,7.806,4.498,3.06,3.784,23.718,13.372,9.232,7.711,7.136,-20.987,60.994,37.808,39.594,29.573,-39.336,-31.518,-5.07,26.302,-9.374,-79.685,-40.614,-29.346,22.32,-42.798],[16.609,-0.44,1.375,1.918,0.384,22.067,10.98,3.949,4.564,3.104,-13.999,11.632,10.216,7.513,7.257,-45.863,-1.916,28.736,40.33,25.705,-45.828,57.166,35.24,30.383,33.391,28.627,-19.205,-140.709,30.984,29.24],[-37.8,6.033,2.221,-0.63,1.665,-37.093,11.664,2.132,4.424,3.602,-42.16,17.668,12.633,5.127,6.697,-52.954,13.877,29.731,33.381,28.706,-50.139,-51.739,88.095,27.318,48.272,-21.257,-27.61,67.349,-56.511,47.059]],
"ve": [[0.991,0.924,1.094,0.966,0.917,4.991,7.05,7.809,9.003,12.632,9.021,10.277,50.121,41.934,60.734,48.381,-11.085,-904.966,4709.56,-256.252,103.95,31.393,-11.084,-37.038,-50.118,201.823,83.983,33.718,2.045,-17.991],[1.185,0.641,0.33,0.323,0.235,5.419,2.731,1.683,2.202,1.809,9.828,5.335,3.295,8.278,4.813,50.253,27.319,17.04,-17.247,91.996,99.639,51.962,29.799,18.045,-38.99,191.264,100.047,65.463,42.693,26.859],[1.163,0.487,0.448,0.317,0.197,5.202,2.861,1.842,1.479,0.979,9.796,5.254,3.452,2.784,1.979,50.762,28.181,16.293,13.435,9.852,99.852,48.251,33.687,26.683,19.772,203.249,98.466,68.336,51.089,38.779],[1.41,0.757,0.456,0.273,0.253,4.524,2.641,1.76,1.303,1.23,11.083,5.075,3.495,2.722,2.3,48.645,25.666,16.383,12.558,10.981,101.254,50.903,32.912,25.538,21.763,200.91,108.582,74.09,50.032,42.307],[0.94,0.274,0.409,0.445,0.223,6.025,2.743,1.686,1.474,1.137,7.199,5.034,3.536,2.688,2.322,46.974,24.847,14.402,12.422,9.634,99.539,52.206,33.763,25.021,20.854,187.212,96.002,68.04,49.336,41.836],[-0.221,0.51,0.51,0.139,0.397,4.878,2.64,1.543,1.465,1.197,9.514,5.07,3.643,2.451,2.231,51.592,25.817,14.527,12.394,10.054,94.311,47.976,33.767,26.383,19.922,196.844,99.576,66.429,55.314,39.454]],
"kep": [[49.649,-2.848,-2.357,-1.699,-1.421,36.685,-19.898,-15.595,-14.768,-17.721,164.454,-40.244,-36.318,-34.569,-35.516,89.58,-257.882,-197.496,-201.677,-195.933,145.676,-414.707,-359.347,-367.451,-435.237,114.899,-141.002,-536.261,-632.048,-674.483],[3.367,4.112,100.626,-1.827,-0.487,11.331,12.518,67.142,-15.111,-7.773,14.608,26.569,0.863,-32.137,-19.01,-60.769,71.725,16.567,-161.686,-96.515,-33.541,-88.927,158.982,-263.691,-189.266,-68.86,-56.61,91.949,29.025,-364.911],[0.832,0.808,2.889,3.543,82.745,7.4,8.23,7.386,15.723,194.712,16.802,12.249,11.448,27.582,35.516,-66.195,23.003,43.953,30.516,47.646,-65.825,-27.754,-23.515,-22.231,48.749,-60.674,-9.557,45.467,3.386,60.418],[2.625,2.559,2.236,1.343,2.357,-1.348,5.033,4.518,4.286,9.046,1.415,7.969,8.175,10.188,15.163,-51.281,17.61,16.287,35.305,37.36,-63.665,-55.23,-36.076,-2.705,-46.803,-78.34,-67.13,-54.666,-13.931,-76.184],[2.032,-1.905,1.213,2.636,1.161,-1.52,6.434,2.933,5.114,4.572,-34.741,3.898,7.777,7.37,10.017,-63.293,-26.955,5.909,29.655,19.92,-70.45,-10.922,-6.044,-4.478,5.083,-55.149,-50.32,-105.216,-16.862,-13.052],[-46.738,2.598,1.408,-0.507,2.349,-50.86,4.485,0.119,3.683,4.178,-56.953,7.533,8.623,3.584,7.314,-69.195,-17.196,6.425,17.543,21.447,-74.117,-65.526,28.774,-5.997,24.879,-71.62,-58.512,-8.482,-73.195,-10.595]],
"vp": [[-21.472,-36.258,-29.301,-42.898,-46.611,-15.835,-19.03,-16.022,-23.122,-3.542,-36.082,-23.444,-5.049,-7.539,-7.628,-36.329,10.899,-1.466,3.965,-7.602,-36.225,9.743,-10.477,-9.729,10.187,-34.496,9.232,-1.048,-9.566,-18.113],[251.53,31.767,-23.57,-53.948,-70.169,66.38,1.514,-44.308,-8.608,-29.443,-5.625,-15.323,-26.047,-15.417,-10.603,-43.94,-5.736,-38.464,-14.498,-15.488,-34.324,-41.512,-60.484,-12.72,-13.367,-30.219,-23.949,-37.447,-10.465,15.018],[215.131,307.224,181.395,31.613,-33.862,87,82.136,11.616,16.951,-27.371,52.125,21.789,-1.814,-8.908,-18.044,-7.645,-7.794,-30.289,-17.477,-46.558,-18.91,-32.833,-20.189,-27.46,-27.474,-26.795,-36.521,-44.219,-40.004,-41.517],[1171.834,525.647,451.837,175.942,162.866,279.241,120.119,82.292,9.402,25.434,171.694,39.113,13.541,26.395,13.567,-22.914,12.79,2.25,-9.875,-25.428,-10.171,-20.62,-12.176,-22.74,-18.599,-15.899,-21.551,-27.079,-46.479,-34.108],[3262.875,720.802,586.758,457.861,263.727,801.613,188.322,123.604,112.945,69.628,340.269,15.405,118.843,43.29,69.906,7.924,-14.302,9.059,6.47,-8.822,1.521,6.112,-27.049,-10.649,3.004,-41.374,-28.27,-28.888,-29.66,-18.903],[3283.685,1214.92,919.738,585.663,489.682,787.313,145.254,88.213,134.051,120.719,413.71,84.506,112.31,41.115,90.805,40.16,6.863,12.985,19.264,2.229,-3.195,-2.041,-27,-3.84,-22.427,-17.808,-15.705,-38.594,-12.324,-18.523]]
}