{
"KTrans": [[6.513,3.855,3.707,4.332,4.245,13.011,9.599,7.832,7.394,9.629,30.84,17.787,16.731,16.092,14.876,72.547,90.052,70.494,65.444,60.762,80.382,24.374,-11.543,68.95,74.164,193.472,83.328,98.538,45.351,127.9],[-10.158,-0.457,0.305,0.993,1.765,0.425,5.137,5.92,2.927,3.409,2.332,13.305,10.274,7.303,5.744,12.592,46.841,45.922,34.924,34.409,36.53,-14.279,60.973,72.589,65.266,84.356,20.796,38.417,35.605,49.38],[-25.829,-1.692,-1.739,-0.275,-0.536,-15.013,1.52,1.942,1.364,3.059,-30.997,1.638,6.108,5.184,5.186,-35.584,-14.174,31.668,32.368,25.577,-8.656,16.855,5.307,67.705,54.263,-28.554,42.029,76.804,45.372,32.008],[-62.914,1.339,-2.311,-2.331,-0.801,-71.177,-3.26,-0.678,-0.374,1.232,-58.626,4.537,5.668,3.136,4.048,-42.01,-3.554,36.848,25.391,27.647,-27.604,19.016,-12.229,52.367,58.789,-30.862,-15.683,-18.477,-46.587,32.163],[-71.923,-2.409,-0.703,-1.194,-3.337,-71.373,3.919,-2.402,-1.836,-0.111,-78.973,8.908,2.898,1.879,1.792,-57.77,-15.049,36.606,27.091,18.387,-36.424,-5.133,-30.026,59.16,38.298,-35.341,2.799,0.36,-0.403,-34.029],[-87.987,-5.306,-7.441,-4.434,-2.578,-88.717,-11.448,4.206,1.834,-0.442,-89.073,-19.918,6.612,5.659,2.707,-66.137,-27.36,-14.05,23.108,17.092,-42.114,-20.592,-12.588,14.078,52.482,-56.785,-3.234,6.682,21.366,-3.986]],
"ve": [[4.454,5.695,7.701,5.816,20.691,5.608,6.412,4.474,8.267,2.984,12.178,6.056,3.21,0.836,2.748,45.635,18.544,4.332,-6.378,-12.408,97.217,119.072,-0.939,-4.566,-19.374,198.962,96.125,28.161,9.934,-5.838],[0.776,1.311,0.801,0.554,1.426,6.098,2.484,2.295,1.388,1.75,10.849,5.046,2.96,2.393,1.697,50.603,24.163,15.493,10.016,7.255,102.488,48.598,17.253,22.95,14.276,192.829,97.232,60.893,40.006,27.605],[8.569,-0.572,-0.182,0.316,0.383,7.367,2.153,1.001,0.972,0.776,11.816,3.954,3.173,2.209,1.9,-21.92,24.372,16.182,11.71,8.678,99.758,46.813,31.552,25.327,17.171,217.937,94.959,65.762,37.853,32.348],[1.867,0.531,0.198,-0.243,0.031,9.186,2.32,0.987,0.121,0.794,12.278,4.741,3.69,2.017,1.519,46.728,39.229,16.328,11.496,9.719,99.627,51.043,32.2,23.054,19.294,208.254,93.615,67.686,49.133,38.161],[11.962,1.126,0.288,-0.108,-0.855,8.407,2.663,1.184,0.929,0.556,9.39,4.831,2.312,1.75,1.327,57.626,23.789,16.712,11.377,9.663,105.952,51.333,34.732,23.229,18.811,202.198,97.364,66.882,26.381,36.657],[7.674,1.811,-0.494,-0.59,-0.617,10.76,2.967,1.99,0.99,0.357,14.629,4.325,3.199,2.869,1.576,52.442,24.413,16.007,12.165,8.922,97.9,48.295,32.737,24.595,20.561,213.788,90.291,65.156,50.375,38.493]],
"kep": [[-1.599,-6.185,-4.876,-3.616,-6.597,2.227,-1.484,-0.94,0.579,6.298,11.326,6.097,9.201,12.147,12.171,14.834,53.241,55.695,68.667,76.821,3.788,-9.175,-39.21,52.301,76.405,20.899,24.494,53.451,40.22,131.166],[-16.858,-7.877,-6.681,-5.832,-5.946,-11.448,-3.781,-2.941,-4.9,-4.741,-12.966,1.067,0.38,-1.856,-2.642,-27.77,10.657,18.09,14.781,17.33,-27.272,-37.482,12.873,31.598,35.396,-33.869,-29.9,-9.928,-4.234,7.587],[-32.619,-7.495,-7.87,-7.002,-7.305,-27.416,-7.085,-5.625,-6.044,-4.342,-42.612,-8.518,-3.763,-3.711,-3.432,-57.125,-32.872,5.381,10.545,8.004,-52.803,-23.435,-21.832,24.584,22.511,-70.683,-24.498,4.075,-4.406,-8.024],[-66.534,-6.25,-8.917,-8.441,-7.249,-73.433,-12.233,-8.079,-6.949,-6.074,-64.495,-7.473,-4.828,-5.478,-4.141,-61.164,-26.149,9.016,4.711,8.494,-63.996,-23.234,-33.134,12.247,23.151,-73.071,-52.577,-45.676,-54.844,-8.875],[-75.066,-11.348,-7.74,-7.563,-8.819,-75.155,-7.129,-10.014,-9.104,-7.144,-80.807,-4.649,-6.439,-6.484,-6.105,-72.971,-35.125,7.554,5.711,0.687,-67.478,-38.693,-44.144,17.158,8.116,-76.142,-46.16,-39.291,-30.891,-46.535],[-87.787,-15.481,-13.785,-10.404,-8.448,-88.848,-21.624,-5.31,-5.956,-7.362,-89.182,-30.03,-4.377,-4.248,-5.54,-77.557,-44.536,-30.466,1.58,0.071,-71.018,-48.339,-35.195,-13.129,16.645,-82.578,-50.714,-35.021,-19.886,-28.916]],
"vp": [[102.967,200.896,164.495,18.389,-322.166,-52.073,22.236,-29.763,-28.321,-36.559,15.074,-8.42,-25.819,-28.875,-18.175,-43.296,-20.828,-14.918,-5.606,-9.434,-48.171,-11.952,7.404,-12.202,-14.324,-31.907,-25.405,-23.196,-20.307,-39.65],[1851.206,684.861,141.825,-134.177,180.421,314.484,149.363,36.524,-50.853,-6.736,149.772,73.385,-32.741,-2.228,-32.101,1.447,-49.122,-28.445,-42.996,18.226,-23.719,-37.722,-13.187,-18.905,-13.731,-58.554,-67.207,-61.822,-29.025,-23.959],[3792.809,1035.415,614.454,315.948,-136.125,720.097,349.394,192.14,67.767,81.85,387.869,87.897,126.968,-21.079,21.143,27.865,-14.402,-39.911,-31.554,-33.88,-13.472,-40.846,-30.337,-43.014,-35.06,-8.525,-62.013,-50.144,-74.373,-36.627],[4159.991,2266.002,610.094,861.45,156.545,1019.906,596.001,204.143,-41.606,3.3,375.207,232.394,112.458,18.045,76.65,51.563,-7.432,-1.178,-19.675,9.312,-23.721,-34.542,-39.239,-34.844,-17.377,-45.596,-33.724,-44.128,-48.946,-47.071],[5122.281,4344.646,1882.432,1251.747,587.683,1026.689,873.58,366.294,103.957,105.728,417.733,389.383,151.375,71.905,73.131,70.478,20.731,11.556,-8.605,-24.185,35.119,-29.607,-14.23,-33.232,-48.763,-45.077,-39.65,-27.738,-48.563,-53.986],[6062.777,5490.693,1979.691,1393.278,1020.115,1460.354,1053.368,554.92,452.047,243.085,639.97,432.691,320.259,226.124,101.21,61.455,38.327,13.225,2.931,1.411,-3.757,-27.991,-29.192,-17.524,-11.429,-15.869,-43.028,-42.149,-63.942,-44.807]]
}