{
"KTrans": [[40.513,43.602,31.395,23.733,28.795,51.321,41.956,30.532,27.167,35.832,83.856,60.041,49.795,36.691,40.18,235.438,163.123,99.856,102.742,113.917,471.078,323.485,219.133,206.555,190.195,1384.046,737.466,554.154,468.351,454.095],[-85.347,85.398,47.014,35.189,40.368,-78.751,117.284,48.676,45.944,48.689,-67.908,103.588,70.767,53.925,35.616,-42.442,222.427,95.15,85.529,68.891,48.283,325.44,188.483,134.471,125.066,77.155,627.282,375.307,268.271,226.182],[-120.603,9.753,84.214,72.027,50.309,-130.328,98.008,109.352,79.339,64.106,-109.881,92.748,121.567,62.766,58.099,-143.686,125.234,182.766,114.162,80.537,-164.371,232.373,284.731,166.486,126.582,-161.224,614.701,471.832,314.677,203.631],[-118.673,-88.038,143.671,97.933,76.995,-128.329,-103.428,149.192,119.128,98.375,-118.218,-101.17,193.749,126.72,75.773,-130.207,-132.006,205.136,202.314,117.812,-121.031,-102.083,357.294,254.719,160.311,-186.666,-81.108,486.239,406.844,238.64],[-119.429,-169.064,58.978,220.095,119.321,-119.347,-165.336,41.734,180.163,142.318,-103.339,-179.325,-1.812,221.324,134.953,-118.191,-170.981,55.933,246.803,170.847,-156.968,-132.709,-20.835,358.685,225.703,-141.633,-262,314.979,527.928,348.682],[-112.74,-130.924,-142.169,173.65,179.238,-110.059,-156.664,-165.599,177.572,202.305,-111.809,-145.834,-104.811,174.546,192.003,-128.593,-209.142,-174.024,204.856,237.739,-114.002,-142.866,-154.424,311.06,368.264,-174.405,-137.903,-344.554,448.939,477.622]],
"ve": [[30.001,19.022,12.712,10.988,-62.682,12.823,6.279,173.346,15.959,-3.213,14.055,8.663,8.388,-105.966,-11.099,48.946,17.749,-1.806,-10.641,-18.497,95.166,37.866,8.012,-6.715,-17.775,195.857,79.609,37.014,12.67,-6.244],[9.424,4.663,2.235,1.434,2.109,6.643,7.29,1.959,3.434,3.019,14.921,7.861,5.781,4.21,1.227,54.455,28.671,13.342,11.087,5.696,55.052,51.962,31.607,18.814,13.276,209.58,99.932,62.358,44.275,30.891],[0.637,-0.004,2.467,3.153,1.095,-19.362,10.914,5.253,3.991,3.045,33.4,8.274,6.941,3.162,2.75,47.998,24.618,19.513,14.21,7.788,100.819,50.639,36.349,25.079,17.28,187.703,99.757,64.323,51.616,37.771],[-1.267,7.635,6.122,2.162,1.162,16.202,3.705,3.734,3.462,4.168,12.038,5.408,8.83,5.322,3.439,53.294,30.274,17.698,14.921,10.803,107.079,52.03,34.669,28.848,20.307,201.295,101.002,70.733,52.251,39.075],[7.817,2.913,33.145,3.655,1.89,10.018,4.067,3.257,2.609,4.379,10.824,4.987,4.743,5.443,3.583,54.575,117.015,21,14.779,12.478,102.868,50.615,27.626,31.423,21.577,200.718,102.006,69.057,50.846,42.334],[3.774,3.011,2.769,1.155,2.049,22.363,7.742,5.953,4.815,1.233,-17.565,2.724,10.755,2.002,2.18,78.519,26.843,19.502,15.932,10.915,100.099,52.624,35.154,26.379,24.353,201.311,99.894,68.407,51.71,41.515]],
"kep": [[24.288,41.455,34.742,30.44,43.38,30.445,36.927,33.309,32.463,53.157,59.663,54.001,56.804,48.19,64.185,117.287,121.46,101.143,127.681,167.245,187.619,205.117,191.619,225.173,250.059,400.435,360.74,372.251,401.314,486.465],[-88.516,71.594,40.102,29.61,37.18,-83.619,93.371,40.123,38.21,43.398,-73.15,81.207,56.799,44.87,31.751,-64.475,142.395,64.385,62.364,56.282,-28.8,173.791,112.653,90.65,93.893,-43.381,255.08,184.716,149.84,143.872],[-117.871,0.27,69.38,60.041,42.842,-126.874,72.107,88.722,65.289,53.576,-108.816,67.52,97.826,50.536,46.897,-125.699,66.005,124.584,80.475,59.235,-129.682,107.636,171.355,104.163,84.449,-118.041,240.282,231.749,168.021,114.687],[-115.938,-86.926,119.116,81.902,65.732,-122.629,-102.037,121.962,98.373,81.664,-113.27,-99.996,157.061,103.876,61.122,-117.055,-119.787,141.82,150.295,87.811,-107.125,-97.346,219.036,164.82,106.969,-127.463,-88.16,229.934,220.456,133.756],[-116.712,-159.147,43.324,190.019,101.038,-115.932,-153.797,27.303,150.492,118.559,-102.107,-164.317,-14.164,183.817,111.391,-109.28,-148.069,23.052,182.805,128.071,-125.807,-117.678,-43.158,236.288,153.911,-111.991,-172.17,138.84,294.852,201.15],[-110.169,-125.673,-133.474,148.94,154.294,-108.029,-147.16,-156.295,148.341,171.953,-110.085,-137.055,-101.725,143.198,160.668,-117.396,-178.148,-153.757,150.268,182.702,-104.892,-123.653,-133.956,203.719,259.341,-122.926,-113.929,-231.006,243.838,285.119]],
"vp": [[0.001,0.001,0.001,0.001,0.001,0.005,0.005,0.005,0.005,0.005,0.01,0.01,0.01,0.01,0.01,0.05,0.05,0.05,0.05,0.05,0.1,0.1,0.1,0.1,0.1,0.2,0.2,0.2,0.2,0.2],[0.001,0.001,0.001,0.001,0.001,0.005,0.005,0.005,0.005,0.005,0.01,0.01,0.01,0.01,0.01,0.05,0.05,0.05,0.05,0.05,0.1,0.1,0.1,0.1,0.1,0.2,0.2,0.2,0.2,0.2],[0.001,0.001,0.001,0.001,0.001,0.005,0.005,0.005,0.005,0.005,0.01,0.01,0.01,0.01,0.01,0.05,0.05,0.05,0.05,0.05,0.1,0.1,0.1,0.1,0.1,0.2,0.2,0.2,0.2,0.2],[0.001,0.001,0.001,0.001,0.001,0.005,0.005,0.005,0.005,0.005,0.01,0.01,0.01,0.01,0.01,0.05,0.05,0.05,0.05,0.05,0.1,0.1,0.1,0.1,0.1,0.2,0.2,0.2,0.2,0.2],[0.001,0.001,0.001,0.001,0.001,0.005,0.005,0.005,0.005,0.005,0.01,0.01,0.01,0.01,0.01,0.05,0.05,0.05,0.05,0.05,0.1,0.1,0.1,0.1,0.1,0.2,0.2,0.2,0.2,0.2],[0.001,0.001,0.001,0.001,0.001,0.005,0.005,0.005,0.005,0.005,0.01,0.01,0.01,0.01,0.01,0.05,0.05,0.05,0.05,0.05,0.1,0.1,0.1,0.1,0.1,0.2,0.2,0.2,0.2,0.2]]
}