{
"KTrans": [[2.722,1.687,0.182,0.972,0.954,-0.978,-0.874,0.768,0.628,0.162,-0.925,-0.062,1.647,0.094,-1.798,6.919,-2.666,2.404,-2.446,4.998,40.567,13.68,-3.186,8.713,7.622,-276.258,66.563,31.911,37.069,34.998],[6.021,3.013,1.692,0.79,0.872,1.776,1.084,1.856,0.419,0.137,0.703,1.207,0.482,0.773,0.698,21.877,-4.219,1.715,4.128,0.859,-56.052,2.92,4.28,2.217,1.027,-148.855,1.095,36.475,14.349,6.473],[-41.533,6.682,4.388,1.44,1.679,-42.51,7.246,1.742,1.386,1.291,-24.614,6.216,1.793,-0.229,0.885,-23.469,2.527,1.935,0.309,-0.623,-45.47,15.025,6.739,0.096,-3.338,-71.174,8.085,13.754,15.432,4.699],[-77.305,14.858,7.012,3.325,2.889,-71.616,16.06,5.626,3.393,2.194,-72.657,7.725,6.588,3.396,1.645,-66.771,75.614,-4.705,1.56,-3.81,-59.02,23.192,7.651,1.072,1.087,-89.134,59.081,15.407,0.505,16.717],[-83.612,-10.688,14.132,5.998,3.595,-85.013,-5.701,12.679,7.603,3.957,-83.547,24.308,11.056,5.54,3.909,-76.36,-0.821,-8.012,0.935,-1.201,-94.928,8.938,6.874,0.38,-1.781,-94.417,183.388,18.071,11.45,-5.825],[-92.381,-10.568,25.418,11.791,6.435,-88.096,-3.682,26.791,9.502,5.974,-87.997,29.14,24.698,12.05,4.674,-65.121,-5.818,31.57,3.094,2.319,-73.47,-4.481,98.479,3.742,-4.759,-127.588,57.37,146.68,29.358,8.652]],
"ve": [[-1.124,-0.225,-0.325,-0.857,-0.881,-0.88,-0.734,-0.153,-0.669,0.154,-0.508,-1.021,-0.283,0.131,2.657,-9.042,1.782,3.232,-23.104,-2.472,112.061,-25.425,-39.65,-129.268,-35.167,-49.364,-6.546,-361.269,-78.043,-68.61],[-0.608,-0.688,-0.558,-0.81,-0.57,-2.656,-1.509,-0.798,-0.869,-0.862,-5.177,-1.387,-1.015,-0.588,-0.933,-10.051,-4.485,-0.159,0.994,0.254,-33.587,-1.078,12.353,4.84,5.828,-91.43,-3.855,9.735,-7.494,-12.102],[-41.344,0.201,0.057,-0.694,-0.548,-59.871,0.775,-0.869,-0.728,-0.972,-46.663,0.303,-0.892,-1.475,-0.902,-27.444,-6.036,-1.017,-1.143,-1.434,-56.588,-14.544,1.898,-1.115,-2.299,-174.816,-47.907,-5.658,-0.679,-8.98],[-81.274,2.966,0.955,-0.275,-0.449,-78.954,3.059,0.397,-0.523,-0.707,-72.677,0.583,0.924,-0.443,-0.805,-71.99,-16.574,-6.241,-0.844,-3.77,-87.537,-25.858,-1.116,-1.736,-0.778,-120.211,-13.284,-14.138,-12.448,7.743],[-86.725,-11.691,3.046,0.688,-0.053,-99.729,-23.634,2.835,1.228,0.11,-90.214,-15.62,1.929,-0.046,-0.065,-96.104,-17.459,-10.344,-2.517,-2.734,-129.591,-11.104,-20.524,-3.414,-3.578,-97.787,-96.497,-15.164,-7.931,-7.325],[-94.635,-71.319,6.105,2.465,0.567,-88.486,-69.735,6.873,1.369,0.45,-97.544,-63.235,5.569,2.57,-0.084,-106.442,-35.515,-14.12,-1.755,-1.522,-134.76,-48.842,-34.005,-7.775,-6.558,-267.238,-62.226,-34.445,-30.359,-1.759]],
"kep": [[3.655,2.086,0.905,2.323,2.603,-0.525,-0.066,1.256,1.915,0.978,-1.675,0.955,2.389,1.029,-2.645,-19.495,-12.22,-2.312,-11.683,3.237,0.122,-17.096,-36.428,-12.065,-13.323,63.479,25.455,-31.958,-7.122,-4.338],[4.219,3.572,2.231,1.615,1.459,1.48,2.479,2.645,1.294,1.009,0.686,2.208,1.395,1.333,1.629,-21.965,-6.407,-0.463,2.374,0.052,-5.543,-17.607,-5.817,-4.238,-3.691,-8.963,6.518,-0.14,-11.964,-13.389],[-51.324,6.175,4.28,2.132,2.232,-75.111,5.718,2.517,2.103,2.269,-65.765,5.089,2.519,1.178,1.762,-44.493,-13.989,-0.518,-0.258,-0.163,-54.394,-39.227,-7.172,-4.51,-4.831,-50.481,-46.803,-16.137,-10.974,-8.92],[-95.451,8.938,5.832,3.574,3.342,-94.136,10.088,4.904,3.873,2.9,-90.32,4.56,5.206,3.749,2.429,-73.647,-45.459,-4.118,0.855,-1.15,-73.778,-32.136,-13.57,-4.257,-1.988,-71.684,-27.639,-21.048,-24.981,0.323],[-101.126,-9.004,10.16,5.157,3.629,-100.508,-14.664,8.85,6.125,3.793,-96.8,-19.762,7.988,5.3,3.917,-85.904,-39.755,-9.122,1.189,0.126,-78.222,-29.81,-40.282,-7.463,-3.391,-77.54,-80.345,-24.626,-29.112,-23.432],[-95.219,-94.231,15.668,8.82,5.744,-95.16,-90.855,15.564,7.629,5.381,-97.711,-85.877,14.488,8.794,4.603,-94.695,-58.926,-28.233,1.137,2.558,-93.072,-57.725,-67.259,-15.606,-7.355,-76.685,-59.634,-47.055,-49.01,-17.244]],
"vp": [[46.364,-22.49,94.949,40.727,-34.555,21.101,33.85,12.036,13.173,24.055,8.932,20.026,-2.015,7.565,32.001,9.215,14.544,1.681,11.739,-8.211,-9.6,3.411,20.405,1.15,0.459,20.71,-11.63,7.39,-7.103,-7.747],[36.608,20.102,38.19,156.724,67.632,56.309,46.304,14.645,44.264,45.369,54.697,19.226,25.125,4.483,16.871,2.025,20.11,-0.125,-12.716,0.408,33.964,10.594,1.715,3.178,5.773,46.172,1.946,-22.27,-0.306,6.813],[4154.83,-70.922,-150.417,137.203,69.131,1194.578,-47.342,34.807,32.406,41.485,468.635,-12.397,17.111,50.463,25.116,55.971,20.429,3.798,6.619,13.261,52.248,25.083,-4.098,7.464,17.379,89.699,49.233,5.053,-6.106,3.318],[8217.538,-695.249,-387.276,4.65,-45.473,1593.965,-142.292,-41.07,-4.396,28.516,730.114,-20.238,-43.516,3.301,21.571,136.651,66.189,38.973,3.588,37.888,88.535,48.554,1.362,7.259,2.587,59.901,11.204,20.957,19.798,-23.15],[9447.615,2342.873,-1009.235,-444.518,-137.056,1895.684,741.232,-177.401,-134.241,-51.644,903.39,311.021,-66.761,-5.276,-24.174,189.518,75.596,62.943,17.722,27.163,130.36,22.06,64.206,13.833,17.753,48.56,96.059,22.602,13.786,31.971],[9247.801,14341.648,-1931.667,-1114.462,-470.167,1740.343,2798.861,-430.572,-141.022,-83.28,968.695,1266.756,-178.47,-117.615,-16.789,208.916,137.278,81.772,12.641,11.784,133.491,96.277,101.602,29.435,34.68,95.18,61.089,51.554,62.419,1.866]]
}