{
"KTrans": [[3.374,0.983,0.675,0.262,-0.046,12.255,6.993,5.504,4.75,4.268,26.422,14.981,12.132,10.751,9.59,164.263,94.525,74.306,64.956,59.592,419.234,226.898,176.104,153.426,140.552,1201.607,604.473,461.369,397.133,362.835],[4.067,1.612,1.003,0.201,0.189,13.616,6.528,4.222,3.115,2.371,25.66,12.618,8.525,6.408,5.268,144.133,66.972,45.46,35.832,30.485,355.94,151.332,100.548,78.376,66.201,1006.474,376.893,239.181,182.727,152.576],[6.828,2.841,1.571,0.962,0.593,15.987,6.995,4.565,3.336,2.42,26.83,12.938,8.476,6.253,4.925,146.931,64.702,42.432,32.165,26.185,361.538,144.907,91.965,68.635,55.875,1012.998,356.902,214.569,156.391,125.469],[7.425,3.951,2.139,1.357,0.991,17.68,7.855,5.194,3.734,2.83,28.894,14.059,9.101,6.583,5.255,149.454,65.928,41.988,31.113,25.125,362.895,145.071,89.851,65.792,52.681,1037.082,356.524,208.538,148.769,116.391],[7.709,4.84,2.62,2.011,1.362,16.541,9.052,6.016,4.147,3.27,29.27,14.995,9.708,7.103,5.418,152.696,66.841,42.514,31.288,25.008,369.865,146.354,90.099,65.375,51.481,1045.75,358.822,207.263,146.094,113.15],[8.623,5.437,3.495,2.638,1.784,17.93,9.63,6.548,4.624,3.608,28.782,15.781,10.329,7.614,5.94,152.454,67.649,42.906,31.623,24.979,371.409,148.315,90.489,65.524,51.238,1035.19,362.805,207.931,144.652,111.778]],
"ve": [[0.696,-0.38,-1.397,-1.988,-2.513,4.197,0.193,-2.33,-4.03,-5.803,8.6,1.138,-3.189,-6.493,-8.863,45.246,12.857,-2.034,-11.884,-19.409,93.525,33.108,7.667,-7.834,-18.894,192.165,78.999,34.976,10.14,-6.466],[1.223,0.658,0.257,0.028,-0.198,5.35,2.473,1.414,0.666,0.2,10.302,4.838,2.769,1.544,0.668,49.95,23.84,14.306,9.051,5.31,99.866,48.027,29.511,19.328,12.388,199.858,97.29,61.129,41.524,28.7],[1.468,0.744,0.539,0.338,0.138,5.408,2.667,1.749,1.238,0.868,10.422,5.254,3.339,2.305,1.65,50.399,24.847,16.142,11.441,8.519,100.576,49.686,32.252,23.143,17.358,200.757,99.392,64.929,47.039,35.738],[1.42,0.884,0.614,0.433,0.303,5.383,2.834,1.897,1.399,1.027,10.529,5.238,3.464,2.564,1.939,50.613,25.203,16.661,12.211,9.431,100.77,50.147,33.002,24.237,18.834,200.978,100.158,66.083,48.757,37.976],[1.619,0.781,0.635,0.52,0.409,5.523,2.924,1.982,1.446,1.163,10.661,5.353,3.6,2.69,2.141,50.675,25.374,16.778,12.443,9.809,100.881,50.364,33.374,24.708,19.49,201.497,100.498,66.559,49.43,38.975],[1.638,0.955,0.674,0.554,0.431,5.614,2.901,1.998,1.529,1.251,10.553,5.393,3.58,2.781,2.211,50.676,25.429,16.936,12.609,9.982,101.15,50.45,33.506,24.991,19.784,201.534,100.576,66.815,49.777,39.518]],
"kep": [[5.594,4.276,5.035,5.249,5.501,10.82,9.843,11.126,12.3,13.901,19.737,16.942,19.148,21.841,23.711,87.131,77.283,83.007,92.556,103.692,175.963,152.594,163.755,182.809,205.053,358.207,304.78,327.755,364.225,408.931],[5.743,3.825,3.615,3.028,3.25,10.922,6.918,5.698,5.352,5.079,17.175,10.484,8.61,7.776,7.55,67.46,38.671,30.881,28.108,27.436,134.622,74.627,59.264,53.742,52.094,279.513,148.61,116.499,105.464,101.843],[8.286,4.989,3.904,3.488,3.316,13.178,7.184,5.695,4.98,4.431,18.134,10.359,7.962,6.818,6.163,68.868,35.683,26.13,21.975,19.592,136.665,68.274,49.287,40.843,36.604,280.62,135.676,96.163,79.336,70.838],[8.949,5.977,4.408,3.794,3.554,14.861,7.872,6.177,5.217,4.684,19.951,11.472,8.452,6.878,6.194,70.346,36.304,25.177,20.174,17.598,137.132,67.87,46.81,37.249,32.143,288.566,134.579,91.065,71.995,61.3],[9.024,6.991,4.877,4.375,3.824,13.594,8.974,6.918,5.586,4.991,20.143,12.261,8.912,7.269,6.149,72.492,36.867,25.515,20.086,17.083,140.564,68.506,46.592,36.387,30.384,290.849,135.361,89.732,69.38,57.742],[9.919,7.415,5.73,4.981,4.234,14.835,9.579,7.436,5.983,5.243,19.808,12.988,9.55,7.685,6.601,72.325,37.467,25.69,20.215,16.873,141.034,69.749,46.746,36.202,29.856,287.193,137.312,89.854,67.997,56.116]],
"vp": [[22.208,-39.846,28.33,17.735,-5.414,2.724,-1.952,0.793,1.864,0.255,0.198,0.548,0.63,-3.11,0.652,-0.474,-0.144,-0.357,-0.251,-0.256,0.301,-0.078,0.082,-0.04,-0.205,-0.011,-0.24,0.039,0.181,-0.017],[12.261,-28.5,38.176,-45.919,43.69,11.2,-2.988,1.525,5.854,-0.212,-0.879,0.7,-0.328,-1.197,-1.695,0.609,-0.575,-0.043,0.075,-0.796,1.216,-0.114,-0.051,0.512,0.161,0.182,0.178,-0.13,-0.061,0.145],[292.148,50.938,9.059,-13.609,18.085,46.81,-15.389,-2.383,-0.219,0.633,13.848,0.525,-5.881,-0.164,0.763,1.958,-0.97,0.214,1.114,-0.041,2.612,0.109,0.085,0.047,-0.005,0.363,-0.239,-0.071,0.146,-0.005],[661.798,42.805,-39.46,-26.274,-23.217,134.153,-7.377,-2.381,-1.242,-3.351,50.431,1.082,-4.917,0.237,2.431,11.127,0.612,0.712,-0.213,1.323,4.61,0.631,0.451,-0.102,0.085,1.488,0.499,0.047,0.063,-0.029],[1219.467,96.954,-66.945,-28.709,-12.525,194.15,-3.267,6.051,4.693,0.331,108.714,11.692,-4.871,0.333,8.364,26.107,1.603,-0.454,0.929,0.648,11.421,0.667,0.388,-0.081,-0.08,6.107,0.005,-0.086,0.128,-0.013],[1952.432,159.732,-11.949,54.875,-7.395,443.475,24.708,-1.672,5.101,-10.658,206.612,15.425,-8.318,0.145,5.162,37.604,3.161,0.61,-0.426,0.162,19.563,1.309,-0.306,0.203,0.015,8.883,0.573,0.275,-0.145,0.228]]
}