{
"KTrans": [[0.611,15.128,10.596,11.418,10.592,19.401,14.858,20.962,14.124,18.533,38.513,30.075,16.815,18.154,20.799,188.72,100.911,90.647,76.579,77.142,468.489,256.196,192.218,172.249,154.751,1195.873,666.876,487.911,420.095,387.914],[-40.322,38.694,4.596,17.56,3.71,-44.288,30.652,21.682,21.063,9.473,-14.963,50.845,25.772,28.104,13.483,58.947,105.294,60.073,48.474,44.979,164.631,228.707,131.697,94.406,84.866,526.602,540.378,246.414,199.759,164.832],[-74.806,25.313,39.232,25.134,16.327,-62.846,73.521,38.53,33.024,30.946,-84.066,62.644,52.533,27.34,21.4,-28.107,112.692,81.562,53.806,55.931,56.77,242.443,150.688,93.764,94,181.879,429.392,257.197,188.265,145.248],[-91.016,-12.578,52.087,40.762,31.23,-87.955,-26.594,77.02,33.318,28.454,-88.553,-12.214,75.939,36.108,42.625,-94.542,50.523,136.976,86.624,72.47,-24.379,103.406,211.338,110.736,93.778,125.81,244.85,399.489,235.659,188.744],[-95.292,-62.962,69.076,63.041,38.458,-95.17,-59.961,64.659,74.125,52.533,-89.372,-77.517,54.547,71.715,32.746,-84.702,-37.986,105.267,110.556,66.265,-31.211,-18.169,155.395,157.028,89.113,-17.204,65.911,328.62,292.45,193.313],[-95.676,-65.657,42.219,121.649,63.963,-93.801,-70.176,-3.821,138.261,53.602,-98.934,-95.019,-14.009,141.089,66.433,-84.981,-81.954,27.063,118.38,108.656,-82.323,-8.886,76.554,225.944,126.272,-34.79,28.665,147.578,363.978,232.538]],
"ve": [[6.289,5.08,4.731,7.348,13.21,9.432,2.929,5.374,3.537,27.745,15.697,3.401,1.498,6.263,4.65,46.675,12.384,-0.273,-10.409,-18.204,96.403,33.624,9.298,-7.458,-18.52,195.682,80.722,36.567,10.898,-4.675],[3.252,2.111,-0.248,0.893,0.409,4.092,4.067,2.842,2.274,0.668,24.594,7.033,3.711,3.351,1.676,54.936,26.007,13.46,10.296,5.869,99.283,48.996,30.119,19.795,13.137,200.028,100.214,59.411,41.067,27.816],[1.239,1.033,0.645,1.468,0.735,4.203,5.009,1.964,1.763,2.84,13.331,6.217,5.284,2.489,2.219,48.679,20.536,16.491,11.832,9.934,99.008,50.248,33.172,23.312,19.078,201.17,97.769,63.498,46.457,35.804],[8.194,2.155,0.772,1.224,1.378,1.668,453.459,2.168,1.689,1.29,9.987,5.926,3.151,1.928,3.141,53.438,27.12,18.629,12.962,11.523,103.081,50.313,32.572,24.152,19.399,208.877,99.571,67.516,50.295,39.737],[-0.681,-0.968,1.47,1.08,1.073,4.956,2.368,2.236,2.782,2.701,18.013,8.002,2.412,3.353,1.165,49.901,25.907,17.986,13.06,9.677,100.871,51.619,34.063,26.345,18.853,240.686,92.526,67.203,50.252,40.178],[4.918,0.325,3.33,1.897,0.982,6.631,2.775,2.95,2.74,0.894,10.456,-26.939,6.582,4.791,3.193,51.38,26.823,10.742,11.786,10.624,-9.894,50.213,32.901,27.014,19.13,202.417,93.154,66.73,50.385,40.253]],
"kep": [[-3.81,12.033,11.016,15.309,11.766,9.645,13.63,20.647,20.223,26.646,20.484,27.823,20.234,22.117,34.376,96.286,77.886,91.22,98.352,120.571,188.725,164.88,166.488,192.796,212.388,337.261,323.141,329.068,366.963,410.434],[-42.76,32.306,2.967,15.226,2.77,-47.04,22.815,16.183,17.515,8.176,-27.783,37.313,18.935,22.926,10.989,3.066,59.825,38.224,33.464,35.78,28.302,116.009,75.106,60.565,61.647,109.12,216.221,114.362,110.036,104.796],[-75.733,18.519,33.315,20.74,13.341,-64.856,58.75,30.969,27.557,25.229,-84.446,46.972,40.603,21.196,16.575,-51.794,64.016,51.399,34.729,39.376,-20.199,120.498,83.254,53.6,60.023,-5.224,162.221,113.184,93.412,78.073],[-89.935,-17.348,43.793,34.616,25.97,-87.278,-31.693,64.59,26.647,23.082,-87.619,-19.866,60.867,28.561,34.59,-94.624,16.546,92.56,59.884,51.028,-60.132,32.442,124.716,64.414,57.816,-23.25,69.698,189.646,117.996,102.442],[-93.866,-62.389,56.806,54.033,32.007,-93.692,-59.176,52.197,61.741,43.458,-89.035,-77.157,40.202,59.127,26.199,-88.471,-50.648,67.293,79.03,46.37,-63.93,-44.511,83.443,96.943,53.894,-71.274,-15.041,148.402,152.017,103.886],[-94.07,-63.789,32.041,105.947,55.552,-92.638,-68.705,-11.795,117.407,45.142,-97.711,-91.802,-19.158,116.629,54.403,-88.464,-80.806,4.741,84.546,79.752,-89.493,-37.555,29.7,145.668,81.534,-77.289,-33.851,46.166,196.14,128.971]],
"vp": [[0.001,0.001,0.001,0.001,0.001,0.005,0.005,0.005,0.005,0.005,0.01,0.01,0.01,0.01,0.01,0.05,0.05,0.05,0.05,0.05,0.1,0.1,0.1,0.1,0.1,0.2,0.2,0.2,0.2,0.2],[0.001,0.001,0.001,0.001,0.001,0.005,0.005,0.005,0.005,0.005,0.01,0.01,0.01,0.01,0.01,0.05,0.05,0.05,0.05,0.05,0.1,0.1,0.1,0.1,0.1,0.2,0.2,0.2,0.2,0.2],[0.001,0.001,0.001,0.001,0.001,0.005,0.005,0.005,0.005,0.005,0.01,0.01,0.01,0.01,0.01,0.05,0.05,0.05,0.05,0.05,0.1,0.1,0.1,0.1,0.1,0.2,0.2,0.2,0.2,0.2],[0.001,0.001,0.001,0.001,0.001,0.005,0.005,0.005,0.005,0.005,0.01,0.01,0.01,0.01,0.01,0.05,0.05,0.05,0.05,0.05,0.1,0.1,0.1,0.1,0.1,0.2,0.2,0.2,0.2,0.2],[0.001,0.001,0.001,0.001,0.001,0.005,0.005,0.005,0.005,0.005,0.01,0.01,0.01,0.01,0.01,0.05,0.05,0.05,0.05,0.05,0.1,0.1,0.1,0.1,0.1,0.2,0.2,0.2,0.2,0.2],[0.001,0.001,0.001,0.001,0.001,0.005,0.005,0.005,0.005,0.005,0.01,0.01,0.01,0.01,0.01,0.05,0.05,0.05,0.05,0.05,0.1,0.1,0.1,0.1,0.1,0.2,0.2,0.2,0.2,0.2]]
}