{
"KTrans": [[-15.499,14.3,16.963,9.676,15.698,-2.535,23.039,19.3,22.282,16.979,2.699,39.117,25.012,20.047,18.346,93.408,115.36,96.468,70.346,82.973,343.67,261.018,209.627,162.785,157.776,878.966,600.731,483.796,429.416,383.484],[-65.375,9.977,29.283,13.843,20.919,-74.01,27.62,16.37,21.928,18.261,-63.287,42.674,36.672,25.467,30.345,-50.499,82.88,89.052,57.713,46.371,10.933,197.149,135.455,130.386,89.017,235.431,400.225,302.551,228.949,177.342],[-86.231,-10.814,36.286,36.656,27.675,-93.136,-24.335,69.799,22.822,18.033,-82.715,-17.637,48.578,39.099,24.647,-70.176,20.263,85.976,71.678,59.027,-47.829,73.809,156.641,101.478,94.916,27.004,232.588,282.451,234.774,159.448],[-91.673,-40.606,19.654,37.129,38.878,-101.732,-62.586,18.799,46.933,28.604,-93.794,-68.706,31.057,76.978,41.952,-82.744,-11.032,48.671,99.883,66.156,-64.603,-9.082,122.146,135.37,101.799,-47.138,72.4,225.933,242.012,186.589],[-98.011,-86.263,-30.04,40.976,42.016,-96.314,-67.723,-11.639,57.659,69.31,-95.356,-86.747,-25.426,61.7,47.263,-103.488,-67.803,6.759,102.351,93.952,-74.975,-83.057,42.002,162.602,124.838,-75.435,14.883,136.605,246.549,241.956],[-100.112,-95.837,-49.884,30.139,86.018,-102.081,-92.489,-54.253,34.045,70.151,-99.777,-94.694,-40.805,28.767,59.215,-92.439,-72.381,-33.319,40.832,112.995,-76.317,-68.126,25.886,139.788,109.974,-84.028,-30.506,52.407,152.576,306.134]],
"ve": [[121.825,20.269,24.711,-5.25,-27.848,-1.067,8.167,43.07,48.556,-38.582,32.053,3.742,-50.22,-10.731,-63.76,57.539,21.386,9.718,-0.649,-4.78,102.968,43.268,10.596,-4.196,-16.673,196.29,82.704,38.987,11.027,-2.831],[-12.833,4.764,2.565,2.579,1.686,16.554,4.956,2.973,3.11,3.323,12.464,9.188,6.231,1.801,3.729,66.242,37.767,15.542,10.714,6.899,118.371,51.156,31.517,21.8,14.347,205.957,101.207,63.393,43.279,30.131],[3.099,7.111,1.728,2.91,1.767,6.476,6.256,5.732,1.65,0.147,14.236,6.753,3.924,3.327,1.623,49.425,23.71,19.87,13.544,10.325,77.177,52.037,33.029,24.09,19.948,179.344,98.791,67.431,48.988,36.776],[10.612,0.721,2.905,2.649,2.108,-44.092,8.457,5.231,2.13,0.917,18.614,5.059,6.214,5.84,3.195,40.073,27.632,15.662,13.92,9.581,87.739,40.35,35.606,25.935,18.863,200.383,105.953,67.266,48.906,40.541],[4.847,0.968,164.759,1.187,-0.369,0.213,-0.651,0.701,3.705,2.079,11.944,8.132,3.485,6.046,2.415,36.823,31.934,-5.691,17.502,11.836,100.159,49.99,35.166,27.228,19.874,213.875,100.698,67.407,55.226,41.135],[3.776,-9.129,0.721,3.551,2.152,-14.229,5.943,-0.448,12.121,2.806,16.804,-1328.211,5.441,3.957,1.718,39.811,25.792,15.593,17.21,10.839,105.17,52.978,33.387,25.705,20.805,206.068,104.287,68.011,46.338,44.231]],
"kep": [[-29.554,6.235,13.854,6.627,22.889,-22.672,19.75,15.701,27.746,21.938,-20.703,36.931,25.621,20.703,19.762,23.711,81.833,88.96,84.953,121.828,119.829,166.76,184.547,178.11,218.511,230.47,286.006,321.548,377.799,401.8],[-69.816,2.938,24.83,9.918,18.299,-75.486,17.659,12.051,17.347,14.267,-68.695,26.37,26.479,21.18,26.067,-68.455,38.686,60.963,41.121,35.995,-47.25,93.524,76.957,87.618,62.952,11.807,144.959,143.315,126.804,110.986],[-88.273,-20.326,28.409,29.411,22.793,-94.017,-31.661,55.635,17.401,15.016,-87.107,-25.091,37.799,31.264,20.072,-81.707,-6.772,50.166,48.065,40.785,-75.247,10.571,86.48,58.347,59.792,-58.342,63.736,123.001,119.911,86.111],[-91.556,-44.418,9.529,28.956,31.388,-100.992,-64.356,9.3,37.594,22.729,-93.958,-71.414,17.182,61.528,33.827,-89.521,-31.432,20.595,68.755,47.01,-83.25,-40.119,59.478,80.786,64.908,-82.992,-16.202,89.336,121.688,99.802],[-98.471,-86.815,-33.955,31.738,36.084,-96.689,-68.14,-17.693,45.201,59.055,-95.724,-85.79,-30.851,46.375,36.383,-101.345,-74.758,-10.346,67.979,66.636,-87.902,-84.986,3.073,98.694,80.038,-91.37,-42.371,39.153,122.301,134.702],[-100.162,-93.909,-52.554,21.173,73.026,-101.233,-90.518,-56.017,22.486,56.599,-99.875,-93.095,-42.998,16.326,47.605,-94.427,-76.513,-41.299,17.912,83.028,-88.041,-77.944,-7.943,80.334,66.404,-94.202,-63.33,-8.672,62.775,173.601]],
"vp": [[0.001,0.001,0.001,0.001,0.001,0.005,0.005,0.005,0.005,0.005,0.01,0.01,0.01,0.01,0.01,0.05,0.05,0.05,0.05,0.05,0.1,0.1,0.1,0.1,0.1,0.2,0.2,0.2,0.2,0.2],[0.001,0.001,0.001,0.001,0.001,0.005,0.005,0.005,0.005,0.005,0.01,0.01,0.01,0.01,0.01,0.05,0.05,0.05,0.05,0.05,0.1,0.1,0.1,0.1,0.1,0.2,0.2,0.2,0.2,0.2],[0.001,0.001,0.001,0.001,0.001,0.005,0.005,0.005,0.005,0.005,0.01,0.01,0.01,0.01,0.01,0.05,0.05,0.05,0.05,0.05,0.1,0.1,0.1,0.1,0.1,0.2,0.2,0.2,0.2,0.2],[0.001,0.001,0.001,0.001,0.001,0.005,0.005,0.005,0.005,0.005,0.01,0.01,0.01,0.01,0.01,0.05,0.05,0.05,0.05,0.05,0.1,0.1,0.1,0.1,0.1,0.2,0.2,0.2,0.2,0.2],[0.001,0.001,0.001,0.001,0.001,0.005,0.005,0.005,0.005,0.005,0.01,0.01,0.01,0.01,0.01,0.05,0.05,0.05,0.05,0.05,0.1,0.1,0.1,0.1,0.1,0.2,0.2,0.2,0.2,0.2],[0.001,0.001,0.001,0.001,0.001,0.005,0.005,0.005,0.005,0.005,0.01,0.01,0.01,0.01,0.01,0.05,0.05,0.05,0.05,0.05,0.1,0.1,0.1,0.1,0.1,0.2,0.2,0.2,0.2,0.2]]
}