{
"KTrans": [[-31.77,20.108,14.537,10.543,22.318,-21.692,40.516,0.028,13.995,6.542,-22.774,15.899,8.384,4.733,2.459,-12.977,27.016,40.59,18.887,21.053,53.742,68.288,52.598,30.543,43.831,109.234,104.793,94.611,22.566,126.615],[-74.044,-24.16,2.798,6.261,7.549,-73.236,-18.182,-6.3,-2.442,3.722,-79.404,-22.793,-5.784,12.162,1.124,-62.805,-4.509,5.395,14.168,13.948,-56.701,15.299,23.328,18.781,29.422,9.521,37.099,54.136,57.043,53.517],[-90.621,-53.37,-13.256,5.703,2.56,-88.468,-53.423,-24.259,-0.775,2.821,-87.038,-48.417,-9.306,-3.439,-2.424,-88.701,-46.616,-6.662,-2.272,6.85,-84.068,-32.812,7.311,24.811,15.599,-107.572,-16.044,38.496,26.29,27.357],[-94.428,-68.106,-31.588,-13.424,-4.181,-91.773,-63.873,-30.317,-8.441,-5.218,-92.124,-67.421,-24.861,-4.478,-2.333,-91.899,-59.595,-10.51,0.496,6.944,-83.798,-58.286,-2.68,15.348,20.215,-80.047,-38.378,24.202,28.361,18.982],[-96.017,-81.6,-49.345,-18.877,-8.454,-95.958,-79.334,-45.333,-14.895,-2.131,-96.238,-74.295,-38.924,-16.919,-7.552,-93.225,-70.44,-16.143,-15.826,10.86,-96.089,-55.827,-19.177,-3.497,18.938,-68.226,-36.169,0.575,16.458,30.046],[-96.091,-82.92,-53.477,-27.32,-9.461,-96.19,-81.098,-59.698,-30.309,-2.65,-95.028,-80.817,-55.899,-31.16,-6.672,-93.579,-80.74,-51.301,-14.901,-6.163,-90.751,-68.701,-44.601,-0.395,10.779,-81.243,-62.525,-32.9,21.93,25.282]],
"ve": [[74.349,-1.817,-33.109,3988.065,-268.639,11.861,11.977,-31.749,-55.275,-40.24,-24.674,23.229,-170.063,1881.411,-55.818,-25.524,-2829.865,-9.561,8.187,-45.057,17.566,12.079,-14.412,-42.173,337.722,23.717,13.297,4.661,-11.481,-82.414],[188.677,-6.142,3.115,4.403,2.984,-32.595,-11.902,7.641,1.062,3.518,-59.034,-10.116,18.444,-0.257,4.978,2.174,-11.465,-28.268,7.011,-2.869,-0.989,17.077,-1.579,1.201,3.536,37.166,21.388,11.27,12.377,9.393],[-80.551,-89.195,-8.373,1.023,-2.193,43.908,-23.237,-9.535,-1.992,-1.967,-61.052,-33.735,-6.624,-5.941,-1.444,-104.689,-28.692,-14.412,1.73,1.319,-46.191,-14.099,-6.335,-11.146,1.118,63.499,17.294,11.347,4.841,-2.856],[-86.343,-27.704,-18.326,-8.044,-7.588,-61.161,-30.34,-17.04,-7.74,-3.237,48.132,-42.004,-36.346,-6.021,-3.948,-210.014,-27.458,-7.639,-4.256,-2.618,-36.881,-25.839,-5.724,5.43,-0.695,-316.412,-6.509,12.999,3.418,1.458],[-52.158,-52.678,-25.717,-11.991,-8.746,-140.972,-47.78,-25.926,-13.942,-5.166,-74.466,-30.717,-26.188,-16.532,-9.022,-64.792,-40.494,-13.404,-10.383,-3.505,-44.447,-7.174,-13.777,-11.77,4.185,1.262,5.602,-4.312,3.885,1.685],[61.173,-61.203,-48.304,-23.209,-11.743,-52.625,-56.618,-41.705,-21.641,-9.774,-77.106,-267.843,-86.632,-20.762,-9.07,-89.819,-47.642,-32.036,-14.063,-9.272,-671.312,-45.904,-32.749,-11.793,6.11,18.596,-9.619,-14.364,11.078,1.537]],
"kep": [[-62.124,-3.569,-12.585,4.695,26.791,-50.14,12.34,-20.848,7.466,-10.783,-54.912,-3.152,-18.207,-10.158,-15.648,-52.545,-3.426,31.449,6.58,12.054,-8.582,41.59,9.074,2.066,31.205,48.806,72.909,99.251,36.827,151.094],[-81.279,-28.447,0.653,4.866,9.479,-80.707,-24.688,-5.551,-5.042,2.479,-86.034,-22.042,-7.763,13.416,2.717,-71.351,-8.904,1.584,10.369,13.335,-63.193,-7.43,13.821,7.282,20.878,-37.156,1.434,19.181,18.544,24.854],[-93.84,-49.455,-7.426,1.901,3.763,-91.227,-50.105,-15.939,1.008,4.576,-91.805,-53.297,-5.905,-1.812,-1.061,-86.492,-45.402,-3.054,-1.567,5.175,-74.728,-39.97,2.343,11.27,11.702,-68.521,-23.639,9.269,1.795,6.113],[-95.438,-62.702,-24.933,-4.703,3.661,-92.71,-60.45,-20.173,-2.403,-2.172,-93.994,-60.196,-19.049,-1.617,0.322,-89.47,-54.731,-10.723,2.671,8.75,-84.949,-56.729,-8.612,2.972,15.277,-77.067,-44.607,-5.049,4.217,0.224],[-96.845,-76.157,-38.717,-9.925,-1.185,-97.275,-74.847,-35.288,-9.168,1.476,-95.488,-69.52,-23.942,-2.716,0.67,-92.43,-63.828,-15.517,-11.569,11.879,-89.772,-56.54,-21.809,-1.059,12.471,-81.217,-48.334,-17.974,0.094,10.765],[-97.806,-76.634,-42.252,-14.719,0.475,-96.598,-76.839,-44.083,-17.033,4.997,-95.657,-75.685,-43.597,-19.837,0.039,-94.453,-72.594,-42.647,-6.847,-0.559,-89.436,-66.345,-40.089,-0.268,8.267,-85.51,-62.381,-34.746,1.845,9.463]],
"vp": [[1675.22,477.416,435.338,-486.27,-526.659,103.326,-354.191,142.781,79.343,72.822,122.259,82.282,-15.254,19.786,52.839,4.37,-2.407,-25.989,-15.132,-32.538,-18.551,-27.036,-22.519,-17.638,-26.088,-14.649,-25.484,-39.495,-39.036,-40.272],[4684.819,3401.161,1441.038,441.5,71.52,766.104,556.612,421.659,294.079,109.695,501.063,323.744,168.353,45.866,158.53,42.839,34.024,49.484,-7.165,11.102,38.723,-5.374,-2.78,-7.458,-33.47,-16.658,-16.336,-16.814,-34.148,-39.805],[6698.13,7239.4,3641.158,785.349,1396.655,1123.432,1278.669,873.822,243.276,345.679,559.896,780.922,332.528,211.386,215.265,160.681,138.179,69.796,45.946,5.726,57.209,48.98,19.608,-23.187,-9.264,19.635,-17.03,-15.792,-9.39,-16.211],[6884.19,8836.532,5981.19,4449.699,3424.02,1265.245,1575.581,1083.486,732.805,550.891,724.45,957.305,575.572,269.677,263.014,126.484,147.101,60.036,52.615,32.508,42.576,52.414,13.569,-5.675,1.735,7.531,6.33,-21.629,-15.828,3.617],[7284.409,11300.116,9892.916,5883.659,4651.56,1503.072,2158.902,1695.588,1020.436,668.117,780.604,1038.248,831.078,608.085,438.883,119.657,171.292,76.999,90.633,25.273,55.496,54.807,45.833,50.827,-15.835,-16.401,-9.313,5.399,-10.633,-7.376],[6833.667,11170.019,10643.748,8889.535,5901.868,1570.974,2416.248,2576.425,1823.802,886.813,729.167,1219.535,1169.93,927.147,465.085,99.518,216.589,193.293,120.518,88.784,48.746,76.696,103.674,44.589,19.208,-7.859,28.281,18.184,-28.135,-5.463]]
}