{
"KTrans": [[24.789,8.334,22.247,15.259,14.231,14.959,18.708,19.785,13.556,13.926,14.124,19.295,24.661,20.873,20.861,28.052,33.225,36.185,36.973,34.319,83.178,62.472,74.054,76.848,51.877,-7.133,125.205,100.437,94.259,105.68],[-49.603,-0.805,-1.557,8.641,5.981,-34.91,-2.655,4.388,8.275,10.263,-41.72,2.394,2.814,8.176,11.169,-32.946,4.627,11.348,11.228,12.763,-24.754,19.774,20.983,21.133,22.998,-39.567,-13.304,48.733,33.867,47.163],[-74.86,-24.25,-15.778,-5.304,1.617,-74.815,-24.306,-10.775,-4.324,1.675,-74.169,-29.39,-13.158,-1.948,0.882,-65.794,-28.136,-4.927,0.566,7.045,-48.65,-16.294,1.683,7.01,6.507,-75.285,-0.421,16.833,19.929,18.625],[-82.5,-46.139,-30.787,-17.336,-8.142,-86.736,-47.16,-25.23,-13.511,-6.447,-86.346,-52.076,-24.208,-16.404,-8.365,-75.976,-45.993,-25.778,-16.302,-0.778,-76.931,-36.292,-23.049,-8.406,1.409,-71.994,-34.238,-7.649,2.382,8.497],[-89.04,-58.697,-40.843,-30.735,-15.74,-87.522,-60.051,-38.78,-25.533,-17.211,-90.094,-60.614,-37.611,-27.082,-15.439,-82.154,-55.915,-41.234,-25.639,-14.881,-73.835,-54.922,-35.268,-25.377,-14.611,-91.001,-63.459,-27.677,-13.915,-5.725],[-91.256,-73.934,-51.671,-38.489,-28.134,-91.707,-70.897,-50.469,-36.081,-26.598,-88.569,-70.599,-50.481,-33.513,-23.443,-85.754,-61.848,-51.542,-35.624,-26.273,-83.322,-65.096,-43.942,-36.351,-20.413,-96.624,-68.007,-47.284,-25.648,-15.963]],
"ve": [[-3.121,65.374,12.069,52.096,-110.112,-2.917,6.111,77.665,-495.765,-672.12,38.173,46.975,-13.43,-83.725,5.762,28.199,-145.725,-1493.604,140.302,62.674,39.146,0.078,4.091,4.351,13.122,53.298,52.632,12.765,-9.667,-3.002],[-33.919,-0.97,2.033,5.856,7.398,-22.927,9.255,3.016,4.682,7.536,-4.81,4.631,1.951,5.327,7.738,4.216,10.265,7.323,9.572,15.215,28.304,-13.365,-594.297,5.271,16.975,74.746,37.704,-74.442,38.906,9.126],[-41.188,-11.149,-6.652,-1.37,0.223,93.112,-11.442,-4.065,-1.211,1.777,62.679,-7.859,-2.469,-0.696,1.043,-11.982,-20.172,2.814,3.163,4.463,16.702,7.467,9.158,9.759,5.929,21.371,37.394,15.632,14.12,79.615],[-56.289,-15.058,-8.622,-5.54,-2.614,-27.269,-14.575,-9.945,-5.382,-3.273,-190.117,-19.846,-7.933,-5.579,-1.882,-16.113,-12.437,-4.576,-3.654,1.198,13.773,-0.519,3.093,2.814,5.296,42.461,26.272,47.164,16.001,-55.344],[-82.354,-24.531,-15.466,-10.998,-5.429,-43.076,-25.127,-13.22,-9.23,-5.741,-54.855,-22.262,-13.804,-9.082,-6.693,-36.531,-11.41,-12.318,-5.319,-3.654,17.019,-9.709,-3.422,-3.775,-0.817,39.39,8.272,11.217,1.176,11.228],[-68.096,-38.21,-19.31,-14.132,-9.384,-45.454,158.513,-20.609,-13.356,-8.46,-65.62,-27.17,-20.151,-13.511,-7.988,-78.255,-16.633,-18.124,-9.489,-6.968,-5.397,-18.982,-17.352,-7.644,-1.944,2.125,4.787,1.574,1.336,2.538]],
"kep": [[-26.964,-32.165,-23.202,-37.28,-45.019,-24.108,-24.454,-25.631,-36.968,-48.245,-31.362,-26.049,-15.995,-29.995,-36.478,-39.344,-24.295,-18.341,-19.315,-19.563,-28.006,-19.86,3.436,10.084,-15.857,0.76,-23.981,-23.532,-19.514,5.311],[-61.737,-28.191,-30.278,-25.664,-28.09,-53.377,-31.379,-26.344,-24.996,-25.423,-61.191,-29.314,-27.234,-25.249,-24.378,-63.381,-32.391,-25.888,-26.312,-25.777,-67.944,-35.775,-26.816,-24.623,-21.896,-61.32,-64.419,-30.118,-30.458,-15.416],[-81.419,-39.362,-35.332,-30.909,-26.934,-80.939,-39.723,-33.63,-30.373,-28.071,-80.697,-46.386,-36.607,-28.837,-28.169,-80.615,-48.743,-34.05,-30.088,-26.48,-71.408,-50.457,-35.014,-30.836,-28.79,-71.731,-51.163,-41.396,-32.717,-31.041],[-87.674,-55.909,-46.032,-37.552,-32.224,-88.819,-57.266,-41.096,-34.792,-30.532,-89.284,-58.096,-41.43,-36.827,-32.956,-84.879,-59.29,-45.07,-38.224,-29.651,-83.291,-60.589,-47.641,-38.102,-31.755,-80.565,-59.658,-52.107,-40.6,-35.002],[-91.558,-63.307,-50.768,-44.356,-36.042,-90.567,-64.168,-50.319,-41.508,-36.975,-92.299,-65.264,-49.081,-42.695,-34.992,-88.349,-67.909,-53.712,-44.058,-36.927,-87.347,-72.482,-54.888,-46.346,-39.445,-87.669,-71.123,-61.293,-49.217,-41.162],[-92.955,-73.131,-58.159,-48.907,-43.173,-93.71,-72.624,-56.325,-47.241,-42.573,-91.482,-73.754,-56.629,-45.56,-40.396,-91.366,-71.463,-59.381,-49.839,-43.692,-90.158,-74.913,-61.197,-52.608,-42.706,-86.694,-75.899,-68.271,-54.341,-45.391]],
"vp": [[-829.441,-163.579,-640.935,-519.605,-199.996,71.499,-101.031,-174.802,-32.474,-151.049,10.95,-43.296,-64.906,-49.372,-67.637,-10.335,1.43,-22.694,-23.509,-16.374,-16.94,-11.734,-35.132,-37.189,-13.241,-0.846,-22.481,-13.822,-11.199,-17.937],[3091.134,3.368,744.313,-620.526,-612.633,366.665,64.83,-86.415,-45.714,-190.051,265.955,1.105,-1.605,-68.487,-93.929,33.584,-17.561,-7.091,-2.026,-6.439,-6.419,-13.706,-17.825,-12.688,-18.876,-14.5,-19.881,-23.198,0.013,-26.487],[5339.715,2407.218,2134.994,857.7,232.34,1030.92,495.224,213.024,99.121,-156.578,515.974,233.006,142.872,14.398,-8.079,88.502,53.154,0.401,-6.548,-25.274,12.865,7.312,-5.892,-11.559,11.448,15.937,-24.784,-22.017,-9.881,-0.936],[5397.363,4737.465,3237.388,2201.799,1257.448,1253.878,815.37,622.515,426.159,197.563,627.543,529.431,277.028,236.662,115.531,83.296,96.723,63.301,57.721,-7.94,51.231,15.904,20.924,18.094,-9.051,9.303,-3.859,-8.219,-5.982,0.082],[7284.172,6827.852,5345.163,5183.668,2638.679,1311.917,1489.069,933.665,775.682,595.799,774.411,698.254,518.21,437.633,309.533,105.924,104.361,124.82,71.104,59.557,16.678,50.8,50.595,47.162,34.145,7.736,23.644,14.76,9.418,7.396],[6822.286,9108.72,7577.207,7001.585,5209.111,1377.199,1869.336,1528.342,1206.942,905.673,678.075,897.791,756.466,571.651,424.837,104.198,112.199,166.397,103.772,107.467,44.847,82.455,55.676,69.405,33.482,41.079,21.515,26.929,18.975,11.441]]
}