{
"KTrans": [[0.895,0.487,0.223,0.273,0.208,-1.297,0.052,-0.23,0.176,0.212,-1.168,-0.503,-0.526,-2.338,-1.226,13.553,-4.579,2.288,-1.354,0.373,26.514,-3.797,1.285,6.822,12.915,-13.729,42.159,42.567,34.223,25.101],[8.833,2.092,1.042,0.76,0.616,8.638,1.704,0.506,0.773,0.669,2.326,-1.092,0.268,-0.057,-0.173,2.368,-5.984,-4.193,-0.514,-1.911,60.955,-5.873,1.738,-0.684,-3.649,-70.542,39.025,7.136,3.866,2.021],[49.891,6.279,2.87,1.46,1.095,76.129,2.929,2.208,1.295,0.702,44.99,2.095,1.645,0.208,0.718,6.792,-4.218,-1.835,-3.574,-2.515,90.019,-6.892,-11.811,-1.662,-1.463,-16.67,0.362,-3.686,8.2,2.892],[3.779,13.216,4.691,2.971,1.877,17.628,15.122,3.974,2.335,1.631,-10.462,9.469,3.654,1.531,1.018,-24.388,-4.423,-4.357,-4.321,-1.111,29.734,108.465,-5.055,-7.95,-0.91,164.456,39.575,8.867,10.954,0.729],[-37.308,31.901,9.082,4.685,2.935,-47.568,26.114,7.597,5.154,2.648,-48.939,34.055,6.73,4.068,2.028,-39.037,96.802,0.421,-5.953,-1.245,175.161,94.996,-7.134,-6.882,-0.504,-102.078,26.369,39.13,-3.668,2.601],[-66.687,60.731,13.994,6.802,5.02,-47.092,79.66,20.32,6.758,4.461,-44.818,54.533,17.684,6.138,2.95,66.101,30.194,7.375,2.658,-3.637,-44.278,-3.831,41.453,-2.192,-10.442,-114.706,69.108,76.408,7.152,-6.851]],
"ve": [[-0.461,-0.524,-0.575,-0.672,-0.723,-1.382,-0.51,-0.385,-0.466,-0.483,-1.179,-0.364,0.015,1.497,1.721,5.594,19.124,44.806,-166.726,162.704,-10.538,-126.537,-19.778,-608.387,-34.663,-0.357,-38.363,14.123,-50.002,-70.015],[1.809,-0.146,-0.42,-0.468,-0.499,1.837,-0.285,-0.615,-0.421,-0.471,-1.008,-1.689,-0.673,-0.693,-0.629,-24.57,-4.762,-2.544,-0.444,-0.486,-20.951,-7.217,1.199,0.882,1.749,-63.715,10.309,-9.711,7.262,111.783],[14.094,1.105,0.008,-0.321,-0.399,19.434,-0.267,-0.135,-0.384,-0.55,9.265,-0.865,-0.462,-0.903,-0.506,-21.539,-4.036,-2.168,-2.697,-1.814,-72.41,-19.058,-9.152,-1.792,-1.129,-26.176,-24.554,2.402,37.306,3.768],[-50.82,3.562,0.549,0.002,-0.225,-32.273,3.466,0.075,-0.276,-0.359,-32.42,0.635,-0.219,-0.592,-0.652,-42.321,-9.398,-4.565,-3.757,-1.618,-72.218,-34.889,-5.694,-6.309,-1.269,-102.587,-10.54,-9.526,-5.251,-0.351],[-56.449,9.394,2.055,0.614,0.087,-56.092,7.6,1.329,0.681,-0.068,-60.766,8.322,1.706,0.365,-0.399,-48.361,-25.702,-2.27,-5.447,-2.082,-100.489,-31.878,-8.103,-6.741,-1.46,-124.433,-17.793,-16.201,-9.345,0.397],[-91.316,16.25,3.827,1.537,0.641,-91.863,19.276,5.909,1.357,0.481,-80.366,13.813,4.505,1.191,-0.152,-87.593,-29.182,0.432,-0.833,-4.015,-99.809,-34.24,-35.736,-3.764,-8.925,-119.224,-58.038,-14.426,-10.32,-11.281]],
"kep": [[1.358,1.016,0.804,0.955,0.944,-0.099,0.54,0.187,0.731,0.821,-0.667,-0.242,-0.392,-3.325,-2.1,-6.272,-11.388,-3.129,-7.511,-5.041,-24.104,-32.719,-22.548,-12.757,3.204,58.044,-23.556,-17.244,-26.785,-34.297],[6.739,2.239,1.468,1.234,1.121,6.19,1.954,1.108,1.191,1.142,2.368,0.419,0.877,0.6,0.439,-56.424,-6.269,-3.552,-0.981,-1.977,-25.35,-21.002,-5.923,-4.441,-6.565,-2.031,-14.745,-23.914,-16.677,-13.126],[24.399,5.079,2.859,1.787,1.5,37.826,3.07,2.326,1.677,1.254,17.301,2.644,2.034,1.082,1.206,-42.391,-5.804,-2.046,-2.152,-1.375,-67.318,-43.345,-14.403,-4.507,-2.595,-41.111,-28.371,-34.749,-9.585,-7.331],[-65.504,8.882,4.1,2.966,2.106,-49.328,10.649,3.834,2.598,1.991,-52.869,7.934,3.767,2.085,1.652,-56.441,-11.956,-2.347,-1.851,-0.135,-68.249,-79.353,-9.557,-7.446,-2.295,-69.255,-30.998,-35.864,-10.295,-10.253],[-75.278,17.648,6.743,4.026,2.842,-76.299,13.772,6.004,4.416,2.707,-79.745,19.844,4.72,3.611,2.396,-64.882,-58.702,0.351,-1.867,-0.022,-92.831,-60.969,-17.001,-6.27,-1.873,-69.315,-29.85,-50.214,-25.786,-9.578],[-104.099,25.172,9.28,5.11,4.339,-95.131,34.706,12.951,5.229,3.935,-95.209,22.543,11.745,4.728,3.044,-94.092,-53.311,2.596,2.255,-0.487,-78.993,-52.337,-78.514,-5.677,-5.832,-71.367,-58.253,-39.873,-40.941,-18.502]],
"vp": [[14.52,19.966,32.423,26.848,30.796,25.801,11.724,15.715,7.513,9.163,11.176,9.274,10.521,31.348,21.748,-7.942,15.177,0.682,7.93,3.791,4.797,19.145,10.812,2.287,-7.752,-7.266,4.776,-2.857,0.01,2.24],[-201.027,-33.419,29.993,46.73,64.001,-41.196,-0.794,20.207,3.02,7.963,7.271,30.816,12.203,18.714,18.858,50.714,21.011,18.665,5.114,12.471,19.529,19.906,2.808,5.878,14.045,32.001,-12.651,9.386,8.553,7.632],[-1433.782,-268.214,-75.208,1.169,37.393,-384.562,-0.697,-10.596,6.032,26.262,-95.518,12.922,6.037,27.3,9.911,44.541,15.298,12.053,22.844,19.225,72.515,38.862,31.971,8.753,7.307,9.281,25.83,21.159,-2.473,1.935],[5127.572,-764.019,-241.69,-93.314,-33.221,645.578,-140.005,-16.502,4.165,9.095,319.58,-13.096,1.873,14.042,20.824,84.196,31.642,27.507,30.632,14.743,71.949,71.424,18.126,27.344,5.621,51.728,7.977,8.322,-8.543,6.678],[5657.142,-1925.185,-686.801,-353.346,-191.944,1123.122,-320.535,-93.845,-71.484,-20.839,618.981,-165.156,-64.517,-25.508,7.857,93.536,102.792,12.398,44.762,19.48,109.269,65.258,26.739,28.322,5.866,60.921,12.955,25.745,18.627,1.112],[9511.045,-3360.862,-1225.077,-751.783,-423.329,1584.942,-776.093,-361.438,-131.98,-72.512,781.579,-285.112,-137.52,-60.651,-5.605,172.181,122.843,-4.435,4.869,40.561,98.319,70.044,112.621,14.434,47.52,59.672,55.012,20.575,19.344,21.847]]
}