{
"KTrans": [[0.623,8.19,7.491,3.311,9.065,15.933,9.36,14.253,11.8,7.448,30.101,21.013,18.213,18.614,18.599,128.151,96.634,81.431,69.002,70.494,311.488,216.25,178.267,156.546,145.894,605.864,494.561,407.865,346.665,338.28],[-21.127,-1.757,1.326,1.744,4.418,-15.374,-1.48,3.346,4.116,5.072,-9.072,8.112,7.798,7.176,9.586,59.418,50.563,42.71,35.402,32.341,133.202,117.228,92.237,70.846,66.846,39.612,326.454,209.283,168.68,137.379],[-44.987,-8.547,-1.318,-0.651,1.981,-41.837,-6.105,1.063,-0.537,2.527,-28.195,1.127,2.876,3.83,3.709,18.289,36.268,30.963,25.761,24.057,34.787,104.861,68.565,56.907,45.232,-6.344,239.066,177.856,129.834,109.028],[-56.028,-17.596,-10.686,-4.583,-3.461,-54.618,-10.926,-5.273,-1.665,-0.873,-47.501,-9.091,-2.809,-0.568,0.693,-23.119,22.363,24.484,20.998,19.259,0.552,81.219,49.512,45.035,40.851,-51.592,149.557,151.427,112.405,91.49],[-61.227,-21.035,-12.667,-7.491,-3.742,-61.335,-16.021,-9.233,-6.217,-4.579,-58.745,-19.567,-7.905,-3.921,-2.321,-36.282,18.305,14.983,13.505,13.502,-21.899,91.024,49.805,37.549,33.392,16.775,103.809,154.354,97.461,87.614],[-68.768,-21.672,-16.5,-10.215,-8.802,-70.29,-19.547,-14.426,-8.176,-5.314,-67.992,-23.891,-11.187,-7.7,-5.027,-49.014,4.376,10.742,10.113,10.339,-44.949,51.256,46.773,30.155,29.577,-104.097,90.146,117.728,85.838,72.513]],
"ve": [[12.532,15.28,15.037,36.915,20.976,10.778,14.356,19.295,33.441,18.337,17.371,11.482,27.475,786.966,14.015,47.189,18.06,4.34,-3.629,-9.685,124.971,36.631,11.418,-1.429,-13.572,199.36,81.725,39.717,13.344,-2.134],[-0.945,0.373,0.653,2.37,3.368,6.016,1.571,2.03,3.206,4.472,9.787,6.57,3.575,3.084,3.312,48.572,22.161,13.921,10.359,7.687,96.305,46.911,28.297,20.796,13.394,194.682,97.315,61.284,42.472,30.118],[4.189,-0.446,-0.942,-0.284,-0.156,6.507,-0.22,0.793,0.426,1.167,-14.249,3.566,3.154,1.759,1.709,48.662,22.471,14.553,11.059,8.268,92.689,46.313,29.818,23.008,17.395,190.642,94.792,62.065,44.889,34.756],[1.808,-2.205,-1.001,-1.184,-0.871,11.4,0.935,-0.376,0.125,-0.661,13.053,3.256,0.699,1.013,0.987,51.585,22.444,13.492,10.344,8.603,232.024,46.71,29.819,21.715,16.995,192.152,94.653,64.375,46.326,36.298],[1.156,-0.831,-1.363,-1.331,-1.288,5.768,0.466,-0.212,-0.296,-0.173,15.788,2.454,1.059,0.996,0.127,38.572,22.965,15.332,10.047,7.461,100.476,47.391,29.471,21.883,16.896,193.822,95.975,63.636,46.579,36.407],[2.789,-1.336,-1.684,-1.63,-1.836,1.942,0.892,-0.229,-0.404,-1.495,8.175,2.273,1.398,-0.008,0.784,47.818,22.412,14.125,10.503,7.932,100.863,48.988,30.482,22.598,17.044,196.296,95.157,62.44,46.406,36.385]],
"kep": [[-19.883,-13.908,-15.384,-29.738,-15.272,-8.994,-14.98,-10.582,-15.34,-25.339,-3.663,-3.636,-6.354,-7.845,-4.184,30.462,40.251,48.57,51.66,64.606,73.22,94.04,109.824,120.147,141.073,98.039,172.266,203.939,228.657,274.493],[-33.247,-17.961,-15.968,-17.062,-15.69,-32.977,-19.058,-15.566,-15.698,-15.931,-30.097,-15.366,-13.41,-13.205,-11.465,-10.216,2.663,4.433,2.354,2.542,-3.263,22.805,24.472,17.675,22.476,-58.066,77.361,58.665,56.363,51.609],[-55.997,-23.413,-17.065,-17.138,-15.031,-53.951,-21.303,-16.523,-17.577,-15.658,-46.328,-18.512,-16.929,-15.129,-15.17,-34.947,-7.248,-4.917,-5.818,-4.672,-41.643,15.915,7.674,5.948,2.819,-71.383,40.624,41.049,31.066,28.588],[-64.827,-29.65,-24.81,-19.672,-19.036,-65.339,-26.335,-20.919,-18.289,-17.042,-60.833,-26.575,-19.742,-18.126,-17.087,-59.188,-17.02,-8.874,-8.947,-8.725,-57.311,1.88,-4.499,-1.129,-0.027,-84.019,3.831,25.495,19.998,16.393],[-68.995,-33.862,-26.386,-22.012,-18.938,-70.337,-30.357,-24.286,-21.776,-20.552,-69.812,-34.592,-24.19,-20.94,-18.922,-65.168,-20.233,-17.211,-14.35,-12.289,-67.038,6.364,-4.4,-6.357,-5.274,-66.186,-15.617,27.474,11.241,13.773],[-75.01,-34.086,-29.256,-24.075,-22.82,-76.403,-33.648,-28.653,-23.351,-20.111,-76.617,-37.967,-27.194,-23.224,-21.634,-71.47,-29.385,-19.402,-17.229,-15.061,-76.978,-16.484,-7.151,-12.043,-8.13,-98.293,-20.606,9.308,4.659,4.607]],
"vp": [[-213.229,-487.753,148.319,-132.848,401.756,-44.253,-2.321,-83.74,-88.33,-45.196,-28.114,35.661,-25.576,30.139,12.193,-0.304,-13.756,12.397,-11.327,1.666,-2.028,3.061,12.896,6.414,-0.632,1.847,-3.295,11.695,-9.539,5.007],[2104.141,884.964,21.606,-75.011,163.61,422.459,253.41,-50.462,-38.839,57.408,291.44,109.454,-59.663,-40.181,32.725,33.229,18.261,-6.128,-16.282,2.63,19.699,-0.233,-0.522,-11.071,-8.542,7.993,6.014,6.019,4.673,-5.78],[5045.616,2909.401,1790.838,462,423.22,883.657,684.788,271.435,196.229,-45.937,459.07,258.214,147.809,28.202,5.879,96.516,37.222,12.214,9.995,-6.172,20.597,16.334,7.205,6.239,-13.957,6.797,-3.992,-5.332,-8.709,-5.416],[6090.5,3973.737,1537.784,820.069,286.696,1165.639,977.586,439.561,184.255,75.536,580.563,399.842,188.213,109.628,142.859,131.213,92.908,33.291,26.045,48.663,50.785,35.926,-4.36,-10.332,-6.337,23.44,3.001,9.47,-2.822,-9.288],[6454.239,6472.229,3005.814,1805.958,792.149,1390.787,1337.741,677.452,220.937,111.741,703.109,565.408,307.641,208.675,82.978,134.287,123.996,57.869,26.052,22.173,44.238,67.869,26.832,0.278,4.817,9.434,26.45,18.09,4.923,-5.698],[6933.196,8893.952,5650.388,2853.351,1776.824,1356.22,1640.313,1030.51,524.02,236.672,695.252,825.974,521.764,144.214,91.713,140.379,138.878,90.045,65.854,20.317,72.835,75.543,57.341,17.882,-4.477,30.371,25.518,19.392,0.843,-11.282]]
}