{
"KTrans": [[10.406,33.392,11.515,20.904,10.749,26.055,37.048,22.701,27.633,12.89,30.64,37.554,26.341,28.661,26.211,147.262,119.004,99.012,80.977,76.634,422.81,275.005,191.585,169.719,165.103,1043.443,692.715,510.102,453.499,390.785],[-69.666,44.099,46.197,36.234,28.846,-61.247,37.013,32.654,25.738,24.781,-56.199,60.711,49.844,33.762,26.498,-30.3,132.562,94.886,74.939,50.315,88.981,227.947,167.264,108.439,104.19,78.545,488.682,309.254,219.457,193.544],[-95.03,-22.578,47.244,58.732,38.509,-91.544,0.176,55.719,36.879,36.086,-91.328,10.951,79.028,57.028,45.67,-77.023,40.21,108.573,90.93,61.882,-64.772,98.173,219.976,137.64,105.672,14.794,311.013,390.638,243.824,185.969],[-98.787,-67.793,66.753,102.793,47.973,-103.53,-70.602,56.173,117.619,42.508,-102.835,-72.427,34.942,78.354,55.74,-93.41,-74.943,130.221,140.676,72.832,-100.984,-71.722,119.018,175.437,117.169,-118.682,107.707,373.815,300.064,219.264],[-99.878,-99.082,-33.619,77.257,83.521,-102.192,-98.322,-16.845,101.294,100.632,-104.943,-99.613,-23.567,90.013,101.147,-101.61,-71.91,-21.608,173.168,121.13,-121.072,-63.802,73.934,212.278,174.945,-86.344,-6.24,69.784,359.014,284.09],[-102.566,-108.064,-99.936,3.847,116.708,-102.076,-91.044,-81.485,31.726,161.045,-101.3,-122.653,-89.473,40.788,134.586,-102.61,-112.645,-71.126,66.536,143.595,-102.207,-136.826,-119.635,76.71,201.024,-84.509,-143.514,8.538,190.143,300.68]],
"ve": [[10.349,60.227,27.492,3.262,-66.137,14.117,11.592,15.022,40.647,-11.753,17.844,14.461,-8.549,10.65,327.944,54.671,16.097,1.124,-7.71,-10.66,96.722,36.331,8.534,-7.488,-15.397,194.952,82.534,35.909,12.246,-5.243],[7.768,4.214,4.47,2.313,2.642,10.344,5.155,3.491,2.905,0.996,41.183,8.624,4.122,3.576,2.224,41.92,28.771,16.712,11.22,6.13,101.116,50.686,32.338,19.534,14.752,199.325,99.398,61.127,41.57,29.167],[-7.325,5.79,1.73,3.515,2.235,3.782,-14.878,2.122,1.922,2.038,15.717,5.623,6,5.191,4.036,545.071,26.9,17.037,13.004,9.423,90.646,49.1,35.463,23.478,18.845,208.44,102.138,68.918,48.208,36.659],[-0.631,4.956,3.906,2.846,1.937,7.074,-14.41,-41.776,4.109,0.827,14.79,7.633,5.277,4.776,1.872,-28.835,26.912,19.234,13.239,8.636,102.264,52.784,35.847,26.25,19.369,208.284,97.516,69.457,49.751,40.347],[-0.816,-5.643,-1.264,2.745,2.353,-8.732,9.701,5.095,9.645,3.05,14.058,24.692,6.62,1.549,4.253,51.694,74.386,17.004,14.517,11.521,97.175,46.803,40.309,26.152,20.887,200.239,96.621,66.175,49.716,41.019],[0.279,-7.196,1.953,3.73,1.552,15.079,3.695,2.608,1.098,3.639,9.33,8.602,2.967,2.014,3.123,53.367,25.809,19.683,14.191,10.778,107.533,50.968,31.242,27.658,20.771,198.474,98.204,79.513,49.01,41.29]],
"kep": [[-3.37,31.169,6.697,20.324,8.037,13.061,34.323,21.491,35.164,18.394,13.982,28.211,28.289,35.911,39.972,57.39,88.458,100.573,103.701,115.071,165,174.172,169.129,192.605,215.458,284.966,334.361,347.294,392.455,417.557],[-72.538,31.479,37.425,31.582,25.002,-66.329,27.775,23.908,20.217,22.832,-61.934,41.468,41.784,27.263,22.236,-56.796,75.38,62.012,54.475,39.336,-6.356,110.703,98.035,70.147,75.063,-38.577,189.309,148.578,121.962,123.37],[-94.633,-30.011,36.729,48.729,31.692,-91.949,-8.789,45.105,28.758,29.491,-92.156,-1.279,61.216,44.193,36.208,-85.037,5.036,70.785,62.789,43.524,-81.147,26.865,128.659,85.119,67.943,-60.062,98.694,182.828,126.01,103.717],[-98.809,-69.79,51.867,87.388,39.433,-101.324,-72.066,42.854,98.835,34.861,-101.845,-73.811,21.376,62.429,45.045,-94.665,-79.221,83.987,101.533,51.372,-98.963,-78.276,58.121,109.329,74.635,-104.467,1.712,171.825,157.337,120.554],[-98.271,-94.507,-35.296,63.11,69.023,-101.486,-95.171,-22.847,80.312,84.357,-103.229,-97.862,-32.203,74.019,83.724,-98.816,-75.288,-34.972,123.998,89.013,-110.056,-73.5,21.598,133.935,117.153,-93.374,-49.644,1.07,189.596,161.207],[-100.909,-106.049,-96.833,-3.705,99.956,-101.135,-88.637,-78.93,20.682,136.019,-99.638,-117.841,-88.626,26.963,111.286,-99.97,-106.788,-72.809,36.06,104.623,-100.368,-119.117,-105.671,33.321,136.882,-93.77,-116.492,-32.842,84.555,170.416]],
"vp": [[0.001,0.001,0.001,0.001,0.001,0.005,0.005,0.005,0.005,0.005,0.01,0.01,0.01,0.01,0.01,0.05,0.05,0.05,0.05,0.05,0.1,0.1,0.1,0.1,0.1,0.2,0.2,0.2,0.2,0.2],[0.001,0.001,0.001,0.001,0.001,0.005,0.005,0.005,0.005,0.005,0.01,0.01,0.01,0.01,0.01,0.05,0.05,0.05,0.05,0.05,0.1,0.1,0.1,0.1,0.1,0.2,0.2,0.2,0.2,0.2],[0.001,0.001,0.001,0.001,0.001,0.005,0.005,0.005,0.005,0.005,0.01,0.01,0.01,0.01,0.01,0.05,0.05,0.05,0.05,0.05,0.1,0.1,0.1,0.1,0.1,0.2,0.2,0.2,0.2,0.2],[0.001,0.001,0.001,0.001,0.001,0.005,0.005,0.005,0.005,0.005,0.01,0.01,0.01,0.01,0.01,0.05,0.05,0.05,0.05,0.05,0.1,0.1,0.1,0.1,0.1,0.2,0.2,0.2,0.2,0.2],[0.001,0.001,0.001,0.001,0.001,0.005,0.005,0.005,0.005,0.005,0.01,0.01,0.01,0.01,0.01,0.05,0.05,0.05,0.05,0.05,0.1,0.1,0.1,0.1,0.1,0.2,0.2,0.2,0.2,0.2],[0.001,0.001,0.001,0.001,0.001,0.005,0.005,0.005,0.005,0.005,0.01,0.01,0.01,0.01,0.01,0.05,0.05,0.05,0.05,0.05,0.1,0.1,0.1,0.1,0.1,0.2,0.2,0.2,0.2,0.2]]
}