{
"KTrans": [[7.417,3.903,13.898,12.105,13.104,8.562,18.952,11.229,14.696,15.473,19.89,12.949,16.459,19.072,16.079,13.7,19.173,22.89,23.041,24.009,34.61,35.513,34.009,35.583,36.665,54.313,59.556,53.394,52.388,50.184],[-39.319,-10.276,0.559,4.355,5.471,-31.683,-8.018,1.761,4.721,10.004,-44.874,-9.891,2.572,7.317,8.335,-38.663,1.023,7.395,7.118,8.033,-30.809,3.201,10.563,14.083,16.06,-23.854,5.905,19.851,20.631,23.37],[-76.93,-29.152,-13.795,-3.474,2.389,-73.874,-29.815,-15.02,-4.358,1.775,-67.284,-25.381,-13.109,-4.414,1.228,-68.898,-32.397,-12.22,-0.384,1.883,-61.764,-27.286,-9.066,1.572,5.229,-55.826,-24.412,-5.453,5.74,10.54],[-85.825,-43.223,-27.736,-15.409,-9.332,-83.683,-44.468,-30.333,-14.504,-6.583,-85.201,-45.777,-26.916,-15.967,-7.363,-80.938,-44.512,-25.644,-14.917,-7.592,-76.776,-44.481,-26.697,-10,-5.449,-76.07,-46.688,-23.576,-6.691,0.559],[-89.701,-56.729,-35.643,-26.564,-15.493,-90.348,-55.566,-34.763,-23.867,-16.828,-90.947,-59.733,-38.049,-23.766,-15.47,-85.811,-56.284,-39.15,-23.754,-14.592,-81.831,-63.518,-37.023,-21.476,-15.552,-81.647,-58.946,-35.961,-22.078,-10.4],[-93.177,-66.746,-47.693,-33.468,-24.604,-92.668,-67.308,-47.55,-34.983,-24.992,-91.096,-69.131,-50.432,-34.543,-23.265,-90.223,-70.523,-49.702,-35.441,-24.493,-89.113,-70.545,-53.197,-36.274,-25.21,-88.315,-67.313,-50.445,-31.642,-20.853]],
"ve": [[7.666,51.829,1.19,53.05,72.044,9.525,19.513,-61.027,38.189,49.628,12.347,14.451,21.262,507.565,91.637,22.608,33.396,4.614,51.608,21.254,36.966,27.642,-13.021,37.77,4.417,76.429,32.131,27.71,-62.183,3.189],[-28.792,-2.806,1.451,3.585,5.484,-3.976,0.314,1.048,3.175,5.407,-15.462,-1.141,0.706,4.103,6.17,-2.707,4.871,5.391,5.888,8.321,11.459,10.267,9.389,10.246,10.192,31.544,22.301,17.868,15.073,13.973],[-28.052,-11.406,-3.526,-1.293,0.748,-42.272,-9.502,-4.106,0.072,0.757,-304.141,-6.954,-4.864,-1.028,1.026,-22.2,-6.748,-1.16,1.612,2.196,-11.341,-1.532,4.065,4.799,6.101,20.315,12.934,11.119,11.185,10.421],[-41.876,-17.298,-9.909,-4.912,-3.362,-40.034,-16.636,-11.682,-4.826,-3.319,-67.023,-17.59,-9.266,-4.469,-2.237,-33.084,-13.498,-5.938,-2.759,-0.599,458.544,-5.55,-2.693,1.849,1.482,20.396,4.076,3.734,6.708,7.349],[-51.73,-23.498,-13.227,-9.451,-5.958,-36.033,-23.858,-11.892,-8.497,-5.798,-50.06,-23.701,-13.703,-9.067,-5.316,-34.423,-17.898,-11.64,-5.464,-3.219,-17.121,-16.76,-6.742,-1.867,-2.127,15.234,-4.999,-0.112,2.378,4.625],[-63.837,-30.874,-18.666,-11.991,-9.451,-53.953,-27.522,-17.418,-13.277,-8.362,-52.314,-30.642,-19.001,-11.925,-8.107,-70.469,-27.251,-16.772,-11.648,-6.113,-47.37,-20.741,-14.325,-8.626,-5.097,0.954,-8.031,-6.442,-1.182,0.767]],
"kep": [[-24.391,-31.654,-25.243,-33.034,-35.265,-25.047,-18.154,-29.357,-32.185,-30.385,-16.272,-23.016,-24.641,-22.727,-30.484,-28.233,-22.44,-22.156,-19.658,-20.564,-26.101,-15.401,-14.212,-9.006,-7.531,-26.768,-7.23,-4.086,0.192,0.934],[-52.945,-31.478,-25.941,-24.311,-24.713,-49.026,-31.605,-24.831,-23.867,-21.666,-55.802,-32.582,-23.704,-22.723,-23.154,-55.36,-28.586,-23.702,-24.185,-25.075,-56.438,-30.471,-24.35,-22.366,-21.003,-57.859,-35.578,-24.033,-21.346,-18.855],[-77.824,-41.72,-33.318,-26.986,-24.024,-77.175,-42.835,-34.091,-28.636,-24.47,-71.321,-41.452,-31.874,-27.848,-25.011,-72.12,-46.549,-33.925,-26.702,-25.459,-71.297,-45.753,-34.78,-27.564,-25.798,-73.32,-50.356,-36.508,-28.902,-25.149],[-84.637,-50.557,-40.523,-33.67,-29.907,-84.48,-51.827,-41.315,-33.025,-27.866,-85.68,-52.176,-40.307,-34.43,-29.198,-82.778,-53.014,-41.387,-34.789,-30.584,-80.637,-57.133,-44.158,-34.075,-30.462,-84.008,-62.349,-45.141,-34.735,-30],[-89.962,-60.379,-45.454,-39.58,-32.954,-90.074,-58.688,-45.369,-37.949,-34.146,-89.812,-62.555,-47.003,-37.609,-33.357,-87.25,-61.924,-48.958,-39.934,-34.147,-85.454,-68.196,-50.108,-40.378,-35.644,-87.644,-68.338,-52.369,-43.318,-36.039],[-92.748,-66.204,-53.115,-43.868,-37.955,-92.326,-67.842,-53.644,-44.448,-38.985,-90.956,-67.789,-54.976,-44.914,-37.719,-89.587,-70.692,-55.808,-45.601,-40.09,-90.774,-72.818,-59.509,-48.164,-41.112,-91.385,-73.923,-60.699,-48.575,-41.552]],
"vp": [[15.765,134.485,-488.424,-376.286,-596.719,5.618,-140.315,-46.778,-86.641,-117.317,-17.435,-17.364,-56.989,-80.277,-24.217,4.129,1.381,-6.185,-3.635,-6.199,-2.077,-2.548,-2.798,-4.321,-5.562,0.154,-1.146,-0.154,0.239,0.66],[2119.041,739.544,148.583,-250.36,-26.192,268.465,39.697,8.254,-54.582,-184.067,240.504,61.774,19.175,-45.432,-54.206,42.308,0.811,-9.381,-1.591,-3.513,16.919,3.612,-1.166,-5.919,-10.066,10.374,3.252,-1.418,-0.589,-2.918],[5469.67,2412.294,1040.125,29.574,-570.458,968.835,442.705,331.449,50.433,-56.434,444.386,188.118,169.125,38.861,-19.973,89.177,63.691,32.081,4.81,3.754,38.108,30.972,12.339,2.134,-1.12,17.426,13.023,7.006,1.219,-1.633],[6238.302,4269.147,3095.109,2350.02,1359.887,1225.335,786.329,755.182,402.095,275.194,659.254,442.203,289.09,223.581,126.986,123.16,92.489,57.331,43.393,30.697,54.585,40.77,35.812,13.683,14.979,30.114,24.299,18.592,9.119,3.122],[7212.45,6068.339,4328.42,3978.122,2637.748,1431.149,1093.839,793.244,641.422,537.571,702.71,634.443,475.881,355.83,242.988,123.766,116.956,103.798,67.614,43.714,59.805,72.054,50.469,31.011,32.678,30.523,35.198,25.789,19.48,13.099],[7864.447,7617.324,6576.822,5294.857,4610.697,1525.964,1460.661,1250.379,1194.385,876.256,702.687,806.036,693.391,536.832,396.748,141.796,174.023,147.044,126.673,87.391,69.219,82.562,79.83,64.732,50.667,37.376,40.205,38.977,27.895,22.005]]
}