{
"KTrans": [[-0.625,3.628,7.731,-5.866,1.298,5.536,17.584,13.055,12.917,16.852,10.549,28.839,24.37,22.701,23.115,62.807,76.445,89.338,98.222,97.259,14.129,32.102,117.364,144.965,157.609,-220.757,-204.057,14.085,80.765,166.286],[-27.556,-6.146,0.114,2.704,1.325,-19.518,-1.267,1.635,5.118,5.422,-7.318,2.119,3.473,10.095,9.264,65.243,60.942,19.043,30.918,39.147,118.062,168.843,41.336,19.47,57.773,134.489,30.915,1.499,-48.765,33.927],[-33.31,-7.544,-3.412,-2.558,0.723,-30.452,-2.58,-1.852,-0.485,1.037,-23.339,5.588,7.627,2.924,1.92,31.584,56.64,48.006,36.411,8.668,110.288,138.63,107.58,60.044,13.708,-33.186,288.454,126.094,164.858,-74.031],[-40.939,-6.136,-1.286,-1.084,-0.702,-42.562,-1.594,1.531,0.727,2.116,-34.922,0.422,4.167,4.701,3.362,10.007,50.659,44.364,38.625,37.088,30.742,124.272,94.017,87.726,81.268,-9.602,245.687,203.194,147.714,160.699],[-53.213,-7.809,-2.353,-1.782,-2.591,-51.029,-7.044,-0.034,2.33,1.709,-47.543,-0.854,4.353,4.737,5.804,-5.495,42.908,40.565,35.218,26.117,12.796,107.631,94.528,74.18,69.495,-62.444,241.955,178.05,198.77,156.352],[-55.709,-15.276,-4.216,-2.488,-0.606,-55.538,-7.687,-0.847,0.868,0.659,-50.772,-7.15,0.95,4.149,5.293,-24.37,42.454,39.52,33.282,27.352,-11.167,78.391,81.046,71.028,64.111,10.532,161.326,192.295,175.963,132.896]],
"ve": [[9.99,-38.775,3071.834,20.366,28.854,-7.828,-3.731,138.939,899.47,-85.853,5.146,-4.438,107.672,-53.121,76.385,45.589,20.272,-67.781,-94.136,-91.581,99.322,31.17,-7.685,-39.695,-46.022,197.154,79.387,34.665,3.563,-16.021],[12.575,-25.919,14.851,26.466,5.269,-9.755,5.846,-0.238,-1.223,3.801,-63.985,6.653,-2.448,-2.402,15.596,48.151,20.584,10.134,3.187,-76.257,90.809,50.54,35.319,17.828,148.81,226.08,109.93,65.294,45.296,28.686],[-4.42,-1.773,-2.317,-4.441,-39.044,0.922,0.609,-1.488,42.028,2.092,5.167,3.878,1.166,11.718,0.919,46.431,23.248,16.083,9.36,33.149,89.547,47.808,30.215,26.103,19.784,200.44,108.268,57.847,51.938,31.578],[-5.08,-0.127,-0.348,-0.676,-1.25,-2.456,2.791,0.781,0.165,-0.308,-4.291,4.675,2.373,1.482,0.758,56.445,23.711,15.955,12.812,10.271,68.318,47.576,30.524,25.445,19.893,201.4,99.518,57.167,51.887,11.196],[-1.949,-0.482,-0.115,-0.122,-0.817,0.51,2.759,0.637,0.658,0.487,3.1,4.185,2.676,1.875,1.578,33.47,24.365,16.759,12.137,9.822,98.891,48.328,33.221,25.178,20.579,198.821,96.487,64.125,48.583,38.915],[-3.585,-0.498,-0.093,-0.508,-0.221,-0.702,0.504,1.053,0.73,0.447,5.911,4.008,2.87,2.437,1.84,40.287,25.051,15.949,12.606,10.053,95.7,48.329,32.612,24.96,20.494,202.034,108.518,67.619,50.274,40.338]],
"kep": [[-126.618,-37.289,-24.837,14.522,-18.311,-134.38,-57.67,-32.103,-33.979,-41.41,-125.569,-83.139,-47.352,-37.36,-36.909,-118.352,-216.183,-199.874,-181.049,-197.013,-189.515,-422.028,-406.402,-368.652,-397.326,-243.059,-585.414,-686.772,-742.768,-723.189],[-56.22,-46.56,-122.854,-31.713,-10.644,-46.836,-36.474,-126.646,-43.903,-16.617,-38.729,-35.893,-125.102,-56.044,-16.801,-6.441,23.203,-115.609,-166.885,-105.688,-16.87,98.498,-84.679,-305.677,-194.683,-43.747,-74.388,-130.989,-430.319,-376.271],[-50.791,-17.717,-15.876,-39.679,-115.115,-48.607,-14.171,-17.698,-34.654,-127.364,-45.734,-6.004,-0.871,-24.41,-127.686,-25.752,25.961,39.041,37.692,-142.073,-10.373,54.185,80.279,35.234,-135.355,-93.741,80.751,24.158,114.388,-288.433],[-53.564,-12.228,-3.683,-7.149,-9.757,-57.433,-9.247,-2.398,-6.838,-2.616,-53.297,-11.594,-4.962,1.206,-2.229,-38.695,16.247,28.542,42.651,60.583,-47.57,42.21,50,76.51,110.585,-79.044,58.686,80.918,77.533,144.155],[-63.437,-14.566,-6.825,-5.162,-8.441,-65.076,-13.921,-4.241,-0.39,-0.759,-63.272,-10.313,-2.827,1.532,6.341,-48.598,10.988,22.202,26.683,20.632,-53.729,31.256,48.894,53.843,65.808,-91.105,54.998,61.072,120.138,115.35],[-65.533,-20.319,-5.645,-5.341,-2.453,-67.864,-15.009,-4.797,-0.54,-3.471,-64.723,-16.074,-3.572,1.65,3.266,-59.377,7.555,19.826,21.028,22.133,-65.616,14.494,36.166,40.926,48.487,-69.31,21.742,68.989,93.39,80.023]],
"vp": [[-84.564,-113.356,81.717,0.132,-194.071,6.976,-45.501,40.359,35.08,57.966,-19.961,-20.344,52.344,-24.295,0.021,-5.664,-1.778,-1.324,3.741,0.676,-4.656,10.553,0.374,0.647,-0.271,-2.778,9.236,-1.963,2.52,-4.944],[2522.122,603.365,201.08,-60.086,-119.914,457.203,185.708,9.886,-59.874,37.573,251.699,63.504,-27.027,-12.949,-0.338,38.078,12.194,0.533,-0.467,-3.332,22.717,2.764,-5.98,4.617,-9.624,12.159,-2.697,-6.002,5.898,1.711],[4446.416,2086.148,654.119,661.319,-104.503,805.958,338.807,67.123,59.775,-32.997,429.938,146.549,72.236,20.101,2.345,77.719,17.277,5.568,10.976,2.887,33.377,20.699,2.092,-2.402,-5.28,23.107,5.52,-8.59,-4.672,-3.415],[5531.112,3309.32,1201.539,152.291,340.695,1216.768,540.64,160.477,155.122,43.087,553.39,259.893,90.287,0.453,35.461,109.096,41.727,10.376,6.523,-4.268,53.959,38.593,13.747,-0.235,-3.612,15.519,11.086,5.092,-4.079,-12.467],[6769.167,5657.602,1587.914,429.299,129.767,1326.659,943.503,201.842,158.859,145.146,691.007,499.39,150.961,55.616,59.284,128.484,89.924,25.632,12.105,8.186,58.006,51.11,11.468,-12.071,4.272,28.57,14.141,12.541,6.574,-5.511],[7317.252,5943.8,2885.538,800.222,212.074,1445.061,1252.254,412.843,181.173,125.578,681.85,586.77,195.13,150.401,101.134,134.431,136.496,44.876,18.087,0.307,66.332,40.029,21.134,13.982,7.692,24.314,12.372,14.176,1.682,-1.812]]
}