{
"KTrans": [[3.258,1.184,1.489,1.65,1.332,13.761,8.388,6.762,6.232,6.347,23.589,15.843,12.538,12.504,10.676,35.932,82.255,68.481,65.013,60.013,146.674,103.389,63.409,98.725,103.673,236.149,72.731,129.918,2.295,-4.189],[2.953,1.053,1.225,1.06,1.001,10.038,4.622,3.978,3.626,2.789,26.916,12.165,7.472,6.85,6.035,-0.418,63.986,48.359,34.631,30.754,35.447,58.248,85.596,78.42,61.077,103.133,51.186,-31.214,63.141,108.446],[4.414,-1.086,1.45,0.675,0.394,13.524,5.923,2.78,2.383,2.57,13.401,10.232,6.633,5.921,4.939,-17.914,27.656,46.009,35.528,27.779,-19.084,27.446,23.545,65.719,53.043,16.428,26.754,-18.787,5.876,79.447],[-43.977,0.709,0.916,0.901,0.436,-57.768,9.91,5.196,1.565,1.765,-46.475,15.329,8.626,6.535,4.681,-36.698,-6.609,49.043,28.083,23.637,-14.869,-6.263,15.481,64.924,59.954,-12.024,13.235,-21.702,-10.428,40.378],[-72.453,7.517,0.449,-0.89,0.208,-67.812,11.072,4.407,3.129,0.998,-54.993,15.267,6.668,1.975,4.35,-62.925,-13.1,60.124,32.357,26.856,-46.9,-22.339,17.04,54.192,60.147,-14.079,22.57,-20.933,13.401,99.74],[-67.127,6.286,1.519,1.179,0.622,-74.931,9.556,3.711,1.957,0.769,-80.892,13.786,11.221,7.205,5.179,-55.092,-32.33,40.508,32.067,23.634,-49.694,-21.767,-28.52,166.857,52.557,-55.392,0.049,-7.089,4.143,-37.632]],
"ve": [[0.473,0.466,0.51,0.839,0.725,4.447,0.708,-0.922,-2.53,-4.347,8.96,1.771,-1.811,-4.486,-5.676,42.552,16.309,1.276,-9.617,-16.885,89.109,38.617,12.041,3.512,63.067,192.976,81.024,35.143,10.956,-6.631],[1.482,0.571,0.575,0.167,0.28,5.252,2.38,1.513,0.916,0.628,10.237,4.937,2.732,1.672,1.171,54.033,24.845,15.167,9.542,6.159,101.344,50.614,29.077,22.025,14.177,207.425,97.795,61.119,39.838,29.834],[2.19,0.12,0.387,0.227,0.164,5.747,2.835,1.64,1.049,0.645,10.933,4.991,3.085,2.226,1.681,50.757,24.734,16.501,12.061,8.962,100.512,49.766,33.151,23.43,17.996,206.441,104.034,69.966,50.878,36.576],[3.002,0.653,0.281,0.352,0.148,7.145,2.848,2.001,1.202,0.781,10.612,5.289,3.615,2.667,1.853,52.494,25.214,16.591,11.937,9.551,97.237,50.306,33.05,24.928,19.782,204.262,98.445,68.476,49.988,53.04],[-2.473,0.872,0.103,-0.029,0.132,5.907,2.449,2.072,1.323,1.007,10.353,5.274,3.245,2.253,1.916,51.187,24.881,17.013,12.462,10.074,104.39,51.595,34.679,38.265,20.189,204.876,98.791,68.966,49.631,37.716],[1.011,0.988,0.356,0.404,0.18,6.611,3.138,1.301,1.213,0.978,10.479,5.22,3.769,2.969,2.244,49.916,24.845,17.252,12.387,9.817,96.96,49.46,34.345,25.43,19.957,214.697,98.749,61.886,49.898,40.77]],
"kep": [[2.424,0.399,0.849,0.923,0.856,8.432,7.229,7.568,9.052,11.155,12.905,13.498,14.308,17.697,17.415,-2.287,57.044,65.834,82.278,92.291,38.647,50.898,38.205,96.432,133.681,36.047,29.622,87.788,11.589,11.007],[0.655,-0.041,0.138,0.392,0.211,3.73,1.676,1.927,2.176,1.637,13.482,6.327,4.095,4.557,4.285,-28.678,29.508,27.537,22.148,22.494,-24.975,9.272,39.046,44.927,40.057,-23.809,-10.127,-43.075,17.85,57.356],[0.038,-1.857,0.524,-0.071,-0.282,4.711,2.309,0.576,0.797,1.386,-0.948,4.265,2.874,3.071,2.678,-42.99,1.79,23.729,19.935,16.459,-54.166,-11.995,-5.05,32.511,28.539,-54.654,-26.955,-38.904,-21.312,30.115],[-45.696,-0.996,-0,0.005,-0.236,-59.647,5.646,2.469,-0.185,0.447,-51.266,8.143,4.138,3.19,2.239,-55.219,-23.835,25.785,13.403,12.09,-54.129,-32.715,-10.883,29.585,31.659,-65.773,-36.651,-43.28,-30.537,2.633],[-71.928,4.518,-0.539,-1.491,-0.48,-68.649,5.954,1.423,1.134,-0.562,-59.238,7.165,2.329,-0.91,1.807,-73.181,-29.59,32.943,16.277,14.282,-70.38,-44.862,-10.832,20.276,30.99,-68.146,-34.378,-46.029,-18.839,41.404],[-67.12,2.069,-0.046,0.001,-0.169,-75.427,3.137,0.99,-0.04,-0.808,-81.06,5.097,5.782,3.321,2.232,-68.735,-43.749,16.919,15.915,11.521,-72.514,-45.042,-41.914,99.989,24.805,-81.809,-45.714,-39.61,-25.114,-47.495]],
"vp": [[72.279,-22.695,-61.387,-36.872,-81.5,-9.192,-14.18,-38.022,-34.305,-3.534,-34.369,-28.958,-20.759,9.141,-1.588,-41.004,-21.021,-14.287,-3.02,-8.628,-67.192,-39.38,9.768,7.776,-3.992,-53.084,-3.413,-32.021,-7.84,-1.665],[720.481,90.413,4.987,-146.346,7.378,85.89,21.726,-1.551,11.75,-38.908,63.429,10.402,-44.383,-9.884,-30.994,-39.745,-55.526,-12.203,-25.152,-5.742,-43.717,-52.53,-31.458,-9.802,-17.604,-33.216,-56.171,-49.017,-31.63,-25.873],[1813.535,436.624,231.62,57.384,-48.233,271.913,85.07,29.597,11.829,-5.236,185.146,31.137,43.261,-4.716,-14.032,-22.223,-22.472,-16.887,-22.123,-16.828,-24.122,-50.075,-49.127,-45.334,-53.722,-43.334,-64.585,-32.842,-54.751,-51.788],[2998.829,1146.163,642.016,464.105,232.106,701.483,322.669,165.254,43.529,53.595,245.174,67.177,29.862,72.758,17.931,26.633,-18.544,-8.975,-16.775,-18.29,-35.333,-44.366,-32.316,-50.218,-31.99,-34.943,-47.866,-28.791,-43.31,-49.384],[4281.635,1761.486,1601.424,891.358,627.059,794.367,309.907,213.028,161.947,70.897,274.96,43.267,84.876,43.686,52.762,30.889,-31.114,17.593,11.152,15.083,14.979,-32.849,-55.32,-27.468,-12.712,-19.865,-42.161,-24.368,-64.008,-38.692],[4252.66,2276.803,1404.639,853.391,750.462,844.42,469.364,274.252,247.742,129.429,461.139,226.308,44.619,126.613,136.749,10.758,-4.909,-0.707,10.228,23.141,-2.794,-18.687,-27.766,-6.766,-14.736,-10.339,-36.04,-43.025,-55.257,-46.855]]
}