{
"KTrans": [[-3.209,4.893,5.036,4.574,1.192,-1.358,2.202,1.492,-1.503,0.97,-5.116,-1.94,1.24,2.987,1.014,-6.794,-4.559,3.045,1.518,-2.146,-5.604,13.583,12.427,16.922,9.452,-4.888,65.329,37.775,39.492,28.615],[-68.669,-4.76,-2.277,-1.265,0.294,-69.619,-3.338,2.97,5.598,2.324,-66.473,-6.351,1.758,0.83,-0.646,-51.961,0.888,-5.791,-5.85,-0.023,-49,-6.416,-4.747,-1.187,-3.297,-91.865,27.954,3.375,10.015,-6.663],[-84.978,-18.68,1.798,3.223,2.427,-88.493,-12.595,2.082,0.932,1.33,-87.078,-16.153,-1.177,1.943,1.495,-85.439,-31.76,-3.238,-5.833,-3.738,-84.48,-12.817,-2.271,-3.04,-2.409,-101.102,3.255,-0.687,-3.994,-10.868],[-96.398,-39.445,-5.626,1.805,1.806,-96.165,-43.879,-0.428,0.675,-0.867,-95.407,-44.169,-2.919,0.142,0.527,-93.763,-38.879,-11.515,-3.277,1.608,-94.211,-31.49,-3.978,-5.994,-1.017,-87.937,-39.294,-6.583,2.262,4.548],[-97.996,-68.478,-14.487,0.355,2.26,-97.62,-62.435,-7.321,-1.08,1.064,-97.59,-68.473,-11.302,3.03,1.599,-95.178,-61.008,-18.843,0.548,1.924,-98.783,-55.355,-20.916,-10.201,-2.273,-115.831,-46.766,-2.23,-6.932,-4.383],[-98.482,-82.724,-18.022,2.863,0.018,-98.296,-84.827,-25.966,-7.455,1.408,-98.757,-81.689,-25.98,-8.211,-1.451,-97.846,-78.656,-30.42,-7.502,-2.072,-98.965,-64.237,-38.175,-9.581,-4.525,-94.743,-62.425,-20.433,3.054,-3.953]],
"ve": [[6.834,5.986,47.676,-32.233,18.89,1.051,11.814,-71.342,52.736,-4.356,-4.692,20.943,76.326,64.311,-111.283,13.928,9.636,6.587,-9.307,58.167,-23.912,-20.913,-138.928,-22.619,-91.927,-12.396,-9.406,-56.784,-32.447,-50.308],[-30.469,-1.743,-0.793,-0.356,-0.856,-29.499,-1.583,1.116,0.496,0.463,-33.267,-3.119,-0.078,-0.375,0.63,-9.038,-1.982,-2.282,-1.411,0.395,-31.101,-12.324,3.119,-4.855,5.595,-64.47,6.407,-27.148,-7.253,-31.521],[-53.454,-9.543,-0.236,0.402,0.149,-67.63,-6.005,-0.592,0.178,0.396,-60.513,-11.14,-2.231,0.145,-0.645,-71.146,-21.343,-4.136,-2.479,-2.354,-61.515,-12.065,-3.504,-2.388,-1.538,-95.864,-16.409,-17.976,-6.304,-126.509],[-84.561,-20.455,-2.246,-0.967,0.173,-82.516,-25.799,-2.015,-1.301,-1.66,-70.691,-25.943,-3.795,-0.735,-0.938,-79.424,-27.226,-6.456,-2.837,0.261,-79.649,-20.811,-3.83,-5.415,-1.332,-81.931,-34.967,-23.136,-1.788,1.987],[-69.808,-42.125,-7.493,-1.778,-0.625,83.475,-38.342,-5.421,-1.931,-0.668,-90.574,-42.806,-6.037,-0.201,0.055,-18.926,-25.726,-9.438,-2.164,-0.017,-113.929,-42.074,-17.874,-7.718,-2.421,-116.333,-45.732,-19.877,-19.701,-1.683],[-108.365,-65.637,-10.934,-1.457,-1.292,-114.887,-57.588,-15.493,-5.362,-0.303,-108.468,-64.35,-14.341,-5.518,-1.728,-98.415,-61.53,-19.652,-5.351,-1.191,-92.862,-45.796,-33.272,-5.955,-4.263,-69.15,-53.604,-41.759,-3.657,-12.272]],
"kep": [[-5.837,1.233,2.954,6.849,-1.699,-4.295,-2.161,0.359,-8.063,-3.004,-10.638,-2.521,-1.364,-0.098,-2.155,-29.886,-14.117,-3.105,-9.573,-15.7,-26.592,-14.399,-5.924,4.702,-9.108,23.029,3.159,-29.83,-19.884,-37.934],[-62.956,-4.918,-1.505,-0.566,1.559,-64.245,-2.588,1.516,5.345,2.124,-62.241,-4.323,1.604,1.371,-0.918,-59.321,-3.248,-5.208,-5.133,-0.542,-60.289,-24.518,-10.889,-8.739,-7.603,-29.96,-10.905,-28.137,-13.018,-20.443],[-83.131,-12.416,1.523,2.689,2.293,-86.695,-9.521,2.049,0.644,0.758,-87.093,-8.519,0.122,1.443,2.036,-84.224,-29.372,-2.221,-4.878,-2.243,-74.609,-33.622,-8.929,-5.181,-3.487,-50.146,-34.046,-34.103,-22.784,-18.157],[-98.935,-29.38,-3.815,2.209,1.32,-95.296,-30.896,0.401,1.655,0.665,-94.918,-33.124,-0.558,0.417,1.23,-93.91,-36.57,-8.574,-2.107,0.65,-81.219,-47.412,-11.23,-6.193,-2.825,-70.861,-39.148,-47.609,-17.74,-8.74],[-98.354,-53.215,-9.312,1.614,2.651,-100.058,-50.992,-4.84,0.215,1.419,-99.172,-56.907,-7.204,2.58,1.117,-94.31,-64.22,-14.501,0.684,1.097,-88.374,-62.877,-33.843,-9.541,-3.056,-74.126,-51.865,-53.612,-28.415,-13.867],[-100.542,-71.477,-10.987,3.227,0.75,-99.848,-74.51,-15.87,-3.199,1.377,-100.357,-73.564,-17.276,-4.155,-0.235,-97.721,-78.032,-26.375,-4.751,-1.762,-89.79,-70.695,-49.088,-12.581,-3.897,-82.054,-56.828,-41.355,-29.115,-17.087]],
"vp": [[296.509,-105.922,-529.822,-25.782,77.583,112.755,2.311,29.602,50.977,2.625,60.124,38.122,7.528,-12.9,14.048,26.035,23.469,5.136,7.622,12.12,20.666,-0.28,-2.576,-7.906,1.125,2.943,-6.737,0.164,-3.473,1.023],[4204.58,431.762,541.242,290.461,263.027,866.232,158.03,-34.993,-59.22,-53.37,398.259,86.143,9.157,23.313,46.402,62.779,8.76,20.15,31.41,4.97,48.957,21.199,14.849,4.562,9.784,32.857,-4.87,11.554,-1.777,18.854],[6304.199,2092.331,204.683,-272.312,-66.067,1441.321,329.349,12.619,6.533,4.116,688.067,244.229,62.643,4.049,7.27,136.109,95.587,23.897,28.174,26.074,71.071,23.257,15.336,12.979,12.452,40.787,12.982,16.247,17.241,26.229],[8513.758,4334.547,870.675,265.938,15.171,1655.942,1096.132,164.524,90.924,150.456,805.066,534.327,151.729,43.323,41.577,166.347,107.303,36.133,16.154,-3.851,88.304,54.456,8.349,20.491,8.853,37.858,34.731,37.744,4.959,0.314],[8769.632,8806.671,2670.559,763.653,162.455,1885.397,1595.52,296.069,168.94,80.151,965.928,909.148,185.809,-2.263,11.016,170.583,189.092,59.665,12.506,-0.81,108.882,87.519,59.802,32.982,9.036,57.697,46.873,30.419,23.141,15.012],[9708.673,12912.321,3556.978,525.858,848.621,1962.456,2526.896,994.819,461.637,27.56,964.1,1203.48,425.114,223.351,88.143,199.345,257.863,126.206,45.148,15.233,95.008,99.997,104.219,25.333,24.396,32.282,53.216,33.953,6.374,16.927]]
}