{
"KTrans": [[7.725,4.907,4.469,4.122,3.405,18.792,11.663,9.781,9.019,7.424,33.757,21.592,16.768,14.749,13.986,80.322,88.989,81.39,69.008,64.309,36.813,44.944,121.517,92.062,93.908,421.772,-15.89,142.078,103.654,41.374],[21.9,8.569,6.152,5.011,4.291,28.459,13.813,9.556,7.52,7.021,56.336,20.439,14.192,11.563,9.931,77.872,100.521,60.515,45.202,39.582,47.319,1.164,107.163,94.077,75.568,37.103,107.582,44.413,36.49,56.336],[55.436,13.918,8.301,6.878,5.82,57.374,17.015,12.225,9.574,8.095,12.703,32.151,16.998,12.466,10.403,-22.92,41.516,67.92,39.109,34.218,28.092,7.665,79.55,91.241,71.863,34.179,68.685,71.873,7.679,44.955],[-45.062,24.173,14.909,8.04,7.485,-39.935,28.949,16.079,11.724,9.348,-50.909,31.15,22.867,13.722,12.34,-21.005,30.151,87.758,51.777,33.958,18.975,38.196,19.973,89.4,69.685,20.107,86.09,23.706,-17.726,57.599],[-64.004,47.744,13.304,12.397,8.459,-54.629,67.875,23.053,15.32,10.484,-48.24,66.946,32.582,18.019,12.842,-49.846,50.284,108.534,60.356,37.774,-47.169,8.439,37.127,44.259,99.226,28.468,42.872,20.977,67.442,-16.548],[-72.242,34.168,25.97,14.26,11.254,-75.032,22.006,23.077,22.705,13.516,-71.177,4.773,41.877,22.77,14.8,-62.327,-30.368,35.906,73.479,38.75,-49.717,2.671,20.975,51.447,99.263,-13.991,0.777,57.879,9.14,-4.843]],
"ve": [[-0.462,-1.879,-2.998,-4.041,-4.806,2.898,-1.314,-3.913,-6.178,-7.526,7.281,-0.421,-4.665,-7.978,-10.969,44.185,15.131,-1.006,-11.332,-19.309,77.287,32.636,5.084,-14.113,-16.111,182.062,80.463,30.249,9.271,-12.796],[0.317,-0.59,-0.998,-1.342,-1.649,3.795,1.298,0.081,-0.664,-1.235,8.783,3.564,1.493,0.184,-0.794,48.395,24.621,13.644,7.965,4.239,101.614,49.549,30.123,20.381,12.412,211.234,97.883,60.233,42.064,27.202],[0.729,-0.393,-0.759,-0.902,-1.134,4.884,1.348,0.588,-0.067,-0.417,-32.104,4.401,2.189,1.079,0.376,51.976,22.556,15.154,10.032,7.299,99.984,47.837,30.9,22.799,16.758,198.246,103.007,62.852,46.163,35.337],[-3.11,-0.328,-0.332,-0.868,-0.843,4.21,1.545,0.769,0.202,-0.204,11.11,3.536,2.507,1.29,0.804,49.116,24.254,15.558,11.229,8.103,100.524,48.284,32.419,23.975,17.581,204.64,97.616,67.156,50.416,37.462],[77.476,0.122,-0.866,-0.589,-0.869,5.69,2.615,0.993,0.478,-0.098,7.336,4.679,2.837,1.563,0.848,50.131,25.238,15.733,11.341,8.663,103.74,50.119,32.873,25.594,19.027,198.866,98.045,67.738,47.64,40.102],[-0.013,1.456,-0.396,-0.654,-0.71,2.925,3.265,0.458,0.826,0.052,7.213,6.356,2.673,1.682,0.888,51.951,25.155,16.271,11.427,8.548,103.12,49.083,33.956,23.186,18.305,215.583,102.917,62.986,51.118,39.862]],
"kep": [[8.225,6.92,7.72,8.566,8.73,15.415,13.162,14.291,16.272,16.285,24.503,22.147,22.593,24.842,28.296,29.801,64.644,83.053,90.558,103.966,-8.88,14.74,102.522,94.013,115.706,98.788,-17.782,90.644,96.324,55.204],[20.874,9.2,7.224,6.44,6.041,22.895,12.323,9.465,8.238,8.36,41.709,16.199,12.501,11.356,10.814,22.432,57.996,40.39,34.266,33.852,-17.226,-20.982,58.909,60.149,55.512,-41.447,17.042,0.864,3.797,15.539],[50.299,14.115,9.099,7.849,7.035,46.706,15.198,11.526,9.641,8.547,1.766,26.156,14.433,11.254,9.986,-43.496,15.739,44.183,26.11,24.908,-29.617,-19.244,36.929,53.693,45.913,-47.379,-4.645,13.727,-16.933,9.247],[-43.982,23.455,15.114,8.946,8.391,-41.288,25.724,14.998,11.454,9.563,-53.099,25.385,19.583,12.21,11.425,-43.975,6.597,59.262,35.529,23.657,-35.974,-3.667,-5.169,50.739,42.674,-54.469,0.764,-16.634,-34.193,17.609],[-63.103,44.624,13.759,12.921,9.358,-54.927,59.641,21.351,14.568,10.546,-50.704,55.669,28.1,15.992,11.824,-63.118,20.08,74.68,42.345,26.388,-69.438,-22.332,6.009,17.054,64.073,-52.559,-22.534,-19.555,17.611,-31.049],[-69.834,29.931,25.236,14.617,11.917,-73.865,16.97,21.313,21.316,13.304,-71.582,0.036,36.388,20.21,13.643,-71.938,-41.139,16.825,52.992,27.105,-71.374,-27.246,-5.139,22.56,64.081,-68.005,-43.564,0.049,-19.986,-24.497]],
"vp": [[218.774,231.572,242.385,241.262,225.977,26.752,35.787,39.483,43.444,27.812,1.314,18.572,14.101,10.328,22.512,-39.964,-20.926,-5.037,-17.868,-19.485,-21.765,-21.786,-40.711,-23.032,-9.194,-35.578,-19.619,-32.631,-33.203,-27.244],[406.881,640.384,731.845,733.335,742.349,36.666,102.247,121.452,116.57,138.742,-1.933,45.125,56.336,61.22,59.001,-21.355,15.771,2.486,-0.561,11.097,-13.374,1.529,-21.403,5.023,-6.952,-1.187,-28.135,-23.579,-29.233,3.098],[1888.588,763.266,971.605,1142.131,1216.458,376.329,156.374,186.955,230.086,237.976,259.52,87.045,90.662,90.926,97.677,39.522,-33.182,7.798,-13.921,5.327,-25.733,-18.442,-19.255,-5.109,-4.045,-56.331,-16.138,-43.378,-19.722,-14.081],[4457.121,986.216,1291.547,1314.33,1518.415,722.379,199.992,206.375,270.579,301.222,421.024,88.947,107.981,116.496,142.093,25.288,14.058,-7.165,22.123,4.985,-3.128,-12.942,4.155,-11.636,-16.634,-4.685,-39.919,-8.14,8.863,-19.404],[5545.773,2098.474,1171.505,1603.898,1691.119,901.125,507.481,201.112,264.065,345.148,278.869,284.993,86.415,167.521,151.671,73.9,31.064,24.373,17.156,1.478,-17.554,13.342,-1.443,-9.226,4.809,-21.767,-40.682,-4.68,-30.402,1.874],[4304.317,6301.824,1527.853,1582.298,1950.997,860.308,1056.926,261.015,359.146,387.066,469.01,379.443,111.964,119.435,162.974,33.635,113.73,43.561,6.309,-5.44,7.97,5.573,39.189,-18.39,-23.96,-13.552,-4.789,-39.307,5.19,3.626]]
}