{
"KTrans": [[20.844,26.994,27.108,22.983,29.731,34.737,46.967,47.347,45.283,19.761,15.063,35.176,28.954,35.48,31.546,44.453,65.475,61.499,56.738,43.919,108.641,64.989,79.708,70.803,74.128,126.275,141.779,127.969,147.59,128.483],[-51.975,-3.242,2.53,9.876,16.114,-51.193,-4.22,13.206,10.949,13.458,-50.639,-10.5,9.762,19.148,12.272,-33.766,0.972,12.174,26.951,19.993,-18.325,10.823,22.939,39.953,28.478,10.924,45.19,39.317,47.851,53.985],[-76.164,-26.402,-5.404,-1.968,3.229,-70.19,-29.398,-14.078,-2.313,2.494,-68.794,-29.632,-16.734,-3.296,2.926,-67.596,-27.608,-10.082,-3.683,5.868,-47.485,-25.581,-2.939,9.209,17.423,-38.363,-15.14,12.931,23.102,28.618],[-82.948,-51.711,-34.437,-17.246,-8.885,-83.488,-46.64,-32.642,-16.414,-9.074,-80.818,-55.201,-28.416,-21.265,-11.605,-73.306,-54.12,-24.102,-10.333,-7.297,-75.306,-36.925,-27.524,-10.375,-5.543,-63.415,-34.275,-13.686,-1.255,5.362],[-91.862,-64.746,-44.247,-30.774,-24.701,-89.423,-62.789,-45.608,-32.34,-21.23,-88.2,-63.385,-46.863,-32.073,-20.716,-83.481,-66.699,-42.055,-30.73,-15.053,-81.209,-58.671,-39.002,-32.145,-16.515,-69.784,-49.464,-34.842,-22.769,-11.718],[-92.433,-75.231,-55.091,-40.817,-32.321,-90.054,-76.108,-58.304,-40.275,-29.69,-89.835,-76.75,-59.031,-42.741,-34.637,-84.897,-70.454,-55.226,-42.11,-33.991,-80.635,-66.835,-52.688,-44.861,-29.184,-80.672,-67.093,-51.031,-34.01,-22.911]],
"ve": [[207.715,-24.024,12.4,-41.403,142.013,-84.906,7.131,-62.771,-64.744,1788.74,12.914,22.659,99.307,-52.128,-216.083,-16.764,-29.998,32.203,55.597,-55.114,72.414,51.366,11.585,-34.446,-39.582,104.435,12.64,-74.07,-22.529,-27.612],[235.787,10.866,-80.233,42.947,34.336,16.947,16.738,7.397,26.66,54.142,-44.163,10.394,7.53,14.427,40.072,-13.083,-9.118,16.948,20.323,-46.74,-43.864,155.375,22.384,12.934,4.968,160.496,44.072,19.67,2.281,30.263],[-50.807,13.425,-0.602,-0.748,4.242,-40.82,-10.936,-0.359,2.162,5.869,-26.482,-12.677,-4.233,1.657,4.906,-26.519,-18.847,4.869,6.608,10.972,46.027,-16.432,13.011,13.603,13.213,92.371,37.91,39.824,16.837,12.621],[-41.193,-6.469,-19.264,-5.706,-4.042,-47.384,-12.591,-26.194,-4.618,-1.48,-22.993,-23.031,-8.106,-7.903,-1.648,-5.008,-4.186,-0.591,-0.42,2.391,-35.657,-38.621,21.423,4.746,7.864,81.876,30.435,-60.278,10.022,10.754],[-122.499,-19.851,-14.606,-9.686,-8.111,38.044,-17.857,-13.011,-9.466,-6.537,-42.487,-30.025,-15.408,-9.411,-6.818,-5.43,-24.899,-1.041,-5.051,-0.479,9.168,-5.903,4.066,0.75,0.706,85.609,27.654,8.167,14.545,17.077],[-35.234,-55.924,-5.332,-15.396,-11.906,-35.278,-24.602,-16.687,-15.263,-11.325,-3.349,-36.824,-14.343,-14.378,-10.222,14.531,-31.508,-16.167,-10.479,-7.436,62.874,-14.698,-6.156,-4.801,-2.37,66.077,22.834,3.288,7.287,12.874]],
"kep": [[-56.934,-46.486,-61.619,-65.653,-70.136,-45.302,-32.075,-40.72,-36.542,-82.986,-57.101,-43.359,-58.381,-49.327,-69.141,-55.973,-37.509,-31.1,-42.468,-65.6,-39.94,-53.768,-28.957,-37.535,-35.128,-39.246,-35.74,-38.522,-2.38,-25.772],[-82.633,-46.272,-44.437,-42.28,-40.568,-78.786,-46.726,-37.144,-42.004,-44.026,-80.977,-50.65,-40.067,-36.557,-45.295,-77.454,-46.527,-43.234,-36.216,-42.463,-73.458,-52.308,-42.6,-33.615,-41.052,-71.078,-51.826,-51.202,-42.97,-37.857],[-90.312,-56.331,-46.024,-43.771,-42.74,-84.992,-56.538,-50.791,-45.453,-44.038,-83.301,-58.152,-51.268,-45.741,-44.25,-87.259,-61.661,-52.319,-48.342,-43.809,-81.92,-67.962,-52.672,-45.153,-41.489,-84.452,-72.663,-54.712,-47.153,-42.194],[-93.109,-70.669,-58.199,-50.054,-46.251,-92.477,-66.588,-57.257,-50.403,-47.852,-91.13,-71.301,-56.008,-51.76,-49.237,-88.766,-73.691,-57.02,-48.933,-48.489,-91.878,-69.847,-62.353,-52.124,-51.255,-90.861,-74.28,-66.363,-55.929,-51.322],[-96.956,-75.223,-63.417,-56.928,-53.887,-95.481,-75.91,-64.293,-57.885,-52.578,-94.75,-75.869,-64.495,-58.038,-52.044,-94.083,-80.164,-65.417,-58.835,-51.666,-94.303,-80.852,-66.847,-61.839,-53.705,-90.462,-83.161,-73.293,-63.378,-56.393],[-97.301,-83.454,-69.081,-60.508,-56.92,-96.291,-83.047,-72.066,-60.686,-55.535,-95.808,-84.743,-71.511,-62.304,-59.012,-94.392,-82.055,-71.968,-63.807,-60.016,-92.877,-83.073,-74.395,-67.441,-59.775,-93.353,-87.26,-79.025,-68.499,-61.143]],
"vp": [[630.205,-947.719,-490.903,-756.395,-1028.732,-141.854,-143.175,-352.917,-214.267,-103.486,18.207,-121.524,-37.116,-175.346,-171.306,-15.411,-36.125,-30.842,-48.695,-20.422,-30.372,-2.667,-27.215,-14.853,-3.517,-12.908,-8.737,-8.074,-28.57,-10.951],[2802.326,256.005,-196.155,-509.694,-1106.319,701.121,150.273,-170.993,-107.9,-305.53,469.502,103.116,-22.902,-174.409,-40.878,43.423,25.387,-15.742,-47.006,-22.161,-8.219,-7.645,0.11,-29.525,-15.615,-30.45,-22.403,-1.202,-10.522,-15.248],[5538.385,3210.006,32.847,-475.956,-155.649,797.377,568.094,377.11,68.577,57.438,460.199,351.248,361.972,28.303,-16.494,93.245,73.672,26.89,-3.242,2.168,9.98,34.321,13.31,-14.608,-29.472,-11.857,-1.853,-16.582,-13.21,-24.781],[6003.155,5668.94,4587.167,2334.674,1701.715,1320.502,1044.154,949.567,387.489,231.369,529.969,673.222,383.289,393.916,157.104,88.805,121.055,57.691,23.798,8.54,41.147,17.116,58.288,33.962,19.022,4.782,1.394,13.067,15.966,10.41],[7976.322,7180.627,6850.385,4849.26,4719.478,1578.163,1386.611,1380.841,784.089,739.757,743.924,745.845,701.251,549.571,308.051,93.233,195.298,119.829,103.922,46.9,52.882,79.045,46.205,68.591,51.988,-12.356,16.023,27.988,35.925,24.556],[8332.097,8833.022,9937.09,7471.837,6853.654,1482.796,1879.695,1724.437,1476.816,1126.661,707.798,1037.869,901.337,860.221,695.891,89.735,200.651,165.986,169.731,153.781,36.287,88.663,85.796,107.004,69.052,13,23.785,56.875,36.573,32.496]]
}