{
"KTrans": [[29.757,24.291,18.874,14.292,19.183,9.969,17.037,20.001,19.184,21.725,27.168,23.991,12.063,24.443,22.272,38.074,36.657,35.023,29.782,35.416,59.571,47.401,48.505,50.526,42.891,138.984,94.411,97.586,86.34,77.744],[-48.514,-8.47,0.854,7.799,10.562,-49.38,-11.615,2.519,6.577,8.495,-41.542,-2.237,4.298,8.609,12.102,-32.036,-0.749,9.905,12.917,11.57,-34.408,5.291,13.644,18.774,26.392,0.591,21.307,32.027,38.752,34.331],[-71.317,-31.24,-15.871,-5.187,1.031,-73.507,-29.782,-11.115,-2.569,4.507,-70.376,-35.751,-13.374,-0.981,1.624,-65.045,-27.509,-8.242,1.339,4.701,-58.666,-25.056,-7.047,7.436,11.652,-43.514,-13.57,3.231,11.012,21.371],[-81.039,-41.787,-29.957,-18.995,-7.183,-80.054,-47.987,-31.035,-16.569,-9.539,-84.883,-48.692,-27.154,-16.616,-10.048,-80.042,-45.255,-30.573,-14.88,-8.33,-72.705,-52.794,-26.584,-11.589,-2.274,-61.668,-41.439,-17.655,-2.184,4.217],[-89.683,-59.308,-41.76,-28.904,-19.229,-89.124,-61.132,-39.994,-29.146,-18.635,-88.648,-62.366,-39.746,-28.451,-18.118,-84.701,-59.796,-39.455,-24.454,-15.205,-77.809,-56.66,-39.672,-27.163,-15.157,-66.049,-58.377,-32.843,-18.575,-11.133],[-92.882,-74.181,-53.903,-37.111,-27.791,-92.343,-73.456,-51.66,-39.604,-29.282,-93.362,-68.869,-54.081,-40.159,-27.629,-90.056,-73.219,-52.922,-39.776,-27.173,-80.803,-62.08,-55.736,-37.365,-24.942,-80.882,-60.322,-50.308,-33.556,-18.719]],
"ve": [[-20.113,583.609,38.642,60.315,-78.125,7.651,64.829,29.516,-96.833,-175.608,50.811,30.077,-104.991,181.479,44.497,28.44,-79.478,171.916,24.81,5.363,39.724,73.572,-658.089,34.338,41.144,93.7,-3.48,-0.965,-65.48,68.21],[-8.367,-1.302,1.837,4.908,8.313,-46.612,0.453,2.184,5.23,9.223,2.617,1.319,2.308,7,7.961,18.931,7.684,8.096,9.183,11.482,-15.124,15.193,13.305,13.854,17.378,64.924,26.97,19.309,30.48,31.42],[-74.127,-12.586,-5.658,-1.866,1.262,54.255,-9.908,-3.569,-0.709,1.248,-27.169,-12.502,-2.783,-0.432,1.177,-4.716,3.989,2.264,2.524,3.659,2.404,4.163,6.377,8.137,8.347,45.502,25.657,19.497,16.879,17.054],[-56.835,-14.588,-10.514,-6.004,-3.251,-34.07,-16.833,-10.692,-5.759,-2.878,-43.559,-16.437,-7.568,-5.54,-2.845,-34.016,-10.017,-6.353,-2.383,-0.171,-9.876,-7.018,-3.073,0.741,4.983,35.75,-0.758,12.829,13.231,10.372],[-42.169,-27.202,-14.715,-9.893,-7.065,-43.902,-22.642,-13.762,-10.461,-6.45,-48.798,-24.405,-13.897,-9.546,-6.22,-22.451,-18.305,-10.45,-5.947,-3.008,12.097,-4.235,-6.865,-2.268,-0.512,20.503,-10.293,6.112,7.389,4.831],[-69.665,-31.061,-20.324,-14.275,-8.099,-49.252,-32.737,-18.075,-14.934,-10.179,-61.054,-26.498,-19.439,-13.898,-9.008,-29.112,-21.418,-17.219,-12.54,-7.269,2.003,-5.128,-14.345,-6.888,-3.917,-18.921,4.685,-1.221,3.546,4.394]],
"kep": [[-24.447,-24.318,-32.784,-45.877,-47.548,-29.59,-27.514,-33.223,-40.535,-41.785,-27.468,-22.948,-42.426,-31.201,-37.299,-25.874,-25.206,-25.414,-28.623,-23.235,-35.363,-23.3,-25.454,-20.062,-27.15,-36.199,-26.28,-9.574,-12.321,-16.431],[-63.645,-36.729,-31.271,-28.752,-29.021,-63.526,-39.66,-30.958,-29.903,-30.959,-59.856,-34.047,-29.964,-29.052,-27.998,-61.976,-37.818,-30.304,-28.364,-30.56,-69.474,-38.311,-31.416,-28.31,-24.945,-68.281,-45.023,-31.289,-25.823,-26.758],[-78.282,-47.005,-39.18,-33.779,-31.562,-80.063,-47.927,-36.943,-32.762,-29.198,-78.132,-51.101,-39.132,-31.841,-31.077,-79.733,-51.128,-39.058,-32.268,-30.757,-81.597,-54.063,-41.644,-32.559,-29.747,-81.043,-55.936,-43.328,-36.747,-29.912],[-84.906,-54.541,-46.899,-41.089,-34.193,-85.265,-58.339,-47.565,-39.57,-36.28,-87.904,-59.252,-46.392,-39.794,-36.581,-86.408,-60.059,-49.739,-40.604,-37.219,-85.885,-66.755,-49.326,-40.508,-36.628,-88.125,-71.698,-52.391,-42.573,-36.639],[-91.226,-64.009,-53.786,-46.315,-40.513,-91.171,-66.268,-53.03,-45.965,-40.566,-90.382,-67.289,-52.465,-46.006,-40.317,-89.839,-68.103,-54.501,-45.338,-40.301,-88.962,-71.023,-56.589,-49.456,-41.96,-88.78,-77.809,-60.53,-49.78,-43.738],[-95.622,-76.027,-60.954,-50.049,-46.29,-93.711,-74.089,-60.149,-51.748,-46.201,-94.122,-72.667,-62.079,-52.84,-45.725,-93.743,-77.186,-62.011,-53.386,-46.539,-89.623,-75.72,-65.518,-54.382,-46.817,-91.828,-79.919,-69.199,-58.16,-47.675]],
"vp": [[-330.252,-602.604,-677.865,-210.151,-1025.929,57.797,-32.549,-95.423,-164.405,-159.946,-86.995,-79.1,12.689,-91.882,-68.603,-10.834,-8.622,-20.323,-3.995,-15.414,-15.621,3.482,-1.507,-2.527,0.978,-21.804,-2.652,-9.805,-5.154,3.191],[2659.731,770.437,162.32,-315.527,-874.309,654.946,169.061,-13.36,-41.7,-101.039,190.69,10.852,-18.898,-61.523,-88.176,27.991,5.374,-20.607,-0.5,-6.305,40.798,-0.828,-3.758,-1.366,-25.615,-10.055,-1.648,-3.584,-15.008,-5.021],[4620.985,3042.411,1608.935,597.653,-760.178,969.411,443.115,201.745,91.267,-233.012,429.903,374.754,129.516,-8.077,-5.446,69.195,31.856,14.334,1.266,4.839,31.846,23.709,9.701,-7.135,-13.509,3.383,2.078,1.482,2.882,-15.059],[6037.055,4119.218,3960.776,2718.185,802.307,1306.993,966.351,723.688,421.679,268.515,637.369,480.838,237.578,273.715,173.98,119.194,94.138,80.791,49.074,35.168,37.169,66.29,45.552,26.959,-1.346,6.738,29.12,11.569,-3.051,0.982],[7604.974,6612.267,4863.953,4158.171,3139.865,1534.362,1306.896,922.712,911.052,624.612,735.773,702.632,485.87,415.478,324.117,135.581,141.273,111.117,77.97,47.337,42.46,49.501,61.477,43.207,30.507,-5.801,45.269,21.376,13.771,20.911],[8200.32,9166.931,8141.555,6073.862,4630.388,1440.721,1840.338,1407.559,1317.356,1090.739,812.398,849.563,787.141,664.26,513.88,154.467,185.951,174.623,154.424,105.781,51.101,63.929,93.476,65.77,52.951,32.04,26.275,51.34,27.507,15.843]]
}