{
"KTrans": [[57.483,37.007,38.765,31.226,29.779,78.495,46.748,54.431,42.115,28.759,120.23,51.738,52.298,48.124,34.265,287.871,147.317,124.697,124.191,95.572,629.929,320.599,260.9,206.913,192.597,1559.258,746.781,555.302,494.74,467.577],[-72.377,104.383,71.708,46.005,51.225,-80.406,112.689,71.515,49.44,51.879,-35.438,112.572,82.277,58.168,45.743,-5.317,230.978,117.042,103.962,75.31,49.005,353.407,206.399,166.209,124.979,275.719,772.275,426.801,293.634,233.732],[-147.892,68.154,132.357,105.465,63.502,-142.999,118.87,158.313,93.345,67.016,-148.991,116.246,132.495,78.24,90.283,-147.494,173.241,204.276,136.341,109.046,-259.45,296.795,379.207,181.514,150.431,-292.015,646.91,605.276,295.422,238.381],[-135.545,-147.431,200.092,157.78,89.742,-128.368,-104.679,201.643,137.396,100.982,-135.715,-99.934,168.443,166.943,99.774,-179.869,-134.282,311.836,226.024,152.626,-159.189,-180.779,406.821,295.318,194.969,-237.435,-147.829,810.392,457.358,320.852],[-124.669,-176.96,17.346,243.628,166.914,-133.876,-219.468,-1.218,241.172,148.372,-123.771,-200.131,14.638,317.5,205.642,-135.71,-264.109,17.438,395.891,214.45,-163.245,-249.065,143.02,553.365,306.808,-270.636,-352.225,-5.718,741.686,410.928],[-114.22,-181.729,-185.009,50.466,338.69,-117.518,-199.535,-227.849,202.77,260.228,-116.654,-182.72,-169.416,91.549,415.115,-131.346,-229.956,-209.802,299.11,395.622,-116.465,-302.401,-349.877,336.517,494.156,-233.582,-368.463,-273.362,520.758,665.716]],
"ve": [[7.508,8.505,6.293,31.146,-36.925,10.122,5.199,8.477,221.93,-2.984,14.308,6.831,1.6,-311.581,259.931,49.846,12.29,-2.922,-11.884,-20.892,95.898,37.608,10.679,-6.87,-19.898,197.331,81.271,35.732,12.088,-3.918],[5.731,3.45,2.861,0.834,1.622,7.251,4.302,4.694,3.02,2.733,25.665,6.397,5.118,3.247,1.454,43.718,27.376,13.964,11.891,5.181,103.381,50.128,30.228,21.814,12.02,203.126,101.633,66.84,44.443,30.01],[0.398,17.975,4.457,4.025,0.948,11.905,8.888,6.36,3.065,2.366,14.996,12.168,7.281,2.851,6.13,16.868,27.882,15.074,13.726,11.735,98.826,54.334,35.5,23.87,20.729,199.583,101.077,71.026,47.319,38.863],[2.306,4.779,5.353,2.907,1.074,12.714,1.293,4.845,3.884,3.611,15.404,11.143,6.027,5.249,4.926,53.317,26.609,17.942,19.004,12.509,100.481,52.443,34.799,27.145,20.542,204.697,104.9,67.852,53.411,41.441],[7.194,3.501,-1.403,2.985,3.407,1.455,44.2,4.618,1.691,4.71,14.635,7.165,9.585,7.333,6.144,50.126,30.296,17.701,16.831,13.259,101.036,55.411,1.661,29.262,25.309,200.883,102.48,72.266,51.85,43.304],[-2.518,3.666,4.166,2.791,4.776,7.19,8.048,8.469,4.836,3.787,13.283,10.642,9.405,7.94,8.538,57.361,26.938,17.445,20.536,14.583,98.203,55.223,37.937,29.08,22.881,193.29,102.31,67.984,53.458,41.597]],
"kep": [[44.752,32.436,42.768,40.598,46.483,60.731,46.345,63.525,56.118,43.024,91.353,45.514,57.519,62.94,50.812,154.943,115.36,126.315,154.343,145.541,266.124,201.811,222.322,225.024,259.675,453.716,362.467,377.215,425.918,487.035],[-78.327,84.989,60.854,40.208,47.348,-85.28,93.093,58.247,40.778,46.904,-50.44,87.024,65.101,48.889,40.381,-42.388,148.657,81.458,77.011,61.557,-31.338,188.061,124.988,111.056,93.675,21.799,321.487,211.055,166.487,150.569],[-144.054,48.569,109.192,88.637,53.3,-134.81,91.624,129.848,77.025,56.672,-138.791,86.411,106.076,63.065,75.317,-128.516,99.586,144.096,98.125,80.385,-173.39,148.087,237.161,116.342,100.816,-158.811,259.057,301.323,156.985,136.915],[-131.163,-141.914,168.163,133.868,76.334,-122.977,-103.299,167.23,114.376,83.856,-129.383,-101.049,134.697,137.146,81.824,-148.364,-123.105,224.251,166.802,113.44,-125.899,-145.614,253.7,194.507,131.085,-140.987,-119.545,414.465,251.421,185.101],[-121.044,-165.801,7.336,208.682,142.399,-128.563,-199.885,-11.563,204.906,123.905,-119.209,-182.362,0.585,266.956,171.721,-119.035,-217.981,-3.305,298.059,162.792,-128.451,-189.458,69.698,379.543,211.988,-155.39,-215.248,-41.418,423.438,241.133],[-112.167,-170.863,-172.301,35.969,292.082,-115.615,-184.812,-208.491,170.174,220.925,-113.141,-169.315,-160.363,68.932,351.707,-119.017,-192.431,-182.989,220.114,305.763,-106.361,-223.187,-268.585,222.165,349.844,-141.689,-223.631,-190.018,285.852,408.573]],
"vp": [[0.001,0.001,0.001,0.001,0.001,0.005,0.005,0.005,0.005,0.005,0.01,0.01,0.01,0.01,0.01,0.05,0.05,0.05,0.05,0.05,0.1,0.1,0.1,0.1,0.1,0.2,0.2,0.2,0.2,0.2],[0.001,0.001,0.001,0.001,0.001,0.005,0.005,0.005,0.005,0.005,0.01,0.01,0.01,0.01,0.01,0.05,0.05,0.05,0.05,0.05,0.1,0.1,0.1,0.1,0.1,0.2,0.2,0.2,0.2,0.2],[0.001,0.001,0.001,0.001,0.001,0.005,0.005,0.005,0.005,0.005,0.01,0.01,0.01,0.01,0.01,0.05,0.05,0.05,0.05,0.05,0.1,0.1,0.1,0.1,0.1,0.2,0.2,0.2,0.2,0.2],[0.001,0.001,0.001,0.001,0.001,0.005,0.005,0.005,0.005,0.005,0.01,0.01,0.01,0.01,0.01,0.05,0.05,0.05,0.05,0.05,0.1,0.1,0.1,0.1,0.1,0.2,0.2,0.2,0.2,0.2],[0.001,0.001,0.001,0.001,0.001,0.005,0.005,0.005,0.005,0.005,0.01,0.01,0.01,0.01,0.01,0.05,0.05,0.05,0.05,0.05,0.1,0.1,0.1,0.1,0.1,0.2,0.2,0.2,0.2,0.2],[0.001,0.001,0.001,0.001,0.001,0.005,0.005,0.005,0.005,0.005,0.01,0.01,0.01,0.01,0.01,0.05,0.05,0.05,0.05,0.05,0.1,0.1,0.1,0.1,0.1,0.2,0.2,0.2,0.2,0.2]]
}