{
"KTrans": [[-0.405,0.242,-0.034,-0.129,0.912,-0.524,0.086,0.735,0.973,0.45,-0.423,0.176,0.156,0.681,1.089,1.864,1.163,1.119,0.809,1.17,2.21,0.972,1.101,2.244,1.435,3.612,2.769,3.24,2.558,2.058],[-2.332,-0.355,0.229,0.505,0.509,-3.306,0.233,-0.539,0.5,0.518,-3.205,-0.579,-0.276,0.474,0.402,-3.629,-0.473,0.005,0.631,0.588,-4.944,-0.405,0.725,1.118,0.889,-7.249,0.873,1.251,0.698,1.265],[-19.238,-2.193,-1.09,-0.708,0.147,-13.375,-2.966,-0.811,-0.417,0.017,-12.832,-4.508,-0.761,-0.433,-0.041,-17.362,-2.636,-1.607,0.207,0.29,-13.873,-2.847,-0.443,-0.122,0.435,-18.089,-3.103,-0.052,0.868,0.548],[-30.955,-3.258,-3.184,-1.073,-0.655,-31.075,-3.586,-2.542,-0.633,-0.308,-35.589,-5.526,-1.891,-1.113,-0.411,-35.139,-5.299,-2.594,-0.668,-0.864,-31.384,-4.737,-1.174,-1.197,-0.334,-39.12,-8.385,-1.76,-0.955,-0.037],[-50.205,-8.467,-3.162,-1.514,-0.97,-52.814,-5.222,-3.836,-1.397,-1.101,-44.834,-8.367,-3.896,-1.661,-1.276,-55.158,-7.578,-2.333,-2.074,-1.085,-51.968,-10.44,-3.502,-1.165,-1.261,-47.136,-12.103,-3.834,-1.885,-1.608],[-68.631,-10.883,-4.41,-2.332,-1.847,-66.774,-12.478,-5.32,-3.103,-1.53,-66.121,-11.676,-4.747,-2.34,-2.581,-68.102,-12.615,-5.442,-3.043,-1.936,-66.537,-15.907,-5.374,-3.036,-2.07,-70.997,-14.142,-6.479,-4.34,-1.533]],
"ve": [[0.245,0.621,0.545,1.271,0.642,-0.409,0.416,0.254,0.6,1.651,-0.618,0.807,0.655,1.117,0.951,0.867,0.589,0.72,1.114,0.9,1.217,0.756,1.241,0.163,0.418,3.16,1.127,0.434,0.424,0.365],[-1.755,0.015,0.094,0.19,0.123,-0.631,0.334,-0.116,0.251,0.158,-1.15,-0.064,-0.157,0.18,0.234,-0.892,0.002,0.174,0.317,0.463,-0.325,0.371,0.449,0.465,0.411,-0.376,1.786,1.011,0.587,0.657],[-9.417,-0.579,-0.255,-0.204,0.068,-5.731,-0.878,-0.271,-0.076,0.051,-6.707,-1.563,-0.284,-0.073,0.045,-7.964,-0.886,-0.555,0.116,0.114,-5.738,-0.573,0.128,0.219,0.27,-6.776,-0.092,0.47,0.649,0.525],[-17.234,-1.201,-1.099,-0.385,-0.2,-17.322,-1.29,-0.917,-0.222,-0.125,-19.102,-2.229,-0.698,-0.452,-0.098,-19.009,-1.752,-0.976,-0.128,-0.105,-15,-1.506,0.059,-0.114,0.032,-18.116,-2.28,0.071,0.201,0.331],[-29.668,-3.733,-1.241,-0.447,-0.354,-30.197,-2.117,-1.528,-0.484,-0.339,-26.419,-3.335,-1.523,-0.633,-0.395,-31.677,-3.092,-0.467,-0.683,-0.284,-29.984,-3.746,-0.937,-0.165,-0.327,-23.254,-3.773,-0.722,-0.222,-0.175],[-45.654,-5.034,-1.824,-0.918,-0.665,-43.772,-5.33,-2.03,-1.196,-0.627,-42.261,-4.707,-1.744,-0.874,-0.868,-43.089,-5.041,-1.819,-0.999,-0.506,-40.086,-6.422,-1.548,-0.955,-0.598,-43.646,-5.358,-1.783,-1.051,-0.14]],
"kep": [[-1.955,-1.538,-1.683,-2.398,-0.749,-1.517,-1.527,-0.629,-0.693,-2.116,-1.141,-1.781,-1.613,-1.391,-0.759,-0.387,-0.646,-0.722,-1.259,-0.7,-0.364,-0.962,-1.23,1.012,0.102,-0.877,0.427,1.662,1.131,0.78],[-2.668,-1.663,-1.124,-0.935,-0.863,-4.422,-1.409,-1.679,-1.002,-0.888,-4.025,-1.787,-1.375,-0.956,-1.08,-4.702,-1.765,-1.429,-0.938,-1.121,-6.678,-2.065,-0.985,-0.606,-0.772,-8.707,-2.181,-1.022,-1.138,-0.646],[-13.768,-2.954,-2.108,-1.753,-1.174,-10.419,-3.465,-1.811,-1.592,-1.285,-9.486,-4.332,-1.748,-1.61,-1.335,-13.19,-3.128,-2.319,-1.166,-1.078,-12.313,-3.629,-1.837,-1.589,-1.088,-15.119,-4.351,-1.783,-1.039,-1.228],[-21.31,-3.532,-3.372,-1.95,-1.706,-20.71,-3.883,-2.924,-1.673,-1.433,-25.173,-4.811,-2.482,-1.916,-1.561,-24.774,-5.079,-2.895,-1.796,-2.005,-23.248,-4.738,-2.514,-2.333,-1.615,-29.546,-7.692,-3.09,-2.4,-1.617],[-35.526,-6.679,-3.261,-2.329,-1.867,-39.092,-4.816,-3.636,-2.183,-2.012,-30.875,-6.933,-3.688,-2.299,-2.128,-39.606,-6.376,-3.184,-2.659,-2.051,-37.371,-8.686,-3.878,-2.262,-2.182,-35.921,-10.314,-4.417,-2.915,-2.676],[-52.414,-8.14,-3.989,-2.707,-2.438,-49.78,-9.506,-4.696,-3.191,-2.159,-49.231,-9.593,-4.386,-2.742,-2.969,-51.2,-9.966,-5.021,-3.322,-2.686,-50.85,-11.99,-5.205,-3.359,-2.728,-55.1,-11.175,-6.147,-4.554,-2.641]],
"vp": [[15.941,4.15,36.167,50.191,-34.267,10.574,4.138,-1.623,-7.632,-5.702,7.14,-0.21,2.661,-1.609,-6.278,-0.518,-0.314,-0.2,-0.535,-0.638,-0.095,0.437,-0.21,-0.468,0.15,-0.304,-0.072,-0.123,-0.091,0.206],[196.553,-7.327,-39.428,-64.223,-29.738,11.658,-15.168,15.051,-14.455,-10.174,14.02,2.75,5.851,-3.353,-1.567,2.955,0.549,0.571,-1.005,-1.273,1.604,0.534,-0.406,-0.673,-0.331,1.396,-0.376,-0.425,0.19,-0.258],[999.244,115.835,84.094,86.018,-5.993,123.637,32.41,11.494,5.936,-0.422,65.604,31.528,5.475,3.618,0.453,17.543,4.108,4.359,-0.691,-0.326,6.85,2.203,0.582,0.253,-0.203,4.497,1.21,0.252,-0.244,-0.049],[1722.37,215.789,313.279,140.6,75.839,349.219,51.516,57.396,6.936,9.492,196.572,44.673,18.419,18.974,2.458,39.198,7.634,6.269,1.534,2.647,16.395,4.017,0.895,1.594,0.906,10.235,3.376,0.856,0.658,0.297],[3030.753,743.498,329.607,136.093,137.627,621.242,81.69,95.455,28.244,29.62,266.931,67.105,42.952,23.801,19.486,65.844,12.942,3.198,5.934,2.983,31.181,8.495,3.462,1.179,2.21,12.698,4.883,2.145,1.429,1.572],[4634.356,999.289,493.354,318.927,306.725,893.208,214.616,110.997,95.837,50.035,432.515,93.98,49.904,30.207,43.024,89.028,21.248,11.857,8.233,5.676,41.393,13.769,5.573,4.379,3.478,23.087,6.326,3.695,3.156,1.37]]
}