{
"KTrans": [[-40.209,9.856,0.851,3.281,9.097,-20.564,2.175,20.609,17.433,5.255,-20.024,14.297,23.031,16.689,16.612,18.898,40.404,18.25,24.298,29.803,104.442,44.998,59.131,32.91,42.808,128.035,130.769,104.589,93.411,96.47],[-78.64,-18.563,-2.586,5.607,8.184,-77.09,-8.286,-1.849,1.742,5.108,-79.786,-19.687,1.589,10.715,0.676,-65.485,0.243,13.634,9.399,5.124,-61.425,10.159,18.714,14.338,18.671,-52.391,31.673,50.58,29.393,35.451],[-89.618,-50.322,-16.394,1.845,4.422,-90.415,-55.772,-5.525,-4.792,1.057,-91.976,-46.741,-13.783,-3.593,0.129,-89.189,-41.831,-4.354,2.918,15.307,-69.412,-33.043,24.603,16.039,9.594,-67.616,20.237,23.264,50.667,37.566],[-93.504,-74.927,-35.311,-7.081,2.254,-95.949,-70.436,-30.675,-10.487,-3.621,-91.227,-69.909,-29.491,-4.587,5.731,-90.306,-58.138,-29.817,4.913,7.295,-85.702,-45.606,-12.182,14.344,15.822,-70.799,-43.746,21.645,32.803,25.023],[-95.585,-75.901,-55.773,-12.845,-5.804,-96.699,-76.395,-51.601,-17.743,0.878,-95.682,-74.552,-50.216,-15.909,-4.193,-93.135,-66.947,-32.388,-4.991,-1.049,-90.105,-66.314,-13.117,-1.746,10.978,-80.931,-52.151,-4.706,20.82,37.061],[-98.563,-88.637,-57.102,-32.519,-4.502,-96,-80.186,-60.881,-27.834,-10.425,-96.2,-81.66,-57.457,-23.532,-6.558,-95.77,-79.739,-50.783,-24.027,-11.298,-86.406,-67.222,-38.395,-16.793,14.266,-82.362,-51.207,-3.021,8.475,15.756]],
"ve": [[-56.663,30.476,-37.15,-58.241,-40.204,-261.807,-98.668,33.918,-1.494,-44.395,-73.189,2.074,-35.845,-338.606,1954.044,15.189,-4.225,-93.403,-51.355,-96.47,52.452,25.687,-18.727,-53.963,38.254,25.448,11.951,-148.142,-17.583,155.597],[-24.499,-17.734,43.58,5.514,5.141,-703.003,-11.755,11.036,5.497,13.418,-58.145,-1.27,10.768,0.675,11.156,-25.904,2.361,6.932,5.56,15.174,-55.1,5.166,6.938,56.45,19.479,-57.96,9.912,14.775,10.471,5.194],[-65.561,-11.253,-10.896,-1.805,-3.225,-48.669,-21.198,-3.569,-1.848,-2.313,-46.29,-23.224,-8.029,-5.013,-3.021,-8018.883,-23.881,-5.218,-0.139,1.59,-38.508,-135.682,3.528,0.044,-8.203,-58.248,12.022,-7.74,16.76,7.629],[-58.485,-50.509,-29.681,-6.53,-4.561,-59.792,-53.645,-14.232,-5.573,-3.903,-52.576,-46.679,-6.438,-4.682,-0.994,-63.936,-35.814,-19.092,-5.668,-1.442,-72.585,-80.858,-11.156,-1.55,4.05,-194.672,-45.793,1.08,4.922,-13.463],[-15.219,-37.557,-36.39,-8.525,-4.696,-13.532,-46.967,-31.594,-12.503,-4.152,-57.423,-54.71,-29.166,-11.06,-5.176,-52.309,-41.796,-21.32,-8.374,-4.954,-58.604,-46.716,-8.205,-12.743,-1.22,-30.361,-9.008,-0.537,10.557,4.412],[-105.275,-137.615,-36.27,-10.978,-8.954,-49.345,-52.62,-40.272,-17.98,-8.34,-60.096,-62.261,-41.785,-15.222,-11.22,-77.62,-61.982,-51.384,-15.321,-9.495,-27.294,-37.814,-23.204,-16.569,0.764,-19.807,-18.719,3.228,-7.193,-4.805]],
"kep": [[-76.079,-9.642,-16.245,-6.385,4.277,-41.348,-30.875,12.592,16.404,-20.565,-45.724,-9.239,15.898,5.405,14.702,-24.879,24.868,-9.039,9.987,31.879,10.423,16,42.9,1.89,24.873,44.746,68.494,75.558,81.641,79.513],[-85.356,-22.653,-2.766,3.529,5.555,-83.085,-18.226,-6.283,0.651,3.126,-87.439,-23.812,-4.227,10.665,-0.573,-73.553,-14.239,7.1,6.046,2.913,-64.271,-13.811,1.07,8.738,9.024,-40.575,1.881,15.763,-0.558,12.566],[-93.688,-46.514,-14.191,0.9,7.669,-93.769,-49.425,-5.694,-3.052,2.997,-92.031,-47.921,-7.901,1.166,2.356,-91.318,-45.014,-6.553,1.685,11.853,-73.67,-40.309,12.632,9.951,2.497,-65.444,-15.706,8.208,19.417,17.782],[-94.041,-69.053,-27.515,-4.551,5.365,-95.924,-65.462,-27.536,-6.465,-1.586,-92.924,-66.289,-22.27,-3.398,6.026,-91.404,-57.846,-24.213,8.159,6.18,-86.251,-47.742,-19.058,7.668,8.325,-77.337,-44.152,-2.367,11.826,25.12],[-97.364,-72.513,-49.023,-9.237,-3.273,-96.754,-71.245,-43.809,-9.45,3.094,-95.862,-70.173,-39.187,-8.91,-1.297,-91.212,-65.011,-26.28,-1.262,2.207,-90.519,-65.005,-19.408,-0.354,9.504,-81.66,-60.3,-26.518,-2.726,14.458],[-98.359,-84.651,-46.406,-19.512,1.437,-97.077,-75.564,-49.702,-19.101,-6.012,-95.622,-79.211,-49.643,-14.824,2.454,-95.352,-79.176,-44.079,-17.229,-4.73,-89.627,-68.026,-36.591,-16.968,8.755,-85.512,-58.898,-24.766,-5.106,7.888]],
"vp": [[2006.476,487.135,326.579,628.613,308.921,333.696,216.497,-68.611,33.258,6.112,75.241,26.571,-31.434,-4.641,-53.149,3.081,-25.032,-12.621,-35.022,-20.853,-36.663,-22.988,-28.28,-8.004,-34.904,-13.095,-27.949,-26.203,-24.56,-33.225],[5362.93,2557.45,1284.405,969.508,3.702,1077.952,401.633,228.13,178.01,71.084,560.247,274.805,44.468,-57.434,77.772,85.452,26.427,-23.123,-7.577,17.675,40.821,-9.725,-11.862,-10.029,-23.279,29.541,-10.785,-19.211,-5.92,-19.02],[6901.384,6066.561,3815.665,1684.247,1199.814,1344.456,1418.353,460.626,242.044,386.848,737.61,564.194,339.484,276.917,165.788,118.813,108.078,41.86,20.82,-27.735,49.166,60.965,-9.861,2.828,-2.519,28.774,-13.271,8.416,-33.516,-26.419],[6818.557,10247.653,6324.355,3095.341,2441.054,1617.12,2022.939,1283.467,558.279,470.878,633.207,994.521,630.033,261.491,72.65,138.928,159.625,124.955,51.015,0.456,59.746,62.025,39.458,6.214,-17.733,12.462,34.153,-2.3,-13.804,4.779],[7698.043,11592.105,11799.107,4040.709,2686.163,1662.046,2149.481,2095.334,1181.097,403.181,720.354,1127.725,1049.956,448.527,296.207,132.15,167.126,145.38,49.698,36.054,54.013,93.166,17.589,51.825,8.116,18.442,21.078,-4.896,-16.606,-3.763],[8642.972,13445.524,12170.351,10016.054,3960.88,1584.822,2221.934,2442.604,1554.573,932.965,740.716,1246.258,1283.924,659.983,543.666,137.753,243.509,187.786,136.419,117.022,40.126,81.3,71.888,79.675,-15.449,12.927,17.951,-8.904,19.717,10.626]]
}