{
"KTrans": [[8.633,2.06,2.702,4.1,2.628,11.142,8.763,6.119,5.614,3.635,36.354,17.039,16.279,13.328,13.088,173.674,100.825,81.42,67.199,63.107,159.95,185.752,176.47,147.375,141.741,-47.333,254.579,159.904,254.823,212.599],[-3.277,2.93,3.791,3.089,3.031,0.369,8.294,4.189,3.916,3.95,5.582,12.809,9.245,8.234,6.937,-8.755,78.057,47.924,38.546,32.24,64.77,147.584,115.776,84.68,71.288,74.319,78.557,150.166,183.462,157.93],[-34.036,2.529,5.586,2.687,2.723,-26.746,10.656,6.137,4.751,3.744,-14.922,14.314,13.044,9.207,6.864,-24.272,70.461,43.615,33.898,29.776,-45.052,85.177,105.933,70.681,65.06,46.355,45.314,68.488,167.713,127.185],[-57.606,3.76,5.608,3.563,4.019,-50.354,4.597,5.509,7.349,5.436,-53.462,18.126,12.034,10.509,6.581,-48.632,72.995,50.034,36.241,27.164,-44.186,-14.457,117.905,75.65,55.228,-40.545,-18.956,63.855,164.971,142.535],[-71.194,-1.275,5.65,6.184,3.264,-72.223,6.991,12.505,3.376,5.786,-72.14,15.657,12.601,9.77,8.147,-50.699,43.561,45.538,38.016,28.247,-74.357,-9.789,141.918,85.139,52.529,-85.253,-10.024,23.265,96.418,146.633],[-82.358,3.277,5.586,7.347,5.029,-75.553,-1.928,7.998,9.769,5.057,-77.806,3.066,14.021,10.77,10.1,-89.544,13.952,67.212,39.711,29.993,-78.166,-18.088,51.67,95.552,67.246,-53.267,-72.1,-62.572,34.357,168.078]],
"ve": [[5.134,3.879,4.801,2.411,4.808,5.278,3.363,2.497,2.601,7.498,10.982,2.956,0.479,-3.448,-5.996,45.626,14.538,-2.059,-10.101,-17.421,97.644,36.866,10.129,-5.642,-16.465,193.216,95.736,31.286,11.688,-14.775],[2.73,1.198,-0.414,-0.051,-0.353,5.999,2.719,1.449,0.588,0.147,9.335,4.585,2.721,1.567,1.416,47.176,23.681,14.096,9.418,5.153,98.326,49.651,30.158,19.503,12.005,238.916,97.407,61.553,44.313,30.708],[6.991,1.393,0.481,0.33,-0.789,10.095,2.478,1.437,0.629,0.665,13.437,5.875,2.971,2.092,1.527,48.327,24.118,16.507,11.118,8.003,102.634,49.318,31.777,22.233,17.104,200.256,97.726,64.451,49.11,35.254],[3.089,0.583,0.922,-0.013,-0.158,7.617,2.964,1.073,0.633,0.392,10.56,5.24,3.29,1.676,1.458,54.137,24.452,16.781,11.399,8.832,102.013,47.935,32.833,23.54,18.282,201.72,102.786,66.802,48.921,38.34],[-23.655,1.238,0.572,0.257,0.029,10.416,3.514,2.139,0.723,0.791,14.698,4.745,3.629,2.613,1.769,43.739,27.262,15.915,12.145,9.425,99.102,49.199,34.958,24.54,18.499,203.598,96.78,65.725,48.938,38.662],[0.823,0.637,1.075,-0.263,-0.514,-14.329,3.263,0.952,1.34,0.8,-3.531,6.011,3.451,2.135,2.198,53.076,26.605,16.569,12.186,9.712,102.641,48.589,33.281,24.434,19.411,205.4,101.237,67.149,50.636,39.977]],
"kep": [[5.5,1.214,3.798,7.246,4.221,7.794,7.571,7.945,7.861,4.057,25.398,15.312,19.855,21.021,26.726,87.495,76.36,87.067,88.358,101.093,37.507,110.111,152.708,163.633,191.521,-53.84,102.568,84.165,207.977,204.709],[-5.267,2.06,4.493,3.367,3.665,-4.749,5.71,2.942,3.53,4.095,-3.164,8.121,6.553,6.731,5.677,-34.287,43.499,29.622,26.79,25.903,-13.182,63.623,64.889,54.178,52.851,-32.817,-0.805,52.845,95.346,95.922],[-37.433,1.253,5.178,2.473,3.662,-31.639,8.376,4.687,4.185,3.142,-24.942,8.078,9.95,7.02,5.336,-48.394,36.111,23.129,20.524,20.201,-68.113,23.163,54.659,39.136,40.637,-44.926,-18.562,6.112,76.852,66.566],[-60.728,3.156,4.676,3.649,4.244,-54.941,1.402,4.51,6.744,5.087,-59.809,11.995,8.615,8.773,5.104,-65.113,37.417,28.031,22.17,16.794,-68.505,-39.083,61.087,41.302,30.875,-75.309,-52.098,1.195,75.141,73.088],[-72.442,-2.511,5.017,5.972,3.273,-75.674,3.146,10.261,2.629,4.98,-75.58,10.29,8.669,6.992,6.304,-66.214,12.966,25.184,22.839,17.105,-83.363,-35.938,76.064,47.366,28.345,-91.375,-49.429,-19.528,31.149,74.359],[-83.236,2.305,4.407,7.598,5.632,-77.349,-5.528,6.792,8.285,4.255,-79.499,-3.246,10.107,8.412,7.72,-90.507,-8.943,41.902,24.134,18.355,-86.286,-42.511,13.883,54.954,39.105,-81.06,-79.921,-70.086,-7.661,86.847]],
"vp": [[213.292,61.566,-20.816,107.946,128.315,46.107,5.769,96.461,37.627,27.04,30.504,41.852,39.677,10.663,9.248,-5.84,5.35,15.453,7.906,0.66,0.598,-14.928,9.157,-5.557,10.09,14.754,-14.946,-1.77,-11,12.631],[3788.319,431.939,-174.8,142.087,523.386,718.848,163.567,8.378,-37.562,17.276,411.094,51.062,25.418,20.232,37.293,86.355,10.507,-5.028,8.236,-0.893,17.071,12.184,21.536,8.933,15.599,16.132,15.145,6.819,12.563,10.672],[6782.374,1419.129,506.552,272.854,209.256,1419.929,338.622,95.715,-14.663,60.243,695.768,173.899,82.726,15.004,56.024,109.16,36.634,1.173,4.6,26.603,66.784,1.081,-1.726,-0.768,28.95,44.381,-3.35,-5.726,9.511,-5.615],[9147.899,4625.924,991.346,176.408,183.086,1758.577,949.659,164.918,45.956,176.036,838.753,476.371,69.67,78.247,-22.139,168.094,109.14,64.939,14.183,13.577,91.478,53.16,22.461,11.892,3.357,53.833,48.809,22.988,4.642,18.82],[10093.927,8408.349,1973.138,-428.381,-486.942,1931.549,2056.562,409.386,118.84,66.254,969.288,1070.65,181.087,82.778,13.07,174.85,157.472,34.956,33.968,13.448,112.179,80.403,76.291,27.36,-5.116,52.338,37.482,14.761,-3.997,8.583],[10340.674,13359.388,3314.727,-122.717,51.34,1911.343,2736.969,395.672,70.719,28.332,979.452,1304.157,411.919,41.05,74.323,246.042,212.237,154.226,19.998,34.991,129.432,101.109,41.773,35.886,37.334,87.179,73.16,60.193,59.048,27.161]]
}