{
"KTrans": [[5.213,11.48,8.882,7.497,4.718,23.332,20.941,14.199,11.287,9.741,14.525,27.257,16.869,22.197,15.396,1.369,58.214,81.686,72.829,62.48,94.701,64.491,64.925,109.26,74.469,341.739,221.93,20.409,-14.854,143.105],[-38.471,10.129,9.749,8.154,6.684,-33.709,12.833,13.545,7.993,9.983,-33.467,22.706,17.783,16.624,11.72,-21.686,76.24,54.171,45.654,41.073,17.441,41.827,104.696,78.4,75.921,142.881,56.99,102.662,94.79,62.842],[-62.69,16.951,10.849,9.15,7.547,-66.866,18.392,13.845,12.085,6.546,-64.428,22.456,15.53,13.487,12.146,-36.741,25.345,62.69,46.718,32.455,-29.592,45.195,51.29,81.44,56.413,49.618,90.656,97.415,-17.493,17.027],[-80.687,2.081,18.268,8.514,9.515,-83.574,-0.416,25.797,14.692,12.436,-76.545,5.164,23.371,18.849,13.431,-58.331,9.984,60.444,59.184,34.936,-53.595,14.964,21.256,63.451,85.787,-4.206,43.852,59.589,33.385,31.263],[-89.076,-17.128,15.338,13.075,7.851,-89.644,-11.656,18.96,14.465,15.492,-85.826,-13.439,24.92,21.532,13.698,-86.054,-4.91,24.363,47.378,42.142,-53.263,-2.192,8.918,30.401,82.871,-14.354,10.629,63.83,60.071,62.628],[-95.425,-34.688,21.924,18.544,13.646,-89.912,-40.59,24.13,24.67,16.667,-89.541,-26.251,31.828,22.583,15.837,-88.681,-39.437,-4.52,47.112,57.747,-71.886,-15.419,16.413,-0.104,82.34,-46.356,-0.47,18.321,3.036,1.227]],
"ve": [[-11.822,22.436,17.923,-10.144,140.938,22.216,13.311,6.802,-2.37,8.417,13.789,17.877,116.693,26.977,457.716,51.589,22.209,10.433,0.934,-17.709,95.088,32.743,6.628,-11.368,-9.486,194.751,77.983,34.638,43.327,-7.147],[-0.492,2.359,-1.438,-0.882,-1.423,-2.585,3.653,1.014,0.678,-0.866,13.682,5.988,3.084,0.074,0.3,56.615,24.614,12.398,8.544,4.141,112.389,49.991,29.667,19.755,12.925,197.459,97.735,64.012,39.662,28.9],[11.376,1.069,-1.323,-0.508,-0.76,9.365,3.184,1.684,-0.089,0.349,14.928,7.395,2.39,1.442,-0.105,79.518,25.679,16.391,10.767,7.962,104.26,50.049,23.911,35.046,16.428,199.601,98.379,62.994,44.113,35.84],[15.74,2.894,-0.097,-0.301,-0.531,11.795,4.063,2.375,-0.333,0.438,16.86,6.998,1.752,2.403,-0,54.675,26.097,16.29,11.346,7.76,101.728,48.796,33.859,23.399,18.578,211.076,96.368,62.822,47.93,36.549],[8.744,2.462,1.326,0.261,-0.472,-14.976,5.365,1.783,0.53,0.012,9.299,8.13,2.885,2.816,1.192,51.898,22.971,17.265,11.653,8.538,107.44,51.691,31.981,24.899,18.917,263.372,108.755,63.727,48.036,37.367],[54.098,0.724,0.575,0.326,-0.4,23.455,2.384,0.962,0.921,0.854,14.187,4.238,4.216,2.017,1.533,56.076,26.656,15.972,11.362,9.572,107.811,50.121,32.285,24.345,18.842,197.472,99.32,65.614,47.214,37.513]],
"kep": [[-0.434,12.529,10.594,10.122,12.216,12.578,23.753,15.485,17.919,19.453,2.704,29.691,16.447,34.651,24.669,-25.3,35.624,81.788,94.917,95.516,17.207,27.692,48.911,123.67,96.805,67.857,102.143,29.702,-1.99,178.678],[-44.67,9.349,12.319,10.144,9.553,-41.786,10.066,13.414,8.329,12.233,-43.724,17.628,15.517,17.804,12.357,-44.02,40.543,37.702,34.66,36.077,-36.341,3.314,57.679,46.622,56.539,-8.658,-5.73,34.804,43.243,27.149],[-68.678,15.924,12.792,10.32,8.737,-72.499,15.49,12.076,12.579,6.514,-72.158,15.292,13.865,12.337,12.535,-57.062,1.987,39.257,32.477,22.98,-60.7,1.605,17.475,45.123,34.435,-44.301,3.495,23.609,-30.329,-10.32],[-83.627,-0.34,19.221,9.195,10.362,-87.179,-4.167,23.162,15.312,12.241,-81.357,-2.113,21.707,16.322,13.658,-72.639,-12.109,37.165,42.013,25.252,-74.473,-16.25,-5.318,30.562,54.715,-62.418,-19.505,4.526,0.814,1.844],[-91.438,-19.541,14.093,12.929,8.516,-91.3,-16.247,16.848,13.905,15.628,-88.172,-20.796,21.095,18.523,12.683,-89.327,-23.077,7.092,31.552,30.478,-73.856,-31.813,-13.953,5.403,51.492,-67.694,-37.669,4.851,13.245,21.743],[-96.034,-39.191,20.408,17.828,14.281,-90.901,-44.068,19.542,23.367,15.791,-90.692,-32.7,25.367,20.169,14.057,-91.547,-49.175,-16.03,30.341,43.439,-84.15,-41.306,-9.874,-14.591,50.741,-78.706,-44.637,-21.722,-24.599,-19.709]],
"vp": [[364.443,-681.304,156.258,288.972,207.243,191.161,86.618,59.451,-53.434,22.568,94.952,13.733,-6.07,24.302,24.88,4.3,-32.407,-0.14,-15.351,-14.061,-23.271,-17.919,-23.962,-38.432,-31.879,-42.864,-36.294,-30.011,-25.081,-41.853],[4571.896,1640.984,929.892,635.377,290.158,837.003,320.463,160.004,267.594,199.778,476.813,123.097,75.135,-18.964,111.849,53.199,-13.198,-12.277,-5.483,-7.94,14.147,-11.343,-19.269,-4.199,-15.282,-15.17,-29.575,-33.253,-39.07,-23.622],[6185.85,3621.155,1329.998,1263.028,1400.424,1239.712,890.563,350.822,283.204,171.989,585.693,386.425,102.782,134.57,68.685,79.126,57.838,-10.57,-6.667,-9.845,35.803,-4.895,-10.245,-0.015,-33.454,-8.248,-36.63,-41.918,-11.573,-4.398],[7126.502,6588.159,4377.281,2019.095,2291.296,1358.914,1378.975,702.669,319.19,453.621,625.019,752.997,212.225,276.195,181.533,85.656,67.934,57.841,30.006,-8.133,29.386,5.169,24.517,-3.442,9.624,25.162,-9.231,-22.49,-15.299,-19.546],[7268.021,8698.229,5638.32,3744.853,2910.005,1438.49,1895.081,1277.735,433.036,456.04,656.442,860.191,481.665,267.562,251.685,131.24,129.536,91.942,11.018,34.471,51.406,50.364,22.879,36.268,15.067,-22.727,29.842,-19.151,-20.836,-35.219],[7549.123,10569.339,7919.878,4295.145,4379.262,1440.174,1956.54,1683.996,887.803,680.491,683.004,1194.783,915.337,483.717,301.042,121.821,201.792,115.359,51.908,64.758,49.961,62.125,36.346,39.314,19.382,-24.551,-3.305,-20.378,15.436,-25.749]]
}