{
"KTrans": [[2.543,1.306,1.015,0.771,0.577,12.07,7.378,6.007,5.316,4.829,26.436,15.93,12.782,11.081,10.233,155.475,94.91,71.098,65.661,61.037,359.806,230.99,182.559,152.529,138.08,-114.043,392.659,400.199,344.351,336.878],[3.238,1.253,0.828,0.543,0.39,11.007,6.588,4.065,3.291,2.698,22.419,12.216,8.077,6.718,5.745,204.567,68.36,43.866,35.132,31.579,-75.413,172.157,95.837,77.915,61.493,-81.231,284.942,260.522,194.333,153.105],[2.759,1.846,1.033,0.663,0.51,10.266,6.678,4.273,3.02,2.432,30.118,12.174,7.57,5.972,4.908,45.057,65.257,42.194,34.009,26.624,-67.648,180.982,93.867,73.828,56.922,19.98,-164.207,225.971,151.912,126.635],[4.852,2.061,1.111,0.805,0.55,22.947,5.815,4.533,3.29,2.217,36.548,10.4,8.458,5.841,4.814,-36.079,76.107,40.96,31.989,24.221,-60.183,211.859,92,65.079,52.78,-17.778,20.715,367.049,167.937,122.446],[12.552,2.69,1.92,1.093,0.861,26.48,6.65,3.875,3.138,2.503,41.655,12.628,8.132,6.462,4.947,-60.532,77.99,42.675,32.013,22.875,-78.219,193.95,102.438,68.224,48.765,-116.869,-12.922,493.82,184.255,110.961],[2.189,3,2.542,0.411,1.047,9.908,8.993,6.2,3.141,3.094,8.838,12.969,9.002,6.647,5.406,-65.502,95.205,41.53,30.574,23.33,-63.837,17.247,107.591,74.964,53.605,-111.357,-68.524,125.846,150.651,110.694]],
"ve": [[0.834,-0.076,-0.67,-1.155,-1.575,4.177,0.44,-1.65,-3.366,-4.783,8.515,1.281,-2.61,-5.453,-8.028,45.482,13.661,-1.258,-11.205,-18.634,102.296,35.36,9.361,-6.834,-17.893,192.787,80.319,40.831,12.832,-2.485],[1.133,0.518,0.276,0.104,-0.032,5.022,2.442,1.383,0.789,0.352,9.909,4.773,2.768,1.653,0.833,50.493,23.931,14.36,9.271,5.603,101.673,48.887,29.566,19.672,12.62,202.182,99.538,63.028,43.22,29.57],[1.064,0.628,0.398,0.26,0.166,4.927,2.622,1.679,1.158,0.83,10.399,5.067,3.219,2.282,1.661,49.082,24.632,16.081,11.573,8.57,100.607,49.631,32.319,23.542,17.64,213.223,98.696,64.825,46.672,36.07],[1.28,0.637,0.42,0.32,0.227,5.57,2.567,1.776,1.301,0.954,10.609,5.006,3.424,2.459,1.9,64.743,25.199,16.427,12.223,9.355,99.167,50.329,32.945,24.093,18.901,199.511,100.914,67.317,49.351,38.394],[1.535,0.664,0.515,0.362,0.292,5.657,2.619,1.73,1.321,1.041,10.545,5.156,3.44,2.584,2.017,65.141,25.178,16.629,12.467,9.611,101.947,50.769,33.325,24.84,19.283,199.436,101.504,67.345,49.473,39.083],[1.486,0.63,0.565,0.28,0.319,5.793,2.756,1.962,1.34,1.139,10.213,5.121,3.509,2.637,2.102,49.076,25.546,16.666,12.479,9.828,101.797,49.622,33.125,25.238,19.817,201.094,103.716,67.137,49.358,38.867]],
"kep": [[2.824,2.51,2.827,3.084,3.326,8.768,8.098,8.986,10.201,11.324,17.788,15.747,17.109,18.81,21.209,76.409,73.284,75.272,88.8,100.362,132.743,146.21,160.97,174.209,193.416,-85.788,167.813,262.704,300.049,356.197],[3.188,1.849,1.668,1.554,1.537,6.822,5.2,3.785,3.622,3.475,12.475,8.28,6.332,6.148,6.037,100.617,37.015,27.118,25.016,25.989,-79.278,83.129,52.422,50.158,44.952,-83.588,92.961,121.238,106.835,96.962],[2.644,2.323,1.749,1.518,1.458,6.025,5.087,3.686,2.972,2.717,18.751,7.915,5.366,4.757,4.341,-2.924,33.444,23.71,21.377,17.895,-78.628,86.553,47.391,41.959,34.724,-54.905,-119.076,96.593,72.429,67.686],[4.26,2.498,1.798,1.598,1.437,17.091,4.259,3.838,3.093,2.375,23.933,6.228,6.014,4.443,4,-55.053,41.165,22.152,18.823,14.811,-76.487,104.998,45.03,34.043,29.73,-68.234,-34.444,174.402,79.533,61.57],[11.118,3.028,2.499,1.84,1.682,19.804,4.928,3.215,2.915,2.571,27.912,8.144,5.663,4.92,4.01,-72.289,42.362,23.313,18.556,13.287,-86.521,91.88,52.051,35.727,25.873,-102.042,-52.895,244.582,88.952,52.269],[0.713,3.264,3.038,1.225,1.838,3.885,7.012,5.251,2.887,3.057,-1.348,8.356,6.4,5.035,4.371,-75.188,55.192,22.227,17.204,13.466,-79.315,-20.076,55.527,40.518,29.259,-100.742,-79.176,34.899,67.17,52.156]],
"vp": [[-0.85,-18.861,-16.084,-28.458,-20.937,-28.043,-12.829,-7.761,1.602,-8.649,-21.566,-1.025,1.494,-5.285,-4.627,-27.35,1.078,-19.763,-2.129,4.568,-12.442,10.907,12.482,-2.174,-8.177,-12.948,6.05,0.44,-12.065,8.484],[164.781,31.676,-7.947,-18.04,-18.547,11.365,21.2,-17.832,3.838,-5.224,5.434,9.662,-26.608,1.922,5.392,5.137,-5.516,-27.116,-3.839,7.705,-9.748,-4.091,-33.603,-2.397,-23.405,-9.103,-21.934,-2.967,16.062,0.373],[316.992,155.22,44.446,16.196,3.047,64.561,37.032,10.197,7.628,-13.266,9.954,14.716,-8.989,-8.286,-20.843,-13.768,-13.769,-2.842,5.744,-5.71,-0.947,-10.726,-8.104,1.787,-3.833,-24.561,-26.125,-21.525,-25.689,-12.202],[385.376,352.263,201.959,60.053,59.132,101.428,78.515,40.273,2.535,-7.651,20.508,4.622,25.285,8.097,6.477,24.041,3.081,-2.354,9.995,-5.168,10.216,-4.669,-4.571,-12.707,-4.331,-8.05,-18.685,-0.308,-4.404,-9.898],[937.829,558.2,301.615,207.111,119.518,191.003,87.833,67.514,31.326,19.508,170.199,61.374,37.833,33.241,7.89,69.366,-4.759,-8.181,4.372,-14.146,35.125,-16.228,0.451,3.913,-11.335,16.831,-2.494,-13.093,-10.45,-6.418],[2395.225,776.331,378.444,361.269,248.326,575.167,176.611,62.859,62.439,23.626,265.034,71.815,57.7,34.947,26.636,52.075,8.493,-10.099,-10.602,-14.38,21.362,-16.808,-11.95,6.555,0.819,11.055,-0.299,-18.424,-13.552,-27.071]]
}