{
"KTrans": [[5.305,3.6,4.385,4.789,6.243,3.423,4.963,5.612,4.068,4.723,9.047,1.692,7.683,4.121,5.097,18.151,15.276,11.3,13.561,9.321,18.619,22.207,29.334,15.088,22.938,-53.115,87.355,67.895,54.582,57.118],[-21.073,-0.803,-1.243,2.358,2.89,-20.277,-3.697,-0.765,2.566,2.297,-24.36,-4.912,0.369,3.991,2.812,-1.477,-3.526,9.382,4.906,5.693,19.064,17.757,7.632,9.226,9.683,-27.042,-63.265,42.604,26.55,36.339],[-59.041,-13.567,-5.35,-2.628,0.712,-52.857,-17.265,-3.965,-3.435,0.172,-56.859,-12.933,-7.034,-1.488,-0.227,-41.467,-3.088,-0.045,0.39,2.989,-46.664,2.162,0.414,6.854,4.156,-58.841,-12.663,15.475,18.067,8.671],[-78.335,-25.626,-12.96,-4.438,-2.039,-77.082,-23.889,-12.166,-6.216,-2.574,-72.917,-23.512,-12.188,-5.522,-2.928,-65.497,-20.155,-4.174,-5.307,0.426,-55.072,-32.975,-10.19,0.585,5.206,-39.684,-20.542,-19.265,15.363,11.226],[-86.763,-36.693,-16.079,-10.656,-7.963,-87.286,-38.541,-20.984,-11.602,-6.753,-83.219,-34.876,-20.704,-11.999,-7.761,-80.587,-24.848,-20.187,-10.025,-5.684,-85.63,-40.201,-5.413,-7.504,-8.347,-83.14,-27.102,-21.458,7.39,3.366],[-90.587,-53.393,-22.259,-17.683,-10.864,-89.286,-46.738,-21.775,-15.149,-12.285,-88.991,-55.303,-24.569,-15.364,-11.539,-88.781,-46.713,-20.956,-13.969,-10.098,-89.977,-44.152,-17.821,-12.178,-8.042,-82.73,-58.166,-26.56,-4.485,1.356]],
"ve": [[4.132,4.14,5.719,5.241,5.754,3.646,3.082,5.089,10.737,16.818,3.41,4.533,6.853,15.315,10.143,3.885,-26.454,-36.33,14.225,-93.913,31.003,-9.031,-2.107,-32.978,-11.814,60.741,20.884,81.4,-46.753,-36.893],[-7.593,-0.385,-0.049,0.997,1.026,-10.715,-1.302,0.136,0.818,1.48,-11.71,-0.925,0.298,1.185,1.591,12.049,-2.577,4.764,2.932,3.125,7.712,10.409,16.68,10.937,10.256,28.096,1.837,18.084,1.073,20.698],[-27.019,-5.86,-2.187,-0.607,0.223,-26.714,-7.68,-1.153,-0.962,0.344,-28.485,-4.605,-2.599,-0.678,-0.092,-7.54,3.55,1.928,0.701,1.215,0.121,13.479,1.807,4.114,1.818,-6.991,17.438,10.311,8.294,-28.29],[-46.562,-10.698,-5.019,-1.518,-1.049,-47.744,-9.962,-4.852,-2.075,-0.828,-41.141,-8.244,-5.058,-2.22,-1.072,-32.03,-4.761,1.683,-0.532,0.71,-13.562,-12.196,-2.578,3.5,3.969,37.907,15.466,12.639,11.271,25.906],[-49.056,-16.576,-6.661,-3.193,-2.744,-55.726,-19.171,-8.156,-4.188,-2.373,-52.032,-17.511,-8.424,-4.388,-2.884,-27.923,-16.468,-7.09,-4.134,-1.358,-38.524,-18.823,4.166,-1.961,-2.971,1.591,14.281,7.889,10.394,5.119],[-50.473,-33.69,-9.508,-6.146,-4.004,-33.254,-26.109,-8.077,-6.483,-4.248,-58.079,-31.558,-9.794,-6.114,-4.488,-46.565,-21,-9.886,-3.303,-2.785,-49.758,-7.785,-6.851,-1.892,-1.317,-18.575,-14.873,8.261,6.608,2.852]],
"kep": [[-6.878,-6.515,-5.981,-4.459,-3.018,-7.818,-4.65,-4.606,-8.628,-8.071,-3.425,-8.92,-3.269,-9.077,-6.223,-15.187,-4.106,-6.582,-1.976,-10.098,-1.264,-31.384,-11.167,-30.623,-7.076,36.026,-0.621,-31.532,-30.735,-24.017],[-24.008,-8.192,-8.583,-6.147,-5.681,-21.482,-10.171,-8.353,-5.83,-6.627,-27.066,-11.384,-7.437,-4.87,-6.252,-32.322,-13.469,-4.307,-6.303,-5.399,-23.907,-14.465,-12.373,-8.119,-6.231,-32.876,16.736,-11.787,-10.737,4.226],[-52.416,-16.095,-10.653,-9.372,-7.014,-52.541,-18.062,-10.257,-9.822,-7.639,-53.133,-16.892,-11.876,-8.298,-7.618,-53.363,-17.832,-10.441,-8.68,-6.552,-59.566,-23.53,-15.825,-8.066,-7.758,-55.186,-24.859,-19.775,-13.901,-15.489],[-73.376,-25.067,-15.564,-10.281,-8.424,-73.44,-24.394,-14.98,-11.527,-9.143,-68.519,-24.673,-15.002,-10.716,-9.288,-68.155,-28.178,-14.07,-13.112,-8.27,-67.937,-40.516,-23.401,-13.531,-8.198,-65.671,-43.277,-29.41,-18.053,-12.832],[-84.222,-32.159,-17.513,-14.739,-12.498,-84.679,-32.181,-21.114,-14.81,-11.703,-79.542,-30.222,-20.547,-15.207,-12.236,-79.963,-35.962,-22.864,-14.142,-12.253,-77.849,-47.582,-22.124,-16.605,-15.319,-78.824,-48.678,-38.7,-21.634,-19.194],[-88.063,-43.472,-21.595,-19.129,-14.197,-85.842,-39.205,-22.454,-16.465,-15.414,-86.849,-49.486,-24.161,-16.995,-14.412,-81.114,-52.612,-22.458,-18.952,-14.893,-80.916,-55.193,-33.581,-21.497,-15.401,-78.04,-57.75,-38.81,-26.029,-20.649]],
"vp": [[-169.195,-118.862,-167.456,-125.823,-181.886,-24.22,-21.122,-34.82,-32.131,-40.731,-13.906,-4.563,-31.85,-14.163,-15.096,-8.872,-11.114,-4.08,-12.649,-5.524,-29.996,2.831,-9.087,6.04,-7.559,-31.167,-27.4,-23.241,-13.475,-15.727],[902.177,47.645,109.255,-187.541,-154.444,242.77,64.247,18.82,-30.698,-36.215,135.961,38.056,-2.264,-43.529,-30.963,-20.635,26.347,-28.12,-11.688,-10.863,-33.359,-16.493,0.958,-5.234,-5.898,-9.566,4.343,-27.587,-12.175,-32.79],[3418.263,1196.67,643.07,349.654,-10.168,600.752,322.566,55.061,89.343,-30.112,349.454,102.989,101.352,30.666,16.308,21.9,-12.456,-10.165,-0.467,-3.341,6.793,-24.795,5.157,-11.069,2.548,12.231,-14.108,-9.971,-14.528,6.15],[5112.69,2235.682,1342.125,477.27,300.982,1043.647,432.809,265.679,156.887,66.103,449.282,177.53,163.737,79.929,51.426,76.654,22.553,-12.255,10.349,-5.499,21.211,37.186,17.103,-9.372,-16.899,-15.92,-10.824,-14.906,-22.084,-13.773],[6152.91,3544.998,1868.108,1011.602,1355.917,1312.052,833.524,501.827,328.77,219.605,529.813,369.415,260.842,188.61,138.232,67.55,81.394,52.125,38.685,16.197,51.685,35.617,-8.752,15.266,25.235,6.277,-12.274,-6.224,-17.279,-7.064],[6929.666,6956.594,2905.732,2533.212,1818.961,1356.57,1129.818,500.763,527.977,447.514,679.293,681.703,294.139,251.359,221.422,111.765,97.074,70.467,29.027,32.053,63.351,26.851,29.373,11.752,11.177,17.273,23.141,-7.746,-5.675,-9.781]]
}