{
"KTrans": [[0.351,2.676,1.61,1.846,1.284,7.422,13.048,11.64,11.432,11.164,20.476,25.576,24.06,22.72,22.424,50.765,60.115,84.083,88.497,91.97,71.607,4.457,85.742,122.328,129.619,195.188,31.07,82.975,-77.516,85.375],[5.071,1.598,0.234,0.935,0.883,13.773,7.287,0.81,4.919,4.903,25.671,16.972,4.916,9.276,8.914,-114.667,-15.564,-4.089,26.076,36.37,25.378,46.952,29.254,-0.717,48.121,30.77,-61.861,24.945,-31.237,30.862],[0.064,2.227,1.325,0.97,0.059,9.885,7.265,5.122,4.1,0.786,13.834,15.512,11.156,9.338,6.042,-5.425,83.683,30,6.057,6.823,3.658,-37.592,-99.062,-68.827,2.433,13.561,-81.876,-26.912,70.054,83.743],[3.921,2.883,0.85,1.501,0.85,16.076,5.43,6.14,4.737,2.815,15.232,14.845,10.723,7.749,5.654,7.823,38.777,40.83,36.957,24.816,-51.963,39.116,4.737,53.519,12.329,16.771,-52.713,-69.902,-113.245,-3.24],[5.821,-1.127,2.038,0.369,0.913,-16.354,3.258,3.602,3.052,3.378,-28.167,12.959,5.923,8.66,5.899,-43.685,55.891,39.769,33.256,33.54,-32.164,-61.157,48.37,36.808,37.865,-59.505,1.223,-66.993,6.572,20.443],[-47.779,5.593,2.861,0.806,1.139,-65.52,3.027,2.732,4.172,3.286,-51.03,10.255,3.87,8.565,5.699,-39.373,-23.411,44.143,29.274,32.388,-48.28,-13.444,21.974,39.827,44.511,-50.39,3.369,55.117,-53.577,-159.918]],
"ve": [[0.991,1.013,0.674,0.848,0.658,4.795,7.192,7.218,9.824,12.38,9.468,3.632,39.565,34.051,52.847,47.703,-12.471,-293.895,190.655,-202.97,98.306,30.206,-10.549,-35.624,-51.74,195.769,81.46,31.313,3.835,-16.027],[1.307,0.602,0.322,0.318,0.265,5.145,2.66,1.624,2.121,1.969,9.884,5.31,3.259,7.076,4.296,50.056,26.597,16.609,108.652,12.116,101.272,48.856,33.379,18.605,-23.637,195.622,101.529,66.234,43.534,25.816],[0.782,0.655,0.445,0.335,0.197,4.738,2.638,1.834,1.407,0.985,9.077,5.311,3.702,2.792,1.927,58.477,25.574,18.12,13.597,9.789,99.916,50.87,36.205,23.386,19.446,216.576,100.734,67.491,50.103,39.859],[0.697,0.656,0.371,0.416,0.287,4.609,2.518,1.933,1.508,1.091,5.009,5.236,3.639,2.708,2.107,48.099,25.726,15.366,14.574,10.393,97.691,48.477,36.286,25.601,20.848,191.432,99.605,68.674,50.02,41.761],[-0.363,0.295,0.476,0.25,0.298,0.239,2.27,1.645,1.301,1.165,9.497,4.851,3.174,2.831,2.166,50.054,25.413,14.459,12.215,10.029,97.683,49.797,30.557,25.969,20.498,191.044,100.12,65.642,51.375,41.541],[0.704,0.504,0.516,0.284,0.322,4.13,2.211,1.572,1.402,1.144,9.393,4.753,3.013,2.809,2.11,47.668,24.808,13.98,12.163,10.193,107.9,50.189,35.433,25.149,18.81,198.85,98.271,67.329,51.217,41.424]],
"kep": [[74.359,-3.227,-1.387,-1.415,-0.974,124.665,-20.753,-15,-16.222,-17.456,145.463,-47.955,-36.039,-33.241,-35.88,88.161,-225.51,-195.327,-177.211,-195.815,92.473,-377.111,-367.297,-361.913,-385.027,86.002,42.101,-467.276,-733.663,-683.563],[4.294,3.393,50.878,-1.743,-0.618,9.246,11.758,21.703,-14.87,-8.475,14.868,24.465,131.25,-30.948,-16.954,-97.49,-50.344,4.879,-156.9,-108.455,-25.741,12.124,107.743,-290.062,-181.676,-39.469,-44.8,37.925,-25.913,-304.682],[-2.893,2.487,2.712,4.087,72.281,1.753,6.477,7.781,12.898,84.9,-1.162,12.364,14.895,26.696,210.549,-41.84,43.769,7.306,-23.149,87,-46.443,-51.276,-117.25,-128.357,49.006,-49.027,-68.581,-32.669,47.314,159.901],[-3.22,1.941,1.385,2.903,2.799,2.679,2.695,6.374,7.099,6.29,-4.679,8.711,9.717,10.314,11.118,-37.77,2.796,17.239,28.787,26.011,-64.776,-11.288,-31.604,26.384,-10.123,-54.7,-60.887,-67.895,-115.179,-22.068],[-5.971,-2.996,1.803,0.964,1.91,-30.58,-0.596,2.478,3.239,5.072,-45.091,5.286,3.167,8.537,7.601,-62.038,11.066,16.509,20.828,31.517,-64.71,-69.986,1.815,1.642,15.283,-75.996,-45.145,-70.15,-30,-20.796],[-57.643,1.344,1.94,1.015,1.828,-72.723,-2.782,0.659,3.722,3.83,-61.164,1.06,0.306,6.986,6.075,-61.567,-43.905,16.339,15.496,25.374,-73.583,-42.745,-19.261,5.811,17.644,-77.538,-44.763,-13.713,-68.949,-146.67]],
"vp": [[-22.575,-23.839,-42.899,-57.067,-61.204,-61.24,-9.727,-27.136,-11.157,-4.029,-42.294,2.011,0.079,-11.938,-6.492,-39.756,-8.416,0.755,-13.488,-2.474,-31.409,-1.838,-4.494,-9.722,-7.021,-42.868,-0.926,-26.362,20.027,4.27],[228.138,22.548,-53.456,-53.904,-70.278,13.054,5.821,-45.651,-18.889,-10.812,-4.697,14.025,-26.156,-9.243,-15.289,-35.529,-25.169,-24.017,-15.913,7.747,-28.404,-46.359,-30.458,7.577,-19.282,-7.812,-16.717,-18.778,8.523,-16.148],[417.466,319.589,177.003,59.177,-44.59,113.871,69.422,26.833,-0.917,-24.491,80.241,47.671,16.035,2.868,-58.331,2.755,-3.034,-0.172,-18.707,-40.679,-29.287,-44.869,-14.133,-30.617,-33.543,-8.38,-26.29,-29.684,-42.614,-40.588],[1340.619,530.391,406.925,289.981,159.933,330.046,104.512,92.317,64.79,-8.621,171.889,52.226,39.02,24.821,-5.242,4.487,-7.526,21.314,0.524,-28.118,-24.311,-38.994,-16.166,-20.985,-34.575,-26.185,-28.484,-43.264,-35.74,-28.714],[3240.684,553.972,659.24,455.56,289.918,571.755,79.854,150.79,94.011,89.123,316.803,97.799,53.531,67.871,39.325,14.263,9.253,-4.995,-7.968,1.831,-6.018,-12.669,-23.217,-11.938,-14.542,-11.378,-15.023,-26.617,-30,-20.582],[4212.848,879.247,988.702,853.276,581.627,825.144,107.066,157.059,180.66,117.943,374.169,31.519,22.809,68.637,78.814,26.749,37.305,33.658,-14.261,16.644,21.225,7.569,-3.22,-12.215,-6.913,-0.215,-31.531,-32.177,-34.353,-21.58]]
}