{
"KTrans": [[2.956,2.364,2.416,0.456,1.381,12.614,8.968,6.592,6.76,5.33,27.224,14.764,12.291,11.776,10.66,162.232,97.234,74.631,65.274,61.851,407.617,228.094,176.16,152.953,140.989,1130.397,586.682,452.665,392.489,358.138],[-1.089,1.129,1.228,0.316,0.849,11.432,5.887,4.011,3.4,2.919,19.364,12.608,8.575,6.825,5.978,131.182,63.356,45.737,36.152,30.619,319.968,144.184,98.054,78.853,66.534,866.817,350.795,231.549,181.003,151.501],[-7.046,1.548,0.139,0.502,0.417,1.955,4.986,3.508,2.846,2.568,15.848,9.643,7.39,5.334,4.595,118.496,58.156,40.672,31.705,26.111,282.511,136.803,87.759,67.028,54.889,738.299,333.121,204.211,150.827,122.128],[-14.355,-0.728,0.4,0.556,0.475,-8.484,4.305,2.705,3.028,2.576,4.247,11.406,7.713,5.507,4.818,93.126,55.346,38.547,30.106,24.127,241.729,131.382,85.189,63.323,50.763,700.253,317.597,195.348,141.803,112.751],[-22.274,0.975,-0.405,1.163,0.385,-12.92,2.895,3.489,2.743,2.079,-5.218,8.967,7.855,5.385,4.725,73.274,55.259,38.725,28.275,23.726,227.562,120.571,81.686,61.559,48.56,620.568,309.737,190.124,135.255,108.296],[-27.885,0.45,0.202,-0.19,0.481,-22.92,0.814,2.315,2.586,2.77,-13.178,9.148,6.249,5.897,4.58,68.161,52.824,36.716,28.444,22.32,185.998,128.642,80.354,61.295,47.054,544.037,303.874,185.47,132.722,105.508]],
"ve": [[2.022,0.825,-0.356,1.791,-0.7,5.975,0.739,-0.008,-3.371,-2.515,8.777,2.467,-1.442,-4.665,-5.846,44.949,13.702,-1.139,-10.966,-18.623,93.33,33.303,7.878,-7.508,-18.296,191.5,78.621,34.748,10.199,-6.304],[1.975,0.289,0.132,-0.034,-0.269,5.587,2.32,1.404,1.086,0.294,10.499,4.638,2.889,1.883,0.949,50.259,23.383,14.286,9.117,5.486,99.903,48.08,29.822,19.562,12.579,198.179,96.593,60.942,41.265,28.681],[1.267,0.42,0.272,0.306,0.26,5.94,2.613,1.37,1.359,0.671,10.866,5.113,3.198,2.367,1.69,50.044,24.59,15.74,11.368,8.602,99.221,49.269,31.715,22.772,17.321,200.754,98.729,64.438,46.835,35.589],[1.869,0.338,0.173,0.266,0.087,5.813,2.581,1.722,1.385,1.011,10.958,5.062,3.444,2.362,1.862,50.745,25.069,16.238,11.661,9.326,101.015,49.926,32.57,24.111,18.744,200.29,99.394,65.522,48.326,37.796],[2.184,0.104,0.611,0.535,0.331,5.796,2.612,1.659,1.241,1.015,10.525,5.132,3.378,2.333,1.711,50.645,24.938,16.538,12.313,9.564,101.46,50.073,33.039,24.522,19.115,200.59,99.693,66.242,49.124,38.661],[1.901,0.876,0.303,0.313,0.092,5.503,2.526,1.677,1.13,0.909,11.633,5.219,3.41,2.376,1.996,49.086,24.851,16.657,12.539,9.76,100.547,50.084,33.064,24.559,19.585,201.528,99.993,65.982,49.466,39.078]],
"kep": [[1.281,1.996,3.49,-0.235,3.456,6.434,8.618,7.404,11.416,9.661,17.265,12.454,14.789,17.887,18.547,81.066,73.839,76.974,86.149,99.541,162.871,146.344,156.263,173.819,195.437,322.405,284.679,310.359,347.063,389.171],[-3.083,0.907,1.119,0.387,1.166,5.725,3.562,2.635,2.328,2.668,8.07,7.679,5.564,4.907,5.033,53.949,32.467,27.577,24.825,23.871,110.188,64.939,52.608,49.614,47.966,224.474,129.387,106.044,98.957,95.475],[-8.165,1.145,-0.091,0.216,0.174,-3.692,2.358,2.129,1.485,1.905,4.581,4.375,4.083,2.926,2.879,45.783,26.978,21.561,18.276,16.136,92.091,58.679,42.596,36.059,32.035,178.975,118.007,85.022,70.838,63.841],[-15.844,-1.071,0.249,0.31,0.4,-13.565,1.731,0.985,1.63,1.557,-5.913,6.011,4.151,3.078,2.914,28.145,24.29,19.199,16.539,13.544,70.141,54.39,39.726,31.616,26.972,166.756,109.458,78.458,63.038,54.404],[-23.701,0.92,-0.979,0.644,0.065,-17.517,0.308,1.81,1.497,1.062,-14.186,3.696,4.348,2.993,2.968,14.983,24.318,19.054,14.221,12.928,62.629,47.021,36.581,29.757,24.724,139.949,105.226,74.539,57.77,50.228],[-29.317,-0.396,-0.085,-0.49,0.399,-26.897,-1.652,0.657,1.449,1.851,-21.926,3.745,2.77,3.451,2.542,11.74,22.482,17.198,14.14,11.449,42.232,52.371,35.569,29.505,22.975,113.783,101.987,72.01,55.719,47.774]],
"vp": [[0.001,0.001,0.001,0.001,0.001,0.005,0.005,0.005,0.005,0.005,0.01,0.01,0.01,0.01,0.01,0.05,0.05,0.05,0.05,0.05,0.1,0.1,0.1,0.1,0.1,0.2,0.2,0.2,0.2,0.2],[0.001,0.001,0.001,0.001,0.001,0.005,0.005,0.005,0.005,0.005,0.01,0.01,0.01,0.01,0.01,0.05,0.05,0.05,0.05,0.05,0.1,0.1,0.1,0.1,0.1,0.2,0.2,0.2,0.2,0.2],[0.001,0.001,0.001,0.001,0.001,0.005,0.005,0.005,0.005,0.005,0.01,0.01,0.01,0.01,0.01,0.05,0.05,0.05,0.05,0.05,0.1,0.1,0.1,0.1,0.1,0.2,0.2,0.2,0.2,0.2],[0.001,0.001,0.001,0.001,0.001,0.005,0.005,0.005,0.005,0.005,0.01,0.01,0.01,0.01,0.01,0.05,0.05,0.05,0.05,0.05,0.1,0.1,0.1,0.1,0.1,0.2,0.2,0.2,0.2,0.2],[0.001,0.001,0.001,0.001,0.001,0.005,0.005,0.005,0.005,0.005,0.01,0.01,0.01,0.01,0.01,0.05,0.05,0.05,0.05,0.05,0.1,0.1,0.1,0.1,0.1,0.2,0.2,0.2,0.2,0.2],[0.001,0.001,0.001,0.001,0.001,0.005,0.005,0.005,0.005,0.005,0.01,0.01,0.01,0.01,0.01,0.05,0.05,0.05,0.05,0.05,0.1,0.1,0.1,0.1,0.1,0.2,0.2,0.2,0.2,0.2]]
}