{
"KTrans": [[11.385,7.212,4.214,1.794,2.915,18.103,12.562,9.332,10.475,9.443,30.277,20.426,12.336,17.097,13.267,66.382,96.811,85.129,70.04,63.671,13.403,80.669,128.565,118.077,104.334,276.777,86.822,145.212,56.52,167.102],[-10.981,9.325,6.319,6.284,5.066,-0.611,10.074,10.195,7.617,7.206,5.838,22.333,15.723,11.305,9.898,9.021,75.384,56.799,40.751,36.009,41.003,13.313,96.512,83.694,82.065,132.436,115.488,35.403,86.669,82.447],[-41.682,13.894,9.861,5.923,6.262,-46.1,18.749,12.544,8.702,6.217,-44.176,25.042,18.379,12.109,8.319,-20.787,58.151,63.316,44.718,30.549,10.24,22.535,86.846,79.096,65.844,66.528,23.139,64.7,45.114,81.648],[-65.88,17.742,13.975,8.118,8.539,-64.833,15.447,15.199,10.161,9.249,-65.713,33.724,17.893,14.585,11.308,-47.267,31.651,83.189,52.701,39.502,-42.504,12.203,-32.36,106.377,72.43,-2.995,54.519,0.494,16.187,37.489],[-89.613,3.829,12.803,8.208,9.236,-80.981,9.036,11.764,11.382,11.204,-76.467,15.659,27.893,17.124,16.424,-67.175,9.321,64.299,50.356,38.241,-39.528,-8.76,-8.382,53.991,85.483,-9.34,44.002,38.576,-9.11,6.124],[-83.822,-11.02,20.312,14.72,10.368,-86.955,-12.582,19.252,22.665,14.173,-82.684,-14.665,33.412,26.756,20.892,-70.261,-16.742,55.406,63.385,42.986,-62.252,-34.013,22.277,27.479,114.693,-23.845,13.553,-26.468,-6.431,20.843]],
"ve": [[0.105,3.523,1.337,31.867,18.876,7.175,3.382,3.4,69.469,2.284,13.501,2.85,2.565,-5.175,-9.096,44.968,40.145,2.15,-10.444,-16.794,95.447,44.928,8.908,-18.808,-604.545,190.529,79.432,36.549,59.71,-9.293],[4.129,0.68,-0.549,-1.175,-0.936,8.161,1.548,1.014,-0.41,-0.569,11.9,4.42,2.358,0.839,-0.021,49.939,24.147,14.714,8.555,4.585,106.947,47.577,35.261,19.162,12.89,197.564,94.054,63.332,40.024,24.051],[-41.097,1.513,-0.178,-0.915,-0.893,11.815,1.875,0.834,0.457,0.06,18.733,5.055,2.382,1.479,0.605,48.904,22.783,15.9,10.998,8.189,98.083,51.461,31.952,21.73,16.886,195.312,99.496,63.7,46.059,34.103],[3.605,2.071,-0.542,-0.585,-0.489,5.423,2.279,0.643,0.553,0.137,7.827,5.311,3.414,1.695,0.86,49.72,24.168,16.291,11.71,8.539,108.665,51.359,31.644,23.938,18.472,212.352,97.898,66.633,53.783,84.423],[2.357,2.263,-0.107,-0.38,-0.663,15.169,2.066,0.536,0.507,0.376,12.038,4.749,2.899,2.136,0.868,54.505,24.764,16.159,11.569,8.979,98.86,48.269,30.922,24.657,18.979,198.651,101.015,66.289,49.309,38.346],[-0.336,3.015,0.704,-0.561,-0.233,43.601,-5.786,1.678,0.579,0.247,13.247,9.113,2.916,1.995,1.184,48.228,25.188,15.381,11.982,9.324,99.706,54.702,36.17,-11.639,19.278,208.055,100.421,66.318,49.361,38.758]],
"kep": [[10.566,8.61,7.868,1.563,6.752,14.243,12.658,13.722,16.471,18.847,19.038,21.12,14.325,29.041,25.438,20.396,70.762,84.906,94.809,103.111,-20.412,39.242,103.653,128.763,139.516,55.13,32.99,97.176,49.331,188.616],[-15.572,9.331,7.33,7.902,6.443,-8.173,8.774,9.636,8.34,8.082,-4.408,17.497,13.566,10.79,10.186,-21.559,40.515,36.697,29.809,30.136,-21.278,-13.763,48.961,53.691,60.791,-12.41,19.328,-6.087,35.587,38.082],[-45.832,12.516,10.225,7.106,7.409,-51.254,16.804,11.852,8.364,6.292,-51.815,19.427,15.808,10.701,7.815,-42.773,27.732,39.918,30.036,20.696,-39.891,-12.406,40.303,46.044,41.383,-37.417,-26.784,10.632,5.727,33.973],[-68.331,15.048,14.621,8.81,9.179,-68.277,12.43,14.512,9.606,9.16,-69.509,26.414,14.012,12.741,10.49,-62.145,6.887,54.616,35.921,28.299,-66.483,-20.436,-41.601,62.864,44.099,-62.052,-13.52,-30.098,-12.526,3.563],[-89.469,0.792,12.823,8.65,10.05,-81.211,5.42,10.942,10.841,10.808,-78.156,9.457,24.195,14.724,15.47,-76.095,-11.497,39.667,33.993,26.405,-66.579,-34.363,-25.496,23.866,53.652,-65.697,-22.237,-9.785,-30.631,-16.171],[-84.487,-12.933,18.385,15.231,10.595,-87.105,-16.493,16.554,21.876,13.869,-83.473,-20.497,28.914,23.967,19.447,-78.525,-31.077,31.416,44.176,30.09,-78.278,-53.127,-4.902,3.906,74.905,-70.759,-37.277,-47.776,-28.667,-7.367]],
"vp": [[246.938,90.938,114.248,383.59,382.175,49.411,-12.895,21.348,44.603,-30.71,38.296,1.002,-17.718,18.698,-7.113,-26.407,-4.211,9.15,-26.187,-23.99,-23.533,-30.874,-23.355,-31.641,-30.03,-37.625,-24.328,-35.033,-19.988,-41.315],[4059.44,1057.725,614.951,1125.515,592.519,607.325,91.506,139.512,111.983,88.282,263.931,61.597,65.848,24.373,95.342,30.502,-18.657,-6.907,-19.4,0.67,9.955,-16.821,4.956,-22.234,4.964,-29.056,-42.623,-23.444,-36.912,-10.471],[5684.615,2847.194,1267.018,845.716,1413.704,1161.55,481.185,250.408,217.307,188.073,635.358,280.705,134.535,89.092,96.129,64.039,8.615,15.789,35.867,-9.847,3.168,7.027,-12.385,-20.409,-12.716,-26.917,-12.839,-28.089,-26.907,-18.811],[6853.945,5213.052,1946.416,1488.352,1886.011,1340.402,1012.739,384.862,306.805,325.953,633.385,520.115,123.519,205.142,109.802,108.733,79.022,26.355,33.375,36.693,73.281,47.682,4.587,5.561,4.383,8.833,-19.522,-12.222,-14.81,-15.205],[7872.98,8173.999,2989.036,2035.501,2089.149,1311.542,1338.844,690.117,267.46,482.282,673.234,713.625,296.029,149.585,190.955,100.624,78.218,5.421,1.079,26.708,31.196,28.92,-8.656,2.754,-11.803,-1.541,-0.923,-14.16,-12.648,-14.549],[7483.868,9822.338,5677.92,2208.394,2220.607,1568.806,1937.74,970.187,321.061,256.999,579.601,1051.553,496.669,272.221,218.325,106.866,149.812,57.429,13.883,42.238,43.399,83.493,-17.44,2.966,1.357,25.523,9.093,0.442,-1.589,-6.595]]
}