{
"KTrans": [[25.545,25.336,19.623,18.138,17.317,19.377,27.109,31.282,23.014,13.018,22.235,16.31,16.258,22.582,21.514,46.187,40.29,22.259,36.34,42.056,78.505,43.008,70.846,52.634,58.849,30.501,91.738,104.639,100.872,115.773],[-51.923,1.675,4.244,3.327,9.237,-47.319,-5.337,1.401,8.1,8.685,-39.838,-4.199,2.207,12.239,8.543,-27.726,1.886,4.103,11.609,16.967,-30.727,6.48,14.598,24.581,19.15,-31.085,37.703,45.01,44.331,39.84],[-69.306,-34.363,-12.43,-4.941,5.235,-74.257,-28.17,-14.686,-1.939,2.71,-72.323,-22.143,-12.71,-2.862,4.395,-67.008,-22.183,-3.579,0.665,3.793,-64.04,-15.862,-1.767,10.653,7.959,-56.139,-56.088,20.665,15.089,17.917],[-87.125,-47.851,-24.772,-19.375,-7.583,-84.269,-47.106,-26.582,-14.847,-8.551,-84.445,-44.243,-28.904,-13.735,-6.747,-81.942,-46,-30.331,-11.047,-4.929,-81.683,-41.051,-22.367,-8.603,0.015,-80.803,-83.545,-16.999,-9.727,12.445],[-90.432,-60.567,-44.4,-28.746,-17.833,-89.915,-59.609,-46.701,-25.656,-18.964,-85.15,-57.009,-41.178,-26.515,-13.268,-87.464,-54.119,-37.315,-26.928,-11.884,-77.093,-50.228,-33.095,-20.723,-7.282,-78.013,-51.449,-21.703,-16.203,-7.569],[-91.786,-73.674,-54.699,-38.783,-24.274,-94.199,-72.207,-52.719,-36.771,-22.205,-91.129,-69.18,-50.984,-35.407,-23.971,-88.866,-69.283,-45.726,-35.885,-23.632,-86.437,-68.8,-44.572,-34.853,-21.639,-85.706,-63.861,-40.223,-28.532,-15.703]],
"ve": [[9.329,-1173.556,-0.359,21.462,526.741,31.55,24.534,8.239,-69.48,-0.794,8.792,26.875,-148.794,-104.841,30.466,33.447,8.858,16.275,152.15,22.188,-0.905,13.412,22.865,-6.121,-23.244,82.903,41.826,2.939,-2.958,-29.908],[-18.147,34.865,2.797,6.151,8.989,-13.607,0.556,6.9,4.537,8.895,15.522,2.679,4.181,4.993,8.628,18.858,7.831,10.397,9.968,12.816,26.913,10.103,22.641,17.529,7.377,62.439,35.076,18.405,11.068,20.14],[-26.391,-8.615,-1.951,-0.651,1.368,-43.306,-12.472,-4.647,-1.191,1.215,-43.203,-7.486,-4.332,0.247,1.14,-23.198,0.836,2.405,3.788,3.825,-5.103,4.094,12.875,10.584,8.012,58.178,27.016,23.591,-3.671,10.925],[-40.787,-18.763,-8.91,-6.27,-2.306,-30.085,-19.659,-9.216,-4.444,-2.323,-40.88,-16.681,-9.65,-5.121,-1.927,-31.652,-10.366,-4.246,-0.208,1.508,-7.342,-1.687,-2.238,4.35,4.574,16.742,23.077,5.864,-0.695,-302.814],[-51.394,-25.775,-16.664,-10.375,-7.322,-37.01,-22.545,-17.042,-7.499,-6.055,-35.138,-18.067,-14.003,-8.979,-3.878,-32.067,-16.455,-9.357,-7.264,-1.91,-18.259,-11.404,-6.919,-1.551,3.116,43.568,25.469,17.028,2.427,13.524],[-76.344,-22.447,-22.084,-14.144,-8.625,-43.987,-29.51,-19.874,-12.712,-8.25,-53.038,-35.193,-18.542,-12.974,-7.838,-25.683,-24.102,-13.774,-9.023,-5.887,-0.058,-23.357,-3.993,-6.124,-2.461,34.128,0.22,10.659,0.771,63.655]],
"kep": [[-21.877,-16.32,-27.608,-31.1,-39.97,-32.115,-19.174,-16.93,-27.015,-47.591,-27.585,-27.607,-35.307,-29.253,-35.548,-28.506,-19.947,-36.237,-20.261,-7.262,-45.05,-42.467,-8.415,-20.76,2.189,-19.832,-43.615,-28.826,-18.183,33.549],[-64.231,-28.356,-26.52,-29.174,-26.64,-61.758,-31.963,-28.32,-25.015,-27.01,-58.853,-32.733,-29.078,-22.626,-27.184,-63.992,-32.346,-31.652,-26.27,-23.874,-64.225,-45.634,-32.651,-22.921,-25.648,-62.203,-46.371,-30.295,-25.275,-22.765],[-76.438,-50.168,-36.109,-31.282,-25.431,-79.486,-44.756,-36.139,-28.826,-27.123,-81.049,-41.086,-34.783,-30.588,-25.72,-81.881,-46.609,-33.43,-30.673,-28.494,-77.519,-52.408,-38.646,-29.41,-29.099,-73.359,-58.686,-40.048,-37.45,-31.205],[-90.483,-57.026,-41.548,-38.529,-32.176,-87.924,-54.999,-42.43,-36.254,-32.836,-89.303,-55.333,-44.234,-34.918,-31.828,-87.428,-60.4,-49.081,-36.523,-33.045,-84.638,-63.055,-48.189,-38.244,-32.357,-82.028,-71.364,-57.99,-48.43,-33.603],[-93.127,-64.583,-52.849,-43.448,-36.57,-93.129,-64.903,-54.727,-42.701,-38.152,-89.212,-63.916,-52.381,-42.354,-35.427,-89.609,-66.919,-52.16,-44.274,-36.09,-83.93,-68.865,-55.208,-45.78,-36.168,-84.618,-71.763,-54.994,-53.873,-42.793],[-93.811,-74.202,-59.353,-49.384,-40.772,-96.284,-75.317,-58.695,-48.555,-39.449,-94.807,-72.401,-57.904,-47.291,-41.128,-91.384,-76.279,-56.435,-50.322,-42.595,-91.289,-78.722,-62.678,-52.903,-43.205,-86.968,-75.123,-64.163,-57.756,-47.155]],
"vp": [[-519.624,-685.88,-680.323,-935.829,-521.653,-116.678,-192.322,-186.423,-173.428,-97,-45.163,-41.933,-55.261,-88.978,-81.753,-19.298,-26.689,0.726,-25.316,-49.605,-9.77,9.891,-28.199,-7.967,-9.797,-10.159,-19.258,-12.007,-11.395,-22.79],[3377.963,334.421,-165.571,-386.122,-826.292,541.936,172.3,46.403,-103.979,-195.261,254.101,-25.225,-18.624,-131.72,-43.386,12.42,-4.518,7.354,-9.854,-32.039,0.347,15.322,2.537,-19.151,-10.663,-9.351,-21.671,-20.887,-14.45,-6.902],[3858.581,3003.766,1172.731,424.811,-783.748,1015.65,545.012,363.178,93.65,-90.952,498.417,189.058,176.61,27.804,-98.374,94.125,39.817,9.061,-1.621,-11.022,47.969,15.991,6.673,-21.861,-5.79,-7.495,-3.918,-27.213,15.178,3.159],[7007.237,4692.318,3014.162,2782.875,1217.511,1313.447,944.34,642.665,400.926,318.815,703.836,437.095,357.318,204.578,96.87,140.434,92.302,77.069,30.883,6.521,53.151,34.011,41.328,21.365,0.851,17.842,5.333,25.074,38.429,-13.466],[7192.099,7357.186,6251.332,4211.065,3785.459,1381.675,1248.598,1354.415,697.854,660.968,563.245,530.253,578.368,370.595,168.335,121.874,112.526,101.154,97.716,20.328,54.585,46.206,39.366,19.229,-6.706,7.369,-3.047,-11.256,16.835,17.475],[7000.301,9451.028,8476.668,6552.868,4145.811,1529.512,1800.279,1583.224,1159.398,725.34,799.05,894.796,747.803,601.05,403.074,116.632,166.164,134.387,118.702,91.524,37.109,70.379,63.843,49.559,31.604,9.532,33.922,5.631,24.608,16.18]]
}