{
"KTrans": [[39.611,26.782,16.368,22.083,17.46,27.272,16.27,17.108,22.652,23.8,7.726,28.12,28.01,24.156,24.096,43.929,48.674,35.635,45.068,34.157,93.474,70.333,60.557,61.381,61.511,18.049,136.736,154.585,106.495,121.006],[-44.093,-4.226,2.245,9.382,11.716,-47.255,-5.519,6.404,8.787,10.455,-39.487,-8.322,3.994,10.046,10.387,-21.743,0.941,9.88,16.911,17.278,-22.263,17.986,24.98,19.623,23.423,-1.772,22.071,34.369,36.295,46.989],[-73.021,-34.108,-14.166,-4.596,0.46,-72.465,-24.481,-11.742,-2.13,4.435,-71.069,-34.496,-11.631,-4.602,1.156,-65.307,-24.794,-11.004,-2.168,4.931,-48.14,-15.144,-4.999,3.378,3.96,-63.669,-12.577,4.551,14.285,18.089],[-86.625,-52.183,-29.295,-18.78,-10.58,-86.225,-47.605,-31.953,-14.678,-9.51,-82.856,-49.659,-29.811,-18.693,-10.174,-76.952,-44.864,-21.361,-13.925,-4.079,-73.327,-36.226,-29.827,-6.062,-3.075,-64.994,-36.833,-15.661,1.235,0.945],[-88.955,-57.643,-39.375,-29.439,-20.276,-89.471,-66.636,-42.951,-27.323,-19.469,-90.125,-59.162,-41.047,-26.777,-18.435,-82.036,-58.479,-41.803,-27.346,-20.888,-83.67,-55.004,-38.835,-27.697,-18.814,-80.376,-52.357,-29.625,-16.126,-8.144],[-91.417,-71.767,-52.09,-37.754,-30.205,-92.258,-70.567,-47.523,-37.758,-28.096,-90.627,-73.876,-56.547,-39.288,-28.592,-85.215,-67.223,-49.292,-41.673,-28.588,-83.57,-59.919,-45.424,-38.414,-28.657,-88.503,-67.141,-45.797,-29.523,-22.969]],
"ve": [[5.881,-5.873,171.801,-748.633,91.8,-253.143,16.623,429.391,-19.512,-121.271,53.438,78.262,-60.345,-8.957,-116.423,31.077,43.14,2.841,-130.021,-7.363,-236.903,115.606,-19.389,214.828,-71.513,91.361,36.658,20.762,5.862,-64.765],[-32.992,2.332,1.707,7.603,10.726,-15.256,5.445,0.902,7.854,9.995,-33.322,4.333,3.87,6.864,12.229,19.79,10.641,12.779,10.72,14.474,33.151,22.839,-0.71,18.539,72.549,76.851,-84.897,11.154,19.848,4.721],[-11.478,-9.929,-3.687,-0.173,0.714,-42.519,-6.168,-2.849,-1.103,1.336,-27.865,-10.162,-2.117,-0.34,1.25,-10.996,2.137,0.182,0.592,5.031,22.929,12.207,10.035,8.377,8.275,63.788,25.513,0.868,39.96,14.503],[-52.164,-24.342,-12.2,-7.216,-4.643,-46.667,-18.479,-10.716,-5.14,-2.324,-1.976,-12.935,-9.029,-4.802,-2.807,-2.137,-7.877,-2.187,-3.047,1.436,3.192,-10.177,1.84,5.939,3.678,51.391,15.013,7.382,15.455,15.418],[-37.871,-21.897,-15.52,-9.317,-7.359,-48.942,-125.832,-16.552,-9.372,-6.812,-44.99,-21.278,-14.178,-9.107,-6.106,-14.605,-5.263,-10.759,-6.505,-4.914,-22.664,-2.746,3.599,-3.004,-2.475,14.995,45.707,9.823,12.678,10.594],[-56.684,-53.091,-19.675,-13.597,-10.67,-50.864,-26.658,-16.513,-13.963,-10.716,-28.412,-54.904,-22.613,-13.859,-10.966,-22.741,-20.677,-12.432,-11.44,-6.073,-9.116,-12.309,-6.607,-7.134,-4.647,31.662,6.811,-6.037,7.174,0.511]],
"kep": [[-28.047,-25.532,-41.499,-44.618,-54.848,-28.167,-36.053,-39.839,-39.199,-47.044,-43.965,-28.681,-27.537,-45.318,-44.374,-32.217,-18.14,-31.513,-19.54,-39.561,-33.762,-24.48,-18.259,-21.018,-16.575,-63.621,-20.997,10.62,-15.453,11.886],[-66.201,-36.768,-32.328,-31.254,-31.09,-69.002,-37.837,-28.935,-31.809,-31.653,-61.887,-40.493,-31.897,-30.447,-32.296,-61.323,-41.146,-33.791,-29.11,-30.117,-72.03,-39.341,-31.04,-32.221,-29.89,-62.906,-62.633,-37.741,-33.895,-24.799],[-81.484,-52.025,-40.697,-36.513,-33.308,-81.633,-46.946,-39.621,-34.046,-31.256,-81.123,-52.014,-40.282,-36.354,-33.525,-81.741,-51.672,-41.399,-35.594,-33.545,-75.282,-55.63,-44.633,-37.585,-36.521,-82.474,-64.814,-50.431,-40.203,-37.128],[-91.113,-62.345,-46.913,-42.092,-37.652,-90.788,-59.286,-49.673,-40.491,-38.403,-88.364,-62.501,-49.212,-43.316,-38.621,-88.281,-61.979,-47.465,-41.452,-37.258,-88.426,-64.659,-55.494,-41.989,-38.884,-84.302,-73.628,-59.121,-45.695,-43.184],[-92.043,-65.53,-53.29,-48.734,-42.88,-92.905,-71.779,-55.383,-47.209,-42.657,-94.101,-67.347,-55.177,-46.689,-42.45,-89.24,-70.383,-58.333,-48.759,-44.908,-90.091,-73,-60.319,-52.139,-45.709,-89.268,-76.932,-63.362,-52.546,-47.013],[-93.847,-75.424,-60.952,-52.735,-48.232,-95.161,-74.642,-59.485,-52.212,-46.711,-92.865,-76.619,-63.649,-53.545,-46.949,-93.29,-76.925,-63.096,-57.019,-49.799,-91.148,-77.903,-64.798,-57.375,-51.174,-87.699,-75.801,-74.278,-60.112,-52.673]],
"vp": [[-851.238,-479.849,-73.416,-523.218,-371.467,-56.545,-50.333,-50.796,-127.795,-149.574,-26.038,-114.406,-80.483,-129.859,-94.536,-10.377,-9.633,-17.269,-38.109,-11.048,-18.895,-9.181,-3.672,-4.037,-9.385,-8.367,-22.337,-34.843,-13.606,-22.47],[3146.443,96.632,319.844,-944.747,-1028.845,555.329,153.36,3.746,-155.327,-147.762,233.386,21.587,6.133,-34.076,-60.621,7.691,2.24,-9.686,-30.677,-29.953,3.027,-14.588,-21.98,-5.814,3.808,-12.345,2.092,-1.38,0.41,-18.298],[4261.551,3108.4,1442.642,189.463,-288.067,1053.453,406.784,100.756,92.198,-100.848,502.202,307.36,113.224,78.622,14.922,78.115,45.441,37.078,32.797,-9.381,20.53,2.264,10.45,3.198,6.397,-2.381,7.57,6.22,7.044,6.148],[6749.548,5690.614,3768.283,3141.14,2150.811,1317.443,1007.403,812.319,340.787,251.79,595.049,513.126,332.375,219.052,169.933,105.293,92.12,37.867,60.092,5.045,33.69,14.528,48.093,3.666,13.016,2.89,12.684,12.051,-7.18,12.289],[6782.12,6339.46,5733.322,4056.036,3559.69,1438.204,1590.637,1257.227,806.3,757.576,739.613,648.889,571.332,431.586,310.062,99.473,130.535,123.165,86.555,89.687,57.148,47.183,54.839,57.087,55.108,-2.657,20.077,11.71,7.798,11.225],[7425.585,8371.054,8027.794,6183.442,6027.313,1644.724,1801.643,1230.178,1308.744,1133.591,648.293,959.539,965.099,660.099,601.735,95.474,143.15,146.063,153.411,104.951,52.487,48.512,48.968,81.894,69.35,18.243,30.71,40.711,15.404,47.139]]
}