{
"KTrans": [[18.676,22.893,20.209,13.925,16.733,33.621,17.508,20.767,22.921,18.555,35.679,18.058,27.069,19.94,26.455,35.537,31.739,30.66,27.188,28.421,75.428,56.003,68.682,65.188,55.738,35.573,130.529,114.003,106.369,89.078],[-46.702,-4.169,2.178,10.442,11.663,-47.116,1.996,4.735,9.421,8.324,-49.166,-5.452,3.963,7.727,8.784,-37.102,2.427,10.699,14.553,16.603,-19.025,13.69,17.969,22.105,27.883,-30.743,10.955,33.795,47.006,42.311],[-74.525,-25.949,-12.937,-4.744,0.799,-70.241,-29.347,-12.914,-2.529,0.984,-78.03,-23.271,-14.407,-6.002,1.983,-66.342,-27.876,-8.051,2.718,4.276,-54.418,-23.301,3.297,5.293,13.531,-81.306,-12.382,6.982,13.105,18.391],[-84.156,-49.568,-26.912,-15.708,-6.787,-86.753,-50.767,-26.787,-13.358,-5.271,-84.847,-40.071,-30.528,-15.122,-9.262,-73.66,-44.387,-28.382,-14.754,-5.323,-69.108,-40.437,-27.802,-10.657,-3.774,-102.948,-49.904,-14.783,3.495,3.479],[-90.641,-66.35,-38.013,-28.517,-18.001,-90.251,-59.05,-37.634,-27.711,-16.799,-89.449,-57.694,-41.795,-26.776,-18.161,-80.435,-56.238,-37.358,-24.92,-15.094,-80.858,-55.374,-36.576,-19.191,-11.576,-91.303,-54.006,-28.813,-19.014,-10.539],[-93.024,-70.44,-52.86,-37.915,-26.388,-93.229,-76.305,-52.118,-35.529,-28.694,-87.87,-68.112,-53.769,-34.269,-26.602,-89.198,-70.453,-53.366,-37.2,-27.132,-83.763,-68.569,-44.669,-29.371,-22.646,-98.425,-65.34,-44.88,-23.221,-15.103]],
"ve": [[8.029,-45.012,10.262,-63.258,-23.09,23.029,34.205,-68.675,124.632,-44.326,10.603,12.461,19.76,5.412,301.442,6.092,35.631,8.599,1006.423,-149.114,63.365,-198.876,-34.485,-17.718,-15.097,71.054,23.96,4.537,2.758,22.1],[-25.526,-0.084,2.135,3.769,8.619,-7.059,0.094,4.078,5.362,7.019,-18.517,1.581,3.445,5.473,7.783,-23.338,8.76,6.344,8.836,11.488,-157.134,40.467,23.364,13.782,14.617,81.837,20.125,32.398,26.563,27.922],[-41.731,-10.467,-4.007,-1.02,1.26,-34.653,-7.836,-3.558,-0.897,0.981,-24.929,-7.73,-3.565,-2.077,1.519,-14.309,-3.203,0.856,3.266,3.346,-21.619,6.981,9.525,8.095,9.638,22.393,32.84,12.792,48.88,0.855],[-49.833,-18.308,-8.949,-5.61,-2.865,-45.053,-18.48,-7.432,-4.9,-2.057,-43.107,-12.203,-10.48,-3.967,-2.771,-75.113,-24.207,-5.423,-2.574,0.248,21.592,3.285,31.04,2.335,2.859,52.449,21.601,5.908,13.419,5.545],[-52.539,-28.68,-13.383,-11.017,-6.815,-52.578,-25.654,-13.781,-10.268,-6.023,-47.912,-19.203,-15.877,-9.003,-6.237,-30.398,-16.483,-8.717,-4.752,-3.324,-1.335,-7.157,-2.792,0.138,0.69,39.649,11.473,10.24,1.652,8.115],[-94.103,-36.973,-21.076,-13.575,-9.185,-4.128,-37.432,-17.635,-13.248,-9.508,-48.739,-27.077,-18.219,-12.556,-8.589,-46.855,-24.675,-15.282,-11.009,-8.093,0.436,-15.411,-9.016,-3.894,-3.289,19.553,2.905,2.666,7.497,9.678]],
"kep": [[-30.549,-22.196,-26.161,-45.192,-39.468,-21.367,-27.925,-29.183,-27.813,-35.691,-20.392,-27.437,-20.372,-34.085,-25.133,-35.971,-26.315,-25.172,-34.514,-38.305,-30.515,-24.107,-4.083,1.265,-9.259,-21.135,-14.365,-9.174,-14.262,-16.951],[-60.471,-31.154,-28.103,-23.042,-25.104,-61.358,-27.563,-27.524,-25.018,-26.752,-62.755,-33.498,-27.819,-26.581,-26.707,-63.611,-34.297,-25.903,-24.359,-24.12,-62.475,-34.613,-29.348,-24.187,-18.825,-62.589,-65.123,-37.417,-22.302,-19.577],[-80.194,-42.47,-35.517,-31.189,-28.812,-77.508,-44.802,-35.852,-29.93,-28.503,-83.328,-41.922,-36.977,-31.47,-28.306,-81.345,-48.278,-36.008,-29.199,-27.932,-79.219,-54.56,-34.581,-31.543,-26.574,-73.694,-62.222,-46.838,-36.375,-31.448],[-88.734,-56.675,-43.089,-36.487,-31.58,-91.47,-57.915,-44.216,-35.194,-31.081,-87.176,-52.402,-45.158,-37.058,-33.407,-85.203,-58.86,-46.924,-38.217,-32.881,-84.928,-65.475,-50.103,-39.314,-34.401,-85.964,-70.853,-58.66,-40.759,-36.883],[-93.387,-67.528,-49.954,-42.928,-37.343,-92.506,-63.055,-49.053,-42.867,-37.012,-92.001,-64.502,-51.67,-42.814,-37.896,-87.229,-65.62,-52.795,-44.349,-37.997,-86.628,-73.116,-56.017,-43.802,-38.128,-85.388,-75.734,-65.073,-50.745,-43.26],[-95.257,-71.704,-58.663,-49.349,-42.449,-95.555,-75.921,-59.17,-47.568,-43.963,-91.825,-71.708,-60.454,-46.896,-42.934,-91.353,-77.52,-61.611,-50.679,-44.083,-88.961,-80.602,-61.007,-49.211,-43.775,-87.824,-74.825,-68.103,-54.27,-47.021]],
"vp": [[-442.859,-1094.216,-648.773,-699.247,-797.252,-217.681,-92.018,-121.213,-182.294,-120.989,-101.983,-61.337,-114.641,-53.572,-102.744,-12.027,-5.563,-20.264,-3.667,-16.915,-17.756,-2.567,-29.355,-23.799,-20.72,-15.547,-20.484,-20.033,-18.012,-10.061],[2771.372,556.265,-183.867,-948.029,-1468.834,577.173,39.854,-72.661,-153.436,-78.4,310.8,30.634,5.131,-91.282,-54.345,49.076,-7.051,-6.736,-14.368,-32.648,-2.867,-2.19,-14.103,-3.647,-36.108,-21.615,9.57,1.024,-24.61,-13.685],[4853.15,2537.976,1154.537,557.906,-118.55,903.739,479.029,234.807,-9.652,-37.082,617.934,207.485,126.509,143.637,-25.652,99.659,52.201,15.974,-20.371,-5.353,15.087,16.694,-13.067,-7.34,-26.232,22.527,-11.791,8.687,7.263,-3.629],[6803.146,4729.359,3161.203,1918.862,1036.454,1475.161,1056.026,590.99,318.268,84.859,648.756,387.404,423.106,196.949,156.697,84.126,89.193,69.641,48.775,26.159,23.359,38.619,50.557,20.133,16.549,1.598,3.004,21.277,-4.358,7.753],[7264.696,8553.785,4556.672,4683.154,2923.821,1450.547,1388.37,915.792,866.845,604.473,693.598,566.757,606.447,438.966,297.95,108.771,119.117,92.397,65.027,58.964,37.244,50.389,41.982,23.599,16.84,5.014,14.233,8.068,18.617,19.549],[7965.917,8910.922,8587.411,6553.067,4885.698,1546.896,2040.025,1426.075,1186.037,1115.661,614.742,772.14,778.525,554.982,508.26,130.456,169.049,146.409,138.44,122.785,38.275,75.643,53.373,41.839,45.085,17.961,17.808,23.596,5.409,9.351]]
}