{
"KTrans": [[3.197,2.017,1.668,1.498,1.378,14.023,8.369,6.805,5.947,5.561,26.999,16.52,13.208,11.8,11.084,162.46,98.794,76.691,68.414,61.179,408.455,236.481,175.626,154.02,140.654,556.866,592.893,441.421,396.359,352.945],[4.431,2.382,1.595,1.294,1.113,13.154,6.651,5.085,3.87,3.321,24.724,13.367,8.969,7.35,6.353,170.205,70.868,47.983,36.862,32.115,459.367,144.128,96.402,77.574,65.661,120.224,371.779,241.712,184.503,150.983],[5.827,3.238,2.039,1.511,1.264,17.194,7.739,5.155,3.932,3.281,31.163,13.547,9.109,7.005,5.667,189.321,63.145,42.821,32.896,26.081,20.1,155.889,92.73,67.429,57.178,-66.072,405.821,229.883,154.038,129.172],[8.504,4.836,2.548,1.833,1.449,19.478,8.583,5.635,4.277,3.331,29.962,14.605,8.886,7.193,5.687,195.199,72.807,43.236,30.58,26.026,-77.716,167.883,94.648,67.984,54.697,-18.689,434.985,246.136,158.804,118.244],[10.381,5.224,3.144,2.307,1.811,26.182,7.971,5.702,4.641,3.482,44.308,14.03,10.163,7.717,5.997,61.023,77.172,40.107,32.33,24.698,-56.391,207.221,98.304,64.122,53.935,-116.108,98.698,296.068,167.826,119.226],[14.387,5.737,3.096,2.882,2.114,17.427,11.374,5.703,4.946,3.762,37.398,15.63,11.836,7.093,6.469,-30.161,89.817,39.363,30.692,25.016,-92.587,233.719,92.556,66.462,54.512,-148.969,-41.972,273.536,170.254,115.555]],
"ve": [[0.612,-0.204,-0.711,-1.142,-1.529,3.997,0.291,-1.755,-3.296,-4.72,8.265,1.146,-2.608,-5.485,-8.102,44.841,13.126,-1.564,-11.637,-18.723,93.11,34.041,8.066,-7.225,-18.453,188.403,81.717,36.664,11.846,-5.891],[0.814,0.299,0.066,-0.07,-0.178,4.725,2.113,1.179,0.59,0.195,9.598,4.512,2.547,1.459,0.682,49.192,23.656,14.248,8.884,5.348,99.472,47.204,29.03,19.17,12.331,196.115,96.113,61.066,41.679,28.605],[0.825,0.351,0.143,0.028,-0.044,4.934,2.3,1.404,0.925,0.618,9.921,4.742,2.982,2.052,1.436,49.286,24.086,15.687,11.171,8.207,101.941,48.894,31.74,22.688,17.155,198.485,97.239,64.518,46.487,35.655],[0.886,0.438,0.164,0.057,-0.01,4.94,2.342,1.478,1.027,0.725,9.785,4.822,3.043,2.214,1.643,50.278,24.749,16.116,11.667,9.088,100.569,49.219,32.519,23.87,18.555,195.974,101.782,65.542,48.432,37.616],[0.918,0.394,0.179,0.085,0.018,5.171,2.229,1.448,1.063,0.76,10.126,4.734,3.145,2.301,1.739,48.817,24.814,16.061,12.045,9.341,96.441,49.809,32.84,24.057,19.134,199.082,99.959,66.668,49.283,38.672],[1.085,0.357,0.125,0.109,0.029,4.849,2.412,1.412,1.069,0.785,10.103,4.815,3.281,2.227,1.802,50.011,25.088,16.056,12.022,9.522,95.694,49.724,32.57,24.384,19.452,200.024,99.545,65.68,49.361,38.937]],
"kep": [[2.569,2.226,2.396,2.671,2.954,9.638,8.056,8.714,9.56,10.793,17.291,15.204,16.246,18.297,20.887,80.636,75.678,79.529,90.68,98.404,160.848,150.455,154.906,173.764,195.207,125.335,279.477,295.011,343.135,380.73],[3.58,2.076,1.528,1.365,1.294,8.026,4.443,3.861,3.261,3.12,13.737,8.467,6.261,5.806,5.633,79.243,38.028,29.477,25.685,25.41,174.468,65.195,51.996,48.927,47.436,-19.82,137.634,111.172,100.295,94.875],[4.905,2.872,1.893,1.482,1.309,11.6,5.31,3.698,2.979,2.646,19.153,8.39,5.946,4.852,4.171,90.901,31.177,23.385,19.512,16.506,-36.813,70.543,45.948,36.337,34.1,-82.35,150.229,98.737,72.771,68.58],[7.363,4.361,2.377,1.774,1.46,13.611,6.077,4.093,3.216,2.587,18.049,9.295,5.664,4.868,3.977,93.347,38.118,23.24,16.895,15.506,-85.325,77.689,46.38,35.402,30.387,-69.047,159.408,106.474,73.481,58.175],[9.027,4.768,2.95,2.218,1.791,19.531,5.572,4.183,3.538,2.7,30.281,8.808,6.788,5.289,4.184,7.61,41.335,20.582,18.042,14.016,-75.369,102.348,48.642,32.047,29.081,-101.627,0.642,134.152,78.077,57.496],[12.474,5.284,2.947,2.763,2.082,11.172,8.66,4.209,3.827,2.951,23.949,10.213,8.257,4.75,4.581,-52.722,50.879,19.901,16.584,14.107,-93.635,118.897,44.482,33.536,29.187,-113.18,-66.802,121.395,79.388,54.573]],
"vp": [[8.025,9.723,10.6,17.515,17.937,28.501,13.949,15.675,4.634,8.278,12.336,10.052,4.076,6.846,16.501,2.135,20.279,14.505,20.376,7.953,-0.09,18.831,4.804,7.341,3.414,-1.893,11.737,5.287,13.571,2.211],[-89.819,7.731,17.391,28.985,33.591,-21.618,-4.216,29.339,8.129,0.92,4.452,27.24,5.678,12.645,15.013,15.49,22.217,22.442,10.041,18.246,16.974,-2.216,-3.734,2.504,0.416,24.789,-3.37,7.33,8.603,2.339],[-550.405,-131.304,-37.058,-1.775,19.288,-79.938,-2.926,16.436,11.628,19.194,-4.692,7.114,16.134,17.644,6.56,40.279,-0.968,13.013,14.263,0.434,42.838,9.404,8.879,3.758,13.575,27.774,-5.021,9.796,2.586,13.183],[-1536.92,-383.139,-158.23,-68.662,-22.335,-321.084,-60.918,-35.028,2.332,5.025,-148.158,-17.881,-15.464,6.54,9.77,54.86,19.597,10.902,2.493,16.749,40.47,14.089,18.382,14.843,17.802,24.572,56.445,15.205,15.4,8.935],[-937.145,-809.034,-382.344,-155.316,-104.512,345.656,-115.391,-54.848,-17.493,-2.691,557.961,-57.218,3.122,3.998,13.432,46.924,15.644,1.872,21.041,7.345,33.751,36.975,21.17,3.971,19.642,33.201,61.593,33.295,25.538,16.278],[5688.077,-1169.701,-695.271,-350.497,-209.398,871.932,-215.047,-113.633,-53.94,-34.904,540.85,-127.142,-57.974,-24.178,7.087,103.536,34.142,-13.203,2.559,9.789,41.739,75.196,-6.562,11.214,23.958,53.464,19.439,18.163,20.197,11.593]]
}