{
"KTrans": [[-0.303,11.688,14.225,6.446,8.696,8.491,16.187,17.219,15.722,19.041,23.526,21.384,26.232,20.643,22.762,128.013,89.924,80.393,72.256,72.355,184.142,221.209,155.861,162.655,144.341,0.134,406.873,371.992,348.58,309.758],[-23.933,-2.751,3.128,2.087,5.423,-20.159,0.657,3.028,6.073,7.815,-18.684,8.983,7.888,8.572,10.209,27.482,45.393,40.3,36.81,32.842,49.084,114.432,87.25,72.631,65.873,29.203,233.348,187.833,153.069,135.532],[-52.391,-18.347,-4.595,-1.572,0.651,-47.7,-13.238,-4.183,0.785,3.452,-41.84,-6.436,-0.527,1.885,2.11,-22.581,22.959,22.521,23.873,23.807,16.465,70.197,61.309,54.91,46.925,-115.824,132.645,132.663,126.371,108.45],[-63.435,-24.101,-14.088,-7.676,-4.426,-60.008,-20.473,-7.349,-2.768,-1.569,-61.833,-13.192,-9.984,-2.082,-0.004,-39.463,11.974,13.659,16.801,15.359,-38.416,58.393,45.772,40.776,36.705,-79.349,67.599,113.191,89.703,85.551],[-71.704,-31.739,-17.589,-10.694,-7.319,-70.114,-25.62,-15.978,-10.14,-4.968,-66.258,-27.382,-12.507,-3.698,-5.958,-58.989,-5.585,14.285,4.744,11.757,-44.998,40.278,31.847,29.819,30.622,-71.114,5.644,95.893,79.477,79.449],[-77.693,-35.621,-20.477,-13.855,-12.459,-73.756,-29.182,-19.516,-14.865,-9.139,-74.949,-26.806,-20.244,-10.52,-8.73,-69.119,-11.199,-0.683,4.936,2.321,-68.379,27.056,17.507,28.804,23.66,-91.197,-26.98,58.469,69.734,57.617]],
"ve": [[109.379,23.171,-13.059,106.616,77.752,45.652,30.224,35.597,-242.818,-187.594,33.564,65.53,45.751,50.332,13.627,44.024,26.34,12.879,15.403,-0.646,99.027,35.637,18.089,-0.277,-9.45,166.764,77.862,50.679,17.473,-13.624],[4.06,0.549,1.83,4.278,5.508,12.886,2.988,3.349,6.094,6.005,13.945,4.079,3.47,4.375,7.229,42.161,21.709,14.805,10.746,9.188,92.79,45.08,29.963,20.732,14.434,198.572,154.317,60.741,41.591,30.548],[3.039,-1.225,-1.19,-1.097,-0.03,8.689,0.962,0.214,0.09,1.123,8.741,3.538,2.081,1.345,2.598,49.514,21.196,13.123,10.379,8.358,88.012,46.017,28.621,22.443,17.113,197.121,88.577,62.462,44.22,35.134],[5.88,-1.506,-2.113,-1.603,-1.496,8.783,0.619,-1.104,-0.67,-1.217,12.827,3.477,1.435,0.636,0.153,50.507,21.677,12.198,10.248,7.827,98.393,56.703,28.807,21.668,16.797,178.223,97.285,62.985,44.506,36.062],[6.636,-1.364,-1.852,-2.819,-1.9,13.484,0.236,-1.191,-0.759,-1.888,-8.035,2.031,0.792,-0.469,0.121,64.347,21.421,12.752,8.782,6.112,88.758,48.53,29.221,20.777,16.977,194.954,93.84,62.426,43.714,36.395],[5.583,-3.48,-2.952,-3.338,-2.199,6.4,0.011,-2.547,-2.138,-1.639,12.897,1.038,0.164,-1.845,-0.414,48.61,20.49,12.977,8.987,6.001,91.699,44.616,28.914,21.531,15.812,193.193,91.741,61.516,44.15,34.486]],
"kep": [[-30.657,-21.771,-23.185,-38.775,-38.105,-25.117,-20.244,-19.561,-27.024,-20.162,-15.526,-15.395,-9.903,-19.151,-13.172,21.408,18.306,29.728,32.958,43.895,7.691,79.773,66.404,103.286,112.127,-68.075,112.089,152.045,193.279,209.322],[-44.752,-26.315,-22.902,-25.492,-23.787,-45.522,-25.558,-24.259,-23.944,-22.858,-45.596,-20.286,-20.773,-21.004,-21.62,-34.721,-9.497,-7.548,-6.385,-7.923,-43.383,10.824,8.584,7.87,9.492,-60.774,27.611,33.959,33.958,35.775],[-65.304,-37.17,-26.965,-24.876,-24.055,-63.232,-34.87,-27.86,-23.956,-22.711,-59.48,-31.452,-26.537,-24.159,-24.949,-60.543,-23.781,-18.484,-15.453,-13.807,-53.334,-12.818,-5.867,-4.967,-5.559,-96.921,-11.039,6.61,17.139,15.59],[-73.464,-41.061,-33.73,-29.283,-26.9,-71.474,-40.354,-29.072,-26.203,-24.931,-74.26,-36.484,-32.992,-26.737,-24.776,-69.326,-30.767,-23.81,-20.187,-19.475,-75.357,-18.984,-15.093,-12.908,-11.989,-90.557,-35.849,-2.769,-2.114,2.057],[-79.956,-47.591,-36.621,-30.705,-28.874,-78.566,-43.802,-35.882,-31.72,-27.03,-77.386,-46.271,-34.524,-27.06,-29.252,-78.932,-41.589,-23.795,-27.496,-20.73,-78.827,-29.468,-23.675,-19.318,-16.157,-89.833,-58.174,-10.884,-7.009,-1.562],[-84.334,-49.81,-38.237,-32.751,-32.571,-81.593,-46.672,-37.796,-34.481,-30.438,-83.331,-45.081,-40.011,-31.214,-30.94,-84.633,-44.558,-33.818,-27.606,-27.39,-87.325,-34.844,-31.842,-20.555,-19.802,-95.296,-69.301,-27.014,-12.149,-12.466]],
"vp": [[10.67,780.027,881.297,621.384,186.508,58.351,67.775,9.46,45.036,113.171,53.415,-51.305,36.25,63.168,-9.849,-9.778,-8.625,-13.203,11.587,1.558,-11.597,-0.654,-2.139,12.728,0.779,-1.471,-7.884,2.116,0.341,3.324],[3200.6,1008.961,-57.987,471.154,-712.851,598.866,292.849,-23.414,-99.864,195.862,285.3,166.301,24.418,-29.474,-65.232,40.375,18.206,-3.865,4.549,6.791,30.33,8.601,-5.439,-2.188,-14.608,1.468,-11.42,-4.39,-7.836,-3.62],[5277.443,3182.144,1198.177,1058.938,-374.62,1061.734,713.445,358.207,208.655,26.673,443.02,279.143,92.077,10.199,-71.995,81.861,37.162,3.731,12.869,4.366,5.217,2.946,1.126,1.171,4.483,24.506,2.209,-11.736,-7.937,-1.965],[5330.03,5115.404,2762.113,770.893,1113.599,1033.487,936.101,710.641,313.41,108.507,576.593,525.834,243.738,244.584,87.568,84.625,96.992,50.311,50.792,9.965,49.3,51.795,24.236,12.925,-1.802,22.301,10.992,4.426,-19.164,-1.598],[7060.895,7711.181,5387.507,2210.556,1509.495,1279.63,1323.699,1006.006,523.984,340.456,624.6,768.875,541.669,243.237,189.517,122.551,134.518,140.893,27.543,29.866,68.383,75.979,28.208,8.825,10.27,13.303,21.815,12.366,-10.255,1.266],[6786.669,9856.052,6995.786,3140.038,1600.751,1291.199,1928.863,1275.759,664.346,378.279,684.082,902.806,631.612,296.988,188.06,138.475,146.252,111.262,68.428,24.772,70.742,82.407,41.1,38.186,9.738,20.959,3.291,16.258,-2.845,-10.48]]
}