{
"KTrans": [[3.794,1.923,3.631,1.391,1.905,12.52,7.676,6.59,5.383,5.118,23.575,16.876,12.512,12.055,9.52,161.408,93.125,73.061,65.856,58.76,402.632,228.189,175.253,153.427,142.177,1112.91,588.958,450.641,398.238,364.646],[-5.499,1.291,0.779,-0.335,1.353,1.588,4.082,4.452,4.215,2.134,12.422,11.236,7.718,6.429,6.46,127.297,69.099,45.564,35.187,31.245,292.813,143.327,100.168,79.507,66.541,834.676,364.674,233.297,179.891,151.694],[-16.622,-0.498,0.839,0.03,0.994,-2.626,6.457,2.048,3.964,2.659,1.034,6.759,8.729,6.047,5.112,94.978,58.456,38.355,32.596,27.704,244.221,135.766,85.781,65.619,55.531,699.998,331.923,203.144,151.657,124.814],[-27.522,3.751,1.946,2.441,1.53,-22.846,8.394,4.289,3.909,1.742,-14.18,12.36,9.057,4.95,5.242,73.504,58.496,37.668,30.235,23.891,193.953,134.599,85.088,64.757,49.325,568.843,320.086,194.07,144.49,114.221],[-38.548,2.155,2.453,0.415,2.757,-31.06,6.342,4.003,0.991,1.67,-27.304,9.621,6.797,6.878,5.086,46.398,54.678,38.936,29.798,24.616,147.313,135.439,85.745,63.685,50.289,423.235,305.356,189.734,136.038,108.382],[-48.794,3.497,2.262,2.009,0.441,-44.894,1.206,4.229,2.993,3.542,-35.983,8.683,9.846,7.066,3.913,14.414,52.837,41.566,29.426,23.496,116.283,126.476,82.24,61.1,49.207,365.937,302.36,184.072,137.978,106.988]],
"ve": [[1.967,2.073,0.999,2.25,2.552,5.676,1.828,1.488,0.557,0.393,11.319,1.635,0.718,-3.98,-3.471,46.767,13.713,0.173,-10.124,-17.686,94.073,33.596,7.958,-6.94,-18.429,192.27,79.115,35.432,10.326,-6.504],[1.694,1.243,0.423,0.396,0.246,5.827,2.527,1.339,0.81,0.551,8.981,4.785,2.867,1.701,1.209,50.946,24.115,14.453,9.349,5.644,99.259,47.958,29.742,19.223,12.76,199.246,97.02,60.664,41.159,28.713],[3.895,0.635,-0.237,0.126,0.514,7.249,3.384,1.608,1.162,1.191,11.133,4.872,3.508,2.247,1.748,50.669,24.574,15.755,11.587,8.82,100.824,49.413,32.151,23.079,17.284,200.211,98.831,64.627,46.905,35.946],[3.407,0.55,0.245,0.708,0.011,6.106,2.44,1.797,0.95,0.983,11.818,5.62,3.46,2.392,2.193,53.352,24.608,16.134,12.08,9.366,101.362,49.741,32.617,24.187,18.411,201.992,99.863,65.347,48.444,37.721],[3.946,0.641,0.366,0.259,0.251,5.811,3.036,1.358,1.125,0.95,11.77,5.036,3.172,2.636,2.169,51.852,24.591,16.131,12.302,9.77,99.654,50.085,33.068,24.406,19.265,201.44,99.812,66.335,49.114,38.471],[3.134,1.012,0.494,0.4,0.185,7.526,2.796,1.437,1.289,0.96,12.676,5.166,3.688,2.636,1.822,54.289,25.409,16.846,12.3,9.892,104.158,50.278,33.15,24.438,19.635,202.334,99.797,66.27,49.151,39.11]],
"kep": [[2.992,0.923,4.181,1.281,3.056,6.983,6.923,6.727,7.537,9.145,11.727,15.873,13.483,18.902,15.849,78.836,70.437,73.794,85.822,94.726,159.546,146.105,155.636,172.904,197.625,315.622,285.003,306.892,351.968,397.472],[-7.091,0.173,0.452,-0.644,1.236,-3.927,1.552,3.176,3.466,1.654,3.358,6.24,4.755,4.727,5.3,50.813,36.331,27.268,23.712,24.318,97.319,64.509,54.322,50.601,47.753,212.85,135.962,107.512,98.301,95.554],[-19.739,-1.06,1.113,-0.087,0.481,-8.925,2.961,0.479,2.74,1.475,-9.269,1.801,5.051,3.746,3.311,29.735,27.16,19.528,18.871,17.352,71.48,57.877,40.543,34.557,32.6,166.824,117.234,84.142,71.309,65.355],[-28.909,3.166,1.674,1.73,1.505,-28.004,5.707,2.409,2.912,0.746,-22.919,6.32,5.376,2.472,2.968,13.968,27.083,18.51,16.176,13.273,45.686,56.621,39.52,32.656,26.071,122.078,110.24,77.822,64.686,55.515],[-40.842,1.518,2.035,0.12,2.484,-35.269,3.246,2.55,-0.168,0.701,-34.4,4.322,3.479,4.106,2.801,-3.43,24.118,19.572,15.536,13.479,23.477,56.865,39.577,31.538,25.992,73.189,102.879,74.128,58.259,50.449],[-50.625,2.303,1.708,1.599,0.232,-48.762,-1.597,2.696,1.616,2.508,-42.864,3.227,5.92,4.257,2.009,-24.68,21.824,21.055,15.208,12.331,6.737,50.663,36.84,29.445,24.686,54.669,101.353,70.777,59.503,48.743]],
"vp": [[0.001,0.001,0.001,0.001,0.001,0.005,0.005,0.005,0.005,0.005,0.01,0.01,0.01,0.01,0.01,0.05,0.05,0.05,0.05,0.05,0.1,0.1,0.1,0.1,0.1,0.2,0.2,0.2,0.2,0.2],[0.001,0.001,0.001,0.001,0.001,0.005,0.005,0.005,0.005,0.005,0.01,0.01,0.01,0.01,0.01,0.05,0.05,0.05,0.05,0.05,0.1,0.1,0.1,0.1,0.1,0.2,0.2,0.2,0.2,0.2],[0.001,0.001,0.001,0.001,0.001,0.005,0.005,0.005,0.005,0.005,0.01,0.01,0.01,0.01,0.01,0.05,0.05,0.05,0.05,0.05,0.1,0.1,0.1,0.1,0.1,0.2,0.2,0.2,0.2,0.2],[0.001,0.001,0.001,0.001,0.001,0.005,0.005,0.005,0.005,0.005,0.01,0.01,0.01,0.01,0.01,0.05,0.05,0.05,0.05,0.05,0.1,0.1,0.1,0.1,0.1,0.2,0.2,0.2,0.2,0.2],[0.001,0.001,0.001,0.001,0.001,0.005,0.005,0.005,0.005,0.005,0.01,0.01,0.01,0.01,0.01,0.05,0.05,0.05,0.05,0.05,0.1,0.1,0.1,0.1,0.1,0.2,0.2,0.2,0.2,0.2],[0.001,0.001,0.001,0.001,0.001,0.005,0.005,0.005,0.005,0.005,0.01,0.01,0.01,0.01,0.01,0.05,0.05,0.05,0.05,0.05,0.1,0.1,0.1,0.1,0.1,0.2,0.2,0.2,0.2,0.2]]
}