{
"KTrans": [[0.169,0.204,0.093,0.307,0.26,-0.042,0.651,0.466,-0.106,0.502,2.45,0.825,-0.041,0.607,1.006,11.093,8.482,5.198,7.753,3.498,46.821,8.085,24.457,8.832,4.297,10.092,79.064,37.193,37.967,40.116],[-1.903,-0.452,-0.02,0.113,0.244,-2.112,-0.53,0.164,0.252,0.126,1.316,-0.407,-0.301,-0.177,0.042,17.625,-0.963,2.456,4.03,1.47,15.154,9.95,4.626,-1.732,7.189,-3.197,33.95,11.994,21.817,11.77],[8.972,-1.535,-0.668,-0.23,0.001,10.439,-1.21,-0.716,-0.237,0.12,2.138,-0.534,-0.244,0.035,-0.322,-20.803,0.091,0.137,-0.186,-0.762,-21.683,8.952,4.931,-2.438,-4.536,-28.285,-12.342,18.538,11.496,6.178],[-41.005,-1.62,-1.301,-0.637,-0.2,-51.081,-2.832,-0.761,-0.771,-0.056,-37.304,0.313,-0.964,-0.786,-0.301,-45.47,8.727,2.367,1.772,-0.658,-50.941,12.58,3.657,-2.684,5.302,-45.211,14.964,30.312,4.735,9.621],[-61.92,2.98,-2.709,-1.603,-0.823,-70.044,0.134,-2.028,-1.112,-1.263,-62.406,10.767,-2.736,-0.921,-0.386,-66.703,-7.525,-0.925,-1.709,-1.487,-61.469,-7.799,7.251,-2.844,-1.706,-69.839,-15.782,8.93,7.257,1.855],[-79.858,10.023,-1.806,-1.559,-0.967,-76.02,6.067,0.127,-1.087,-1.387,-74.468,12.828,0.64,-1.211,-1.503,-75.743,-19.306,-0.454,-0.043,-1.39,-72.807,-28.072,20.198,1.285,-1.469,-79.314,-26.317,21.434,14.922,5.401]],
"ve": [[0.079,-0.016,-0.102,-0.249,-0.34,-0.089,0.035,-0.159,-0.013,-0.496,1.128,0.123,0.102,-0.179,-0.62,5.241,5.06,9.982,8.789,53.228,14.639,2.228,-20.165,280.43,-85.853,16.068,41.757,-151.663,15.226,-94.699],[-0.893,-0.149,-0.013,0.021,0.012,-1.287,-0.266,0.058,0.058,-0.015,0.316,-0.268,-0.232,-0.138,-0.062,5.513,-1.488,0.871,1.495,0.394,12.198,3.975,1.561,-0.652,2.569,17.516,12.603,15.213,17.116,15.832],[0.875,-0.592,-0.253,-0.08,-0.001,0.321,-0.799,-0.234,-0.147,0.049,-0.988,0.126,-0.103,-0.01,-0.215,-22.21,-0.398,-0.355,-0.375,-0.62,-8.537,4.224,1.945,-2.394,-2.978,-35.12,7.855,14.15,4.974,2.198],[-25.981,-0.777,-0.551,-0.189,-0.041,-40.586,-1.359,-0.261,-0.227,-0.03,-24.348,-0.08,-0.394,-0.518,-0.121,-30.862,4.249,1.61,1.287,-0.598,-24.963,6.973,0.939,-2.526,2.976,-14.58,-3.583,17.253,0.605,4.019],[-43.771,-0.492,-1.089,-0.669,-0.33,-53.938,-1.298,-0.683,-0.465,-0.461,-43.685,0.961,-1.303,-0.434,-0.108,-49.379,-5.638,-0.693,-0.842,-1.15,-23.672,-6.921,1.6,-2.373,-1.654,-49.844,-11.884,-0.482,3.887,-0.296],[-55.425,-0.15,-1.29,-0.934,-0.453,-56.736,-0.152,-0.916,-0.7,-0.579,-43.726,0.674,-0.38,-0.787,-0.455,-55.062,-17.891,-2.448,-0.015,-1,-53.374,-14.463,4.283,-0.022,-1.491,-61.683,-15.521,4.783,8.565,3.025]],
"kep": [[0.278,0.412,0.388,0.754,0.8,0.135,0.792,0.836,0.154,1.288,1.191,0.815,0.144,1.189,2.194,-2.972,3.348,2.48,9.248,2.64,-10.215,-13.93,14.714,-2.262,-12.031,22.845,4.323,-22.553,-7.119,17.581],[-0.968,-0.114,0.185,0.284,0.425,-0.889,-0.104,0.287,0.383,0.33,0.866,-0.041,0.082,0.126,0.281,11.054,-1.684,0.64,2.165,0.903,-12.077,-3.202,-1.355,-3.585,3.55,-29.847,-24.673,-7.85,4.061,-0.324],[5.334,-0.79,-0.227,0.041,0.194,6.243,-0.294,-0.302,0.094,0.26,-0.487,-0.559,0.014,0.213,0.068,-39.062,-0.202,-0.223,-0.204,-0.341,-38.723,-0.205,-1.014,-2.452,-3.303,-47.636,-12.872,-7.35,-2.719,-2.012],[-33.2,-0.954,-0.579,-0.259,0.032,-47.639,-1.635,-0.328,-0.363,0.161,-34.428,0.212,-0.452,-0.108,-0.007,-53.678,3.465,0.336,0.257,-0.195,-67.014,-17.569,0.693,-2.259,1.087,-59.667,-14.33,1.534,-5.168,0.084],[-55.092,2.046,-1.535,-0.763,-0.305,-64.331,-0.12,-1.305,-0.48,-0.623,-59.237,7.43,-1.482,-0.336,-0.104,-67.587,-4.71,-0.678,-1.103,-0.528,-67.693,-29.432,4.104,-2.421,-1.261,-71.385,-35.013,-23.59,-4.453,-3.195],[-73.512,5.779,-0.727,-0.486,-0.335,-71.643,2.63,0.786,-0.284,-0.639,-69.589,8.148,0.642,-0.307,-0.893,-74.402,-33.849,0.972,-0.285,-0.508,-76.183,-43.026,16.92,0.192,-0.825,-77.226,-43.422,-14.259,3.139,-0.981]],
"vp": [[-10.386,-17.803,-23.943,-9.758,-12.647,2.188,-10.028,-9.704,5.049,-9.541,-14.128,-5.328,1.812,-4.727,-11.032,-5.181,-10.776,-6.553,-14.832,-4.451,-19.038,3.561,-19.569,-3.256,2.663,-12.904,-23.943,-6.989,-10.599,-14.99],[90.533,31.574,4.424,-22.447,-31.75,26.852,12.19,-4.735,-9.758,-4.594,-2.423,6.261,8.51,6.925,2.167,-11.435,7.44,-5.651,-16.055,-4.496,-12.524,-7.65,-2.548,10.512,-14.494,-8.816,-15.037,-2.097,-17.704,-7.299],[-69.467,118.818,81.736,36.537,0.431,-3.488,36.439,13.341,15.019,-6.675,6.74,-4.342,3.726,1.024,13.258,47.635,1.588,2.811,3.809,8.097,7.851,-8.986,-5.986,12.442,20.419,19.495,-7.646,-13.508,-9.277,-2.865],[2710.564,153.25,175.048,76.015,24.208,818.963,51.53,16.789,16.664,6.033,243.086,2.458,12.617,24.853,6.745,62.303,-18.261,-10.702,-12.117,7.108,24.324,-15.549,-2.54,11.728,-17.152,7.112,5.445,-27.805,-0.252,-10.393],[4409.183,122.497,314.91,274.383,178.447,1025.33,49.797,36.879,39.807,44.469,446.154,-10.664,38.814,19.09,5.965,100.932,21.329,3.902,6.576,13.288,21.43,13.527,-4.439,10.442,9.583,26.256,11.785,3.079,-8.514,1.363],[5449.294,59.236,401.865,415.185,254.798,1132.666,1.228,66.437,64.04,59.663,478.569,-9.435,14.976,35.549,20.038,115.464,72.665,15.461,-0.004,11.155,55.215,27.713,-13.241,0.273,8.379,31.662,15.334,-7.226,-18.744,-8.479]]
}