{
"KTrans": [[2.356,1.219,0.575,0.757,0.462,12.803,7.636,5.978,5.157,4.625,25.981,16.604,12.334,11.063,10.029,158.259,93.194,73.269,66.261,59.967,-46.089,198.69,165.025,146.012,132.588,191.017,153.76,236.77,218.42,261.621],[3.481,0.976,0.783,0.505,0.328,11.631,5.967,4.264,3.095,2.732,27.593,12.634,8.625,6.688,5.38,-35.749,67.372,47.393,39.408,31.121,66.953,166.452,102.343,81.117,63.392,41.134,-136.888,202.698,164.632,138.574],[2.45,2.065,1.318,0.724,0.494,22.348,6.615,3.998,3.131,2.492,38.727,12.753,8.295,6.023,4.848,-42.284,74.545,46.436,34.13,25.727,-38.155,-1.509,111.252,70.38,56.301,21.049,49.847,36.761,146.624,131.457],[14.382,1.49,1.521,0.605,0.781,23.034,10.114,5.766,2.754,2.575,30.109,9.922,9.098,6.475,4.688,-44.944,84.711,39.888,33.337,25.12,-36.062,-21.909,124.968,67.235,60.031,-9.426,-3.652,-106.097,204.997,115.737],[0.475,4.166,3.647,1.199,1.053,-24.007,13.319,4.282,3.102,2.026,-35.562,16.033,9.431,7.751,5.379,-37.038,102.211,52.779,33.854,24.373,-31.381,-3.047,145.788,73.757,56.904,-55.537,-27.014,-4.172,121.267,133.18],[-59.78,6.414,4.137,1.028,0.945,-68.215,15.073,2.921,3.894,3.48,-67.209,18.178,8.534,5.896,4.473,-74.2,16.595,51.402,35.777,23.968,-50.993,-41.175,92.021,76.082,52.101,-55.618,-1.937,-54.494,8.57,159.227]],
"ve": [[0.829,-0.122,-0.707,-1.318,-1.727,4.26,0.41,-1.787,-3.483,-4.84,8.645,1.339,-2.574,-5.529,-8.11,46.352,13.886,-0.953,-11.081,-18.504,95.114,38.327,10.409,-4.692,-16.849,188.21,75.959,27.063,10.238,-6.655],[1.217,0.501,0.276,0.087,-0.065,5.129,2.431,1.4,0.783,0.343,10.274,4.851,2.81,1.642,0.846,51.073,24.126,14.776,9.546,5.727,97.857,50.119,30.094,19.985,12.811,196.221,97.07,53.946,44.184,30.206],[0.949,0.681,0.446,0.278,0.166,5.769,2.672,1.676,1.18,0.83,10.442,5.145,3.31,2.294,1.674,50.462,25.204,16.458,11.707,8.639,99.273,50.102,33.448,23.543,17.428,200.213,99.6,63.712,48.002,37.328],[1.431,0.606,0.491,0.31,0.27,5.641,2.908,1.942,1.259,1.001,10.843,4.968,3.514,2.554,1.904,52.752,25.368,16.395,12.398,9.503,102.809,50.228,33.438,24.255,19.458,205.288,103.956,66.318,52.96,38.503],[2.125,0.771,0.702,0.386,0.329,3.044,3.14,1.783,1.339,1.008,9.314,5.327,3.598,2.744,2.086,77.136,25.892,16.888,12.636,9.778,98.646,50.317,33.632,25.097,19.801,203.234,101.855,68.035,49.894,39.731],[-0.412,0.711,0.705,0.363,0.332,11.362,2.926,1.647,1.418,1.195,11.222,5.286,3.432,2.599,2.053,51.46,26.562,16.79,12.855,9.933,99.696,52.506,44.456,24.786,19.796,201.405,100.217,63.551,51.263,40.112]],
"kep": [[3.018,2.844,2.793,3.623,3.758,9.783,8.787,9.51,10.577,11.593,17.611,16.779,17.033,19.33,21.548,77.151,71.925,77.573,90.028,99.597,-59.446,121.58,143.812,162.752,184.636,19.768,45.172,148.108,175.344,268.872],[3.658,1.957,1.995,1.904,1.879,7.622,4.976,4.346,3.808,3.897,17.057,8.985,7.216,6.519,6.043,-51.667,36.205,30.112,29.071,25.836,-9.146,77.141,56.938,52.762,46.852,-42.523,-102.211,85.32,85.808,85.241],[2.45,2.833,2.355,1.931,1.813,16.611,5.322,3.79,3.437,3.154,26.077,8.725,6.359,5.176,4.648,-56.66,40.04,27.23,21.709,17.377,-62.849,-27.489,58.66,39.276,34.786,-53.672,-15.731,-10.648,67.062,69.438],[12.412,2.222,2.486,1.772,1.996,16.206,8.379,5.249,2.97,3.06,16.884,6.062,6.9,5.346,4.248,-60.139,47.211,21.489,20.18,15.849,-63.252,-42.271,67.913,35.788,35.376,-65.003,-45.618,-90.397,99.417,56.224],[-1.586,4.534,4.355,2.273,2.203,-28.033,11.06,3.871,3.216,2.494,-41.071,11.277,7.076,6.383,4.738,-55.905,59.124,31.546,20.304,14.826,-61.957,-32.382,81.608,39.715,32.299,-81.201,-57.867,-35.746,47.699,66.344],[-58.867,6.255,4.726,2.084,2.073,-68.618,12.531,2.554,3.887,3.741,-68.509,12.852,6.197,4.66,3.855,-80.198,-6.847,30.208,21.662,14.252,-72.799,-57.422,42.857,41.456,28.26,-82.072,-46.428,-65.717,-22.269,83.229]],
"vp": [[-35.541,-27.904,-33.047,-24.219,-37.034,-13.447,-7.172,-2.518,-1.191,-16.682,-21.256,18.349,-8.502,-13.842,-7.187,-36.003,-5.467,-7.272,0.206,-5.835,-24.679,-2.698,-4.135,5.626,-9.53,-43.791,14.315,-7.754,7.781,9.481],[144.787,36.055,-29.668,-29.863,-49.482,8.951,-6.86,-15.231,-20.003,-14.049,16.76,23.59,-14.117,-1.79,-18.517,-13.316,-12.14,-12.946,25.093,2.909,-49.32,-17.306,-24.96,2.653,-18.567,-35.221,-23.969,-25.489,-3.384,-12.567],[485.802,223.607,121.673,16.993,-11.777,36.598,21.817,32.541,8.199,-15.42,35.205,19.282,6.72,-1.602,-34.617,9.548,7.526,8.621,5.204,-17.936,-28.7,-27.315,2.458,-25.805,-22.734,-24.692,-44.74,-49.851,-43.341,-15.955],[548.92,480.463,312.219,134.262,125.982,154.463,129.424,67.925,24.36,25.536,119.359,41.44,40.545,14.928,11.176,30.224,0.076,-14.234,16.92,1.992,2.837,-27.309,-8.38,-16.713,5.327,-14.599,-40.141,-22.51,3.819,-25.667],[2758.073,726.268,596.98,405.461,266.173,602.786,145.208,102.143,79.261,26.16,297.045,88.428,46.702,50.958,18.044,27.08,3.94,6.631,11.297,-1.69,-4.781,-6.257,-8.553,0.851,2.751,-12.86,-5.113,-21.802,-18.65,-17.301],[3856.424,865.483,726.921,652.129,342.934,912.299,266.343,133.904,144.056,87.175,363.49,92.818,67.199,36.566,10.591,82.121,25.952,-0.714,24.913,12.751,0.549,26.128,-20.833,-17.307,-11.287,-14.342,-15.971,-4.044,-19.774,-5.008]]
}