{
"KTrans": [[2.55,6.817,13.495,6.904,-1.421,7.534,10.472,6.641,15.039,2.184,16.93,16.314,25.91,22.59,18.103,-15.826,55.217,77.002,86.757,93.147,3.785,81.959,102.991,107.869,120.11,53.055,-188.05,8.132,-0.047,59.114],[-33.751,-11.635,1.754,2.259,1.031,-34.943,-6.831,2.344,8.84,5.768,-31.024,-12.139,0.946,10.891,10.312,-32.915,-3.734,6.703,22.981,33.455,-70.049,-31.599,-11.51,10.502,41.106,-116.496,-63.67,-50.447,-30.879,40.439],[-49.318,-18.542,-9.007,-5.508,1.492,-53.535,-18.482,-7.381,-6.396,2.999,-48.992,-13.556,-4.655,-1.967,2.326,-33.874,6.479,3.467,14.337,3.142,-16.985,-3.146,-8.698,-12.761,-16.546,-85.113,-140.402,-70.15,9.895,-39.329],[-64.408,-25.73,-11.629,-5.23,-2.062,-62.448,-21.743,-7.237,-1.485,-0.204,-57.364,-13.313,0.146,-0.452,-1.185,-52.226,-3.08,12.026,20.489,10.765,-50.928,-47.943,-13.435,44.642,11.052,-115.466,-20.719,16.152,-20.378,5.121],[-69.542,-29.507,-10.885,-5.528,-3.409,-69.441,-23.048,-11.009,-2.954,0.235,-62.549,-23.936,-6.087,2.924,3.978,-60.703,-6.584,15.025,26.034,22.626,-69.818,-31.583,3.14,49.912,36.943,-89.253,-52.054,-58.497,15.725,11.255],[-77.472,-34.811,-16.374,-4.756,-5.6,-77.374,-32.736,-16.235,-4.389,-2.698,-76.584,-35.656,-3.396,-1.796,4.555,-77.722,-24.34,5.323,20.817,19.37,-64.142,-23.101,29.542,34.933,43.325,-75.529,-59.205,-72.87,-5.547,-2.117]],
"ve": [[1.214,-13.236,-37.789,8.724,-46.889,-50.635,7.02,179.409,19.188,-57.427,24.513,-6.079,-20.542,244.572,-457.615,41.25,1.036,-8.543,-33.132,-43.386,264.635,24.035,22.606,-51.43,16.222,187.424,82.802,16.471,0.313,-18.723],[22.416,-5.333,-14.291,-63.522,0.411,174.214,4.738,3.857,-1.259,81.646,5.646,3.661,5.017,-38.201,209.233,30.955,7.419,13.577,6.517,6.921,102.309,46.566,34.815,32.259,2.404,156.917,106.133,67.15,44.041,45.703],[-28.759,-5.043,-7.276,-3.843,-13.724,-4.744,5.266,-1.719,3.443,-57.727,51.097,-2.776,25.611,0.508,2.061,12.486,15.884,18.047,-6.909,1.911,95.739,46.437,32.805,23.693,-17.445,198.87,94.475,66.571,48.22,40.568],[-27.279,-13.984,-4.579,6.467,-6.614,8.556,131.455,-2.32,-3.663,-8.619,3.867,1.496,-2.926,5.303,7.417,52.658,20.773,-2.888,-4.357,13.465,86.115,32.188,35.032,23.214,13.204,226.756,101.772,74.052,51.208,39.623],[-17.791,-3.333,-1.825,-2.63,-5.21,-25.935,-9.456,-2.468,-1.041,-1.124,-34.991,1.191,4.454,0.77,0.148,135.654,20.406,12.973,10.81,8.771,57.558,44.085,30.508,27.438,17.443,190.573,98.744,64.673,50.089,44.063],[-0.449,-3.44,-1.502,-1.364,-1.535,-18.925,-2.19,-2.759,-1.449,-0.462,-6.266,-0.447,1.268,1.1,0.406,44.326,23.564,13.655,11.983,7.915,113.691,44.85,31.482,23.014,19.366,174.273,97.794,64.062,49.316,44.648]],
"kep": [[-120.484,-83.716,-63.994,-64.822,-30.152,-126.205,-96.633,-41.18,-79.336,-20.636,-113.872,-95.751,-102.693,-52.912,-63.08,-165.04,-223.43,-206.63,-223.697,-185.058,-134.991,-250.352,-334.664,-347.342,-422.466,-47.095,-315.356,-459.1,-630.092,-697.293],[-82.532,-90.895,-128.913,-75.63,-15.189,-83.436,-81.326,-112.212,-103.718,-30.944,-83.448,-94.001,-129.889,-89.757,-44.278,-90.671,-99.772,-169.432,-178.604,-110.376,-98.043,-110.104,-149.058,-237.541,-203.554,-89.845,-90.125,-161.423,-222.333,-244.109],[-78.379,-48.604,-48.45,-84.395,-119.12,-85.559,-51.697,-44.357,-92.65,-119.783,-81.772,-49.253,-48.65,-75.959,-126.431,-76.152,-42.543,-50.274,-62.673,-149.608,-75.659,-48.832,-75.278,-102.266,-182.12,-91.117,-102.74,-90.27,-31.157,-129.342],[-84.549,-47.648,-27.015,-26.67,-39.477,-85.574,-44.118,-23.938,-19.505,-32.692,-82.147,-39.327,-19.542,-20.933,-32.769,-85.46,-48.212,-25.362,-9.567,-24.437,-81.989,-83.166,-53.794,4.726,-45.465,-97.038,-55.462,-43.093,-56.092,-35.056],[-87.054,-48.577,-22.437,-16.151,-16.254,-87.469,-42.069,-26.461,-10.851,-11.234,-83.043,-45.995,-24.121,-6.924,-2.412,-87.026,-44.273,-16.792,4.471,11.544,-89.985,-66.456,-39.789,8.907,7.092,-92.85,-68.864,-73.278,-37.638,-39.266],[-90.941,-50.884,-23.816,-13.65,-13.163,-91.815,-51.822,-29.607,-11.403,-9.633,-92.308,-54.986,-16.973,-11.546,-2.476,-93.632,-53.985,-22.552,0.467,4.541,-87.337,-60.661,-11.388,-4.32,14.544,-91.246,-74.11,-76.44,-46.697,-39.184]],
"vp": [[-321.305,499.179,397.688,705.851,417.666,-106.629,25.242,-33.868,95.644,59.741,-16.035,-1.663,-24.358,0.69,32.245,-0.789,22.006,1.655,-12.868,-20.117,-4.542,-11.562,-0.412,4.081,6.107,-20.88,12.715,-15.518,12.038,5.223],[3243.596,1399.572,-574.018,187.743,-46.347,640.105,124.792,11.62,-47.757,127.219,244.921,50.152,7.478,-62.59,82.448,14.728,16.41,1.65,-14.55,14.359,8.84,2.32,-4.826,11.112,-6.888,8.399,-5.875,1.178,-0.717,-12.821],[4462.695,2884.978,1934.164,348.028,-551.581,984.563,746.315,386.502,57.637,37.303,458.451,322.382,236.299,79.078,-1.468,42.915,34.859,11.99,29.638,9.813,52.162,4.196,-7.123,-8.95,15.738,14.696,0.412,-12.832,-17.714,-8.557],[5147.735,4909.191,1826.591,2110,1635.443,1192.48,1016.599,741.087,94.604,166.23,532.547,611.135,365.364,199.745,-4.076,108.344,118.048,46.352,33.44,19.909,31.382,38.612,16.616,6.629,-26.094,15.964,3.289,-2.913,-22.438,-6.689],[7193.589,7898.973,5052.754,2424.717,932.808,1292.361,1606.387,949.455,440.738,313.413,621.433,780.798,447.015,216.301,206.523,130.331,141.177,91.672,43.745,28.333,47.511,70.517,22.985,12.048,-14.756,27.748,4.12,-1.919,-2.125,13.011],[6803.645,7786.876,6151.793,3436.255,2349.573,1417.262,1759.314,1197.037,553.1,357.309,665.121,935.507,711.138,301.587,185.339,164.522,158.86,100.013,44.483,43.081,53.826,85.375,37.263,23.228,-0.977,16.933,16.855,13.882,-15.364,6.064]]
}