{
"KTrans": [[8.322,12.085,11.6,10.354,12.447,14.928,10.483,9.96,10.696,9.684,10.639,11.567,13.466,13.791,11.418,19.262,21.087,25.478,24.413,13.901,41.807,28.757,29.148,26.516,38.262,77.549,68.605,73.45,74.607,59.893],[-32.338,-2.926,-0.019,2.62,5.578,-43.607,-5.354,1.855,4.273,7.868,-45.106,-6.966,2.119,3.988,7.148,-30.062,0.591,7.878,6.776,11.78,-9.996,2.871,8.53,11.151,15.155,-20.726,13.259,23.037,25.523,23.134],[-65.849,-23.097,-10.563,-2.195,0.022,-70.886,-17.317,-10.501,-3.565,0.819,-75.024,-22.889,-7.599,-2.883,-0.949,-66.973,-19.72,-7.236,0.335,1.678,-55.67,-16.968,-7.039,0.553,4.944,-31.575,-16.176,7.362,15.043,13.043],[-83.099,-38.755,-23.195,-11.976,-7.868,-85.641,-35.132,-19.738,-11.816,-6.356,-83.301,-33.795,-20.723,-13.533,-6.626,-82.639,-39.576,-19.182,-8.75,-3.569,-69.905,-35.099,-18.383,-8.433,0.875,-68.715,-40.114,-12.408,-3.396,6.45],[-90.245,-54.217,-30.276,-22.407,-14.327,-88.794,-52.821,-32.554,-21.06,-12.633,-91.599,-51.142,-33.094,-21.39,-13.055,-83.66,-56.217,-34.554,-20.854,-13.189,-81.439,-52.101,-31.261,-21.398,-10.003,-76.287,-50.395,-30.954,-9.708,-6.398],[-93.406,-65.004,-41.199,-30.146,-20.733,-92.38,-65.361,-45.743,-31.421,-20.704,-93.054,-67.947,-41.882,-29.563,-21.481,-87.541,-64.939,-40.747,-31.837,-18.348,-87.003,-66.883,-42.891,-31.43,-15.818,-83.065,-59.384,-43.216,-25.033,-18.884]],
"ve": [[7.473,2.888,34.402,64.025,115.271,13.485,12.682,4.127,-418.52,86.834,-2.646,13.456,17.645,11.918,-5.539,31.45,33.03,44.44,17.498,110.003,-37.847,45.762,18.003,197.515,191.299,1539.666,-59.825,534.227,-127.912,-63.194],[-8.697,-0.813,1.301,1.784,3.913,-18.826,-1.191,1.522,2.779,4.532,-19.684,-1.134,1.877,3.782,4.485,3.037,4.009,5.607,5.332,5.501,23.07,7.46,7.137,7.924,8.443,14.35,26.039,18.19,16.3,16.41],[-33.487,-7.724,-3.359,-1.584,-0.072,-31.603,-7.869,-3.456,-0.887,0.642,-37.273,-7.88,-2.774,-0.695,0.92,-43.168,-2.583,0.183,1.251,1.959,-10.706,0.458,2.832,3.594,4.228,43.945,-89.329,14.477,13.609,9.72],[-49.443,-16.251,-8.184,-4.553,-2.392,-107.251,-14.953,-7.566,-4.102,-2.563,-49.148,-11.484,-7.339,-3.776,-2.085,-41.883,-14.385,-2.807,-1.512,0.181,-17.086,-2.177,-1.016,0.379,3.853,0.341,-4.658,6.09,7.267,8.896],[-54.801,-23.301,-10.917,-8.493,-5.187,-57.13,-21.761,-12.423,-7.125,-4.602,-45.067,-22.765,-12.007,-7.012,-3.902,-40.597,-21.248,-11.376,-5.04,-3.574,-4.766,-11.752,-5.436,-3.708,-0.103,-2.411,-11.157,-0.607,8.386,4.063],[-61.266,-32.379,-17.548,-11.171,-7.803,-64.324,-31.266,-17.558,-11.424,-7.373,-50.043,-31.784,-17.199,-10.946,-8.123,-49.515,-24.043,-12.467,-8.745,-5.044,-29.988,-23.184,-12.199,-8.156,-2.705,3.511,-8.978,-7.442,1.363,-1.421]],
"kep": [[-18.44,-15.553,-15.865,-23.691,-23.476,-15.68,-16.245,-19.775,-22.147,-27.376,-21.104,-17.065,-14.037,-18.102,-28.13,-20.528,-13.989,-6.877,-8.283,-27.258,-27.672,-17.18,-13.86,-16.361,5.425,-39.372,-15.193,5.006,15.671,5.827],[-43.04,-21.59,-20.681,-18.764,-18.054,-49.17,-23.584,-19.38,-18.261,-16.854,-50.34,-25.086,-19.365,-19.21,-17.199,-51.428,-23.426,-18.086,-18.708,-14.693,-50.064,-26.586,-19.818,-17.742,-14.863,-62.935,-34.071,-20.357,-15.456,-14.85],[-68.894,-34.37,-25.998,-20.301,-19.57,-71.276,-29.508,-25.788,-21.865,-19.472,-74.107,-33.846,-24.177,-21.587,-21.151,-73.446,-35.218,-26.27,-20.741,-20.003,-73.418,-37.321,-28.904,-22.781,-19.532,-72.637,-49.336,-28.294,-21.003,-19.256],[-82.314,-43.151,-33.368,-26.181,-24.188,-83.326,-40.97,-30.866,-26.272,-22.877,-82.244,-42.393,-31.792,-28.003,-23.481,-84.186,-46.106,-34.107,-25.887,-22.87,-81.359,-49.499,-35.437,-27.653,-22.391,-81.361,-63.631,-39.417,-29.846,-23.118],[-88.708,-54.256,-38.015,-32.115,-27.467,-89.094,-53.517,-38.9,-32.011,-26.558,-89.273,-51.572,-39.779,-32.438,-27.421,-87.07,-58.053,-42.098,-33.383,-27.98,-87.806,-59.388,-43.125,-35.461,-28.178,-84.382,-69.331,-47.394,-34.922,-29.495],[-92.189,-61.691,-44.18,-37.241,-31.122,-92.007,-61.868,-48.077,-38.089,-31.425,-91.54,-64.516,-44.804,-36.861,-31.532,-89.527,-65.724,-46.701,-40.383,-31.192,-90.397,-69.746,-49.665,-41.011,-31.202,-89.324,-72.885,-55.185,-42.974,-35.812]],
"vp": [[124.932,-142.228,-273.956,-322.053,-505.195,-58.196,-73.307,10.959,-82.098,-67.157,-40.338,-28.146,-14.96,-43.468,-48.558,-7.838,-2.382,-9.686,-22.191,4.013,-5.726,0.831,0.415,0.785,-11.458,-1.916,-3.628,-8.673,-11.792,-3.62],[1309.194,104.514,-13.85,-4.242,-439.498,495.011,103.695,-40.639,-76.483,-117.337,265.316,36.257,-41.405,-23.939,-62.288,23.944,2.402,-13.784,-1.624,-17.287,-8.056,6.725,2.873,-1.576,-10.891,15.081,4.302,-4.836,-8.99,-3.732],[3924.564,1829.371,1022.347,347.748,99.597,882.356,289.757,192.261,94.219,-20.874,498.956,170.463,72.54,25.402,25.42,82.446,29.225,15.25,3.94,3.63,31.311,17.985,8.336,5.241,1.541,-8.871,13.663,-5.518,-12.124,-2.045],[6453.855,3746.309,2515.893,1680.539,1411.143,1295.184,670.998,440.72,305.565,188.184,605.166,262.061,213.996,163.054,91.184,125.545,86.223,31.162,21.68,11.69,40.296,22.581,21.107,16.474,-7.567,24.698,24.701,8.366,2.629,-8.269],[6951.658,5610.302,3379.339,3294.132,2384.226,1441.179,1037.368,814.044,589.841,423.529,780.647,544.56,412.818,285.944,176.965,120.12,124.316,95.47,56.538,50.417,61.363,54.702,38.134,34.953,13.094,25.218,27.204,22.419,-5.032,6.664],[7849.186,7702.671,5687.435,4625.147,3847.569,1484.478,1481.549,1206.878,985.039,749.63,762.387,801.693,599.418,462.079,417.12,125.616,139.047,95.295,96.152,57.608,57.938,89.136,61.88,55.589,26.457,24.472,26.524,34.475,12.532,22.959]]
}