{
"KTrans": [[-1.788,5.688,-6.327,4.237,-0.511,5.708,14.819,6.671,10.509,11.758,13.159,21.337,24.025,25.366,17.226,64.742,74.449,90.876,91.824,93.005,-31.967,59.028,119.492,140.953,147.483,-195.818,-153.279,43.563,116.521,148.489],[-35.427,-10.709,1.11,2.931,0.149,-31.305,-6.565,1.138,7.511,7.495,-28.933,-4.966,3.289,10.026,9.82,16.211,28.653,17.892,28.838,38.979,62.599,73.331,24.36,29.175,52.086,-57.989,64.135,12.551,-23.348,33.816],[-47.013,-14.364,-5.1,-4.316,-0.716,-45.234,-12.889,-4.66,-2.335,1.975,-40.576,-6.194,-0.506,-1.85,1.421,-2.651,34.419,38.501,17.202,10.836,5.408,98.93,83.252,37.75,0.997,-11.603,107.381,64.51,-32.492,13.774],[-56.845,-18.228,-5.773,-4.082,-3.678,-55.033,-15.117,-2.038,0.677,-1.369,-54.818,-13.367,1.956,1.77,1.264,-24.938,29.689,34.341,31.314,28.162,-17.983,73.393,97.104,72.095,46.595,-93.503,74.615,186.932,134.482,111.763],[-64.599,-22.261,-6.458,-1.444,-2.174,-63.437,-18.478,-4.398,1.481,-1.097,-59.061,-12.731,-1.374,1.863,2.87,-49.705,22.73,34.654,34.398,25.783,-34.084,67.237,71.117,64.3,64.6,-40.103,134.234,201.335,150.695,127.795],[-70.506,-27.329,-9.459,-4.487,-2.08,-67.752,-23.162,-8.251,0.425,0.1,-65.125,-20.204,-1.065,2.727,2.599,-42.526,14.799,22.481,26.991,21.868,-37.96,48.4,69.594,72.75,51.136,-115.872,92.625,138.856,156.75,150.584]],
"ve": [[-4.405,-6.212,-3.052,-37.723,1.844,49.348,-7.72,-1354.933,13.234,-10.164,42.381,22.536,2.555,97.251,-66.594,36.902,62.799,180.345,-54.373,95.652,92.451,28.6,-80.975,-36.425,-44.248,194.89,81.513,32.027,-0.173,-16.12],[-9.616,14.402,4.545,25.474,-15.934,3.052,-8.634,-57.762,28.664,18.236,12.44,-25.304,-12.249,-10.617,3.727,40.555,34.311,20.178,-14.807,16.914,89.095,36.236,35.45,18.912,9.856,194.243,102.436,63.843,44.783,28.708],[-8.984,-9.876,-24.41,17.861,-0.108,-5.252,-3.505,-4.935,5.79,1.557,15.154,-1.484,-11.429,-14.362,-2.131,57.675,19.762,17.362,56.504,10.314,97.888,42.359,23.439,23.707,17.837,201.261,103.559,66.28,48.843,38.677],[-11.056,-1.696,-1.613,-4.581,-2.737,-2.996,-0.865,-0.628,0.199,-6.229,0.058,2.441,1.059,1.355,-1.169,46.385,23.509,16.067,11.031,9.518,96.711,47.582,32.93,24.234,19.647,202.117,93.587,67.772,47.566,37.758],[-15.885,-4.094,-1.304,-1.141,-0.577,-9.757,-0.634,1.032,-0.191,-0.187,8.986,2.014,1.835,1.714,1.009,54.571,21.339,15.967,11.938,9.089,99.001,40.649,30.92,24.716,19.823,194.343,100.93,66.423,64.798,38.42],[-0.561,-2.233,-0.368,-0.374,-0.542,-0.745,-0.666,-0.771,0.736,0.246,3.79,3.378,2.125,1.952,1.25,42.357,22.323,15.573,11.492,9.139,180.712,47.629,31.612,24.741,19.745,199.202,99.217,65.289,46.525,39.765]],
"kep": [[-122.341,-58.339,7.337,-21.016,-30.311,-115.168,-67.333,-24.002,-34.153,-39.142,-129.025,-96.305,-72.925,-59.619,-35.834,-118.441,-198.111,-196.453,-172.239,-200.244,-207.342,-331.227,-358.658,-351.893,-378.691,-225.803,-543.19,-564.439,-628.503,-737.546],[-74.186,-71.434,-120.819,-50.452,-11.52,-70.812,-69.553,-124.478,-68.399,-18.236,-73.164,-68.986,-127.815,-74.357,-39.387,-54.453,-45.127,-123.393,-166.511,-111.591,-49.517,-21.418,-135.26,-247.231,-209.495,-103.534,-79.775,-120.031,-338.162,-379.924],[-70.008,-37.711,-32.467,-64.162,-121.406,-71.649,-36.22,-32.099,-66.504,-116.185,-69.559,-29.384,-22.363,-64.298,-134.813,-55.337,-3.824,12.963,-42.219,-128.466,-67.343,13.293,37.764,-34.282,-179.333,-84.416,-20.527,-30.872,-146.701,-121.403],[-74.796,-34.595,-14.17,-19.827,-25.42,-75.82,-29.565,-12.775,-9.444,-24.584,-75.451,-30.655,-12.088,-9.076,-15.924,-65.78,-7.244,12.318,21.12,24.791,-74.994,4.538,46.548,49.634,25.141,-102.392,-32.684,66.121,63.277,66.508],[-78.97,-34.399,-13.823,-6.369,-7.379,-79.197,-30.797,-11.562,-3.974,-9.792,-77.389,-25.883,-11.934,-7.313,-0.968,-79.556,-14.794,12.145,25.63,19.924,-79.802,-2.369,22.683,36.353,55.287,-85.605,-1.587,73.723,69.578,79.742],[-83.403,-36.681,-15.809,-10.798,-4.406,-80.861,-36.982,-17.473,-4.526,-1.77,-80.904,-35.759,-10.559,-2.033,-2.894,-73.51,-19.286,0.115,11.235,13.436,-78.479,-12.844,21.598,39.321,31.183,-109.599,-24.766,32.003,70,91.871]],
"vp": [[-114.651,414.642,373.221,83.386,-45.402,72.994,-63.448,-44.623,44.131,16.561,-21.065,-48.026,59.58,-4.343,-6.911,-0.621,1.79,-2.104,-2.113,-25.379,0.905,2.236,9.442,-3.875,-2.598,-0.607,-3.238,-1.69,-2.051,3.265],[2783.372,1429.562,39.376,-281.427,109.149,633.086,192.684,72.914,-54.604,-8.733,264.172,81.035,-18.291,-15.809,30.718,34.187,23.656,-9.815,-20.568,-2.051,20.196,-0.768,-2.999,0.603,-5.038,2.315,2.032,-2.517,-4.203,-4.399],[5033.162,2278.074,1395.251,738.489,103.193,893.827,473.485,237.101,185.104,-45.881,507.546,212.614,90.23,75.72,9.037,75.739,29.04,11.389,28.162,-3.402,46.58,19.092,-4.281,3.093,2.057,15.652,8.806,-9.019,-6.291,-4.642],[6200.563,4434.301,2158.723,1009.608,972.887,1228.63,712.253,439.649,173.144,146.616,599.142,482.182,251.002,104.794,18.019,102.349,84.246,44.38,8.114,16.545,61.769,35.242,28.521,-4.819,-0.101,14.69,17.611,2.483,-2.638,-1.634],[6594.769,6669.932,2775.186,1649.373,421.586,1363.608,1276.613,570.855,293.618,36.993,662.857,623.731,260.368,72.958,93.062,138.879,113.092,87.71,22.988,15.097,60.484,75.326,28.659,8.657,5.114,16.908,11.461,11.328,-3.634,-4.69],[7409.494,8007.954,5684.615,2404.876,893.89,1470.383,1692.418,806.262,451.531,180.505,738.708,863.327,480.412,183.671,150.55,134.908,188.578,72.556,42.834,-5.491,68.092,63.23,40.665,36.659,-2.286,31.774,38.963,16.625,7.594,12.317]]
}