{
"KTrans": [[-1.086,-1.683,-0.584,-0.419,-0.379,-3.809,-3.614,-1.246,0.054,-0.033,-5.705,-2.184,0.045,2.205,-0.517,-16.388,-9.123,-5.663,-6.733,-5.7,-32.366,-17.369,-12.785,-14.234,-11.052,-58.078,-34.414,-26.573,-25.198,-23.47],[-26.074,0.872,-0.348,-0.159,-0.204,-29.224,-1.037,0.102,-1.065,-0.276,-31.12,-2.751,-1.485,-1.192,-0.26,-37.847,-8.407,-6.321,-4.088,-3.064,-50.296,-15.598,-9.463,-8.811,-7.309,-72.653,-30.898,-22.009,-17.071,-14.267],[-43.626,-4.36,-0.725,0.19,0.34,-54.474,-3.712,-0.7,-1.325,-1.286,-55.289,-4.202,-0.858,-0.603,-0.097,-61.788,-13.737,-5.588,-4.603,-3.31,-70.19,-21.525,-12.637,-7.407,-7.381,-85.748,-37.026,-22.543,-17.283,-13.776],[-72.317,-8.499,1.216,0.376,0.049,-74.331,-8.072,-0.15,0.209,-0.971,-75.857,-8.245,-2.448,-0.018,-0.627,-80.086,-14.66,-6.313,-5.163,-3.537,-85.149,-24.857,-13.001,-9.323,-7.063,-92.688,-43.82,-25.056,-16.506,-13.028],[-82.064,-11.673,-1.716,0.343,0.648,-84.684,-13.023,-2.913,2.026,0.433,-80.968,-15.308,-3.768,-1.498,-0.394,-89.565,-24.334,-7.489,-4.104,-2.558,-91.838,-33.311,-13.185,-8.482,-6.565,-96.68,-48.662,-25.685,-18,-12.361],[-91.638,-20.125,-1.554,-0.451,0.265,-92.578,-23.504,-4.02,0.659,-0.343,-91.606,-23.706,-5.389,-0.212,-0.964,-93.776,-29.501,-9.187,-4.745,-2.869,-96.602,-37.967,-16.241,-9.188,-7.265,-98.838,-56.608,-27.188,-18.252,-13.92]],
"ve": [[2.087,3.107,4.203,4.341,7.27,0.094,3.251,2.47,3.538,8.73,0.951,2.111,1.769,2.246,6.985,-1.345,2.54,5.627,11.392,12.369,-7.572,2.65,8.925,19.181,39.533,-12.922,15.239,0.734,80.24,488.158],[-10.235,0.62,-0.449,0.15,0.251,-10.912,-0.243,-0.321,0.321,0.112,-14.139,-1.04,-0.293,0.135,0.003,-17.235,-3.896,-2.628,-1.514,-0.258,-24.617,-6.45,-3.334,-1.855,-0.722,-42.942,-12.714,-7.239,-4.244,-1.44],[-17.185,-1.817,-0.286,-0.36,0.094,-23.865,-1.795,-0.61,-0.606,-0.202,-26.324,-2.304,-0.953,-0.526,-0.168,-33.095,-5.879,-2.374,-1.613,-1.254,-39.429,-10.585,-5.313,-3.441,-2.094,-55.633,-18.322,-9.926,-7.173,-4.514],[-38.139,-3.783,0.092,-0.64,-0.126,-38.207,-3.991,-0.317,-0.166,-0.182,-41.373,-3.902,-0.615,0.062,-0.265,-45.187,-7.986,-3.049,-2.424,-1.41,-52.803,-11.422,-5.704,-3.994,-2.827,-73.959,-23.494,-12.277,-8.028,-5.49],[-44.478,-5.01,-0.832,-0.314,0.34,-48.676,-6.215,-0.976,0.13,-0.04,-45.84,-7.336,-1.687,-0.536,-0.363,-57.258,-10.079,-3.846,-2.226,-1.358,-63.411,-17.734,-6.721,-4.46,-2.932,-72.837,-26.216,-13.313,-9.233,-5.882],[-62.973,-10.106,-1.107,-0.356,-0.143,-58.312,-11.833,-1.771,-0.482,-0.154,-350.83,-11.207,-3.161,-0.955,-0.636,-70.13,-14.245,-4.453,-2.424,-2.051,-73.025,-20.232,-8.313,-4.935,-3.678,-78.266,-32.447,-15.218,-8.869,-6.394]],
"kep": [[-1.492,-3.351,-1.911,-0.435,-2.23,-3.619,-4.708,-1.736,-0.825,0.111,-5.75,-3.076,0.663,3.895,-1.659,-14.721,-10.076,-7.526,-11.725,-10.843,-25.855,-17.978,-16.821,-23.768,-22.321,-51.162,-37.362,-36.349,-45.508,-50.679],[-18.407,0.351,0.085,-0.229,-0.343,-20.668,-0.808,0.501,-1.289,-0.266,-21.141,-1.707,-1.138,-1.226,-0.147,-25.827,-4.654,-3.791,-2.547,-2.71,-34.99,-9.789,-6.25,-7.022,-6.537,-54.069,-21.045,-15.958,-13.359,-12.869],[-33.876,-2.652,-0.469,0.552,0.25,-42.143,-2.086,-0.123,-0.683,-1.079,-42.147,-1.99,0.103,-0.086,0.085,-47.107,-8.383,-3.297,-3.003,-2.06,-53.163,-12.458,-7.757,-4.131,-5.384,-72.808,-23.028,-14.117,-10.928,-9.721],[-59.45,-5.323,1.097,1.009,0.146,-61.933,-4.47,0.086,0.359,-0.777,-61.949,-4.515,-1.856,-0.086,-0.363,-67.018,-7.563,-3.427,-2.786,-2.157,-73.363,-15.341,-7.828,-5.541,-4.364,-83.46,-27.006,-14.723,-9.305,-7.981],[-71.007,-7.26,-0.928,0.596,0.307,-73.214,-7.654,-2.066,1.869,0.454,-68.298,-9.141,-2.222,-0.995,-0.041,-79.58,-16.285,-3.855,-1.93,-1.219,-82.683,-19.193,-6.984,-4.24,-3.767,-93.448,-30.969,-14.459,-9.745,-6.938],[-82.268,-11.544,-0.546,-0.139,0.394,-84.571,-14.154,-2.302,1.126,-0.22,-83.062,-14.857,-2.371,0.708,-0.352,-86.159,-18.128,-5.035,-2.413,-0.867,-90.777,-22.661,-8.796,-4.573,-3.735,-99.565,-36.674,-14.296,-10.448,-8.111]],
"vp": [[150.142,-13.481,-22.152,28.139,130.203,13.589,34.636,44.025,1.877,24.76,21.745,14.191,10.676,-5.164,10.22,15.385,14.186,13.435,13.068,11.36,14.395,12.609,11.376,14.266,12.232,15.199,13.366,12.944,12.716,12.811],[1144.418,-61.518,58.451,-70.269,7.364,261.898,46.534,32.149,18.869,22.548,147.814,27.255,11.417,14.633,13.982,37.878,15.855,16.532,15.193,13.02,27.74,14.295,13.008,14.752,14.247,22.531,14.94,13.895,13.851,13.468],[1910.383,486.069,132.897,122.613,-18.082,510.49,80.497,13.795,37.714,35.359,279.661,57.399,15.266,23.08,9.976,66.209,25.111,16.73,16.124,14.39,41.654,22.929,16.974,13.733,14.517,30.341,19.308,16.206,16.259,14.779],[3874.96,870.283,77.001,227.046,-24.253,826.57,173.312,14.404,27.257,31.327,422.879,82.292,17.816,-8.198,18.197,94.901,31.953,19.767,19.286,16.041,55.852,24.106,17.54,16.533,15.44,35.797,23.794,18.933,16.639,15.676],[4753.603,1081.853,244.663,152.596,-115.736,1021.022,251.348,62.56,2.053,-0.573,491.626,154.86,52.428,26.294,26.966,122.464,42.55,24.334,20.024,15.094,67.004,34.768,20.728,17.043,16.307,41.959,26.445,20.048,18.549,15.794],[6066.565,2114.984,372.22,67.679,162.343,1307.015,495.592,129.308,23.641,20.248,632.962,235.902,84.653,38.122,26.983,139.2,57.826,28.29,20.102,19.587,78.415,41.668,26.295,19.759,17.568,46.922,33.098,22.965,18.205,17.286]]
}