{
"KTrans": [[2.561,7.81,6.484,7.776,6.233,13.275,5.532,10.299,9.924,9.49,14.031,10.386,6.027,12.41,9.891,30.969,20.045,13.489,11.371,12.242,48.486,39.569,24.856,23.367,21.661,110.642,58.413,70.847,49.946,49.152],[-34.672,-4.964,1.651,4.26,4.487,-28.624,-1.245,-0.045,6.722,4.674,-34.099,-5.455,2.984,3.515,5.313,-30.939,0.059,1.454,8.671,7.666,-17.464,0.6,6.33,12.463,13.066,-12.148,19.252,25.198,24.473,23.287],[-69.9,-22.476,-9.914,-6.085,0.738,-68.49,-21.312,-10.216,-4.894,-0.455,-62.473,-24.486,-7.502,-0.649,0.835,-55.026,-16.98,-10.416,0.829,4.015,-57.355,-5.841,-3.629,1.886,3.689,-58.577,-11.298,-0.167,15.181,2.794],[-82.653,-36.721,-20.628,-8.746,-4.788,-81.619,-33.657,-19.827,-10.172,-5.118,-86.077,-33.347,-19.402,-10.554,-4.407,-79.102,-33.875,-20.351,-8.826,-3.96,-68.632,-40.45,-14.38,-5.767,-0.553,-70.437,-36.42,-11.492,1.852,1.31],[-90.985,-54.547,-28.179,-18.104,-11.286,-90.176,-47.995,-26.476,-18.521,-11.03,-86.425,-47.416,-29.191,-20.949,-12.038,-85.467,-48.775,-29.024,-18.75,-11.922,-83.5,-47.689,-27.375,-17.748,-5.839,-88.844,-44.633,-27.051,-16.369,-5.92],[-93.714,-57.117,-38.177,-30.005,-17.87,-92.627,-61.877,-38.218,-25.418,-17.72,-91.681,-62.56,-39.282,-25.571,-17.326,-89.786,-61.63,-41.384,-25.762,-15.386,-86.494,-64.677,-39.264,-28.275,-15.859,-82.554,-52.84,-31.838,-24.756,-15.101]],
"ve": [[8.4,10.641,18.303,26.574,81.616,-57.573,13.232,14.305,31.614,-10.25,14.254,12.97,19.483,21.179,32.684,20.102,30.834,-66.587,-17.561,50.559,23.233,-1.55,-33.906,-7.995,-61.564,45.406,-16.964,9.185,-20715.84,7.57],[-13.653,-2.045,0.814,1.442,3.166,-9.95,-0.434,0.514,3.417,2.594,-13.559,0.328,0.462,2.213,2.739,-3.441,3.605,2.264,4.851,4.923,8.153,8.512,5.03,8.141,7.681,23.465,-19.37,28.945,17.539,19.939],[-33.754,-9.239,-3.077,-1.771,0.787,-40.793,-8.193,-3.083,-1.7,-0.205,-27.182,-9.328,-2.186,0.198,0.327,-17.054,-2.469,-2.271,1.933,3.092,-19.458,8.645,2.48,2.746,3.117,20.676,4.24,6.495,11.582,4.324],[-48.152,-14.546,-6.97,-3.393,-2.128,-34.936,-12.503,-6.756,-3.404,-1.763,-50.133,-13.746,-7.223,-3.392,-1.73,-37.096,-9.484,-4.281,-2.499,-0.166,-18.696,9.769,0.312,0.749,2.335,-7.302,-1.465,6.641,8.5,4.339],[-67.059,-24.744,-11.023,-6.417,-4.366,-41.126,-19.432,-10.217,-6.768,-3.988,-31.418,-21.447,-11.402,-7.574,-4.028,-51.533,-17.531,-7.945,-5.543,-3.484,-42.229,-9.51,-5.275,-2.922,0.969,-32.867,9.838,1.841,-0.7,2.702],[-66.681,-27.951,-16.159,-11.567,-5.961,-62.407,-30.272,-16.149,-9.264,-6.592,-57.464,-27.647,-16.978,-8.672,-5.586,-45.354,-27.444,-14.264,-7.865,-3.823,-52.825,-24.186,-14.584,-8.373,-2.476,-48.187,-3.865,-0.663,-1.493,-1.439]],
"kep": [[-19.192,-13.939,-18.188,-18.199,-26.07,-11.752,-15.775,-12.809,-15.304,-18.861,-13.913,-14.444,-19.183,-11.081,-18.66,-9.832,-10.617,-16.983,-18.167,-20.22,-22.431,-6.613,-13.534,-13.559,-16.671,-26.819,-26.859,-1.489,-16.56,-8.126],[-40.638,-18.585,-15.055,-13.242,-14.437,-37.055,-17.078,-16.286,-12.973,-13.826,-39.252,-21.205,-13.684,-14.597,-13.393,-46.009,-20.208,-16.975,-12.871,-13.54,-51.057,-24.375,-17.423,-13.33,-11.943,-50.758,-31.968,-17.601,-12.397,-11.133],[-67.818,-29.3,-21.955,-19.532,-15.823,-65.412,-29.028,-22.293,-18.523,-15.961,-61.568,-30.707,-20.703,-16.549,-15.307,-66.102,-30.13,-23.558,-16.876,-15.184,-71.466,-29.861,-22.516,-17.981,-15.984,-68.673,-47.882,-28.727,-16.838,-20.559],[-79.784,-39.379,-28.554,-20.647,-18.08,-79.987,-38.508,-28.058,-21.773,-18.669,-82.561,-37.024,-27.21,-22.192,-18.095,-80.999,-41.218,-30.517,-21.794,-19.142,-78.063,-49.161,-29.91,-22.184,-18.788,-77.847,-62.955,-36.663,-24.186,-21.244],[-89.458,-51.145,-32.973,-26.575,-21.931,-88.335,-48.279,-31.895,-26.561,-22.037,-85.075,-47.4,-33.699,-28.172,-22.889,-88.302,-50.604,-36.23,-28.203,-23.425,-87.038,-56.233,-37.288,-29.438,-22.367,-81.649,-62.134,-46.449,-34.171,-25.95],[-91.782,-53.043,-38.766,-33.779,-26.593,-90.853,-56.694,-38.813,-31.136,-25.955,-89.413,-58.421,-39.659,-31.736,-26.324,-89.629,-61.301,-43.706,-32.617,-26.212,-87.129,-69.679,-42.002,-35.377,-27.946,-85.19,-67.355,-48.991,-39.324,-30.585]],
"vp": [[-63.566,-315.85,-103.88,-59.252,-55.835,-75.285,14.664,-57.927,-39.379,-63.495,-42.141,-52.059,9.744,-48.873,-34.89,-17.25,-11.475,-6.483,11.415,1.026,-12.134,-13.324,-0.05,-1.511,4.551,-16.412,-1.601,-13.162,-1.053,-1.592],[1652.299,276.583,-214.584,-344.651,-334.496,230.072,-2.928,25.553,-171.665,-41.602,182.268,31.89,7.575,-24.132,-25.703,32.755,-3.805,7.054,-16.966,-4.835,6.484,3.69,7.785,-10.816,-10.078,2.384,-0.876,-8.126,-7.691,-7.001],[4415.294,2057.795,959.57,772.237,-369.317,987.028,359.289,183.324,171.646,46.924,348.446,202.629,74.434,0.492,-0.112,52.117,22.431,28.603,-3.841,-17.56,39.698,-5.789,6.487,4.756,4.023,3.923,7.677,8.054,-9.812,15.196],[5657.331,3240.785,2130.151,1226.712,814.014,1168.128,592.555,421.522,222.243,168.536,681.973,313.246,224.793,141.209,63.475,101.367,54.592,39.892,34.276,8.479,39.209,44.092,8.542,8.592,-1.726,21.364,18.721,6.51,-6.01,4.711],[7459.475,5716.135,3190.335,2456.865,1811.389,1406.606,917.579,641.186,539.466,360.545,609.037,497.99,383.774,316.883,188.196,135.644,98.422,62.661,61.266,50.47,68.85,41.804,27.602,25.446,2.812,36.923,19.357,14.017,18.625,7.559],[8029.401,6381.833,5149.068,4842.766,2894.044,1511.612,1431.106,1020.342,757.955,613.537,731.474,623.039,575.177,356.251,269.083,127.734,141.888,104.461,77.979,45.901,58.356,72.232,65.413,52.886,24.307,18.352,18.822,13.875,17.445,19.56]]
}