{
"KTrans": [[6.361,15.546,2.006,7.465,0.845,9.124,14.866,13.509,13.137,7.93,11.283,26.412,26.216,22.617,20.044,48.945,61.008,87.788,84.23,92.608,73.684,-6.944,79.473,117.76,145.992,-283.414,-94.577,15.522,90.492,68.906],[-42.689,-13.139,-1.081,10.134,1.6,-41.749,-17.73,1.45,7.224,6.223,-37.387,-11.806,5.49,13.948,13.238,-18.408,3.838,6.997,24.474,34.848,-2.658,26.899,-6.137,20.103,43.692,97.494,-75.212,-15.228,-27.415,19.698],[-57.386,-26.501,-14.644,-7.369,-0.271,-54.453,-16.57,-13.684,-7.672,0.937,-52.754,-18.807,-1.664,-4.588,4.349,-35.313,19.704,13.147,9.175,6.245,-70.242,38.488,15.048,16.872,-0.865,-166.962,-33.715,-88.535,-6.559,-51.572],[-71.071,-33.426,-13.841,-8.962,-4.504,-67.606,-30.402,-10.719,-6.198,-5.565,-61.629,-25.859,-9.748,-3.896,-6.151,-49.865,-2.407,17.39,16.303,9.992,-52.633,6.901,33.822,23.229,27.785,-142.974,-41.111,61.728,47.354,-98.53],[-73.782,-31.26,-14.82,-8.147,-3.85,-72.646,-33.063,-15.974,-5.372,-3.978,-72.878,-30.833,-9.742,-6.091,-1.503,-57.358,-4.231,12.375,20.193,21.37,-35.973,17.385,43.166,40.545,48.832,-92.856,-4.44,-37.951,106.565,6.97],[-75.095,-39.475,-19.997,-7.666,-5.914,-75.34,-41.133,-15.053,-7.574,-3.63,-76.785,-39.287,-16.316,-2.781,-1.889,-79.049,-20.396,4.503,16.573,17.366,-58.223,-16.214,35.679,49.963,38.8,-93.288,-44.096,-62.836,55.372,-4.174]],
"ve": [[-75.87,116.137,-23.053,-75.542,-42.305,-14.676,27.428,-120.005,-136.586,-32.31,-225.824,-24.046,-65.322,-29.051,0.702,16.566,-1381.134,-36.936,-100.072,-11.789,111.177,30.096,-0.94,-25.792,-110.473,282.969,68.726,30.02,0.557,-27.032],[-4.678,3.652,-8.885,-1.285,10.119,128.182,-77.529,4.466,-2.646,-1.583,-280.867,1.879,8.512,-50.344,15.74,63.17,-31.844,6.262,-11.323,-24.477,99.484,50.239,35.621,31.47,1.933,176.281,185.111,67.991,43.263,23.929],[-31.325,-4.499,-3.5,-289.745,0.169,85.588,-10.585,-15.436,4.25,-4.005,60.673,-23.016,-3.401,10.007,10.655,37.358,25.643,14.3,12.168,5.988,-951.781,-133.986,22.519,37.455,19.546,197.537,55.59,66.194,49.079,41.08],[-20.178,-16.19,-23.428,-3.866,2.416,-12.166,-2.161,-15.349,-3.894,15.834,-4.246,-6.047,5.363,22.33,353.158,45.638,23.815,12.119,7.877,7.044,100.817,-28.397,30.979,22.586,25.908,196.358,104.284,62.98,51.528,43.468],[1.79,-8.218,-3.482,-3.142,-2.152,-17.03,-5.529,1.007,-2.921,-1.215,-5.35,-1.915,0.859,-2.794,-1.521,34.788,14.374,3.73,10.786,5.593,96.747,43.643,29.047,20.776,10.306,212.944,95.961,64.413,49.887,40.366],[-30.63,13.564,-2.815,-1.846,-2.188,-620.376,-0.689,-2.333,-0.146,-2.121,-12.294,-2.667,-0.279,-0.205,0.04,47.314,21.167,13.35,11.085,7.932,100.223,43.385,33.91,-568.563,18.401,160.228,93.509,67.774,-105.74,36.839]],
"kep": [[-127.15,-107.481,-49.002,-63.233,-15.807,-136.851,-111.18,-67.545,-73.792,-41.342,-123.628,-101.07,-96.056,-58.305,-66.562,-142.279,-218.301,-197.313,-173.364,-205.977,-138.447,-356.914,-396.073,-408.778,-321.746,-220.674,-358.549,-485.716,-595.726,-688.433],[-93.634,-85.261,-115.874,-110.367,-21.939,-88.658,-109.835,-114.777,-96.195,-45.823,-89.059,-93.32,-129.829,-120.966,-63.714,-90.173,-92.384,-152.058,-160.599,-117.771,-88.152,-77.733,-178.369,-206.202,-216.319,-59.592,-121.609,-129.341,-276.904,-336.093],[-87.967,-65.529,-66.407,-93.465,-133.852,-85.458,-55.976,-68.916,-99.887,-130.17,-87.244,-58.177,-48.273,-84.817,-130.89,-84.277,-36.809,-50.069,-69.967,-150.675,-101.192,-37.769,-59.247,-75.167,-173.045,-114.936,-85.717,-127.825,-78.333,-215.563],[-93.039,-60.436,-39.616,-33.252,-41.037,-90.489,-55.946,-39.286,-35.33,-56.513,-87.13,-54.608,-36.824,-34.916,-60.966,-85.437,-44.63,-21.079,-17.554,-38.268,-90.639,-51.133,-23.412,-30.939,-20.233,-109.435,-79.518,-17.705,-24.874,-195.544],[-92.075,-52.698,-29.152,-22.379,-19.997,-92.061,-51.878,-34.54,-21.586,-19.748,-91.271,-53.182,-29.631,-23.347,-23.838,-87.955,-41.704,-20.641,-1.646,-0.602,-82.391,-39.672,-9.471,0.207,20.341,-98.638,-64.767,-74.131,25.836,-55.086],[-90.791,-56.414,-32.837,-19.305,-17.167,-91.828,-60.121,-26.881,-16.349,-14.655,-92.203,-59.775,-31.376,-14.486,-13.814,-96.705,-50.648,-25.062,-2.631,1.912,-87.238,-61.06,-14.377,8.145,13.147,-96.532,-81.249,-88.837,-16.281,-55.134]],
"vp": [[-614.446,76.898,188.749,82.277,490.35,-33.863,28.116,100.338,-20.229,156.824,-49.522,-65.801,41.982,34.009,43.488,-3.602,-1.605,9.058,-2.233,14.049,3.743,14.42,-2.43,11.209,-22.016,-9.141,3.354,1.589,-0.432,-2.077],[3045.691,1416.951,-9.958,-486.375,-48.472,589.508,350.226,-40.546,-113.67,23.473,257.936,155.674,-15.816,-46.833,-56.789,63.399,23.384,6.526,-3.318,-6.84,16.038,-4.347,-2.972,-9.842,15.251,-0.539,-8.419,-13.276,-20.112,-10.021],[5473.247,3382.789,1471.222,1132.123,10.256,900.39,587.206,272.8,233.177,19.307,507.215,211.922,223.076,79.161,-21.155,103.998,66.185,57.515,19.342,5.736,44.241,24.626,27.974,0.356,1.822,23.355,16.786,-5.831,0.692,7.882],[6240.279,5509.297,4585.864,1465.666,1201.698,1494.393,1207.83,614.776,268.383,284.849,678.79,607.944,418.143,229.823,36.956,126.495,85.861,39.988,45.587,-2.929,52.011,65.032,31.994,23.109,-0.486,19.034,32.038,-9.222,10.015,14.747],[6658.674,7236.711,6456.492,1934.512,1852.26,1384.343,1630.531,1151.458,598.592,398.643,676.222,690.388,527.586,319.335,174.498,147.066,139.878,97.984,70.274,15.759,66.47,43.826,28.309,9.236,16.467,16.331,18.588,18.494,2.972,16.922],[7105.828,9356.211,5873.262,5201.35,1976.071,1615.683,1893.898,1214.944,793.886,617.216,740.292,945.835,597.144,408.399,372.248,134.052,159.839,117.525,70.237,57.867,51.318,82.659,67.896,46.372,4.964,25.966,46.57,32.995,20.98,0.714]]
}