{
"KTrans": [[-52.013,-65.49,-83.251,-83.911,-86.487,-42.948,-60.459,-70.85,-82.477,-78.033,-31.392,-51.423,-62.245,-58.006,-60.263,47.144,35.117,-14.286,-11.204,14.993,146.531,41.693,66.363,54.163,44.134,295.366,127.61,178.794,112.791,109.921],[-55.906,-39.135,-55.417,-63.298,-63.402,-60.085,-48.834,-55.222,-60.425,-59.236,-54.052,-36.069,-30.823,-46.506,-58.241,-25.93,-1.127,20.028,-1.92,-8.79,-5.304,24.724,43.252,16.573,-3.626,25.346,66.031,89.478,42.888,5.797],[-72.916,-55.452,-40.324,-47.713,-55.127,-71.21,-48.708,-36.68,-31.035,-45.138,-68.415,-50.757,-36.368,-34.312,-42.481,-55.319,-27.791,-7.128,2.878,7.138,-37.742,-17.391,1.988,14.77,27.938,-19.859,-3.175,18.25,35.281,47.459],[-77.248,-57.628,-45.442,-48.755,-51.502,-76.21,-61.397,-49.132,-44.32,-43.433,-75.584,-57.753,-47.393,-38.699,-35.777,-67.954,-47.501,-26.039,-16.67,-8.54,-58.19,-37.316,-12.007,-3.169,1.089,-41.544,-29.522,-9.265,5.133,11.897],[-82.391,-63.572,-51.209,-46.242,-48.186,-82.597,-62.885,-53.506,-44.55,-46.113,-83.249,-62.719,-50.962,-39.021,-39.434,-74.383,-55.914,-31.619,-20.356,-27.534,-67.203,-51.807,-22.22,-10.284,-7.643,-55.974,-42.245,-16.717,-7.282,0.975],[-86.175,-71.194,-60.267,-45.206,-41.636,-86.259,-71.855,-51.822,-42.179,-49.244,-84.674,-69.629,-51.406,-46.085,-40.195,-79.568,-63.781,-42.679,-26.366,-18.184,-73.63,-57.966,-35.819,-16.668,-10.51,-65.357,-53.838,-33.52,-9.527,2.35]],
"ve": [[-54.991,-43.508,146.635,2017.997,19.813,-29.316,-5.434,-52.143,-34.814,-21.257,41.996,-36.465,-34.984,-71.838,-8.919,44.541,-9.178,-41.929,53.295,-51.998,117.405,12.017,-81.658,-24.1,-78.435,259.533,59.151,20.236,-23.404,-113.122],[-58.96,-37.491,-58.712,170.851,-46.755,-25.975,-64.217,-63.773,-48.641,0.391,6.695,-129.382,-21.495,-43.604,-30.556,109.001,25.294,40.752,-8.962,-6.072,113.406,50.141,44.411,-8.939,61.064,222.574,112.367,87.191,26.235,-2.218],[-18.683,-93.088,-45.922,-51.676,-57.614,-7.798,-69.711,-37.335,-34.946,47.339,-2.974,-62.049,-20.298,-34.626,-45.681,73.655,-0.514,-18.093,10.069,6.709,90.197,-23.133,10.803,16.081,27.8,500.179,51.49,38.918,54.351,53.007],[0.547,-62.177,-59.319,-86.463,-67.751,43.347,-85.423,-72.045,-67.229,-60.11,9.348,-47.203,-72.269,-60.086,-45.574,1.729,-2.787,-15.557,-14.95,-6.428,163.382,14.61,-1.378,10.414,3.522,235.893,76.059,13.609,14.404,19.956],[3.337,-35.777,-85.55,-77.659,-80.425,19.3,-22.133,-78.361,-82.413,-75.904,-5.89,-33.407,-81.122,-73.221,-62.472,225.401,10.521,-37.893,-27.604,-49.28,162.682,19.724,-7.428,-2.883,-10.868,256.499,55.589,8.165,-6.634,8.874],[1.448,-37.392,-90.743,-92.957,-82.948,26.029,-12.465,-67.115,-70.248,-95.895,-4.887,-37.086,-58.24,-90.039,-79.455,79.667,5.207,-46.031,-43.291,-34.379,165.411,3.798,2.293,-14.286,0.281,245.392,43.868,0.782,0.621,1.802]],
"kep": [[-129.821,-79.878,-50.626,-5.786,-15.071,-122.452,-120.19,-23.063,-25.645,-1.63,-136.56,-93.6,-30.462,-38.127,15.187,-122.359,-91.58,-3.157,3.059,-28.915,-136.772,-47.676,-86.093,-49.755,-13.957,-144.013,-61.937,-100.695,-28.45,-16.034],[-95.615,-95.19,-135.206,-48.77,-5.704,-94.45,-82.304,-138.986,-80.442,-28.377,-93.998,-88.256,-137.238,-69.647,-22.732,-95.724,-92.397,-136.672,-83.417,-35.585,-87.603,-85.518,-124.675,-67.719,-20.489,-94.608,-93.87,-131.568,-79.76,-17.427],[-97.531,-60.132,-56.833,-79.416,-142.139,-96.905,-59.539,-59.407,-107.729,-128.463,-95.953,-56.071,-56.469,-100.818,-142.584,-99.428,-60.073,-52.118,-80.694,-120.968,-96.403,-57.304,-40.149,-90.076,-143.412,-93.747,-57.06,-52.454,-80.965,-120.684],[-101.129,-58.55,-41.227,-22.974,-31.55,-101.024,-69.325,-36.904,-27.666,-44.363,-97.81,-65.885,-28.161,-33.946,-43.892,-98.379,-68.71,-40.063,-28.419,-40.537,-99.654,-60.966,-25.817,-23.672,-30.721,-98.804,-65.896,-33.547,-25.773,-36.608],[-101.011,-71.402,-35.861,-24.483,-15.549,-99.438,-76.719,-42.025,-17.46,-13.802,-98.631,-74.981,-35.742,-16.385,-13.997,-102.654,-76.027,-32.135,-18.411,-10.919,-102.821,-73.896,-35.292,-18.959,-6.528,-99.444,-73.802,-32.576,-21.301,-10.671],[-100.009,-79.143,-44.713,-15.418,-6.888,-100.222,-84.876,-39.981,-23.627,-8.493,-102.005,-76.967,-42.62,-19.322,-8.582,-100.621,-80.449,-38.576,-18.471,-6.09,-101.064,-77.163,-47.674,-18.052,-17.154,-99.114,-76.143,-42.471,-17.693,-1.001]],
"vp": [[-37.572,-378.159,-166.408,-295.313,54.812,-94.315,-9.035,49.363,-49.257,-21.889,-13.933,17.063,-13.902,-27.76,72.155,-9.216,-10.562,5.661,10.506,-2.573,-2.778,6.536,-1.148,-3.014,-6.819,-3.326,-0.798,-2.23,0.878,2.577],[2999.072,1504.519,-192.723,-2.545,351.07,568.773,163.732,-165.691,-96.192,43.13,281.934,66.086,40.815,-65.178,15.851,66.107,21.732,-2.99,-16.683,-14.669,18.745,6.593,-2.7,-5.802,3.12,17.743,3.54,-1.423,-2.613,2.036],[5123.012,2481.895,2773.556,803.516,11.294,989.629,630.164,348.223,264.036,-28.178,509.23,243.708,125.692,92.088,-34.071,109.582,69.725,21.609,16.714,5.94,43.472,24.998,3.202,13.825,2.769,21.701,13.863,4.981,0.341,-2.016],[6171.423,4226.416,3443.134,1085.302,471.423,1349.375,1112.224,568.796,273.878,135.778,576.006,487.04,189.649,146.85,95.624,113.489,116.151,62.755,29.911,24.108,58.977,52.263,18.129,8.178,10.181,30.754,27.941,12.983,7.999,2.823],[7134.902,6829.39,3269.427,2516.303,880.651,1381.78,1598.905,902.89,404.096,76.459,664.772,674.238,366.841,114.866,109.304,146.57,124.329,47.221,40.291,9.468,73.789,71.292,27.393,18.298,6.966,32.631,33.183,12.156,8.084,6.202],[7225.358,8660.772,5417.176,2142.28,1713.336,1617.296,1860.933,1104.613,709.303,309.091,758.641,842.468,667.047,264.408,108.285,146.286,178.93,96.209,31.441,15.703,74.478,78.431,58.038,31.455,22.176,36.633,38.186,29.554,6.109,-0.415]]
}