{
"KTrans": [[-31.467,20.939,34.721,17.998,15.236,-35.086,17.708,41.574,28.846,30.854,-4.101,38.624,39.005,37.102,38.036,79.974,113.229,101.302,99.295,95.583,275.497,249.068,241.508,233.687,179.934,841.466,683.453,508.236,454.493,422.997],[-80.476,21.396,42.422,31.667,30.334,-100.61,28.862,51.389,36.912,39.008,-77.681,18.171,44.446,34.66,43.648,-78.368,111.433,113.784,81.213,65.709,-11.895,215.624,177.774,125.818,95.523,122.568,390.799,369.301,236.639,203.322],[-97.489,-47.433,55.123,57.271,50.726,-100.904,-39.333,57.593,58.016,51.115,-98.17,-46.143,79.626,73.045,53.771,-80.596,0.783,107.943,121.135,72.514,-95.012,39.367,181.175,170.28,90.194,-6.298,66.737,336.174,263.502,185.493],[-97.886,-88.457,26.604,74.108,62.392,-105.517,-91.363,17.215,71.519,70.441,-95.82,-59.73,31.899,86.856,79.709,-97.266,-81.559,56.676,106.687,89.785,-88.228,-71.077,95.736,164.392,149.137,-63.619,17.871,161.009,277.285,243.786],[-98.33,-96.303,-26.623,75.593,74.213,-104.021,-103.945,-81.564,49.618,92.383,-98.594,-113.273,-49.252,93.765,102.907,-104.031,-91.493,-14.064,105.497,129.74,-104.941,-106.54,24.018,131.974,204.424,-95.487,-104.133,46.297,251.673,292.905],[-103.46,-106.073,-69.2,20.015,121.153,-100.909,-109.281,-89.697,21.615,117.837,-101.05,-112.977,-84.81,0.336,111.657,-100.08,-119.469,-77.419,33.963,124.297,-98.842,-98.764,-92.673,55.944,222.115,-96.559,-87.326,-116.764,111.617,275.768]],
"ve": [[6.406,347.068,3.607,2.632,-306.183,68.187,75.124,-1.936,-35.385,-1.061,62.586,-106.892,-0.137,-20.643,-7.333,43.714,26.035,3.881,-3.275,-13.171,89.062,43.932,12.545,-4.852,-11.371,187.279,85.693,38.616,13.515,-3.319],[38.044,8.98,5.245,4.228,4.833,-1.841,6.786,6.081,3.881,4.654,17.144,9.49,4.89,4.592,4.283,56.835,30.584,21.055,11.777,7.283,99.473,41.482,32.384,22.216,12.307,195.836,105.16,64.823,42.031,31.281],[3.463,1.866,3.3,2.233,4.063,7.101,7.407,6.497,2.549,3.46,-27.725,11.134,9.381,7.476,5.139,52.329,27.8,22.01,15.44,9.33,102.07,56.073,35.402,27.951,15.18,216.362,102.064,65.084,50.899,36.105],[-3.926,38.841,5.445,4.032,3.112,34.505,1.627,54.73,2.672,3.126,22.229,10.21,7.455,6.782,4.576,49.124,31.042,26.661,13.33,10.79,101.558,51.595,34.104,27.008,19.47,208.279,100.145,66.574,52.702,42.491],[11.075,-2.692,2.197,4.603,5.53,14.253,3.738,-6.892,4.143,2.778,-18.554,11.376,6.266,6.301,4.62,67.921,30.177,24.569,15.254,12.475,106.161,58.922,33.935,29.036,23.238,127.769,76.375,70.464,51.461,41.112],[4.362,4.359,1.642,5.679,4.32,8.198,4.784,1.903,7.961,4.778,25.723,11.501,5.969,2.959,3.631,149.481,28.734,16.351,16.524,14.247,196.683,52.876,30.038,27.125,24.174,197.707,97.982,68.852,54.831,42.82]],
"kep": [[-49.857,13.112,40.275,23.777,14.254,-51.775,5.344,44.691,39.623,44.145,-32.036,26.755,35.753,53.073,52.492,10.014,75.376,98.807,125.626,142.263,76.441,144.223,209.292,260.056,228.594,215.393,315.483,334.157,394.134,444.457],[-87.145,6.242,34.214,25.508,27.41,-103.346,14.135,40.182,29.838,35.688,-84.599,5.971,33.678,27.398,37.967,-87.55,56.148,74.498,59.4,52.156,-55.791,100.743,105.652,80.499,69.758,-30.819,136.373,180.528,131.356,127.726],[-100.003,-55.299,43.955,46.144,41.835,-102.773,-48.871,42.1,45.627,42.351,-100.874,-54.334,59.45,56.369,41.811,-89.352,-29.521,65.437,85.978,51.823,-98.396,-11.938,100.327,105.496,58.214,-68.354,-16.65,155.647,135.152,103.995],[-97.94,-89.904,16.5,58.379,51.015,-105.359,-91.096,3.858,56.277,58.548,-96.909,-66.608,14.597,67.893,66.094,-96.759,-86.572,21.129,72.823,63.148,-93.992,-82.016,34.453,99.583,99.123,-89.481,-42.792,50.669,139.585,134.63],[-98.987,-95.408,-32.941,58.697,61.562,-104.718,-103.081,-83.623,34.963,76.966,-99.81,-111.086,-56.487,71.928,84.833,-102.862,-91.974,-34.128,69.729,93.149,-102.458,-101.83,-11.709,72.786,137.402,-98.05,-99.932,-15.669,122.546,165.655],[-103.713,-104.26,-71.401,10.796,102.948,-101.645,-106.069,-88.726,7.475,96.304,-100.244,-110.199,-85.89,-9.601,88.576,-100.77,-111.915,-80.614,8.883,87.352,-99.413,-97.241,-92.385,18.124,148.817,-98.888,-91.27,-108.845,32.881,152.075]],
"vp": [[0.001,0.001,0.001,0.001,0.001,0.005,0.005,0.005,0.005,0.005,0.01,0.01,0.01,0.01,0.01,0.05,0.05,0.05,0.05,0.05,0.1,0.1,0.1,0.1,0.1,0.2,0.2,0.2,0.2,0.2],[0.001,0.001,0.001,0.001,0.001,0.005,0.005,0.005,0.005,0.005,0.01,0.01,0.01,0.01,0.01,0.05,0.05,0.05,0.05,0.05,0.1,0.1,0.1,0.1,0.1,0.2,0.2,0.2,0.2,0.2],[0.001,0.001,0.001,0.001,0.001,0.005,0.005,0.005,0.005,0.005,0.01,0.01,0.01,0.01,0.01,0.05,0.05,0.05,0.05,0.05,0.1,0.1,0.1,0.1,0.1,0.2,0.2,0.2,0.2,0.2],[0.001,0.001,0.001,0.001,0.001,0.005,0.005,0.005,0.005,0.005,0.01,0.01,0.01,0.01,0.01,0.05,0.05,0.05,0.05,0.05,0.1,0.1,0.1,0.1,0.1,0.2,0.2,0.2,0.2,0.2],[0.001,0.001,0.001,0.001,0.001,0.005,0.005,0.005,0.005,0.005,0.01,0.01,0.01,0.01,0.01,0.05,0.05,0.05,0.05,0.05,0.1,0.1,0.1,0.1,0.1,0.2,0.2,0.2,0.2,0.2],[0.001,0.001,0.001,0.001,0.001,0.005,0.005,0.005,0.005,0.005,0.01,0.01,0.01,0.01,0.01,0.05,0.05,0.05,0.05,0.05,0.1,0.1,0.1,0.1,0.1,0.2,0.2,0.2,0.2,0.2]]
}