{
"KTrans": [[0.885,32.973,28.253,12.396,22.29,16.748,22.534,16.204,24.463,19.613,14.119,40.335,43.406,41.271,31.334,95.805,116.028,90.747,98.593,87.681,422.324,315.228,222.77,197.756,186.007,958.206,697.254,517.303,500.142,418.086],[-81.528,59.813,34.776,42.906,31.86,-67.227,48.794,52.682,37.242,32.705,-69.301,47.517,49.246,35.146,27.503,-39.503,129.879,129.311,56.234,57.788,-14.865,268.631,178.35,125.7,105.415,123.027,501.812,360.499,251.01,210.383],[-106.087,-6.341,70.421,63.718,52.295,-101.866,-1.183,77.773,58.836,38.683,-97.312,10.655,92.192,52.771,60.354,-78.858,39.692,141.53,110.51,72.975,-90.955,61.469,220.066,161.762,104.272,-13.923,213.245,458.41,265.947,199.888],[-97.291,-99.405,58.654,90.47,61.56,-111.01,-68.295,67.387,84.633,59.78,-104.592,-55.776,64.672,123.019,65.142,-103.633,-37.187,106.711,156.466,100.678,-99.888,-29.036,196.992,179.915,141.042,-100.676,62.077,306.711,368.736,221.26],[-106.338,-108.631,-45.021,81.971,87.897,-105.973,-104.553,-3.387,98.492,108.124,-102.163,-98.554,-17.562,118.378,102.547,-97.178,-145.404,35.707,152.908,127.807,-92.308,-127.721,55.127,243.707,191.107,-97.03,-55.322,97.449,311.261,306.526],[-104.096,-108.855,-91.51,36.021,148.592,-101.814,-94.035,-78.635,88.821,164.419,-102.384,-121.608,-85.618,59.21,171.43,-114.007,-127.972,-59.829,67.206,179.638,-104.447,-107.793,-107.182,164.884,222.187,-91.559,-129.507,-64.412,318.613,376.272]],
"ve": [[13.554,17.512,2.879,69.289,-38.856,21.689,11.627,-4.268,41.707,145.752,-13.744,4.492,337.185,6.966,24.148,54.646,16.464,3.407,-7.699,-5.176,107.647,37.876,11.395,-4.456,-17.452,195.941,84.304,36.487,13.273,-5.259],[5.971,5.058,2.363,2.954,0.836,17.887,5.212,2.118,3.425,3.3,-6.105,6.819,5.04,2.862,3.25,6.71,26.543,20.012,8.83,6.823,102.58,56.145,32.932,22.003,11.926,207.75,103.553,64.087,41.192,30.976],[6.55,9.925,3.05,3.208,3.909,9.227,7.961,7.49,2.628,2.769,3.303,12.947,6.058,3.405,5.246,35.501,26.435,18.019,13.606,11.685,109.314,57.392,34.529,26.475,18.028,202.741,101.201,68.047,48.753,35.54],[-65.792,22.81,3.428,4.093,1.043,-2.841,8.16,7.33,3.791,2.444,41.398,2.57,5.931,7.26,1.785,46.758,26.707,20.752,13.423,10.873,107.391,51.738,40.911,23.748,21.322,223.018,109.791,67.448,51.401,38.689],[3.402,3.665,10.068,1.388,1.594,9.79,6.159,0.36,3.338,2.946,18.828,-3.67,7.146,4.509,2.36,45.757,25.36,12.747,14.229,10.29,110.419,49.207,38.679,28.386,20.552,192.359,101.059,70.719,51.208,40.023],[2.926,4.68,0.555,30.488,-0.129,-144.478,1.241,8.689,-89.986,5.585,16.491,2.897,5.017,4.873,5.567,52.197,-138.696,16.679,15.605,11.829,106.3,45.245,35.482,31.073,22.708,198.56,97.379,69.998,54.763,39.978]],
"kep": [[-11.781,31.489,33.588,7.693,34.114,0.449,14.23,14.297,28.728,26,-12.24,32.667,46.307,61.761,42.654,22.04,83.964,88.891,121.384,131.947,152.502,199.514,191.947,213.825,249.451,253.618,331.111,352.402,430.218,446.487],[-84.505,45.82,28.061,36.69,30.125,-74.368,35.939,45.537,30.736,28.286,-73.857,32.585,38.313,29.038,22.517,-64.013,74.946,88.019,38.571,45.887,-57.832,131.667,105.602,80.917,79.244,-27.041,190.75,175.481,142.934,132.73],[-105.162,-17.503,58.228,53.721,43.594,-101.972,-15.135,60.355,48.388,30.643,-97.156,-4.399,71.894,41.181,49.197,-87.726,4.824,95.696,79.412,50.848,-92.581,-0.371,129.776,101.825,67.19,-69.748,50.575,221.156,138.809,114.548],[-96.554,-98.9,42.949,74.426,52.098,-108.06,-70.277,47.844,68.741,48.725,-102.973,-60.18,44.937,99.772,53.291,-100.733,-53.412,63.877,114.252,71.419,-98.908,-52.496,108.896,112.973,91.605,-98.299,-21.155,132.987,198.908,122.084],[-105.184,-108.482,-51.758,68.521,73.71,-103.981,-102.113,-11.822,80.195,90.447,-100.483,-97.584,-28.323,94.22,84.344,-97.426,-130.103,6.421,106.454,93.792,-95.174,-114.005,7.009,156.041,128.93,-97.857,-76.212,12.808,161.108,177.296],[-103.254,-106.289,-90.987,22.364,126.798,-101.872,-92.054,-78.603,69.55,137.311,-100.906,-115.424,-87.571,40.929,142.247,-107.86,-119.028,-65.276,35.892,136.527,-101.544,-102.942,-101.065,96.211,150.488,-96.217,-111.067,-76.51,160.001,219.166]],
"vp": [[0.001,0.001,0.001,0.001,0.001,0.005,0.005,0.005,0.005,0.005,0.01,0.01,0.01,0.01,0.01,0.05,0.05,0.05,0.05,0.05,0.1,0.1,0.1,0.1,0.1,0.2,0.2,0.2,0.2,0.2],[0.001,0.001,0.001,0.001,0.001,0.005,0.005,0.005,0.005,0.005,0.01,0.01,0.01,0.01,0.01,0.05,0.05,0.05,0.05,0.05,0.1,0.1,0.1,0.1,0.1,0.2,0.2,0.2,0.2,0.2],[0.001,0.001,0.001,0.001,0.001,0.005,0.005,0.005,0.005,0.005,0.01,0.01,0.01,0.01,0.01,0.05,0.05,0.05,0.05,0.05,0.1,0.1,0.1,0.1,0.1,0.2,0.2,0.2,0.2,0.2],[0.001,0.001,0.001,0.001,0.001,0.005,0.005,0.005,0.005,0.005,0.01,0.01,0.01,0.01,0.01,0.05,0.05,0.05,0.05,0.05,0.1,0.1,0.1,0.1,0.1,0.2,0.2,0.2,0.2,0.2],[0.001,0.001,0.001,0.001,0.001,0.005,0.005,0.005,0.005,0.005,0.01,0.01,0.01,0.01,0.01,0.05,0.05,0.05,0.05,0.05,0.1,0.1,0.1,0.1,0.1,0.2,0.2,0.2,0.2,0.2],[0.001,0.001,0.001,0.001,0.001,0.005,0.005,0.005,0.005,0.005,0.01,0.01,0.01,0.01,0.01,0.05,0.05,0.05,0.05,0.05,0.1,0.1,0.1,0.1,0.1,0.2,0.2,0.2,0.2,0.2]]
}