{
"KTrans": [[2.826,1.36,1.274,1.38,1.265,11.559,7.573,6.795,5.607,5.647,26.994,16.443,12.848,11.227,10.866,160.165,92.791,75.191,66.009,61.253,407.446,223.875,176.578,153.583,141.518,1132.865,592.323,455.314,395.5,360.052],[1.762,1.216,1.011,0.684,0.672,11.645,5.601,4.021,3.179,2.761,22.163,11.346,8.673,6.722,5.452,133.659,64.06,44.701,36.247,30.652,320.009,145.946,98.886,77.57,66.15,865.595,352.532,232.492,180.506,151.58],[-0.203,0.954,0.695,0.388,0.539,8.641,5.708,3.805,3.129,2.328,19.377,10.882,7.726,6.034,4.906,127.741,59.631,41.414,31.001,26.073,308.574,134.564,87.794,67.067,55.335,830.09,327.292,205.522,151.86,122.942],[-0.815,0.085,1.135,0.795,0.454,8.476,4.403,3.587,3.039,2.475,20.749,10.166,7.106,5.564,4.577,125.147,60.424,38.846,29.181,24.287,291.101,130.689,84.461,62.826,51.072,805.273,320.624,194.448,141.588,112.088],[-5.435,0.371,1.089,1.008,0.63,5.56,5.802,3.308,2.752,2.025,13.683,11.235,7.389,5.681,4.541,113.842,59.104,38.207,29.392,23.168,284.392,127.119,81.576,60.97,49.257,763.605,312.264,190.712,137.309,107.637],[-6.161,0.49,0.696,0.621,0.577,0.64,5.909,2.771,2.459,2.4,15.187,9.013,6.724,5.376,4.466,111.895,57.432,38.05,28.127,22.588,273.642,127.889,81.758,60.246,47.933,763.508,308.041,187.09,134.237,104.907]],
"ve": [[1.125,0.858,-0.112,-0.708,-0.508,4.722,0.458,-1.036,-2.751,-4.309,8.634,1.115,-2.437,-4.614,-7.29,45.014,13.225,-1.471,-11.169,-18.96,93.044,33.315,7.857,-7.456,-18.526,191.208,78.917,34.989,10.19,-6.33],[0.757,0.493,0.272,0.089,0.203,5.095,2.404,1.29,1.003,0.459,10.211,4.73,2.668,1.762,1.014,49.595,23.581,14.314,9.059,5.426,99.036,47.799,29.397,19.439,12.592,199.139,96.829,60.829,41.461,28.767],[0.817,0.47,0.341,0.201,0.229,5.336,2.528,1.593,1.178,0.906,10.209,4.847,3.243,2.279,1.63,50.089,24.526,15.906,11.335,8.423,99.797,49.082,31.885,23.074,17.188,199.602,98.878,64.418,46.734,35.635],[1.362,0.359,0.223,0.281,0.185,5.113,2.59,1.827,1.143,0.895,10.088,4.823,3.257,2.402,1.899,50.216,24.705,16.434,11.875,9.188,100.006,49.783,32.482,23.992,18.687,200.001,99.574,65.467,48.363,37.726],[1.397,0.578,0.275,0.399,0.23,5.55,2.343,1.695,1.221,1.005,10.29,4.882,3.176,2.418,1.953,50.208,24.792,16.511,12.207,9.554,100.249,49.797,32.816,24.376,19.18,200.17,99.627,66.066,48.955,38.623],[1.131,0.448,0.273,0.181,0.194,5.398,2.504,1.652,1.213,0.911,10.192,4.795,3.295,2.483,1.958,50.542,24.875,16.692,12.285,9.666,99.998,49.963,33.001,24.678,19.517,200.375,99.706,66.261,49.309,39.032]],
"kep": [[1.767,0.661,1.519,2.375,2.207,6.623,7.203,8.135,8.823,10.7,16.977,15.244,15.818,16.843,19.824,79.497,70.33,77.887,86.994,99.097,162.938,143.016,156.499,174.103,196.524,323.437,287.001,311.429,349.721,391.19],[1.057,0.731,0.748,0.605,0.48,6.294,3.131,2.705,2.167,2.302,10.895,6.339,5.86,4.888,4.408,56.237,32.769,26.596,24.937,23.94,111.067,66.423,53.711,48.681,47.575,222.881,129.927,106.745,98.3,95.385],[-1,0.493,0.359,0.193,0.313,3.136,3.108,2.181,1.934,1.413,8.366,5.774,4.346,3.678,3.226,51.764,28.2,22.01,17.67,16.284,104.54,57.351,42.4,35.747,32.555,210.497,114.867,85.824,71.649,64.375],[-2.109,-0.263,0.915,0.515,0.27,3.259,1.776,1.735,1.876,1.568,9.693,5.113,3.732,3.088,2.63,49.938,28.664,19.256,15.473,13.83,95.593,54.035,39.242,31.322,27.289,201.842,110.778,77.955,62.838,53.995],[-6.69,-0.187,0.817,0.612,0.403,0.032,3.404,1.595,1.515,1.01,3.114,6.054,4.084,3.19,2.54,42.386,27.505,18.623,15.317,12.427,91.96,51.632,36.723,29.426,25.239,187.82,106.527,75.063,59.32,49.787],[-7.142,0.043,0.426,0.44,0.383,-4.444,3.329,1.103,1.235,1.476,4.55,4.028,3.322,2.826,2.463,40.849,26.084,18.307,14.111,11.785,86.814,51.976,36.667,28.532,23.777,187.544,104.338,72.682,56.883,47.383]],
"vp": [[0.001,0.001,0.001,0.001,0.001,0.005,0.005,0.005,0.005,0.005,0.01,0.01,0.01,0.01,0.01,0.05,0.05,0.05,0.05,0.05,0.1,0.1,0.1,0.1,0.1,0.2,0.2,0.2,0.2,0.2],[0.001,0.001,0.001,0.001,0.001,0.005,0.005,0.005,0.005,0.005,0.01,0.01,0.01,0.01,0.01,0.05,0.05,0.05,0.05,0.05,0.1,0.1,0.1,0.1,0.1,0.2,0.2,0.2,0.2,0.2],[0.001,0.001,0.001,0.001,0.001,0.005,0.005,0.005,0.005,0.005,0.01,0.01,0.01,0.01,0.01,0.05,0.05,0.05,0.05,0.05,0.1,0.1,0.1,0.1,0.1,0.2,0.2,0.2,0.2,0.2],[0.001,0.001,0.001,0.001,0.001,0.005,0.005,0.005,0.005,0.005,0.01,0.01,0.01,0.01,0.01,0.05,0.05,0.05,0.05,0.05,0.1,0.1,0.1,0.1,0.1,0.2,0.2,0.2,0.2,0.2],[0.001,0.001,0.001,0.001,0.001,0.005,0.005,0.005,0.005,0.005,0.01,0.01,0.01,0.01,0.01,0.05,0.05,0.05,0.05,0.05,0.1,0.1,0.1,0.1,0.1,0.2,0.2,0.2,0.2,0.2],[0.001,0.001,0.001,0.001,0.001,0.005,0.005,0.005,0.005,0.005,0.01,0.01,0.01,0.01,0.01,0.05,0.05,0.05,0.05,0.05,0.1,0.1,0.1,0.1,0.1,0.2,0.2,0.2,0.2,0.2]]
}