{
"KTrans": [[10.623,5.566,4.185,4.634,3.978,23.144,14.127,10.181,9.527,6.731,37.755,19.214,16.73,15.537,14.901,35.534,104.478,80.332,75.562,60.542,168.077,82.422,87.581,86.232,118.503,166.758,174.646,164.773,38.924,48.754],[18.495,10.686,7.169,6.422,4.719,26.99,15.613,10.741,7.056,7.142,35.189,20.817,15.285,12.787,9.951,20.967,80.074,58.38,45.188,36.5,21.288,82.989,80.112,84.548,73.986,140.021,58.248,61.554,77.865,65.857],[-9.282,14.07,9.636,6.67,5.641,-1.718,25.88,14.557,9.802,7.55,4.838,29.47,17.237,12.397,11.558,-19.1,21.521,62.635,44.254,31.443,57.187,49.806,7.041,94.68,71.877,40.937,108.901,76.734,25.485,35.781],[-42.66,28.375,12.624,9.316,8.096,-54.723,33.146,18.548,12.355,9.948,-48.089,43.581,20.292,15.082,12.738,-24.538,4.799,86.229,40.528,36.349,3.556,20.59,-6.579,79.077,71.498,50.447,90.299,43.898,62.316,35.587],[-68.528,40.436,14.621,15.185,9.236,-67.742,38.715,21.471,15.541,12.815,-79.406,49.941,23.604,18.82,12.971,-41.32,9.728,87.046,51.1,38.266,-16.078,17.984,9.868,75.491,100.01,-2.328,4.688,35.736,8.003,66.079],[-77.423,1.944,22.971,16.925,14.031,-78.237,1.53,36.664,18.461,14.903,-79.834,-6.287,45.815,20.934,15.651,-70.517,3.815,10.784,69.721,49.189,-47.397,4.151,34.628,62.646,84.154,-29.157,7.291,29.388,29.318,79.751]],
"ve": [[0.602,-0.58,-1.286,-0.522,-2.585,2.892,0.137,-1.907,-4.796,-3.822,8.81,0.982,-4.078,-6.921,-9.33,46.548,15.363,0.592,-10.74,-18.802,94.36,32.135,0.437,-7.691,-22.888,201.123,71.072,35.04,4.832,4.711],[0.53,-0.888,-0.902,-1.712,-1.88,5.128,1.727,0.062,-0.588,-1.027,8.988,3.821,1.26,0.366,-0.24,51.014,23.792,13.292,7.661,4.14,104.897,46.759,27.506,19.531,12.461,194.796,102.485,59.799,39.947,25.053],[2.388,-0.229,-0.841,-1.132,-1.424,10.031,1.613,0.313,-0.008,-0.355,10.902,4.383,2.497,1.426,0.274,51.42,17.897,15.168,10.06,6.908,97.979,49.079,31.592,22.805,16.745,202,114.566,91.123,46.09,34.347],[0.956,1.232,-0.556,-0.53,-1.092,3.148,2.28,1.334,0.111,-0.111,7.969,4.49,2.382,1.266,0.91,49.597,28.062,15.722,10.815,8.136,105.188,47.941,32.659,23.493,17.849,231.013,98.145,65.042,46.837,35.397],[1.49,0.727,-1.45,-0.867,-0.875,3.36,1.727,0.731,0.402,-0.12,6.957,5.16,1.456,1.732,0.533,47.946,19.737,15.063,10.853,8.332,102.643,50.307,32.513,20.94,19.474,202.103,103.601,69.777,49.348,37.758],[1.531,0.224,-0.756,-0.567,-0.606,4.943,5.683,1.411,0.186,0.164,18.349,-465.851,3.002,1.462,0.618,52.005,25.786,19.362,11.356,9.478,99.681,51.681,33.067,24.515,17.902,206.368,106.55,66.25,49.679,11.481]],
"kep": [[10.962,7.306,7.432,7.737,11.594,20.63,15.334,13.965,17.231,14.209,27.535,19.155,23.194,25.883,30.103,0.794,78.489,80.153,98.306,99.417,53.029,41.894,69.347,86.235,161.825,22.109,76.199,112.654,41.403,62.499],[18.33,11.888,8.273,8.394,6.839,20.443,13.681,10.812,7.804,8.367,23.169,16.453,13.935,12.455,10.334,-13.23,43.399,39.246,34.651,31.04,-27.974,29.958,37.321,53.401,54.044,-9.198,-2.397,11.572,32.329,28.399],[-11.828,14.123,10.627,7.935,7.209,-8.181,23.792,14.297,9.852,7.964,-5.412,23.775,14.377,10.858,11.294,-42.149,1.277,40.009,30.656,22.89,-16.529,5.388,-13.215,56.271,46.167,-45.998,13.879,15.434,-4.526,4.502],[-43.671,25.901,13.037,9.889,9.308,-55.865,28.948,16.837,12.218,10.09,-52.021,35.636,17.315,13.598,11.742,-47.061,-12.995,57.717,26.393,25.709,-43.926,-15.036,-22.892,41.744,43.883,-44.265,2.284,-4.543,14.778,5.014],[-67.189,37.304,15.813,16.057,10.161,-67.371,33.925,19.973,14.933,12.922,-78.744,39.555,21.195,16.642,12.323,-58.052,-9.295,57.775,35.236,27.117,-55.456,-16.481,-12.719,40.107,63.886,-63.394,-39.76,-11.097,-18.37,23.463],[-75.922,0.093,22.74,17.093,14.595,-77.678,-2.182,33.45,17.84,14.585,-79.743,-12.009,39.634,18.819,14.814,-77.523,-16.138,-3.816,50.178,35.424,-70.842,-26.516,4.083,31.795,53.012,-72.607,-39.924,-16.421,-7.284,31.607]],
"vp": [[142.486,278.199,471.867,429.24,260.387,24.263,55.856,45.217,21.072,14.697,28.852,13.591,-16.902,7.093,-10.925,-21.695,-8.938,-1.7,3.733,-26.14,-34.142,-28.894,-25.564,-18.214,-29.351,-46.936,-40.983,-32.399,-26.83,-24.88],[1908.685,966.701,694.416,1006.943,675.677,279.927,159.535,139.772,97.643,136.003,121.515,44.57,82.244,69.07,45.848,12.285,-2.991,-10.85,-5.139,-4.015,16.072,-20.149,-5.99,-18.148,-12.785,-53.621,-6.593,-32.064,-40.121,-17.454],[4234.45,1094.748,1170.376,997.217,1146.544,684.561,236.957,337.237,252.242,284.897,332.847,147.326,106.387,92.577,125.375,48.357,29.954,-0.188,10.962,-10.755,-25.419,-7.332,-17.041,1.847,-4.805,-39.298,-48.787,-41.937,-28.471,-21.274],[4791.129,1935.691,1430.085,1838.441,1697.711,1016.77,427.865,308.576,276.359,386.301,422.44,182.382,119.336,174.424,164.064,44.417,49.027,-0.11,-13.557,7.181,36.45,2.568,4.748,13.831,-8.48,-12.832,-41.683,-34.034,-33.58,-46.753],[5891.927,4487.367,1758.276,1804.053,1961.724,1152.63,872.586,346.66,339.31,408.053,693.065,429.242,173.886,180.15,144.918,45.069,71.08,20.617,7.992,5.334,25.245,19.998,10.233,0.65,18.423,-16.147,2.444,-2.013,-7.098,-28.587],[5953.409,6323.041,2618.859,1945.346,2494.04,1279.403,1049.803,502.348,361.589,432.703,613.715,747.02,240.023,187.527,189.744,96.816,122.629,109.612,13.275,26.449,-13.235,49.029,9.122,19.463,-24.656,-6.171,20.431,-22.078,-15.59,-26.87]]
}