{
"KTrans": [[-1.436,1.274,4.611,4.648,3.055,4.144,14.915,11.971,11.408,13.058,11.167,26.658,26.35,24.655,23.127,41.424,82.189,98.361,100.458,98.613,184.079,52.751,130.782,151.695,161.221,250.948,-346.727,25.583,128.808,168.599],[-11.283,-2.529,0.28,2.394,3.205,-6.096,1.068,2.101,5.985,4.977,4.759,11.432,5.094,11.327,10.299,127.565,89.01,19.856,32.063,40.363,310.077,238.931,67.218,21.286,59.575,959.201,693.487,83.93,-105.998,39.536],[-16.542,-2.225,-1.17,0.467,0.417,-10.477,2.823,2.361,1.694,1.303,-1.514,11.047,7.721,6.032,2.317,88.075,72.729,57.88,52.453,9.646,251.619,178.258,137.023,136.794,34.232,680.212,461.427,387.923,374.057,31.137],[-27.682,-3.418,-1.185,0.557,0.296,-21.456,2.619,2.612,3.137,1.986,-13.193,6.454,8.308,7.691,4.805,60.29,65.855,48.433,40.829,35.921,194.751,149.885,110.391,98.331,90.158,583.162,391.649,284.084,243.319,241.52],[-35.206,-2.905,-0.725,0.563,0.256,-28.157,0.229,1.612,2.595,1.579,-16.793,4.248,7.447,6.462,5.714,53.664,58.035,44.941,37.406,30.945,169.575,139.68,97.18,81.651,69.935,500.711,346.455,243.934,200.203,174.763],[-37.532,-5.865,-0.409,-0.205,1.108,-35.932,-1.109,2.283,2.739,2.278,-28.129,2.042,7.297,5.738,4.886,33.27,51.873,41.849,34.044,29.043,149.285,131.882,93.329,75.163,65.093,429.427,321.857,221.669,176.9,149.217]],
"ve": [[18.962,-6.731,21.7,-4.153,179.695,11.071,16.752,20.626,-78.966,-166.886,-6.047,21.764,19.132,-362.499,5.59,89.276,-3.74,-49.439,-99.282,-51.918,106.983,30.577,-6.541,-30.37,-45.357,193.167,83.766,32.711,3.739,-14.987],[-1.108,-2.168,-20.431,3.222,1.69,2.883,-0.04,-1.012,-26.829,5.616,7.577,3.57,3.959,52.516,68.689,49.612,24.679,16.67,-1.457,-58.969,99.944,51.002,24.102,18.736,-0.189,200.396,100.449,70.295,45.039,27.393],[-0.373,0.237,-0.733,-1.415,0.901,2.793,1.552,1.366,1.056,2.079,6.254,5.051,3.238,1.933,2.368,48.021,24.95,17.363,13.032,7.315,99.048,51.197,34.784,25.616,18.579,199.744,101.071,68.492,50.879,40.203],[-1.553,0.298,-0.263,-0.062,-0.285,2.24,1.946,1.259,1.119,0.437,8.407,4.508,3.154,2.638,1.895,48.016,25.027,17.06,13.252,10.377,99.254,50.514,34.006,26.346,21.041,198.824,100.558,68.126,51.518,41.737],[-0.706,-0.506,0.146,0.21,0.123,3.957,2.195,1.134,1.199,0.555,9.449,4.253,3.579,2.6,2.048,48.598,24.908,16.921,13.231,10.42,100.034,51.121,34.099,26.209,21.093,198.712,100.321,67.728,51.367,41.733],[-2.612,-0.505,0.268,0.065,0.213,3.576,2.128,1.457,1.138,0.922,7.948,4.157,3.173,2.197,2.123,48.82,24.978,16.587,12.512,10.376,99.422,50.224,33.882,25.72,20.723,199.086,100.529,67.184,51.411,41.064]],
"kep": [[-131.951,-10.369,-17.504,-13.891,-7.818,-128.216,-38.938,-19.993,-15.46,-24.711,-123.931,-65.514,-43.942,-42.43,-41.321,-159.452,-234.997,-189.317,-176.256,-192.02,-53.998,-445.752,-381.702,-369.618,-381.082,-110.522,-905.971,-726.998,-717.035,-769.313],[-25.922,-19.394,-124.355,-17.35,-10.918,-22.144,-11.965,-127.87,-28.189,-14.005,-13.824,0.297,-110.677,-53.257,-29.803,52.064,89.828,-118.842,-172.94,-108.061,108.466,208.809,-41.068,-342.598,-203.447,265.52,422.148,-116.065,-635.645,-404.049],[-23.998,-7.926,-8.562,-11.206,-129.008,-22.942,-2.83,-3.256,-5.045,-122.295,-18.279,4.975,7.363,6.32,-126.108,21.707,49.583,64.459,108.999,-136.435,73.579,105.132,128.815,238.587,-75.96,157.747,213.234,289.019,444.7,-158.467],[-36.684,-8.354,-5.196,-1.099,-1.424,-34.114,-2.702,-2.192,1.96,-0.278,-28.154,-1.55,5.295,9.563,5.288,0.443,36.115,37.606,45.388,59.58,41.858,74.549,75.868,100.515,140.039,123.789,158.429,164.154,199.803,290.836],[-42.447,-7.653,-1.098,0.298,-0.484,-39.189,-4.237,-2.272,2.023,-0.101,-30.863,-4.133,5.749,5.589,7.077,-2.462,27.706,29.169,31.818,35.153,29.308,63.014,57.481,63.098,72.747,94.896,128.741,122.616,133.31,150.519],[-45.157,-9.167,-2.199,-1.268,0.393,-44.078,-5.214,0.466,1.233,1.028,-41.364,-4.392,3.078,4.421,4.286,-16.799,21.01,23.465,24.247,25.975,18.365,56.551,49.659,50.776,55.059,71.545,114.098,101.834,103.216,106.249]],
"vp": [[120.889,-39.271,95.855,94.809,128.303,2.882,-25.538,-29.295,3.907,39.58,-16.853,-11.552,13.52,3.378,-7.395,4.033,1.161,-3.813,-5.56,4.94,-1.506,-0.103,0.503,1.964,0.526,0.142,-0.081,0.03,-0.482,0.265],[1498.131,183.442,-28.2,-54.221,101.435,407.105,32.163,-14.018,-16.721,29.156,125.094,36.683,-0.68,-2.649,17.008,33.991,9.541,-0.756,-1.079,-1.577,16.539,3.029,-1.726,-0.238,-0.509,9.107,2.01,-0.668,-0.337,0.08],[3947.555,625.913,88.549,154.065,-25.373,707.851,115.597,5.681,34.648,-8.175,366.358,79.636,23.439,18.898,-8.196,60.465,10.062,5.612,6.545,2.07,33.378,5.684,5.516,0.199,0.863,15.175,2.702,1.16,3.177,-0.018],[5075.493,1656.231,2.317,410.395,176.124,1068.777,307.375,118.478,41.66,30.247,545.426,125.945,67.557,59.68,-21.546,112.13,32.293,2.903,5.709,1.49,51.161,13.594,2.923,7.498,1.458,25.793,7.216,0.509,0.035,0.179],[6399.121,3001.399,107.752,266.408,69.187,1296.625,424.972,47.028,1.571,1.367,678.029,260.691,29.505,1.651,23.995,133.739,53.77,14.497,9.577,-3.643,63.495,25.395,1.969,5.332,-1.404,30.628,13.365,2.992,0.387,1.537],[7370.999,3832.867,1724.434,-48.289,458.488,1478.714,785.444,62.904,144.074,16.592,750.598,352.999,110.884,26.144,5.888,140.957,80.076,22.46,4.923,7.59,70.534,40.023,11.007,2.887,-0.356,34.582,18.833,3.287,2.568,1.951]]
}