{
"KTrans": [[-2.458,9.625,18.54,18.381,16.538,12.74,24.209,15.346,17.998,17.534,17.898,27.894,16.06,27.872,23.927,106.489,108.243,83.178,75.638,75.865,55.178,134.001,143.652,149.002,146.024,225.291,115.402,276.297,227.28,242.906],[-27.498,-5.399,-0.197,5.933,6.587,-43.107,-0.445,3.482,8.445,10.14,-29.675,-2.825,6.753,7.389,12.807,-12.792,43.328,35.083,36.88,33.963,-36.148,72.336,79.894,65.153,67.888,-52.288,62.839,171.224,144.121,137.579],[-62.078,-17.664,-7.391,-1.529,1.796,-60.573,-12.414,-5.679,-0.822,0.72,-51.336,-15.22,-5.964,1.695,3.397,-54.927,15.561,17.324,18.458,22.873,-29.418,19.107,57.499,46.33,45.425,-59.522,-52.803,54.978,97.008,96.455],[-67.465,-26.821,-13.812,-10.29,-3.523,-69.091,-24.361,-14.808,-7.095,-3.982,-66.325,-21.707,-10.06,-8.646,-2.763,-50.891,-2.44,7.8,8.454,11.694,-88.587,12.53,38.974,34.818,28.972,-44.203,-14.621,67.381,63.892,89.379],[-75.939,-35.964,-20.993,-17.318,-10.263,-77.387,-35.943,-20.938,-13.786,-8.302,-74.399,-29.687,-19.667,-13.129,-6.782,-65.369,-17.166,0.517,4.382,5.121,-78.886,-24.43,23.429,19.677,27.761,-69.584,-19.63,10.823,60.533,60.953],[-83.08,-41.529,-27.712,-17.968,-15.37,-84.38,-43.224,-24.845,-20.536,-14.871,-77.374,-43.153,-25.609,-19.832,-10.82,-72.55,-29.819,-6.819,-5.515,1.601,-67.607,-42.599,2.465,21.898,13.49,-77.136,-47.769,19.153,30.079,49.069]],
"ve": [[-43.668,20.259,-497.834,119.254,-41.451,12.397,2.796,-64.803,179.414,-12.405,31.293,7.934,23.13,94.126,-151.485,27.217,29.479,42.124,193.404,66.59,101.669,53.008,30.206,23.772,30.771,182.423,75.749,37.374,-170.989,1.976],[-2.151,1.984,4.789,7.946,14.542,19.003,4.118,4.497,6.118,8.343,23.782,8.006,4.925,7.458,11.416,49.676,22.279,16.771,11.458,14.122,82.458,47.101,28.214,23.884,17.562,189.551,86.089,59.999,46.692,32.207],[-43.439,-0.191,-2.678,0.329,1.901,15.805,-0.902,0.719,0.874,2.343,51.756,4.747,0.807,0.898,2.671,47.815,20.426,11.624,11.836,9.261,90.035,46.986,28.459,21.274,17.374,196.516,94.948,61.803,41.069,38.241],[11.767,-2.244,-3.487,-1.224,-1.288,14.048,0.811,-1.785,-1.052,-0.344,19.512,1.644,0.67,-1.076,0.563,47.69,23.285,13.348,8.373,7.029,92.364,45.893,26.668,20.129,15.454,188.06,104.374,46.408,42.349,34.963],[-5.926,-5.607,-2.381,-3.291,-2.564,48.862,-0.979,-3.209,-2.305,-1.958,-16.771,-0.075,-1.256,-2.014,-0.197,47.841,20.845,11.069,8.017,5.88,99.979,47.591,28.577,20.398,15.595,199.944,91.393,57.32,45,34.891],[33.32,-1.258,-4.7,-4.274,-3.383,-171.547,-2.53,-3.617,-3.431,-4.102,14.157,1.535,-2.265,-2.396,-1.98,40.759,18.423,9.625,7.674,5.577,56.39,45.395,28.684,19.744,14.185,189.142,86.941,46.617,43.143,33.704]],
"kep": [[-41.742,-34.342,-35.433,-41.205,-53.433,-35.677,-18.278,-42.485,-44.762,-45.975,-35.87,-25.283,-39.998,-29.573,-45.286,-7.202,18.381,9.994,9,15.767,-40.67,5.709,33.722,58.302,71.737,-3.579,-11.188,77.909,76.325,108.466],[-53.662,-37.665,-34.874,-33.495,-35.871,-68.649,-35.277,-33.662,-30.96,-31.242,-59.757,-37.569,-31.16,-32.39,-31.595,-59.867,-21.475,-22.128,-17.798,-20.365,-73.206,-21.632,-7.211,-10.801,-4.523,-78.689,-39.459,11.106,11.341,16.459],[-76.51,-44.775,-36.394,-34.671,-33.623,-76.511,-40.408,-37.54,-34.59,-34.652,-71.16,-45.717,-37.818,-32.828,-32.871,-79.552,-35.687,-30.217,-29.607,-25.37,-73.51,-47.043,-19.314,-20.358,-18.094,-84.533,-75.217,-35.023,-9.248,-5.474],[-80.673,-48.794,-40.58,-39.783,-35.281,-82.499,-49.597,-42.089,-37.62,-36.24,-81.832,-48.361,-40.449,-38.703,-35.906,-77.717,-47.137,-37.1,-33.63,-30.934,-92.685,-49.353,-27.767,-26.207,-26.31,-83.695,-68.356,-30.686,-24.946,-8.496],[-85.644,-54.788,-46.173,-43.439,-38.977,-87.183,-56.955,-45.719,-41.503,-38.11,-85.551,-52.949,-45.99,-41.326,-38.093,-84.143,-54.679,-40.401,-36.152,-34.468,-91.259,-65.697,-37.25,-34.454,-27.098,-89.374,-68.942,-53.469,-27.845,-21.926],[-89.674,-60.669,-49.577,-43.217,-42.043,-91.145,-61.069,-48.377,-45.494,-41.276,-87.113,-62.598,-49.65,-45.7,-39.86,-88.234,-61.283,-44.056,-42.005,-36.477,-87.182,-72.67,-47.14,-33.184,-34.52,-92.534,-77.681,-49.809,-40.332,-27.302]],
"vp": [[-109.749,-372.404,408.318,435.885,1173.574,63.29,-2.061,102.658,159.586,141.495,34.26,-17.025,87.351,14.663,139.698,-14.454,-5.122,-3.432,-1.657,-13.485,-5.483,-9.203,2.63,-13.668,-12.672,-37.724,-35.061,-18.548,3.138,1.395],[3473.598,971.514,760.083,324.716,-185.181,350.668,232.858,2.71,-117.977,-86.428,395.322,136.148,-96.075,-18.843,12.058,40.755,-15.088,-21.861,-31.58,-5.909,14.57,-30.947,-11.771,-12.148,-8.426,-6.348,-9.035,-21.942,-7.584,2.452],[4357.103,3593.244,2055.94,1666.613,439.269,844.039,618.317,261.859,232.304,50.685,397.136,443.822,221.3,14.444,31.436,76.282,18.591,14.813,10.749,6.104,27.627,20.472,3.635,-24.011,-10.994,11.48,-10.253,-25.11,-36.826,-13.317],[5776.508,5641.003,4908.218,2389.114,739.333,1080.077,1322.352,881.379,550.034,313.056,604.857,750.033,421.902,210.288,141.573,69.711,90.553,57.437,36.816,25.068,84.466,52.769,2.132,0.004,-20.357,5.74,3.101,-37.948,-28.366,-15.192],[6029.128,6986.117,5402.979,3874.016,2892.686,1377.492,1301.858,1391.611,547.359,619.919,646.691,858.224,547.523,448.311,318.982,97.225,150.956,102.015,75.031,25.126,51.118,85.719,60.643,-7.721,15.853,21.717,15.843,6.891,-3.416,-13.448],[6795.969,10039.364,7410.281,4270.112,3640.967,1359.98,1949.572,1227.38,1291.979,647.199,686.612,856.832,798.444,618.122,356.301,146.155,163.624,160.494,86.568,60.676,44.37,54.67,40.943,49.874,5.576,9.019,6.012,10.081,-11.605,-18.873]]
}