{
"KTrans": [[5.281,3.598,-0.086,1.868,0.785,9.365,7.695,6.022,5.989,5.453,27.877,15.386,14.739,9.904,11.055,165.337,95.751,74.75,64.94,61.81,399.027,224.971,175.39,153.505,137.344,1138.522,591.731,453.969,394.003,363.111],[-5.47,0.223,0.311,2.275,0.413,8.128,4.299,3.014,4.076,3.029,19.888,11.199,9.356,6.838,6.527,128.07,62.151,45.642,35.34,30.754,302.588,149.195,97.826,77.366,67.342,789.681,360.038,233.99,180.012,152.58],[-10.092,2.576,0.098,0.411,0.462,-3.273,5.769,2.96,2.872,1.886,4.293,10.756,7.01,6.042,5.957,94.755,62.244,41.677,31.687,25.384,243.424,133.446,88.747,69.092,54.047,715.151,328.554,203.031,152.507,123.671],[-18.871,-0.732,0.634,2.182,0.676,-18.603,3.574,2.222,3.084,1.811,-12.271,9.725,7.59,5.155,4.666,72.821,57.424,40.187,30.559,24.602,213.993,131.045,82.471,61.506,51.427,549.283,308.996,195.292,141.293,112.742],[-36.491,-1.415,0.433,-0.14,0.888,-26.139,4.456,3.778,1.331,2.302,-22.099,11.559,5.852,5.566,5.428,42.537,52.875,40.387,28.599,22.828,159.756,126.909,81.507,62.365,47.533,503.748,317.001,189.592,139.673,108.213],[-41.358,-2.826,1.484,2.198,-0.181,-38.882,4.036,3.125,2.88,2.807,-40.051,8.32,6.159,5.751,6.237,28.139,57.839,38.383,28.112,22.918,121.735,117.984,82.458,59.553,48.117,383.172,301.118,189.836,134.41,104.719]],
"ve": [[0.895,1.119,3.37,0.535,2.409,5.4,1.542,0.515,-0.533,-1.592,8.911,2.658,-0.434,-1.805,-6.194,45.804,13.488,-1.122,-10.648,-18.217,93.285,32.728,7.973,-7.187,-17.919,191.325,79.162,34.921,10.044,-6.273],[1.259,1.111,0.128,0.31,0.719,5.951,2.781,1.373,1.01,0.922,10.843,5.033,2.778,2.049,0.779,49.19,23.551,14.274,9.326,5.508,100.363,47.719,29.609,19.208,12.422,199.491,97.302,60.877,41.261,28.788],[3.038,0.779,0.072,0.319,0.228,6.155,2.044,1.604,1.167,0.744,9.59,5.064,2.843,2.124,1.459,51.132,24.797,16.004,11.48,8.655,101.705,49.165,31.774,22.755,17.531,200.598,98.853,64.454,46.744,35.645],[3.382,1.023,0.302,0.264,0.175,7.801,2.761,1.422,1.226,0.606,9.994,5.118,3.121,2.23,1.789,50.907,25.173,16.141,12.141,9.299,100.833,49.932,32.757,23.804,18.714,198.447,99.562,65.782,48.273,37.729],[1.508,0.591,0.605,0.622,0.183,7.647,2.611,2.192,1.302,1.094,10.057,5.088,3.713,2.354,1.849,50.521,24.947,16.263,11.984,9.371,98.941,50.114,32.503,24.282,19.075,206.997,100.148,65.966,49.318,38.601],[3.321,0.27,0.705,0.253,0.187,4.432,2.366,1.729,1.527,0.975,8.907,4.64,3.054,2.433,2.041,54.017,25.195,16.404,11.999,9.726,-96.233,49.621,32.976,24.529,19.305,203.417,100.13,66.142,49.676,39.395]],
"kep": [[4.86,3.584,-1.89,3.652,1.457,4.506,7.259,6.786,8.279,9.695,17.998,13.209,16.955,14.011,20.905,82.66,72.992,77.331,85.417,99.417,159.03,145.149,155.533,173.703,189.888,325.772,286.493,310.769,349.279,394.666],[-6.556,-0.77,0.276,2.061,-0.183,2.251,1.654,1.686,3.137,2.179,8.319,5.984,6.458,4.798,5.783,53.224,31.365,27.516,23.845,23.97,101.274,68.827,52.697,48.827,48.922,197.346,133.276,107.663,98.268,96.171],[-12.547,1.86,0.088,0.129,0.253,-8.763,3.698,1.383,1.724,1.17,-4.538,5.467,4.11,3.865,4.463,29.949,30.05,22.235,18.15,15.421,70.689,56.581,43.279,37.777,31.084,171.355,115.575,84.302,72.094,64.912],[-21.456,-1.734,0.331,1.91,0.517,-24.59,0.88,0.82,1.847,1.212,-20.601,4.439,4.341,2.873,2.834,14.57,25.806,20.758,16.449,14.014,56.502,54.233,37.478,30.452,27.57,116.781,105.002,78.123,62.755,54.481],[-37.232,-1.913,-0.133,-0.77,0.706,-31.008,1.758,1.587,0.046,1.196,-30.223,6.275,2.05,3.138,3.518,-5.502,22.396,20.74,14.847,12.312,29.245,51.191,36.99,30.652,23.916,101.048,108.467,74.519,60.533,50.234],[-42.861,-3.027,0.772,1.955,-0.354,-42.838,1.676,1.414,1.33,1.835,-46.776,3.476,3.028,3.245,4.1,-15.514,26.038,18.903,14.39,12.011,10.064,45.765,37.203,28.133,24.156,60.427,100.51,74.45,56.624,46.876]],
"vp": [[0.001,0.001,0.001,0.001,0.001,0.005,0.005,0.005,0.005,0.005,0.01,0.01,0.01,0.01,0.01,0.05,0.05,0.05,0.05,0.05,0.1,0.1,0.1,0.1,0.1,0.2,0.2,0.2,0.2,0.2],[0.001,0.001,0.001,0.001,0.001,0.005,0.005,0.005,0.005,0.005,0.01,0.01,0.01,0.01,0.01,0.05,0.05,0.05,0.05,0.05,0.1,0.1,0.1,0.1,0.1,0.2,0.2,0.2,0.2,0.2],[0.001,0.001,0.001,0.001,0.001,0.005,0.005,0.005,0.005,0.005,0.01,0.01,0.01,0.01,0.01,0.05,0.05,0.05,0.05,0.05,0.1,0.1,0.1,0.1,0.1,0.2,0.2,0.2,0.2,0.2],[0.001,0.001,0.001,0.001,0.001,0.005,0.005,0.005,0.005,0.005,0.01,0.01,0.01,0.01,0.01,0.05,0.05,0.05,0.05,0.05,0.1,0.1,0.1,0.1,0.1,0.2,0.2,0.2,0.2,0.2],[0.001,0.001,0.001,0.001,0.001,0.005,0.005,0.005,0.005,0.005,0.01,0.01,0.01,0.01,0.01,0.05,0.05,0.05,0.05,0.05,0.1,0.1,0.1,0.1,0.1,0.2,0.2,0.2,0.2,0.2],[0.001,0.001,0.001,0.001,0.001,0.005,0.005,0.005,0.005,0.005,0.01,0.01,0.01,0.01,0.01,0.05,0.05,0.05,0.05,0.05,0.1,0.1,0.1,0.1,0.1,0.2,0.2,0.2,0.2,0.2]]
}