{
"KTrans": [[1.978,-3.962,-2.701,-3.86,-0.189,1.057,12.53,5.206,3.973,5.723,15.782,17.654,23.07,6.782,17.794,-22.749,44.528,66.559,84.517,79.664,99.976,-19.846,101.298,93.981,127.487,177.633,-169.14,-84.969,-46.627,-13.14],[-35.7,-9.058,1.696,4.327,-5.165,-26.054,-7.635,4.039,6.184,5.778,-20.287,-10.759,6.514,6.543,3.922,-25.052,10.299,-13.366,24.934,34.499,-12.46,-33.587,-20.273,32.166,33.991,-27.809,-10.854,-6.685,-23.606,-5.306],[-43.776,-11.495,-5.739,-4.108,0.521,-49.538,-10.164,-5.385,-2.702,-0.998,-39.422,-3.687,-1.508,0.29,2.512,-62.15,-19.543,13.277,2.141,-10.836,-27.87,2.368,-6.228,-12.567,-15.587,-33.938,-183.899,-104.921,29.557,-31.748],[-54.212,-17.534,-6.894,-2.305,-2.321,-57.253,-12.855,-2.687,-1.974,0.531,-50.394,-9.286,-2.144,4.335,2.199,-67.214,-7.758,14.626,22.985,-1.632,-62.681,11.513,4.67,20.386,-14.02,-65.456,10.866,-30.476,-2.327,-5.339],[-70.429,-21.244,-3.532,-0.63,-0.071,-61.88,-22.478,-0.652,0.916,1.219,-58.266,-19.126,-2.195,4.396,4.522,-74.158,-3.443,14.875,26.291,24.663,-105.298,-22.187,-31.487,-11.053,31.101,2.076,-14.288,-16.581,-31.169,6.741],[-70.27,-33.971,-6.566,-1.799,1.256,-70.845,-29.011,-3.477,-2.268,0.433,-66.832,-15.796,-2.92,0.416,1.345,-70.606,-10.253,-14.277,26.043,18.229,-36.839,-39.505,-27.953,15.521,5.332,-83.42,-11.532,-5.697,126.503,-68.021]],
"ve": [[-27.106,-41.654,-39.847,8.277,-109.724,59.402,-15.1,-129.531,-33.844,112.254,2.332,-51.243,-27.997,15.826,-35.425,43.058,-44.893,-23.49,-15.431,30.862,77.49,23.609,-9.221,13.083,-45.917,189.098,82.385,25.526,1.496,5.312],[-10.274,-12.85,1.478,-30.792,7.587,-19.944,3.762,15.061,-5.498,-88.284,3.611,24.492,-2.577,-4.64,29.166,54.184,22.446,14.792,-8.997,6.554,58.133,49.73,29.637,19.305,3.285,193.777,99.924,62.926,43.083,23.795],[-131.395,-3.597,-3.074,-3.226,9.074,-2.129,-3.05,1.206,3.193,6.271,10.914,3.776,-2.811,-4.894,0.096,57.516,9.738,14.769,13.663,25.823,96.18,58.349,33.832,21.828,22.151,193.662,106.203,68.259,48.084,35.541],[5.732,-2.883,-3.04,-0.974,-11.124,-1.479,0.66,-0.46,-1.797,-4.323,6.325,1.929,-3.139,0.933,-0.273,50.591,26.047,14.209,12.166,11.478,94.089,42.943,33.2,24.702,20.01,196.449,97.509,68.744,51.24,39.909],[-1510.359,-1.797,-1.141,-0.396,-1.22,-6.365,0.023,0.293,0.808,-0.482,-7.281,-16.356,0.652,1.361,0.438,18.712,22.224,13.488,11.409,8.182,96.076,52.329,34.734,25.012,19.783,188.02,98.641,61.098,44.562,40.481],[-6.417,-12.176,-2.051,-0.923,-0.032,0.007,-0.891,0.642,0.393,0.161,12.649,-3.88,2.161,1.769,1.419,44.275,19.459,12.141,8.462,7.094,86.795,54.804,33.078,24.798,19.828,191.707,112.789,64.316,51.213,41.11]],
"kep": [[-117.992,-31.855,1.577,19.104,-13.631,-128.403,-80.535,-29.608,-0.222,-28.05,-117.585,-95.268,-92.38,21.018,-36.252,-166.367,-227.584,-242.846,-233.535,-190.473,-63.627,-302.193,-288.203,-402.05,-341.708,21.185,-251.437,-463.544,-668.24,-794.968],[-76.37,-68.502,-126.195,-82.942,18.972,-67.427,-83.824,-102.265,-72.481,-18.606,-65.42,-92.652,-111.049,-71.933,-11.43,-78.684,-55.531,-173.578,-138.93,-119.748,-62.271,-73.906,-136.323,-173.285,-211.359,-64.646,-44.176,-20.727,-141.057,-298.474],[-70.051,-33.935,-31.04,-55.622,-105.088,-76.276,-33.325,-34.666,-63.545,-133.813,-69.041,-24.956,-22.924,-48.452,-131.076,-84.488,-55.507,-34.007,-70.173,-179.529,-67.434,-42.853,-47.908,-71.938,-133.049,-67.018,-110.928,-95.631,-6.589,-70.942],[-75.55,-32.665,-18.941,-13.505,-23.813,-78.746,-27.117,-11.243,-12.153,-13.412,-75.244,-26.881,-16.713,-3.573,-15.033,-86.266,-42.234,-16.319,1.602,-49.996,-79.037,-33.841,-33.827,-21.928,-60.485,-80.709,-41.926,-51.037,-27.917,-33.51],[-87.297,-35.498,-12.759,-3.096,-1.041,-79.859,-37.545,-10.013,-3.965,-3.964,-79.561,-39.415,-11.387,0.086,2.222,-90.019,-34.559,-14.163,8.688,12.498,-97.154,-53.522,-57.538,-37.047,9.667,-69.884,-54.467,-46.102,-47.629,-22.901],[-84.673,-48.229,-15.196,-8.255,4.562,-87.069,-46.075,-13.312,-6.887,-5.066,-84.673,-34.645,-14.102,-4.906,-5.076,-87.215,-42.866,-38.619,8.066,7.412,-74.011,-62.868,-54.06,-16.931,-24.754,-88.662,-54.915,-43.645,33.149,-70.371]],
"vp": [[161.843,110.852,230.647,596.103,199.329,-55.44,3.345,38.171,61.259,70.263,-37.043,-29.603,22.887,26.017,-27.567,-14.664,-22.687,30.254,-1.377,-5.964,-34.337,-13.063,-25.384,1.875,-28.423,-45.839,-8.062,-2.948,1.684,2.013],[3056.905,1051.197,-169.399,172.19,-495.025,454.34,131.748,-40.561,-48.371,91.48,232.635,58.103,-1.398,18.497,-18.503,28.585,-30.718,-6.545,-38.007,-4.018,-13.298,-18.22,-24.329,-37.314,-0.245,-35.98,-24.611,-28.958,-12.874,-2.096],[5099.196,3437.701,1278.957,639.188,325.696,812.021,357.787,189.165,47.436,77.323,424.948,266.081,101.579,20.05,-20.891,61.653,23.91,12.921,-10.018,-10.925,9.161,-13.181,-24.171,-30.01,-11.734,5.152,3.407,-18.125,-37.977,-36.104],[5995.024,3773.219,1759.603,1444.461,-65.53,1135.643,805.632,371.283,283.654,86.281,526.804,401.361,242.177,166.104,57.367,65.082,46.35,17.208,9.725,8.689,24.588,-12.292,-12.698,-15.356,-13.365,3.715,-33.579,-27.03,-30.824,-20.732],[5887.389,6388.902,3253.708,1062.379,1043.828,1198.417,1126.655,571.696,365.961,120.605,636.171,541.536,360.561,178.669,160.005,130.862,79.949,25.232,28.266,-6.346,35.933,38.205,23.149,-4.355,-20.717,-23.544,-19.461,-15.531,-37.43,-27.013],[6647.856,5976.814,5600.582,3002.952,1527.442,1253.119,1561.095,975.822,363.316,458.502,673.797,739.89,485.347,73.326,182.333,109.176,118.329,97.205,14.405,-6.723,17.09,47.585,27.101,-13.116,-5.58,-8.2,5.088,-21.572,-21.341,-11.182]]
}