{
"KTrans": [[-25.621,6.283,13.474,3.624,9.391,-32.093,7.743,6.32,2.825,4.377,-22.537,2.002,-6.361,8.751,11.028,-25.928,5.725,-0.735,8.386,4.753,15.91,4.654,23.971,-1.368,4.37,-112.193,36.507,35.152,23.081,28.753],[-84.192,-18.499,-3.155,3.332,-1.185,-79.028,-13.79,1.192,1.909,3.527,-81.487,-17.363,0.452,0.94,6.737,-82.399,-22.569,-1.977,0.289,-3.779,-82.821,-6.231,-2.964,8.205,-2.256,-152.919,20.845,20.534,16.219,6.977],[-94.513,-45.113,-5.414,2.452,2.779,-94.499,-45.704,-5.001,3.023,3.578,-94.572,-48.149,-0.501,7.675,-1.091,-92.726,-45.785,-10.77,-6.004,0.22,-92.973,-44.829,-9.126,-3.782,2.21,-116.034,-36.648,-1.2,0.753,-7.094],[-97.501,-72.833,-17.693,-4.063,1.562,-97.513,-68.513,-24.554,-1.359,0.691,-96.64,-79.66,-26.486,1.245,0.494,-98.465,-70.93,-29.332,0.646,-0.513,-97.24,-60.061,-30.268,4.74,2.655,-132.887,-53.788,-12.997,12.484,-4.515],[-98.855,-86.82,-38.174,-13.724,-4.589,-98.46,-84.834,-41.458,-13.863,-3.732,-98.436,-85.438,-47.752,-5.382,-0.439,-99.749,-82.277,-47.57,-9.593,-2.851,-103.779,-77.476,-32.429,-18.888,-4.168,-114.056,-87.228,-12.246,-7.448,-5.237],[-98.853,-93.112,-61.67,-12.831,-5.945,-99.524,-92.079,-60.655,-15.922,-4.169,-99.94,-93.508,-61.692,-20.467,-4.403,-100.487,-89.666,-62.501,-26.153,-4.144,-106.718,-82.627,-56.787,-21.047,-11.494,-122.591,-86.462,-45.231,-14.881,-18.879]],
"ve": [[5.901,-8.957,14.641,-219.665,-1305.942,8.041,285.395,-91.396,-4.037,34.791,-15.896,39.413,106.335,13.35,-26.69,-115.423,0.845,-214.101,19.861,-31.466,-32.726,-21.806,12.01,-59.448,-90.526,-18.153,-50,-28.996,-56.536,-999.735],[-54.769,-5.725,0.267,2.057,1.822,-49.419,-7.172,2.541,2.438,1.572,-68.692,-6.924,1.183,0.614,2.232,-77.206,-13.835,-0.654,1.439,1.944,-66.728,-10.094,4.577,2.141,31.9,-64.637,3.207,-9.037,-16.246,-87.32],[-64.295,2.619,1.42,0.337,-0.9,-64.49,-24.459,-4.53,0.611,0.423,-90.597,-23.951,-1.61,1.149,0.152,-75.296,-27.749,-5.489,-1.977,-1.121,-86.604,-37.217,-3.561,1.415,1.757,-106.493,-28.614,-12.479,-16.502,-11.888],[-59.36,-47.081,-9.373,-3.569,0.139,-84.987,-37.748,-10.687,-2.027,-0.735,-392.383,-33.555,-13.237,-2.268,-1.986,-71.517,-55.594,-16.772,-0.506,-0.075,-92.418,-55.134,-41.353,1.594,0.335,-170.616,-35.513,-17.307,-0.568,53.285],[-97.834,-58.885,-20.629,-9.3,-2.281,-46.637,-62.663,-25.17,-5.007,-3.066,7.983,-69.274,-28.021,-5.283,-2.344,-378.446,-67.195,-28.446,-6.134,-3.791,-103.565,-61.539,-22.912,-13.543,-4.647,-136.675,-77.895,-14.872,-16.661,-8.02],[-134.668,-87.624,-33.227,-8.017,-4.293,-101.343,-71.135,-42.524,-9.287,-3.847,-130.226,-82.043,-35.709,-13.239,-4.479,-150.779,-71.947,-35.945,-15.891,-4.595,-126.572,-59.68,-38.365,-18.966,-9.802,-140.338,-58.499,-42.736,-20.131,-23.963]],
"kep": [[-43.283,-10.775,7.411,-4.318,7.147,-49.364,-5.968,0.176,-5.453,-2.803,-48.84,-6.744,-15.443,5.116,11.422,-46.95,-12.613,-19.057,0.836,-2.829,-29.032,-36.639,-3.445,-49.912,-27.937,12.09,8.892,-17.777,-56.756,-27.132],[-88.028,-17.656,-4.385,1.9,-1.799,-85.054,-10.016,-1.493,0.57,2.512,-85.059,-16.12,-1.214,0.557,5.196,-85.839,-23.931,-4.107,-1.947,-4.207,-73.87,-28.385,-14.236,-0.237,-6.598,-42.585,-15.203,-16.488,-13.306,-9.871],[-97.37,-37.908,-6.934,0.447,3.056,-97.361,-37.745,-2.926,1.609,2.916,-96.546,-40.099,-1.73,5.416,-1.519,-94.789,-45.808,-10.361,-5.986,0.087,-85.262,-52.288,-16.561,-9.445,-2.06,-71.481,-30.874,-34.939,-18.107,-21.554],[-101.197,-65.887,-12.174,-2.936,1.037,-100.468,-62.189,-18.333,-0.962,0.517,-100.753,-73.822,-19.012,1.169,2.142,-96.427,-71.919,-26.981,-2.141,-1.92,-92.728,-65.635,-39.203,-5.405,-1.822,-81.144,-48.456,-32.911,-14.658,-15.985],[-100.215,-83.371,-28.153,-7.468,-3.751,-99.11,-82.158,-31.439,-10.757,-1.836,-98.909,-82.39,-36.033,-2.503,0.485,-98.325,-80.505,-41.734,-8.058,-1.629,-93.235,-77.272,-41.304,-21.469,-5.857,-87.69,-62.988,-36.646,-34.022,-18.775],[-99.948,-90.517,-50.71,-8.567,-3.197,-101.234,-90.112,-52.216,-10.308,-1.633,-99.158,-93.863,-50.19,-12.021,-1.169,-97.866,-91,-55.176,-18.897,-2.041,-93.338,-83.985,-59.781,-28.774,-10.691,-87.496,-70.352,-57.925,-41.963,-31.817]],
"vp": [[1668.687,-250.111,-368.658,101.418,-504.432,305.346,17.52,-12.096,56.974,-25.005,185.822,60.523,82.243,-54.369,-52.57,27.139,0.42,11.653,-7.177,10.33,0.172,20.57,-6.462,20.051,3.525,12.285,0.78,0.196,5.842,-1.564],[6332.563,1953.291,687.694,26.568,688.689,1108.395,401.546,35.412,7.443,-6.456,560.75,207.066,55.986,41.312,-62.387,127.077,73.639,27.297,16.449,22.624,53.06,16.702,15.161,0.275,12.509,56.156,-2.581,-3.325,1.863,0.625],[7742.094,5346.77,1659.779,129.162,379.759,1612.559,1127.567,324.28,116.258,-103.775,855.674,535.732,81.803,-27.968,39.758,162.827,116.653,45.423,24.059,13.626,88.665,73.159,23.12,20.033,0.554,58.497,29.545,23.163,10.017,26.845],[9097.367,10788.32,3154.843,1831.523,390.709,1806.058,1690.452,739.685,337.232,147.012,889.448,1100.528,479.291,106.106,134.658,190.291,206.793,112.529,11.536,2.362,88.044,93.578,75.572,-4.295,0.911,71.891,37.122,24.981,-0.064,19.994],[9408.504,12985.938,6776.118,3869.247,1945.251,1922.768,2600.531,1602.614,560.833,321.77,970.346,1285.55,947.289,231.058,104.775,217.27,256.046,188.004,57.931,34.256,114.11,116.667,66.474,72.95,29.689,64.39,80.168,18.863,29.7,25.807],[10379.081,14790.44,12047.601,3686.916,2478.928,2043.553,3035.584,2394.644,815.676,317.54,1047.37,1636.038,1165.274,549.055,186.751,214.934,304.142,244.871,140.458,47.876,116.965,125.72,124.533,77.666,56.612,74.1,61.846,68.178,44.448,54.41]]
}