{
"KTrans": [[-6.679,16.156,10.106,18.046,12.3,8.593,16.88,18.804,21.218,15.679,13.483,26.919,26.156,23.914,35.069,95.887,93.699,72.107,84.634,66.941,-0.121,148.76,122.678,115.543,150.736,29.541,-4.496,-47.535,136.924,82.807],[-30.428,-10.877,1.697,5.414,7.662,-39.156,4.64,2.14,5.16,8.294,-31.247,1.634,11.804,12.2,8.21,-11.755,39.226,40.812,39.813,36.487,0.183,6.896,63.449,63.856,61.159,-40.165,-37.482,1.951,89.51,113.527],[-56.776,-12.513,-6.392,-3.113,-0.354,-54.665,-15.055,-1.039,-2.303,1.848,-52.216,-14.653,-2.145,1.986,4.906,-45.496,17.954,30.66,21.134,18.878,-20.366,-8.193,43.157,46.61,45.976,-31.655,54.206,17.603,63.625,93.906],[-72.333,-22.282,-10.707,-11.977,-4.003,-64.807,-22.367,-13.71,-9.358,-3.257,-63.469,-19.661,-8.467,-5.478,0.337,-56.459,-4.526,3.944,12.754,16.332,-72.453,-22.217,14.393,38.9,42.067,-67.587,-17.23,44.87,8.575,70.262],[-80.697,-35.841,-19.122,-13.049,-9.617,-78.003,-31.131,-20.376,-15.403,-5.584,-79.491,-25.631,-18.428,-12.582,-7.089,-63.653,-22.426,-2.259,2.408,7.586,-74.284,-47.976,19.343,35.115,24.715,-61.855,-30.337,4.408,38.782,35.93],[-88.522,-41.209,-28.046,-18.911,-7.572,-80.629,-38.068,-26.047,-13.213,-11.416,-82.176,-31.661,-25.027,-17.5,-8.657,-87.939,-34.295,5.947,0.163,6.046,-58.936,-45.698,13.292,20.367,23.981,-59.833,-49.02,-47.027,3.82,19.377]],
"ve": [[-99.921,-2.564,69.596,-59.557,3.833,9.649,80.968,-64.141,17.836,1.627,36.892,-395.107,340.113,428.949,-155.922,65.195,60.858,14.56,3.308,-1.338,93.706,39.735,16.195,20.744,11.596,182.67,82.576,36.323,18.21,-1.943],[-14.116,8.714,3.773,7.674,9.175,1.012,5.705,2.765,7.887,9.831,-5.774,7.056,5.487,6.089,9.649,52.457,17.022,14.928,13.156,11.975,96.384,45.826,29.448,21.083,17.621,206.36,93.716,58.571,52.456,16.68],[-15.462,0.228,-1.605,0.186,2.41,62.358,-0.29,1.034,0.937,1.525,-4.405,1.291,4.633,0.187,3.519,74.341,19.731,11.767,10.161,9.841,90.562,42.25,3.975,20.457,17.317,189.148,93.162,61.021,44.045,32.177],[8.174,-0.809,-3.245,-1.485,-1.93,29.445,-0.359,-0.911,0.968,-0.476,18.454,0.869,0.334,-1.747,-0.296,47.824,17.284,13.812,11.255,7.142,98.003,49.265,30.674,21.92,17.965,197.249,92.506,56.93,42.927,75.842],[-94.07,-1.78,-3.094,-2.797,-3.706,-4.505,-2.124,-1.338,-3.517,-1.95,8.662,3.352,1.62,-2.395,-0.818,53.416,20.547,14.176,8.326,6.466,98.347,42.069,26.882,21.635,17.048,196.047,90.001,60.078,41.688,32.88],[2.456,-6.261,-3.002,-3.724,-3.512,13.212,-0.062,-2.443,-2.208,-2.206,-6.656,2.186,-1.822,-2.557,0.109,52.944,11.917,14.026,7.918,5.542,97.227,39.374,30.007,22.12,16.52,215.909,93.69,60.953,41.881,31.225]],
"kep": [[-42.154,-28.108,-43.796,-32.06,-47.497,-32.946,-26.04,-29.973,-27.34,-44.451,-32.177,-16.701,-20.283,-25.042,-14.712,-9.447,12.274,6.053,34.005,16.883,-47.44,24.151,35.661,34.516,99.588,-39.419,-36.961,-54.236,41.433,23.232],[-56.115,-38.404,-30.019,-30.022,-29.235,-59.496,-29.583,-28.973,-29.409,-29.185,-55.935,-31.578,-24.303,-23.966,-29.223,-58.885,-18.617,-13.24,-12.428,-13.018,-61.396,-45.14,-11.772,-4.762,-3.089,-74.424,-65.488,-47.517,-8.095,10.681],[-71.658,-37.84,-32.968,-32.206,-31.549,-72.175,-39.691,-30.779,-31.911,-29.598,-71.12,-39.716,-33.599,-28.536,-28.496,-73.29,-30.945,-17.899,-22.918,-24.127,-68.63,-52.005,-23.746,-14.978,-13.138,-77.496,-41.114,-44.901,-21.019,-2.163],[-82.456,-44.681,-34.903,-37.234,-31.399,-78.266,-45.08,-38.572,-36.941,-31.922,-78.522,-43.816,-35.967,-32.509,-29.332,-78.963,-44.863,-36.127,-29.22,-24.194,-86.631,-61.265,-38.121,-20.69,-16.076,-87.503,-64.799,-35.724,-43.64,-12.911],[-88.174,-54.089,-41.142,-37.379,-34.406,-87.209,-50.682,-43.406,-38.5,-32.666,-88.088,-48.831,-43.509,-37.114,-34.488,-82.33,-54.351,-40.273,-34.243,-29.486,-88.167,-72.936,-37.162,-23.004,-25.866,-86.658,-69.795,-51.133,-32.259,-29.795],[-92.796,-56.747,-48.114,-41.091,-32.941,-88.417,-56.899,-46.818,-37.771,-36.726,-89.565,-53.342,-46.394,-40.657,-36.146,-92.705,-63.227,-35.527,-35.529,-29.916,-84.033,-70.49,-39.266,-31.371,-26.333,-88.169,-77.142,-71.476,-47.015,-37.978]],
"vp": [[155.29,183.526,1537.172,338.944,-154.882,17.06,-42.13,107.989,7.582,75.86,-14.525,-33.52,118.42,-48.718,48.929,-11.448,7.761,-19.2,1.2,26.634,-24.732,-28.188,-39.273,12.059,-33.277,-47.682,-22.686,-27.244,-27.647,-16.085],[2332.211,1028.074,273.3,-652.234,36.546,411.667,473.682,-177.513,-162.451,118.924,129.922,27.31,-50.633,40.918,-21.37,45.745,-8.288,-17.479,-0.353,14.728,-18.153,-22.004,-27.942,-30.484,-21.325,6.418,-39.71,-19.625,-26.219,-31.441],[4291.683,3205.059,1018.262,700.433,355.746,916.517,616.851,256.6,198.057,288.478,385.261,255.668,269.374,110.258,77.014,44.057,28.47,20.394,-44.315,-36.156,-23.156,-3.514,-24.547,-31.075,-30.954,-30.377,-51.364,-46.996,-34.559,9.611],[4932.385,5201.65,3666.218,2491.382,1714.437,1126.236,1120.351,880.328,399.89,226.834,466.271,656.699,354.186,273.085,191.043,73.385,71.421,51.736,27.285,44.166,32.506,12.835,12.808,-7.801,-8.276,-22.61,-30.399,-47.808,-36.397,-39.309],[6525.127,6531.787,5562.688,3989.69,941.633,1186.459,1222.054,1268.563,614.899,490.093,711.954,756.498,647.318,174.235,103.674,102.206,89.635,88.559,33.114,23.2,41.42,25.523,39.502,17.87,-31.56,14.701,-16.335,-31.079,-38.734,-31.959],[6929.38,7883.708,5537.436,5434.493,3696.647,1256.51,1980.608,1294.103,886.533,611.3,595.984,831.985,685.167,494.261,402.861,114.337,148.873,120.185,93.885,81.781,5.735,33.157,39.863,23.082,23.2,-16.955,14.598,1.056,-36.19,-35.335]]
}