{
"KTrans": [[9.202,2.15,2.765,2.514,2.187,14.854,8.501,8.199,6.979,6.349,31.115,18.483,15.195,13.608,12.297,172.244,102.413,79.19,68.617,61.566,7.595,204.243,168.269,142.999,129.332,143.924,172.784,229.928,223.684,255.642],[4.799,4.074,2.889,1.797,1.439,18.483,9.057,5.732,5.159,3.888,26.369,14.994,11.003,9.079,7.106,-22.016,76.641,51.303,38.884,34.583,-18.531,171.139,125.23,89.579,68.388,37.843,15.12,147.491,180.005,159.498],[3.748,4.913,3.9,2.779,2.633,10.361,7.711,7.407,5.567,4.23,13.469,18.814,10.885,8.188,6.369,-42.855,85.041,49.157,31.17,29.521,-56.424,30.506,105.051,72.702,63.648,38.632,-29.089,84.674,154.788,144.351],[-21.595,7.648,5.311,2.944,2.959,-20.594,15.593,7.805,6.611,4.935,-13.076,20.974,9.832,9.331,7.277,-53.705,87.578,56.126,35.892,29.245,-68.533,-20.598,113.36,78.616,65.259,-26.666,-44.028,-1.519,149.52,145.961],[-48.789,7.645,4.483,2.863,3.232,-63.805,16.061,8.33,7.278,5.658,-60.098,18.313,16.004,9.035,8.631,-54.479,59.126,66.08,34.345,26.03,-67.238,-13.928,129.137,81.403,66.799,-71.507,-15.241,34.213,45.157,183.494],[-67.868,8.116,6.608,5.907,3.42,-67.264,14.036,13.041,5.671,6.95,-74.747,21.989,16.58,12.539,8.234,-73.091,23.197,59.267,45.211,27.647,-53.184,-29.411,52.777,103.644,59.715,-35.373,-51.888,22.182,39.534,174.849]],
"ve": [[0.898,1.389,-1.583,-1.803,-0.959,4.534,1.144,-1.66,-2.804,-4.252,8.116,0.798,-2.69,-7.058,-8.312,46.354,14.035,-1.144,-10.717,-18.318,93.673,42.306,12.183,-5.466,-16.785,193.119,70.427,31.648,26.611,-5.466],[1.291,0.051,0.273,-0.387,-0.28,5.109,1.868,0.95,0.118,0.031,10.443,4.204,2.215,1.339,0.384,54.757,23.395,14.115,8.986,5.164,101.467,49.681,30.53,19.975,12.59,201.446,99.901,59.771,43.646,30.707],[0.855,0.566,0.114,-0.171,-0.103,6.111,1.851,1.383,0.787,0.434,9.417,4.741,2.9,1.723,1.142,49.72,24.406,15.473,10.841,8.161,102.123,49.116,30.932,22.455,16.942,197.696,101.881,63.86,48.301,36.297],[3.353,0.605,0.254,-0.016,-0.183,5.742,2.541,1.436,0.763,0.185,13.702,4.876,2.963,2.021,1.319,51.244,24.616,16.138,11.648,8.773,98.553,50.724,32.111,23.725,18.978,202.473,105.888,63.675,47.985,38.449],[-2.559,0.656,0.113,-0.35,-0.302,2.968,2.584,1.301,0.849,0.4,9.252,4.653,3.233,2.112,1.514,49.684,22.339,16.416,11.702,8.953,99.489,48.323,32.973,23.906,19.435,209.257,99.994,65.009,49.095,40.796],[6.662,0.766,0.4,-0.236,-0.325,4.033,2.747,1.667,0.814,0.787,9.299,5.737,3.362,2.418,1.819,49.871,23.929,16.034,12.173,9.275,96.606,54.772,34.184,24.471,18.924,198.665,103.337,64.429,48.775,39.817]],
"kep": [[8.982,1.428,5.14,5.754,5.25,10.511,8.106,10.749,11.531,13.056,21.969,18.175,19.186,23.168,23.965,82.784,77.443,82.007,89.669,98.858,-33.388,118.475,139.719,157.328,175.891,7.021,59.159,138.894,173.073,264.855],[3.514,4.108,2.673,2.254,1.792,12.674,7.134,4.798,5.107,3.932,14.298,10.445,8.632,7.681,6.769,-42.15,42.277,32.397,27.418,28.007,-51.44,78.253,71.144,57.437,49.442,-42.84,-30.133,49.609,93.912,97.373],[2.634,4.373,3.816,2.988,2.767,3.569,5.782,5.958,4.769,3.799,3.086,13.428,7.754,6.385,5.191,-57.416,46.81,28.794,18.266,19.703,-72.4,-9.543,54.754,40.399,39.633,-47.094,-53.078,15.53,69.503,77.426],[-23.473,6.799,5.044,2.981,3.162,-25.345,12.61,6.293,5.814,4.755,-22.847,15.178,6.663,7.171,5.88,-65.39,47.859,33.578,21.474,18.73,-79.662,-42.77,58.969,43.309,38.347,-70.57,-64.318,-32.148,65.574,74.572],[-50.507,6.516,4.289,3.218,3.546,-65.593,12.786,6.85,6.355,5.238,-63.718,12.541,12.294,6.746,7.002,-67.487,25.492,41.569,19.965,15.565,-79.977,-38.183,68.36,44.77,38.857,-86.258,-52.03,-14.776,-1.331,96.773],[-68.064,6.696,5.986,6.106,3.745,-68.629,9.986,10.963,4.753,6.095,-75.828,14.438,12.458,9.79,6.282,-78.947,-2.229,35.832,28.931,16.596,-73.941,-49.192,13.634,60.88,33.451,-74.985,-70.191,-21.633,-3.647,91.42]],
"vp": [[250.302,77.241,-67.596,-65.299,-44.451,39.077,7.539,-7.009,-12.346,-6.48,-34.775,29.038,18.549,33.759,20.055,11.638,12.098,11.567,12.61,6.346,-9.276,14.45,13.346,-3.113,-11.853,20.838,-3.932,-0.482,12.895,-10.838],[1335.14,189.035,208.513,33.034,113.679,354.529,-8.179,-6.589,9.174,37.186,173.643,3.914,16.468,11.335,27.69,56.452,8.678,22.212,6.184,29.809,22.098,9.144,33.984,24.318,8.289,35.407,20.309,16.6,6.616,14.863],[6305.968,-4.967,-114.793,56.905,-20.1,1307.567,-35.176,35.788,47.79,45.424,483.18,54.461,44.102,0.206,7.535,118.012,26.036,16.939,-11.125,19.193,72.029,10.011,-1.77,-2.72,24.997,18.626,46.113,-10.853,2.695,17.635],[8469.03,863.195,-181.656,-225.27,-54.982,1632.348,292.896,-61.453,53.817,-6.345,934.994,132.373,8.622,3.021,12.145,165.288,47.46,38.163,22.142,26.017,91.491,34.667,4.452,10.394,36.431,58.252,53.609,-6.366,-0.969,14.213],[8924.049,4375.656,-91.757,-156.533,-287.951,1831.771,1012.469,-155.374,2.075,-23.739,947.778,614.789,-24.333,1.493,16.362,192.739,135.308,62.598,-6.31,-11.132,100.405,48.48,28.297,6.504,35.459,98.079,43.558,14.729,12.508,47.296],[9453.754,11342.515,451.698,-520.132,-569.71,1924.882,2473.315,175.504,-163.251,-35.291,1001.907,1244.489,-66.115,-90.525,-8.583,211.186,229.536,63.61,48.756,10.822,82.19,77.131,83.702,42.663,4.609,62.111,85.665,7.683,41.927,30.638]]
}