{
"KTrans": [[-3.037,-0.685,3.804,1.521,4.206,-8.65,3.855,3.149,7.294,0.444,4.338,6.495,0.328,4.114,7.817,7.132,5.368,9.569,2.825,3.888,12.626,29.754,3.915,9.084,14.656,66.602,80.625,36.179,40.145,39.689],[-73.237,3.309,5.479,-0.294,-0.568,-74.525,-1.522,0.36,-1.533,4.239,-70.812,7.056,6.241,0.387,1.411,-70.705,-2.672,2.628,4.177,4.024,-48.524,15.025,5.15,1.736,4.542,-52.684,34.464,38.253,27.909,7.887],[-91.595,-31.129,-1.475,5.694,2.385,-91.972,-27.003,-0.181,2.819,4.068,-93.823,-26.438,1.741,7.998,1.006,-87.763,-23.468,1.344,7.064,3.447,-86.046,-19.783,11.659,8.237,7.303,-87.101,33.028,38.33,23.24,7.371],[-96.528,-66.92,-9.549,3.255,1.59,-96.186,-64.377,-16.443,6.702,4.88,-96.785,-59.467,1.281,1.643,-0.792,-96.008,-65.494,-2.82,9.166,3.639,-94.05,-46.862,11.148,3.29,5.737,-91.167,-19.662,13.857,31.476,15.827],[-98.377,-82.628,-28.588,-3.102,0.73,-97.849,-80.041,-24.857,-1.364,4.007,-98.071,-80.646,-16.374,-1.38,1.058,-97.217,-78.198,-10.743,5.527,5.578,-95.138,-70.846,-16.492,14.284,8.369,-100.939,-46.649,-11.194,22.948,25.627],[-98.481,-88.316,-48.538,-4.03,-0.214,-99.068,-87.059,-41.422,-8.663,7.246,-98.438,-86.977,-30.77,-2.997,6.672,-98.607,-82.25,-40.815,-4.625,9.139,-100.857,-86.886,-29.092,1.677,10.108,-103.978,-59.808,-21.348,33.256,1.846]],
"ve": [[-186.489,2024.132,0.399,-396.25,53.271,-14.468,4.5,37.377,316.693,-2.011,-7.278,5.992,34.625,-153.487,-93.233,-5.919,-52.056,-7.206,17.979,-160.823,-6.415,-0.039,-9.542,-26.348,-10.842,36.275,-4.304,-27.654,-33.598,-47.843],[-49.717,-1.299,0.151,0.385,0.344,-43.186,0.224,-0.279,1.183,0.746,-54.951,1.074,1.263,0.076,1.444,-38.592,-2.901,1.547,0.681,1.991,-34.927,-1.931,0.467,2.357,4.851,-31.388,5.711,7.231,-7.639,-16.284],[883.622,-18.838,-2.823,-0.481,-0.699,-89.23,-14.578,-3.501,-1.467,0.97,-64.211,-15.286,-2.145,0.782,0.804,-71.845,-17.318,-2.869,1.04,-0.858,-62.039,-17.356,1.473,2.252,0.414,-74.646,3.609,17.099,61.644,4.155],[-84.74,-37.407,-6.906,-0.245,-0.158,-84.362,-42.63,-8.681,0.771,0.474,-112.806,-42.915,-3.017,-1.013,-1.937,-91.549,-44.673,-3.816,1.184,-0.702,-82.236,-36.456,0.376,-0.098,-0.892,-91.224,-11.121,7.103,7.494,46.014],[-101.059,-63.315,-18.18,-4.094,-2.273,-116.373,-59.907,-16.077,-3.451,-1.089,-66.617,-61.468,-11.558,-2.85,-1.713,-74.202,-52.534,-12.748,-0.688,-1.39,-74.521,-46.84,-22.848,1.268,1.312,-103.556,-42.085,-19.252,-0.156,8.824],[-103.428,-74.972,-33.973,-6.931,-1.972,-105.785,-70.142,-27.53,-8.26,0.191,-128.04,-67.409,-32.767,-6.074,-0.392,-117.054,-48.559,-34.018,-5.573,2.428,-100.255,-86.67,-24.087,-7.689,0.925,-138.835,-39.381,-20.754,6.176,-4.332]],
"kep": [[-17.306,-10.227,5.318,-0.866,6.517,-18.657,-1.617,-0.287,5.869,-2.878,-9.782,-0.604,-8.01,0.042,14.662,-12.327,-8.312,5.137,-5.674,-10.824,-17.595,5.895,-13.811,-6.599,1.14,24.426,58.263,-5.644,10.852,19.648],[-71.557,0.397,4.316,-0.752,-0.543,-72.891,-3.873,-0.277,-2.379,3.765,-77.366,0.22,4.043,0.612,0.807,-74.182,-7.269,-0.841,2.824,1.918,-60.437,-1.615,-1.73,-1.929,0.228,-47.727,18.465,11.015,6.284,-6.924],[-94.631,-24.261,-0.472,5.462,2.82,-95.366,-22.648,1.375,3.448,2.985,-95.407,-18.845,2.324,6.114,-0.165,-90.856,-21.389,1.903,4.289,3.603,-80.849,-23.861,2.068,2.395,4.953,-72.645,-21.847,6.723,3.397,-1.297],[-100.117,-56.981,-6.027,2.041,1.089,-98.078,-55.038,-11.013,4.809,3.642,-98.97,-49.003,1.304,1.737,0.766,-96.627,-59.756,-3.084,5.382,3.479,-94.034,-46.468,1.71,-0.98,4.656,-85.409,-35.103,-2.21,15.882,5.006],[-99.782,-78.312,-18.814,-0.643,2.097,-97.806,-74.818,-17.233,0.791,4.356,-99.978,-75.124,-12.505,-0.751,2.074,-99.04,-75.905,-10.502,4.509,5.583,-96.382,-68.171,-19.005,10.136,5.29,-88.808,-69.852,-23.664,5.44,9.363],[-100.222,-88.162,-40.06,-1.866,0.563,-99.911,-86.764,-31.535,-4.23,5.668,-100.57,-89.11,-35.099,0.171,5.016,-97.356,-84.368,-23.834,-1.147,5.262,-94.717,-85.145,-29.342,-1.621,5.953,-92.707,-68.792,-42.681,-7.764,3.276]],
"vp": [[-10.757,196.311,10.63,296.082,-12.542,129.942,33.731,18.512,-77.994,81.329,27.68,-4.229,-8.314,-22.963,3.783,4.35,-3.834,-7.322,5.676,-2.59,9.431,-11.983,11.979,0.235,-14.512,-13.892,-13.277,-1.992,-8.083,-13.742],[4997.005,743.935,177.186,354.499,568.094,1034.145,92.735,111.822,58.961,-35.103,519.439,12.611,-41.236,41.647,16.006,99.882,21.201,3.021,-5.495,-11.978,38.773,0.69,1.948,5.605,-0.605,13.569,-6.139,-25.179,-17.63,5.152],[8180.849,4134.808,1070.526,77.757,46.56,1609.272,627.18,237.429,114.6,-68.004,804.715,334.066,62.844,-49.246,5.571,155.677,64.525,23.089,-5.563,2.343,67.666,34.684,-6.255,-6.458,-5.218,40.104,-5.72,-15.969,-17.154,0.265],[9180.887,9176.044,2340.106,84.101,329.575,1774.276,1765.863,572.842,-31.094,-22.007,917.617,816.925,85.16,38.279,118.09,188.085,205.99,27.384,-10.045,4.652,81.188,74.168,0.141,2.407,0.513,44.777,8.399,-4.227,-17.815,-13.835],[9933.771,13441.917,5787.127,1823.399,943.785,1838.01,2450.335,1053.122,229.004,55.986,990.245,1273.175,361.91,119.63,84.74,200.658,245.006,84.518,2.983,6.586,83.516,104.101,72.812,-4.594,-7.151,57.7,38.185,33.653,0.11,-24.666],[10144.213,16193.305,10137.518,2828.355,980.578,2073.974,3175.691,1808.742,666.295,-49.14,989.785,1510.844,1006.892,220.507,19.382,184.356,313.331,213.338,49.225,-30.427,110.151,149.224,71.567,30.146,-3.634,71.716,37.543,28.878,-16.579,11.969]]
}