{
"KTrans": [[0.892,6.834,2.638,-8.463,-2.247,5.117,12.724,18.537,5.118,5.339,17.294,28.964,19.345,20.638,1.901,49.484,53.438,67.944,74.937,67.055,-51.047,82.228,55.588,117.159,101.879,-56.712,-181.329,-75.88,37.704,13.379],[-40.602,-18.506,-5.404,11.277,7.065,-42.387,-15.113,-0.648,14.031,5.172,-31.364,-10.173,3.224,15.657,11.017,-24.366,14.147,13.579,25.315,38.248,4.592,-37.508,-8.771,-13.081,34.169,-160.046,-197.116,-27.741,-29.56,26.883],[-60.492,-35.025,-17.583,-6.028,2.044,-57.533,-29.398,-12.581,-6.618,-0.695,-56.557,-27.821,-12.25,-2.636,2.22,-53.092,-14.005,-0.227,-0.751,6.612,-72.455,-16.539,26.309,-24.479,3.718,-69.722,-14.51,-129.25,-56.55,-10.193],[-67.917,-39.246,-20.473,-10.95,-7.422,-69.561,-36.417,-14.934,-10.252,-6.22,-69.721,-33.342,-12.237,-7.996,-6.999,-60.128,-11.487,0.203,6.013,2.693,-96.885,-9.519,-0.918,9.703,14.891,-108.972,-39.314,8.459,-64.527,-48.789],[-75.536,-46.186,-20.509,-11.136,-4.546,-73.454,-43.742,-23.417,-6.525,-5.209,-77.312,-43.483,-15.066,-9.547,-3.912,-66.83,-30.507,-4.418,9.919,14.018,-78.488,-39.702,-15.58,29.928,29.319,-72.776,-11.017,19.795,-49.426,-11.812],[-78.835,-45.384,-21.582,-11.67,-9.517,-80.527,-43.562,-22.506,-12.581,-5.281,-76.28,-43.113,-22.871,-7.813,-4.005,-75.648,-37.651,-14.734,7.857,13.696,-77.887,-64.598,0.067,16.751,17.229,-73.08,-66.466,-51.492,29.658,-40.296]],
"ve": [[-74.625,13.88,-10.973,-37.418,25.199,9.923,-1.298,-91.07,-24.085,-65.041,-161.563,-17.232,-60.526,-3.72,-123.061,42.907,86.155,59.385,-46.709,2.44,156.543,32.295,-19.541,-26.125,16.273,184.226,111.134,1.09,-3.054,-148.33],[-16.832,12.632,50.822,-23.534,-12.167,7.285,39.004,-11.36,5.4,-320.261,-23.161,5.382,88.262,9.205,-40.876,20.148,31.56,73.498,7.867,19.943,79.608,43.378,34.328,-23.872,-0.123,143.903,96.572,-184.624,45.491,21.883],[-4.091,90.095,12.181,-17.694,-0.3,-7.759,-12.252,-17.849,-23.245,-0.798,-13.914,17.97,60.625,-910.662,56.502,17.512,68.909,-21.267,20.342,9.602,23.716,82.241,17.415,30.627,15.381,188.587,86.319,68.762,59.456,40.761],[-25.233,-5.6,-0.563,14.399,-84.979,-12.655,-18.797,-7.31,6.074,-20.602,2.972,-17.954,18.132,9.291,90.515,42.983,31.795,9.749,10.826,9.685,121.947,41.596,39.575,26.288,17.897,191.723,93.579,62.82,46.301,37.918],[-1.525,-5.951,-6.665,-3.356,-0.583,-26.243,-168.987,-6.257,-10.536,-5.269,-303.221,-8.12,-6.745,-6.333,-15.97,53.476,36.18,11.042,8.164,5.266,62.276,47.378,32.718,23.77,17.195,178.522,87.621,65.467,48.272,38.407],[-8.272,-9.139,-4.889,-4.55,22.033,-21.474,-8.086,-3.614,-2.302,-1.772,-3.554,-8.645,-1.086,0.046,-4.609,-22.946,13.763,7.12,19.175,3.76,91.531,48.993,32.334,25.176,36.192,174.257,102.422,65.991,27.023,39.222]],
"kep": [[-125.525,-111.279,-69.231,-34.853,-16.473,-117.927,-99.996,-113.974,-62.757,-87.019,-126.153,-163.887,-83.649,-116.63,-42.882,-138.324,-217.981,-227.439,-186.98,-152.891,-184.949,-223.214,-339.755,-311.92,-434.551,-141.282,-306.722,-438.717,-525.445,-699.579],[-95.511,-117.548,-107.513,-109.025,-49.99,-94.27,-113.001,-117.044,-126.914,-49.724,-90.348,-100.763,-116.655,-124.027,-55.544,-95.827,-82.827,-142.602,-150.354,-161.771,-80.984,-126.708,-167.347,-262.78,-206.212,-117.274,-147.771,-154.077,-234.016,-257.783],[-92.276,-83.811,-82.138,-105.846,-120.499,-90.391,-73.06,-77.973,-101.76,-119.895,-91.884,-79.682,-73.342,-92.585,-134.97,-95.171,-78.089,-73.036,-107.668,-144.44,-100.999,-81.172,-55.407,-133.635,-148.316,-88.438,-65.784,-130.793,-115.874,-122.196],[-93.248,-70.994,-53.157,-55.353,-65.967,-95.396,-71.002,-52.211,-53.71,-64.478,-93.807,-67.111,-47.559,-48.015,-66.191,-95.292,-60.282,-46.876,-43.596,-59.135,-103.842,-64.776,-58.769,-49.336,-50.257,-98.43,-72.865,-42.905,-106.241,-113.804],[-95.585,-72.226,-42.739,-30.437,-29.504,-93.308,-71.814,-46.183,-27.866,-29.909,-96.454,-73.304,-40.152,-32.441,-29.343,-93.969,-69.182,-43.927,-29.251,-14.016,-96.936,-73.166,-55.963,-17.657,-9.785,-90.615,-60.054,-45.313,-76.501,-73.765],[-95.225,-68.428,-39.184,-29.714,-26.828,-96.066,-67.49,-42.314,-30.137,-21.191,-94.601,-68.848,-44.136,-25.329,-20.654,-95.213,-70.398,-47.067,-21.723,-12.099,-97.881,-89.839,-44.893,-29.581,-18.576,-91.452,-87.387,-74.694,-28.229,-67.948]],
"vp": [[-139.979,488.607,-95.763,1428.266,1103.268,-97.261,-136.366,107.378,61.923,230.532,22.089,2.413,7.957,-18.331,42.246,-33.882,-3.637,4.617,3.147,-17.956,6.676,-7.531,10.859,-21.659,-3.542,-23.527,-6.515,12.146,7.729,16.921],[3402.099,1256.522,392.088,-142.867,-274.712,495.149,215.678,37.476,-203.298,169.247,322.168,107.714,-2.812,-113.784,-56.218,49.648,-11.812,14.038,-14.606,-6.893,3.346,15.04,-5.235,17.838,-2.649,-5.595,11.089,-15.437,-8.233,-5.109],[5292.36,4121.991,1578.743,192.207,112.86,1087.241,743.833,697.542,-24.183,138.489,445.714,414.596,159.71,45.975,-87.053,107.94,87.124,59.499,4.98,-24.826,45.136,26.686,4.544,-0.715,-9.568,19.241,4.273,13.614,9.905,-12.897],[5583.006,4368.62,4665.739,1964.943,1704.229,931.842,1216.823,822.83,622.913,360.099,539.177,651.409,367.807,189.968,16.595,134.926,112.558,79.968,9.529,5,59.331,48.692,42.123,7.316,-11.739,41.769,14.177,-11.4,-11.05,-11.15],[6033.447,7129.168,4976.457,3741.573,3627.087,1192.838,1479.436,1249.078,718.783,421.588,626.211,853.118,615.815,284.929,294.668,127.562,139.12,90.659,77.889,15.684,63.915,49.947,56.043,15.623,-3.157,-3.182,-8.406,6.226,9.981,-11.937],[7080.387,9655.572,8497.554,4670.797,3446.334,1557.521,1813.887,1692.279,1220.636,753.306,832.061,1013.236,812.731,491.367,375.39,145.401,151.701,155.343,134.804,106.06,69.063,116.644,76.5,62.766,11.225,18.222,42.84,43.332,-7.556,-8.42]]
}