{
"KTrans": [[31.49,23.735,29.51,31.59,26.158,28.709,30.406,15.085,20.739,23.156,20.348,26.906,23.404,28.818,24.793,41.897,43.82,47.159,37.503,56.451,81.397,69.281,66.1,65.493,70.352,157.117,134.671,126.485,123.911,113.41],[-52.17,-4.193,0.565,5.817,10.957,-49.433,-0.722,4.226,5.269,12.92,-51.146,-11.094,3.683,10.599,15.691,-46.478,-5.999,11.181,17.136,18.578,-23.284,17.765,15.11,22.556,27.94,-2.563,26.745,47.434,40.283,46.88],[-69.544,-30.345,-13.922,-3.295,0.188,-75.667,-27.452,-17.22,-1.984,2.538,-74.01,-32.945,-15.533,-4.828,3.562,-66.416,-31.4,-12.33,-6.503,5.046,-58.578,-19.867,-5.069,0.918,9.616,-45.918,-5.08,9.81,21.897,11.198],[-84.104,-53.601,-31.674,-19.004,-8.656,-86.13,-52.373,-35.043,-20.097,-10.876,-86.961,-43.693,-29.702,-16.462,-7.844,-78.829,-51.783,-26.612,-15.709,-7.803,-67.616,-40.64,-24.785,-12.111,-1.704,-69.381,-29.849,-20.592,-2.299,0.871],[-90.326,-65.581,-45.721,-35.122,-20.608,-88.231,-65.662,-44.811,-32.847,-20.954,-87.58,-62.09,-40.592,-31.017,-20.377,-82.308,-61.485,-41.688,-31.412,-16.835,-78.895,-55.421,-40.185,-28.32,-13.46,-68.584,-51.984,-40.064,-23.786,-10.098],[-91.858,-73.138,-53.981,-43.166,-29.317,-92.788,-74.56,-56.174,-40.934,-30.162,-89.979,-71.845,-54.114,-40.534,-31.272,-86.917,-71.193,-55.318,-40.152,-27.115,-84.746,-69.693,-51.944,-38.021,-28.222,-79.302,-62.778,-50.256,-34.885,-24.682]],
"ve": [[22.138,-58.236,58.916,-122.095,-157.585,-39.188,7.878,-89.103,-18.905,2083.948,-124.793,-47.671,32.333,54.817,262.073,179.981,-55.758,242.452,11.396,-159.295,82.101,37.758,-6.923,26.237,-154.716,40.895,-15.597,12.788,-45.717,-56.951],[-13.067,1.886,5.73,9.488,15.969,388.518,8.362,5.422,13.345,11.925,-23.109,1.443,7.662,9.206,13.193,2.281,46.253,7.68,15.299,14.634,15.068,11.949,4.748,22.692,20.385,69.656,-137.917,41.729,54.634,34.423],[-29.446,-6.893,-4.759,-0.626,1.704,-37.025,-7.364,-3.371,-0.69,2.253,-49.011,-10.401,-3.208,-1.093,3.836,48.292,-44.258,1.737,4.557,6.118,23.119,11.02,9.731,6.752,9.306,52.629,29.593,17.552,24.626,16.631],[-20.488,-17.483,-9.745,-7.422,-3.418,-31.137,-12.297,-10.974,-6.022,-3.021,-86.751,-15.489,-10.886,-5.557,-2.893,44.943,-16.488,-3.294,-1.502,0.867,36.206,7.91,2.748,3.433,4.115,40.349,38.414,5.234,2.624,11.712],[-55.187,-32.228,-15.322,-13.313,-6.805,120.254,-9.38,-13.279,-10.777,-6.619,69.33,-16.816,-14.708,-8.968,-7.547,-47.357,-13.299,-8.734,-6.995,-4.207,5.515,2.679,-0.564,-2.719,1.872,47.591,-6.203,10.901,7.032,7.428],[-46.874,-24.101,-18.924,-15.914,-10.626,-48.102,-32.571,-20.123,-14.499,-10.156,-27.146,-17.253,-18.886,-14.812,-10.53,-12.12,-19.43,-13.729,-9.59,-6.854,-1.377,-19.486,-8.665,-4.954,-4.805,20.972,-1.847,-4.227,4.184,3.325]],
"kep": [[-32.162,-38.319,-35.783,-37.4,-54.801,-35.114,-35.196,-58.123,-62.242,-63.414,-34.734,-32.805,-44.409,-45.117,-62.37,-42.374,-34.484,-29.117,-46.226,-18.282,-35.395,-27.963,-23.667,-27.793,-13.776,-47.566,-23.236,-10.038,3.479,-1.623],[-74.659,-41.448,-40.12,-38.912,-39.223,-74.239,-41.402,-38.232,-41.274,-37.134,-71.337,-45.544,-39.594,-36.811,-35.723,-75.507,-48.597,-36.755,-36.761,-35.552,-68.767,-41.615,-41.379,-36.405,-33.263,-77.049,-51.983,-36.167,-34.082,-29.251],[-82.641,-52.837,-44.946,-40.549,-39.746,-85.702,-51.853,-47.657,-39.798,-38.593,-82.348,-55.432,-46.996,-41.131,-39.008,-83.581,-59.763,-47.773,-45.663,-39.515,-82.321,-58.33,-48.388,-42.908,-39.019,-83.189,-60.8,-48.971,-41.301,-42.745],[-90.794,-66.299,-54.084,-47.091,-42.399,-90.319,-66.128,-55.555,-48.403,-44.074,-93.35,-61.785,-52.632,-46.352,-42.331,-89.009,-67.863,-54.494,-48.075,-44.432,-86.982,-68.653,-56.422,-48.968,-43.007,-87.953,-70.106,-59.824,-50.752,-46.366],[-94.509,-73.562,-61.262,-54.728,-48.274,-93.29,-73.296,-61.722,-54.402,-48.582,-93.155,-72.984,-58.496,-53.994,-47.812,-90.859,-73.378,-61.62,-55.259,-47.356,-92.822,-74.445,-64.219,-56.075,-48.841,-90.782,-79.204,-69.201,-58.472,-50.266],[-94.782,-79.183,-66.12,-59.281,-52.147,-97.19,-78.934,-67.146,-58.467,-52.974,-93.954,-78.051,-66.346,-57.823,-53.491,-93.921,-79.343,-69.295,-59.936,-52.684,-93.711,-81.09,-69.05,-60.916,-54.388,-93.582,-85.283,-73.44,-63.514,-57.06]],
"vp": [[-639.916,-449.097,-1424.712,-1832.057,-469.31,-62.151,-209.084,-92.121,-212.805,-114.356,-36.589,-95.99,-94.001,-47.441,-113.475,-4.635,-1.891,-41.717,-12.249,-55.343,-20.2,-4.903,-4.7,-18.626,-23.572,-15.574,-12.925,-15.489,-12.352,-12.972],[2836.281,68.204,-111.757,185.772,-878.459,617.221,21.987,-40.691,1.186,-172.886,339.09,121.688,-19.059,-71.872,-169.866,49.822,23.284,1.465,-31.711,-25.32,24.442,-13.262,1.177,-2.782,-16.405,-4.444,-2.156,-19.033,0.693,-17.69],[5348.021,2547.688,1339.53,100.083,-83.666,1174.791,475.695,406.341,-11.525,-63.119,574.437,316.816,106.168,91.597,-44.136,77.358,67.505,43.156,44.807,-8.691,36.602,19.297,6.907,20.426,-9.705,13.803,-10.81,-2.476,-16.035,19.235],[5780.449,5722.832,3845.536,3103.673,1381.43,1422.459,1080.847,958.269,556.308,342.241,786.147,455.956,389.889,197.686,75.135,108.298,109.897,62.98,29.039,18.796,35.063,25.853,34.946,19.854,8.227,24.329,3.739,22.586,9.115,10.891],[7295.608,7272.257,6000.012,6132.143,3702.159,1364.155,1655.191,1065.571,1141.991,679.932,659.727,601.603,608.581,434.142,317.827,128.564,123.33,112.503,107.797,63.157,43.591,56.532,47.07,51.147,15.032,12.713,21.987,37.669,31.61,11.425],[7620.603,9227.836,8185.087,7814.119,5203.622,1681.799,2041.032,1773.689,1536.55,1041.734,693.264,847.147,735.339,713.855,604.409,138.686,180.428,174.986,122.572,90.938,66.328,103.657,85.879,63.624,71.253,25.519,43.019,45.395,36.432,41.642]]
}