{
"KTrans": [[2.831,7.675,6.784,7.571,5.054,4.381,14.19,10.24,8.906,12.914,22.801,28.538,21.046,14.43,12.975,113.693,92.029,82.549,74.868,70.903,179.336,186.719,154.938,167.091,145.558,174.164,305.018,278.644,325.094,267.709],[-23.963,-2.985,0.658,4.814,3.683,-26.678,1.11,4.909,3.525,8.79,-13.951,5.651,7.561,8.414,12.435,30.148,49.258,39.758,32.56,31.298,12.923,110.35,87.041,75.082,67.273,-101.989,128.648,178.031,159.543,143.494],[-52.919,-10.812,-3.239,-1.003,0.912,-43.504,-9.872,-1.994,-0.208,2.509,-41.436,-9.189,0.6,2.583,4.097,-19.772,27.08,29.16,23.33,23.41,-20.147,80.563,64.21,55.271,46.984,-47.791,37.804,151.757,118.797,102.676],[-61.505,-19.33,-9.284,-2.333,-2.948,-53.587,-15.827,-6.172,-4.58,-2.29,-57.081,-15.519,-5.581,-0.664,-1.415,-48.472,16.993,17.275,18.242,16.841,-52.871,44.576,51.09,52.347,40.63,-15.317,-24.15,143.457,114.588,101.93],[-72.355,-22.491,-13.307,-9.12,-6.722,-67.572,-26.008,-13.913,-8.784,-4.936,-65.129,-24.294,-12.81,-3.912,-2.088,-53.584,17.793,7.81,11.455,12.685,-69.347,25.49,56.058,39.296,36.713,-79.126,-46.581,107.266,99.901,83.346],[-74.085,-31.633,-22.9,-11.602,-9.904,-76.653,-29.419,-15.361,-11.611,-9.643,-72.068,-24.12,-13.639,-10.413,-6.055,-64.851,0.775,5.056,4.1,7.532,-77.031,0.546,30.302,33.712,24.977,-73.211,-102.508,24.477,80.636,67.007]],
"ve": [[14.109,62.844,-4.569,25.758,31.001,-128.442,17.64,66.39,-26.375,114.966,15.14,27.564,22.241,22.765,96.166,71.47,23.844,5.362,4.85,-3.713,89.478,48.059,16.765,0.187,-9.328,182.422,73.985,9.455,-9.534,-4.744],[0.471,2.322,0.996,1.983,5.735,8.617,1.374,1.431,4.312,3.829,15.184,3.258,3.47,5.251,4.228,258.118,24.198,14.82,10.544,9.749,96.404,45.24,29.399,19.598,15.166,204.265,87.692,60.417,43.422,31.517],[2.364,-1.733,-1.321,0.087,0.462,12.583,1.933,-0.753,0.78,0.99,9.134,3.482,2.048,1.503,2.491,51.724,21.463,14.364,11.25,8.14,91.316,47.513,30.534,22.805,16.956,186.947,95.817,62.535,46.895,35.011],[2.013,-0.077,0.015,-1.265,-1.324,10.128,2.025,-0.409,-0.323,-0.034,11.896,4.808,0.611,1.201,0.83,49.274,21.313,14.717,10.111,7.921,89.877,58.32,30.312,22.252,17.553,186.892,97.549,68.895,48.092,36.953],[2.05,-2.086,-1.524,-2.091,-1.703,7.415,0.407,0.233,-1.22,-0.642,22.573,2.488,1.421,0.516,-0.254,40.45,21.514,13.467,10.008,8.034,98.314,43.537,31.448,21.26,18.379,200.498,97.156,63.602,47.36,36.81],[7.621,-1.018,-1.937,-1.697,-1.747,6.104,0.288,-1.008,-1.214,-1.031,14.227,3.803,-0.051,0.29,-0.807,50.323,24.915,13.593,9.852,7.633,88.394,48.446,29.804,22.412,16.581,172.103,98.967,61.079,45.983,36.536]],
"kep": [[-22.705,-20.347,-24.015,-27.734,-38.917,-25.669,-14.67,-20.751,-28.536,-24.957,-10.799,-3.776,-10.068,-21.281,-26.756,16.188,27.81,43.238,43.373,55.09,10.593,61.682,79.821,119.907,124.027,-13.463,75.82,107.723,192.761,185.035],[-40.255,-24.241,-20.205,-17.782,-21.67,-45.764,-20.344,-17.493,-20.694,-16.22,-39.45,-18.225,-17.103,-17.726,-13.966,-31.684,-4.16,-3.368,-4.359,-4.655,-52.582,12.033,14.569,16.231,15.598,-88.966,-4.796,36.864,42.859,46.362],[-63.286,-27.878,-22.046,-21.335,-20.272,-58.535,-29.524,-21.439,-21.341,-19.247,-58.099,-29.877,-21.696,-19.721,-19.328,-57.992,-16.988,-10.482,-12.049,-9.425,-65.046,-4.138,-0.535,0.087,-0.374,-78.551,-42.409,21.49,17.093,18.501],[-70.541,-35.437,-27.93,-21.463,-21.91,-66.427,-34.212,-25.112,-24.07,-22.454,-69.66,-35.705,-25.442,-22.072,-22.37,-72.879,-23.419,-18.928,-14.958,-14.21,-78.908,-23.092,-8.685,-1.728,-5.32,-74.202,-64.857,13.348,13.681,15.917],[-79.097,-37.148,-30.031,-26.284,-24.706,-75.455,-41.258,-31.538,-26.655,-24.13,-76.81,-41.394,-31.804,-24.112,-22.149,-75.174,-23.822,-24.895,-19.767,-17.316,-85.636,-32.598,-7.323,-9.472,-8.662,-90.791,-74.669,-2.179,5.692,5.329],[-81.223,-45.059,-37.56,-28.558,-27.27,-83.492,-43.937,-32.081,-28.955,-27.604,-81.305,-41.929,-31.603,-29.124,-24.92,-81.15,-36.406,-26.87,-24.988,-20.89,-89.139,-46.354,-21.032,-13.835,-15.273,-90.191,-95.251,-39.328,-3.32,-4.184]],
"vp": [[-107.802,-210.598,-440.694,70.225,298.306,-113.403,-41.262,29.245,-55.048,68.474,-67.744,45.703,35.498,51.493,82.382,-9.511,8.855,4.193,34.302,-18.8,-0.647,13.396,-27.26,16.15,24.508,-7.471,1.982,7.686,1.436,8.198],[2433.577,410.987,-112.827,-179.329,-256.993,561.515,222.978,-23.064,-68.979,73.541,302.156,53.256,-86.157,2.903,3.968,20.343,1.556,-18.233,-28.98,-1.891,8.127,-1.93,-18.555,-10.29,6.851,19.671,-19.224,-18.749,-3.11,14.721],[4135.123,1981.011,1032.87,925.543,487.421,780.99,605.285,386.049,179.345,44.794,451.215,264.54,139.851,100.398,-41.399,96.526,18.886,30.131,13.357,-5.424,30.214,14.926,-15.726,0.304,-15.658,3.792,-8.612,-15.055,-15.091,-10.962],[5997.789,5976.966,3060.946,1898.784,1731.065,1207.678,1204.186,413.715,297.446,223.929,570.281,536.714,339.024,201.144,106.285,123.794,92.442,61.319,13.861,11.362,51.15,11.197,12.205,20.632,-0.98,-9.367,20.395,14.541,3.042,-3.95],[6130.079,6759.201,4293.926,2345.003,605.438,1419.254,1512.907,778.013,361.914,413.761,747.852,757.962,445.49,274.324,147.208,112.125,125.105,56.661,37.65,16.422,33.688,46.107,54.703,10.094,32.545,33.943,8.821,5.208,2.737,-2.675],[7063.877,9581.335,6459.24,3365.887,2033.43,1434.473,1770.291,1154.693,483.353,128.331,714.113,830.611,625.075,292.395,175.846,113.307,185.974,107.57,35.18,38.039,47.118,70.562,41.077,28.334,-4.041,14.311,27.583,-0.01,-9.832,-9.06]]
}