{
"KTrans": [[2.358,8.757,1.422,1.815,-5.442,0.757,17.868,10.771,11.695,10.035,-0.029,24.231,13.49,18.619,16.058,12.865,55.143,70.094,87.496,76.967,7.974,4.895,74.828,97.77,123.477,-73.63,-109.365,-44.11,27.115,118.067],[-41.514,-11.17,-1.309,7.39,4.004,-41.543,-14.757,2.307,5.983,7.595,-41.894,-9.126,8.766,11.692,8.431,-9.21,-24.418,17.187,26.315,34.38,-2.483,-32.084,2.692,10.886,42.431,-143.442,-107.595,-93.567,-28.178,39.311],[-59.287,-29.638,-10.622,-5.96,-0.438,-58.09,-25.802,-11.483,-3.897,0.139,-54.272,-25.358,-10.203,-5.558,2.624,-40.576,11.997,13.706,3.928,4.748,-34.723,-11.411,19.907,0.161,11.642,-50.088,-51.927,-50.69,-34.972,-44.881],[-69.586,-33.259,-15.383,-4.005,-6.779,-65.894,-27.396,-11.994,-7.973,-10.306,-63.316,-31.56,-8.046,-3.125,-4.586,-65.23,-18.316,-3.056,7.047,7.168,-66.544,-5.027,17.859,28.932,7.911,-18.067,27.176,-68.016,-0.823,-14.385],[-77.175,-37.942,-20.02,-9.527,-7.156,-69.649,-32.215,-14.405,-8.055,-4.175,-71.873,-36.474,-12.884,-5.947,-4.205,-61.676,-21.218,11.909,11.406,19.026,-68.384,-12.251,30.976,62.014,29.568,-59.875,-25.204,-21.805,-13.541,-16.537],[-79.736,-47.898,-23.465,-11.454,-1.113,-77.919,-40.778,-19.617,-8.651,-2.274,-76.906,-35.107,-13.52,-5.826,-1.567,-79.209,-28.235,2.24,18.244,13.981,-78.727,-35.457,7.027,36.557,35.547,-80.589,-42.498,8.055,20.821,40.973]],
"ve": [[7.408,-26.409,-30.816,-94.846,-19.045,-14.396,3.238,-10.317,-29.648,46.309,-2.151,-17.183,-41.754,-107.521,-24.004,73.974,13.513,-12.445,-34.728,-6.116,72.408,55.959,-0.232,-20.129,-85.061,273.579,72.873,28.091,-1.299,-20.604],[0.916,11.006,11.186,-6.854,-11.508,3.403,-56.749,36.987,-11.728,-43.668,-234.874,432.073,-115.047,91.32,-11.641,67.678,29.24,25.993,-7.516,1.605,113.581,59.486,32.737,19.688,15.827,185.362,101.009,-104.673,35.67,15.969],[-0.267,-8.597,18.867,0.42,-3.564,-12.873,37.962,-40.542,-0.44,1.6,29.644,-9.611,-4.904,-24.317,52.105,92.873,9.797,6.133,4.047,-25.717,119.585,38.196,6.636,22.364,38.436,176.613,88.091,62.742,48.589,37.902],[-7.774,-9.36,0.146,-3.183,-0.274,-7.748,-3.622,-3.174,0.976,-7.774,9.831,-6.226,-1.144,3.862,0.323,26.508,22.107,10.674,-33.332,-349.051,90.163,51.938,34.706,16.441,18.729,181.133,127.43,68.132,49.953,39.124],[-4.127,11.422,-6.317,-7.946,-6.095,19.561,41.95,-1.257,-1.797,-3.846,-25.676,-4.732,-1.608,-2.146,6.137,65.313,21.155,2.342,8.663,8.27,93.325,55.522,38.3,28.747,21.792,292.923,98.284,60.535,53.819,68.669],[-245.2,-90.049,-2.63,-3.62,-1.742,306.714,-7.52,-3.364,-0.201,-4.132,-4.867,-1.858,-15.478,-1.206,1.245,34.797,19.776,13.975,11.809,8.376,100.177,53.946,29.271,24.39,18.354,196.676,93.785,67.229,48.294,21.483]],
"kep": [[-120.502,-118.353,-51.813,-49.445,-14.978,-117.231,-106.096,-93.366,-78.849,-49.771,-118.293,-131.747,-53.807,-54.368,-78.834,-159.88,-194.357,-183.41,-233.226,-225.712,-152.458,-318.58,-330.225,-414.042,-377.561,-136.349,-280.302,-489.747,-637.73,-663.353],[-94.14,-89.873,-118.528,-96.401,-35.513,-90.591,-104.068,-117.739,-85.411,-46.702,-94.175,-97.405,-128.953,-110.612,-53.354,-83.9,-130.016,-129.764,-160.043,-114.768,-79.771,-123.368,-147.894,-235.445,-210.185,-110.498,-142.53,-193.847,-238.289,-260.224],[-90.327,-72.448,-59.594,-92.948,-121.327,-90.82,-69.522,-64.265,-79.565,-133.046,-88.011,-71.89,-64.684,-95.663,-119.836,-85.953,-44.189,-42.811,-92.619,-151.466,-84.918,-72.73,-45.269,-98.043,-125.302,-86.381,-93.027,-99.249,-92.8,-163.796],[-90.673,-62.376,-40.682,-25.674,-56.481,-89.329,-57.326,-42.539,-39.84,-74.949,-90.626,-61.115,-36.995,-33.293,-56.313,-93.114,-58.505,-42.277,-38.623,-45.26,-91.507,-57.988,-33.242,-20.828,-65.62,-81.426,-50.386,-91.53,-51.581,-78.408],[-93.888,-58.874,-38.393,-26.293,-24.961,-90.236,-56.699,-31.406,-20.806,-20.316,-91.655,-61.467,-34.452,-25.607,-28.291,-91.029,-55.782,-19.991,-16.718,-0.7,-94.273,-56.723,-18.475,19.733,-11.167,-87.616,-66.056,-63.957,-59.426,-71.235],[-94.275,-65.843,-38.314,-23.315,-10.113,-93.586,-61.39,-36.464,-18.626,-12.248,-93.723,-57.336,-33.065,-19.248,-12.98,-95.558,-61.902,-28.48,-4.651,-4.829,-94.889,-71.396,-37.276,-3.667,4.745,-93.787,-67.888,-42.421,-30.455,-8.952]],
"vp": [[275.645,1010.19,353.328,123.255,417.145,85.418,40.924,22.092,62.573,124.559,23.555,83.483,-52.521,111.23,-5.152,0.396,0.945,2.755,22.481,5.249,-16.198,-9.628,-1.785,1.57,-0.167,-5.811,-3.592,-18.786,15.646,-14.895],[2144.687,811.676,-200.471,-504.814,-77.749,659.85,207.703,-5.83,-64.709,-117.801,277.284,58.898,-35.945,-27.215,-56.588,45.801,29.949,-9.557,-1.344,3.669,22.56,-1.796,-10.88,-4.259,-20.458,9.087,-18.151,7.982,0.486,-5.573],[4727.153,3645.368,1350.322,1373.402,-457.388,890.304,847.699,362.584,117.928,86.352,493.174,381.327,190.335,39.148,13.494,85.859,106.53,42.997,14.1,4.492,30.12,27.344,-9.438,19.723,-7.933,3.551,-4.43,-10.425,-20.258,-3.59],[5176.622,6154.924,4222.04,2592.674,1348.09,1130.863,1172.431,664.951,514.792,402.738,618.737,614.814,494.977,279.489,69.689,98.788,78.629,51.047,36.416,38.16,47.117,44.677,24.056,9.261,6.173,7.648,7.285,-2.713,-7.641,-12.296],[6676.716,8051.609,5090.272,3505.18,1558.05,1333.033,1424.127,1177.58,692.563,512.893,682.716,870.676,624.337,372.509,159.454,142.435,117.711,100.081,30.439,30.463,62.896,52.234,45.846,34.259,20.437,12.767,20.671,14.939,10.125,21.91],[6167.511,10065,7116.53,3899.375,3431.753,1437.042,1858.62,1461.151,818.156,442.747,794.212,919.446,705.561,508.877,343.564,119.58,174.298,135.439,92.168,52.367,65.071,78.518,55.902,38.038,14.75,17.972,6.415,14.616,14.697,-1.761]]
}