{
"KTrans": [[-6.163,10.902,4.059,6.468,1.645,-0.082,3.527,0.718,7.73,-1.105,4.218,2.83,2.128,8.035,9.623,20.582,20.886,4.181,9.821,11.145,103.277,52.034,42.608,16.595,41.705,167.245,102.47,92.359,60.426,54.558],[-73.891,-1.3,3.399,-1.514,5.378,-64.743,-2.315,6.732,0.271,-0.594,-56.933,0.702,4.613,-0.756,2.146,-50.163,19.34,7.994,9.065,6.644,-10.321,35.431,21.476,23.949,8.269,38.13,34.54,53.881,41.782,23.52],[-89.81,-26.113,-0.352,-0.87,0.404,-87.247,-20.09,-1.02,2.546,-0.741,-85.358,-19.211,-3.576,2.818,0.364,-79.072,6.901,4.373,8.853,1.96,-67.489,10.736,26.164,14.747,8.867,-44.909,-16.044,23.558,39.531,28.189],[-93.231,-41.665,-1.082,2.859,3.754,-93.008,-39.676,-2.454,-5.149,-0.873,-91.609,-41.577,-4.04,-0.594,0.822,-85.522,-33.166,11.003,11.566,4.975,-73.15,-7.177,19.889,15.411,10.511,-71.336,16.84,22.889,37.242,21.358],[-96.16,-66.132,-10.075,2.228,1.073,-94.063,-59.502,-6.383,-3.493,3.143,-93.637,-64.809,-13.996,5.901,-0.616,-95.213,-44.598,4.676,6.512,7.935,-84.015,-35.131,-6.649,21.193,18.807,-56.775,-22.287,19.529,30.477,32.155],[-95.262,-75.1,-27.897,-0.101,-1.978,-96.621,-75.694,-28.276,-0.982,3.239,-96.557,-67.106,-17.678,3.207,0.845,-92.329,-67.622,-34.256,7.657,6.771,-82.461,-53.624,-13.29,21.26,18.873,-73.329,-43.609,5.645,31.964,18.797]],
"ve": [[9.042,77.583,9.313,-15.713,-12.841,21.243,-2.368,-3.623,29.272,16.911,11.278,2.051,71.735,46.227,-34.948,8.398,14.153,-138.656,-26.005,-43.562,37.187,4.103,-9.135,-2.834,-23.427,42.588,10.312,-21.296,-26.431,-16.659],[-45.001,-4.711,-0.675,-2.055,0.524,-40.22,-2.628,-0.787,-1.449,-0.57,-28.986,0.828,-1.244,-0.325,0.041,13.077,5.311,-0.533,2.1,-1.099,-9.005,8.504,6.093,6.695,-0.408,34.97,10.134,13.128,9.069,17.286],[-72.683,-15.547,-3.37,-2.399,-1.251,-299.819,-14.756,-3.865,-0.565,-1.398,-66.9,-10.824,-3.038,-1.049,-2.493,-67.241,-3.502,-1.965,0.76,-1.414,-44.35,0.172,7.033,1.599,0.426,-48.168,-24.278,3.061,4.822,0.776],[-67.515,-30.503,-4.012,-2.838,-1.375,-77.467,-22.911,-5.3,-4.186,-2.386,-63.109,-32.532,-5.839,-3.468,-1.738,-70.112,-21.663,-1.622,-0.412,-2.068,-59.218,-5.153,-1.088,1.032,0.374,-58.084,13.944,-1.062,0.708,3.562],[-364.551,-51.219,-10.902,-2.916,-3.032,-87.374,-41.851,-10.431,-4.846,-2.109,-75.659,-49.452,-12.039,-2.671,-3.529,-69.936,-29.405,-7.648,-1.06,-0.48,-69.297,-39.921,-9.991,0.832,2.857,-13.29,-21.454,2.584,2.328,2.584],[-51.702,-60.366,-23.445,-6.45,-4.663,-14.12,-49.582,-21.669,-5.008,-2.967,-90.278,-52.16,-17.687,-2.427,-2.838,-53.516,-51.84,-27.203,-2.213,-0.551,-52.295,-44.343,-22.968,3.08,2.243,-50.855,-36.763,-5.196,7.637,-0.492]],
"kep": [[-12.492,6.205,4.41,8.151,-0.085,-11.379,-0.817,-3.132,10.315,-7.856,-3.128,-1.49,-1.434,11.651,12.862,-7.269,4.597,-6.095,10.253,9.159,35.083,19.55,30.77,1.434,45.874,59.58,52.281,67.898,46.448,43.72],[-69.58,1.801,3.479,0.752,5.222,-62.507,-1.075,7.069,1.867,0.416,-55.165,-3.075,5.365,-0.155,2.417,-49.889,9.394,6.523,6.502,7.584,-31.456,12.386,10.541,14.511,3.327,-25.457,17.673,22.677,16.028,4.559],[-86.256,-17.119,1.427,1.248,1.595,-84.656,-11.513,1.916,2.846,0.401,-83.081,-14.683,-1.723,3.318,2.686,-77.463,0.134,4.509,7.229,2.638,-67.404,-4.854,12.78,9.112,5.316,-56.095,-18.319,7.281,16.282,9.797],[-88.531,-29.358,1.026,5.024,4.778,-91.023,-29.976,-0.179,-1.632,1.315,-90.117,-29.178,-0.579,1.943,2.068,-86.037,-26.923,8.851,10.607,5.891,-70.233,-19.971,14.437,9.583,6.894,-75.766,-13.449,8.802,25.626,14.879],[-94.908,-54.043,-1.661,3.684,3.568,-90.99,-49.747,0.056,0.19,4.77,-91.717,-54.001,-7.344,6.193,2.327,-90.924,-44.769,7.574,5.773,7.543,-81.557,-42.523,-7.277,17.841,13.818,-73.395,-34.369,-2.929,16.895,19.65],[-94.447,-67.309,-13.269,5.039,1.962,-96.458,-65.668,-13.608,2.062,5.364,-97.39,-53.975,-7.657,4.362,2.799,-90.061,-59.501,-25.956,8.406,6.308,-83.614,-52.462,-7.916,16.752,14.797,-78.469,-51.294,-8.239,16.398,22.496]],
"vp": [[893.993,-174.465,25.505,199.527,260.325,51.918,-1.699,15.732,-34.788,64.363,36.847,-11.466,2.795,-31.495,-29.968,-12.769,-22.266,6.937,-4.762,-12.866,-35.302,-26.811,-30.519,-10.162,-32.144,-30.851,-22.561,-21.993,-16.242,-17.57],[4916.245,941.745,362.642,703.955,-483.082,875.363,131.786,6.523,96.324,153.782,342.101,35.054,48.981,59.333,-5.435,60.967,-22.107,-0.272,-25.799,-0.972,8.227,-17.212,-20.637,-31.382,-4.837,-18.792,-11.789,-27.187,-25.05,-14.068],[7560.241,3732.92,1072.567,919.52,787.715,1296.799,570.403,179.737,85.565,196.512,736.273,284.718,78.604,21.923,62.299,122.676,17.897,15.05,-11.025,12.048,45.619,-3.299,-23.001,-10.035,-3.555,25.156,28.561,-1.368,-26.414,-19.829],[7509.489,5603.603,1208.021,907.15,306.02,1492.206,1120.757,326.894,316.139,223.244,750.465,605.624,178.716,134.58,90.379,150.476,88.185,5.623,0.427,16.164,59.122,5.202,1.505,-6.746,-1.686,31.973,-17.483,5.009,-4.113,-6.882],[8217.147,10251.61,3488.674,1246.188,1166.104,1583.51,1737.036,658.392,418.458,155.661,818.112,1034.313,357.213,100.724,158.851,182.745,130.381,39.872,8.036,-2.469,74.445,85.586,38.167,-5.495,-20.918,4.734,21.516,-4.536,-5.061,-14.864],[8328.335,11675.966,7137.385,2512.276,2127.328,1718.828,2421.354,1364.983,374.944,277.335,907.62,1093.518,547.385,86.406,147.582,152.644,212.015,167.918,13.721,-4.249,45.812,90.24,71.529,-15.723,-13.278,22.371,37.311,7.547,-12.896,0.39]]
}