{
"KTrans": [[-8.981,14.689,10.339,7.056,3.868,0.724,16.584,13.615,12.105,9.155,22.528,18.83,18.361,19.388,13.732,72.096,78.33,77.1,84.822,64.768,-83.866,112.871,107.352,110.262,111.214,372.016,222.787,52.887,87.431,116.693],[-52.235,10.71,5.722,3.874,5.815,-51.647,22.44,7.572,8.582,9.544,-45.649,18.372,14.841,9.957,10.184,-21.145,61.968,55.381,45.707,40.768,4.825,50.629,87.637,73.764,75.676,53.329,186.08,50.809,99.83,127.603],[-73.127,-6.72,5.477,9.063,6.259,-79.02,7.151,15.844,9.519,9.783,-66.23,9.329,16.924,13.821,11.864,-74.436,25.102,61.481,45.353,35.64,-17.74,49.305,98.718,68.169,71.846,47.344,33.497,97.353,4.191,85.423],[-92.491,-22.294,11.105,8.704,10.18,-75.252,-11.843,14.243,13.482,9.556,-84.695,-3.584,18.443,18.729,13.543,-80.417,-22.166,55.832,38.936,44.97,-64.685,-5.252,29.381,73.167,63.787,-33.226,20.554,13.242,-20.114,30.946],[-92.144,-40.133,13.268,12.962,8.762,-90.838,-29.926,11.992,15.093,12.385,-95.085,-33.668,18.372,17.678,14.699,-81.059,-17.178,55.719,51.618,39.819,-71.179,-18.707,-13.951,53.102,87.922,-27.638,20.548,9.056,52.178,72.062],[-95.45,-50.826,5.82,10.474,7.889,-97.527,-49.182,7.341,25.699,13.248,-95.997,-52.794,13.684,18.133,16.322,-89.013,-53.522,-0.581,47.085,58.253,-74.108,-27.24,19.951,67.83,97.308,-39.706,18.956,32.214,39.588,1.656]],
"ve": [[31.214,23.675,46.137,-24.773,-49.251,32.877,14.079,350.674,80.222,7.61,17.934,49.47,-2.122,-8.087,-49.702,77.333,28.368,18.971,11.844,7.475,100.937,34.635,12.485,41.954,70.879,194.602,82.972,35.668,11.938,-5.62],[18.727,3.891,0.058,0.314,-0.654,6.347,7.208,3.216,1.015,-0.389,-122.612,4.316,2.673,2.291,2.035,62.586,22.977,16.157,10.403,5.639,101.863,49.311,29.427,25.752,11.57,203.09,87.529,63.448,38.987,31.388],[7.093,2.162,1.037,0.423,-0.271,-492.277,4.931,0.971,1.163,0.379,-23.741,8.495,3.616,2.603,1.076,57.95,24.728,17.182,10.45,7.77,107.648,47.948,31.428,22.913,16.942,194.708,103.967,62.543,46.004,35.3],[80.541,3.874,-0.043,0.118,0.039,25.805,6.49,1.416,1.977,0.316,-8.945,11.699,2.841,2.415,1.322,58.446,20.957,13.467,12.049,7.893,113.463,51.046,23.546,23.991,18.632,212.714,99.993,67.841,49.889,36.412],[279.374,3.052,1.105,0.057,-0.065,14.484,7.564,1.633,0.906,0.6,-68.559,4.824,5.917,2.738,1.468,45.825,32.08,16.441,11.948,8.279,110.159,52.719,32.593,25.533,19.019,212.581,101.945,66.908,46.69,42.218],[-61.984,3.191,2.958,-0.589,0.31,2.172,-2.522,3.118,1.247,0.252,12.677,7.731,5.263,2.819,2.512,58.127,37.148,17.041,11.425,9.509,111.447,49.454,33.769,24.894,21.503,206.305,99.514,65.95,49.52,40.14]],
"kep": [[-15.58,9.02,13.495,5.056,1.571,-15.428,15.693,19.483,21.566,11.623,-3.24,15.505,19.871,31.445,18.052,17.611,48.806,72.855,118.487,96.444,-72.028,62.294,80.023,108.993,133.428,78.911,101.705,42.802,86.917,131.025],[-61.01,9.42,7.615,5.355,7.678,-61.19,16.08,6.392,9.094,11.478,-56.334,16.255,13.342,8.383,9.781,-47.87,33.688,34.347,33.842,33.941,-41.382,1.515,45.06,43.4,58.137,-37.843,52.916,4.731,42.724,76.941],[-79.615,-7.538,5.204,9.176,7.212,-84.633,2.862,16.195,8.973,10.045,-76.245,1.568,13.745,11.547,11.299,-83.062,1.034,37.185,31.58,26.399,-57.697,3.707,50.751,36.062,46.61,-46.407,-24.577,27.447,-20.747,37.279],[-94.568,-25.721,11.403,9.023,10.77,-81.301,-17.521,13.566,11.841,9.591,-89.037,-12.058,15.785,16.475,12.476,-87.646,-37.726,33.574,24.189,34.745,-80.976,-33.185,0.53,38.075,37.416,-73.104,-31.47,-21.558,-36.007,1.272],[-94.989,-43.606,12.191,13.469,9.214,-93.789,-35.112,10.813,14.632,12.083,-98.23,-39.6,11.744,14.81,13.321,-87.96,-35.403,31.582,34.708,29.125,-84.148,-42.579,-31.174,22.687,55.788,-72.938,-33.504,-27.142,7.464,25.013],[-97.189,-54.953,2.569,11.625,7.783,-98.688,-53.268,4.49,24.239,13.274,-97.458,-57.149,8.462,15.182,13.559,-92.207,-61.645,-15.132,30.9,44.34,-85.779,-49.335,-7.775,32.521,61.717,-76.869,-36.519,-16.163,-1.234,-19.579]],
"vp": [[1090.497,149.549,27.95,-244.427,457.763,170.961,102.414,66.282,117.621,108.879,65.443,-35.007,-19.731,-14.056,11.522,-2.05,-18.9,-16.794,-10.772,-21.371,8.823,-33.478,-22.92,-21.845,-11.409,-29.064,-27.227,-29.921,-25.771,-33.612],[4687.054,2221.264,651.394,639.024,862.587,1060.114,662.239,141.049,267.094,61.261,451.275,246.335,18.543,32.957,26.811,69.994,3.067,-18.131,23.759,8.222,14.707,0.532,-33.097,-22.172,-15.823,4.311,-35.881,-16.844,-25.431,-32.536],[6289.893,5840.264,2977.405,1970.52,1085.612,1191.421,1086.261,616.679,295.24,208.281,662.898,466.655,357.363,202.173,72.679,111.966,103.915,23.359,-5.65,2.053,24.505,1.982,1.408,-20.851,-5.169,-20.514,7.898,-37.686,-21.487,-26.748],[6829.338,9250.12,4999.137,2838.769,1100.548,1410.566,1530.967,716.248,585.149,255.361,689.275,873.933,660.599,231.335,215.663,135.67,151.592,89.624,16.1,24.606,45.172,46.828,26.281,15.161,-8.835,25.949,8.253,-6.495,2.404,-29.176],[7673.729,11643.993,8600.64,4202.253,2248.163,1660.576,1946.931,1651.66,685.565,528.943,780.109,1051.129,743.464,380.221,292.329,120.678,177.333,154.911,55.858,33.535,67.805,78.367,67.11,2.652,0.934,3.689,15.19,4.928,-33.473,7.859],[7899.297,12424.488,10581.746,5716.41,3572.68,1558.743,2210.83,2231.635,1331.629,596.156,806.885,1298.591,1102.251,687.939,358.476,135.26,194.659,218.768,53.212,42.287,73.898,64.467,47.328,29.803,20.568,20.377,27.134,3.617,-7.384,-0.25]]
}