{
"KTrans": [[-43.985,-72.377,-68.935,-77.081,-72.325,-30.472,-66.488,-75.969,-74.804,-56.082,-20.711,-65.286,-73.74,-58.249,-54.353,58.097,17.236,4.467,-2.543,4.699,115.016,53.72,42.954,38.669,45.282,223.894,141.451,94.517,104.115,114.278],[-56.488,-46.398,-49.609,-66.119,-60.804,-52.931,-38.814,-41.654,-54.501,-58.067,-47.027,-29.558,-26.021,-48.703,-48.517,-31.049,3.475,19.411,-11.422,-7.38,-8.491,19.637,47.143,7.869,1.451,38.844,76.921,64.63,14.23,13.967],[-71.028,-49.879,-47.267,-41.718,-45.456,-68.166,-52.823,-41.41,-43.531,-50.805,-66.52,-41.614,-41.892,-28.651,-29.456,-57.42,-21.956,-9.025,0.671,11.109,-49.131,-17.2,7.833,13.784,26.471,-15.087,11.605,18.807,33.645,45.88],[-77.384,-55.019,-56.64,-46.548,-43.58,-77.465,-49.718,-41.378,-41.509,-38.625,-76.783,-47.944,-42.061,-33.837,-37.673,-68.439,-37.69,-13.273,-9.324,-8.065,-56.964,-29.668,-9.073,-3.769,2.892,-37.958,-16.143,5.174,4.002,11.07],[-84.481,-58.238,-48.109,-45.797,-45.25,-81.909,-56.193,-46.039,-40.134,-43.653,-82.501,-53.517,-41.755,-36.774,-40.934,-77.773,-44.696,-25.18,-16.478,-8.071,-65.511,-40.261,-13.149,0.325,-3.276,-54.501,-29.798,-6.254,1.319,4.735],[-86.396,-68.357,-53.701,-44.716,-47.548,-84.944,-65.523,-44.887,-37.772,-53.375,-85.175,-63.715,-44.737,-32.774,-48.372,-80.046,-59.303,-26.823,-17.58,-16.67,-77.176,-53.822,-21.048,-9.715,-2.197,-64.468,-38.607,-22.096,-4.216,0.384]],
"ve": [[-19.803,-33.042,-34.127,-19.765,-85.741,-33.852,-35.329,-43.12,-26.484,-109.669,-25.916,-38.517,-41.604,-8.651,-54.625,59.607,-3.903,-11.519,67.397,-18.467,165.364,2.704,-8.261,-37.217,150.557,195.218,-213.291,-245.917,-32.094,-25.787],[-41.013,-55.464,-35.886,-57.195,5.629,-37.974,-38.904,-44.203,-66.013,-32.636,-20.917,-8.18,124.893,-34.862,-23.585,32.028,26.786,17.96,-73.591,8.492,89.13,51.421,49.266,22.594,-114.846,158.433,98.673,80.477,10.34,6.354],[-32.359,-66.387,-74.046,-52.926,-46.37,-15.301,-83.791,-61.634,-49.571,-52.001,-27.062,-68.188,-60.813,-32.031,-29.42,29.677,80.835,-21.532,4.273,10.284,85.96,4.224,6.763,-3.214,26.003,158.15,31.037,26.367,40.956,43.532],[19.974,-85.339,-110.155,-77.443,-58.83,28.769,-75.543,-81.073,-70.674,-55.432,-15.96,-49.087,-73.808,-58.925,-50.137,75.968,-10.463,-17.244,-21.906,-9.546,133.116,-3.234,-11.277,-8.974,2.576,205.083,31.051,13.209,8.949,9.019],[-5.805,-71.761,-105.249,-96.861,-75.113,-4.683,-52.523,-104.549,-86.24,-77.078,5.546,-37.051,-78.377,-68.224,-75.541,52.572,-24.715,-45.69,-28.512,-14.602,134.207,-10.887,-10.976,-4.908,-2.42,243.069,44.039,5.419,0.874,3.642],[11.229,-45.243,-125.349,-102.981,-100.156,33.257,-55.571,-90.493,-87.9,-120.31,70.476,-43.65,-86.537,-64.56,-107.419,76.429,-20.585,-29.371,-29.689,-27.156,115.376,-2.292,-29.997,-13.23,-8.543,186.593,42.681,-2.189,-1.937,-2.319]],
"kep": [[-140.52,-29.683,-33.317,13.119,-7.042,-136.194,-41.467,0.17,-3.385,6.627,-136.509,-24.798,21.661,48.73,-16.062,-130.702,-57.065,-18.843,-4.654,-11.008,-110.566,-62.024,-30.086,-5.512,-28.341,-91.057,-76.601,-31.765,-25.96,-29.359],[-82.439,-73.826,-141.003,-36.083,-2.354,-75.855,-74.312,-138.455,-50.671,7.736,-79.893,-59.521,-117.138,-40.373,-13.473,-80.624,-82.259,-134.352,-43.952,-18.857,-77.819,-66.836,-132.229,-44.19,-9.192,-76.113,-59.269,-85.903,-42.998,-29.701],[-87.684,-40.444,-24.328,-48.577,-121.718,-87.105,-35.254,-19.39,-58.663,-116.67,-84.981,-32.701,-27.887,-60.787,-132.679,-84.895,-34.254,-25.038,-48.722,-143.335,-85.705,-40.519,-21.109,-67.252,-119.762,-81.725,-34.725,-22.031,-48.621,-106.425],[-94.489,-41.121,-16.141,-11.642,-15.09,-96.344,-38.169,-13.542,-6.393,-16.588,-97.207,-44.918,-19.502,-8.163,-14.035,-95.122,-44.896,-14.941,-5.37,-30.605,-93.638,-42.323,-11.202,-10.977,-21.126,-88.206,-43.777,-11.884,-4.533,-3.639],[-97.966,-50.953,-16.404,-3.135,-10.056,-98.647,-50.035,-16.844,-3.098,-4.235,-97.023,-52.427,-19.201,-14.446,-0.662,-96.648,-49.405,-14.474,-6.348,-7.661,-95.497,-48.939,-15.721,0.832,-10.974,-95.341,-54.562,-19.116,-2.852,-3.696],[-99.184,-65.252,-21.797,-9.366,-4.308,-99.656,-59.145,-22.373,-6.099,2.388,-99.135,-61.49,-21.385,-11.855,-1.694,-98.482,-60.177,-20.949,-9.585,-8.306,-97.242,-61.743,-16.685,-8.126,0.356,-93.206,-59.675,-26.676,-3.761,-3.156]],
"vp": [[84.705,264.227,-223.701,265.286,-353.352,41.73,27.048,112.609,-40.408,106.853,27.251,31.992,16.68,79.356,-4.812,-1.967,1.526,-7.088,1.909,-7.902,0.503,-5.601,-2.396,-5.244,-4.747,2.95,-2.677,2.846,2.846,-1.878],[2448.565,738.588,22.474,-328.572,-325.082,470.634,217.135,-35.003,-19.47,55.128,254.623,96.812,6.616,-22.417,-0.485,48.406,27.286,-8.698,-8.224,-8.777,18.043,10.787,-2.187,-3.627,-8.054,9.269,-2.313,-3.356,0.838,0.458],[4441.859,2015.995,615.412,790.726,-35.996,880.398,320.184,163.254,62.318,-55.493,401.562,156.196,107.544,93.877,-41.516,84.697,16.777,19.595,1.468,-9.207,45.217,21.293,0.27,5.939,-2.981,16.762,1.987,2.746,0.663,-2.079],[6140.401,3065.664,862.907,683.863,482.438,1219.663,545.477,307.188,55.598,119.352,611.014,372.9,178.032,25.435,-19.048,110.142,71.16,17.678,4.2,12.331,53.232,33.137,12.023,0.183,5.514,22.897,14.388,4.118,4.867,-2.986],[7120.66,4715.244,1966.823,963.004,980.846,1420.507,1046.276,319.243,133.448,81.189,671.794,580.513,251.683,121.354,-0.125,137.94,94.156,35.894,21.416,-2.616,57.126,38.557,12.152,-3.874,9.477,25.65,23.673,4.896,2.275,-1.164],[7203.762,7741.717,3067.992,1436.074,668.416,1453.863,1363.894,613.094,333.026,5.117,747.591,701.748,357.294,215.364,-6.352,144.985,137.684,54.865,34.045,31.237,73.548,70.663,19.161,12.743,-2.052,26.368,26.357,22.234,7.265,-1.846]]
}