{
"KTrans": [[2.66,1.19,0.336,1.09,2.776,6.973,15.877,11.39,11.666,8.885,5.601,23.918,25.707,23.271,21.992,3.128,71.856,89.125,93.523,93.915,-94.635,44.762,104.861,126.537,144.992,-349.382,-5.805,-0.076,37.551,116.853],[-5.384,-1.003,0.372,1.654,-0.248,4.197,4.66,1.532,4.584,5.093,18.353,11.298,3.178,9.159,9.288,-15.373,34.524,-19.619,26.43,37.167,-173.4,-40.647,-26.656,9.588,45.087,164.155,178.189,-60.94,-2.366,37.337],[-16.374,-2.185,0.585,0.087,0.017,-4.601,5.617,3.545,3.642,1.26,0.133,10.876,11.452,7.226,0.608,39.68,62.056,55.745,35.18,-20.841,-112.019,25.35,107.66,-136.794,0.649,8.89,-123.617,-24.01,0.451,-28.21],[-16.705,-2.377,0.733,1.397,0.509,-11.654,2.32,3.635,3.543,2.62,-8.072,10.878,5.824,7.955,5.208,0.215,80.341,48.589,44.783,37.737,-25.709,117.626,145.071,64.855,38.341,-4.951,-125.084,-23.719,-119.859,-55.891],[-23.696,-3.095,0.601,0.194,-0.119,-20.151,1.454,4.338,3.074,2.533,-16.112,12.618,7.297,5.897,6.186,-38.261,63.49,36.551,37.46,32.286,-77.418,91.53,114.533,74.633,78.804,18.118,64.683,474.98,-203.773,4.063],[-34.744,-1.057,0.447,0.228,-0.258,-31.641,3.472,3.324,4.7,2.777,-31.9,5.833,6.852,6.606,5.557,-56.571,51.629,39.02,34.188,27.848,-73.507,25.414,117.41,72.384,50.721,-48.765,-57.698,69.531,78.19,55.784]],
"ve": [[-2.726,6.215,-14.024,-0.749,5.502,-3.371,470.709,-447.788,-6.934,31.834,20.889,-14.021,81.026,221.304,2070.062,47.425,0.579,-86.519,-48.415,-312.08,101.484,29.401,-13.578,-38.871,-63.201,206.188,73.715,32.58,2.498,-17.542],[-0.803,-1.902,9.595,-3.03,3.083,4.023,1.11,2.778,6.482,4.89,9.187,-1.328,3.969,16.414,8.338,42.259,26.071,16.319,-1.144,1.331,103.018,50.465,32.75,17.288,-1.982,192.937,88.965,64.387,43.121,26.328],[-0.733,0.052,-0.161,-1.436,-0.609,3.697,2.209,1.325,0.234,0.193,8.606,4.35,3.535,1.788,2.522,67.179,23.074,16.848,14.277,9.434,97.498,49.724,33.212,26.763,19.293,201.521,101.555,68.092,50.336,39.108],[0.113,0.356,0.407,0.13,0.04,4.604,1.895,1.443,1.2,0.945,9.177,4.496,3.116,2.614,2.17,51.191,24.779,16.784,13.025,9.931,99.171,49.687,32.575,39.071,21.546,198.801,98.792,65.772,49.498,40.292],[-2.499,0.263,0.421,0.059,0.25,1.427,1.971,1.753,0.964,1.027,8.967,4.966,3.137,2.717,2.12,49.773,24.898,15.732,12.669,10.238,98.205,37.305,35.514,19.652,18.307,190.452,94.598,70.839,51.399,42.353],[1.993,-0.194,0.293,0.29,0.048,3.507,2.31,1.677,1.454,0.783,8.289,5.022,3.453,2.689,2.032,52.518,25.515,16.44,12.621,10.027,99.892,50.394,31.74,24.226,19.238,196.881,99.501,64.732,51.676,40.108]],
"kep": [[-113.098,-9.142,-4.288,-3.646,-4.256,-128.462,-37.149,-18.64,-19.562,-11.518,-150.791,-41.869,-41.802,-37.016,-37.148,-133.455,-208.993,-186.454,-175.127,-194.558,-105.257,-363.27,-354.651,-375.303,-368.885,-132.384,-150.444,-596.039,-711.806,-680.579],[-13.791,-11.362,-125.7,-11.56,1.304,-8.419,-1.587,-124.158,-24.44,-12.529,2.285,0.669,-136.39,-30.219,-19.359,-60.095,1.303,-206.91,-185.08,-102.721,-127.197,-81.844,-96.84,-295.695,-219.967,-8.307,63.238,-58.575,-150.994,-313.689],[-22.822,-4.684,-2.218,-9.007,-126.415,-14.14,3.057,4.582,5.292,-115.1,-12.404,5.83,16.052,10.493,-155.766,-20.057,28.514,52.346,48.35,-247.099,-99.118,-30.993,66.11,-287.222,-55.952,-61.175,-101.509,-71.273,-13.259,-37.373],[-24.408,-5.875,0.655,1.97,0.364,-23.657,-0.356,1.816,4.413,3.425,-24.496,5.028,2.45,10.029,8.713,-44.115,39.965,31.387,44.293,55.989,-65.774,34.668,89.871,33.451,14.061,-61.479,-100.886,-58.995,-146.779,-99.619],[-33.256,-4.805,0.43,0.817,0.034,-33.315,-2.623,2.709,2.283,2.838,-32.251,5.548,3.882,3.558,8.211,-66.443,23.029,17.502,27.732,33.042,-85.507,14.202,57.024,42.928,69.881,-59.959,-26.646,203.442,-192.956,-43.002],[-44.728,-5.248,-0.655,0.099,-0.99,-43.983,-1.366,1.137,4.098,2.468,-45.507,-1.939,3.031,4.362,5.399,-74.853,14.461,18.429,21.468,21.596,-84.773,-25.365,56.728,35.564,31.277,-81.271,-72.416,-5.417,7.637,0.935]],
"vp": [[-69.566,-27.83,28.34,39.365,203.704,-13.361,5.102,18.369,-26.658,-26.876,5.494,10.106,15.659,-10.941,-2.867,-27.015,-18.449,-5.694,-13.743,-5.256,7.834,-13.255,-3.121,-0.576,-8.34,-15.977,-10.609,-6.635,-2.218,-4.323],[849.763,260.044,-76.515,-14.559,-18.231,176.171,84.376,15.832,-35.74,-2.377,118.459,19.577,-6.208,-1.603,-43.556,18.775,-18.076,-2.12,7.653,1.492,9.587,-30.854,-7.229,-0.606,9.23,-13.885,-22.79,-2.894,-15.213,-10.383],[2847.607,559,254.155,177.595,-21.55,528.002,74.823,-25.113,-10.009,-20.428,205.723,-6.699,29.768,36.547,5.668,62.292,6.505,-18.349,-20.357,12.081,18.257,-7.738,-15.939,3.532,-10.668,3.281,-15.116,-18.911,-22.299,-21.965],[4582.725,1014.856,343.926,254.831,154.764,891.666,215.957,56.037,54.978,5.416,369.237,88.819,24.805,27.706,-19.868,84.663,23.032,6.48,13.313,0.765,15.006,-15.139,-8.787,-4.495,-8.579,-16.022,-25.738,-11.234,-20.689,-26.673],[5937.142,1865.502,522.665,-54.614,-70.905,1021.522,358.486,141.752,38.229,97.599,476.385,226.22,53.662,41.82,0.129,93.589,41.617,-10.53,0.997,-0.079,32.014,8.506,2.846,3.069,1.711,-26.819,-20.909,5.929,-1.448,0],[6627.823,3012.262,976.551,730.581,189.185,1199.267,631.084,237.386,151.848,103.389,575.157,339.302,112.949,58.332,49.752,100.457,29.29,3.414,12.419,0.041,46.014,12.729,-2.687,14.943,-21.757,10.758,-1.299,-25.257,-9.749,-12.688]]
}