{
"KTrans": [[-2.06,-26.387,-28.234,-33.281,-33.337,-5.917,1.086,0.66,1.322,-0.323,8.21,1.182,-3.141,-1.57,-2.023,62.169,6.713,18.506,17.253,26.56,127.482,40.4,69.078,65.468,45.533,169.22,143.598,142.487,157.121,172.176],[-4.615,-0.237,-2.847,-31.513,-44.37,-3.73,0.084,-6.105,0.497,0.844,-0.448,2.243,-4.831,0.751,0.435,51.77,26.204,4.64,2.664,4.272,57.404,-2.122,40.553,15.458,13.319,62.207,17.24,79.368,44.915,2.469],[-53.365,-4.333,-4.364,-0.25,-4.834,-49.182,-2.891,-0.523,-0.295,0.299,-35.432,-1.682,-0.436,0.867,-6.456,-7.147,14.635,13.252,17.139,-2.434,7.576,43.621,43.136,-19.806,0.811,-4.946,65.688,73.455,58.669,59.686],[-48.507,-3.826,-4.186,-9.265,-2.96,-56.439,-5.135,-3.509,-0.935,-0.3,-61.716,-4.044,-1.303,-1.484,-0.195,-33.692,8.178,1.27,4.995,7.791,-19.148,41.175,36.553,23.338,30.426,-22.505,-1.526,20.675,26.721,-29.518],[-72.948,-41.849,-4.317,-4.815,-13.273,-66.383,-37.755,-5.254,-2.633,-1.685,-65.549,-43.035,-7.466,-2.244,-2.504,-50.186,-16.72,-4.392,-0.567,1.861,-39.857,8.726,23.914,11.686,10.982,-13.673,23.055,11.578,56.816,43.294],[-73.542,-45.639,-10.361,-4.859,-6.375,-71.274,-49.862,-15.696,-2.794,-2.359,-69.965,-45.506,-8.501,-3.736,-3.614,-63.489,-31.176,-5.747,-1.568,-0.027,-49.683,-15.874,53.573,7.809,9.217,-51.93,-7.193,45.661,24.195,56.463]],
"ve": [[-2.113,-13.359,-9.517,-8.443,-6.87,-4.077,0.385,0.423,0.907,0.33,-1.928,0.618,-0.058,1.082,1.64,27.969,38.519,34.852,41.604,65.969,40.779,-51.785,-41.147,-125.579,-114.549,131.965,91.237,28.556,-22.561,-43.309],[-2.399,-0.106,-3.012,-23.842,-26.797,-2.857,0.106,-5.94,0.094,0.279,0.548,1.039,-4.428,0.164,0.085,150.598,34.071,9.682,3.852,3.077,158.778,56.354,15.331,-52.512,17.117,263.121,75.138,68.087,38.513,-5.444],[-271.048,-1.611,-5.449,-0.069,-4.87,-246.33,-1.789,-0.146,-0.119,-0.195,-159.613,-0.925,0.104,0.392,-6.875,0.99,12.596,10.457,15.515,2.576,151.723,124.89,68.128,16.453,10.936,195.366,131.167,79.597,68.82,25.572],[-275.932,-2.42,-3.633,-14.001,-3.1,-246.947,-2.894,-1.38,-0.165,-0.17,-248.641,-1.865,-0.401,-0.565,-0.11,-5.8,6.878,2.154,3.16,-2.151,10.133,120.766,56.529,27.965,34.71,225.919,140.384,99.012,111.978,64.609],[-243.525,-152.845,-1.938,-7.336,-21.364,-142.368,-150.391,-2.107,-1.304,-0.671,-137.696,-196.582,-3.79,-1.019,-1.227,-8.715,-101.372,-0.015,0.054,1.929,141.66,98.256,32.157,17.565,13.714,181.686,197.558,218.347,92.054,74.74],[-153.018,-219.929,-20.528,-1.626,-11.174,-125.294,-291.179,-41.034,-1.527,-1.112,-70.447,-252.514,-16.77,-1.143,-1.72,-56.719,-139.922,-1.193,-1.289,0.28,183.932,19.638,54.744,9.189,7.325,67.993,170.619,147.191,43.585,128.573]],
"kep": [[71.611,-0.152,0.01,0.228,0.418,76.411,-2.067,-1.075,-1.528,-0.237,164.855,-5.767,-1.921,-2.342,-1.999,160.414,-27.292,-18.984,-13.336,-20.8,148.057,-90.228,-71.211,-59.582,-35.805,107.246,-225.76,-166.021,-162.399,-178.448],[-3.183,0.096,103.514,-0.439,-0.048,-2.599,-0.037,65.67,-1.153,-0.812,-2.13,2.477,70.251,-3.629,-1.337,-32.636,-23.913,57.769,-29.094,-14.575,-32.223,-21.744,134.718,-80.37,-34.178,-36.637,8.196,72.084,-182.437,-67.856],[-2.104,-3.441,-1.239,-0.206,72.308,-2.691,-1.853,-0.431,-0.185,106.573,-4.784,-1.387,-0.912,2.108,122.855,-37.518,0.765,5.213,-9.202,25.452,-53.971,-24.128,-29.927,-19.601,64.009,-64.434,-8.505,26.398,12.634,140.223],[-8.914,-2.806,-2.317,-1.47,-1.23,-19.811,-3.802,-2.76,-0.998,0.106,-29.407,-3.717,-1.344,-1.435,-0.01,-57.837,-2.927,-4.708,0.325,2.244,-52.964,-33.992,-11.223,-9.018,-23.504,-65.432,-55.872,-28.453,-34.025,-69.846],[-46.064,-7.411,-3.212,-1.322,-1.594,-55.006,-4.021,-4.045,-1.766,-1.401,-59.506,-2.653,-5.095,-1.649,-2,-62.553,-12.037,-8.915,-2.431,-2.158,-72.122,-46.461,-4.075,-8.655,-7.906,-66.102,-46.086,-60.205,-4.614,-13.233],[-60.974,-5.943,-4.16,-3.957,-1.141,-65.968,-1.113,-4.741,-2.044,-1.699,-70.234,-2.805,-3.16,-3.319,-2.517,-69.141,-27.017,-9.219,-3.154,-1.567,-77.827,-45.915,10.109,-5.919,-0.753,-76.742,-56.817,-32.853,-20.39,-44.282]],
"vp": [[-21.472,-36.258,-29.301,-42.898,-46.611,-15.835,-19.03,-16.022,-23.122,-3.542,-36.082,-23.444,-5.049,-7.539,-7.628,-36.329,10.899,-1.466,3.965,-7.602,-36.225,9.743,-10.477,-9.729,10.187,-34.496,9.232,-1.048,-9.566,-18.113],[251.53,31.767,-23.57,-53.948,-70.169,66.38,1.514,-44.308,-8.608,-29.443,-5.625,-15.323,-26.047,-15.417,-10.603,-43.94,-5.736,-38.464,-14.498,-15.488,-34.324,-41.512,-60.484,-12.72,-13.367,-30.219,-23.949,-37.447,-10.465,15.018],[215.131,307.224,181.395,31.613,-33.862,87,82.136,11.616,16.951,-27.371,52.125,21.789,-1.814,-8.908,-18.044,-7.645,-7.794,-30.289,-17.477,-46.558,-18.91,-32.833,-20.189,-27.46,-27.474,-26.795,-36.521,-44.219,-40.004,-41.517],[1171.834,525.647,451.837,175.942,162.866,279.241,120.119,82.292,9.402,25.434,171.694,39.113,13.541,26.395,13.567,-22.914,12.79,2.25,-9.875,-25.428,-10.171,-20.62,-12.176,-22.74,-18.599,-15.899,-21.551,-27.079,-46.479,-34.108],[3262.875,720.802,586.758,457.861,263.727,801.613,188.322,123.604,112.945,69.628,340.269,15.405,118.843,43.29,69.906,7.924,-14.302,9.059,6.47,-8.822,1.521,6.112,-27.049,-10.649,3.004,-41.374,-28.27,-28.888,-29.66,-18.903],[3283.685,1214.92,919.738,585.663,489.682,787.313,145.254,88.213,134.051,120.719,413.71,84.506,112.31,41.115,90.805,40.16,6.863,12.985,19.264,2.229,-3.195,-2.041,-27,-3.84,-22.427,-17.808,-15.705,-38.594,-12.324,-18.523]]
}