{
"KTrans": [[3.11,-0.323,-5.983,1.622,-0.666,6.234,8.022,6.142,10.035,7.322,12.708,19.091,17.871,19.87,18.579,-44.488,39.825,66.204,76.088,83.172,-37.364,37.432,70.185,55.033,78.087,365.337,-63.67,-48.428,-86.911,103.623],[-19.453,-4.803,3.219,1.886,-0.987,-16.284,-0.472,1.052,5.47,4.588,-10.776,2.141,2.792,8.767,6.063,-57.956,44.271,11.77,21.086,30.414,8.539,-22.636,21.75,-6.805,34.291,-70.545,28.54,25.099,-64.33,4.022],[-31.385,3.115,-2.973,-0.76,0.75,-26.399,3.426,5.381,3.577,0.788,-27.16,5.422,8.981,1.57,0.768,3.305,7.971,24.237,7.182,-3.668,-6.48,21.862,24.62,-43.495,3.402,26.886,-19.161,-17.684,36.247,21.551],[-46.406,-3.154,0.867,0.227,-0.543,-43.456,3.386,4.837,4.127,3.089,-47.55,-1.487,8.635,7.087,4.527,-31.684,-10.407,5.701,17.87,17.431,-57.58,-0.635,-31.646,20.871,36.216,-80.56,-3.747,-2.808,-33.891,-36.182],[-59.78,-15.6,0.884,2.071,1.31,-60.838,-5.735,4.51,1.489,4.109,-59.582,-5.89,3.688,6.563,6.794,-62.805,-23.541,3.084,21.767,22.825,-55.738,22.179,-8.539,33.635,16.512,-100.041,-51.757,46.938,5.639,-48.498],[-61.648,-3.142,0.107,6.107,1.238,-62.129,-13.405,-1.019,4.025,3.53,-68.773,-14.939,6.668,6.83,7.335,-77.784,-31.982,39.595,10.215,15.249,-44.13,-30.666,-10.303,-2.19,56.779,-50.5,-58.471,-26.989,49.087,-5.723]],
"ve": [[10.567,12.186,-0.746,-137.173,-133.375,7.979,28.056,-4.131,21.945,25.645,8.084,18.811,17.003,-247.944,-2218.217,45.453,-26.33,43.333,2.815,48.459,95.294,26.33,-10.053,113.599,-31.316,197.931,79.779,30.354,2.382,-19.856],[-4.93,0.351,-0.084,0.848,3.983,-5.833,-63.64,14.362,2.156,2.975,-13.622,-13.093,3.607,1.306,8.25,46.188,22.276,17.392,-22.353,17.593,96.19,44.684,31.883,23.74,-31.054,200.138,98.432,65.434,45.492,25.556],[-2.188,-0.873,-1.222,-3.051,-3.637,-4.569,0.054,-3.057,5.646,-2.789,10.257,-0.123,-4.638,0.125,-14.076,46.367,23.997,16.464,10.675,9.021,95.499,49.872,34.625,24.485,19.154,199.207,96.96,76.765,48.559,40.98],[-3.915,0.194,-0.621,-1.271,-2.08,-0.039,2.533,1.065,-0.062,-0.541,31.784,1.894,2.696,1.724,0.439,47.199,23.744,17.816,11.054,10.608,89.976,49.14,32.842,24.199,19.33,195.512,96.996,65.368,48.407,41.09],[1.095,-2.849,0.338,-0.537,-0.206,-0.174,3.042,0.885,0.525,1.012,-5.768,4.807,2.632,2.376,1.751,49.297,24.953,12.068,12.321,9.99,95.226,129.668,31.845,25.633,21.156,204.028,102.174,65.584,48.55,40.76],[8.731,0.197,-0.165,0.706,-0.132,6.154,5.256,0.259,1.049,0.696,10.506,1.612,2.567,2.535,1.898,49.134,23.958,17.104,31.72,10.139,97.214,49.633,32.685,23.351,20.449,201.01,95.141,64.942,49.99,40.199]],
"kep": [[-128.848,-15.891,7.568,-6.476,-2.23,-111.243,-20.396,-9.673,-34.743,-10.259,-102.585,-53.605,-29.524,-34.099,-47.375,-133.693,-233.314,-213.129,-187.18,-179.112,-40.442,-257.763,-359.42,-390.556,-447.69,115.601,-29.082,-402.473,-619.549,-627.933],[-42.878,-40.753,-120.979,-30.173,-1.673,-40.426,-35.911,-123.981,-29.237,-13.529,-38.715,-36.929,-131.615,-50.319,-6.864,-73.46,9.471,-98.377,-143.934,-102.166,-47.48,-38.596,-8.163,-232.609,-197.619,-53.31,2.619,51.005,-71.949,-284.648],[-50.673,-3.091,-9.081,-21.832,-118.456,-48.655,-6.546,-0.313,-3.677,-113.371,-51.423,-11.328,4.751,-26.591,-123.794,-43.781,-26.448,1.741,-25.427,-105.736,-53.503,-29.98,-8.809,-68.028,-24.209,-49.398,-39.563,-29.385,23.974,73.3],[-63.462,-12.436,-1.387,-0.724,-5.173,-62.494,-6.54,0.652,0.941,1.091,-67.632,-15.454,5.054,6.688,2.327,-60.971,-35.064,-23.233,-1.925,10.469,-75.713,-36.041,-44.35,-7.659,23.618,-73.504,-37.11,-35.631,-44.391,-34.287],[-75.329,-25.53,-1.61,1.117,1.218,-78.262,-22.402,0.199,-1.802,7.306,-76.109,-18.792,-3.36,5.632,6.295,-77.949,-42.661,-22.604,5.195,11.587,-77.529,-28.587,-35.396,-0.444,-2.707,-85.797,-64.527,-14.683,-21.17,-55.568],[-74.973,-20.468,-5.815,4.813,0.809,-79.199,-28.59,-5.346,1.927,3.298,-81.923,-33.196,-2.545,4.694,5.385,-86.229,-55.291,1.885,-12.802,2.88,-75.395,-52.906,-35.942,-26.173,27.429,-77.796,-67.632,-50.585,-9.93,-20.462]],
"vp": [[477.522,209.513,229.284,355.88,-154.829,47.238,-28.845,1.734,-3.238,28.907,-23.792,2.872,7.686,-2.632,-28.026,-22.075,-26.763,2.979,-3.053,-29.155,-29.564,-31.69,-9.895,12.676,17.568,-43.719,-17.138,-18.754,1.445,-35.785],[2136.481,577.276,-415.629,137.937,122.8,333.837,147.079,-75.799,36.403,-49.915,161.465,29.45,-23.918,-20.702,10.794,-9.014,-29.4,-27.472,-30.14,-4.148,-39.558,-37.374,-20.113,-1.93,-28.212,-11.159,-44.482,-35.749,-21.669,-18.136],[4010.574,1930.145,562.321,597.803,244.896,639.473,295.461,80.883,88.415,-23.09,427.637,119.122,13.91,14.327,-1.792,8.046,-23.927,-45.281,-38.616,-28.842,-21.637,-29.779,-43.895,-28.696,-37.125,-24.458,-46.966,-59.235,-58.48,-61.235],[5133.746,3607.049,1363.833,770.862,-65.552,1002.411,482.251,253.544,70.008,108.843,463.395,235.137,81.957,48.654,12.704,23.084,-1.669,30.768,-9.475,-12.373,-19.116,-19.987,-30.588,-29.745,-49.258,-1.426,-26.428,-46.294,-61.121,-57.719],[5643.686,4252.699,2060.368,1216.69,1027.813,1186.935,1164.344,345.327,127.36,184.015,548.381,470.031,183.159,117.874,62.03,82.073,27.935,19.299,-23.763,-6.524,-3.521,-19.79,-31.697,-15.434,-40.119,-4.002,2.669,-54.288,-57.661,-55.238],[5798.109,7101.995,2105.368,2279.603,1585.346,1082.375,1166.392,443.514,410.986,268.148,616.647,575.77,248.281,92.461,162.877,105.307,120.762,100.696,12.547,-11.57,17.203,-11.149,-19.573,-48.262,-32.095,4.445,-24.217,-44.994,-35.85,-64.895]]
}