{
"KTrans": [[-4.954,-0.749,0.101,-1.92,1.155,0.463,0.559,2.005,2.526,-0.903,3.605,1.926,1.65,3.467,0.423,0.051,6.809,4.673,0.487,0.667,12.208,12.481,8.074,-1.166,8.444,-132.713,73.467,53.008,17.463,23.53],[-51.964,2.725,2.696,0.802,0.203,-49.031,0.149,-0.076,2.203,-1.196,-56.709,-0.245,1.857,1.839,0.841,-31.881,-0.321,-7.07,-3.656,-3.157,-40.94,1.839,-10.316,-11.328,-2.554,-107.302,21.756,15.607,15.629,11.562],[-82.097,-7.306,-0.483,2.976,1.595,-79.72,-5.873,2.24,0.76,0.45,-83.455,-14.627,-1.151,0.153,0.993,-72.777,-11.074,-2.941,0.307,-2.413,-67.987,-6.896,-9.44,-0.495,-4.747,-83.502,-7.599,3.841,3.468,6.007],[-94.007,-20.331,1.788,0.587,2.847,-95.223,-24.826,2.278,1.668,1.27,-94.228,-25.595,-0.085,1.229,0.125,-91.457,-27.568,-7.002,-2.511,-1.604,-80.438,-25.199,-16.381,-6.82,-6.974,-118.753,-2.94,1.755,3.863,-1.255],[-96.231,-44.578,3.718,2.215,1.585,-96.237,-38.419,0.27,2.374,1.297,-95.977,-42.37,2.636,-1.688,3.504,-95.298,-44.726,-7.538,3.773,0.037,-96.31,-40.723,-5.848,0.83,-7.792,-120.638,-51.385,0.486,7.97,5.965],[-97.061,-66.091,-7.517,5.691,5.705,-98.535,-66.631,-7.472,3.309,4.316,-96.974,-63.701,-6.388,3.291,3.187,-97.348,-50.471,-18.012,1.636,-0.104,-99.425,-48.561,-17.699,-7.784,-0.284,-96.508,-52.053,-19.394,0.613,-0.124]],
"ve": [[0.055,1.448,6.973,11.166,14.951,2.049,4.541,4.906,82.883,-51.917,-7.839,7.221,7.316,3.136,3.59,-11.256,-19.759,21.631,44.408,152.235,-18.087,32.661,-111.218,-60.316,-23.909,-20.54,-4.537,-29.886,-57.357,-85.051],[-41.004,-1.202,-0.651,-0.16,0.405,-24.848,-1.414,-0.985,-0.159,-0.22,-30.815,0.455,-1.193,-0.413,-0.079,10.708,-1.479,-3.042,-1.231,-0.331,-43.369,-2.705,-2.997,0.623,3.292,-61.133,-20.358,-41.261,43.147,98.611],[-57.652,-4.676,-1.443,-0.471,-0.166,-55.363,-3.869,-0.79,-0.152,-0.643,-57.436,-8.925,-1.225,-1.43,-0.522,-62.624,13.265,-2.248,-0.96,-1.63,-49.915,-11.593,-7.129,-1.422,-2.642,-73.581,-9.727,-7.501,-44.505,7.455],[-67.727,-11.498,-0.479,-1.304,-0.318,-107.015,-13,-1.5,-0.176,-0.852,-167.716,-14.922,-2.487,-0.476,-0.888,-87.087,-22.726,-6.422,-2.161,-2.175,-61.785,-20.51,-8.71,-5.58,-4.591,-109.963,-10.488,-12.882,-4.629,-1.129],[-88.177,-26.026,-1.357,-0.292,-0.794,-90.049,-24.229,-2.117,-0.073,-0.859,-78.714,-25.35,-1.421,-1.812,-0.47,-72.252,-36.805,-5.495,0.126,-0.575,-87.393,-33.906,-6.992,-0.318,-6.859,-131.603,-39.477,-15.458,-3.201,1.183],[-87.974,-48.533,-6.436,0.098,0.813,-146.949,-44.297,-5.357,-0.478,0.351,-94.966,-45.62,-6.498,-0.464,0.052,-101.073,-37.481,-11.957,-1.819,-1.237,-92.957,-42.53,-25.36,-6.761,-1.444,-89.204,-39.961,-35.168,-19.018,-4.425]],
"kep": [[-5.551,-1.014,-1.989,-4.065,1.598,-1.554,-1.317,2.325,4.382,-4.288,-0.537,-1.689,0.242,7.198,0.119,-16.476,-0.796,-0.196,-4.066,-7.628,-25.189,-14.668,-17.712,-31.291,-9.571,72.587,-1.748,-17.317,-50.423,-54.969],[-39.831,3.454,3.218,1.085,-0.027,-40.549,0.928,0.768,2.402,-0.872,-44.203,-1.355,2.974,2.168,0.98,-46.615,-4.197,-6.426,-3.471,-3.13,-48.198,-15.941,-13.956,-14.101,-6.489,-18.346,-8.402,-17.415,-6.13,-4.822],[-73.709,-4.447,0.678,3.416,1.701,-71.459,-3.474,2.703,0.794,1.073,-77.727,-8.241,-0.351,1.403,1.374,-78.522,-11.285,-2.439,-0.093,-1.606,-61.228,-27.751,-13.036,-3.165,-5.197,-54.257,-18.513,-29.244,-16.209,-6.377],[-91.764,-12.705,1.782,1.719,3.046,-98.501,-16.325,2.827,1.561,2.025,-93.335,-16.759,1.546,1.398,0.842,-85.379,-33.849,-4.024,-1.922,-0.309,-72.51,-42.392,-20.814,-7.536,-5.453,-64.642,-29.981,-38.316,-18.514,-12.323],[-96.335,-30.757,4.462,2.117,2.23,-96.469,-25.275,1.081,2.2,1.949,-99.369,-30.759,2.676,-0.375,3.765,-90.568,-53.661,-6.234,2.086,-0.534,-82.184,-57.225,-26.416,-3.586,-5.173,-72.116,-37.075,-34.822,-18.694,-8.761],[-100.662,-55.973,-3.333,4.914,4.62,-99.92,-53.974,-4.207,3.312,3.678,-96.346,-55.491,-2.467,2.925,2.87,-90.333,-60.535,-16.555,1.74,-0.25,-85.658,-62.443,-45.118,-11.205,-2.846,-78.914,-47.877,-46.285,-51.371,-13.698]],
"vp": [[453.656,199.948,56.56,251.823,-67.877,17.439,32.918,3.024,2.685,4.74,10.75,-8.6,2.586,0.022,11.604,19.986,-2.082,-2.923,3.963,2.479,15.123,8.072,3.825,15.301,-0.935,7.742,-9.156,-4.439,8.593,8.091],[3157.088,67.429,127.562,115.896,134.188,551.493,57.531,52.676,-13.632,80.032,349.883,-2.514,22.276,0.59,6.81,43.887,9.438,25.759,22.998,18.134,35.778,6.048,25.134,33.397,14.106,32.04,-6.535,-0.357,-6.45,-6.258],[6059.518,1176.392,491.747,-30.127,218.569,1101.701,162.914,35.457,21.417,35.994,608.048,175.528,66.887,53.299,25.728,115.552,36.809,8.246,4.643,19.325,49.404,22.528,28.219,6.778,18.02,36.918,7.729,15.209,7.878,-1.592],[7826.448,2404.914,209.944,446.695,-69.873,1785.786,568.03,83.808,-14.658,49.048,784.201,298.64,75.996,19.229,44.135,166.019,93.43,40.808,16.542,22.528,62.459,45.827,35.117,23.655,26.957,59.033,8.723,19.462,7.389,11.769],[8798.662,5564.82,390.728,37.528,287.367,1774.354,998.989,147.145,5.557,53.995,939.415,527.802,39.187,64.597,5.862,178.37,154.285,32.01,-1.407,4.401,95.685,67.29,20.498,-0.361,37.753,67.587,39.608,12.123,-3.081,-4.009],[9841.286,9783.916,1948.181,-107.283,-520.905,1956.715,1791.322,348.997,25.58,-69.274,904.612,928.733,200.312,-3.051,1.84,198.979,160.486,72.646,11.536,11.562,94.539,85.131,76.903,28.306,5.903,42.772,36.583,55.044,38.318,7.889]]
}