{
"KTrans": [[8.207,3.028,1.714,1.165,1.786,14.048,8.933,5.495,7.682,6.096,30.671,17.398,13.462,12.852,11.35,160.949,92.299,76.995,66.547,62.448,419.039,227.656,173.991,157.147,142.196,1142.455,604.505,462.696,402.211,366.084],[9.317,3.779,1.235,4.035,1.903,17.431,8.9,6.003,4.824,2.993,28.153,13.479,9.978,9.586,4.907,135.096,65.543,48.274,37.05,31.386,354.417,152.864,103.816,76.597,64.781,910.231,364.09,244.896,182.942,157.6],[1.075,5.08,3.421,3.504,3.168,7.887,8.423,7.154,4.979,4.569,24.496,17.091,8.753,8.77,4.416,121.093,70.306,45.337,33.335,30.582,298.381,140.773,93.201,72.53,54.454,802.164,349.838,213.025,157.974,124.298],[-8.672,13.217,-1.797,6.285,3.99,-4.347,12.823,10.64,4.807,5.759,12.121,20.809,10.13,8.743,7.544,97.574,70.471,39.413,35.46,28.872,271.059,145.922,81.973,70.174,52.94,742.941,336.841,208.382,149.441,111.778],[-32.162,8.727,5.472,8.649,2.015,-24.692,12.995,8.195,7.416,2.382,-4.09,18.549,15.682,10.618,8.413,74.598,65.01,44.332,36.306,25.228,222.738,163.473,89.871,64.098,52.785,568.362,367.75,213.229,144.843,111.761],[-37.018,11.217,9.919,8.034,0.665,-35.925,31.032,9.364,4.685,5.754,-30.639,18.718,10.059,12.858,10.917,35.738,87.323,46.494,39.777,29.52,145.797,141.735,94.138,60.951,55.191,454.635,355.587,202.314,156.808,111.724]],
"ve": [[1.146,1.259,0.62,1.187,0.451,4.973,1.037,0.316,-1.78,-2.341,9.645,2.567,-2.001,-4.367,-7.169,45.456,13.257,-1.275,-11.128,-18.495,93.987,32.88,7.872,-7.499,-18.634,190.702,79.081,35.279,10.138,-6.387],[1.881,1.04,0.158,0.436,0.108,5.945,1.981,1.382,1.12,0.392,9.83,4.779,2.986,2.138,1.223,49.727,23.363,14.45,9.31,5.49,99.978,48.021,29.571,19.269,12.159,199.246,97.103,61.398,41.348,29.024],[2.12,0.439,0.593,0.393,0.441,5.335,2.152,1.513,1.477,0.873,10.138,4.807,2.754,2.419,1.262,50.893,24.765,16.03,11.114,8.655,100.013,49.209,32.111,23.186,17.032,199.112,98.836,64.902,46.889,35.454],[1.773,1.178,-0.369,0.48,0.236,5.914,2.853,1.913,1.11,1.096,9.896,5.42,3.105,2.368,1.657,50.125,25.023,15.754,12.146,9.461,100.302,50.243,31.996,24.495,18.424,201.387,99.482,65.559,48.618,37.468],[1.94,0.236,0.079,0.779,-0.11,7.592,2.281,1.541,1.443,0.596,11.698,4.961,3.588,2.745,2.06,51.591,24.792,16.46,12.521,9.34,101.262,50.44,32.6,24.477,19.073,200.678,100.47,66.387,48.918,38.462],[29.652,0.431,0.343,0.695,-0.248,5.888,3.698,1.329,0.795,0.819,11.686,4.805,2.753,2.797,1.977,50.6,25.174,16.229,12.607,10.057,104.725,50.062,32.907,24.083,19.693,202.473,100.092,66.109,49.871,38.988]],
"kep": [[6.976,2.277,2.168,1.783,3.832,8.906,8.151,5.986,10.833,10.64,19.33,14.903,16.547,19.256,21.274,79.449,69.847,79.568,87.699,100.072,167.594,146.562,153.937,178.136,197.782,327.455,293.35,315.837,355.853,397.817],[6.542,2.487,0.924,3.518,1.796,10.44,6.489,4.439,3.587,2.594,16.194,8.049,6.628,7.192,3.651,56.419,33.978,29.34,25.245,24.465,126.804,70.553,57.054,47.864,46.826,236.955,135.175,113.43,99.957,99.465],[-1.694,4.07,2.49,2.855,2.517,1.866,5.663,5.209,3.214,3.481,12.404,11.186,5.48,5.972,2.934,45.744,36.01,24.909,19.669,19.992,98.472,60.954,45.873,39.768,31.766,201.215,125.651,89.444,75.323,65.346],[-11.018,11.171,-1.822,5.369,3.411,-10.265,8.997,8.126,3.326,4.345,1.022,13.906,6.418,5.826,5.498,30.453,35.621,19.919,20.407,17.458,85.101,63.054,37.438,36.302,28.799,180.003,118.168,85.82,67.484,53.754],[-33.575,7.451,4.788,7.363,1.745,-28.826,9.512,5.951,5.462,1.399,-14.06,11.906,11.018,7.267,5.861,14.9,31.435,23.26,20.664,14.194,60.02,73.993,42.624,31.337,27.872,121.891,132.326,87.601,63.917,52.534],[-38.207,9.59,8.768,6.734,0.479,-39.777,25.214,7.155,3.381,4.456,-37.604,12.236,6.396,9.184,8.254,-10.389,48.322,25.19,23.47,17.256,22.072,60.049,45.346,29.211,29.205,83.778,126.694,81.179,70.781,51.925]],
"vp": [[0.001,0.001,0.001,0.001,0.001,0.005,0.005,0.005,0.005,0.005,0.01,0.01,0.01,0.01,0.01,0.05,0.05,0.05,0.05,0.05,0.1,0.1,0.1,0.1,0.1,0.2,0.2,0.2,0.2,0.2],[0.001,0.001,0.001,0.001,0.001,0.005,0.005,0.005,0.005,0.005,0.01,0.01,0.01,0.01,0.01,0.05,0.05,0.05,0.05,0.05,0.1,0.1,0.1,0.1,0.1,0.2,0.2,0.2,0.2,0.2],[0.001,0.001,0.001,0.001,0.001,0.005,0.005,0.005,0.005,0.005,0.01,0.01,0.01,0.01,0.01,0.05,0.05,0.05,0.05,0.05,0.1,0.1,0.1,0.1,0.1,0.2,0.2,0.2,0.2,0.2],[0.001,0.001,0.001,0.001,0.001,0.005,0.005,0.005,0.005,0.005,0.01,0.01,0.01,0.01,0.01,0.05,0.05,0.05,0.05,0.05,0.1,0.1,0.1,0.1,0.1,0.2,0.2,0.2,0.2,0.2],[0.001,0.001,0.001,0.001,0.001,0.005,0.005,0.005,0.005,0.005,0.01,0.01,0.01,0.01,0.01,0.05,0.05,0.05,0.05,0.05,0.1,0.1,0.1,0.1,0.1,0.2,0.2,0.2,0.2,0.2],[0.001,0.001,0.001,0.001,0.001,0.005,0.005,0.005,0.005,0.005,0.01,0.01,0.01,0.01,0.01,0.05,0.05,0.05,0.05,0.05,0.1,0.1,0.1,0.1,0.1,0.2,0.2,0.2,0.2,0.2]]
}