{
"KTrans": [[6.226,1.505,3.079,3.313,1.914,11.119,10.256,6.806,6.725,6.148,19.921,18.174,13.548,14.105,13.598,-4.937,72.193,63.5,63.269,57.976,25.816,-15.437,35.881,72.021,100.792,259.435,0.27,-11.41,18.665,62.966],[-3.165,3.197,-0.427,1.995,1.716,6.876,5.033,5.284,3.704,3.711,16.545,12.185,8.715,7.378,6.041,-15.078,55.687,40.57,35.278,31.343,44.697,-2.938,26.846,63.217,60.283,16.062,99.884,6.947,-39.355,53.96],[-12.894,4.303,-1.78,0.113,0.299,-22.472,0.829,1.94,1.857,3.253,-20.933,11.453,4.863,5.935,5.218,-18.248,8.277,37.277,32.553,23.065,-12.582,47.103,32.915,62.194,50.546,14.669,66.195,8.107,3.091,48.559],[-57.292,-3.211,0.725,-1.747,-0.304,-58.154,3.938,2.788,-0.113,2.518,-49.998,14.988,4.28,3.243,3.411,-41.324,-21.402,42.471,26.436,24.704,-27.728,-9.717,3.112,58.934,45.63,2.862,41.432,9.086,-22.63,55.881],[-66.798,8.347,-0.733,0.469,-1.238,-74.729,24.167,-2.795,-0.506,1.547,-69.449,4.185,10.406,3.995,2.732,-58.793,-33.488,59.559,21.17,23.075,-45.93,-22.573,6.185,-36.042,55.845,-55.64,12.771,-25.965,3.819,22.832],[-75.966,-2.373,4.383,-1.218,-3.058,-78.177,-1.403,0.584,2.009,0.361,-79.813,-21.149,6.556,2.624,3.256,-64.52,-32.627,-20.335,25.456,19.782,-47.999,-31.16,-30.976,21.111,37.753,-47.992,2.426,10.674,18.01,-15.614]],
"ve": [[1.88,3.144,3.847,4.14,12.486,5.662,2.673,3.158,3.16,4.688,9.254,3.665,-0.306,-0.6,-2.572,44.262,15.475,31.183,-5.934,-12.187,98.032,36.692,7.932,16.998,-20.753,187.829,84.062,34.527,9.627,-6.526],[1.595,0.496,0.218,0.688,0.706,5.249,1.857,1.719,1.309,1.052,10.021,4.705,2.948,1.785,1.868,50.553,24.338,14.524,10.086,6.648,97.831,50.961,24.977,22.077,15.357,213.018,95.785,65.643,43.404,28.756],[1.554,0.562,0.149,0.089,0.404,6.777,2.076,1.732,0.859,0.655,10.792,4.366,2.656,2.125,1.809,50.154,22.55,15.688,11.527,8.414,104.379,49.2,32.6,24.68,18.853,206.023,99.869,66.539,43.694,29.692],[-9.146,0.104,0.636,-0.197,0.081,19.268,2.4,1.586,0.857,0.708,9.778,5.262,3.007,1.978,1.64,53.459,22.417,16.815,11.678,9.057,99.771,51.274,31.791,23.773,19.469,201.656,95.35,68.586,49.465,37.7],[1.587,0.824,0.376,0.043,-0.327,7.616,4.068,1.04,1.131,0.743,12.216,4.394,4.169,2.52,1.747,52.118,27.402,17.111,11.628,9.444,104.401,45.682,33.483,24.463,20.251,225.512,96.666,68.507,49.177,39.556],[0.186,0.598,0.515,-0.041,-0.513,28.919,3.832,1.573,1.065,0.583,13.341,4.511,2.975,1.915,1.717,52.686,25.375,16.761,11.922,9.51,113.005,52.668,33.011,24.542,20.063,210.101,98.536,63.965,56.825,37.902]],
"kep": [[1.273,-4.314,-2.676,-2.203,-4.717,1.899,4.547,1.078,1.41,1.515,6.397,11.016,10.933,13.34,16.021,-25.559,41.202,51.326,69.298,78.186,-16.958,-33.751,18.054,59.112,121.976,39.229,-17.401,-2.295,19.94,85.767],[-8.317,-1.179,-4.444,-2.569,-2.85,-2.898,-0.802,-0.486,-1.546,-1.261,0.543,3.013,1.567,1.523,0.133,-38.831,18.677,17.775,17.973,18.323,-23.068,-26.612,-6.761,29.338,33.654,-50.171,8.636,-22.3,-47.755,13.969],[-18.916,-0.454,-5.713,-3.85,-3.965,-30.447,-5.203,-3.685,-2.925,-1.376,-32.391,2.318,-1.884,-0.292,-0.67,-45.607,-14.859,13.105,13.9,9.006,-54.07,-3.766,-3.001,24.371,21.25,-56.112,-11.839,-25.15,-24.889,5.947],[-60.002,-7.698,-3.893,-5.395,-4.262,-62.898,-3.096,-2.868,-4.847,-2.18,-56.646,3.748,-2.926,-2.74,-2.224,-59.964,-36.337,15.82,8.23,9.599,-61.877,-37.598,-22.318,21.081,16.65,-62.656,-26.933,-28.644,-40.061,9.761],[-68.659,0.776,-5.434,-3.598,-4.807,-76.508,12.989,-7.995,-5.56,-3.185,-72.624,-6.224,1.397,-2.661,-3.045,-71.505,-46.731,27.342,3.738,7.723,-70.873,-46.654,-20.662,-45.232,22.92,-81.773,-42.433,-48.511,-26.278,-11.979],[-75.828,-9.525,-1.182,-5.347,-6.464,-78.85,-10.782,-5.727,-3.42,-4.254,-80.803,-28.794,-1.531,-3.632,-2.595,-75.261,-46.588,-33.342,6.629,4.596,-72.402,-52.512,-45.784,-6.711,9.559,-80.068,-46.527,-30.931,-19.893,-34.435]],
"vp": [[181.08,295.491,104.713,-87.154,-80.06,-21.285,-45.71,-28.591,2.2,-25.809,-11.507,0.641,-10.692,-3.053,15.783,-27.441,-41.741,-15.99,-5.126,-1.556,-20.965,-46.69,-28.886,-14.43,-39.385,-39.913,-41.581,-6.507,-24.294,-20.056],[1501.799,325.942,39.921,65.114,-8.113,265.439,84.475,-11.499,-1.09,-95.812,126.054,6.306,-16.669,-30.934,-15.093,-9.85,-36.099,-52.421,-33.534,-10.538,-60.296,-33.377,-34.58,-40.231,-22.925,-29.924,-59.227,-14.086,-27.971,-35.35],[3085.338,868.549,135.497,409.718,-123.051,526.896,101.915,15.012,3.994,-24.751,218.769,88.564,2.289,-2.773,-18.493,-18.086,-26.362,-39.415,-42.431,-47.225,-13.903,-53.834,-50.039,-46.435,-51.515,-28.136,-67.075,-46.901,-52.632,-62.906],[3610.049,1254.47,894.069,487.998,433.246,824.147,409,127.41,50.255,118.302,371.471,181.472,51.374,64.893,43.254,43.191,-18.715,-15.628,-39.174,-25.018,-41.011,-50.639,-65.585,-43.502,-68.607,-57.99,-73.102,-54.749,-32.907,-60.088],[3887.158,3275.513,1736.499,786.258,617.901,983.33,617.728,211.702,204.636,171.804,398.718,196.17,181.785,66.937,87.798,46.51,23.193,32.288,-31.918,-8.944,-5.684,-44.108,-52.979,-46.801,-30.378,-16.047,-53.994,-30.834,-73.081,-64.668],[4024.855,3518.517,2842.896,1610.107,742.024,987.973,754.42,421.646,246.918,211.975,603.441,257.468,190.654,84.635,54.655,58.902,8.517,8.066,0.278,2.835,27.777,-10.487,-52.009,-44.867,-48.492,-18.251,-44.588,-58.442,-39.224,-58.494]]
}