{
"KTrans": [[31.182,21.947,24.459,11.764,23.336,16.719,23.974,23.319,16.917,19.287,8.006,20.298,20.684,20.652,18.399,29.634,38.662,33.821,36.755,32.275,66.147,53.128,59.241,50.916,52.839,132.97,130.675,106.505,104.603,87.745],[-46.215,-1.547,1.986,7.966,5.763,-42.785,-6.891,2.833,12.527,12.256,-46.683,-5.157,8.111,8.93,10.647,-23.559,3.762,14.035,12.548,20.011,-33.86,8.074,8.285,16.508,20.245,-21.954,43.716,37.125,45.875,41.923],[-76.915,-32.676,-11.436,-4.513,0.307,-75.875,-29.854,-12.344,-5.609,1.258,-74.434,-32.272,-12.298,-7.453,2.39,-60.592,-25.627,-10.769,0.661,4.648,-56.067,-25.394,-2.226,0.495,7.894,-58.347,-5.433,6.485,10.944,21.655],[-85.975,-46.865,-27.831,-15.42,-7.979,-83.592,-54.021,-27.831,-17.564,-6.149,-84.073,-49.828,-23.983,-16.641,-6.672,-78.323,-44.599,-26.361,-14.629,-5.455,-68.216,-42.149,-24.493,-8.301,-1.128,-73.041,-38.165,-18.125,-1.732,8.742],[-88.527,-60.776,-44.403,-30.176,-19.074,-87.56,-63.156,-41.401,-30.623,-18.069,-89.716,-60.533,-39.505,-29.388,-18.599,-87.632,-58.317,-40.631,-24.386,-19.241,-76.468,-55.83,-36.754,-20.237,-15.209,-67.513,-56.742,-32.159,-22.745,-6.904],[-93.768,-70.04,-48.994,-38.187,-27.862,-91.594,-71.759,-53.483,-37.554,-27.435,-90.848,-71.266,-54.582,-38.769,-27.692,-87.839,-66.456,-51.255,-39.176,-25.344,-86.315,-69.87,-53.403,-38.879,-26.514,-78.999,-64.37,-43.2,-27.51,-19.89]],
"ve": [[20.506,-28.979,262.507,48.076,53.668,11.634,6.849,-411.917,-27.017,-224.611,120.148,161.207,-574.5,-301.808,193.06,41.436,10.607,1042.312,-255873.376,9.733,107.949,75.582,29.978,107.102,36.082,84.394,-4.62,17.67,27.223,-26.348],[-12.294,2.559,3.359,4.24,10.287,-14.311,0.361,3.55,6.658,8.132,-18.287,5.563,1.833,6.814,9.169,13.925,6.619,8.462,8.453,11.197,26.991,26.245,14.148,18.06,74.419,56.144,42.162,27.856,27.574,17692.645],[-29.458,-9.077,-3.67,-0.422,1.597,-25.308,-7.314,-4.005,-1.793,0.391,-25.458,-9.276,-4.46,-1.049,1.855,-0.363,-5.811,0.274,3.418,4.298,13.134,10.461,5.059,4.466,8.306,37.87,28.915,15.772,19.914,18.857],[74.598,-34.017,-10.078,-4.154,-3.482,-23.324,-19.69,-10.905,-5.216,-3.113,-80.134,-15.791,-7.909,-5.127,-2.419,-40.403,-9.597,-5.21,-2.704,0.724,-2.13,0.778,5.511,4.387,4.042,45.555,6.874,6.803,14.213,14.092],[-47.524,-26.425,-17.358,-10.775,-6.552,-80.397,-24.5,-15.023,-10.03,-6.449,-65.096,13.685,-12.782,-9.47,-5.55,-35.602,-18.816,-9.056,-4.268,-3.797,19.866,-6.101,-1.797,0.255,0.084,40.255,0.879,0.638,6.253,7.69],[-54.877,-32.167,-18.802,-13.762,-10.099,-50.386,-37.924,-19.32,-12.823,-9.743,-14.944,-25.979,-19.504,-15.265,-9.438,-18.934,-2.579,-16.842,-12.614,-6.405,-26.173,-14.062,-8.9,-8.932,-4.782,50.009,-3.768,7.738,5.2,4.104]],
"kep": [[-25.406,-23.062,-26.719,-47.901,-36.608,-34.413,-25.935,-30.542,-44.286,-44.375,-38.854,-29.218,-28.625,-40.238,-47.282,-38.146,-21.85,-27.8,-27.379,-31.808,-40.232,-27.596,-17.475,-28.063,-16.355,-43.27,-6.589,-17.182,-8.964,-27.544],[-66.179,-35.101,-31.657,-28.438,-33.133,-61.993,-37.108,-31.88,-26.908,-27.901,-63.876,-37.101,-27.258,-29.785,-29.465,-60.41,-33.88,-28.132,-28.433,-25.196,-71.934,-40.684,-35.934,-30.991,-29.844,-65.909,-40.302,-32.428,-22.053,-24.873],[-82.166,-49.491,-37.714,-34.668,-32.539,-81.655,-48.834,-38.054,-34.496,-31.065,-81.311,-49.452,-37.639,-36.179,-31.366,-78.157,-50.256,-39.958,-33.845,-31.629,-78.817,-56.452,-38.343,-35.187,-32.32,-85.62,-58.485,-44.184,-37.973,-30.923],[-89.764,-57.448,-45.823,-39.95,-35.023,-87.607,-62.373,-45.403,-40.899,-34.038,-89.567,-60.62,-44.418,-40.354,-34.807,-87.698,-59.474,-47.419,-40.573,-36.131,-86.063,-64.457,-50.781,-40.894,-35.586,-84.991,-75.62,-54.165,-43.633,-36.288],[-91.278,-65.491,-54.868,-46.962,-41.097,-91.434,-68.613,-53.959,-47.764,-40.402,-93.266,-66.459,-53.086,-47.116,-41.312,-93.047,-68.132,-56.251,-46.431,-42.998,-89.297,-71.717,-57.87,-46.705,-42.814,-87.322,-80.158,-61.598,-53.376,-43.033],[-96.136,-72.679,-58.851,-51.543,-45.524,-94.007,-73.419,-61.538,-51.574,-45.396,-93.809,-74.624,-62.187,-51.237,-45.732,-92.575,-74.364,-61.428,-53.258,-45.872,-94.072,-78.468,-66.514,-55.557,-48.069,-89.454,-84.679,-66.722,-55.336,-49.377]],
"vp": [[-301.374,-832.109,-712.472,198.659,-1515.4,-13.455,-135.041,-173.988,-95.102,-140.811,-11.76,-66.332,-33.878,-78.542,-32.438,6.62,-6.895,-10.052,-19.199,-12.059,-17.342,-10.502,-13.631,-4.735,-8.869,-17.419,-21.018,-10.063,-9.431,-7.152],[2739.397,213.318,30.054,-530.08,-1.657,516.436,163.479,-94.105,-361.509,-204.592,302.88,22.814,-46.593,-66.097,-58.792,-1.548,-1.493,-21.087,-7.435,-22.897,30.65,-6.698,13.528,3.94,-8.116,0.69,-25.845,-14.505,-27.403,-17.519],[5702.828,2444.89,899.836,509.878,-179.925,1064.332,479.302,296.049,190.25,-14.286,557.35,262.637,128.685,133.931,14.991,54.517,51.791,22.573,-8.807,-0.436,23.653,19.318,13.2,23.503,0.137,10.125,-3.593,-2.01,9.664,-11.491],[7132.242,4969.126,2911.215,1599.97,958.341,1157.809,1185.94,729.479,424.153,189.268,576.161,501.9,229.989,213.484,73.616,112.183,100.922,66.458,39.565,20.405,43.901,40.603,36.769,4.444,2.024,5.876,22.099,17.913,1.46,-8.461],[7022.799,6922.366,6530.92,4633.044,3423.36,1183.455,1395.833,1151.132,898.607,574.27,715.405,727.154,524.884,484.179,297.636,146.944,135.82,115.418,55.335,75.18,33.22,43.16,41.582,24.144,25.145,7.278,37.691,36.328,28.8,6.827],[8244.43,7904.434,6762.961,6557.334,4945.405,1497.952,1719.381,1521.11,1151.981,994.326,678.085,822.947,785.318,766.547,514.597,139.696,141.175,175.037,163.533,85.221,67.997,79.484,89.504,82.478,60.016,3.37,46.926,14.108,16.575,18.008]]
}