{
"KTrans": [[-14.564,9.936,9.17,10.508,5.795,-2.906,10.846,10.786,6.902,4.713,7.978,21.843,15.571,13.568,11.157,72.285,103.428,71.176,70.568,61.226,102.461,161.98,179.264,145.509,140.992,303.457,121.434,238.428,91.427,211.107],[-48.881,-2.741,3.282,5.126,2.69,-46.03,6.577,8.909,5.88,4.756,-49.572,13.66,19.43,5.939,6.299,-29.532,85.814,51.273,37.403,38.616,-14.459,67.395,112.729,84.818,80.113,22.005,38.886,-29.475,134.739,140.023],[-80.082,0.326,5,5.689,0.305,-68.117,6.7,13.022,8.843,8.877,-66.697,9.546,9.509,11.23,7.199,-40.68,33.309,48.888,38.276,35.086,-53.677,28.794,111.463,82.127,62.84,-8.475,41.859,36.151,68.075,127.191],[-87.354,-16.555,6.201,3.766,6.833,-83.117,-2.966,6.183,8.116,8.024,-86.307,-7.021,12.83,9.596,8.217,-79.178,9.659,48.168,41.778,30.205,-63.336,-0.454,55.864,86.003,72.626,-3.789,37.059,-4.833,68.044,126.982],[-92.322,-29.716,9.88,9.592,5.985,-88.558,-22.699,8.653,8.117,4.173,-89.652,-20.734,12.027,13.945,9.693,-96.254,-17.628,47.816,38.202,32.54,-74.036,-25.381,39.101,78.71,62.178,-43.013,-7.468,-2.681,55.91,104.921],[-92.407,-46.397,1.897,5.452,7.964,-93.574,-42.028,6.731,8.662,9.123,-95.938,-38.69,4.395,14.398,13.091,-90.916,-34.021,39.372,49.783,33.615,-83.739,-33.996,10.968,70.522,72.305,-57.999,-17.419,-19.008,5.47,134.297]],
"ve": [[48.262,19.544,-99.796,-3.993,-0.158,37.877,-58.965,41.464,35.501,-7.04,12.037,6.024,-4.423,15.518,-4.773,51.921,22.398,22.652,-1.303,0.453,102.015,35.377,18.234,-1.485,-11.438,193.335,74.329,33.387,8.489,1.571],[121.856,4.059,2.434,1.184,1.049,6.667,5.606,1.249,3.487,1.31,14.39,5.428,3.1,2.216,1.451,56.314,27.801,16.038,11.129,5.511,106.763,50.708,30.529,20.551,13.004,204.922,76.252,64.074,44.793,43.56],[-14,3.984,2.078,-0.072,0.425,18.338,4.514,2.327,0.337,-0.036,1.684,6.364,2.228,2.11,0.849,47.969,25.91,15.475,11.761,8.502,104.982,25.618,32.898,22.792,17.828,195.306,101.12,63.211,36.088,38.161],[-65.624,3.147,0.468,0.705,0.686,11.788,4.395,1.569,0.957,0.836,9.859,8.574,4.805,3.662,2.131,53.636,24.38,17.651,12.851,9.622,36.284,52.826,31.055,24.083,17.931,198.816,99.117,66.362,47.163,37.113],[5.03,7.019,1.309,1.084,0.706,-9.591,6.728,1.485,0.405,0.441,21.798,7.301,4.279,3.284,1.361,47.962,11.885,17.762,11.673,9.552,102.613,50.733,34.152,19.759,18.268,204.339,100.781,67.082,48.436,38.089],[11.821,3.732,2.585,1.33,-0.088,10.427,5.46,3.121,2.339,0.415,63.104,7.674,2.999,2.505,1.231,52.242,27.174,27.961,12.424,9.258,108.021,48.821,34.205,26.022,19.521,213.491,102.143,66.911,48.761,38.546]],
"kep": [[-30.23,8.895,15.825,18.036,12.308,-16.285,6.614,11.123,9.516,7.372,-10.134,14.379,19.281,17.181,11.661,12.914,75.433,65.147,92.294,96.173,9.949,93.526,149.918,158.432,178.348,54.472,39.6,152.89,69.637,220.426],[-55.931,-5.076,1.831,5.072,2.728,-55.782,2.268,8.337,3.503,4.463,-60.625,8.757,17.174,5.017,6.039,-56.687,45.776,31.057,24.187,32.619,-55.888,13.107,62.614,53.684,59.962,-49.447,-18.326,-47.771,61.73,82.084],[-84.002,-2.756,3.745,6.297,0.267,-75.897,2.207,10.817,8.923,9.413,-74.586,3.75,7.825,9.324,6.81,-62.266,5.423,28.501,23.937,24.682,-74.184,-11.178,57.707,47.546,38.147,-63.49,-21.434,-9.254,15.517,64.157],[-90.718,-18.637,6.296,3.425,6.374,-86.874,-7.091,4.961,7.507,7.476,-90.812,-13.441,8.337,6.204,6.297,-86.743,-14.109,25.408,25.626,18.993,-79.601,-30.768,18.119,48.655,45.455,-64.124,-25.325,-35.839,16.386,63.12],[-94.919,-32.471,8.651,8.912,5.51,-91.263,-27.767,7.378,7.86,3.932,-93.215,-27.013,7.594,10.677,8.538,-97.018,-35.773,25.184,23.645,21.046,-85.533,-47.451,3.431,42.125,36.27,-78.419,-48.686,-36.43,8.019,46.042],[-95.021,-50.041,-0.597,3.957,8.278,-95.685,-46.442,3.896,6.558,8.923,-97.444,-45.33,1.322,11.701,11.905,-93.568,-47.982,18.133,32.494,22.391,-90.816,-53.004,-15.406,34.647,42.998,-83.209,-54.629,-46.515,-23.758,64.734]],
"vp": [[819.686,116.858,-162.566,-376.742,-0.8,250.272,-28.05,20.132,-133.758,-231.298,19.35,36.009,-17.059,-19.669,20.898,11.463,-18.878,-2.216,-20.443,-6.701,-15.716,-20.338,-5.965,-17.978,8.71,-8.914,-16.753,-26.202,-14.446,-22.581],[5739.997,1946.252,607.91,-95.679,-227.614,1264.785,393.311,90.671,-71.435,55.941,541.759,231.488,65.005,20.601,21.683,105.05,50.49,-3.109,-13.49,18.396,49.134,-5.469,-5.027,-5.588,0.694,9.969,-2.921,-4.952,-8.781,-7.327],[7759.188,6401.854,2158.53,1405.043,-649.865,1674.366,1393.172,328.177,79.918,13.958,723.746,622.998,152.1,53.695,168.631,148.497,87.9,9.9,5.553,23.657,66.701,31.272,-8.268,-16.973,-5.055,30.662,-5.642,-31.883,-15.992,-9.202],[8521.622,11001.369,4617.365,718.475,793.049,1594.449,2042.798,824.653,311.109,128.498,917.519,949.357,436.721,108.185,83.955,151.742,205.118,42.907,30.606,2.498,89.645,84.589,5.043,-10.796,4.48,21.888,3.55,-4.723,-16.271,-32.691],[8476.131,13437.442,8286.872,3271.723,1121.908,1823.541,2491.388,1682.557,483.037,197.426,926.881,1221.556,720.149,325.397,206.638,192.008,249.474,134.327,29.882,24.901,97.823,106.041,26.66,-7.975,-13.639,47.18,38.563,6.742,-16.265,-22.215],[10009.702,16447.658,11890.854,6276.971,3420.278,1993.355,2922.583,2483.575,1212.694,398.93,890.625,1564.724,983.12,454.014,230.052,188.079,307.69,213.152,86.806,10.467,102.805,126.797,110.127,51.544,3.425,57.076,56.197,33.878,0.173,-36.936]]
}