{
"KTrans": [[-15.517,0.003,6.437,-0.456,2.051,-19.96,1.026,5.067,6.601,7.848,-20.948,3.926,8.03,1.814,8.846,-19.56,3.06,2.367,-3.561,0.97,27.355,11.866,13.599,5.691,7.887,-123.564,50.735,48.962,52.619,41.439],[-77.792,-5.369,4.954,-1.933,3.189,-80.979,-14.423,1.787,1.978,-2.296,-80.112,-9.476,-1.689,-0.567,0.086,-69.819,-10.298,-2.03,-6.799,-3.768,-71.424,-15.306,1.632,-3.664,6.872,-77.118,9.741,9.101,15.414,6.934],[-93.778,-38.462,2.033,2.156,2.879,-94.302,-43.115,-7.02,-0.046,1.124,-94.938,-38.952,-0.656,2.278,1.216,-88.697,-35.776,-3.425,-4.287,-5.322,-87.27,-12.656,-4.258,1.48,-8.207,-124.989,-22.378,9.902,4.614,-1.28],[-97.939,-67.317,-10.865,1.212,1.093,-95.602,-56.994,-10.43,5.717,3.435,-97.838,-64.578,-14.96,-3.001,4.16,-95.675,-62.709,-16.893,-7.849,-1.154,-98.455,-58.274,-22.762,-8.609,-3.791,-114.788,-52.209,-14.39,3.107,-7.712],[-98.449,-79.768,-27.584,-0.735,1.446,-98.327,-78.646,-27.093,-5.095,1.668,-98.181,-79.963,-28.394,3.702,-3.463,-97.622,-79.022,-45.657,-5.503,-3.262,-102.534,-67.525,-26.553,-6.478,-4.914,-110.043,-63.503,-23.873,4.193,-9.406],[-98.83,-92.13,-44.161,-5.97,-3.357,-98.463,-88.398,-49.082,-13.466,3.226,-98.801,-91.436,-46.07,-6.825,-2.218,-100.602,-87.238,-46.378,-11.28,-5.024,-103.889,-83.646,-37.331,-24.037,-4.003,-111.264,-63.41,-32.904,3.902,0.894]],
"ve": [[1271.182,-131.717,32.915,43.077,-11.239,12.151,28.359,-429.632,-44.703,23.776,73.267,87.821,2.544,30.004,-15.413,-5.547,-105.524,36.628,-412.478,24.342,144.722,-28.011,13.648,10.184,-37.856,-27.932,-12.356,-2.78,-1.824,7.364],[428,-1.82,1.543,1.175,1.471,-39.761,-4.913,1.964,2.846,0.737,-28.207,-6.323,-0.899,0.237,1.743,-13.678,-1.126,-0.308,-1.135,1.626,-52.655,-8.211,2.757,5.999,-79.313,-52.478,-6.97,-16.769,7.169,133.024],[-87.339,8.9,-0.922,-0.86,-0.21,-149.066,-18.507,-3.207,-1.438,-0.604,-96.617,-18.26,-0.87,0.252,1.355,-60.546,-16.727,-2.242,-2.394,-2.515,-66.938,-14.963,-2.843,-0.153,-2.297,-109.872,2.693,-1.83,-81.499,-18.292],[-75.785,-40.79,-5.528,-0.119,-0.659,-93.686,-32.724,-8.616,-0.19,-0.796,-110.136,-35.993,-5.944,-2.916,0.078,-35.016,-50.224,-10.323,-5.275,-1.224,-92.554,2.471,-3.036,-5.517,-2.34,-120.469,-35.535,-14.088,-0.435,-6.691],[-82.514,-48.116,-15.034,-2.651,-0.792,-0.699,-53.763,-15.043,-3.547,-1.988,-69.285,-57.727,-16.128,-2.802,-1.715,28.34,-56.213,-29.224,-2.241,-4.592,-115.865,-78.431,-9.529,-4.883,-4.034,-91.745,-30.446,-2.502,-7.041,-15.738],[-95.604,-70.93,-26.668,-6.156,-2.045,-260.894,-69.98,-28.487,-7.454,-0.636,-105.253,-83.67,-24.632,-6.535,-1.733,-93.649,-69.254,-27.158,-8.453,-3.495,-103.006,-68.908,-21.133,-1.549,-4.891,-80.411,-33.057,-25.489,-10.156,-13.778]],
"kep": [[-28.499,-5.673,1.567,-7.661,-0.522,-32.628,-7.61,1.258,1.801,12.145,-35.421,-1.715,5.601,-2.72,14.7,-35.008,-15.173,-8.875,-20.653,-13.124,-16.832,-24.391,-15.902,-28.438,-19.995,49.585,-7.087,-15.749,-16.056,-21.566],[-81.016,-6.591,3.034,-2.675,2.676,-80.603,-11.028,-0.269,-0.547,-2.662,-80.404,-6.552,-1.334,-0.516,-0.79,-76.096,-15.519,-2.995,-6.356,-4.723,-73.105,-31.646,-9.574,-9.052,1.355,-43.915,-22.895,-25.656,-10.496,-11.498],[-96.231,-30.18,1.907,2.571,2.858,-95.45,-33.372,-5.079,0.993,1.596,-99.697,-30.258,-1.62,1.414,-0.392,-90.376,-33.65,-5.07,-4.182,-3.859,-82.228,-34.402,-11.3,-4.306,-9.103,-60.34,-28.578,-24.659,-20.153,-14.68],[-100.575,-59.388,-7.886,0.497,1.23,-99.45,-48.091,-4.704,5.096,3.572,-98.537,-53.366,-12.531,-1.197,3.221,-93.079,-61.649,-14.662,-5.626,-1.261,-90.489,-61.335,-25.405,-9.946,-4.663,-79.504,-45.284,-37.026,-19.086,-16.962],[-101.277,-70.545,-19.571,0.388,1.347,-100.753,-70.79,-20.987,-3.931,2.973,-100.691,-73.263,-19.863,5.177,-2.588,-95.657,-76.006,-38.959,-5.412,-0.176,-92.916,-70.838,-34.63,-10.966,-5.114,-83.362,-57.926,-42.337,-28.293,-23.579],[-99.135,-88.743,-30.788,-1.644,-2.055,-99.488,-84.553,-34.937,-8.34,2.946,-99.891,-89.557,-34.943,-2.044,-1.184,-96.769,-84.82,-40.546,-7.538,-4.157,-92.037,-84.816,-48.769,-24.624,-4.096,-85.674,-64.993,-45.205,-34.849,-13.64]],
"vp": [[744.219,529.444,286.961,-6.902,-124.016,214.759,90.448,22.306,-32.555,-12.734,166.038,0.658,12.803,17.023,-23.047,23.781,4.835,3.604,14.505,10.995,-6.127,10.705,-3.212,9.529,4.16,13.473,-5.722,-1.786,-4.977,-3.068],[5476.298,874.801,0.033,424.938,-126.808,1129.606,328.132,-3.534,6.87,165.852,540.901,188.069,73.608,29.486,23.397,92.856,33.229,17.28,32.198,20.604,59.667,30.541,12.986,13.424,-4.354,27.868,1.82,5.608,-2.336,2.277],[7887.697,3841.22,466.465,252.619,-117.008,1529.578,902.074,252.576,127.148,91.95,814.383,431.029,65.321,-8.469,-45.235,136.094,73.994,14.926,28.161,35.397,58.333,20.15,14.782,11.297,26.22,59.1,18.452,5.4,12.396,16.413],[8961.039,8335.053,1871.907,151.882,136.945,1706.108,1415.55,554.057,44.657,9.837,859.089,863.98,227.982,145.216,-16.837,155.802,168.937,62.46,53.102,17.078,90.761,83.913,44.61,28.75,15.021,61.159,38.596,24.475,0.247,21.295],[9459.429,10820.245,5076.768,1029.342,488.505,1895.175,2255.279,981.453,365.62,145.085,963.059,1114.598,537.703,118.935,111.599,185.726,234.831,197.515,16.397,38.707,106.892,119.42,52.67,22.104,25.232,51.807,47.724,40.991,8.321,30.776],[9132.288,14863.415,8435.591,2389.75,1182.896,1844.783,2896.09,1776.915,600.473,76.497,957.803,1533.369,787.761,230.123,109.766,206.477,265.564,180.658,73.559,28.967,110.465,146.161,68.07,74.968,24.357,55.03,36.601,37.109,17.829,5.31]]
}