{
"KTrans": [[-21.248,1.254,2,7.467,-2.245,-16.535,6.173,5.367,0.091,4.458,-25.021,-9.471,-1.443,4.595,0.396,-8.849,9.926,11.031,6.355,6.623,5.308,6.071,18.875,3.519,4.137,-19.325,45.687,36.44,31.723,13.355],[-78.936,-14.332,-4.637,1.746,-0.344,-83.871,-12.422,2.025,-1.405,-1.764,-80.625,-12.127,4.089,2.434,2.119,-70.583,-15.064,-7.275,0.545,-4.038,-64.006,-12.972,-6.079,9.032,-0.436,-68.851,7.128,18.496,19.581,8.046],[-94.435,-45.239,-0.339,3.199,3.2,-94.952,-39.592,-5.618,4.234,-0.396,-91.509,-42.883,-9.3,1.993,2.213,-90.305,-46.723,-5.539,-0.733,-2.323,-87.675,-36.925,2.706,-2.505,-1.634,-82.613,0.086,-6.25,6.036,-0.277],[-98.091,-70.864,-17.786,1.676,2.033,-97.681,-66.246,-2.536,-4.059,0.75,-96.589,-71.355,-17.425,-2.749,3,-95.115,-64.377,-23.288,-6.695,-2.94,-94.808,-53.271,-25.956,1.281,0.208,-105.623,-45.368,-18.251,-9.083,0.658],[-98.888,-77.45,-28.921,-4.965,1.299,-98.311,-80.96,-35.462,-5.336,-4.348,-99.247,-82.32,-30.657,-8.152,3.274,-97.732,-76.809,-34.568,-10.348,-6.163,-97.364,-73.363,-39.984,-12.814,-5.103,-102.077,-44.925,-21.467,-6.382,-12.08],[-99.082,-90.293,-39.214,-15.711,-1.854,-99.349,-89.402,-50.661,-13.571,-4.252,-99.061,-91.294,-47.992,-9.339,-1.29,-98.861,-87.23,-47.164,-13.675,-3.182,-102.449,-81.984,-52.007,-18.978,-2.466,-110.065,-85.654,-32.785,-21.32,-10.734]],
"ve": [[-33.873,260.468,-42.703,20.195,35.43,1039.991,2.172,-124.458,52.712,-31.558,16.339,-21.203,2.287,0.216,-40.964,46.631,77.574,124.907,-31.989,-741.159,-11.265,19.378,-59.803,64.914,-16.861,-32.437,-5.59,-129.768,-30.691,-171.524],[-43.16,-6.415,0.959,2.358,1.63,-33.379,-2.746,1.174,0.059,2.041,-29.92,-5.584,1.47,2.805,1.054,-39.41,-9.635,-2.881,2.414,2.309,-48.607,-4.024,1.913,5.87,6.558,-62.693,-12.523,-7.078,-7.257,-49.468],[-90.856,-20.979,-1.321,1.227,1.137,-66.01,-16.264,-2.604,1.241,0.157,-62.661,-19.718,-4.505,-0.865,0.657,-36.929,-27.199,-2.765,-0.508,-1.75,-50.676,-21.319,3.827,-0.05,-0.438,-48.507,0.319,-57.101,1.182,2.008],[-90.865,-42.733,-9.149,-1.592,-0.299,-56.31,-33.184,-3.298,-2.099,-1.18,-101.296,-42.967,-8.134,-0.972,-0.58,-87.904,-31.857,-12.885,-2.629,-1.631,-69.491,-37.001,-14.677,-0.38,-1.425,-93.038,-26.238,-23.271,-0.815,3.665],[-8799.321,-48.497,-17.387,-2.787,-0.369,-93.127,-66.092,-17.122,-4.134,-2.802,-94.516,-50.66,-15.385,-4.086,0.047,-103.546,-14.653,-20.361,-8.85,-4.532,-104.749,-54.256,-16.982,-6.677,-1.993,-71.617,-10.087,-17.757,-6.095,-18.729],[-105.07,-67.211,-20.919,-8.299,-0.977,-95.859,-73.936,-29.186,-7.863,-2.973,-151.044,-68.782,-28.603,-5.592,-1.48,-100.621,-67.655,-24.214,-9.386,-3.78,-103.964,-31.511,-37.938,-10.918,-0.712,-119.729,-79.348,-22.492,-20.644,-11.632]],
"kep": [[-32.237,-7.621,-2.96,1.675,-9.429,-36.282,1.045,3.139,-7.346,-1.914,-33.52,-20.851,-9.851,1.149,-3.496,-32.349,-7.89,8.832,-1.141,4.654,-43.671,-33.461,-6.092,-26.805,-21.109,17.27,-29.007,-33.951,-34.744,-75.713],[-81.646,-10.03,-5.563,0.068,-1.145,-84.097,-12.461,0.53,-1.016,-3.006,-81.982,-9.897,2.621,-0.262,1.779,-78.235,-17.184,-6.781,-1.551,-4.908,-75.777,-32.299,-12.417,1.361,-4.368,-51.48,-41.066,-12.295,-3.855,-7.289],[-96.827,-33.99,-0.597,1.468,1.691,-95.86,-30.381,-4.855,2.75,-0.707,-93.681,-34.751,-7.295,2.276,1.272,-91.056,-43.299,-6.844,-2.815,-1.355,-86.499,-46.556,-7.976,-6.738,-3.597,-70.638,-33.034,-30.085,-14.098,-12.795],[-99.271,-60.501,-11.69,2.653,1.647,-99.765,-57.888,-1.576,-2.994,1.138,-99.167,-59.439,-12.507,-2.355,3.18,-95.044,-59.991,-17.367,-6.875,-2.277,-90.638,-64.863,-27.131,-3.666,-1.473,-77.148,-43.886,-48.244,-27.026,-8.68],[-101.332,-68.202,-19.137,-3.097,1.174,-100.433,-72.651,-25.184,-2.6,-2.307,-100.54,-72.175,-21.809,-5.516,2.517,-97.526,-72.315,-27.995,-5.298,-3.039,-94.605,-77.379,-41.813,-12.727,-6.61,-83.036,-53.41,-44.634,-25.833,-18.998],[-101.234,-86.522,-27.677,-9.768,-1.746,-100.525,-84.215,-37.519,-7.818,-2.544,-100.655,-88.005,-34.489,-5.506,-0.988,-99.072,-85.607,-39.013,-9.335,-1.357,-94.792,-81.077,-54.811,-17.464,-6.137,-84.154,-68.516,-41.368,-43.472,-23.288]],
"vp": [[913.074,161.499,277.225,-478.404,419.452,165.934,-56.396,-8.648,57.125,-40.327,141.67,57.295,0.343,18.337,34.297,2.851,-11.243,-0.417,2.093,5.985,15.238,9.912,-3.695,8.831,5.603,2.513,3.348,1.312,4.013,15.709],[5032.821,1704.573,1061.134,-268.287,129.265,1132.226,288.38,-18.476,102.739,67.494,533.677,129.6,16.709,12.827,3.821,93.654,36.126,33.786,1.297,24.244,50.382,23.542,23.475,-13.208,10.667,31.409,12.68,-6.235,-6.225,0.493],[7769.573,5010.612,793.75,-452.761,-190.412,1523.056,835.386,259.662,-34.11,30.989,722.357,483.538,200.794,21.664,-18.137,144.025,116.771,21.544,9.901,23.943,63.009,47.998,-4.451,7.718,9.217,24.734,-1.538,15.787,3.883,10.071],[8520.413,8935.142,3046.842,540.691,287.952,1726.567,1597.288,244.482,230.837,101.727,856.215,951.132,291.177,62.055,26.532,167.881,155.17,85.409,28.996,21.576,82.999,80.279,53.69,4.513,7.283,47.94,26.328,34.586,22.462,9.048],[10052.639,10684.429,5158.156,1410.459,141.686,1953.86,2302.359,1039.464,396.273,253.565,954.741,1141.178,492.851,193.087,0.602,184.084,209.082,126.082,77.309,48.079,90.766,118.253,86.391,31.286,13.778,45.484,9.782,26.883,14.967,29.38],[9671.223,14430.468,6595.138,3070.718,788.932,1980.331,2677.798,1871.685,705.537,330.64,986.28,1530.673,874.412,224.03,85.713,189.857,262.027,175.615,77.941,32.492,109.822,136.469,116.997,49.879,5.231,59.457,85.688,32.344,43.473,29.358]]
}