{
"KTrans": [[-4.415,2.159,5.949,-3.189,0.397,-13.733,1.848,1.812,2.263,5.02,-1.325,2.256,2.359,1.981,0.507,-10.088,-7.372,2.006,-6.358,-0.378,23.448,-1.854,5.323,3.938,-2.374,58.815,53.245,29.738,19.611,21.668],[-55.272,-5.519,1.777,-0.003,0.372,-56.443,-4.581,1.669,1.71,1.472,-66.287,-0.707,-0.932,-2.214,-1.541,-50.92,-10.385,-1.927,0.306,-1.04,-44.367,-12.142,-3.879,1.609,-5.512,-14.82,2.311,6.478,2.664,-6.147],[-84.625,-11.936,2.804,0.285,0.023,-86.053,-5.934,0.87,-1.977,0.868,-86.699,-15.315,-1.982,-2.03,-1.638,-79.958,-19.589,-1.229,0.658,-3.16,-66.847,-19.901,-8.631,-3.75,-1.315,-84.225,3.971,9.366,-9.817,1.279],[-94.625,-29.287,-6.479,-0.282,3.571,-92.637,-28.772,-2.66,0.548,0.637,-93.593,-32.448,-6.099,-0.489,0.17,-89.262,-41.742,-12.455,-8.005,-3.193,-84.683,-36.992,-3.719,-7.557,-4.037,-77.037,-21.286,-10.638,-7.376,-14.622],[-98.362,-52.95,-7.117,-0.7,1.104,-97.431,-55.372,-4.174,-3.089,0.623,-97.156,-49.103,-7.779,2.934,1.126,-94.344,-55.312,-10.725,-0.965,-0.345,-89.07,-44.047,-20.169,-8.424,-3.505,-93.955,-39.92,-10.268,-2.482,-7.318],[-98.029,-68.002,-14.827,-2.441,1.41,-98.975,-63.427,-12.192,-0.919,0.963,-98.515,-67.691,-16.306,1.522,1.026,-96.403,-61.775,-18.378,-4.057,-2.703,-93.713,-60.376,-22.178,-9.651,-5.463,-104.933,-48.934,-14.719,-15.21,-0.161]],
"ve": [[8.377,-116.997,4.577,50.764,26.095,5.026,6.324,-17.722,5.614,21.435,3.41,-3.89,10.698,14.441,29.254,-17.247,35.794,-6.006,745.109,-46.216,-10.353,-38.259,32.243,-29.209,-87.316,-0.62,-27.655,-24.312,-35.363,-71.036],[-22.568,-3.966,0.193,0.086,0.626,-24.755,-2.584,0.46,-0.079,-0.758,-36.58,0.135,0.369,-0.326,-0.232,-26.541,-5.865,-0.347,1.113,-0.288,-44.69,-6.155,-1.056,2.209,0.284,-28.945,-7.644,-21.214,10.513,-20.04],[-50.967,-6.593,0.159,-0.521,-0.284,-51.521,-4.474,-0.032,-0.784,0.759,-67.261,-6.696,-1.422,-1.361,-0.287,-51.304,-8.675,-2.34,-0.599,-1.864,-42.903,-29.836,-4.871,-3.03,-0.987,141.572,-16.797,8.965,-4.801,2.433],[-80.115,-14.365,-3.483,-0.831,0.453,-73.028,-15.347,-2.834,-0.109,-0.324,-92.777,-16.513,-2.493,-0.415,-0.302,-72.957,-23.365,-5.92,-5.74,-1.817,-71.285,-31.389,-1.369,-5.291,-3.096,-45.934,-25.659,-18.274,-4.897,-8.082],[-93.863,-30.16,-4.299,-1.479,-0.187,-69.24,-30.173,-2.9,-1.319,0.149,-80.045,-26.771,-4.568,-0.136,-1.3,-83.57,-33.461,-7.293,-1.844,-0.948,-69.042,-31.372,-11.099,-4.622,-3.048,-79.868,-37.597,-18.454,-2.626,-4.738],[-86.528,-42.248,-8.183,-2.156,-0.813,-91.511,-38.025,-8.091,-1.727,-0.377,-94.415,-42.511,-9.231,-1.968,-1.025,-93.635,-44.083,-9.983,-2.652,-2.374,-80.448,-47.354,-14.15,-6.395,-4.746,-142.235,-36.178,-20.493,-11.285,-0.545]],
"kep": [[-8.92,-1.687,7.78,-8.675,-2.862,-14.801,0.149,0.923,2.55,12.478,-2.049,-0.889,1.346,2.004,-2.924,-21.946,-15.934,-3.476,-17.991,-7.611,-23.471,-20.685,-8.325,-14.858,-25.957,-20.72,-15.095,-22.051,-31.417,-29.541],[-50.681,-2.365,1.442,0.051,0.015,-47.998,-2.843,1.092,1.884,2.489,-55.947,-1.781,-1.682,-1.656,-0.985,-54.999,-7.673,-3.078,-1.275,-0.803,-66.175,-19.136,-6.7,-2.453,-6.528,-39.562,-34.872,-13.391,-11.1,-15.252],[-78.105,-6.643,2.249,0.728,0.344,-79.296,-2.661,0.626,-1.372,0.123,-80.805,-10.085,-0.748,-0.847,-1.412,-80.026,-16.085,-0.346,0.632,-1.745,-76.182,-25.291,-9.267,-3.833,-1.852,-58.443,-49.87,-10.211,-14.721,-6.784],[-90.666,-19.885,-3.464,0.355,3.054,-90.612,-17.825,-0.905,0.437,0.851,-90.76,-21.88,-4.467,-0.398,0.401,-91.973,-31.621,-8.456,-3.511,-1.914,-83.801,-47.415,-7.598,-5.282,-2.727,-73.673,-57.8,-33.656,-15.579,-14.485],[-98.646,-38.859,-4.031,0.594,1.111,-96.596,-39.983,-2.188,-2.194,0.357,-96.669,-36.48,-4.132,2.757,2.194,-94.507,-44.024,-6.218,-0.045,0.088,-87.098,-50.557,-18.165,-7.031,-2.752,-76.052,-58.707,-41.062,-13.031,-10.156],[-97.784,-52.084,-8.365,-0.613,1.959,-99.801,-46.86,-6.308,0.52,1.142,-99.34,-51.384,-9.373,2.93,2.011,-95.164,-59.386,-13.008,-2.638,-1.008,-86.681,-66.425,-20.673,-8.107,-3.085,-86.05,-57.222,-48.391,-19.703,-6.668]],
"vp": [[118.849,-111.834,-54.176,46.67,-16.911,115.444,2.312,-23.964,11.253,19.865,34.844,2.844,2.846,-6.625,-1.775,15.605,14.871,0.668,16.712,1.996,0.036,10.735,5.268,4.645,9.962,-1.278,-7.643,-0.669,2.972,3.27],[2956.781,845.799,164.006,155.059,117.652,634.621,134.618,31.951,-15.655,84.659,369.72,24.478,21.843,57.951,49.53,53.022,20.501,10.57,-1.943,10.043,46.446,17.126,12.514,1.17,16.22,13.551,13.08,2.099,4.115,12.737],[5697.355,1498.86,-162.574,243.877,168.56,1163.728,209.688,28.257,97.042,-6.682,609.391,150.052,49.199,52.577,26.193,113.259,37.623,13.07,3.598,23.354,52.984,27.19,16.833,13.151,6.784,36.618,16.371,-3.085,20.231,1.702],[7380.022,3093.22,1054.38,465.431,-186.428,1460.296,642.31,189.649,32.219,83.751,707.254,359.34,102.813,46.112,23.669,148.861,96.285,43.078,40.466,20.342,70.739,64.176,3.999,23.892,16.024,26.525,27.49,21.555,14.926,25.212],[8781.485,6398.094,1371.933,505.451,127.832,1718.056,1199.08,199.773,124.577,18.161,839.15,568.678,163.428,14.43,38.658,172.493,139.847,48.055,8.852,9.457,68.972,60.66,36.833,20.881,17.117,43.13,39.972,28.122,5.616,13.916],[8738.476,8556.06,2611.725,818.838,419.035,1818.746,1549.668,526.013,117.892,49.906,928.812,877.746,272.842,67.699,35.393,173.118,184.122,63.052,19.138,20.088,83.518,91.595,45.216,28.47,28.145,64.34,36.066,31.37,25.971,-0.281]]
}