{
"KTrans": [[5.917,20.932,20.987,25.585,22.852,-1.41,27.007,21.069,20.661,25.13,5.294,28.243,22.556,27.598,21.133,57.615,43.515,37.682,36.881,39.994,63.923,57.552,64.223,55.182,48.992,138.156,122.817,104.468,116.947,102.88],[-54.449,-6.379,3.811,10.319,9.751,-48.21,-2.772,2.298,7.162,11.815,-42.136,-9.769,2.705,7.059,10.298,-30.098,9.975,9.021,14.399,17.198,-23.972,10.009,16.563,21.87,26.59,12.663,24.751,33.945,42.666,44.451],[-76.848,-28.139,-15.837,-4.354,2.097,-74.262,-34.601,-15.646,-4.508,1.008,-74.649,-37.521,-14.174,-2.661,0.697,-64.214,-30.575,-9.401,-0.761,6.376,-48.197,-21.345,-3.706,8.851,8.787,-46.993,-11.442,6.113,17.094,22.247],[-87.055,-47.575,-32.583,-17.08,-10.053,-82.735,-52.376,-27.861,-15.16,-7.907,-80.729,-47.273,-29.119,-16.071,-6.847,-75.312,-47.263,-28.582,-15.907,-4.603,-71.461,-41.857,-23.118,-12.137,0.556,-64.406,-35.949,-22.207,-4.183,0.15],[-90.906,-61.491,-44.337,-29.818,-19.171,-89.256,-65.496,-44.657,-32.7,-19.462,-85.725,-62.915,-46.645,-29.714,-20.653,-82.694,-67.326,-38.825,-29.079,-17.244,-79.397,-54.208,-39.843,-26.603,-15.806,-68.049,-49.318,-35.8,-25.284,-13.577],[-92.416,-74.329,-55.518,-40.394,-30.654,-92.098,-72.174,-55.694,-40.462,-28.3,-91.201,-71.085,-54.508,-41.035,-30.198,-85.881,-70.517,-50.061,-37.032,-29.663,-83.894,-66.76,-48.18,-37.465,-25.983,-79.343,-65.279,-48.195,-29.182,-21.944]],
"ve": [[-24.402,69.529,-2.04,169.031,-35.815,-9.272,33.822,264.877,52,-1.194,68.599,-74.139,-558.641,33.602,110.548,50.162,29.306,-73.343,-15.861,112.309,-3.375,56.123,111.731,4.593,515.918,79.193,36.738,7.772,19.87,-25.064],[-36.903,1.6,4.628,6.928,11.223,-5.871,0.428,2.15,9.569,11.658,-38.778,1.044,5.752,6.907,10.748,11.71,27.065,8.566,11.591,13.62,14.469,18.812,20.724,24.4,18.474,153.004,50.108,48.982,34.525,43.56],[-31.635,-7.331,-5.064,-1.208,1.659,-40.909,-11.507,-4.071,-1.755,0.942,-27.506,-6.84,-4.152,-0.164,2.119,-20.017,0.49,1.349,2.919,3.637,38.388,8.63,9.388,8.206,9.221,52.082,21.343,19.04,28.088,18.496],[-51.717,-15.531,-12.427,-4.662,-3.531,-7.561,-17.037,-10.436,-5.376,-2.753,-37.119,-14.06,-8.129,-4.512,-2.672,-99.548,-8.822,-4.207,-1.463,0.256,6.903,2.986,3.794,1.635,5.373,45.647,21.463,28.51,11.24,9.886],[-85.009,-21.875,-14.953,-10.597,-6.755,23.341,-27.514,-15.034,-10.939,-6.497,-152.171,-21.629,-15.16,-10.394,-5.634,-47.673,-20.207,-7.597,-6.669,-3.05,0.944,2.057,-4.635,-2.194,-1.05,36.091,12.739,13.762,5.794,6.805],[-63.142,-29.708,-21.077,-15.749,-10.453,-61.634,-27.204,-21.338,-14.676,-9.365,-56.544,-20.628,-20.377,-12.933,-10.737,38.83,-19.02,-15.057,-8.515,-7.47,6.59,-14.512,-7.427,-4.757,-3.031,31.71,-17.521,2.784,8.141,4.064]],
"kep": [[-43.84,-35.315,-36.948,-38.573,-47.059,-49.216,-29.656,-39.969,-45.325,-44.774,-44.447,-29.477,-37.457,-32.591,-51.526,-29.383,-24.047,-25.705,-31.781,-29.959,-41.212,-23.594,-20.086,-21.106,-36.391,-45.403,-20.981,-17.328,7.814,2.628],[-68.243,-39.302,-34.745,-31.619,-34.532,-68.124,-36.723,-34.087,-34.821,-32.999,-62.699,-40.736,-35.602,-33.789,-34.011,-62.644,-34.998,-34.244,-32.43,-30.865,-68.319,-40.053,-35.922,-32.168,-29.486,-65.942,-50.952,-36.488,-26.955,-25.703],[-85.042,-50.93,-42.646,-37.019,-34.485,-85.551,-52.055,-42.674,-36.624,-34.818,-83.006,-56.512,-42.028,-36.631,-35.746,-79.316,-55.845,-42.216,-37.165,-33.307,-78.675,-56.26,-43.172,-35.05,-35.351,-84.158,-63.174,-47.574,-39.208,-33.905],[-92.503,-60.834,-50.427,-43.644,-39.383,-88.963,-63.326,-47.928,-41.896,-38.471,-87.978,-61.287,-50.446,-43.047,-37.818,-86.793,-63.158,-52.179,-44.905,-38.254,-87.699,-65.3,-53.006,-44.558,-38.16,-87.864,-71.066,-58.116,-46.425,-42.113],[-93.61,-68.605,-58.304,-49.356,-43.792,-93.417,-71.936,-58.403,-51.114,-44.311,-90.97,-70.269,-59.384,-49.51,-45.424,-89.507,-75.163,-57.727,-51.016,-44.846,-90.655,-72.205,-60.077,-51.805,-45.4,-89.304,-76.581,-64.503,-55.957,-48.792],[-95.079,-77.678,-63.972,-54.427,-49.742,-95.066,-76.629,-64.099,-55.024,-48.81,-94.512,-76.546,-63.431,-56.621,-49.327,-92.734,-77.58,-62.769,-55.823,-50.818,-92.541,-77.799,-64.696,-57.997,-50.815,-90.763,-84.394,-70.718,-58.821,-52.665]],
"vp": [[-298.873,-462.734,-708.297,-1233.567,-754.854,18.501,-170.478,-21.088,-112.552,-159.671,94.569,-52.373,-36.191,-44.79,-36.094,-35.77,-13.819,-3.768,-16.26,-20.382,-5.473,-5.804,-26.977,-3.029,-6.727,-18.24,-8.775,-2.249,-13.671,-11.086],[3300.114,181.823,-553.321,-1198.833,-1009.503,605.115,-86.461,52.844,-139.77,-206.236,288.019,104.396,13.574,19.012,-73.749,38.369,-6.949,-4.755,2.893,-3.315,22.578,1.666,-11.387,-15.628,-26.197,-17.63,1.627,-4.1,-16,-14.718],[5352.724,2067.39,1738.935,198.125,-183.582,1030.855,771.989,374.107,117.424,-42.507,556.046,280.994,186.353,57.13,24.452,77.461,60.841,28.144,9.332,-14.179,20.208,8.513,0.085,-12.986,-5.624,5.244,4.01,0.043,-8.267,-9.533],[7295.678,4987.866,4369.919,1891.776,1474.531,1214.468,1140.878,750.505,331.277,193.527,587.958,439.432,317.442,197.107,107.677,96.77,87.757,67.92,54.046,23.016,32.046,44.992,23.189,25.178,-10.993,10.915,12.858,27.191,7.939,15.125],[7506.191,6512.447,6535.499,4585.501,3295.025,1343.61,1506.208,1197.478,1027.66,683.742,673.791,670.845,650.273,456.577,314.671,108.427,180.902,94.97,103.121,60.345,61.714,56.019,58.807,41.653,35.95,14.473,20.964,25.233,32.215,19.377],[7914.916,8975.368,8237.889,7081.034,5903.732,1659.762,1750.991,1734.922,1482.938,990.837,726.47,788.885,831.873,712.6,577.504,111.347,174.198,149.895,116.982,113.041,52.189,88.229,67.521,59.341,50.268,15.775,48.814,50.019,11.697,25.433]]
}