{
"KTrans": [[0.126,12.304,-1.057,4.843,5.764,4.256,7.688,-0.328,4.182,3.304,-10.057,6.481,5.676,2.452,1.953,-14.933,6.588,5.59,-1.422,2.925,-1.677,34.37,3.439,13.999,5.301,27.49,30.839,59.441,46.606,42.364],[-77.048,-7.741,5.121,0.688,1.001,-80.894,-10.686,2.645,4.704,2.279,-76.95,-2.77,4.685,3.959,1.47,-69.985,-2.313,-1.232,5.627,-3.159,-47.485,11.295,12.864,4.719,5.625,-64.44,19.744,17.386,13.329,5.894],[-87.82,-14.565,1.087,-0.327,0.251,-94.72,-37.853,3.58,0.446,2.261,-94.319,-37.873,-2.216,-0.34,3.338,-91.476,-40.365,-3.034,4.167,-1.809,-91.028,-12.934,12.984,-3.131,3.47,-85.9,7.442,26.313,8.915,3.427],[-97.734,-72.419,-7.504,1.44,1.046,-95.702,-63.576,-5.065,2.823,1.212,-98.654,-59.127,-6.317,3.056,2.29,-95.529,-54.491,-9.712,3.03,3.417,-96.421,-53.858,-8.692,7.601,7.853,-97.203,-47.569,12.221,13.764,10.733],[-97.888,-83.001,-23.028,5.476,3.517,-98.665,-78.337,-21.511,2.823,5.338,-97.585,-78.371,-22.911,-4.808,-0.317,-99.418,-74.885,-18.554,6.132,-1.36,-99.925,-63.269,-21.788,6.35,3.418,-95.74,-49.935,-4.984,-9.806,10.959],[-99.11,-88.48,-49.268,4.954,0.423,-98.55,-90.68,-42.401,-6.597,2.622,-98.59,-84.542,-49.617,-9.641,1.863,-99.071,-88.656,-38.067,-9.015,2.122,-101.922,-77.762,-36.263,3.72,6.373,-105.706,-75.831,-23.284,27.251,-0.586]],
"ve": [[6.188,-0.051,21.482,51.364,43.515,12.037,13.494,24.987,-0.587,-16.712,15.674,21.569,-35.442,156.518,888.31,-13.286,22.59,-73.438,56.626,-5.939,-2.556,-8.3,-82.495,172.212,-156.481,-8.827,-27.987,-32.806,-29.6,-24.957],[-44.492,-4.437,1.245,-0.726,0.73,-41.936,-5.567,-1.522,0.468,-0.028,-3.299,-3.845,0.949,0.803,0.603,-49.753,-5.947,-2.658,1.004,0.973,-27.137,-25.253,3.155,-0.447,5.92,-44.199,-6.13,-17.891,-11.353,6.709],[-48.406,-9.585,-0.911,-0.577,-0.351,-92.072,-20.354,-0.005,-0.528,0.167,-49.188,-17.687,-2.726,-0.406,0.356,40.42,-26.824,-3.755,-1.304,-1.626,-85.414,-8.928,3.709,-2.422,-0.349,-114.962,5.903,4.967,31.172,5.311],[-92.3,-48.866,-4.711,-2.452,-0.887,-89.277,-53.718,-5.274,-1.133,-2.041,-103.322,-34.357,-6.072,-0.4,-1.467,-83.797,-39.472,-9.897,-0.966,0.56,-110.408,-41.101,-11.812,0.628,3.2,-99.688,-41.877,2.005,-4.008,2.687],[-119.711,44.362,-14.127,-0.83,-0.846,-113.002,-74.079,-12.487,-1.494,-0.573,-80.858,-65.531,-17.706,-4.539,-1.996,-106.409,-56.942,-15.715,-0.531,-3.362,-102.418,-46.229,-22.458,-5.725,-1.928,-81.395,-32.861,-9.354,-20.624,1.544],[-100.79,-91.69,-19.731,-2.805,-1.046,-103.892,-75.207,-27.845,-5.354,-1.454,-101.734,-69.745,-33.112,-7.369,-1.871,-125.034,-77.264,-31.105,-8.397,-0.916,-121.826,-77.939,-39.534,-4.763,-0.775,-104.405,-74.383,-23.725,-10.953,-15.963]],
"kep": [[-16.149,10.441,-7.84,2.391,8.001,-12.724,3.253,-4.77,3.773,1.672,-22.254,0.123,4.526,-4.411,-5.844,-30.92,-13.489,-0.965,-15.986,-9.443,-22.701,2.988,-26.476,-4.372,-21.324,28.07,-10.543,13.815,8.688,19.604],[-75.96,-4.475,3.399,1.717,1.009,-78.011,-8.682,3.636,4.143,2.774,-74.805,-1.114,2.538,3.029,1.505,-74.626,-4.779,-3.023,3.826,-4.127,-61.314,-8.137,-0.558,-1.449,0.749,-45.162,-20.898,-15.889,-10.24,-11.646],[-93.435,-14.177,0.511,-0.557,0.239,-96.713,-27.844,1.309,0.31,1.772,-95.645,-30.539,-0.998,-0.555,2.672,-92.605,-35.943,-1.275,3.911,-0.882,-85.811,-31.267,-0.443,-5.863,0.752,-76.719,-22.508,-9.882,-9.9,-6.612],[-101.35,-63.302,-6.083,2.82,1.404,-96.667,-53.005,-2.7,3.014,2.652,-99.833,-49.176,-4.045,2.076,3.245,-94.362,-58.602,-8.841,1.205,1.351,-92.611,-61.177,-14.738,1.899,2.435,-81.429,-46.318,-20.753,-7.372,-1.187],[-101.35,-79.945,-15.082,4.54,3.536,-100.397,-78.316,-16.46,2.032,4.73,-99.022,-73.642,-14.727,-2.082,0.833,-97.233,-74.41,-19.273,2.943,0.416,-91.934,-67.477,-28.583,-0.496,0.571,-87.283,-63.724,-25.251,-15.766,-2.607],[-97.572,-88.08,-38.587,3.764,0.54,-99.374,-88.729,-33.923,-4.106,2.906,-98.77,-82.464,-37.803,-4.728,2.485,-98.035,-90.91,-39.099,-6.276,1.681,-94.181,-75.947,-51.733,-5.184,2.262,-90.188,-67.761,-41.442,-24.915,-15.564]],
"vp": [[211.709,-160.384,424.293,-354.9,-96.459,43.964,-40.641,73.282,37.687,-9.247,81.362,-12.44,13.053,-13.889,-22.406,32.041,-0.482,1.405,4.734,-1.602,6.975,-16.092,8.02,-11.337,4.395,0.188,3.736,-13.237,-14.178,-16.093],[5421.606,1102.696,-106.928,350.141,58.493,1126.831,322.788,69.071,18.902,31.363,531.101,86.962,-9.283,-4.202,19.184,94.862,26.165,16.65,-2.606,29.299,25.019,-0.666,-8.409,-0.906,-5.199,20.282,3.433,0.033,-6.222,2.972],[7267.156,2360.215,692.299,225.074,219.415,1677.825,877.693,51.169,100.026,-37.529,852.005,446.807,87.954,60.617,-15.041,166.222,109.998,25.408,11.012,19.413,78.698,14.136,-12.382,23.944,5.141,51.853,-8.387,-9.406,-0.765,4.79],[9372.702,10455.798,1683.735,1274.235,590.651,1729.464,1664.88,313.35,100.831,133.464,966.932,711.06,194.582,20.231,92.823,191.73,170.512,73.903,3.828,-6.173,114.954,87.052,37.554,-2.413,-20.404,49.872,41.996,-6.23,3.96,-7.569],[9791.629,13233.788,4380.005,254.907,271.73,1878.877,2519.097,816.045,43.718,63.115,916.46,1236.882,499.129,187.289,103.987,205.901,233.558,100.131,7.809,35.945,111.927,93.744,71.205,23.012,9.574,35.915,34.297,12.314,47.331,-2.407],[10080.609,15883.127,10423.429,1212.692,584.797,1906.584,3141.625,1680.469,425.06,134.042,1020.345,1363.421,1011.176,283.8,83.666,219.112,321.862,187.534,75.369,7.651,109.919,120.513,125.51,18.305,1.563,61.369,76.435,36.48,22.416,43.033]]
}