{
"KTrans": [[10.541,9.889,4.842,8.282,6.048,6.266,9.091,8.706,6.514,7.871,5.387,8.804,7.04,8.224,8.543,10.884,17.047,12.173,15.806,13.994,23.695,19.783,17.679,20.698,17.171,44.246,44.787,33.798,35.273,31.411],[-29.699,-4.3,0.095,1.823,3.395,-30.018,-1.961,-0.61,2.893,5.972,-31.713,-1.316,0.093,3.28,2.334,-29.725,-2.543,3.917,3.144,6.871,-30,-1.936,7.472,9.445,8.258,-21.245,-0.426,12.402,13.016,14.489],[-63.087,-19.453,-7.269,-3.09,-0.031,-61.433,-20.061,-7.697,-2.123,-0.501,-69.398,-18.041,-8.162,-1.199,1.629,-61.688,-16.191,-5.866,-0.217,2.102,-53.207,-17.014,-4.376,1.275,3.076,-55.96,-13.977,-0.793,3.884,4.231],[-83.009,-34.027,-15.703,-8.863,-5.277,-82.006,-31.465,-17.624,-8.149,-4.968,-81.717,-33.101,-17.528,-12.105,-4.512,-76.431,-38.036,-17.803,-7.658,-4.752,-71.323,-33.153,-17.311,-6.78,-1.773,-72.05,-43.476,-14.877,-3.545,1.688],[-89.228,-47.629,-23.973,-16.385,-10.762,-89.843,-46.364,-25.398,-16.874,-9.421,-89.482,-45.703,-29.436,-18.283,-9.134,-87.534,-48.719,-26.069,-17.836,-10.744,-84.961,-49.377,-27.563,-15.782,-10.937,-84.148,-51.229,-31.032,-15.258,-7.964],[-94.183,-60.297,-36.231,-25.128,-14.611,-92.789,-60.554,-36.679,-21.101,-17.317,-93.652,-56.344,-38.009,-22.008,-16.502,-90.802,-61.415,-35.473,-24.223,-16.405,-91.596,-62.398,-37.933,-26.797,-14.087,-86.843,-63.421,-36.959,-25.402,-14.283]],
"ve": [[3.921,7.315,21.48,26.967,28.353,6.012,4.963,12.174,23.891,52.484,3.887,7.184,-216.83,20.674,29.744,13.73,9.444,16.902,6.861,26.592,19.713,10.481,16.076,11.699,7.588,35.03,22.957,16.43,18.687,-109.174],[-10.508,-1.74,-0.308,1.251,3.662,-11.537,-0.991,0.383,1.851,2.378,-12.031,0.051,0.346,1.678,3.209,-6.622,2.781,2.817,2.149,3.512,1.06,5.038,5.858,6.015,5.42,17.05,9.417,9.705,9.152,8.201],[-29.171,-7.005,-2.993,-0.628,0.123,-33.452,-6.9,-2.499,-0.98,-0.021,-34.499,-6.005,-1.929,-0.161,0.258,-18.95,-2.822,-0.003,1.135,1.932,-12.388,-0.585,2.724,2.703,3.445,0.937,7.308,7.828,7.315,5.294],[-1511.475,-14.583,-5.814,-2.907,-2.518,-49.764,-13.726,-6.3,-2.631,-1.587,-55.859,-12.796,-5.751,-3.76,-1.285,-36.783,-13.066,-4.086,-1.193,-0.31,-21.348,-6.076,-3.04,1.14,1.518,-8.34,-8.56,2.165,4.656,5.041],[-55.96,-21.31,-9.829,-6.034,-4.132,-64.143,-20.184,-9.477,-5.702,-3.528,-52.006,-20.572,-10.85,-6.095,-2.88,-49.037,-19.27,-8.198,-4.717,-3.116,-33.99,-13.887,-6.644,-2.397,-1.55,480.536,-12.656,-5.285,0.559,1.961],[-66.788,-29.459,-13.843,-9.275,-5.197,-75.843,-28.556,-15.652,-7.326,-5.892,-56.076,-26.045,-15.178,-7.717,-5.898,-121.634,-24.576,-12.132,-7.459,-4.162,-50.372,-22.768,-10.699,-7.803,-2.358,-26.389,-17.493,-5.101,-2.617,-0.013]],
"kep": [[-10.233,-10.405,-17.641,-14.993,-19.995,-13.795,-9.432,-12.437,-18.205,-19.029,-13.495,-11.233,-15.927,-16.097,-15.377,-14.897,-7.474,-11.477,-5.96,-11.815,-12.203,-6.353,-7.577,-1.486,-6.792,-11.805,1.769,2.091,9.848,8.965],[-36.318,-17.364,-14.162,-13.87,-14.483,-35.534,-16.023,-15.365,-13.505,-11.284,-36.401,-16.097,-14.659,-13.018,-14.997,-39.746,-19.398,-13.631,-13.54,-11.515,-42.586,-20.789,-13.317,-11.749,-12.038,-48.478,-23.598,-13.034,-11.833,-9.592],[-62.791,-27.004,-18.543,-16.628,-14.59,-58.418,-27.728,-19.361,-15.562,-14.88,-65.092,-26.418,-20.15,-15.386,-13.315,-61.856,-27.16,-19.845,-15.678,-14.352,-59.526,-29.99,-20.588,-15.8,-14.888,-68.117,-33.489,-21.86,-17.671,-15.614],[-78.845,-36.084,-23.877,-19.908,-16.917,-77.057,-34.369,-25.257,-19.445,-17.451,-77.003,-36.187,-25.58,-21.951,-17.333,-75.456,-40.496,-27.154,-20.168,-18.331,-72.52,-40.189,-27.625,-21.47,-17.363,-77.345,-49.399,-29.426,-21.58,-17.463],[-85.425,-45.371,-28.718,-24.107,-20.444,-85.184,-44.906,-30.452,-24.918,-19.818,-86.014,-43.993,-32.746,-25.703,-20.045,-84.219,-47.942,-31.749,-26.567,-21.271,-84.178,-51.59,-34.109,-26.466,-22.714,-86.572,-53.564,-38.78,-28.541,-22.972],[-90.186,-54.264,-37.541,-29.763,-23.095,-90.159,-54.837,-36.951,-27.515,-24.952,-90.674,-51.878,-38.552,-27.992,-24.237,-88.325,-57.88,-38.482,-30.281,-25.608,-88.628,-60.422,-41.074,-32.419,-24.882,-88.114,-64.001,-44.209,-34.899,-26.944]],
"vp": [[-74.674,-407.761,41.166,-151.382,-14.114,-22.175,-20.44,-58.223,-13.038,-63.1,1.38,-29.745,-19.52,-12.399,-24.565,3.439,-11.185,-0.942,-7.077,-6.628,-1.464,0.053,0.762,-3.482,-0.321,-1.194,-4.371,-0.258,-0.987,-0.157],[1273.605,361.483,26.111,78.731,-480.976,235.25,51.927,71.45,-23.803,-107.594,152.99,7.489,19.184,-3.721,10.991,31.957,4.068,0.618,2.579,-3.097,17.43,3.58,-3.516,-5.465,-0.539,6.611,5.985,-1.452,-0.906,-2.323],[3619.034,1495.45,607.762,112.99,10.816,766.521,317.931,111.797,46.042,47.302,433.389,131.516,71.258,2.338,-9.3,80.384,22.798,11.537,-1.37,-3.878,28.97,14.763,4.398,1.136,-0.604,16.269,5.353,0.986,-1.421,3.02],[6318.415,3134.442,1653.483,881.863,1002.842,1171.303,593.072,398.813,182.046,155.686,601.488,276.891,178.542,151.408,56.016,105.072,73.801,32.424,16.494,13.987,43.164,26.354,21.559,7.276,3.056,23.217,27.094,10.635,1.406,-1.299],[6847.142,4751.655,2783.832,2212.895,1747.997,1398.02,898.204,560.444,436.917,274.936,670.669,460.968,355.213,258.402,123.391,130.058,100.916,63.371,52.15,38.891,61.382,46.19,32.432,22.368,20.031,32.594,28.748,23.717,12.425,6.979],[7848.67,6661.365,4428.333,3625.811,2176.581,1482.815,1276.926,994.243,564.35,573.072,768.911,591.598,513.185,316.514,285.072,142.185,128.292,90.341,75.018,49.782,76.03,65.325,47.176,46.25,24.014,31.533,34.777,21.054,18.967,12.449]]
}