{
"KTrans": [[2.426,1.311,1.035,0.657,0.702,12.638,7.793,6.258,5.232,4.805,27.137,16.053,12.501,11.085,10.459,159.79,98.868,75.169,65.823,60.788,377.563,225.996,180.184,149.114,144.107,31.396,490.353,413.751,374.917,347.165],[3.567,1.419,0.818,0.566,0.445,11.294,6.085,4.048,3.171,2.651,24.99,11.876,8.094,6.524,5.324,192.935,66.136,44.714,36.719,29.892,36.687,156.977,103.756,81.167,66.53,-172.402,401.712,233.936,184.575,155.76],[1.444,1.345,0.987,0.683,0.492,14.918,5.254,3.953,2.988,2.499,26.758,10.872,7.947,6.089,4.835,193.309,68.506,41.893,29.211,25.219,-12.109,169.466,95.41,68.676,55.212,-120.281,52.503,232.335,156.485,125.005],[2.129,1.305,1.142,0.643,0.651,15.809,5.604,4.763,2.767,2.418,32.526,13.663,8.072,6.2,5.177,-21.053,69.94,47.775,30.784,23.308,-63.168,204.635,102.672,61.384,50.638,-42.747,-37.584,378.542,163.033,128.202],[5.524,1.137,1.609,0.836,0.594,28.808,7.387,3.459,2.699,2.514,40.157,10.64,7.645,6.504,4.387,-69.975,86.748,41.08,27.78,25.203,-64.127,276.405,104.665,62.939,51.833,-67.079,-119.955,405.268,171.553,124.108],[15.425,6.918,1.57,1.344,0.676,18.46,10.993,4.821,3.385,2.828,16.855,13.437,6.847,6.638,4.692,-33.061,91.081,43.948,29.284,23.77,-90.417,91.492,121.826,76.878,53.436,-79.055,-55.311,283.79,192.723,133.914]],
"ve": [[0.829,-0.084,-0.669,-1.104,-1.608,4.206,0.404,-1.735,-3.361,-4.816,8.585,1.275,-2.512,-5.477,-8.179,45.27,14.019,-1.421,-11.255,-18.456,95.738,34.922,9.546,-6.84,-17.436,198.098,99.989,39.938,13.625,-3.348],[1.176,0.539,0.275,0.107,-0.026,5.025,2.408,1.381,0.775,0.363,10.099,4.741,2.774,1.655,0.857,50.003,23.846,14.483,9.136,5.628,100.104,48.282,29.97,19.687,12.685,199.073,99.205,60.699,42.567,29.783],[0.962,0.582,0.384,0.26,0.165,5.325,2.494,1.647,1.153,0.829,10.218,4.96,3.243,2.287,1.658,51.6,24.991,16.006,11.329,8.481,99.616,49.49,32.297,23.109,17.4,206.375,99.2,65.343,47.345,36.234],[0.99,0.557,0.416,0.295,0.241,5.205,2.551,1.807,1.233,0.97,10.398,5.24,3.375,2.486,1.923,52.573,24.967,16.885,12.074,9.29,101.346,49.745,33.254,23.918,18.835,199.2,100.978,67.573,49.039,38.582],[1.105,0.545,0.463,0.325,0.254,5.842,2.695,1.688,1.268,1.032,10.659,5.02,3.398,2.581,1.957,50.681,25.682,16.596,12.183,9.781,100.227,50.746,33.453,24.433,19.423,202.147,103.554,67.062,49.662,39.339],[1.967,0.981,0.47,0.38,0.273,5.585,2.916,1.831,1.356,1.087,10.662,5.188,3.328,2.639,2.03,51.584,25.654,16.804,12.415,9.854,104.423,53.429,34.12,25.363,19.901,168.202,101.067,67.257,50.265,40.191]],
"kep": [[2.667,2.478,2.802,2.869,3.444,9.242,8.508,9.293,10.059,11.291,18.316,15.826,16.646,18.795,21.607,79.716,76.206,79.726,89.045,99.542,144.394,143.36,158.399,170.403,199.101,-37.939,221.719,272.296,323.366,368.537],[3.432,1.95,1.614,1.53,1.543,7.051,4.693,3.725,3.47,3.371,14.615,7.942,6.297,5.908,5.544,93.777,35.306,27.68,26.596,24.289,-26.263,73.761,58.023,52.831,49.33,-113.495,149.84,108.192,100.798,98.661],[1.42,1.824,1.672,1.493,1.397,10.08,3.773,3.358,2.899,2.741,15.905,6.732,5.666,4.822,4.225,91.367,35.728,23.476,17.259,16.641,-51.575,79.357,48.635,38.216,33.496,-101.347,-18.447,100.283,74.883,66.347],[1.83,1.782,1.791,1.416,1.481,10.741,4.032,3.993,2.595,2.516,20.578,9.085,5.642,4.725,4.292,-46.031,36.558,27.556,17.858,13.996,-78.062,100.998,52.67,31.313,27.947,-76.145,-63.798,181.616,76.615,65.569],[4.679,1.575,2.194,1.576,1.409,22.011,5.572,2.804,2.487,2.547,26.718,6.34,5.186,4.921,3.471,-77.776,49.013,22.008,15.015,15.213,-78.751,144.763,53.721,31.877,28.282,-85.3,-103.357,194.764,81.153,61.412],[13.286,6.827,2.133,2.024,1.468,11.947,8.802,3.981,3.073,2.801,5.616,8.767,4.454,4.983,3.696,-54.001,52.147,24.161,16.089,13.791,-92.974,26.845,65.45,41.929,29.061,-90.614,-73.138,124.229,93.745,67.286]],
"vp": [[-17.209,-4.233,-14.595,-20.179,-22.063,-15.94,6.084,10.738,-6.358,-6.154,-5.25,2.485,-8.414,-5.302,4.5,-19.076,20.467,-1.728,-1.72,6.659,-22.473,5.68,14.77,-8.166,15.498,-14.865,8.389,5.981,5.998,8.405],[116.342,13.631,-9.329,-12.147,-18.189,16.04,13.656,-14.909,-9.384,-17.356,7.682,-1.704,-19.774,-7.318,-20.211,-5.239,-6.756,-18.107,1.33,-8.045,-24.026,-11.933,-14.589,5.444,-4.505,-17.909,-15.991,-37.193,6.027,6.879],[302.247,81.746,72.547,21.959,-8.233,36.699,11.485,4.281,0.995,-10.568,22.55,-2.203,2.657,0.879,-27.507,-5.962,9.046,-6.967,-19.607,-21.773,-27.1,-9.839,-5.388,-12.749,-19.726,4.044,-21.101,-11.367,-11.474,-14.731],[487.325,334.62,209.358,63.88,51.728,90.51,66.956,26.997,8.738,8.981,19.622,26.983,20.252,7.383,20.823,39.787,-5.121,23.191,-4.443,-11.722,0.249,-12.483,0.983,-19.966,-6.52,-12.689,-11.315,3.084,-7.647,-2.181],[991.905,485.513,354.855,214.59,128.547,159.102,64.248,71.783,35.154,27.459,82.306,21.168,18.199,35.777,-0.052,58.348,1.321,-9.79,-12.945,5.462,10.424,-4.111,-3.817,-13.398,-6.137,7.588,5.477,-0.946,-7.82,-1.385],[2516.652,549.958,448.846,388.094,213.228,549.836,121.416,68.318,63.832,63.582,219.632,66.401,60.771,20.692,21.297,36.228,8.954,-2.731,-3.518,2.497,43.747,-16.654,25.059,16.2,6.106,14.08,5.312,-8.057,1.149,9.297]]
}