{
"KTrans": [[-4.27,-5.816,0.404,-3.373,-8.217,-1.022,10.637,9.594,-0.526,5.151,13.376,21.209,17.485,21.899,16.404,34.117,18.267,63.651,70.126,80.677,-70.486,5.927,59.406,56.458,101.806,69.225,-70.956,52.3,44.441,-29.809],[-31.769,-8.326,-1.358,4.157,-0.829,-24.537,-6.862,0.753,5.746,0.922,-24.194,1.345,4.425,8.606,8.989,-1.026,-31.586,3.766,12.913,27.686,-13.656,50.61,-8.625,3.142,27.256,-96.366,-85.424,-68.767,-22.013,-28.071],[-42.478,-9.943,-3.586,-4.715,0.772,-47.686,-12.086,-1.61,-0.417,1.896,-39.689,-11.703,4.032,-1.654,1.336,-39.383,0.272,9.437,0.408,-15.395,-14.267,32.242,-19.608,-22.964,-12.85,49.205,12.963,-35.325,-19.841,36.085],[-56.481,-20.41,-8.265,-2.581,-2.209,-59.348,-17.222,-2.353,-3.304,0.879,-54.698,-12.985,3.816,3.029,0.964,-37.471,-44.359,20.542,36.199,-1.124,-81.478,-49.201,3.291,-18.004,-1.186,-74.373,65.055,5.025,36.427,48.614],[-64.874,-28.044,-4.236,-0.048,1.335,-69.888,-28.374,-6.672,-3.72,1.433,-62.866,-28.331,-2.206,2.076,2.559,-59.929,-27.08,11.151,19.526,24.318,-68.804,-4.24,-65.777,-0.043,19.549,-50.281,-44.529,-21.834,27.972,71.728],[-67.709,-33.644,-8.011,-3.375,1.895,-76.987,-29.776,1.234,-0.319,0.221,-71.755,-33.873,-0.583,0.959,5.412,-67.34,-21.286,18.289,7.751,15.626,-51.494,-6.859,-16.208,-57.964,-7.752,-83.333,-3.928,-3.55,60.786,7.396]],
"ve": [[14.776,-22.767,83.61,16.256,-110.227,-16.009,-15.859,-13.176,-49.959,-19.529,61.548,-2.578,-36.712,-41.95,-81.255,29.227,63.847,-99.355,-77.836,-43.268,98.495,3.215,-1.168,297.251,-1.423,193.781,82.093,29.471,-11.978,-17.24],[7.366,-4.392,3.329,-5.102,-19.659,-0.937,-1.73,-5.54,9.715,7.445,29.309,2.328,3.807,10.483,63.818,35.33,-13.191,20.15,5.242,5.928,85.957,47.276,101.484,31.682,78.757,205.912,98.046,72.005,44.168,30.265],[-11.004,-10.252,-6.96,-6.441,-8.142,3.106,-3.671,-2.218,-6.262,22.888,-0.878,-4.658,1.818,7.789,24.718,35.146,8.152,14.343,9.295,11.777,79.502,46.399,57.718,30.617,18.797,191.882,94.823,63.919,48.763,33.586],[26.684,-1.546,-4.714,-3.366,-8.813,-1.651,-3.029,0.026,17.847,4.212,-2.245,2.887,0.271,0.724,-3.689,42.731,25.525,14.709,9.256,-0.727,101.648,45.685,33.548,24.314,18.576,196.664,91.255,65.257,49.883,40.447],[-15.464,-7.83,-2.456,-1.6,-0.664,-6.763,0.737,-2.005,4.981,-1.041,0.661,9.827,0.399,1.349,-0.669,43.125,20.268,16.545,8.844,11.509,98.182,42.721,30.149,23.353,20.935,198.087,96.374,65.921,49.169,45.083],[-16.709,-2.463,-0.41,-1.398,-0.747,-24.551,-1.557,0.165,-0.365,-0.659,-7.421,1.014,-2.251,1.34,0.991,37.64,22.492,11.789,11.794,11.219,92.137,49.432,35.065,26.535,21.369,141.232,97.191,67.982,48.742,40.699]],
"kep": [[-111.076,-34.52,-46.173,-9.987,0.906,-111.236,-79.046,-33.524,27.008,4.817,-112.832,-105.639,-51.94,-45.753,-38.447,-125.417,-234.771,-188.021,-174.514,-179.479,-105.639,-238.288,-287.446,-398.764,-394.006,22.134,-71.954,-354.106,-478.244,-683.754],[-71.425,-68.768,-107.3,-60.981,0.86,-63.886,-68.779,-105.413,-62.035,7.11,-72.126,-63.764,-113.89,-62.884,-19.805,-62.083,-96.337,-130.306,-146.586,-117.94,-63.69,-17.445,-106.214,-192.405,-181.301,-65.213,-66.816,-37.181,-111.815,-289.509],[-70.155,-33.784,-25.175,-63.387,-119.767,-71.349,-35.19,-28.726,-57.623,-120.857,-68.383,-40.879,-21.256,-64.579,-100.695,-76.291,-36.913,-21.596,-65.117,-174.339,-64.337,-24.967,-60.508,-66.072,-92.354,-51.897,-33.825,-49.544,-43.281,7.614],[-78.844,-36.493,-20.404,-12.653,-33.549,-81.565,-36.891,-12.853,-19.853,-18.04,-79.437,-34.087,-5.886,-3.888,-18.64,-71.907,-64.49,-12.841,24.736,-36.074,-83.152,-59.288,-28.752,-47.212,-41.355,-77.539,-25.329,-24.772,-5.446,28.837],[-84.058,-43.121,-12.839,-1.591,-0.645,-87.809,-44.155,-15.324,-11.663,-3.003,-83.806,-48.718,-14.523,-6.805,-6.185,-80.259,-53.675,-17.585,-5.142,6.143,-82.849,-45.168,-69.62,-27.458,-10.344,-76.826,-63.05,-48.991,-15.171,23.01],[-84.369,-51.536,-17.738,-8.807,0.088,-91.139,-44.125,-10.904,-6.148,-3.673,-88.341,-53.892,-13.647,-8.903,-0.616,-85.235,-48.339,-11.854,-13.56,-6.428,-81.313,-49.443,-43.746,-67.045,-33.245,-87.164,-53.998,-40.723,2.846,-25.149]],
"vp": [[361.874,28.957,140.668,732.475,249.391,29.751,79.47,-29.485,42.061,-17.169,-105.668,54.225,71.073,39.821,3.427,-36.566,-4.319,-2.406,-3.521,-23.386,4.848,-6.879,-14.877,12.164,-19.291,-21.801,-12.493,-27.271,-21.935,-0.901],[2511.111,237.294,-201.266,27.062,252.53,462.077,174.755,46.61,7.863,-122.621,227.32,120.205,28.346,-57.839,-24.201,24.349,-23.523,-42.852,-12.325,-4.158,-21.969,-36.916,-19.962,-25.972,-11.551,-1.11,-32.363,-17.675,-7.567,-11.093],[4254.495,3091.962,684.697,767.338,89.294,603.347,544.281,211.894,170.34,-122.589,381.625,236.224,98.749,70.462,-5.899,45.211,4.471,10.886,-3.931,31.104,-14.71,-18.827,-2.575,-15.743,-17.212,-26.984,-51.084,-52.209,-39.033,-51.239],[5655.878,3780.62,2029.708,451.022,610.144,1034.942,947.747,548.468,275.346,243.501,498.292,478.003,196.561,90.403,76.017,75.076,34.69,24.596,-17.057,-24.711,23.338,-10.688,-12.449,-38.17,-22.495,-4.751,-64.047,-42.492,-31.58,-44.242],[6414.349,6371.801,4261.086,2057.517,1858.05,1254.109,1364.469,573.35,188.192,159.495,589.693,671.044,308.713,146.212,137.464,96.296,58.743,33.496,-7.776,18.386,31.527,-2.296,7.407,-25.774,-16.923,-5.183,-45.042,-41.386,-47.697,-29.444],[6556.61,8099.447,5368.516,2982.458,1624.08,1269.34,1517.514,1221.23,658.316,426.509,615.219,684.891,607.149,229.279,224.065,88.498,101.823,67.728,30.37,54.946,9.022,14.246,25.987,10.471,15.314,22.234,-23.769,-32.43,-42.836,-26.466]]
}