{
"KTrans": [[-0.05,1.229,0.364,1.898,2.158,11.169,5.675,-4.225,3.469,0.402,3.214,-1.697,3.741,3.536,2.617,3.073,7.091,4.593,0.385,-5.049,21.657,17.58,7.481,2.139,13.38,-55.632,53.736,41.744,30.745,40.981],[-57.411,-5.44,-0.112,1.025,0.37,-54.822,-0.596,0.1,0.464,-0.007,-54.016,2.408,3.212,1.17,0.598,-46.845,-10.939,-1.468,-1.364,1.503,-52.174,-1.703,-0.133,2.718,-7.749,-6.263,14.988,-3.809,10.692,5.255],[-88.289,-7.293,0.12,4.321,1.583,-88.381,-8.265,5.363,1.333,0.707,-87.019,-12.809,1.179,3.161,0.541,-84.022,-15.823,-4.415,-2.19,1.945,-80.876,-1.503,-3.085,-6.222,-2.341,-153.669,-24.019,11.792,8.18,-0.957],[-94.072,-31.505,-0.212,4.997,-0.05,-94.555,-23.91,4.63,3.252,3.976,-94.311,-26.116,0.646,-0.682,0.713,-91.283,-30.285,2.333,-2.132,-0.665,-101.364,-14.082,-8.726,-10.529,-7.003,-103.586,-22.599,-5.52,3.309,1.796],[-96.995,-55.751,0.477,4.775,2.328,-96.407,-63.492,5.01,4.411,3.286,-96.979,-62.063,5.69,2.647,1.284,-97.998,-45.497,-13.642,-8.789,1.03,-102.247,-41.238,-15.613,-7.681,1.334,-110.918,-35.803,-4.793,11.822,6.63],[-98.384,-78.459,-7.774,2.895,2.527,-97.956,-76.39,-14.863,0.937,2.893,-98.892,-73.175,-7.598,5.128,5.07,-96.507,-62.876,-18.205,-1.887,0.861,-104.269,-57.15,-9.982,-6.565,-0.225,-103.777,-56.75,-2.617,7.583,-2.673]],
"ve": [[2.67,3.041,6.382,9.782,115.155,4.954,4.5,15.833,4.489,-37.025,3.087,7.229,-0.189,27.238,83.703,-1.872,3.638,27.719,-36.597,23.244,14.59,-4.791,15.466,159.295,-38.216,-13.18,-14.448,-79.544,22.807,-132.148],[-26.749,-1.738,0.536,-0.373,-0.671,-17.732,-0.672,-1.017,-0.072,0.181,-29.061,-2.415,-0.918,-0.641,-0.044,-28.647,-4.365,-1.556,-0.929,0.717,-39.831,-7.007,-1.539,14.259,11.477,30.637,-5.393,-20.3,-6.391,-23.599],[-69.571,-4.797,-1.107,0.562,-0.332,-63.35,-7.205,0.216,-0.355,-0.769,-66.787,-7.908,-0.667,-0.371,-0.428,-65.428,-11.995,-3.027,-2.212,-0.343,-68.01,-12.655,1.784,-4.074,-0.919,-157.47,-28.191,-21.817,-3.858,31.74],[-70.563,-19.653,-2.719,-0.242,-1.056,-72.511,-16.18,0.556,-0.039,-0.136,-73.353,-16.827,-1.283,-1.491,-0.657,-77.112,-22.99,0.862,-2.604,-0.516,-91.072,-22.583,-10.021,-8.278,-5.653,-84.152,-31.242,-21.193,-12.493,-3.499],[-105.129,-37.812,-1.863,0.321,-0.584,65.142,-39.803,-1.4,-0.622,-0.368,-66.119,-42.143,-1.724,-1.186,-1.05,-101.357,-42.663,-10.251,-6.054,-0.987,-102.154,-30.956,-13.155,-6.828,-1.913,-113.83,-35.248,-16.214,-0.13,-9.186],[-100.526,-59.153,-8.217,-1.166,-0.438,-97.23,-59.183,-10.171,-1.371,-0.572,-104.616,-60.075,-6.904,-0.125,-0.327,-87.989,-51.146,-9.998,-2.917,-1.952,-103.475,-41.463,-13.834,-10.486,-1.775,-94.015,-52.542,-13.508,-7.607,-10.996]],
"kep": [[-3.631,1.195,0.996,3.324,4.964,6.452,3.237,-6.784,5.832,-0.35,-0.491,-4.732,2.983,2.1,4.991,-22.221,-2.473,-2.692,-8.07,-19.829,-12.9,-19.381,-21.663,-29.402,-5.772,45.536,4.983,-14.336,-34.799,-0.529],[-44.744,-4.291,-0.753,1.334,1.12,-45.675,-0.879,1.004,0.595,-0.032,-46.904,3.43,3.932,1.772,0.726,-55.527,-11.94,-2.122,-1.531,0.429,-42.651,-20.684,-8.328,-4.222,-11.292,-23.365,-16.639,-34.575,-13.639,-15.075],[-84.225,-4.649,0.873,3.515,1.858,-82.215,-4.749,4.559,1.598,1.421,-84.743,-7.072,1.269,3.257,0.87,-80.155,-20.708,-4.405,-1.599,1.309,-60.869,-39.241,-9.657,-6.881,-4.361,-43.217,-18.146,-23.887,-10.856,-13.675],[-93.978,-20.396,1.774,5.013,0.856,-95.345,-15.429,2.838,2.952,3.984,-97.354,-16.564,0.926,0.43,1.165,-86.653,-37.096,-1.626,-1.604,-1.012,-79.444,-44.686,-20.13,-10.02,-5.631,-62.33,-37.073,-32.936,-22.688,-11.882],[-98.585,-38.935,0.629,3.857,2.689,-100.207,-49.154,4.546,4.473,3.376,-98.862,-47.077,5.106,3.292,2.023,-92.33,-59.187,-12.549,-5.136,1.227,-81.842,-50.537,-36.338,-9.252,-0.703,-79.641,-47.011,-30.407,-19.674,-11.759],[-100.651,-68.691,-3.473,3.179,2.645,-98.672,-68.697,-8.449,1.405,2.923,-97.182,-73.433,-4.737,4.5,5.014,-91.601,-64.903,-22.437,-2.556,0.97,-84.206,-61.051,-39.315,-16.302,-3.121,-80.259,-56.336,-34.26,-31.181,-25.718]],
"vp": [[425.743,29.492,307.995,-17.753,63.407,-50.961,-69.476,52.759,-40.968,9.595,6.261,27.669,-12.654,-7.072,-6.666,5.783,-0.346,-4.386,5.947,20.822,8.568,2.657,9.425,11.298,-3.653,2.769,-0.226,-2.217,3.88,-9.328],[3356.428,487.907,84.69,147.364,71.433,683.896,57.325,96.363,17.822,46.836,331.047,29.618,2.737,23.037,11.855,78.211,28.352,13.053,13.716,-2.763,42.263,12.565,11.557,1.267,28.276,-20.011,5.909,22.709,-0.65,7.339],[6929.786,1122.911,242.608,-194.188,151.852,1359.732,276.31,-55.091,41.527,69.811,685.624,157.603,13.711,5.776,30.38,135.804,51.302,20.176,20.739,-0.347,71.409,24.925,15.46,18.642,7.644,83.807,29.009,7.123,2.055,13.017],[8315.768,4133.514,750.449,-28.151,470.325,1651.792,645.048,-33.649,13.365,-22.484,887.019,337.638,35.357,55.155,31.449,152.755,98.896,-10.799,19.455,3.912,93.87,46,24.099,38.906,32.838,41.32,30.932,33.666,7.804,7.598],[9130.42,7856.992,686.313,-34.378,108.304,1936.927,1664.091,68.219,9.902,23.299,957.399,874.027,52.838,19.892,28.259,196.306,163.764,64.355,49.652,5.719,101.846,57.154,63.162,28.401,6.519,55.677,34.786,23.06,-2.101,-2.352],[10408.736,11922.104,2359.79,398.359,123.623,1851.767,2392.906,592.418,91.649,92.217,1000.888,1241.651,218.897,3.404,-3.503,166.996,202.784,107.75,22.858,19.352,102.819,90.058,42.279,44.346,7.351,45.701,52.883,18.834,12.616,26.394]]
}