{
"KTrans": [[3.683,0.449,-4.083,-4.921,-5.306,8.125,16.647,21.35,1.48,5.408,11.074,22.954,15.183,10.911,20.063,13.404,49.992,80.809,77.527,85.843,81.547,75.992,60.718,87.427,129.935,-265.176,-111.109,-85.377,-33.16,-8.017],[-44.845,-14.096,-0.231,7.801,0.529,-39.376,-8.879,2.227,7.348,9.008,-24.863,-9.293,4.657,11.805,12.746,-23.319,0.985,9.455,23.681,32.446,-81.587,-11.955,-9.119,17.421,41.757,-134.165,-66.822,-14.55,13.53,-35.478],[-58.156,-19.898,-11.15,-6.378,0.62,-52.561,-25.057,-6.907,-2.059,1.815,-49.781,-16.239,-9.303,-2.372,1.562,-49.636,15.281,0.551,0.013,6.586,-35.589,-0.284,-42.701,19.042,-18.967,-39.147,-112.665,-63.868,0.942,45.242],[-61.964,-32.116,-16.058,-9.142,-6.019,-62.961,-25.507,-10.604,-7.845,-5.955,-56.572,-28.508,-6.267,-3.262,-2.102,-56.85,-3.631,11.608,20.368,12.191,-47.853,-3.948,5.935,0.105,5.756,-16.412,-40.701,-35.536,-0.836,23.849],[-73.38,-36.804,-14.723,-4.303,-3.156,-75.472,-35.513,-13.219,-5.884,-2.243,-65.054,-29.093,-11.437,-0.376,-3.454,-61.089,-19.535,3.261,21.553,16.107,-50.749,-46.568,14.421,10.819,10.81,-37.176,-24.388,-38.176,26.884,-40.043],[-77.296,-38.516,-20.398,-6.373,-6.861,-79.262,-35.16,-19.538,-3.871,-0.355,-77.553,-38.753,-16.181,1.482,1.642,-68.31,-20.168,-19.019,19.085,18.491,-62.007,-49.688,3.414,38.423,32.563,-100.437,-1.02,-14.54,34.612,-5.888]],
"ve": [[8.58,-22.635,40.855,-49.805,88.115,9.646,-25.351,-88.03,-637.225,-52.203,6.112,-163.734,-12.313,-35.629,-23.076,37.43,-18.692,93.145,-45.401,-39.558,97.65,25.283,1.203,-52.129,-46.186,190.349,89.165,29.562,-1.564,33.467],[-7.699,-4.426,111.936,-16.967,-43.022,-5.466,30.923,-4.853,4.097,-10.289,-9.237,-53.921,8.163,85.048,-356.935,41.395,157.436,4.09,6.177,-10.047,87.95,-256.646,21.946,18.138,12.999,187.109,63.649,60.893,22.779,23.881],[23.62,-17.223,46.683,-2.057,5.485,7.319,26.416,-6.422,-27.426,-1.037,-8.527,-0.728,24.558,-2.387,4.359,-116.536,25.611,6.552,16.064,-14.63,86.955,-250.959,49.083,20.729,18.975,186.675,99.51,71.423,48.913,42.503],[-3.061,-7.277,-9.109,-7.588,9.938,3.454,-2.413,-2,-4.622,0.216,-1.496,-5.621,-2.653,-5.44,1.835,26.664,14.883,6.928,12.094,23.059,83.682,46.881,29.215,28.637,25.147,188.677,91.089,67.125,50.258,39.77],[-20.633,-0.471,-3.775,-3.219,-3.55,-1.836,-5.745,-3.873,-1.985,-3.688,-5.704,2.156,-13.281,-0.378,122.029,24.097,21.922,10.806,10.342,5.451,86.316,46.987,27.354,24.235,17.775,182.089,96.128,66.976,50.631,11.961],[-366.858,-7.811,-3.387,-2.848,-2.114,-12.694,-1.659,-2.33,-2.848,-1.295,0.035,-0.902,-0.001,-0.681,1.543,37.02,22.242,26.549,8.796,8.597,82.066,47.819,30.019,23.49,18.814,196.737,98.355,65.043,51.364,39.371]],
"kep": [[-119.219,-71.103,-53.45,-29.455,-9.26,-119.253,-113.657,-103.671,-57.384,-42.651,-123.576,-125.403,-56.942,-20.726,-75.495,-143.981,-199.794,-169.527,-236.968,-244.641,-125.753,-219.08,-324.857,-371.826,-383.461,-158.273,-239.123,-472.59,-646.407,-709.843],[-91.687,-92.445,-123.135,-104.404,-25.178,-90.021,-93.373,-125.405,-97.374,-56.773,-78.439,-93.715,-133.85,-102.679,-54.428,-87.534,-96.284,-135.917,-158.696,-127.672,-108.997,-104.918,-152.119,-204.928,-199.072,-92.619,-98.985,-108.481,-161.084,-342.912],[-88.718,-62.334,-60.785,-85.695,-116.648,-86.292,-64.103,-56.594,-70.382,-136.634,-84.909,-55.441,-57.834,-81.939,-127.839,-90.709,-42.522,-65.785,-93.979,-142.953,-82.397,-60.894,-103.514,-68.947,-204.968,-80.807,-90.606,-82.756,-53.785,-26.259],[-86.069,-57.716,-42.017,-31.773,-60.712,-87.629,-53.321,-32.917,-35.648,-56.321,-85.098,-55.239,-30.152,-34.782,-45.427,-88.653,-48.482,-31.84,-15.213,-38.308,-84.252,-54.824,-44.027,-54.468,-49.262,-76.21,-67.847,-65.807,-44.679,-25.186],[-91.27,-57.139,-29.466,-16.592,-21.593,-94.388,-56.825,-30.95,-21.976,-16.785,-86.823,-54.336,-28.674,-11.73,-20.921,-88.819,-56.603,-29.928,-2.635,-8.693,-84.259,-74.822,-31.416,-35.376,-24.385,-81.888,-71.628,-64.469,-26.135,-72.224],[-92.933,-57.628,-32.513,-16.859,-16.552,-94.496,-57.872,-35.433,-16.502,-12.545,-94.42,-60.704,-32.87,-8.128,-7.921,-90.21,-51.874,-50.344,-1.621,0.549,-88.57,-72.598,-39.079,-9.167,-1.599,-97.195,-55.06,-53.718,-26.18,-39.029]],
"vp": [[845.359,763.809,625.596,1179.885,993.765,-23.24,-45.796,80.629,99.326,-75.675,33.089,-53.145,-10.236,-2.508,35.152,-18.314,-5.346,-21.177,9.299,-11.879,-18.862,-13.131,3.059,4.955,-14.185,-14.542,7.676,19.227,13.602,14.886],[2523.993,842.123,201.365,-853.579,395.105,453.035,88.658,66.151,-17.303,-42.44,208.814,153.789,30.035,-0.272,135.227,29.462,-10.46,-11.199,-17.634,1.095,21.54,-1.765,-15.351,-19.841,-6.024,0.262,-13.431,-16.909,-10.38,8.059],[4019.577,3913.585,1529.887,281.175,-205.952,894.861,876.601,442.451,109.51,15.646,446.168,328.946,147.273,46.344,5.545,71.418,75.26,28.162,-4.489,5.296,22.31,11.253,25.631,-13.758,-3.058,-2.522,-1.189,-8.182,-3.596,-17.801],[4899.939,5222.548,3333.33,2326.85,1134.62,1078.107,974.139,785.441,361.06,217.278,559.117,543.12,363.325,164.334,112.767,145.651,119.777,55.9,41.799,15.295,33.853,33.537,18.081,18.96,-23.541,-2.933,5.551,2.54,-4.974,-5.272],[5668.587,7857.151,4886.693,2389.742,2028.505,1148.304,1434.583,1235.52,251.582,93.852,639.992,797.795,512.154,251.14,284.571,85.285,111.693,61.37,38.536,38.558,37.775,47.022,30.953,26.868,-14.369,18.995,9.514,-16.836,-3.383,-3.768],[6813.785,9950.883,5441.614,5235.882,2701.143,1291.938,2137.384,1334.397,702.183,723.33,831.885,943.982,829.329,472.154,188.94,127.822,122.124,178.594,61.526,75.023,48.765,73.757,50.828,62.95,31.673,26.691,14.869,-0.89,25.159,-20.536]]
}