{
"KTrans": [[1.846,5.444,3.219,3.181,2.461,5.435,12.959,13.38,11.774,11.76,13.758,25.34,25.474,22.384,23.356,3.959,82.907,97.797,100.702,99.295,-13.035,45.935,134.604,154.492,161.689,-498.922,-376.161,16.994,123.718,170.75],[-0.529,-0.072,0.723,0.581,1.35,10.349,8.067,2.234,5.709,5.484,22.111,15.642,3.069,10.553,9.727,163.171,110.992,21.393,32.916,40.433,410.624,290.845,-3.663,20.472,60.61,1162.025,827.466,217.326,-121.456,39.937],[-1.278,0.039,0.193,1.107,0.266,7.373,6.585,4.599,4.104,1.265,20.39,12.69,10.187,8.702,2.436,133.975,78.951,60.376,57.87,2.347,327.426,184.579,149.227,148.292,29.813,848.972,475.035,388.682,430.435,-52.185],[-5.658,0.425,0.934,0.618,0.452,2.288,5.24,3.51,3.451,3.277,15.722,11.757,8.818,7.518,6.605,117.767,69.457,51.188,42.117,38.718,295.246,158.453,113.673,97.728,91.723,738.789,401.464,279.784,241.124,236.149],[-6.786,0.659,0.959,1.116,0.58,0.703,5.405,3.777,3.298,2.777,11.756,9.992,8.44,6.956,5.753,108.08,64.293,46.311,37.195,32.417,271.705,149.581,103.486,82.834,71.432,674.858,361.86,249.264,198.898,173.93],[-11.126,0.359,0.927,0.337,0.844,-5.651,3.522,4.207,2.823,2.356,5.57,9.684,8.116,5.872,5.333,97.008,61.744,44.161,34.798,30.069,250.107,139.707,97.305,76.219,64.992,628.754,330.45,230.142,177.259,151.389]],
"ve": [[3.912,7.026,6.441,5.935,7.605,3.16,10.293,17.6,16.888,29.352,12.623,34.118,73.494,32.539,63.498,49.53,-1.405,-49.694,-78.484,-95.533,99.894,30.935,-6.419,-29.822,-45.154,198.993,83.613,33.258,4.014,-15.133],[0.735,-0.07,-0.553,0.479,0.929,4.485,2.678,3.787,4.343,2.867,10.178,5.149,3.631,6.715,4.752,50.908,26.158,15.382,1.545,-14.495,100.67,51.778,33.629,18.631,0.727,201.35,101.723,66.987,44.899,27.262],[0.939,0.191,0.122,0.169,0.162,4.378,2.631,1.822,1.262,-30.159,10.676,5.333,3.54,2.618,2.979,49.902,25.647,17.751,13.462,5.152,100.12,51.145,35.013,26.268,19.668,200.053,101.488,68.643,51.482,40.86],[0.954,0.405,0.254,0.182,0.114,4.842,2.427,1.639,1.47,0.956,10.127,5.093,3.338,2.691,2.294,49.77,25.562,17.501,13.385,10.912,100.485,50.561,34.422,26.245,21.438,200.1,101.027,68.16,51.751,41.629],[0.634,0.6,0.289,0.259,0.21,4.427,2.548,1.54,1.339,1.07,9.813,4.968,3.273,2.665,2.207,49.488,25.185,17.126,13.036,10.77,100.06,50.586,33.926,25.99,21.016,199.677,100.492,67.762,51.47,41.701],[1.085,0.533,0.449,0.22,0.359,4.204,2.401,1.672,1.394,0.875,9.772,5.031,3.428,2.566,2.058,49.659,25.123,17.05,12.968,10.59,99.585,50.326,33.855,25.704,20.961,199.67,100.262,67.473,51.221,41.372]],
"kep": [[-120.076,-14.011,-7.408,-3.817,-4.457,-128.275,-23.08,-23.427,-19.426,-19.44,-113.735,-48.616,-38.731,-33.991,-41.644,-237.565,-237.521,-182.517,-185.707,-189.296,-250.396,-478.936,-371.869,-365.017,-379.238,-476.586,-949.797,-755.644,-734.258,-762.534],[-3.479,-3.812,-118.302,0.245,-3.408,3.73,13.046,-121.247,-24.498,-12.754,13.055,24.584,-138.478,-39.333,-20.455,88.665,143.214,-110.42,-173.403,-101.603,173.68,281.733,-250.072,-356.657,-201.501,344.177,533.593,86.251,-678.368,-406.41],[-3.214,-2.123,-1.173,4.595,-136.122,1.135,5.518,6.825,9.229,-121.448,10.165,10.831,12.935,24.096,-115.081,58.022,56.9,71.975,136.922,-206.992,117.118,112.645,152.773,272.433,-96.935,220.038,220.719,290.99,539.377,-367.205],[-8.567,-1.051,0.694,0.296,0.74,-4.294,2.526,2.617,4.59,6.394,4.654,7.451,8.158,10.391,15,45.333,41.853,42.397,49.439,71.079,98.499,81.409,81.325,100.687,144.224,180.048,165.562,160.871,196.235,278.904],[-9.333,0.05,0.537,1.79,0.765,-5.96,3.198,2.343,2.903,4.281,-1.067,5.104,6.181,6.705,7.117,38.674,34.23,31.303,32.587,37.738,86.111,71.58,63.513,65.975,73.434,156.075,138.625,127.164,131.374,149.887],[-12.669,-0.339,0.735,-0.154,1.4,-12.104,0.527,2.767,2.325,1.873,-5.446,4.601,5.378,4.288,5.297,30.231,31.458,27.332,26.064,28.277,73.842,62.58,54.706,52.19,55.609,141.907,118.366,109.168,103.297,109.345]],
"vp": [[49.42,-91.747,-72.41,-76.835,63.393,-0.734,-5.382,5.207,-3.964,-10.989,-10.029,-3.444,-6.242,2.88,-0.37,0.273,0.372,2.019,-0.501,0.349,-0.797,-0.236,-0.256,-0.633,-1.159,-0.387,-0.941,-0.853,0.57,-0.53],[313.709,-146.552,44.899,-116.481,-106.699,66.77,60.223,-1.915,11.812,6.357,41.771,11.282,6.126,-1.336,-0.716,2.53,-1.048,1.462,-3.045,-0.873,2.128,-0.653,-1.074,-0.116,-1.198,0.707,-1.064,-0.185,-0.272,-0.292],[1312.521,21.056,-77.229,34.344,22.943,207.646,6.4,6.165,41.891,-16.079,145.354,1.041,4.781,5.063,1.498,24.578,1.2,1.522,1.931,-1.077,9.7,0.56,-0.948,-1.34,-0.807,3.614,0.027,0.339,-0.147,-0.497],[2788.31,233.833,-86.391,127.34,43.72,455.639,80.552,23.809,-20.568,-5.395,256.588,28.845,0.718,11.889,-3.437,57.225,0.59,1.843,-1.2,-0.593,28.448,3.294,-1.365,-1.373,-0.367,8.835,-0.752,-1.008,-0.44,-0.042],[3920.076,679.897,299.912,28.348,136.771,724.912,112.518,37.248,41.236,16.034,405.977,51.261,-1.485,7.835,10.093,82.208,5.142,5.947,-3.972,1.953,42.304,6.315,-1.015,0.116,0.787,17.274,1.93,-0.605,-0.423,-0.341],[5088.266,986.469,482.253,-3.895,90.946,994.997,175.179,129.636,-7.163,46.67,541.458,88.165,17.915,1.913,-15.932,106.901,17.189,-2.988,-0.094,-0.796,51.201,9.588,-1.384,0.693,-0.564,22.065,5.208,-0.376,-0.806,-0.873]]
}