{
"KTrans": [[0.081,0.06,0.034,-0.012,-0.013,0.078,-0.008,0.124,0,0.104,-0.049,-0.135,0.067,-0.145,0.349,3.34,1.605,0.74,1.012,0.89,15.713,5.463,3.826,8.624,3.246,39.792,26.03,10.694,7.348,15.717],[-0.287,-0.156,0.011,0.038,0.037,-0.607,0.084,0.152,-0.065,0.107,1.065,0.018,0.022,0.177,0.017,4.788,1.47,0.37,0.924,0.412,0.995,-0.806,1.814,0.305,1.694,61.896,9.862,10.156,6.278,2.988],[-0.653,-0.748,-0.247,-0.083,-0.001,-1.336,-0.808,-0.154,0.012,0.068,0.24,-0.561,0.019,0.146,-0.01,16.323,0.357,0.576,1.07,-0.677,-8.786,1.446,1.961,1.653,0.846,23.538,7.026,4.694,7.199,5.954],[-2.416,-0.124,-0.447,-0.2,-0.089,3.368,-1.203,-0.725,-0.146,-0.052,0.546,-0.794,-0.523,-0.219,0.341,-14.378,1.39,-1.696,1.075,0.237,-38.278,5.453,1.62,0.7,3.028,-30.984,13.813,8.961,-1.239,-0.944],[-9.041,-1.694,-1.052,-0.439,-0.265,-0.194,-1.951,-0.798,-0.517,-0.257,1.899,-3.406,-1.328,-0.647,-0.379,-37.607,1.77,0.967,-1.154,-0.167,-53.177,4.073,-1.636,-0.445,1.419,-35.511,6.649,1.481,3.184,7.139],[-38.137,-3.345,-1.696,-0.933,-0.355,-41.512,-3.135,-1.167,-0.587,-0.378,-45.561,-1.054,-0.495,-0.62,-0.291,-57.411,5.786,-0.685,-1.945,0.454,-74.087,11.25,1.638,0.909,2.605,-55.065,2.335,6.868,1.53,-3.654]],
"ve": [[0.033,-0.019,-0.072,-0.105,-0.141,-0,-0.05,-0.098,-0.11,-0.22,-0.142,-0.082,-0.061,0.02,-0.433,0.98,0.666,1.092,1.345,2.096,6.277,3.448,5.35,5.821,12.862,42.797,37.98,52.886,569.117,-55.486],[-0.291,-0.056,0.002,0.003,-0.011,-0.319,0.046,0.063,-0.046,0.004,0.647,-0.009,-0.016,0.039,-0.031,2.429,0.662,0.042,0.263,0.043,-3.21,-1.537,0.47,-0.077,0.429,5.94,2.923,4.004,2.226,1.215],[-0.66,-0.367,-0.104,-0.032,-0.003,-0.91,-0.405,-0.047,0.002,0.025,-0.749,-0.374,0.017,0.08,-0.027,1.548,-0.196,0.235,0.495,-0.465,-18.883,0.004,0.951,0.654,0.218,12.173,3.177,2.134,3.357,2.48],[-2.008,-0.375,-0.224,-0.08,-0.037,-0.466,-0.392,-0.289,-0.057,-0.019,-1.736,-0.337,-0.341,-0.13,0.204,-7.515,1.028,-1.411,0.639,0.033,-25.752,4.336,0.82,0.228,1.593,-24.928,8.158,5.218,-2.05,-1.442],[-6.278,-0.875,-0.446,-0.14,-0.147,-3.785,-1.023,-0.307,-0.189,-0.094,-5.351,-1.445,-0.42,-0.321,-0.264,-28.761,0.816,0.729,-0.944,-0.145,-36.237,-0.808,-1.335,-0.363,0.89,-31.233,-5.081,-0.52,1.432,4.424],[-25.135,-1.799,-0.761,-0.425,-0.199,-27.597,-1.861,-0.582,-0.324,-0.166,-31.463,-1.074,-0.433,-0.3,-0.106,-13.546,0.341,-0.819,-1.477,0.367,-51.02,0.176,0.388,0.374,1.941,-33.376,-1.155,-0.097,-0.041,-3.5]],
"kep": [[0.198,0.229,0.256,0.243,0.279,0.208,0.188,0.375,0.274,0.499,0.162,0.08,0.296,0.041,1.014,0.118,0.682,0.335,1.157,1.303,1.818,1.103,1.484,9.98,3.164,-12.115,6.973,-2.205,-4.866,13.24],[0.145,0.05,0.158,0.185,0.198,-0.166,0.181,0.236,0.13,0.253,0.496,0.151,0.177,0.281,0.194,1.726,0.442,0.24,0.662,0.438,1.552,-1.112,0.444,-0.04,1.057,12.708,-1.139,2.091,1.709,0.659],[-0.02,-0.235,0.005,0.099,0.151,-0.545,-0.263,0.04,0.158,0.191,0.748,-0.061,0.141,0.21,0.164,15.117,0.413,0.279,0.587,-0.15,-27.96,0.248,0.318,0.647,0.439,-30.58,-1.032,-0.161,1.752,2.054],[-1.725,0.384,-0.075,0.029,0.097,2.282,-0.701,-0.294,0.058,0.115,0.153,-0.365,-0.045,0.054,0.283,-18.035,0.496,-0.323,0.47,0.274,-52.963,1.181,0.306,0.129,1.281,-52.335,6.857,1.823,-0.864,-0.761],[-6.156,-0.779,-0.465,-0.151,0.031,0.429,-0.916,-0.358,-0.182,-0.015,4.885,-1.967,-0.783,-0.186,0.03,-46.946,1.073,0.243,-0.161,0.053,-61.321,5.015,-0.567,-0.343,0.338,-60.918,-18.666,0.952,0.218,1.755],[-24.184,-1.755,-0.823,-0.365,-0.007,-28.724,-1.558,-0.476,-0.12,-0.065,-35.599,-0.332,0.037,-0.185,-0.041,-62.026,4.6,0.143,-0.412,0.173,-73.347,10.586,1.321,0.321,0.567,-66.749,-26.277,7.978,0.542,-1.043]],
"vp": [[-4.453,-8.854,-6.814,-7.95,-6.195,-0.275,0.697,-2.311,-0.748,-2.36,1.615,1.883,0.057,1.897,-4.933,-1.814,-1.298,-0.284,-1.249,-1.154,-6.4,-2.451,-1.996,-8.097,-2.236,-4.799,-7.597,-1.608,-0.489,-6.199],[36.022,12.57,-1.04,-7.564,-7.468,6.689,-1.879,-5.099,3.631,-5.438,-6.766,0.186,0.306,-3.192,0.089,-5.241,-3.121,-0.398,-3.207,-1.187,3.682,3.733,-1.48,0.96,-2.878,-2.485,-2.827,-6.602,-4.469,-1.728],[72.068,78.163,34.9,15.88,1.348,18.455,16.903,2.884,0.146,-3.469,8.34,8.286,-0.516,-3.911,1.431,-2.52,0.956,-1.689,-4.796,5.722,19.901,0.065,-3.352,-3.12,-1.393,-7.036,-3.552,-3.688,-7.78,-7.395],[196.114,96.644,75.424,37.246,24.461,11.371,14.429,17.045,5.324,2.524,17.025,6.637,11.493,6.097,-11.647,13.547,-4.681,9.394,-5.893,-0.392,25.555,-9.717,-2.816,-1.124,-9.314,12.108,-9.196,-8.681,4.858,4.438],[611.788,177.459,135.008,55.116,88.599,76.521,41.365,18.267,14.989,9.93,57.289,27.5,10.986,13.525,15.729,57.745,-3.794,-4.9,8.409,1.516,35.713,1.859,4.105,1.36,-5.253,15.833,5.2,0.889,-3.191,-12.672],[2529.943,356.163,228.137,175.521,117.166,555.346,74.35,36.047,28.587,18.209,323.321,22.005,14.717,12.706,5.558,87.925,-1.049,5.268,12.815,-4.309,51.325,-0.277,-1.188,-1.672,-11.149,16.399,-1.922,0.653,0.183,9.871]]
}