{
"KTrans": [[-47.168,-91.415,-75.494,-88.309,-82.694,-47.932,-73.005,-80.437,-87.16,-88.207,-53.595,-78.908,-84.929,-83.702,-82.625,21.867,0.613,-9.247,-24.547,-50.418,34.571,83.537,53.322,38.021,2.588,225.402,50.857,54.161,161.273,97.455],[-58.621,-55.271,-57.594,-59.325,-57.441,-60.59,-49.621,-51.738,-46.19,-69.451,-57.724,-39.181,-52.745,-53.218,-60.057,-31.79,-19.99,-10.732,-26.604,-45.911,-13.575,18.211,11.751,-25.777,-35.16,11.699,45.217,-9.72,50.629,40.291],[-73.374,-56.98,-47.495,-45.12,-53.622,-68.796,-51.132,-41.088,-55.912,-46.618,-72.054,-52.235,-45.929,-46.732,-51.527,-51.276,-35.005,-29.189,-26.789,-33.24,-38.004,-23.262,-5.505,-8.323,1.261,-15.445,12.189,7.635,-3.45,-1.495],[-78.647,-65.283,-53.981,-43.968,-38.492,-81.757,-63.492,-50.44,-41.754,-43.189,-78.639,-61.652,-52.599,-46.914,-35.387,-70.564,-48.761,-40.28,-27.931,-29.863,-56.365,-30.732,-25.105,-15.304,-13.875,-39.603,-21.581,-11.241,9.609,0.538],[-84.861,-73.375,-53.327,-46.438,-49.606,-84.139,-68.253,-55.021,-48.749,-46.587,-80.711,-66.326,-51.558,-49.235,-42.676,-76.087,-63.784,-44.836,-36.351,-34.705,-72.294,-53.566,-33.871,-28.094,-18.58,-50.981,-57.367,-18.204,-11.496,-10.03],[-88.551,-69.966,-56.72,-51.765,-45.62,-87.31,-72.518,-56.122,-47.753,-52.262,-86.994,-70.297,-57.757,-47.099,-38.578,-78.926,-62.658,-50.291,-42.087,-41.458,-79.11,-62.383,-34.93,-32.131,-31.171,-66.735,-46.417,-17.174,-14.997,-24.883]],
"ve": [[-103.107,-38.674,-102.586,121.051,-60.37,-41.255,-87.206,-9.951,-66.7,-45.154,-73.137,-67.251,-48.78,-99.946,2.681,15.459,3.407,-38.997,-78.237,-60.812,243.466,10.074,14.773,-48.478,-174.334,226.501,50.554,-1.657,1.895,-19.218],[-114.12,-10.194,-74.812,-57.222,-28.684,-22.716,-65.339,-45.971,-57.314,-52.468,-7.235,-41.274,-31.655,-53.696,-69.943,77.616,-16.083,-11.931,-56.833,-847.569,125.514,68.528,0.978,-125.296,-21.064,-20.529,70.473,35.283,24.917,7.034],[-12.886,90.22,-43.949,-36.873,-57.633,27.384,-79.874,-60.742,-76.862,-47.389,12.416,-41.527,-97.43,-31.512,-53.292,45.563,-1.644,-7.852,-69.531,-32.29,143.057,33.434,-11.079,-0.728,4.37,386.168,85.555,19.403,53.631,109.921],[-50.141,-32.012,-70.096,-58.718,-20.195,-33.95,-29.679,-52.709,-51.822,-41.834,-62.319,-43.504,-103.287,-39.705,-14.683,76.422,-15.229,-35.113,-33.559,-36.332,178.805,70.734,-25.67,13.42,-10.776,190.229,122.326,33.196,52.501,12.661],[-64.635,-52.877,-86.677,-46.159,-36.564,-11.757,25.41,-44.84,-72.936,-64.783,-4.165,6.418,-46.223,-57.643,-57.433,34.091,-24.917,-64.206,-47.801,-57.252,122.213,-110.978,-29.433,-31.164,14.024,372.909,-31.454,18.465,24.18,13.388],[-11.463,-2.857,-37.504,-61.972,-63.896,-49.167,-35.212,-65.579,-49.587,-83.439,47.04,-13.784,-44.502,-61.889,-31.797,5.138,1332.654,-66.042,-62.931,-55.164,381.372,33.035,6.685,-33.984,-70.574,208.317,106.629,93.467,-9.118,-29.399]],
"kep": [[-91.053,-84.89,-100.208,-83.577,42.209,-135.952,-101.575,-79.395,-21.852,-19.439,-108.982,-94.598,-49.861,-45.584,-13.663,-121.501,-111.316,-143.675,-135.485,-56.594,-113.854,-184.665,-170.045,-221.578,-113.401,-93.424,-158.74,-156.464,-187.36,-200.864],[-103.957,-102.221,-123.849,-109.255,-80.384,-96.248,-97.294,-113.141,-140.145,-68.821,-105.289,-97.465,-114.634,-112.362,-41.709,-108.114,-101.231,-128.741,-105.436,-60.418,-101.916,-109.751,-110.208,-86.727,-103.84,-77.046,-75.906,-108.871,-123.349,-115.11],[-102.469,-95.995,-93.599,-91.716,-125.214,-99.983,-78.111,-81.667,-84.659,-108.755,-101.188,-85.178,-83.969,-93.277,-121.843,-96.962,-86.704,-79.932,-112.786,-133.411,-96.57,-83.631,-65.701,-119.231,-119.504,-99.947,-70.319,-62.12,-109.394,-109.69],[-101.22,-90.053,-73.023,-69.471,-78.953,-99.091,-90.267,-70.007,-70.676,-78.008,-100.284,-87.746,-60.135,-69.926,-87.771,-100.209,-91.765,-69.176,-61.648,-66.048,-97.929,-83.81,-65.996,-65.216,-80.614,-92.099,-81.123,-57.574,-73.886,-58.154],[-99.239,-89.459,-75.772,-64.187,-47.554,-100.381,-94.565,-72.594,-48.968,-45.119,-99.076,-93.954,-72.911,-67.632,-49.126,-97.972,-90.925,-69.172,-50.373,-45.072,-96.7,-85.793,-58.72,-52.599,-62.694,-98.973,-69.895,-71.751,-56.939,-57.649],[-101.302,-93.51,-72.646,-47.797,-44.756,-98.316,-92.374,-68.441,-57.302,-43.591,-99.512,-91.502,-74.276,-54.117,-46.598,-100.17,-92.962,-69.523,-47.711,-47.174,-97.66,-91.11,-71.845,-51.437,-42.009,-96.804,-83.272,-70.296,-52.897,-46.365]],
"vp": [[268.527,1618.219,104.289,1300.194,2107.063,70.727,67.784,-69.222,318.95,72.009,-32.629,-4.853,13.119,66.454,123.468,-24.965,19.642,-37.221,9.863,15.046,-7.68,-29.441,-24.243,-20.371,-5.903,-28.372,13.311,-13.779,-7.793,9.52],[2799.83,1283.943,-681.028,-1028.689,692.01,625,161.554,55.187,-20.376,62.796,246.612,158.879,-12.847,113.82,-19.05,51.026,-2.605,-1.486,-15.256,-5.47,17.718,-13.563,-13.639,21.902,-19.607,15.222,-26.122,-23.177,-29.99,-27.136],[4699.057,2847.487,3247.815,964.719,-520.42,1072.638,352.708,409.601,29.165,131.375,417.539,403.31,272.721,49.047,-60.417,76.974,37.063,45.835,-2.548,-17.336,50.712,36.413,-1.572,-24.123,23.659,0.374,-2.671,-35.405,-35.884,1.439],[6284.136,5414.658,3203.141,2550.955,2895.434,1178.519,1097.635,840.164,506.964,330.374,483.536,565.34,308.444,306.088,245.008,75.556,123.144,80.436,46.252,18.241,20.699,43.948,17.946,12.208,-18.641,-16.754,20.061,-18.767,-25.479,-20.308],[6319.111,6923.755,6701.236,4732.952,2564.506,1337.82,1527.327,1463.584,668.519,569.598,731.495,827.651,665.517,453.608,248.741,96.262,160.295,122.575,72.248,27.185,52.502,53.75,6.092,20.02,40.029,-5.882,19.059,-0.998,-7.302,-4.565],[7111.162,7937.625,8656.055,6009.222,5466.076,1213.181,1607.184,1345.464,1174.076,709.001,663.051,985.387,799.461,628.007,533.936,170.095,175.423,134.675,72.283,97.006,62.412,74.678,63.452,30.972,9.752,-1.159,5.526,12.995,-0.894,-0.801]]
}