{
"KTrans": [[2.431,-0.881,0.691,0.165,0.326,-2.064,0.603,1.874,-0.063,0.987,2.245,1.109,1.779,-1.352,0.051,15.006,11.163,3.826,4.297,3.863,28.236,26.599,14.373,14.588,13.706,76.417,48.8,44.749,32.364,35.207],[3.997,3.277,0.954,0.808,0.764,4.07,4.057,1.805,0.854,0.45,17.329,2.613,1.119,1.97,0.54,17.785,9.808,2.674,3.525,-0.034,14.789,15.142,7.471,1.699,5.119,92.104,37.806,36.012,21.87,10.922],[-41.055,8.254,2.647,1.733,0.877,-35.119,9.534,3.127,1.712,1.812,-26.455,13.254,3.329,2.447,1.512,-38.883,11.243,4.455,1.928,0.432,-12.893,54.249,11.416,5.975,2.474,-53.802,29.714,30.225,6.447,11.429],[-70.656,22.977,5.708,3.924,2.344,-68.947,23.364,6.204,3.777,2.45,-70.465,19.193,6.131,3.527,2.297,-50.618,70.01,14.018,10.231,4.252,-44.091,71.661,26.772,5.919,4.869,-67.734,48.995,48.387,12.44,10.9],[-81.443,25.197,15.296,7.066,4.577,-83.039,23.886,13.379,7.145,4.567,-81.274,8.92,11.522,6.586,4.674,-61.042,17.025,32.167,11.636,5.546,-43.047,44.385,60.708,19.969,8.034,-64.878,119.574,21.592,13.871,7.611],[-87.333,-6.67,33.561,14.808,6.909,-86.976,-13.272,36.346,14.719,6.52,-92.686,7.497,28.298,12,8.212,-64.635,-18.909,79.485,18.782,4.939,-67.433,-26.564,77.921,32.533,19.093,-62.624,48.514,104.398,17.912,21.408]],
"ve": [[0.192,-0.722,-1.382,0.128,-0.505,-1.425,-1.543,-1.061,0.183,-0.692,-1.387,-0.792,-0.307,2.4,1.155,0.695,22.858,-463.752,-48.472,498.738,5.293,69.066,-29.859,-0.627,-19.632,21.958,-12.946,3.639,-22.395,-376.58],[-1.604,-0.479,-1.175,-0.963,-0.951,-2.757,-0.651,-0.976,-1.059,-1.078,2.256,-1.28,-0.959,-0.892,-1.159,-8.171,1.955,-0.96,-0.153,-1.196,2.322,1.63,0.838,-0.118,1.35,89.73,2.003,1.697,-5.525,-10.946],[-56.323,0.079,-0.522,-1.159,-1.117,-47.649,1.702,-0.577,-0.94,-0.793,-46.559,1.314,-1.055,-0.596,-0.708,-54.948,0.332,-0.736,-1.482,-1.787,-18.744,-8.646,0.991,-0.409,-0.709,-44.624,2.148,-3.236,0.831,4.771],[-85.648,3.937,0.04,-0.297,-0.951,-82.804,3.461,0.1,-0.249,-0.705,-79.274,4.76,-0.012,-0.388,-1.062,-98.487,-13.79,3.605,1.87,-0.325,-55.669,-25.995,1.956,-0.121,-1.135,-48.578,-3.231,12.15,1.265,0.179],[-90.747,-37.45,3.195,0.601,-0.255,-90.18,-27.787,2.553,0.625,-0.234,-98.96,-23.981,2.293,0.484,-0.08,-113.837,-29.934,3.718,1.752,0.09,-101.427,-48.301,-8.795,2.995,0.31,-59.281,-25.563,0.163,-4.949,-2.594],[-80.921,-54.358,6.529,3.14,0.735,-165.306,-53.601,8.922,2.956,0.476,-92.704,-66.352,7.22,2.183,1.058,-111.822,-61.356,1.248,4.347,-0.83,-119.662,-50.184,-14.7,5.731,5.308,-82.563,-39.736,-27.012,2.77,2.38]],
"kep": [[1.98,-0.009,2.391,0.549,1.535,-0.957,2.315,3.47,0.648,2.838,2.873,1.975,2.525,-2.265,0.58,0.809,5.494,0.696,2.175,2.671,3.512,6.273,-2.074,6.422,11.635,19.216,14.433,5.714,-1.559,16.177],[3.156,3.677,2.129,1.786,1.743,5.39,4.576,2.761,1.911,1.555,12.106,3.635,2.003,2.864,1.707,-6.909,5.797,2.29,3.011,0.618,-14.493,5.897,1.125,-1.433,2.702,-25.667,8.193,6.903,3.847,-2.51],[-61.328,7.627,3.086,2.905,2.006,-56.482,7.341,3.65,2.631,2.613,-39.481,11.103,4.234,3.006,2.212,-67.51,9.81,3.6,2.581,1.577,-52.275,13.166,6.119,2.867,0.832,-67.257,-27.045,13.173,-6.368,0.091],[-94.365,15.275,5.48,4.172,3.299,-91.201,16.301,5.903,3.966,3.154,-83.401,11.191,5.657,3.845,3.345,-95.293,0.701,9.185,7.78,4.068,-75.127,-36.403,24.46,3.349,4.058,-68.794,-45.55,9.947,5.715,4.218],[-95.761,-44.376,10.28,6.317,4.811,-95.421,-30.591,9.567,6.353,4.748,-100.296,-16.211,8.233,5.877,4.719,-102.223,-23.35,26.566,8.985,4.944,-97.974,-56.892,38.558,16.037,6.664,-85.513,-65.334,-12.726,21.291,2.739],[-92.661,-59.252,21.953,10.908,6.031,-99.3,-56.69,21.287,10.859,5.886,-95.485,-69.085,16.364,9.258,6.957,-99.084,-64.205,18.4,13.934,5.197,-96.729,-62.444,-9.645,26.944,12.856,-91.629,-73.201,-39.336,-2.363,20.661]],
"vp": [[-7.465,112.461,13.92,92.32,91.785,33.156,22.584,-4.182,37.716,6.076,7.649,3.768,-4.614,25.716,9.643,-3.372,-12.312,-1.322,-4.272,-2.436,-3.733,-14.023,-5.175,-9.735,-10.548,-16.347,-4.353,-7.716,-5.509,-10.809],[128.477,-35.718,197.818,195.9,167.379,40.336,10.37,24.849,41.621,51.127,-20.952,16.617,16.195,-4.09,24.054,10.47,-10.207,4.716,-6.315,13,-1.623,-0.414,0.707,7.807,-5.406,-50.719,-4.204,-23.922,-14.361,-2.276],[5633.348,-66.54,82.238,278.406,349.71,956.973,-84.616,10.789,39.492,28.06,468.573,-29.736,17.981,1.624,14.109,114.797,-1.5,1.83,10.05,15.004,10.519,17.174,-3.215,0.017,3.418,23.009,-2.526,4.942,5.857,-3.355],[8686.469,-856.727,-107.884,-116.731,214.713,1650.064,-152.86,-43.184,-28.527,17.099,801.964,-110.525,-16.871,-2.71,29.128,206.31,51.914,-26.214,-21.673,-0.528,52.07,51.783,-4.768,-1.836,4.104,26.246,5.223,-21.494,3.224,0.333],[9057.485,7664.614,-1088.471,-398.195,-120.153,1810.085,1100.515,-164.18,-75.213,-28.467,1010.933,483.376,-86.248,-37.276,-21.331,235.216,119.873,-22.716,-17.578,-5.594,96.646,98.069,27.24,-13.607,-4.458,30.379,22.445,-2.276,11.933,8.403],[8128.154,10877.444,-1955.336,-1370.629,-544.689,1988.346,2166.784,-535.66,-268.038,-84.185,957.988,1335.898,-225.192,-105.205,-70.381,226.429,247.295,-10.065,-37.979,4.577,120.497,96.236,42.954,-25.038,-30.623,40.159,36.728,41.013,-8.588,-6.897]]
}