{
"KTrans": [[25.909,13.576,12.384,17.891,16.719,13.324,11.367,14.947,11.309,12.862,10.446,16.99,16.969,15.444,12.614,37.251,30.48,23.32,24.986,30.526,58.83,57.612,37.782,51.587,42.459,12.512,100.759,105.261,98.698,90.873],[-43.212,-3.558,1.285,6.387,6.263,-43.059,-7.455,4.742,7.776,5.454,-39.441,-0.421,-2.524,6.158,12.206,-30.255,-0.064,6.127,8.219,11.886,-13.566,27.046,18.537,22.954,20.166,-16.59,28.116,34.348,31.602,29.873],[-71.805,-22.465,-10.625,-5.565,-0.241,-76.331,-27.132,-9.346,-3.62,0.246,-72.388,-22.411,-8.087,-3.185,1.236,-63.947,-22.118,-7.802,0.644,-0.897,-53.417,-14.723,-6.445,-1.279,2.582,-65.633,-2.333,13.682,18.746,11.663],[-81.914,-45.047,-24.762,-14.799,-6.79,-84.023,-43.352,-25.568,-15.81,-8.888,-81.524,-42.23,-21.698,-13.735,-9.603,-74.133,-42.099,-22.455,-13.627,-2.902,-76.072,-36.863,-25.261,-10.267,-1.967,-73.642,-39.591,-14.447,-1.387,6.901],[-88.639,-58.419,-38.166,-24.219,-14.134,-89.887,-60.751,-36.639,-25.465,-17.584,-89.482,-56.308,-38.742,-25.111,-17.013,-81.983,-55.276,-40.249,-24.185,-12.011,-74.765,-56.321,-36.05,-22.29,-9.485,-89.958,-71.856,-23.35,-11.965,-11.464],[-90.715,-66.89,-50.043,-33.62,-23.397,-92.574,-66.314,-48.952,-31.269,-20.602,-89.342,-71.643,-42.647,-33.07,-22.705,-89.089,-67.08,-48.537,-32.287,-22.608,-82.805,-62.493,-49.74,-30.148,-18.693,-91.239,-62.202,-43.072,-26.415,-16.193]],
"ve": [[33.981,29.634,10.61,24.805,176.77,66.284,42.203,17.608,102.332,445.827,23.82,32.314,-222.253,161.185,8.57,17.912,-6.148,-64.74,33.686,-8.64,34.093,9.012,56.254,-53.366,-8.545,62.81,-35.833,6.882,-8.775,-14.17],[-16.703,-1.192,1.659,3.369,5.436,-31.997,-1.488,2.874,4.146,6.94,-26.656,1.15,1.71,3.345,5.321,2.534,6.041,5.608,7.48,8.38,30.371,22.68,12.341,15.68,14.402,62.445,20.12,-2.83,2.014,66.077],[-34.243,-8.562,-2.717,-1.814,0.288,-62.103,-8.311,-3.644,-1.493,0.588,-44.829,-5.908,-3.623,-0.959,2.066,-13.916,-0.933,-0.902,1.954,1.762,6.118,7.076,6.298,3.828,5.252,64.013,25.643,16.584,26.146,13.176],[-42.722,-18.552,-9.261,-5.21,-1.745,-14.038,-17.62,-8.983,-4.988,-3.265,123.83,-14.881,-6.662,-3.731,-2.898,-22.267,23.188,-4.465,-3.18,1.154,-12.832,14.904,-3.895,1.337,2.264,18.729,12.632,11.268,7.53,11.589],[-48.482,-26.189,-14.412,-9.495,-5.116,-61.423,-25.437,-14,-9.691,-5.744,-50.939,-23.427,-13.95,-9.055,-5.659,-83.295,-20.334,-14.002,-6.501,-2.042,-1.74,-12.982,-13.044,-4.776,1.696,-10.654,-5.878,7.293,16.658,3.225],[-47.917,-31.277,-20.761,-12.718,-8.79,-31.493,-31.936,-18.248,-11.188,-7.143,-47.244,-32.469,-18.237,-13.366,-7.98,-39.782,-65.909,-17.789,-10.109,-6.867,-11.406,-14.743,-12.905,-4.839,-3.698,-19.311,0.632,-3.87,-4.966,3.043]],
"kep": [[-12.122,-20.073,-23.127,-21.778,-21.637,-18.559,-22.921,-18.161,-28.766,-34.232,-21.601,-16.453,-21.205,-25.286,-32.087,-21.438,-17.566,-18.963,-21.508,-12.914,-27.641,-12.435,-21.827,0.393,-12.045,4.599,-30.396,-7.484,6.307,6.665],[-52.813,-25.944,-23.433,-20.718,-22.231,-55.311,-28.059,-21.633,-20.406,-23.706,-52.623,-24.889,-26.347,-20.691,-17.827,-56.439,-28.539,-23.502,-22.649,-20.062,-62.5,-21.992,-21.033,-17.954,-18.282,-60.611,-42.345,-29.345,-23.162,-23.402],[-74.749,-36.62,-29.817,-26.371,-23.646,-78.521,-40.063,-28.307,-25.1,-23.605,-77.285,-38.496,-27.224,-25.09,-23.901,-75.546,-41.553,-29.479,-24.718,-25.626,-74.686,-45.184,-35.599,-28.838,-26.475,-67.819,-54.952,-36.213,-26.729,-27.631],[-84.005,-50.906,-37.343,-31.225,-27.414,-84.101,-48.877,-38.041,-32.222,-27.892,-82.831,-49.655,-36.331,-31.638,-28.766,-81.711,-53.006,-39.285,-32.357,-26.711,-78.17,-58.591,-42.588,-33.697,-27.713,-76.671,-63.041,-50.654,-36.673,-29.46],[-90.673,-59.078,-45.373,-36.298,-30.781,-91.021,-61.461,-44.201,-37.212,-33.089,-89.604,-57.956,-46.185,-37.089,-32.749,-85.574,-61.802,-48.313,-38.381,-31.454,-82.681,-70.056,-50.289,-40.221,-32.903,-81.339,-70.89,-53.902,-43.516,-38.175],[-90.92,-65.683,-53.556,-42.274,-35.855,-93.914,-64.149,-53.773,-41.151,-34.74,-91.479,-70.386,-47.427,-41.53,-35.833,-90.534,-70.764,-53.155,-42.952,-36.741,-88.537,-71.878,-59.071,-45.396,-36.337,-85.801,-71.273,-67.313,-49.199,-41.076]],
"vp": [[-251.207,-352.883,-563.073,-970.838,-505.554,-13.295,-35.739,-49.527,-98.168,-56.001,1.768,-37.896,-45.426,-42.597,-39.584,-11.015,-13.553,5.094,-12.433,-21.753,-10.307,-12.793,-1.331,-24.593,-6.797,-14.719,-12.568,-16.804,-18.151,-16.988],[2752.083,94.979,-148.244,-504.329,-500.669,447.238,144.401,-64.696,-83.067,-49.721,207.593,-10.678,46.158,-50.216,-139.947,33.468,-0.991,-11.112,-2.168,-16.031,-13.327,-35.712,-11.155,-24.763,-20.006,-11.843,-4.497,-7.113,-6.107,-4.785],[5003.989,2124.275,773.36,590.082,372.483,1065.218,430.594,183.369,128.977,28.055,479.949,144.617,104.043,41.027,-33.008,84.624,22.659,26.708,2.642,27.264,24.924,10.046,7.822,15.875,19.035,19.507,-7.52,-14.609,-14.498,5.173],[5546.362,4669.34,2867.533,2048.966,787.671,1224.612,939.883,599.271,394.487,322.652,605.984,386.569,262.739,144.163,149.893,80.427,94.933,56.549,54.836,-0.402,47.629,33.561,38.049,15.513,9.374,12.937,8.033,7.613,6.459,-6.662],[7480.458,6241.469,5002.092,3898.763,2167.629,1484.954,1334.938,1006.179,815.999,538.933,695.371,638.612,531.737,386.588,306.298,93.717,126.754,131.902,74.078,35.669,21.738,56.915,46.334,48.563,4.405,34.144,37.193,8.262,5.747,21.945],[6594.239,7866.787,7630.798,5536.526,4248.557,1573.065,1578.04,1301.363,949.015,718.311,659.088,874.395,662.238,584.88,387.295,132.256,163.186,152.14,110.629,97.835,40.536,56.131,73.455,39.953,38.961,42.057,22.622,32.312,26.284,13.712]]
}