{
"KTrans": [[0.291,-0.329,0.39,0.926,-1.166,6.439,13.061,11.097,10.619,9.232,-0.66,22.791,24.049,21.258,21.885,1.863,47.459,81.012,87.335,87.74,95.841,33.639,75.152,90.817,103.919,194.628,92.522,21.421,0.072,57.326],[-2.547,1.423,0.314,0.907,0.11,6.766,6.163,1.467,4.74,4.919,24.062,15.554,1.931,8.842,9.144,-25.344,12.733,-3.079,23.409,32.582,-16.457,-24.127,31.756,12.944,42.881,104.796,10.297,-32.341,32.797,-6.272],[4.965,3.217,-0.205,0.473,0.541,5.494,4.355,4.634,5.319,1.124,-4.67,13.703,8.173,8.893,0.565,12.327,40.961,-0.607,7.333,15.217,2.141,93.366,-41.39,14.059,37.451,16.229,51.944,94.484,6.213,39.115],[-20.475,1.552,1.9,1.922,1.127,-14.826,-1.099,5.037,4.124,3.227,8.662,6.987,6.41,7.496,7.409,-13.61,0.59,16.067,31.113,3.427,-25.826,-26.6,20.112,13.744,-20.858,34.974,-70.797,-10.958,2.104,20.385],[-38.152,-3.369,0.161,3.715,1.31,-39.549,9.964,8.266,4.356,4.52,-43.171,8.781,11.013,4.763,5.275,-35.129,13.442,42.855,42.826,26.469,-52.321,-22.343,-38.21,-7.896,40.622,-10.645,-57.245,1.633,5.831,33.002],[-58.698,0.616,4.145,2.004,2.983,-61.691,14.2,3.016,2.637,2.428,-51.648,5.876,14.321,6.037,5.629,-46.234,-16.107,20.252,33.248,21.094,-74.543,-20.455,-21.441,-67.398,44.485,-45.11,-61.347,14.129,6.267,-82.497]],
"ve": [[0.685,7.497,-169.458,8.649,6.443,3.503,19.881,40.172,135.292,41.142,9.385,18.481,1356.612,-5.603,68.737,47.705,36.884,12.256,-170.716,-65.185,95.611,28.793,-22.385,-30.939,-55.08,192.812,85.853,31.781,2.54,-16.852],[-0.383,-0.018,-0.497,0.982,0.477,3.991,2.118,0.509,3.62,2.831,6.334,3.054,1.403,7.254,5.837,52.333,24.986,15.905,-2.124,17.085,103.521,48.317,32.677,18.718,-9.099,187.075,102.427,65.878,43.773,26.436],[0.76,0.555,0.294,-0.147,7.664,3.914,2.233,1.44,1.221,0.91,11.729,4.732,3.304,2.263,1.792,49.699,26.223,17.846,13.827,9.467,97.926,48.208,34.912,26.068,18.756,189.244,97.884,63.105,48.415,39.759],[0.542,0.229,0.668,0.195,0.265,3.612,1.765,1.714,1.304,1.053,8.669,4.586,3.201,2.603,2.335,48.812,24.545,16.817,10.396,11.244,97.99,71.396,34.328,26.026,20.487,190.192,91.738,65.54,50.807,41.4],[-2.83,0.089,0.192,0.779,0.242,3.41,2.431,1.92,1.451,1.339,9.758,4.358,3.726,2.195,2.109,48.463,25.911,18.51,11,0.96,98.644,50.316,33.844,27.067,20.351,192.796,103.215,66.226,49.43,41.596],[0.37,-0.197,0.402,0.304,0.394,3.187,2.771,1.571,1.092,0.953,7.031,3.157,3.494,2.416,2.037,47.577,24.734,16.299,11.744,9.055,97.258,49.545,37.374,23.709,19.599,191.229,99.679,65.982,50.628,42.034]],
"kep": [[-115.814,4.893,-0.605,2.201,6.5,-107.716,-29.594,-13.615,-13.677,-14.268,-148.591,-38.565,-37.864,-30.231,-34.179,27.488,-225.735,-194.098,-154.421,-207.117,115.717,-340.336,-347.973,-393.857,-417.507,98.21,119.145,-461.618,-629.805,-674.045],[-3.912,3.418,-131.417,2.776,2.033,-1.128,7.8,-139.062,-16.317,-10.359,6.541,19.856,-127.23,-29.838,-19.016,-51.524,-7.963,-41.849,-154.916,-97.329,-47.874,-45.793,114.953,-245.615,-176.231,-18.353,-9.161,-1.597,36.181,-317.627],[-3.542,2.462,-0.667,-1.494,-130.827,-6.814,2.059,5.372,19.783,-124.404,-24.871,9.226,11.248,25.295,-141.999,-31.938,2.752,-31.319,-12.733,102.804,-43.852,21.054,-62.689,13.918,154.116,-51.279,-21.021,30.376,3.76,103.002],[-29.847,0.26,1.437,2.114,3.572,-29.343,-4.734,4.586,5.338,6.725,-20.495,-0.792,3.414,8.586,16.903,-50.087,-25.58,-7.946,12.645,-24.356,-56.859,-46.428,-13.259,-19.223,-53.235,-54.223,-61.719,-42.29,-16.618,2.804],[-50.411,-7.173,0.747,5.299,3.366,-56.36,2.531,6.128,5.38,6.98,-57.855,-0.254,7.154,3,7.124,-60.832,-22.499,13.836,26.813,15.39,-69.422,-45.062,-52.941,-35.977,20.258,-66.19,-66.695,-33.748,-24.707,5.484],[-67.316,-4.712,2.204,1.434,3.629,-73.908,3.164,-1.405,1.28,2.317,-65.345,-7.508,8.673,2.429,5.841,-66.504,-36.512,-4.887,17.511,9.527,-81.063,-46.33,-42.004,-79.237,17.565,-75.786,-66.978,-31.709,-34.73,-75.496]],
"vp": [[31.098,0.275,-64.733,-108.074,-86.027,-27.405,-7.972,27.464,-15.839,-42.243,-20.514,-32.006,0.853,-14.004,-11.719,-26.019,-0.329,-2.722,-36.178,3.706,-42.328,-25.175,-14.528,9.729,11.378,-58.285,-17.556,-26.925,-6.235,-4.166],[543.371,71.9,25.235,-28.213,-142.818,120.477,13.798,-28.774,-6.908,-24.432,55.546,3.272,-23.043,-17.259,-13.192,-3.427,-35.366,-50.172,-23.56,-11.532,-51.131,-53.247,-40.107,-11.922,-22.088,-62.309,-29.011,-29.29,-27.611,-3.461],[2056.811,781.2,203.855,118.884,-61.576,300.185,92.342,17.831,10.935,-14.363,236.206,65.461,-35.178,9.741,-14.276,-20.129,4.48,-0.286,6.916,-37.977,-28.043,-51.04,-43.604,-42.42,-44.609,-46.823,-64.17,-63.854,-40.719,-51.622],[2850.413,953.184,474.553,479.011,150.436,522.08,176.773,125.221,89.22,79.998,408.837,66.038,8.408,-0.476,26.872,10.175,-2.619,-11.022,29.186,-1.25,-25.623,-35.998,-47.575,-26.662,-36.766,-49.177,-9.206,-31.373,-60.464,-59.218],[3868.97,1184.476,824.456,760.661,398.934,892.317,367.567,304.273,89.955,114.291,353.094,92.205,113.946,29.29,12.576,21.74,26.398,31.312,33.124,25.777,-23.394,-3.551,-27.218,-8.274,-42.54,-48.214,-11.507,-36.706,-60.711,-14.23],[5053.57,3019.886,1733.025,1142.896,1070.512,962.733,591.886,255.567,178.858,228.451,366.963,173.504,189.555,48.462,73.638,34.538,-5.843,-3.441,-12.658,-7.853,4.173,-20.983,-37.952,-7.031,-23.355,-43.477,-26.008,-45.416,-30.958,-39.095]]
}