{
"KTrans": [[-30.746,21.255,22.083,23.286,42.845,-40.149,36.584,28.634,27.848,39.097,-19.737,37.805,49.757,43.122,48.471,36.545,128.387,109.473,113.964,111.848,239.455,287.615,246.049,194.843,191.325,685.881,704.588,559.696,458.932,430.274],[-94.436,14.704,51.963,42.487,36.021,-94.672,29.461,49.949,65.395,36.953,-94.439,19.657,74.948,54.864,40.465,-56.104,91.643,146.83,104.073,69.244,-48.677,153.054,185.851,153.725,120.944,-1.788,363.235,373.697,281.064,226.778],[-98.84,-52.022,60.048,74.379,58.492,-106.71,-28.305,58.488,83.753,57.025,-102.387,-35.502,86.212,76.008,75.317,-115.223,-40.101,103.436,121.01,110.289,-108.848,33.675,211.386,162.643,149.498,-83.195,46.631,366.497,317.227,241.291],[-106.925,-90.883,-43.401,90.191,78.326,-105.652,-95.8,20.569,77.289,99.428,-101.492,-98.394,-5.006,68.38,131.054,-105.456,-67.525,22.073,120.283,111.033,-98.043,-72.112,80.59,222.234,169.163,-119.147,-89.654,124.146,348.965,301.832],[-102.603,-103.777,-59.854,86.879,120.339,-104.893,-118.59,-55.395,44.708,132.351,-99.947,-111.014,-42.512,68.738,92.705,-110.656,-97.968,-54.31,79.449,180.35,-121.058,-113.022,-60.53,128.652,191.451,-110.582,-103.676,25.495,221.557,305.606],[-105.824,-115.7,-101.556,16.944,109.003,-110.441,-130.194,-84.618,46.37,101.26,-99.692,-120.476,-111.047,-34.402,107.227,-104.491,-112.69,-116.406,13.136,113.026,-105.116,-133.818,-106.783,89.163,213.968,-101.112,-133.698,-113.649,101.404,243.339]],
"ve": [[23.856,-44.027,-24.309,-29.024,-17.762,15.371,-170.225,35.812,-120.489,353.174,73.201,10.956,9.695,4.3,2.217,62.92,32.053,18.553,-8.303,-9.14,173.51,45.218,20.52,-2.041,-14.919,230.05,91.236,40.95,14.023,-2.707],[22.299,5.471,4.347,3.418,3.119,46.106,-9.931,9.288,0.316,4.914,57.246,9.914,8.574,6.752,3.233,52.801,30.447,18.861,13.503,8.807,44.716,58.484,33.863,22.476,13.476,210.933,98.49,64.479,44.703,29.875],[23.401,11.998,6.744,7.028,2.98,-3.194,10.551,5.541,6.077,3.683,46.393,3.452,9.748,6.688,6.501,48.207,39.984,19.863,16.35,11.077,80.714,52.27,38.97,26.101,21.267,212.922,105.637,65.851,51.982,37.54],[22.142,-4.124,15.014,3.138,2.125,-172.593,6.555,8.528,3.984,3.078,-16.928,1.722,6.358,5.343,6.534,76.153,22.268,16.04,15.742,11.339,95.518,62.836,36.274,27.568,19.437,193.894,86.637,65.769,52.7,42.006],[29.378,-0.559,9.331,7.974,3.36,17.233,41.383,7.612,5.669,6.44,31.791,7.862,8.612,8.044,3.523,58.971,32.786,27.24,15.822,14.722,85.578,46.127,50.928,25.027,26.11,198.264,110.76,75.04,51.285,40.211],[15.329,5.246,2.081,4.977,3.725,-6.859,0.286,-2.294,9.554,5.008,7.416,11.587,8.424,0.044,12.704,63.959,26.373,20.111,15.947,14.183,100.268,51.942,31.651,28.935,22.726,217.624,93.264,66.163,47.284,44.411]],
"kep": [[-56.979,16.004,14.468,30.448,67.552,-69.166,17.192,20.689,23.786,63.478,-47.684,18.049,59.322,44.981,70.78,-22.074,86.495,103.17,140.71,176.262,60.618,177.253,198.761,207.563,239.25,151.971,325.203,373.401,395.348,454.119],[-98.417,-4.42,39.277,34.84,31.354,-98.981,9.532,39.591,55.702,32.343,-96.115,1.885,59.375,42.203,35.876,-77.027,42.591,103.003,76.742,53.797,-79.073,57.655,108.767,102.386,89.94,-71.376,128.487,180.122,157.57,146.013],[-101.203,-61.055,43.862,58.742,48.021,-106.788,-42.94,42.812,66.217,46.254,-102.994,-50.672,62.789,60.183,60.065,-110.138,-58.349,63.769,84.213,82.663,-104.342,-18.855,116.817,100.552,98.515,-94.643,-34.572,170.082,167.42,140.981],[-106.252,-93.832,-49.596,73.972,65.509,-106.421,-95.905,1.307,60.898,85.401,-101.931,-100.198,-17.756,49.154,108.407,-103.818,-75.937,-5.313,80.246,78.045,-100.059,-83.678,25.566,139.766,115.8,-107.292,-97.614,26.354,181.288,173.844],[-102.928,-103.348,-63.008,65.708,101.079,-104.228,-114.654,-64.228,30.117,105.85,-102.249,-108.198,-52.625,45.802,72.53,-107.721,-100.311,-65.635,48.005,133.504,-110.146,-106.181,-73.195,71.845,124.837,-102.657,-98.163,-30.512,104.251,173.033],[-106.055,-113.576,-101.353,2.119,88.256,-108.629,-126.986,-90.331,25.043,79.179,-100.158,-115.483,-110.95,-42.404,82.813,-102.746,-107.577,-110.362,-7.415,76.866,-103.192,-120.32,-103.496,37.157,140.525,-100.953,-116.708,-105.598,25.082,129.005]],
"vp": [[0.001,0.001,0.001,0.001,0.001,0.005,0.005,0.005,0.005,0.005,0.01,0.01,0.01,0.01,0.01,0.05,0.05,0.05,0.05,0.05,0.1,0.1,0.1,0.1,0.1,0.2,0.2,0.2,0.2,0.2],[0.001,0.001,0.001,0.001,0.001,0.005,0.005,0.005,0.005,0.005,0.01,0.01,0.01,0.01,0.01,0.05,0.05,0.05,0.05,0.05,0.1,0.1,0.1,0.1,0.1,0.2,0.2,0.2,0.2,0.2],[0.001,0.001,0.001,0.001,0.001,0.005,0.005,0.005,0.005,0.005,0.01,0.01,0.01,0.01,0.01,0.05,0.05,0.05,0.05,0.05,0.1,0.1,0.1,0.1,0.1,0.2,0.2,0.2,0.2,0.2],[0.001,0.001,0.001,0.001,0.001,0.005,0.005,0.005,0.005,0.005,0.01,0.01,0.01,0.01,0.01,0.05,0.05,0.05,0.05,0.05,0.1,0.1,0.1,0.1,0.1,0.2,0.2,0.2,0.2,0.2],[0.001,0.001,0.001,0.001,0.001,0.005,0.005,0.005,0.005,0.005,0.01,0.01,0.01,0.01,0.01,0.05,0.05,0.05,0.05,0.05,0.1,0.1,0.1,0.1,0.1,0.2,0.2,0.2,0.2,0.2],[0.001,0.001,0.001,0.001,0.001,0.005,0.005,0.005,0.005,0.005,0.01,0.01,0.01,0.01,0.01,0.05,0.05,0.05,0.05,0.05,0.1,0.1,0.1,0.1,0.1,0.2,0.2,0.2,0.2,0.2]]
}