{
"KTrans": [[9.837,14.843,9.7,15.112,11.06,9.355,8.948,15.453,7.99,11.231,1.921,15.206,13.973,13.184,13.622,16.963,27.776,23.975,25.053,23.023,51.757,39.198,39.056,33.086,30.201,97.994,89.171,72.196,52.594,78.16],[-44.074,-10.046,2.991,7.586,8.709,-43.164,0.794,1.742,8.427,8.084,-38.37,-6.631,2.962,6.116,6.451,-25.174,-8.789,7.141,9.681,14.414,-29.924,2.507,10.216,13.188,19.017,16.657,26.527,31.39,36.112,27.438],[-77.21,-29.876,-8.93,-3.77,1.346,-75.549,-24.922,-12.229,-4.376,-0.136,-74.052,-24.769,-11.222,-7.019,0.185,-63.881,-24.891,-9.394,1.154,2.735,-57.135,-21.147,-7.027,3.587,5.557,-68.235,-14.643,4.311,9.791,13.031],[-85.988,-45.728,-24.035,-13.659,-6.505,-85.536,-43.803,-22.761,-12.063,-7.464,-84.811,-44.216,-23.103,-11.631,-7.68,-80.348,-44.94,-20.691,-10.474,-6.249,-72.035,-44.157,-24.08,-13.604,-2.244,-68.476,-44.034,-19.949,-3.184,3.913],[-91.696,-57.774,-38.504,-24.272,-13.171,-87.894,-60.387,-36.639,-23.465,-15.739,-88.761,-61.409,-36.725,-23.088,-14.951,-86.737,-59.061,-36.062,-22.754,-15.01,-80.33,-52.805,-35.292,-20.839,-13.566,-73.676,-51.044,-35.256,-18.953,-8.315],[-94.107,-67.322,-50.83,-33.423,-24.187,-93.232,-69.462,-48.72,-32.463,-24.312,-91.662,-66.042,-50.072,-35.244,-24.398,-88.435,-67.688,-50.243,-29.629,-23.728,-84.188,-64.987,-46.622,-33.81,-22.485,-80.561,-66.906,-51.074,-25.585,-19.767]],
"ve": [[-3.333,55.448,87.455,63.715,-27.688,-126.395,17.81,36.183,226.635,-35.709,7.892,100.977,-0.586,38.233,31.11,-12.885,15.197,32.975,2.369,17.772,3.323,-256.945,-156.603,7.099,259.602,17.984,-5.571,0.515,-677.146,-51.473],[-22.971,-4.424,1.766,3.69,5.117,-9.553,1.525,2.849,3.66,5.964,-54.812,-1.915,1.798,4.55,5.175,-3.061,0.396,4.999,6.518,8.097,21.329,9.386,9.805,10.564,10.674,64.398,27.69,22.782,19.823,16.737],[74.994,-10.396,-3.943,-1.692,0.159,-42.493,-8.598,-4.687,-0.165,0.23,-37.523,-7.258,-3.336,-1.391,1.068,-18.568,-5.521,-0.179,1.714,2.835,-1.748,-1.736,3.285,5.622,4.531,-10.445,19.39,15.016,11.176,10.548],[7.679,-18.983,-7.521,-5.329,-2.37,-42.685,-16.614,-8.668,-4.412,-2.099,-47.161,-14.811,-8.574,-3.116,-1.921,-41.928,-12.615,-3.4,-0.432,-0.453,-5.791,-4.601,-2.494,-0.682,2.472,53.273,6.69,5.555,8.318,8.401],[-53.593,-25.292,-14.634,-8.473,-4.873,-61.019,-26.335,-13.707,-8.572,-5.137,-73.729,-26.876,-13.54,-7.957,-4.572,-33.637,-21.767,-11.099,-5.865,-3.453,-10.727,-11.021,-6.289,-2.275,-1.142,18.164,-8.46,-1.869,2.77,4.244],[-42.783,-29.177,-20.984,-11.985,-8.795,-65.457,-31.547,-20.261,-11.276,-8.521,20.282,-29.45,-20.381,-13.007,-8.262,-35.206,-26.238,-18.113,-7.911,-6.721,-17.636,-66.333,-12.633,-8.19,-5.351,5.594,-8.156,-7.42,4.885,0.543]],
"kep": [[-22.108,-18.406,-29.032,-25.944,-35.496,-24.782,-23.973,-21.805,-38.664,-39.909,-27.986,-19.759,-24.316,-27.264,-30.25,-30.574,-16.071,-17.844,-14.552,-25.981,-26.886,-17.434,-13.368,-17.402,-19.18,-38.551,-9.162,-7.792,-16.3,17.636],[-51.171,-28.998,-22.949,-20.609,-20.478,-54.215,-25.537,-24.393,-20.159,-21.799,-52.719,-28.12,-22.774,-22.379,-22.307,-50.351,-32.116,-22.315,-21.396,-18.99,-61.468,-31.177,-24.297,-22.124,-17.782,-59.44,-33.098,-20.718,-14.029,-16.48],[-78.91,-41.201,-28.252,-25.38,-22.739,-76.842,-38.589,-30.133,-27.008,-23.984,-79.037,-39.918,-30.36,-28.183,-24.4,-74.047,-40.547,-31.688,-24.524,-23.935,-76.23,-43.007,-32.576,-25.767,-23.527,-85.563,-50.82,-33.841,-26.992,-23.754],[-86.466,-50.678,-37.85,-30.708,-26.997,-85.974,-50.019,-36.022,-30.006,-28,-85.63,-51.049,-36.36,-30.706,-28.231,-85.5,-54.209,-38.137,-31.671,-28.397,-83.763,-57.541,-41.933,-34.51,-27.802,-86.434,-63.76,-45.641,-34.43,-28.262],[-89.967,-58.651,-45.465,-37.139,-30.591,-87.296,-61.171,-45.123,-36.386,-32.347,-89.438,-61.249,-45.084,-36.624,-32.133,-88.959,-63.379,-46.227,-37.692,-33.105,-87.967,-63.84,-48.579,-39.044,-33.761,-87.42,-68.992,-54.596,-42.019,-34.515],[-94.378,-67.33,-53.409,-42.547,-36.769,-92.849,-67.666,-52.141,-42.485,-37.132,-91.911,-65.486,-53.235,-43.632,-37.298,-90.961,-67.745,-54.642,-42.159,-37.959,-90.171,-70.162,-55.361,-45.815,-38.119,-89.257,-77.782,-62.165,-47.934,-40.29]],
"vp": [[-283.772,-306.037,-245.303,-534.492,-141.885,-29.169,-74.191,-77.709,-35.867,-106.14,45.128,-40.028,-36.286,-6.351,-41.317,6.434,-15.204,-9.947,-7.396,-10.444,-9.737,0.365,-4.829,-4.013,4.566,-3.832,-12.452,-4.626,4.196,-11.335],[2632.04,969.203,-313.678,-742.485,-773.786,507.085,-18.531,-51.996,-143.278,-147.421,236.102,43.857,-36.222,-41.233,-9.306,15.694,31.035,-4.54,-9.655,-26.192,20.826,7.899,-1.97,-5.468,-14.356,-19.937,-8.265,-8.338,-16.785,-4.387],[5518.094,2397.308,939.455,727.097,26.681,1073.688,357.199,256.48,49.589,23.418,543.049,172.534,118.092,115.092,-14.374,76.751,49.161,23.832,-0.623,-2.317,23.62,16.553,13.392,-1.013,0.321,41.357,4.714,-0.038,0.318,-0.467],[6690.183,4552.78,2511.096,1880.57,984.483,1317.634,821.472,484.788,284.929,188.383,650.312,401.047,295.33,88.779,118.608,115.33,91.136,32.769,19.68,30.409,38.852,35.961,31.07,30.524,8.348,21.712,27.455,17.566,6.413,-0.406],[8069.054,6224.186,5139.801,3528.047,2057.165,1432.314,1332.058,940.887,662.059,494.668,677.895,680.889,443.928,344.999,221.088,129.338,140.542,104.81,65.519,56.036,49.661,56.354,43.456,32.905,26.862,15.955,33.094,30.72,17.594,12.26],[8165.217,7658.39,7281.26,5089.142,4397.173,1609.645,1611.97,1475.548,970.431,883.604,707.257,765.961,751.052,600.596,450.159,122.542,157.858,147.099,82.561,87.431,56.123,74.964,72.816,62.728,51.565,24.675,41.05,48.475,9.195,22.604]]
}