{
"KTrans": [[46.494,26.089,31.596,14.871,31.384,64.24,45.506,27.021,20.583,31.674,85.433,59.777,50.419,44.844,40.683,217.758,142.745,108.122,100.378,98.142,579.642,306.692,242.06,211.683,185.204,1459.528,718.345,537.768,460.851,436.784],[-66.773,76.866,48.814,33.138,45.054,-70.442,98.355,48.254,35.834,41.989,-83.511,102.794,39.84,42.996,37.636,-2.005,184.395,99.967,95.822,72.466,10.306,305.322,168.394,138.962,117.077,153.705,583.445,362.689,276.336,193.147],[-123.76,55.667,80.942,65.512,51.076,-111.593,39.198,113.346,76.009,63.411,-125.251,68.429,148.228,75.214,33.284,-115.609,154.791,172.162,107.589,92.756,-124.749,341.78,266.092,163.905,119.507,-56.226,600.396,495.462,292.021,221.956],[-116.044,-64.755,169.813,112.08,78.689,-98.363,-154.668,142.909,130.37,58.671,-115.952,-104.76,192.6,140.649,75.386,-112.795,-145.185,208.717,180.867,132.129,-140.726,-117.469,357.427,228.613,142.62,-139.396,-80.125,620.642,391.942,242.649],[-118.658,-128.284,65.796,201.064,129.768,-116.621,-149.406,1.677,166.481,131.603,-119.27,-166.248,-2.044,204.166,131.33,-115.962,-176.526,1.703,295.322,203.503,-150.447,-243.953,70.703,305.226,194.898,-128.23,-319.166,207.603,501.337,351.661],[-111.888,-145.515,-117.491,150.902,205.011,-112.087,-147.715,-186.428,184.114,197.496,-107.036,-150.268,-105.435,196.168,217.365,-121.804,-165.808,-82.898,299.289,242.078,-103.607,-210.821,-122.214,333.911,288.837,-179.467,-324.463,-124.216,547.175,479.906]],
"ve": [[12.73,11.684,-51.254,-150.55,-55.14,11.437,7.499,10.314,14.851,27.591,20.926,3.52,9.99,17.59,2.598,49.043,14.674,-0.578,-11.314,-19.031,98.638,35.287,10.575,-5.089,-17.618,197.081,82.53,35.212,11.774,-4.985],[2.24,3.864,1.414,1.081,2.21,11.2,5.056,1.726,1.81,2.12,10.527,7.383,0.385,4.074,1.691,-4.359,26.44,15.228,11.481,7.04,100.257,49.344,30.344,20.389,12.781,203.309,96.531,61.931,43.522,27.558],[4.443,3.79,-0.191,2.95,1.131,4.453,4.157,3.966,4.209,3.447,-9.224,5.552,9.081,3.757,-0.066,64.503,27.547,17.651,13.855,10.749,111.28,53.569,33.298,25.28,17.11,207.663,95.875,68.768,50.494,38.843],[17.204,5.752,5.277,5.024,2.48,-1.562,8.235,3.323,5.945,0.26,19.108,14.471,8.392,4.886,3.772,49.344,26.212,22.123,15.225,12.758,107.452,53.217,37.724,27.171,19.214,200.844,126.205,69.066,52.768,38.181],[6.518,13.81,3.167,4.971,3.679,-8.575,6.574,0.868,3.609,5.476,16.759,8.187,10.798,5.901,5.125,0.226,26.081,6.42,18.61,14.473,100.101,51.41,34.804,23.362,20.345,205.192,102.845,62.02,50.998,42.734],[-2.55,2.819,3.521,0.734,2.649,12.909,7.418,9.046,61.502,3.594,-1.889,6.148,8.195,8.005,5.142,58.757,27.257,15.939,14.95,9.238,85.029,50.573,34.348,26.196,21.66,202.32,108.389,71.519,51.99,43.344]],
"kep": [[32.824,23.64,34.604,20.502,47.729,45.507,39.679,30.091,21.477,50.017,56.784,54.592,51.518,56.622,63.515,107.154,108.895,108.453,127.44,145.334,237.426,197.5,206.981,226.551,246.222,424.901,346.614,367.239,397.739,462.077],[-71.28,63.636,41.774,28.985,40.443,-75.281,79.712,39.748,29.686,38.089,-86.673,80.393,31.445,34.69,33.281,-39.691,116.3,66.652,71.231,57.972,-48.641,161.951,98.46,93,86.354,-14.08,236.578,177.895,156.493,123.919],[-119.821,38.575,68.845,54.773,43.403,-110.316,23.608,93.214,61.88,53.243,-119.789,49.462,119.095,61.051,26.562,-108.631,88.404,120.05,74.847,68.167,-109.803,178.039,159.817,103.794,79.465,-85.664,234.28,242.451,153.837,125.248],[-112.446,-68.556,142.456,94.109,66.058,-95.912,-147.875,120.117,107.605,48.857,-112.05,-104.894,154.933,117.133,60.081,-104.701,-131.224,144.478,131.56,97.573,-117.148,-108.029,218.619,145.619,93.019,-109.468,-87.698,309.092,210.644,136.749],[-116.063,-123.454,49.327,171.233,109.659,-113.768,-141.163,-8.326,140.318,110.203,-114.798,-154.443,-12.922,168.65,109.041,-107.785,-152.049,-19.115,218.351,154.311,-121.659,-185.663,19.15,200.922,132.01,-108.367,-200.336,76.883,277.7,204.149],[-109.878,-139.512,-114.647,128.17,177.31,-110.924,-139.589,-174.681,153.373,167.983,-104.72,-140.044,-101.93,159.669,182.975,-112.4,-146.76,-84.669,224.07,187.118,-100.06,-165.111,-111.971,219.543,200.974,-124.041,-204.994,-109.998,301.25,286.219]],
"vp": [[0.001,0.001,0.001,0.001,0.001,0.005,0.005,0.005,0.005,0.005,0.01,0.01,0.01,0.01,0.01,0.05,0.05,0.05,0.05,0.05,0.1,0.1,0.1,0.1,0.1,0.2,0.2,0.2,0.2,0.2],[0.001,0.001,0.001,0.001,0.001,0.005,0.005,0.005,0.005,0.005,0.01,0.01,0.01,0.01,0.01,0.05,0.05,0.05,0.05,0.05,0.1,0.1,0.1,0.1,0.1,0.2,0.2,0.2,0.2,0.2],[0.001,0.001,0.001,0.001,0.001,0.005,0.005,0.005,0.005,0.005,0.01,0.01,0.01,0.01,0.01,0.05,0.05,0.05,0.05,0.05,0.1,0.1,0.1,0.1,0.1,0.2,0.2,0.2,0.2,0.2],[0.001,0.001,0.001,0.001,0.001,0.005,0.005,0.005,0.005,0.005,0.01,0.01,0.01,0.01,0.01,0.05,0.05,0.05,0.05,0.05,0.1,0.1,0.1,0.1,0.1,0.2,0.2,0.2,0.2,0.2],[0.001,0.001,0.001,0.001,0.001,0.005,0.005,0.005,0.005,0.005,0.01,0.01,0.01,0.01,0.01,0.05,0.05,0.05,0.05,0.05,0.1,0.1,0.1,0.1,0.1,0.2,0.2,0.2,0.2,0.2],[0.001,0.001,0.001,0.001,0.001,0.005,0.005,0.005,0.005,0.005,0.01,0.01,0.01,0.01,0.01,0.05,0.05,0.05,0.05,0.05,0.1,0.1,0.1,0.1,0.1,0.2,0.2,0.2,0.2,0.2]]
}