{
"KTrans": [[0.454,10.084,14.226,12.018,16.304,13.806,23.61,20.414,20.251,14.199,-0.235,29.794,22.779,30.45,20.475,109.361,96.486,86.508,72.961,67.869,68.531,166.503,175.01,141.546,158.097,115.38,155.146,151.116,127.233,264.206],[-32.921,-6.607,3.29,4.493,9.361,-31.941,-7.373,3.906,2.895,8.393,-28.096,1.948,7.621,10.312,11.55,0.673,38.841,36.501,35.615,33.831,-1.964,48.537,83.513,66.303,67.049,-2.177,84.596,126.377,136.294,128.073],[-57.847,-15.511,-5.829,-1.625,1.68,-54.539,-14.804,-5.547,-1.695,4.189,-50.134,-6.383,0.015,2.155,4.259,-47.039,24.818,17.036,23.637,23.777,-21.022,44.017,57.423,46.118,46.717,4.18,16.159,122.482,91.869,93.907],[-72.163,-24.548,-16.357,-8.109,-5.288,-67.711,-23.991,-12.11,-6.782,-2.162,-68.543,-23.124,-9.587,-8.521,-2.527,-56.639,2.86,10.154,8.457,14.633,-38.893,17.174,43.376,29.524,31.974,-42.172,-2.143,58.412,68.985,66.121],[-76.55,-34.423,-24.4,-16.836,-11.445,-74.84,-32.265,-20.818,-14.31,-8.607,-77.371,-30.076,-8.043,-10.927,-6.083,-57.991,-13.547,-0.748,3.368,6.363,-78.387,-46.226,25.121,19.38,26.988,-56.631,-3.013,-0.959,50.164,69.943],[-83.012,-44.956,-28.47,-22.755,-15.507,-81.266,-45.74,-25.755,-19.128,-13.848,-80.759,-33.96,-25.866,-18.174,-12.776,-67.058,-26.885,-9.181,-2.984,-1.974,-77.015,-42.273,5.859,12.33,15.316,-66.685,-65.618,-30.134,38.372,53.247]],
"ve": [[-27.103,-4.594,-41.207,24.627,136.202,164.368,23.339,231.795,834.089,100.851,14.322,55.418,33.933,-65.813,-29.544,53.792,40.777,-179.003,241.825,47.042,97.103,36.757,21.86,12.905,0.894,180.657,65.895,41.844,14.97,-0.554],[11.213,3.018,0.881,7.228,8.695,-4.824,4.083,8.703,6.416,12.359,12.986,5.613,4.689,5.072,12.67,55.018,19.672,16.37,14.449,12.871,100.045,42.867,29.92,21.944,17.573,180.458,91.462,57.989,43.957,36.347],[-2.977,-1.959,-3.465,0.988,1.145,118.826,-0.074,0.163,0.321,1.677,28.704,1.729,1.784,1.792,4.004,53.459,21.299,13.674,10.123,8.902,90.332,55.054,30.514,18.748,15.806,126.813,74.006,62.026,40.406,35.759],[38.675,-1.328,-2.408,-2.39,-1.098,17.105,-0.374,-1.306,-0.191,-1.541,-15.804,-0.332,0.642,-0.804,-0.649,48,21.954,12.016,8.613,6.003,93.302,52.773,30.288,20.43,15.746,185.734,89.877,52.125,33.141,34.395],[4.095,-3.545,-2.698,-3.432,-2.715,13.925,0.04,-2.175,-3.2,-2.233,9.3,-0.929,-0.981,-2.5,-1.331,32.94,20.727,13.072,8.356,6.522,91.953,46.1,29.859,19.83,15.029,176.496,94.698,64.122,42.582,35.249],[20.62,-2.562,-3.525,-3.8,-4.775,-25.019,-0.898,-3.351,-2.988,-2.584,11.113,1.14,-2.027,-2.389,-1.188,47.344,21.738,11.293,7.598,4.298,94.623,39.755,28.375,18.207,15.625,213.483,92.748,56.375,44.415,32.766]],
"kep": [[-44.16,-38.503,-38.627,-53.76,-58.09,-34.209,-26.284,-33.471,-36.564,-51.849,-47.78,-21.406,-32.386,-30.499,-46.509,-1.384,7.733,12.171,4.547,5.882,-38.331,25.012,53.171,49.281,91.61,-30.656,-2.185,22.139,10.545,138.455],[-57.693,-37.049,-31.188,-33.907,-31.168,-59.354,-39.249,-35.058,-34.404,-34.298,-58.202,-34.318,-30.399,-29.282,-32.514,-55.023,-22.514,-21.599,-20.849,-20.75,-61.707,-31.769,-6.431,-9.27,-5.334,-69.087,-32.263,-7.536,9.206,12.65],[-73.766,-41.86,-34.964,-35.253,-33.33,-72.765,-42.797,-37.23,-34.7,-31.806,-72.663,-38.463,-34.325,-33.123,-33.38,-76.607,-31.986,-31.777,-25.542,-24.61,-71.714,-35.773,-20.711,-18.978,-16.397,-72.381,-57.56,-10.793,-13.155,-6.055],[-83.109,-48.495,-42.921,-37.567,-36.675,-81.654,-49.136,-40.388,-38.074,-34.382,-82.757,-48.164,-40.226,-38.968,-34.98,-80.127,-43.898,-34.79,-34.036,-28.618,-78.024,-46.044,-27.461,-29.197,-24.973,-82.751,-64.115,-33.627,-23.991,-18.834],[-86.475,-54.935,-48.206,-42.913,-39.86,-86.439,-54.502,-46.278,-41.338,-38.048,-87.013,-53.675,-38.048,-39.683,-37.069,-81.17,-52.571,-42.004,-37.167,-34.057,-90.227,-74.775,-37.099,-34.342,-27.441,-86.685,-64.315,-57.161,-32.18,-18.019],[-90.221,-62.553,-50.931,-46.921,-41.488,-88.956,-63.536,-49.431,-44.909,-41.621,-89.4,-56.973,-49.865,-44.696,-41.645,-85.068,-59.93,-45.851,-40.533,-38.108,-90.05,-72.529,-45.509,-37.671,-34.628,-90.103,-84.128,-67.512,-37.234,-24.995]],
"vp": [[-360.194,832.92,336.796,368.345,917.62,71.888,-119.172,192.978,-29.451,153.006,45.962,-23.554,-0.044,-3.153,32.324,-25.334,-24.43,-3.351,33.321,25.693,-5.311,-8.449,15.793,7.954,-9.41,-8.824,-16.347,-8.959,21.438,-23.642],[2640.939,1471.738,685.136,-335.392,-944.397,582.886,27.778,4.936,-225.369,-49.4,333.052,97.829,-21.94,-6.643,-28.699,40.273,11.639,-17.444,-24.533,-16.819,-4.485,-15.548,-6.678,-41.713,4.879,-14.174,-29.899,-39.427,-28.546,-11.734],[3735.207,3118.039,1236.988,617.114,-251.661,956.685,751.252,342.718,209.669,-6.334,522.639,325.73,265.49,194.227,-13.613,62.712,67.957,5.107,-2.947,-11.642,28.303,5.867,6.871,-33.589,-6.883,-27.667,-8.675,-18.503,-12.184,-20.27],[5122.941,5565.526,2996.53,2002.951,1253.891,1347.253,1218.52,708.336,490.074,273.384,494.392,495.171,366.226,135.278,118.531,108.751,111.054,45.713,31.41,21.735,38.467,20.271,39.049,-4.472,-23.183,7.581,-28.8,-35.666,-20.836,-39.587],[6672.787,8316.47,4630.019,3685.062,2698.51,1361.777,1525.862,1105.689,873.303,561.027,623.08,638.889,436.42,438.797,321.968,85.971,112.224,118.99,73.626,50.808,29.391,77.895,46.747,8.035,-11.33,0.281,-0.749,9.679,-39.74,-10.41],[6512.88,9571.116,7549.683,5254.376,4033.581,1288.023,1700.971,1738.563,813.406,864.225,718.792,930.361,789.327,486.822,438.556,116.027,128.962,144.248,94.755,23.275,73.06,33.606,56.373,15.837,21.344,17.886,-3.661,1.795,-15.081,-19.958]]
}