{
"KTrans": [[12.942,30.695,18.482,16.766,24.497,17.94,18.961,24.313,40.687,26.493,27.634,28.033,29.947,20.275,29.237,50.029,50.579,47.251,44.997,36.036,47.697,54.934,45.302,62.732,58.845,88.782,118.311,109.523,111.586,100.478],[-46.882,-9.719,1.582,9.533,13.174,-54.892,-15.264,2.044,14.333,16.222,-46.689,-7.424,5.289,12.244,12.833,-36.689,-1.262,8.335,16.933,18.853,-22.146,11.975,14.135,29.408,28.014,-7.128,13.834,26.295,43.231,38.303],[-74.742,-31.429,-8.522,-5.458,-1.069,-80.136,-30.993,-13.387,-10.869,-0.971,-76.161,-32.792,-15.795,-8.975,1.271,-64.907,-30.532,-12.715,0.797,5.407,-66.241,-33.194,-14.684,2.881,10.702,-52.023,-23.186,3.462,12.289,19.62],[-79.785,-49.363,-31.913,-17.878,-7.006,-83.682,-50.896,-31.537,-18.787,-11.066,-84.53,-49.608,-33.399,-20.126,-12.639,-78.406,-43.001,-32.039,-17.479,-6.742,-75.702,-51.208,-29.272,-16.219,-3.711,-69.574,-42.298,-22.244,-5.354,2.626],[-89.768,-62.047,-48.635,-32.267,-23.196,-90.376,-65.12,-41.812,-33.088,-22.789,-88.672,-66.883,-45.864,-29.411,-20.779,-83.359,-61.604,-47.666,-33.109,-21.821,-82.582,-57.038,-41.364,-30.33,-17.432,-73.307,-58.845,-35.959,-23.56,-9.95],[-90.104,-75.151,-60.044,-41.367,-32.069,-90.781,-72.896,-56.301,-42.876,-31.696,-93.276,-72.55,-55.385,-43.27,-32.111,-88.972,-72.009,-60.928,-41.36,-28.952,-84.536,-72.75,-56.223,-39.786,-29.067,-80.333,-64.388,-50.716,-35.924,-22.387]],
"ve": [[0.631,99.594,304.633,-84.153,-52.666,-11.007,-7.19,-2.802,13.771,-51.563,46.665,37.371,2115.027,-6107.56,751.488,42.812,66.862,45.15,-1995.106,-200.112,87.198,7.904,-43.405,-28.088,93.015,42.369,29.832,24.413,-23.803,-416.63],[-34.748,-1.543,6.644,5.611,14.971,-5.519,-1.737,7.477,7.756,13.116,-31.385,0.444,5.545,9.691,14.4,27.791,9.17,9.89,14.17,16.265,-9275.427,37.407,19.367,24.676,23.792,145.941,43.583,30.761,31.418,33.687],[-139.728,-6.756,-4.495,0.181,0.601,-24.79,-7.832,-5.731,0.391,3.17,-25.323,-5.955,-3.86,-1.244,1.708,-2.976,0.259,1.089,3.85,4.738,-6.871,14.44,6.501,8.641,9.763,99.599,27.256,22.047,16.012,20.319],[2.85,-13.801,-12.551,-6.487,-4.298,-38.101,-14.339,-10.97,-5.91,-4.104,-72.5,-14.68,-9.047,-6.74,-2.746,-0.296,-4.908,-6.406,-1.786,-0.227,-11.287,2.13,-0.163,2.651,4.252,12.01,15.534,15.247,16.582,12.924],[-60.33,-19.449,-17.45,-11.315,-8.276,-44.575,-14.819,-14.821,-10.726,-7.33,-47.215,-18.245,-14.614,-10.333,-7.969,5.093,-15.117,-11.155,-7.349,-3.886,-30.087,-16.221,-3.016,-1.995,-0.231,49.711,14.307,10.898,10.115,8.53],[80.717,-38.705,-22.28,-15.636,-12.861,-27.265,-19.205,-20.292,-15.26,-11.674,-113.338,0.788,-20.718,-14.754,-10.569,-182.504,-26.365,-18.844,-10.239,-7.244,-22.787,101.139,-10.516,-7.152,-4.341,-155.385,16.411,4.273,4.328,4.96]],
"kep": [[-44.532,-31.297,-52.368,-66.989,-64.297,-45.249,-41.974,-47.967,-29.724,-59.052,-38.992,-34.458,-37.85,-59.87,-53.876,-33.253,-24.073,-32.07,-35.272,-52.971,-48.776,-35.628,-42.688,-23.84,-34.839,-53.393,-24.183,-21.564,-5.231,-17.417],[-70.571,-44.823,-41.974,-36.954,-38.873,-75.565,-47.93,-40.785,-35.53,-37.017,-69.053,-45.005,-39.372,-37.729,-38.991,-68.294,-45.284,-40.572,-37.708,-37.129,-69.535,-45.568,-41.292,-33.69,-35.704,-72.323,-52.787,-42.453,-34.083,-34.654],[-85.794,-56.054,-43.083,-43.524,-41.054,-88.113,-54.988,-44.967,-46.825,-42.448,-87.45,-58.019,-47.624,-44.751,-40.352,-82.084,-58.81,-48.703,-41.998,-39.744,-84.461,-62.982,-52.237,-43.652,-39.809,-86.513,-67.109,-50.659,-42.794,-40.843],[-88.066,-65.305,-53.783,-47.759,-41.949,-89.527,-65.907,-54.286,-48.704,-44.682,-91.406,-65.649,-56.546,-48.95,-46.389,-88.547,-65.707,-57.358,-49.894,-44.252,-89.245,-71.243,-58.081,-51.69,-44.945,-91.635,-73.53,-60.763,-52.253,-46.414],[-94.433,-71.835,-63.51,-54.815,-50.128,-94.681,-74.659,-59.68,-55.435,-50.384,-92.989,-75.762,-62.754,-53.231,-48.682,-90.095,-73.932,-65.243,-57.014,-51.557,-93.076,-75.192,-64.754,-57.87,-50.988,-92.348,-80.647,-66.939,-59.458,-51.129],[-93.827,-78.445,-69.743,-58.876,-53.629,-94.682,-78.748,-67.699,-60.104,-54.039,-96.51,-78.562,-67.126,-60.53,-54.817,-93.764,-80.314,-71.472,-61.407,-54.497,-92.675,-82.119,-71.443,-61.714,-56.239,-94.601,-83.472,-72.754,-64.114,-56.588]],
"vp": [[-178.278,-736.023,-623.076,-332.272,-1222.342,-103.85,27.799,-147.473,-302.336,-118.132,-80.254,-67.216,-137.825,-73.406,-102.604,-12.476,-16.796,-19.685,-9.187,-21.603,-0.605,5.783,11.835,-14.247,-9.719,11.091,-9.107,-5.482,-13.981,-4.221],[2545.831,1236.435,247.864,-255.769,-1152.813,704.354,397.973,-70.084,-335.174,-299.915,330.976,109.265,-19.937,-143.991,-129.793,48.738,20.802,-2.135,-22.219,-20.845,7.79,-3.13,-0.542,-25.021,-18.102,7.894,12.166,11.737,-11.956,-2.128],[5298.89,2343.135,1248.829,611.338,1027.484,1269.446,612.841,305.032,278.716,81.569,600.999,335.955,153.711,119.245,-9.31,93.921,66.941,34.991,-1.924,1.976,53.322,44.633,34.589,3.132,-6.598,30.236,16.307,6.392,5.751,-7.181],[4880.524,4758.596,4117.612,2412.013,894.24,1285.628,1045.827,869.761,527.245,375.322,664.239,515.269,356.628,342.641,254.162,122.387,75.504,92.378,51.636,31.607,48.077,72.188,51.181,31.341,9.59,34.724,30.453,18.868,0.929,4.785],[6580.218,6758.005,6905.716,4830.348,4277.911,1560.157,1605.892,1022.403,1028.5,847.886,630.019,741.478,643.685,428.553,388.133,111.404,141.475,149.747,120.453,76.205,73.262,70.911,63.209,59.459,35.618,24.281,36.202,24.988,19.672,11.52],[7247.67,10560.55,9458.86,7197.598,7295.264,1525.889,1906.488,1750.323,1553.649,1202.828,844.043,881.686,924.14,750.272,625.031,143.119,179.13,221.372,139.412,111.439,67.292,114.933,97.291,85.749,64.455,28.44,35.927,42.252,34.793,23.367]]
}