{
"KTrans": [[-2.355,-0.116,-0.665,-0.007,0.535,-1.177,-1.19,0.42,-0.12,0.158,-3.978,-0.936,-1.463,0.582,-0.377,-9.742,-5.187,-3.924,-3.501,-3.247,-19.059,-9.728,-8.303,-8.701,-6.917,-33.645,-20.871,-16.776,-14.79,-13.323],[-6.048,-0.789,0.149,0.775,-0.152,-4.765,-0.171,-0.566,-0.326,-0.168,-8.64,0.679,-0.386,-0.632,-0.317,-14.409,-5.011,-3.012,-1.997,-2.014,-21.836,-10.689,-5.705,-5.278,-4.092,-40.839,-18.138,-12.441,-9.669,-8.11],[-16.455,0.598,-1.017,-0.206,0.346,-19.051,-2.171,-0.294,0.242,-0.319,-20.372,-2.607,-0.039,-0.462,-0.597,-24.926,-5.675,-3.875,-2.311,-1.7,-32.426,-9.827,-6.124,-4.458,-3.553,-49.553,-20.045,-12.53,-9.414,-7.349],[-28.269,-0.191,0.753,1.366,-0.137,-29.293,-0.681,-1.124,-0.106,-0.29,-33.103,-1.018,-0.551,-0.175,-0.537,-38.385,-7.169,-3.006,-1.541,-2.048,-46.485,-11.126,-6.591,-4.714,-3.773,-60.135,-19.134,-12.206,-9.476,-7.208],[-45.768,-1.637,0.093,0.091,-0.42,-44.138,-2.875,-0.872,-0.406,-0.138,-47.153,-4.048,-1.129,0.495,0.152,-50.368,-5.974,-3.415,-2.519,-2.1,-60.446,-11.705,-7.519,-4.537,-4.185,-72.004,-23.973,-12.992,-9.472,-7.054],[-60.891,-4.288,-0.695,0.135,0.029,-56.053,-4.384,-0.683,0.417,0.063,-58.752,-5.066,-0.337,-1.054,-0.084,-63.907,-8.034,-3.782,-2.664,-1.287,-68.33,-15.4,-7.21,-5.106,-3.821,-80.243,-25.001,-13.668,-9.55,-7.616]],
"ve": [[-0.229,0.805,1.065,0.196,0.077,0.419,0.899,0.043,1.084,0.431,-0.755,1.142,1.094,0.208,1.077,-1.939,-0.11,1.632,2.508,4.136,-5.34,-0.483,4.266,7.36,10.036,-12.023,1.695,8.866,15.454,21.047],[-1.679,0.063,0.173,-0.007,-0.118,-2.522,-0.278,-0.373,-0.069,-0.075,-3.206,0.01,0.028,-0.323,0.017,-6.407,-2.243,-0.972,-1.032,-0.202,-10.842,-3.992,-2.211,-1.214,-0.527,-20.942,-8.149,-4.211,-2.535,-0.871],[-6.605,0.301,-0.467,-0.122,-0.038,-7.235,-0.362,0.087,-0.188,-0.006,-7.017,-0.661,-0.423,-0.01,0.068,-10.907,-2.602,-1.568,-0.886,-0.602,-16.633,-4.408,-2.987,-1.81,-1.445,-27.364,-9.243,-5.506,-3.56,-2.403],[-12.475,-0.99,-0.006,0.14,0.026,-12.12,-0.579,-0.737,-0.12,-0.071,-13.785,-0.454,-0.381,-0.216,-0.054,-17.593,-3.289,-1.842,-0.897,-0.77,-22.821,-5.473,-3.078,-2.176,-1.434,-35.101,-10.366,-6.195,-4.42,-3.155],[-21.399,-0.84,0.019,-0.048,-0.127,-21.019,-1.409,-0.413,-0.034,-0.127,-21.887,-1.504,-0.548,-0.16,-0.046,-25.562,-3.464,-1.508,-1.322,-0.918,-32.747,-6.464,-2.863,-2.157,-1.61,-44.494,-12.009,-6.08,-4.275,-3.334],[-31.027,-1.888,-0.025,-0.055,0.122,-27.757,-1.893,-0.572,-0.245,-0.018,-30.214,-2.416,-0.514,-0.219,-0.213,-35.177,-4.292,-1.797,-1.043,-0.737,-39.013,-7.137,-3.733,-2.341,-1.872,-88.218,-13.271,-6.924,-4.778,-3.628]],
"kep": [[-2.054,-0.624,-1.289,0.318,1.742,-1.434,-1.735,0.931,-0.456,0.885,-3.123,-1.717,-2.064,1.326,-0.267,-7.92,-4.745,-4.934,-5.01,-6.145,-14.357,-8.971,-11.336,-13.978,-13.955,-24.331,-21.734,-22.712,-24.971,-26.894],[-4.47,-0.851,-0.001,0.795,0.005,-2.293,0.123,-0.175,-0.239,-0.065,-5.75,0.699,-0.409,-0.294,-0.314,-8.517,-2.814,-2.047,-0.953,-1.788,-12.266,-6.941,-3.556,-4.086,-3.554,-25.201,-10.858,-8.566,-7.295,-7.273],[-10.644,0.282,-0.554,-0.082,0.389,-12.689,-1.812,-0.382,0.435,-0.312,-14.576,-1.96,0.376,-0.45,-0.658,-15.945,-3.141,-2.346,-1.433,-1.104,-19.145,-5.694,-3.24,-2.704,-2.131,-30.674,-11.891,-7.43,-6.069,-5.065],[-18.74,0.757,0.759,1.224,-0.157,-20.009,-0.127,-0.396,0.016,-0.222,-22.97,-0.563,-0.165,0.038,-0.477,-25.702,-3.995,-1.189,-0.647,-1.288,-30.814,-5.962,-3.628,-2.598,-2.369,-39.177,-9.817,-6.411,-5.286,-4.186],[-32.845,-0.804,0.061,0.134,-0.295,-30.724,-1.497,-0.462,-0.373,-0.007,-33.604,-2.618,-0.585,0.654,0.199,-34.392,-2.603,-1.957,-1.222,-1.195,-42.543,-5.671,-4.809,-2.434,-2.616,-50.761,-13.631,-7.363,-5.433,-3.847],[-45.928,-2.508,-0.691,0.176,-0.096,-41.129,-2.529,-0.114,0.655,0.084,-43.046,-2.661,0.158,-0.848,0.128,-46.734,-3.931,-2.032,-1.645,-0.556,-49.53,-8.91,-3.62,-2.829,-1.987,-61.633,-13.549,-7.262,-5.02,-4.138]],
"vp": [[49.999,25.745,47.515,33.506,11.724,4.732,10.035,5.131,10.838,11.525,9.038,8.881,7.808,3.439,4.557,7.739,8.12,6.048,6.492,6.388,8.042,7.542,7.246,7.654,6.793,8.113,7.229,7.007,7.222,6.845],[271.626,16.434,-4.128,-43.918,11.349,58.183,15.972,15.991,2.032,9.993,33.605,3.732,7.918,7.089,11.605,13.26,9.582,7.163,8.09,6.791,11.061,8.821,7.643,7.892,7.063,10.486,8.623,7.958,7.561,7.306],[730.42,-20.792,83.833,11.878,-61.684,136.755,18.632,6.611,0.742,13.026,77.186,18.611,9.065,6.551,13.871,23.193,9.949,9.469,8.884,7.749,17.052,9.868,8.966,7.729,7.795,13.843,9.711,8.725,8.23,7.681],[1258.789,140.364,8.681,-100.016,7.601,246.193,28.715,25.614,6.852,-1.425,144.665,10.827,11.384,13.681,8.542,36.017,13.777,10.096,8.049,8.383,23.259,11.622,9.541,9.072,8.479,17.674,10.371,9.528,9.046,8.56],[2274.477,197.201,40.997,19.384,106.875,426.5,64.138,22.703,12.231,7.19,222.495,36.617,18.238,4.783,-0.098,51.999,13.17,9.911,10.223,8.666,33.366,13.118,9.842,8.656,8.401,22.44,12.303,9.708,8.985,8.717],[3185.665,345.664,32.604,26.867,12.665,566.731,70.156,31.638,13.446,-3.322,309.48,45.955,16.092,13.259,8.303,70.556,17.58,10.972,9.65,8.39,39.424,14.627,10.565,9.425,9.863,26.327,13.308,10.581,9.802,9.403]]
}