{
"KTrans": [[-10.183,9.961,8.378,10.979,13.504,0.005,15.32,18.409,17.215,17.428,21.441,24.771,24.25,26.963,22.061,105.318,102.435,83.153,76.323,72.517,127.285,196.748,145.246,159.828,131.704,121.936,213.073,329.448,328.355,315.385],[-38.085,-4.954,-0.394,3.238,3.757,-24.29,-3.379,5.421,4.778,7.854,-12.816,4.442,7.286,11.336,9.428,13.445,50.894,40.426,39.699,37.667,-19.161,107.092,76.913,68.64,61.056,-3.567,85.312,166.815,158.33,137.95],[-53.45,-16.187,-6.193,-3.244,1.348,-55.373,-9.022,-3.553,-0.381,2.344,-43.968,-12.807,-0.016,3.49,4.631,-14.75,25.567,26.626,25.039,22.818,-17.475,63.164,55.704,50.593,45.252,-46.6,-13.517,124.554,104.325,100.904],[-68.261,-21.654,-11.287,-8.629,-4.308,-65.049,-19.277,-7.168,-5.335,-2.436,-57.129,-19.247,-9.465,-3.983,1.067,-47.392,9.635,13.592,16.052,17.337,-39.649,61.571,42.704,43.203,33.294,-107.308,64.953,94.125,100.639,91.422],[-75.651,-29.377,-16.966,-12.67,-7.15,-74.052,-31.093,-17.726,-11.647,-6.299,-65.402,-25.037,-14.537,-8.421,-6.886,-56.647,5.424,4.833,9.117,9.52,-66.397,6.421,41.62,31.621,30.769,-29.689,-2.193,78.146,81.373,67.639],[-77.981,-38.771,-23.957,-15.416,-11.496,-79.32,-34.604,-20.509,-13.329,-11.049,-77.577,-34.584,-16.872,-13.628,-8.436,-71.318,-3.478,4.543,0.864,3.559,-76.285,7.452,32.054,21.438,22.063,-55.646,-36.939,30.605,60.657,60.422]],
"ve": [[146.584,39.411,42.638,-15.495,-712.929,-2074.749,-93.561,-71.042,104.073,-917.567,7.183,30.371,-24.258,239.308,-466.92,49.767,24.279,47.841,0.71,28.346,89.391,39.711,19.283,4.422,131.494,184.357,86.85,35.852,15.194,-0.719],[0.901,2.324,2.734,4.307,6.745,11.199,0.083,2.325,5.365,6.512,15.786,4.447,4.96,4.976,6.025,49.938,21.621,15.093,12.329,8.708,104.558,46.618,29.252,20.967,16.444,181.294,93.021,66.581,40.069,31.419],[17.3,-0.282,-1.417,-0.649,1.059,6.982,1.398,0.746,0.005,0.321,6.913,4.104,2.062,2.378,2.888,48.585,24.261,14.394,9.799,7.432,85.968,44.851,29.033,20.576,17.148,197.17,79.967,64.198,45.069,34.881],[7.171,-0.96,-2.29,-0.944,-1.257,-42.323,0.73,-0.942,-1.136,-0.438,16.678,2.358,0.421,0.325,0.425,47.565,20.927,13.545,10.466,7.84,112.875,46.987,29.605,20.826,16.078,189.661,102.447,65.3,44.214,35.954],[-1.485,-2.013,-0.564,-2.633,-1.937,18.797,1.606,-0.958,-1.585,-1.033,-17.761,2.241,0.83,-0.961,0.198,44.161,23.205,13.389,9.671,7.344,95.971,44.722,29.708,20.406,15.943,193.089,86.819,60.48,46.97,35.848],[10.017,-2.23,-3.065,-3.59,-2.167,19.822,0.426,-1.961,-1.348,-1.715,7.052,2.525,-0.269,0.508,-1.462,52.779,20.848,11.852,9.359,6.508,306.808,42.132,28.484,21.036,16.559,188.145,95.783,62.978,43.83,35.661]],
"kep": [[-39.33,-27.397,-31.419,-32.548,-34.137,-34.614,-19.983,-21.763,-25.308,-29.634,-22.455,-14.744,-13.946,-10.703,-22.328,4.506,29.717,31.263,36.057,42.622,-12.718,62.095,58.168,99.522,86.376,-30.909,28.634,124.088,178.107,213.002],[-53.704,-29.151,-27.118,-25.136,-26.793,-47.356,-27.064,-22.258,-25.035,-23.142,-41.751,-24.502,-23.023,-20.247,-22.304,-43.22,-6.96,-8.267,-6.672,-4.72,-67.327,5.795,2.26,4.226,3.516,-67.725,-28.766,21.823,37.194,35.035],[-67.81,-37.06,-28.765,-27.046,-25.054,-69.973,-32.446,-28.2,-25.503,-23.768,-62.708,-36.838,-26.579,-24.265,-23.912,-57.064,-24.289,-17.392,-14.802,-14.702,-67.342,-16.544,-10.286,-7.002,-7.549,-81.238,-63.595,1.824,4.297,10.405],[-77.718,-40.383,-32.196,-31.09,-27.621,-76.115,-39.811,-29.756,-28.403,-26.804,-72.193,-40.988,-32.542,-28.524,-24.886,-74.251,-32.165,-25.416,-21.673,-18.926,-75.419,-18.703,-18.458,-11.884,-14.45,-96.469,-36.487,-12.337,2.567,4.178],[-83.074,-45.742,-37.418,-33.003,-29.358,-82.162,-48.977,-37.866,-32.935,-29.402,-77.719,-45.067,-36.563,-31.093,-30.659,-77.697,-35.878,-31.066,-25.875,-23.987,-86.14,-45.224,-19.669,-18.781,-16.179,-79.649,-59.832,-18.776,-9.235,-8.787],[-84.512,-52.97,-41.342,-34.576,-32.517,-86.715,-51.238,-39.33,-34.361,-32.412,-84.994,-52.038,-37.708,-35.934,-30.657,-85.019,-40.841,-30.53,-31.301,-27.557,-89.904,-46.062,-23.567,-25.679,-22.112,-86.466,-73.93,-40.098,-17.902,-12.611]],
"vp": [[226.081,-28.625,-49.926,465.73,-26.436,92.571,-69.709,172.848,124.05,25.673,99.545,20.02,45.768,41.471,40.707,-28.299,-6.471,10.121,9.067,-0.621,1.236,0.573,-18.408,8.546,5.677,-10.356,-2.272,12.863,-7.084,-2.507],[2691.233,746.122,-169.506,-911.912,-483.927,463.327,-9.848,34.253,-28.876,-93.147,301.094,131.676,16.634,39.424,35.767,31.163,-4.78,-9.516,3.436,16.167,20.766,-1.242,-7.499,-11.578,-22.07,-18.807,0.437,-6.531,-15.203,-8.174],[4777.372,2651.559,1763.236,722.651,82.001,905.898,830.629,478.448,142.334,0.969,437.539,304.534,189.763,44.526,21.784,90.843,66.639,26.694,10.191,-15.818,25.673,-0.612,-11.067,-21.146,-10.821,8.932,-7.193,-12.016,-18.738,-8.116],[6179.092,5224.037,3773.999,1549.446,1193.24,1092.358,1276.358,712.511,304.033,179.191,534.002,502.011,280.838,184.976,55.06,100.181,79.761,58.139,24.266,13.686,33.785,36.142,8.749,8.5,-25.705,12.788,2.948,9.612,-17.125,-2.558],[6987.599,6841.727,6156.045,3463.005,1747.281,1302.021,1475.221,1125.441,685.347,475.074,654.586,692.863,589.021,240.207,108.783,109.756,173.083,83.251,67.388,23.422,66.684,46.146,34.041,3.366,8.538,22.686,7.249,4.987,6.447,-4.374],[7020.379,9803.083,7085.313,4798.18,2960.775,1505.166,1898.07,1435.177,1015.854,463.885,645.587,883.925,667.623,478.79,142.799,118.538,172.332,113.785,58.055,32.923,54.207,86.491,42.106,9.455,11.124,12.033,37.869,23.599,-20.438,-5.081]]
}