{
"KTrans": [[2.637,0.548,2.166,2.39,-0.122,14.774,8.699,5.841,4.812,6.017,28.043,17.743,11.121,11.251,11.775,162.109,94.575,76.681,66.393,61.329,386.524,223.342,179.46,154.91,139.796,1126.771,586.528,449.856,391.361,360.903],[-4.773,-1.047,0.582,1.181,0.517,5.889,6.31,4.69,3.755,3.298,18.585,11.629,8.697,6.391,6.059,116.815,60.27,44.643,36.451,30.4,307.83,148.707,99.057,76.93,66.359,844.567,362.776,233.159,181.866,151.249],[-8.66,1.777,1.02,0.814,0.291,-5.421,4.46,4.022,3.38,2.59,7.516,10.812,7.564,6.427,4.991,92.922,59.127,42.032,31.306,26.141,269.426,131.151,87.184,67.055,55.494,679.847,322.672,205.997,151.084,123.34],[-25.169,-0.215,0.481,0.676,0.485,-17.648,5.383,3.915,2.932,2.193,-8.124,9.826,6.225,6.458,4.749,68.76,60.93,38.235,29.48,24.46,201.952,130.574,87.291,62.906,50.884,620.537,319.31,192.97,140.924,114.453],[-38.083,1.704,0.614,0.994,0.324,-29.547,4.569,3.943,2.971,2.385,-24.122,8.679,7.857,6.51,4.289,59.171,56.302,38.716,28.308,23.288,167.689,125.363,83.679,60.243,48.932,484.892,324.82,192.487,135.392,108.756],[-44.243,-3.137,1.411,0.144,0.888,-41.283,1.981,3.474,1.916,2.641,-38.086,9.792,6.411,4.962,4.059,27.685,50.932,37.611,27.822,21.482,132.033,123.314,82.148,59.722,47.308,417.554,301.628,184.828,133.965,104.942]],
"ve": [[2.188,1.343,0.782,0.43,6.493,6.393,1.207,0.112,-0.469,-3.736,9.486,0.788,-0.14,-2.792,-6.259,45.99,13.785,-1.621,-10.961,-18.278,93.996,33.966,7.502,-6.92,-17.58,192.178,78.5,35.026,10.604,-6.119],[2.122,1.28,0.655,0.068,0.18,5.612,2.515,1.511,0.927,0.72,10.348,5.087,3.43,1.79,0.618,49.992,23.957,14.708,9.26,5.905,100.459,48.152,29.629,19.092,12.41,199.727,96.266,60.825,41.429,28.785],[2.321,0.855,0.353,0.336,-0.021,5.78,2.84,1.559,1.292,1.021,11.281,4.852,3.24,2.099,1.618,51.412,24.474,15.918,11.406,8.609,100.678,48.901,31.687,22.816,17.259,200.423,99.087,64.37,46.732,35.549],[3.726,0.936,0.495,0.55,0.277,6.664,2.71,1.576,1.141,0.988,12.378,4.9,3.11,2.668,1.695,52.593,24.998,16.568,12,9.246,91.572,49.878,32.488,23.924,18.756,201.92,100.032,65.592,48.488,37.63],[2.292,1.374,0.478,0.291,0.126,7.317,3.333,1.588,1.322,0.96,11.73,5.515,3.028,2.431,1.702,51.812,25.344,16.35,12.231,9.567,103.801,50.525,32.912,24.613,19,218.133,99.558,65.716,49.272,38.659],[1.887,0.535,0.445,0.045,-0.02,6.474,2.64,1.41,1.223,0.971,8.093,5.143,3.325,2.18,2.024,51.405,24.98,16.478,12.357,9.807,100.548,50.08,33.108,24.403,19.447,201.708,100.303,66.44,49.24,39.019]],
"kep": [[0.983,0.165,2.778,3.738,-1.041,8.469,8.331,7.009,7.317,12.04,17.609,17.671,12.846,15.97,21.876,80.052,71.705,80.307,87.838,98.682,151.262,141.66,160.423,174.71,191.768,320.452,284.926,307.596,344.551,391.466],[-6.585,-2.187,0.017,1.211,0.434,0.518,3.81,3.211,2.859,2.659,7.735,6.303,5.19,4.584,5.485,44.714,29.403,26.15,24.956,23.216,103.819,67.994,53.65,48.634,48.06,215.598,135.879,107.24,99.343,95.124],[-10.681,1.032,0.722,0.519,0.345,-10.423,1.692,2.473,2.109,1.588,-3.31,5.771,4.216,4.275,3.347,27.65,27.92,22.573,17.898,16.167,84.123,55.319,42.205,36.054,32.638,159.907,112.356,86.202,71.14,64.784],[-27.711,-1.054,0.001,0.152,0.227,-22.632,2.682,2.304,1.789,1.222,-18.105,4.743,3.067,3.734,3.027,11.248,28.809,18.603,15.633,13.948,50.559,53.928,41.403,31.488,27.072,138.784,109.678,76.961,62.287,55.834],[-39.513,0.332,0.185,0.739,0.207,-34.073,1.248,2.338,1.655,1.424,-31.888,3.043,4.732,4.01,2.551,4.802,24.802,19.256,14.336,12.527,32.949,49.87,38.224,28.629,25.163,94.241,112.925,76.549,57.707,50.566],[-45.551,-3.634,0.977,0.116,0.924,-44.684,-0.542,2.086,0.707,1.665,-44.594,4.471,3.014,2.735,2.006,-15.579,20.817,18.176,13.814,10.652,15.24,48.903,36.898,28.394,23.34,71.58,100.657,71.139,56.794,47.434]],
"vp": [[90.679,-84.673,13.979,28.782,31.934,13.197,13.618,-1.992,3.413,6.46,18.315,7.597,12.728,12.856,9.393,9.956,6.443,7.317,6.695,8.91,9.523,7.066,7.637,6.989,6.924,7.827,7.176,6.736,7.223,7.235],[648.923,37.761,39.125,-25.505,-40.426,147.348,27.173,29.455,18.841,11.357,83.79,19.181,16.072,-0.066,-0.54,21.498,9.541,10.094,6.809,6.914,16.791,8.096,8.038,8.285,7.414,12.353,8.417,7.908,8.03,7.124],[1884.3,299.157,80.007,6.772,-159.946,347.935,57.507,34.774,17.972,23.427,179.199,44.055,11.799,9.313,6.297,39.427,12.382,9.687,10.182,9.84,26.22,9.934,7.707,8.62,8.058,17.38,10.387,9.218,8.293,8.193],[2490.285,516.872,107.345,107.47,-58.104,597.001,108.132,37.391,47.075,13.075,269.639,62.748,26.599,3.597,16.472,64.002,19.491,13.454,8.36,11.677,36.349,15.402,10.314,8.668,8.492,23.704,12.564,9.425,8.94,8.408],[3571.648,962.796,42.257,-47.133,198.506,798.196,159.692,22.7,24.235,13.922,382.757,100.627,22.429,27.425,2.886,82.267,24.637,13.116,10.956,11.064,45.016,20.373,10.711,9.061,9.377,29.297,15.028,10.14,9.241,8.813],[4669.774,1353.402,322.399,108.012,36.667,892.576,241.134,57.173,25.095,12.367,469.896,115.694,45.636,15.962,7.495,107.154,35.809,17.489,12.478,8.956,56.316,23.911,12.221,10.023,9.977,32.644,17.488,12.451,10.212,10.126]]
}