{
"KTrans": [[-45.851,-62.41,-72.013,-61.413,-67.766,-28.332,-58.317,-49.021,-55.153,-45.197,-18.525,-49.878,-39.649,-29.127,-49.817,57.392,-4.191,-11.231,2.811,9.116,68.505,-0.555,31.353,30.467,59.762,217.827,80.875,128.352,107.838,115.277],[-51.742,-44.276,-48.431,-53.446,-58.386,-48.278,-37.922,-24.661,-40.729,-43.589,-44.625,-26.952,-20.137,-33.383,-33.228,-29.73,1.456,16.262,-17.444,-17.67,5.355,30.835,14.953,-6.993,-4.886,68.724,76.849,51.638,13.749,15.964],[-65.854,-49.669,-47.513,-41.411,-50.711,-63.752,-39.583,-36.371,-30.46,-35.362,-58.823,-37.149,-29.124,-28.484,-22.512,-56.324,-20.767,-12.783,-1.548,3.459,-25.074,5.372,0.205,13.885,5.538,18.563,42.534,51.698,40.703,23.04],[-73.176,-43.88,-49.935,-45.898,-44.957,-72.716,-41.683,-50.467,-43.208,-44.437,-73.158,-33.723,-28.942,-29.213,-29.397,-64.913,-24.375,-19.175,-10.936,-7.281,-50.461,-25.512,-0.447,0.46,1.135,-3.307,20.534,21.207,18.98,27.996],[-82.891,-51.072,-41.958,-45.109,-45.597,-81.089,-42.211,-41.046,-44.402,-41.6,-81.19,-42.267,-40.061,-27.632,-33.94,-72.19,-34.272,-20.119,-22.209,-8.387,-63.45,-31.648,-11.973,-7.676,-4.258,-34.286,10.379,-1.896,6.382,15.008],[-85.519,-52.825,-39.378,-46.542,-45.112,-85.875,-49.139,-39.575,-37.783,-42.986,-86.102,-55.569,-36.632,-32.517,-34.308,-78.625,-46.755,-18.204,-17.576,-15.871,-70.838,-34.07,-10.993,-10.49,-5.402,-55.282,-11.669,-0.143,-8.406,1]],
"ve": [[-28.506,-34.492,-667.931,2.595,246.227,-28.633,-427.096,-26.392,-16.987,-233.357,-11.451,-33.202,-8.631,-3.055,-90.094,54.55,66.102,-67.957,81.074,91.047,64.299,-12.609,-1.084,-7.294,-75.819,160.453,42.64,79.458,-95.17,-36.048],[-71.082,-52.467,-49.146,-40.729,-38.585,-58.248,-53.301,-20.681,-22.779,-21.067,-52.905,-28.693,-18.575,-29.905,-16.367,-3.423,-4.822,0.567,-12.043,-5.362,44.975,22.462,17.199,-1.329,-42.629,314.96,76.802,43.263,12.384,-2.986],[-60.569,-122.581,-76.934,-49.815,-49.693,-57.321,-90.07,-59.006,-46.841,-37.185,-35.541,-85.402,-46.195,-35.726,-22.991,-40.358,-40.506,-26.349,-7.708,4.095,77.533,2.277,-10.575,10.314,4.537,175.133,86.144,42.084,28.819,23.175],[-15.078,-105.747,-114.698,-79.31,-62.423,5.217,-99.837,-119.588,-75.631,-62.336,-21.914,-76.788,-67.754,-53.305,-42.697,6.31,-50.367,-43.856,-18.895,-12.658,78.05,-44.294,-7.252,-7.394,-4.719,215.859,42.047,17.124,19.011,285.821],[-35.224,-134.3,-107.729,-95.843,-81.109,-14.857,-91.264,-107.425,-99.071,-76.501,-11.074,-84.283,-112.055,-62.916,-59.567,74.749,-24.287,-45.172,-46.542,-15.37,76.919,-40.82,-30.776,-20.533,-6.735,187.545,67.971,-15.853,-6.099,8.563],[-31.165,-103.957,-116.767,-119.379,-96.019,-8.97,-76.667,-126.917,-95.683,-95.762,-21.734,-85.666,-108.012,-83.6,-74.374,59.601,-75.062,-45.659,-41.779,-40.899,53.774,-44.22,-18.655,-21.492,-15.22,122.238,68.988,-26.04,-14.408,-4.892]],
"kep": [[-105.204,-9.853,0.22,2.598,0.601,-131.074,-13.675,-1.845,0.505,0.359,-124.612,17.164,-23.873,-0.234,10.492,-102.991,-18.613,1.719,-14.502,-32.839,-22.59,-11.84,-16.201,-4.905,-56.61,31.446,-61.374,-79.914,-70.503,-58.905],[-40.804,-27.649,-130.081,-0.37,-10.714,-46.441,-21.418,-128.954,2.006,-8.981,-45.766,-30.212,-128.451,0.129,6.694,-50.534,-18.688,-118.105,-7.828,-0.782,-46.643,-14.246,-43.549,-23.341,-5.474,-76.97,-9.661,9.09,-68.402,-40.426],[-66.438,-2.461,-9.482,-18.342,-131.243,-63.715,-4.665,-5.672,-23.302,-113.099,-62.576,-8.867,-5.265,-10.55,-122.371,-63.245,-8.563,-2.132,1.405,-89.576,-66.636,-10.597,-5.206,-23.101,-13.254,-57.998,-34.834,-2.683,18.168,-17.197],[-77.854,-15.475,-2.434,-3.515,-5.928,-77.676,-14.213,-1.598,-1.904,-1.42,-77.868,-12.71,-1.886,0.822,0.287,-76.881,-14.061,-4.228,-3.748,-0.568,-79.015,-21.961,-0.541,2.882,-7.914,-70.54,-28.308,-6.456,-12.282,-24.839],[-88.33,-20.322,-6.182,-4.032,-2.024,-86.798,-21.281,-6.338,-1.895,1.384,-87.477,-23.408,-4.751,-0.737,-1.637,-85.942,-28.091,-3.648,-4.617,-0.727,-82.404,-29.787,-5.098,-0.045,-3.128,-77.186,-37.314,-8.977,2.961,2.738],[-91.399,-30.081,-6.405,-4.923,-2.028,-91.353,-31.141,-4.711,-3.577,0.353,-90.873,-37.678,-5.688,-1.704,-1.985,-90.625,-34.904,-6.508,-2.631,1.427,-85.83,-34.951,-7.928,-3.107,0.471,-78.66,-51.894,-6.303,-3.701,-2.582]],
"vp": [[155.539,513.669,151.395,54.769,-61.412,-4.268,-46.749,7.336,1.977,2.038,-20.781,27.197,-29.629,3.815,9.569,-15.274,7.222,5.853,-4.704,-2.407,-4.2,7.798,1.722,2.607,-10.975,-16.006,-1.243,-6.416,-2.186,-2.586],[1461.637,337.181,25.345,33.708,-343.552,307.373,44.833,10.738,48.816,-40.295,145.895,38.583,-0.883,22.705,5.928,37.647,4.616,-1.603,6.427,7.69,12.149,-10.931,0.381,-3.278,-1.225,8.248,-15.931,-10.853,-0.825,-6.425],[3418.556,248.572,180.376,259.648,-78.738,625.709,127.707,50.793,79.785,-35.792,286.469,56.425,45.105,32.626,-0.561,63.848,21.566,-1.241,6.47,5.599,24.822,-9.43,-2.766,-5.114,-9.171,4.208,-6.882,-25.896,-15.829,-5.325],[5066.163,1297.496,310.351,247.483,281.502,940.805,265.506,-35.844,71.864,6.644,488.205,136.844,19.216,-2.704,7.624,83.513,21.079,-2.081,-8.179,-4.986,40.152,14.146,1.744,-7.825,-4.363,-0.971,-4.048,-1.071,-1.049,-2.121],[6075.006,1999.449,958.1,450.023,221.124,1102.208,482.132,128.607,26.894,7.85,618.299,233.419,13.2,32.251,32.882,108.481,66.115,24.812,3.791,4.512,44.159,36.152,10.823,-3.576,6.081,8.656,-1.457,9.575,-0.555,-15.525],[6652.608,3912.943,1348.053,391.277,429.862,1360.325,831.146,200.7,155.741,1.956,664.431,459.384,136.836,43.279,11.829,117.784,71.687,16.693,15.999,-11.561,51.777,25.397,12.732,15.195,1.382,18.852,9.792,-2.371,16.579,2.666]]
}