{
"KTrans": [[10.519,14.974,14.499,5.584,-6.073,5.193,27.405,15.784,-0.498,15.936,9.383,8.417,19.867,21.852,-0.509,52.885,55.479,63.295,73.207,76.96,-113.451,-6.682,80.163,97.917,129.215,-201.697,-79.267,77.318,27.648,25.479],[-40.987,-13.615,1.979,9.23,5.536,-45.152,-5.128,1.745,1.718,6.577,-36.986,-16.752,4.203,9.998,10.997,-12.434,4.849,12.023,26.226,30.874,-10.956,-15.652,-7.881,37.817,29.563,74.632,-81.007,-94.504,-38.427,-19.714],[-60.425,-22.204,-13.669,-4.893,0.576,-63.251,-21.815,-8.636,-4.442,-0.108,-55.973,-25.092,-12.177,0.465,0.755,-44.245,-5.291,3.231,-0.455,12.908,-74.184,20.161,-4.273,6.229,-21.948,-167.96,-56.285,-35.745,-37.316,-16.755],[-69.677,-30.47,-15.992,-13.658,-8.395,-65.875,-29.506,-13.308,-5.207,-5.034,-70.661,-29.24,-14.458,-3.083,-4.317,-61.217,-14.554,2.315,12.861,3.565,-85.147,-34.679,3.015,29.158,7.495,-88.725,-50.47,-20.782,-27.29,-71.905],[-71.006,-37.538,-18.109,-17.384,-8.676,-73.386,-40.081,-20.207,-8.211,-7.692,-70.212,-33.815,-16.123,-3.839,-5.766,-78.103,-30.379,1.776,13.22,9.699,-79.364,-37.243,13.965,32.798,14.04,-58.074,18.931,-20.026,-57.54,-31.948],[-81.908,-48.203,-25.346,-11.318,-5.771,-79.725,-44.917,-23.985,-9.132,-3.143,-77.992,-47.382,-18.924,-5.582,-1.428,-75.43,-24.543,-7.71,6.355,12.429,-84.69,-64.948,-36.055,12.023,26.443,-79.044,-42.204,-49.569,-26.987,36.459]],
"ve": [[-36.059,-20.754,-2225.42,-80.785,-222.54,194.957,-99.777,91.285,-49.717,-74.44,30.741,3.299,706.826,-52.641,-1.688,212.452,10.358,-21.257,-55.916,-65.072,73.733,53.343,-15.02,-12.805,52.578,162.413,80.396,26.554,-3.346,-20.653],[8.864,18.28,-74.018,-13.989,-8.672,16.869,-25.224,13.702,-0.109,-37.649,19.031,-17.274,-2.709,9.246,-10.676,36.9,21.089,2.909,7.297,4.358,76.389,43.006,19.482,-503.835,18.634,158.782,98.779,65.665,43.97,26.454],[-31.485,-5.742,-20.442,-14.433,-1.979,-22.79,-35.282,-8.858,54.12,7.442,92.143,5.251,-10.341,32.004,-0.184,35.297,22.894,3.097,3.691,-7.558,83.492,22.204,25.993,37.187,23.301,205.501,74.104,65.179,46.335,81.806],[-243.674,-5.604,-4.799,9.925,-66.725,-10.732,-5.648,-7.23,-5.5,-25.044,449.304,13.962,-5.64,-5.795,-12.208,34.065,29.752,5.747,12.669,13.247,89.791,44.114,24.221,18.27,17.352,196.342,98.516,67.242,38.189,39.791],[32.19,-12.003,-18.227,-9.895,-3.266,-7.539,-11.363,-13.716,-3.175,-6.199,-82.468,-12.149,-1.612,-0.216,12.186,36.745,18.988,10.581,30.548,6.724,100.641,44.292,30.545,31.91,19.955,189.517,113.715,63.013,49.371,42.294],[-65.652,-0.926,-5.334,-0.613,-4.663,-13.329,-4.357,-3.332,-1.987,-0.055,18.81,-0.451,-0.724,-2.621,-1.857,-6.253,36.716,11.035,9.555,7.785,141.05,47.322,16.95,20.089,19.073,183.834,89.308,67.046,47.15,38.167]],
"kep": [[-136.883,-103.644,-77.582,-80.283,-22.682,-119.61,-126.341,-78.247,-22.326,-81.766,-127.945,-114.894,-79.324,-82.818,-5.255,-135.749,-192.492,-251.378,-221.023,-230.197,-182.949,-280.145,-322.359,-341.424,-361.141,-140.163,-238.281,-328.075,-494.976,-688.884],[-87.798,-96.196,-123.906,-105.032,-59.655,-95.103,-82.389,-129.536,-85.555,-66.847,-93.643,-103.011,-120.733,-94.129,-46.226,-83.575,-89.855,-138.727,-152.052,-100.877,-93.092,-110.143,-168.73,-165.237,-199.48,-52.443,-91.577,-165.381,-203.626,-287.525],[-93.082,-64.058,-67.611,-80.264,-118.607,-95.196,-65.787,-68.437,-92.314,-126.285,-90.835,-75.886,-76.701,-79.771,-129.616,-89.282,-60.953,-65.378,-106.832,-127.822,-101.572,-54.052,-82.776,-84.806,-185.886,-108.156,-78.284,-80.667,-100.423,-135.084],[-93.819,-63.75,-45.888,-54.571,-66.41,-90.755,-59.595,-40.839,-39.389,-59.179,-94.625,-62.496,-46.28,-37.865,-54.647,-92.851,-57.801,-48.198,-27.268,-62.365,-98.041,-73.543,-45.786,-29.334,-51.896,-90.919,-78.592,-62.1,-70.296,-111.392],[-90.301,-62.529,-36.867,-40.75,-32.185,-93.441,-67.982,-44.959,-33.8,-31.313,-92.064,-60.426,-38.688,-22.885,-34.33,-98.886,-69.394,-40.404,-19.889,-24.137,-94.716,-74.017,-34.878,-7.932,-35.774,-91.387,-52.537,-56.823,-80.393,-60.112],[-96.392,-71.449,-45.529,-25.279,-14.897,-95.57,-68.498,-40.806,-22.08,-8.545,-94.535,-70.151,-37.637,-21.706,-15.933,-95.475,-59.243,-37.651,-23.042,-11.483,-97.942,-86.206,-71.75,-27.006,-11.266,-90.329,-73.651,-72.413,-59.063,-8.148]],
"vp": [[-61.549,-113.86,908.528,671.983,979.429,72.104,-51.356,268.94,198.362,171.168,-20.764,13.084,41.949,44.996,94.205,-24.306,-13.212,0.12,9.621,18.818,13.978,-4.925,-3.607,-1.112,0.972,-7.956,-4.489,-15.975,-11.635,-10.499],[2590.027,1008.047,-4.498,-103.825,-319.474,611.893,42.825,-181.508,40.532,134.581,242.958,86.914,56.082,-93.867,-76.041,34.373,25.881,-15.018,-19.136,-39.331,15.432,-1.392,-14.823,-34.733,14.901,-31.283,-22.596,-2.524,-2.472,16.613],[4457.393,4009.523,1127.722,1219.927,127.742,908.442,846.85,356.491,182.593,-3.435,445.979,398.669,50.567,64.171,-1.099,72.648,65.643,43.418,-14.625,-11.94,41.682,20.437,26.504,-15.981,-3.671,9.395,-9.825,-6.445,-10.093,-31.212],[6249.719,5996.871,5017.815,1563.31,1229.11,1175.395,1251.462,842.496,577.18,452.227,544.733,579.474,304.773,265.714,132.607,91.656,117.172,59.296,71.75,33.265,47.755,32.594,35.041,37.262,-15.831,6.265,14.2,-4.181,-22.957,-6.73],[6050.312,6938.921,5267.605,4548.094,1314.494,1119.364,1539.574,1120.947,733.572,544.374,571.261,774.264,494.219,467.308,230.393,143.854,156.852,122.899,75.795,23.47,39.847,80.844,43.452,5.621,25.56,14.871,-1.101,0.352,-12.146,-9.848],[6816.682,10740.023,6873.012,4385.306,2876.401,1313.191,1808.097,1626.128,1192.649,948.383,585.587,1059.028,798.774,333.163,373.22,155.643,168.734,137.309,117.133,66.606,32.588,89.571,86.677,17.251,20.229,10.555,6.88,16.831,-4.502,-21.634]]
}