{
"KTrans": [[3.632,2.495,1.513,2.53,3.7,14.066,7.291,7.564,7.325,7.526,24.866,17.737,16.126,12.674,10.255,149.604,93.233,79.422,68.802,62.793,270.494,207.483,174.827,155.615,140.655,41.734,438.073,384.346,359.512,323.594],[-4.539,-0.68,1.183,1.9,1.563,-0.104,4.594,4.884,4.629,3.396,13.891,9.618,7.207,7.285,7.487,106.712,60.635,42.521,35.332,33.053,9.348,149.152,95.804,74.947,65.972,30.055,264.135,220.041,195.64,148.715],[-23.491,-3.511,0.259,-0.365,0.462,-16.864,1.161,-0.623,3.479,3.206,-6.396,4.293,5.241,6.122,4.68,40.41,49.323,35.237,29.907,27.152,-46.678,144.169,81.969,61.068,54.94,-83.039,-13.514,223.946,151.019,119.391],[-35.914,-7.492,-3.521,-1.877,-0.85,-26.508,-2.01,-0.828,1.41,1.346,-25.755,2.855,3.445,3.784,3.565,-21.109,51.616,29.848,28.347,22.465,-61.727,135.921,77.266,59.409,46.546,-116.854,29.116,272.229,139.341,112.076],[-45.015,-9.471,-5.207,-2.342,-1.001,-45.554,-2.884,-2.733,-0.044,-1.038,-39.195,-4.033,1.803,3.192,1.144,-39.586,45.808,28.167,22.568,20.669,-59.996,113.52,73.606,54.761,42.894,-53.223,-68.564,170.595,152.587,108.224],[-57.331,-9.967,-5.358,-4.365,-3.242,-53.847,-6.344,-3.836,-0.662,-1.676,-51.31,1.607,0.241,0.175,1.921,-60.156,43.472,31.675,25.048,18.321,-86.301,76.231,76.808,50.424,42.804,-82.509,-22.429,204.561,171.581,97.611]],
"ve": [[3.294,2.095,6.739,11.916,10.503,8.282,4.032,5.272,4.616,8.977,9.94,3.068,2.046,2.025,4.106,46.946,15.984,0.741,-8.453,-15.424,93.82,34.566,10.067,-4.986,-15.96,189.822,50.799,39.5,13.723,-2.583],[2.743,0.338,-0.401,0.593,1.063,4.816,1.79,1.933,1.192,1.826,10.745,4.237,3.801,2.062,1.642,50.435,23.471,14.591,9.77,5.735,101.032,50.116,29.303,19.609,13.514,198.025,98.444,61.921,43.222,29.846],[2.643,-0.049,-0.064,0.441,0.284,4.481,2.276,1.631,1.581,0.882,63.041,4.962,2.303,2.046,1.557,46.979,24.304,15.153,11.157,8.436,75.295,49.676,31.392,22.567,17.733,198.505,100.844,65.616,47.368,35.947],[4.048,-0.08,-0.437,-0.301,0.183,6.787,1.884,1.137,0.94,0.886,11.939,4.81,2.674,1.897,1.522,58.02,24.482,15.651,12.011,9.003,108.407,48.873,31.808,23.32,18.173,197.833,98.644,66.23,48.14,37.689],[3.832,-0.382,-0.73,0.219,-0.292,5.299,1.104,1.317,0.559,0.568,14.028,3.694,2.298,1.901,1.224,49.5,24.061,15.789,11.503,9.092,100.737,48.808,32.058,23.685,18.377,192.47,103.609,64.523,49.167,38.495],[101.759,-0.014,0.07,-0.021,-0.528,4.269,1.664,0.687,0.647,0.518,13.995,3.988,3.076,1.808,1.551,48.392,24.416,16.008,11.92,9.338,98.37,46.565,32.093,23.582,18.896,194.615,99.198,67.231,49.808,38.358]],
"kep": [[-4.931,-4.651,-8.199,-9.442,-4.364,0.349,-1.836,-2.047,-0.609,-0.562,7.259,8.115,8.404,6.647,3.728,58.836,56.506,67.723,74.945,82.56,77.578,113.815,134.243,153.337,169.812,-45.2,171.412,227.292,281.009,311.125],[-12.474,-7.286,-4.837,-5.169,-5.87,-10.246,-3.73,-3.644,-3.154,-4.852,-3.472,-1.522,-3.305,-1.557,-0.958,26.765,21.656,16.372,15.416,17.813,-44.591,53.734,41.434,36.781,36.774,-52.079,69.767,83.145,92.131,78.817],[-30.037,-9.443,-6.092,-7.149,-6.282,-25.996,-7.38,-8.456,-4.674,-4.288,-21.905,-6.97,-3.753,-2.684,-3.555,-13.585,11.961,9.812,9.32,9.719,-72.047,50.907,28.764,22.72,22.983,-87.353,-52.964,80.219,58.071,50.43],[-41.26,-13.267,-9.312,-7.904,-7.405,-35.358,-9.945,-8.245,-6.049,-6.013,-37.334,-8.197,-5.736,-4.714,-4.576,-50.248,13.372,4.818,7.09,5.059,-80.204,45.531,24.991,20.51,15.801,-100.397,-36.357,104.217,49.555,43.254],[-50.985,-15.042,-10.65,-8.837,-7.132,-52.094,-10.131,-10.182,-7.012,-7.956,-49.882,-13.587,-6.953,-5.279,-6.531,-63.002,9.231,3.315,2.663,3.424,-78.959,31.494,21.888,16.563,12.705,-82.534,-79.876,50.3,55.866,39.641],[-61.668,-15.748,-11.554,-10.506,-9.017,-59.655,-13.937,-10.708,-7.688,-8.519,-59.268,-8.844,-9.077,-7.949,-6.134,-74.333,6.701,5.823,4.348,1.11,-91.584,8.521,23.916,13.397,12.021,-91.349,-60.743,65.593,66.905,32.5]],
"vp": [[201.292,19.954,448.164,165.655,-85.535,-16.081,-42.345,17.995,9.394,-56.737,-2.064,-23.393,18.974,26.353,2.581,-13.51,-5.991,11.631,-9.93,-8.624,-7.918,-6.098,2.889,1.358,1.597,-14.885,8.611,-2.84,-2.142,-1.341],[1985.133,512.595,-63.042,-343.274,-47.18,416.569,86.304,42.212,22.16,-49.962,220.586,76.818,15.234,15.226,29.445,32.845,1.183,-3.291,-11.284,3.522,13.299,8.405,-3.158,-9.776,-0.734,-13.977,-20.335,-6.373,20.151,2.19],[4266.749,1368.783,844.616,349.69,142.91,787.458,311.968,83.165,122.873,44.725,397.837,161.879,43.731,90.137,-1.606,72.782,10.402,-8.134,4.665,-1.977,30.283,21.394,-9.846,-17.936,3.208,2.168,-1.38,-0.161,-7.585,-4.935],[5788.543,2446.754,1043.591,553.044,-54.506,1147.069,607.392,100.5,36.935,42.163,573.003,252.157,97.267,33.368,26.015,96.439,54.352,1.327,26.814,13.98,43.223,22.403,-3.397,-3.067,-10.487,15.068,-2.311,7.79,-7.544,-6.75],[6445.218,3519.507,1862.288,572.672,231.578,1314.979,819.712,261.521,206.393,84.445,638.517,359.663,183.553,96.104,4.168,138.604,82.035,40.794,0.236,-3.702,35.804,30.649,0.189,-0.976,-5.494,18.159,13.501,-9.022,2.996,0.465],[6894.693,6277.202,2343.165,636.324,98.841,1361.459,1231.659,375.953,195.332,-36.728,628.891,562.293,211.995,47.745,33.819,142.928,116.46,45.091,35.503,18.657,55.87,43.542,16.602,-3.427,-0.182,11.782,9.218,17.563,8.261,-15.532]]
}