{
"KTrans": [[3.08,1.954,2.344,2.874,1.899,5.344,1.405,3.278,1.899,2.345,3.993,5.445,3.037,2.682,3.36,32.776,16.616,11.392,10.64,11.369,24.308,32.918,24.889,30.671,18.249,-307.527,-55.323,76.336,59.385,42.4],[-12.389,-2.509,0.037,0.636,1.155,-11.85,-3.186,-0.829,0.938,1.491,-8.684,-1.907,0.309,0.619,1.735,-15.919,5.918,4.384,2.181,8.665,-0.252,27.326,21.515,9.272,9.401,-8.257,-48.038,33.663,35.042,24.758],[-47.499,-5.738,-3.354,-1.137,-0.355,-44.716,-10.057,-2.622,-1.503,-0.13,-33.85,-5.858,-3.299,-0.712,0.945,-34.431,-0.052,-1.321,2.449,5.192,-39.494,-16.887,4.798,5.991,3.335,-6.906,35.209,-48.419,23.09,10.545],[-69.488,-12.319,-5.893,-5.472,-1.667,-67.192,-10.2,-7.262,-4.537,-1.752,-64.152,-8.68,-7.103,-3.706,-1.719,-66.88,-14.688,-11.865,-2.424,-0.414,-34.555,-12.742,2.537,0.584,1.555,-18.555,-9.07,15.46,13.251,12.122],[-80.342,-1.549,-10.778,-7.884,-5.403,-77.572,-18.575,-14.075,-4.525,-4.613,-78.276,-7.788,-13.253,-6.229,-2.553,-79.585,-27.064,-4.692,-0.019,-4.748,-71.165,-7.751,3.764,-0.515,1.788,-39.117,-24.451,-5.563,-57.413,13.427],[-86.552,-39.537,-16.342,-10.749,-7.29,-85.719,-45.924,-17.221,-9.393,-6.198,-86.212,-45.02,-5.403,-10.222,-6.807,-86.605,-35.938,-5.367,-4.002,-5.512,-78.007,-33.357,-1.833,-1.386,-4.288,-79.415,-27.933,-13.663,15.774,-1.284]],
"ve": [[1.607,1.332,1.846,2.053,3.233,2.185,1.314,1.123,2.518,4.667,1.825,1.995,2.779,5.305,4.906,12.524,-3.909,-160.616,-35.22,-54.912,50.04,-19.407,-19.228,-20.498,-43.132,7.614,-3.547,-1.344,-17.274,-32.254],[-6.487,-0.883,0.025,0.201,0.546,-7.067,-1.236,-0.02,0.549,0.604,-5.205,-1.133,-0.048,0.437,0.779,0.515,3.777,2.137,1.255,2.977,9.39,17.882,37.901,9.189,-534.857,43.588,18.801,20.64,2.312,-3.98],[-30.474,-2.402,-1.389,-0.337,0.03,-24.388,-4.332,-0.747,-0.393,0.049,-19.86,-2.409,-1.213,-0.317,0.352,-5.179,14.361,-0.046,1.602,2.484,-23.678,18.241,27.676,3.37,2.11,23.871,20.768,26.104,9.551,4.814],[-37.417,-5.112,-2.198,-1.929,-0.763,-41.093,-6.253,-2.45,-1.589,-0.547,-33.961,-5.425,-3.049,-1.67,-0.469,-44.293,-7.152,-6.043,-0.706,0.133,34.829,3.26,-0.11,1.529,0.705,65.471,41.63,22.185,10.803,-0.011],[-53.101,-5.389,-4.435,-2.924,-1.953,-49.61,-10.142,-4.699,-1.974,-1.923,-48.558,-6.78,-5.598,-2.816,-1.059,-41.527,-13.413,-1.861,2.491,-1.928,-33.844,-1.358,3.459,1.275,2.568,85.773,9.777,16.589,11.008,52.228],[-60.699,-20.204,-7.164,-3.523,-2.61,-57.067,-30.329,-5.586,-4.218,-2.365,-57.365,-27.324,-3.349,-3.089,-2.054,-36.813,-11.862,-4.914,-0.8,-0.634,-21.615,-12.648,2.693,-0.398,-2.726,-3.87,0.534,1.595,7.32,6.953]],
"kep": [[-1.743,-2.093,-2.094,-1.32,-2.589,-0.419,-2.791,-0.382,-2.682,-3.136,-2.134,0.464,-1.907,-2.629,-1.065,-6.843,-1.98,-3.203,-0.062,2.665,-3.076,-18.271,-16.88,4.875,-19.666,28.556,46.269,12.204,-7.917,-37.379],[-10.711,-4.735,-3.068,-2.629,-2.442,-10.704,-5.168,-3.897,-2.663,-2.18,-9.163,-4.201,-2.815,-2.939,-2.128,-32.262,-6.799,-3.55,-3.331,2.029,-27.926,-10.707,-0.123,-5.048,-1.952,-29.876,-0.08,-22.557,-4.843,-9.832],[-41.301,-6.89,-5.071,-3.839,-3.433,-41.567,-9.358,-4.981,-4.166,-3.233,-38.186,-7.394,-5.303,-3.526,-2.511,-44.832,-11.21,-6.832,-3.817,-1.105,-45.673,-39.755,-15.7,-5.455,-5.541,-42.822,1.053,-18.598,-13.981,-14.855],[-66.953,-11.712,-6.851,-6.608,-3.961,-65.122,-8.067,-8.011,-6.027,-4.266,-63.848,-8.317,-7.329,-5.21,-4.361,-60.262,-32.292,-12.76,-6.335,-4.368,-57.846,-26.612,-16.328,-8.845,-6.037,-58.497,-42.104,-8.22,-18.432,-15.242],[-75.593,-5.097,-9.974,-8.088,-6.501,-74.857,-16.542,-13.214,-5.721,-5.785,-74.992,-10.109,-11.763,-6.655,-4.621,-74.076,-38.465,-9.503,-6.073,-6.874,-72.441,-30.99,-20.239,-10.531,-6.612,-71.163,-40.399,-23.358,-37.608,-14.342],[-83.214,-37.644,-13.996,-10.52,-7.774,-79.745,-44.911,-15.827,-8.716,-6.928,-80.046,-46.533,-7.035,-10.497,-7.89,-82.239,-46.648,-12.845,-7.602,-8.483,-79.614,-45.8,-20.358,-8.384,-9.313,-79.821,-45.779,-30.153,-6.405,-14.059]],
"vp": [[-143.021,-7.019,-181.655,-152.217,-109.662,-36.195,3.252,-39.134,-0.935,-23.825,-6.114,-28.329,-15.292,-8.542,-24.237,-32.184,-18.804,-9.847,-12.772,-14.215,-52.511,-17.956,-11.113,-22.609,-6.649,0.031,-15.559,-37.363,-30.099,-23.457],[631.082,192.183,45.802,3.787,-105.608,157.954,60.302,18.255,-20.885,-34.366,64.189,25.4,12.807,-0.596,-20.677,5.317,-11.038,-6.137,2.034,-33.998,-7.884,-41.222,-33.132,-5.358,-10.914,-18.263,-20.147,-34.017,-26.852,-15.298],[3148.508,524.686,418.579,160.202,87.284,500.63,179.096,44.562,42.838,4.293,210.319,51.475,36.504,14.622,-18.839,13.28,-2.411,3.841,-11.343,-27.095,33.094,-34.36,-1.603,-5.97,2.026,-2.635,-18.758,-40.092,-19.312,1.427],[4317.852,935.154,645.074,707.102,328.855,841.284,257.135,150.774,131.866,40.419,349.988,121.712,90.548,66.003,21.891,102.9,37.285,42.898,7.414,0.757,-23.999,-1.476,3.466,-3.042,1.703,-32.987,-40.979,-33.048,-21.66,-7.498],[5226.047,1148.65,1288.574,1089.541,969.264,1040.397,400.556,262.758,166.286,207.682,492.367,138.59,176.944,125.162,45.497,88.058,58.966,13.14,-24.251,22.547,38.526,5.153,-9.987,-1.612,-12.089,-46.94,-6.475,-23.095,-16.801,-28.19],[6283.437,3897.352,2062.629,1255.053,1235.88,1187.64,1276.933,307.08,360.927,214.288,584.588,559.119,105.668,117.139,95.941,76.987,48.129,33.309,7.112,5.216,22.521,28.541,-6.891,15.872,21.727,5.332,4.03,0.037,-12.408,-17.548]]
}