{
"KTrans": [[-19.311,2.342,-1.965,4.36,-0.937,-22.282,2.705,3.661,8.076,5.093,-17.795,2.515,4.146,5.18,3.185,-15.586,-7.622,-2.796,-9.633,4.956,-12.063,3.713,-0.051,-0.683,7.704,24.65,21.433,17.596,17.194,-3.225],[-76.077,-12.687,5,-2.385,-1.259,-75.662,-10.281,-3.056,-3.029,0.498,-73.035,-6.13,-2.979,-0.904,-0.739,-73.054,-13.898,2.334,-2.544,-5.873,-65.012,-19.212,-7.354,-0.936,-0.48,-40.321,-10.533,-9.562,-2.13,-5.974],[-89.075,-31.911,-4.064,-0.915,-0.704,-91.16,-34.513,-4.45,-0.585,2.279,-89.87,-32.157,-2.811,0.742,-1.432,-88.761,-34.557,-7.979,-2.366,-1.336,-83.503,-42.419,-11.888,-2.042,-11.925,-70.836,-25.874,-25.885,-7.543,-9.971],[-98.083,-53.264,-12.701,1.22,3.04,-95.792,-55.387,-14.642,0.411,0.043,-96.072,-55.118,-13.957,-5.254,-0.664,-95.069,-53.19,-11.785,-6.336,0.052,-95.889,-61.436,-22.997,-1.643,-1.249,-81.084,-38.484,-17.707,-14.878,0.882],[-97.629,-69.458,-25.116,-5.911,-0.992,-98.158,-70.716,-18.734,-5.061,-2.369,-97.91,-71.575,-26.165,-7.971,-2.695,-97.276,-76.271,-26.56,-12.001,-2.832,-95.617,-72.454,-22.48,-15.725,-7.408,-89.87,-56.391,-25.921,-28.035,-6.688],[-98.889,-80.93,-34.033,-11.61,-1.848,-98.556,-85.091,-34.241,-12.053,0.611,-99.283,-81.205,-32.607,-12.486,-3.648,-98.313,-80.632,-37.971,-13.007,-6.699,-96.166,-76.895,-32.393,-15.329,-8.092,-91.226,-67.008,-45.294,-18.968,-15.237]],
"ve": [[0.153,47.917,-775.12,16.154,72.753,22.326,-266.869,-20.926,53.761,-25.254,-18.902,32.382,13.563,-26.417,0.467,20.278,-2.801,-338.436,45.511,108.767,44.414,35.955,-177.263,-36.767,-79.896,115.257,-38.959,-36.647,-135.578,-85.594],[-42.319,-1.576,1.311,1.169,1.105,-32.16,-2.22,1.163,0.183,0.939,-29.993,-2.86,0.552,1.15,1.838,-49.785,-7.184,-0.356,1.41,0.769,-37.285,-31.524,-2.871,2.879,1.703,-38.701,-18.857,12.028,1.141,12.319],[-28.074,-12.819,-1.473,-0.991,0.499,-60.056,-11.606,-2.539,-1.225,0.422,-56.502,-13.492,-0.567,-0.85,-0.597,-29.391,-17.457,-5.305,-1.044,-1.684,-47.831,-38.992,-4.296,-1.632,-3.887,-31.354,-18.478,-19.362,-1.533,-3.409],[-86.922,-29.574,-5.833,0.134,0.479,-73.12,-24.558,-6.184,-1.173,-0.048,-54.57,-25.543,-6.869,-2.157,-0.383,-73.947,-27.068,-6.214,-2.902,-0.921,-83.922,-34.045,-12.466,-2.289,-1.459,-61.171,-25.206,-15.566,-8.054,1.193],[-96.021,-37.981,-9.847,-4.239,-0.954,-71.984,-39.993,-9.171,-2.126,-1.262,-161.709,-38.857,-11.238,-3.101,-0.668,-16.297,-45.682,-12.709,-6,-2.216,-28.213,-62.124,-9.245,-7.417,-3.003,-72.427,-40.022,-13.969,-15.899,-4.456],[-53.149,-50.625,-14.969,-4.705,-2.107,-134.086,-55.607,-15.421,-5.677,-1.126,-77.571,-46.08,-14.699,-5.323,-1.64,-82.274,-51.874,-19.434,-7.704,-3.978,-99.485,-99.336,-17.638,-8.922,-5.316,22.947,-40.163,-36.343,-13.413,-9.483]],
"kep": [[-27.768,-5.789,-7.564,1.508,-9.53,-34.502,0.524,0.217,10.651,7.115,-28.61,-3.586,3.409,2.882,1.373,-31.682,-15.36,-12.5,-23.386,3.284,-39.767,-14.197,-19.026,-18.146,-1.748,-48.32,-47.249,-23.894,-25.54,-64.11],[-73.502,-12.308,3.525,-3.175,-1.791,-76.185,-8.682,-3.643,-2.687,0.064,-71.259,-4.855,-3.377,-1.648,-1.955,-75.128,-11.008,1.782,-3.545,-5.868,-73.794,-21.688,-7.239,-4.403,-2.472,-69.699,-38.967,-22.778,-10.901,-11.911],[-87.163,-23.776,-3.33,-0.095,-1.16,-89.918,-27.88,-2.61,0.319,1.858,-88.091,-23.295,-2.549,1.315,-0.978,-89.945,-28.171,-5.16,-1.514,0.007,-87.244,-38.072,-10.977,-3.138,-9.539,-78.031,-50.465,-32.086,-13.64,-11.482],[-98.761,-39.99,-8.133,0.546,2.27,-96.83,-44.398,-9.835,0.964,-0.082,-96.329,-43.112,-8.909,-3.512,-0.433,-95.002,-45.495,-7.103,-4.463,0.23,-95.718,-59.106,-17.877,-2.006,-1.216,-81.684,-58.86,-29.516,-17.243,-3.809],[-98.945,-57.987,-17.761,-1.949,-0.205,-99.72,-59.201,-12.022,-3.402,-1.521,-100.183,-59.145,-18.213,-5.445,-2.379,-99.557,-68.018,-18.37,-7.608,-1.238,-96.369,-68.129,-20.359,-12.586,-6.504,-87.292,-70.787,-36.187,-24.564,-8.604],[-100.898,-70.561,-24.018,-7.838,-0.114,-100.451,-75.385,-24.365,-7.619,1.556,-100.615,-71.763,-22.685,-8.546,-2.501,-99.108,-74.251,-27.646,-7.443,-3.398,-95.088,-77.773,-28.137,-10.89,-5.317,-88.6,-76.579,-53.882,-20.894,-13.358]],
"vp": [[817.144,207.252,250.97,-149.908,267.442,155.362,41.166,79.9,-38.211,9.721,63.337,0.639,5.334,-3.484,17.953,24.213,17.307,4.656,20.833,-4.678,11.915,5.243,8.064,8.719,-2.848,9.222,8.205,5.443,-1.368,12.209],[4472.858,1122.788,-12.835,249.892,213.367,885.712,161.385,50.231,81.284,-13.479,390.489,64.619,57.571,38.95,6.661,92.77,39.347,2.675,7.82,24.133,44.677,21.421,14.906,3.203,7.716,25.391,14.938,16.015,7.478,11.048],[5532.848,3264.344,437.975,296.361,272.033,1284.054,639.971,216.019,119.092,-69.941,659.115,343.665,40.556,39.083,55.688,120.062,78.937,35.981,13.653,18.613,57.363,57.738,18.591,9.561,32.058,26.892,23.81,33.038,12.138,18.711],[8046.507,6542.803,1826.127,442.788,-56.872,1504.063,1129.855,399.104,134.304,-6.18,744.028,635.525,234.721,129.638,22.372,154.916,116.035,37.186,24.874,11.966,85.643,76.842,43.16,8.978,3.818,32.126,26.834,21.286,20.188,-1.733],[8649.282,7730.727,3322.677,1795.565,489.717,1738.436,1712.086,617.153,267.342,167.911,893.815,852.832,357.933,154.327,59.977,173.933,204.816,81.723,46.895,21.414,88.165,99.023,28.202,34.327,18.68,35.73,42.451,29.172,36.285,11.803],[9426.312,10244.17,5019.796,2259.345,1238.138,1744.211,2280.657,985.455,489.102,87.479,955.881,1034.68,475.102,231.212,121.626,181.952,224.341,127.111,65.021,39.091,90.108,119.926,56.681,38.641,29.13,32.085,54.607,57.544,29.324,27.876]]
}