{
"KTrans": [[6.421,8.35,-9.239,-10.137,-4.462,7.88,4.431,-2.298,4.407,-15.43,8.282,17.585,6.883,11.776,13.686,16.612,57.784,57.792,66.466,60.985,15.161,1.514,10.111,36.904,94.274,-210.505,1.622,-55.579,-84.486,-60.116],[-33.264,-10.105,4.092,-1.539,-2.523,-35.124,-10.631,1.232,4.829,2.719,-36.698,-3.022,4.948,6.334,8.487,-41,2.879,-8.98,11.05,27.288,3.697,-42.409,0.707,4.006,26.716,-77.068,56.423,-4.687,49.911,-6.193],[-49.633,-18.936,-7.703,-3.663,0.97,-51.275,-13.623,-4.908,-3.591,1.419,-50.535,-9.939,-0.632,3.149,0.898,-37.08,13.927,8.971,7.388,-4.776,-41.763,-23.266,0.686,-18.393,-2.201,15.66,23.31,21.253,-9.426,20.299],[-63.157,-28.291,-7.438,-3.483,-2.098,-60.734,-24.379,-1.429,-0.373,0.601,-56.992,-18.327,-2.882,1.261,-2.711,-47.842,-10.091,-5.732,2.597,-4.723,-35.426,1.69,4.234,2.781,3.855,-26.713,26.632,-35.461,35.923,50.987],[-67.534,-33.172,-9.013,-4.079,0.106,-72.446,-28.355,-9.719,1.894,-0.974,-63.496,-13.288,-4.399,2.882,0.958,-56.025,-27.656,8.378,20.838,21.01,-50.265,-4.289,-31.225,19.816,29.612,-137.481,-27.701,-48.732,-12.719,-40.807],[-81.004,-33.442,-20.68,-8.42,-1.699,-73.803,-37.009,-16.342,1.609,3.885,-69.209,-29.645,-12.241,-0.385,3.11,-68.751,-26.557,-25.881,3.466,11.614,-67.985,-41.67,-22.972,-21.09,-20.674,-78.858,18.898,-18.308,-59.367,-35.476]],
"ve": [[-1.786,-24.575,-26.437,-155.063,39.314,3.144,-8.394,-11.195,-25.195,14.023,-42.77,-17.28,-20.455,-33.794,-29.406,42.599,1.773,-17.107,-47.016,-15.613,109.633,26.907,-420.787,-22.68,-44.861,188.331,64.351,33.645,-3.316,-20.411],[12.216,-15.632,3.151,-2.496,-21.962,-1.051,24.483,0.644,-4.094,-5.598,28.317,11.829,-1.416,-4.27,17.299,55.036,21.074,69.333,3.59,26.753,86.927,59.024,23.294,24.84,7.556,194.833,100.284,54.577,43.511,51.374],[-12.192,-13.403,-6.419,-5.223,-0.218,-10.272,7.534,-4.528,-73.993,2.646,-14.799,-8.572,-16.346,-0.034,-2.012,41.6,20.707,18.623,33.175,8.838,96.712,49.196,31.004,26.188,21.719,213.766,94.509,66.354,45.982,36.45],[9.193,-8.456,-2.819,-6.813,-1.65,-98.185,-7.93,3.715,-27.872,-20.681,-16.332,-8.443,-36.587,-3.854,-0.51,-6.866,17.876,15.52,-45.175,7.953,92.02,46.627,30.547,20.79,17.879,190.582,100.778,68.598,49.291,39.161],[-0.542,-4.062,-3.58,-1.053,-2.584,6.729,-5.042,-1.817,-1.331,1.718,0.498,-0.414,1.631,1.203,-0.063,102.397,25.504,11.64,9.412,50.27,329.77,45.698,27.803,24.792,15.809,203.337,94.221,64.986,48.729,38.048],[-55.76,-2.26,-2.116,-3.523,-1.822,81.196,8.439,-0.754,-1.584,-0.316,-2.507,-2.915,-13.911,-2.739,0.616,64.534,25.312,18.856,12.053,9.297,11.354,44.449,32.448,28.75,20.517,153.645,91.492,63.062,53.115,39.743]],
"kep": [[-119.875,-97.467,-26.35,-0.453,18.764,-137.222,-65.546,-15.665,-50.687,44.776,-107.673,-79.904,-74.28,-28.719,-77.991,-138.704,-179.046,-139.119,-209.943,-152.486,-103.852,-230.085,-369.607,-404.859,-393.473,-72.948,-123.965,-399.733,-516.477,-680.055],[-77.898,-88.518,-118.334,-77.436,-20.633,-83.572,-86.168,-109.1,-65.572,-25.73,-84.92,-76.181,-118.344,-52.361,-29.15,-86.622,-66.531,-143.708,-178.489,-105.663,-63.848,-74.546,-96.976,-180.766,-181.627,-70.967,-10.852,-41.614,-87.321,-212.25],[-79.986,-49.755,-47.568,-73.904,-122.986,-82.442,-42.87,-42.532,-85.084,-119.53,-81.824,-39.669,-42.806,-60.958,-133.519,-78.886,-36.05,-29.539,-58.963,-151.538,-77.96,-53.382,-40.81,-72.008,-90.54,-65.888,-41.567,-15.71,-22.766,-5.568],[-85.733,-47.685,-21.423,-14.321,-28.001,-85.963,-48.589,-19.59,-19.075,-28.856,-82.236,-43.915,-19.111,-18.495,-36.393,-79.697,-43.196,-41.847,-35.393,-48.192,-75.644,-43.013,-35.399,-31.712,-26.607,-67.154,-40.929,-52.996,1.099,15.037],[-86.685,-51.437,-17.291,-9.308,-5.128,-91.842,-47.4,-21.924,-5.583,-9.533,-86.272,-33.886,-20.131,-0.132,-9.148,-83.752,-58.392,-23.42,-1.477,8.491,-82.881,-46.893,-51.354,-13.271,1.347,-92.426,-57.792,-57.047,-33.708,-57.393],[-95.235,-53.303,-32.543,-16.709,-5.852,-89.965,-54.625,-30.246,-3.88,0.513,-88.483,-51.327,-26.943,-11.033,1.967,-88.452,-55.507,-49.93,-20.5,-10.508,-86.756,-65.566,-49.817,-42.306,-42.887,-86.243,-47.633,-45.233,-57.149,-55.946]],
"vp": [[108.264,727.239,20.262,588.135,719.706,-96.625,88.415,5.698,42.781,219.863,-93.184,0.21,33.082,-3.827,59.79,-32.101,-12.868,-25.356,-32.774,-6.839,-51.41,-15.445,-8.225,-1.713,-24.738,-8.968,-25.848,-23.134,-6.739,-26.246],[2419.853,594.186,408.419,114.839,-13.46,545.139,229.698,-75.174,-95.067,-39.492,176.604,106.958,-68.91,-28.632,-30.687,27.707,-6.837,-34.987,-9.895,-17.302,-33.292,-28.276,-36.893,-25.3,-25.25,-8.831,-32.097,-49.673,-62.264,-9.388],[4289.818,3135.257,1785.208,982.561,102.297,861.245,581.668,349.92,110.774,-0.557,381.128,296.747,136.859,-42.196,-18.441,60.007,35.55,22.174,-34.214,-40.69,-13.993,4.327,-33.913,-14.73,-56.991,-40.506,-47.654,-27.644,-33.092,-42.662],[4478.965,4304.159,3007.715,1346.997,1128.59,1041.97,797.346,668.63,386.209,200.158,547.774,394.839,337.341,229.989,-10.69,79.48,52.125,18.727,35.195,-29.346,-6.013,-24.428,-27.194,-51.562,-36.435,-32.654,-31.505,-34.208,-49.671,-44.235],[5005.038,5512.874,4312.76,2421.927,1008.519,1279.764,1385.581,703.42,626.376,320.637,657.774,637.635,413.74,224.289,141.217,85.94,74.503,65.453,13.598,25.731,26.056,38.012,-22.71,-38.448,-44.285,-3.578,-26.709,-20.326,-51.074,-62.986],[6668.182,8284.974,4694.509,4485.535,2537.263,1245.018,1397.321,1425.779,493.81,616.092,629.514,719.678,474.721,380.055,209.896,73.956,102.991,121.565,69.779,19.48,32.424,13.659,10.267,23.547,-11.665,-22.022,-37.44,-22.749,-9.08,-35.081]]
}