{
"KTrans": [[76.388,40.163,30.208,27.268,25.768,80.408,50.611,57.533,43.014,29.268,101.807,56.717,62.185,47.394,41.837,313.071,145.325,120.304,114.124,88.459,601.361,339.675,246.705,205.295,193.095,1621.552,782.038,577.57,472.681,469.07],[-82.694,116.18,71.029,49.608,56.693,-35.337,126.515,89.971,52.52,46.809,73.411,123.025,73.304,52,56.052,-2.842,242.457,122.995,90.676,78.311,104.17,403.769,229.324,153.653,137.904,549.615,743.885,375.446,291.207,226.146],[-215.427,351.487,154.152,74.877,56.367,-235.478,281.304,146.34,105.258,77.36,-242.518,463.254,132.094,102.822,78.722,-347.401,629.187,241.589,118.438,112.987,-694.072,909.634,324.025,189.491,159.826,-937.62,1499.148,550.383,321.562,238.617],[-209.555,-306.69,343.599,163.055,98.668,-222.032,-254.49,416.736,165.615,110.894,-213.349,-299.343,463.387,162.815,115.672,-306.123,-443.811,514.125,248.328,135.025,-415.379,-550.14,822.774,261.887,200.263,-826.595,-230.965,993.243,498.118,278.286],[-164.997,-296.757,-67.232,351.593,161.822,-176.44,-284.061,-128.328,351.699,150.171,-183.993,-280.279,15.705,391.783,166.391,-201.254,-377.797,-207.817,413.294,203.483,-336.592,-385.273,-59.321,615.568,263.285,-552.59,-784.757,315.75,918.114,409.034],[-162.634,-263.294,-274.535,65.247,357.779,-145.923,-279.726,-216.076,364.936,310.065,-163.847,-267.338,-422.174,342.513,298.433,-192.867,-280.564,-307.085,713.064,379.8,-330.438,-466.422,-451.567,559.753,485.22,-476.8,-507.48,-342.451,656.786,822.908]],
"ve": [[3.522,0.177,12.8,1134.892,364.503,5.28,1.346,-2.206,-0.312,50.73,8.868,1.461,-2.636,-2.933,3.225,48.201,12.173,-1.95,-12.318,-21.021,95.372,36.209,7.821,-8.256,-19.492,193.074,82.997,36.498,9.874,-4.656],[2.977,4.263,3.383,1.285,1.926,7.491,4.504,6.492,1.399,1.317,17.299,6.684,4.632,1.615,2.133,56.52,27.958,15.672,8.756,4.817,100.332,53.156,32.908,21.076,14.085,204.954,98.408,61.648,44.419,29.024],[4.733,4.808,4.385,1.539,0.351,6.636,3.446,3.979,6.297,4.166,11.834,8.21,4.384,5.269,4.758,52.118,28.279,20.537,11.306,12.166,105.546,54.154,35.23,24.93,21.18,197.065,101.058,66.106,48.331,37.435],[4.554,3.398,-1.277,2.574,2.411,11.679,5.685,6.445,4.969,4.669,14.405,8.767,8.034,4.491,6.89,55.77,27.807,20.307,16.833,11.354,105.866,51.821,36.858,25.765,23.449,202.529,105.262,66.906,52.947,38.023],[5.015,3.962,5.419,3.136,2.481,7.136,2.723,5.528,4.295,1.843,13.747,9.507,7.156,6.029,4.52,50.378,27.859,16.67,13.755,11.544,104.141,53.492,40.225,26.006,21.788,203.74,102.111,73.141,54.375,40.744],[6.068,4.053,6.113,1.896,4.449,5.152,6.506,7.022,3.206,4.169,11.949,7.359,7.593,5.645,4.746,49.084,26.787,22.574,15.395,13.232,104.639,50.441,36.062,25.117,25.266,205.093,101.115,70.504,53.46,43.987]],
"kep": [[62.416,39.785,32.777,34.288,38.111,63.317,47.025,64.109,56.892,46.021,77.417,52.2,69.469,62.473,65.749,170.08,112.119,120.371,140.633,135.299,251.505,217.172,214.808,227.117,256.623,478.659,377.184,390.292,413.146,490.31],[-85.064,96.809,59.793,42.659,51.801,-42.119,104.118,74.404,44.8,42.039,43.073,96.826,59.147,43.375,50.226,-35.826,156.71,85.001,67.665,63.565,-1.24,218.506,139.417,102.895,102.668,112.888,309.516,184.897,164.781,145.715],[-199.02,301.55,129.878,62.528,47.634,-213.656,235.125,121.421,86.823,64.763,-213.208,380.728,106.922,83.148,64.845,-248.976,433.58,169.927,84.587,83.978,-376.449,523.548,198.379,121.138,107.15,-364.423,658.806,272.16,171.798,137.834],[-196.418,-274.195,295.639,138.406,82.794,-203.266,-226.57,355.477,138.249,92.26,-191.937,-263.467,387.574,134.049,95.139,-226.964,-342.475,378.137,184.289,99.971,-246.881,-369.203,537.086,171.356,134.254,-331.469,-154.556,516.815,275.472,159.693],[-156.701,-271.546,-62.551,303,137.693,-164.96,-255.841,-120.995,299.287,126.348,-168.169,-250.12,4.966,330.049,138.31,-160.084,-299.883,-176.986,314.853,154.102,-211.727,-272.248,-63.367,423.734,181.436,-243.381,-419.391,138.004,529.957,241.418],[-156.483,-243.933,-247.58,50.025,308.299,-139.076,-256.274,-194.842,312.08,265.034,-153.243,-241.19,-372.724,288.856,251.524,-155.777,-228.161,-251.15,549.62,296.172,-208.845,-324.271,-333.223,386.649,345.865,-220.231,-288.858,-226.774,370.346,507.466]],
"vp": [[0.001,0.001,0.001,0.001,0.001,0.005,0.005,0.005,0.005,0.005,0.01,0.01,0.01,0.01,0.01,0.05,0.05,0.05,0.05,0.05,0.1,0.1,0.1,0.1,0.1,0.2,0.2,0.2,0.2,0.2],[0.001,0.001,0.001,0.001,0.001,0.005,0.005,0.005,0.005,0.005,0.01,0.01,0.01,0.01,0.01,0.05,0.05,0.05,0.05,0.05,0.1,0.1,0.1,0.1,0.1,0.2,0.2,0.2,0.2,0.2],[0.001,0.001,0.001,0.001,0.001,0.005,0.005,0.005,0.005,0.005,0.01,0.01,0.01,0.01,0.01,0.05,0.05,0.05,0.05,0.05,0.1,0.1,0.1,0.1,0.1,0.2,0.2,0.2,0.2,0.2],[0.001,0.001,0.001,0.001,0.001,0.005,0.005,0.005,0.005,0.005,0.01,0.01,0.01,0.01,0.01,0.05,0.05,0.05,0.05,0.05,0.1,0.1,0.1,0.1,0.1,0.2,0.2,0.2,0.2,0.2],[0.001,0.001,0.001,0.001,0.001,0.005,0.005,0.005,0.005,0.005,0.01,0.01,0.01,0.01,0.01,0.05,0.05,0.05,0.05,0.05,0.1,0.1,0.1,0.1,0.1,0.2,0.2,0.2,0.2,0.2],[0.001,0.001,0.001,0.001,0.001,0.005,0.005,0.005,0.005,0.005,0.01,0.01,0.01,0.01,0.01,0.05,0.05,0.05,0.05,0.05,0.1,0.1,0.1,0.1,0.1,0.2,0.2,0.2,0.2,0.2]]
}