{
"KTrans": [[2.342,1.905,1.474,1.47,0.816,11.194,8.618,6.301,5.698,5.102,25.268,17.859,12.593,11.613,11.012,-39.259,77.521,64.639,61.055,57.93,21.928,37.736,84.204,81.72,67.568,82.287,253.472,-55.064,-31.237,132.419],[5.51,0.376,0.781,0.619,0.655,22.427,6.07,3.705,3.537,2.874,40.172,12.258,8.524,6.365,5.72,18.583,58.21,44.471,33.75,30.715,42.729,-2.063,32.356,77.009,67.969,102.983,131.433,-35.313,5.191,78.074],[17.464,-0.422,1.176,0.37,0.446,33.18,7.946,4.099,2.643,2.317,-27.602,10.814,8.697,6.687,4.916,-12.911,1.4,41.104,39.325,24.986,7.452,22.554,-3.206,66.52,47.676,11.04,51.519,-29.858,49.813,22.154],[-64.485,0.103,0.666,-0.339,0.255,-75.03,14.216,1.985,3.297,2.519,-40.492,7.677,4.203,6.438,5.117,-35.247,5.943,60.253,40.855,25.194,-13.943,5.066,-13.782,58.881,48.086,38.442,20.71,-14.315,-53.33,-22.676],[-67.742,15.01,0.997,0.046,1.052,-72.833,13.602,7.131,2.556,1.233,-64.812,26.665,7.641,3.986,4.171,-61.669,-18.518,87.863,37.379,18.67,-44.652,-39.654,-24.136,-15.115,52.497,-15.447,30.492,12.346,-3.147,3.222],[-79.299,12.395,7.652,0.212,-0.372,-77.178,24.975,8.65,2.801,1.464,-73.373,-45.725,15.261,5.291,2.1,-65.19,-24.904,11.76,27.31,25.639,-55.681,-27.399,-0.798,-76.261,61.529,-28.456,-3.021,13.358,1.325,5.972]],
"ve": [[0.82,0.328,0.207,0.116,0.511,4.18,0.728,-0.817,-2.213,-3.078,8.688,1.953,-1.67,-4.508,-6.597,45.634,21.432,3.883,-7.845,-16.012,96.272,39.692,23.449,-10.336,-20.107,202.348,80.475,36.957,11.639,-10.596],[1.388,0.384,0.277,0.214,0.232,5.848,2.409,1.385,0.962,0.59,10.587,4.792,2.84,1.809,1.028,50.496,28.179,14.588,9.744,6.15,101.198,50.354,30.684,26.631,14.496,199.431,95.845,64.825,43.11,29.133],[1.184,0.329,0.384,0.175,0.162,6.128,2.803,1.643,1.098,0.82,11.568,4.902,3.28,2.323,1.664,53.13,23.989,16.044,12.17,8.581,93.328,49.295,33.495,23.872,17.589,215.875,108.136,67.56,46.66,35.756],[-0.13,0.206,0.353,0.154,0.156,7.729,3.246,1.504,1.286,0.936,9.594,4.521,2.978,2.546,1.896,53.115,25.512,17.654,12.869,9.579,100.071,54.819,34.218,27.142,18.949,194.375,101.448,68.23,51.173,38.746],[1.628,0.866,0.382,0.229,0.284,6.919,2.392,1.966,1.263,0.859,11.952,5.349,3.337,2.324,1.916,49.513,27.428,15.519,12.926,9.388,101.445,53.701,34.135,24.558,20.564,199.408,96.174,68.144,50.752,39.362],[1.299,0.788,0.896,0.18,0.095,-2.894,4.453,1.851,1.199,0.922,11.151,5.663,3.608,2.544,1.721,50.832,24.623,16.365,12.533,10.095,106.726,48.875,34.186,26.883,22.655,211.869,114.797,66.869,50.22,40.177]],
"kep": [[0.763,0.825,0.539,0.66,-0.329,5.928,7.061,6.411,7.356,7.737,14.239,14.773,13.703,16.177,18.108,-46.405,50.131,60.045,74.845,87.666,-16.458,6.469,62.763,77.191,81.44,-9.255,113.89,-29.872,-5.102,160.076],[2.808,-0.759,-0.236,-0.335,-0.318,14.003,2.787,1.535,1.793,1.518,24.01,6.255,4.737,3.702,3.878,-17.508,24.201,24.743,20.8,22.174,-21.558,-25.006,0.945,42.425,45.649,-22.879,25.064,-45.452,-15.311,35.352],[11.451,-1.701,0.012,-0.545,-0.453,20.257,3.974,1.624,0.777,0.739,-34.702,4.47,4.394,3.484,2.437,-38.82,-16.438,19.776,22.741,14.118,-42.107,-13.007,-23.557,32.222,24.199,-55.975,-15.758,-45.34,5.875,-7.108],[-64.807,-1.666,-0.617,-1.262,-0.647,-74.741,8.857,-0.453,1.186,0.809,-46.046,1.174,0.227,2.981,2.385,-54.635,-15.351,32.72,23.153,13.103,-54.001,-27.072,-29.966,24.294,22.477,-50.463,-32.711,-39.926,-56.299,-36.114],[-67.713,10.672,-0.605,-1.051,-0.036,-72.897,7.405,3.708,0.385,-0.419,-67.423,16.054,2.815,0.692,1.397,-72.754,-33.929,52.856,19.614,7.44,-70.032,-54.933,-39.272,-29.629,24.244,-68.586,-30.518,-26.632,-28.625,-19.712],[-78.142,6.879,4.885,-1.085,-1.341,-76.979,15.112,4.742,0.435,-0.354,-74.742,-49.126,8.937,1.563,-0.524,-75.119,-38.658,-6.694,11.182,12.679,-75.008,-48.672,-23.94,-71.704,30.32,-73.344,-47.641,-27.752,-26.389,-20.232]],
"vp": [[-43.871,-74.155,-79.006,-76.248,-109.673,-80.878,3.041,-41.489,-27.125,-43.567,-47.874,21.182,-38.993,-16.223,-26.817,-57.791,3.656,-12.444,-11.924,-11.35,-51.482,-43.396,-24.675,-4.332,-9.145,-44.318,-36.861,0.296,-11.433,-14.839],[326.481,102.801,-54.241,-95.435,-144.199,62.493,0.04,-74.426,-19.014,-48.553,11.031,29.099,-40.521,-33.871,-27,-63.794,-44.932,-57.101,-30.047,-13.127,-42.831,-48.919,-29.987,2.83,-4.863,-55.526,-50.027,-33.135,-2.379,-26.25],[577.47,624.857,253.306,201.416,-51.057,119.765,129.302,88.905,-3.614,-55.874,43.751,57.618,68.097,39.782,-40.536,-17.192,-65.462,-39.579,-50.309,-51.594,-78.354,-60.394,-72.638,-46.891,-65.371,-23.925,-26.007,-53.23,-69.862,-42.075],[2220.708,1147.899,597.097,403.105,238.3,584.188,165.446,81.198,42.837,85.99,123.32,5.524,67.643,51.504,62.405,7.261,-38.606,14.482,13.742,-17.774,-48.675,-32.965,-54.708,-29.812,-39.614,-65.17,-74.697,-48.53,-50.464,-60.2],[3279.302,1335.251,999.493,977.464,553.62,761.154,96.546,231.179,208.172,112.886,258.405,116.769,57.793,75.516,47.027,9.431,-0.288,21.993,20.771,-24.974,-20.949,-18.578,-24.702,-48.794,-31.903,-33.046,-60.295,-25.878,-51.963,-52.376],[3964.562,2182.772,1450.555,1257.603,1278.373,963.069,604.34,291.222,322.917,167.606,318.781,224.985,36.474,96.002,91.912,-14.501,-48.795,-9.734,13.934,20.307,-6.221,-39.082,-38.134,-59.105,-13.02,-21.489,-35.276,-44.165,-46.03,-28.027]]
}