{
"KTrans": [[1.817,5.241,3.287,1.877,4.528,0.723,3.202,2.61,2.982,5.337,1.738,3.864,3.595,5.108,1.1,10.287,13.05,13.936,8.288,2.793,76.312,36.991,25.945,16.96,18.717,-53.395,68.55,38.817,44.389,56.896],[-15.434,-3.019,-0.218,2.512,1.826,-18.416,-4.354,0.965,1.549,2.094,-16.892,-2.558,0.511,1.961,2.091,-23.345,-1.815,1.985,4.748,3.017,-18.621,11.964,10.159,12.255,5.014,-42.641,29.526,13.418,23.118,15.142],[-60.095,-11.28,-4.17,-0.098,0.091,-49.84,-12.561,-4.221,-1.091,0.16,-47.177,-15.404,-4.722,-2.328,0.918,-45.293,-1.701,-2.635,2.086,2.121,-44.894,-3.286,-3.112,4.51,2.424,-55.299,-0.24,14.96,9.983,9.448],[-71.922,-17.031,-12.232,-4.973,-3.072,-76.443,-18.19,-11.084,-4.348,-2.458,-71.159,-13.53,-10.776,-6.059,-3.165,-69.912,-22.346,-10.999,-1.694,-1.324,-65.291,-16.609,-9.249,4.898,-4.312,-66.73,-17.161,0.798,12.326,5.709],[-86.372,-28.307,-14.623,-8.232,-5.375,-89.678,-27.721,-17.541,-8.082,-6.02,-84.276,-28.475,-15.049,-7.922,-4.904,-74.994,-31.257,-14.239,-8.496,-4.151,-80.552,-36.562,-2.712,-8.849,-0.515,-63.012,-40.18,-5.719,-2.11,2.293],[-88.782,-36.39,-22.357,-11.095,-8.551,-87.775,-40.704,-21.648,-14.125,-9.814,-87.43,-43.119,-22.609,-13.429,-8.187,-85.865,-44.983,-19.47,-13.672,-7.969,-89.959,-49.827,-23.803,-9.91,-7.84,-82.048,-52.423,-9.405,-2.86,-9.668]],
"ve": [[2.923,1.851,4.833,7.832,6.952,-0.261,2.375,4.566,7.015,6.418,1.912,3.094,5.905,4.628,14.314,9.055,14.928,65.933,-19.029,5.654,38.085,-13.421,-20.992,-58.124,-165.693,13.299,8.212,-35.765,-88.83,-31.341],[-8.08,-0.559,-0.186,0.962,1.04,-9.03,-1.185,0.492,0.938,1.167,-8.73,-0.327,-0.185,0.995,1.114,-10.885,-0.105,1.367,1.92,1.835,-0.211,7.061,5.247,5.599,3.389,-12.854,14.776,7.657,17.887,29.713],[-36.915,-4.47,-1.226,0.157,-0.125,-26.123,-4.648,-1.202,-0.574,0.517,-25.071,-4.797,-2.113,-0.729,0.34,-15.711,2.104,-0.202,1.303,0.725,-17.624,3.138,-1.076,2.865,1.468,-7.261,16.818,10.901,5.751,4.742],[-45.724,-7.702,-4.251,-1.751,-1.412,-47.351,-7.004,-3.955,-1.327,-0.646,-40.228,-5.574,-4.284,-2.16,-0.965,-40.705,-10.984,-4.415,0.463,-0.2,-32.979,-6.977,-2.457,5.332,-2.25,-6.952,0.678,2.922,9.567,4.151],[-57.389,-13.528,-5.36,-3.031,-1.678,-66.567,-13.53,-6.384,-2.561,-1.99,-55.292,-13.133,-5.616,-2.902,-1.806,-39.558,-16.371,-4.217,-2.09,-0.88,-44.114,-12.729,6.332,-2.228,1.884,16.411,-6.696,4.05,2.368,2.731],[-57.635,-18.162,-8.945,-4.027,-2.847,-59.318,-21.275,-8.349,-5.128,-3.407,-54.536,-25.094,-9.652,-4.791,-3.039,-54.797,-21.517,-7.739,-5.112,-2.293,-66.586,-26.151,-11.013,-1.819,-1.748,-45.096,-15.509,0.736,5.358,-4.297]],
"kep": [[-7.396,-2.294,-5.997,-9.261,-4.696,-5.506,-4.539,-6.472,-7.265,-2.113,-7.162,-4.603,-6.128,-2.541,-12.203,-11.151,-2.44,2.28,-2.092,-12.8,-1.4,0.32,4.138,-4.31,2.904,33.483,-22.3,-33.675,-12.751,21.511],[-17.217,-8.533,-6.063,-4.503,-5.185,-17.986,-9.137,-5.57,-5.399,-5.06,-16.211,-8.288,-5.374,-5.063,-5.014,-36.097,-10.001,-6.634,-3.95,-5.144,-38.484,-9.737,-5.087,-1.788,-5.428,-35.325,-24.423,-14.277,-2.867,-6.296],[-50.881,-13.47,-8.957,-6.242,-5.764,-43.062,-14.228,-9.002,-6.5,-6.312,-42.221,-17.337,-8.8,-7.547,-5.448,-54.613,-11.711,-9.339,-5.763,-4.986,-55.107,-20.722,-11.475,-6.563,-6.471,-57.076,-26.451,-13.915,-10.925,-6.939],[-65.715,-16.785,-14.165,-9.11,-7.583,-70.261,-18.846,-13.335,-8.936,-7.714,-65.121,-15.724,-12.658,-9.889,-8.106,-69.838,-21.135,-13.765,-8.492,-7.5,-70.033,-34.011,-16.2,-7.586,-9.661,-68.058,-28.381,-28.188,-10.096,-9.739],[-81.934,-24.856,-15.695,-11.121,-9.57,-85.098,-23.775,-17.693,-11.432,-9.915,-81.303,-25.38,-15.661,-11.038,-9,-74.311,-31.065,-16.874,-12.792,-9.411,-75.694,-49.345,-15.445,-14.138,-9.301,-72.262,-55.777,-37.231,-18.268,-11.072],[-85.301,-30.585,-20.527,-13.213,-11.554,-85.015,-32.031,-20.357,-15.029,-12.278,-83.509,-34.165,-20.359,-14.749,-11.067,-82.663,-44.077,-19.317,-15.173,-11.753,-81.982,-58.856,-25.148,-15.039,-13.084,-79.302,-58.206,-29.578,-19.1,-16.904]],
"vp": [[-127.659,-146.328,-104.553,-10.969,-184.34,32.138,-18.339,-24.966,-21.309,-38.356,-3.035,-14.19,-13.885,-14.068,15.446,4.61,-12.559,-12.836,-3.654,11.679,-37.369,-17.217,-12.264,-3.102,-7.629,-5.179,-13.842,-0.907,-5.948,-17.466],[810.72,132.507,178.42,-238.954,-159.509,174.287,59.225,-23.251,-28.745,-32.409,94.46,18.502,10.739,-21.243,-21.032,30.862,7.231,2.268,-5.531,-0.729,4.562,-8.406,-9.718,-16.411,-0.638,14.436,-12.64,2.902,-14.328,-4.872],[3861.511,824.894,366.475,-103.212,7.267,571.347,178.972,72.883,31.093,-25.561,270.79,111.429,67.31,43.445,-14.553,35.082,-5.904,6.271,-7.972,-4.518,23.172,-0.083,10.419,-7.619,0.357,10.237,-13.922,-11.268,-2.177,-3.356],[4959.528,1603.227,1209.945,620.779,626.376,1007.021,272.007,227.559,116.348,45.342,433.979,116.352,138.052,87.405,47.871,92.604,53.214,34.257,-0.501,3.659,29.085,19.945,12.577,-21.249,20.508,8.378,4.178,1.34,-16.286,-4.237],[6292.328,2779.939,1564.189,1055.575,682.603,1474.503,573.038,370.865,179.825,179.097,611.788,270.902,170.182,104.496,75.619,89.279,72.174,29.153,19.467,11.938,53,33.102,-20.493,14.905,-6.986,-6.246,14.57,-4.959,1.282,-1.233],[6497.775,3773.917,2554.581,1536.274,1162.708,1285.674,906.374,527.266,427.444,317.083,649.896,558.077,290.193,185.107,134.987,123.59,100.079,50.763,44.175,25.39,78.818,62.622,42.364,10.541,12.766,30.944,22.833,3.608,-8.059,18.414]]
}