{
"KTrans": [[-57.013,-73.008,-79.698,-74.026,-85.893,-59.944,-59.118,-62.924,-79.036,-76.407,-37.39,-69.927,-68.295,-70.842,-69.539,36.096,-7.421,-28.818,-28.356,-28.201,53.044,22.628,43.528,20.541,18.767,136.648,133.279,76.781,112.776,110.332],[-57.395,-45.409,-56.951,-58.744,-62.579,-52.428,-36.962,-42.008,-56.125,-62.096,-55.911,-35.472,-32.529,-53.105,-63.072,-26.153,-7.613,-3.536,-18.635,-38.594,-12.685,22.177,15.759,-13.119,-28.861,51.677,36.549,21.314,4.115,7.926],[-70.689,-51.713,-48.978,-45.914,-55.231,-71.704,-53.363,-42.208,-41.608,-46.41,-68.73,-43.626,-37.389,-30.235,-47.955,-57.085,-38.433,-23.198,-8.324,-7.503,-36.931,-13.923,-16.052,1.51,6.678,-19.028,24.003,34.356,28.376,25.674],[-78.38,-58.341,-46.485,-39.403,-48.23,-79.638,-57.305,-45.198,-46.933,-45.317,-76.043,-54.177,-44.389,-40.113,-30.115,-71.787,-49.762,-34.284,-31.057,-22.289,-60.307,-36.637,-19.229,-12.397,-14.932,-45.88,-16.521,0.488,27.596,7.802],[-84.353,-65.351,-54.449,-43.856,-40.668,-83.914,-64.16,-52.68,-42.157,-49.546,-81.877,-64.267,-44.511,-43.694,-43.415,-78.102,-56.868,-41.887,-26.627,-36.464,-65.736,-44.533,-31.659,-16.916,-18.659,-57.738,-25.662,-2.481,9.903,-1.912],[-86.672,-72.13,-55.296,-46.216,-49.24,-87.217,-70.825,-52.627,-51.883,-42.072,-86.628,-67.826,-48.925,-46.552,-39.789,-80.592,-62.805,-50.182,-38.493,-30.327,-73.426,-53.888,-38.053,-32.602,-32.073,-69.78,-27.302,-18.503,-14.533,-8.216]],
"ve": [[-54.546,-110.617,-132.492,-14.767,325.057,-37.042,-38.141,-54.44,-89.585,-27.387,-60.798,414.182,-82.097,-136.06,-119.456,-10.13,-77.027,-156.627,-88.077,-58.249,54.369,108.08,7.205,-90.901,-44.707,157.077,123.155,11.325,3.3,-37.556],[-23.72,-37.208,-49.567,-71.85,-44.116,-25.728,-115.796,-53.825,-39.311,-85.491,29.826,-37.429,-40.323,-46.857,-41.065,51.924,-150.363,30.424,-25.704,-29.017,77.547,31.715,8.525,-12.447,-8.576,267.065,60.076,32.709,18.147,22.803],[-2.385,-58.648,-44.808,-134.915,-56.2,-34.663,-56.2,-41.131,-43.716,-49.741,-51.59,-15.946,2028.125,-23.565,-50.408,59.482,-20.769,-27.928,-12.098,-7.04,89.172,27.306,-23.941,6.56,4.774,203.613,60.727,49.585,45.797,27.834],[-11.525,-35.909,-59.005,-54.492,-107.134,-30.532,-57.728,-79.631,-84.657,-58.991,18.762,-49.89,-64.372,-59.073,-32.072,121.05,-43.041,-50.285,-79.446,-28.198,293.298,2.323,-5.381,-11.83,-30.328,186.005,-211.306,2.094,42.94,-22.182],[25.04,-62.23,-93.338,-70.886,-59.864,40.299,-33.15,-77.013,-83.213,-81.438,40.522,-38.09,-62.055,-84.028,-70.157,135.515,-14.712,-63.939,-34.323,-62.004,115.47,21.692,-21.025,-24.999,-36.282,186.146,75.088,26.365,24.075,-10.482],[-90.521,-30.539,-77.476,-74.05,-97.985,-13.895,-25.645,-48.809,-105.277,-76.746,-52.153,-21.104,-18.781,-88.635,-77.523,45.918,0.124,-49.336,-82.61,-59.16,135.191,10.835,-25.297,-78.909,-59.746,481.313,132.348,44.932,-28.506,-40.633]],
"kep": [[-125.494,-70.092,-69.567,0.081,-12.913,-121.18,-80.833,-61.869,-32.226,-4.39,-119.101,-63.282,-17.782,-5.229,11.976,-108.326,-107.057,-93.232,-45.428,-32.964,-92.997,-92.365,-108.799,-62.309,-28.369,-59.436,-109.998,-94.388,-99.879,-93.585],[-93.506,-88.1,-125.774,-78.627,-19.109,-91.86,-86.618,-116.135,-68.927,-40.634,-94.384,-89.518,-124.832,-64.781,-7.204,-97.732,-84.874,-112.787,-88.077,-15.15,-89.436,-74.315,-96.818,-75.363,-21.045,-80.758,-52.238,-51.29,-79.149,-77.036],[-93.045,-67.59,-64.346,-85.389,-104.416,-96.304,-68.274,-72.461,-84.726,-108.025,-96.668,-65.201,-61.433,-88.963,-122.052,-94.87,-70.12,-58.307,-81.564,-115.543,-92.172,-62.259,-45.355,-72.463,-111.804,-87.264,-45.567,-45.635,-59.032,-77.966],[-96.638,-72.993,-41.302,-28.369,-47.816,-96.315,-66.434,-29.303,-32.04,-42.564,-96.466,-70.497,-39.098,-34.879,-46.469,-96.805,-63.726,-35.354,-19.708,-36.915,-94.635,-68.781,-53.238,-27.893,-30.391,-91.806,-51.57,-41.48,-47.62,-17.715],[-99.326,-71.504,-39.155,-20.262,-21.235,-99.93,-74.294,-42.367,-12.785,-20.113,-100.077,-74.439,-38.741,-21.531,-8.91,-97.31,-72.375,-40.61,-23.584,-14.614,-96.517,-73.375,-48.835,-20.403,-14.424,-90.98,-69.334,-48.326,-32.396,-26.988],[-99.328,-82.422,-45.554,-27.094,-10.673,-100.114,-80.952,-48.892,-23.843,-18.925,-99.192,-78.669,-45.247,-22.74,-11.257,-97.815,-81.789,-47.728,-16.707,-4.397,-96.385,-75.093,-48.348,-16.134,-15.047,-93.36,-73.781,-56.204,-29.307,-14.245]],
"vp": [[295.916,383.538,-365.158,871.75,-356.502,-167.058,104.181,6.296,-5.115,53.677,-9.694,14.47,62.103,40.578,-8.758,-23.122,7.29,5.509,-4.542,-13.933,-13.384,-5.785,7.656,6.797,-2.067,-5.059,-2.834,0.86,-0.128,-0.79],[2872.784,644.251,-326.734,-249.07,-186.921,541.661,162.119,33.15,69.459,-93.235,233.124,111.864,-5.687,5.184,42.068,63.538,19.182,-19.941,-23.147,-14.893,13.005,9.571,-10.711,12.28,12.01,-1.927,-17.169,-13.931,1.365,3.847],[4109.195,3460.365,942.076,501.79,-206.393,908.615,585.717,438.263,113.491,-42.215,495.957,263.588,214.043,128.447,-50.817,89.057,68.455,12.247,27.957,0.893,30.627,25.512,10.094,8.345,-2.443,9.956,-11.807,0.713,1.17,-17.025],[5884.926,5914.349,2909.672,2185.225,712.63,1160.281,1063.104,319.776,228.966,121.35,542.914,524.402,298.14,159.316,138.281,91.614,109.373,33.999,19.495,11.475,48.173,40.592,37.752,13.116,-8.748,22.422,-3.434,-0.14,-4.244,-16.315],[6917.681,6019.905,3574.267,2495.892,2390.875,1376.937,1364.769,919.432,189.824,222.794,703.759,681.735,352.154,187.261,99.09,134.967,151.481,63.256,56.689,23.68,44.149,60.853,48.111,9.051,-5.283,18.729,25.353,-11.654,11.879,-13.953],[7565.276,8916.969,5398.59,4031.728,1284.858,1371.883,1576.42,1328.961,539.579,454.599,732.094,805.891,662.764,262.97,171.895,134.695,178.684,111.26,39.952,20.127,66.363,72.022,49.044,-7.535,25.4,37.646,24.258,27.034,-6.216,-11.754]]
}