{
"KTrans": [[76.314,52.529,29.071,31.942,19.485,98.066,48.195,38.65,40.139,27.193,104.052,51.896,52.027,47.892,47.184,310.672,183.302,124.441,123.236,95.901,703.541,299.529,231.748,206.621,199.999,1644.583,729.257,584.996,499.142,465.109],[-78.166,107.152,77.144,56.272,41.028,-38.062,129.864,86.943,58.551,55.882,-52.725,141.256,87.807,63.314,47.221,-100.368,243.799,148.151,97.856,78.123,6.281,360.911,218.858,149.722,139.131,430.406,760.989,358.845,299.855,240.378],[-178.845,180.438,139.476,72,65.326,-177.073,220.161,145.9,86.505,71.075,-182.786,193.213,175.097,87.621,77.877,-269.71,379.683,238.509,142.188,111.873,-245.199,488.935,316.579,180.947,147.504,-722.314,835.675,585.165,315.678,234.63],[-166.108,-185.671,317.849,152.148,87.315,-147.51,-185.676,289.023,156.778,108.802,-174.969,-149.821,300.448,164.134,109.169,-195.47,-302.294,364.942,191.326,153.773,-238.141,-432.083,621.73,276.224,215.189,-391.873,-238.934,985.829,456.675,291.202],[-138.247,-190.733,-8.175,351.314,150.329,-140.3,-285.299,-37.659,356.286,174.43,-139.224,-278.591,1.444,378.046,169.66,-172.487,-331.652,41.993,402.516,253.002,-226.324,-416.124,-84.39,555.446,272.032,-351.673,-580.028,-132.56,867.875,422.767],[-132.359,-239.688,-282.724,214.403,278.358,-130.627,-210.009,-262.903,187.118,311.368,-141.095,-212.756,-295.036,142.52,348.275,-160.529,-284.698,-354.485,351.895,391.23,-193.586,-338.88,-397.176,242.735,491.741,-235.065,-464.577,-531.301,619.721,771.078]],
"ve": [[5.438,2.009,29.302,16.889,-82.863,7.631,4.738,81.907,2.839,-4.278,11.804,3.361,1.037,-3.886,-13.369,49.078,16.192,-1.957,-12.013,-19.882,98.678,31.797,6.847,-8.604,-19.466,193.787,79.405,37.151,11.162,-5.013],[5.628,2.773,4.075,2.4,1.566,10.916,6.85,5.724,2.295,1.562,14.509,7.337,5.671,2.821,1.674,54.71,27.748,17.335,10.846,5.138,100.548,48.99,31.715,19.743,14.89,205.486,101.55,59.611,44.262,31.181],[5.011,6.453,2.962,0.481,1.887,12.164,8.101,4.256,2.89,2.765,14.118,10.878,6.083,5.018,3.781,48.913,29.371,19.472,13.683,10.974,99.472,52.568,35.257,23.69,19.362,205.674,101.24,68.883,49.698,36.769],[6.297,6.28,5.699,2.974,1.082,10.982,7.819,6.028,4.482,4.255,13.41,6.513,5.838,4.649,3.699,50.904,30.141,17.349,12.905,12.356,103.024,49.654,35.031,25.531,23.537,203.009,101.788,66.989,52.076,40.59],[3.486,4.361,2.561,4.287,0.994,7.938,8.649,7.713,5.057,1.876,11.63,7.456,8.322,4.271,3.638,51.842,30.285,18.103,13.806,14.576,111.624,48.648,36.202,28.713,22.354,196.3,105.138,70.479,49.577,42.789],[2.185,0.554,1.394,2.687,3.236,3.564,1.69,5.564,3.636,4.195,10.663,9.904,4.258,5.246,6.347,50.888,27.976,21.642,27.262,12.748,100.098,53.517,35.233,28.738,26.297,196.732,102.204,69.875,55.333,43.918]],
"kep": [[61.505,49.961,31.345,41.142,26.877,79.183,44.248,42.066,52.932,40.757,77.779,46.1,57.146,62.683,73.204,169.174,140.031,125.8,150.961,143.316,297.969,194.695,204.313,228.79,266.056,486.15,355.906,394.506,431.944,487.921],[-79.701,89.329,64.319,49.048,36.633,-49.043,104.874,72.653,50.095,51.425,-62.334,112.904,70.95,53.759,41.649,-103.463,157.054,102.924,73.187,64.074,-46.584,193.81,132.821,100.631,103.621,72.871,316.021,177.615,170.286,154.5],[-166.993,148.104,118.438,60.27,55.019,-164.965,177.366,120.452,70.823,58.821,-166.391,153.739,143.833,71.077,63.95,-200.734,250.86,168.522,102.817,82.969,-165.906,266.958,192.959,115.034,99.341,-298.062,345.533,291.334,168.666,135.273],[-157.529,-172.89,271.682,128.876,73.379,-139.02,-171.97,243.746,130.974,90.948,-158.468,-139.011,247.44,135.236,89.227,-156.002,-243.451,263.682,140.188,114.279,-163.106,-299.97,398.825,181.229,145.817,-190.798,-159.441,511.706,250.396,167.072],[-132.795,-176.668,-16.158,303.132,128.234,-133.545,-258.843,-41.607,304.199,146.37,-132.139,-250.045,-7.223,318.14,140.454,-144.509,-268.624,14.778,307.317,192.356,-158.367,-290.695,-83.528,380.982,186.908,-178.01,-322.303,-115.431,500.62,249.392],[-127.757,-223.26,-257.111,179.298,241.224,-125.942,-192.92,-238.266,156.615,266.158,-134.149,-194.399,-260.75,115.183,292.918,-136.431,-232.479,-291.716,263.751,304.59,-144.54,-245.66,-296.5,151.247,349.681,-141.509,-268.031,-335.172,344.446,473.459]],
"vp": [[0.001,0.001,0.001,0.001,0.001,0.005,0.005,0.005,0.005,0.005,0.01,0.01,0.01,0.01,0.01,0.05,0.05,0.05,0.05,0.05,0.1,0.1,0.1,0.1,0.1,0.2,0.2,0.2,0.2,0.2],[0.001,0.001,0.001,0.001,0.001,0.005,0.005,0.005,0.005,0.005,0.01,0.01,0.01,0.01,0.01,0.05,0.05,0.05,0.05,0.05,0.1,0.1,0.1,0.1,0.1,0.2,0.2,0.2,0.2,0.2],[0.001,0.001,0.001,0.001,0.001,0.005,0.005,0.005,0.005,0.005,0.01,0.01,0.01,0.01,0.01,0.05,0.05,0.05,0.05,0.05,0.1,0.1,0.1,0.1,0.1,0.2,0.2,0.2,0.2,0.2],[0.001,0.001,0.001,0.001,0.001,0.005,0.005,0.005,0.005,0.005,0.01,0.01,0.01,0.01,0.01,0.05,0.05,0.05,0.05,0.05,0.1,0.1,0.1,0.1,0.1,0.2,0.2,0.2,0.2,0.2],[0.001,0.001,0.001,0.001,0.001,0.005,0.005,0.005,0.005,0.005,0.01,0.01,0.01,0.01,0.01,0.05,0.05,0.05,0.05,0.05,0.1,0.1,0.1,0.1,0.1,0.2,0.2,0.2,0.2,0.2],[0.001,0.001,0.001,0.001,0.001,0.005,0.005,0.005,0.005,0.005,0.01,0.01,0.01,0.01,0.01,0.05,0.05,0.05,0.05,0.05,0.1,0.1,0.1,0.1,0.1,0.2,0.2,0.2,0.2,0.2]]
}