{
"KTrans": [[0.308,0.066,0.221,0.235,0.195,-1.745,-0.477,0.21,-0.129,-0.058,-2.086,-1.456,0.706,-0.487,-0.537,-0.501,0.392,0.07,-2.63,-4.405,8.566,6.659,12.804,-0.898,-2.105,79.601,24.993,32.528,24.038,7.931],[4.852,1.346,0.694,0.464,0.403,3.982,0.248,0.11,0.306,0.226,1.667,-0.464,-0.04,-0.177,-0.392,-14.468,-8.395,-5.78,-3.945,-2.08,44.957,1.872,-4.919,-3.766,-1.388,-13.496,14.405,-5.189,0.375,-8.25],[17.956,3.966,1.576,1.056,0.752,14.298,2.326,1.487,0.576,0.563,24.06,2.637,0.825,0.711,0.115,43.377,-4.245,-7.22,-0.709,-1.4,42.336,-27.394,-8.065,-4.41,-3.975,50.447,13.388,-14.451,-10.377,-0.273],[66.28,9.009,3.266,1.854,1.22,72.2,7.001,2.496,1.762,0.927,53.541,5.058,1.543,1.123,0.871,0.71,-4.213,-3.961,-1.422,1.136,9.635,-0.915,-4.895,-6.648,-4.859,23.18,103.083,-3.385,-13.775,-17.241],[21.861,14.527,5.498,3.246,1.838,12.722,15.417,3.72,2.627,1.915,23.034,12.211,3.204,2.528,1.733,-16.582,-0.993,-4.463,-2.269,-2.066,5.053,54.436,-9.976,-9.334,-1.301,-51.588,60.285,-7.788,-10.78,-5.278],[0.028,28.007,9.877,4.614,2.729,-27.82,22.375,6.496,3.558,2.852,-32.563,24.228,6.942,3.443,1.901,-29.083,1.982,3.715,-0.009,-1.507,-44.837,28.086,-11.945,-2.501,-0.749,-75.751,0.369,22.287,-15.524,-3.374]],
"ve": [[-0.426,-0.365,-0.392,-0.47,-0.512,-1.217,-0.382,-0.319,-0.169,-0.164,-1.362,-0.346,-0.175,0.432,0.873,1.63,6.691,10.711,24.182,64.06,-10.799,-23.525,49.305,121.387,-21.144,30.044,-28.49,-28.483,-44.782,-24.617],[1.026,-0.149,-0.278,-0.307,-0.323,0.387,-0.638,-0.497,-0.35,-0.346,-0.747,-1.005,-0.525,-0.485,-0.469,-15.945,-5.384,-2.855,-1.44,-0.474,-19.903,-0.023,-2.206,-0.558,0.735,-31.841,-7.32,-3.803,14.721,17.944],[5.02,0.589,-0.075,-0.196,-0.258,3.926,-0.026,-0.136,-0.395,-0.316,5.853,0.291,-0.413,-0.301,-0.484,-13.982,-3.589,-4.915,-0.786,-0.982,-23.506,-21.37,-5.725,-2.573,-2.089,-50.494,-22.271,-14.34,-5.661,0.171],[17.933,2.157,0.422,0.002,-0.157,20.098,1.359,0.034,-0.056,-0.265,9.244,0.414,-0.329,-0.304,-0.292,-24.177,-5.149,-3.724,-1.517,0.086,-33.896,-10.012,-3.898,-4.858,-3.271,-75.261,-30.213,-6.217,-9.919,-11.189],[-12.614,4.411,1.265,0.382,0.014,-43.225,5.006,0.498,0.104,0.04,-39.854,3.722,-0.09,0.11,-0.101,-41.122,-6.642,-4.183,-2.218,-1.859,-34.781,-21.6,-8.573,-7.472,-1.123,-91.641,-16.706,-22.077,-8.791,-4.575],[-46.309,8.655,2.715,0.892,0.303,-47.353,6.407,1.759,0.379,0.209,-54.75,7.725,1.193,0.358,0.018,-37.342,-15.642,-0.755,-1.37,-1.802,-76.256,-28.939,-11.351,-2.085,-1.442,-77.528,-19.869,-28.019,-11.308,-2.775]],
"kep": [[0.733,0.433,0.615,0.71,0.714,-0.655,-0.11,0.55,0.092,0.205,-1.205,-1.182,0.972,-0.642,-0.907,-10.585,-4.785,-3.622,-7.84,-13.4,-34.348,-13.017,-0.303,-20.331,-20.228,3.293,-35.205,-14.523,-23.916,-48.201],[3.748,1.496,0.975,0.773,0.728,3.394,0.864,0.599,0.653,0.57,1.797,0.434,0.445,0.284,0.065,-24.974,-6.079,-4.32,-3.226,-1.988,-63.649,-8.145,-7.437,-5.657,-3.122,-6.974,-29.247,-21.948,-11.093,-16.953],[11.253,3.346,1.651,1.254,1.012,8.716,2.307,1.614,0.969,0.879,14.582,2.2,1.195,0.994,0.585,-47.147,-3.881,-3.862,-0.557,-0.896,-48.677,-25.814,-8.304,-4.621,-3.797,-44.285,-69.845,-26.12,-15.261,-6.076],[29.187,6.621,2.827,1.851,1.379,31.673,5.424,2.434,1.81,1.191,21.661,4.388,1.819,1.407,1.152,-50.963,-3.049,-1.426,-0.662,0.704,-41.386,-21.004,-6.248,-4.595,-3.242,-42.659,-70.687,-20.629,-17.176,-16.295],[-15.832,9.242,4.146,2.849,1.822,-57.947,9.36,3.154,2.504,1.869,-59.923,7.34,3.188,2.375,1.819,-56.509,-1.722,-1.681,-0.812,-0.688,-44.005,-60.794,-7.977,-5.657,-1.53,-61.137,-44.635,-46.859,-16.776,-8.348],[-66.69,16.103,6.862,3.669,2.416,-64.273,12.891,4.516,3.129,2.625,-74.306,12.608,5.415,3.015,1.856,-61.332,-15.335,3.056,0.494,-0.128,-67.283,-61.35,-11.989,-2.903,-0.824,-62.444,-39.936,-67.203,-20.825,-7.407]],
"vp": [[24.787,29.478,16.326,14.764,20.332,25.019,13.636,2.894,9.912,8.461,14.259,14.635,-4.097,8.732,9.756,7.126,3.627,2.959,8.952,14.224,11.181,3.501,-5.614,9.15,9.229,-5.943,5.54,-2.43,1.144,9.294],[-126.404,-9.516,18.991,28.069,28.431,-11.216,19.376,19.96,11.191,11.363,5.806,17.964,10.835,13.437,19.378,29.852,23.812,21.315,17.624,11.197,19.489,1.704,11.763,10.666,5.312,15.75,2.091,13.962,6.337,16.626],[-514.911,-149.92,-40.641,-5.657,18.178,-83.621,-7.245,-3.564,16.963,10.744,-57.876,-11.052,6.845,3.71,15.789,25.316,13.879,31.548,5.063,9.945,25.075,47.496,18.891,11.959,13.31,23.999,22.559,24.184,18.369,4.018],[-1811.441,-447.887,-185.126,-81.412,-26.739,-405.024,-59.537,-12.584,-10.674,5.731,-92.209,-10.968,3.853,4.305,4.587,52.801,20.682,22.723,11.106,-4.075,34.108,19.282,11.48,20.643,17.6,38.394,29.148,8.491,23.605,34.403],[1238.95,-918.077,-445.944,-220.404,-115.851,865.512,-209.646,-44.118,-21.756,-25.514,399.98,-80.45,-1.483,-11.885,-3.96,81.922,27.47,24.863,16.732,17.717,34.387,42.063,26.555,31.677,4.431,45.868,15.301,32.418,19.538,12.537],[4625.164,-1753.998,-858.926,-436.613,-264.943,947.11,-263.691,-123.996,-45.515,-37.104,550.312,-160.624,-39.641,-22.41,-13.516,78.754,63.759,3.927,9.559,16.678,76.401,58.698,35.164,6.953,6.23,40.045,21.228,42.948,26.061,6.495]]
}