{
"KTrans": [[9.813,5.246,5.041,3.895,4.061,23.955,9.977,11.934,9.157,7.124,36.781,21.206,15.051,14.504,13.847,64.815,91.891,78.649,68.444,65.74,109.763,44.495,111.533,127.275,112.309,268.699,88.204,36.455,96.861,42.918],[17.208,8.287,6.872,4.774,4.413,34.921,13.236,8.904,7.45,6.232,41.565,18.487,13.282,11.525,10.471,11.913,95.665,59.429,46.789,37.096,46.416,40.517,100.603,91.288,76.797,47.04,131.08,61.868,60.72,105.912],[2.579,12.621,8.931,7.163,5.584,-2.496,19.114,12.681,9.219,7.961,-5.237,26.321,17.762,12.353,9.871,-18.975,60.765,91.138,41.324,32.827,22.051,48.195,37.542,103.39,68.309,56.401,92.145,108.631,37.56,73.583],[-49.746,25.839,11.394,9.449,7.094,-63.995,29.721,17.41,11.421,10.147,-35.669,49.004,18.534,14.838,10.93,-24.234,9.114,74.227,42.746,32.621,9.318,62.055,29.166,113.031,80.72,20.603,28.765,87.829,38.885,1.718],[-77.61,37.916,20.353,11.142,9.578,-67.065,47.992,23.788,13.197,10.788,-69.377,53.519,32.392,15.071,15.131,-51.043,24.09,110.229,55.96,37.459,-40.724,10.561,43.018,78.191,85.003,11.733,32.83,69.389,75.844,46.946],[-79.222,18.862,23.286,12.979,12.368,-73.622,20.566,31.267,19.511,14.126,-80.428,-7.638,35.344,20.529,17.137,-69.881,-22.183,64.96,76.221,41.949,-51.014,-1.239,23.316,63.57,99.83,-31.482,-1.169,22.308,31.67,32.676]],
"ve": [[-0.557,-0.039,-2.811,-2.193,-0.447,4.187,0.339,-3.883,-5.367,-3.517,7.917,1.345,-3.266,-5.852,-9.367,45.143,13.721,-0.161,-11.171,-18.546,97.901,33.815,9.901,-12.862,-221.312,198.02,84.607,35.765,8.731,-15.124],[1.632,-1.211,-0.911,-1.202,-1.555,4.623,1.412,-0.073,-0.56,-0.807,10.713,3.96,0.917,0.822,-0.663,48.64,23.086,13.452,8.294,4.262,98.815,47.535,24.485,19.402,12.264,200.19,97.324,52.6,39.417,33.048],[1.923,-0.459,-0.399,-0.647,-0.737,5.256,1.475,0.507,-0.168,-0.537,9.206,4.611,2.395,1.173,0.527,52.789,24.118,16.204,10.144,7.381,97.657,48.491,32.078,23.444,16.47,205.171,100.365,62.257,46.061,36.979],[1.718,0.797,-0.641,-0.679,-0.844,5.865,1.941,1.462,0.326,0.099,13.641,5.016,2.45,1.379,1.126,50.808,24.224,15.998,11.323,8.055,99.038,47.971,24.771,24.553,18.101,202.615,100.604,63.263,49.38,36.899],[1.367,0.782,0.27,-0.482,-0.697,0.035,2.767,1.226,0.719,-0.123,11.161,4.866,3.021,1.44,0.858,49.143,22.937,16.889,11.324,8.513,96.119,49.291,31.585,22.662,18.709,196.104,97.708,63.798,47.424,36.687],[-2.186,1.425,-0.524,-0.436,-0.611,5.119,2.025,1.153,0.743,0.219,11.304,4.282,2.992,1.701,1.301,50.606,23.347,16.039,12.037,8.769,105.952,50.709,32.389,25.143,18.82,198.811,100.027,67.102,49.926,39.236]],
"kep": [[11.104,6.403,9.55,8.208,9.638,19.632,10.356,17.893,17.246,14.608,27.402,20.556,20.479,23.915,27.822,18.27,67.847,79.913,91.347,105.832,21.036,15.274,87.236,138.655,149.834,50.138,30.159,27.4,85.735,52.194],[15.352,9.803,7.986,6.125,6.153,28.175,11.807,9.095,8.176,7.235,27.562,13.991,12.393,10.711,11.296,-18.016,56.554,39.898,35.35,31.546,-18.201,2.543,53.26,59.122,56.761,-40.16,29.183,9.496,17.663,59.53],[0.338,13.123,9.421,7.896,6.407,-8.143,17.33,12.131,9.446,8.589,-15.623,20.559,15.027,11.089,9.327,-41.708,28.72,62.468,27.899,23.584,-32.837,3.251,6.935,62.146,43.418,-40.738,5.54,33.51,1.16,28.997],[-49.916,23.969,12.012,10.202,8.017,-64.491,26.227,15.634,11.046,10.048,-41.463,40.567,15.514,13.263,9.709,-46.257,-8.866,48.291,27.843,22.482,-40.824,12.082,0.868,65.912,51.33,-54.033,-27.881,18.101,0.448,-19.136],[-76.227,34.694,19.561,11.624,10.34,-67.48,41.062,21.856,12.28,10.882,-70.699,43.817,27.881,13.316,14.113,-64.092,2.048,75.277,38.738,26.241,-66.632,-21.965,11.278,43.217,53.508,-58.339,-26.716,6.757,23.077,11.337],[-77.104,14.273,22.918,13.146,12.966,-73.097,15.165,28.574,18.288,13.754,-80.006,-11.912,30.267,18.209,15.515,-77.453,-35.006,38.782,54.909,29.869,-72.145,-30.562,-4.028,30.482,64.144,-73.613,-44.868,-19.674,-5.934,0.11]],
"vp": [[487.082,220.862,205.113,475.937,327.03,10.447,86.488,37.53,26.64,21.677,-4.535,19.831,-4.653,23.775,0.212,-29.925,-28.198,-12.062,-27.936,-11.657,-14.983,-19.636,-22.989,-21.44,-28.056,-23.495,-31.088,-22.035,-36.148,-23.856],[1708.192,511.718,816.181,667.982,847.67,398.428,155.377,73.156,155.278,162.26,182.064,56.682,26.171,62.836,51.271,6.473,-15.562,-2.676,13.085,-1.772,-27.574,-21.278,-17.378,-10.551,-5.6,-42.096,-39.131,-40.789,-23.889,-39.471],[4395.698,1133.735,1244.567,1060.076,1098.31,796.92,192.185,193.246,211.881,214.536,407.761,116.87,83.292,96.526,95.359,38.565,-14.521,40.126,-5.564,2.425,-5.525,-30.809,-2.657,8.905,-10.517,-25.326,-15.325,-45.541,-24.375,-12.167],[5193.672,1909.918,1542.935,1259.235,1522.354,1160.273,358.147,311.735,274.713,300.717,444.447,166.95,143.58,72.331,135.08,68.685,38.285,11.833,-9.907,5.018,4.076,-30.359,-3.929,24.662,12.75,-26.482,-22.414,-54.758,-9.092,-14.566],[6850.384,3773.432,1570.324,1456.692,1538.24,1097.865,1028.716,257.679,289.393,234.121,569.919,418.984,160.137,135.066,177.368,50.996,39.31,72.29,4.941,9.775,-3.688,10.767,-16.111,-47.219,-0.504,-44.541,-31.685,-41.933,-41.351,-39.569],[5807.258,7033.158,2238.925,1778.517,2023.87,1109.28,1228.753,416.817,431.428,329.387,583.93,634.398,205.588,111.669,174.748,90.984,140.26,32.604,37.067,-11.279,17.9,14.746,1.704,-4.432,-13.064,-30.56,6.629,10.71,1.761,1.246]]
}