{
"KTrans": [[8.115,4.15,3.915,3.854,3.42,20.009,11.914,9.536,8.731,8.7,31.315,19.719,15.57,15.313,13.155,73.531,93.134,76.576,71.22,65.324,178.636,131.951,90.103,114.132,115.768,263.591,150.028,187.043,76.754,54.66],[18.596,8.066,6.119,5.009,4.376,28.961,12.01,8.932,7.629,6.196,52.177,20.969,12.91,11.173,9.68,21.618,89.17,60.42,41.264,36.316,78.943,92.183,105.035,93.822,71.504,150.645,87.425,16.856,87.352,122.225],[25.592,10.417,9.081,6.681,5.077,49.572,19.395,10.892,8.515,7.544,22.291,24.924,15.545,12.497,10.06,4.976,57.976,65.28,47.103,36.222,5.958,47.598,43.322,83.234,65.305,55.082,64.169,10.008,37.439,97.847],[-35.501,19.84,11.918,9.084,6.843,-49.222,32.519,17.122,9.855,8.421,-37.147,40.244,21.344,15.533,11.745,-22.923,23.769,79.435,42.438,33.997,8.194,27.884,54.796,96.374,80.219,18.754,47.826,15.413,30.572,69.207],[-64.132,37.812,14.922,9.27,8.451,-59.644,42.515,20.433,14.129,9.497,-47.73,53.485,23.787,12.871,13.097,-51.968,3.188,106.493,53.789,40.822,-30.8,-4.792,37.094,82.12,89.681,3.718,50.871,16.31,34.421,97.084],[-62.261,23.331,21.57,15.021,10.955,-74.607,17.484,25.157,15.633,11.546,-78.798,28.159,35.544,22.358,16.42,-50.274,-4.157,27.691,61.281,40.674,-32.837,0.159,1.085,10.774,93.74,-38.143,29.597,13.216,25.343,-3.839]],
"ve": [[-0.622,-1.456,-2.168,-2.677,-3.652,3.208,-1.23,-3.559,-5.827,-8.259,7.626,-0.066,-4.267,-7.566,-9.292,43.845,13.599,-1.192,-11.93,-19.204,89.29,29.249,4.646,-15.772,-29.853,187.178,78.669,36.09,4.261,-5.685],[0.767,-0.359,-0.604,-1.267,-1.42,4.458,1.444,0.376,-0.476,-1.028,9.398,3.909,1.536,0.25,-0.503,49.167,23.395,13.751,8.115,4.515,99.205,47.251,45.141,19.94,12.214,200.711,95.815,60.351,39.171,30.521],[1.713,-0.628,-0.47,-0.823,-0.968,5.172,2.007,0.718,-0.002,-0.523,9.033,4.151,2.125,1.153,0.521,50.53,23.918,15.376,10.854,7.629,100.649,48.128,30.298,22.051,16.569,204.7,100.823,66.411,46.372,27.807],[-1.101,-0.07,-0.487,-0.522,-0.798,4.738,2.083,1.209,0.314,-0.194,9.252,4.5,2.797,1.772,0.854,51.06,24.306,15.519,10.862,8.428,95.655,49.37,32.229,23.512,18.502,202.599,96.557,67.37,47.407,37.681],[2.84,0.199,-0.583,-0.796,-0.716,5.171,1.787,1.326,0.532,0.123,10.308,4.533,2.467,1.432,1.06,50.935,23.52,15.902,11.468,9.071,103.272,51.449,34.99,24.371,18.93,203.049,97.015,67.551,48.562,37.648],[2.996,1.69,-0.331,-0.36,-0.606,4.222,4.002,0.571,0.465,0.126,11.185,4.523,3.028,2.19,1.422,47.987,23.623,19.409,11.413,8.844,99.676,48.553,32.453,23.983,18.722,211.391,96.846,62.385,48.844,39.165]],
"kep": [[8.989,5.903,6.621,7.346,8.092,16.352,13.474,13.945,16.096,19.026,22.077,20.081,21.031,25.281,25.438,23.714,69.808,78.589,94.705,105.136,56.478,74.326,66.089,118.379,154.977,47.821,68.487,129.093,75.319,71.659],[17.353,8.467,6.783,6.389,5.899,23.121,10.446,8.562,8.17,7.319,37.551,16.405,11.229,10.909,10.257,-12.864,51.034,40.204,30.508,30.381,-1.942,32.623,55.897,60.337,52.264,-6.266,9.286,-15.264,36.41,70.634],[21.662,10.946,9.588,7.576,6.119,39.312,16.849,10.081,8.524,8.116,9.52,19.716,13.106,11.209,9.5,-26.416,26.814,41.869,32.215,26.321,-40.416,3.596,11.512,48.572,41.084,-41.048,-7.764,-21.509,0.302,45.505],[-35.671,19.182,12.332,9.638,7.703,-50.167,28.886,15.565,9.489,8.632,-41.228,33.021,17.851,13.477,10.795,-45.066,0.804,53.121,27.905,23.355,-41.397,-9.181,18.149,55.787,50.338,-54.525,-17.81,-21.03,-3.806,24.21],[-62.962,35.143,15.116,10.01,9.195,-59.883,37.068,18.417,13.381,9.326,-51.616,44.022,20.205,11.13,11.852,-65.02,-14.714,73.023,36.8,28.627,-61.358,-31.91,6.247,43.91,56.967,-61.361,-18.254,-22.793,-3.469,42.864],[-61.471,20.265,20.998,15.122,11.528,-73.941,12.888,23.216,14.771,11.307,-78.368,20.527,30.336,19.416,14.663,-64.258,-20.424,9.976,43.138,28.599,-63.311,-29.128,-19.098,-8.866,59.719,-75.471,-29.536,-25.421,-9.758,-23.846]],
"vp": [[284.632,271.615,158.621,219.096,205.705,39.141,24.503,31.887,16.557,44.253,-0.003,-2.842,-3.39,18.203,13.853,-34.101,-26.107,-18.036,-13.362,-14.362,-53.284,-36.416,-17.035,-13.549,-21.628,-35.283,-24.438,-40.726,-31.128,-28.564],[591.763,566.388,751.499,679.16,731.585,94.969,102.59,121.071,131.046,109.639,42.764,47.399,27.559,45.946,47.779,-2.376,-20.439,9.513,-12.751,-1.263,-32.401,-30.812,-9.929,-1.27,-16.493,-37.469,-42.603,-26.882,-36.038,-28.127],[2782.31,516.041,893.917,988.569,1048.154,480.548,133.957,165.102,173.623,209.62,280.052,44.935,94.458,86.13,90.505,11.771,-10.196,-0.724,26.605,24.623,4.989,-24.198,-20.968,-22.288,-13.657,-14.659,-14.348,-12.184,-33.007,-25.638],[4333.381,1191.459,1003.537,1345.091,1306.265,944.197,265.495,234.833,188.775,262.809,409.664,52.567,70.246,139.826,120.066,69.755,13.981,-16.202,-1.043,9.133,-24.555,-18.643,-15.147,-15.905,7.588,-23.887,-33.358,-5.57,-27.761,-18.485],[5518.002,2387.85,1489.058,1158.124,1645.957,976.562,511.114,216.546,241.421,263.088,402.123,159.851,98.356,106.023,137.201,69.742,33.045,22.04,6.337,23.348,22.674,36.621,-21.102,-5.785,7.145,-15.458,-27.097,6.006,-23.871,-30.755],[4954.469,5872.021,1591.692,1205.341,1509.652,1011.307,1115.889,233.073,230.998,327.814,575.457,480.955,57.162,128.86,193.958,46.471,57.054,37.893,0.796,18.218,2.012,7.361,18.238,22.841,-4.284,0.497,-16.707,-29.623,-16.387,-5.394]]
}