{
"KTrans": [[4.191,1.858,1.583,2.013,0.887,10.39,8.333,6.803,6.191,5.284,25.195,15.891,12.207,11.774,10.804,165.366,94.301,77.485,65.472,59.991,415.832,224.953,167.862,151.217,138.918,140.03,576.254,447.54,379.172,345.476],[0.282,2.275,0.536,0.76,0.612,8.998,5.501,4.721,3.486,2.978,20.351,11.046,8.585,6.686,5.518,150.914,70.804,46.737,35.499,31.022,321.685,154.686,96.879,75.527,65.579,99.189,438.848,223.962,182.734,155.468],[-1.42,1.267,0.369,0.143,0.782,7.648,5.565,3.085,3.094,2.503,20.631,11.302,7.425,5.898,4.494,106.286,64.897,40.13,30.816,25.51,54.493,151.713,89.902,66.887,53.347,-57.438,491.039,233.91,165.18,126.943],[-3.339,0.153,0.38,0.514,0.146,3.507,2.962,4.065,2.547,2.57,10.896,7.502,6.349,5.57,4.46,64.281,53.017,38.664,28.494,25.405,-42.709,156.63,91.58,68.186,52.8,-60.684,-5.362,223.773,149.526,107.585],[-14.565,0.704,-0.574,0.193,0.04,-8.042,4.79,2.204,2.419,1.99,2.816,8.277,6.507,4.888,4.475,-10.425,66.264,36.575,28.678,22.609,-56.205,179.012,89.274,64.662,50.539,-26.421,-39.723,248.28,133.147,117.87],[-22.428,-0.303,1.998,0.303,-0.372,-15.933,5.583,3.64,1.84,1.188,-6.642,9.124,6.833,4.565,3.808,-30.456,68.195,40.328,27.975,24.315,-76.019,160.773,85.943,58.662,48.946,-102.195,-68.917,329.229,168.722,110.484]],
"ve": [[0.994,0.638,0.294,-0.706,0.989,5.132,0.298,-0.599,-2.908,-3.53,8.927,1.598,-1.463,-4.476,-6.662,45.939,13.819,-1.371,-10.764,-18.091,95.143,34.587,9.114,-6.47,-17.676,195.98,82.881,37.804,11.759,-5.15],[1.252,0.413,0.491,0.421,0.142,5.466,2.607,1.271,0.631,0.558,9.899,4.427,2.767,1.808,0.807,49.537,24.009,14.575,9.546,5.696,102.554,48.279,29.531,19.627,12.793,204.412,99.786,60.874,41.709,29.71],[1.488,0.366,0.215,0.334,0.126,5.296,2.617,1.661,1.162,0.65,10.08,4.508,3.095,2.129,1.637,65.486,24.975,16.132,11.172,8.425,100.893,49.537,32.016,22.966,17.484,200.22,99.55,64.898,47.775,36.203],[1.263,0.523,0.275,0.385,0.252,5.591,2.229,1.661,1.212,0.721,10.233,4.631,3.38,2.284,1.931,50.775,24.688,16.364,11.952,9.339,93.689,49.989,32.922,24.302,18.742,200.517,99.134,65.641,48.67,37.918],[1.86,0.64,0.286,0.298,0.092,5.878,2.804,1.451,1.201,0.85,11.078,4.9,2.991,2.403,1.966,49.928,25.143,16.17,12.134,9.719,96.455,49.72,33.119,24.499,19.441,201.221,101.625,66.764,48.669,39.21],[1.719,0.66,0.464,0.424,0.159,6.082,2.549,1.589,1.247,0.907,8.457,5.072,3.307,2.373,2.034,52.22,25.283,16.57,12.291,9.862,96.423,50.029,33.247,24.391,19.453,201.948,101.834,67.558,49.786,39.222]],
"kep": [[3.215,1.302,1.63,3.109,0.934,5.089,8.059,7.614,9.603,9.597,14.904,14.069,13.925,17.29,19.294,81.113,70.444,79.815,85.299,95.523,161.015,140.45,144.881,168.086,189.964,-8.052,268.616,295.932,327.504,369.08],[-1.177,1.645,-0.181,0.111,0.234,3.159,2.591,3.162,2.601,2.169,9.349,6.115,5.411,4.551,4.433,66.001,37.208,27.732,23.407,23.671,104.67,70.594,51.373,46.304,46.429,-28.909,165.29,99.695,98.584,96.151],[-3.119,0.662,-0.084,-0.437,0.402,2.007,2.66,1.152,1.664,1.587,9.215,6.222,3.939,3.436,2.555,35.352,31.297,20.3,17.326,15.446,-21.87,66.449,43.122,35.189,30.123,-80.851,186.574,99.897,78.156,65.796],[-4.847,-0.644,-0.147,-0.125,-0.358,-2.304,0.454,2.087,1.059,1.578,0.139,2.479,2.617,2.945,2.216,7.248,22.064,18.75,14.45,14.382,-69.093,68.517,43.168,34.746,28.25,-83.015,-48.598,92.221,66.277,49.723],[-16.568,-0.246,-1.101,-0.361,-0.314,-13.684,1.637,0.472,0.937,0.874,-8.125,2.889,3.134,2.16,2.194,-41.054,31.966,17.082,14.394,11.43,-75.999,82.698,41.056,31.635,25.552,-73.533,-66.018,104.771,55.171,55.45],[-24.281,-1.278,1.232,-0.384,-0.788,-21.401,2.624,1.746,0.322,0.017,-16.763,3.448,3.133,1.863,1.47,-53.452,33.142,19.84,13.591,12.812,-85.799,69.795,38.405,26.82,24.163,-98.343,-81.637,149.8,77.106,49.995]],
"vp": [[52.364,71.279,251.75,105.352,-21.937,-18.841,4.939,15.007,-17.793,-1.216,-7.813,-18.309,-14.37,9.332,7.352,-8.687,4.642,5.229,-1.213,-5.32,-4.892,2.172,-6.969,-1.146,-1.097,-17.237,6.108,7.392,-2.518,-4.984],[640.776,262.317,-123.324,41.109,-92.239,134.365,28.163,18.082,15.437,4.627,58.507,17.983,-13.554,13.35,-20.193,11.995,12.721,4.208,-1.523,5.085,-1.175,-3.671,-11.281,-4.945,-1.937,-12.556,1.484,-18.714,-2.86,9.128],[2228.822,318.385,233.756,35.563,36.905,405.786,56.251,31.602,-5.296,-16.144,217.382,31.16,22.072,-2.198,-13.91,35.784,6.538,-4.465,-6.458,-5.636,12.2,-4.611,-1.894,-12.361,-8.457,-7.555,-9.58,-11.997,-2.658,-3.019],[4158.844,738.409,140.335,120.718,119.757,840.949,83.538,87.023,2.58,-32.846,350.537,78.324,52.888,-12.376,4.451,78.264,-10.603,-4.769,-5.057,7.441,35.89,-2.338,-0.055,5.65,-1.694,2.875,-13.183,-11.846,-7.16,-14.681],[5263.589,1333.341,572.94,154.453,172.52,1056.266,306.675,100.611,46.147,17.134,491.78,172.749,33.791,4.115,27.77,95.371,30.148,2.922,3.297,-1.992,43.811,14.968,-1.827,-4.618,1.166,-1.238,2.768,-3.663,-15.79,1.461],[6019.846,2001.624,810.042,542.815,52.866,1224.667,481.002,151.427,47.65,26.633,657.835,239.439,86.873,40.233,19.461,98.639,65.294,9.992,14.953,6.141,30.743,16.018,-11.721,-18.483,-8.018,8.826,11.172,9.898,-4.024,-6.587]]
}