{
"KTrans": [[-2.59,21.368,18.526,16.176,15.167,3.566,14.539,22.66,19.773,17.447,27.445,28.173,30.41,25.342,23.424,50.344,79.942,85.189,72.267,75.295,97.955,104.948,129.979,112.498,147.008,154.954,-2.94,9.52,109.832,152.74],[-37.892,-8.997,-0.464,2.49,5.719,-30.567,-3.273,7.714,10.863,10.763,-32.261,1.019,7.121,10.353,13.523,-2.511,52.004,37.569,35.988,35.602,-5.387,13.937,74.783,63.894,74.122,51.683,-55.702,87.819,111.365,98.44],[-62.503,-17.485,-9.496,0.007,0.042,-57.887,-15.69,-7.393,-0.921,1.824,-47.392,-10.797,-3,1.429,4.689,-36.987,11.349,19.738,23.567,20.864,-64.35,6.958,39.523,48.028,40.388,-53.814,-17.787,-26.188,66.078,102.875],[-70.884,-28.39,-17.368,-12.037,-3.849,-69.255,-25.282,-14.639,-9.04,-3.087,-70.15,-30.81,-9.317,-4.788,-0.884,-65.33,-6.075,4.6,12.286,10.669,-61.935,2.373,20.063,36.208,37.05,-44.894,-25.383,16.144,54.671,83.808],[-80.194,-40.541,-21.877,-15.093,-10.133,-78.563,-37.027,-23.803,-16.953,-9.391,-81.284,-34.444,-16.803,-16.17,-8.57,-70.454,-20.336,4.465,0.052,6.875,-67.314,-14.778,12.562,13.938,23.405,-75.143,-29.886,-15.738,52.639,48.724],[-85.059,-37.424,-29.79,-16.763,-15.646,-82.958,-39.021,-27.39,-20.227,-14.436,-85.387,-37.42,-21.722,-16.643,-9.24,-86.864,-33.471,-7.04,-5.527,-3.453,-84.211,-45.819,5.266,13.556,9.172,-36.447,-50.49,-32.087,5.761,43.634]],
"ve": [[-164.518,-119.657,-378.617,-132.979,40.969,39.269,115.256,382.323,-831.739,-80.64,1813.588,12.196,41.281,-0.197,-124.245,69.367,34.136,467.424,-48.621,157.289,98.955,82.186,13.261,40.152,-1.603,184.81,78.477,36.56,115.066,-2.25],[-68.058,28.235,3.329,10.474,11.918,10.935,7.236,2.965,6.468,11.326,19.778,6.672,7.034,8.382,9.245,54.929,24.479,16.005,14.405,13.538,90.14,50.899,29.89,23.761,18.516,177.478,98.576,58.185,47.386,31.951],[-5.255,-2.46,-1.336,0.862,1.925,21.645,3.307,0.411,1.099,2.739,15.514,2.28,-0.074,2.569,3.164,58.688,17.937,14.547,9.307,8.428,97.535,41.884,29.178,22.373,17.553,183.194,87.664,58.636,94.937,37.804],[-14.896,-0.038,-1.643,-2.753,-1.882,10.418,73.453,-1.087,-1.647,-1.092,-163.402,2.641,-0.352,0.658,-0.03,48.197,20.25,12.983,9.015,7.507,97.804,44.875,7.705,21.149,16.081,186.507,90.305,56.183,42.406,36.28],[31.332,-6.278,-4.703,-3.746,-1.695,7.222,0.927,-1.634,-1.6,-3.087,12.258,1.096,-0.462,-1.135,-0.914,50.485,23.996,10.782,6.012,5.691,93.3,49.142,28.566,21.67,14.911,198.415,71.389,57.104,43.423,39.522],[6.727,-1.361,-2.729,-2.856,-4.044,41.416,-0.611,-1.79,-4.493,-2.832,5.934,2.429,-1.732,-2.538,-1.489,36.956,28.187,11.711,7.153,5.072,95.715,44.717,24.154,19.071,14.961,180.423,77.064,56.301,43.488,34.194]],
"kep": [[-40.343,-31.069,-38.702,-46.756,-57.938,-39.337,-38.436,-31.907,-41.192,-53.87,-29.205,-23.52,-23.962,-34.089,-49.242,-37.284,-2.082,10.161,9.652,22.122,-22.207,-6.508,28.352,21.689,74.876,-24.94,-44.716,-38.334,16.412,65.377],[-61.863,-39.358,-33.896,-35.923,-34.659,-56.394,-36.673,-28.92,-29.107,-32.291,-60.781,-34.082,-31.922,-30.931,-29.445,-57.306,-18.55,-20.489,-19.467,-19.551,-62.123,-45.648,-10.687,-11.461,-2.304,-59.243,-70.887,-21.068,-3.272,-4.172],[-77.518,-42.837,-38.518,-33.972,-34.842,-75.302,-44.819,-38.089,-34.608,-33.81,-70.2,-40.823,-35.358,-34.019,-32.5,-71.117,-36.944,-30.673,-25.107,-26.028,-84.33,-49.413,-28.582,-20.191,-20.727,-82.215,-64.508,-61.834,-27.74,-2.79],[-82.097,-50.995,-43.849,-39.867,-35.043,-81.942,-50.953,-42.518,-38.721,-34.983,-83.136,-54.379,-39.368,-37.056,-34.076,-84.082,-48.269,-38.84,-32.035,-31.792,-84.005,-51.49,-38.29,-26.389,-22.489,-84.234,-68.546,-48.522,-29.163,-11.495],[-88.998,-59.193,-45.591,-41.748,-39.529,-88.122,-58.063,-48.461,-44.129,-38.198,-90.07,-56.146,-44.515,-43.777,-38.913,-86.05,-56.558,-37.771,-37.775,-33.235,-86.785,-61.708,-42.564,-38.332,-29.461,-90.852,-71.464,-60.174,-31.409,-28.927],[-90.989,-57.785,-52.018,-43.42,-42.044,-90.235,-59.245,-51.195,-44.745,-41.846,-92.207,-60.127,-47.132,-43.416,-38.96,-92.86,-65.086,-45.25,-41.962,-39.345,-92.406,-72.702,-45.762,-37.741,-37.636,-83.799,-79.597,-68.234,-50.878,-29.956]],
"vp": [[380.034,368.728,267.907,1145.668,1116.527,32.815,132.995,42.715,-35.67,63.124,26.425,-66.992,-106.859,151.319,94.991,28.456,31.106,-18.91,-20.908,0.237,-27.249,-52.163,-6.785,10.706,10.009,-33.087,-25.046,-20.435,-18.696,-15.893],[2479.548,775.726,705.474,-584.235,739.169,595.138,112.037,230.181,-190.649,-58.536,374.947,98.024,-91.902,-117.167,-40.683,17.151,19.275,-31.698,-36.628,2.452,-17.344,5.616,-32.44,-4.572,31.81,-23.841,3.283,-39.352,-32.688,-22.847],[4858.084,3759.808,1270.41,1576.535,66.532,864.413,547.923,227.22,262.992,116.548,410.624,447.451,216.468,83.353,-42.632,60.137,30.578,1.761,12.42,-50.106,35.213,14.8,-26.098,-15.772,-49.929,-11.212,-40.286,-39.197,-18.309,7.813],[3399.689,5470.585,3986.236,3152.092,1374.211,1007.095,1277.721,749.628,372.154,392.717,596.311,637.557,513.584,250.23,142.815,117.391,78.248,61.673,39.352,-26.026,52.093,-5.784,-2.023,-8.836,22.019,-15.34,-14.096,-49.745,-56.059,-34.428],[5893.768,7292.782,4693.959,3907.51,3045.994,1061.236,1517.746,1179.781,787.397,542.934,608.652,698.189,528.623,478.682,372.918,95.511,119.202,103.335,28.007,43.095,13.406,34.863,30.987,-5.053,-2.041,1.043,-23.361,-20.481,-30.631,-26.317],[5968.214,9026.811,7885.231,6522.097,3470.998,1262.613,1732.729,1825.228,1072.108,997.23,799.512,981.073,878.296,500.768,439.632,127.841,156.759,129.753,93.091,57.833,51.009,53.92,58.961,23.193,-4.067,-12.796,11.634,-24.876,-20.374,-24.985]]
}