{
"KTrans": [[-3.35,10.227,11.904,1.753,7.213,2.739,6.98,1.718,2.362,-0.338,-9.533,5.808,-3.487,2.034,2.891,3.449,7.639,1.53,-0.386,0.964,23.001,12.172,11.89,6.596,-1.454,-175.545,61.066,48.264,42.358,35.276],[-78.636,-3.803,4.093,-2.472,0.599,-73.089,-9.919,4.581,3.015,1.187,-78.643,-6.268,1.447,-0.419,2.247,-60.766,-15.281,2.055,-0.881,-0.748,-40.286,-6.43,-10.168,-4.243,3.426,-110.193,30.472,9.663,8.259,-1.29],[-91.988,-24.216,-2.473,2.217,0.782,-94.27,-30.585,2.358,5.338,0.92,-94.342,-29.224,0.87,0.797,-2.598,-85.498,-14.314,-8.181,0.574,-5.484,-97.354,-26.232,-4.687,-0.587,8.438,-109.54,-6.468,10.232,2.222,7.006],[-96.617,-62.687,-6.256,3.546,0.422,-96.461,-63.405,-9.25,8.064,2.154,-96.337,-61.003,-10.83,0.093,-0.876,-96.92,-50.132,-16.332,-0.124,-1.154,-105.243,-42.135,-12.351,-7.895,0.03,-140.468,-62.678,-7.84,13.613,-5.475],[-97.753,-81.82,-16.385,5.496,1.32,-97.661,-75.373,-13.053,1.027,4.256,-97.829,-73.839,-21.506,-2.261,-1.331,-98.766,-77.034,-21.753,-4.686,0.483,-102.926,-63.54,-16.262,-8.44,4.738,-146.8,-39.996,-13.637,2.635,-2.172],[-98.516,-90.982,-41.237,1.159,6.253,-99.62,-89.837,-40.941,-1.072,7.262,-98.698,-86.922,-40.768,-4.085,7.454,-102.189,-85.34,-41.702,-5.158,-0.353,-107.639,-77.582,-32.236,-3.648,-7.832,-128.929,-76.636,-28.769,-17.973,10.351]],
"ve": [[-31.134,19.131,15.03,-10.751,-31.131,1.134,4.919,11.784,19.73,31.771,-1.058,-2.976,-61.933,112.987,-12.372,-6.675,4.122,-23.273,31.58,21.072,5.598,-6.93,-5.468,51.227,22.684,-34.675,-2.596,-13.05,-30.844,-43.485],[-19.885,-2.738,0.502,1.576,0.765,-29.177,-5.031,-0.413,0.14,-0.443,-44.175,-3.241,0.608,0.57,0.795,-35.649,-11.137,-0.445,-0.049,0.68,-10.878,-17.636,-16.796,7.118,3.935,-56.806,2.835,20.819,483.566,-48.309],[-88.094,-14.214,-2.632,-0.681,-0.458,-173.943,-18.77,-0.823,1.817,-0.516,-47.411,-17.072,-2.563,-0.673,-1.783,-77.238,-11.489,-2.846,-1.681,-3.145,-67.248,-22.643,-4.98,-1.557,3.352,-86.682,-7.952,-7.108,0.579,-14.297],[-110.561,-39.836,-3.771,-0.775,-0.311,-82.312,-40.268,-7.144,0.52,-0.095,-88.952,-41.766,-7.333,-1.709,-2.081,-73.915,-39.762,-10.586,-2.382,-1.444,-110.488,-37.056,-12.825,-6.077,-2.146,-140.599,-55.178,-22.064,1.067,-10.421],[-118.55,-66.578,-11.23,-1.921,-0.847,-90.878,-56.574,-10.181,-2.092,0.528,-53.503,-59.634,-14.399,-3.604,-1.787,-151.973,-76.699,-16.162,-2.941,-1.651,-95.114,-69.416,-11.338,-7.95,0.322,-180.745,-30.578,-16.616,-7.59,-12.241],[-180.019,-74.423,-26.39,-2.68,-0.453,-130.059,-50.315,-24.791,-5.287,0.393,-103.662,-65.483,-25.598,-5.027,-0.017,-112.723,-65.37,-34.423,-6.138,-4.161,-120.617,-62.214,-26.463,-10.846,-6.732,-167.468,-67.08,-32.509,-37.064,43.489]],
"kep": [[-10.276,5.092,12.47,-0.007,12.708,-11.848,1.491,-3.687,-1.022,-6.242,-19.748,1.18,-10.91,-1.644,-0.834,-25.488,-6.901,-11.497,-11.611,-12.065,-5.06,-20.474,-9.817,-19.858,-41.223,42.091,11.233,-1.853,-0.99,-7.742],[-76.956,-2.896,3.09,-3.69,0.376,-73.609,-7.616,4.011,2.789,2.058,-77.214,-4.195,0.395,-0.958,1.675,-67.328,-19.997,0.005,-1.87,-1.426,-50.435,-28.766,-19.851,-10.099,0.209,-20.641,-1.474,-23.204,-17.384,-20.806],[-90.704,-15.491,-1.74,2.418,1.014,-95.411,-20.571,1.312,2.712,1.287,-94.952,-20.536,1.219,0.896,-1.02,-85.706,-20.698,-10.169,-0.047,-3.486,-81.997,-38.356,-17.426,-4.127,1.551,-60.409,-13.847,-21.344,-14.45,-10.032],[-98.433,-52.26,-4.065,3.293,0.349,-99.686,-50.248,-5.3,6.462,1.773,-98.441,-50.341,-6.102,0.553,0.734,-93.234,-64.393,-13.1,-0.209,-1.04,-85.723,-53.358,-28.698,-11.631,-2.724,-70.277,-36.774,-40.105,-17.986,-20.499],[-99.149,-75.307,-11.246,4.53,1.577,-101.238,-71.142,-8.591,1.38,2.932,-98.713,-66.403,-12.642,-0.594,-0.179,-94.969,-76.048,-21.657,-4.897,0.112,-88.698,-64.563,-27.259,-14.037,0.006,-80.155,-58.781,-18.841,-22.719,-27.568],[-100.464,-90.757,-27.936,1.896,5.51,-99.259,-89.048,-29.225,1.057,5.75,-98.458,-84.855,-31.222,-1.568,6.064,-95.228,-82.562,-43.728,-6.552,0.11,-91.807,-74.027,-45.33,-16.148,-9.496,-85.838,-62.955,-38.921,-50.354,-16.367]],
"vp": [[529.715,-306.802,-312.298,367.931,-199.545,66.979,-43.052,-5.956,78.553,48.437,82.4,-8.669,51.935,17.689,-18.963,9.076,-0.015,10.497,8.371,4.351,-1.828,4.283,-2.307,8.801,16.704,18.55,-5.815,-5.893,-6.212,-7.612],[5139.006,1112.897,-66.57,301.713,272.933,1050.978,308.279,46.222,-47.944,58.719,523.086,97.977,-5.222,20.366,-9.814,84.597,53.052,7.148,13.36,15.879,18.961,29.515,38.853,16.464,-2.619,29.765,-5.342,4.107,4.848,14.705],[7394.193,2942.413,670.558,47.39,309.827,1606.033,794.512,47.923,-119.077,63.523,828.358,376.148,86.379,60.88,144.609,142.009,51.472,28.659,16.164,42.965,79.276,43.857,23.22,10.445,-11.411,42.076,6.85,9.948,6.548,2.708],[8509.788,8572.359,1376.071,369.503,569.716,1844.869,1743.068,486.907,-42.746,17.319,877.008,881.982,214.373,67.41,91.142,173.88,194.077,66.001,19.272,12.104,112.325,72.552,37.372,30.033,10.305,70.852,55.261,37.553,-3.626,28.23],[9204.18,12450.545,3527.725,492.36,509.123,1914.039,2306.27,620.94,172.155,-37.571,916.63,1113.612,453.287,163.388,113.639,196.628,239.431,104.942,29.178,19.439,99.415,118.742,35.565,29.344,-0.074,85.419,29.458,23.538,13.001,33.96],[9652.733,15660.743,7874.312,988.592,70.14,2017.828,3045.632,1543.646,431.807,-18.716,1011.031,1409.704,786.769,193.216,-4.288,239.038,266.887,209.031,47.059,40.898,124.911,127.984,83.126,35.445,33.539,87.363,63.444,52.969,71.249,-0.146]]
}