{
"KTrans": [[9.435,10.184,13.142,13.705,11.892,10.85,7.93,15.971,11.318,11.135,2.507,15.038,13.99,15.741,16.755,17.762,18.172,15.824,15.181,15.308,29.431,26.844,33.515,26.891,28.829,48.658,48.086,45.149,45.218,46.6],[-37.214,-8.07,0.583,4.457,5.835,-45.699,-6.68,0.606,7.834,5.821,-38.479,-5.316,5.356,6.11,5.255,-31.869,-4.059,5.224,9.743,9.833,-34.105,3.299,8.926,9.588,12.921,-29.847,8.613,19.262,20.487,21.252],[-70.185,-25.614,-12.444,-2.36,-1.416,-71.275,-23.59,-9.721,-4.631,0.369,-66.603,-22.014,-16.519,-4.593,0.876,-66.783,-18.962,-9.729,0.404,3.616,-62.429,-27.127,-8.631,-0.452,4.36,-59.54,-23.003,-4.622,6.67,10.651],[-85.851,-41.78,-25.963,-10.831,-5.664,-85.223,-40.187,-19.657,-10.669,-6.866,-82.976,-40.654,-21.645,-12.858,-7.404,-82.561,-41.057,-20.922,-10.601,-4.795,-77.17,-43.147,-22.65,-10.657,-0.595,-75.882,-47.925,-22.402,-7.833,-2.238],[-90.775,-58.398,-34.914,-23.601,-13.334,-89.679,-55.283,-35.838,-23.497,-15.966,-90.744,-58.068,-32.763,-22.744,-15.087,-87.543,-56.008,-31.07,-21.855,-12.912,-88.723,-58.851,-38.212,-22.772,-11.113,-83.132,-56.974,-37.912,-20.549,-10.168],[-94.394,-62.209,-43.513,-32.147,-22.475,-92.517,-67.316,-46.757,-31.897,-23.366,-93.195,-67.781,-47.258,-33.012,-19.419,-91.772,-63.981,-46.381,-33.109,-21.809,-89.974,-69.338,-48.257,-32.001,-20.737,-87.249,-66.168,-49.267,-32.336,-19.714]],
"ve": [[8.403,21.272,23.746,26.496,-19.42,13.156,50.088,17.061,258.108,34.661,11.459,14.215,84.751,57.594,58.574,17.369,19.129,-48.201,589.901,59.593,34.491,28.66,18.68,29.955,72.125,50.511,28.82,23.755,21.105,25.893],[-4.599,-1.329,1.869,3.211,4.616,-17.877,-0.012,0.177,4.245,4.406,-9.947,1.285,2.786,3.928,6.34,-1.993,3.96,5.234,5.41,6.654,6.87,9.256,8.048,8.557,8.755,26.151,20.044,16.233,14.223,12.573],[-35.231,-8.768,-4.245,-1.083,-0.125,-33.321,-7.882,-3.483,-1.379,0.612,-31.919,-6.041,-5.491,-1.706,0.276,-15.795,-2.025,0.112,2.222,2.437,-9.025,-0.135,3.397,4.263,4.306,13.641,10.451,9.883,10.223,9.31],[-50.5,-16.654,-9.131,-3.616,-2.437,-38.421,-17.129,-7.545,-3.734,-2.356,-42.145,-14.032,-7.692,-3.015,-2.752,-36.259,-11.195,-4.858,-1.833,-0.201,-108.597,-8.987,-2.786,-0.485,2.65,3.861,-0.885,4.643,6.452,5.955],[-87.83,-25.143,-13.635,-8.412,-4.568,-49.886,-24.668,-12.654,-8.657,-5.413,-50.194,-23.628,-11.221,-7.931,-4.775,-44.673,-18.213,-8.97,-5.254,-3.087,-31.244,-17.871,-9.376,-3.779,-1.573,39.016,-5.801,-2.07,2.235,3.456],[-62.117,-27.852,-17.428,-12.22,-8.208,-57.225,-29.606,-19.226,-11.102,-8.29,-59.829,-28.781,-17.404,-11.678,-6.297,-49.321,-26.105,-14.934,-10.216,-6.534,-27.803,-23.496,-13.822,-7.201,-4.088,-5.96,-11.514,-9.332,-3.149,-0.36]],
"kep": [[-21.271,-20.356,-19.305,-21.469,-29.085,-19.413,-21.673,-19.488,-25.165,-33.151,-27.702,-17.447,-21.857,-18.778,-21.732,-22.273,-19.334,-20.336,-25.668,-30.436,-23.29,-16.313,-5.989,-12.41,-6.436,-22.899,-8.084,-4.032,2.061,6.422],[-47.903,-27.624,-23.004,-20.949,-20.746,-50.576,-27.595,-21.848,-19.416,-20.73,-49.081,-27.724,-20.199,-20.346,-22.575,-48.778,-28.651,-22.118,-18.748,-19.485,-53.524,-26.89,-21.611,-21.225,-18.752,-58.189,-29.965,-20.161,-17.682,-15.838],[-69.691,-37.089,-29.058,-23.289,-23.197,-71.869,-36.541,-27.543,-24.782,-22.339,-69.049,-36.691,-31.367,-24.457,-21.726,-71.11,-36.881,-30.121,-23.621,-21.237,-71.036,-43.725,-31.361,-25.684,-22.101,-73.205,-46.224,-32.531,-24.712,-21.197],[-84.362,-47.392,-37.216,-28.155,-24.77,-84.362,-45.76,-32.975,-28.063,-25.749,-82.261,-47.726,-34.37,-30.189,-25.871,-82.391,-49.566,-35.709,-29.238,-25.829,-79.941,-52.475,-38.482,-30.24,-24.706,-82.492,-59.871,-42.514,-32.721,-28.211],[-90.45,-58.403,-41.945,-35.394,-29.535,-88.45,-56.342,-43.469,-35.052,-30.932,-88.704,-58.775,-41.921,-35.004,-30.71,-86.874,-59.679,-41.763,-36.036,-30.136,-88.166,-62.122,-47.508,-37.76,-29.774,-87.095,-65.366,-51.138,-39.681,-32.504],[-94.331,-61.827,-47.929,-40.125,-34.378,-91.066,-65.712,-49.531,-40.681,-35.068,-92.094,-66.358,-50.957,-41.23,-33.274,-90.948,-64.36,-51.68,-42.245,-35.027,-89.566,-69.932,-53.942,-43.293,-35.812,-89.781,-71.205,-56.786,-45.893,-37.41]],
"vp": [[-441.976,-346.236,-265.413,-541.931,35.857,-1.911,12.386,-98.631,-41.607,-66.717,27.851,-63.804,-60.825,-39.807,-66.806,-2.507,-11.989,3.241,-0.397,-1.372,-1.741,1.787,-4.738,-1.237,0.746,-0.089,-0.855,0.158,-0.232,-1.26],[1825.893,298.482,-99.901,-385.907,-326.358,515.221,86.615,17.91,-226.972,-60.918,195.347,4.941,-64.944,-48.248,-33.827,37.359,12.097,-5.171,-10.008,-11.989,23.28,1.797,-2.127,-1.295,-4.537,11.523,1.248,-3.653,-3.877,-3.688],[4413.482,1715.261,1445.599,165.01,376.867,911.533,353.226,201.12,70.063,-16.746,410.798,145.955,202.078,76.77,17.409,83.8,30.173,18.71,-4.585,-1.967,37.9,24.771,10.584,5.627,0.561,19.163,11.534,5.63,-0.739,-2.376],[6750.858,3883.089,2856.861,1076.66,741.485,1265.053,794.139,403.422,255.362,198.409,573.286,328.916,236.872,132.779,120.151,118.553,73.841,48.002,28.967,19.469,53.325,44.121,29.223,20.848,1.981,25.846,27.157,15.47,8.005,6.05],[7207.401,6240.448,4263.595,3337.436,1839.997,1349.488,1200.752,830.093,716.78,522.5,723.505,583.329,364.087,336.713,227.746,135.3,111.776,74.882,62.942,43.911,75.021,68.467,55.97,35.579,24.499,30.215,31.845,27.49,17.056,11.437],[8104.039,6783.682,5524.483,5187.591,3935.682,1496.671,1488.351,1320.869,968.792,836.402,764.555,757.709,611.747,537.433,272.142,148.743,149.985,124.372,109.458,84.727,74.473,81.992,70.056,53.98,38.927,34.189,39.425,39.302,28.985,21.474]]
}