{
"KTrans": [[7.599,4.479,4.206,3.236,2.082,18.564,11.863,8.092,7.908,7.83,35.647,18.81,15.033,14.447,13.754,63.499,96.13,79.658,67.8,62.274,46.557,103.225,105.735,116.266,118.275,147.264,73.977,84.777,179.486,158.844],[14.687,7.954,5.451,4.328,3.784,29.656,11.609,8.735,6.908,5.989,52.934,19.25,13.577,10.283,8.9,18.094,81.068,50.503,39.745,38.961,38.32,12.644,113.549,80.702,76.382,85.848,57.412,4.854,55.045,108.29],[21.147,10.61,8.19,6.036,5.07,27.224,16.493,10.136,8.193,7.078,21.829,24.503,15.982,11.398,9.672,4.19,31.714,61.82,40.902,33.34,12.286,32.959,76.243,88.979,71.592,83.774,73.119,22.42,4.213,91.854],[-29.999,19.869,11.386,7.622,5.883,-40.556,29.657,14.141,10.567,7.673,-44.576,36.83,20.162,13.427,10.99,-4.829,28.533,71.655,41.019,33.451,-5.218,21.968,5.402,103.03,79.645,17.216,70.551,46.533,85.093,80.59],[-60.664,50.279,9.87,9.051,7.402,-55.236,42.298,19.83,12.512,9.704,-71.852,54.684,22.662,16.398,12.542,-45.217,-20.138,99.271,58.588,40.046,-31.995,18.295,28.682,102.853,74.962,-26.714,21.613,15.811,47.617,15.193],[-72.336,32.921,19.637,11.835,10.25,-59.028,32.238,25.313,17.139,9.57,-72.572,32.834,32.696,16.757,14.216,-54.479,-5.598,50.508,72.311,44.899,-49.08,7.558,28.146,25.829,104.241,-21.471,14.209,5.501,28.022,35.689]],
"ve": [[-0.168,-1.811,-2.312,-2.964,-2.467,3.648,-0.905,-2.463,-4.825,-6.958,7.95,0.402,-3.717,-7.968,-10.174,40.408,13.994,-1.397,-11.187,-18.721,91.048,31.91,-5.583,-3.737,-25.633,193.191,79.954,26.783,10.854,6.045],[0.401,-0.327,-0.786,-1.284,-1.44,4.25,1.446,0.129,-0.376,-0.966,9.534,4.177,1.705,0.304,-0.435,46.801,22.788,13.341,8.044,4.497,102.794,46.41,29.615,19.138,12.562,201.038,96.392,59.813,40.577,27.086],[0.378,-0.052,-0.645,-0.629,-0.822,5.805,1.509,0.744,0.069,-0.251,10.166,4.399,2.356,1.139,0.542,49.864,23.509,15.195,10.41,7.518,98.982,46.535,30.279,22.547,17.029,195.401,97.931,64.334,46.723,37.706],[-0.323,0.404,-0.27,-0.693,-0.678,-2.791,2.143,0.866,0.529,0.203,9.47,4.404,2.486,1.63,0.927,49.751,24.779,15.28,10.921,8.493,100.276,48.449,33.455,23.831,18.501,206.933,99.112,64.814,46.989,36.966],[1.246,0.711,-0.697,-0.502,-0.595,2.011,1.905,1.072,0.496,0.097,10.746,4.788,2.596,1.708,1.064,50.048,25.234,15.535,11.935,9.01,100.249,45.785,31.04,24.326,18.453,205.693,102.558,62.713,47.157,37.649],[-1.792,0.833,-0.513,-0.485,-0.36,5.278,1.951,1.259,0.821,0.096,10.28,4.81,2.784,1.76,1.19,49.269,22.412,15.41,12.075,9.439,100.152,48.963,32.71,24.346,19.548,208.534,99.553,66.741,48.783,38.601]],
"kep": [[7.95,6.681,6.967,6.903,5.383,14.647,13.149,11.205,13.869,16.526,25.676,18.567,19.82,24.825,27.635,15.717,71.829,82.202,89.234,100.134,-7.158,55.189,79.158,123.672,157.32,11.802,29.178,52.176,161.287,167.923],[13.936,8.323,6.314,5.711,5.317,23.84,10.084,8.629,7.339,7.055,38.385,14.433,11.697,9.977,9.406,-15.31,45.881,32.447,29.269,32.932,-21.063,-15.279,62.876,50.809,56.089,-27.294,-6.624,-19.754,13.628,58.736],[18.912,10.521,8.883,6.716,5.949,18.582,14.618,9.307,8.126,7.355,9.454,18.912,13.297,10.143,9.085,-26.696,7.071,39.096,27.268,23.913,-37.537,-3.963,33.914,52.418,45.626,-32.325,-3.291,-14.49,-20.098,39.807],[-31.325,18.572,11.551,8.343,6.608,-42.455,26.092,13.061,9.953,7.449,-48.016,29.954,17.074,11.572,9.965,-33.869,5.206,46.778,26.606,22.754,-47.882,-13.037,-16.027,60.922,49.897,-55.064,-8.053,-5.621,28.692,32.416],[-59.556,46.411,10.313,9.478,8.006,-55.278,37.008,18.164,11.834,9.553,-72.101,44.546,19.123,14.299,11.302,-60.588,-33.163,68.073,40.428,28.018,-62.287,-17.033,-0.083,59.439,45.896,-71.148,-32.472,-23.19,4.19,-10.957],[-71.094,29.196,19.149,12.053,10.526,-58.999,27.061,22.786,15.869,9.347,-73.086,24.17,28.032,14.442,12.764,-66.877,-21.829,28.646,51.759,31.854,-71.304,-24.626,-0.777,2.27,67.331,-70.107,-38.11,-29.286,-9.047,2.058]],
"vp": [[271.846,240.595,221.23,193.339,131.738,41.906,50.279,36.089,42.366,15.407,4.065,-1.611,0.475,8.175,13.389,-32.211,-21.105,-15.475,-20.862,-19.081,-35.822,-29.361,-11.998,-20.698,-23.126,-31.716,-19.209,-26.745,-38.096,-29.345],[640.266,597.005,519.242,613.732,594.46,118.518,76.293,92.958,102.151,111.047,67.533,57.567,48.41,37.117,52.24,-19.757,-22.16,-21.692,-14.667,14.588,-3.622,-36.6,-20.788,-21.772,-5.824,-54.701,-14.529,-18.69,-25.591,-16.55],[2439.778,537.137,833.579,1024.53,969.729,511.268,131.101,113.551,170.523,175.917,296.926,43.365,75.94,61.247,72.952,16.326,-1.816,-2.793,-2.167,4.566,1.263,-21.138,-36.436,-8.832,0.308,-31.058,-24.316,-23.004,-21.534,-13.019],[5238.477,1054.715,995.23,1115.733,1142.808,908.701,189.531,156.413,255.262,219.568,432.145,71.65,56.904,97.282,107.817,35.574,13.591,-9.439,-7.678,8.359,-10.648,-2.891,20.274,-7.69,13.28,-1.077,-27.759,-28.513,-37.145,-26.553],[5169.388,2854.788,733.209,980.704,1290.453,1029.118,477.956,239.181,181.63,259.747,585.174,213.213,66.882,103.705,101.748,61.915,80.474,-2.772,4.639,19.039,0.927,-8.04,-17.395,-2.408,-25.785,-4.452,17.714,-12.376,-37.118,-21.371],[5413.417,5585.982,1260.916,962.315,1124.629,907.546,805.611,189.23,261.228,197.378,546.119,530.978,144.894,92.44,126.002,54.407,43.05,15.211,-10.439,32.941,11.669,13.236,8.374,14.586,17.597,3.036,-33.599,-5.059,-18.738,-22.705]]
}