{
"KTrans": [[5.512,10.389,8.203,7.743,11.41,6.042,9.132,8.014,8.381,10.177,4.102,12.421,9.346,13.339,9.829,13.581,12.027,16.926,12.576,17.907,32.448,29.829,25.125,20.626,28.389,55.718,50.627,55.206,46.662,41.302],[-33.977,-8.527,2.073,2.927,6.114,-30.131,-3.272,0.981,1.752,7.31,-31.679,-2.716,0.766,2.242,6.578,-25.881,-3.173,2.863,7.288,7.893,-21.458,3.773,7.126,13.462,10.246,-10.203,11.016,18.872,16.879,20.402],[-62.437,-17.99,-7.61,-3.597,-0.547,-69.444,-23.661,-8.587,-1.607,0.935,-65.94,-15.946,-7.61,-2.474,-0.074,-62.384,-19.507,-8.034,-0.154,3.202,-61.863,-19.42,-1.446,0.432,3.303,-40.217,-19.655,0.777,7.148,10.423],[-83.932,-40.733,-16.813,-7.961,-6.407,-85.691,-34.256,-20.998,-10.353,-5.69,-82.522,-36.875,-20.105,-10.392,-4.244,-80.508,-38.524,-19.859,-11.462,-4.648,-71.376,-39.272,-18.743,-7.162,-1.508,-65.509,-36.776,-12.801,-1.114,0.692],[-90.991,-54.625,-29.617,-18.002,-10.158,-86.819,-50.877,-29.544,-22.372,-10.557,-87.355,-54.872,-31.972,-17.279,-12.103,-86.2,-56.431,-30.861,-20.034,-9.609,-85.115,-47.085,-37.684,-16.181,-9.723,-78.437,-48.297,-30.959,-12.735,-9.991],[-91.993,-65.261,-36.194,-27.173,-19.927,-92.735,-60.094,-40.205,-27.816,-18.683,-94.035,-62.986,-40.589,-27.995,-19.68,-91.587,-61.173,-44.445,-28.194,-18.362,-88.203,-61.721,-38.963,-29.091,-18.944,-80.876,-63.881,-41.55,-31.016,-14.13]],
"ve": [[4.918,9.223,29.353,36.115,-90.181,4.167,9.135,6.181,31.203,252.934,21.813,9.615,19.95,23.865,52.876,12.014,13.984,13.693,47.381,0.176,26.827,24.04,-65.889,32.365,-0.76,-27.733,51.763,20.011,-23.329,-23.148],[-16.55,-2.276,1.762,2.316,2.929,-10.57,-2.022,1.231,2.262,3.264,-16.983,-0.303,1.23,2.328,3.934,0.986,3.014,3.083,3.558,4.916,3.927,8.613,6.974,7.498,7.123,26.816,17.269,14.67,11.628,11.816],[-29.902,-6.697,-2.889,-1.544,-0.134,-32.405,-7.896,-2.546,-1.096,0.161,-36.564,-5.147,-3.143,-0.328,-0.111,-24.698,-4.015,-0.983,1.945,2.19,-29.598,-0.463,5.893,2.757,3.327,17.56,5.646,7.533,8.74,7.633],[-44.965,-15.976,-5.947,-2.944,-2.443,-52.198,-14.622,-7.472,-2.825,-2.597,-45.536,-15.972,-7.109,-2.984,-1.388,-27.047,-11.585,-4.387,-2.487,-0.508,-15.346,-11.13,-2.507,1.888,2.075,-2.521,0.395,4.652,8.328,4.922],[-37.607,-24.982,-11.578,-6.815,-4.066,-54.372,-22.157,-11.179,-7.951,-3.7,-56.525,-24.183,-11.331,-6.094,-3.705,-47.71,-23.403,-9.131,-5.664,-2.194,-38.086,-9.946,-11.71,-2.864,-1.267,-12.702,-5.337,-3.357,2.385,1.005],[-63.239,-32.252,-14.505,-10.145,-7.304,-53.323,-26.942,-16.101,-10.51,-6.656,225.433,-29.427,-16.038,-9.456,-6.541,-50.817,-26.589,-17.845,-8.935,-5.358,-37.649,-20.254,-9.83,-7.991,-4.569,-7.063,-17.682,-5.03,-6.692,1.777]],
"kep": [[-16.017,-12.086,-17.276,-21.181,-18.602,-14.464,-13.843,-19.001,-19.365,-22.219,-18.829,-10.031,-17.46,-14.04,-21.207,-16.601,-14.66,-10.98,-18.622,-10.687,-17.945,-7.851,-9.067,-13.976,-0.844,-25.779,-11.067,3.977,4.544,2.862],[-39.711,-23.018,-16.944,-16.491,-14.321,-39.467,-18.718,-17.299,-17.316,-13.682,-40.414,-19.849,-17.448,-17.024,-14.81,-43.616,-22.813,-17.588,-14.087,-14.56,-47.28,-22.479,-17.646,-12.79,-14.653,-57.927,-26.821,-16.633,-14.346,-11.356],[-62.896,-27.975,-21.441,-18.85,-17.491,-68.079,-32.658,-22.539,-17.533,-16.505,-64.3,-28.383,-21.203,-18.985,-17.04,-67.663,-31.964,-23.515,-19.037,-16.323,-71.982,-35.083,-23.608,-19.57,-17.348,-73.592,-41.424,-25.093,-19.932,-16.066],[-80.644,-42.827,-27.127,-21.582,-20.537,-82.15,-37.856,-29.669,-23.838,-19.825,-79.281,-39.848,-29.312,-23.55,-19.59,-80.322,-44.076,-31.23,-25.099,-20.833,-78.385,-46.524,-32.016,-25.01,-20.366,-83.886,-52.783,-33.075,-25.872,-21.578],[-88.133,-52.038,-35.076,-27.375,-22.475,-85.078,-50.214,-35.179,-30.323,-23.092,-85.231,-53.011,-37.104,-27.324,-24.46,-87.152,-55.604,-37.587,-30.097,-23.668,-88.618,-53.37,-42.939,-29.122,-24.529,-89.819,-58.041,-43.334,-30.691,-27.016],[-89.385,-59.658,-39.05,-33.279,-28.614,-89.28,-57.346,-41.882,-33.438,-27.94,-92.093,-59.598,-42.572,-34.536,-28.92,-90.567,-59.8,-44.857,-35.126,-28.794,-90.042,-62.812,-45.373,-36.887,-29.909,-89.581,-70.415,-51.052,-40.318,-30.984]],
"vp": [[55.862,-50.003,-244.758,-193.024,-446.931,-2.701,-19.286,-11.717,-43.534,-58.13,22.224,-15.763,-12.991,-48.822,-36.389,4.053,6.019,-2.453,-0.422,-12.271,-0.12,-6.279,-1.802,3.251,-9.351,-0.522,-2.116,-6.517,-2.922,0.714],[1932.443,635.915,-406.726,-220.014,-395.15,295.57,87.319,9.301,-22.363,-138.612,177.934,22.386,-9.865,6.982,-68.007,24.032,6.622,3.37,-3.937,-4.208,15.438,-1.77,-3.297,-10.433,-2.144,1.335,-0.168,-3.585,-1.576,-6.231],[3660.094,1045.359,785.562,421.41,342.8,940.322,315.997,145.005,51.275,-26.431,429.73,102.379,86.353,29.221,22.784,77.962,33.141,17.261,1.532,-9.677,39.425,17.844,-7.99,5.178,0.598,4.305,13.016,4.852,-2.41,-2.334],[5770.473,3605.589,1627.981,917.421,980.704,1268.622,647.528,455.361,238.702,217.506,561.375,353.559,211.362,128.406,42.281,112.864,69.936,44.197,33.822,14.943,39.237,42.148,27.643,4.828,4.144,18.256,19.91,8.072,-3.716,3.349],[7200.305,5600.623,3607.899,2465.091,1616.02,1351.823,1022.482,719.661,662.292,284.014,642.549,579.337,385.898,245.04,156.736,130.253,127.162,72.609,58.755,30.148,62.31,37.114,59.458,26.577,21.457,26.378,24.335,23.297,8.409,14.921],[7371.054,7619.599,4643.849,4273.793,3529.167,1492.76,1248.237,1065.981,861.063,632.745,796.276,704.819,532.304,406.946,326.239,142.863,137.926,132.641,93.555,64.71,66.805,65.792,46.908,51.047,40.434,21.381,38.785,25.786,33.899,10.013]]
}