{
"KTrans": [[2.667,3.119,-0.187,1.701,1.9,12.73,10.664,8.531,6.097,5.358,28.777,14.229,13.766,13.251,9.85,159.857,97.155,76.117,67.982,63.815,397.204,225.263,178.632,157.203,139.037,1172.336,589.061,465.141,397.367,363.906],[-4.078,0.848,0.254,0.66,-0.74,-0.858,4.67,4.285,3.856,2.973,8.621,13.102,8.685,7.036,6.123,111.513,66.326,45.881,36.905,32.488,294.543,140.306,101.225,77.124,68.61,776.022,361.772,231.301,182.852,153.481],[-28.741,2.517,3.047,0.85,0.756,-19.604,4.296,3.999,3.084,1.316,-10.136,11.234,6.397,4.974,5.318,69.245,59.219,40,30.938,26.9,179.748,135.411,87.925,69.554,55.482,574.727,329.737,209.792,153.494,123.683],[-42.003,3.164,0.994,0.712,1.2,-38.919,2.125,3.129,2.898,2.736,-29.908,9.807,5.822,5.457,4.145,23.134,56.691,36.13,31.471,24.899,133.676,127.007,86.028,66.768,49.688,388.89,324.296,194.268,146.119,113.748],[-52.847,-2.668,0.973,1.366,-0.323,-48.085,7.154,4.5,4.237,2.043,-46.489,3.643,9.085,5.68,5.725,4.685,54.054,41.227,30.083,23.913,90.447,129.354,81.189,60.996,49.044,255.628,310.655,192.98,140.88,109.552],[-66.68,-4.196,0.562,2.007,-0.178,-60.505,4.279,4.779,3.463,1.227,-55.148,4.131,7.912,5.409,4.519,-14.982,48.572,37.288,28.901,23.735,49.607,111.214,78.544,61.306,48.834,220.815,289.089,191.697,135.868,106.617]],
"ve": [[3.849,1.44,5.73,2.646,3.589,5.873,3.141,-1.778,-1.389,2.823,9.822,4.578,-0.641,-1.941,-2.053,46.877,13.011,-0.917,-10.092,-18.629,94.256,34.088,7.795,-7.377,-17.728,193.022,78.901,35.162,10.338,-5.895],[2.765,0.882,0.026,0.379,0.935,7.744,3.262,1.423,1.1,0.532,12.543,5.672,3.016,2.045,0.529,50.405,23.962,14.263,8.674,5.327,100.537,48.88,29.146,19.714,12.399,200.853,96.127,60.72,41.284,28.754],[2.925,0.391,0.201,-0.16,0.142,6.246,2.414,1.899,0.826,0.915,12.887,5.268,3.372,2.124,1.458,51.836,23.868,15.822,11.277,8.868,101.547,49.658,31.665,22.598,17.276,202.516,98.625,64.863,46.744,35.486],[2.261,0.897,0.142,-0.092,0.386,7.137,2.361,1.863,1.153,0.971,13.467,5.687,3.221,2.297,1.789,62.696,25.592,16.567,11.808,9.155,103.254,50.39,33.106,23.93,19.108,204.115,99.811,66.035,48.187,37.661],[-2.761,0.967,0.606,0.412,0.062,6.401,2.998,1.595,1.282,1.039,10.115,5.207,3.31,2.604,1.98,52.947,25.022,16.213,11.865,9.699,106.674,50.314,33.108,24.812,19.335,192.386,99.929,66.068,49.279,38.595],[11.907,0.469,0.62,-0.16,0.254,8.405,3.089,1.847,1.122,1.001,8.973,5.707,3.615,2.326,1.879,55.743,25.224,16.868,12.029,9.56,98.672,50.391,33.243,24.456,19.267,198.389,100.343,66.322,49.119,39.167]],
"kep": [[0.066,4.329,-2.3,2.975,3.587,8.711,9.451,13.184,10.333,9.178,18.847,10.892,16.995,19.715,16.419,78.371,75.323,79.043,88.603,104.205,157.68,143.345,159.732,178.927,192.03,335.119,285.942,318.713,351.798,393.728],[-6.433,0.189,0.479,0.463,-1.48,-7.154,1.773,2.982,2.928,2.625,-3.006,7.279,5.718,5.042,5.791,41.197,34.37,27.783,26.177,25.929,97.036,61.645,55.987,48.139,50.127,192.172,135.663,106.276,100.281,96.981],[-30.34,2.308,2.941,1.073,0.693,-24.173,1.909,2.181,2.305,0.445,-20.279,5.752,3.032,2.858,3.862,12.462,28.55,20.964,17.721,16.614,38.897,57.622,42.799,38.361,32.663,123.299,116.452,87.955,72.81,65.126],[-44.686,2.332,0.893,0.885,0.848,-43.233,-0.023,1.321,1.783,1.78,-37.204,4.093,2.583,3.168,2.33,-19.922,24.893,16.864,17.677,14.462,14.618,51.049,39.845,34.649,25.721,61.139,112.548,77.32,66.13,55.306],[-54.458,-3.445,0.45,0.964,-0.36,-51.77,4.155,2.981,2.927,1.038,-53.412,-1.294,5.694,3.045,3.691,-31.497,23.333,21.564,16.337,12.986,-5.946,52.824,36.181,29.041,24.941,16.828,105.676,76.488,61.391,51.231],[-67.901,-4.772,0.023,2.209,-0.399,-63.112,1.193,2.986,2.331,0.257,-60.511,-1.377,4.165,3.047,2.612,-45.157,18.713,17.617,15.083,12.978,-26.247,40.637,33.967,29.649,24.815,4.822,94.282,75.469,58.247,48.479]],
"vp": [[11.768,53.309,-122.902,-106.559,9.123,45.467,23.631,-6.007,34.446,-3.777,38.137,14.292,27.835,22.571,-0.46,19.127,11.543,13.672,12.518,13.529,16.2,14.421,12.692,11.61,11.49,14.921,12.82,13.98,13.762,14.345],[1707.08,-54.665,-88.262,82.277,-166.28,308.173,9.78,4.317,34.893,-2.179,154.381,48.58,8.688,19.244,31.314,46.547,21.754,15.629,11.811,8.46,31.457,17.133,17.856,12.015,15.412,25.917,18.405,16.404,13.319,15.574],[3540.989,574.791,86.225,230.824,60.784,623.15,146.133,38.882,52.761,7.149,355.111,90.743,3.808,15.741,22.946,78.828,26.785,20.496,17.708,17.956,49.135,26.073,17.945,15.95,14.496,31.871,21.012,17.96,14.931,15.544],[4793.028,1540.778,267.392,-29.912,-60.548,993.657,208.219,40.251,29.673,-0.207,513.48,134.259,49.919,15.942,19.296,114.66,43.649,25.396,20.444,15.881,63.075,35.335,22.517,17.892,15.435,42.525,24.669,19.77,17.469,16.373],[6101.787,1978.066,591.021,128.488,102.941,1171.973,488.239,83.124,44.954,41.098,647.58,258.295,77.633,15.007,35.096,133.256,66.031,28,18.749,21.869,74.917,44.705,28.266,21.035,18.003,46.135,33.862,22.887,20.462,16.973],[7089.431,3328.388,840.743,229.871,77.862,1406.018,741.969,119.684,27.241,17.901,668.373,400.407,97.691,57.288,17.009,157.241,81.64,40.617,26.581,20.413,84.07,54.286,33.785,19.307,18.28,47.886,37.736,26.419,23.11,18.757]]
}