{
"KTrans": [[-3.403,4.611,2.86,1.5,3.961,4.808,11.366,15.81,7.786,5.111,14.012,27.467,24.22,24.993,19.497,54.771,72.602,92.463,98.825,93.384,-64.251,54.062,122.663,145.267,155.831,-382.066,-186.073,23.466,121.242,166.571],[-16.068,-6.385,1.071,2.788,1.139,-12.89,-0.556,1.191,5.807,4.421,-5.165,6.206,3.567,11.093,9.585,79.725,55.086,16.841,30.296,39.392,166.222,128.086,-4.543,28.776,57.123,-406.201,-113.114,36.163,-47.356,39.541],[-27.354,-6.246,-0.918,-1.523,0.294,-21.47,1.428,3.044,0.705,0.803,-12.811,5.168,7.377,4.692,1.55,52.403,67.299,50.582,34.146,-0.06,6.835,122.185,114.822,46.234,-1.388,110.48,255.256,92.837,-111.394,-77.071],[-37.172,-3.79,-1.594,-0.037,-0.445,-34.099,-0.18,3.487,2.188,1.759,-26.632,6.39,6.295,5.357,5.328,29.662,54.186,42.448,39.119,32.974,53.417,142.651,108.99,79.786,72.048,-181.94,115.023,185.228,165.747,91.51],[-44.379,-8.249,-0.965,-0.304,-0.821,-36.755,-6.417,3.387,2.006,2.394,-36.781,1.306,7.469,6.1,4.561,-12.252,49.577,45.672,33.455,30.672,8.945,105.722,109.503,87.899,72.072,0.581,170.16,227.659,189.639,138.758],[-52.715,-9.942,-3.132,-1.076,-0.236,-47.789,-5.934,1.431,1.1,3.353,-46.34,-2.263,6.394,3.909,4.104,-29.198,48.045,43.48,33.737,27.479,-31.733,104.244,101.72,77.116,54.7,-73.137,95.954,189.255,155.662,160.809]],
"ve": [[13.035,1.316,-388.949,9.973,-94.624,-15.137,-29.55,17.745,8.976,-189.815,184.127,4.858,101.934,3.278,-7280.482,43.56,-55.467,61.12,-73.734,-102.544,100.248,29.632,-12.658,-28.396,-50.239,204.169,72.625,34.666,3.498,-16.142],[-2.068,0.33,2.316,-1.75,10.287,1.929,-0.563,3.161,4.169,1.615,5.575,2.473,3.768,1.406,12.713,32.992,22.504,16.576,-32.408,5.299,99.858,55.668,32.947,17.527,-8.285,198.698,75.008,66.015,46.409,27.508],[-10.927,-0.663,-0.562,-3.064,2.378,-0.503,1.338,1.466,-4.223,1.004,6.645,4.309,2.536,-1.605,1.041,48.121,23.3,15.749,15.422,11.196,121.24,52.322,14.919,29.535,20.633,202.437,104.301,68.784,50.964,32.556],[-1.468,0.229,-0.376,-0.319,-1.209,1.671,1.984,1.754,0.274,0.205,-3.908,4.401,2.37,2.178,1.391,46.856,24.459,16.405,12.27,9.694,98.566,49.784,33.122,24.528,19.355,202.436,101.474,71.897,50.945,41.757],[2.609,-0.263,0.216,-0.008,-0.075,2.108,1.557,1.605,1.405,0.683,6.313,4.306,3.128,2.112,1.862,48.925,24.456,16.696,12.619,9.885,108.436,44.477,33.161,25.841,20.207,195.996,98.727,67.85,48.619,41.577],[-2.199,-1.101,0.911,0.241,-0.24,0.486,1.8,1.285,0.854,0.744,3.923,3.868,3.065,2.569,1.627,47.474,23.558,16.748,12.818,10.037,75.549,49.667,32.432,24.961,19.698,197.315,96.804,60.367,46.388,40.223]],
"kep": [[-122.207,-26.615,-13.778,0.501,-14.708,-122.702,-25.79,-41.982,-14.999,-10.077,-114.616,-68.981,-42.673,-42.044,-33.173,-103.989,-232.005,-193.395,-190.687,-175.276,-197.288,-390.416,-365.56,-379.224,-376.549,-278.64,-525.423,-616.966,-661.988,-712.626],[-34.958,-40.275,-123.765,-20.61,-8.264,-35.822,-30.872,-138.256,-30.771,-13.83,-32.176,-18.397,-126.185,-47.562,-19.263,-0.829,13.659,-124.905,-166.999,-105.126,15.26,59.57,-164.277,-266.929,-194.061,-201.683,-173.033,-101.235,-368.932,-356.165],[-43.374,-15.213,-7.582,-21.15,-128.263,-38.233,-3.786,-4.177,-21.443,-127.813,-32.39,-5.536,4.657,-12.414,-134.751,-14.026,35.134,47.565,32.6,-187.802,-63.756,46.282,85.445,0.868,-149.904,-41.706,60.266,-15.616,-239.519,-308.056],[-49.833,-7.026,-6.193,-3.082,-6.353,-48.929,-6.943,2.256,-1.129,-4.875,-44.515,-2.498,0.158,2.251,6.59,-26.434,20.983,28.864,39.651,49.758,-38.088,56.726,65.854,68.858,81.248,-129.547,-7.334,66.155,94.006,39.002],[-55.032,-13.718,-3.161,-2.776,-3.314,-48.256,-10.961,0.967,0.863,0.751,-53.107,-7.665,3.815,4.255,2.857,-51.192,15.787,27.178,25.62,33.457,-56.583,28.675,60.862,63.791,66.734,-74.774,16.959,91.906,97.867,90.659],[-61.84,-14.202,-5.727,-2.813,-2.108,-58.474,-12.622,-2.014,-0.958,3.594,-60.2,-9.408,1.11,0.036,2.372,-62.056,13.407,22.594,22.015,22.714,-72.949,27.355,50.485,48.383,38.147,-91.112,-14.849,66.027,73.465,106.079]],
"vp": [[-73.785,439.421,137.78,90.472,-90.185,-49.42,20.846,124.233,31.257,7.446,10.22,3.73,6.646,-28.716,-2.255,-14.223,-0.653,-3.838,1.001,-7.602,-4.029,-8.259,1.294,7.934,-4.364,0.081,5.575,1.197,-2.004,-6.149],[1987.393,457.856,-67.965,143.218,210.974,386.966,109.621,49.141,-6.754,-13.941,181.072,60.623,-2,32.282,22.009,46.317,10.687,-14.021,-9.27,-5.044,6.992,-12.848,-0.937,-14.556,-0.106,0.889,7.757,-1.11,6.313,0.558],[4261.833,965.82,409.951,236.59,-135.569,786.708,228.056,73.221,126.238,-17.673,347.158,140.995,27.915,84.663,-2.453,74.076,15.649,-0.779,-1.201,-0.983,37.92,-1.038,-1.64,7.897,-7.312,7.264,2.492,-3.992,-18.253,1.355],[5583.15,1776.352,796.645,183.913,-89.966,1121.881,634.118,306.847,73.477,-29.657,548.301,243.442,89.329,61.948,36.295,109.484,50.666,-4.999,-17.461,-4.018,53.752,28.127,0.047,-11.293,2.403,17.4,-0.744,0.67,-7.799,-2.149],[6936.704,3894.257,1183.108,553.289,286.412,1330.018,695.411,228.45,73.134,43.426,664.038,399.732,92.269,21.677,7.966,115.236,67.979,25.975,-5.593,1.159,60.974,42.336,19.655,10.61,2.708,21.875,11.867,1.556,16.5,-4.027],[7405.039,5691.228,2560.103,696.231,390.011,1294.751,1042.408,385.944,194.651,68.554,686.612,564.997,288.409,86.592,-10.855,132.831,107.59,40.885,3.16,-4.048,50.077,49.686,14.958,-1.182,-13.094,23.73,12.648,-1.448,-6.106,-1.219]]
}