{
"KTrans": [[-7.27,7.345,1.575,0.727,2.607,-0.93,3.178,4.814,-1.778,1.612,3.447,1.595,1.208,0.504,0.661,25.829,8.656,4.768,4.46,-1.509,53.57,22.478,3.454,6.646,14.517,-35.433,13.387,40.697,29.277,13.511],[-62.929,-0.415,1.263,3.996,1.599,-66.147,-0.822,2.056,0.246,1.377,-62.209,2.26,3.033,0.572,0.293,-44.032,-2.434,2.35,-0.546,4.123,-63.851,5.254,9.021,-3.441,4.309,-48.757,33.778,29.094,22.179,-0.912],[-91.086,-9.983,2.347,2.285,1.703,-91.687,-10.871,3.379,0.988,0.266,-89.458,-11.404,4.063,1.606,1.896,-91.123,-12.226,0.847,-0.762,-0.167,-73.925,-7.204,3.742,2.122,0.099,-88.038,6.095,26.53,17.012,-4.547],[-95.257,-42.146,6.643,3.726,4.384,-95.631,-40.981,0.828,2.765,0.311,-94.842,-30.666,10.561,4.799,0.615,-91.569,-45.123,-1.215,0.999,0.453,-93.263,-23.168,0.626,6.98,1.702,-105.87,-20.538,22.445,11.35,-4.246],[-96.722,-67.945,-2.798,6.887,3.09,-97.556,-68.529,-5.071,6.247,3.173,-97.437,-65.02,-1.359,5.233,3.533,-97.308,-55.417,-9.602,-0.311,-5.262,-97.466,-55.106,-14.924,-3.18,-7.175,-104.608,-49.589,1.169,13.206,5.32],[-98.723,-81.984,-19.606,0.583,5.142,-97.95,-78.578,-15.787,9.859,1.486,-99.417,-75.646,-25.857,7.702,8.443,-98.557,-72.115,-9.072,4.736,1.513,-101.808,-77.559,-6.845,-3.259,-5.267,-107.964,-66.935,-1.897,10.088,1.14]],
"ve": [[-15.142,3.459,-0.244,13.272,22.134,11.008,12.147,19.265,-19.235,54.302,-20.211,-6.859,32.773,4.805,56.127,8.807,13.271,44.947,27.824,36.628,11.177,-18.937,-50.507,-31.841,-113.712,3.961,-30.665,-14.49,-46.994,274.79],[-38.529,-0.303,-0.575,0.072,-0.528,-46.768,-2.756,-0.934,0.145,-0.637,-44.735,-0.312,0.33,-0.155,-0.576,-27.771,-3.3,-0.634,-0.37,0.225,-60.515,-5.535,11.52,2.832,4.177,-32.944,7.554,14.745,-1.316,-41.646],[-59.04,-7.863,-0.78,-0.411,-1.29,-78.915,-7.796,-0.58,-0.468,-1.334,-91.311,-9.007,-0.136,-0.722,-0.804,-72.578,-17.841,-1.425,-2.893,-1.251,-43.41,-16.642,-7.469,0.785,-1.706,-91.233,-19.238,8.099,1.551,-1.723],[-88.389,-24.489,-0.81,-0.209,0.776,-90.179,-24.728,-2.3,-0.729,-1.109,-27.723,-22.293,0.684,-0.242,-1.339,-73.449,-41.613,-5.686,-1.4,-1.828,-81.501,-25.031,-1.577,-1.406,-0.795,-107.249,-32.633,3.298,-3.114,-10.395],[-95.935,-53.098,-4.699,0.88,0.692,-87.629,-51.4,-6.096,-0.401,-0.457,-87.776,-49.345,-4.149,-1.499,-0.171,-113.921,-48.933,-14.082,-3.148,-5.344,-98.225,-53.234,-16.841,-8.908,-7.319,-96.5,-51.018,-15.631,-10.409,-6.206],[-101.7,-75.42,-15.403,-1.835,-0.143,-109.058,-71.224,-13.631,-0.253,-0.8,-101.487,-77.708,-20.164,0.032,0.38,-96.326,-61.405,-28.543,-2.387,-2.081,-106.88,-36.032,-12.768,-15.27,-6.775,-136.181,-76.616,-29.181,-14.76,-10.317]],
"kep": [[-9.791,7.087,0.726,0.797,4.803,-5.088,1.603,1.89,-4.605,3.032,-2.928,2.124,2.207,-1.894,0.181,0.434,-2.705,-1.658,-2.027,-12.618,15.803,-9.67,-24.918,-19.111,-4.958,58.334,28.42,-12.286,-29.466,-55.418],[-55.765,-1.771,1.58,3.941,2.261,-58.521,0.038,2.851,0.055,2.238,-58.863,1.164,2.285,0.613,1.062,-53.688,-6.869,0.536,-1.312,3.551,-38.204,-18.628,-5.055,-9.388,0.255,-25.871,-2.068,-4.122,-5.931,-20.26],[-93.294,-5.633,2.244,2.443,2.938,-90.463,-7.608,3.092,1.255,1.505,-91.525,-8.343,2.677,2.048,2.603,-82.189,-25.796,-1.959,0.102,0.118,-69.981,-25.172,-8.672,-3.542,-1.118,-53.799,-17.753,-9.176,-7.301,-17.274],[-95.775,-32.47,5.9,3.083,3.338,-98.285,-31.106,1.212,2.847,1.13,-98.621,-26.465,7.327,4.198,1.633,-90.348,-56.605,-2.609,-0.319,0.845,-84.911,-38.621,-10.467,-2.326,-1.651,-71.661,-24.876,-6.282,-18.237,-18.472],[-98.887,-64.578,-0.247,4.568,2.01,-98.295,-67.675,-2.424,5.442,3.202,-100.232,-60.956,-1.813,5.833,3.327,-96.594,-63.681,-19.845,0.234,-1.748,-90.197,-60.322,-24.658,-11.534,-6.539,-77.649,-50.16,-23.855,-30.896,-14.759],[-100.094,-89.28,-12.072,0.708,4.726,-99.004,-86.809,-11.822,7.842,1.753,-96.652,-87.858,-18.85,5.616,7.158,-94.964,-74.647,-33.796,0.787,1.834,-89.165,-66.519,-30.009,-25.465,-5.527,-86.34,-65.509,-40.085,-22.273,-21.1]],
"vp": [[517.311,-155.502,61.477,68.747,-18.103,38.488,6.609,-72.616,57.197,32.167,25.258,30.734,12.279,13.351,17.383,-20.02,-2.957,-1.271,-4.996,9.88,-17.577,1.911,11.431,6.908,-6.673,-3.58,11.943,0.163,4.612,6.811],[4332.32,270.752,135.891,-187.291,103.618,846.917,126.086,59.068,52.774,32.531,452.116,6.703,17.961,17.687,34.994,60.348,22.193,10.156,11.699,-6.979,63.588,4.579,-1.509,17.65,-6.015,17.109,-12.127,-13.701,-10.63,16.262],[7907.092,1531.646,97.107,190.606,442.097,1573.767,365.408,27.727,55.94,82.529,788.261,179.347,5.408,30.973,8.643,156.543,65.064,10.455,21.135,11.535,54.815,32.311,10.286,6.045,9.394,46.429,19.1,-15.79,-10.409,22.876],[8463.915,5205.456,215.334,220.672,-295.742,1781.365,1027.131,150.889,43.748,136.694,924.886,460.35,-12.917,-5.638,60.8,168.901,180.804,36.117,12.489,16.713,81.15,48.18,5.318,-7.324,5.597,56.331,19.868,-7.308,3.408,27.131],[9815.313,11103.875,1354.676,-342.881,-330.994,1883.495,2257.318,381.681,-16.849,-4.607,963.509,988.626,108.157,56.233,-2.062,197.846,197.905,79.777,23.605,54.519,99.767,108.129,55.684,32.983,40.251,48.755,52.799,22.261,20.583,5.646],[10562.064,15299.16,4908.127,898.775,-29.862,2005.245,2848.508,827.178,8.157,97.22,987.569,1507.611,610.193,0.482,-50.201,203.717,247.571,171.372,16.723,22.039,108.992,130.916,35.672,58.719,36.52,70.817,77.892,45.937,16.576,24.492]]
}