{
"KTrans": [[6.113,-5.361,-21.662,-0.914,-15.304,8.247,2.52,11.257,0.905,2.123,17.638,14.292,13.017,20.764,11.981,44.77,35.377,56.853,62.504,78.056,-0.974,-86.866,43.373,60.472,94.027,196.675,-95.8,-115.13,67.928,16.364],[-31.178,-6.795,1.155,4.3,-3.154,-32.926,-9.118,2.931,7.85,5.463,-26.388,-2.413,0.294,12.46,6.201,-8.536,-4.009,-9.787,19.408,24.126,-36.964,12.798,-27.194,25.455,19.167,-42.096,26.745,68.187,-5.573,38.167],[-51.406,-19.807,-7.531,-3.863,1.263,-37.331,-14.725,-3.875,-3.217,1.683,-51.034,-7.225,-0.546,-1.102,0.08,-45.219,-25.854,-22.139,8.4,-2.055,-55.109,-81.375,-17.858,21.993,-1.29,-24.692,-25.646,-4.742,53.748,44.102],[-63.695,-26.05,-7.54,-1.768,-5.121,-64.435,-22.439,-10.022,-3.862,-3.201,-50.307,-15.813,-1.576,-1.943,-1.584,-66.704,-31.632,12.992,24.593,14.013,-37.269,-32.151,-15.165,-20.922,-40.297,-55.922,-1.645,63.874,-13.283,23.915],[-67.212,-33.149,-5.521,-6.105,-2.487,-62.392,-33.263,-6.372,-4.619,-0.718,-66.896,-28.725,-5.994,1.577,0.529,-63.247,-42.324,9.272,18.152,12.904,-76.612,-19.03,-16.647,-31.379,-1.45,-69.837,-33.783,6.888,39.916,45.943],[-73.497,-32.735,-12.341,-3.542,-1.355,-72.754,-44.816,-9.103,-0.562,2.558,-66.815,-34.72,-7.809,-1.225,5.832,-72.97,-44.635,-5.926,10.065,3.541,-65.37,-46.951,22.843,19.594,26.224,-72.984,-62.755,-40.949,-101.604,-14.46]],
"ve": [[167.809,18.669,-26.061,-48.621,-60.639,-0.548,-152.916,202.5,-50.489,19.081,-47.344,-23.444,-43.551,-69.588,-30.895,16.231,-54.68,-29.204,-37.234,-70.95,86.545,27.189,-42.284,-25.326,-20.291,179.977,64.485,2.922,-2.17,-20.597],[3.857,-32.223,-24.373,8.886,-37.445,-3.791,20.53,-19.742,2314.592,11.793,213.667,12.537,4.523,-29.579,27.217,55.278,17.207,17.254,28.377,-13.905,108.459,47.547,22.664,6.891,-1.873,186.859,98.603,60.676,41.237,24.754],[-20.114,-5.158,-64.061,14.645,-7.067,1.435,-8.497,12.897,14.268,0.671,6.083,-6.49,2.511,6.627,0.781,60.62,14.937,32.655,-23.61,11.075,76.988,49.506,33.542,24.589,16.882,174.482,100.66,67.803,53.568,37.498],[-11.284,-12.056,-3.174,-11.594,-3.111,20.155,-8.655,-76.438,-1.361,-5.147,-8.056,9.651,2.613,4.382,32.026,49.604,20.896,13.747,10.519,-5.262,101.18,48.666,33.319,24.253,21.871,208.316,92.898,61.529,47.545,38.436],[157.185,-8.994,4.976,-3.144,-2.807,5.816,1.055,-0.601,0.056,-1.606,1.827,6.167,-10.015,-0.193,1.209,37.696,22.688,15.518,8.874,7.659,87.563,46.554,33.032,24.518,22.622,221.554,111.802,70.044,50.717,39.131],[-3.665,17.584,-1.844,-1.731,-0.807,-20.429,-0.516,-0.652,-0.079,-0.638,12.003,-1.688,0.934,-0.119,0.254,19.74,19.249,14.562,7.306,6.61,97.672,48.309,21.995,24.082,21.886,213.774,99.005,66.877,49.223,41.475]],
"kep": [[-116.993,-57.429,-3.214,4.37,33.877,-103.024,-76.534,-51.932,-25.126,-42.175,-122.913,-109.79,-37.584,-67.367,-26.201,-109.773,-208.768,-207.328,-201.033,-202.359,-121.397,-286.17,-336.6,-335.453,-411.673,-1.654,-143.501,-393.316,-464.984,-632.973],[-81.396,-70.34,-124.707,-82.964,-7.784,-76.007,-77.618,-134.657,-83.94,-25.204,-73.628,-78.187,-111.078,-115.043,-14.231,-71.259,-83.466,-159.236,-155.002,-139.356,-75.843,-41.637,-126.166,-171.411,-202.88,-64.367,-18.111,15.377,-144.02,-241.906],[-82.446,-47.547,-45.357,-69.218,-113.591,-72.115,-47.212,-38.181,-72.717,-104.859,-80.642,-35.689,-37.419,-77.722,-115.953,-78.681,-66.794,-79.121,-66.118,-152.025,-77.576,-91.508,-56.749,-25.491,-120.156,-69.901,-49.878,-38.554,29.555,8.616],[-84.629,-44.807,-23.393,-12.31,-37.404,-87.53,-46.066,-30.575,-22.859,-33.874,-78.653,-44.932,-20.486,-26.897,-32.417,-89.22,-61.143,-19.068,-0.659,-23.859,-77.772,-57.331,-50.143,-54.556,-79.229,-76.838,-50.195,-1.685,-31.227,-2.82],[-88.201,-51.641,-15.352,-16.336,-8.86,-81.767,-52.657,-18.408,-15.391,-13.219,-87.557,-50.317,-19.162,-8.777,-7.727,-87.117,-64.743,-26.468,-3.688,-9.801,-88.356,-51.111,-46.935,-57.399,-28.767,-80.504,-57.781,-40.019,-15.807,0.411],[-90.876,-51.692,-23.963,-12.292,-11.542,-89.934,-61.85,-22.432,-6.534,-3.16,-88.182,-52.533,-19.695,-8.544,1.62,-90.699,-68.737,-33.839,-14.802,-21.123,-85.023,-62.617,-23.571,-18.24,-4.959,-83.425,-70.42,-52.407,-83.959,-38.512]],
"vp": [[-718.361,-219.243,196,-25.937,233.056,65.555,-8.915,68.103,45.643,62.023,-26.757,-45.917,69.197,22.743,44.879,-31.284,-10.594,-14.667,23.011,-17.964,-24.407,8.076,-4.692,-7.386,9.875,-49.706,-10.303,-28.463,-32.473,-1.299],[2082.681,1635.668,-396.098,-262.297,-172.692,414.127,78.095,-12.022,56.926,-163.317,189.417,158.532,44.273,-15.863,-22.919,24.582,-29.674,13.46,-10.291,4.581,-12.331,-25.567,-8.533,-20.253,4.655,-26.932,-41.103,-41.412,-42.994,-47.348],[3928.352,2818.221,1249.297,842.169,-351.59,789.527,484.872,225.374,98.775,12.564,403.712,338.826,193.699,81.078,33.02,43.763,38.546,23.624,-2.784,-16.786,39.952,-3.541,-11.666,-25.053,-17.379,-2.961,-17.23,-7.883,-33.138,-28.695],[5881.46,5022.767,3203.81,1384.921,980.568,1032.724,1242.396,521.047,244.078,245.854,563.536,449.911,351.06,91.662,80.955,101.804,79.145,36.694,14.177,19.13,18.011,16.319,12.691,-30.274,-15.153,-24.016,-43.923,-46.702,-26.604,-40.47],[7664.305,6033.977,4958.694,3482.605,1613.98,1218.274,1298.331,841.238,644.231,357.409,608.169,624.039,451.134,319.422,157.057,91.846,103.168,90.512,3.754,-10.185,5.09,38.69,-8.223,1.091,-17.892,11.707,-8.276,-33.337,-30.857,-46.394],[7390.123,8337.934,5622.056,4259.662,1782.759,1326.001,1488.102,1106.999,695.411,623.949,607.393,641.468,586.155,233.026,320.776,113.973,142.406,100.865,65.836,16.617,39.898,39.114,6.079,-7.97,7.304,2.854,-19.521,-2.063,-13.553,-21.369]]
}