{
"KTrans": [[0.077,1.045,0.972,1.226,1.165,0.454,1.373,1.758,1.319,1.229,3.027,0.817,3.206,1.64,1.851,22.317,10.031,11.277,6.899,7.241,-162.092,12.677,28.28,21.578,21.17,-133.903,-230.497,35.554,46.031,35.048],[-5.624,-1.981,0.13,0.608,0.762,-2.916,-0.365,0.044,0.553,0.892,3.342,-2.275,0.454,1.277,1.926,12.221,4.928,4.049,2.73,1.753,24.982,27.093,8.574,8.468,14.948,-4.348,-57.071,12.236,31.063,24.146],[-34.3,-5.829,-1.748,-0.659,0.07,-22.958,-4.23,-1.822,-1.045,0.224,-26.747,-3.595,-2.646,0.065,0.207,-3.428,7.89,5.155,2.921,0.471,-2.657,-17.825,8.289,5.289,0.089,0.92,0.634,-26.44,11.432,26.693],[-55.402,2.475,-4.653,-3.547,-1.723,-57.349,5.246,-4,-2.209,-1.458,-55.306,3.788,-4.246,-1.765,-1.438,-45.32,8.342,1.08,2.115,1.048,-39.47,-8.546,-11.302,-0.26,4.6,-34.829,-16.209,29.243,-33.757,19.654],[-71.609,-16.816,-8.424,-4.577,-3.469,-71.183,-9.778,-0.656,-5.752,-2.226,-73.078,-21.912,-6.393,-6.132,-2.816,-63.967,-25.892,12.229,-2.436,3.087,-61.833,1.003,-8.966,4.56,1.455,-34.024,-17.587,8.085,-6.705,6.955],[-79.486,-30.707,9.536,-5.855,-5.011,-82.75,-46.446,10.377,-5.749,-3.749,-75.803,-34.645,3.988,-2.948,-0.533,-68.229,-38.761,1.782,-2.515,-5.8,-81.873,-38.275,5.952,17.806,3.477,-44.867,-33.182,8.242,12.8,-4.158]],
"ve": [[0.018,0.153,0.015,-0.246,-0.391,0.182,0.292,-0.005,-0.056,0.019,1.556,0.641,0.195,0.766,0.678,8.911,3.797,-8.141,-20.565,-61.021,-0.598,-10.664,-11.308,-20.498,-50.311,26.841,-4.343,-10.7,-4.886,-28.682],[-2.253,-0.703,0.066,0.153,0.191,-1.526,0.012,0.005,0.135,0.179,-0.578,-0.958,0.152,0.402,0.451,8.221,5.378,2.02,1.49,1.725,26.98,14.605,-8.471,-2.332,-3.645,-5.996,37.443,15.509,7.835,-11.01],[-22.157,-1.967,-0.885,-0.155,0.034,-16.934,-1.065,-0.255,-0.288,0.088,-21.98,-1.394,-0.932,0.136,0.059,4.249,1.537,3.917,1.454,0.042,5.837,21.534,2.593,94.806,0.391,30.756,17.239,20.658,12.349,9.482],[-27.767,-0.662,-2.049,-0.923,-0.491,-37.121,-0.021,-0.615,-0.903,-0.345,-26.188,0.762,-1.832,-0.773,-0.422,-23.13,4.499,1.222,1.455,0.571,8.042,3.831,3.491,-57.849,2.44,3.289,2.605,22.441,13.953,9.227],[-45.858,-13.547,-2.655,-1.896,-1.363,-44.771,-7.374,-1.778,-2.057,-0.586,-41.829,-15.478,-2.739,-2.726,-1.356,-22.294,-14.982,3.353,-1.142,2.324,-18.758,13.468,4.583,2.02,0.137,14.882,16.397,13.975,8.079,6.696],[-53.111,-16.126,1.231,-3.134,-1.437,-84.933,-30.088,0.602,-2.584,-1.5,-44.742,-20.136,-2.15,-0.917,-0.206,-19.588,-22.019,-2.621,0.088,-3.61,-76.717,-32.492,3.641,3.404,3.025,-11.081,-20.416,4.017,18.591,6.461]],
"kep": [[-0.285,0.555,0.626,1.15,1.249,-0.353,0.702,1.473,1.194,1.189,0.099,-0.281,2.966,1.331,2.09,-14.518,-10.144,-0.272,-3.607,-2.118,33.396,-49.202,-13.165,-17.977,-5.899,39.814,59.348,21.724,12.263,-25.334],[-4.399,-1.629,-0.27,0.12,0.236,-2.858,-0.767,-0.333,0.067,0.37,1.376,-1.988,-0.143,0.483,1.107,-6.165,-4.969,-1.317,-0.507,-0.895,-14.157,0.376,-11.059,-4.951,5.577,-20.253,-6.485,-21.691,-8.148,-10.73],[-31.533,-4.432,-1.211,-0.837,-0.297,-27.291,-3.788,-1.943,-1.117,-0.207,-35.019,-3.148,-2.259,-0.451,-0.227,-29.882,-5.087,-0.835,-0.69,-1.231,-32.859,-26.023,-10.623,-4.964,-5.012,-45.614,-9.805,8.525,-22.63,-2.822],[-54.148,0.756,-3.08,-2.984,-1.571,-58.464,2.467,-3.822,-1.691,-1.467,-56.153,0.058,-3.107,-1.444,-1.423,-54.775,-18.326,-2.476,-1.244,-0.874,-59.777,-20.155,-10.556,-8.916,-2.802,-57.488,-28.78,-0.32,-16.941,-8.483],[-69.015,-12.073,-6.955,-3.113,-2.474,-69.811,-8.861,0.168,-4.282,-1.995,-69.427,-20.94,-5.268,-4.265,-1.913,-70.61,-40.089,5.477,-4.489,-0.39,-71.739,-27.082,-26.752,-5.922,-3.185,-63.785,-40.599,-19.681,-18.333,-18.881],[-74.555,-31.554,4.871,-3.472,-4.003,-79.533,-47.655,5.63,-3.871,-2.689,-70.678,-38.503,1.826,-2.721,-0.71,-74.947,-48.094,-16.162,-5.439,-4.739,-74.645,-48.288,-15.521,-6.746,-3.766,-68.796,-46.796,-22.367,-19.214,0.013]],
"vp": [[-1.554,-63.025,-81.403,-89.823,-87.726,-2.666,-16.655,-30.047,-20.775,-16.113,-16.068,3.817,-28.368,-8.633,-13.694,-23.557,-2.797,-13.753,-6.148,-7.683,-2.87,-11.925,-20.793,-13.846,-15.436,-20.227,-14.748,-25.05,-36.726,-30.778],[216.151,147.062,-24.481,-80.533,-160.645,31.687,1.076,0.776,-13.743,-28.049,10.29,21.124,-4.526,-21.116,-36.035,-16.94,-5.784,-5.708,-3.286,0.2,-26.439,-34.342,-1.753,-5.694,-29.75,2.159,-39.981,-27.881,-26.205,-16.736],[2228.758,375.384,327.776,59.33,-21.132,374.482,37.851,8.364,21.785,-10.431,240.305,29.711,28.674,-6.165,-2.813,-16.833,-4.887,-26.615,-11.102,3.839,-8.304,-43.635,-4.461,-1.881,13.476,-14.031,-16.047,-34.316,-8.887,-34.853],[2691.043,161.953,656.642,299.516,223.806,746.202,10.733,21.669,81.965,28.775,287.236,-11.745,58.18,37.42,20.99,48.877,-17.216,-7.958,-11.711,-5.133,-3.06,-5.377,-6.665,15.233,-9.532,1.014,0.968,-33.533,-26.872,-27.955],[4476.181,2869.985,644.709,799.424,704.713,906.739,313.737,138.766,158.189,58.085,421.008,310.108,78.523,112.791,77.766,40.436,64.762,-18.904,10.749,-24.885,20.347,-31.919,-12.37,-6.878,2.167,-9.372,-15.194,-20.788,-15.319,-19.235],[5478.564,3326.568,-281.386,1319.773,623.239,1022.546,1201.113,-15.571,211.76,158.957,428.956,412.792,79.274,38.305,22.678,36.958,89.517,18.62,-2.963,40.417,83.546,67.99,-11.376,-8.031,-15.505,6.805,23.475,-29.845,-37.112,-8.134]]
}