{
"KTrans": [[-6.321,-25.483,-28.289,-32.056,-34.362,-2.92,0.382,-0.388,-1.787,1.741,-8.026,-1.373,-6.248,-1.776,-0.997,54.404,8.623,34.784,24.28,20.826,5.375,60.833,44.687,59.311,73.107,265.655,129.662,115.653,143.89,169.543],[-3.021,-0.79,-1.686,-28.645,-45.545,-4.314,0.425,-4.281,0.377,0.34,-3.386,1.147,-7.235,0.237,-0.044,69.387,39.916,2.172,-2.286,-8.379,54.214,16.644,17.695,-2.923,16.984,54.076,-52.285,91.046,29.959,25.446],[-44.647,-2.763,-1.359,-0.392,-7.003,-46.764,-4.234,-1.033,0.004,-7.41,-41.412,0.331,-2.036,1.149,-7.104,-2.893,5.476,5.591,17.864,-2.278,12.772,27.082,50.064,22.961,0.068,33.608,68.604,-33.927,-19.484,-0.271],[-44.588,-3.75,-1.457,-5.271,-1.791,-46.485,-7.554,-1.838,-1.629,-0.64,-49.72,-3.337,-2.945,-1.448,-0.455,-46.136,2.212,-3.834,5.659,6.879,-41.667,57.117,19.52,21.238,28.796,-2.728,31.552,57.433,21.89,-3.84],[-74.298,-47.079,-3.986,-2.988,-2.296,-68.444,-38.816,-4.181,-0.736,-1.35,-61.748,-39.981,-4.414,-2.372,-1.278,-55.631,-17.066,3.676,-2.594,1.798,-49.965,6.576,26.718,10.821,9.764,-30.564,16.855,51.978,75.213,57.595],[-76.686,-51.646,-21.68,-3.515,-1.326,-71.3,-57.237,-16.914,-3.303,-3.094,-69.76,-48.855,-7.209,-1.872,-3.311,-63.333,-45.6,3.633,-2.802,1.683,-46.093,-22.154,38.396,1.729,6.182,-61.79,2.525,34.598,-2.473,44.753]],
"ve": [[-6.78,-12.882,-9.502,-8.019,-6.975,-3.526,0.131,0.098,-0.428,1.286,-9.501,-0.32,-1.286,1.231,2.231,47.827,46.348,43.95,51.559,64.916,65.154,2.276,-31.115,-74.911,-155.264,167.627,67.297,-21.468,-56.326,-7.807],[-1.648,-0.236,-1.911,-21.636,-27.445,-1.568,0.408,-4.072,0.084,0.04,-1.187,0.479,-10.531,-0.059,-0.067,311.029,51.648,-18.496,1.131,-1.858,174.542,80.842,10.184,70.976,18.972,289.75,80.74,83.503,37.597,-1.723],[-193.192,-1.355,-0.443,-0.125,-7.032,-208.594,-1.794,-0.579,0.038,-7.146,-212.219,0.919,-1.051,0.523,-6.98,42.148,6.137,0.783,17.184,-15.495,125.844,155.813,83.786,50.387,11.155,178.858,160.734,121.561,37.18,1.493],[-196.262,-2.979,-0.647,-7.307,-1.648,-221.874,-3.773,-0.718,-0.623,-0.33,-273.349,-1.581,-0.941,-0.658,-0.161,-133.418,2.128,-0.393,3.729,3.837,-64.98,154.36,34.864,23.229,33.901,353.121,101.301,114.504,90.004,50.908],[-253.222,-208.408,-1.802,-1.046,-2.278,-147.021,-155.898,-2.362,-0.909,-0.601,-133.569,-157.751,-1.804,-1.069,-0.811,29.083,-100.402,2.813,-0.843,0.922,96.18,80.092,30.138,9.155,7.881,238.315,92.005,78.127,170.052,88.229],[-134.863,-244.67,-67.378,-1.644,-0.73,-112.934,-275.235,-49.809,-1.477,-1.148,-105.054,-278.975,-11.363,-1.335,-1.469,199.458,-192.265,0.737,-1.203,2.296,87.852,8.695,36.919,3.797,5.788,337.577,157.284,142.714,76.82,68.464]],
"kep": [[132.178,-0.199,-0.054,-0.15,0.2,90.749,-1.557,-0.602,0.805,-1.866,140.308,-4.354,0.073,-2.834,-3.145,81.048,-28.629,-34.615,-20.384,-15.806,37.044,-103.94,-49.51,-53.261,-63.318,143.538,-205.87,-138.113,-146.286,-165.498],[-2.126,-0.848,110.812,-0.282,0.108,-3.9,0.293,84.19,-1.086,-0.37,-3.859,1.183,125.069,-2.739,-0.927,-63.66,-32.652,119.652,-23.073,-3.9,-38.257,-21.854,-11.667,-57.344,-38.568,-42.489,-20.862,53.551,-165.117,-80.782],[-5.747,-1.906,-1.338,-0.59,102.271,-5.955,-3.147,-0.591,0.169,72.43,-3.868,-0.992,-1.803,2.437,100.03,-39.621,-6.042,-5.231,-15.435,146.822,-46.908,-38.278,-44.217,-25.678,31.958,-53.495,-21.246,-68.067,-13.883,97.771],[-14.523,-2.185,-1.128,-1.211,-0.997,-14.209,-5.225,-1.448,-1.354,-0.43,-16.669,-3.235,-2.799,-1.124,-0.582,-50.643,-4.975,-7.341,1.246,1.873,-59.167,-28.728,-13.221,-7.141,-28.781,-68.868,-35.664,-24.749,-15.811,-34.826],[-44.327,-1.02,-2.974,-2.423,-1.069,-51.694,-5.23,-2.736,0.046,-1.011,-50.995,-5.039,-3.745,-1.87,-0.543,-70.424,-6.184,-1.351,-4.288,-0.142,-72.814,-41.241,1.779,-1.838,-2.613,-72.663,-37.381,-12.549,-29.303,-21.66],[-64.155,-7.12,-2.451,-2.482,-0.869,-64.233,-9.619,-3.107,-2.392,-2.475,-64.37,-2.027,-3.756,-1.029,-2.44,-70.287,-26.484,-0.392,-3.558,-1.626,-70.037,-47.41,4.893,-5.868,-3.458,-83.617,-52.983,-29.576,-39.152,-15.773]],
"vp": [[-21.623,-32.446,-40.99,-54.59,-48.141,-24.292,-8.612,-2.981,10.336,-26.871,-9.582,-6.569,9.541,-9.215,-13.119,-51.207,7.485,-24.496,-6.643,-1.085,-32.231,-10.352,2.748,-4.988,-14.19,-37.124,-1.651,6.747,-5.307,-14.392],[176.971,44.082,-34.056,-48.208,-59.167,30.232,-16.866,-3.542,-8.884,0.547,13.894,-0.217,-12.258,-8.903,-2.329,-19.666,-11.826,-19.551,1.009,19.39,-28.295,-41.46,-36.674,14.784,-21.019,-40.663,-16.231,-41.266,8.993,-2.893],[516.972,289.617,122.307,50.084,-26.443,122.884,71.621,42.749,2.296,-21.099,23.075,-20.498,40.354,-12.92,-4.518,-14.101,-3.176,-1.703,-17.708,-16.243,-29.343,-45.911,-6.251,-44.176,-18.538,-29.074,-28.554,-54.529,-31.707,-17.55],[1000.456,660.436,216.495,207.175,124.782,221.592,152.213,44.817,49.889,42.685,68.842,32.281,27.679,30.464,14.6,21.058,4.569,13.496,-23.238,-20.869,29.561,-8.908,-5.009,-18.479,-13.083,-20.354,-34.579,-37.378,-21.824,-38.333],[3356.803,853.136,550.879,390.64,279.499,655.298,66.257,151.341,96.823,66.545,242.755,80.614,53.958,45.912,49.419,27.224,16.181,-14.198,14.975,1.344,12.028,4.216,-32.512,-17.019,-9.421,-21.659,3.222,-45.049,-38.599,-32.593],[4014.21,1140.886,1020.639,683.444,428.35,794.078,93.829,142.802,122.33,109.563,311.586,55.782,79.694,63.236,76.018,38.262,37.52,0.399,13.591,-24.459,-10.2,9.89,-21.834,2.642,-13.187,11.001,-28.981,-22.262,-32.777,-27.791]]
}