{
"KTrans": [[-7.888,10.16,4.717,0.906,2.168,-9.972,8.412,5.336,0.253,1.162,-16.321,-1.458,1.448,3.638,1.065,-4.892,4.916,1.479,5.117,1.706,13.814,6.886,1.969,2.944,-9.289,1.537,44.609,56.168,24.058,15.475],[-66.449,-5.685,4.47,3.656,-0.76,-74.167,-4.364,1.221,-1.312,1.413,-68.347,-6.498,-3.153,0.466,-0.425,-71.815,-11.665,-2.124,-3.294,-4.027,-57.796,-19.712,8.295,-8.905,6.324,-36.203,12.809,15.766,2.104,5.8],[-90.995,-21.343,0.221,-0.521,1.766,-90.469,-24.741,-2.727,4.66,-1.607,-90.382,-22.003,-6.32,-2.014,1.588,-82.567,-19.479,-6.273,0.179,-2.642,-77.918,-31.705,-12.3,-4.879,2.285,-71.304,-10.233,9.929,-4.228,-5.492],[-97.205,-49.291,-8.083,-0.768,0.453,-96.737,-49.961,-1.261,0.711,1.419,-94.723,-45.577,-7.787,-0.206,1.983,-94.611,-48.834,-14.696,-6.186,0.793,-89.804,-45.444,-19.109,-9.97,-11.673,-94.526,-53.011,-4.463,-27.4,-7.284],[-97.704,-68.127,-15.462,1.821,1.491,-98.452,-69.811,-15.193,-3.422,0.483,-98.606,-64.609,-15.395,-4.16,1.611,-94.722,-67.089,-20.073,-7.115,-1.381,-89.273,-55.142,-30.658,-13.105,-2.032,-79.098,-38.453,-9.549,-14.902,-8.852],[-98.514,-80.355,-22.743,-1.535,0.691,-98.807,-80.924,-31.284,-7.403,2.305,-98.63,-80.737,-24.683,-9.361,4.639,-98.314,-76.183,-32.665,-8.946,-2.662,-99.408,-66.687,-35.265,-18.008,-12.209,-99.701,-55.97,-18.156,6.506,-6.009]],
"ve": [[1.787,69.86,23.019,-23.69,-20.152,0.532,25.224,5.482,20.411,12.24,-0.123,13.816,20.405,-19.421,440.563,11.478,0.124,1979.405,-273.011,-29.396,-2.81,0.77,-119.987,-24.111,-58.01,-33.822,-29.087,-41.146,22114.916,-45.372],[-26.775,-1.497,1.896,0.514,-0.328,-35.215,-2.368,0.969,-0.857,1.162,-42.788,-2.114,0.021,0.652,1.242,-17.555,-2.16,-0.646,-0.384,-1.331,-53.778,-9.974,5.541,2.709,3.637,-23.659,-12.158,-1.07,-54.162,-21.494],[-51.139,-10.231,0.05,-1.167,-1.267,-47.931,-11.364,-1.281,0.849,-0.33,-61.431,-8.431,-2.065,-0.856,-0.279,-60.033,-10.686,-3.977,0.621,-0.925,-63.726,-22.026,-8.258,-2.645,0.179,-43.078,-21.571,21.627,-1.188,0.022],[-80.157,-23.759,-4.103,-1.138,-0.493,-82.965,-26.83,-2.597,-1.137,0.29,-75.431,-26.784,-5.907,-1.25,-0.293,-67.518,-27.565,-8.456,-3.783,-1.286,-203.618,-33.953,-12.438,-6.108,-6.888,-75.162,-57.654,-14.02,-20.07,-5.736],[-78.769,-40.192,-8.663,-1.356,-0.013,-36.018,-45.837,-7.845,-2.439,-0.524,-81.976,-36.512,-9.821,-3.765,-0.38,-67.835,-48.415,-12.59,-5.429,-2.213,-72.034,-42.984,-22.261,-8.623,-2.032,-91.548,-26.005,-12.536,-14.893,-6.34],[-93.034,-55.775,-12.389,-2.369,-0.928,-129.619,-59.523,-18.802,-4.184,-0.627,-85.253,-57.745,-13.415,-4.987,0.095,-111.002,-53.118,-17.961,-5.099,-3.263,-104.44,-29.488,-24.866,-10.906,-8.516,-91.265,-43.54,-22.503,0.848,-4.848]],
"kep": [[-15.849,9.825,1.97,-1.23,-0.063,-14.362,5.733,3.466,-1.299,-2.676,-20.021,-5.624,-1.948,2.304,-0.644,-28.238,-9.216,-6.15,1.152,-0.814,-32.551,-22.863,-21.185,-18.651,-42.161,6.236,-27.778,6.333,-24.585,-55.651],[-61.868,-5.497,2.492,3.323,0.045,-69.575,-4.148,0.005,-0.342,0.888,-64.225,-5.746,-3.233,-0.009,-1.105,-74.724,-13.757,-3.053,-3.835,-2.852,-71.89,-27.546,-2.43,-12.073,2.431,-40.961,-33.382,-16.472,-13.496,-9.311],[-88.827,-15.457,-0.726,0.353,3.033,-89.179,-17.379,-2.241,3.291,-1.365,-87.061,-17.292,-4.764,-1.356,1.718,-85.336,-18.193,-4.446,-1.44,-2.268,-76.876,-42.81,-13.429,-5.841,-0.103,-58.2,-43.462,-22.303,-15.866,-12.599],[-98.053,-39.283,-4.483,0.068,0.769,-96.703,-36.259,-0.048,1.375,0.864,-96.981,-34.525,-3.43,0.162,1.976,-94.44,-47.804,-9.646,-4.362,1.159,-85.308,-59.457,-18.373,-8.258,-8.347,-71.517,-49.063,-37.246,-32.756,-12.975],[-98.168,-54.131,-9.557,2.518,1.354,-98.681,-54.225,-9.45,-1.672,0.742,-98.668,-52.987,-8.963,-0.956,1.739,-94.879,-60.807,-14.095,-4.265,0.005,-89.872,-63.039,-30.493,-9.836,-2.386,-75.869,-52.085,-43.992,-24.868,-12.267],[-99.146,-67.25,-14.66,0.08,1.352,-98.983,-70.863,-19.74,-4.339,2.532,-99.398,-71.734,-16.135,-5.235,4.017,-96.846,-71.76,-25.373,-6.469,-0.551,-89.756,-69.031,-39.506,-13.732,-7.981,-82.14,-63.954,-49.039,-19.435,-13.944]],
"vp": [[381.66,-174.827,-242.821,99.789,-58.423,172.538,-62.739,-27.175,47.816,-0.328,57.874,29.371,7.396,5.457,1.814,10.396,1.472,6.396,0.534,8.329,6.437,10.851,12.236,10.946,21.811,4.684,3.485,-10.124,-1.648,10.073],[3560.222,766.216,-115.283,-227.485,469.9,877.129,155.675,-7.933,71.988,1.138,417.854,93.086,48.92,22.074,20.659,96.161,22.228,9.476,16.766,27.964,53.645,30.48,-7.978,20.009,-9.829,11.994,6.34,0.501,9.059,4.094],[6966.842,2196.984,339.737,376.252,493.167,1376.415,536.42,89.049,-34.589,87.909,703.724,202.837,97.072,68.14,11.612,120.35,49.754,32.42,2.392,14.348,72.832,43.391,27.693,15.743,0.51,20.715,18.919,3.254,11.79,16.863],[8331.968,5192.847,1456.322,519.359,221.885,1711.012,1175.465,107.576,86.32,11.506,786.443,512.341,189.178,64.875,4.941,161.808,124.437,58.937,31.596,8.081,73.975,71.542,41.362,29.064,39.735,39.226,53.187,18.934,51.607,20.202],[8801.798,8120.66,2604.423,481.607,43.085,1796.616,1831.351,514.065,213.596,25.24,923.899,791.962,282.942,161.728,12.074,161.462,186.818,78.248,52.203,22.679,67.696,82.04,69.562,38.333,9.821,20.319,24.549,18.809,28.797,19.041],[9252.948,11268.899,3802.751,1141.747,520.641,1868.789,2291.137,1180.938,351.713,51.514,902.981,1204.463,435.154,234.357,-2.747,184.55,213.902,114.607,38.928,26.885,103.817,84.103,77.158,44.732,47.021,46.866,45.664,36.414,-4.419,10.728]]
}