{
"KTrans": [[4.333,1.918,5.957,4.558,3.903,-0.844,12.723,9.822,7.643,6.957,25.667,20.486,19.273,11.58,15.164,51.509,109.871,83.258,68.216,62.696,42.287,139.041,128.133,147.525,121.899,205.555,162.373,114.995,131.393,173.229],[-38.597,3.623,5.302,2.473,2.76,-33.859,8.021,7.528,7.462,4.741,-37.489,20.642,9.424,10.141,9.32,-16.341,83.766,54.005,40.029,36.787,4.259,58.174,96.507,96.361,70.856,62.75,59.382,52.348,87.094,130.613],[-71.009,-0.449,6.685,3.735,3.664,-64.473,5.671,6.548,9.162,5.824,-61.089,15.87,9.124,8.76,8.786,-57.522,56.482,45.826,36.473,35.778,-13.66,19.047,77.733,83.609,64.619,24.612,21.197,93.076,66.117,115.814],[-85.28,-8.249,8.01,6.081,4.066,-84.54,-5.732,13.303,8.354,6.686,-80.729,0.701,14.367,13.893,14.338,-72.597,3.344,56.107,42.045,30.547,-69.175,-12.707,32.54,80.5,58.181,-14.699,5.761,13.654,64.298,103.044],[-81.507,-15.022,9.232,1.982,6.153,-87.265,-16.662,14.118,9.66,8.842,-90.281,-18.184,11.5,12.891,10.651,-79.512,-10.088,67.654,35.248,40.328,-60.747,-20.188,18.736,83.436,72.801,-39.417,20.643,15.951,-22.755,84.938],[-96.905,-38.516,5.881,5.46,8.114,-94.196,-39.614,10.108,15.475,8.312,-88.483,-33.242,2.981,14.721,12.563,-92.241,-44.747,36.21,50.431,35.677,-76.739,-45.68,-1.425,77.2,94.9,-57.113,-38.219,-20.187,-3.613,87.696]],
"ve": [[16.544,35.488,226.53,28.5,229.341,14.745,-16.887,72.214,7.897,40.136,505.739,12.433,-4.552,-22.601,-186.306,53.062,21.538,8.032,-16.217,-0.013,96.31,31.289,8.492,-0.865,-12.712,191.866,79.994,35.271,10.732,-6.758],[16.198,3.374,0.432,0.17,0.819,-53.731,3.103,2.927,1.292,1.048,14.108,5.497,3.952,-0.051,0.564,58.621,25.83,14.929,8.973,5.896,102.908,-355.942,33.541,19.398,13.24,203.171,95.146,59.107,49.697,28.607],[4.502,0.938,-0.101,0.189,-0.085,8.302,4.391,1.991,0.12,0.484,11.216,6.848,4.999,2.109,1.269,52.561,25.466,15.536,10.59,8.385,101.053,48.37,32.044,23.456,18.314,201.101,103.165,63.786,42.621,24.854],[-21.224,6.528,1.1,-0.028,-0.181,-31.019,4.348,2.342,0.224,0.271,7.913,7.3,3.521,2.757,2.151,47.698,25.323,16.573,12.319,8.546,107.969,-0.361,34.062,23.784,17.595,197.742,104.299,71.045,47.921,38.881],[8.016,2.494,1.019,-0.488,0.357,11.563,8.322,2.647,1.388,1.187,-2.898,4.158,3.468,1.311,1.39,50.248,-31.246,18.577,11.608,10.137,98.346,50.974,33.829,23.904,18.862,201.474,96.99,67.97,48.697,40.247],[4.933,1.641,1.609,-0.628,-0.471,-49.066,6.4,1.953,2.056,0.637,10.368,9.109,2.621,2.846,1.933,58.839,27.163,16.716,11.51,9.016,100.608,53.122,33.148,25.385,19.879,205.476,103.216,65.776,49.34,38.553]],
"kep": [[-2.39,0.442,6.417,6.066,2.917,-12.246,14.105,14.718,6.335,10.905,7.517,18.188,24.459,18.403,30.852,3.997,80.645,82.886,85.923,99.263,-15.822,76.133,103.11,162.571,162.297,23.967,65.745,74.139,105.115,184.897],[-44.421,1.307,6.335,3.451,3.034,-42.525,6.453,5.52,6.874,4.437,-47.931,16.208,6.166,11.179,9.547,-45.224,45.347,34.665,29.401,30.099,-42.448,7.98,50.233,64.207,51.112,-38.039,-8.948,0.089,29.837,75.839],[-76.119,-0.174,7.353,4.042,4.042,-70.852,2.724,5.118,9.538,5.742,-69.166,9.033,4.548,7.04,7.71,-72.106,21.119,26.361,23.646,25.49,-53.707,-18.56,34.36,48.042,38.901,-52.13,-27.804,23.234,16.215,55.493],[-88.351,-11.695,7.77,6.671,4.473,-88.791,-9.391,10.785,8.277,6.607,-85.329,-5.905,11.144,11.048,12.252,-81.908,-18.262,33.378,26.342,20.391,-81.237,-38.592,0.769,44.361,33.95,-66.395,-40.112,-26.673,15.13,45.63],[-85.731,-17.209,8.39,2.829,5.905,-90.74,-22.285,11.743,8.456,7.797,-92.529,-23.286,7.997,11.59,9.32,-85.973,-29.992,40.177,21.155,27.307,-78.734,-43.724,-8.89,45.337,44.079,-75.397,-33.628,-24.718,-40.209,29.989],[-97.621,-41.152,4.207,6.393,8.73,-96.081,-43.139,7.427,13.237,7.819,-90.773,-39.88,-0.061,11.706,10.461,-94.772,-55.742,16.598,34.019,24.357,-86.848,-60.937,-24.981,39.674,60.127,-82.681,-63.959,-44.785,-27.221,34.891]],
"vp": [[570.42,483.307,-169.451,213.509,-380.301,183.683,60.649,-86.017,18.931,45.675,78.424,8.738,7.354,-37.701,1.18,13.99,-8.707,1.08,-1.991,-19.96,-12.308,-22.743,-13.122,-14.502,-17.18,-26.971,-22.853,-12.606,-17.656,-27.741],[5320.653,1528.217,196.87,320.334,651.432,1016.718,249.959,64.282,193.345,44.564,543.173,115.069,20.297,85.03,10.243,89.266,7.211,-2.913,-11.172,4.084,29.326,-4.684,-15.757,-0.997,-12.007,2.823,-33.922,-30.28,-19.103,-14.568],[7272.459,3494.576,1320.448,837.342,1220.959,1389.207,1000.174,321.059,207.971,14.595,670.408,506.18,134.857,95.532,35.084,145.219,96.991,-8.946,-25.91,17.991,50.461,9.533,-7.48,3.018,3.01,25.101,11.274,-18.478,-28.411,-11.884],[8146,8827.067,3744.606,1550.616,-74.543,1687.93,2066.872,676.063,290.93,177.061,795.903,880.587,272.358,12.938,130.795,159.719,134.85,63.11,0.279,-8.782,86.412,73.216,-10.649,-7.418,-10.905,22.49,39.45,-20.669,-23.064,-14.838],[9092.108,12361.279,6622.873,2591.028,1461.238,1834.022,2459.336,1693.383,329.211,365.047,792.722,1150.602,686.705,296.16,127.597,158.455,246.177,173.364,3.545,46.84,77.997,98.142,57.835,-24.804,-3.556,41.264,15.182,4.101,-9.061,-9.184],[9336.832,13237.987,11336.515,4613.472,1966.101,1777.23,2667.615,2028.985,899.433,342.098,850.437,1429.954,918.954,279.094,152.331,199.431,282.697,228.834,66.933,-6.132,90.042,137.173,64.54,21.828,18.664,41.477,47.363,12.519,2.62,-23.787]]
}