{
"KTrans": [[1.471,19.459,8.862,2.98,-0.475,6.154,14.822,-6.106,6.355,14.757,14.735,21.676,18.479,22.172,14.481,8.677,45.136,69.386,84.221,81.183,-0.906,20.995,78.246,101.749,129.28,-46.343,-27.708,-98.402,137.825,42.347],[-39.467,-10.852,-1.719,7.753,1.707,-37.179,-9.145,1.459,9.261,5.527,-29.264,-7.288,4.776,12.439,11.623,-12.148,8.752,7.709,14.826,30.965,-1.161,-20.263,39.894,6.445,38.391,27.157,24.722,-9.815,-80.103,21.718],[-55.131,-21.417,-11.972,-5.863,-0.562,-52.449,-18.727,-9.742,-3.502,2.085,-46.49,-15.27,-4.008,-2.167,1.976,-53.614,-7.37,25.175,2.446,5.023,-46.78,-3.481,-3.32,24.128,-13.902,-100.16,-77.111,-80.868,-10.45,-2.669],[-65.782,-23.974,-9.006,-8.229,-4.921,-62.545,-21.4,-6.13,-4.126,-4.322,-62.819,-16.671,-3.415,0.462,-0.124,-61.025,-16.677,15.875,22.583,9.872,-50.747,-9.256,1.684,-3.872,5.61,-52.992,-32.548,50.746,-37.626,-67.245],[-70.758,-31.022,-9.744,-3.95,-1.989,-69.801,-28.064,-7.214,-3.01,-0.174,-71.039,-27.114,-1.551,0.957,0.37,-78.646,-13.554,14.622,24.216,25.54,-93.369,-30.52,40.794,7.531,9.903,-50.066,-48.199,-5.953,-31.219,-19.089],[-75.622,-38.179,-12.022,-4.896,-2.939,-77.966,-36.08,-10.412,-6.625,0.919,-73.577,-26.655,-6.501,0.017,3.464,-82.812,-30.253,2.485,20.003,21.985,-80.995,-14.24,28.277,35.281,18.826,-67.376,16.929,-3.231,45.989,21.814]],
"ve": [[-0.452,-35.139,-9.378,-38.161,-31.052,31.668,-42.362,29.064,-10.624,-145.874,23.956,-30.746,-5957.008,-10.44,-21.485,62.774,-170.998,8.308,74.164,-92.449,76.152,23.473,5.766,-40.253,-49.434,136.14,62.134,-26.219,194.886,-21.78],[7.388,50.461,4.014,-69.982,-34.749,5.697,-1.715,6.686,-29.297,78.806,157.495,0.302,1.243,-3.775,-11.51,-1086.07,-18.426,12.594,1.345,9.643,85.035,70.283,13.748,15.81,3.197,184.859,96.271,60.306,45.466,26.881],[-4.01,-11.06,10.983,19.277,1.663,-2.923,-0.82,-12.862,8.257,-17.847,26.439,6.677,2.773,13.809,4.716,45.532,19.261,9.889,19.627,12.552,94.606,48.788,29.902,-32.382,18.116,191.956,100.234,65.4,48.326,40.302],[57.998,-13.241,-5.252,-4.676,8.823,-8.117,-3.947,-39.15,-1.366,3.835,-10.451,0.989,-1.449,-0.076,-106.511,12.788,25.825,15.332,15.866,5.264,94.536,44.071,33.272,26.872,22.955,184.03,118.465,67.458,47.112,41.603],[2.614,9.819,-2.735,-0.748,-23.554,2.439,-3.463,-2.651,-11.071,-1.629,-11.021,24.234,0.808,1.288,-2.872,86.979,18.595,11.787,12.332,8.389,89.507,45.354,30.012,23.47,22.07,198.111,100.644,93.657,48.937,41.199],[-9.574,-8.271,-2.23,-1.881,-1.552,-101.751,-1.796,0.073,-0.329,-0.768,612.28,0.017,-1.717,1.292,0.292,32.532,27.469,14.137,9.357,8.903,121.522,43.568,31.651,-74.688,18.174,195.592,94.1,68.303,48.981,40.243]],
"kep": [[-136.689,-99.717,-54.667,-61.035,-2.451,-131.39,-109.548,-13.072,-40.547,-89.401,-114.592,-100.908,-50.51,-29.213,-54.092,-165.584,-232.07,-199.325,-218.322,-198.458,-149.523,-280.889,-353.909,-387.487,-412.372,-75.678,-233.492,-495.791,-477.597,-734.041],[-82.576,-86.812,-138.361,-84.757,-28.26,-87.296,-82.222,-125.094,-86.792,-44.586,-80.272,-87.485,-125.215,-111.463,-51.395,-79.986,-82.632,-150.743,-200.048,-106.655,-78.412,-94.245,-89.998,-244.753,-213.734,-57.087,-45.394,-70.281,-271.801,-273.423],[-83.343,-52.849,-55.91,-84.409,-118.395,-81.564,-55.506,-57.065,-85.873,-105.55,-80.215,-47.869,-48.284,-81.7,-122.677,-87.87,-57.053,-21.376,-86.831,-165.771,-87.133,-61.803,-59.317,-53.827,-174.402,-90.582,-80.496,-93.802,-67.096,-58.706],[-87.133,-45.126,-22.749,-35.387,-39.531,-84.669,-45.128,-25.221,-21.275,-45.682,-87.627,-42.469,-24.655,-18.182,-38.517,-88.031,-57.676,-23.007,-3.183,-44.232,-85.708,-53.79,-47.672,-57.193,-60.13,-80.967,-68.807,-18.36,-64.493,-104.419],[-88.067,-49.567,-24.376,-9.981,-11.888,-88.829,-46.089,-19.645,-10.817,-11.775,-89.811,-47.551,-13.568,-7.686,-14.33,-95.681,-47.887,-13.102,-0.405,5.934,-96.984,-63.787,-11.264,-31.141,-34.229,-80.772,-69.898,-51.759,-61.678,-55.308],[-90.639,-54.756,-23.172,-11.2,-9.89,-92.7,-54.008,-22.134,-15.429,-6.834,-91.182,-49.555,-18.01,-11.979,-4.665,-95.548,-58.227,-27.68,-0.445,5.622,-95.14,-57.493,-18.829,-0.315,-11.128,-88.788,-50.521,-49.144,-8.234,-26.832]],
"vp": [[-259.308,-189.203,940.196,721.43,-139.665,49.181,18.066,-50.063,116.667,72.149,0.603,0.476,57.812,18.441,-18.041,-0.58,-0.025,4.951,15.795,14.862,-21.1,-15.543,-5.486,-11.49,-1.543,-23.938,-12.836,3.138,-19.164,-1.782],[2599.936,1121.583,233.611,126.452,-457.035,474.801,185.523,-13.616,-47.766,14.212,280.367,124.618,-46.038,-18.824,31.888,28.875,10.933,-18.308,8.663,4.784,-0.533,-32.12,-19.988,-6.335,4.016,-19.565,-21.866,-12.397,5.873,0.251],[4539.233,2873.701,1858.397,675.722,261.113,896.077,792.046,196.644,55.768,-11.523,453.353,259.2,116.42,92.853,-32.699,61.449,51.064,34.158,-7.774,-33.607,30.186,13.702,-13.629,-21.552,3.471,5.26,-9.712,-5.564,-24.04,0.029],[5499.931,5153.802,2727.287,1288.702,1063.39,1108.246,1220.99,476.06,289.535,66.112,588.951,585.29,311.036,114.504,140.453,121.879,108.192,33.518,18.56,18.835,55.95,11.627,11.406,23.717,-9.729,0.154,2.42,-10.728,-22.943,-7.935],[6983.572,7849.22,5323.817,1747.287,1453.077,1354.029,1387.005,914.081,566.334,286.373,612.131,664.256,464.997,351.567,192.606,140.89,111.978,100.111,54.561,63.734,52.707,62.274,18.412,9.295,5.828,27.083,6.152,-6.259,-8.48,-5.603],[6321.609,9433.959,6134.848,5232.949,2163.425,1357.159,1688.986,1164.814,859.715,399.757,715.276,956.328,636.593,285.698,187.214,121.739,145.489,135.356,36.481,35.603,78.037,58.24,44.748,12.139,-6.241,-9.63,-1.308,9.977,-32.215,-10.679]]
}