{
"KTrans": [[-4.975,1.129,0.818,0.452,-0.262,-0.902,2.184,-0.789,2.535,0.418,-1.683,-0.589,0.498,0.641,-1.235,-16.606,-5.582,-6.342,-3.135,-4.525,-25.353,-14.144,-12.748,-8.702,-9.687,-48.516,-29.574,-21.986,-20.382,-15.747],[-32.632,-3.881,0.427,-1.154,0.139,-39.418,-0.333,-0.67,-0.008,-1.057,-39.962,-2.514,-0.775,-2.01,0.774,-45.361,-8.176,-3.63,-4.323,0.21,-54.934,-13.016,-9.515,-5.96,-4.846,-65.444,-23.998,-17.826,-12.842,-10.514],[-64.273,-6.139,-0.808,-1.205,0.533,-65.259,-9.075,-2.517,0.331,-1.415,-67.615,-8.76,-1.999,0.29,0.57,-67.93,-13.118,-6.477,-3.848,-1.607,-77.105,-19.751,-8.095,-6.045,-4.624,-83.326,-29.886,-17.657,-11.358,-9.044],[-79.115,-20.858,-1.113,-0.805,-0.039,-83.16,-19.912,-5.363,-1.414,-0.058,-81.129,-17.346,-2.07,-1.269,-0.814,-84.131,-20.88,-7.087,-3.425,-2.502,-88.003,-27.872,-11.116,-8.968,-4.17,-92.813,-39.01,-20.647,-14.003,-10.184],[-87.839,-25.668,-3.256,3.185,-1.756,-90.314,-26.33,-2.558,-1.153,-0.755,-88.293,-25.8,-3.651,-2.065,-1.245,-92.268,-32.981,-8.381,-2.494,-3.333,-93.419,-35.172,-13.34,-7.904,-5.182,-95.148,-43.478,-21.058,-14.908,-9.386],[-92.509,-34.488,-6.305,-2.132,-0.275,-93.096,-39.539,-8.656,-2.122,-0.759,-93.5,-37.136,-7.426,-4.65,-0.822,-94.049,-33.822,-9.512,-4.418,-2.34,-96.25,-43.032,-13.538,-8.919,-6.115,-97.642,-52.497,-22.809,-14.606,-9.83]],
"ve": [[5.439,2.495,9.368,10.066,15.242,5.31,3.631,7.743,1.903,-44.729,0.423,3.306,5.561,7.987,5.932,-1.459,4.117,9.497,16.678,38.642,-2.597,6.269,21.487,21.37,42.632,-7.686,30.613,31.142,47.649,9.921],[-6.919,0.546,0.459,0.413,0.104,-11.593,-0.976,-0.069,-0.256,0.67,-11.915,-1.03,-0.761,-0.113,-0.066,-15.752,-1.901,-0.761,-0.188,-0.124,-22.658,-5.235,-3.051,-1.698,-0.206,-32.646,-10.178,-4.686,-2.744,-1.768],[-26.342,-0.819,0.638,-0.542,0.135,-25.241,-3.576,-0.514,-0.325,-0.059,-27.021,-2.964,-0.419,0.335,-0.187,-30.708,-5.698,-1.844,-1.295,-0.202,-46.59,-9.244,-3.702,-2.511,-1.172,-49.594,-13.718,-8.028,-5.143,-3.913],[-34.044,-6.047,-0.739,-0.307,0.177,-28.153,-7.812,-1.389,-0.091,-0.399,-40.923,-6.435,-0.6,-0.778,-0.204,-44.216,-8.6,-3.052,-1.701,-1.488,-56.422,-12.207,-4.638,-2.635,-1.81,-55.827,-18.571,-9.358,-5.578,-4.06],[-45.134,-9.011,-2.266,0.186,-0.208,-49.412,-10.362,-2.044,-0.843,-0.743,-47.85,-9.557,-2.425,-0.844,-0.809,-64.841,-12.807,-3.894,-1.603,-1.201,1.705,-17.051,-6.363,-3.09,-2.148,-41.199,-22.851,-9.793,-6.8,-4.401],[-63.383,-14.295,-3.03,-1.071,0.062,-54.314,-15.528,-3.199,-0.456,-0.342,-61.141,-15.017,-3.692,-1.564,-0.392,-243.086,-15.901,-4.913,-2.643,-1.416,-73.473,-19.867,-6.768,-3.84,-2.63,-73.629,-27.514,-11.629,-7.151,-4.966]],
"kep": [[-6.908,0.264,-1.942,0.03,-0.627,-3.862,2.006,-1.139,4.982,0.09,-0.064,-0.783,-0.757,1.332,-4.556,-12.664,-6.404,-9.642,-5.596,-10.938,-21.861,-16.066,-18.91,-13.214,-18.945,-41.205,-34.508,-30.682,-35.989,-33.155],[-27.151,-4.205,0.097,-1.376,0.226,-32.601,0.659,-0.357,0.465,-1.494,-32.429,-1.43,0.215,-1.723,1.023,-36.898,-6.435,-2.767,-3.946,0.553,-43.048,-8.065,-6.487,-4.189,-4.393,-49.716,-15.371,-13.58,-10.228,-8.7],[-55.635,-5.41,-1.435,-0.638,0.428,-55.434,-5.809,-2.037,0.693,-1.353,-57.574,-5.905,-1.646,-0.044,0.826,-58.036,-7.942,-4.7,-2.577,-1.357,-66.292,-11.819,-4.617,-3.666,-3.419,-72.382,-18.669,-10.483,-6.427,-5.275],[-70.621,-15.929,-0.337,-0.496,-0.219,-75.634,-13.171,-4.04,-1.288,0.379,-72.975,-11.724,-1.58,-0.524,-0.61,-75.458,-13.614,-4.28,-1.781,-1.017,-79.245,-17.771,-6.753,-6.53,-2.391,-86.159,-25.132,-12.58,-8.891,-6.378],[-81.794,-18.741,-1.143,2.957,-1.578,-83.722,-17.779,-0.49,-0.339,0.004,-81.532,-18.201,-1.162,-1.272,-0.458,-86.675,-23.039,-4.761,-0.935,-2.177,-87.404,-22.245,-7.572,-4.923,-3.129,-90.063,-27.117,-12.596,-8.768,-5.216],[-88.023,-24.43,-3.46,-1.141,-0.363,-88.295,-29.466,-5.552,-1.756,-0.447,-88.353,-26.963,-3.974,-3.175,-0.458,-89.451,-22.229,-4.718,-1.871,-0.932,-92.422,-29.141,-7.285,-5.259,-3.641,-95.304,-35.234,-12.788,-8.078,-5.134]],
"vp": [[156.185,67.065,-104.753,-33.46,215.018,1.563,37.047,36.138,-11.525,1.727,31.519,10.947,0.334,-3.408,16.344,17.491,10.479,11.018,8.076,8.066,11.182,10.435,10.938,9.41,11.183,11.262,10.141,10.04,9.79,9.422],[1197.366,114.54,-85.252,141.123,55.422,290.989,44.567,14.031,29.383,30.301,171.671,15.851,35.447,18.488,8.94,39.124,11.955,9.013,9.275,3.944,26.581,13.98,12.681,10.909,8.457,18.824,11.808,11.279,10.893,11.017],[2891.73,357.831,58.379,265.966,16.762,588.61,179.632,62.783,26.425,30.133,324.934,63.089,11.555,-6.17,17.045,68.096,25.84,14.523,10.027,8.203,42.467,19.007,13.24,10.851,8.905,25.531,15.064,13.202,10.584,11.251],[4091.95,1320.381,209.057,212.8,-61.215,893.587,322.644,108.809,34.243,53.425,432.016,143.554,34.315,27.536,29.721,98.639,33.031,20.136,13.781,13.208,54.912,25.515,15.377,12.395,10.67,32.879,19.352,15.327,12.553,10.902],[4994.932,2007.235,695.3,-46.71,174.526,1084.744,459.787,104.012,49.875,55.058,517.446,211.367,75.388,46.836,40.791,118.536,54.811,26.81,14.647,12.34,63.888,35.991,20.416,12.606,12.875,35.386,23.575,16.202,14.064,12.179],[5779.313,2930.158,1048.619,467.775,207.567,1182.242,635.829,225.02,91.857,21.969,609.906,323.623,105.99,69.903,33.849,125.281,66.647,30.686,22.528,11.737,70.064,42.569,22.026,16.74,13.633,40.278,29.112,17.541,14.468,13.674]]
}