{
"KTrans": [[74.193,35.833,34.149,25.687,20.153,78.08,43.074,34.955,36.108,34.708,104.804,60.374,46.914,38.247,35.125,306.67,155.287,109.969,119.57,104.08,596.211,301.511,262.198,209.55,179.988,1636.26,718.938,563.036,486.919,439.381],[153.615,113.733,61.393,48.688,37.596,214.242,118.861,74.914,59.59,40.41,-57.492,131.04,71.917,58.912,47.556,110.112,199.356,125.66,94.872,72.913,1158.745,317.406,194.029,132.744,127.569,2166.459,707.454,389.714,296.205,204.669],[-265.098,748.792,153.902,86.007,72.755,-318.363,647.149,135.02,85.501,52.206,-267.625,648.81,146.34,90.363,78.402,-427.644,1266.629,198.837,146.032,102.659,-774.852,1697.562,316.788,181.627,148.886,-1417.167,2581.934,573.213,322.507,220.781],[-182.908,-351.433,365.469,156.593,78.275,-214.909,-172.129,396.948,164.69,110.761,-178.481,-201.511,413.353,165.464,88.09,-324.41,-304.592,573.2,213.39,145.557,-436.669,-455.072,728.795,255.296,210.771,-712.549,-452.132,1046.826,362.136,285.119],[-172.558,-274.082,-97.174,340.451,170.363,-186.26,-273.442,87.704,260.303,143.696,-200.106,-261.802,-43.394,307.613,155.684,-225.059,-307.516,-72.361,446.624,200.336,-374.99,-608.886,689.113,549.994,254.919,-559.362,-810.946,747.863,753.414,394.88],[-183.75,-233.235,-307.121,-1196.848,297.136,-148.181,-264.815,-306.428,-2269.083,285.929,-184.021,-261.075,-179.294,-446.226,342.524,-261.629,-302.114,-325.471,-3101.864,443.704,-303.074,-379.693,-315.052,-1491.55,468.86,-588.962,-599.977,-754.578,-1185.719,558.717]],
"ve": [[4.713,1.453,8.615,265.143,-56.984,6.537,1.355,2.933,21.434,-89.645,10.928,1.539,-1.122,-0.046,37.87,49.614,13.824,-3.61,-12.791,-20.332,93.62,33.192,10.42,-8.241,-21.095,196.591,78.142,36.286,11.511,-6.204],[2.833,3.48,2.55,2.022,1.758,9.925,5.641,4.336,3.801,1.877,14.896,7.441,4.954,3.274,1.97,53.238,23.244,15.387,9.792,4.894,100.458,46.769,31.588,18.03,12.899,197.774,98.96,63.27,43.855,25.509],[2.696,4.94,3.852,3.829,4.054,10.299,4.748,4.098,2.233,0.915,11.645,5.447,5.786,5.578,4.701,48.989,31.298,17.893,15.746,10.655,102.173,53.427,35.561,24.592,19.046,202.933,99.881,69.622,49.086,36.124],[1.664,1.837,0.137,3.645,0.816,9.972,4.076,5.439,4.155,5.065,12.956,7.777,4.712,5.364,3.582,53.161,27.803,18.734,13.629,12.788,103.915,53.881,33.653,26.732,22.848,201.484,104.141,66.629,47.157,40.052],[7.997,3.575,6.189,3.205,3.685,7.599,6.862,7.409,4.558,2.846,14.462,7.124,5.762,2.07,4.338,48.478,30.708,18.345,14.12,13.625,98.625,52.346,36.163,27.246,20.426,204.082,103.528,67.196,53.318,39.426],[5.962,2.932,3.74,3.134,1.856,9.236,5.172,6.325,2.275,2.013,13.788,9.271,5.631,5.094,6.614,52.494,25.905,20.055,14.793,14.338,99.847,53.447,33.944,30.155,24.096,204.529,100.506,73.189,50.093,39.743]],
"kep": [[61.556,33.811,37.861,32.721,29.09,61.1,39.89,38.698,47.364,52.92,77.361,54.413,52.157,50.904,54.754,165.502,118.752,112.001,147.169,153.777,250.165,194.901,223.372,230.786,246.073,479.456,353.22,380.803,421.15,468.819],[133.317,95.197,51.609,41.971,33.708,176.425,96.924,61.663,50.795,35.627,-54.272,103.213,57.448,49.121,41.998,39.868,127.56,86.682,70.798,58.838,504.405,169.362,116.132,88.701,94.741,638.678,292.883,191.514,168.187,133.343],[-242.805,649.127,129.615,72.085,61.174,-284.852,549.92,111.856,70.108,42.974,-233.838,538.572,118.749,73.139,64.013,-298.231,891.084,138.884,104.792,75.652,-415.529,1005.502,193.129,115.382,99.877,-518.198,1165.653,284.321,172.648,126.865],[-171.137,-314.494,315.859,132.393,65.59,-197.021,-153.167,338.127,137.729,91.786,-161.016,-177.255,346.2,135.975,71.833,-237.342,-239.617,424.076,157.078,107.713,-256.693,-308.758,472.851,166.346,142.009,-293.059,-255.384,546.488,195.566,162.968],[-163.251,-250.335,-86.91,293.638,144.354,-173.489,-247.233,74.072,221.962,120.58,-182.611,-234.207,-40.119,258.479,128.85,-175.694,-246.633,-66.729,340.727,151.784,-228.883,-410.763,450.532,376.883,175.249,-245.516,-431.35,385.026,430.879,232.494],[-175.743,-215.571,-276.098,-1046.146,255.881,-139.974,-242.208,-273.789,-1967.725,243.894,-169.593,-235.909,-159.393,-383.231,289.11,-200.781,-244.598,-266.043,-2458.742,346.08,-195.197,-269.964,-238.18,-1086.347,333.467,-256.262,-332.299,-457.899,-745.897,338.838]],
"vp": [[0.001,0.001,0.001,0.001,0.001,0.005,0.005,0.005,0.005,0.005,0.01,0.01,0.01,0.01,0.01,0.05,0.05,0.05,0.05,0.05,0.1,0.1,0.1,0.1,0.1,0.2,0.2,0.2,0.2,0.2],[0.001,0.001,0.001,0.001,0.001,0.005,0.005,0.005,0.005,0.005,0.01,0.01,0.01,0.01,0.01,0.05,0.05,0.05,0.05,0.05,0.1,0.1,0.1,0.1,0.1,0.2,0.2,0.2,0.2,0.2],[0.001,0.001,0.001,0.001,0.001,0.005,0.005,0.005,0.005,0.005,0.01,0.01,0.01,0.01,0.01,0.05,0.05,0.05,0.05,0.05,0.1,0.1,0.1,0.1,0.1,0.2,0.2,0.2,0.2,0.2],[0.001,0.001,0.001,0.001,0.001,0.005,0.005,0.005,0.005,0.005,0.01,0.01,0.01,0.01,0.01,0.05,0.05,0.05,0.05,0.05,0.1,0.1,0.1,0.1,0.1,0.2,0.2,0.2,0.2,0.2],[0.001,0.001,0.001,0.001,0.001,0.005,0.005,0.005,0.005,0.005,0.01,0.01,0.01,0.01,0.01,0.05,0.05,0.05,0.05,0.05,0.1,0.1,0.1,0.1,0.1,0.2,0.2,0.2,0.2,0.2],[0.001,0.001,0.001,0.001,0.001,0.005,0.005,0.005,0.005,0.005,0.01,0.01,0.01,0.01,0.01,0.05,0.05,0.05,0.05,0.05,0.1,0.1,0.1,0.1,0.1,0.2,0.2,0.2,0.2,0.2]]
}