{
"KTrans": [[48.119,45.838,38.853,27.97,28.32,90.053,40.607,36.734,31.075,35.96,95.276,64.687,52.727,42.868,32.832,297.559,157.434,143.571,108.757,93.956,537.222,353.891,261.575,207.414,218.383,1451.82,728.159,555.705,490.699,446.057],[-74.995,115.624,68.736,53.709,40.21,-93.383,104.613,79.75,58.617,41.098,-78.78,137.619,105.446,58.273,43.82,-41.79,247.388,124.088,88.817,68.272,-60.542,324.012,198.372,145.456,112.723,338.457,756.22,418.678,257.859,247.961],[-143.868,99.195,141.574,85.205,75.112,-128.589,96.458,143.78,85.474,54.216,-131.364,91.854,158.695,95.335,91.717,-173.118,192.832,235.835,139.174,109.395,-191.719,313.738,286.051,207.648,136.541,-238.012,556.144,526.686,314.938,235.695],[-140.334,-147.494,250.074,144.786,87.55,-121.744,-125.528,193.752,148.845,98.497,-129.694,-114.567,213.555,150.781,120.564,-177.964,-89.814,322.49,220.981,151.167,-178.311,-148.332,415.905,259.671,194.349,-215.321,-199.888,761.875,454.202,291.472],[-120.584,-207.147,47.033,225.599,154.655,-128.964,-160.478,51.683,267.467,185.187,-129.201,-135.029,-43.917,292.435,152.434,-139.31,-215.225,123.403,375.441,201.701,-143.37,-235.209,138.828,437.499,336.462,-208.845,-320.423,67.388,529.918,423.848],[-114.689,-189.091,-76.081,223.847,352.762,-114.371,-185.214,-290.279,133.162,268.632,-120.366,-174.09,-243.69,100.378,241.855,-146.738,-216.592,-229.336,238.454,386.627,-163.613,-246.99,-270.371,234.611,343.381,-134.078,-358.835,-519.476,557.148,581.356]],
"ve": [[7.474,11.025,-6.761,-41.205,5.923,10.666,5.293,-7.71,32.105,10.182,14.656,5.008,3.403,38.61,48.671,52.532,14.711,-0.847,-10.966,-18.078,96.694,38.686,9.693,-5.97,-16.938,198.142,80.006,37.085,9.563,-4.528],[2.744,2.433,4.583,2.73,2.262,13.641,4.878,4.497,3.58,2.14,22.505,8.474,8.872,3.585,2.518,53.755,31.04,16.281,8.245,4.846,119.984,48.388,32.604,20.093,11.643,198.067,99.523,63.956,38.965,31.08],[-0.615,5.069,2.626,3.045,3.668,10.798,2.277,4.145,2.962,1.632,16.742,6.893,5.543,3.932,6.093,51.006,27.33,20.444,14.277,12.199,41.301,50.366,33.228,26.283,18.324,198.914,103.481,67.809,49.296,37.776],[3.889,4.646,5.814,2.565,2.194,-0.04,1.51,6.148,5.061,4.307,11.309,12.373,8.299,6.215,5.557,50.059,24.807,18.12,15.27,12.333,100.717,51.667,41.935,26.008,20.757,200.806,105.795,72.502,50.183,40.015],[5.835,5.692,7.706,3.043,2.691,-0.363,5.198,4.722,5.962,5.817,17.001,4.468,5.063,7.219,3.022,50.035,30.234,20.39,16.227,11.139,104.877,46.409,40.391,30.794,25.332,196.28,100.225,67.525,50.749,42.464],[3.094,6.511,-0.34,4.502,3.611,7.844,6.479,6.979,0.193,4.397,13.19,4.475,11.09,4.346,4.872,48.345,26.513,20.707,19.685,17.442,108.559,52.622,39.971,29.401,21.834,200.242,102.16,67.856,51.106,43.319]],
"kep": [[35.504,42.657,43.656,34.368,43.978,67.687,35.356,42.205,40.159,55.1,66.434,56.31,57.948,54.552,49.62,157.601,121.805,143.56,134.008,138.546,216.466,225.368,225.945,222.898,281.031,417.424,355.681,373.739,432.551,467.798],[-77.405,97.95,57.291,46.154,36.241,-98.516,83.831,65.83,49.236,36.423,-83.628,109.225,85.594,48.049,38.149,-65.211,157.524,85.843,67.183,55.105,-82.474,172.666,118.462,97.132,84.001,44.341,316.941,207.338,148.026,159.681],[-138.657,80.325,119.605,70.842,62.379,-122.801,73.859,119.902,70.165,44.982,-124.379,65.222,129.327,77.297,75.447,-144.344,116.813,167.774,99.465,80.854,-142.87,158.524,173.59,134.422,91.599,-142.822,212.007,259.834,167.751,134.972],[-133.905,-140.473,212.468,122.404,72.626,-117.792,-120.918,162.686,123.609,81.614,-122.688,-112.225,174.067,121.697,99.232,-146.226,-90.951,231.239,162.774,112.042,-136.783,-127.468,257.184,168.877,131.576,-134.45,-144.635,385.423,249.565,166.668],[-116.512,-193.923,31.152,193.503,131.316,-124.04,-149.789,35.048,226.859,155.172,-122.739,-127.386,-48.048,245.594,126.212,-123.256,-182.972,72.545,284.771,152.362,-117.917,-180.671,65.603,294.692,234.806,-133.033,-198.994,-2.51,294.682,250.884],[-112.204,-177.376,-75.429,190.816,304.059,-111.991,-174.045,-260.795,109.266,229.139,-115.897,-161.158,-221.047,78.344,202.863,-127.485,-181.583,-198.412,173.556,300.032,-129.356,-187.899,-210.27,149.377,239.481,-109.69,-218.586,-327.851,308.594,350.271]],
"vp": [[0.001,0.001,0.001,0.001,0.001,0.005,0.005,0.005,0.005,0.005,0.01,0.01,0.01,0.01,0.01,0.05,0.05,0.05,0.05,0.05,0.1,0.1,0.1,0.1,0.1,0.2,0.2,0.2,0.2,0.2],[0.001,0.001,0.001,0.001,0.001,0.005,0.005,0.005,0.005,0.005,0.01,0.01,0.01,0.01,0.01,0.05,0.05,0.05,0.05,0.05,0.1,0.1,0.1,0.1,0.1,0.2,0.2,0.2,0.2,0.2],[0.001,0.001,0.001,0.001,0.001,0.005,0.005,0.005,0.005,0.005,0.01,0.01,0.01,0.01,0.01,0.05,0.05,0.05,0.05,0.05,0.1,0.1,0.1,0.1,0.1,0.2,0.2,0.2,0.2,0.2],[0.001,0.001,0.001,0.001,0.001,0.005,0.005,0.005,0.005,0.005,0.01,0.01,0.01,0.01,0.01,0.05,0.05,0.05,0.05,0.05,0.1,0.1,0.1,0.1,0.1,0.2,0.2,0.2,0.2,0.2],[0.001,0.001,0.001,0.001,0.001,0.005,0.005,0.005,0.005,0.005,0.01,0.01,0.01,0.01,0.01,0.05,0.05,0.05,0.05,0.05,0.1,0.1,0.1,0.1,0.1,0.2,0.2,0.2,0.2,0.2],[0.001,0.001,0.001,0.001,0.001,0.005,0.005,0.005,0.005,0.005,0.01,0.01,0.01,0.01,0.01,0.05,0.05,0.05,0.05,0.05,0.1,0.1,0.1,0.1,0.1,0.2,0.2,0.2,0.2,0.2]]
}