{
"KTrans": [[0.663,-11.972,-12.432,-1.042,-2.681,6.376,15.1,9.195,6.322,0.839,8.085,21.096,12.728,4.388,19.451,48.016,50.013,48.99,69.784,64.857,50.72,-97.613,54.784,51.309,51.234,19.089,-5.432,-12.995,-80.237,95.199],[-34.488,-13.613,0.24,2.964,1.229,-35.877,-6.167,5.404,5.343,3.488,-34.23,-2.491,5.538,9.041,-3.176,-22.085,-10.318,-7.673,16.074,23.193,-32.644,-41.474,14.463,-1.956,14.636,-24.041,-89.756,35.669,-122.635,30.134],[-48.544,-17.133,-7.878,-5.317,0.259,-53.366,-14.144,-8.355,-1.353,0.037,-55.188,-22.91,-4.89,-2.612,1.981,-67.38,-34.174,13.315,-12.596,-1.904,-62.808,-24.445,-53.644,-0.036,-31.188,-24.096,-64.391,-34.456,63.931,-22.368],[-64.61,-26.567,-15.835,-6.459,-4.133,-65.144,-22.805,-6.142,-4.313,-3.4,-64.656,-12.634,-10.952,-3.375,-2.293,-35.333,-6.986,-6.233,-16.452,10.128,-60.213,-23.429,-43.185,-25.191,-20.719,-74.794,-51.08,-17.205,-69.305,-29.493],[-71.259,-29.093,-7.505,-3.612,-2.084,-70.134,-31.967,-8.652,-6.772,1.821,-69.81,-34.464,-5.577,-1.21,1.943,-60.507,-22.061,-0.622,17.754,-1.55,-61.331,-60.018,-46.5,17.41,-11.06,-52.237,-22.718,-18.836,41.987,-25.113],[-79.02,-33.431,-17.243,-3.016,-3.009,-77.956,-42.581,-15.283,-5.281,-4.404,-74.304,-40.861,-11.159,-4.235,1.28,-82.796,-27.304,-0.089,12.282,6.241,-73.526,-56.684,-13.902,34.239,14.822,-76.724,-79.064,-39.974,16.032,-60.467]],
"ve": [[23.57,-12.143,-47.158,-46.424,-75.059,28.722,-36.739,-31.887,-5.916,-0.639,0.543,37.724,-89.468,-34.438,-57.733,22.166,-10.226,18.416,-41.357,31.34,95.144,22.58,4.202,-31.161,-113.986,184.732,87.996,21.48,-2.729,110.789],[-25.7,177.713,0.059,-21.661,-16.175,1.986,-26.187,1.267,7.595,22.845,18.39,25.19,21.855,-4.922,-21.503,32.177,-12.365,24.57,6.671,-3.688,93.867,50.668,29.334,-20.696,26.389,195.738,97.297,60.495,47.358,24.382],[-38.807,-4.647,-9.487,-1.659,3.543,-1.005,-3.807,-2.025,-5.649,3.046,15.68,6.699,2.26,-47.687,-3.279,47.842,-2.106,24.172,12.052,7.671,89.179,46.789,49.633,1.632,-6.752,154.107,94.892,67.607,46.121,37.62],[25.797,-23.822,-5.566,-17.93,-3.085,401.616,-5.944,24.515,2.671,-6.814,10.285,-2.261,-1.821,-7.751,8.151,41.616,14.198,14.622,5.55,12.596,84.665,41.836,27.405,-1.816,20.804,167.078,93.489,62.742,49.973,40.005],[-17.699,-7.509,-2.751,-4.186,-4.014,-27.029,-14.048,-2.479,-4.248,-0.203,26.095,8.631,-4.967,3.787,8.28,-73.279,13.94,16.132,6.098,9.336,72.567,49.466,31.705,26.169,0.608,184.847,304.761,65.091,50.115,39.664],[-8.951,-4.331,-3.643,-1.279,-36.526,25.068,-2.254,3.131,-1.934,-2.27,21.161,6.628,0.495,-0.731,-1.502,8.148,22.527,10.829,52.871,7.598,90.803,49.441,31.026,23.143,14.941,189.377,95.204,70.561,52.088,42.035]],
"kep": [[-124.406,-53.147,-11.312,-33.648,-44.981,-114.26,-111.862,-54.852,-55.722,-57.164,-120.688,-121.744,-77.517,-43.967,-74.531,-103.358,-199.594,-216.514,-213.685,-212.472,-91.807,-286.658,-292.697,-397.405,-476.111,-61.504,-128.297,-364.242,-516.977,-521.621],[-85.552,-99.072,-114.524,-93.159,-12.308,-78.513,-87.255,-114.682,-113.13,-30.889,-84.15,-86.881,-120.796,-103.637,-6.669,-81.918,-94.99,-144.266,-140.06,-134.154,-74.76,-91.775,-109.314,-220.648,-193.485,-71.919,-85.386,-18.569,-210.1,-214.349],[-79.54,-56.637,-52.447,-93.602,-98.374,-88.167,-47.808,-52.007,-67.928,-114.653,-88.91,-67.72,-56.564,-94.407,-112.715,-93.13,-76.94,-37.678,-110.217,-147.946,-83.785,-59.21,-77.753,-57.772,-146.751,-70.723,-63.953,-49.029,10.113,-49.285],[-86.679,-54.762,-42.032,-33.994,-49.128,-91.161,-50.287,-27.354,-22.855,-39.055,-88.461,-40.558,-34.256,-28.116,-50.596,-78.199,-46.113,-39.672,-66.681,-27.106,-84.152,-56.296,-58.821,-51.537,-74.844,-82.554,-62.559,-42.527,-57.032,-44.356],[-90.794,-52.054,-22.46,-18.351,-13.502,-90.373,-56.694,-25.469,-21.645,-7.153,-89.921,-60.657,-25.792,-19.187,-10.764,-86.839,-55.681,-31.762,-6.586,-32.947,-87.1,-77.574,-62.541,-19.747,-43.862,-79.691,-60.431,-44.146,-13.273,-38.661],[-94.731,-52.113,-31.009,-8.946,-8.646,-93.341,-63.15,-34.848,-19.569,-9.925,-92.827,-66.309,-27.632,-18.443,-4.378,-94.384,-59.665,-31.141,-9.569,-19.765,-91.75,-76.047,-48.47,-7.795,-16.128,-84.878,-76.528,-53.324,-37.32,-59.231]],
"vp": [[-1196.851,366.155,564.73,61.67,892.063,90.197,25.318,-9.18,82.687,59.676,72.757,-12.625,0.695,27.067,143.799,-20.384,-32.582,-8.392,-24.833,-3.901,-44.363,-25.252,-19.32,-0.784,-23.3,-35.69,-37.786,-40.943,-3.883,-23.351],[2559.401,708.5,-214.611,-444.45,567.674,467.68,232.444,29.73,97.924,69.021,185.038,44.792,-175.919,-57.46,-42.358,7.993,-10.117,-2.258,-15.2,-31.091,-11.253,-40.416,-47.052,-26.097,-17.342,-28.585,-37.603,-42.571,-20.894,-38.566],[4200.664,3444.475,1343.217,233.94,205.652,709.669,797.002,255.323,145.42,-6.239,428.567,256.474,127.406,47.049,7.351,77.381,47.445,27.274,-20.424,-14.245,0.34,-25.805,-9.72,-38.006,5.018,-14.028,-9.664,-45.797,-57.475,-24.742],[5330.132,4246.814,3719.145,2141.343,528.328,1029.712,1221.969,845.182,364.375,87.688,477.95,492.006,331.287,142.451,124.193,75.956,44.452,26.963,23.402,28.013,11.954,-16.943,-11.14,-8.322,-29.061,-15.647,-31.454,-50.521,-20.388,-34.17],[5576.238,6780.439,5635.867,3742.682,2232.23,1264.901,1427.332,1082.703,609.792,301.131,518.323,710.783,524.345,271.904,255.301,80.601,95.96,101.165,58.375,33.806,-0.177,35.851,8.065,-13.356,-17.786,-13.946,-42.466,-37.738,-12.046,-30.379],[6169.011,8531.436,5493.746,3908.421,3295.869,1439.088,1550.054,1151.933,911.978,619.604,567.002,826.153,778.533,398.658,224.345,107.359,147.477,99.596,82.107,42.181,21.971,42.601,19.392,-0.725,0.931,-0.725,-9.612,-13.71,-20.799,-18.684]]
}