{
"KTrans": [[0.842,2.58,2.286,2.505,2.122,5.205,14.207,12.416,12.184,11.64,8.73,26.516,24.587,23.94,23.057,-7.928,83.517,98.655,100.258,99.825,223.071,45.807,135.371,153.797,161.872,-509.402,-381.104,19.43,125.436,171.133],[1.654,1.331,0.404,0.953,1.294,12.007,7.676,1.63,5.219,4.571,25.725,16.884,2.323,10.136,9.715,168.581,112.122,-24.549,33.112,40.391,419.581,291.914,-64.806,21.636,60.593,1158.35,849.748,138.873,-131.442,39.115],[1.591,1.093,0.979,0.595,0.252,10.011,5.976,5.316,4.226,0.798,21.483,13.842,10.479,8.978,2.687,142.618,78.813,61.751,59.483,7.085,348.119,185.585,148.253,152.897,16.186,888.074,482.986,390.184,437.022,-309.123],[-0.221,1.225,0.671,0.75,0.636,10.114,6.594,4.17,3.706,3.166,19.981,11.692,9.194,7.675,6.976,132.478,70.751,51.164,42.84,39.231,310.25,162.751,115.983,98.152,90.725,795.423,396.542,283.329,244.332,235.936],[-0.719,0.844,0.954,0.561,0.573,7.75,5.533,4.384,3.668,3.01,18.144,11.966,8.405,6.735,5.782,123.996,65.469,46.618,37.796,32.522,293.355,148.579,103.207,83.356,72.293,736.904,361.55,247.78,197.461,174.401],[-1.772,0.576,0.841,0.52,0.529,7.844,5.45,4.041,3.347,2.714,17.45,11.687,8.181,6.768,5.524,118.111,63.528,44.034,34.829,29.493,283.376,140.353,97.459,75.84,64.931,668.066,342.383,228.566,177.919,150.864]],
"ve": [[1.673,1.812,1.846,3.96,2.726,3.721,9.188,8.728,11.208,14.427,10.677,23.153,22.741,28.305,37.852,50.14,-0.73,-46.831,-76.476,-92.451,103.759,31.112,-6.173,-29.699,-45.064,199.978,83.44,33.118,3.981,-15.154],[1.063,0.511,1.308,0.603,0.505,4.947,2.674,2.748,2.332,1.962,10.379,5.576,4.446,5.087,4.544,50.948,26.527,16.529,1.858,149.96,100.965,51.925,-53.931,18.695,0.935,201.19,102.022,67.336,44.805,27.217],[1.073,0.518,0.381,0.138,0.539,4.91,2.643,1.781,1.369,1.345,10.007,5.363,3.641,2.819,1.814,50.428,25.817,17.863,13.55,9.679,100.564,51.206,34.903,26.32,20.284,200.521,101.604,68.572,51.498,40.035],[1.023,0.624,0.375,0.258,0.203,4.927,2.684,1.758,1.382,1.1,9.969,5.023,3.588,2.731,2.347,50.103,25.557,17.475,13.504,11.015,100.186,50.733,34.616,26.386,21.342,200.242,100.994,68.15,51.765,41.694],[1.148,0.553,0.282,0.24,0.221,4.687,2.531,1.74,1.362,1.135,9.871,5.101,3.436,2.678,2.184,50.164,25.331,17.098,13.149,10.761,100.234,50.575,34.167,26.028,21.136,200.176,100.578,67.799,51.429,41.679],[0.829,0.317,0.406,0.234,0.266,4.918,2.472,1.813,1.382,1.086,9.925,5.126,3.407,2.635,2.144,50.249,25.146,16.949,12.931,10.578,100.043,50.245,33.978,25.74,20.932,199.77,100.516,67.504,51.125,41.363]],
"kep": [[-126.355,-4.413,-3.388,-6.14,-2.693,-134.387,-25.269,-17.538,-17.539,-19.372,-146.8,-48.631,-36.779,-36.231,-39.16,-251.034,-240.374,-184.973,-182.138,-189.7,-14.385,-482.688,-372.231,-367.541,-378.73,-475.446,-955.356,-751.312,-734.068,-761.959],[0.779,2.114,-123.958,-4.376,-2.949,7.58,12.857,-131.458,-16.564,-8.407,17.55,29.263,-166.078,-34.477,-20.126,93.434,145.156,-384.903,-172.866,-100.918,178.655,281.839,-425.375,-353.461,-202.768,342.829,549.239,-24.983,-703.399,-409.105],[0.181,0.791,1.972,0.253,-122.302,4.518,4.763,7.79,13.11,-154.143,10.891,12.067,15.195,27.259,-103.165,65.532,57.612,75.874,144.243,-169.153,130.29,113.875,149.268,282.59,-153.613,234.513,226.629,292.557,549.443,-1000.83],[-1.843,1.178,0.253,0.785,0.996,5.09,4.988,3.682,5.302,6.947,8.812,7.62,8.319,10.57,15.809,56.674,42.819,42.284,50.834,73.846,106.911,85.423,84.255,101.735,142.05,199.469,162.488,163.654,200.05,279.124],[-1.993,0.162,0.684,0.457,0.908,2.507,3.329,3.568,3.896,4.168,7.11,7.562,6.548,6.765,7.361,49.522,35.824,32.183,33.611,38.399,97.061,71.12,63.763,66.506,75.572,178.275,138.088,126.134,129.898,150.805],[-3.31,-0.008,0.548,0.317,0.48,2.681,2.889,2.882,3.011,2.656,6.368,6.967,5.611,5.807,5.707,45.591,32.981,27.172,25.998,27.247,91.042,63.233,54.757,51.723,55.305,155.251,125.459,107.724,103.952,108.921]],
"vp": [[0.987,17.028,30.078,-63.612,2.574,4.227,1.16,0.52,9.621,-6.983,1.486,2.95,2.945,-1.322,0.115,-0.005,-0.65,-0.87,-1.315,1.334,-1.017,0.121,-0.071,0.308,-1.094,-0.57,-0.562,-0.869,-0.522,-0.598],[114.104,29.168,32.144,9.29,7.607,27.465,-0.81,-11.47,-0.289,4.705,14.874,-3.186,4.455,-1.684,-2.251,1.208,-0.883,-0.411,-0.197,-1.137,0.224,0.292,-0.382,-0.822,-0.857,-0.597,-0.712,-0.537,-0.724,-0.374],[492.392,116.647,-2.502,-49.651,21.109,74.302,10.032,0.002,-0.017,9.768,34.914,4.823,0.663,3.627,1.408,6.253,-0.681,-1.504,-0.469,-0.134,1.302,-0.22,-0.442,-0.865,-0.715,-0.1,-1.132,-0.408,-0.843,-0.203],[1030.112,95.77,-8.769,56.143,62.023,167.658,51.324,-9.347,-1.295,-4.336,90.697,5.209,8.13,0.679,4.853,16.902,1.17,1.078,1.354,-1.444,9.664,0.927,0.656,-0.931,-0.342,3.992,-1.126,-0.913,-0.739,-0.573],[1731.141,203.614,49.234,-25.451,-1.009,315.589,10.473,15.531,24.582,6.811,173.471,20.109,8.579,-4.715,7.11,35.532,1.621,-0.927,-0.151,-0.715,18.482,1.269,-0.65,-0.702,-0.735,8.028,-0.752,-0.761,-0.55,-0.894],[2480.473,259.594,304.509,30.118,98.915,545.5,76.579,39.904,45.843,-2.529,265.561,41.046,8.428,6.22,-4.755,53.444,3.991,2.711,0.835,0.147,27.315,2.698,1.769,0.568,-0.942,12.312,0.531,-1.211,-0.641,-1.3]]
}