{
"KTrans": [[-2.005,-4.052,-8.098,-9.631,-2.563,5.729,10.834,10.393,12.375,7.078,7.768,14.374,17.983,21.111,22.555,51.596,25.744,65.349,80.269,78.506,-41.912,26.603,84.148,79.822,83.417,54.043,-17.387,-59.379,33.781,112.725],[-22.185,-4.897,1.017,1.801,1.341,-15.953,3.379,1.002,3.108,5.425,-12.446,2.12,1.294,7.102,6.019,-20.472,1.193,-18.251,20.178,30.451,8.627,-24.679,-19.869,6.778,26.793,37.632,42.644,92.249,30.585,-0.449],[-37.236,-1.786,-2.797,-2.161,0.404,-29.683,-2.255,0.703,1.427,1.956,-22.656,4.549,5.245,-0.4,3.486,-34.235,-14.443,-27.632,-3.08,5.217,-14.452,64.117,16.681,-49.788,20.34,47.486,91.474,68.931,39.803,28.704],[-46.779,-9.692,0.312,1.082,0.553,-49.218,-10.787,6.542,5.474,3.654,-45.179,2.649,7.769,6.208,4.706,-44.6,-24.068,64.12,19.813,8.555,-40.105,-1.875,-45.603,12.224,-4.279,-64.95,19.848,-41.792,6.887,-13.718],[-57.651,-11.533,5.219,1.483,1.877,-53.128,0.413,3.418,7.716,3.317,-62.308,3.172,5.306,7.252,5.98,-53.764,-15.488,-6.037,4.56,19.748,-44.864,29.299,12.369,-0.833,12.393,-11.341,-34.254,23.139,-76.647,52.992],[-67.343,-21.92,-4.832,2.312,0.907,-69.835,-25.493,1.528,1.498,4.637,-61.399,-20.283,-3.849,5.185,5.059,-56.698,-14.465,-25.093,20.655,12.042,-42.816,10.899,24.991,10.161,-19.535,-56.831,-14.358,-27.784,-2.69,11.731]],
"ve": [[2.862,26.663,68.582,19.536,-42.223,62.279,12.938,-41.717,31.16,198.811,-1.114,-16.717,24.816,-6.36,220.373,57.094,41.748,124.96,50.208,-40.68,93.639,27.408,-6.945,-76.828,-42.95,192.009,78.099,34.477,-14.225,-30.427],[-6.657,-0.581,-1.983,-3.778,-3.007,55.82,1.45,2.489,4.709,-9.71,1.495,-23.794,3.247,-55.206,-22.803,45.824,23.141,15.734,0.031,28.513,81.636,54.348,33.701,18.967,1.918,197.506,157.141,61.962,43.769,21.856],[-7.722,-1.238,-1.168,3.368,-0.642,-0.493,1.187,0.091,1.107,-12.728,8.574,3.12,-0.124,3.705,-0.544,44.822,24.962,17.855,284.951,9.055,83.844,45.352,36.561,25.599,17.514,195.844,100.111,65.985,51.233,38.645],[16.646,-1.737,-1.084,-0.17,-1.719,-21.748,1.515,1.912,1.163,-0.83,6.586,2.001,2.966,2.371,3.031,60.939,23.988,18.503,12.107,12.198,102.808,50.743,30.561,29.587,20.223,195.199,98.097,65.161,49.129,40.055],[5.659,-0.875,0.313,-0.123,-0.758,-4.79,1.681,1.176,1.504,1.18,3.897,3.21,3.37,2.09,1.559,45.112,25.061,16.751,12.477,9.853,91.949,49.615,32.871,23.78,19.909,187.334,96.167,64.452,50.336,41.468],[-7.235,-1.877,-0.827,-0.005,-0.082,0.007,5.61,1.727,0.272,1.064,2.279,3.558,2.426,2.079,1.36,47.679,23.977,15.955,11.008,9.59,92.389,48.471,33.054,24.33,21.318,193.726,94.048,71.104,49.899,40.299]],
"kep": [[-111.719,-3.357,13.129,19.945,5.709,-122.344,-37.289,-12.83,-24.169,-16.747,-123.927,-42.729,-17.707,-51.925,-46.36,-64.769,-224.887,-216.543,-153.305,-204.946,-32.866,-257.371,-331.385,-370.095,-408.699,33.429,-7.23,-436.613,-542.241,-621.383],[-47.096,-39.595,-125.911,-20.89,-3.304,-45.233,-25.896,-130.935,-23.615,-13.354,-42.836,-41.989,-138.913,-53.857,-10.581,-55.535,-25.698,-139.535,-150.658,-108.315,-41.743,-39.714,-62.287,-222.616,-197.334,-30.214,19.029,107.52,6.723,-280.425],[-56.241,-7.792,-11.446,-32.537,-105.843,-49.793,-11.681,-5.102,-21.845,-105.239,-51.119,-8.114,-0.858,-51.616,-92.917,-59.181,-40.318,-74.237,-39.92,-97.126,-51.164,-0.02,-12.818,-80.878,10.705,-48.191,-15.474,12.317,28.875,73.822],[-64.391,-18.94,-3.833,-0.298,-6.718,-67.098,-20.837,5.635,10.78,4.247,-63.343,-9.78,3.634,4.862,4.189,-66.133,-48.607,35.946,8.069,-14.593,-67.95,-39.249,-61.663,-10.475,-17.338,-76.081,-34.461,-40.11,-21.937,-26.288],[-72.257,-21.638,5.19,2.767,2.41,-69.824,-13.281,-2.668,9.397,6.335,-76.469,-14.459,0.142,3.807,6.748,-76.266,-36.263,-34.068,-16.228,9.499,-73.298,-21.736,-19.953,-27.985,-5.669,-69.82,-56.473,-20.716,-63.683,4.026],[-81.937,-34.513,-9.629,1.95,1.501,-81.878,-38.376,-3.929,-2.164,6.203,-78.711,-34.108,-11.508,2.538,1.753,-75.739,-41.142,-47.519,2.138,-3.803,-75.593,-33.934,-17.789,-18.237,-45.893,-80.905,-57.385,-49.048,-28.01,-22.188]],
"vp": [[-52.863,330.655,189.696,-186.437,99.701,-0.459,52.178,-49.444,-38.625,-18.164,-4.212,1.253,21.273,-26.226,31.922,-50.185,-0.732,0.95,-14.583,4.065,-36.156,-29.936,-29.381,-17.952,3.394,-41.5,-34.91,-12.449,-23.587,-43.815],[2152.301,513.597,136.848,50.636,-7.104,348.384,57.484,-37.068,-9.729,50.801,169.098,70.726,-0.801,1.664,14.768,7.742,-38.478,-5.556,-31.266,-5.514,-49.109,-22.364,-21.472,-23.479,0.773,-29.564,-45.797,-54.397,-38.296,-14.74],[3384.019,1426.461,404.654,494.145,36.214,678.14,207.67,71.61,82.467,-49.931,382.915,117.813,57.94,35.597,-21.005,26.362,-10.519,11.715,-16.35,-39.101,8.55,-36.207,-41.187,-41.212,-31.252,-27.274,-47.48,-52.639,-33.895,-49.858],[4903.546,2628.318,1615.329,979.821,195.648,885.543,613.869,293.86,86.49,12.972,375.931,284.025,182.381,32.574,29.867,48.191,34.123,20.97,-49.38,-27.441,-8.098,-28.225,-37.841,-42.603,-27.963,-23.617,-51.625,-68.924,-63.858,-50.163],[5527.58,4238.846,2712.3,875.867,1153.395,893.26,858.662,423.162,233.79,73.356,442.772,468.893,183.461,83.581,8.464,104.075,13.276,36.717,-6.938,-7.255,23.936,-19.962,-13.392,-42.723,-54.787,-52.179,-28.603,-31.224,-48.677,-57.074],[5531.81,5046.38,2755.729,2002.3,992.271,1011.584,1065.024,580.885,321.488,258.018,566.151,502.525,253.848,88.682,60.673,55.414,29.801,49.995,-20.066,11.894,10.743,-9.914,-32.12,-22.973,-18.324,-19.294,-30.589,-22.162,-28.021,-52.311]]
}