{
"KTrans": [[-54.802,-78.704,-69.978,-77.951,-75.98,-38.165,-60.697,-76.819,-75.461,-70.181,-41.292,-68.64,-61.314,-60.101,-60.626,32.058,-51.851,-15.22,-21.678,-17.859,-0.973,13.976,32.756,51.317,36.391,18.951,223.165,75.277,134.2,74.01],[-56.67,-41.943,-56.116,-64.544,-63.564,-55.486,-35.057,-55.415,-60.245,-58.041,-53.799,-26.308,-33.92,-49.85,-48.685,-40.779,-13.615,-11.24,-32.182,-23.424,-5.362,10.054,12.427,-11.753,-5.639,28.075,19.301,40.906,18.803,26.799],[-69.491,-48.945,-52.679,-41.699,-43.187,-70.127,-44.967,-40.092,-42.741,-52.33,-66.306,-41.218,-37.185,-27.947,-36.003,-50.811,-25.107,-21.954,-18.498,-13.828,-27.266,11.616,-4.67,-0.921,0.725,-24.24,4.081,6.953,-19.775,15.508],[-78.295,-51.466,-46.646,-48.772,-50.974,-79.451,-53.452,-47.561,-40.65,-46.553,-75.945,-50.784,-38.14,-31.355,-39.121,-64.183,-41.149,-29.757,-24.523,-24.436,-57.611,-18.602,-19.605,-17.225,-3.448,-46.984,1.534,23.605,11.444,-8.692],[-84.157,-57.856,-49.992,-44.213,-38.576,-83.544,-56.14,-36.761,-37.523,-42.469,-80.914,-54.022,-40.429,-34.012,-32.54,-70.262,-46.991,-30.947,-31.718,-27.444,-76.826,-33.194,-10.391,-19.192,-13.593,-55.312,-4.289,4.029,37.052,22.018],[-85.943,-61.395,-48.752,-48.356,-41.398,-85.812,-66.471,-47.983,-43.194,-36.508,-85.276,-64.597,-45.63,-44.548,-32.333,-77.849,-57.444,-38.488,-34.667,-29.68,-75.855,-47.834,-21.265,-25.986,-18.745,-58.573,-39.993,4.72,1.847,13.221]],
"ve": [[-67.43,-63.87,-391.025,-66.825,448.014,-67.742,-10.14,-841.625,-56.582,17.278,-49.361,258.6,-43.961,-22.908,-47.646,-0.09,-13.535,-12.689,-22.817,-42.487,72.219,22.762,-41.267,-41.427,-34.891,173.011,98.895,28.678,-7.871,-45.014],[-48.641,-63.339,-89.065,-44.763,-75.076,-86.622,-43.371,-71.011,-39.424,-62.093,-31.383,-33.235,-36.857,-38.798,-17.284,-72.273,-12.949,-15.251,21.582,17.472,0.067,23.481,26.14,-6.072,-82.366,176.647,56.797,21.556,24.364,-20.794],[-1175.396,-77.423,-91.06,-40.635,-42.936,-18.438,-72.843,-52.956,-35.143,-53.254,-8.855,-68.39,-55.859,37.715,-38.903,3.217,-41.49,-33.125,-23.834,-12.988,244.026,45.279,2.364,-4.841,2.138,47.918,35.842,9.691,63.791,31.633],[138.405,-30.63,-82.683,-91.654,-71.016,-41.872,-80.835,-105.221,-71.415,-69.977,-10.031,-64.378,-62.888,-47.528,-60.482,42.618,-40.629,-109.042,-50.966,-36.199,72.338,29.6,-54.274,-30.781,0.4,374.343,31.518,71.455,97.735,-2.477],[-23.296,-39.438,-120.054,-93.262,-63.72,663.171,-70.537,-66.471,-75.726,-78.856,25.103,-48.869,-85.092,-63.612,-53.96,46.537,-69.243,-60.782,-235.906,-50.947,119.754,91.061,-15.414,-49.218,-29.691,348.774,105.511,60.602,101.274,51.815],[29.461,-58.279,-112.2,-117.679,-87.038,-24.917,-71.99,-100.164,-97.453,-73.367,98.085,-56.863,-92.447,-93.871,-65.011,76.285,-40.128,-80.123,-85.191,-61.958,133.862,-28.757,-22.863,-65.409,-45.726,213.617,-43.354,74.854,51.219,15.907]],
"kep": [[-120.705,-33.906,-2.88,-32.771,23.453,-114.419,-8.032,-11.06,16.468,-2.095,-117.368,-23.23,16.806,-17.658,4.623,-99.51,-34.258,-35.789,-17.565,-29.332,-96.289,-118.273,-74.99,-71.797,-78.339,-34.054,-163.176,-145.86,-189.927,-122.808],[-74.406,-56.195,-109.635,-11.695,3.645,-71.655,-69.851,-119.808,-36.491,-3.396,-76.096,-61.691,-119.326,-54.735,2.621,-63.257,-49.979,-89.209,-62.237,-17.53,-54.394,-50.606,-80.941,-88.101,-43.197,-47.199,-25.515,27.78,-95.09,-84.167],[-86.932,-32.616,-9.82,-66.49,-91.496,-83.395,-33.758,-26.013,-51.242,-111.637,-83.039,-31.369,-23.577,-37.054,-110.193,-77.465,-28.306,-33.558,-52.359,-105.589,-77.407,-42.495,-47.196,-25.617,-76.83,-60.818,-26.815,3.911,-69.195,-37.433],[-89.638,-39.907,-26.004,-3.83,-9.115,-91.291,-40.332,-8.667,-2.457,-1.477,-91.034,-41.906,-18.265,-8.614,-17.07,-87.227,-51.862,-19.912,-0.526,-6.2,-82.343,-56.078,-21.129,-26.815,-27.487,-86.815,-42.945,-33.579,-63.896,10.723],[-96.397,-47.682,-12.297,-4.338,-7.992,-95.817,-46.282,-19.878,-2.675,0.12,-95.069,-49.217,-12.368,-6.138,-4.086,-90.083,-49.509,-17.101,0.677,-4.97,-91.839,-63.917,-28.593,-16.261,-15.143,-86.827,-52.059,-46.09,-35.832,-42.547],[-96.731,-57.456,-20.03,-10.389,0.881,-95.086,-62.239,-21.948,-8.415,-7.418,-95.355,-61.197,-22.446,-10.868,-5.687,-94.622,-63.732,-25.819,-10.478,-4.882,-93.167,-59.348,-35.251,-13.703,-6.727,-85.965,-54.701,-47.435,-40.209,-31.233]],
"vp": [[-18.632,200.527,104.24,-71.242,287.67,-63.32,24.38,-11.237,89.167,-24.082,-25.134,-4.226,16.47,-2.477,6.021,-9.586,20.363,-6.324,19.358,5.439,-12.289,5.105,-9.52,-27.566,-7.85,-25.746,-21.299,17.877,-0.582,5.332],[2431.75,684.44,-193.111,48.271,177.485,421.762,175.03,-97.6,-107.225,-63.717,241.443,100.715,-20.351,-17.607,20.147,23.014,-0.687,-31.955,-11.609,9.974,-20.995,-24.642,-2.584,13.875,-10.014,-21.078,-40.009,-30.834,-2.486,-2.137],[4242.881,1990.958,153.09,710.428,153.955,905.157,323.046,184.13,44.959,-39.471,422.653,187.396,132.236,57.104,-5.32,37.118,18.029,24.463,-22.625,-7.064,0.649,-16.79,-21.551,-17.284,-22.071,-24.899,-13.84,-16.548,-10.28,-32.235],[5455.514,3032.792,1332.579,553.761,229.576,1023.556,611.381,139.497,94.812,-16.958,474.767,405.004,180.132,111.187,26.37,79.577,45.88,20.19,-6.726,-2.522,23.147,28.7,-12.044,-5.875,-22.94,-3.121,-45.525,-18.434,-58.315,-24.374],[6506.132,4804.205,1812.327,982.494,1333.104,1174.506,947,537.303,212.45,77.338,587.549,512.715,241.06,141.464,97.474,82.336,64.247,31.512,-8.514,11.676,32.579,57.368,20.629,-2.036,-2.448,5.031,-14.664,-6.87,-51.419,-13.016],[6530.272,6147.054,2794.696,1285.902,841.73,1228.049,1435.707,571.586,306.068,181.032,637.077,657.37,381.848,212.732,123.501,93.005,109.984,54.6,40.662,37.327,41.158,23.252,17.971,-13.594,6.295,-10.204,7.306,-7.624,-4.166,-28.482]]
}