{
"KTrans": [[2.902,-4.225,2.65,4.411,6.242,5.826,15.133,5.725,9.99,14.891,8.469,24.162,22.044,22.274,14.661,-19.348,42.255,70.196,84.224,88.289,4.134,18.858,98.528,112.812,135.287,21.07,10.351,-26.402,-29.024,82.148],[-23.863,-5.728,0.815,-0.41,-0.162,-10.844,-2.265,2.514,4.815,4.216,-5.504,1.096,3.16,10.778,8.367,9.579,4.63,-15.62,16.043,32.556,-6.494,4.396,31.979,16.066,31.282,71.182,-5.722,135.413,26.705,-0.09],[-26.734,-3.512,-1.791,-0.032,1.213,-23.013,-1.029,0.638,0.641,1.098,-34.272,6.355,8.155,3.758,1.88,-47.571,-20.71,16.814,-9.048,-6.686,-43.135,17.415,-69.975,-85.637,13.233,-19.88,26.219,-15.126,76.778,74.336],[-37.749,-7.143,-0.29,-0.295,0.345,-39.923,1.399,2.131,2.579,1.648,-37.026,-1.521,3.982,4.033,5.35,-45.423,27.718,60.451,24.243,11.248,-91.076,-76.064,-7.911,-20.725,16.964,-30.175,-63.968,22.308,-62.556,-31.737],[-56.421,-3.414,-1.053,2.46,0.894,-54.488,-2.367,-0.81,3.54,1.951,-51.625,-3.423,3.604,6.29,6.599,-31.027,-2.183,26.526,41.434,28.334,-31.883,-50.678,10.059,12.201,0.97,-67.786,-0.043,-29.526,32.908,80.381],[-60.889,-2.788,-0.715,1.605,0.467,-54.982,-12.434,3.766,3,1.929,-59.468,0.492,7.469,3.731,3.458,-67.392,-33.522,32.008,18.881,15.762,-55.794,3.331,-20.68,6.406,24.825,-66.418,-68.407,-46.381,-29.329,81.594]],
"ve": [[-2.815,11.581,-57.094,-3.408,360.698,-6.315,59.122,-2.647,-12.315,-151.744,6.916,-30.968,91.253,-35.187,48.848,36.835,8.311,5.046,-23.805,37.158,93.033,27.402,-14.481,-20.243,-49.102,206.32,82.57,31.582,2.505,-17.984],[-3.834,-14.969,-3.115,11.095,17.884,67.915,12.696,8.032,3.921,-252.833,7.743,11.5,2.131,-10.807,10.898,45.476,54.478,13.384,-13.319,28.393,98.194,48.92,30.395,15.356,200.411,197.96,98.847,56.228,42.758,25.986],[-3.018,-0.916,-2.934,-1.986,3.433,2.276,0.826,-0.675,0.923,-166.059,4.699,4.051,2.235,21.637,4.775,47.349,22.736,15.843,10.686,7.945,79.949,49.544,34.461,26.373,26.95,197.677,100.299,66.573,51.389,38.35],[-6.222,-1.12,-0.593,-1.011,-0.463,1.491,1.618,1.822,0.514,-0.146,3.393,2.672,2.461,1.39,1.172,46.402,25.849,12.826,13.615,10.625,99.891,48.442,34.963,24.407,20.483,193.61,101.091,67.441,51.698,41.83],[-2.965,0.187,-0.176,-0.02,-0.146,5.576,0.935,1.305,1.054,0.705,-1.416,3.118,2.596,2.419,1.709,49.133,25.775,17.034,10.824,11.586,93.58,49.555,40.634,26.028,21.051,194.343,103.127,64.099,50.042,41.236],[-12.139,0.023,0.397,0.123,0.261,-5.369,1.15,1.184,1.37,0.604,14.739,4.311,2.799,1.784,1.78,45.176,23.24,15.747,10.834,14.599,94.378,49.876,33.194,25.5,20.703,203.637,96.75,66.447,52.244,41.039]],
"kep": [[-111.064,-1.644,-9.604,-17.529,-26.493,-117.309,-44.056,-4.781,-12.057,-37.244,-137.178,-63.457,-24.934,-51.009,-12.47,-145.64,-243.777,-218.735,-179.595,-185.343,-55.037,-322.144,-336.257,-380.332,-355.076,10.791,6.584,-470.986,-658.098,-664.811],[-47.617,-38.97,-128.729,-6.979,-4.412,-40.187,-37.729,-116.82,-37.078,-8.137,-32.911,-38.663,-147.902,-58.856,-20.324,-43.631,-46.106,-167.154,-183.532,-96.258,-47.643,-29.765,-18.624,-241.679,-211.319,-38.297,-18.055,124.236,-30.987,-329.307],[-42.948,-7.811,-11.436,-10.977,-126.104,-44.892,-7.465,-7.583,-23.595,-127.752,-55.529,-2.638,5.314,-23.7,-127.152,-69.064,-52.933,-16.504,-74.953,-169.625,-63.032,-25.504,-99.12,-141.912,-47.189,-61.172,-27.827,-37.228,42.547,134.766],[-55.144,-11.625,-2.725,-2.589,-3.914,-56.97,-7.2,-2.307,1.668,-0.234,-56.079,-13.244,-0.268,-1.615,4.586,-71.143,-8.197,33.965,6.051,-14.402,-85.718,-75.944,-39.794,-53.608,-7.175,-64.6,-66.356,-23.276,-65.412,-40.144],[-69.993,-11.232,-2.5,1.745,-0.333,-69.501,-12.526,-4.953,2.319,-2.299,-67.318,-14.514,-1.077,4.535,8.9,-62.982,-31.492,0.552,28.083,19.938,-64.272,-62.832,-26.499,-21.98,-27.647,-80.354,-49.37,-51.216,-20.031,26.733],[-73.577,-11.305,-3.466,-0.886,0.76,-71.893,-21.881,-0.302,1.87,3.409,-79.337,-15.045,-0.36,-1.083,2.479,-80.765,-54.872,6.399,2.058,2.355,-77.019,-42.402,-44.952,-25.161,-3.862,-80.701,-72.089,-66.703,-51.856,24.59]],
"vp": [[-178.716,179.889,141.364,208.029,263.351,-0.203,69.326,-89.12,83.355,-44.631,20.542,-25.278,-19.864,-25.599,-26.559,-9.321,4.368,23.123,-6.205,-11.495,-3.566,-20.183,-19.031,-12.236,-22.074,-21.642,-2.976,-9.066,7.832,-9.399],[1633.306,356.774,15.596,183.927,19.089,498.626,60.568,-40.405,-24.366,43.101,158.176,77.658,-2.658,-7.088,-39.199,13.931,-16.478,-2.199,-0.703,-4.293,-18.203,-20.049,-47.714,-21.591,12.366,-27.391,-31.662,-36.16,-21.267,-8.705],[3788.095,1196.575,665.33,452.586,-173.319,774.667,207.917,106.07,68.487,56.563,351.677,150.175,60.881,14.71,25.269,23.66,-1.37,-8.8,-11.63,-10.775,4.2,-30.123,-1.473,-11.139,-38.211,-20.952,-11.689,-53.837,-41.502,-40.622],[5558.183,2807.298,859.917,724.208,133.211,855.99,482.489,228.472,88.357,88.439,431.308,207.002,51.841,34.141,31.327,80.059,12.783,19.607,10.09,9.974,19.865,3.89,-34.623,-12.302,-13.588,0.555,-53.554,-21.879,-23.357,-24.821],[6153.541,4262.779,1629.97,1088.579,627.418,1104.816,879.393,359.9,241.591,147.738,485.332,373.917,113.457,82.058,92.255,75.266,65.821,28.457,26.866,-0.892,12.402,-7.173,12.78,1.142,-32.467,-20.767,-0.984,-12.234,-32.35,-39.267],[6852.513,6458.634,3269.754,1529.095,651.267,1334.908,978.639,470.959,257.663,191.766,650.165,528.723,263.918,95.88,30.737,80.819,64.844,1.791,15.643,-3.413,45.592,9.735,22.886,0.14,-8.656,-16.264,-28.092,-17.999,-22.06,-30.354]]
}