{
"KTrans": [[-44.053,-67.249,-84.414,-82.5,-87.144,-37.121,-57.865,-73.186,-74.533,-74.535,-43.976,-56.411,-68.831,-71.413,-78.417,5.24,-44.451,-50.201,-40.083,-21.142,39.879,64.397,4.292,26.847,-1.177,25.443,79.647,-22.682,87.488,175.181],[-62.408,-43.93,-62.014,-65.606,-65.925,-58.983,-50.766,-52.222,-64.015,-62.71,-55.079,-47.233,-40.074,-53.778,-63.479,-33.092,-15.569,-14.922,-29.748,-48.919,1.143,9.177,7.757,10.153,-24.819,1.116,36.55,-21.405,-9.621,8.996],[-74.073,-49.938,-48.498,-33.976,-53.94,-70.812,-51.747,-42.399,-35.251,-49.586,-69.879,-49.696,-40.029,-33.302,-35.393,-58.622,-34.752,-22.12,-20.748,-17.796,-53.257,-16.703,10.271,5.922,-5.435,-55.89,1.788,-0.456,0.158,18.11],[-79.858,-54.562,-45.8,-45.196,-48.812,-78.015,-58.025,-47.284,-47.249,-45.375,-75.464,-56.685,-42.92,-35.402,-34.356,-67.778,-42.838,-36.657,-30.021,-21.026,-63.621,-23.84,-24.129,-8.24,-17.268,-62.8,-19.096,-6.084,4.193,7.374],[-86.213,-63.631,-55.294,-46.375,-45.265,-83.958,-62.253,-53.558,-51.163,-45.376,-85.31,-63.749,-49.352,-43.265,-41.813,-76.541,-55.5,-40.168,-33.925,-38.738,-68.356,-41.705,-28.06,-16.5,-23.314,-73.17,-42.881,-27.493,3.762,0.601],[-86.168,-68.399,-52.112,-55.078,-46.164,-86.607,-70.962,-55.003,-46.782,-51.176,-84.656,-70.767,-57.869,-45.576,-46.65,-84.008,-64.949,-48.942,-40.334,-39.238,-75.586,-52.672,-36.017,-31.693,-24.392,-73.474,-55.429,-26.257,-2.122,4.589]],
"ve": [[-21.859,-40.633,-17.101,-71.1,-62.824,3.113,-105.622,-61.454,-43.635,-89.838,-61.804,62.111,17.004,-52.658,-70.514,-7.997,-42.265,71.343,-40.122,-40.677,17.813,14.888,-12.339,-55.226,-47.068,184.288,40.706,3.322,-25.265,-29.829],[-76.813,-47.156,-75.412,-50.839,-20.163,70.291,-58.756,-54.293,-69.615,-76.111,-42.823,-61.522,-48.072,-59.085,-32.244,27.772,-7.593,-10.36,-1.292,-37.372,98.037,10.023,1.3,40.898,-114.388,180.803,88.244,40.124,19.873,-5.725],[-54.262,-52.257,1158.232,-32.035,-49.136,-56.868,-70.034,-59.346,-40.128,-49.986,-28.04,-38.183,-331.19,-36.667,-60.086,44.945,-44.47,-36.441,-40.389,-14.84,80.902,-61.815,21.541,-2.221,-0.513,221.971,71.814,51.323,51.165,14.859],[7.799,-52.496,-50.594,-57.705,-56.736,-19.08,-69.857,-50.586,-67.231,-49.566,19.67,-54.359,-39.125,-44.44,0.666,71.391,9.494,32.627,-51.285,-30.243,105.275,27.703,-24.406,-8.116,-25.809,265.262,109.554,11.526,2.413,16.815],[97.748,-70.068,-95.515,-84.691,-45.638,21.544,-43.824,-65.901,-82.498,-155.027,-74.83,-49.362,-62.204,-57.195,-67.942,61.357,-18.855,-41.401,-64.191,-65.16,163.734,18.353,-4.793,-29.524,-54.903,203.912,-17.174,55.102,-6.274,-1.736],[12.385,-22.349,-62.458,-99.398,-81.9,-537.035,-21.475,-80.206,-71.468,-106.921,-493.281,-37.908,-187.483,-73.042,-74.441,81.398,-7.843,-36.897,-77.513,-62.077,83.265,78.688,0.489,-50.306,-55.055,103.891,72.45,-18.179,-0.341,15.354]],
"kep": [[-105.46,-101.073,-25.468,-89.967,-46.416,-130.133,-87.135,-81.215,0.186,-58.87,-94.546,-96.154,-80.433,-13.56,-16.912,-117.723,-44.246,-15.507,-77.107,-116.035,-101.721,-146.277,-104.003,-115.788,-81.23,-91.966,-128.77,-154.249,-181.794,-258.555],[-102.084,-92.666,-115.543,-54.014,-14.286,-99.392,-85.392,-116.245,-72.907,-13.879,-95.276,-96.754,-104.541,-58.815,-24.174,-91.886,-88.33,-115.574,-77.662,-28.015,-87.63,-68.18,-96.828,-120.007,-47.675,-76.957,-56.075,-86.295,-74.987,-118.259],[-97.757,-73.05,-62.49,-103.708,-115.346,-92.385,-66.215,-60.945,-88.43,-96.32,-95.374,-81.61,-51.915,-84.469,-117.594,-101.198,-63.209,-63.877,-75.978,-111.276,-92.033,-66.239,-52.042,-81.657,-108.591,-84.416,-56.615,-49.91,-85.237,-55.289],[-96.453,-79.088,-47.142,-43.862,-44.489,-96.431,-76.579,-52.331,-38.743,-55.433,-97.455,-73.524,-52.278,-41.814,-51.882,-96.238,-82.015,-52.151,-32.16,-63.775,-96.102,-71.176,-56.434,-38.142,-59.179,-92.414,-68.541,-38.776,-29.44,-34.72],[-97.132,-79.235,-43.534,-25.25,-32.086,-98.557,-76.108,-51.873,-33.22,-23.059,-99.125,-75.365,-49.572,-32.73,-18.462,-96.767,-76.264,-54.768,-23.238,-24.394,-99,-75.898,-52.425,-32.179,-13.678,-92.562,-64.689,-62.041,-29.185,-40.715],[-98.416,-79.995,-47.23,-30.424,-18.765,-97.917,-87.222,-50.571,-31.46,-9.793,-98.569,-81.687,-55.014,-29.94,-16.147,-99.934,-85.102,-53.945,-26.632,-20.942,-95.211,-86.533,-63.094,-34.636,-17.767,-90.336,-77.951,-48.47,-32.498,-34.485]],
"vp": [[253.027,-185.304,-36.308,457.535,813.204,89.597,-63.544,-90.612,101.171,97.321,-43.145,-35.001,-8.176,18.847,54.724,-13.537,15.838,27.569,-10.895,-8.811,3.889,-23.719,-7.219,-8.663,7.234,-15.746,0.633,36.97,11.24,-11.626],[3238.908,1262.813,-744.68,102.441,634.116,685.615,132.258,-84.299,-167.561,21.775,259.771,54.782,-5.795,-25.18,30.472,46.149,10.497,-5.793,12.568,32.018,-3.949,-3.488,-13.177,-21.671,-3.954,-17.781,-22.229,-36.008,15.091,-1.617],[3818.738,3468.135,1213.66,1973.188,75.122,680.826,589.71,308.192,390.448,-126.591,397.519,337.514,119.357,92.25,24.968,89.387,40.537,44.349,16.563,4.183,37.773,-5.32,-1.495,-21.193,-11.709,2.977,-42.736,-14.212,-17.089,-38.448],[5706.245,5852.379,2574.429,2242.55,838.623,1002.351,1043.836,697.746,359.051,271.302,601.019,553.54,335.358,251.215,161.257,108.511,120.184,59.491,-2.58,21.991,19.811,22.613,1.477,-13.955,6.245,10.597,2.678,-20.364,-31.66,-36.193],[6585.888,7175.366,4307.734,2836.964,2533.692,1355.238,1373.903,936.275,526.873,380.8,658.754,666.34,515.756,306.644,199.157,107.578,125.947,83.231,18.747,20.127,51.865,42.067,44.456,-4.108,-10.714,17.754,2.97,-7.078,-37.017,-24.877],[7495.115,8196.164,6177.231,4095.669,3015.395,1420.68,1794.15,998.588,872.578,181.264,577.8,854.556,552.159,460.59,148.432,131.825,155.491,111.94,46.734,52.923,19.699,77.551,36.686,32.09,7.346,-12.961,3.419,-17.614,-32.529,-6.325]]
}