{
"KTrans": [[2.527,1.581,1.286,1.143,1.058,12.625,7.851,6.371,5.654,5.234,25.968,16.011,12.961,11.491,10.632,161.718,94.2,75.027,66.061,60.865,403.873,224.261,175.921,153.909,141.246,1130.12,592.093,455.77,395.27,361.011],[2.431,1.258,0.895,0.722,0.623,11.163,5.844,4.175,3.376,2.912,22.59,11.727,8.356,6.747,5.815,134.436,64.763,45.016,35.931,30.76,325.359,145.965,98.897,77.939,66.239,879.135,358.427,233.532,180.4,151.53],[2.688,1.312,0.887,0.685,0.57,11.26,5.659,3.883,3.027,2.528,22.462,11.225,7.693,5.994,5.004,131.733,60.996,40.734,31.339,25.975,317.377,136.31,88.472,67.048,55.071,855.302,330.812,205.297,151.883,122.93],[3.001,1.426,0.937,0.707,0.574,11.544,5.691,3.836,2.935,2.408,22.701,11.153,7.514,5.754,4.725,131.483,59.824,39.323,29.734,24.244,316.419,133.237,84.979,63.28,51.095,853.473,322.159,195.986,142.206,112.96],[3.331,1.564,1.011,0.749,0.6,11.875,5.796,3.861,2.923,2.374,23.043,11.208,7.481,5.672,4.613,131.882,59.422,38.698,29.009,23.433,317.353,131.987,83.409,61.518,49.209,854.213,318.36,191.717,137.691,108.292],[3.661,1.717,1.098,0.804,0.636,12.228,5.931,3.921,2.947,2.375,23.42,11.32,7.508,5.657,4.57,132.669,59.321,38.404,28.632,22.995,318.774,131.468,82.582,60.594,48.172,862.382,317.064,189.561,135.247,105.707]],
"ve": [[0.798,0.063,-0.351,-0.683,-0.982,4.139,0.555,-1.395,-2.915,-4.253,8.418,1.381,-2.339,-5.166,-7.596,44.958,13.027,-1.663,-11.429,-18.837,93.029,33.116,7.862,-7.614,-18.539,191.375,78.758,35.002,10.128,-6.374],[0.959,0.441,0.25,0.139,0.061,4.892,2.297,1.349,0.809,0.431,9.817,4.626,2.737,1.665,0.916,49.405,23.57,14.264,9.065,5.512,99.127,47.719,29.381,19.276,12.491,198.858,96.746,60.816,41.398,28.657],[0.967,0.464,0.291,0.2,0.14,4.942,2.415,1.547,1.091,0.798,9.914,4.856,3.12,2.209,1.626,49.754,24.479,15.822,11.298,8.417,99.637,49.161,31.911,22.928,17.239,199.522,98.777,64.486,46.732,35.57],[0.968,0.469,0.301,0.215,0.161,4.955,2.444,1.596,1.162,0.892,9.939,4.914,3.216,2.347,1.809,49.85,24.717,16.232,11.895,9.212,99.781,49.549,32.601,23.951,18.61,199.714,99.343,65.532,48.32,37.723],[0.968,0.47,0.304,0.22,0.168,4.959,2.455,1.614,1.188,0.928,9.949,4.936,3.253,2.4,1.879,49.887,24.814,16.393,12.13,9.526,99.841,49.707,32.877,24.361,19.164,199.774,99.57,65.959,48.972,38.62],[0.969,0.47,0.305,0.222,0.171,4.962,2.46,1.622,1.201,0.945,9.955,4.947,3.27,2.425,1.912,49.91,24.863,16.473,12.245,9.679,99.87,49.785,33.014,24.565,19.437,199.833,99.693,66.177,49.299,39.07]],
"kep": [[1.715,1.517,1.642,1.838,2.061,8.149,7.256,7.875,8.826,9.908,16.188,14.43,15.666,17.564,19.726,80.547,71.818,77.986,87.49,98.2,161.035,143.594,155.81,174.837,196.15,322.177,287.167,311.676,349.721,392.397],[1.458,0.814,0.643,0.582,0.562,5.978,3.467,2.788,2.547,2.47,11.632,6.787,5.469,5,4.854,56.913,33.336,26.913,24.633,23.929,113.611,66.508,53.73,49.182,47.78,227.625,133.005,107.4,98.305,95.504],[1.704,0.844,0.594,0.485,0.429,6.02,3.167,2.301,1.915,1.716,11.417,6.074,4.434,3.703,3.325,54.742,29.336,21.509,18.007,16.195,109.068,58.426,42.878,35.89,32.27,218.942,116.731,85.607,71.662,64.439],[2.014,0.953,0.635,0.491,0.413,6.279,3.17,2.205,1.753,1.503,11.608,5.947,4.164,3.329,2.865,54.477,28.149,19.867,15.943,13.763,108.438,55.96,39.501,31.73,27.389,218.128,111.775,78.808,63.299,54.629],[2.34,1.089,0.705,0.529,0.431,6.589,3.261,2.211,1.714,1.432,11.909,5.977,4.095,3.195,2.684,54.704,27.727,19.164,15.053,12.697,108.842,54.961,38.028,29.878,25.214,218.31,109.631,75.777,59.554,50.261],[2.666,1.241,0.791,0.581,0.465,6.923,3.389,2.262,1.725,1.417,12.246,6.073,4.103,3.155,2.608,55.206,27.597,18.829,14.599,12.14,109.523,54.534,37.265,28.924,24.058,220.972,108.853,74.249,57.568,47.916]],
"vp": [[7.046,6.948,6.863,6.809,6.772,7.727,7.222,7.038,6.946,6.883,7.81,7.25,7.057,6.961,6.9,7.886,7.277,7.075,6.97,6.915,7.893,7.28,7.074,6.976,6.913,7.901,7.286,7.076,6.975,6.916],[-1.779,3.917,5.349,5.889,6.139,7.505,7.561,7.395,7.257,7.16,8.669,8.014,7.646,7.424,7.281,9.609,8.384,7.849,7.562,7.383,9.743,8.412,7.877,7.58,7.398,9.838,8.45,7.895,7.594,7.409],[-24.933,-5.844,-0.148,2.336,3.647,3.944,6.358,6.879,7.023,7.055,7.552,7.898,7.759,7.61,7.47,10.496,9.118,8.463,8.071,7.821,10.917,9.279,8.558,8.136,7.86,11.226,9.363,8.602,8.166,7.879],[-62.447,-22.654,-10.237,-4.45,-1.261,-2.721,3.614,5.378,6.095,6.436,4.742,6.916,7.319,7.403,7.396,10.837,9.548,8.892,8.454,8.165,11.725,9.887,9.084,8.593,8.257,12.374,10.082,9.188,8.668,8.303],[-114.484,-46.53,-24.973,-14.695,-8.849,-12.472,-0.619,2.86,4.425,5.255,0.301,5.128,6.346,6.805,7.019,10.708,9.736,9.124,8.718,8.424,12.256,10.325,9.49,8.961,8.595,13.41,10.661,9.667,9.09,8.689],[-181.44,-77.387,-44.338,-28.391,-19.172,-25.317,-6.327,-0.626,2.02,3.489,-5.77,2.555,4.845,5.82,6.322,10.193,9.701,9.218,8.872,8.592,12.568,10.611,9.783,9.258,8.876,14.416,11.158,10.08,9.449,9.022]]
}