{
"KTrans": [[7.481,1.048,3.319,3.614,4.178,19.507,11.295,9.001,8.747,5.581,33.989,15.292,15.537,11.424,13.951,132.327,95.063,75.401,70.636,61.661,123.147,146.667,151.661,142.796,133.518,246.288,109.71,83.803,112.777,233.005],[0.615,6.821,4.138,3.937,2.982,11.746,12.723,8.424,6.603,5.003,21.458,18.899,12.605,8.336,8.216,-31.453,98.929,51.833,41.748,36.884,-12.794,116.527,102.488,77.017,69.658,47.105,115.488,66.794,136.921,137.761],[-12.499,6.926,5.695,5.092,3.252,-8.118,8.35,6.928,5.058,5.637,2.35,19.093,11.962,10.604,8.237,-48.922,98.766,55.64,37.587,32.414,-3.011,-2.173,126.539,77.272,60.185,46.661,94.985,93.909,114.103,125.553],[-48.888,12.693,4.113,4.636,3.649,-42.99,19.102,9.813,7.483,6.595,-51.952,20.346,15.151,10.965,9.941,-41.879,58.241,52.401,37.7,30.149,-28.522,-6.987,141.43,90.079,61.857,-13.516,12.922,13.063,80.346,129.711],[-67.932,13.654,5.896,6.082,5.17,-64.634,23.491,12.745,7.42,5.823,-82.415,27.719,13.843,11.49,10.251,-66.405,-2.333,59.94,39.311,33.182,-36.841,-15.234,29.827,107.597,67.655,-18.413,-8.233,35.753,46.391,111.422],[-82.836,4.03,9.327,6.967,5.95,-84.81,9.252,11.191,10.229,6.548,-84.161,9.495,29.153,13.498,8.859,-88.744,-28.081,75.401,62.038,32.368,-55.273,-7.425,-35.358,146.102,70.864,-52.037,26.537,-15.598,41.396,73.901]],
"ve": [[2.123,3.446,1.942,-1.023,-0.01,7.563,1.236,-0.52,-3.762,0.854,10.287,2.844,-3.042,-3.532,-7.36,40.786,14.502,-0.706,-9.859,-17.671,92.135,21.208,8.035,-4.699,-14.902,188.383,89.146,40.127,2.716,-11.926],[1.805,0.182,-0.465,-0.294,-0.849,7.356,1.902,1.438,0.185,-0.17,11.414,4.627,2.12,1.337,-0.164,51.567,24.661,14.66,8.396,5.245,101.282,47.275,29.146,18.985,12.415,201.072,93.913,60.032,52.722,31.016],[2.899,0.257,-0.071,-0.113,-0.246,7.27,2.475,1.268,0.274,0.36,15.085,4.206,2.709,2.05,0.565,51.72,25.129,15.577,11.001,7.745,101.668,51.375,32.542,23.008,16.558,196.912,98.536,61.665,48.348,37.353],[1.595,0.1,-0.063,-0.3,-0.705,7.484,2.79,1.242,0.755,0.522,128.522,4.063,2.774,1.421,1.417,47.329,24.37,15.423,11.656,9.06,103.579,50.312,32.352,24.428,18.193,202.64,102.106,66.455,48.569,37.771],[-8.844,0.11,0.015,0.094,-0.552,7.999,3.127,1.645,0.364,0.13,7.921,4.975,2.885,2.006,1.314,48.97,24.598,16.078,11.63,9.496,136.627,49.042,33.004,24.531,18.911,194.14,99.352,66.172,49.864,36.458],[5.286,0.397,0.195,-0.193,-0.232,3.605,2.711,0.902,0.639,0.389,9.736,9.562,3.712,1.994,1.501,62.714,25.264,16.187,12.187,8.96,97.838,49.007,32.804,24.924,19.179,207.969,96.849,66.335,49.7,38.884]],
"kep": [[6.875,0.715,3.706,8.042,9.762,12.426,12.094,12.804,15.655,10.657,23.256,13.707,21.399,18.132,26.477,58.427,70.802,78.58,91.074,98.951,27.253,77.015,127.158,158.762,178.992,37.974,38.452,42.717,91.929,249.476],[-0.746,6.781,4.737,4.39,4.06,4.022,10.882,7.025,6.575,5.376,9.194,14.081,10.405,7.118,8.538,-46.664,58.137,32.344,30.718,30.174,-47.173,46.371,55.679,48.382,50.681,-40.035,20.599,9.219,63.651,81.609],[-15.613,6.591,5.809,5.283,3.568,-15.286,5.869,5.683,4.827,5.326,-11.094,14.521,9.077,8.411,7.678,-62.14,56.288,34.156,23.87,22.817,-47.262,-27.691,67.536,43.172,37.09,-44.95,4.168,22.762,43.935,62.918],[-50.625,12.167,4.188,4.986,4.422,-48.399,15.715,8.494,6.706,6.062,-56.29,15.56,12.106,9.447,8.438,-59.49,25.778,31.21,22.995,19.214,-60.367,-33.576,77.088,51.168,36.191,-65.526,-36.206,-23.93,22.785,64.024],[-68.409,12.737,5.713,5.972,5.742,-67.482,18.996,10.684,6.989,5.739,-83.126,20.89,10.337,9.293,8.837,-74.706,-20.227,36.391,24.331,21.354,-65.237,-39.326,-0.976,63.483,39.882,-68.579,-48.49,-11.462,2.077,50.406],[-82.879,2.13,8.917,7.083,6.153,-84.636,5.153,9.831,9.46,6.102,-85.495,2.129,24.135,11.145,7.226,-90.222,-40.738,49.152,43.27,21.208,-74.742,-34.591,-46.865,91.925,42.111,-80.392,-31.96,-42.419,-1.367,24.913]],
"vp": [[245.616,-20.109,123.272,-40.367,-50.087,51.187,13.763,31.876,59.99,-35.657,15.411,-19.593,16.669,9.788,-5.76,-10.296,-11.056,-6.239,7.18,-12.347,-31.118,-6.64,-17.116,-22.166,-12.531,-24.563,-19.593,-17.987,-18.443,-26.303],[2961.475,419.455,40.219,168.269,398.695,601.026,90.389,57.475,77.489,58.685,327.378,43.673,57.544,-21.876,24.642,52.771,12.456,0.954,6.594,15.821,16.466,-29.645,-18.393,-24.651,-12.593,-10.364,-34.253,-21.147,-10.462,-17.628],[6820.195,1069.182,430.638,253.902,461.158,1283.335,193.881,118.36,63.346,98.678,635.377,131.885,12.737,36.606,35.798,118.632,-7.757,-1.202,-3.657,6.989,41.915,16.95,-2.325,-19.313,-13.05,-9.71,-31.793,-50.424,-14.661,-15.307],[8073.579,3251.467,464.469,195.043,-44.256,1755,548.37,76.193,171.791,182.111,851.914,311.585,54.493,39.082,32.932,153.443,28.865,-32.461,-0.027,4.793,83.288,26.277,-37.861,-9.161,-14.092,28.796,-6.689,-8.478,-21.029,-19.933],[8732.11,7282.104,449.179,-107.453,266.754,2022.734,1571.403,-33.795,-14.583,55.983,928.665,993.282,-12.458,29.556,69.19,186.488,167.908,-19.049,-25.192,14.044,97.848,37.33,22.777,-7.49,-5.896,10.701,-4.626,-19.116,-9.61,-25.658],[9052.536,11623.152,2272.935,548.665,-2.827,1850.594,2614.923,511.58,-21.211,74.21,988.056,1078.642,183.931,3.404,-9.559,195.036,310.456,10.552,2.041,-3.639,86.945,105.645,7.246,-23.635,-25.675,54.833,-4.219,4.099,-7.062,-22.674]]
}