{
"KTrans": [[-67.502,-63.501,-76.499,-87.432,-94.303,-58.22,-59.827,-72.772,-88.754,-78.741,-46.015,-72.617,-88.925,-75.528,-68.591,-9.752,-19.86,-47.425,-38.349,-16.629,9.915,29.734,47.344,50.716,60.691,35.617,35.088,221.794,173.148,135.67],[-58.945,-46.558,-60.823,-58.075,-70.672,-59.012,-47.548,-44.41,-46.376,-57.842,-51.967,-39.295,-39.315,-52.779,-69.84,-38.78,-20.042,-30.442,-32.975,-44.086,-7.741,-4.618,-5.312,-17.487,-2.835,13.819,-7.572,-51.171,-0.334,20.338],[-69.249,-56.178,-44.013,-59.375,-45.687,-70.614,-51.125,-44.531,-36.498,-47.131,-66.788,-46.488,-49.876,-48.154,-41.728,-54.78,-24.773,-27.227,-25.92,-16.505,-45.618,-41.593,-25.241,-12.141,-8.218,-74.814,-32.055,-32.233,-34.906,10.64],[-77.838,-60.769,-48.219,-47.345,-47.265,-79.676,-56.509,-47.435,-43.82,-45.282,-76.939,-52.782,-49.444,-37.249,-45.179,-79.666,-46.518,-25.693,-29.987,-39.895,-57.904,-41.186,-36.336,-7.515,-9.255,-39.36,-17.629,-23.727,-65.587,-12.701],[-83.426,-60.796,-52.693,-43.954,-48.946,-83.977,-65.248,-47.273,-43.391,-42.464,-81.287,-61.76,-48.187,-47.499,-41.294,-74.761,-46.706,-38.957,-34.383,-31.303,-78.117,-38.154,-18.586,-20.857,-8.977,-80.981,-53.879,-24.847,-28.044,4.865],[-89.006,-70.288,-49.174,-48.275,-46.999,-89.103,-68.944,-52.503,-56.036,-39.702,-85.734,-69.225,-54.702,-52.804,-44.505,-80.913,-61.098,-37.94,-42.912,-39.588,-78.161,-55.965,-36.667,-31.519,-14.251,-67.384,-50.622,-48.473,-29.553,-44.625]],
"ve": [[-73.838,-51.189,-170.039,-32.203,-78.054,57.406,-52.306,-55.076,-108.103,9.981,-43.107,-58.709,-69.772,-7.166,-99.108,14.92,-10.333,-34.295,-279.342,-47.252,76.806,26.845,-34.529,-46.215,-28.933,158.166,44.215,14.632,238.174,-17.555],[-31.939,-30.617,-66.965,-26.335,264.499,-25.173,-45.624,68.022,-4.266,-37.008,-17.575,-55.968,-78.137,-56.166,-47.725,-1496.046,-22.8,-18.983,-36.769,-44.488,176.687,20.534,1.424,-15.58,2.152,161.8,18.858,65.162,47.761,0.47],[-18.498,-87.713,-61.015,-61.048,-46.598,-34.092,-93.065,-53.026,-40.988,-2.055,-44.357,-61.762,-56.106,-9.36,-45.962,36.897,7.853,-29.216,37.107,-16.465,84.917,-8.582,-25.861,-12.697,12.608,41.936,-28.295,54.773,35.971,28.011],[-21.268,-62.892,-46.66,-80.907,-80.588,-36.598,-65.907,-66.839,-50.105,-68.646,-52.063,-40.367,-81.269,-61.06,70.772,-17.085,-24.843,-12.5,-60.03,-56.453,107.516,48.444,-40.042,-20.184,-11.919,98.058,37.682,-16.788,-18.66,8.321],[-8.196,-55.124,-91.042,-79.145,-82.547,27.881,-62.361,-65.67,-98.306,-64.084,-53.059,-39.96,-74.829,-96.333,-67.245,59.469,-13.001,-68.005,-70.559,-52.195,118.194,69.701,-4.965,-46.407,14.045,5.339,58.939,4.78,16.3,-16.175],[-25.062,-2.318,-44.804,-85.817,-92.775,-32.533,3843.97,-68.636,-124.517,-71.137,37.97,-20.535,-72.322,-107.55,-80.583,73.117,24.089,-31.313,-82.422,-63.819,98.268,31.963,-43.934,-61.322,-28.726,130.926,121.032,-28.846,-21.674,-7.543]],
"kep": [[-109.521,-70.223,-29.097,37.523,78.822,-115.169,-110.593,-10.427,32.154,34.522,-99.438,-116.75,27.003,-32.551,-30.974,-141.058,-133.531,-54.416,-34.441,-45.609,-108.608,-144.437,-194.676,-153.813,-159.893,-33.227,-111.285,-243.207,-242.574,-255.105],[-96.053,-90.739,-117.654,-64.357,-27.553,-96.328,-88.231,-122.452,-66.456,-50.516,-93.529,-78.078,-95.991,-70.58,-34.598,-82.255,-70.969,-100.824,-131.239,-26.637,-89.967,-68.148,-84.794,-124.531,-91.333,-62.706,-35.07,-101.552,-121.445,-170.575],[-93.289,-60.007,-49.195,-64.05,-115.116,-94.028,-62.19,-54.431,-87.929,-97.571,-93.245,-55.644,-51.354,-72.396,-114.309,-96.7,-65.541,-63.62,-75.371,-126.711,-83.999,-61.182,-40.417,-44.446,-127.088,-73.649,-30.859,-44.491,-45.675,-74.69],[-97.619,-68.495,-47.57,-27.186,-33.583,-95.838,-63.451,-44.2,-24.963,-52.497,-94.722,-69.325,-40.046,-33.511,-40.689,-92.154,-75.283,-45.468,-28.491,-31.664,-91.087,-78.838,-34.629,-27.744,-35.907,-76.938,-54.758,-34.36,-49.983,-31.821],[-98.89,-77.284,-44.52,-19.361,-14.942,-96.174,-76.263,-43.561,-12.487,-17.046,-93.488,-74.146,-44.127,-22.126,-10.784,-98.058,-67.046,-39.52,-27.069,-35.067,-96.419,-74.52,-45.816,-29.964,-48.743,-84.674,-66.966,-35.55,-44.315,-13.623],[-98.756,-80.876,-47.246,-29.658,-9.423,-97.976,-82.115,-53.85,-18.863,-9.845,-98.928,-85.644,-49.117,-20.439,-15.51,-98.083,-85.982,-52.652,-29.935,-20.583,-94.894,-75.958,-51.48,-35.478,-22.607,-86.401,-74.516,-44.829,-31.519,-49.574]],
"vp": [[-603.159,672.916,587.967,937.479,667.587,-50.367,-32.961,26.681,22.498,204.23,98.194,-47.371,65.888,15.309,-36.589,-9.273,-26.504,-5.923,-16.674,-4.887,-32.764,-21.386,-6.484,-20.271,-31.854,-22.799,-14.73,-31.592,-8.324,-9.936],[2750.113,873.293,-388.278,368.806,625.516,345.698,112.368,90.702,50.006,1.132,277.499,166.389,-16.646,-35.402,-7.996,25.452,-14.643,-29.369,-24.03,-7.568,-9.794,-24.908,-18.29,-31.448,-34.74,-45.629,-40.325,-32.212,-8.998,-13.451],[4327.188,2075.381,920.795,-504.252,147.407,750.038,506.096,257.257,181.792,-55.652,408.592,197.998,90.392,-39.844,-6.061,19.861,43.757,8.502,-6.599,-31.235,0.339,-18.792,-10.788,6.506,-28.464,-10.972,-7.06,-33.67,-47.24,-46.224],[4955.534,4180.409,3169.657,2144.03,935.306,1061.638,830.198,550.886,235.708,122.3,583.294,515.712,258.156,176.008,27.005,42.689,81.554,30.938,6.565,-34.297,29.262,13.523,-27.429,-25.968,-31.8,-18.678,-21.506,-13.506,-47.846,-51.033],[5964.609,6897.057,4601.149,2288.562,1889.366,1075.329,1474.766,891.693,272.725,361.541,488.454,615.835,351.974,240.201,81.373,88.17,92.776,40.053,-0.684,31.919,-2.502,-0.577,2.069,-24.8,0.743,-24.293,1.451,-36.821,-35.604,-53.547],[5357.569,8378.415,6191.513,3895.614,1609.141,1083.749,1588.924,1222.323,522.387,529.889,664.155,855.963,575.283,231.703,263.802,46.483,126.202,75.955,27.893,33.472,2.636,9.045,11.961,9.829,-18.539,-1.254,7.15,-33.714,-28.361,-36.924]]
}