{
"KTrans": [[-50.874,-65.347,-66.895,-65.855,-66.986,-34.74,-50.176,-43.714,-66.3,-49.618,-28.809,-51.802,-54.72,-53.424,-50.006,-34.681,18.859,-6.755,-14.574,3.135,-54.76,49.239,17.367,84.337,76.392,34.764,116.629,287.033,265.377,166.703],[-48.652,-42.832,-48.041,-62.458,-57.023,-44.311,-43.348,-33.49,-52.714,-48.972,-47.292,-33.782,-36.69,-46.128,-40.33,-25.743,-5.956,-8.936,-14.193,-31.872,-53.675,-0.323,-22.236,19.694,-5.033,23.698,28.955,-31.33,55.299,39.92],[-61.653,-34.047,-45.444,-50.334,-45.118,-59.147,-49.061,-33.343,-36.974,-43.726,-56.196,-46.691,-41.028,-32.807,-39.362,-55.134,-13.385,-20.103,-13.213,-16.793,-47.652,-17.413,-12.691,-23.161,-11.265,-26.915,1.221,33.812,-38.525,-5.929],[-70.989,-43.097,-43.522,-45.507,-52.745,-66.364,-38.357,-42.388,-42.164,-51.794,-67.926,-43.802,-34.625,-37.868,-42.32,-61.49,-34.156,-23.548,-17.015,-26.6,-64.683,-27.734,-9.437,15.673,-8.917,-42.399,-61.312,-24.095,1.012,-41.113],[-78.507,-47.338,-40.739,-44.026,-40.56,-75.521,-53.717,-41.615,-36.471,-38.895,-80.434,-45.329,-41.176,-48.388,-33.647,-67.377,-37.169,-26.71,-21.224,-25.19,-65.898,-31.595,1.061,1.37,-6.182,-55.597,-23.578,-21.176,-42.618,-15.444],[-82.806,-53.746,-44.525,-44.944,-41.047,-81.156,-53.369,-46.119,-46.426,-38.906,-83.037,-56.835,-43.802,-41.009,-32.958,-73.031,-42.388,-27.25,-36.211,-25.577,-73.726,-48.721,-33.651,1.123,-5.402,-65.205,-49.667,-50.043,-14.757,3.829]],
"ve": [[-34.508,-51.486,-4.511,-82.041,6.955,-35.736,-22.24,9.153,-98.721,-37.215,-37.155,-12.077,-42.192,-26.087,107.479,17.715,-21.493,-5.921,-107.967,22.397,79.858,19.485,-21.348,-2.492,-93.905,20.859,87.489,50.638,-6.769,-32.763],[-80.779,-47.374,-48.853,-40.067,-32.159,-56.033,-68.886,-33.665,-37.545,-17.407,-61.611,-48.382,-36.863,-22.709,-20.206,-31.28,81.724,1.551,-179.629,26.908,-11.547,18.962,4.342,-3.238,-2.05,-21.999,10.545,-3.942,51.585,2.829],[-93.227,-66.875,-79.19,-68.066,-42.35,-42.787,-106.078,-63.061,-76.975,-43.176,-31.608,-91.849,-75.504,-38.409,-39.09,31.216,-28.879,-42.315,-13.416,-11.915,9.196,-65.015,7.935,-24.655,-3.491,-79.411,36.482,40.401,-32.579,8.503],[-39.228,-89.842,-94.191,-79.441,-76.493,-33.878,-102.913,-91.312,-73.165,-76.374,-29.539,-102.851,-74.512,-68.424,-62.979,6.435,-133.937,-59.137,-20.383,-47.062,-29.891,-62.423,-15.579,47.567,13.61,-0.213,-8.958,-63.415,-13.689,-20.638],[-9.548,-118.284,-103.93,-93.639,-70.296,-23.279,-135.248,-100.316,-68.075,-71.61,-27.285,-116.505,-111.889,-105.473,-60.422,14.156,-118.163,-87.467,-42.613,-45.18,-8.619,-76.375,-29.712,-3.122,-25.808,54.587,8.342,-107.595,-12.984,21.166],[-7.11,-115.014,-136.71,-107.714,-82.564,-20.046,-124.55,-132.117,-112.05,-79.572,-0.579,-121.679,-117.068,-106.273,-73.051,74.627,-55.13,-126.712,-118.048,-52.051,-28.822,-60.856,-60.324,-8.888,-24.684,92.093,-140.296,-66.569,-75.412,19.412]],
"kep": [[-122.448,-7.312,5.26,1.953,0.602,-115.849,19.515,-4.108,9.384,-10.05,-122.53,-10.91,0.037,-9.2,8.721,-90.839,-83.172,-36.6,-18.854,-64.167,-62.291,-181.071,-85.565,-122.911,-102.149,58.351,-134.794,-338.04,-300.349,-241.302],[-36.313,-31.106,-147.299,18.071,7.12,-44.162,-8.32,-117.381,-19.348,5.102,-52.271,-25.909,-111.541,11.507,-2.063,-40.963,-48.532,-107.796,-58.592,-9.466,-47.54,-19.928,-6.084,-137.234,-39.087,-25.295,10.911,67.304,-140.632,-141.883],[-56.666,-8.748,2.347,-11.419,-107.971,-60.714,-13.208,7.262,-2.497,-100.283,-63.826,-16.764,2.907,-15.991,-109.036,-67.965,-30.266,-17.195,-42.241,-87.155,-63.386,-13.411,-27.986,7.053,-11.563,-50.003,-28.768,2.31,53.163,41.363],[-72.867,-18.09,-4.934,3.15,1.919,-68.713,-10.356,-4.184,-3.932,7.12,-72.353,-19.02,-6.258,0.049,2.301,-72.576,-17.765,-11.185,-23.971,-1.002,-73.088,-29.816,-27.504,-31.523,-35.951,-69.801,-52.271,-10.141,9.083,18.519],[-83.363,-22.802,-5.201,-2.904,-2.266,-81.682,-28.028,-10.171,-6.02,1.195,-84.475,-23.734,-6.07,-2.412,0.448,-77.02,-29.974,-14.675,-14.045,-9.973,-75.233,-32.637,-14.346,-24.997,-9.605,-73.749,-53.195,-13.63,-28.798,-33.131],[-91.245,-37.253,-9.889,-6.827,-3.752,-88.403,-36.046,-12.629,-4.603,-2.813,-89.528,-42.274,-13.651,-1.799,0.629,-85.524,-49.423,-8.071,-2.657,-9.852,-78.355,-52.815,-47.954,-22.617,-18.387,-82.516,-47.143,-46.359,-10.329,-16.771]],
"vp": [[-49.378,-88.758,-34.572,40.367,-98.22,11.35,23.63,21.839,-33.039,12.432,-22.55,-11.789,-2.858,18.262,6.13,-26.304,-21.054,6.432,30.372,-24.582,-41.433,-8.449,17.807,2.33,-15.237,-48.826,-12.758,-33.596,-31.415,-0.823],[1117.499,542.786,30.665,-83.453,-139.138,217.209,11.913,-22.284,-44.636,-38.359,156.352,26.102,-16.714,15.582,-14.063,-24.464,-7.166,-25.192,-31.566,5.72,-10.276,-47.674,-45.66,-24.464,5.332,-31.048,-46.63,-53.884,-27.841,-2.826],[2560.937,1211.513,435.826,115.329,123.568,590.479,90.926,69.035,36.624,8.445,288.339,75.005,-18.417,40.431,-4.916,24.084,-7.089,-19.734,-37.841,-34.113,-39.773,-53.679,-46.029,-60.859,-37.525,-36.717,-27.811,-58.692,-13.46,-55.481],[4271.599,1989.542,1060.599,530.132,76.065,742.974,295.408,131.919,26.748,-30.049,393.29,200.91,71.069,15.05,-16.498,25.636,-31.2,3.498,43.909,-39.212,-18.815,-42.558,-20.67,-44.514,-31.677,-45.638,-22.561,-39.501,-47.174,-27.268],[4614.234,2223.705,1210.231,920.867,773.293,893.303,387.879,199.163,311.351,57.72,522.924,187.209,95.092,-2.009,49.368,43.487,-30.625,0.956,5.635,3.076,-25.966,-35.486,-37.346,-27.836,-40.846,-14.159,-35.432,-40.894,-50.409,-51.699],[5991.292,4180.308,1922.668,1506.929,1054.778,1144.599,646.732,356.319,258.836,156.297,429.309,383.288,174.145,121.167,57.919,36.857,35.792,-2.151,-8.987,30.543,1.293,-26.216,2.34,-21.005,-37.421,-46.418,-32.145,-44.337,-29.857,-46.249]]
}