{
"KTrans": [[53.999,22.057,20.88,19.626,23.063,52.102,35.083,28.309,29.044,17.597,66.772,41.27,40.379,39.917,29.337,251.139,137.849,106.548,90.421,102.85,503.852,270.171,229.313,186.542,175.284,1471.041,699.071,514.371,466.568,436.021],[2.131,79.794,46.026,32.272,36.107,47.619,84.002,44.64,40.478,32.269,1.747,73.217,58.266,41.582,30.014,169.885,187.097,86.566,71.42,62.413,251.456,280.37,174.145,136.037,107.363,660.575,549.891,311.004,245.23,207.672],[-135.667,167.138,77.923,51.754,38.329,-157.474,205.18,125.481,59.334,45.361,-171.792,223.995,97.979,64.931,59.452,-165.585,348.004,144.186,99.539,74.437,-255.377,467.161,248.149,157.798,113.932,-216.123,1040.89,437.104,236.663,195.4],[-137.332,-51.113,183.835,98.954,57.055,-133.293,-87.606,215.47,117.31,56.542,-138.756,-143.365,216.361,119.138,74.912,-128.563,-96.706,269.407,154.22,105.875,-195.929,-12.394,426.481,183.288,144.757,-236.222,120.58,657.571,338.113,211.085],[-123.502,-170.455,199.827,192.247,102.336,-128.075,-195.105,91.556,168.402,113.664,-121.719,-175.767,130.555,223.755,100.626,-137.918,-193.832,315.346,225.164,149.548,-196.033,-260.773,390.941,338.956,170.553,-210.035,-144.686,649.364,469.244,277.893],[-117.425,-168.729,-109.529,373.463,175.797,-109.21,-179.385,-118.729,334.769,213.511,-124.351,-158.754,-126.331,367.277,150.323,-148.355,-274.694,-112.861,518.996,208.629,-177.974,-303.136,-115.102,569.631,314.762,-242.239,-342.96,-152.849,818.809,424.627]],
"ve": [[2.903,1.306,4.85,31.093,32.294,5.716,2.129,2.158,5.596,40.036,10.876,1.896,-0.981,-2.43,6.431,45.818,14.448,-1.542,-11.655,-19.612,92.938,34.315,9.3,-8.4,-18.323,195.509,79.91,34.163,11.425,-5.131],[7.732,2.119,2.464,1.395,1.518,7.26,5.262,2.524,2.382,1.655,12.684,4.067,4.428,3.128,1.021,52.966,25.959,13.468,9.462,5.857,99.685,48.429,31.559,21.068,13.255,193.044,96.768,59.574,42.088,29.175],[0.503,1.502,2.544,1.474,1.568,7.037,6.046,7.138,2.922,1.625,12.96,8.694,4.287,4.014,4.118,53.02,26.214,16.206,12.592,9.124,100.029,50.259,35.437,25.589,18.783,203.757,102.24,67.932,46.235,36.414],[1.14,1.47,0.232,3.342,0.537,1.646,5.145,3.645,3.969,1.024,23.168,8.26,5.123,4.363,3.66,49.269,25.323,16.354,15.138,11.871,112.453,51.338,36.492,24.59,21.061,203.041,105.409,67.872,50.775,37.146],[-1.59,1.085,2.749,2.71,1.487,10.044,4.399,3.666,1.563,3.202,9.424,6.058,6.213,6.061,3.19,48.938,17.955,18.212,14.046,13.087,102.468,50.746,35.49,27.45,20.12,200.515,98.446,68.069,49.779,39.03],[2.364,3.724,0.935,3.092,2.613,17.062,4.922,5.601,3.698,5.45,11.674,5.672,5.438,3.885,2.805,51.126,28.555,17.731,15.657,9.976,102.265,50.817,31.737,26.827,22.611,199.89,101.302,63.647,52.301,41.406]],
"kep": [[45.09,21.16,23.391,25.536,35.221,39.438,32.308,30.991,40.02,29.371,46.433,37.406,44.95,52.78,46.516,134.292,104.546,107.477,113.617,152.411,208.082,171.11,197.875,208.001,233.716,426.878,339.581,352.904,404.015,460.109],[-9.399,67.703,38.492,27.606,32.872,28.901,67.174,36.522,34.755,28.774,-14.843,56.338,46.425,34.283,26.583,67.334,118.651,57.924,51.965,49.747,70.702,147.053,103.475,90.401,78.952,150.177,220.707,150.07,137.714,133.174],[-129.442,141.433,65.196,43.318,32.231,-144.956,173.105,103.52,48.558,37.711,-156.792,182.414,79.359,52.298,48.614,-137.17,231.256,98.785,69.898,54.049,-169.873,259.005,148.238,98.586,74.751,-133.569,444.993,210.484,121.773,110.241],[-130.293,-52.838,160.31,83.631,47.802,-125.229,-84.62,183.741,97.767,47.106,-130.658,-133.579,180.181,98.872,61.017,-114.925,-92.71,194.482,111.535,77.122,-143.26,-41.542,268.85,115.946,94.997,-140.597,10.054,332.055,180.069,117.167],[-119.038,-159.271,170.38,166.533,87.031,-123.09,-180.072,72.496,143.454,95.627,-115.952,-160.685,103.991,187.071,83.628,-121.764,-164.967,226.146,168.735,111.304,-142.625,-192.951,241.921,226.857,113.528,-132.395,-114.324,326.136,260.023,158.791],[-114.108,-157.543,-102.668,324.72,151.557,-105.501,-166.244,-110.631,287.842,182.378,-118.602,-145.562,-115.772,311.112,126.377,-128.664,-225.378,-103.899,399.479,159.583,-135.5,-222.043,-103.499,394.54,220.796,-143.457,-210.479,-121.069,474,253.445]],
"vp": [[0.001,0.001,0.001,0.001,0.001,0.005,0.005,0.005,0.005,0.005,0.01,0.01,0.01,0.01,0.01,0.05,0.05,0.05,0.05,0.05,0.1,0.1,0.1,0.1,0.1,0.2,0.2,0.2,0.2,0.2],[0.001,0.001,0.001,0.001,0.001,0.005,0.005,0.005,0.005,0.005,0.01,0.01,0.01,0.01,0.01,0.05,0.05,0.05,0.05,0.05,0.1,0.1,0.1,0.1,0.1,0.2,0.2,0.2,0.2,0.2],[0.001,0.001,0.001,0.001,0.001,0.005,0.005,0.005,0.005,0.005,0.01,0.01,0.01,0.01,0.01,0.05,0.05,0.05,0.05,0.05,0.1,0.1,0.1,0.1,0.1,0.2,0.2,0.2,0.2,0.2],[0.001,0.001,0.001,0.001,0.001,0.005,0.005,0.005,0.005,0.005,0.01,0.01,0.01,0.01,0.01,0.05,0.05,0.05,0.05,0.05,0.1,0.1,0.1,0.1,0.1,0.2,0.2,0.2,0.2,0.2],[0.001,0.001,0.001,0.001,0.001,0.005,0.005,0.005,0.005,0.005,0.01,0.01,0.01,0.01,0.01,0.05,0.05,0.05,0.05,0.05,0.1,0.1,0.1,0.1,0.1,0.2,0.2,0.2,0.2,0.2],[0.001,0.001,0.001,0.001,0.001,0.005,0.005,0.005,0.005,0.005,0.01,0.01,0.01,0.01,0.01,0.05,0.05,0.05,0.05,0.05,0.1,0.1,0.1,0.1,0.1,0.2,0.2,0.2,0.2,0.2]]
}