{
"KTrans": [[57.947,29.538,19.693,27.36,21.301,66.324,32.988,31.923,37.242,20.137,80.806,41.149,40.751,31.519,32.507,266.351,129.777,114.346,94.893,102.61,567.378,297.813,228.661,209.042,181.494,1409.192,725.338,517.195,457.184,431.161],[61.802,67.604,38.555,47.146,32.016,89.372,79.17,48.131,38.877,38.022,186.805,96.698,53.736,50.306,35.898,177.36,176.46,109.272,72.189,52.652,632.354,326.002,153.689,133.691,116.744,1413.436,650.498,333.376,257.225,189.197],[-193.223,266.874,119.511,58.26,56.672,-198.234,228.846,86.998,64.59,56.614,-202.238,314.273,112.232,67.669,47.646,-287.386,448.289,160.743,117.647,80.53,-440.768,736.364,250.31,165.933,122.769,-978.129,1206.257,428.436,255.254,183.232],[-171.807,-140.041,215.975,116.293,63.669,-180.583,-44.168,205.815,125.427,57.882,-192.033,-75.42,262.625,135.593,73.71,-264.178,82.203,320.799,173.962,118.28,-284.161,96.74,463.413,199.569,138.036,-654.722,233.563,768.392,345.383,249.787],[-134.553,-261.707,490.783,181.163,121.666,-152.666,-224.387,403.947,238.163,113.964,-158.652,-236.748,248.992,199.827,105.638,-178.181,-258.703,547.305,275.583,133.316,-247.98,-369.643,484.157,340.39,180.042,-392.237,-292.125,1189.117,579.094,326.285],[-138.168,-252.579,-84.918,453.294,160.723,-147.664,-279.212,-140.959,555.626,156.803,-138.849,-238.108,-180.102,599.512,191.466,-169.148,-271.109,-94.842,706.084,262.83,-243.592,-377.798,-18.79,892.637,285.612,-415.384,-584.127,-326.364,1353.242,373.679]],
"ve": [[3.98,1.661,5.491,3.417,102.226,4.883,1.456,1.113,-3.247,18.033,10.451,1.216,-1.959,-1.331,1.024,47.096,12.151,-1.823,-11.745,-19.825,95.996,34.968,8.515,-7.094,-18.989,192.057,81.918,34.899,10.385,-5.812],[2.687,0.674,0.26,2.156,1.308,8.215,3.495,2.729,1.864,1.591,11.328,7.037,4.071,2.961,1.493,49.264,25.58,16.001,8.828,3.805,98.61,53.107,27.759,20.526,14.186,202.646,100.186,60.653,42.79,26.86],[2.829,3.623,4.573,1.351,3.081,10.944,1.822,2.337,2.657,3.802,14.052,7.039,7.385,3.683,2.745,53.468,27.178,18.118,14.74,9.699,100.411,52.395,33.325,26.257,19.167,203.375,100.801,67.473,46.561,34.464],[10.617,0.996,2.134,4.662,0.887,7.511,6.653,3.293,4.919,0.107,13.304,8.727,6.591,6.865,4.029,54.266,27.068,18.389,16.012,12.27,103.617,52.033,33.903,25.549,19.407,201.565,100.835,69.002,49.878,40.585],[4.271,3.276,4.85,1.292,3.62,9.712,4.669,6.182,6.148,3.231,11.831,6.754,6.446,5.983,2.396,49.793,24.16,19.362,15.561,9.312,99.282,52.893,32.439,26.348,19.008,201.64,101.049,69.164,53.5,42.916],[3.719,3.494,2.785,1.699,0.809,7.454,7.063,4.073,5.354,1.691,9.289,7.29,11.732,4.581,4.415,51,26.562,18.263,16.798,14.19,101.275,52.455,33.592,27.585,20.678,199.279,105.168,65.764,53.615,39.443]],
"kep": [[48.297,27.869,21.513,36.759,31.476,52.802,30.492,36.348,50.341,31.555,58.601,38.036,46.236,43.063,51.438,142.29,99.436,114.69,118.663,151.872,234.511,190.29,197.992,227.825,241.884,410.153,349.691,352.259,398.9,457.67],[47.654,56.751,32.056,41.484,29.053,65.728,64.205,38.965,33.116,34.137,139.131,75.822,42.433,42.129,31.694,77.229,111.01,74.212,53.021,42.444,253.413,172.604,90.403,88.815,86.245,391.135,266.305,162.127,144.556,121.746],[-178.777,231.739,101.384,48.82,47.642,-183.305,193.348,72.013,53.444,46.936,-180.028,258.618,90.989,54.578,38.42,-211.479,306.327,110.581,83.597,58.78,-257.917,421.677,149.945,104.14,81.336,-378.066,524.059,206.163,133.143,102.857],[-162.077,-129.045,186.85,98.402,53.706,-167.668,-44.945,174.716,105.041,47.96,-174.142,-73.428,220.027,111.986,59.87,-198.762,41.219,233.828,127.092,86.903,-183.48,29.293,294.933,127.517,90.076,-275.417,65.549,393.485,184.931,140.501],[-128.52,-240.098,427.695,156.36,103.71,-143.576,-204.25,346.194,203.345,95.746,-147.01,-212.81,205.36,167.517,87.507,-145.854,-210.913,405.837,207.681,99.324,-167.706,-261.843,309.348,228.73,120.821,-191.139,-185.054,626.609,325.693,188.827],[-132.859,-234.993,-80.175,397.514,138.795,-139.975,-255.501,-129.108,481.534,134.017,-130.947,-215.936,-163.044,513.017,161.455,-141.325,-222.105,-89.065,549.872,202.771,-166.819,-268.725,-36.601,628.422,199.542,-199.781,-326.052,-219.311,800.925,220.224]],
"vp": [[0.001,0.001,0.001,0.001,0.001,0.005,0.005,0.005,0.005,0.005,0.01,0.01,0.01,0.01,0.01,0.05,0.05,0.05,0.05,0.05,0.1,0.1,0.1,0.1,0.1,0.2,0.2,0.2,0.2,0.2],[0.001,0.001,0.001,0.001,0.001,0.005,0.005,0.005,0.005,0.005,0.01,0.01,0.01,0.01,0.01,0.05,0.05,0.05,0.05,0.05,0.1,0.1,0.1,0.1,0.1,0.2,0.2,0.2,0.2,0.2],[0.001,0.001,0.001,0.001,0.001,0.005,0.005,0.005,0.005,0.005,0.01,0.01,0.01,0.01,0.01,0.05,0.05,0.05,0.05,0.05,0.1,0.1,0.1,0.1,0.1,0.2,0.2,0.2,0.2,0.2],[0.001,0.001,0.001,0.001,0.001,0.005,0.005,0.005,0.005,0.005,0.01,0.01,0.01,0.01,0.01,0.05,0.05,0.05,0.05,0.05,0.1,0.1,0.1,0.1,0.1,0.2,0.2,0.2,0.2,0.2],[0.001,0.001,0.001,0.001,0.001,0.005,0.005,0.005,0.005,0.005,0.01,0.01,0.01,0.01,0.01,0.05,0.05,0.05,0.05,0.05,0.1,0.1,0.1,0.1,0.1,0.2,0.2,0.2,0.2,0.2],[0.001,0.001,0.001,0.001,0.001,0.005,0.005,0.005,0.005,0.005,0.01,0.01,0.01,0.01,0.01,0.05,0.05,0.05,0.05,0.05,0.1,0.1,0.1,0.1,0.1,0.2,0.2,0.2,0.2,0.2]]
}