{
"KTrans": [[-45.185,-76.299,-76.579,-89.856,-89.333,-36.605,-62.346,-72.513,-81.688,-83.344,-25.894,-62.7,-63.199,-54.188,-63.336,54.263,10.202,-4.183,-12.762,-20.22,145.998,84.194,43.174,33.158,24.243,195.273,89.78,106.493,133.636,100.392],[-58.063,-38.788,-50.518,-66.181,-71.06,-58.223,-40.262,-44.14,-60.351,-64.712,-57.611,-28.131,-42.301,-48.924,-65.942,-27.335,-1.927,12.408,-6.229,-29.257,-3.133,25.562,27.363,22.158,-2.259,29.324,77.346,59.405,48.601,7.08],[-72.248,-56.578,-43.358,-38.656,-52.406,-70.653,-53.111,-41.897,-39.209,-43.724,-68.183,-43.459,-38.738,-28.881,-40.559,-55.175,-25.095,-14.865,-7.782,-2.544,-36.573,-16.405,6.211,18.235,14.225,-16.287,12.657,21.256,45.09,31.987],[-78.424,-58.712,-55.741,-48.949,-43.833,-79.451,-57.846,-49.038,-42.084,-42.384,-76.91,-55.482,-42.396,-35.491,-39.641,-67.917,-48.289,-22.983,-25.128,-14.075,-57.947,-35.091,-20.272,-11.422,2.203,-43.528,-11.229,3.714,16.753,22.679],[-84.422,-68.137,-48.27,-47.471,-50.266,-81.957,-64.634,-52.507,-50.981,-39.779,-82.978,-61.796,-51.977,-44.668,-46.782,-73.83,-58.418,-38.251,-29.99,-19.8,-66.961,-47.648,-30.072,-16.9,-10.645,-51.395,-34.131,-10.626,0.746,1.601],[-85.639,-68.545,-53.002,-52.531,-50.973,-85.194,-70.58,-53.176,-39.164,-51.643,-84.962,-70.808,-51.586,-46.743,-38.456,-79.1,-64.172,-44.224,-27.357,-14.55,-73.218,-58.745,-36.282,-18.443,-15.14,-61.975,-39.738,-14.294,-6.665,-9.357]],
"ve": [[-93.12,-36.31,-39.781,-58.866,-44.043,-59.497,-46.101,-52.955,-108.057,-71.107,-45.802,-94.306,-95.8,-45.475,-754.493,9.377,6.316,59.945,-17.682,45.862,148.453,4.602,41.668,427.977,11.842,174.146,35.939,36.912,38.773,-353.721],[-1.281,-35.299,-50.267,149.462,-60.533,-38.5,-32.854,-579.258,79.127,-61.776,-78.142,-26.947,-54.443,-30.599,-41.105,70.368,8.465,10.92,-18.348,-27.343,84.889,52.769,37.086,17.214,-13.712,165.839,108.521,32.58,55.305,43.12],[-3.49,-82.347,-48.14,-24.466,-57.254,-24.41,-48.939,-57.041,-45.365,-21.16,524.775,-57.33,-25.895,-14.503,-37.724,19.275,5.16,-12.81,-8.5,-3.202,124.6,25.698,18.088,37.032,16.207,216.305,62.017,41.988,37.78,27.161],[-10.145,-57.759,-102.924,-77.954,-43.481,-32.942,-37.971,-79.668,-61.062,-52.104,4.495,-91.554,-71.514,-55.897,-41.119,61.407,-23.817,-24.976,-41.851,-14.047,140.136,41.529,-26.202,-9.307,5.988,1083.716,48.478,24.471,39.527,18.757],[13.782,-46.565,-86.606,-88.153,-88.806,23.644,-54.744,-90.472,-90.524,-62.306,6.877,-49.758,-75.129,-85.757,-81.236,83.234,-10.842,-44.203,-55.128,-36.054,128.581,23.435,-76.295,-11.058,-24.282,249.965,33.457,11.273,0.204,-2.529],[27.869,-31.584,-63.079,-125.011,-100.355,-57.958,-20.103,-85.811,-66.318,-111.238,25.605,-52.235,-76.701,-93.227,-78.029,108.752,4.879,-31.468,-45.328,-15.719,135.894,19.944,-27.215,0.424,-30.396,221.495,95.272,10.84,-3.628,-24.965]],
"kep": [[-136.423,-95.873,-29.581,23.875,-1.798,-117.076,-89.765,-38.67,4.724,-2.197,-144.388,-78.916,-37.797,-26.112,-36.465,-133.623,-87.891,-61.305,-26.205,-2.673,-128.219,-116.958,-56.279,-37.965,4.901,-65.648,-55.291,-63.785,-96.122,-17.914],[-90.825,-90.497,-119.184,-73.367,-22.976,-93.29,-96.55,-134.159,-46.69,-2.008,-84.562,-99.401,-136.089,-76.095,-7.692,-96.496,-91.716,-125.864,-69.167,-17.795,-87.574,-76.327,-114.511,-80.779,-35.796,-76.384,-76.813,-68.821,-91.413,-32.267],[-100.815,-58.887,-59.384,-92.95,-121.488,-91.796,-71.935,-57.955,-75.771,-128.659,-93.86,-68.684,-52.792,-84.638,-108.496,-92.143,-58.65,-58.947,-74.272,-118.39,-93.252,-62.13,-47.609,-77.941,-94.042,-87.308,-55.099,-45.216,-57.691,-61.865],[-98.904,-64.835,-30.982,-27.505,-41.216,-97.501,-69.332,-33.856,-26.63,-36.397,-99.942,-63.721,-39.753,-24.193,-37.258,-95.812,-62.818,-34.784,-16.455,-36.621,-95.229,-66.267,-30.536,-33.758,-48.98,-93.078,-62.457,-37.385,-25.355,-23.684],[-99.514,-75.97,-30.739,-19.592,-9.77,-99.02,-70.901,-34.656,-19.183,-11.926,-98.853,-72.88,-40.258,-16.647,-10.934,-98.439,-74.852,-39.026,-14.049,-6.416,-97.909,-72.192,-32.106,-26.164,-2.815,-95.999,-66.455,-40.738,-16.333,-16.797],[-101.149,-79.251,-44.865,-13.828,-12.582,-102.244,-83.514,-39.722,-18.799,-1.426,-101.32,-77.11,-40.492,-20.892,-11.337,-100.457,-79.929,-45.387,-18.285,-13.671,-98.928,-75.713,-48.253,-17.339,-3.057,-94.405,-78.188,-36.97,-15.956,-9.513]],
"vp": [[532.3,-84.673,268.761,59.398,601.79,-25.047,-85.757,-1.121,121.689,137.011,3.77,-18.156,43.686,58.007,-16.026,-4.693,-12.66,-6.915,-2.564,-7.107,3.552,-0.611,1.027,-5.11,14.948,-5.963,3.743,-6.163,-3.565,2.55],[2428.714,1795.794,279.316,356.627,-407.936,468.297,215.398,31.536,-3.412,16.749,169.425,129.322,1.64,-26.054,-51.297,63.683,14.736,-8.42,-11.544,14.902,25.401,-2.807,5.947,2.709,-6.711,4.515,-1.649,-2.706,-6.609,4.745],[5313.745,2448.972,1997.53,689.431,-279.023,918.376,645.241,408.932,116.817,20.55,470.025,340.741,149.994,166.343,-7.463,100.113,51.633,22.698,5.486,-11.287,40.052,32.845,15.082,8.3,-7.366,13.619,9.069,-0.844,-2.091,-8.573],[6073.807,4740.02,1615.175,736.554,1346.304,1269.457,1114.846,484.687,284.044,164.592,670,489.102,338.166,103.935,47.047,116.388,99.316,49.523,-5.387,30.138,51.313,54.468,11.984,9.91,2.298,23.526,14.47,4.524,-10.327,-7.999],[6762.992,7236.703,2774.185,2124.832,1004.367,1468.329,1305.179,607.092,378.814,295.427,681.008,680.94,433.619,115.552,39.683,128.36,143.653,80.601,32.238,9.454,64.869,63.634,31.863,33.136,-7.601,15.608,18.252,14.598,1.351,0.28],[7959.519,8783.004,5823.278,1533.85,1271.754,1596.399,1847.046,989.691,630.449,51.497,745.387,802.894,577.834,208.443,122.482,151.334,170.045,124.761,37.629,43.357,65.59,71.462,53.767,29.668,16.365,18.094,43.351,5.862,15.879,-5.657]]
}