{
"KTrans": [[2.498,3.879,2.702,3.631,2.801,13.277,12.752,6.896,6.379,10.948,33.241,18.088,15.526,12.47,12.187,127.392,103.875,78.329,72.343,64.143,74.22,166.344,162.566,139.114,140.885,112.996,33.613,167.664,183.005,222.264],[-6.112,4.088,2.9,2.765,1.632,4.402,9.826,6.906,5.631,4.234,10.04,14.811,10.191,8.65,7.461,21.411,70.171,47.029,42.336,34.572,17.142,121.573,112.463,93.265,76.824,-13.307,84.348,120.845,157.994,142.779],[-26.589,8.937,4.045,3.075,3.019,-27.843,14.665,8.123,6.082,5.559,-26.093,15.217,13.378,7.081,7.868,-27.818,81.791,46.953,34.838,30.658,-18.706,69.674,106.231,79.723,61.318,-16.275,13.397,-36.461,154.2,144.37],[-56.459,1.82,6.452,3.147,4.12,-49.47,7.564,8.52,5.961,6.058,-49.907,14.761,11.972,9.588,5.32,-30.312,65.678,51.835,32.99,27.374,-69.203,29.794,131.439,94.235,64.809,3.256,33.834,-8.604,122.451,151.463],[-68.313,-0.927,7.612,5.076,3.697,-79.214,3.939,11.389,4.898,6.025,-66.935,15.014,14.148,12.915,7.19,-66.038,16.645,65.711,41.325,28.591,-77.116,-28.577,92.736,81.434,58.058,-30.727,-20.33,21.404,65.687,125.511],[-83.456,-3.239,6.09,4.043,3.052,-84.697,-0.32,12.279,8.285,7.582,-85.823,2.51,13.238,9.775,8.05,-76.478,-4.674,73.368,36.728,29.391,-66.339,-45.72,61.959,95.668,59.438,-63.328,-1.362,-24.233,40.434,122.765]],
"ve": [[3.318,2.076,5.786,3.625,-5.318,5.544,2.238,3.966,2.067,-0.718,10.46,5.926,1.78,1.595,-1.308,43.025,13.857,1.04,-10.541,-17.242,94.046,36.605,10.987,-3.389,-15.927,187.026,75.039,32.201,6.644,-28.185],[1.739,1.615,0.726,0.2,-0.39,8.262,2.31,1.114,0.603,-0.089,8.008,5.265,3.235,2.345,0.694,49.918,23.653,13.692,8.835,5.021,99.752,47.477,30.155,19.896,12.937,199.222,97.512,59.47,45.376,30.03],[3.709,1.4,0.287,-0.331,-0.257,5.892,2.464,1.37,0.845,0.231,9300.456,4.642,2.915,2.08,1.242,47.4,24.519,15.763,11.726,7.924,99.071,50.146,31.623,22.789,17.217,204.488,100.953,66.246,54.1,36.568],[3.072,0.792,-0.36,0.191,-0.013,11.889,2.827,1.594,0.597,0.295,14.033,4.778,3.173,2.236,1.788,50.804,25.945,16.479,11.584,9.297,100.186,51.816,32.478,24.842,18.424,195.017,97.168,65.074,29.659,38.966],[13.276,0.334,0.844,-0.642,-0.112,-11.716,3.058,0.938,0.899,0.971,13.2,6.537,3.308,2.022,1.863,38.347,26.675,16.819,11.771,9.122,96.681,49.926,33.86,24.158,18.627,199.134,98.352,65.184,38.725,38.715],[879.829,-0.193,0.599,0.185,-0.077,41.121,3.401,1.027,1.198,0.647,13.248,5.812,3.611,2.609,1.843,48.368,24.742,17.513,11.926,9.805,99.78,50.323,34.169,23.932,19.082,203.724,95.478,65.685,48.628,38.812]],
"kep": [[2.045,4.466,3.35,6.286,7.463,10.234,13.172,7.432,10.285,21.682,23.113,14.899,18.565,18.143,22.87,55.024,80.206,78.604,96.29,102.109,-2.811,95.299,139.192,153.169,189.725,-6.497,-14.155,99.802,141.726,229.607],[-7.319,2.773,2.382,2.901,2.278,-2.242,7.469,6.02,5.202,4.566,-1.496,9.431,6.962,6.452,6.97,-17.643,37.271,29.361,30.864,28.304,-35.437,47.662,62.295,60.677,56.557,-61.086,3.899,38.309,76.74,85.695],[-28.667,7.663,3.868,3.486,3.409,-33.607,12.09,6.724,5.266,5.401,-34.846,10.355,10.224,5.054,6.672,-51.126,44.797,26.874,20.716,21.108,-54.589,12.446,54.719,45.519,37.331,-64.436,-34.923,-54.3,68.89,76.819],[-58.527,1.16,6.921,3.023,4.202,-54.269,4.437,6.976,5.377,5.769,-55.964,9.408,8.542,7.234,3.543,-52.305,30.583,29.859,19.009,16.446,-80.277,-11.88,71.711,54.134,38.641,-60.906,-26.413,-38.169,47.038,78.245],[-70.13,-1.585,6.672,5.826,3.851,-81.453,0.508,10.312,3.969,5.04,-70.812,8.421,10.406,10.686,5.253,-76.173,-8.412,40.58,26.125,17.713,-85.411,-48.144,41.69,44.419,32.631,-73.133,-54,-21.394,13.182,59.662],[-83.836,-5,5.312,3.88,3.176,-85.238,-3.818,10.981,6.982,6.89,-87.152,-3.508,9.159,6.959,6.098,-82.634,-23.292,46.101,21.731,17.682,-81.047,-60.361,19.19,55.193,33.102,-84.772,-46.179,-48.766,-2.764,57.183]],
"vp": [[65.831,-131.314,-162.263,-147.214,161.219,2.31,28.228,61.481,-3.044,14.466,29.34,34.885,23.579,28.356,1.009,20.139,11.698,7.797,13.896,18.106,-0.871,-14.072,-7.036,-10.368,4.842,13.712,-0.989,-10.798,-7.455,-9.618],[4470.394,867.699,311.381,119.487,304.43,881.328,109.17,60.305,21.068,47.059,372.884,43.618,-11.086,14.673,22.99,84.842,1.03,-14.945,30.101,24.454,19.377,10.709,16.45,29.678,33.735,27.316,6.868,-5.452,0.005,-7.822],[7748.214,1654.812,403.611,364.856,-60.303,1481.029,132.639,85.737,79.606,-11.175,774.846,200.705,142.141,19.712,67.171,141.465,37.012,18.107,6.781,25.206,69.493,35.971,-6.818,18.115,13.39,54.795,33.266,28.069,11.611,11.802],[8801.678,3933.932,526.981,29.66,276.597,1774.467,983.913,251.938,-42.76,114.117,866.234,549.385,86.671,17.887,-18.138,168.664,109.179,51.972,10.081,9.798,111.177,57.591,32.074,51.04,35.025,16.792,8.867,14.74,15.444,29.126],[9294.542,10140.05,2391.622,-741.056,384.393,2029.665,2261.077,168.508,-98.721,136.322,1019.769,1013.958,214.065,14.791,-5.039,200.677,207.328,83.964,59.729,3.151,131.812,98.496,96.563,3.415,9.063,51.5,36.726,20.856,0.261,-5.167],[9947.993,16156.26,3871.841,1239.145,-35.159,1924.259,2831.692,907.117,99.493,-63.633,1046.577,1470.947,331.697,130.536,0.301,225.799,266.207,207.135,39.368,21.961,118.025,122.836,79.788,23.329,-3.566,60.098,49.434,40.368,-7.6,-2.651]]
}