{
"KTrans": [[-55.103,-77.004,-81.731,-83.47,-75.07,-37.946,-67.511,-72.449,-73.448,-63.963,-33.683,-60.196,-53.224,-78.15,-67.282,23.499,-12.219,-45.994,-22.964,-14.336,78.234,25.902,18.323,20.297,26.428,128.523,126.135,109.012,148.084,107.629],[-52.476,-42.034,-51.837,-71.22,-70.122,-54.848,-40.844,-42.522,-54.093,-58.642,-49.12,-41.872,-36.285,-43.424,-61.032,-33.372,-4.616,4.717,-18.598,-39.971,4.284,18.071,32.299,-2.408,-18.755,24.682,48.042,3.607,-11.627,9.41],[-69.579,-53.632,-43.494,-34.336,-40.892,-68.643,-51.589,-39.919,-39.299,-44.083,-67.671,-48.493,-38.217,-35.715,-30.408,-58.008,-31.93,-17.61,-13.253,-11.91,-36.635,-14.212,1.743,11.607,-1.584,-29.043,20.803,28.388,23.437,12.382],[-79.093,-54.062,-54.254,-45.901,-45.595,-76.652,-53.285,-46.8,-42.354,-40.159,-77.627,-54.547,-41.456,-42.209,-43.203,-68.601,-44.33,-31.029,-31.436,-24.047,-60.211,-35.847,-17.274,-18.321,-12.14,-26.698,-4.484,5.954,18.185,19.701],[-84.485,-61.553,-45.612,-42.499,-52.521,-82.529,-62.605,-45.869,-47.772,-48.471,-81.251,-62.336,-44.478,-45.456,-39.277,-73.765,-52.799,-41.21,-31.996,-22.922,-68.002,-44.659,-27.862,-25.351,-20.744,-47.675,-17.469,4.681,6.469,9.9],[-87.375,-71.639,-53.241,-43.916,-44.238,-86.544,-68.349,-53.408,-40.252,-52.253,-85.532,-64.73,-50.834,-43.891,-33.525,-81.597,-64.651,-44.297,-33.62,-32.746,-72.311,-51.764,-31.242,-26.69,-26.048,-62.283,-24.76,-23.949,-11.495,-7.963]],
"ve": [[-46.463,-36.796,-44.635,-102.174,-38.339,-24.47,-584.22,9.091,-33.58,-18.717,-31.936,-23.95,-59.797,12.859,134.599,4.487,-252.633,41.739,-44.495,-34.805,68.377,-4.27,-21.087,-180.656,-9.399,258.8,66.587,-67.82,-10.437,80.131],[-14.27,-41.371,-45.964,-63.449,-40.066,-45.91,-28.813,-52.32,-30.171,-93.203,58.268,-57.044,-37.093,-31.961,-57.182,-44.344,19.531,5.48,-22.372,-8.745,93.102,27.498,25.665,-147.262,-16.109,154.113,83.065,38.602,22.252,-4.499],[-30.153,-73.386,-56.558,-33.194,-43.694,-55.346,-58.333,-49.688,-45.841,-37.784,7.912,-65.119,-64.781,-31.764,-27.408,35.777,-36.585,-13.101,-20.186,-10.956,106.868,7.023,-1.905,16.799,0.1,124.09,40.811,47.675,30.058,23.103],[-119.02,-63.527,-94.922,-72.036,-56.436,-8.145,-47.901,-80.291,-66.912,-52.167,-78.243,-52.414,-65.594,-88.093,-63.481,59.962,-20.212,-49.275,-46.272,-12.869,24.993,-1.493,-15.725,-34.6,-70.622,259.909,36.413,22.775,21.973,22.95],[-34.494,-46.462,-69.539,-84.726,-94.144,-0.607,-42.137,-73.068,-82.855,-84.173,22.388,-125.914,-82.561,-87.797,-75.162,33.081,-29.626,-68.843,-53.028,-4.719,117.648,6.645,-30.786,-53.528,-35.943,246.474,94.33,2.841,20.698,1.584],[3.748,-44.414,-80.025,-82.881,-90.044,7.843,-36.786,-98.715,-78.349,-112.967,20.049,-15.078,-84.465,-88.323,-64.137,71.306,34.745,-75.146,-75.039,-73.304,241.602,16.281,-20.941,-70.435,-60.476,257.693,160.035,-27.981,-30.195,-21.039]],
"kep": [[-120.06,-54.898,-10.329,-15.069,18.664,-117.919,-81.069,-7.676,-6.748,-6.495,-118.292,-34.9,-14.796,21.731,-35.662,-109.89,-67.518,15.812,-22.505,-15.76,-106.867,-71.748,-63.809,-46.734,-54.659,-68.757,-110.032,-131.196,-160.324,-95.269],[-92.154,-89.772,-132.662,-53.765,19.711,-88.554,-81.342,-109.319,-55.724,11.496,-87.481,-88.223,-124.647,-63.923,20.375,-81.716,-73.425,-116.972,-82.027,-30.082,-73.91,-59.883,-97.352,-77.474,-45.195,-69.045,-59.323,-37.926,-59.342,-56.03],[-95.331,-53.557,-42.145,-76.025,-126.613,-89.348,-59.752,-40.562,-74.174,-124.246,-95.328,-53.37,-34.074,-89.736,-106.519,-88.618,-50.242,-40.786,-48.936,-113.151,-88.708,-54.539,-47.958,-66.574,-80.305,-75.612,-45.169,-38.012,-26.545,-69.189],[-98.523,-53.752,-25.912,-16.825,-41.605,-93.365,-58.176,-26.986,-23.119,-39.403,-96.309,-59.369,-28.664,-16.1,-15.782,-91.724,-64.605,-27.624,-21.24,-38.326,-88.066,-61.641,-38.05,-14.487,-25.37,-88.316,-50.139,-40.122,-35.641,-33.785],[-97.394,-66.766,-32.312,-7.693,-7.776,-99.192,-64.698,-28.966,-16.56,-6.665,-98.572,-69.333,-24.635,-13.405,-0.034,-94.132,-61.032,-27.398,-15.996,-13.098,-96.735,-70.804,-35.546,-14.69,-15.628,-89.313,-71.01,-32.747,-34.553,-18.574],[-99.931,-73.255,-39.713,-16.652,-3.84,-99.975,-72.746,-34.316,-15.335,-2.121,-98.707,-73.642,-35.368,-18.021,-9.772,-98.521,-73.166,-37.752,-13.771,-6.738,-97.002,-68.914,-40.378,-6.077,-7.536,-93.665,-67.456,-43.56,-29.637,-14.325]],
"vp": [[-187.741,-275.126,-148.195,204.663,428.405,8.571,-19.993,-51.278,-51.904,88.372,-19.237,20.917,88.143,70.934,-3.669,-14.51,6.834,42.477,10.716,1.114,-8.473,9.716,-3.653,-22.425,6.839,4.997,-3.574,-0.121,-4.925,4.923],[2797.766,1346.014,-135.723,-311.38,772.427,481.86,180.263,2.941,13.617,82.631,276.963,81.108,6.085,11.395,74.589,15.626,10,11.076,-10.655,-5.667,6.234,-4.334,-1.286,4.699,-24.569,7.114,-12.692,12.471,17.656,2.5],[5165.145,2632.724,1826.606,1258.111,262.68,870.384,529.28,296.877,204.249,-2.607,469.57,214.776,75.07,68.877,66.033,90.108,35.245,16.832,17.199,-33.119,30.462,22.127,17.755,6.961,-4.83,17.502,-12.484,-11.091,-9.442,-7.744],[5792.527,4088.526,1907.055,1540.021,709.529,1023.368,952.285,349.131,182.454,225.713,559.319,456.11,250.708,73.393,6.398,90.662,75.166,33.94,3.905,18.271,38.423,40.351,11.746,-4.437,-2.215,3.186,-3.38,6.179,-16.462,8.087],[6670.129,6963.403,4082.842,2060.914,140.231,1462.132,1248.587,729.982,312.97,-14.784,648.436,640.054,221.586,114.873,27.706,124.453,113.958,53.633,35.023,6.613,58.606,53.991,24.858,13.97,3.317,13.221,11.008,-1.898,-2.127,-10.743],[7437.024,7454.174,5126.048,3254.118,1470.962,1375.551,1579.543,626.346,554.454,72.537,674.901,905.236,454.873,220.868,195.283,141.974,155.088,85.087,22.127,-7.109,64.828,59.41,32.632,18.892,-9.651,26.522,16.271,15.116,2.636,-6.571]]
}