{
"KTrans": [[7.198,1.744,2.836,4.233,1.415,13.794,7.059,6.683,7.204,4.44,24.53,20.153,12.102,11.694,14.085,173.386,95.842,76.279,67.528,59.829,420.968,220.218,180.67,153.688,146.454,1149.532,581.601,456.785,395.473,361.308],[4.64,4.058,3.646,0.889,3.608,16.201,5.712,5.585,3.149,4.139,28.482,13.458,11.815,8.69,8.284,144.435,69.894,45.806,37.451,32.413,335.101,147.978,96.408,81.211,68.58,860.928,366.703,233.636,182.437,153.416],[-8.506,6.052,3.856,3.172,2.242,-1.178,11.424,7.323,2.543,3.918,8.666,16.096,9.046,9.348,7.17,108.141,68.655,45.781,34.098,24.769,271.104,145.868,93.742,70.645,59.004,795.169,341.223,208.798,154.172,122.951],[-18.488,1.704,4.858,4.878,1.126,-20.659,8.608,11.938,5.303,4.983,-5.708,22.966,9.015,6.501,9.207,66.718,63.304,46.16,32.011,29.329,192.871,135.566,92.303,67.501,53.805,560.027,327.474,212.965,145.944,119.327],[-41.385,12.902,7.484,3.544,7.436,-30.832,12.737,11.566,8.632,4.356,-27.622,26.994,8.696,8.551,12.331,32.022,74.022,45.359,34.199,27.526,134.192,146.767,94.182,63.855,50.78,430.878,338.873,214.243,142.593,113.559],[-56.059,7.417,9.309,10.326,-0.49,-44.612,19.693,12.517,13.573,5.886,-42.355,24.83,13.224,15.014,9.166,25.155,65.619,45.487,31.96,27.681,85.057,142.898,87.188,67.094,55.711,324.684,318.767,192.116,146.567,110.81]],
"ve": [[1.218,1.104,0.912,0.231,3.649,5.751,1.677,0.032,0.385,-0.006,8.679,2.159,-1.279,-3.3,-7.176,46.029,13.646,-1.21,-10.489,-17.745,94.271,32.854,8.42,-7.7,-18.447,192.262,78.146,35.309,10.171,-6.52],[1.28,0.798,0.501,0.45,-0.026,5.218,2.583,1.238,1.014,0.85,11.751,4.857,2.893,1.727,1.009,50.628,23.873,14.073,8.996,5.525,100.142,47.815,28.757,19.195,12.324,199.751,97.294,60.748,41.639,28.764],[1.637,0.246,0.844,0.556,0.018,6.566,2.682,1.703,0.988,0.893,11.235,4.776,3.277,2.631,1.797,50.354,24.585,16.195,11.366,8.22,100.725,50.05,32.108,23.274,17.491,201.275,99.129,64.531,46.682,35.472],[2.231,0.179,0.746,0.422,0.32,3.681,2.59,2.088,1.286,0.846,11.368,5.638,3.104,2.118,2.279,50.406,25.146,16.165,11.756,9.559,101.478,49.869,32.898,23.934,18.833,198.854,99.953,65.764,47.834,38.045],[3.312,0.73,0.514,-0.055,0.631,6.466,2.512,2.154,1.541,1.094,11.153,5.668,2.749,2.324,2.518,49.625,25.635,16.516,12.48,9.707,100.246,49.803,33.147,24.229,18.825,202.627,99.848,66.74,49.177,38.773],[1.868,0.737,0.593,0.893,-0.096,6.475,3.255,1.708,2.168,1.012,12.533,5.341,3.294,2.88,1.916,51.836,25.162,16.65,12.273,9.588,102.116,50.484,32.563,24.538,19.832,200.589,99.837,65.948,49.146,39.278]],
"kep": [[6.628,1.704,3.204,6.091,1.905,7.937,6.165,8.267,8.913,7.576,14.786,18.344,14.713,17.481,25.444,87.411,72.677,78.905,88.052,95.613,168.403,141.262,159.033,175.435,202.632,327.634,282.658,311.612,349.827,393.54],[2.862,3.066,2.974,0.385,3.648,10.146,2.879,4.179,2.077,3.32,14.552,7.999,8.556,6.759,7.185,61.915,37.007,27.619,25.944,25.428,116.902,67.511,52.356,51.853,49.996,220.132,136.463,107.325,99.205,96.619],[-10.224,5.289,2.712,2.4,2.064,-7.625,7.987,5.213,1.36,2.826,-2.883,10.385,5.268,6.325,5.086,37.836,34.892,25.14,20.119,15.065,84.787,63.431,46.383,38.186,35.14,196.773,121.132,87.376,73.056,64.315],[-20.385,1.088,3.603,4.08,0.559,-25.749,5.174,9.214,3.693,3.795,-15.526,15.579,5.336,3.91,6.488,10.489,29.984,25.248,17.794,17.756,45.04,56.538,44.222,34.803,29.141,118.921,113.142,88.23,65.934,58.555],[-43.264,11.215,6.198,3.122,6.368,-35.037,9.236,8.558,6.546,2.863,-35.161,19.168,5.165,5.673,9.232,-13.075,37.69,24.104,18.831,15.843,16.505,63.841,45.175,31.446,26.549,75.399,118.461,87.859,62.23,53.563],[-57.251,5.547,7.876,8.78,-0.769,-47.948,14.823,9.887,10.497,4.411,-48.316,17.251,8.927,11.227,6.582,-17.376,31.403,24.134,17.024,16.042,-8.502,60.636,40.43,33.527,29.517,40.734,108.717,75.442,64.741,50.845]],
"vp": [[0.001,0.001,0.001,0.001,0.001,0.005,0.005,0.005,0.005,0.005,0.01,0.01,0.01,0.01,0.01,0.05,0.05,0.05,0.05,0.05,0.1,0.1,0.1,0.1,0.1,0.2,0.2,0.2,0.2,0.2],[0.001,0.001,0.001,0.001,0.001,0.005,0.005,0.005,0.005,0.005,0.01,0.01,0.01,0.01,0.01,0.05,0.05,0.05,0.05,0.05,0.1,0.1,0.1,0.1,0.1,0.2,0.2,0.2,0.2,0.2],[0.001,0.001,0.001,0.001,0.001,0.005,0.005,0.005,0.005,0.005,0.01,0.01,0.01,0.01,0.01,0.05,0.05,0.05,0.05,0.05,0.1,0.1,0.1,0.1,0.1,0.2,0.2,0.2,0.2,0.2],[0.001,0.001,0.001,0.001,0.001,0.005,0.005,0.005,0.005,0.005,0.01,0.01,0.01,0.01,0.01,0.05,0.05,0.05,0.05,0.05,0.1,0.1,0.1,0.1,0.1,0.2,0.2,0.2,0.2,0.2],[0.001,0.001,0.001,0.001,0.001,0.005,0.005,0.005,0.005,0.005,0.01,0.01,0.01,0.01,0.01,0.05,0.05,0.05,0.05,0.05,0.1,0.1,0.1,0.1,0.1,0.2,0.2,0.2,0.2,0.2],[0.001,0.001,0.001,0.001,0.001,0.005,0.005,0.005,0.005,0.005,0.01,0.01,0.01,0.01,0.01,0.05,0.05,0.05,0.05,0.05,0.1,0.1,0.1,0.1,0.1,0.2,0.2,0.2,0.2,0.2]]
}