{
"KTrans": [[-51.908,-55.942,-94.437,-95.948,-98.704,-52.814,-68.312,-59.523,-87.098,-82.993,-41.989,-72.916,-77.63,-71.819,-79.787,-4.606,7.049,-35.361,-39.978,-38.677,55.224,48.567,32.024,6.445,20.923,101.685,139.814,126.114,88.377,154.455],[-59.638,-48.872,-50.851,-61.113,-66.977,-54.815,-40.116,-43.868,-58.352,-66.743,-60.574,-36.452,-45.337,-58.182,-61.601,-34.718,-13.689,-14.461,-18.328,-49.424,-14.959,4.34,17.944,-19.346,-25.254,11.836,63.836,48.616,8.109,35.57],[-72.47,-54.17,-48.779,-44.652,-59.715,-72.518,-50.528,-52.286,-37.676,-45.948,-67.673,-51.561,-38.307,-35.287,-56.571,-61.383,-40.797,-25.656,-23.373,-27.313,-44.016,-17.507,-4.41,-9.108,-1.601,-32.308,-6.218,8.873,1.678,-8.334],[-81.012,-62.617,-52.561,-42.865,-47.437,-79.7,-61.486,-46.106,-42.208,-44.884,-78.542,-61.529,-48.304,-47.141,-47.044,-70.542,-49.728,-38.756,-33.73,-24.655,-67.52,-32.055,-25.033,-21.701,-19.723,-50.022,-25.052,11.137,22.125,8.49],[-86.487,-66.817,-56.325,-54.951,-47.993,-83.163,-68.529,-49.942,-42.498,-41.452,-85.009,-68.432,-52.302,-45.94,-47.439,-76.35,-58.123,-49.071,-45.386,-38.597,-70.497,-47.715,-33.876,-22.605,-19.751,-61.755,-52.888,-16.444,-7.672,17.024],[-87.337,-72.474,-58.237,-51.068,-53.389,-86.025,-74.784,-60.411,-50.862,-48.148,-87.271,-71.76,-58.598,-48.692,-47.224,-81.463,-66.893,-48.251,-44.178,-29.647,-77.167,-58.236,-33.689,-32.222,-28.581,-74.893,-48.82,-20.781,-13.336,-8.905]],
"ve": [[-23.936,-99.487,17.988,42.728,-14.067,-83.149,-48.236,-90.431,-56.881,-70.781,-83.12,-36.692,-2679.063,-57.143,-42.242,-151.771,-1.818,59.176,-39.787,31.437,72.783,-17.133,-19.821,-40.04,26.263,72.24,105.723,9.901,-4.565,-11.836],[-22.624,-49.841,-66.434,-45.774,149.046,-10.044,-56.808,-41.067,-101.695,-96.506,-107.849,-38.561,-45.564,-152.678,12.269,-45.939,-5.017,-14.723,-8.558,-33.095,98.728,-31.611,19.432,-7.51,47.445,237.696,132.806,65.98,-0.486,11.539],[-14.912,-35.818,-2948.597,-37.928,-56.048,-2.985,-62.774,-54.966,-31.163,-57.292,1.132,-21.632,-28.93,-36.869,-59.686,43.218,-54.319,-67.361,-13.972,-29.58,55.548,-40.366,12.351,6.667,-4.138,322.058,53.617,46.711,6.347,13.042],[-16.971,-107.592,-111.485,-44.433,-32.685,-5.246,-47.474,-46.332,-43.576,-59.541,21.289,-21.943,6.128,-49.456,-60.157,103.846,-20.905,-53.943,-55.314,-33.375,18.761,33.591,-12.687,-27.387,-22.189,230.731,78.129,85.332,58.804,9.396],[-284.955,-29.216,-92.548,-85.094,-73.253,-11.988,-40.32,-38.211,-67.705,-66.273,-22.537,-39.455,-59.59,-67.784,-77.594,99.471,44.471,-58.863,-75.937,-38.566,102.626,53.443,-36.163,-21.731,-152.552,250.003,-39.574,18.744,-2.442,43.059],[21.234,21.889,-42.88,-93.379,-93.858,-39.545,-47.254,-53.268,-73.103,-82.816,17.822,-23.824,20.186,-59.636,-73.997,49.668,19.83,4.08,-88.075,-41.728,92.619,70.146,7.661,-105.789,-50.54,180.929,55.584,41.517,-17.149,-7.571]],
"kep": [[-125.905,-125.682,-8.833,-27.398,15.242,-112.612,-103.225,-108.942,-39.727,-36.956,-120.426,-96.223,-43.061,-77.988,-41.252,-105.973,-115.555,-133.873,-42.253,-1.951,-94.17,-117.066,-143.298,-124.771,-177.01,-106.24,-125.23,-179.878,-178.202,-213.763],[-104.193,-104.45,-124.926,-81.669,-46.472,-96.815,-94.168,-107.217,-88.65,-45.042,-96.218,-98.566,-123.542,-83.112,-49.314,-90.966,-97.779,-117.662,-116.549,-24.916,-98.157,-81.128,-108.885,-108.05,-58.647,-88.759,-76.191,-89.672,-99.37,-123.582],[-101.293,-88.038,-77.515,-88.066,-107.702,-99.17,-76.923,-75.708,-102.624,-119.385,-98.258,-87.418,-79.156,-99.7,-105.797,-97.234,-70.565,-77.733,-90.576,-97.419,-94.358,-83.955,-70.261,-80.086,-124.095,-91.861,-59.095,-58.268,-55.474,-86.161],[-101.099,-81.714,-54.138,-57.235,-62.977,-99.878,-80.263,-73.701,-45.765,-64.336,-98.377,-90.097,-61.35,-48.985,-55.628,-99.877,-80.505,-54.492,-56.098,-71.653,-98.61,-82.58,-60.16,-60.723,-54.467,-97.356,-74.914,-71.863,-56.133,-47.581],[-100.403,-82.323,-62.58,-41.849,-37.102,-100.267,-86.553,-65.586,-36.59,-32.452,-100.3,-84.172,-63.276,-42.345,-29.76,-99.223,-83.298,-60.203,-46.404,-35.577,-97.087,-86.122,-56.411,-44.1,-40.493,-97.746,-69.496,-51.392,-40.371,-45.624],[-99.315,-92.733,-72.898,-40.559,-31.25,-101.799,-89.444,-67.68,-46.496,-30.577,-98.782,-94.074,-70.405,-44.789,-33.18,-98.732,-91.565,-70.978,-42.709,-36.112,-99.405,-91.82,-65.513,-49.867,-32.474,-97.759,-79.16,-65.905,-39.598,-34.89]],
"vp": [[116.606,-597.93,614.961,447.713,297.77,-12.553,77.379,-32.821,-19.717,97.993,-54.304,14.003,65.808,24.41,-61.359,-17.522,15.123,-25.407,7.895,3.367,4.457,-16.384,-10.984,-13.743,-5.905,-9.464,-9.088,-8.858,0.47,-8.748],[2799.79,1542.816,663.557,-123.268,300.528,637.749,203.688,45.021,-117.882,-3.567,216.148,120.132,-64.286,44.042,-2.145,31.009,7.502,-32.204,-18.92,3.808,8.301,-17.544,-11.416,-2.592,16.618,-6.223,-36.077,-18.573,10.382,-11.316],[4553.694,3027.897,1878.941,1583.439,-539.484,959.34,724.562,214.229,340.161,18.122,437.095,515.675,237.694,119.7,-135.846,76.783,41.66,-3.695,-11.439,6.79,28.403,15.032,-9.775,-12.005,17.902,26.637,-1.764,-16.164,-20.259,-1.997],[6093.954,6770.833,3186.218,3053.593,1630.901,1104.129,1238.907,925.017,452.668,278.299,633.328,617.745,442.931,221.442,98.99,124.49,79.511,15.263,54.9,25.585,56.718,41.257,18.985,7.433,-4.953,15.162,7.215,9.132,-16.96,-29.453],[6299.892,6436.985,6066.795,3009.88,2257.976,1220.042,1493.382,1529.362,663.351,344.545,674.074,718.411,567.195,373.737,132.768,102.257,134.202,74.608,23.283,14.984,37.607,71.229,34.048,19.087,-5.439,-5.459,-2.167,-7.488,2.411,-8.242],[7542.372,8833.062,8286.546,4394.293,2923.949,1348.98,1807.725,1693.456,977.069,574.453,795.707,1151.347,835.953,650.699,355.635,126.886,185.013,181.863,61.689,90.828,74.399,86.364,59.513,36.406,0.252,0.809,23.547,-3.65,-13.038,-12.465]]
}