{
"KTrans": [[5.077,7.408,10.666,8.514,15.935,6.651,7.43,8.134,14.712,8.482,2.523,10.057,14.472,12.094,12.163,15.092,18.561,22.439,17.069,20.583,30.921,31.604,26.944,31.791,25.285,42.235,50.145,42.943,38.262,44.445],[-36.024,-5.619,0.519,5.409,7.107,-34.277,-5.194,4.536,3.681,5.579,-36.274,-5.792,-0.498,4.8,5.035,-34.181,-8.397,7.118,9.245,9.244,-30.242,-1.699,7.971,11.609,14.708,-23.44,9.281,18.433,16.782,18.326],[-67.649,-21.483,-8.322,-3.636,1.382,-72.404,-23.542,-10.893,-4.089,1.809,-67.855,-22.313,-11.012,-4.106,2.473,-64.83,-16.155,-7.777,-0.065,4.058,-65.204,-24.036,-3.265,-1.796,5.358,-56.756,-18.048,-4.121,4.675,9.386],[-82.862,-39.138,-21.363,-11.366,-5.111,-84.855,-36.097,-23.852,-11.921,-6.423,-84.107,-42.04,-23.615,-11.615,-4.77,-77.994,-39.692,-19.792,-10.861,-3.035,-76.566,-40.451,-22.477,-8.44,-3.311,-70.953,-42.184,-21.339,-10.961,0.634],[-91.586,-48.147,-33.526,-21.562,-13.337,-90.872,-53.783,-31.119,-21.574,-13.367,-90.687,-54.209,-34.846,-19.624,-12.973,-86.769,-53.6,-32.963,-21.86,-9.522,-82.69,-53.007,-30.999,-19.544,-10.954,-80.495,-58.639,-30.186,-18.204,-8.574],[-92.385,-65.808,-42.903,-30.426,-20.495,-93.133,-66.252,-43.055,-30.6,-21.34,-92.947,-63.388,-46.999,-29.987,-19.122,-92.76,-67.474,-45.547,-29.19,-21.209,-90.069,-67.365,-44.537,-30.398,-19.207,-83.906,-66.01,-46.571,-31.312,-17.179]],
"ve": [[14.641,17.871,19.319,46.577,17.688,9.842,14.489,23.552,3.307,64.258,10.669,13.327,18.939,45.61,-58.096,16.034,15.082,15.443,31.764,66.739,26.298,31.52,7.386,22.478,34.979,-15.601,31.775,39.164,-24.682,-8.298],[-8.976,-1.854,0.292,3.187,3.391,-15.455,-1.81,0.876,1.675,4.181,-13.808,-2.166,1.257,3.584,5.038,-4.03,1.617,4.246,5.352,6.399,5.875,5.844,7.917,6.827,7.52,24.292,18.929,14.871,12.415,10.632],[-30.031,-7.9,-2.978,-1.761,0.276,-29.858,-7.48,-4.149,-0.722,0.812,-29.63,-7.627,-3.505,-1.735,1.432,-22.021,-0.44,-0.866,2.033,3.337,-21.346,-0.834,3.343,3.318,3.979,7.611,11.057,7.793,8.632,8.044],[-50.172,-15.058,-7.011,-4.207,-2.379,-16.716,-14.191,-9.652,-3.665,-2.493,-31.714,-16.289,-8.135,-3.785,-1.406,-26.409,-11.977,-4.376,-2.043,0.562,-21.027,-9.928,-3.192,1.048,1.137,0.866,-0.277,2.576,2.977,6.078],[-65.782,-21.141,-12.631,-7.608,-5.148,-60.413,-24.789,-11.497,-7.84,-4.366,-54.663,-24.392,-12.691,-6.273,-4.029,-43.402,-19.35,-10.586,-6.203,-1.763,-30.279,-13.933,-6.365,-2.756,-1.618,-27.648,-9.907,-0.467,0.531,2.951],[-73.391,-32.098,-17.518,-11.251,-7.319,-59.724,-30.645,-17.255,-11.867,-7.34,-58.187,-30.203,-18.98,-11.434,-6.454,-62.15,-27.152,-15.623,-9.527,-6.493,-38.308,-25.195,-12.282,-7.29,-3.377,-6.262,-14.03,-9.814,-4.281,0.164]],
"kep": [[-22.463,-19.781,-16.86,-26.435,-13.09,-20.529,-18.076,-22.3,-15.24,-30.365,-22.999,-16.372,-14.251,-19.788,-24.177,-19.345,-12.864,-6.598,-15.879,-12.983,-16.608,-10.697,-10.683,-0.362,-8.78,-23.146,-5.432,-2.317,-3.188,11.15],[-45.616,-22.994,-19.271,-17.571,-16.267,-43.451,-23.153,-16.542,-17.713,-18.012,-44.244,-23.12,-20.737,-18.342,-19.052,-48.566,-28.152,-17.261,-16.388,-16.969,-50.937,-25.745,-19.504,-15.795,-13.916,-54.489,-28.066,-17.892,-16.657,-13.818],[-65.794,-32.476,-24.199,-20.992,-18.525,-69.815,-34.436,-25.348,-22.28,-18.612,-68.857,-33.408,-26.133,-21.425,-18.636,-67.832,-33.503,-25.16,-21.138,-18.902,-70.368,-39.641,-24.958,-23.521,-18.409,-72.995,-42.408,-29.075,-22.758,-18.713],[-80.506,-43.777,-32.356,-25.597,-21.703,-81.757,-41.5,-32.537,-26.535,-22.733,-82.879,-45.761,-33.468,-26.085,-22.186,-78.73,-46.517,-32.728,-26.818,-22.372,-79.888,-48.398,-35.993,-27.201,-23.155,-81.94,-54.84,-38.96,-30.757,-23.804],[-90.303,-49.569,-39.322,-31.915,-26.488,-87.815,-52.916,-38.174,-31.671,-27.044,-89.001,-53.242,-40.421,-31.115,-27,-86.039,-56.016,-40.305,-33.147,-25.874,-85.899,-58.254,-41.538,-33.62,-27.17,-86.578,-64.612,-44.395,-34.947,-28.645],[-91.151,-61.546,-45.568,-37.126,-31.036,-91.301,-62.315,-45.713,-36.956,-31.755,-91.645,-60.113,-48.215,-36.682,-30.465,-91.393,-65.827,-48.955,-37.335,-32.26,-90.178,-66.691,-50.084,-39.837,-32.831,-88.828,-70.362,-53.752,-42.87,-33.848]],
"vp": [[-24.147,-126.618,-295.576,-343.866,-594.018,-10.515,-25.999,-24.833,-113.378,-3.922,31.023,-24.219,-46.998,-11.488,-36.098,-1.502,-2.518,-11.002,-4.367,-12.775,-0.831,-6.563,-4.397,-7.71,-4.074,4.046,-3.784,1.083,1.686,-2.52],[1797.868,247.001,127.823,-578.079,-735.693,371.116,102.895,-53.006,-11.519,-85.042,195.982,65.032,17.273,-42.974,-35.736,37.405,16.863,-11.43,-12.981,-12.872,15.092,7.554,-0.778,-5.131,-10.957,9.45,1.012,-3.367,-1.462,-0.936],[4156.114,1605.258,680.945,575.7,-125.991,927.592,315.565,223.537,45.431,-47.88,420.955,175.745,107.696,71.438,-31.957,78.278,17.227,22.556,-1.388,-11.474,43.055,23.032,5.177,4.504,-1.746,17.961,8.049,7.023,1.8,-0.64],[6096.3,3349.539,2116.201,1377.053,775.093,1242.004,615.54,574.383,262.77,203.548,584.35,393.692,274.489,127.207,32.601,104.383,73.642,43.095,28.824,7.888,51.511,41.567,30.061,11.022,9.062,23.988,21.849,15.982,13.072,2.245],[7472.451,4843.965,4104.417,3292.041,2060.491,1446.09,1134.857,736.555,617.474,411.562,732.019,598.531,448.144,267.855,192.147,132.301,112.913,86.349,67.361,24.912,55.363,51.316,37.813,26.971,22.809,25.015,33.022,18.977,16.742,8.97],[7460.315,7722.376,5707.298,4671.274,3510.57,1476.052,1459.686,1143.255,1021.534,726.618,780.864,719.816,666.89,492.243,302.969,161.296,153.538,122.152,98.337,83.072,71.577,81.784,61.059,50.443,33.941,26.795,37.674,39.008,29.357,15.485]]
}