{
"KTrans": [[6.356,6,5.921,4.406,6.069,11.936,5.973,9.357,9.884,11.14,25.494,18.825,18.837,14.117,14.162,128.102,96.415,74.685,71.285,62.885,-69.569,189.593,167.141,150.791,132.033,48.656,50.864,160.83,264.56,228.088],[-12.909,-2.938,2.232,3.658,2.786,-12.516,3.054,4.045,4.42,4.831,-2.116,7.141,6.898,8.513,8.097,19.457,57.83,46.425,38.267,33.226,-50.419,127.95,92.641,76.027,68.486,-55.91,-39.877,200.352,160.204,142.831],[-37.338,-9.255,-2.633,-0.601,0.009,-32.451,-4.502,0.091,0.468,2.968,-31.394,0.453,0.084,4.267,4.724,-2.121,37.923,38.999,26.905,27.767,-71.846,116.468,75.999,63.902,50.832,-19.073,14.456,69.594,117.93,100.542],[-54.22,-10.074,-3.773,-3.639,-0.61,-49.397,-10.936,-2.284,-2.299,-0.14,-46.907,-4.905,-1.993,1.05,2.541,-30.546,31.397,23.383,20.186,20.573,-50.066,11.447,67.448,52.337,40.026,-81.764,-37.129,70.352,140.164,111.361],[-70.76,-13.936,-6.197,-4.055,-3.306,-62.141,-12.589,-8.039,-3.595,-2.329,-56.798,-13.856,-2.175,-2.013,-1.001,-55.224,32.556,23.656,15.821,18.195,-50.102,-3.698,85.229,43.267,40.1,-50.098,-40.407,41.471,94.685,82.939],[-73.069,-21.471,-13.948,-8.918,-5.715,-69.019,-14.185,-4.915,-7.387,-4.464,-75.132,-11.476,-5.377,-4.069,-2.712,-77.339,-6.896,12.318,16.04,15.459,-71.553,-25.493,48.118,49.277,33.481,-45.39,-33.957,-97.324,73.594,97.96]],
"ve": [[6.677,11.684,21.154,54.191,0.919,-7.56,13.615,14.089,-219.782,3.879,10.395,8.889,9.522,14.531,18.75,56.769,16.838,4.477,-4.977,-7.204,100.135,47.923,14.603,-0.831,-12.638,189.048,75.956,49.225,9.841,1.246],[3.687,1.692,1.025,1.301,2.541,6.191,4.474,1.909,1.926,3.021,10.409,5.773,3.048,2.717,3.065,49.756,23.589,15.052,10.659,7.946,107.121,52.686,29.742,20.467,13.756,197.73,103.017,60.958,44.674,32.027],[3.405,0.083,-0.83,0.094,0.092,8.302,2.576,1.7,0.965,1.447,11.501,4.804,1.626,1.864,1.77,61.591,22.993,16.067,11.232,9.219,98.004,51.764,31.659,22.905,17.393,192.685,94.454,18.151,47.404,35.316],[3.191,-2.113,-0.735,-0.445,-0.227,3.028,1.217,0.58,-0.168,0.938,13.246,4.382,1.556,1.605,1.5,51.462,24.304,15.152,11.447,8.851,96.764,50.585,30.927,23.23,17.835,209.454,93.339,63.541,50.185,37.488],[-3.032,-1.462,-1.951,-0.525,-0.81,10.955,2.189,0.397,-0.021,0.416,14.606,4.613,1.971,1.542,1.325,49.473,24.784,14.882,10.522,8.689,93.953,49.392,32.219,22.729,18.263,195.384,98.795,64.245,46.711,37.759],[-0.712,0.5,-1.242,-0.859,-1.19,3.215,0.449,0.242,-0.319,-0.418,11.511,3.975,1.755,0.888,0.744,49.941,24.179,14.645,10.89,8.647,100.659,47.421,31.221,22.78,18.462,192.202,97.187,64.324,48.623,38.018]],
"kep": [[-7.386,-8.388,-11.527,-15.425,-18.248,-8.362,-12.256,-10.015,-7.618,-8.145,2.704,0.671,1.534,-2.935,-2.988,34.453,49.677,50.201,61.157,63.913,-76.195,83.477,107.025,127.736,135.982,-31.225,-22.884,56.894,171.931,179.048],[-25.829,-15.852,-10.791,-9.915,-11.723,-27.178,-13.29,-10.156,-9.918,-10.515,-21.155,-10.896,-8.869,-6.995,-7.702,-31.275,11.899,11.723,9.675,8.498,-70.536,30.487,29.521,28.085,29.86,-75.932,-62.305,59.786,57.421,60.9],[-46.931,-20.292,-13.745,-12.816,-12.31,-44.102,-18.117,-13.552,-12.614,-10.918,-46.395,-15.6,-13.521,-10.21,-9.701,-43.297,-1.829,4.885,0.017,2.561,-82.06,24.214,16.358,16.426,12.418,-70.332,-41.424,-10.617,28.621,29.14],[-60.903,-19.299,-14.992,-15.075,-12.581,-58.704,-22.788,-14.786,-14.12,-13.176,-59.182,-20.117,-15.271,-12.745,-11.406,-59.201,-8.047,-6.242,-5.485,-2.943,-74.851,-34.297,10.981,7.861,4.007,-88.953,-64.828,-8.222,38.615,33.263],[-74.687,-23.593,-16.166,-15.399,-14.508,-69.408,-25.035,-19.689,-15.426,-14.721,-66.168,-27.697,-15.945,-15.407,-14.341,-72.377,-6.709,-6.15,-8.289,-4.704,-75.452,-40.602,20.374,1.705,3.488,-81.925,-68.155,-24.165,13.241,15.271],[-77.143,-31.388,-23.605,-19.451,-16.286,-75.019,-25.798,-16.947,-18.495,-15.894,-80.555,-25.542,-18.663,-16.654,-15.33,-86.272,-35.013,-14.526,-8.431,-6.944,-84.994,-54.468,-2.518,5.673,-1.662,-81.395,-66.3,-89.98,1.468,23.551]],
"vp": [[253.365,-189.808,-35.922,-509.36,296.621,-104.759,21.316,41.516,34.376,84.05,-17.488,-24.124,-6.392,34.515,7.591,-2.115,9.605,-9.165,2.531,10.867,-1.092,6.617,-1.65,8.389,-8.181,-21.917,7.703,13.011,-8.2,4.995],[2277.9,926.394,-16.694,-110.389,11.313,430.863,146.886,64.977,-7.283,10.306,217.508,100.072,-31.372,-13.168,32.514,37.003,-4.907,-3.334,17.689,4.749,0.921,7.792,-12.647,-5.079,2.866,-6.983,-8.115,-24.159,-5.597,11.809],[4455.753,2669.716,1207.963,827.358,-314.461,956.036,405.198,306.225,88.785,-35.65,448.108,285.857,116.879,100.86,36.402,87.064,32.317,22.276,9.543,7.678,38.914,24.529,-12.916,-8.028,-4.835,-14.921,-25.905,-1.091,-38.428,-26.544],[5829.109,4553.181,2720.033,593.946,815.504,1110.996,824.408,335.837,112.476,172.395,514.028,424.608,92.343,73.481,113.662,90.712,80.746,29.769,1.049,10.827,28.925,12.632,-5.831,-9.619,-30.225,19.459,-10.519,-14.648,-13.306,-13.919],[6576.355,6022.433,3000.151,1755.452,-49.137,1197.462,1214.119,416.631,306.512,149.162,620.151,542.809,364.065,130.087,22.66,121.154,104.554,70.681,4.545,26.748,14.105,41.388,37.625,-0.402,-5.094,9.817,10.636,-1.888,-22.261,-28.827],[6763.925,7677.598,4892.488,1454.722,1245.953,1403.194,1679.842,901.74,385.561,39.906,683.903,697.208,378.586,186.254,100.808,135.533,114.724,49.029,22.289,15.317,57.002,34.253,17.175,9.274,-2.595,-7.951,1.641,-0.231,2.476,-10.335]]
}