{
"KTrans": [[-1.796,-2.388,1.545,-0.38,-2.464,4.769,2.619,3.06,1.078,1.955,5.777,3.54,0.695,2.557,2.071,53.768,23.395,17.691,10.06,12.638,105.003,45.761,28.984,42.215,30.072,-0.023,153.832,89.953,106.462,88.221],[-16.656,-1.475,-1.591,0.239,0.607,-19.923,1.597,0.978,0.348,-0.218,-16.707,1.148,2.343,1.48,0.471,2.311,15.043,8.961,7.703,5.42,63.817,43.282,25.414,11.457,16.851,-72.112,55.226,70.102,56.33,36.799],[-54.131,-2.491,1.562,-0.358,0.426,-56.963,1.68,2.22,0.855,-0.196,-52.064,6.876,1.035,1.248,0.59,-29.702,22.675,11.574,6.452,6.203,3.517,43.094,39.677,15.951,12.113,-14.839,69.39,56.381,57.364,31.002],[-74.057,-5.891,-0.047,0.313,1.444,-74.351,-2.657,3.069,-0.214,-0.143,-71.801,10.815,6.687,0.587,-1.678,-54.389,0.712,18.545,8.604,6.329,-26.125,7.921,41.226,20.71,11.633,13.796,48.271,40.008,37.713,33.39],[-83.444,-9.355,2.632,-0.05,-0.201,-80.101,-5.908,3.494,2.417,1.016,-76.45,-16.728,5.413,3.12,3.202,-63.012,-7.45,36.466,8.427,5.8,-53.516,2.126,19.453,33.524,18.181,-36.992,-3.774,25.199,45.468,39.573],[-87.447,-39.088,5.986,4.032,3.999,-89.141,-42.996,8.606,5.44,4.907,-86.403,-40.931,7.111,3.767,5.257,-72.094,-31.888,4.344,16.169,13.756,-57.242,-23.925,21.302,31.575,20.521,-77.548,-8.809,23.858,50.598,48.834]],
"ve": [[-0.927,-0.217,-0.691,1.94,32.037,-0.712,1.289,-1.658,1.494,0.324,1.558,-2.199,1.276,2.672,8.976,14.606,-2.401,-54.084,58.522,-102.634,36.301,-7.312,-18.126,-32.418,-38.518,62.531,24.334,-22.743,-21.797,-39.921],[-15.697,-3.193,-3,-2.194,-2.495,-15.723,-4.014,-2.839,-1.948,-2.148,-18.759,-2.639,-1.919,-1.854,-1.869,-5.683,-0.193,-0.703,-0.595,-0.96,35.109,9.538,6.318,4.68,3.713,7.385,16.81,21.241,7.567,15.187],[-46.663,-6.903,-2.653,-3.265,-2.382,-46.436,-5.94,-3.45,-3.095,-2.706,-33.287,-4.286,-3.433,-3.14,-2.791,-18.763,-0.457,-0.266,-1.117,-0.769,16.269,9.265,9.769,2.287,1.183,43.856,27.725,18.823,19.072,9.324],[-58.071,-13.08,-5.533,-3.898,-2.786,-52.029,-10.523,-4.092,-3.881,-3.566,-52.591,-7.549,-2.851,-4.165,-3.849,-37.785,-15.363,1.829,-0.949,-0.881,-17.992,-13.09,8.113,4.155,-0.578,38.934,16.759,6.926,10.066,8.888],[-60.014,-21.748,-5.641,-3.908,-4.402,-59.654,-20.954,-5.698,-4.39,-4.042,-65.47,-21.832,-5.543,-4.016,-3.764,-41.325,-15.653,2.201,-3.306,-2.756,-31.919,-0.528,-2.409,1.371,2.527,-49.469,0.268,6.662,9.359,5.365],[-63.097,-30.985,-6.871,-4.804,-3.637,-72.372,-34.973,-7.535,-4.7,-3.643,-63.346,-36.144,-7.339,-4.786,-2.883,-50.36,-23.76,-12.484,-1.247,1.935,-24.398,-21.32,-4.455,-1.017,-0.177,39.213,-0.4,5.064,8.468,3.613]],
"kep": [[-1.389,-0.937,4.331,1.596,-6.194,4.833,2.264,6.601,2.738,6.334,2.519,6.5,1.532,3.998,3.422,24.665,14.155,15.739,8.386,19.293,40.958,16.737,9.678,42.688,32.026,58.483,88.758,56.914,99.863,97.328],[-7.835,1.421,1.395,2.462,3.256,-9.513,5.353,3.839,2.3,1.997,-6.26,3.251,4.279,3.336,2.445,-6.536,11.95,7.414,7.459,5.8,4.352,22.472,11.77,4.357,12.785,-9.981,27.739,27.181,26.938,17.018],[-41.441,3.114,4.05,2.965,2.821,-43.428,6.275,5.547,4.036,2.551,-38.31,10.405,4.26,4.437,3.426,-35.454,22.141,9.903,6.751,6.588,-26.909,15.785,27.875,8.5,8.301,-33.333,14.986,18.584,23.366,11.994],[-60.325,3.788,5.277,4.203,4.232,-63.223,4.875,6.93,3.692,3.494,-60.317,17.136,9.296,4.713,2.216,-52.255,5.55,15.075,8.758,6.71,-44.423,-6.264,36.147,12.118,9.472,-44.687,-2.125,15.677,15.103,11.333],[-71.633,12.523,7.412,3.78,4.313,-70.966,14.724,8.711,6.833,5.151,-68.24,2.526,9.845,7.219,7.119,-60.216,-6.554,32.17,11.187,7.996,-58.497,-12.71,9.74,26.937,13.482,-58.592,-23.479,-0.862,22.841,31.178],[-79.306,-18.929,11.44,8.935,7.854,-81.036,-20.145,14.725,10.206,8.791,-79.176,-17.654,12.134,7.997,8.269,-69.509,-27.26,17.967,16.142,11.528,-65.284,-28.606,7.763,30.855,20.871,-73.078,-34.234,-0.119,21.15,38.539]],
"vp": [[259.726,283.476,139.744,254.49,466.474,-7.253,-5.109,31.825,12.848,23.476,0.471,12.254,9.77,2.203,10.749,-33.232,-20.232,-18.282,-4.473,-13.516,-40.795,-21.018,-11.497,-31.352,-17.939,-31.806,-44.067,-25.13,-36.023,-33.762],[1689.234,605.653,688.455,626.294,657.338,344.669,139.986,114.086,101.851,127.169,182.383,46.594,30.439,41.978,41.933,9.425,0.266,-1.357,-5.208,-1.312,-39.094,-22.452,-20.932,0.404,-21.703,-1.686,-17.123,-38.412,-38.948,-20.648],[4015.837,1378.558,658.401,918.399,868.776,946.208,239.201,176.544,197.288,190.935,368.481,75.477,82.971,79.777,98.281,35.65,6.157,-4.188,0.373,-5.695,-18.056,-20.305,-37.383,-11.889,-13.178,-24.006,-29.244,-33.225,-48.897,-21.928],[5959.387,2542.008,1459.893,1237.056,1010.297,1102.314,409.694,219.54,250.036,270.456,531.793,156.882,71.4,131.214,151.627,74.696,60.959,-15.98,-3.123,-5.248,17.803,30.521,-29.059,-21.922,-1.444,-22.71,-18.015,-11.443,-22.791,-33.368],[6236.598,4513.251,1464.916,1225.543,1876.153,1154.69,916.694,320.863,303.33,329.698,547.33,440.716,161.277,119.706,157.894,84.578,62.372,-18.421,21.171,23.657,32.995,-3.037,3.948,-7.531,-18.681,28.471,1.481,-11.077,-23.192,-16.712],[6434.126,6108.412,1928.441,1600.688,1620.486,1444.495,1410.196,412.77,329.726,268.224,619.887,738.218,189.455,155.366,125.427,100.724,90.65,74.801,2.007,-30.917,23.326,45.518,15.372,1.376,-2.998,-22.494,0.604,-11.106,-18.215,-9.108]]
}