{
"KTrans": [[6.447,3.857,2.167,4.951,0.832,8.25,16.341,6.294,10.003,9.291,25.429,26.112,14.324,9.625,12.957,139.216,94.909,85.55,66.25,61.193,54.18,168.051,160.607,141.226,132.929,-54.022,150.422,145.276,195.27,226.318],[-22.086,4.612,2.96,3.291,3.685,-14.376,8.937,7.168,7.231,5.508,-8.24,20.14,10.82,8.976,7.497,-25.225,80.818,48.295,37.992,34.02,2.504,66.328,121.959,79.51,76.337,20.755,63.562,92.207,166.145,138.141],[-47.133,6.412,7.761,2.856,3.21,-41.282,11.99,9.61,6.257,4.627,-39.576,20.559,12.675,7.233,8.654,-44.968,77.707,46.012,38.795,31.623,-27.376,26.941,109.619,79.796,67.003,-38.905,46.894,62.984,144.615,129.749],[-70.681,2.989,1.888,4.648,3.272,-60.714,10.736,7.388,4.93,5.272,-66.443,12.88,13.645,9.859,8.024,-66.779,34.781,55.002,40.839,29.227,-43.82,4.216,93.02,83.145,55.531,-30.295,38.695,53.503,106.018,160.127],[-77.822,-0.635,5.929,2.538,4.306,-77.409,-7.721,13.298,9,7.173,-78.01,11.11,11.311,8.942,7.639,-80.74,22.957,78.966,42.301,29.023,-56.915,-15.193,77.025,104.53,76.905,-53.643,-29.902,-27.778,-25.801,169.97],[-89.836,-11.605,9.938,5.015,6.263,-85.165,-16.397,9.694,10.491,9.582,-87.75,-14.228,14.085,11.281,6.234,-87.693,-20.218,58.997,43.233,27.868,-75.398,-52.573,14.193,94.198,55.746,-58.966,-14.951,8.858,50.012,81.412]],
"ve": [[41.92,9.265,15.774,-43.903,377.022,7.183,1.106,9.743,1.94,8.924,17.875,4.232,4.75,9.535,10.549,47.409,18.534,1.003,-6.133,-13.071,87.507,31.155,16.94,1.239,-12.616,195.59,81.951,26.83,0.205,-3.99],[4.631,0.167,-0.122,0.755,-0.402,8.138,2.554,1.991,-0.179,-0.026,13.002,5.354,3.385,1.798,0.654,53.956,25.236,14.877,8.723,4.728,100.47,52.116,31.41,18.892,13.463,203.158,96.806,85.784,50.128,29.888],[5.184,1.92,-0.464,0.656,0.218,11.299,3.589,1.453,0.463,0.473,-51.401,5.797,2.238,1.988,1.325,52.986,25.525,15.761,10.933,7.731,101.224,51.641,32.602,22.016,17.85,210.358,100.716,66.968,48.412,36.029],[4.201,1.319,0.756,-0.074,-0.149,11.643,3.158,1.669,1.337,0.256,16.329,6.368,3.168,1.88,1.071,51.076,25.275,16.146,11.575,8.75,103.693,50.282,25.648,24.252,17.764,201.857,97.766,64.612,49.078,39.717],[-1.85,2.262,-0.22,0.718,-0.135,15.63,3.761,2.177,1.024,0.363,29.299,5.821,2.623,2.054,1.948,58.683,25.597,17.09,11.576,9.283,101.554,50.839,32.67,24.981,19.818,202.32,95.901,65.698,49.508,41.512],[6.682,1.716,0.586,-0.102,-0.51,11.888,4.417,1.903,0.573,0.934,29.18,5.979,3.611,1.857,1.212,72.773,29.423,16.479,12.277,9.681,101.153,48.518,32.696,24.208,18.366,205.229,97.99,66.935,48.449,36.709]],
"kep": [[3.695,3.891,-0.946,11.509,1.522,4.84,19.04,4.049,16.705,17.972,12.516,27.356,16.362,11.928,22.658,60.555,67.812,87.927,82.971,94.938,-7.811,97.763,134.748,151.273,177.387,-58.561,54.627,82.331,154.937,229.623],[-26.171,5.023,3.621,2.986,4.512,-20.772,6.754,5.487,7.754,6.108,-18.901,14.827,7.62,7.48,7.325,-49.834,43.493,29.118,27.343,28.211,-42.681,11.936,67.572,50.617,55.559,-51.498,-5.557,20.998,82.931,83.134],[-51.256,4.917,8.482,2.354,3.138,-47.21,8.461,8.354,5.891,4.27,-48.188,14.175,10.448,5.357,7.386,-61.498,39.493,25.822,25.108,22.234,-59.429,-10.812,55.555,46.419,41.252,-72.05,-18.524,3.686,61.581,67.155],[-73.237,2.004,1.151,4.836,3.567,-65.179,7.318,5.875,3.635,5.138,-71.832,5.963,10.345,7.988,6.933,-76.695,6.947,32.885,26.02,18.794,-68.335,-27.038,44.32,46.11,31.708,-71.54,-24.866,-2.931,36.737,82.514],[-79.312,-2.872,6.08,2.025,4.521,-80.204,-11.403,11.086,8.006,6.9,-81.461,4.285,8.627,6.776,5.665,-85.488,-3.298,51.427,27.036,17.945,-76.525,-39.651,31.433,60.959,46.491,-80.797,-58.719,-48.064,-43.429,87.138],[-90.843,-13.336,9.205,5.094,6.84,-86.888,-19.374,7.457,9.922,8.621,-89.607,-19.886,9.783,9.287,4.994,-90.635,-36.183,35.208,27.151,16.454,-85.128,-64.41,-11.9,53.703,30.883,-83.048,-52.606,-29.447,3.841,28.463]],
"vp": [[785.219,-77.908,-31.328,-288.572,142.114,148.033,-41.048,-32.065,20.162,-22.881,27.957,-4.714,-16.661,-4.779,17.668,-11.48,2.14,13.581,-2.55,-15.954,-8.568,-13.225,-5.916,-7.062,-4.719,-4.305,-13.753,-14.222,-13.269,-7.303],[4534.358,460.508,-196.672,334.564,-131.491,1111.018,-24.691,39.452,64.908,10.759,437.398,79.218,33.774,52.983,28.554,87.859,18.043,-5.235,7.95,-1.422,41.153,16.66,11.241,-12.428,10.878,19.153,-10.456,-7.312,-3.412,-18.046],[7501.581,2834.574,228.134,78.811,433.181,1595.504,579.136,73.343,-11.832,-4.604,703.623,211.697,56.695,70.095,47.538,161.321,26.942,-22.48,13.737,-0.122,75.948,23.459,-6.069,-1.586,9.618,39.146,7.768,7.005,4.881,-7.699],[9551.678,7083.626,1834.397,268.578,-248.41,1831.259,1581.644,247.178,-162.379,108.245,960.11,723.128,164.37,3.756,-3.977,194.932,98.62,21.517,6.162,2.219,101.36,63.267,2.918,-9.215,-14.883,37.078,-4.054,-10.338,0.308,12.802],[9635.087,12836.669,3509.425,2116.674,-272.993,1976.751,2479.127,748.63,184.779,-5.01,954.911,1147.758,244.677,60.259,-37.492,186.603,220.387,82.534,4.848,24.978,89.145,99.314,22.434,2.735,23.709,51.417,31.003,10.862,15.595,6.637],[9621.546,15140.894,7777.721,1667.838,136.99,1887.113,3079.125,1335.652,256.159,195.196,993.386,1381.831,708.183,130.845,-60.18,202.367,322.017,158.931,32.748,-35.129,95.455,130.406,101.953,-6.343,-28.362,58.365,41.796,23.674,-5.823,-6.076]]
}