{
"KTrans": [[2.821,1.402,1.294,0.703,0.838,12.99,8.003,5.889,5.375,5.573,24.825,16.154,13.51,11.438,11.246,162.956,95.187,74.959,66.257,60.443,399.789,224.439,175.096,152.764,141.207,1138.155,589.65,452.708,392.073,360.996],[0.722,1.91,1.102,0.92,0.985,9.193,5.773,3.764,3.291,2.95,18.796,11.906,8.103,6.813,5.87,128.238,64.261,44.955,36.082,30.525,308.004,145.4,98.053,77.998,65.99,866.039,356.593,234.353,180.429,151.375],[-1.699,-0.129,0.308,0.834,0.696,12.317,5.366,3.831,2.64,2.925,17.865,10.811,7.621,5.242,4.949,127.538,60.749,40.712,31.128,25.975,308.427,133.096,87.481,66.666,55.152,834.004,328.842,203.693,151.709,122.231],[-1.733,1.443,0.812,0.637,0.206,6.473,4.936,2.756,2.541,2.143,11.937,9.85,6.703,5.374,4.548,118.262,60.587,39.318,29.206,24.474,287.475,131.526,84.031,63.312,51.238,766.866,312.774,194.131,142.453,112.552],[-11.856,-0.213,0.531,0.367,0.903,-3.816,4.379,3.505,2.719,2.016,6.281,11.19,6.332,5.506,4.788,110.067,56.695,39.02,29.547,23.592,267.437,130.631,82.474,60.814,48.83,737.229,310.947,190.28,136.341,108.01],[-13.1,0.321,-0.18,0.627,0.558,-2.615,4.959,3.337,2.394,2.341,7.829,8.758,6.18,5.026,4.127,95.109,55.362,37.564,28.167,22.868,243.764,127.082,82.176,60.332,48.083,726.276,307.564,187.765,134.235,105.18]],
"ve": [[0.715,0.154,-0.48,0.472,0.201,3.918,1.36,-0.626,-1.751,-4.18,9.412,1.691,-2.622,-4.323,-7.825,44.983,13.199,-1.956,-11.493,-18.583,93.041,33.045,8.181,-7.609,-18.434,191.474,78.96,35.196,10.135,-6.377],[1.494,0.506,0.473,0.216,-0.005,5.23,2.532,1.407,0.893,0.421,9.789,4.596,2.823,1.976,0.943,49.656,23.666,14.404,8.993,5.532,99.257,47.71,29.488,19.066,12.482,199.624,96.506,60.799,41.493,28.795],[1.339,0.496,0.39,0.27,0.154,4.41,2.463,1.661,1.191,0.556,9.855,5.168,3.088,2.166,1.617,50.079,24.813,15.701,11.463,8.425,100.169,49.073,31.896,22.937,17.398,200.194,99.094,64.581,46.814,35.631],[1.403,0.672,0.479,0.174,0.169,5.605,2.644,1.729,1.303,0.925,9.745,5.082,3.043,2.371,1.695,50.474,24.891,16.314,12.002,9.31,100.311,49.434,32.496,24.096,18.599,200.002,99.492,65.691,48.455,37.839],[1.194,0.411,0.282,0.203,0.18,5.453,2.465,1.638,1.131,0.88,10.611,5.137,3.44,2.446,1.894,50.218,25.109,16.415,12.287,9.508,100.538,49.933,32.852,24.306,19.176,200.353,99.626,66.078,48.903,38.618],[1.724,0.526,0.312,0.276,0.177,5.546,2.75,1.648,1.174,0.89,10.681,5.016,3.214,2.489,1.914,49.953,25.114,16.396,12.287,9.638,100.364,49.655,33.129,24.723,19.492,200.409,99.867,66.41,49.414,38.982]],
"kep": [[2.303,1.469,2.065,0.739,1.304,8.864,6.783,6.842,7.713,10.889,14.189,14.489,16.895,16.821,21.299,81.493,72.543,78.603,88.089,97.384,159.124,143.93,154.416,173.746,195.896,324.9,285.443,308.863,346.884,392.533],[-0.684,1.412,0.647,0.716,1.013,3.791,3.181,2.349,2.395,2.535,8.23,7.031,5.155,4.764,4.898,52.592,32.864,26.721,24.87,23.701,104.813,66.147,52.97,49.51,47.581,222.528,132.379,107.951,98.202,95.185],[-2.971,-0.608,-0.071,0.57,0.552,7.563,2.85,2.139,1.441,2.364,7.454,5.39,4.404,3.022,3.288,51.593,28.801,21.636,17.652,16.195,104.194,56.377,42.152,35.578,32.168,211.241,115.434,84.532,71.456,63.856],[-3.095,0.801,0.338,0.469,0.042,0.863,2.274,1.021,1.229,1.211,2.028,4.568,3.567,2.94,2.81,45.222,28.611,19.79,15.371,13.879,93.476,54.974,38.895,31.606,27.523,189.037,106.952,77.532,63.324,54.207],[-12.886,-0.624,0.258,0.169,0.726,-8.762,1.883,1.838,1.569,1.131,-3.81,5.781,2.805,2.995,2.845,39.925,25.279,19.433,15.377,12.863,83.325,53.85,37.358,29.377,24.886,178.815,105.852,74.786,58.73,50.065],[-14.501,-0.172,-0.479,0.352,0.384,-7.697,2.139,1.671,1.211,1.441,-2.544,3.609,2.884,2.479,2.174,30.124,24.205,18.194,14.148,12.069,71.657,51.771,36.849,28.556,23.931,175.154,103.942,72.933,56.775,47.634]],
"vp": [[-3.327,23.034,-31.464,23.333,-9.579,-0.73,15.727,8.211,2.214,-9.629,7.735,0.881,7.858,-1.915,5.441,2.255,2.392,1.776,1.814,3.185,2.63,2.033,1.935,2.258,2.549,2.516,2.176,2.096,1.958,2.078],[177.975,-24.57,8.416,1.231,61.981,38.329,-2.353,4.829,-3.285,3.333,13.637,4.595,1.901,1.84,7.087,5.822,2.353,3.008,1.946,1.507,4.57,2.767,2.096,2.443,2.081,3.687,2.531,2.482,2.467,2.648],[494.05,61.317,4.818,46.123,55.21,106.919,-1.307,7.805,-4.33,3.125,45.696,7.236,2.882,6.404,-1.311,12.059,3.16,2.056,1.974,2.407,8.926,2.897,2.895,2.443,2.593,5.09,3.122,2.849,2.397,2.103],[1026.596,77.652,56.106,-8.28,-4.419,197.232,30.868,3.17,10.003,1.927,90.718,15.591,2.457,5.776,2.62,22.23,5.633,2.598,2.881,2.09,13.536,4.411,2.912,2.519,1.636,7.665,3.245,2.922,2.66,2.859],[1490.14,150.627,78.947,-23.768,10.01,291.278,38.655,0.509,11.292,0.366,152.041,21.669,7.15,5.161,5.177,35.677,6.93,3.545,2.861,2.441,19.175,4.672,3.385,2.794,2.83,12.252,4.097,3.395,2.802,2.82],[2155.107,319.245,134.171,8.11,-26.217,452.863,57.723,22.185,6.9,2.584,234.511,25.299,12.527,7.9,4.956,47.352,7.409,3.426,2.522,2.465,24.844,5.693,3.688,3.024,2.989,14.121,4.563,3.282,3.078,2.927]]
}