{
"KTrans": [[-5.116,8.491,7.834,-0.359,1.44,-10.852,2.373,10.67,-1.651,5.829,-13.396,5.362,1.583,8.012,3.514,-11.782,3.669,4.247,2.368,10.155,13.158,30.105,16.349,13.301,3.06,50.907,15.647,60.399,25.513,39.553],[-79.416,-9.507,8.056,-1.512,5,-85.382,-7.043,0.841,2.293,0.219,-83.645,-6.637,0.993,3.668,-1.811,-65.675,-9.265,3.547,0.193,-0.139,-60.905,-1.735,4.639,-4.986,5.181,-95.105,16.41,17.384,8.24,11.862],[-94.976,-35.133,-1.985,4.254,4.402,-93.891,-45.979,-2.983,2.62,1.658,-92.888,-37.785,-3.656,-0.131,-0.331,-92.059,-36.667,-8.435,-6.201,-4.439,-101.726,-31.094,2.663,-2.548,-10.611,-106.695,-39.95,15.447,17.56,4.631],[-96.835,-66.829,-7.864,0.52,3.876,-98.549,-73.566,-17.589,6.456,5.134,-97.198,-68.684,-16.742,-3.478,6.149,-97.336,-69.709,-14,-3.427,-4.939,-97.981,-54.973,-13.336,-6.006,6.554,-120.608,-45.452,5.978,8.574,-0.451],[-98.462,-89.407,-33.909,-1.241,3.838,-98.42,-84.364,-34.473,-4.954,5.744,-97.546,-86.739,-38.479,-3.48,-0.84,-98.992,-82.439,-33.999,-5.9,-2.581,-101.647,-80.355,-22.174,-6.352,3.016,-118.664,-63.956,-11.246,2.993,-10.301],[-98.895,-88.459,-53.529,-7.528,-2.266,-99.064,-90.963,-56.966,-7.802,-0.428,-99.134,-90.306,-58.68,-6.725,6.366,-100.274,-89.143,-48.642,-12.973,-0.752,-99.86,-89.622,-44.968,-5.569,0.022,-109.142,-79.34,-33.596,7.947,-6.912]],
"ve": [[2.191,85.334,-1347.517,164.973,-4.877,-23.786,-14.627,-16.748,125.151,-1234.492,25.22,202.774,420.66,12.255,-11.449,16.703,398.805,-139.329,820.271,-14.373,-4.644,-0.143,-49.44,-3.925,-14.48,9.001,-31.637,-19.791,-14.516,-36.289],[-46.987,-4.113,1.102,-0.576,1.813,-64.664,-2.601,-0.185,1.31,0.871,-83.846,-2.523,0.741,0.423,0.38,-37.24,-2.809,-1.534,1.58,1.954,-34.965,-9.315,0.099,6.767,3.614,-80.125,-3.597,-5.547,-21.194,-15.761],[-280.496,-17.198,-3.037,-0.307,0.294,-22.696,-23.059,-2.972,-0.156,-0.337,-84.782,-21.927,-4.276,-1.393,-0.593,-94.22,-20.167,-4.142,-4.392,-3.211,-107.72,-18.378,-1.565,-28.097,4.793,-109.689,-32.83,0.446,-20.293,-4.407],[-117.363,-42.79,-5.391,-2.76,-1.031,-89.124,-45.353,-10.768,-0.163,-0.448,-82.287,-49.087,-11.839,-3.877,1.794,-94.975,-47.299,-11.585,-5.484,-2.551,-94.315,-39.365,-12.228,-6.843,1.58,-111.103,-47.327,-6.609,1.952,-10.074],[-127.467,-73.755,-19.631,-4.193,-0.784,-110.859,-44.389,-21.316,-4.576,-0.686,-377.922,-71.188,-22.963,-3.837,-2.593,-127.027,-65.743,-27.451,-8.097,-3.73,68.286,-61.048,-19.615,-7.567,-0.304,-151.436,-43.637,-14.849,-13.345,-17.053],[-108.182,-84.132,-32.38,-8.063,-2.857,-114.398,-122.429,-37.37,-8.025,-1.872,-122.202,-2.4,-43.916,-6.777,-1.762,-119.866,-33.578,-38.912,-21.804,-4.058,-92.996,-59.434,-36.272,-12.628,-4.572,-147.764,-68.774,-32.134,-9.233,-0.385]],
"kep": [[-22.537,2.165,2.477,-6.96,-6.39,-26.209,-5.603,10.452,-7.185,2.462,-30.894,-6.149,-6.743,7.962,2.24,-34.763,-13.605,-7.86,-14.185,10.302,-15.612,1.618,-8.537,-13.937,-25.22,33.745,19.408,15.9,-31.83,-8.569],[-83.524,-7.643,5.358,-0.778,3.729,-88.822,-5.527,1.334,1.248,0.318,-82.814,-7.871,-0.272,3.152,-1.642,-71.817,-16.65,-1.411,-1.803,-1.257,-62.522,-26.058,-4.84,-10.424,-0.492,-52.389,-10.22,-19.955,-15.618,-5.718],[-97.688,-30.806,-1.074,3.272,3.699,-96.117,-35.164,-2.364,1.737,1.788,-95.967,-33.655,-2.005,0.727,0.126,-94.076,-40.063,-9.259,-3.962,-2.805,-86.194,-39.928,-8.653,-8.576,-11.134,-71.269,-23.916,-13.058,-6.953,-13.225],[-99.544,-59.236,-6.036,1.517,4.206,-100.081,-64.688,-11.546,5.17,4.57,-100.064,-63.801,-10.158,-1.004,3.6,-95.412,-68.488,-13.094,-0.978,-4.122,-90.68,-58.137,-23.991,-10.199,1.449,-78.085,-51.447,-28.948,-14.239,-15.056],[-102.055,-87.414,-26.663,0.483,3.246,-101.105,-82.315,-23.266,-2.293,5.286,-99.697,-84.284,-25.985,-1.862,0.397,-99.495,-80.921,-31.543,-3.382,-1.405,-94.834,-81.632,-32.788,-12.429,-1.564,-87.087,-63.84,-23.721,-31.321,-29.18],[-99.873,-94.597,-44.121,-4.62,-0.989,-99.417,-92.834,-47.38,-6.091,0.366,-98.682,-93.92,-52.702,-5.312,6.804,-95.907,-89.138,-49.343,-15.357,-0.122,-93.988,-85.847,-53.672,-20.714,-5.82,-89.732,-67.821,-39.048,-28.738,-27.622]],
"vp": [[743.851,147.222,219.777,458.957,97.954,121.67,31.167,-97.395,70.077,-28.384,103.779,-5.944,3.858,-4.656,4.169,23.473,21.672,4.455,-1.068,-5.922,7.869,-5.648,1.763,-1.234,3.607,-9.211,7.022,-21.029,3.427,-4.391],[6215.481,1490.998,-468.013,552.594,-388.322,1363.259,234.442,100.669,8.269,65.905,596.785,94.057,46.998,12.277,88.136,89.238,36.594,16.441,8.484,12.156,42.665,20.41,5.809,18.072,0.34,46.937,6.206,4.195,7.056,-5.483],[8648.052,4280.866,1220.558,247.926,-364.896,1683.424,1097.029,212.586,47.615,80.377,827.013,510.187,150.266,62.587,58.112,158.997,91.267,30.611,50.319,41.713,106.009,39.201,6.821,17.018,37.054,55.62,33.283,-1.233,-5.72,9.369],[9079.497,9000.315,1615.17,1235.409,781.854,1953.27,2039.222,722.557,1.232,49.638,964.789,1055.308,412.978,154.347,-77.216,190.726,216.411,70.551,41.958,32.968,87.592,84.692,35.42,32.737,-12.835,63.543,46.18,17.719,5.246,20.249],[10368.722,14968.573,6645.839,1538.432,312.89,2005.468,2746.203,1350.317,358.613,75.088,989.278,1423.734,744.568,191.468,152.958,210.734,274.21,162.912,71.202,40.929,106.336,147.705,60.841,38.552,3.37,77.071,45.405,23.558,27.994,45.564],[9710.167,16477.476,10023.594,3533.479,1395.717,1994.706,3249.315,2287.445,606.141,192.674,976.377,1677.645,1377.96,300.04,81.301,225.774,312.389,228.075,89.265,37.458,107.017,159.798,111.591,52.64,21.326,79.533,64.969,47.562,17.352,39.241]]
}