{
"KTrans": [[12.627,16.319,11.068,11.741,16.358,31.665,25.243,13.492,16.359,16.785,10.493,18.224,20.177,16.9,17.124,17.325,30.04,33.051,31.974,30.876,65.231,52,33.993,38.42,49.625,110.584,115.355,83.161,97.852,77.079],[-40.521,-3.726,3.399,6.43,8.303,-44.023,-5.762,0.707,6.526,12.381,-46.085,-2.679,1.108,8.218,10.368,-34.182,1.359,8.366,15.142,13.054,-28.43,8.673,18.769,15.305,24.119,0.878,25.09,27.93,30.379,34.761],[-72.349,-36.49,-15.629,-5.073,0.422,-74.538,-33.043,-13.838,-7.454,2.382,-75.542,-30.963,-14.093,-3.551,1.025,-67.028,-24.617,-8.705,0.095,4.134,-56.923,-26.098,-3.297,1.119,7.595,-50.914,-11.545,5.614,11.722,16.565],[-86.125,-44.587,-26.686,-17.045,-9.162,-87.412,-47.964,-27.451,-12.095,-9.541,-81.009,-48.93,-29.55,-16.631,-8.554,-82.264,-45.833,-22.83,-13.538,-7.025,-69.234,-45.786,-29.94,-10.576,-3.04,-60.542,-37.73,-15.726,-5.441,4.834],[-88.43,-62.651,-41.675,-27.28,-18.593,-92.159,-62.597,-41.731,-28.876,-18.546,-90.242,-57.691,-41.44,-27.457,-17.233,-84.674,-65.237,-44.759,-26.226,-17.051,-82.078,-66.363,-38.368,-25.608,-14.282,-71.747,-56.61,-35.553,-21.361,-9.992],[-93.115,-70.599,-50.627,-36.859,-24.487,-91.695,-68.096,-52.915,-39.217,-24.187,-90.88,-72.411,-52.591,-34.972,-27.027,-87.745,-67.566,-51.549,-37.477,-25.784,-83.451,-67.655,-53.332,-35.438,-23.851,-80.382,-63.572,-52.081,-38.52,-21.85]],
"ve": [[18.243,48.168,33.564,43.2,50.939,19.403,-5.552,88.3,-75.777,-0.255,38.356,19.182,91.506,41.921,-50.146,34.608,-4.237,-257.444,157.21,-65.569,51.498,-674.434,90.43,25.403,-105.203,121.593,10.667,2.448,-98.554,-92.35],[-15.4,0.558,2.678,4.266,8.738,65.729,3.823,3.135,5.982,7.046,-1.68,1.956,2.076,5.713,8.063,4.969,8.617,7.883,8.421,10.661,31.281,15.69,15.002,12.758,14.473,42.821,37.461,28.829,25.672,27.927],[-38.363,-13.273,-4.686,-1.735,0.746,-38.107,-10.955,-5.098,-1.24,1.274,-33.752,-8.769,-4.025,0.325,1.793,-8.14,-3.031,1.537,2.406,3.579,-12.358,5.479,7.377,4.898,7.485,46.213,27.395,20.723,15.606,14.685],[-40.535,-14.783,-9.731,-6.756,-2.839,-71.214,-16.234,-10.73,-4.657,-3.287,-29.729,-14.641,-10.3,-4.917,-3.39,46.879,-11.308,-2.913,-2.991,-0.827,-5.096,-36.816,-3.558,2.687,2.9,47.115,14.648,13.901,9.501,11.413],[-51.562,-24.825,-15.835,-9.195,-6.325,-54.66,-24.64,-15.154,-9.903,-7.003,-59.822,-16.518,-14.078,-9.579,-5.671,-22.625,-23.11,-12.932,-5.744,-2.99,-15.928,-13.417,-2.09,-2.575,-0.851,44.531,-46.663,5.069,4.811,7.345],[-59.027,-29.33,-19.698,-14.169,-9.007,-70.431,-34.73,-21.375,-13.979,-8.302,-46.514,-28.903,-19.538,-13.095,-10.082,-22.481,-21.422,-15.316,-10.688,-6.363,20.547,-20.136,-14.55,-6.304,-3.321,27.905,4.196,-2.162,-3.593,2.985]],
"kep": [[-29.328,-26.287,-42.441,-48.488,-47.285,-17.636,-20.853,-38.843,-39.054,-45.511,-29.582,-30.556,-28.077,-40.086,-45.865,-36.479,-27.491,-23.155,-26.344,-31.973,-25.765,-18.141,-31.938,-26.173,-14.727,-46.635,-12.721,-14.247,2.834,-9.184],[-58.752,-33.658,-29.798,-28.504,-29.453,-61.095,-34.619,-31.585,-29.706,-26.056,-64.352,-34.02,-30.598,-28.093,-28.339,-61.513,-35.437,-30.202,-26.021,-28.307,-65.053,-37.046,-28.594,-28.868,-24.307,-67.503,-41.899,-32.34,-27.156,-23.554],[-76.453,-49.657,-38.787,-32.889,-30.543,-79.854,-48.64,-37.247,-34.81,-29.721,-80.216,-48.049,-38.199,-33.294,-30.937,-77.531,-47.141,-37.914,-32.244,-30.114,-78.316,-53.352,-38.073,-33.623,-30.79,-81.664,-56.595,-41.602,-34.656,-30.747],[-88.411,-55.911,-44.298,-38.376,-35.202,-89.665,-58.42,-44.217,-36.147,-35.087,-83.769,-59.601,-46.048,-39.315,-34.296,-87.997,-58.721,-45.085,-38.385,-34.984,-83.687,-64.56,-50.72,-40.202,-34.993,-84.94,-67.285,-50.806,-41.986,-35.773],[-90.552,-66.542,-52.603,-44.706,-39.798,-93.424,-66.515,-53.45,-45.408,-39.249,-91.042,-64.505,-53.326,-44.652,-39.147,-90.28,-70.984,-56.695,-46.134,-40.875,-89.336,-73.596,-57.348,-47.841,-40.393,-90.226,-77.754,-60.111,-49.354,-43.26],[-93.752,-71.998,-58.237,-49.252,-42.585,-93.466,-70.995,-59.267,-51.233,-42.819,-93.2,-74.394,-59.773,-48.427,-43.837,-92.336,-73.589,-61.222,-51.767,-45.356,-90.768,-75.7,-63.135,-52.859,-45.669,-90.855,-80.833,-68.437,-58.15,-48.446]],
"vp": [[93.319,83.029,-337.834,-334.921,-828.57,-124.519,-219.255,-56.645,-65.701,-93.536,33.151,-47.39,-41.857,-22.571,-22.716,0.598,-5.045,-2.948,-10.805,-9.637,-8.806,0.654,12.858,7.92,-14.744,-7.407,-14.458,-4.132,-13.338,-0.524],[2104.182,381.251,-399.489,-397.062,-63.225,447.655,46.938,20.304,-107.22,-240.149,255.465,2.698,-5.597,-87.929,-90.462,34.84,-8.924,-9.863,-20.058,-19.485,20.987,1.531,-10.979,-1.061,-21.135,1.1,-4.729,1.017,0.277,-6.408],[4873.659,3423.29,1671.288,798.538,115.214,902.667,626.651,281.625,184.95,-91.861,560.997,202.325,169.548,27.069,-51.867,91.395,47.855,13.064,4.263,2.214,29.77,23.735,2.755,9.34,-3.535,7.04,2.627,-5.328,-3.108,-2.248],[6250.948,4058.987,2841.239,2491.501,1235.301,1449.545,897.174,717.243,220.769,317.754,599.6,447.451,372.131,231.813,191.939,133.425,91.36,35.282,43.327,38.394,36.031,44.886,49.067,14.298,13.403,-0.225,13.608,5.038,8.275,-3.503],[6753.491,7169.712,5236.917,3745.376,3217.73,1547.617,1435.638,1136.185,879.59,703.252,777.203,594.189,506.63,451.663,265.833,127.149,164.343,131.192,74.911,52.596,53.772,92.744,40.008,39.571,28.886,13.176,39.638,30.029,18.965,9.928],[7906.716,8256.732,7387.933,6142.489,4082.103,1547.681,1537.548,1575.044,1308.229,749.229,708.721,854.51,772.825,591.489,555.146,132.493,144.081,144.491,128.997,102.583,53.971,75.075,94.642,57.483,42.017,20.088,35.359,48.205,52.521,21.493]]
}