{
"KTrans": [[27.845,24.936,11.88,14.019,23.711,14.765,12.894,20.506,23.77,14.392,44.011,26.325,29.361,27.9,20.743,33.816,37.825,27.704,32.522,38.308,41.269,62.704,79.416,72.873,55.906,59.63,120.524,137.509,115.434,112.011],[-41.912,-4.187,-0.087,8.499,7.777,-46.312,-1.587,3.575,10.745,8.317,-48.958,-8.233,9.502,10.693,11.675,-29.221,0.566,10.901,15.574,19.178,-32.723,21.803,25.019,26.805,23.26,-22.114,34.22,39.338,49.053,36.618],[-80.049,-29.888,-14.971,-5.802,-1.054,-75.345,-27.199,-15.048,-3.571,0.8,-72.96,-30.236,-14.174,-5.045,1.488,-60.6,-27.46,-4.405,0.599,3.668,-58.348,-20.762,-3.122,5.788,15.673,-62.4,-5.65,6.639,18.122,19.756],[-85.474,-48.288,-26.906,-17.127,-10.306,-84.668,-48.397,-25.365,-17.616,-9.488,-82.578,-47.706,-30.728,-16.544,-10.428,-80.183,-45.328,-28.614,-17.975,-6.332,-74.62,-42.259,-12.197,-11.53,-0.535,-84.847,-35.198,-12.586,3.259,4.435],[-91.201,-60.395,-40.545,-26.593,-18.841,-88.92,-60.547,-36.628,-28.021,-18.024,-87.075,-66.046,-38.732,-28.945,-19.456,-84.64,-57.322,-42.315,-27.528,-17.039,-78.877,-59.093,-35.083,-20.638,-12.654,-82.287,-40.765,-26.275,-20.28,-4.615],[-92.026,-70.109,-51.006,-37.665,-28.848,-90.809,-71.72,-53.266,-37.574,-26.915,-90.003,-74.32,-55.128,-40.328,-28.676,-86.574,-64.583,-45.356,-38.749,-25.991,-83.77,-64.204,-47.809,-37.242,-24.802,-83.11,-67.324,-48.38,-31.288,-26.36]],
"ve": [[19.322,82.758,-44984.814,-228.421,-84.93,0.449,761.884,36.553,-47.339,-1335.096,15.886,390.955,-353.585,69.486,49.57,41.908,-10.405,-107.305,332.464,-100.809,63.376,-118.974,570.927,403.614,-21.359,98.754,36.6,57.805,-4.723,-16.986],[-10.946,-0.192,6.156,5.885,14.678,-64.126,5.126,4.78,6.015,14.617,-21.435,5.309,4.503,10.061,12.4,4.193,20.235,10.735,13.978,12.09,8.203,35.076,44.206,20.006,53.645,95.018,53.607,15.209,42.268,24.594],[-13.67,-8.783,-4.554,-0.939,1.831,178.749,-9.201,-4.511,0.817,0.357,-22.666,-9.718,-3.717,0.415,-0.733,-11.136,2.664,3.4,2.02,4.882,21.451,11.256,9.07,8.147,8.674,49.591,28.267,10.483,66.263,6.816],[-69.905,-15.401,-8.111,-6.189,-3.183,-38.739,-17.876,-8.398,-5.366,-2.817,285.095,-11.891,-7.979,-3.456,-4.35,-38.963,-8.63,-4.812,-1.579,-1.484,8.649,2.267,4.552,3.375,5.039,57.132,29.37,-10.833,17.797,71.6],[-25.76,-24.297,-15.402,-9.698,-7.407,-44.967,-20.868,-12.671,-9.456,-5.849,-27.375,-27.668,-11.502,-9.899,-6.61,-20.605,-48.842,-6.658,-8.586,-3.211,-70.517,-38.683,2.021,0.725,1.75,92.486,22.945,24.535,12.645,20.931],[-48.56,-23.033,-19.097,-13.54,-10.371,-53.001,-32.824,-20.359,-12.991,-9.818,-33.573,-30.976,-21.044,-14.112,-10.434,-102.184,-19.005,-11.564,-9.975,-6.373,-14.358,-7.646,-5.019,-9.006,-2.521,81.604,-99.074,4.216,0.774,0.565]],
"kep": [[-36.301,-29.839,-49.022,-50.68,-41.422,-36.417,-35.759,-43.42,-37.013,-65.579,-26.226,-25.577,-26.365,-31.681,-53.532,-41.093,-34.248,-41.437,-31.692,-32.739,-43.725,-24.714,-7.76,-18.549,-26.912,-21.967,-30.427,-8.505,-28.803,-7.684],[-61.366,-36.451,-36.052,-30.409,-35.039,-64.801,-34.782,-33.424,-29.37,-34.217,-69.107,-40.894,-28.29,-30.968,-31.402,-66.899,-40.003,-33.091,-30.559,-27.834,-70.509,-37.82,-30.641,-28.623,-29.189,-69.261,-49.005,-41.351,-27.241,-32.607],[-85.804,-48.623,-40.78,-36.49,-34.916,-85.117,-47.818,-40.755,-36.196,-32.913,-82.837,-51.119,-40.756,-36.844,-31.634,-79.419,-53.534,-39.207,-34.347,-34.047,-77.377,-58.208,-43.625,-35.875,-29.566,-73.76,-57.552,-53.685,-41.676,-36.076],[-90.574,-60.132,-47.328,-41.453,-38.295,-90.418,-59.322,-46.101,-42.184,-37.994,-87.421,-59.46,-50.277,-42.606,-37.673,-88.53,-63.126,-51.129,-44.831,-36.904,-85.922,-68.043,-47.764,-43.787,-37.845,-83.516,-67.861,-62.311,-44.551,-41.824],[-94.519,-67.134,-53.714,-46.251,-41.614,-92.812,-67.15,-52.703,-47.27,-42.315,-92.488,-74.153,-54.08,-47.937,-42.686,-90.811,-69.712,-59.228,-48.174,-43.303,-88.819,-78.115,-60.052,-48.653,-43.451,-88.46,-72.08,-63.361,-55.922,-45.795],[-96.199,-75.002,-60.385,-52.509,-47.414,-94.111,-74.879,-61.742,-52.834,-46.356,-93.512,-78.17,-63.281,-53.933,-47.147,-91.086,-75.018,-60.396,-55.474,-47.745,-89.69,-80.608,-64.997,-57.362,-49.307,-90.07,-80.79,-70.49,-63.372,-55.438]],
"vp": [[-589.173,-784.097,-35.831,-193.452,-814.222,-73.562,131.15,-128.403,-164.241,-112.298,-75.47,-53.587,-60.39,-94.727,-32.21,8.232,-8.962,1.591,-0.393,-14.211,-27.368,-16.05,-32.055,-23.18,-6.875,-29.032,-30.371,-30.198,-13.651,-13.933],[2699.125,642.692,-54.207,-430.385,-692.062,594.368,94.454,-88.933,-205.832,-72.888,291.078,70.395,-5.593,-86.704,-79.914,24.258,17.844,-18.129,-24.401,-35.703,23.033,-16.125,-21.938,-25.218,-14.613,-31.576,-36.339,-2.122,-24.531,0.813],[6338.507,2973.688,1710.501,1062.914,-139.075,1037.105,470.294,339.745,-48.573,34.061,453.482,245.236,176.436,18.939,50.64,56.784,47.1,15.818,7.146,9.473,30.898,16.904,-3.102,9.077,-16.954,4.862,-2.575,6.389,-1.158,1.804],[6950.919,4657.733,2622.14,2718.005,1929.77,1356.416,948.298,628.189,468.651,271.052,631.366,511.324,388.602,208.277,187.875,88.467,71.118,91.931,56.838,44.979,37.233,38.76,-0.696,14.111,6.253,4.275,-6.315,2.774,-9.55,12.282],[7669.127,6771.609,5169.603,4438.662,3248.15,1374.352,1293.754,883.125,839.099,517.852,580.5,807.276,413.896,470.539,314.791,127.924,105.164,103.06,119.437,52.805,20.219,71.189,26.742,21.852,14.649,-10.776,2.729,-7.159,27.95,7.042],[7227.746,8303.463,7235.894,6188.356,5420.014,1503.458,1900.517,1671.35,1228.037,981.881,657.66,1001.178,931.798,705.134,589.35,135.951,136.969,127.797,121.175,91.152,35.696,70.894,71.496,67.855,45.272,-20.709,17.569,21.752,31.159,48.77]]
}