{
"KTrans": [[-0.244,0.767,0.654,0.773,0.937,1.678,1.167,0.52,1.088,0.835,3.838,2.172,0.443,0.546,0.637,32.264,8.421,12.415,1.329,9.155,-117.98,31.438,24.884,14.304,10.695,-458.692,-68.66,27.427,31.174,35.383],[-2.813,-0.881,0.101,0.355,0.626,-6.724,-2.153,-0.083,0.025,0.529,0.976,-0.622,0.197,1.781,1.122,-10.96,-2.728,7.613,3.076,-0.405,-29.271,14.083,15.57,5.479,8.173,35.904,-68.803,36.186,25.408,18.875],[-15.541,-3.102,-2.143,-0.595,-0.005,-25.597,-4.32,-1.71,-0.24,-0.029,-19.897,-1.559,-1.149,-0.005,0.303,-8.473,6.943,0.286,-0.853,1.379,-10.278,-12.24,0.531,-1.182,6.137,-32.43,4.727,0.104,22.289,9.168],[-62.201,0.807,-4.161,-2.044,-1.049,-53.187,3.201,-2.249,-1.948,-0.465,-60.432,-4.489,-5.041,-1.981,-1.181,-47.77,12.348,0.767,0.952,0.394,-16.53,-13.477,6.574,3.335,5.95,-17.55,-4.908,10.825,14.539,8.299],[-75.674,9.298,-1.869,-2.762,-2.028,-70.897,9.015,-1.672,-4.226,-1.826,-68.438,2.929,-2.857,-3.205,-1.924,-73.507,-20.854,-4.786,-0.87,-0.977,-55.089,-21.971,7.99,7.708,-0.933,-55.236,-4.577,-1.52,-38.253,11.733],[-75.772,-23.695,-2.266,-5.584,-2.308,-80.432,-30.652,6.454,-4.746,-4.179,-77.891,-25.163,1.34,-4.972,-3.11,-77.667,-34.293,7.432,-2.493,-5.297,-78.179,-28.103,-0.489,5.527,3.329,-70.03,-24.915,3.229,8.173,3.995]],
"ve": [[-0.153,0.047,-0.095,-0.299,-0.563,0.758,0.203,0.028,-0.238,-0.347,1.808,0.587,0.636,0.865,1.56,11.734,8.295,5.229,-19.153,-3.647,-6.521,-4.723,-22.681,-33.755,-66.368,-20.74,16.428,-8.934,-6.748,-45.332],[-1.836,-0.404,0.046,0.099,0.078,-4.065,-1.044,-0.068,-0.095,0.029,1.556,-0.195,0.043,0.622,0.255,0.625,-2.641,3.621,1.268,0.736,3.324,5.752,5.446,6.215,16.386,49.957,21.29,15.21,0.152,-8.947],[-11.911,-1.708,-0.653,-0.217,-0.005,-13.648,-2.392,-0.722,-0.091,-0.038,-14.934,0.075,-0.209,0.106,0.107,3.779,3.851,-0.44,-1.209,0.513,28.354,-2.095,-2.413,-1.734,2.767,8.46,16.674,16.794,6.831,0.351],[-35.685,-1.163,-1.362,-0.697,-0.294,-32.928,-0.869,-1.734,-0.729,-0.005,-38.968,-5.503,-2.592,-0.752,-0.471,-30.56,4.421,0.509,0.722,0.14,44.837,-9.548,1.91,1.51,3.212,26.619,2.715,19.236,6.695,13.32],[-55.047,-3.177,-1.27,-1.206,-0.663,-48.649,0.021,-1.53,-1.29,-0.978,-34.967,-3.166,-1.261,-0.978,-0.419,-40.072,-15.501,-4.836,-0.29,0.023,-24.107,-7.562,2.142,2.901,-1.928,-14.347,24.019,12.937,16.764,5.019],[-46.767,-19.193,-2.272,-1.967,-1.17,-56.388,-21.857,0.011,-2.084,-1.736,-53.979,-16.121,-2.307,-2.468,-1.512,-44.059,-20.732,-1.326,-2.665,-3.896,-46.292,-4.909,3.892,-2.08,1.417,-19.925,-19.43,3.186,8.381,5.011]],
"kep": [[-0.086,0.736,0.768,1.099,1.542,0.766,0.945,0.557,1.486,1.4,1.365,1.488,0.137,0.405,0.548,0.818,-3.863,5.973,-9.771,8.214,58.441,-14.628,-6.431,-22.826,-26.472,24.496,-2.2,-56.457,-65.767,-44.813],[-1.341,-0.468,0.07,0.271,0.564,-3.636,-1.184,-0.025,0.12,0.507,-1.922,-0.607,0.056,1.14,0.858,-24.115,-6.858,2.108,0.548,-1.898,-28.109,-19.936,0.456,-1.479,1.051,-19.265,17.511,-12.584,-11.574,-11.432],[-12.788,-1.504,-1.493,-0.366,0.015,-23.108,-2.232,-1.028,-0.153,0.016,-29.03,-1.891,-1.048,-0.147,0.181,-31.986,-0.888,-2.317,-1.109,-0.076,-45.374,-1.365,-10.042,-6.378,-0.053,-53.037,-2.114,10.505,-9.419,-13.109],[-60.584,0.747,-2.866,-1.347,-0.744,-52.518,2.293,-0.653,-1.244,-0.455,-62.676,-1.501,-2.816,-1.304,-0.752,-54.926,-6.663,-2.478,-0.915,-0.595,-52.014,-25.892,-13.03,-3.932,-0.366,-55.835,-25.914,1.136,-16.054,-11.62],[-72.454,8.446,-0.972,-1.598,-1.364,-68.343,5.674,-0.695,-3.055,-0.872,-69.387,2.089,-2.165,-2.341,-1.545,-71.991,-40.264,-3.534,-2.124,-1.834,-67.244,-37.483,-9.497,1.232,-3.578,-68.091,-38.419,-20.924,-28.881,-10.139],[-72.185,-25.252,-1.523,-3.842,-1.158,-78.543,-30.164,4.595,-2.916,-2.552,-77.579,-30.079,1.434,-3.023,-1.704,-75.167,-43.033,-1.154,-1.842,-2.767,-76.695,-45.688,-20.518,1.897,-1.128,-77.906,-40.923,-19.157,-12.669,-23.244]],
"vp": [[19.544,-34.479,-45.359,-54.64,-45.135,-18.447,-17.311,-8.524,-14.408,-18.58,-21.315,-16.398,-0.226,-1.475,-2.065,-33.101,-4.389,-19.002,6.601,-16.762,2.395,-17.805,-14.767,-3.772,-1.076,12.767,-11.994,-19.088,-20.29,-19.156],[199.486,101.426,-17.302,-67.371,-74.399,84.348,46.529,5.354,11.116,-4.734,-18.378,4.309,-0.844,-36.221,-25.416,1.199,15.527,-23.968,-7.171,10.56,0.356,-12.279,-20.344,-2.46,-12.113,-26.178,-22.518,-26.384,-15.286,-9.215],[1257.224,385.927,182.356,99.861,3.223,260.363,103.189,48.058,10.714,4.872,153.141,-3.869,5.062,-5.324,-6.476,-11.595,-16,4.663,13.938,-3.989,-28.814,4.879,11.59,16.06,-11.203,-3.473,-16.291,-30.074,-19.068,1.376],[3658.799,267.657,379.53,284.401,141.366,679.849,49.161,126.966,61.476,-2.557,394.892,120.004,81.961,31.418,26.037,63.37,-19.947,-2.912,-6.179,-0.821,-51.44,24.814,-8.827,-4.995,-16.893,-13.522,-1.951,-27.926,-14.601,-1.573],[5565.015,784.344,424.31,527.919,334.426,961.858,5.74,107.326,91.497,116.199,345.421,66.787,38.104,36.338,16.827,82.423,75.832,30.376,2.587,-1.45,24.636,16.725,-5.6,-10.257,13.215,7.064,-28.385,-18.818,-33.77,-12.645],[4590.537,3855.64,689.923,729.632,681.195,1116.947,899.32,31.491,168.174,176.142,513.336,322.965,82.158,102.077,82.628,85.91,83.087,9.71,24.376,44.513,48.893,11.519,-14.859,11.971,-6.514,11.051,19.934,-7.485,-15.603,-12.086]]
}