{
"KTrans": [[-47.243,-71.58,-69.89,-76.201,-78.356,-40.947,-76.357,-62.935,-67.377,-67.542,-33.52,-64.046,-52.027,-58.722,-59.366,46.646,-6.803,-27.525,-2.745,-13.04,38.428,14.486,39.155,23.884,40.916,122.243,49.078,74.73,147.413,77.768],[-60.671,-41.33,-49.637,-54.576,-57.189,-51.934,-38.6,-42.211,-51.923,-58.459,-51.203,-34.23,-33.944,-49.554,-54.643,-25.183,-5.891,6.924,-27.45,-24.728,-14.185,16.812,17.139,-2.21,-9.824,23.35,43.961,27.186,14.458,9.848],[-68.694,-54.209,-48.501,-40.907,-49.158,-70.245,-44.701,-41.063,-32.411,-37.931,-65.976,-44.122,-42.625,-35.833,-29.935,-55.69,-29.91,-23.62,-12.844,2.58,-32.281,-23.21,-1.405,6.778,8.223,4.195,35.404,41.099,39.698,19.297],[-75.435,-53.245,-39.31,-50.568,-44.695,-76.748,-47.351,-44.822,-42.693,-35.479,-75.316,-54.731,-42.565,-39.544,-36.376,-67.568,-41.105,-29.946,-25.68,-21.187,-54.121,-30.97,-20.449,-11.674,-2.013,-33.957,28.458,18.58,28.463,18.445],[-83.622,-58.53,-50.886,-53.519,-43.958,-82.605,-58.839,-47.031,-43.82,-43.32,-81.845,-54.948,-46.322,-45.305,-47.876,-75.679,-52.548,-36.297,-25.922,-22.281,-66.908,-41.694,-19.602,-22.513,-21.019,-53.949,-19.678,-0.092,-3.798,5.206],[-86.233,-65.751,-47.385,-38.448,-44.778,-85.55,-66.674,-49.424,-41.425,-37.434,-85.246,-66.466,-47.632,-38.211,-38.269,-78.853,-57.159,-35.306,-34.783,-26.058,-77.957,-46.809,-36.571,-19.458,-19.495,-60.329,-24.247,-7.117,-7.88,2.148]],
"ve": [[-27.147,-42.842,7.242,-49.776,5.767,-76.64,-29.951,-19.455,109.066,23.585,-45.351,-41.947,22.838,-236.999,-14.233,53.854,-1.798,-58.075,33.085,308.271,54.899,-4.551,5.92,-28.154,-24.811,168.35,37.81,47.092,20.291,-4.857],[-63.043,-48.555,-52.411,-46.348,-24.245,4280.503,-62.293,-42.907,-27.829,-47.896,-25.979,-25.034,-33.607,-31.365,-35.306,72.794,-1.235,-0.444,36.117,-46.793,0.049,46.472,21.8,2.692,1.35,134.474,41.609,20.634,20.594,-4.392],[-27.904,-100.465,-81.28,-52.687,-50.054,-10.038,-62.308,12.354,-34.383,-36.685,6.563,-65.622,-57.309,-70.228,-19.827,40.212,-39.947,-31.806,-7.584,3.791,98.751,-15.862,-25.427,7.701,-4.631,166.798,99.585,29.653,30.737,18.585],[-0.448,-74.132,-66.058,-88.799,-58.022,-296.157,-57.722,-95.884,-73.393,-116.756,-40.483,-86.644,-87.988,-40.188,-51.273,60.842,-45.087,-63.662,-58.05,-35.121,68.777,-32.687,-46.017,-29.014,-2.572,170.823,150.6,31.833,24.749,14.195],[18.033,-58.779,-113.325,-114.531,-73.222,-11.907,-66.046,-98.289,-89.1,-82.359,50.393,-64.955,-101.8,-100.305,-87.816,71.913,-38.662,-63.019,-57.307,-40.095,81.559,-44.414,-13.46,-47.812,-36.889,123.427,53.831,0.181,-37.149,-12.808],[-19.702,-48.758,-103.749,-77.056,-97.138,17.273,-57.424,-112.519,-95.039,-73.374,20.298,-41.731,-90.518,-90.899,-76.864,59.433,-22.257,-67.708,-83.389,-56.884,257.354,31.222,-60.425,-36.405,-46.104,233.896,64.156,8.342,9.444,-16.454]],
"kep": [[-129.927,-29.247,-19.576,-23.285,12.976,-121.443,-34.493,-4.238,2.355,0.195,-130.061,-11.223,-31.215,7.89,-5.239,-139.839,-72.948,-15.27,-23.894,-12.835,-70.858,-45.229,-39.619,-19.803,-63.501,-46.936,-50.875,-76.531,-121.737,-30.995],[-74.811,-68.921,-112.72,-22.913,3.994,-81.611,-72.769,-121.639,-41.35,-10.907,-85.096,-75.514,-137.012,-20.177,7.769,-81.893,-72.281,-115.609,-24.142,-16.122,-56.675,-65.432,-67.822,-67.818,-15.448,-61.541,-18.617,-14.233,-56.249,-47.576],[-84.459,-33.469,-30.726,-41.36,-124.36,-88.374,-38.409,-23.931,-68.865,-111.455,-93.854,-41.002,-25.826,-50.947,-124.955,-86.666,-34.671,-28.308,-43.728,-142.351,-76.919,-38.858,-25.276,-39.857,-81.365,-70.703,-52.559,-16.496,-23.817,-34.867],[-89.129,-48.456,-17.969,-2.407,-14.712,-94.869,-41.715,-10.656,-6.451,-15.257,-91.857,-43.037,-11.696,-11.671,-22.727,-94.86,-41.567,-11.452,-0.558,-16.539,-85.784,-43.619,-15.342,-6.166,-1.264,-80.371,-67.454,-38.694,-17.225,-28.453],[-97.872,-52.64,-19.058,-5.873,-8.861,-96.557,-51.208,-20.544,-10.329,1.765,-97.494,-48.896,-17.176,-4.23,-1.695,-92.77,-54.323,-22.243,-4.117,-3.597,-89.849,-53.585,-26.971,-9.113,-6.675,-83.232,-60.693,-26.473,-8.291,-5.496],[-98.722,-65.9,-21.811,-13.334,-1.733,-97.894,-62.651,-19.582,-7.428,-7.609,-98.079,-63.657,-26.877,-7.826,-6.138,-94.805,-62.626,-24.522,-6.02,-3.863,-93.176,-68.775,-29.708,-10.837,-6.084,-90.711,-60.889,-35.423,-10.324,-0.23]],
"vp": [[292.292,381.902,-59.358,22.361,12.17,-40.528,4.569,97.345,16.206,31.135,-13.326,27.692,6.134,8.921,0.49,-10.179,3.434,-0.675,-19.603,13.414,1.462,8.453,6.198,8.278,-11.484,5.515,8.535,1.797,-8.197,5.875],[1927.681,720.998,-125.374,229.795,129.408,526.805,172.517,-9.913,-90.919,-60.449,306.951,91.359,-31.93,14.871,11.36,31.058,7.371,-11.845,7.551,-10.729,-9.857,4.682,1.479,3.295,-5.109,15.009,-2.969,-7.055,-2.872,3.047],[3874.232,1555.369,1061.974,535.351,75.662,885.097,394.627,167.144,181.345,-16.791,456.137,182.012,73.54,34.953,3.98,78.94,23.692,12.924,1.638,-1.789,27.35,10.562,0.294,0.15,0.396,-13.296,3.307,-18.703,-21.301,-5.807],[5350.715,3895.226,1585.961,491.947,1018.76,1230.174,667.468,187.456,87.583,127.776,550.298,262.285,81.249,64.766,71.864,121.137,73.308,-0.129,-11.588,1.162,38.065,11.634,2.746,1.648,-20.65,23.202,9.791,-3.224,-10.54,-14.815],[6725.419,5206.344,1624.02,1029.393,1104.828,1313.855,968.678,465.122,215.797,7.099,731.653,488.558,194.834,42.346,-10.455,115.319,111.066,56.71,3.508,14.248,62.467,36.02,20.541,10.274,-6.025,22.649,17.15,4.441,-22.774,-8.999],[7569.884,7428.037,3171.843,1965.298,793.673,1415.353,1386.864,565.376,290.454,264.298,728.363,758.707,398.485,127.423,152.506,120.172,119.231,38.61,16.393,-1.181,58.749,76.475,35.108,18.759,-2.267,23.326,8.909,10.299,-11.579,-1.031]]
}