{
"KTrans": [[2.637,8.124,6.39,1.841,-4.248,7.449,13.124,13.317,-2.318,5.096,10.099,26.876,25.969,20.348,16.83,25.485,57.193,75.779,81.899,89.149,-82.6,-34.037,30.316,126.055,118.59,214.832,-108.151,-34.799,67.418,96.318],[-34.862,-10.594,-0.07,3.481,-2.179,-32.76,-9.932,1.676,7.695,2.44,-35.982,-6.993,3.935,8.04,12.011,-16.633,-9.843,9.851,25.874,32.622,0.483,-63.96,-15.457,10.019,42.703,75.61,43.003,0.667,-17.676,1.085],[-47.095,-14.133,-5.292,-4.601,-0.439,-53.321,-10.882,-8.239,-3.14,1.527,-48.107,-12.062,-3.339,0.099,3.792,-36.411,10.46,13.142,-11.985,3.079,-61.415,-41.959,13.435,-50.73,-17.024,-14.54,-56.448,-103.819,26.601,-0.873],[-62.505,-19.388,-6.433,-4.667,-4.428,-54.973,-13.294,-6.152,0.731,-3.44,-57.634,-11.624,-1.324,2.092,3.01,-66.479,-20.176,17.316,23.862,13.001,-60.495,-16.932,8.29,6.51,6.419,-62.317,-40.238,43.712,-63.705,-19.024],[-66.03,-27.095,-7.949,-3.545,-2.984,-66.008,-22.358,-6.996,-1.377,-0.14,-64.85,-21.576,-1.458,3.626,3.963,-68.853,0.533,19.35,30.535,19.47,-50.525,17.619,20.892,36.428,32.705,-40.057,-48.165,71.478,-43.935,-23.493],[-77.415,-30.205,-9.704,-3.072,-1.873,-71.298,-28.438,-5.827,0.006,-0.013,-69.604,-26.132,-2.526,4.197,0.809,-69.234,7.69,20.132,32.562,18.386,-53.39,-27.364,10.162,37.387,45.182,-50.682,-22.85,-65.267,10.996,52.131]],
"ve": [[10.126,-3.117,29.031,94.309,-46.056,525.559,-38.367,-152.13,11.254,-42.941,13.493,28.336,16.145,-10.237,19.612,41.674,8.336,-43.739,-24.802,-43.191,105.536,32.68,-9.546,-22.323,-32.932,182.84,78.349,29.574,-1.262,-17.161],[12.548,-62.311,3.101,-7.68,0.591,12.479,-18.554,48.127,49.858,-2.457,-33.213,0.421,0.097,17.393,10.384,80.707,25.201,20.846,3.148,-28.132,-11.65,54.273,24.089,21.684,7.88,195.106,99.516,65.625,28.003,23.701],[12.14,-6.772,-0.819,1.575,3.011,169.101,-3.135,-20.519,-5.297,-8.957,14.847,3.908,-24.081,7.887,-0.104,41.582,19.81,16.093,13.581,6.524,96.736,51.936,25.561,25.453,14.582,190.286,98.126,66.434,48.798,35.551],[-12.227,-10.606,-2.575,1.27,-15.779,-2.198,-2.267,3.515,-0.811,-18.492,-45.892,-1.894,-0.768,1.308,-7.77,32.366,14.191,15.637,2.636,7.262,92.759,45.385,32.781,25.663,23.924,187.491,99.835,65.201,53.173,40.422],[-5.871,-44.076,-2.09,-1.548,-2.447,-16.448,-1.376,0.755,-0.217,-0.202,-20.739,5.495,1.072,1.303,1.414,47.607,9.315,13.976,11.296,8.11,89.876,47.773,37.706,25.023,20.792,186.921,101.055,65.21,49.046,39.851],[-2.014,-3.139,-2.039,-0.794,-0.87,17.962,0.522,-0.262,-0.038,-0.172,4.691,3.361,2.213,2.072,0.799,38.711,23.187,15.401,11.455,8.065,93.924,47.125,32.952,29.589,19.708,181.109,100.747,60.533,49.506,39.181]],
"kep": [[-124.424,-69.093,-58.983,-48.65,-16.448,-134.44,-61.721,-94.927,7.168,-16.835,-129.997,-119.971,-65.321,-43.746,-52.907,-155.616,-200.448,-176.016,-172.715,-198.464,-171.394,-373.734,-440.013,-342.168,-458.605,7.811,-259.27,-463.961,-537.136,-656.847],[-77.251,-82.494,-120.885,-54.687,-4.4,-76.462,-90.196,-135.696,-69.315,-17.563,-85.296,-82.218,-114.722,-74.851,-45.866,-75.618,-97.045,-134.959,-159.703,-110.674,-73.654,-114.741,-151.242,-226.987,-190.934,-45.106,-18.717,-70.66,-184.319,-296.074],[-75.028,-40.341,-37.362,-75.439,-141.716,-80.871,-35.262,-45.963,-75.429,-114.172,-79.491,-42.789,-40.948,-63.422,-115.171,-77.539,-37.1,-31.029,-119.383,-153.708,-86.632,-76.692,-42.326,-153.913,-149.968,-68.531,-63.444,-98.341,-21.775,-45.559],[-84.904,-40.092,-18.518,-20.148,-31.429,-78.599,-31.794,-21.735,-8.959,-38.644,-80.968,-34.253,-14.288,-13.172,-14.705,-91.724,-56.01,-12.885,-2.294,-17.088,-83.025,-57.647,-33.136,-37.719,-54.13,-83.961,-66.181,-20.641,-76.509,-53.631],[-84.376,-42.353,-17.645,-12.735,-14.142,-84.304,-41.637,-14.166,-11.087,-7.267,-84.492,-38.468,-12.904,-6.122,-1.717,-90.293,-37.855,-4.292,11.468,5.234,-80.798,-37.168,-27.974,-2.66,5.63,-81.215,-65.528,-11.186,-67.513,-56.149],[-91.17,-43.559,-16.026,-8.21,-8.65,-87.369,-42.232,-15.909,-4.779,-4.267,-87.266,-42.8,-13.194,-0.291,-6.649,-89.68,-31.091,-6.641,13.673,5.241,-84.212,-58.166,-29.482,1.408,20.189,-84.568,-65.666,-71.559,-29.179,6.185]],
"vp": [[179.401,161.109,251.481,126.566,470.744,-51.891,-45.072,88.033,-95.009,-69.421,27.736,-20.815,-28.218,33.449,17.622,-18.038,-23.624,-6.436,4.797,0.358,3.185,7.7,23.126,-6.338,-4.724,-26.803,-8.573,-0.786,-13.809,-8.897],[2646.599,1576.018,24.924,-568.29,122.336,353.161,36.498,-87.456,-54.862,140.045,258.937,117.116,-3.663,-29.123,64.339,35.001,3.114,-6.344,-12.813,1.761,-2.328,-13.406,4.442,-6.443,-21.008,-18.204,-29.004,-22.929,11.757,1.822],[4703.696,2203.769,1899.11,1327.572,281.456,930.891,567.775,248.24,152.579,-12.893,491.714,310.407,116.31,89.003,8.405,80.33,20.423,3.772,31.551,-10.926,44.862,19.277,3.96,9.247,-10.831,1.119,-14.615,-22.806,-25.21,-17.092],[5772.287,4262.67,3630.779,1913.715,1028.501,1083.753,885.939,557.814,308.797,200.677,625.855,512.383,253.627,147.909,88.019,121.656,106.708,31.923,23.996,-1.212,35.064,17.447,-1.695,-13.829,9.337,6.536,-3.541,-16.41,-11.136,-34.451],[6879.234,6745.074,4557.704,1565.37,1236.785,1256.023,1340.481,907.274,505.959,197.295,611.584,597.762,400.114,123.848,123.329,124.658,131.903,17.476,24.431,2.335,44.644,39.958,36.868,7.801,-2.6,11.342,9.349,1.337,-36.471,-34.774],[6774.348,8021.49,5985.259,3177.959,2405.752,1456.735,1648.367,1010.922,635.778,422.255,688.882,780.629,682.763,296.506,183.15,134.504,130.832,96.695,85.208,32.359,25.827,40.262,41.393,13.577,-3.754,24.625,15.458,-20.323,-25.217,-4.946]]
}