{
"KTrans": [[4.815,11.129,9.369,15.38,8.564,5.12,21.313,13.317,18.043,16.118,18.48,21.015,16.45,12.631,13.382,42.738,23.695,21.868,24.758,29.293,82.242,57.617,46.08,46.397,41.346,93.369,107.769,97.576,88.156,80.222],[-42.189,-7.706,6.498,4.497,10.072,-52.589,-0.58,3.207,4.694,7.364,-39.441,-5.013,1.841,3.939,6.868,-33.674,-4.699,8.769,7.494,13.529,-8.612,-3.79,10.117,18.829,13.831,-50.606,38.041,31.725,31.362,38.531],[-73.572,-22.144,-10.246,-4.28,0.736,-67.157,-24.481,-7.472,-2.29,1.147,-68.373,-23.984,-11.982,-6.458,0.497,-57.222,-18.05,-2.476,-1.673,4.647,-61.819,-18.422,-4.137,3.924,5.291,-65.889,-3.945,3.619,8.697,17.703],[-85.007,-44.045,-27.6,-12.992,-5.243,-83.9,-47.653,-23.207,-9.169,-8.043,-78.41,-42.307,-25.936,-11.564,-5.922,-80.057,-38.311,-25.832,-12.003,-5.825,-71.287,-35.558,-18.872,-6.273,-0.102,-75.747,-26.648,-6.784,-4.401,-0.64],[-86.943,-52.357,-34.85,-29.455,-12.18,-89.413,-59.338,-34.949,-24.499,-13.66,-87.701,-56.486,-35.127,-24.607,-13.99,-84.043,-51.431,-38.717,-22.342,-15.832,-81.613,-51.325,-30.212,-20.918,-15.759,-86.052,-59.253,-29.105,-19.733,-9.137],[-91.736,-63.64,-47.663,-34.21,-22.11,-91.044,-67.72,-40.648,-33.435,-23.764,-91.086,-68.369,-49.647,-33.616,-22.461,-89.257,-64.545,-48.375,-31.737,-19.397,-91.426,-57.89,-48.727,-28.726,-17.992,-95.147,-54.391,-39.127,-23.405,-15.251]],
"ve": [[42.017,4.892,106.256,15.187,-75.635,72.862,25.037,-150.08,-93.655,-46.319,16.338,18.499,26.715,134.731,40.304,21.431,39.13,346.766,-3.181,-305.504,40.186,-12.903,-49.854,-4.332,12.747,58.441,5.915,-22.286,-41.765,-21.925],[-12.844,-2.469,2.299,4.007,4.986,-26.849,0.362,2.297,2.789,5.653,-15.057,-1.417,2.472,3.767,5.284,-7.333,4.329,6.66,6.385,6.381,14.603,13.243,58.391,10.665,13.3,19.809,24.542,12.718,-71.824,11.797],[-37.637,-7.4,-4.959,-0.49,1.038,-41.777,-8.536,-2.847,-1.083,0.799,-28.331,-7.864,-4.245,-0.775,0.734,-7.319,1.626,3.122,0.663,2.189,-2.446,3.36,6.858,4.422,5.286,16.707,17.768,9.007,25.816,85.463],[-63.086,-17.145,-8.543,-4.63,-1.897,-42.633,-18.746,-7.688,-2.019,-2.967,-40.578,-16.676,-9.461,-3.909,-2.135,-33.093,-20.822,-6.14,-2.512,-0.435,-11.301,-1.444,-1.138,3.277,3.704,24.36,21.337,14.832,7.525,4.811],[-45.556,-23.593,-13.845,-9.618,-4.197,-57.369,-23.208,-13.42,-9.084,-5.293,-52.721,-24.335,-12.304,-8.19,-3.908,-13.944,-14.364,-14.416,-6.753,-3.823,-11.778,-15.667,-2.35,-3.244,-3.456,12.032,-27.831,3.462,0.443,3.358],[-30.331,-27.192,-19.991,-12.659,-8.678,-60.182,-34.824,-15.257,-13.276,-9.009,-44.477,-30.204,-19.289,-12.555,-7.045,-26.43,-26.055,-16.011,-9.782,-3.995,-23.365,-17.295,-14.546,-4.734,-0.821,-7.703,11.53,-0.781,16.387,2.835]],
"kep": [[-22.326,-22.146,-30.772,-21.231,-38.04,-25.28,-11.861,-28.276,-17.601,-26.437,-21.206,-12.78,-21.073,-31.217,-31.736,-16.593,-23.686,-18.77,-21.704,-13.973,-23.789,-7.312,-9.658,-9.098,-13.465,-13.843,-13.591,-8.441,-0.399,4.579],[-52.969,-27.136,-19.738,-22.059,-18.515,-56.929,-24.578,-22.246,-21.183,-20.889,-52.091,-25.858,-23.207,-22.419,-21.251,-59.006,-31.437,-21.962,-21.945,-17.426,-53.537,-37.92,-25.55,-17.671,-21.927,-45.264,-38.968,-27.407,-21.039,-12.663],[-75.816,-36.582,-27.595,-25.895,-23.094,-73.417,-37.825,-26.966,-23.929,-22.622,-75.501,-36.985,-29.271,-27.321,-23.024,-72.024,-39.987,-28.103,-25.183,-21.157,-74.668,-44.433,-32.921,-24.733,-23.954,-69.715,-50.022,-38.841,-30.315,-23.372],[-85.305,-49.597,-39.534,-29.924,-25.53,-84.142,-51.13,-36.483,-28.791,-26.998,-81.286,-49.841,-37.65,-29.293,-25.972,-84.132,-51.239,-40.335,-31.146,-27.458,-80.334,-56.101,-39.241,-31.382,-26.54,-80.809,-58.615,-44.503,-37.069,-31.585],[-87.938,-54.839,-43.031,-40.099,-29.575,-89.488,-60.452,-42.931,-36.336,-29.899,-89.251,-58.726,-44.099,-37.044,-31.096,-88.724,-60.458,-46.789,-36.455,-33.042,-85.123,-65.873,-47.036,-38.531,-34.171,-84.939,-71.387,-60.669,-44.499,-36.153],[-92.748,-64.258,-50.441,-42.217,-34.505,-92.018,-67.24,-47.495,-41.128,-35.59,-92.025,-68.007,-53.212,-42.168,-35.895,-91.193,-69.362,-54.48,-42.788,-35.674,-89.835,-71.919,-56.456,-43.665,-36.792,-86.186,-73.928,-63.213,-47.725,-39.85]],
"vp": [[119.753,-263.623,-300.047,-554.446,-188.228,-12.606,-110.557,-130.124,-83.513,-92.671,-61.358,-37.901,-68.932,-65.892,-28.817,-22.955,-3.522,5.642,-12.284,-25.444,-19.634,-16.576,-10.021,-12.444,-8.061,-9.378,-19.057,-15.099,-14.985,-10.16],[2164.982,454.488,-785.344,-157.89,-854.673,632.987,-22.973,-31.128,-4.737,-100.7,198.758,67.068,-8.175,-8.978,-44.51,41.254,17.984,-15.237,-7.145,-20.299,3.906,20.249,8.52,-18.606,4.697,13.914,-17.525,-4.75,-3.659,-22.644],[4662.709,1839.524,1224.09,445.639,-65.727,879.757,443.668,144.795,34.762,-39.97,421.21,201.612,120.604,65.884,24.721,70.341,18.416,-7.914,15.337,-2.35,29.776,17.258,0.658,-2.45,8.238,24.549,1.924,8.84,9.243,-11.437],[6854.614,4260.425,2947.544,1636.377,475.43,1172.602,987.326,488.906,93.392,252.99,554.252,415.28,326.888,133.654,72.873,122.366,61.352,62.503,38.998,21.851,42.156,25.482,23.24,4.969,-7.263,8.443,-6.009,-7.473,13.006,20.126],[6751.528,5880.244,4373.075,4592.865,1623.143,1451.786,1225.55,943.774,781.437,453.734,675.642,620.51,400.11,344.433,195.574,105.074,98.489,130.512,72.79,58.908,42.804,55.288,27.446,38.229,47.556,17.88,15.987,16.047,31.8,21.766],[7226.217,6760.257,7002.916,5403.353,4043.949,1408.196,1701.987,1040.69,1121.236,973.214,721.426,819.374,716.232,550.025,326.383,141.523,168.036,137.265,108.974,56.31,55.974,63.319,77.268,39.011,13.865,32.152,5.129,22.085,6.062,15.578]]
}