{
"KTrans": [[0.873,12.254,8.483,10.155,12.478,-1.709,19.535,16.813,23.833,20.164,16.677,25.804,21.437,17.162,24.721,115.563,106.967,85.912,81.288,66.169,253.496,208.196,176.274,153.574,141.077,372.487,431.209,378.729,337.106,334.671],[-38.405,-2.435,1.624,7.47,6.392,-34.836,1.432,0.998,6.49,10.017,-19.81,6.975,8.109,9.044,8.974,26.962,47.066,36.532,35.372,34.416,58.032,99.634,79.769,68.282,64.598,224.883,238.58,197.644,151.297,140.201],[-56.252,-18.123,-2.334,-2.768,1.417,-51.422,-11.089,-2.764,-3.964,1.162,-50.421,-9.453,-3.222,0.178,3.614,-17.616,23.815,21.89,20.616,22.998,19.498,62.81,56.754,49.042,45.338,29.41,140.195,128.24,118.119,94.132],[-65.405,-24.935,-13.178,-7.949,-2.889,-63.847,-23.141,-10.556,-6.642,-3.17,-64.2,-19.342,-13.508,-3.209,-1.782,-36.375,6.791,10.77,12.174,14.433,-4.776,50.382,41.982,35.675,34.24,-51.329,107.934,108.185,79.704,79.758],[-76.403,-34.404,-22.205,-14.973,-10.203,-72.169,-32.765,-18.253,-13.076,-7.742,-70.906,-34.25,-16.651,-9.831,-5.411,-45.022,-3.806,1.442,4.964,4.837,-40.732,24.084,24.146,26.369,25.215,-23.314,57.9,82.757,67.306,63.801],[-78.364,-34.846,-28.615,-17.291,-11.007,-75.818,-36.608,-23.77,-17.151,-12.778,-77.887,-35.588,-18.252,-17.332,-11.692,-59.381,-15.345,-3.623,-3.415,1.427,-52.759,21.329,16.844,22.484,18.001,-58.542,37.488,62.408,56.948,53.673]],
"ve": [[5.023,-19.68,43,-65.708,389.609,49.647,-17.636,156.261,-38.249,400.597,13.839,-2927.54,73.909,10.396,133.155,52.207,15.076,3.284,12.437,-6.326,112.77,50.632,19.153,3.668,-1.813,210.645,83.469,49.799,14.9,1.761],[2.986,0.758,4.059,2.335,8.742,18.818,3.61,3.267,4.104,7.315,16.639,4.62,4.755,6.374,8.867,51.422,21.831,14.212,12.47,10.303,98.397,45.131,28.471,20.422,16.643,196.237,94.829,59.095,41.501,30.514],[-5.354,-1.183,-1.81,1.135,1.421,10.266,0.322,-1.469,1.611,3.05,13.141,5.038,0.764,1.052,1.992,47.315,20.811,13.188,9.589,8.415,99.753,45.399,29.154,20.453,16.447,208.045,93.033,59.958,42.381,34.536],[-8.939,-0.423,-3.94,-2.303,-2.439,11.207,-0.662,-1.322,-1.04,-1.149,31.549,2.425,0.045,-0.259,0.874,46.645,19.589,11.631,8.486,7.209,94.001,46.7,28.612,20.586,15.479,197.623,93.699,59.58,43.808,34.325],[12.649,-2.303,-4.399,-3.56,-2.471,1.455,0.778,-3.037,-2.023,-1.366,41.169,2.33,-0.078,-1.781,-1.647,46.917,18.908,12.641,8.49,6.212,110.797,45.218,28.132,20.404,14.963,190.643,98.345,58.178,43.731,33.539],[1.303,-3.116,-4.025,-4.047,-3.408,8.358,-0.064,-2.76,-2.624,-3.08,22.068,1.711,-0.513,-1.771,-1.44,46.431,20.102,11.677,7.513,5.706,92.637,44.898,27.27,20.213,14.707,181.562,92.432,59.188,43.228,33.331]],
"kep": [[-36.172,-28.583,-41.877,-47.487,-54.583,-42.247,-23.734,-34.363,-25.597,-43.359,-31.631,-19.409,-25.89,-37.715,-30.84,2.041,27.306,21.416,24.922,16.736,22.677,55.462,66.364,80.462,81.308,8.483,105.594,135.366,167.754,204.972],[-57.193,-32.327,-31.437,-26.343,-30.935,-59.803,-30.513,-31.439,-28.436,-28.183,-51.604,-28.163,-27.786,-28.085,-29.359,-40.594,-15.886,-16.732,-16.091,-14.907,-42.563,-4.013,-2.743,-2.628,-1.563,-23.706,19.016,28.894,23.003,27.748],[-72.028,-41.669,-30.763,-33.178,-30.416,-68.738,-37.783,-31.124,-34.339,-31.775,-69.789,-39.751,-33.169,-31.104,-29.508,-61.452,-29.082,-25.205,-23.623,-21.263,-56.654,-22.448,-15.914,-14.292,-13.478,-69.738,-14.752,-1.784,5.593,-0.326],[-76.295,-47.397,-37.268,-34.554,-30.894,-76.474,-45.79,-36.942,-34.552,-32.078,-78.253,-45.072,-39.811,-32.675,-32.409,-70.165,-38.077,-31.24,-28.328,-26.029,-66.021,-29.388,-23.717,-22.108,-19.51,-87.277,-26.218,-10.606,-13.835,-7.627],[-84.807,-53.052,-43.557,-38.87,-36.189,-82.647,-53.347,-41.366,-38.446,-35.221,-81.693,-54.893,-42.074,-36.31,-33.34,-74.305,-44.077,-37.697,-32.985,-31.623,-79.494,-40.796,-33.069,-27.341,-24.736,-81.167,-43.858,-20.856,-20.003,-15.427],[-85.498,-53.157,-48.29,-40.274,-36.189,-84.688,-55.377,-45.586,-41.001,-37.711,-86.707,-55.592,-43.01,-41.655,-37.935,-80.937,-51.391,-40.041,-37.832,-33.658,-83.309,-42.77,-36.487,-29.537,-28.95,-89.106,-51.215,-30.213,-24.679,-20.676]],
"vp": [[-47.481,-325.891,694.276,574.435,386.22,-69.176,82.463,43.416,-234.713,51.462,-45.616,-37.794,-18.989,12.527,0.334,-15.138,-7.25,-1.441,8.364,-10.796,1.163,19.437,19.232,-0.016,-2.018,13.969,-0.052,3.05,-8.862,0.884],[2362.52,1903.789,564.031,-372.469,472.154,723.915,487.944,-45.058,-224.124,-109.468,287.765,160.009,5.423,-51.102,-50.046,51.689,28.252,-7.492,-14.697,1.781,11.507,1.228,0.429,-26.932,-4.123,7.265,10.356,11.506,-5.294,4.736],[4792.279,3633.353,1657.915,926.449,485.836,1187.865,739.853,318.905,256.924,61.273,535.81,408.214,202.274,119.648,-7.602,92.706,74.086,40.438,4.127,-0.802,57.428,42.218,32.146,0.971,-6.664,33.228,9.337,-2.979,2.106,-7.624],[4815.058,5829.167,3873.105,2340.538,1252.14,1174.298,1176.839,789.428,459.902,340.441,595.776,603.243,311.474,310.652,218.863,128.29,88.198,90.153,27.634,15.934,52.026,64.232,42.256,12.294,1.527,40.593,20.942,9.067,-11.852,-1.17],[6667.376,7119.703,6626.177,2919.583,2053.577,1474.541,1626.331,853.715,707.467,525.735,608.088,797.36,596.566,145.343,268.637,113.138,151.368,121.461,75.258,21.014,74.573,64.534,48.729,31.869,14.244,29.004,28.428,7.061,3.537,-1.604],[6870.914,10395.16,8411.682,4089.091,4184.184,1476.993,1986.845,1581.28,954.817,476.134,783.57,931.376,786.719,434.874,304.776,143.12,193.069,192.205,66.906,46.507,70.1,113.605,74.182,54.604,22.103,31.325,26.351,26.047,11.682,3.497]]
}