{
"KTrans": [[-2.312,3.257,6.321,2.188,4.983,18.22,7.04,11.323,9.917,7.325,28.796,16.464,16.823,13.706,14.835,162.737,89.997,75.429,72.276,62.302,100.051,131.505,151.871,133.922,132.517,-43.901,-106.409,173.503,129.068,84.517],[-17.519,-2.978,1.104,1.298,2.404,0.29,5.106,4.419,5.299,3.251,8.657,9.262,10.167,6.68,7.284,28.938,69.848,39.764,36.714,32.531,23.789,62.324,92.711,73.393,66.125,56.774,134.51,67.835,117.244,119.134],[-31.018,-4.141,-1.976,-1.563,0.696,-16.065,1.16,0.95,1.98,2.914,-22.109,5.884,4.539,4.626,4.885,-21.764,63.494,40.481,32.224,25.471,-13.209,0.734,69.512,58.585,52.367,0.156,-27.06,-54.091,114.782,112.039],[-44.825,-5.982,-0.96,-1.365,-1.351,-48.213,-3.326,-1.621,0.862,1.084,-45.807,-3.713,-0.549,2.527,2.915,-44.077,30.968,32.021,26.148,21.841,-46.672,-16.497,91.668,57.267,49.205,-73.713,-60.536,6.845,97.146,95.397],[-66.363,-8.823,-8.691,-2.86,-4.523,-61.394,-9.452,-3.752,-0.231,-0.593,-61.664,3.28,-1.58,-0.319,0.798,-64.277,35.336,37.566,29.787,17.823,-72.937,-28.73,65.097,53.435,44.764,-43.257,-16.11,2.225,-137.106,78.867],[-76.074,-16.118,-9.612,-3.73,-5.91,-74.005,-15.259,-3.579,-3.812,-2.152,-82.231,-5.269,-7.533,0.061,-1.593,-73.101,1.566,29.354,18.181,17.364,-57.618,-40.5,27.971,67.028,39.24,-54.123,-29.782,24.249,-24.302,80.032]],
"ve": [[2.616,5.358,7.821,31.036,7.929,5.865,8.087,10.505,12.043,4.595,12.572,7.875,4.834,9.185,11.019,50.255,18.418,3.324,-6.687,-12.125,89.824,33.993,-17.705,53.71,-3.332,192.651,80.357,42.236,2.589,-11.186],[2.938,-0.563,0.588,1.589,1.641,6.983,2.31,2.148,1.729,2.57,10.767,4.26,2.598,2.037,3.111,50.348,24.771,14.876,10.575,6.982,98.151,49.264,29.628,21.284,14.057,197.045,92.901,56.559,62.933,37.234],[3.301,-0.156,0.069,0.133,0.453,7.035,2.243,1.71,0.831,0.702,12.212,4.195,1.902,2.847,2.02,51.959,25.295,16.026,11.437,8.367,99.209,48.341,30.682,22.84,17.316,206.067,99.466,63.776,52.332,37.684],[-0.456,-0.899,-0.209,-0.319,0.072,5.905,1.714,1.065,0.525,0.514,11.168,3.865,3.023,1.561,1.67,49.514,25.533,15.914,11.655,8.895,95.076,47.251,32.503,24.133,18.756,205.76,105.486,62.784,48.474,39.177],[-5.844,0.361,-1.217,-0.607,-0.31,6.628,2.409,0.811,0.889,-0.025,13.951,4.664,2,1.835,1.037,50.215,27.363,15.892,11.834,8.484,88.492,48.14,32.117,23.995,18.512,200.008,96.473,66.563,47.028,42.456],[3.52,-0.954,-0.805,-0.085,-1.019,7.831,1.37,0.542,-0.024,-0.004,-10.063,3.801,2.633,1.774,1.267,50.261,24.735,15.866,11.31,8.953,98.325,47.198,32.935,24.38,18.552,197.815,97.433,65.093,47.853,26.657]],
"kep": [[-10.485,-8.494,-5.359,-16.233,-11.895,3.483,-6.568,-2.982,-1.93,-6.878,6.128,1.174,5.762,2.946,6.61,61.571,47.692,57.134,72.588,72.25,4.647,50.651,101.959,117.975,141.708,-50.026,-71.663,84.799,78.013,56.776],[-26.934,-11.275,-8.374,-9.325,-8.295,-14.342,-6.361,-6.964,-5.814,-8.363,-10.849,-4.56,-2.176,-4.906,-5.25,-20.154,22.69,10.61,12.295,12.67,-37.67,0.606,34.508,29.334,32.297,-43.759,15.42,-0.926,33.136,48.608],[-39.363,-12.815,-11.007,-10.776,-8.993,-29.141,-9.94,-9.905,-8.185,-7.21,-37.056,-7.664,-6.915,-7.65,-6.64,-49.999,16.99,9.606,7.556,5.059,-57.552,-33.438,16.684,16.574,17.561,-64.554,-57.554,-63.366,29.856,39.138],[-52.287,-14.162,-9.874,-10.199,-10.537,-55.923,-13.748,-11.587,-8.845,-8.726,-56.563,-15.733,-12.39,-8.39,-8.139,-64.841,-5.979,2.778,2.343,1.399,-72.745,-45.086,28.645,14.087,13.559,-85.562,-73.41,-34.738,18.694,26.684],[-70.032,-17.959,-16.229,-11.321,-13.101,-67.502,-20.239,-13.439,-10.243,-9.791,-69.426,-11.155,-12.556,-11.154,-9.497,-76.356,-4.926,6.658,4.857,-1.557,-84.43,-52.539,9.435,11.043,10.172,-79.025,-56.253,-38.496,-109.431,15.253],[-79.477,-23.82,-17.443,-12.645,-13.763,-78.489,-24.884,-13.105,-12.786,-11.216,-85.66,-18.364,-18.443,-10.925,-11.862,-81.563,-27.12,0.4,-4.167,-2.481,-78.492,-60.862,-12.198,19.716,5.96,-82.925,-63.53,-28.853,-46.497,14.862]],
"vp": [[-132.697,-123.303,-18.79,368.141,498.059,-47.574,26.37,-1.961,57.163,-16.497,-1.855,12.438,19.562,11.355,12.275,7.605,13.938,-13.149,-14.767,-23.972,-20.741,-0.379,-2.404,-14.807,7.873,-4.525,-6.434,-15.574,-11.248,-1.543],[2326.598,770.273,-21.859,-77.638,-498.364,504.704,206.468,5.564,32.941,80.487,216.991,15.966,-31.048,-40.574,24.417,8.792,8.428,-20.02,16.809,11.536,-18.661,-31.816,-15.056,2.488,-13.561,-41.833,-49.103,-34.524,15.085,3.635],[4019.065,1815.065,846.338,394.505,151.869,903.55,258.835,221.727,149.26,12.09,420.629,145.81,21.593,85.138,-17.225,60.164,45.346,15.777,9.648,1.115,9.309,-16.018,-38.824,-31.644,-29.309,-14.329,-19.297,-27.312,-33.186,-30.058],[5443.754,3033.386,2125.803,786.222,582.04,899.782,604.074,299.711,207.257,148.184,537.711,311.39,149.575,31.733,38.547,76.117,36.452,22.544,2.075,-1.236,13.728,1.631,1.873,-3.713,-4.672,3.284,-8.008,-40.957,-28.051,-35.227],[6509.218,6400.707,1203.004,1432.419,1025.114,1025.845,1168.092,543.312,328.008,240.211,590.826,565.582,268.193,98.318,63.043,96.43,81.684,60.996,73.78,-7.792,50.089,2.318,10.432,-4.539,-9.84,-2.366,-18.019,-9.3,-17.002,-27.924],[7145.48,7123.183,3637.432,2141.446,941.215,1431.21,1322.994,707.79,346.232,269.382,726.311,690.515,340.959,185.967,170.896,97.199,91.217,78.582,17.816,8.893,30.989,22.932,5.843,1.496,-22.659,8.038,-11.302,-30.932,-12.416,-24.769]]
}