{
"KTrans": [[-2.276,6.563,-3.782,-4.971,-2.436,4.923,8.042,5.407,6.836,5.136,10.543,13.501,17.786,13.698,17.941,19.823,40.809,55.056,68.441,80.818,-37.687,15.33,80.647,52.071,87.915,-83.756,-114.088,-12.398,35.645,-32.727],[-41.284,-9.977,-2.255,7.787,5.432,-32.775,-8.961,-0.263,5.393,4.023,-31.22,-2.212,4.94,8.64,7.686,-30.154,-13.11,-12.005,26.98,29.319,10.881,-23.544,-26.339,13.214,21.296,13.063,72.428,-94.821,-19.64,6.471],[-53.106,-20.368,-13.108,-3.634,0.093,-54.445,-21.818,-5.656,-1.948,1.599,-50.949,-12.873,-4.109,-1.874,3.341,-28.544,2.095,2.5,-2.999,-0.25,-67.121,-10.59,-2.91,5.479,12.353,-12.183,61.781,7.362,41.499,-34.317],[-65.858,-28.145,-7.585,-8.671,-5.844,-63.075,-20.522,-12.376,-1.572,-0.431,-64.357,-22.954,-8.976,0.295,-4.711,-78.015,-17.309,16.247,27.569,4.299,-48.727,8.274,-36.259,-17.997,12.556,-53.007,-28.95,26.073,-3.682,-24.899],[-70.522,-32.88,-17.916,-5.944,-3.75,-67.911,-27.877,-9.468,-0.601,-0.246,-69.543,-32.958,-6.561,-1.345,2.653,-73.472,-21.669,3.799,12.406,11.504,-73.07,0.254,13.964,-6.35,-27.141,-30.038,-13.855,-59.538,22.746,-63.816],[-74.255,-34.099,-12.304,-6.127,-4.96,-71.718,-37.557,-7.969,-2.142,-2.889,-75.108,-31.655,-10.418,-0.467,3.591,-78.02,-20.144,7.872,15.236,20.032,-66.644,-36.405,6.535,-19.985,13.789,-95.115,-26.11,6.755,-70.036,3.139]],
"ve": [[31.37,-22.722,-817.156,-39.281,-113.505,19.417,-23.69,-80.469,-2215.061,-51.984,-6.306,37.69,-20.338,-48.109,-271.44,85.956,11.193,-191.801,-53.978,-85.229,-505.316,39.84,155.476,-35.444,-47.412,253.649,113.626,28.318,-4.043,-22.42],[-57.367,-197.983,2.035,-5.677,4.158,-64.913,-7.322,4.349,-0.259,-831.842,6.774,1.153,-17.96,-30.391,28.416,53.344,31.614,6.515,-16.602,18.043,85.556,-202.101,27.672,74.033,-17.691,188.584,93.173,65.654,47.208,26.11],[-20.311,0.742,3.842,-4.9,-16.611,-53.284,-1.799,37.795,0.608,-2.973,12.768,-1.757,-2.468,-8.483,4.957,43.21,7.159,4.577,15.183,8.876,94.279,47.819,23.866,25.898,16.01,192.646,91.83,61.642,47.054,39.439],[85.243,-6.525,-0.566,-34.861,2.205,-21.579,59.575,1.109,1.841,15.397,-1.114,-1.567,-0.998,7.782,9.933,87.572,119.53,13.442,8.352,7.407,162.261,35.01,21.537,21.793,-9.383,190.949,99.148,66.98,54.628,40.646],[-37.195,-10.249,6.377,1.528,-1.151,0.285,-3.847,-7.745,-1.587,-0.79,5.597,-1.518,-5.886,-1.826,-1.881,45.293,13.562,23.716,12.637,8.567,94.363,43.097,30.95,11.692,18.978,199.462,96.806,73.18,48.117,36.623],[2.929,-0.849,-2.971,-2.234,-2.913,-128.734,-15.807,0.028,-1.888,-0.845,29.582,-24.645,-2.88,1.523,0.313,42.026,22.586,15.218,7.991,27.229,89.925,37.265,34.269,25.195,19.825,206.799,96.431,64.571,53.32,38.844]],
"kep": [[-111.398,-92.756,-48.448,-34.538,-20.086,-131.327,-99.849,-40.917,-54.11,-77.671,-112.432,-97.04,-51.741,-17.839,-29.818,-143.192,-192.092,-249.277,-234.042,-219.448,-144.255,-235.547,-305.418,-433.432,-497.565,-86.193,-244.231,-403.737,-536.097,-712.968],[-87.516,-78.173,-119.646,-87.453,-33.258,-81.231,-85.297,-121.536,-79.928,-30.163,-84.084,-76.789,-118.03,-82.052,-33.893,-86.512,-113.128,-176.279,-135.734,-103.909,-64.529,-97.046,-176.065,-213.76,-212.553,-65.976,-13.082,-123.822,-190.589,-269.712],[-86.425,-54.499,-61.866,-81.678,-126.701,-85.574,-56.085,-44.895,-84.583,-116.736,-82.386,-52.325,-49.371,-82.689,-118.939,-76.427,-52.447,-58.402,-102.684,-161.175,-85.282,-61.689,-66.86,-80.805,-96.694,-69.223,-32.665,-39.898,-8.047,-111.539],[-87.641,-54.295,-24.406,-35.465,-47.76,-86.683,-46.47,-34.004,-24.894,-34.501,-90.62,-50.172,-28.558,-22.163,-51.033,-96.14,-51.852,-21.227,0.587,-47.344,-80.711,-43.835,-69.358,-60.844,-30.795,-83.201,-58.54,-31.238,-33.54,-68.667],[-89.847,-53.011,-32.783,-19.196,-13.76,-87.688,-52.442,-19.949,-9.437,-12.626,-89.809,-55.544,-24.171,-16.028,-6.826,-94.115,-57.182,-30.655,-10.051,-11.293,-90.68,-49.05,-29.181,-44.705,-73.617,-77.706,-57.333,-69.253,-29.463,-89.512],[-90.543,-51,-23.778,-13.223,-14.079,-89.371,-59.322,-21.708,-11.545,-10.632,-92.45,-54.749,-24.645,-10.893,-3.657,-93.459,-55.778,-26.581,-6.64,2.308,-87.74,-63.85,-35.307,-50.367,-20.47,-94.069,-63.479,-38.335,-76.701,-38.795]],
"vp": [[-139.941,395.9,76.166,64.523,203.369,13.652,-77.985,118.215,-21.63,232.472,-45.437,35.171,-70.738,70.135,49.979,-16.828,-16.897,15.37,1.106,-18.343,-21.474,2.812,-22.539,15.062,8.612,-19.446,-14.312,-16.515,-10.516,0.572],[2935.482,1432.608,-45.271,13.972,-66.217,533.207,283.083,38.038,71.44,-117.172,267.433,89.915,-22.104,-73.07,-76.339,45.949,-8.485,-22.98,-32.302,-9.41,1.045,-2.914,-17.609,-4.348,10.419,-16.71,-30.78,-7.21,-17.151,-15.948],[4592.368,3109.616,1123.777,1077.068,-2.496,979.818,661.297,438.703,131.276,10.712,379.554,356.389,55.284,45.254,2.551,54.292,49.05,44.794,1.183,-2.168,29.98,-2.916,-17.902,-16.49,-42.06,-4.361,-18.786,-26.56,-30.039,-22.231],[5697.903,4540.001,3380.374,1086.387,773.57,1117.626,970.239,737.36,439.765,187.362,703.739,539.336,287.213,181.348,149.74,90.476,89.876,16.041,39.05,50.754,13.28,1.335,22.943,-23.222,-15.687,-5.454,-23.429,-24.919,-30.34,-34.31],[6589.644,8300.928,3915.987,2655.644,1999.879,1407.857,1393.56,1135.465,585.897,302.151,552.66,626.332,520.416,262.502,189.955,107.915,107.56,74.678,28.667,22.387,46.573,25.886,9.219,10.815,6.694,-14.684,-0.083,-10.606,-19.011,-20.519],[6189.21,8753.546,7457.589,4404.434,2226.828,1205.65,1740.332,1486.283,914.563,280.933,843.248,929.985,574.058,462.583,299.072,127.97,171.056,165.301,93.281,68.948,53.055,58.892,46.235,9.223,19.273,-2.175,3.103,-36.484,8.789,-28.315]]
}