{
"KTrans": [[-7.573,2.944,-11.79,-7.712,-5.011,-6.099,10.032,3.724,-3.607,4.172,12.861,35.098,17.894,21.904,0.098,14.247,48.62,56.746,82.274,64.457,18.582,30.445,38.849,53.517,93.965,-82.219,39.22,-1.415,-94.066,43.038],[-37.784,-12.595,2.28,3.371,-0.877,-31.102,-10.529,3.337,3.574,3.122,-27.232,-7.158,3.175,10.725,8.047,-31.501,-40.49,20.815,16.104,26.451,26.256,5.616,30.029,1.177,37.1,-7.601,28.402,-44.417,32.212,-13.316],[-63.144,-19.362,-7.957,-8.853,1.396,-57.194,-20.027,-6.882,-5.666,0.215,-47.903,-16.218,2.745,-3.404,5.77,-46.182,-4.496,3.895,1.223,-1.19,-51.306,2.952,20.069,11.05,-19.732,-31.583,-63.961,-21.804,47.047,-0.372],[-64.976,-21.824,-8.293,-5.411,-4.169,-63.497,-27.168,-9.786,-7.464,-4.784,-65.008,-23.587,-4,-5.16,-3.008,-63.873,-26.35,-7.237,1.924,4.248,-41.2,-65.619,10.004,-0.259,43.105,-45.189,-39.451,18.95,22.962,-69.689],[-76.734,-32.605,-15.447,-4.531,1.013,-67.463,-26.885,-9.462,-4.587,-0.831,-72.006,-25.112,-6.922,-5.742,-0.67,-68.508,-31.575,2.348,16.209,5.087,-63.298,-43.106,5.712,2.446,38.282,-43.001,19.797,-6.864,-93.341,25.228],[-77.288,-34.962,-14.553,-1.89,-5.596,-72.065,-41.037,-11.662,-5.432,-0.881,-76.867,-39.751,-12.747,-4.063,2.647,-81.404,-37.676,6.593,3.367,12.667,-67.708,-37.654,-21.372,16.587,2.669,-63.993,-38.161,20.735,-35.076,81.952]],
"ve": [[39.515,-10.787,-18.23,25.614,-54.118,5.943,-36.424,34.12,7.196,-40.9,1.305,-2.426,-129.282,-348.134,5.118,147.322,18.728,40.012,-28.304,-72.912,-1932.755,30.571,-1.835,-19.573,-40.493,179.993,70.135,57.346,16.165,-11.428],[33.254,24.355,-1.731,-82.361,-15.068,-5.482,0.363,7.16,1.959,-13.845,8.823,7.335,19.492,3.062,-16.091,53.918,19.805,17.583,-28.697,-4.158,91.88,18.733,13.542,19.178,-2.25,-57.264,75.662,66.408,41.748,25.794],[34.307,11.447,124.47,4.506,4.354,-89.66,-15.009,-8.913,5.116,12.01,1.299,-8.39,-21.364,12.814,4.872,47.757,40.453,17.803,11.619,38.384,268.346,69.56,18.93,24.037,19.313,200.352,-24.696,64.054,40.083,18.511],[8.969,-3.098,-8.567,22.709,-1.45,-20.229,36.513,-16.881,44.51,110.099,-5.945,24.048,2.6,-33.291,1.495,52.133,14.425,13.47,8.661,19.166,89.681,45.583,6.008,21.774,17.113,182.648,131.681,63.565,45.223,39.295],[-9.571,-48.682,-3.695,-3.574,-1.624,-4.574,-10.971,-8.273,-5.603,-1.592,-2.176,3.948,1.527,-3.213,-0.798,43.329,31.919,14.324,9.356,11.754,83.735,45.335,29.299,22.431,18.934,177.352,96.86,65.131,47.318,39.704],[-92.556,-16.944,-0.198,-1.599,-2.684,-11.479,-8.796,0.058,-2.607,-0.634,10.794,2.081,-2.526,-0.955,0.269,38.332,69.867,14.477,9.417,7.996,80.752,48.452,32.788,23.122,19.128,185.294,104.615,64.645,48.168,37.656]],
"kep": [[-120.324,-104.122,-2.622,-44.588,-38.546,-120.024,-88.169,-66.089,-31.658,-30.285,-101.343,-134.579,-79.713,-65.741,-21.787,-121.288,-189.473,-159.161,-270.667,-165.051,-110.398,-191.94,-333.184,-362.634,-354.023,-44.516,-122.634,-324.885,-591.075,-582.093],[-88.37,-96.281,-111.774,-89.76,-16.167,-79.781,-89.419,-112.596,-63.093,-41.173,-77.436,-81.39,-117.42,-105.296,-47.725,-85.165,-127.239,-114.589,-155.042,-91.471,-69.881,-68.671,-82.364,-195.23,-154.708,-62.314,-26.39,-89.208,-63.992,-225.601],[-92.294,-49.876,-53.969,-89.901,-110.522,-88.565,-55.651,-51.633,-92.464,-103.981,-80.327,-56.023,-36.949,-84.593,-116.365,-85.061,-50.366,-46.797,-74.438,-154.672,-81.225,-51.28,-32.566,-43.174,-148.464,-66.752,-64.164,-39.72,-11.53,-47.984],[-89.273,-43.353,-30.434,-28.015,-43.108,-88.376,-56.024,-31.114,-38.857,-53.544,-88.65,-50.312,-29.924,-33.629,-44.873,-88.194,-62.647,-45.022,-32.079,-49,-79.43,-75.74,-37.282,-40.478,7.641,-77.788,-61.499,-19.36,-13.708,-84.662],[-93.493,-53.575,-32.307,-14.757,-7.765,-89.398,-50.552,-28.048,-19.678,-11.358,-92.404,-47.917,-24.833,-20.709,-18.758,-89.4,-65.308,-30.825,-7.069,-28.711,-85.836,-66.823,-30.82,-27.88,8.282,-79.958,-47.071,-36.335,-84.613,-5.067],[-92.847,-55.982,-26.791,-10.653,-12.369,-91.201,-61.188,-25.251,-16.795,-6.585,-94.59,-59.315,-28.303,-14.118,-2.946,-95.097,-66.177,-25.967,-18.206,-12.004,-89.591,-65.321,-46.454,-24.019,-29.535,-86.857,-65.518,-32.733,-56.43,20.009]],
"vp": [[334.363,64.385,-136.298,-67.099,353.128,134.618,12.619,-37.397,1.436,-54.451,-17.328,-33.641,30.194,47.49,78.739,-29.258,-8.079,3.255,3.774,-31.092,-29.278,-5.89,9.374,1.098,-10.861,-26.627,-28.009,-19.857,16.419,-24.937],[2051.592,899.059,246.617,-97.025,579.697,652.679,129.893,23.253,-90.984,-31.724,223.669,96.125,-11.555,-91.833,1.37,29.599,-3.79,-38.138,-31.505,-16.129,-22.534,-16.914,-46.01,-19.535,-28.405,-20.588,-43.565,-19.719,-33.644,0.185],[4034.218,2799.149,2278.555,1233.871,1073.267,922.848,727.968,343.695,149.764,13.044,443.122,285.516,76.763,14.701,25.126,66.653,42.511,17.408,-7.748,-21.979,15.738,-24.403,-35.005,-25.79,-19.694,-18.842,-9.787,-19.46,-63.821,-25.802],[5185.517,5644.131,2924.794,1873.138,645.954,1163.385,1073.558,533.008,485.976,287.05,529.007,522.987,325.265,105.559,182.212,98.458,79.7,62.539,39.234,40.453,20.501,16.11,23.877,-8.444,-20.864,-11.575,-13.546,-17.052,-57.214,-13.874],[6321.427,7457.586,6216.556,2609.129,1895.584,1456.038,1290.615,936.494,573.132,599.024,571.482,641.198,497.63,336.534,142.804,54.134,80.022,70.243,39.137,18.648,32.257,44.56,27.037,-21.434,-6.842,-13.268,-19.498,-21.744,11.305,-44.566],[6780.245,9244.22,7313.97,5128.708,2039.826,1365.268,1598.091,1286.528,931.396,445.862,577.235,868.747,651.311,408.265,271.605,80.565,155.232,77.87,20.705,78.868,-10.931,31.324,24.077,17.755,18.223,-24.93,17.313,-19.464,-21.636,-49.625]]
}