{
"KTrans": [[23.163,35.422,27.47,29.659,34.035,31.499,57.369,51.161,45.786,46.404,48.986,61.753,50.882,45.095,40.556,199.924,148.703,135.122,115.532,105.045,454.745,309.689,263.062,214.5,197.82,1310.809,775.487,589.132,518.352,440.677],[-76.757,114.46,75.039,45.873,53.385,-88.788,94.518,72.578,58.891,63.978,-75.819,124.517,66.669,73.676,59.923,-92.571,173.112,148.173,89.99,73.035,-36.018,318.688,190.601,147.308,120.374,91.455,606.532,400.524,301.385,233.44],[-113.428,-23.537,141.836,78.956,75.163,-111.556,30.465,109.219,92.613,83.974,-111.762,8.139,144.33,97.522,79.13,-139.857,50.187,180.781,127.81,84.056,-158.131,136.452,226.249,174.137,156.376,-145.035,445.57,566.226,335.314,241.76],[-115.959,-121.822,59.007,147.506,124.548,-112.892,-111.757,82.873,123.986,96.433,-118.827,-142.389,108.559,150.973,126.415,-127.561,-117.771,204.964,231.387,151.75,-117.805,-132.368,261.938,323.492,193.64,-184.266,-229.897,484.249,437.261,270.424],[-113.689,-134.551,-83.019,172.78,136.922,-104.532,-149.05,-55.93,176.989,172.775,-112.203,-139.088,-23.601,175.872,194.774,-127.928,-158.763,3.578,211.625,186.537,-124.207,-163.316,-50.83,394.135,277.572,-118.977,-263.163,110.839,452.602,414.297],[-106.172,-145.569,-128.466,142.461,193.838,-106.852,-150.178,-174.689,64.997,213.089,-108.51,-157.572,-140.984,15.634,268.107,-122.848,-162.561,-184.963,128.837,280.824,-129.669,-196.831,-161.266,104.904,242.698,-123.968,-248.545,-299.025,208.676,475.358]],
"ve": [[11.875,12.583,-15.695,30.532,-88.161,21.488,13.846,12.578,6.04,23.364,2.34,10.915,12.74,35.784,40.862,63.962,16.636,3.153,-10.028,-15.141,96.865,40.192,9.253,-7.303,-17.906,200.356,80.066,39.334,12.814,-6.534],[23.165,6.866,5.6,1.476,1.448,18.845,10.68,5.251,3.022,2.565,-2.329,5.47,2.823,5.239,3.026,2.748,27.037,19.566,9.269,6.026,110.613,55.409,30.221,20.239,13.857,188.72,96.759,64.06,42.473,28.556],[14.003,0.01,6.829,2.09,3.947,15.256,-0.161,2.476,3.275,3.59,11.796,12.054,14.445,4.396,4.266,54.243,30.322,20.499,12.211,6.271,73.75,46.54,32.701,22.489,18.731,241.372,129.987,68.155,50.121,39.934],[1.286,255.303,1.708,0.423,4.735,3.8,-21.499,7.419,3.741,4.104,69.99,7.039,8.5,4.33,7.506,56.914,29.36,20.255,17.604,13.327,95.616,49.713,35.787,27.781,20.623,201.887,98.006,74.46,51.393,40.91],[-39.342,-14.828,-7.998,4.396,2.953,-2.556,8.24,4.266,2.94,4.592,10.852,7.126,20.737,5.789,5.488,52.67,31.132,25.933,16.713,10.069,99.513,-18.982,49.741,29.698,22.636,199.656,101.475,65.387,51.828,42.134],[3.824,5.812,2.38,4.969,-4.134,1.921,7.554,4.306,6.4,4.053,18.539,10.662,6.448,5.206,3.347,50.752,32.463,17.412,24.443,10.582,105.071,55.777,33.793,23.934,19.197,192.983,112.534,68.707,55.591,41.885]],
"kep": [[-0.423,30.45,30.72,37.352,49.886,9.405,50.366,55.685,61.372,72.443,23.186,61.275,56.532,59.774,61.745,85.72,112.988,129.568,145.895,153.165,173.987,190.292,228.973,237.773,261.34,369.396,380.949,394.132,447.146,475.987],[-85.577,92.582,61.475,39.525,48.606,-94.536,76.681,58.064,51.302,58.524,-85.365,96.903,53.646,60.783,53.244,-97.774,101.659,102.35,67.539,58.323,-70.308,160.565,113.441,100.269,88.728,-37.316,248.803,196.08,172.234,150.795],[-113.211,-34.278,115.233,65.831,62.664,-110.2,12.805,88.399,77.033,70.267,-110.442,-9.862,118.019,78.503,65.812,-124.107,8.601,120.495,92.222,61.629,-126.23,46.835,131.931,110.249,105.893,-114.424,157.601,282.686,179.297,138.61],[-113.339,-122.127,43.301,126.396,107.155,-110.285,-112.906,59.329,102.569,79.303,-114.541,-136.516,81.748,126.26,102.312,-116.428,-112.828,137.662,170.749,113.67,-108.684,-119.34,152.6,212.638,130.252,-125.766,-161.381,228.281,239.318,153.23],[-112.345,-128.072,-84.525,142.643,115.57,-103.134,-141.649,-61.95,147.686,143.739,-109.882,-131.882,-35.888,141.828,162.168,-117.109,-143.483,-20.637,153.696,140.32,-111.251,-136.877,-64.171,264.077,191.575,-105.428,-174.903,17.347,246.453,245.384],[-105.077,-138.705,-122.019,117.327,165.306,-105.565,-142.262,-163.593,47.653,178.373,-106.735,-146.043,-135.286,2.708,225.487,-114.02,-145.703,-165.593,85.407,215.339,-112.974,-158.52,-142.496,52.029,164.533,-107.339,-167.132,-207.692,93.255,281.154]],
"vp": [[0.001,0.001,0.001,0.001,0.001,0.005,0.005,0.005,0.005,0.005,0.01,0.01,0.01,0.01,0.01,0.05,0.05,0.05,0.05,0.05,0.1,0.1,0.1,0.1,0.1,0.2,0.2,0.2,0.2,0.2],[0.001,0.001,0.001,0.001,0.001,0.005,0.005,0.005,0.005,0.005,0.01,0.01,0.01,0.01,0.01,0.05,0.05,0.05,0.05,0.05,0.1,0.1,0.1,0.1,0.1,0.2,0.2,0.2,0.2,0.2],[0.001,0.001,0.001,0.001,0.001,0.005,0.005,0.005,0.005,0.005,0.01,0.01,0.01,0.01,0.01,0.05,0.05,0.05,0.05,0.05,0.1,0.1,0.1,0.1,0.1,0.2,0.2,0.2,0.2,0.2],[0.001,0.001,0.001,0.001,0.001,0.005,0.005,0.005,0.005,0.005,0.01,0.01,0.01,0.01,0.01,0.05,0.05,0.05,0.05,0.05,0.1,0.1,0.1,0.1,0.1,0.2,0.2,0.2,0.2,0.2],[0.001,0.001,0.001,0.001,0.001,0.005,0.005,0.005,0.005,0.005,0.01,0.01,0.01,0.01,0.01,0.05,0.05,0.05,0.05,0.05,0.1,0.1,0.1,0.1,0.1,0.2,0.2,0.2,0.2,0.2],[0.001,0.001,0.001,0.001,0.001,0.005,0.005,0.005,0.005,0.005,0.01,0.01,0.01,0.01,0.01,0.05,0.05,0.05,0.05,0.05,0.1,0.1,0.1,0.1,0.1,0.2,0.2,0.2,0.2,0.2]]
}