{
"KTrans": [[1.82,3.672,1.774,3.26,4.415,5.456,2.397,3.23,3.041,4.256,0.027,3.259,2.358,4.648,1.128,11.142,12.649,17.247,6.802,11.198,-124.113,47.376,32.563,19.894,22.839,-89.827,-128.646,40.816,70.114,56.472],[-14.29,-2.944,0.209,2.302,2.112,-15.348,-4.205,0.115,1.057,2.631,-11.253,-1.668,-0.02,2.428,2.916,10.89,2.988,12.316,7.086,5.433,-27.202,12.289,23.974,14.273,13.443,-16.62,-98.518,13.756,35.613,24.952],[-47.931,-9.433,-3.978,-1.278,-0.118,-43.161,-9.019,-5.286,-1.703,0.291,-45.136,-6.14,-4.683,-0.807,-0.018,-22.869,-1.842,-5.802,-3.266,1.655,-43.339,-13.798,8.587,12.274,6.228,-25.662,-10.587,-85.5,26.179,29.034],[-69.205,-15.43,-9.52,-5.701,-2.757,-67.307,-11.045,-9.541,-4.495,-3.324,-72.854,-9.896,-9.543,-7.689,-1.774,-62.784,-10.447,-15.127,-5.035,-0.878,-36.225,-10.101,-6.849,-0.923,-3.536,-46.781,2.742,16.945,-20.785,17.619],[-80.876,-9.834,-13.814,-10.277,-6.574,-83.614,-22.878,-16.375,-9.443,-5.448,-79.472,-10.464,-14.265,-6.719,-5.702,-76.719,-16.104,-11.872,-7.241,-1.864,-62.508,-18.988,-4.249,0.534,-3.382,-71.837,-16.995,16.478,-20.081,8.316],[-86.661,-46.37,-11.292,-11.77,-8.4,-87.446,-51.508,-8.711,-14.243,-9.663,-86.152,-43.279,-4.467,-10.486,-10.661,-76.512,-40.338,-6.054,-9.803,-5.169,-72.485,-15.888,-24.215,-1.154,-1.989,-59.7,-19.478,-19.259,-20.608,-7.89]],
"ve": [[0.597,1.534,2.775,1.599,1.738,2.607,1.374,2.774,2.991,2.842,0.406,1.767,4.03,3.078,10.914,10.551,-19.245,-10.179,-30.116,-65.777,-8.328,-0.539,-18.774,-34.116,-24.772,27.504,44.496,-55.652,-12.213,-37.268],[-6.553,-0.841,0.407,0.541,0.706,-7.004,-1.43,0.02,0.641,0.629,-6.672,-0.277,-0.03,0.971,1.097,13.767,4.863,6.193,3.333,2.236,-8.76,13.713,2.18,-0.884,19.43,14.421,11.105,21.289,74.107,-4.049],[-27.07,-4.014,-1.547,-0.607,0.008,-24.288,-3.468,-1.924,-0.558,0.254,-23.335,-2.874,-1.141,0.037,0.099,3.53,0.953,-3.542,-1.866,0.877,0.385,12.498,35.344,7.604,3.692,33.05,13.391,22.067,16.381,11.742],[-47.014,-6.413,-3.596,-1.707,-0.993,-40.081,-4.847,-3.343,-1.357,-1.3,-48.714,-5.688,-3.833,-3.028,-0.582,-17.172,-4.093,-8.975,-2.128,0.377,12.837,10.453,5.84,1.202,-2.078,24.34,41.31,20.767,10.857,10.942],[-51.143,-6.361,-4.943,-3.822,-2.451,-50.414,-10.258,-5.95,-2.883,-2.185,-47.961,-9.571,-5.961,-1.705,-1.812,-28.732,1.344,-4.788,-2.68,0.541,-2.977,8.299,-5.644,3.534,-1.384,-69.321,0.719,33.84,17.239,6.987],[-57.375,-26.752,-6.692,-4.952,-3.017,-62.254,-31.299,-5.53,-5.334,-3.612,-54.507,-26.851,-3.503,-4.734,-3.486,-20.441,-19.379,-5.111,-2.012,-1.529,-15.006,9.015,-1.179,1.188,2.103,40.433,-24.637,8.054,5.597,10.876]],
"kep": [[-3.334,-1.914,-4.755,-2.07,-0.249,-2.208,-2.961,-3.189,-3.373,-1.123,-6.153,-2.823,-4.316,-0.804,-8.847,-35.026,-9.023,4.33,-11.931,0.025,44.726,-3.853,-9.681,-32.527,-16.168,56.623,-20.101,-8.126,25.996,-5.914],[-14.229,-6.402,-4.534,-2.647,-2.974,-15.757,-7.283,-4.272,-3.929,-2.399,-13.492,-6.053,-4.425,-2.983,-2.625,-15.442,-11.097,-0.269,-1.82,-1.876,-19.608,-26.776,-0.557,-4.156,-1.192,-21.54,-0.641,-21.039,-3.952,-14.411],[-43.085,-10.32,-6.772,-4.992,-4.455,-41.384,-10.186,-7.779,-5.498,-4.305,-46.3,-8.426,-7.958,-5.236,-4.492,-39.839,-15.491,-9.754,-7.84,-4.614,-50.966,-27.013,-15.527,-2.952,-5.193,-51.97,-11.234,-36.463,-17.128,-2.731],[-65.828,-14.768,-10.416,-8.266,-6.045,-66.11,-13.156,-10.709,-7.437,-6.333,-72.95,-11.462,-10.449,-9.157,-5.527,-64.564,-27.192,-16.034,-9.098,-6.44,-58.699,-34.5,-33.253,-12.556,-11.262,-64.084,-36.82,-4.974,-30.192,-13.962],[-76.368,-12.634,-13.72,-10.896,-8.41,-78.968,-23.411,-15.534,-10.9,-7.591,-74.912,-13.201,-13.728,-9.372,-8.216,-79.555,-33.448,-16.617,-10.951,-7.345,-72.249,-38.91,-19.209,-12.111,-11.87,-69.951,-37.852,-19.745,-19.104,-24.545],[-81.72,-48.761,-11.323,-11.546,-9.697,-82.942,-50.569,-9.755,-13.618,-10.512,-81.56,-45.983,-7.372,-10.475,-11.631,-78.93,-46.717,-19.441,-13.884,-9.019,-74.953,-40.105,-36.475,-17.375,-11.366,-77.881,-45.285,-36.49,-33.572,-12.743]],
"vp": [[-60.679,-189.133,-23.667,-80.096,-233.225,-36.974,-16.687,-33.549,-30.868,-35.079,18.767,1.077,-1.693,-28.07,11.035,-2.857,-6.644,-20.998,3.487,-13.42,-0.585,-30.484,-18.809,-4.779,-10.887,-13.729,-37.04,-33.2,-41.15,-28.616],[676.975,222.191,-18.663,-234.124,-219.664,146.061,68.519,10.267,-20.543,-50.13,73.854,4.892,9.495,-34.926,-35.601,-21.345,-3.824,-39.44,-21.415,-10.494,15.653,-24.233,-37.957,-16.751,-19.248,-2.513,-8.852,-34.17,-28.144,-13.817],[2878.941,842.698,411.443,175.003,-6.911,500.523,121.908,133.07,48.397,-22.028,252.102,60.62,35.789,-2.943,-2.833,-4.29,-0.191,31.343,26.418,-1.288,5.495,-21.31,-15.37,-30.679,-5.9,-14.184,-8.75,-31.19,-29.317,-36.576],[4433.646,1222.074,1002.665,539.613,476.159,800.074,190.249,199.197,107.548,136.734,442.02,125.441,118.529,132.44,26.108,40.771,19.192,66.292,23.126,-1.555,-11.333,-18.967,-14.564,3.508,23.217,-8.291,-42.431,-29.233,-17.575,-23.346],[5307.345,1296.891,1389.402,1465.097,1245.301,1043.733,404.459,337.754,203.25,222.529,510.551,208.181,189.587,56.902,80.319,61.49,-4.436,35.287,28.747,-5.503,5.793,-16.703,24.55,-12.692,14.623,1.976,4.779,-50.806,-34.394,-13.586],[5944.138,5622.993,2031.665,1980.224,1389.744,1210.728,1301.95,351.515,413.44,366.983,557.282,564.498,115.699,203.927,167.115,45.824,84.858,38.483,14.875,17.751,17.38,-21.041,9.877,-1.88,-9.977,-22.423,3.709,-11.817,-5.498,-26.792]]
}