{
"KTrans": [[8.35,8.619,5.584,10.549,5.964,14.643,15.876,6.734,6.373,7.847,3.98,11.353,10.024,8.357,9.962,15.139,14.719,12.779,11.281,17.698,31.337,35.717,23.51,19.365,24.973,68.875,72.755,65.608,58.381,39.107],[-31.476,-3.504,2.1,1.729,5.274,-38.114,-6.124,-0.293,2.666,4.568,-29.593,-4.932,1.144,3.136,6.034,-21.967,-1.976,4.224,5.182,8.317,-1.361,7.195,8.057,7.952,11.943,-10.042,13.199,20.157,18.98,16.469],[-67.202,-18.416,-6.609,-3.244,1.153,-62.972,-17.041,-6.959,-3.113,0.403,-68.602,-16.695,-6.038,-2.87,1.629,-61.053,-18.025,-8.313,-4.366,2.24,-50.194,-11.77,-1.589,1.436,3.046,-32.253,-13.507,-3.883,13.874,3.688],[-81.76,-36.472,-17.954,-11.562,-5.769,-84.087,-34.313,-16.742,-7.148,-4.252,-84.718,-33.917,-14.999,-11.063,-5.447,-75.944,-34.949,-18.596,-11.026,-2.867,-74.344,-33.806,-10.272,-5.774,-3.229,-69.258,-19.076,-13.558,-3.203,3.095],[-88.752,-47.998,-26.205,-16.785,-9.605,-86.597,-49.261,-28.976,-17.422,-10.791,-88.345,-46.63,-31.799,-16.721,-10.681,-84.6,-49.033,-29.423,-15.79,-9.047,-81.223,-55.249,-22.062,-12.946,-7.421,-76.075,-56.344,-27.644,-12.872,-6.632],[-92.537,-56.778,-37.954,-23.891,-14.058,-91.781,-55.02,-35.235,-24.795,-16.94,-91.403,-58.798,-34.119,-24.672,-15.691,-90.41,-59.549,-36.633,-22.008,-15.466,-83.016,-56.515,-37.85,-20.845,-12.517,-80.145,-60.432,-35.38,-21.136,-12.129]],
"ve": [[3.426,6.765,14.551,17.76,0.323,6.584,7.42,18.376,-56.858,-439.447,4.095,8.714,11.756,18.529,15.592,21.226,17.344,20.939,111.773,41.728,0.441,17.595,118.064,-2297.829,-1.089,36.045,40.604,-46.792,-49.679,-42.389],[-12,-0.327,1.504,1.458,2.963,-14.885,-1.735,0.499,1.331,3.395,-11.116,-3.023,1.298,2.351,2.641,-3.049,2.171,3.696,2.619,4.726,17.223,9.025,5.211,5.214,6.7,23.169,24.551,15.889,13.621,11.918],[-34.486,-6.174,-2.58,-1.318,0.686,-28.987,-7.122,-1.809,-1.167,0.006,-35.521,-4.963,-1.155,-0.209,0.563,-34.118,-3.404,-1.245,0.21,1.605,3.614,3.167,4.365,3.232,2.266,31.318,4.994,4.154,12.122,4.312],[-52.181,-15.666,-6.845,-4.546,-2.051,-53.51,-13.73,-6.406,-2.374,-1.894,-41.367,-13.295,-5.597,-4.179,-1.599,-35.408,-11.096,-5.438,-2.274,-0.351,-37.184,-7.408,1.158,0.648,1.029,-16.123,13.189,1.719,4.064,5.265],[-59.016,-20.564,-10.659,-5.648,-3.846,-16.952,-22.528,-11.582,-6.243,-3.514,-52.455,-19.542,-12.592,-6.021,-3.438,-48.519,-19.329,-11.143,-3.507,-2.206,-42.449,-23.8,-2.213,-1.308,-1.109,-4.583,-23.752,-2.72,1.723,2.341],[-61.348,-27.197,-15.502,-9.433,-4.915,-61.158,-25.376,-14.032,-8.698,-6.058,-54.54,-29.033,-13.779,-8.916,-5.909,-38.079,-26.434,-13.966,-6.823,-4.591,-31.461,-20.349,-13.504,-3.522,-1.152,-10.82,-17.227,-3.037,-2.672,1.202]],
"kep": [[-10.242,-10.958,-16.823,-10.579,-20.617,-8.537,-4.391,-15.181,-16.711,-18.367,-13.811,-9.109,-11.427,-13.379,-13.601,-18.067,-11.102,-13.045,-14.817,-4.143,-20.783,-4.54,-9.769,-11.925,-1.028,-40.056,-4.398,9.161,13.009,-4.248],[-35.973,-17.368,-13.742,-13.853,-12.035,-41.38,-18.509,-14.954,-12.976,-13.047,-35.153,-16.42,-14.475,-13.414,-11.117,-38.007,-18.804,-14.147,-12.153,-11.179,-43.855,-19.321,-13.5,-12.787,-10.174,-58.073,-26.003,-15.652,-12.851,-11.593],[-63.591,-26.367,-17.913,-15.987,-13.802,-60.536,-24.703,-18.937,-15.929,-13.861,-65.17,-25.706,-18.736,-16.563,-13.265,-67.245,-28.869,-21.048,-18.369,-13.755,-67.993,-29.879,-20.749,-16.75,-14.286,-64.429,-41.786,-26.262,-15.152,-17.374],[-78.559,-37.354,-24.951,-20.669,-17.457,-80.865,-36.723,-24.298,-18.641,-16.297,-82.131,-36.129,-23.33,-20.437,-17.608,-79.185,-39.224,-27.139,-22.207,-16.598,-80.923,-41.077,-25.72,-20.444,-18.422,-75.82,-45.947,-31.808,-23.232,-18.011],[-85.377,-45.664,-29.953,-24.483,-19.425,-84.038,-46.271,-31.765,-24.755,-20.747,-85.263,-45.652,-33.82,-24.279,-20.789,-86.036,-48.556,-32.957,-25.586,-20.44,-85.846,-57.267,-32.78,-25.304,-20.426,-80.367,-69.458,-40.209,-29.213,-23.453],[-89.411,-51.929,-38.061,-28.242,-22.618,-89.553,-51.42,-36.507,-29.711,-24.278,-89.488,-52.514,-35.652,-29.524,-23.26,-90.219,-56.881,-37.964,-28.665,-24.291,-87.426,-59.154,-40.756,-30.443,-24.626,-83.084,-70.84,-47.939,-33.006,-27.079]],
"vp": [[-86.353,-312.489,-210.676,-468.213,-81.238,-86.303,-151.295,-32.618,-37.675,-60.598,23.721,-26.119,-41.999,-17.859,-41.355,-0.954,-2.618,-2.224,4.566,-12.104,0.462,-15.286,-2.516,1.874,-7.429,-2.878,-13.377,-11.572,-10.657,0.781],[1601.412,119.227,-386.105,15.908,-451.992,385.018,85.027,39.064,-37.764,-102.116,150.679,73.429,-9.568,-28.791,-42.841,19.769,3.38,-6.877,3.326,-17.564,-10.502,-5.125,-0.728,0.793,-8.642,2.366,0.287,-6.326,-4.238,-3.173],[4073.241,1175.057,506.765,617.82,-191.311,728.05,289.162,82.953,86.504,-3.706,453.376,93.348,46.386,24.014,-31.005,80.464,28.813,18.866,17.412,-1.878,20.349,4.315,-1.047,0.359,4.709,-6.561,9.699,9.71,-14.717,8.164],[5977.735,3504.965,1957.101,1762.176,873.318,1242.392,605.679,388.778,135.104,141.733,616.202,286.433,161.879,172.286,79.191,93.601,68.796,47.733,33.828,12.672,54.17,32.604,4.246,7.096,8.804,24.021,-3.863,11.66,3.863,-1.251],[6984.033,4465.582,3266.282,2102.817,1587.936,1248.629,1003.07,727.786,495.465,317.95,660.321,454.4,421.403,245.041,158.704,127.585,97.577,85.17,37.03,27.546,64.087,71.03,16.751,17.172,16.729,16.221,46.426,17.791,9.009,6.794],[7469.45,6152.119,5014.901,3767.398,2132.529,1438.101,1149.353,899.463,731.741,576.398,733.834,680.427,441.378,374.073,278.56,144.579,132.337,104.954,62.731,56.225,50.885,62.51,58.69,25.52,14.425,22.006,34.349,16.597,18.237,8.836]]
}