{
"KTrans": [[-0.77,0.767,-2.347,2.585,0.675,5.792,8.76,12.67,10.9,10.942,13.117,20.329,20.883,20.581,24.386,-97.354,36.796,82.085,78.966,86.698,51.164,2.104,47.697,87.343,87.043,-60.447,109.706,-94.448,-19.153,-46.653],[-21.213,-6.279,1.511,2.269,0.157,-14.324,0.058,1.731,3.061,4.72,-13.622,2.85,0.844,10.117,8.253,-0.592,-25.845,-8.388,12.477,30.553,57.831,-11.391,29.903,24.32,32.842,-145.598,29.715,-100.086,5.023,39.755],[-23.462,-1.013,1.651,-1.309,0.514,-26.725,3.169,3.009,-0.574,2.078,-23.519,9.752,6.908,4.468,-0.341,-19.473,-14.841,11.82,0.169,-6.743,-48.329,19.355,-31.477,9.445,-18.656,-35.783,-26.023,-57.786,86.254,14.918],[-32.359,-6.533,1.595,-2.251,0.256,-43.145,-2.101,2.124,3.172,4.811,-39.009,-4.201,6.006,8.24,5.182,-45.075,18.507,31.071,28.005,7.135,-31.171,-41.826,-48.001,-0.345,31.173,-44.245,-0.847,-39.867,51.507,44.961],[-44.518,-7.448,-2.054,1.196,2.19,-51.429,-3.505,4.911,2.985,3.099,-62.407,0.492,2.88,3.624,6.434,-43.915,-6.835,10.345,12.957,18.569,-44.609,20.264,3.766,6.015,-9.416,-62.086,-28.804,43.176,83.31,54.265],[-65.695,-7.84,1.33,-2.427,0.433,-64.67,-11.146,-2.283,4.454,0.77,-58.019,-14.082,0.453,5.175,5.542,-53.529,-21.123,10.164,27.212,28.464,-57.375,-32.744,3.679,-46.025,3.854,-25.675,-35.476,12.978,-7.433,7.672]],
"ve": [[9.094,-487.164,35.916,-27.932,18.928,23.608,15.182,211.373,21.514,3.199,-35.106,-6.034,-34.968,-52.89,-33.273,33.292,-10.388,-40.229,-22.15,-83.509,104.651,30.472,-29.605,-82.197,-1379.245,194.892,77.208,31.347,1.089,-16.779],[-13.501,4.004,-1.212,0.669,7.722,1.522,8.33,3.292,-8.634,-38.67,2.227,3.546,2.693,15.838,-12.52,43.858,24.3,17.88,1.346,11.812,53.498,42.059,24.654,9.741,356.924,205.984,97.608,66.897,43.355,24.443],[1.251,-0.842,5.652,29.565,0.038,6.103,0.95,-0.991,-3.143,-0.652,7.656,2.829,2.16,1.085,2.554,47.946,25.24,16.849,12.707,21.399,103.863,48.492,33.508,24.452,20.844,193.995,113.409,78.132,48.127,38.055],[-12.782,-1.431,0.343,-0.835,-4.232,-2.442,0.466,1.207,0.232,1.119,18.387,3.708,2.522,2.235,0.665,53.783,6.001,11.418,12.256,8.88,96.176,48.695,35.298,26.814,39.567,194.842,100.087,67.091,50.471,43.085],[-3.677,-0.944,-1.171,-0.078,0.138,-2.039,1.277,1.219,1.421,1.126,2.137,-7.123,1.606,2.029,2.004,46.07,25.945,-422.734,14.048,41.719,92.168,48.847,32.585,25.452,19.519,193.818,100.102,66.533,52.895,38.738],[-6.142,-0.544,-0.125,-0.391,0.195,5.511,-4.776,0.24,0.825,0.387,13.448,1.568,2.56,1.867,1.557,37.437,25.376,16.205,7.349,6.752,97.737,47.87,33.235,25.806,21.198,193.083,101.288,65.603,50.159,40.108]],
"kep": [[-114.725,-22.879,8.359,-15.157,0.717,-124.93,-31.968,-20.42,-20.914,-15.09,-116.985,-57.752,-39.536,-34.31,-50.444,-184.724,-251.342,-179.322,-171.288,-213.245,-24.831,-303.465,-363.916,-386.811,-435.052,13.838,20.088,-500.707,-632.065,-738.225],[-41.753,-38.524,-107.58,-21.578,-3.991,-37.777,-30.415,-119.688,-23.883,-15.551,-45.623,-39.793,-138.14,-70.588,-21.423,-48.338,-56.289,-127.335,-187.451,-107.455,-28.624,-33.939,-22.87,-210.052,-183.427,-72.07,-15.774,-45.755,-25.608,-262.751],[-42.749,-4.787,1.184,-24.513,-109.64,-47.554,-3.778,-1.333,-37.529,-122.925,-44.614,-1.342,0.16,-21.348,-163.762,-56.485,-44.345,-24.178,-38.72,-134.519,-63.488,-18.903,-61.671,-27.056,-78.7,-63.843,-54.579,-64.601,46.524,64.405],[-51.952,-12.778,2.575,-8.567,0.481,-61.124,-11.48,-1.332,1.325,8.727,-61.859,-17.82,2.042,7.446,4.94,-69.184,-15.694,3.481,14.502,-26.402,-69.996,-59.38,-61.354,-26.926,9.975,-72.106,-39.013,-50.736,11.802,19.167],[-64.364,-14.582,-5.17,-0.77,5.243,-68.628,-13.515,0.854,0.064,3.473,-76.814,-15.608,-3.686,0.493,7.837,-71.579,-34.645,-16.52,-8.825,2.99,-71.775,-31.022,-23.542,-24.24,-35.621,-76.981,-51.661,-16.455,18.273,16.807],[-79.375,-19.819,-2.403,-3.27,-0.063,-77.396,-25.515,-6.971,2.126,-0.868,-76.274,-28.858,-8.197,1.82,3.835,-75.107,-46.773,-16.948,7.024,17.604,-78.031,-54.684,-29.987,-60.766,-24.429,-74.046,-58.576,-31.507,-35.135,-16.128]],
"vp": [[74.931,-57.954,-79.217,-150.364,-32.041,-21.832,22.616,40.019,-16.054,-31.463,7.429,10.019,25.392,4.981,-3.623,1.603,4.101,-24.01,-14.641,-9.462,-41.134,-16.445,-2.761,-4.325,2.846,-43.141,-41.442,-12.492,-10.983,9.666],[1951.998,392.174,-247.692,139.804,-410.009,377.533,176.933,-74.206,-4.731,-15.047,210.041,43.635,16.517,-11.421,-41.512,9.19,-18.198,-13.688,14.59,1.772,-20.018,-49.404,-42.2,-38.145,-9.385,-9.201,-61.38,-20.575,-22.686,-34.545],[3949.035,1437.213,792.186,160.897,96.914,809.626,265.576,33.875,61.549,0.895,304.944,132.392,87.029,40.036,1.684,37.584,6.06,-15.991,-10.993,-14.344,6.989,-41.911,-42.215,-49.824,-3.476,-38.168,-58.784,-23.926,-72.739,-55.632],[4656.785,3077.847,770.129,389.87,396.054,914.777,361.09,102.58,145.447,128.85,552.216,233.331,65.972,65.068,17.335,70.007,12.969,16.672,-4.264,-8.855,6.667,-8.855,-21.725,-22.155,-37.509,-25.289,-36.129,-16.043,-25.244,-40.626],[6226.071,3928.557,1699.47,1031.76,466.459,1038.97,892.124,411.513,177.031,68.881,477.56,379.969,191.527,80.722,65.97,105.188,37.892,27.332,24.411,12.823,15.744,-0.838,-44.365,-27.01,-32.058,-24.479,-13.266,-42.917,-33.196,-58.888],[6287.698,5972.9,2641.169,1598.984,928.068,1105.761,1139.141,529.599,278.651,210.946,610.544,544.988,431.986,68.634,143.873,70.811,75.064,38.107,32.845,6.609,40.363,9.992,-8.317,-11.612,10.001,-21.078,-1.722,-45.785,-34.915,-46.475]]
}