{
"KTrans": [[-9.815,-1.672,0.427,-0.59,-1.19,-4.224,1.383,-2.649,-3.29,-0.054,-14.902,-3.841,-1.778,1.773,-2.859,-18.03,-9.864,-8.175,-8.211,-4.013,-31.269,-14.797,-16.974,-10.941,-11.255,-52.657,-34.126,-22.771,-22.318,-19.878],[-40.449,0.656,-1.131,0.596,0.418,-42.454,-2.528,-1.463,0.069,-0.86,-43.552,-4.727,0.351,-0.759,0.142,-56.641,-10.323,-6.238,-3.224,-2.524,-59.415,-17.399,-9.701,-7.767,-7.841,-75.917,-27.653,-21.008,-15.518,-12.815],[-70.762,-6.748,-0.767,-0.075,0.172,-73.069,-10.544,-0.856,-1.231,0.293,-71.895,-8.093,-0.614,-1.89,-1.664,-75.831,-14.658,-6.455,-5.201,-5.031,-82.325,-22.478,-9.527,-7.383,-7.342,-87.708,-37.358,-20.594,-15.002,-11.965],[-83.884,-19.636,-5.283,-1.623,-0.467,-84.707,-16.201,-3.74,-0.681,-0.284,-85.691,-18.323,-3.425,-1.399,-1.163,-88.691,-27.534,-7.866,-5.524,-2.467,-91.831,-34.573,-14.072,-9.539,-5.037,-95.145,-45.921,-22.83,-15.198,-11.375],[-91.645,-31.019,-4.107,0.314,-1.305,-91.649,-30.073,-6.769,-0.6,-0.822,-91.61,-30.746,-6.499,-2.67,-1.742,-94.481,-37.478,-10.555,-5.177,-4.274,-95.229,-45.083,-16.768,-7.035,-7.648,-98.085,-52.939,-24.77,-18.933,-11.491],[-93.847,-41.089,-8.984,-3.556,-0.315,-95.006,-40.548,-8.962,-2.516,-1.519,-95.496,-44.235,-11.153,-4.287,-1.435,-96.292,-46.296,-13.862,-5.189,-1.901,-97.5,-52.039,-20.706,-11.523,-5.27,-98.73,-61.95,-29.298,-16.439,-12.257]],
"ve": [[5.22,-3.178,7.331,14.434,10.141,4.915,5.437,9.11,20.836,14.302,6.545,9.979,5.741,30.698,1046.247,-0.016,6.231,13.439,30.397,52.329,5.063,11.573,23.397,49.691,354.597,-12.475,15.933,0.998,182.824,-205.61],[-11.758,-0.054,-0.29,0.46,0.39,-23.197,-0.718,0.573,0.327,0.738,-14.417,-0.647,0.272,-0.453,0.26,-25.381,-3.113,-1.95,-0.821,0.492,-24.518,-7.179,-3.153,-1.606,-0.767,-36.824,-13.345,-7.215,-3.215,-1.183],[-27.307,-2.491,0.13,1.157,0.416,-22.997,-2.405,-0.784,0.48,-0.317,-25.303,-3.062,-0.741,0.215,-0.466,-37.325,-7.037,-1.655,-1.754,-1.492,-44.424,-10.681,-4.14,-2.77,-2.316,-122.185,-18.026,-9.56,-4.396,-4.439],[-42.771,-6.835,-1.662,-0.451,0.112,-47.443,-6.879,-1.43,-0.263,-0.029,-42.544,-7.256,-1.611,-0.394,-0.125,-51.531,-10.78,-4.038,-1.367,-1.757,-102.226,-15.163,-5.217,-3.615,-2.305,-97.742,-22.306,-11.288,-7.399,-5.11],[-52.308,-11.794,-1.542,-0.077,-0.512,-50.172,-12.141,-2.486,-0.425,-0.391,-29.056,-12.351,-2.745,-0.463,-0.821,-61.681,-17.826,-5.413,-2.059,-1.277,27.53,-19.935,-7.738,-3.949,-3.016,-96.107,-27.524,-12.791,-8.456,-5.302],[-54.581,-17.814,-4.073,-0.807,-0.673,-61.745,-15.732,-3.658,-1.05,-0.29,-61.037,-18.494,-4.354,-1.277,-0.38,-62.541,-23.074,-6.117,-3.151,-1.915,-69.228,-25.869,-10.433,-5.775,-2.993,-52.498,-33.552,-14.426,-7.634,-6.003]],
"kep": [[-11.6,-4.049,-1.339,-5.561,-6.71,-5.222,-0.511,-5.86,-6.073,0.896,-14.746,-7.278,-3.008,2.752,-6.497,-15.766,-10.058,-11.98,-15.728,-9.704,-27.55,-17.124,-25.427,-19.483,-27.602,-46.272,-39.087,-32.874,-40.474,-45.444],[-34.229,0.699,-0.556,0.339,0.335,-34.575,-1.709,-1.863,0.007,-1.273,-36.037,-4.082,0.1,-0.202,0.218,-45.579,-7.543,-4.221,-2.256,-2.768,-48.6,-10.84,-6.594,-6.09,-6.721,-62.131,-16.666,-14.796,-12.425,-11.496],[-62.273,-4.375,-0.911,-1.236,-0.178,-64.995,-8.454,0.099,-1.716,0.663,-63.468,-5.235,0.012,-2.091,-1.202,-67.442,-8.171,-4.976,-3.48,-3.511,-73.565,-13.379,-5.751,-4.72,-5.17,-79.524,-23.55,-12.204,-11.082,-7.891],[-77.168,-14.153,-3.709,-1.208,-0.586,-77.611,-10.295,-2.261,-0.404,-0.23,-79.073,-12.334,-1.989,-1.013,-0.988,-81.21,-19.114,-4.23,-4.237,-0.707,-85.804,-23.454,-9.405,-6.111,-2.795,-90.006,-30.569,-13.135,-8.463,-6.599],[-86.937,-22.131,-2.738,0.379,-0.776,-86.667,-21.794,-4.383,-0.189,-0.431,-85.963,-22.211,-3.898,-2.344,-0.908,-89.937,-24.77,-5.445,-3.159,-3.014,-90.132,-31.889,-9.836,-3.272,-4.805,-95.543,-35.414,-13.856,-11.574,-6.559],[-88.947,-29.397,-5.189,-2.84,0.359,-92.01,-30.636,-5.623,-1.458,-1.259,-91.488,-32.784,-7.275,-3.095,-1.085,-92.787,-31.674,-8.343,-2.213,-0.033,-94.497,-36.592,-11.438,-6.197,-2.372,-98.461,-44.036,-17.436,-9.567,-6.672]],
"vp": [[335.806,98.431,-4.783,8.063,56.865,59.212,-6.522,-9.65,34.564,16.118,41.105,24.471,5.956,0.005,23.806,17.838,16.13,12.908,16.237,5.804,14.37,12.463,13.75,11.977,11.029,14.281,12.822,10.936,11.365,10.721],[1823.926,48.811,280.095,12.424,43.541,341.125,55.764,18.113,-19.463,9.173,195.26,38.282,13.698,18.598,15.454,52.399,16.926,15.109,10.718,7.372,29.557,16.501,13.584,11.376,14.292,22.708,15.149,13.624,13.165,11.899],[3425.702,721.64,275.887,-44.803,-7.15,700.927,156.714,56.221,15.061,20.037,335.934,74.057,14.591,24.538,28.955,77.363,29.519,15.726,18.358,19.46,48.585,23.519,13.762,13.802,14.806,29.617,19.186,15.83,12.576,12.782],[4506.453,1424.419,553.644,214.995,111.558,945.502,295.169,103.786,23.284,40.471,470.393,164.763,64.166,26.625,14.025,110.492,45.431,28.215,17.272,14.156,60.844,33.232,18.273,16.161,13.915,36.845,24.49,17.883,15.498,14.202],[5537.734,2549.223,590.421,-14.798,263.875,1156.933,514.577,148.027,53.047,54.17,568.037,271.148,98.724,38.076,41.586,129.931,75.75,33.077,19.802,19.009,69.5,42.634,24.103,16.811,16.353,41.117,28.88,19.585,18.474,14.251],[5951.409,3760.991,1351.853,328.52,411.698,1308.621,675.088,229.275,92.32,42.724,665.255,397.188,141.661,61.975,12.6,139.057,93.147,39.925,21.501,17.862,76.48,54.082,32.553,22.879,15.733,44.114,35.597,22.905,15.914,15.471]]
}