{
"KTrans": [[-0.996,1.591,1.174,-0.477,0.418,0.387,2.346,-0.64,-0.685,-0.086,-2.503,-2.438,1.191,-0.394,-1.085,17.302,2.811,-2.308,2.231,-0.277,50.976,7.579,11.191,8.163,-2.574,-132.182,54.006,47.59,49.175,37.778],[-12.904,1.973,1.713,0.362,0.741,-14.047,-0.031,2.122,-0.241,0.655,-12.798,0.218,1.136,-0.748,-1.194,-1.062,-2.795,-7.208,-1.065,-0.235,4.959,0.084,-0.139,-3.754,0.565,-7.787,27.84,23.651,10.323,4.29],[-55.618,5.605,2.434,1.521,1.764,-63.193,1.005,1.265,1.21,1.292,-58.937,3.99,0.517,0.015,0.836,-43.336,-7.618,-5.47,-1.118,-1.746,-42.593,-7.981,-5.378,-3.783,-0.209,-84.088,4.978,7.618,1.62,15.109],[-85.606,-0.494,6.069,2.773,1.363,-85.914,1.344,5.574,2.78,1.864,-82.867,0.077,2.376,2.917,2.36,-70.13,-15.718,-1.105,-2.685,-1.336,-69.871,8.554,-3.213,-5.179,0.517,-62.69,-31.162,5.509,-12.795,-7.832],[-91.18,-0.989,6.763,4.459,4.457,-92.913,-3.466,6.253,3.565,2.268,-88.71,-0.279,0.631,3.14,2.584,-79.511,1.757,-0.999,-0.441,-1.402,-87.487,4.32,-8.42,-9.344,0.803,-95.413,-26.053,-0.727,14.927,6.046],[-95.06,-16.378,10.916,6.33,3.659,-95.089,-26.704,10.698,7.827,4.191,-94.233,-44.112,8.206,5.557,5.435,-90.066,-29.593,-4.179,1.935,-0.177,-87.802,-21.994,20.134,1.849,-10.549,-96.274,4.99,-1.235,8.812,-10.473]],
"ve": [[0.045,0.44,1.008,2.473,2.715,1.442,0.205,1.842,1.718,1.944,-2.209,0.649,1.387,3.002,6.158,-0.059,20.017,0.188,-28.395,176513.499,-0.331,-43.13,-51.536,-32.677,-105.626,-26.726,-19.448,16.239,-30.317,-42.952],[-6.993,-0.21,0.165,-0.422,-0.355,-8.554,-0.934,-0.464,-0.541,-0.439,-7.799,-1.506,-0.264,-0.861,-0.412,-0.742,-2.859,-4.304,-0.59,0.148,-17.688,-7.766,0.291,0.038,2.377,-50.77,0.307,36.513,5.7,-21.969],[-37.697,0.398,-0.203,-0.285,-0.42,-44.462,-1.585,-0.785,-0.316,-0.526,-40.942,-0.571,-1.074,-0.679,-0.361,-41.342,-7.313,-4.847,-1.577,-1.725,-38.676,-21.226,-5.479,-2.735,-0.41,-110.574,-6.384,-16.781,-68.168,12.976],[-69.587,-2.24,1.025,0.156,-0.437,-80.622,-2.381,0.689,-0.231,-0.352,-70.33,-1.82,-0.687,0.186,-0.009,-49.305,-17.705,-2.498,-2.837,-1.81,-69.884,-17.497,-3.297,-4.642,-0.827,-66.957,-36.943,-17.91,-17.891,-4.884],[-80.134,-3.449,0.972,0.243,0.519,-84.67,-6.681,0.504,0.449,0.148,-72.543,-5.786,-1.602,-0.27,-0.171,-65.253,-10.454,-2.82,-2.157,-2.311,-82.739,-25.418,-11.634,-8.662,-0.743,-71.903,-29.009,-11.188,4.83,2.74],[-160.695,-16.789,2.557,1.062,0.071,-92.118,-20.391,2.727,1.188,0.217,-88.096,-34.322,1.426,0.337,0.755,-75.836,-29.099,-5.621,-1.299,-2.197,-72.908,-37.674,-25.12,0.066,-8.699,-148.084,-51.632,-21.04,-11.204,-15.349]],
"kep": [[-0.954,1.606,1.339,-1.044,0.371,-1.265,2.648,-1.447,-0.629,0.758,-1.47,-2.783,1.364,-0.976,-2.946,-8.196,-3.879,-10.656,-4.057,-7.797,-10.008,-25.179,-10.885,-12.314,-35.456,75.396,-11.911,2.727,15.397,-16.302],[-8.527,1.954,1.53,0.797,1.131,-8.744,0.628,2.551,0.319,1.139,-9.427,1.247,1.311,0.073,-0.781,-25.147,-5.195,-5.699,-1.493,-0.878,-33.975,-17.096,-5.799,-7.301,-3.017,-25.786,-18.284,-10.051,-9.307,-11.14],[-40.671,4.649,2.541,1.784,2.171,-50.134,2,1.989,1.494,1.809,-50.753,3.862,1.461,0.608,1.176,-58.204,-8.057,-3.774,-0.756,-0.809,-49.055,-45.786,-10.055,-5.743,-2.195,-50.281,-15.222,-29.552,-16.946,-0.645],[-82.547,0.689,4.71,2.555,1.764,-91.785,2.375,4.627,2.925,2.191,-82.162,0.325,2.766,2.584,2.304,-70.014,-22.486,-1.032,-1.318,-0.365,-64.184,-49.891,-12.071,-6.178,-1.669,-59.687,-33.023,-44.33,-30.698,-15.048],[-92.603,-0.448,5.158,4.062,3.86,-98.096,0.219,5.167,2.979,2.05,-93.652,0.259,1.739,3.22,2.7,-81.388,-30.926,-1.559,0.386,0.138,-74.379,-52.196,-19.209,-7.927,-1.278,-63.389,-42.162,-31.933,-17.594,-7.258],[-98.966,-11.54,6.787,4.919,3.485,-97.263,-18.137,6.58,6.287,3.853,-95.179,-37.637,5.763,4.767,4.534,-86.456,-47.742,-4.798,2.059,0.969,-75.001,-53.628,-52.8,-3.539,-6.411,-84.181,-66.501,-39.029,-44.267,-24.573]],
"vp": [[46.514,-40.163,31.229,154.816,43.419,0.244,0.059,23.65,30.971,36.432,25.08,24.233,-0.639,13.505,18.922,-6.432,0.133,13.654,0.763,3.724,-11.152,10.809,-0.355,2.461,17.65,10.158,-3.39,-10.573,-14.883,-3.865],[850.597,-10.863,-78.505,37.625,60.541,173.64,25.235,-5.313,36.573,23.595,80.396,28.463,-1.785,28.128,35.851,2.412,12.681,33.77,7.841,4.925,18.721,9.469,5.733,15.85,3.039,25.143,-3.907,-8.479,-0.908,4.638],[3936.058,-194.058,20.375,-18.407,-3.475,929.536,63.897,31.49,0.556,14.406,421.156,14.75,24.402,23.638,4.116,85.098,31.4,31.809,11.806,16.765,37.554,43.032,18.907,13.949,3.558,56.915,7.008,9.818,10.627,-17.673],[7266.664,444.466,-501.676,-48.398,117.511,1633.961,97.338,-48.182,7.235,13.918,695.417,37.92,13.602,-14.474,-16.846,99.299,70.008,13.836,22.41,15.633,69.374,36.265,13.656,20.24,3.847,31.483,42.345,26.058,35.474,22.524],[8291.379,571.718,-301.376,-247.842,-408.025,1816.658,263.17,-42.406,-44.053,-39.456,840.279,116.636,40.854,6.794,0.637,128.627,35.561,16.185,14.982,22.55,83.3,49.249,36.363,37.265,1.794,34.974,29.046,15.294,-11.5,-5.369],[9608.519,3466.671,-817.579,-574.513,-127.711,1816.323,811.446,-184.813,-106.961,-49.694,872.434,693.48,-45.507,-17.432,-50.65,150.872,123.261,35.99,6.68,21.189,67.978,74.476,76.483,-3.813,46.492,75.444,50.196,32.569,31.191,35.382]]
}