{
"KTrans": [[1.208,3.157,1.309,3.349,2.101,-0.717,13.702,12.045,10.064,9.686,4.507,24.365,23.124,23.87,21.114,-23.081,45.561,85.577,89.711,91.756,-10.563,34.011,92.906,120.465,126.138,-45.974,93.507,-74.789,9.289,51.997],[0.945,3.096,0.844,0.796,0.87,12.592,8.588,0.518,4.699,4.086,23.48,14.284,0.795,9.333,9.258,-16.265,18.503,-14.757,22.401,35.524,-180.094,97.192,-16.594,4.569,49.427,-9.656,112.893,64.148,-5.433,-25.856],[0.224,1.159,1.44,1.009,0.25,-2.485,5.752,5.046,4.109,0.685,-0.956,13.808,9.73,8.576,-1.357,32.246,32.735,30.637,10.258,3.007,-8.347,-66.812,-30.736,23.301,26.993,-15.774,16.843,104.823,-76.769,-37.969],[-10.608,0.052,1.165,0.982,0.905,-2.39,1.68,5.689,4.455,4.033,-0.701,11.185,8.973,5.765,6.115,-17.989,40.439,51.859,32.87,22.438,-6.9,6.177,-41.812,40.972,-21.576,-36.33,-17.402,113.386,-92.22,-3.918],[-10.666,2.678,0.174,1.021,1.08,-17.711,5.154,1.642,2.875,3.674,-45.628,17.068,9.706,6.103,6.471,-59.495,21.822,35.657,34.296,31.858,-78.909,16.372,28.566,35.051,-7.376,-27.255,-36.081,67.142,-2.358,108.303],[-51.547,-6.24,1.087,2.851,1.481,-42.728,4.229,4.483,2.707,2.807,-66.082,10.09,10.886,6.611,4.938,-51.676,25.743,46.706,28.63,19.4,-59.664,-50.684,69.389,53.855,41.99,-96.236,40.085,-107.411,39.667,10.906]],
"ve": [[-1.059,7.886,7.484,15.186,16.693,-1.604,-17.242,11.432,19.97,19.1,7.528,20.234,72.41,-62.686,51.481,49.646,-6.761,387.457,-172.726,-148.531,98.334,29.642,-11.218,-39.124,-54.883,201.822,233.878,34.127,3.04,-17.057],[0.06,0.307,0.148,0.862,0.996,4.318,2.352,1.401,-0.769,2.493,9.574,4.555,5.459,31.523,5.036,48.528,25.692,15.814,8.694,7.223,102.477,47.549,33.767,17.869,-18.102,218.412,99.298,66.295,42.307,27.791],[0.953,0.579,0.26,0.035,-0.009,4.15,2.425,1.591,1.041,1.706,9.827,5.006,3.409,2.376,1.565,48.234,25.908,15.022,12.418,9.696,101.501,51.655,34.895,25.499,19.11,196.892,101.776,65.782,51.686,40.179],[0.743,-0.027,0.312,0.481,0.135,4.442,1.855,2.09,1.452,1.151,8.197,4.884,3.335,2.253,2.245,64.042,23.605,17.538,12.724,10.112,99.033,50.058,33.908,27.57,25.969,187.87,98.97,66.671,46.717,40.927],[0.746,0.518,0.291,0.414,0.274,5.013,2.408,1.514,1.228,1.329,8.416,5.09,3.651,2.569,2.155,51.676,24.534,13.201,11.394,8.322,100.451,50.287,32.84,24.045,21.573,195.549,99.244,66.185,47.944,39.786],[0.051,-0.261,0.394,0.484,0.379,3.079,2.568,1.614,1.218,1.01,8.177,4.277,3.439,2.664,1.964,41.445,25.505,15.381,11.888,9.457,98.664,49.355,34.929,15.909,19.5,202.243,97.501,68.22,49.073,41.947]],
"kep": [[-131.367,-12.004,-2.117,-6.88,-7.434,-155.707,-26.088,-15.205,-13.113,-12.489,-137.57,-50.252,-33.3,-36.157,-31.723,-26.013,-248.768,-185.432,-185.682,-174.135,23.926,-345.01,-349.557,-349.244,-383.097,27.622,107.458,-559.659,-652.746,-716.403],[-1.342,5.593,-120.212,-0.971,-2.568,5.076,15.792,-159.711,-13.85,-7.951,8.909,16.883,-152.632,-33.299,-17.489,-48.499,-7.841,-57.903,-176.253,-120.622,-114.04,60.731,23.098,-279.921,-178.393,-50.424,30.032,114.397,21.953,-352.927],[-5.959,2.88,2.713,1.766,-136.069,-10.859,4.374,6.831,10.956,-144.788,-15.633,9.546,11.106,23.79,-184.929,-21.493,-0.615,9.426,-4.799,9.136,-53.667,-65.927,-54.433,2.235,93.243,-59.264,-28.771,35.205,-99.712,-17.348],[-18.381,-1.622,1.055,2.17,1.874,-17.918,-1.51,5.594,5.567,9.142,-19.254,5.772,7.714,5.263,13.78,-48.391,0.78,32.384,26.139,19.102,-52.591,-33.32,-63.442,10.784,-69.777,-68.54,-43.193,22.823,-89.229,-45.474],[-26.986,-0.848,0.1,2.063,2.456,-34.541,0.037,0.249,1.376,5.337,-57.784,8.114,6.78,5.223,7.989,-73.772,-17.185,11.156,21.641,25.676,-82.048,-28.058,-12.979,1.39,-47.331,-68.897,-57.386,-0.584,-31.41,59.873],[-60.934,-8.782,0.2,3.326,2.861,-57.301,-2.035,1.896,1.741,3.13,-74.087,-0.214,5.66,4.974,4.786,-71.012,-14.213,18.265,14.136,8.845,-75.825,-62.915,10.725,15.025,11.838,-87.483,-31.228,-89.581,-5.693,-34.602]],
"vp": [[30.279,-38.599,-2.849,-182.529,7.133,2.764,-0.325,-12.964,-38.772,-4.175,-7.683,-10.007,-11.538,2.479,-7.421,-24.726,16.462,-9.627,-7.174,-27.525,-43.709,-16.526,-8.686,-17.831,-2.575,-21.009,-17.065,7.854,1.265,-5.598],[631.881,294.816,14.8,-78.996,-9.213,91.656,23.05,-9.695,12.507,-36.427,39.333,8.62,-7.815,-13.129,-2.01,2.626,-27.345,-32.234,8.684,25.628,0.641,-47.665,10.384,-7.73,-22.516,-21.436,-40.053,-14.426,-5.914,21.826],[1749.252,266.433,111.473,102.72,-61.743,179.938,90.358,45.943,12.232,-10.462,137.559,45.464,-21.92,3.073,2.598,4.72,-12.119,-13.599,-37.823,-16.37,-5.693,-35.57,-32.131,-42.5,-43.474,-47.319,-25.543,-42.373,-24.026,-22.351],[3152.168,942.297,572.644,165.367,148.496,540.102,87.611,81.017,36.366,72.537,298.637,41.316,18.748,-11.43,9.599,11.804,2.063,-6.788,-28.374,-20.81,-9.647,-11.842,-16.148,-15.698,-14.408,-21.503,-30.42,-49.628,-32.075,-42.413],[4527.505,1591.261,693.141,752.218,174.144,856.276,291.011,89.055,127.165,70.46,341.112,156.773,73.399,18.689,38.769,50.136,48.335,0.123,-8.553,20.677,11.513,-25.724,-5.531,-13.07,14.737,-12.261,-17.541,-30.085,-41.442,-47.236],[4748.412,2126.47,1040.449,1082.099,880.823,994.655,401.234,192.295,136.614,158.942,431.173,186.279,82.89,114.411,62.13,54.612,37.69,20.954,-24.572,-14.101,9.272,2.693,4.694,-11.748,3.076,-7.6,-42.349,-21.141,-50.519,-25.063]]
}