{
"KTrans": [[9.431,1.987,-9.477,-2.871,-11.835,14.305,12.868,-8.067,1.04,-8.674,-2.339,22.913,10.498,6.701,-6.656,22.845,44.348,71.402,53.868,71.719,-80.816,26.689,41.611,25.602,89.426,2.972,-11.632,39.57,-92.523,-24.663],[-35.139,-14.306,3.077,-0.324,5.478,-34.735,-12.692,3.117,6.964,11.416,-30.668,-8.904,4.907,4.24,10.697,-51.887,-9.31,12.539,16.09,26.553,-6.353,-17.897,24.94,20.914,5.956,90.083,-27.348,16.177,-17.266,27.016],[-55.806,-25.399,-13.746,-5.538,0.128,-56.651,-26.063,-13.804,-1.892,-0.942,-58.355,-17.311,-7.917,-5.995,-0.054,-35.936,-6.669,-3.969,-12.476,8.05,-76.678,-1.909,-8.726,7.241,-27.1,-20.441,-32.662,-36.896,-10.984,-21.716],[-64.874,-35.527,-15.197,-11.562,-7.687,-68.653,-32.683,-13.07,-8.127,-8.69,-65.79,-35.303,-14.299,-3.553,-3.61,-69.664,-12.008,-17.428,4.007,3.054,-43.738,-20.013,0.721,13.496,-16.386,-54.79,-23.651,58.578,-0.919,4.544],[-70.127,-44.309,-21.142,-10.388,-6.328,-71.271,-38.922,-17.418,-9.249,-4.525,-73.663,-31.967,-18.433,-8.707,-3.977,-93.06,-37.111,-4.352,7.425,2.784,-74.927,-42.58,-43.647,-0.779,-7.096,-77.708,-82.968,18.876,5.227,49.761],[-79.302,-51.387,-22.909,-12.492,-5.578,-74.814,-46.13,-34.187,-10.326,-9.429,-82.101,-49.162,-28.018,-8.894,1.404,-80.51,-38.98,-22.167,-14.392,-12.168,-87.589,-56.589,-15.159,-10.932,-44.228,-80.816,-57.26,-15.595,5.918,19.798]],
"ve": [[-21.584,-38.16,-26.651,-36.31,-58.899,-36.768,-16.519,420.831,-42.274,-60.331,-0.221,1.387,107.886,-18.725,7.523,-6.332,55.151,-23.067,-173.409,-61.586,153.726,33.647,-1.826,-11.341,-73.98,238.11,9684.749,27.762,11.097,-17.334],[-19.189,15.956,0.256,-1237.006,5.737,70.698,9.789,-9.534,1412.306,6.941,27.277,14.428,5.962,7.894,18.343,235.289,11.953,12.498,10.814,31.765,102.644,55.964,28.087,19.25,12.483,167.232,59.096,58.427,55.326,19.363],[-31.488,-124.929,132.791,-6.221,0.647,-17.479,7.482,-50.74,4.155,11.234,34.842,5.505,7.838,-25.112,9.541,-29.194,37.693,30.694,-16.862,11.051,72.733,18.918,32.586,21.998,17.387,204.411,82.602,63.681,47.818,37.569],[-6.294,-52.382,-0.793,-13.258,-6.435,9.456,0.155,-1.884,-39.427,-31.592,-5.301,-5.29,1.799,-0.713,-2.849,-574.124,28.969,1.752,10.468,-2.663,77.916,40.443,31.139,31.156,19.167,188.07,93.294,61.543,47.411,33.481],[-12.709,-27.879,-3.608,-10.232,-23.124,393.57,-0.213,-9.451,0.749,-3.416,-7.154,-5.015,8.069,-2.023,-11.376,-5.962,24.572,12.654,12.673,9.949,72.834,45.446,31.011,-6.044,22.379,202.287,102.344,63.819,84.154,40.057],[146.63,12.987,-6.835,-10.771,-28.382,75.357,64.683,-131.214,-0.298,-3.806,1.495,-14.105,-3.893,-3.902,-7.198,80.144,17.41,4.39,13.14,5.183,-675.854,47.007,32.789,20.855,24.891,142.587,93.708,64.077,48.454,35.42]],
"kep": [[-112.796,-99.337,-38.748,-64.86,-8.051,-127.208,-115.688,-52.847,-39.653,-57.158,-94.132,-102.508,-95.477,-69.308,-56.245,-130.379,-180.674,-189.901,-212.506,-229.486,-156.436,-223.792,-287.036,-385.022,-365.764,-90.676,-200.282,-330.035,-472.246,-570.424],[-88.336,-99.989,-113.916,-85.144,-56.983,-88.907,-104.267,-100.468,-73.023,-70.6,-87.289,-103.565,-116.143,-77.059,-73.593,-102.43,-100.796,-108.722,-157.805,-111.848,-85.48,-95.546,-96.068,-148.345,-202.441,-49.168,-54.328,-68.218,-167.237,-214.454],[-90.909,-72.132,-71.56,-100.904,-103.571,-91.579,-71.871,-79.742,-92.999,-119.651,-94.851,-65.88,-65.147,-90.843,-107.196,-85.184,-61.756,-68.433,-115.467,-114.763,-98.578,-60.666,-67.514,-82.152,-162.753,-77.226,-62.804,-55.195,-47.095,-73.727],[-91.659,-68.688,-48.878,-59.309,-66.478,-93.623,-68.592,-49.868,-47.444,-70.714,-93.886,-69.606,-42.714,-38.132,-53.347,-98.184,-60.264,-58.12,-41.844,-65.53,-84.687,-63.602,-49.872,-24.715,-80.951,-85.017,-62.578,-18.594,-31.278,-24.927],[-93.348,-72.916,-48.021,-29.198,-33.482,-93.714,-68.499,-43.003,-28.952,-24.041,-94.08,-64.478,-45.473,-34.698,-26.605,-100.758,-70.62,-40.027,-27.35,-34.63,-93.62,-72.803,-68.893,-40.308,-40.41,-87.457,-76.563,-34.249,-31.346,0.175],[-96.808,-73.386,-41.002,-27.331,-14.731,-93.344,-68.645,-55.069,-24.127,-30.822,-97.236,-73.974,-53.068,-24.621,-9.706,-96.569,-69.983,-52.21,-42.722,-40.361,-95.524,-80.865,-45.831,-37.526,-72.725,-91.929,-73.969,-44.67,-35.309,-30.589]],
"vp": [[-295.368,562.268,916.604,642.836,5.337,-131.053,-37.073,331.819,46.71,167.557,-66.722,-54.46,3.334,24.483,26.139,-15.541,-25.526,-26.805,-1.089,-23.488,-41.389,-44.055,-54.129,7.827,-30.571,-45.859,-39.2,-64.777,-22.078,-10.224],[2779.807,1328.083,3.198,-827.729,-169.485,458.679,122,-49.004,-76.942,138.274,166.392,143.933,-56.643,-123.942,-57.623,64.08,13.837,-14.397,-5.633,-47.455,3.512,-24.518,-51.864,-47.651,-11.271,-47.161,-38.605,-29.774,-36.083,-23.969],[3576.182,3829.832,2080.598,874.514,275.748,975.47,734.895,536.199,122.854,-121.586,508.943,296.733,127.377,45.39,13.422,68.313,10.583,6.32,-5.258,-16.007,30.861,-11.122,-33.93,-39.981,-10.781,-36.9,-35.73,-32.889,-49.98,-19.439],[5343.509,4139.487,4734.094,2429.974,907.85,953.862,1075.779,795.119,671.935,455.471,570.156,548.421,237.717,133.187,32.868,97.256,65.18,27.791,31.852,20.371,24.996,8.504,13.308,-46.178,12.053,-5.444,-27.954,-37.947,-30.217,-38.302],[6821.826,7656.162,7776.24,3261.386,3093.414,1172.54,1611.377,1040.698,439.8,416.137,579.552,819.105,591.688,355.418,172.821,87.045,121.005,59.921,37.27,44.015,-12.787,31.674,24.554,11.154,8.342,-1.089,3.542,-29.019,-27.284,-21.232],[6007.269,8607.429,7947.977,5528.402,2800.8,1361.215,1620.419,1201.974,1032.47,624.639,797.67,976.651,807.201,570.348,451.47,93.047,146.737,112.418,117.391,71.341,60.292,65.243,35.72,-11.878,12.274,-9.943,-13.567,-22.882,-23.923,-15.788]]
}