{
"KTrans": [[-28.713,9.965,9.327,3.539,9.34,-1.576,9.167,17.264,10.131,14.468,2.645,29.109,16.893,19.124,13.505,35.479,80.909,78.205,60.992,61.695,171.968,50.394,121.117,89.018,150.614,232.458,207.536,156.373,106.315,81.243],[-60.713,3.592,8.515,5.087,1.742,-50.418,5.08,10.748,8.124,5.027,-55.746,14.089,15.995,14.565,11.037,-32.853,77.081,57.491,43.703,36.355,-22.234,2.826,82.694,96.233,83.254,7.47,57.991,94.365,69.249,92.704],[-82.793,1.567,5.518,7.197,3.714,-74.414,-4.834,11.619,16.151,5.208,-75.087,2.641,19.267,13.885,11.587,-57.912,30.41,50.296,45.632,37.183,-27.703,-4.574,59.827,85.672,73.645,-6.948,50.659,65.735,87.38,104.651],[-87.646,-24.779,6.067,13.897,9.739,-92.998,-22.521,11.889,8.595,8.575,-92.817,-9.553,15.108,12.426,10.773,-80.988,-6.915,48.365,42.806,39.368,-68.97,-9.511,50.059,103.715,65.009,-37.067,27.065,49.834,8.323,82.174],[-91.912,-37.218,7.527,8.912,7.717,-93.197,-39.511,9.694,10.768,6.253,-89.875,-23.72,7.962,14.342,15.024,-87.848,-29.797,26.719,53.269,43.62,-69.951,-30.027,32.17,69.01,100.916,-67.008,33.23,40.803,31.678,78.835],[-96.541,-52.628,0.439,1.362,10.866,-96.033,-47.094,2.028,16.437,6.679,-98.341,-54.034,15.603,9.937,15.281,-95.034,-48.652,16.628,57.715,37.156,-83.98,-45.152,1.856,9.145,89.13,-44.101,-14.128,-12.434,18.26,36.879]],
"ve": [[-43.085,-158.716,-118.986,14.271,-34.302,140.747,-156.377,13.047,72.013,10.067,33.489,-22.346,-6.924,19.03,-2036.826,-25.219,32.067,27.713,-18.883,-202.841,91.171,39.246,14.609,-15.906,31.806,194.033,80.338,34.139,8.108,-5.162],[-23.417,5.175,-0.128,2.209,1.546,-60.374,5.222,4.576,3.053,2.05,19.354,6.737,1.955,2.991,1.889,76.506,26.397,13.983,9.05,7.031,129.346,50.651,32.201,23.079,14.777,209.325,95.749,57.482,42.185,23.603],[-0.517,4.781,1.617,0.665,-0.399,18.57,4.865,2.696,1.383,1.207,55.986,658.671,3.29,2.321,0.3,57.769,28.027,18.465,11.97,8.225,107.714,54.579,29.508,24.419,17.493,207.934,98.59,66.266,48.157,36.423],[-11.396,2.477,0.633,-0.493,-0.324,16.011,6.559,1.575,1.561,0.551,-8.387,7.393,3.126,1.632,0.704,49.91,23.805,17.611,13.094,9.531,200.256,52.004,31.774,24.996,18.339,207.574,109.372,64.144,50.101,36.954],[22.956,-8.122,0.764,-0.97,0.708,3.1,5.583,-0.116,1.392,0.564,22.816,9.732,5.317,1.307,0.371,70.594,4.336,15.875,12.741,9.381,87.444,35.845,33.976,25.551,18.938,207.616,99.999,65.992,47.863,39.244],[6.689,3.169,1.717,1.883,0.282,-0.537,5.089,3.327,0.202,0.555,-14.937,3.484,5.623,3.388,2.639,55.976,23.254,17.608,12.515,9.803,104.213,50.159,33.331,16.409,21.248,198.042,101.695,68.399,50.136,34.291]],
"kep": [[-38.677,3.828,13.595,0.475,12.134,-23.797,-0.76,17.792,11.668,27.492,-22.668,29.074,21.005,29.155,23.939,-13.448,51.03,73.167,70.676,87.58,46.796,5.026,93.968,78.519,194.654,28.948,88.377,90.113,85.621,85.629],[-67.496,1.44,10.315,5.252,2.985,-63.277,1.598,8.63,7.812,4.894,-66.112,8.66,15.908,12.633,11.67,-59.533,39.815,39.913,32.872,28.967,-59.921,-22.59,38.831,60.488,60.224,-53.805,-7.091,25.658,21.647,47.687],[-87.77,-2.917,5.317,7.768,4.896,-81.157,-9.059,9.679,15.686,4.795,-83.974,-3.126,15.848,12.107,11.889,-74.573,1.593,26.706,30.544,27.637,-63.519,-31.432,22.278,47.817,47.31,-63.072,-17.949,2.577,28.051,48.715],[-91.6,-27.563,6.345,14.935,10.453,-96.954,-27.265,11.307,7.636,8.547,-96.5,-16.372,12.689,11.357,10.489,-88.15,-26.048,25.541,26.21,27.311,-81.9,-36.406,12.831,61.198,38.48,-75.151,-30.625,-3.593,-19.711,33.483],[-94.749,-40.476,7.057,10.479,7.338,-96.293,-44.968,8.803,9.761,6.081,-93.514,-31.531,2.553,13.367,15.248,-92.34,-45.022,8.677,35.389,31.413,-83.842,-49.785,0.311,32.746,66.969,-84.792,-29.669,-11.884,-5.021,27.94],[-98.673,-56.145,-0.602,-0.169,11.059,-97.901,-52.67,-1.192,16.541,6.232,-99.693,-58.913,9.279,6.572,12.678,-96.673,-58.368,-1.788,39.125,24.899,-90.46,-61.832,-19.392,-11.752,55.981,-79.224,-52.574,-41.724,-16.151,1.274]],
"vp": [[1894.179,-111.847,-79.181,-911.552,214.911,384.876,24.528,-99.191,-85.23,99.06,205.338,41.105,-55.67,-56.125,-28.87,28.001,-19.778,-27.763,-10.851,-27.979,-30.139,-17.206,-18.742,-17.772,-11.423,-19.116,-33.762,-30.093,-23.299,-28.446],[5380.285,2344.496,2127.32,515.653,180.658,887.017,530.069,139.33,-37.941,18.128,430.802,258.302,-70.494,101.15,0.109,84.563,26.015,-5.405,-2.147,-1.758,43.266,-1.549,-9.567,-2.55,15.017,14.216,-25.235,-22.141,-28.375,-23.563],[6529.962,6658.927,2699.116,1220.943,757.385,1353.78,1269.95,496.055,451.103,188.855,688.559,673.733,308.777,42.51,69.464,115.809,98.437,-0.042,8.385,11.543,39.608,37.845,-7.63,6.878,-6.44,26.148,-12.92,-28.504,-15.253,-7.877],[8078.168,8583.664,5537.009,2126.401,1811.395,1618.19,1967.335,1024.566,443.591,533.707,792.15,1164.043,538.661,224.047,61.588,136.807,166.85,82.251,27.412,13.633,80.613,55.025,10.661,1.177,-25.971,24.245,32.235,-19.358,0.38,-33.604],[7935.337,12151.911,9223.195,4314.572,2245.93,1719.716,2428.919,1779.864,580.785,361.715,818.046,1071.762,792.366,515.272,242.609,136.982,225.205,138.546,105.693,40.651,64.352,100.651,52.959,11.395,4.504,38.24,18.048,-6.239,1.126,-12.772],[7718.756,13319.261,11015.167,7169.865,3755.921,1646.315,2564.353,2511.961,1500.638,389.247,848.385,1341.796,1296.495,686.519,397.273,170.505,230.299,236.976,161.246,50.903,77.751,111.412,104.422,82.989,8.439,4.349,28.838,29.318,7.656,-20.675]]
}