{
"KTrans": [[-33.373,17.317,29.877,18.691,15.123,-20.337,42.924,43.79,20.348,20.939,-17.729,24.305,40.39,23.258,17.282,74.362,123.401,107.795,85.67,76.749,219.068,300.627,229.134,185.743,176.783,636.036,698.23,547.188,463.035,412.516],[-75.753,21.004,43.51,28.08,28.409,-80.61,24.326,42.388,34.036,26.407,-76.829,33.984,72.499,34.869,34.593,-68.075,84.29,92.279,70.056,71.644,-14.02,163.522,119.033,105.535,105.141,5.742,393.612,310.911,250.363,175.765],[-92.483,-30.722,31.911,38.938,46.707,-93.717,-31.244,44.528,55.786,50.098,-98.41,-46.835,53.361,54.805,44.842,-85.492,9.343,83.159,86.131,73.86,-47.39,32.244,137.178,133.192,103.041,-31.418,143.343,345.305,253.658,195.032],[-101.911,-77.402,8.303,81.67,60.075,-102.11,-70.244,27.327,53.241,74.248,-102.522,-97.281,12.398,61.672,55.234,-98.12,-67.263,42.908,140.625,86.795,-88.311,-15.544,67.941,166.542,97.793,-100.869,-10.919,194.749,338.339,235.495],[-104.752,-92.871,-47.124,33.968,77.712,-101.66,-99.141,-56.864,38.221,81.932,-100.858,-89.582,-35.513,61.017,78.382,-104.578,-98.372,-11.9,118.263,117.57,-98.191,-113.709,19.756,136.246,166.322,-95.385,-49.873,119.344,238.877,242.924],[-102.581,-107.212,-71.815,25.938,60.332,-99.86,-97.037,-79.602,-5.201,107.544,-103.645,-111.666,-85.062,17.032,82.828,-110.537,-90.263,-67.327,48.381,102.669,-97.283,-110.154,-114.238,51.434,187.346,-84.581,-55.59,-81.057,123.377,241.921]],
"ve": [[149.588,35.26,-788.928,-73.203,418.422,23.982,17.392,24.769,187.193,-10.901,34.622,-11.16,2.876,-14.834,20.567,55.955,22.507,16.995,-0.041,-30.118,109.821,44.83,16.833,0.789,-13.623,196.942,87.499,40.305,14.14,-5.661],[-6.847,6.678,6.267,3.389,2.488,1.469,1.557,3.071,2.547,4.327,43.654,9.463,6.595,5.309,3.438,68.127,67.38,16.74,10.714,7.418,101.057,-9.791,30.691,17.457,13.962,215.379,102.589,61.051,44.922,29.572],[14.661,13.181,1.499,3.112,2.897,17.723,6.958,3.926,3.349,3.562,0.187,-1.232,7.688,4.26,3.486,56.481,39.346,19.782,11.403,9.852,106.963,56.554,42.359,24.593,19.302,188.887,100.84,71.6,49.927,37.086],[7.807,2.783,4.103,3.48,0.129,17.83,8.009,2.669,3.097,5.926,23.295,10.052,6.976,1.856,4.033,142.599,27.78,18.632,15.518,10.369,101.886,113.435,36.006,26.622,18.288,207.934,105.938,68.586,49.849,40.643],[0.186,-1.234,-0.798,2.817,1.552,-18.052,14.829,-15.671,2.235,2.637,19.359,64.753,2.995,2.869,2.19,58.524,51.463,19.018,13.971,10.612,110.489,28.811,45.695,58.435,21.764,189.9,97.289,65.385,50.548,39.544],[5.461,6.087,2.509,3.712,0.344,-2.538,-0.789,8.738,18.364,5.026,27.628,11.035,5.434,7.741,2.966,49.664,23.224,16.209,18.954,12.216,175.666,53.165,35.386,29.963,21.082,203.281,99.563,72.486,51.149,40.943]],
"kep": [[-51.084,5.231,29.119,17.131,18.214,-44.037,26.781,48.348,17.162,35.131,-39.964,13.242,36.725,27.212,18.383,8.302,88.705,107.762,104.331,120.009,52.765,186.452,193.722,193.857,232.765,139.804,330.797,371.817,398.788,446.394],[-80.572,6.934,32.9,23.373,25.522,-85.875,10.544,33.619,28.997,21.831,-85.905,19.244,58.843,27.906,30.692,-82.788,36.825,60.636,50.727,58.229,-61.654,66.817,63,70.873,77.761,-68.318,141.194,149.89,138.505,109.291],[-95.516,-42.838,23.537,31.009,39.041,-97.265,-40.409,32.972,45.029,42.063,-99.406,-52.947,37.728,42.995,35.595,-90.547,-19.789,45.927,60.231,54.083,-74.614,-18.357,68.703,81.105,65.675,-77.359,17.143,155.256,130.588,109.374],[-102.115,-81.156,-3.232,67.527,52.944,-101.865,-76.139,12.644,39.279,60.416,-100.392,-96.922,-0.097,49.277,42.527,-98.615,-74.743,14.149,100.893,60.202,-94.612,-46.343,18.781,100.495,60.093,-99.922,-54.797,69.927,180.2,129.937],[-104.16,-93.746,-52.02,22.749,65.192,-101.806,-97.149,-61.273,23.949,67.767,-100.837,-89.559,-40.579,44.441,64.138,-102.807,-98.111,-29.528,82.765,84.833,-99.057,-106.775,-15.609,75.824,109.241,-98.403,-73,26.042,115.315,134.683],[-102.46,-104.895,-72.973,15.494,46.815,-99.625,-96.331,-79.363,-13.085,87.581,-102.471,-108.673,-86.651,4.039,65.49,-106.552,-90.476,-70.444,20.629,69.312,-98.403,-103.969,-108.155,14.456,123.57,-95.215,-75.019,-87.32,43.202,131.275]],
"vp": [[0.001,0.001,0.001,0.001,0.001,0.005,0.005,0.005,0.005,0.005,0.01,0.01,0.01,0.01,0.01,0.05,0.05,0.05,0.05,0.05,0.1,0.1,0.1,0.1,0.1,0.2,0.2,0.2,0.2,0.2],[0.001,0.001,0.001,0.001,0.001,0.005,0.005,0.005,0.005,0.005,0.01,0.01,0.01,0.01,0.01,0.05,0.05,0.05,0.05,0.05,0.1,0.1,0.1,0.1,0.1,0.2,0.2,0.2,0.2,0.2],[0.001,0.001,0.001,0.001,0.001,0.005,0.005,0.005,0.005,0.005,0.01,0.01,0.01,0.01,0.01,0.05,0.05,0.05,0.05,0.05,0.1,0.1,0.1,0.1,0.1,0.2,0.2,0.2,0.2,0.2],[0.001,0.001,0.001,0.001,0.001,0.005,0.005,0.005,0.005,0.005,0.01,0.01,0.01,0.01,0.01,0.05,0.05,0.05,0.05,0.05,0.1,0.1,0.1,0.1,0.1,0.2,0.2,0.2,0.2,0.2],[0.001,0.001,0.001,0.001,0.001,0.005,0.005,0.005,0.005,0.005,0.01,0.01,0.01,0.01,0.01,0.05,0.05,0.05,0.05,0.05,0.1,0.1,0.1,0.1,0.1,0.2,0.2,0.2,0.2,0.2],[0.001,0.001,0.001,0.001,0.001,0.005,0.005,0.005,0.005,0.005,0.01,0.01,0.01,0.01,0.01,0.05,0.05,0.05,0.05,0.05,0.1,0.1,0.1,0.1,0.1,0.2,0.2,0.2,0.2,0.2]]
}