{
"KTrans": [[15.746,22.862,24.75,22.045,25.3,26.706,30.387,27.217,30.988,20.532,18.47,27.169,16.969,33.206,25.176,62.22,31.257,43.897,46.011,34.171,78.647,55.256,63.327,45.694,59.148,110.809,119.822,113.538,114.566,108.58],[-53.122,-3.547,6.676,12.12,11.503,-48.618,-9.119,3.665,7.286,8.845,-45.679,-1.358,6.315,9.961,13.667,-37.067,1.053,8.849,15.193,17.813,-5.519,9.293,13.066,21.851,28.548,-38.457,37.258,58.71,48.72,39.945],[-77.747,-33.11,-13.488,-2.092,-0.819,-79.031,-31.38,-13.038,-4.963,-0.464,-75.122,-28.021,-11.302,-2.371,0.924,-64.452,-23.606,-8.725,-3.662,2.927,-60.789,-26.672,-0.536,1.612,12.482,-52.741,7.618,-0.539,10.403,23.87],[-85.516,-46.228,-31.28,-13.455,-8.405,-85.523,-43.609,-28.788,-15.613,-6.513,-84.247,-55.589,-25.707,-17.667,-9.174,-75.903,-53.006,-27.964,-13.206,-6.115,-73.503,-40.37,-19.668,-8.717,-4.206,-73.824,-32.143,-23.642,0.603,6.505],[-89.961,-61.185,-43.995,-31.771,-18.426,-88.171,-62.292,-44.602,-29.803,-22.115,-86.578,-64.123,-43.044,-28.469,-19.097,-85.948,-56.984,-38.729,-29.079,-16.102,-73.643,-56.22,-35.949,-28.833,-16.655,-67.738,-59.989,-24.72,-17.069,-10.016],[-91.306,-70.579,-51.13,-41.1,-26.446,-90.317,-73.566,-52.619,-36.881,-24.827,-91.997,-71.592,-52.534,-43.119,-27.165,-88.686,-69.993,-49.936,-38.542,-27.273,-86.3,-64.635,-55.287,-36.112,-25.593,-88.601,-71.371,-40.713,-34.093,-16.104]],
"ve": [[117.418,-19.034,23.415,-1566.879,124.297,16.633,-34.98,70.403,10.129,-91.981,-15.469,0.225,-101.716,-25.353,-246.25,-111.249,-6.931,-12.703,-18.207,25.802,113.639,24.754,-66.847,56.503,-24.883,71.14,54.602,24.139,2.561,-21.48],[-15.063,-3.318,2.7,8.739,9.858,2.032,-0.348,3.27,6.478,11.033,1.69,8.701,6.943,10.086,9.576,-17.439,23.006,12.866,10.774,14.476,38.372,30.99,15.02,23.329,24.826,74.212,51.775,30.486,33.77,-0.704],[-21.893,-11.051,-4.013,-2.037,0.54,-38.583,-7.255,-5.533,-1.788,0.315,-15.039,-8.897,-3.134,-0.736,3.009,-12.146,1.149,0.562,1.213,3.942,-31.175,1.46,7.639,9.29,10.09,68.228,38.675,-1.763,22.858,22.408],[-24.11,-14.463,-12.172,-6.471,-2.558,-34.669,-15.119,-10.479,-4.16,-3.403,-68.334,-16.915,-6.985,-6.131,-2.141,-22.94,-25.89,-4.312,-2.114,-0.242,7.915,20.894,0.011,2.996,4.197,36.558,22.585,3.678,-24.982,20.47],[-59.068,23.785,-14.259,-10.74,-6.665,-70.196,-24.61,-14.222,-9.804,-6.277,-44.299,-17.467,-15.483,-9.892,-5.714,-31.89,-12.496,-9.286,-7.329,-3.186,-30.025,-9.147,-2.231,-4.213,-1.678,93.839,13.519,12.077,3.559,9.061],[-33.882,-19.629,-18.67,-13.66,-10.244,127.221,-31.178,-18.896,-12.349,-9.44,-57.251,-21.799,-18.844,-14.707,-8.114,-82.565,-17.511,-11.684,-11.192,-7.502,21.282,-10.841,-14.056,-5.752,-5.299,34.863,14.825,1.533,5.672,6.848]],
"kep": [[-35.694,-29.177,-29.651,-37.112,-41.588,-33.057,-23.269,-23.398,-28.004,-48.685,-31.634,-25.422,-43.348,-24.47,-40.551,-27.549,-34.33,-24.654,-18.932,-36.169,-39.891,-34.901,-21.922,-40.815,-22.408,-28.737,-37.807,-24.222,-17.636,-11.294],[-71.134,-35.373,-29.823,-29.073,-30.53,-70.155,-39.245,-32.198,-30.727,-33.151,-65.046,-35.198,-31.429,-30.693,-29.295,-67.563,-41.29,-34.271,-29.691,-29.58,-61.553,-42.251,-35.86,-31.17,-25.999,-65.073,-50.312,-30.487,-25.158,-29.286],[-85.266,-50.478,-40.159,-33.278,-34.093,-86.889,-51.414,-38.747,-35.449,-33.713,-84.041,-48.125,-38.845,-34.5,-34.533,-81.127,-52.325,-39.759,-37.005,-34.056,-81.402,-60.528,-40.145,-38.878,-32.275,-80.652,-59.144,-53.373,-44.004,-32.588],[-91.745,-59.069,-48.19,-38.717,-37.356,-91.545,-57.936,-47.682,-41.46,-35.568,-89.58,-64.667,-47.359,-41.502,-38.091,-87.972,-64.256,-50.972,-41.32,-37.552,-86.74,-66.425,-50.742,-42.432,-39.713,-83.918,-72.033,-63.152,-46.414,-40.31],[-94.016,-67.635,-57.013,-49.062,-41.912,-93.438,-68.912,-57.549,-48.534,-44.617,-92.059,-70.509,-56.06,-47.492,-43.051,-92.038,-68.966,-55.983,-49.651,-42.803,-88.487,-76.749,-57.954,-51.804,-44.592,-87.103,-75.213,-61.498,-54.795,-46.635],[-93.91,-74.657,-60.636,-54.858,-45.643,-94.657,-76.489,-61.537,-52.48,-44.843,-95.145,-75.323,-61.903,-55.922,-47.388,-95.114,-77.858,-63.329,-54.697,-47.934,-92.98,-78.265,-68.475,-56.349,-48.696,-88.293,-85.544,-67.266,-62.197,-50.368]],
"vp": [[47.456,-279.061,-753.631,-969.846,-1026.063,-94.797,-79.102,-171.513,-183.308,-126.677,39.422,-60.917,-47.286,-87.451,-82.316,-14.117,-16.562,-39.472,-19,-3.418,-22.422,0.521,-18.485,9.711,-17.353,-16.453,-22.844,-6.087,-16.018,-15.516],[3400.054,552.068,-154.495,-1642.223,-837.467,556.573,241.816,-6.523,-120.915,-147.075,278.134,50.515,-66.832,-55.243,-106.015,33.104,-11.188,5.218,-20.944,-25.885,-14.908,3.845,7.63,-11.815,-32.045,-9.289,-11.441,-31.11,-25.389,-5.914],[5548.915,2690.779,1072.843,151.846,81.691,1159.051,535.567,344.011,114.981,78.595,483.543,304.088,100.833,22.637,-21.938,91.996,20.147,20.613,31.602,10.293,38.514,30.404,-1.63,-1.102,-10.941,-6.769,-22.073,20.617,22.973,-9.856],[6935.316,3824.821,4109.628,1521.56,1314.447,1263.979,821.913,677.535,299.037,264.748,593.459,613.668,232.673,267.03,163.35,112.147,138.229,70.066,39.433,33.632,34.994,33.074,21.479,26.371,14.664,23.01,1.81,29.897,-0.545,2.623],[7616.229,6740.879,6254.297,5158.31,3136.39,1328.521,1405.299,1125.823,847.447,772.058,632.813,703.078,595.207,463.543,325.43,127.511,109.167,91.486,103.259,57.023,23.58,62.065,45.811,61.15,52.045,-19.99,24.655,-2.023,15.151,8.701],[7030.11,7874.18,7132.027,7023.49,4822.963,1266.583,1883.464,1499.12,1209.396,937.484,783.654,880.671,747.068,758.256,435.789,126.919,174.807,119.234,143.87,113.357,67.259,61.529,101.351,62.428,67.272,23.124,18.048,28.131,38.718,3.11]]
}