{
"KTrans": [[-3.575,3.185,-1.341,1.181,-0.938,-5.066,0.036,0.107,0.832,1.791,-7.019,-1.189,-1.188,-2.719,-0.816,-21.911,-5.723,-9.442,-5.666,-6.736,-32.633,-18.887,-12.818,-14.542,-11.347,-56.311,-36.628,-29.665,-22.386,-22.942],[-26.276,1.996,-1.984,0.945,-0.111,-27.064,0.847,-0.194,-0.456,0.515,-34.998,-2.221,-3.866,-1.249,-0.989,-44.791,-14.256,-6.05,-4.776,-5.012,-53.83,-17.668,-11.652,-7.416,-7.643,-72.605,-31.207,-20.229,-17.821,-14.576],[-59.293,-5.579,-0.311,-0.273,0.549,-61.535,-9.325,-0.31,-0.824,-0.4,-58.801,-6.147,-2.361,-1.828,-1.139,-65.643,-15.569,-8.966,-4.609,-3.454,-74.096,-20.672,-11.168,-8.586,-6.975,-89.242,-38.934,-23.581,-17.487,-13.696],[-77.632,-10.619,-1.725,-0.748,0.827,-76.876,-8.725,-1.404,-0.967,-1.417,-79.806,-12.599,-2.963,0.894,-0.647,-82.35,-14.796,-7.759,-4.029,-3.586,-88.968,-30.672,-14.162,-9.657,-8.05,-93.542,-47.044,-23.842,-16.248,-12.795],[-86.709,-15.65,-2.389,-0.465,0.493,-88.621,-15.048,-2.109,-2.339,-0.911,-87.683,-18.934,-1.446,-2.047,-1.289,-92.931,-24.118,-8.247,-3.864,-4.021,-94.199,-37.676,-15.06,-9.476,-7.625,-96.67,-54.505,-27.153,-19.556,-14.153],[-92.639,-25.926,-4.305,-1.815,0.666,-93.512,-30.61,-4.025,-0.808,0.298,-93.654,-26.583,-5.996,-2.519,0.27,-95.939,-37.471,-9.847,-5.3,-3.996,-97.976,-45.245,-18.827,-9.171,-7.309,-97.587,-58.71,-29.147,-20.927,-13.906]],
"ve": [[1.589,1.218,4.163,3.269,13.47,1.049,0.488,3.822,5.174,1.816,1.787,1.176,4.534,10.434,7.148,-3.193,1.301,11.272,8.776,16.918,-8.516,2.932,9.939,34.136,29.898,-9.586,-5.023,313.568,-73.201,-43.901],[-11.31,0.129,0.141,0.196,0.085,-9.571,-0.384,-0.092,0.062,-0.42,-13.082,-1.281,-0.77,-0.659,-0.205,-21.677,-4.924,-2.215,-1.525,-0.168,-25.721,-7.729,-3.341,-2.028,-1.443,-41.756,-14.318,-6.907,-4.316,-1.811],[-25.073,-1.853,-0.015,0.237,0.254,-31.734,-3.289,-0.327,-0.805,-0.095,-26.543,-3.166,-0.779,-0.67,-0.343,-34.702,-6.901,-2.818,-2.078,-0.809,-41.492,-10.794,-5.781,-3.741,-2.073,-72.234,-20.11,-10.837,-7.134,-4.901],[-28.114,-4.008,-0.942,-0.371,-0.248,-38.288,-4.407,-0.97,-0.787,-0.307,-43.884,-4.665,-0.988,0.12,0.005,-49.043,-8.294,-3.268,-1.934,-1.745,-61.318,-15.38,-6.808,-4.31,-3.309,-77.508,-26.725,-11.742,-7.801,-5.733],[-53.682,-6.418,-1.604,-0.272,-0.239,-55.447,-7.952,-1.204,-0.541,-0.312,-52.218,-8.567,-0.986,-1.013,-0.489,-64.441,-12.21,-4.127,-2.059,-1.839,-69.419,-19.576,-7.774,-4.363,-3.476,-84.027,-29.319,-13.819,-9.866,-6.644],[-60.654,-12.543,-2.17,-0.914,-0.112,-64.8,-14.418,-1.874,-1.04,-0.279,-71.178,-12.701,-2.407,-0.83,-0.164,-76.149,-18.372,-5.234,-3.433,-2.173,-81.629,-24.421,-9.335,-4.647,-3.73,-108.664,-35.084,-15.43,-11.093,-7.003]],
"kep": [[-3.774,3.401,-3.021,2.01,-4.161,-4.991,0.859,-0.842,-0.212,3.816,-7.654,-0.772,-2.317,-7.606,-1.226,-18.564,-5.353,-14.789,-8.175,-15.308,-26.255,-19.266,-15.951,-27.257,-23.024,-51.895,-41.846,-44.492,-41.933,-51.836],[-17.811,1.736,-2.033,0.811,-0.071,-19.685,1.033,-0.027,-0.441,1.064,-26.451,-1.009,-3.105,-0.486,-0.644,-31.521,-9.69,-3.873,-3.22,-4.719,-39.036,-10.812,-8.69,-5.451,-6.182,-60.707,-20.623,-14.536,-14.149,-12.942],[-47.37,-3.89,-0.272,-0.515,0.31,-48.135,-6.429,-0.038,-0.018,-0.287,-46.202,-3.289,-1.653,-1.178,-0.782,-50.679,-9.66,-6.381,-2.579,-2.645,-58.816,-11.393,-5.88,-5.051,-5.015,-83.836,-24.951,-14.716,-11.386,-9.342],[-65.857,-7.197,-0.831,-0.411,1.055,-65.569,-4.673,-0.539,-0.187,-1.12,-68.131,-8.495,-2.033,0.742,-0.645,-69.749,-7.334,-4.74,-2.188,-1.881,-78.359,-18.852,-8.074,-5.649,-4.943,-92.462,-29.69,-14.373,-9.489,-7.646],[-75.832,-10.307,-0.863,-0.207,0.72,-79.008,-8.158,-0.97,-1.865,-0.631,-77.957,-11.479,-0.652,-1.115,-0.808,-83.685,-14.268,-4.494,-1.869,-2.253,-86.674,-23.645,-8.104,-5.435,-4.356,-97.038,-37.959,-16.199,-11.088,-8.237],[-84.844,-16.352,-2.313,-0.941,0.76,-85.932,-19.828,-2.347,0.209,0.566,-86.365,-16.562,-3.743,-1.799,0.408,-90.447,-23.957,-5.021,-1.979,-1.914,-95.506,-28.835,-10.71,-4.874,-3.791,-103.803,-39.995,-17.159,-11.329,-7.62]],
"vp": [[152.89,-29.848,-16.836,-4.894,58.255,49.736,16.755,-9.344,-8.207,12.569,19.068,14.543,7.106,17.614,11.738,16.262,11.612,13.239,12.638,13.163,17.128,13.095,12.653,13.541,12.876,15.098,14.925,14.203,12.012,12.846],[1264.577,-73.699,150.348,-124.019,43.301,232.612,11.803,22.326,19.962,2.154,151.333,36.542,36.033,32.987,18.213,46.377,23.066,15.584,13.901,16.372,28.571,16.691,14.445,12.86,15.465,24.414,16.191,13.436,14.94,13.512],[3085.121,490.342,138.218,-33.422,46.988,686.184,127.876,41.324,60.039,8.356,294.839,57.903,33.995,36.266,27.374,75.015,30.894,21.134,17.827,14.651,46.282,22.385,18.452,17.09,14.183,35.457,21.722,18.129,16.201,15.448],[4535.941,979.929,261.466,228.373,24.455,840.481,183.487,57.14,65.506,63.754,476.628,104.369,28.382,-13.903,8.302,105.376,32.023,20.358,16.188,18.858,63.5,31.521,20.517,19.191,18.643,40.431,27.159,18.384,16.942,15.712],[5661.663,1356.973,429.908,-16.175,44.635,1139.145,323.228,80.667,102.457,31.633,578.867,178.381,35.538,56.321,27.22,134.363,52.227,26.014,16.05,19.189,71.862,39.814,23.233,17.61,19.312,44.672,30.615,21.095,19.727,17.603],[6570.042,2585.311,727.242,383.774,38.719,1370.923,581.027,124.424,59.582,0.408,672.626,262.977,82.758,42.428,8.925,152.752,75.936,32.948,26.485,22.04,85.015,48.593,27.542,19.466,18.822,51.041,35.734,23.408,22.894,17.877]]
}