{
"KTrans": [[0.606,6.616,4.91,2.316,2.967,6.405,14.319,7.64,7.406,6.762,32.613,23.37,17.894,14.949,11.856,101.774,97.654,76.203,71.471,66.592,24.703,172.841,178.436,147.396,134.176,237.042,119.126,129.659,144.223,214.582],[-35.587,6.527,3.724,2.097,1.692,-22.581,10.429,3.696,6.822,3.996,-20.883,16.32,12.503,8.662,9.202,0.29,73.023,55.357,37.38,34.119,1.099,55.277,122.551,89.088,67.666,42.726,141.279,104.918,173.438,133.072],[-51.489,5.778,7.11,4.593,3.202,-50.426,11.711,5.247,6.014,7.079,-51.672,15.888,10.24,10.153,9.139,-51.766,60.559,49.545,42.141,28.81,-39.992,-2.942,119.154,92.383,66.934,23.864,-5.672,16.545,128.7,136.602],[-71.379,5.745,5.676,4.383,2.909,-74.981,6.696,7.86,7.838,4.178,-77.483,16.495,10.605,11.459,8.673,-87.091,35.501,58.136,41.374,27.864,-64.515,33.226,85.474,77.687,74.451,-45.257,16.394,29.178,33.48,127.728],[-87.059,-10.721,6.047,6.434,4.766,-83.425,-4.215,4.502,8.602,7.048,-86.704,-8.275,14.649,13.658,9.398,-86.791,18.085,44.095,42.412,29.596,-70.867,4.17,61.86,116.832,69.275,-48.486,-5.129,16.712,27.636,103.616],[-87.289,-21.999,5.981,7.837,7.573,-86.009,-12.425,12.308,8.846,7.079,-88.322,-15.789,17.895,13.964,9.984,-86.135,-9.331,50.041,51.892,27.338,-66.089,-22.759,52.413,87.346,66.51,-59.363,-30.752,-7.365,7.286,122.3]],
"ve": [[15.094,10.598,98.549,52.317,-7.056,-253.248,4.945,-180.442,21.675,155.479,18.646,9.262,7.507,2.579,48.924,45.417,17.654,2.524,-5.467,-14.003,95.745,45.856,16.376,-3.65,-22.809,189.232,78.316,106.416,-1.111,-10.063],[7.702,2.489,0.959,0.876,0.173,11.156,3.806,1.744,1.139,0.777,3.578,6.666,2.605,1.417,1.23,52.737,24.928,14.312,10.29,5.541,103.727,50.056,31.204,20.226,12.354,199.042,94.449,55.874,59.95,33.981],[8.83,1.424,0.934,-0.082,-0.21,9.797,3.09,2.286,1.333,0.147,14.435,5.824,3.696,1.863,1.38,63.632,24.629,15.578,11.457,8.106,106.401,51.557,33.816,24.054,17.23,203.837,99.186,63.852,51.713,35.631],[6.183,1.119,0.57,0.708,-0.664,6.073,3.501,1.352,1.07,0.98,14.523,5.997,3.036,2.216,0.99,58.809,27.226,16.747,11.419,8.711,101.209,48.434,32.847,23.473,18.64,201.809,100.36,64.599,48.411,38.502],[-7.458,2.086,0.838,0.432,0.259,-1.551,5.518,2.126,2.14,0.869,-0.477,6.634,3.392,2.796,2.253,50.826,25.581,15.615,11.803,9.252,98.805,52.134,37.454,24.864,19.256,202.562,101.158,65.094,49.764,38.06],[-6.895,4.295,-0.237,0.105,0.023,14.069,5.264,1.843,0.933,0.53,3.11,30.242,3.945,2.547,1.715,51.369,33.478,15.412,12.419,9.454,97.193,49.138,35.595,24.547,18.341,208.133,103.144,65.28,48.892,39.52]],
"kep": [[-1.169,7.228,6.882,-1.696,5.791,-2.372,17.084,10.782,10.702,14.43,19.7,23.957,21.856,25.509,21.647,36.694,75.154,77.836,91.639,107.283,-26.541,93.869,149.605,161.502,179.28,37.587,37.252,72.219,115.267,217.166],[-40.216,4.863,3.273,1.794,2.324,-30.034,7.254,2.407,6.333,3.864,-30.992,10.207,10.01,7.635,8.524,-33.165,38.667,36.338,24.877,27.826,-45.046,6.499,68.625,57.332,49.418,-41.381,27.561,31.332,86.445,76.348],[-57.796,4.721,6.704,4.98,3.711,-57.352,8.719,3.29,4.93,7.189,-60.294,10.147,6.71,8.274,7.995,-67.501,28.858,29.346,27.566,19.297,-66.623,-32.61,61.664,54.246,42.173,-52.84,-40.349,-22.358,54.023,72.537],[-74.752,5.132,5.142,3.816,3.681,-78.676,3.091,6.54,6.912,3.355,-82.035,9.582,7.836,9.227,7.807,-90.52,5.739,35.077,26.843,17.642,-78.117,-9.285,37.42,42.771,46.441,-76.798,-34.893,-14.901,-7.884,62.026],[-89.136,-13.552,5.307,6.172,4.654,-86.201,-8.642,2.842,6.514,6.191,-89.196,-13.997,10.741,10.577,7.079,-89.961,-7.378,23.959,26.802,18.491,-83.618,-28.606,20.1,70.909,40.816,-79.245,-46.872,-24.154,-9.16,46.14],[-88.942,-23.956,6.168,7.759,7.62,-88.329,-16.795,10.34,7.931,6.591,-90.766,-22.675,13.357,11.127,8.213,-89.957,-28.478,26.468,34.623,16.265,-81.368,-45.38,12.872,47.968,39.456,-83.16,-60.88,-38.402,-22.236,56.004]],
"vp": [[603.197,0.387,102.791,144.164,-89.376,11.176,-44.84,96.418,-132.454,-76.005,95.383,23.027,-24.799,28.528,1.444,1.555,-18.596,-15.999,-9.519,-7.845,-13.195,-1.763,1.646,-14.151,-8.547,-15.146,-14.227,-11.561,-22.823,-15.984],[5195.344,1351.991,449.036,-516.722,150.949,872.288,57.823,-49.005,45.306,86.603,528.563,134.859,34.513,18.976,57.934,97.32,13.297,-5.107,-10.568,-5.835,26.565,-6.713,2.896,-4.105,-15.964,3.408,-14.525,-18.031,0.163,-7.7],[7938.322,4005.628,1302.522,988.731,578.243,1529.828,792.979,104.719,109.502,67.997,817.471,450.182,36.68,85.053,43.782,151.64,45.393,-12.642,19.884,-8.969,85.44,38.206,0.572,18.928,-9.437,29.407,10.184,-8.268,-17.6,-13.222],[8743.769,8985.933,3525.663,1261.318,487.859,1843.037,1883.589,354.454,228.341,131.378,923.455,809.583,282.196,50.221,31.051,190.713,192.479,25.462,9.348,-2.195,87.435,46.379,-5.824,-20.719,15.546,50.922,25.552,-8.976,0.314,-10.399],[9910.741,11124.265,5187.267,736.392,560.931,1951.105,2600.559,1208.305,298.077,109.963,887.547,1215.547,497.741,59.534,51.888,190.506,243.138,13.638,1.465,-4.012,86.932,101.277,51.587,-4.474,-9.101,45.274,41.652,2.393,-26.66,-26.172],[9295.972,14666.083,8917.663,2824.69,1094.841,1963.117,2847.339,2150.955,613.802,202.229,950.937,1404.754,1072.454,315.951,73.473,199.061,311.205,168.439,58.458,7.386,86.722,120.21,73.144,0.518,-22.966,56.904,65.493,-0.395,-7.585,-8.495]]
}