{
"KTrans": [[-3.468,43.147,36.034,27.032,31.691,9.666,56.323,39.816,33.761,38.787,29.444,56.039,43.654,51.121,36.337,121.031,155.391,127.308,118.858,92.112,331.551,304.811,246.755,219.857,186.535,843.93,739.839,562.745,510.668,430.679],[-87.467,54.617,58.325,38.881,47.231,-82.471,39.701,67.398,51.294,46.088,-92.472,59.597,70.887,59.121,37.901,-64.642,165.163,115.381,91.361,67.646,-22.461,222.156,164.016,145.209,113.278,48.316,516.293,478.149,281.254,245.286],[-100.698,-11.04,67.221,84.619,57.499,-106.079,-11.695,68.669,84.664,57.875,-104.383,-39.552,105.189,82.73,71.934,-106.139,3.483,181.53,126.372,87.522,-100.64,59.019,218.013,146.33,131.278,-64.877,208.07,444.765,309.465,240.447],[-104.979,-79.699,49.874,137.28,93.604,-109.673,-101.779,22.791,106.52,72.359,-105.632,-119.069,70.297,111.634,86.694,-115.443,-100.136,69.187,161.055,139.111,-122.255,-37.401,152.878,242.693,165.55,-134.679,-43.972,280.079,380.936,288.085],[-102.852,-113.882,-38.736,62.239,99.169,-103.889,-129.79,-31.652,110.639,114.306,-104.385,-124.552,-20.236,119.7,100.726,-101.875,-136.699,-94.086,137.147,212.238,-117.176,-150.987,13.848,210.484,226.012,-114.066,-158.244,98.102,348.448,312.447],[-108.333,-124.047,-128.761,22.135,147.824,-104.864,-124.941,-81.269,-16.345,112.794,-103.208,-128.401,-142.366,43.014,166.649,-112.052,-142.926,-136.449,65.444,167.206,-117.74,-162.385,-114.811,129.937,246.127,-103.671,-174.826,-49.995,194.602,353.965]],
"ve": [[26.783,-1156.904,-75.826,1.598,808.44,33.607,20.782,-0.872,-278.01,19.831,25.117,10.348,-20.39,18.071,10.018,53.117,19.553,10.123,-13.471,-1.416,106.301,35.075,12.726,-4.52,-14.366,182.858,80.129,41.214,14.355,-6.447],[16.753,10.052,8.014,2.997,2.591,14.961,4.813,4.839,2.378,3.251,-0.904,5.825,7.692,6.852,2.997,56.851,26.751,15.994,10.488,6.968,101.585,53.654,30.605,21.37,12.465,198.276,168.036,67.133,44.735,31.668],[33.744,6.314,4.228,4.408,2.341,-7.695,9.129,2.819,4.154,4.049,1.079,9.722,10.516,5.028,4.085,102.543,24.663,23.652,15.372,8.488,84.418,66.747,35.776,25.487,20.09,208.752,101.913,70.14,50.114,39.638],[18.66,-120.271,7.15,5.456,2.794,8.873,14.125,9.778,3.633,0.062,6.383,10.64,5.092,6.735,3.541,66.05,26.096,16.703,15.419,14.53,79.41,54.1,35.695,27.682,20.031,194.541,98.454,69.629,51.479,40.468],[89.188,12.273,1.61,4.587,0.684,-2.605,4.034,363.333,-19.11,2.461,11.964,-33.414,5.852,8.874,2.401,134.101,43.69,18.117,15.874,15.451,99.899,39.56,40.156,30.105,23.082,194.769,99.796,74.417,66.678,41.647],[1.606,0.797,0.445,0.738,3.321,12.326,7.5,17.932,2.993,2.31,-1.645,2.657,4.38,7.963,3.32,61.503,27.127,21.033,19.387,15.278,138.099,64.115,36.922,27.286,23.302,209.035,98.389,66.067,49.925,38.631]],
"kep": [[-21.048,39.638,38.908,32.055,50.745,-15.153,48.686,38.705,38.234,57.641,-3.386,41.943,51.959,66.997,50.213,41.46,117.922,123.424,145.429,136.888,103.462,202.155,211.199,242.963,243.761,212.206,367.053,370.546,434.241,465.596],[-93.316,34.605,43.63,32.642,44.068,-89.788,27.662,56.325,44.384,43.371,-94.934,40.078,54.632,47.93,32.678,-82.609,98.769,78.665,68.412,52.508,-63.199,104.472,95.539,95.111,83.969,-50.564,200.025,239.157,158.54,158.177],[-102.626,-20.652,51.813,69.825,48.17,-106.552,-25.633,51.617,69.426,46.044,-103.21,-47.89,78.89,67.921,57.864,-105.347,-23.005,121.218,90.515,65.851,-99.083,-2.15,124.688,86.487,86.851,-88.455,48.046,210.004,163.972,136.064],[-104.6,-80.97,34.197,114.433,77.347,-109.041,-100.819,7.918,87.493,59.904,-105.83,-117.231,47.331,88.332,70.232,-108.246,-101.925,33.973,116.743,100.467,-109.047,-62.155,76.009,155.161,109.426,-111.05,-71.064,115.23,206.502,165.617],[-102.766,-113.301,-46.066,46.822,82.706,-103.685,-125.125,-38.99,88.477,93.877,-104.039,-120.3,-33.22,94.228,82.078,-100.846,-126.012,-98.58,93.322,159.157,-108.43,-132.146,-23.066,127.884,150.129,-102.71,-127.562,12.789,175.408,178.842],[-108.137,-119.819,-124.46,13.508,125.694,-103.573,-121.103,-83.201,-23.929,91.217,-103.336,-124.179,-137.297,26.256,136.577,-107.682,-130.234,-127.288,31.22,122.229,-108.109,-136.965,-108.349,70.825,166.646,-100.372,-131.938,-68.331,85.709,206.636]],
"vp": [[0.001,0.001,0.001,0.001,0.001,0.005,0.005,0.005,0.005,0.005,0.01,0.01,0.01,0.01,0.01,0.05,0.05,0.05,0.05,0.05,0.1,0.1,0.1,0.1,0.1,0.2,0.2,0.2,0.2,0.2],[0.001,0.001,0.001,0.001,0.001,0.005,0.005,0.005,0.005,0.005,0.01,0.01,0.01,0.01,0.01,0.05,0.05,0.05,0.05,0.05,0.1,0.1,0.1,0.1,0.1,0.2,0.2,0.2,0.2,0.2],[0.001,0.001,0.001,0.001,0.001,0.005,0.005,0.005,0.005,0.005,0.01,0.01,0.01,0.01,0.01,0.05,0.05,0.05,0.05,0.05,0.1,0.1,0.1,0.1,0.1,0.2,0.2,0.2,0.2,0.2],[0.001,0.001,0.001,0.001,0.001,0.005,0.005,0.005,0.005,0.005,0.01,0.01,0.01,0.01,0.01,0.05,0.05,0.05,0.05,0.05,0.1,0.1,0.1,0.1,0.1,0.2,0.2,0.2,0.2,0.2],[0.001,0.001,0.001,0.001,0.001,0.005,0.005,0.005,0.005,0.005,0.01,0.01,0.01,0.01,0.01,0.05,0.05,0.05,0.05,0.05,0.1,0.1,0.1,0.1,0.1,0.2,0.2,0.2,0.2,0.2],[0.001,0.001,0.001,0.001,0.001,0.005,0.005,0.005,0.005,0.005,0.01,0.01,0.01,0.01,0.01,0.05,0.05,0.05,0.05,0.05,0.1,0.1,0.1,0.1,0.1,0.2,0.2,0.2,0.2,0.2]]
}