{
"KTrans": [[3.016,2.328,1.611,1.108,1.782,14.014,8.498,6.758,6.281,5.571,27.036,17.534,14.34,11.791,10.853,177.403,95.769,75.539,67.287,62.21,411.863,226.715,169.691,161.694,137.589,-173.696,473.242,411.061,358.083,335.672],[3.936,2.108,1.869,1.722,1.303,13.874,7.426,5.209,4.289,3.589,28.396,13.128,9.194,7.861,6.666,270.527,71.449,46.657,37.351,31.957,62.215,161.896,104.815,79.942,69.127,68.163,359.561,268.718,199.548,156.005],[8.038,2.76,2.581,1.758,1.795,14.444,7.488,5.508,4.069,3.499,25.301,15.276,9.042,6.886,5.958,101.269,76.539,43.931,32.247,27.662,-82.789,207.732,104.195,70.498,56.148,13.699,137.825,259.762,178.324,130.871],[8.1,4.59,3.48,2.712,1.924,14.249,9.297,6.67,4.904,3.814,35.379,16.115,10.291,6.83,5.804,-18.5,96.322,43.537,36.818,24.727,-80.374,301.195,107.959,67.672,50.546,-60.775,-85.894,291.637,166.222,129.137],[4.524,5.589,4.292,2.92,2.202,22.666,11.436,6.482,4.967,4.058,20.692,17.036,11.269,8.774,6.612,-42.79,90.806,48.085,34.224,26.838,-79.584,188.222,105.458,71.167,51.697,-48.983,-50.385,285.31,164.11,121.213],[-9.078,9.787,3.967,3.551,2.53,-10.828,14.697,8.49,5.493,4.731,-19.307,17.566,11.433,8.983,7.302,-90.032,100.2,48.203,32.369,25.046,-75.114,30.537,106.557,67.396,57.868,-81.125,-32.367,117.309,220.907,138.319]],
"ve": [[0.662,0.101,-0.362,-0.244,-1.938,3.823,0.103,-1.846,-3.71,-4.538,8.425,1.069,-2.956,-5.187,-7.769,45.516,13.005,-1.439,-11.279,-18.705,96.177,34.816,8.608,-6.652,-17.766,201.242,92.243,39.102,13.872,-3.62],[0.908,0.14,0.03,-0.173,-0.168,4.859,1.981,0.901,0.491,0.186,9.701,4.282,2.598,1.296,0.563,50.087,23.805,14.166,8.887,5.427,98.609,47.23,29.436,19.397,12.576,195.385,99.994,62.843,42.697,29.363],[0.97,0.307,0.04,-0.067,-0.039,5.144,2.308,1.401,0.873,0.52,9.441,4.826,2.771,1.94,1.4,48.764,24.575,15.851,11.077,8.238,100.621,49.567,31.917,22.882,17.059,188.936,98.185,64.704,47.385,35.749],[0.978,0.195,0.141,0.01,-0.054,5.238,2.263,1.488,0.951,0.681,9.996,4.9,3.03,2.154,1.579,48.528,25.289,16.098,11.988,8.886,99.546,50.757,32.839,23.707,18.214,202.328,98.002,65.91,48.341,37.896],[1.775,0.218,0.163,0.077,-0.002,5.769,2.73,1.349,0.998,0.704,10.552,4.967,3.076,2.269,1.76,51.267,24.92,16.384,12.079,9.369,100.439,49.937,32.477,24.384,18.9,201.681,100.004,65.905,48.401,38.338],[2.729,0.596,0.21,0.009,-0.105,5.116,2.413,1.568,1,0.84,10.709,4.823,3.11,2.361,1.805,50.783,24.864,16.277,12.021,9.375,99.556,49.987,32.337,24.185,19.507,202.881,102.049,68.13,49.52,39.298]],
"kep": [[2.431,2.312,2.136,1.557,4.106,9.928,8.47,8.9,10.533,10.783,17.212,16.415,17.996,18.059,20.474,89.455,73.131,78.244,88.784,99.978,158.36,141.202,147.88,180.188,188.862,-104.8,208.932,267.614,302.253,351.767],[3.037,1.975,1.849,1.908,1.483,8.61,5.353,4.28,3.787,3.411,16.947,8.478,6.434,6.492,6.079,141.014,38.151,28.357,26.12,25.175,-13.707,76.217,57.818,50.535,50.162,-35.734,126.931,124.264,108.645,97.255],[6.927,2.444,2.543,1.83,1.838,8.714,5.06,4.053,3.172,2.966,14.164,9.942,6.096,4.854,4.499,33.173,41.09,24.08,19.001,17.926,-85.536,102.136,53.923,38.503,33.235,-56.965,22.164,114.212,87.02,69.33],[6.63,4.353,3.331,2.702,1.979,7.978,6.839,5.094,3.916,3.114,22.178,10.621,7.033,4.574,4.16,-44.063,55.56,23.408,22.074,14.513,-85.439,159.391,55.405,35.075,27.161,-81.986,-84.605,130.602,77.733,65.094],[1.902,5.224,4.106,2.833,2.204,15.018,8.374,5.032,3.924,3.327,8.351,11.343,7.919,6.349,4.765,-60.438,51.487,26.893,19.61,15.904,-86.557,88.004,53.574,37.125,27.361,-80.045,-68.935,125.246,75.499,58.679],[-11.728,8.863,3.702,3.523,2.633,-16.215,11.718,6.754,4.427,3.852,-27.363,11.899,8.003,6.445,5.389,-91.042,58.145,27.01,17.986,14.251,-84.997,-11.915,54.262,34.151,31.753,-90.605,-61.924,29.364,110.067,69.369]],
"vp": [[39.493,36.564,-16.162,40.618,16.981,16.12,5.575,12.989,3.416,16.752,3.033,11.838,20.498,-4.869,2.44,12.805,4.688,4.844,10.351,14.475,6.689,8.221,-4.918,22.175,-1.805,17.172,4.277,1.642,2.157,3.428],[23.875,-24.816,22.683,57.843,-20.193,44.094,12.684,15.586,42.123,9.905,13.739,15.104,7.966,24.562,22.68,51.97,20.78,9.474,12.33,13.299,12.037,2.896,12.083,8.124,15.283,10.775,0.634,21.367,19.308,9.134],[369.304,-189.537,41.472,7.783,55.771,99.369,-24.437,20.61,29.08,12.456,45.016,14.865,20.035,2.507,17.353,14.776,26.746,15.241,0.768,16.08,41.023,24.021,20.957,10.226,2.785,56.583,3.808,6.317,18.348,9.61],[3412.989,-439.676,-190.685,-121.627,-70.595,653.639,-56.889,2.94,10.623,24.759,415.586,-12.611,-1.375,-3.64,8.142,72.43,52.024,9.826,39.935,-4.835,43.25,63.662,20.166,5.543,-6.313,44.263,11.061,16.478,11.481,15.484],[6718.152,-843.319,-434.285,-230.948,-113.969,1372.161,-90.216,-61.405,-46.43,-37.705,614.456,-71.431,-39.571,12.327,-4.757,103.49,27.377,18.227,22.576,22.424,55.649,41.738,6.656,17.29,5.181,49.841,25.961,17.845,1.694,6.128],[8432.185,-1438.135,-1040.613,-559.703,-437.552,1673.858,-254.057,-191.907,-98.743,-42.135,715.74,-82.439,-67.603,-23.414,9.439,157.223,73.784,15.166,-2.39,0.256,79.021,32.149,6.859,4.664,28.621,55.009,31.519,41.808,25.885,23.645]]
}