{
"KTrans": [[1.976,0.246,1.98,1.809,2.602,13.05,11.847,6.842,8.036,6.429,26.722,17.344,14.974,11.702,14.803,161.692,92.746,73.405,66.241,63.961,222.212,216.117,179.962,162.656,144.695,8.983,420.672,404.446,364.754,313.281],[-2.352,-1.544,1.376,0.108,1.65,0.485,5.824,3.121,5.435,4.237,6.718,10.355,8.657,7.809,6.159,93.009,58.647,43.932,35.416,29.473,64.793,128.539,98.007,75.721,65.378,-186.622,280.778,237.835,179.911,145.489],[-23.686,-4.355,-1.146,-0.186,1.181,-16.961,-0.338,2.108,2.285,2.503,-7.735,9.439,4.72,4.486,5,9.269,50.751,35.89,26.246,27.042,-63.161,155.957,76.556,63.577,54.262,-97.769,169.746,208.144,155.632,126.833],[-34.645,-8.016,-1.038,-1.863,-0.135,-33.371,-3.736,-0.585,0.052,0.69,-20.38,1.621,3.229,4.062,2.058,-42.478,55.447,32.371,20.952,21.132,-54.529,130.137,89.461,54.898,49.577,-69.57,1.891,201.738,155.353,103.046],[-42.116,-9.853,-5.29,-2.057,-2.133,-48.43,-9.346,-1.059,0.075,0.608,-43.351,3.855,-0.238,0.496,1.943,-41.313,51.049,32.71,22.962,19.565,-78.062,102.75,90.656,52.897,43.873,-120.195,-78.071,181.366,140.727,116.742],[-58.765,-6.778,-6.189,-3.931,-3.411,-54.107,-9.738,-4.364,-2.084,-1.001,-57.742,-8.815,0.86,-0.007,0.339,-66.333,40.775,32.666,23.481,17.263,-80.819,46.625,77.265,59.614,45.733,-94.803,-107.085,183.985,159.057,111.275]],
"ve": [[3.844,6.048,8.635,13.809,15.357,6.937,4.534,6.808,6.52,7.781,10.098,5.027,1.806,4.934,-2.935,47.176,14.901,2.537,-8.331,-15.159,62.322,36.367,10.622,-5.27,-16.222,183.457,87.097,19.343,18.583,-1.484],[1.757,1.117,0.7,1.076,0.995,6.502,3.099,1.428,1.498,1.709,11.256,4.88,2.323,2.183,2.198,50.682,23.203,14.287,9.854,7.108,93.323,47.432,29.036,20.376,13.241,192.127,97.762,62.808,42.91,29.622],[1.844,0.812,0.344,0.249,0.134,5.142,2.547,1.608,1,0.778,8.215,4.431,2.851,2.165,2.146,51.521,24.177,15.342,10.863,8.55,99.746,49.097,31.399,21.96,17.306,185.133,97.578,64.11,47.384,36.009],[0.612,-0.094,0.164,-0.135,-0.104,5.335,2.405,0.952,0.683,0.437,12.583,4.424,2.699,1.789,1.729,47.904,24.823,15.432,11.23,8.967,101.841,49.808,32.814,23.403,18.592,193.959,97.472,65.997,48.879,37.528],[2.257,0.116,0.132,-0.459,-0.214,94.342,1.556,1.083,0.876,0.395,12.017,4.585,2.501,1.679,1.184,44.635,24.293,15.943,11.176,9.002,98.561,50.598,32.603,23.768,18.821,198.664,105.202,67.469,48.445,38.751],[5.415,0.305,-0.181,-0.481,-0.195,7.748,2.405,1.115,0.355,0.494,8.962,3.582,2.159,1.614,1.395,49.311,24.823,15.799,11.499,9.317,95.917,47.975,32.095,24.208,18.941,203.157,97.079,66.236,48.809,38.845]],
"kep": [[-7.23,-8.977,-8.807,-12.222,-9.084,1.003,2.494,-3.415,-0.495,-2.88,8.488,6.085,8.148,2.683,15.649,66.7,57.829,59.611,72.029,83.606,54.909,117.245,137.826,160.992,175.926,-46.648,163.188,241.493,273.434,297.851],[-9.985,-8.684,-5.623,-7.213,-5.71,-11.643,-3.893,-4.704,-2.643,-3.947,-10.292,-1.388,-0.527,-1.203,-2.681,18.599,20.215,17.865,15.396,13.224,-20.678,44.117,43.157,36.567,36.772,-116.205,77.327,92.366,82.07,76.71],[-29.846,-11.225,-7.769,-6.837,-5.421,-25.804,-8.922,-5.92,-5.223,-4.805,-20.389,-1.937,-4.675,-4.295,-3.808,-32.228,13.353,10.145,6.527,9.489,-78.108,58.298,24.92,25.268,22.953,-92.969,25.875,72.681,60.859,55.34],[-40.807,-13.803,-7.496,-8.066,-6.453,-40.797,-11.957,-7.786,-6.986,-6.186,-34.104,-8.957,-5.965,-4.341,-6.121,-63.893,15.66,7.102,1.668,3.949,-75.652,40.989,32.285,17.044,17.799,-85.866,-47.928,66.199,58.726,37.303],[-47.326,-15.727,-11.472,-7.952,-8.26,-54.931,-16.461,-8.366,-7.167,-6.246,-52.547,-7.158,-8.925,-7.538,-5.741,-62.974,12.497,6.855,3.341,2.573,-86.833,23.968,33.036,15.105,12.97,-102.299,-83.835,54.609,49.374,44.924],[-63.017,-13.108,-12.123,-9.708,-9.469,-60.148,-17.657,-11.569,-8.695,-7.854,-64.045,-17.831,-7.641,-7.997,-7.444,-78.218,4.658,6.781,3.438,0.285,-88.944,-8.99,23.87,19.529,14.296,-95.842,-97.438,55.804,59.32,40.667]],
"vp": [[-299.667,-150.832,23.594,-37.484,7.847,-47.681,-7.773,33.432,23.43,-47.677,4.555,21.296,-0.947,-12.407,-3.326,-2.413,-0.563,-0.992,-14.043,3.06,-12.433,5.271,7.921,13.799,2.164,-12.942,6.597,-3.19,24.89,-5.632],[2641.465,781.181,15.077,170.63,35.27,414.355,135.523,-19.875,-65.176,-44.491,180.893,78.943,2.181,-11.676,-13.162,39.007,5.189,-6.684,-8.276,-14.182,-8.812,-15.69,-5.193,-1.335,-6.728,1.145,-11.726,0.583,12.51,-7.418],[4432.641,1635.218,546.497,588.354,205.583,806.315,192.569,74.582,-8.072,-6.63,384.614,172.996,42.651,51.691,-1.165,70.469,10.068,2.984,-20.94,11.508,32.15,18.076,-13.652,-11.012,-5.287,19.026,-15.328,-15.84,-7.167,-0.107],[5307.608,2619.563,557.557,105.726,406.73,1006.54,492.844,132.569,90.91,-42.533,596.35,300.608,51.054,80.521,3.343,98.022,54.998,7.425,-17.06,2.862,57.525,10.984,21.829,-12.697,4.132,13.038,-4.996,-8.325,0.612,-18.427],[6292.598,4310.516,1664.992,347.688,685.68,1300.777,791.191,294.248,101.902,81.429,666.856,499.756,100.61,55.673,31.386,114.15,85.452,23.312,-6.911,-6.31,44.759,36.164,5.406,-6.914,-0.475,32.659,23.423,0.868,-7.907,8.473],[7452.03,5921.718,3015.48,1004.439,217.117,1461.586,1178.753,556.524,176.462,194.114,624.959,629.085,180.92,82.624,35.631,122.183,113.174,50.154,24.479,9.369,50.625,33.021,21.454,16.632,10.155,28.844,2.842,-3.779,-5.109,0.834]]
}