{
"KTrans": [[-8.404,16.472,6.511,9.508,2.878,2.907,3.648,7.285,11.746,9.336,-5.923,20.016,15.225,9.928,11.582,82.75,97.174,69.234,66.495,63.826,111.877,176.32,167.448,146.582,143.1,98.108,151.201,267.104,293.704,292.8],[-56.376,5.697,-2.044,3.367,2.198,-46.274,7.343,4.709,9.313,5.074,-52.879,13.48,10.617,9.901,7.208,-1.019,82.546,54.645,39.841,31.075,-30.204,133.194,112.364,76.957,68.878,-44.113,174.185,185.295,179.636,157.888],[-78.469,-2.454,0.336,1.452,0.863,-75.029,-7.357,5.63,6.629,4.885,-79.864,-1.166,10.735,6.83,5.979,-50.34,42.401,42.396,35.619,28.092,-59.012,90.064,93.217,77.723,63.729,-14.96,-3.854,166.418,147.752,130.739],[-86.479,-21.518,-0.123,4.645,1.114,-88.685,-16.231,8.352,6.205,2.245,-80.995,-5.99,11.234,10.532,8.748,-78.778,21.055,47.173,33.239,25.595,-74.615,30.528,76.14,86.237,62.93,-50.719,-78.216,63.049,151.318,122.255],[-91.902,-36.166,0.49,4.059,1.946,-88.87,-34.217,0.196,5.759,7.261,-88.261,-25.863,5.895,11.6,7.347,-94.165,-0.733,32.481,28.66,28.603,-83.575,-9.404,72.786,72.821,60.082,-59.076,-44.201,67.54,137.389,131.119],[-92.696,-42.536,-5.782,7.425,3.55,-94.078,-39.761,-1.442,4.463,0.691,-91.932,-37.099,1.819,9.322,3.573,-91.944,-25.133,29.757,35.026,28.297,-87.87,-40.753,44.653,67.223,60.694,-81.836,-5.115,36.042,138.556,135.415]],
"ve": [[17.069,10.288,-10.248,-28.287,-58.913,-15.514,892.226,115.884,47.098,-230.423,35.207,18.966,33.472,-140.035,27.335,53.12,22.724,7.507,-10.729,-1.463,117.883,40.382,11.189,-0.867,-13.044,198.977,119.665,44.669,33.534,-3.99],[28.528,4.769,2.616,1.829,1.38,17.358,4.021,3.244,0.687,2.208,23.235,5.598,5.428,1.545,1.607,55.717,24.59,14.909,10.106,7.137,82.47,51.909,30.853,20.315,13.174,211.339,107.068,65.308,43.979,30.438],[30.804,3.435,1.27,0.921,0.339,-364.171,6.47,2.631,1.241,1.332,4.369,8.563,3.635,1.692,2.081,59.454,23.528,18.411,12.139,9.817,113.122,50.179,32.101,23.555,17.441,201.776,99.447,64.763,46.965,35.795],[7.108,2.578,1.287,2.055,0.159,-108.416,4.885,2.104,2.202,1.011,20.505,10.431,4.127,2.846,1.619,55.854,27.816,17.97,13.074,8.681,115.61,51.187,32.975,24.821,19.616,201.174,101.13,67.165,46.17,37.569],[42.246,5.366,1.992,0.627,-0.606,6.029,9.458,1.847,2.05,0.164,17.322,7.514,4.09,2.889,1.443,56.672,27.491,17.623,11.566,9.588,98.751,48.318,33.783,23.902,20.194,202.77,118.268,59.147,48.918,39.421],[-3.12,-4.424,1.43,1.27,0.444,12.715,-3.93,3.149,1.878,1.593,-26.801,-0.239,4.507,2.88,1.626,28.642,29.348,18.925,12.972,10.27,102.789,50.503,34.339,24.756,18.817,209.616,98.549,66.05,51.345,39.718]],
"kep": [[-19.759,19.865,8.048,16.946,4.613,-10.914,-1.354,5.826,19.761,12.473,-21.825,12.493,16.731,11.119,14.037,18.847,68.148,71.35,91.374,97.927,10.368,96.306,145.711,157.842,191.694,-19.961,38.783,157.955,241.412,296.491],[-64.23,2.06,-3.608,3.128,2.252,-55.632,5.139,2.225,9.394,4.294,-65.249,9.485,6.016,9.133,7.234,-40.123,46.921,35.187,28.063,23.965,-63.691,52.058,62.141,48.064,50.121,-73.685,33.874,71.465,93.933,97.149],[-82.833,-4.739,-0.73,1.147,1.092,-80.466,-12.39,3.424,5.616,4.106,-84.654,-8.134,7.506,5.651,4.122,-70.44,14.12,20.787,21.214,16.974,-79.241,25.148,45.781,43.486,39.655,-67.98,-45.209,57.641,67.419,68.846],[-88.992,-24.291,-0.672,2.728,1.318,-92.331,-20.682,6.818,4.429,1.529,-86.158,-14.924,6.778,7.925,7.29,-87.773,-5.741,24.856,18.177,15.906,-86.876,-13.156,32.175,48.442,35.902,-80.297,-83.566,-0.965,66.249,60.218],[-94.127,-39.436,-1.324,3.553,2.625,-91.806,-37.851,-1.264,3.943,7.273,-91.885,-31.002,1.751,8.806,6.018,-97.31,-22.689,12.533,15.478,17.537,-91.274,-38.768,28.71,38.508,33.098,-83.256,-67.86,1.949,55.436,63.932],[-95.301,-44.724,-7.053,6.351,3.227,-96.457,-44.41,-4.266,2.597,-0.596,-94.513,-42.284,-2.77,6.38,2.161,-95.714,-42.691,8.893,19.304,16.438,-93.47,-59.541,5.999,33.531,34.848,-91.069,-49.003,-16.07,55.884,66.29]],
"vp": [[2053.911,-145.456,-735.19,-71.353,-84.936,235.503,16.593,40.735,-95.325,30.313,112.397,-32.553,50.624,-47.7,60.141,23.366,0.043,7.899,3.806,17.559,6.393,-0.893,8.004,-3.557,10.705,10.572,-2.698,-1.855,-2.62,-3.727],[5097.604,2336.832,197.581,82.471,-171.219,1059,292.344,-102.377,-7.901,0.801,648.317,229.63,114.07,27.592,-1.938,111.987,69.028,40.611,20.556,7.203,50.379,31.32,6.733,0.717,7.006,49.809,27.959,5.09,4.625,7.896],[7798.686,6327.332,1319.827,-197.756,959.366,1562.526,1154.771,245.039,157.27,178.255,780.502,666.211,172.469,42.887,-14.959,168.187,120.511,22.222,23.304,13.776,87.604,54.378,19.289,22.285,12.959,30.721,27.5,10.189,-6.857,-1.294],[8595.437,9692.798,3753.841,1136.015,-414.799,1915.705,1861.979,815.574,424.838,-91.008,909.053,1005.819,388.655,146.234,56.734,182.664,177.886,107.309,10.283,0.445,93.104,77.774,46.627,46.737,37.243,51.14,58.541,5.244,4.842,-2.768],[9700.414,12515.336,7997.19,3672.426,1271.433,1970.215,2645.01,1281.344,686.22,249.922,966.453,1279.555,706.977,286.808,146.078,198.697,250.965,179.31,60.809,39.594,110.988,108.685,54.473,36.693,50.67,68.901,59.331,39.64,38.871,13.516],[9313.2,14382.87,11064.438,5735.805,2593.725,2001.721,3060.089,2269.685,794.278,369.959,963.025,1560.405,1061.265,500.249,-63.653,203.683,286.115,245.295,103.382,70.615,96.59,144.82,134.886,68.771,26.481,81.393,49.964,50.187,29.524,17.353]]
}