{
"KTrans": [[-50.585,-75.949,-70.777,-66.901,-63.231,-42.58,-64.81,-55.185,-55.511,-62.513,-19.988,-53.183,-49.789,-47.272,-43.354,68.381,27.631,6.138,-9.058,8.113,130.469,39.437,30.366,25.758,30.301,251.548,79.744,74.65,86.425,93.078],[-55.011,-43.268,-44.585,-62.377,-59.928,-54.147,-37.415,-31.993,-60.259,-45.568,-43.397,-31.402,-28.822,-38.376,-34.607,-27.119,6.167,23.925,-1.77,-12.482,-16.291,12.678,44.348,-1.441,-2.397,-5.739,30.475,86.568,0.039,2.655],[-67.187,-45.035,-51.167,-38.912,-53.713,-67.171,-43.319,-50.193,-37.288,-44.344,-63.241,-33.142,-34.54,-30.38,-30.21,-56.708,-15.291,-4.011,-0.469,12.675,-54.446,-12.626,-0.098,5.281,26.892,-37.595,-2.479,7.297,14.583,49.848],[-78.019,-52.461,-48.304,-46.667,-58.185,-74.252,-44.963,-45.892,-38.321,-40.882,-76.195,-45.276,-36.454,-46.837,-35.563,-68.875,-24.785,-5.656,-2.198,0.469,-66.31,-17.459,-2.778,2.688,0.445,-58.423,-18.301,-3.923,1.883,3.402],[-82.149,-55.993,-50.613,-48.935,-54.297,-82.299,-49.231,-47.339,-45.474,-44.335,-81.19,-44.424,-41.664,-44.247,-38.255,-77.923,-33.905,-10.524,-3.475,-2.87,-72.214,-34.857,-1.613,2.284,-1.449,-63.33,-32.329,-5.438,0.471,2.023],[-86.231,-57.754,-50.783,-46.163,-42.812,-84.411,-62.735,-46.026,-45.179,-48.41,-84.384,-55.599,-42.403,-38.283,-35.34,-81.904,-46.358,-17.219,-14.909,-2.795,-75.837,-44.725,-11.628,-4.492,1.094,-68.57,-49.397,-9.914,4.433,-0.848]],
"ve": [[-79.639,-319.325,-18.132,-76.284,11.678,-44.573,-33.968,-493.999,257.015,-71.307,-72.398,-9.33,-38.502,-1.996,103.573,67.083,-20.353,-44.725,-0.774,-104.967,147.254,34.868,56.186,5.942,48.575,249.631,-34.967,60.982,-153.278,620.092],[-67.977,-146.404,-45.414,-48.424,-29.879,-44.059,-47.682,-37.896,-35.589,4.005,-17.676,-55.216,-25.924,21.92,314.791,6.458,11.117,17.725,-0.366,1.966,64.054,24.986,227.801,-0.731,-13.431,69.08,44.176,83.4,-1.979,11.527],[-33.517,-80.917,-85.523,-44.144,-63.186,-35.305,-77.486,-87.38,-44.693,-43.56,-31.171,-54.88,-57.444,-35.594,-19.647,25.089,-5.771,-6.28,3.413,13.138,30.308,0.01,4.355,6.407,26.009,110.442,4.508,-0.255,19.59,50.173],[-19.357,-99.75,-107.783,-81.653,-81.89,12.862,-77.459,-105.209,-64.267,-58.536,-6.524,-84.948,-75.758,-85.171,-51.19,37.952,-17.309,-7.019,-5.079,-5.03,64.159,-1.117,0.702,0.922,-0.508,74.462,1.948,0.215,2.348,0.977],[-12.206,-118.121,-125.215,-108.029,-100.722,8.921,-73.036,-118.592,-102.315,-80.585,69.755,-58.075,-117.318,-102.897,-69.742,45.399,-8.115,-3.854,-4.547,-6.048,108.846,-9.177,-0.263,0.757,0.245,161.928,-7.578,0.329,-0.305,1.68],[-3.742,-70.485,-154.103,-121.109,-92.726,-84.2,-51.341,-135.338,-120.179,-107.51,6.443,-62.147,-112.065,-96.069,-73.065,53.663,-26.388,-15.364,-37.945,-7.191,117.037,-10.526,-5.059,-1.409,0.118,205.107,-14.208,-2.46,1.19,0.567]],
"kep": [[-149.682,-19.89,-13.195,5.363,-3.361,-128.73,-7.093,8.092,-13.852,-4.689,-139.018,0.816,7.391,6.233,-8.762,-134.009,-54.77,-0.698,17.976,-8.605,-129.081,-32.271,-7.787,-3.154,-8.736,-126.07,-15.854,4.975,-0.99,-12.445],[-62.992,-51.704,-136.069,-15.629,-7.869,-67.329,-44.876,-125.603,-8.699,2.626,-73.297,-45.814,-135.61,-14.505,5.746,-62.779,-41.517,-146.895,-23.427,9.139,-68.628,-39.015,-130.493,-13.724,-5.687,-54.445,-41.274,-127.05,-8.901,-5.944],[-73.508,-23.667,-9.532,-26.06,-138.159,-76.062,-19.672,-3.003,-29.207,-135.619,-72.55,-19.994,-15.24,-30.319,-131.608,-77.627,-24.06,-14.226,-26.855,-128.339,-75.266,-21.892,-11.472,-18.679,-135.952,-78.776,-9.66,-12.783,-32.712,-124.334],[-89.132,-30.108,-7.256,-3.098,-3.78,-89.573,-26.982,-3.07,-5.984,-2.066,-88.777,-26.598,-5.048,-1.469,0.048,-88.375,-24.584,-6.68,-0.811,-10.57,-87.81,-23.227,-7.515,0.787,-9.639,-85.575,-24.011,-6.462,-5.114,-7.29],[-92.967,-33.322,-10.406,-1.734,0.07,-94.906,-35.232,-10.21,-2.401,-1.763,-89.281,-31.65,-3.394,1.316,-0.724,-93.946,-34.815,-11.373,-1.049,-2.101,-95.581,-36.045,-4.075,0.222,-5.979,-93.352,-34.493,-9.167,0.488,-2.481],[-95.947,-44.32,-9.96,-2.806,-1.706,-99.636,-54.858,-8.973,-2.904,0.551,-95.498,-44.947,-11.942,-5.189,-4.017,-95.58,-40.961,-12.078,-2.941,0.559,-97.296,-44.971,-9.639,-5.788,0.577,-97.209,-46.61,-11.204,4.508,-2.945]],
"vp": [[-53.177,-60.945,25.957,173.873,211.905,-65.077,42.985,76.648,-6.829,5.606,4.448,5.402,20.666,5.763,7.139,-3.02,-0.552,1.045,8.131,-1.8,-2.255,-0.106,-0.278,0.329,0.231,-0.403,0.99,0.976,1.038,1.027],[2035.195,519.404,-101.225,-36.775,-139.876,476.715,132.271,14.602,-37.168,35.284,227.664,79.641,-11.168,-3.953,37.3,38.759,5.298,-0.515,-3.473,4.42,21.758,2.435,-0.549,0.727,1.217,8.403,0.295,-2.463,0.34,0.228],[3771.141,1445.103,432.13,645.074,-213.537,756.677,267.67,0.472,95.471,-13.747,362.873,124.571,18.745,34.268,-15.823,81.316,21.959,10.795,11.706,-0.492,40.28,14.655,3.332,-0.206,-2.74,19.484,2.654,-1.015,2.828,-0.94],[5553.135,2504.488,504.274,518.838,-23.034,1128.583,470.789,41.427,137.443,29.83,576.589,212.96,61.41,-31.777,2.615,106.451,43.429,9.058,4.283,4.215,53.577,14.408,2.426,-2.785,1.591,26.866,8.15,3.784,0.93,1.004],[6376.225,2984.319,1358.888,521.18,-368.142,1247.784,755.001,209.637,84.669,-3.917,623.247,357.951,54.151,-8.671,19.688,136.227,65.583,28.142,14.759,0.608,69.357,32.846,2.763,-3.477,3.412,31.435,15.554,3.31,1.672,0.02],[6935.727,5312.201,1408.673,421.604,495.143,1558.724,1374.686,276.345,94.962,9.637,713.113,495.31,183.027,102.612,52.919,146.653,96.78,40.321,6.215,8.49,74.094,50.179,18.548,6.883,-0.322,36.922,27.445,7.303,-2.662,1.173]]
}