{
"KTrans": [[1.789,4.442,7.591,12.546,7.714,7.981,20.961,15.297,9.783,14.106,19.495,21.038,19.899,17.176,20.586,109.591,89.097,80.453,66.523,70.148,78.397,172.145,149.025,146.412,139.928,213.674,156.683,239.748,226.877,220.853],[-27.246,-0.644,3.638,4.022,4.934,-20.755,3.405,4.905,5.837,5.001,-2.842,9.534,7.49,8.859,10.288,14.826,42.623,38.949,38.88,32.511,-63.585,87.739,80.282,70.207,61.623,2.774,-10.143,107.918,140.401,115.015],[-48.347,-13.387,-4.163,-2.667,2.388,-44.386,-5.999,-3.638,-0.763,2.589,-36.643,-6.747,0.768,3.796,3.97,-39.688,33.151,23.933,27.07,23.987,-47.175,61.727,65.904,57.638,52.422,-42.575,68.362,27.058,92.179,98.288],[-58.088,-15.066,-9.01,-8.304,-3.521,-55.004,-15.201,-8.262,-4.128,-1.548,-54.883,-14.38,-6.519,-1.357,2.071,-51.059,11.54,19.961,18.482,16.341,-73.252,12.642,50.496,43.647,44.11,-46.737,-49.239,1.281,71.647,86.028],[-67.224,-24.355,-13.249,-8.803,-4.313,-73.121,-22.878,-12.355,-4.733,-3.977,-67.625,-18.627,-6.938,-3.291,-1.594,-79.937,-3.105,13.23,15.943,11.738,-60.781,-19.559,43.22,37.62,29.908,-59.713,-29.654,0.151,83.307,76.878],[-77.162,-30.526,-15.093,-11.285,-9.903,-78.931,-23.33,-18.257,-10.694,-7.269,-75.961,-18.823,-7.051,-10.818,-6.161,-83.791,-20.28,16.068,6.793,6.645,-60.498,-24.114,33.04,35.897,30.249,-82.345,-103.457,-0.629,61.641,58.556]],
"ve": [[127.738,-35.012,29.96,42.324,50.649,17.792,25.957,29.735,83.4,26.13,14.69,13.689,21.807,67.086,-23.6,22.61,22.455,7.109,5.891,7.398,114.07,43.039,14.146,3.936,6.66,185.824,104.182,20.757,19.99,-2.163],[1.738,0.95,1.18,2.772,4.319,7.252,1.717,1.446,2.528,4.11,13.623,5.571,2.057,4.232,3.612,44.248,23.91,15.165,10.697,8.842,-139.273,55.115,29.681,20.373,15.977,207.816,97.982,61.148,40.923,37.06],[0.998,-1.632,-1.449,-0.122,0.374,4.435,1.055,1.684,0.97,0.408,10.827,3.242,2.669,1.973,1.685,47.736,24.082,14.464,10.812,8.845,97.631,47.347,31.493,23.06,18.084,199.395,90.449,51.198,49.075,35.888],[20.217,-0.856,-1.923,-0.677,-0.853,-0.005,1.108,-0.166,-0.167,-0.294,23.706,4.433,0.919,0.769,1.333,47.567,23.201,13.717,10.422,7.799,101.045,44.349,29.94,22.259,17.323,199.235,97.369,62.894,71.735,35.847],[-0.459,-0.429,-1.403,-1.758,-1.368,8.763,1.049,0.056,-1.003,0.028,29.54,3.915,0.818,0.563,0.436,38.187,22.316,14.594,10.047,8.01,97.488,50.954,32.743,21.916,16.65,211.186,91.471,55.673,45.02,37.652],[-5.426,-1.01,-2.319,-1.93,-1.498,-53.389,1.286,-0.07,-1.246,-0.54,22.796,2.615,0.783,0.11,0.415,51.055,23.296,14.559,10.829,7.356,95.431,45.232,30.824,22.653,17.455,185.695,99.802,61.701,46.169,36.645]],
"kep": [[-21.166,-20.49,-21.007,-17.251,-29.213,-17.987,-4.761,-14.013,-27.197,-18.037,-12.794,-8.903,-8.409,-14.462,-8.03,13.522,29.528,42.844,39.049,52.73,-19.006,60.356,77.719,102.098,121.28,7.646,28.375,103.897,130.765,157.373],[-43.538,-19.436,-16.829,-17.583,-18.258,-38.21,-16.87,-15.855,-16.146,-18.102,-30.654,-15.318,-14.442,-15.126,-13.451,-37.09,-7.272,-2.448,1.738,-1.076,-77.423,0.906,12.038,14.154,12.602,-62.886,-50.036,4.728,34.429,30.631],[-59.148,-28.617,-21.211,-21.136,-17.483,-57.904,-24.635,-23.391,-20.595,-17.348,-53.601,-26.658,-20.5,-17.676,-17.36,-64.241,-13.787,-12.757,-7.345,-8.043,-73.776,-12.35,1.056,2.9,3.902,-78.393,-25.193,-32.278,4.039,16.856],[-68.847,-30.767,-24.892,-25.328,-21.389,-66.027,-32.649,-25.559,-22.455,-20.242,-68.864,-33.87,-25.113,-20.854,-18.615,-71.935,-27.233,-14.968,-13.546,-12.9,-84.016,-37.165,-7.451,-5.855,-1.212,-80.875,-71.523,-45.848,-5.776,9.358],[-75.475,-38.512,-28.902,-24.954,-21.663,-79.622,-38.28,-29.292,-22.258,-22.511,-77.212,-36.867,-25.412,-22.251,-20.945,-87.249,-37.04,-20.765,-15.252,-16.596,-81.248,-54.344,-13.909,-9.853,-10.423,-84.929,-65.091,-46.873,-1.415,2.583],[-82.849,-43.22,-29.835,-27.006,-26.133,-84.68,-39.23,-33.964,-27.011,-24.759,-83.42,-36.62,-25.399,-28.106,-24.578,-89.698,-48.101,-18.921,-22.391,-19.919,-82.432,-56.768,-19.078,-11.462,-10.947,-92.218,-94.313,-48.149,-12.704,-7.513]],
"vp": [[-168.199,126.257,264.871,487.9,825.343,-12.396,8.178,66.622,-62.035,-34.049,-27.42,60.975,0.712,-17.462,20.124,-2.765,11.619,7.457,-1.444,-15.767,-17.893,-13.791,-16.999,2.118,-12.119,-22.434,-8.099,-20.737,-18.474,-13.757],[2797.984,1578.944,2.415,-201.765,-573.03,591.264,174.794,-19.119,51.428,23.326,284.19,79.544,-11.627,-0.734,66.295,45.633,-21.61,-6.475,4.708,-15.471,12.495,0.653,-26.847,-25.293,-7.699,0.685,-27.163,-27.603,-6.054,-13.7],[4329.463,2758.848,1726.041,625.636,304.743,772.569,544.116,190.728,161.274,-43.043,425.452,284.075,63.599,-9.545,-4.958,55.06,36.716,17.644,18.791,-10.4,28.108,17.349,14.867,-13.09,-6.289,-1.406,-35.777,-37.859,-31.859,-25.681],[6002.815,4492.452,2878.389,728.976,986.496,1071.669,829.886,463.781,329.435,201.989,617.349,569.262,219.849,227.465,79.714,75.601,63.273,38.249,4.86,10.569,55.003,21.028,-17.866,-3.216,-15.675,20.135,-3.394,-17.054,-28.314,-43.137],[6503.279,6966.936,3106.835,2378.194,709.163,1311.577,1259.018,856.418,477.49,94.977,630.387,819.991,401.011,205.936,95.828,112.358,133.201,92.653,50.706,-16.515,35.7,27.038,43.467,-0.179,-14.575,32.65,-21.896,-6.833,-8.233,-25.689],[7243.208,7687.242,5495.535,3347.603,1184.063,1228.333,1692.734,1026.39,682.58,426.319,682.973,804.871,817.222,324.745,243.971,128.534,152.513,89.218,105.383,10.167,30.901,37.635,28.396,20.181,8.669,1.851,16.139,-40.294,-15.184,-38.604]]
}