{
"KTrans": [[-46.5,-87.332,-85.901,-120.161,-90.264,-37.302,-55.478,-100.785,-73.496,-85.95,-35.214,-59.279,-77.394,-79.267,-84.345,-46.187,-21.412,-10.707,-41.711,-51.79,91.051,34.603,-30.066,28.858,14.687,7.263,-3.483,91.767,90.278,99.665],[-72.747,-53.476,-47.026,-61.139,-73.639,-64.138,-43.088,-53.408,-69.422,-73.797,-55.774,-39.805,-47.561,-48.109,-59.661,-38.535,-10.321,-17.442,-37.47,-55.555,-20.497,5.645,3.02,-3.915,2.477,-18.275,55.311,48.059,40.17,34.057],[-78.145,-53.115,-50.185,-39.62,-59.72,-72.247,-56.16,-44.62,-49.416,-47.419,-76.154,-51.305,-43.963,-44.143,-42.113,-58.776,-33.369,-30.102,-21.147,-25.618,-42.341,-23.87,-15.866,-2.252,-15.32,-24.1,6.277,-24.543,24.353,14.343],[-83.534,-63.541,-54.912,-45.143,-51.56,-81.755,-57.929,-49.79,-39.701,-46.391,-79.765,-59.621,-46.207,-34.043,-40.402,-67.54,-51.06,-40.675,-35.967,-29.139,-67.355,-38.143,-15.221,-10.733,-5.194,-43.111,-37.009,-5.053,6.118,4.278],[-84.827,-64.016,-57.401,-49.14,-47.177,-84.135,-65.334,-55.144,-52.694,-44.268,-83.089,-66.366,-57.397,-51.379,-43.771,-78.176,-56.399,-45.88,-38.924,-39.065,-75.01,-46.479,-32.03,-24.722,-25.093,-84.564,-30.835,-7.383,1.871,-7.755],[-87.632,-71.962,-59.664,-50.022,-43.775,-88.402,-70.437,-49.449,-51.059,-48.807,-84.706,-70.636,-59.228,-49.605,-39.576,-80.546,-66.164,-52.296,-46.409,-40.784,-76.545,-54.652,-39.463,-34.106,-32.906,-64.351,-42.824,-37.524,-8.649,-5.454]],
"ve": [[5.734,-53.629,-55.839,-33.983,-66.915,-58.745,-82.945,-32.454,-72.497,-34.31,3.418,-47.064,-16.674,-45.022,3240.552,129.676,-28.751,-34.188,-8.91,-7.757,76.191,501.362,48.058,-64.125,-31.939,119.452,47.983,384.192,13.822,-1.834],[-364.532,-56.52,-44.466,-55.179,-69.725,-45.584,-33.333,-33.251,-43.963,-48.074,40.475,-40.153,-46.278,-56.419,-46.679,-350.921,-47.436,-8944.289,-16.597,30.437,125.319,39.943,-1.385,-53.833,-1.545,160.677,116.706,41.146,34.28,33.589],[-40.513,-49.729,-58.64,-315.409,-60.894,-16.052,-68.239,-45.857,-64.737,-49.577,5.712,-64.983,-54.928,-71.169,-44.279,62.305,-25.913,-225.083,-5.106,-22.335,102.969,27.39,-26.014,-6.233,-15.821,-238.07,29.305,31.904,21.163,26.158],[-46.794,-80.555,-65.331,-55.957,-56.226,-42.081,-3.343,-58.929,-54.042,9.909,0.685,-8.667,-42.434,10.123,-42.948,56.623,11.017,-33.366,-43.485,-84.974,84.366,11.528,9.575,10.19,0.137,3586.596,305.466,53.69,18.811,50.352],[-377.857,-23.015,-56.323,-73.237,-36.832,-20.855,-5.122,-99.926,-66.751,-60.415,12.537,-28.992,-49.338,-99.738,-41.625,-31.356,28.445,-38.237,-31.97,-53.226,139.322,25.533,28.828,-34.268,-38.189,212.417,137.405,92.617,28.511,15.112],[-98.254,-39.763,-29.598,-95.535,-52.661,-1.421,-10.518,-37.567,-73.381,-81.126,18.087,-5.696,-43.021,-61.406,-52.462,246.509,20.761,-118.461,-33.898,-72.072,176.048,63.259,11.355,-34.488,-47.79,361.432,121.804,117.651,17.383,28.419]],
"kep": [[-106.935,-102.147,-88.131,-8.984,1.066,-122.834,-99.448,-38.02,-39.864,-37.224,-106.253,-86.324,-20.823,-62.14,-57.903,-98.819,-121.689,-153.025,-40.808,-11.38,-134.254,-132.714,-117.534,-202.565,-121.481,-116.603,-76.793,-203.731,-252.515,-235.884],[-104.281,-109.923,-115.815,-123.827,-57.387,-97.741,-104.914,-122.447,-136.132,-70.916,-103.73,-113.791,-116.282,-88.662,-58.363,-96.547,-101.891,-130.187,-90.257,-65.109,-97.527,-102.551,-99.676,-111.631,-125.878,-89.254,-70.998,-100.403,-157.425,-138.004],[-98.186,-86.284,-86.736,-111.176,-120.435,-102.268,-84.552,-95.494,-96.016,-115.003,-102.684,-81.081,-84.822,-103.093,-106.23,-102.689,-77.768,-75.639,-104.812,-118.456,-96.189,-82.257,-77.232,-114.273,-113.708,-94.301,-70.656,-67.112,-54.508,-109.907],[-102.254,-82.95,-68.284,-65.014,-87.436,-99.533,-89.869,-73.271,-71.259,-85.327,-98.241,-86.609,-75.312,-85.007,-80.856,-100.338,-91.126,-70.18,-64.75,-75.838,-97.977,-83.859,-70.527,-55.899,-86.773,-91.376,-76.386,-65.08,-66.705,-90.485],[-100.326,-89.927,-76.011,-60.735,-49.243,-102.42,-92.902,-63.886,-61.269,-42.613,-101.431,-89.059,-67.865,-58.25,-46.362,-101.057,-94.589,-64.568,-53.194,-50.998,-102.385,-85.626,-76.665,-52.886,-41.362,-98.155,-86.716,-71.708,-45.755,-55.093],[-101.705,-90.396,-72.898,-50.274,-40.717,-101.514,-91.084,-65.855,-49.524,-36.238,-99.509,-94.635,-77.093,-51.419,-44.639,-99.588,-93.363,-76.899,-50.815,-33.15,-101.595,-89.492,-76.233,-53.846,-38.893,-98.539,-86.838,-84.367,-49.829,-44.99]],
"vp": [[237.076,410.697,790.631,1134.404,598.541,32.421,-14.703,112.056,241.206,255.802,18.68,-8.7,42.04,-10.757,51.6,-5.954,-25.063,-0.279,13.546,-5.442,-27.631,6.453,2.789,-18.622,2.93,-23.958,7.86,13.721,-6.022,9.139],[1814.512,949.987,1172.681,-536.728,490.169,489.031,237.384,70.262,-453.746,-181.52,421.853,133.512,-32.485,38.58,-21.078,24.86,-4.834,-41.147,12.529,-7.169,16.443,-11.664,-16.867,-17.846,-7.302,-5.523,-28.885,-43.501,-34.205,-18.278],[5261.891,4021.701,1563.879,1655.07,-1390.201,935.368,576.321,503.8,73.729,-30.355,511.491,311.196,115.632,82.635,-48.533,78.368,44.464,15.237,-8.25,-20.226,16.252,49.021,-15.436,-8.902,-23.156,14.226,-25.785,-17.925,-32.089,-24.328],[5667.374,4503.691,4773.609,3145.527,2039.137,1191.793,1378.922,745.234,613.847,174.007,639.898,693.878,463.096,442.17,188.859,88.348,94.153,77.773,71.538,-2.118,47.772,37.556,6.269,9.855,1.005,-10.059,12.956,-21.907,-23.047,-4.697],[5506.133,6986.054,6169.325,3840.682,4148.174,1396.65,1642.547,1283.107,948.777,468.494,663.882,802.378,550.935,417.537,292.105,87.76,115.31,99.591,98.429,35.295,46.909,63.528,61.396,16.374,-7.759,27.886,9.944,12.432,-26.138,-13.441],[6540.477,9100,8421.695,6146.907,3780.15,1477.19,1649.545,1521.964,1200.545,825.298,692.237,848.535,832.899,539.927,527.971,116.255,161.389,171.541,75.666,44.543,85.461,82.421,74.836,31.274,13.567,20.817,-0.913,2.396,-9.772,-16.218]]
}