{
"KTrans": [[0.641,2.707,3.949,3,2.987,6.382,12.809,12.998,10.365,11.612,10.689,25.27,24.504,25.089,18.942,63.572,80.317,98.319,99.346,100.07,100.071,49.049,134.879,153.759,161.829,305.383,-381.18,26.034,129.018,171.386],[-4.721,-1.641,0.347,1.698,0.837,4.389,3.523,1.813,5.485,5.422,15.084,13.643,3.65,10.243,10.537,149.848,104.821,18.934,32.829,40.019,396.672,269.794,46.089,23.749,60.392,1127.75,810.59,70.775,-115.465,40.985],[-7.609,-1.231,-0.601,0.17,0.159,-3.069,5.457,4.396,3.325,1.053,7.771,11.812,10.073,6.922,2.407,116.372,74.767,61.146,56.8,10.102,304.507,182.405,142.918,147.976,19.043,890.22,493.809,391.264,431.724,-2.396],[-16.268,-1.81,0.657,-0.29,0.435,-5.705,3.545,3.544,3.366,3.418,4.372,9.531,7.899,7.208,6.414,98.835,66.475,50.539,42.487,38.051,264.399,159.397,113.553,97.842,91.157,761.189,397.519,288.621,245.181,239.792],[-21.629,-1.201,-0.786,0.358,0.428,-11.422,2.609,2.945,2.562,2.66,-5.32,8.853,6.956,5.382,5.89,80.32,61.054,46.333,36.634,32.629,236.406,143.716,102.829,81.493,73.528,682.101,370.346,250.434,204.508,176.454],[-25.87,-2.726,-0.228,0.37,0.358,-18.751,1.923,2.646,2.52,2.168,-10.227,8.333,7.752,6.727,4.65,68.068,61.246,43.16,34.79,29.754,209.375,139.156,96.603,77.18,65.107,608.451,341.14,232.415,178.698,150.729]],
"ve": [[-3.982,18.031,13.844,20.997,24.625,9.335,5.36,27.238,34.078,99.399,12.588,42.787,140.404,51.908,38.782,56.707,-2.204,-51.064,-78.574,-85.354,100.866,31.378,-6.471,-30.006,-45.338,269.415,83.147,32.925,3.89,-15.17],[-0.872,-0.495,5.506,1.938,1.516,3.896,1.103,-3.56,5.038,3.325,8.853,4.422,3.213,1.638,10.741,51.18,25.906,19,1.381,-4.032,101.122,51.457,48.091,18.612,0.287,200.905,101.658,62.34,44.804,27.095],[-0.033,-0.11,0.015,-0.464,1.598,5.033,1.97,1.578,0.845,0.609,9.244,5.147,3.6,2.501,2.126,49.577,25.234,17.637,13.316,9.304,100.127,51.164,34.933,26.273,18.808,201.691,101.21,68.522,51.305,40.736],[0.393,-0.095,0.173,-0.128,-0.046,4.106,2.137,1.456,1.117,0.882,9.272,4.847,3.468,2.818,2.165,49.962,25.257,17.372,13.452,10.936,99.925,50.464,34.312,26.267,21.239,200.018,100.563,68.176,51.959,41.556],[-0.07,0.432,0.235,0.156,0.202,5.156,2.417,1.588,1.139,1.102,9.324,4.865,3.146,2.355,2.197,48.972,24.924,16.902,13.13,10.706,99.699,50.246,34.097,26.029,21.141,200.151,100.573,67.739,51.622,41.712],[-0.264,0.347,0.217,0.103,0.117,3.981,1.898,1.722,1.073,1.05,8.938,4.821,3.338,2.614,2.049,49.29,25.16,16.889,12.808,10.337,98.893,50.409,33.915,25.547,21.061,199.403,100.444,67.405,51.06,41.302]],
"kep": [[-130.964,-9.542,-8.815,-5.488,-9.576,-130.2,-25.823,-21.77,-17.915,-19.11,-130.104,-51.754,-36.042,-40.009,-25.262,-114.321,-246.008,-187.614,-184.696,-190.588,-145.231,-469.736,-373.107,-363.933,-378.943,-92.398,-946.419,-730.937,-720.821,-754.447],[-12.526,-15.386,-127.639,-6.207,-4.525,-5.583,-5.278,-131.743,-24.061,-12.633,-0.306,13.689,-125.251,-39.134,-25.971,73.953,129.888,-132.578,-176.593,-99.781,163.615,251.271,-97.372,-336.709,-200.674,332.53,517.447,-127.28,-664.912,-399.577],[-12.83,-4.829,-4.764,-4.751,-121.28,-11.417,3.533,4.426,1.172,-121.916,-6.496,7.248,13.69,16.487,-122.478,44.008,51.098,72.933,129.638,-138.749,103.458,110.481,141.005,267.315,-138.702,236.703,233.223,293.95,540.193,-237.54],[-22.537,-4.732,0.67,-2.442,-0.385,-12.992,0.109,1.431,2.656,6.992,-9.114,4.587,6.083,9.882,13.421,29.85,38.585,40.892,49.695,69.418,80.883,82.421,80.221,100.216,141.61,188.115,162.897,167.487,201.683,283.926],[-26.295,-3.964,-1.818,-0.832,0.453,-18.65,-0.017,1.563,1.954,3.407,-17.374,3.091,4.167,3.557,8.273,16.966,30.422,31.605,31.486,38.716,67.286,67.083,62.746,64.117,78.049,159.441,143.145,128.286,137.672,153.642],[-30.182,-4.34,-1.156,-0.546,0.543,-27.66,-1.449,0.481,0.766,2.642,-21.556,2.524,3.659,5.251,3.861,8.367,30.65,25.747,25.386,27.597,53.234,62.299,54.289,52.859,55.585,135.022,124.475,110.595,103.862,108.541]],
"vp": [[16.724,-115.337,55.412,39.948,35.291,-5.704,2.748,4.174,26.137,-17.293,11.956,11.031,13.274,5.796,-4.187,0.31,1.935,1.73,2.401,1.271,0.002,0.311,-2.382,1.433,-0.602,0.315,0.644,-0.027,-0.406,0.645],[1074.633,93.206,-54.613,310.311,-220.747,194.139,19.294,-15.899,-16.498,5.661,86.72,23.735,-6.388,4.891,-1.117,21.17,7.21,-0.108,3.187,2.029,11.214,2.526,0.632,-0.736,0.148,3.362,0.955,-0.113,-0.646,0.166],[2644.414,168.679,164.695,46.706,-36.438,545.277,24.628,3.951,47.107,-5.284,205.681,37.941,3.06,-0.041,4.06,44.85,5.426,1.524,5.582,2.167,24.31,3.739,-0.252,1.822,-0.55,13.607,2.066,0.633,-0.027,0.217],[4261.502,581.125,224.763,79.58,22.378,851.842,130.607,17.448,52.66,-18.784,459.179,52.415,-0.627,-2.663,-24.838,79.097,11.721,3.656,0.319,2.936,45.917,6.649,1.68,2.443,-2.448,20.701,2.642,1.508,0.595,-0.131],[5380.795,1523.942,300.831,170.657,255.699,1207.106,253.151,28.397,74.017,30.298,573.21,108.19,2.398,-0.399,-6.826,111.617,25.259,4.049,6.219,2.708,53.971,10.528,5.042,0.717,0.841,28.554,7.132,0.429,1.028,2.092],[6603.833,2280.307,282.339,-35.65,168.057,1349.024,381.286,127.79,-9.643,-93.362,652.359,228.406,93.289,8.798,-4.646,125.856,53.094,15.249,4.381,-3.455,63.903,23.265,6.244,-0.55,2.003,31.182,10.417,2.836,1.887,-0.526]]
}