{
"KTrans": [[3.953,2.364,2.224,1.748,1.467,14.287,8.385,6.839,5.586,5.374,27.788,17.619,13.848,11.987,10.842,168.149,93.387,76.212,68.048,63.589,408.667,225.653,177.418,157.066,141.495,973.992,584.236,448.019,393.618,356.492],[1.125,2.965,1.216,1.358,0.7,10.594,5.868,4.968,3.803,3.45,22.975,12.889,9.452,7.342,6.511,140.8,67.238,45.758,36.369,30.909,409.878,156.65,103.024,80.307,67.926,267.687,401.31,242.382,188.502,155.162],[1.306,2.347,1.733,1.784,0.993,6.661,6.748,4.982,3.645,3.166,25.185,12.655,9.021,6.991,5.88,158.519,68.623,43.15,32.771,26.148,267.576,156.564,93.832,69.689,56.415,10.084,422.267,225.362,158.031,127.674],[3.415,4.391,3.398,1.455,1.374,9.785,5.478,5.404,3.873,3.565,18.261,13.846,8.893,7.068,5.536,130.031,64.989,39.992,31.569,25.221,68.887,152.019,91.101,65.623,51.629,-30.599,478.198,232.147,149.06,121.637],[-8.643,5.108,2.976,2.044,1.729,3.447,7.406,7.004,4.028,3.501,9.208,15.588,9.549,6.844,5.978,65.128,65.691,41.98,31.476,24.651,-37.628,176.198,93.817,69.395,53.063,-131.19,341.915,225.583,168.239,110.545],[-11.292,2.493,3.254,1.563,2.018,-4.334,8.583,5.043,4.269,3.217,1.534,16.537,8.797,7.16,5.494,40.364,72.299,44.46,31.386,24.561,-10.623,175.803,96.224,59.862,52.942,-167.159,205.689,263.765,147.893,113.078]],
"ve": [[1.406,-0.016,-0.993,-0.231,-0.461,4.837,0.311,-1.146,-2.361,-4.049,8.126,1.181,-2.322,-5.587,-7.327,45.745,13.601,-1.47,-11.678,-18.998,93.557,33.371,8.207,-7.607,-18.501,193.788,79.731,35.966,11.016,-5.801],[0.605,0.324,0.24,-0.157,0.074,5.111,2.139,1.215,0.706,0.292,9.925,4.387,2.601,1.46,0.541,49.43,23.47,13.906,9.058,5.607,97.996,47.846,29.479,19.194,12.573,200.188,96.901,61.128,41.941,28.893],[1.237,0.42,0.144,0.053,0.125,5.577,2.544,1.364,1.252,0.726,10.001,4.703,3.11,2.161,1.394,50.34,24.764,15.715,11.105,8.28,99.284,49.313,31.96,22.884,17.274,199.487,99.103,64.321,46.75,35.67],[1.739,0.719,0.381,0.102,-0.082,5.179,2.141,1.456,0.963,0.727,10.327,4.756,2.967,2.387,1.663,50.43,24.495,15.917,11.692,9.056,100.548,49.442,32.452,23.692,18.478,194.935,99.336,65.741,48.441,37.768],[1.26,0.635,0.334,-0.013,-0.011,5.664,2.485,1.57,1.21,0.757,10.875,4.951,3.063,2.353,1.758,50.481,24.556,16.356,12.022,9.398,100.683,49.93,32.82,24.624,19.218,201.44,97.707,65.617,49.636,38.408],[2.075,0.25,0.5,-0.047,0.043,5.244,2.704,1.341,1.057,0.905,10.848,5.265,3.461,2.308,1.814,51.177,24.804,16.689,12.192,9.571,97.906,49.586,32.899,24.292,19.553,200.895,100.82,66.126,49.194,39.103]],
"kep": [[2.711,2.625,3.594,2.761,2.57,9.252,8.268,8.562,8.787,10.865,18.331,16.607,16.917,19.184,20.17,83.699,70.336,79.064,90.545,102.469,161.53,143.899,156.401,178.347,196.492,261.564,279.42,302.127,344.094,384.22],[0.576,2.687,0.995,1.549,0.664,5.367,3.684,3.719,3.098,3.179,11.954,8.175,6.714,5.826,5.97,60.554,35.395,27.951,25.055,23.981,154.211,73.156,56.691,51.239,49.165,26.23,152.582,111.941,102.952,97.798],[0.139,1.94,1.599,1.741,0.876,1.056,4.131,3.578,2.373,2.435,13.74,7.632,5.744,4.738,4.435,71.177,35.039,23.672,19.496,16.501,82.224,71.173,46.693,38.012,33.339,-58.803,158.765,97.081,75.441,67.584],[1.677,3.66,3.026,1.358,1.464,4.479,3.279,3.904,2.891,2.825,7.162,8.697,5.768,4.579,3.815,51.876,32.362,20.735,17.766,14.816,-15.123,67.617,44.04,33.772,27.931,-71.775,184.67,99.047,67.31,60.599],[-9.755,4.447,2.636,2.061,1.743,-2.263,4.763,5.358,2.786,2.726,-1.477,10.12,6.305,4.389,4.151,8.626,32.732,21.947,17.331,13.933,-67.294,82.798,45.551,35.792,28.324,-106.838,118.52,94.932,78.6,51.796],[-13.137,2.25,2.752,1.622,1.975,-9.969,5.758,3.66,3.187,2.296,-8.163,10.679,5.153,4.747,3.619,-6.989,37.565,23.714,17.073,13.658,-53.874,82.702,47.204,28.454,27.839,-119.068,51.402,116.426,65.372,52.811]],
"vp": [[38.31,20.782,50.579,-4.287,-23.765,14.779,13.676,12.256,17.58,24.605,11.313,10.072,18.435,12.753,17.845,14.359,8.696,13.385,15.364,18.476,6.018,9.003,11.154,10.768,7.614,6.775,6.614,6.213,10.534,6.931],[493.794,91.118,84.945,-70.231,28.284,86.122,9.813,18.76,28.886,20.571,50.661,22.485,15.446,13.188,13.68,19.555,13.962,8.702,6.545,5.147,16.468,17.975,15.253,15.582,16.166,12.717,13.59,14.331,15.867,13.463],[1375.504,-41.857,-23.49,-46.509,101.111,255.924,20.238,36.451,38.688,6.758,148.089,33.9,15.054,18.55,1.4,62.154,30.943,20.455,17.442,10.947,15.473,23.737,17.875,15.231,13.574,9.469,16.458,15.044,11.084,14.759],[2871.924,98.076,-31.555,-39.651,-50.249,656.881,30.516,-4.192,17.53,19.161,332.294,45.386,17.495,3.594,27.188,75.738,12.13,5.891,19.82,11.491,40.771,16.546,14.638,8.141,6.292,25.302,21.18,19.756,12.119,21.418],[4774.715,124.349,-115.103,-196.573,-97.266,1143.866,54.677,-5.127,2.379,18.817,500.281,73.68,-3.83,5.265,20.715,110.482,23.355,18.664,16.746,11.274,53.528,41.6,20.109,29.815,24.46,40.133,11.108,13.695,32.825,8.376],[6713.339,435.77,-315.919,-332.221,-119.633,1389.623,145.083,-2.025,-36.947,3.182,717.857,73.343,27.743,9.943,-13.604,130.991,39.653,29.102,15.031,15.155,50.897,46.767,18.326,5.844,25.868,52.298,46.3,29.256,13.433,16.327]]
}