{
"KTrans": [[2.853,7.299,3.961,5.834,3.812,13.28,10.42,10.241,8.374,8.69,19.014,18.259,19.557,13.955,15.547,151.387,92.822,78.394,68.323,61.007,389.783,218.414,175.887,159.065,147.39,840.956,544.103,423.706,380.185,346.523],[-15.133,-1.019,0.511,2.488,2.975,-7.001,0.247,5.071,4.173,4.311,2.142,7.901,8.448,8.936,8.393,88.063,56.581,43.499,36.465,34.36,199.163,123.301,92.402,75.579,65.8,205.191,316.538,210.253,172.168,149.155],[-28.953,-8.023,-1.535,0.317,0.909,-28.757,0.04,0.733,1.448,1.799,-19.1,8.125,3,4.674,5.511,27.003,42.269,31.6,28.033,23.68,124.491,103.146,80.631,63.006,50.749,50.019,243.418,169.769,136.963,110.364],[-44.188,-9.669,-5.856,-2.051,-1.238,-42.039,-9.514,-1.469,-0.991,0.436,-36.56,-2.922,1.731,2.626,2.745,3.059,37.531,28.253,22.505,19.161,60.241,96.735,65.554,51.338,47.823,-80.07,251.686,152.846,118.554,98.056],[-56.516,-12.915,-6.805,-4.389,-2.95,-55.059,-9.582,-3.739,-2.97,-1.765,-48.737,-8.621,-3.342,0.105,1.36,-12.759,32.842,24.478,20.505,19.071,4.978,85.009,61.302,47.463,37.847,-0.972,210.747,151.689,112.879,96.001],[-60.658,-18.136,-8.548,-6.602,-3.75,-60.733,-16.6,-8.437,-3.889,-2.684,-59.623,-12.345,-5.918,-2.487,-0.465,-34.312,21.355,21.383,18.571,15.026,-25.527,92.806,57.299,46.26,34.539,-12.127,209.829,140.05,108.155,91.671]],
"ve": [[7.645,5.802,8.121,22.662,37.907,7.532,4.587,10.513,12.22,26.28,14.108,5.267,1.512,6.106,3.529,47.77,15.353,2.788,-6.505,-11.308,95.559,36.263,9.602,-6.021,-16.688,159.339,80.296,36.933,11.603,-4.475],[2.239,0.244,0.616,1.036,1.482,8.092,3.359,1.582,2.651,2.101,9.048,4.876,2.952,2.471,2.252,49.258,23.567,14.437,9.451,6.24,99.502,46.658,29.007,19.586,14.153,30430.924,96.238,60.257,41.503,29.247],[1.742,-0.242,-0.631,-0.019,0.14,5.712,1.407,1.884,0.645,1.208,8.092,3.805,2.324,1.952,1.643,49.574,23.741,14.833,10.911,8.521,100.126,47.098,31.194,22.452,17.402,194.708,96.89,62.665,46.31,35.399],[4.304,-1.209,-0.067,-0.238,-0.378,3.756,2.037,0.594,1.029,0.102,-4.473,4.64,1.954,1.812,1.128,55.288,23.918,14.942,11.139,9.083,107.393,47.636,31.535,23.295,18.402,208.022,97.124,63.926,47.084,36.845],[4.34,0.048,-0.803,-0.564,-0.561,5.524,0.842,0.701,0.228,-0.109,-31.23,3.729,2.304,1.337,1.357,49.232,23.944,15.43,11.134,8.68,98.134,48.726,31.641,22.832,17.955,194.543,98.94,64.038,47.691,38.138],[4.371,-0.37,-1.443,-1.031,-0.74,0.092,1.441,0.516,-0.415,-0.36,12.796,3.741,2.391,1.249,1.098,48.776,23.102,14.853,11.538,8.65,103.41,48.437,31.435,23.299,18.427,206.315,94.801,64.608,47.59,38.153]],
"kep": [[-10.577,-6.107,-10.276,-8.586,-14.987,-2.494,-2.705,-5.034,-5.54,-5.423,-4.532,2.764,9.128,2.362,7.044,54.296,51.508,58.025,64.603,68.051,124.888,110.976,127.176,149.459,168.979,184.695,219.987,243.914,287.762,321.152],[-24.751,-10.919,-10.065,-8.718,-8.694,-22.282,-12.65,-6.957,-8.715,-8.1,-15.633,-7.277,-5.222,-4.369,-4.656,13.408,14.078,12.729,12.052,13.658,33.813,36.35,34.009,31.874,30.464,-8.28,89.674,73.416,72.386,72.993],[-37.426,-17.131,-10.979,-9.871,-9.475,-39.13,-11.282,-11.135,-9.467,-9.654,-34.314,-6.358,-9.578,-7.795,-6.736,-24.23,3.24,2.952,3.653,2.309,0.532,23.524,23.429,19.439,15.287,-52.331,55.343,48.258,45.024,39.288],[-51.213,-17.773,-15.402,-11.842,-10.991,-50.066,-20.266,-11.96,-12.015,-9.871,-47.753,-16.624,-10.367,-9.466,-8.767,-38.661,-0.441,0.2,-1.103,-1.935,-29.468,19.106,12.841,10.109,12.035,-92.607,57.678,37.692,33.054,29.63],[-62.515,-21.65,-15.575,-13.657,-12.375,-62.526,-19.426,-14.165,-13.051,-11.699,-59.774,-20.926,-15.041,-11.316,-10.236,-47.412,-3.975,-3.224,-2.662,-1.643,-52.384,11.083,9.799,7.552,4.823,-68.769,38.519,36.827,28.962,27.047],[-65.747,-26.097,-16.725,-15.266,-12.975,-66.691,-26.159,-18.228,-13.369,-12.345,-67.647,-24.116,-17.476,-13.506,-11.641,-61.001,-11.546,-5.131,-4.638,-4.988,-66.327,15.813,7.209,6.387,1.877,-73.656,37.953,29.793,25.981,24.201]],
"vp": [[129.072,196.72,358.073,-177.304,446.957,-30.048,-64.002,-3.229,10.737,-7.425,-22.634,6.882,34.999,-19.717,10.326,-1.014,-1.504,6.123,-0.185,-1.238,7.089,2.207,1.378,2.64,-4.178,0.001,0.042,-0.019,-1.493,2.001],[2403.354,1426.442,-13.754,-80.04,203.063,476.365,161.188,-4.729,41.862,103.897,216.296,137.67,10.033,-25.158,14.252,41.696,5.712,-5.833,-21.723,10.412,18.419,-8.692,-7.695,-0.754,7.126,5.899,0.191,-7.022,3.49,6.883],[4899.201,1477.773,1470.454,897.955,85.7,915.468,425.271,236.546,43.611,-43.354,439.811,199.528,71.621,112.834,16.292,76.718,30.654,19.592,2.708,-11.956,38.922,8.761,5.349,3.889,-7.918,14.214,-3.022,-6.421,-5.983,-9.528],[6230.185,4110.474,1179.328,804.774,351.71,1172.395,618.623,240.118,208.132,176.383,623.856,393.738,116.621,84.137,65.792,106.35,76.479,34.496,4.063,4.112,59.43,28.777,8.437,-5.963,4.44,27.952,8.946,-0.418,-7.201,-7.674],[7445.443,4876.663,2346.237,1535.319,476.867,1355.499,1087.294,506.518,166.533,119.76,691.132,606.05,311.208,96.462,54.989,112.721,100.552,54.477,9.095,16.325,51.111,51.761,20.026,2.279,-2.645,25.32,18.844,-1.229,0.365,5.833],[7572.323,7906.259,3707.01,1462.199,978.293,1471.846,1480.487,517.797,241.826,102.196,714.043,650.447,306.672,139.017,134.09,148.02,125.972,82.818,31.989,3.022,64.229,81.112,25.465,9.673,-4.198,29.255,25.772,12.337,6.216,7.896]]
}