{
"KTrans": [[-4.166,-0.027,-2.59,0.717,-3.738,9.468,25.391,13.522,8.736,10.544,19.393,21.492,19.103,20.628,21.248,50.505,36.837,73.206,87.395,89.516,-139.335,66.688,90.374,118.158,116.039,-59.171,-56.314,-95.313,-95.295,97.264],[-41.193,-16.767,-2.258,5.672,-1.286,-40.349,-7.541,2.344,6.584,5.798,-33.798,-5.412,3.029,6.603,7.723,-14.968,6.943,-4.67,19.444,33.271,-84.682,-45.7,8.855,5.588,50.481,-95.039,-117.802,-60.861,12.147,38.796],[-50.112,-23.636,-15.264,-7.555,2.562,-50.972,-20.665,-7.419,-5.206,1.352,-53.62,-14.247,-8.105,-3.091,2.244,-46.489,-4.695,0.643,10.017,6.25,-65.509,-55.983,17.273,-17.149,-5.138,-139.386,30.755,-67.603,20.805,-41.935],[-67.38,-28.701,-16.023,-6.672,-5.297,-67.64,-27.722,-9.653,-6.411,-5.892,-65.26,-25.348,-8.575,2.66,-3.363,-50.412,3.729,9.665,11.033,6.528,-75.108,-33.119,2.904,40.158,-3.577,-79.815,-63.156,7.199,-11.078,-6.205],[-73.164,-33.753,-17.514,-4.059,-6.119,-74.858,-35.088,-14.304,-3.492,-1.312,-72.16,-28.742,-11.904,-2.989,-0.879,-68.868,-14.635,10.616,23.468,16.629,-79.381,22.694,17.424,27.98,29.007,-62.176,-66.484,-89.176,-1.862,47.211],[-78.237,-40.736,-19.787,-9.082,-1.671,-79.084,-39.077,-17.999,-4.636,-1.447,-81.44,-40.542,-10.694,-3.64,-0.305,-79.132,-26.191,2.352,18.353,24.372,-80.836,-20.646,40.811,20.257,30.501,-82.229,-37.015,50.411,17.913,-51.325]],
"ve": [[-4.268,-13.697,-30.167,25.124,-13.461,-3.242,51.468,-91.078,-37.647,-21.537,22.452,0.262,-39.317,-21.119,-25.085,57.786,-32.044,46.073,-98.042,-47.634,95.799,85.081,-5.005,-41.165,-31.072,189.512,89.105,3.067,0.503,-25.971],[-6.027,-4.558,-2.157,-2.965,-24.708,-65.224,-21.789,19.291,39.203,-23.366,-24.474,-27.126,7.425,7.075,-4.859,52.606,24.895,16.064,-0.846,-1.878,458.9,40.942,32.558,23.408,14.483,186.921,95.053,47.604,41.434,27.037],[413.213,-5.133,-19.302,-7.412,-172.558,-21.869,1.097,-6.082,-66.076,2.361,-35.036,-8.172,-6.456,-122.213,5.739,59.816,10.019,28.088,7.301,10.617,-999.451,44.613,32.14,34.916,4.346,200.161,129.465,76.452,47.621,36.634],[-4.465,-6.032,-7.431,-19.827,-6.474,21.786,-6.413,-6.006,-5.109,-6.093,16.934,-7.24,-3.907,-11.421,19.179,51.024,88.037,12.614,9.559,11.278,88.415,46.547,33.654,23.911,19.487,197.256,138.708,55.248,55.986,39.68],[-3,-4.105,-3.009,-3.412,-1.278,-36.933,-5.234,-2.753,-3.158,-0.217,29.457,10.081,-0.844,-2.629,-1.146,44.53,-55.317,15.638,7.652,6.639,76.754,45.926,-46.622,-16.426,19.811,190.539,98.106,66.011,55.589,38.252],[-1.347,-3.355,-2.286,-1.755,-1.548,-13.648,-3.239,-1.88,-0.022,-1.112,13.073,0.537,1.459,0.842,0.226,44.319,19.386,16.123,13.469,8.117,86.542,50.673,32.392,55.153,18.881,196.322,95.747,60.825,50.137,42.203]],
"kep": [[-118.54,-81.636,-61.731,-47.575,-2.768,-125.417,-124.474,-85.045,-52.416,-75.797,-120.967,-116.394,-80.021,-64.759,-63.137,-128.68,-230.362,-192.031,-238.246,-225.009,-214.359,-244.345,-311.328,-373.773,-370.838,-104.857,-226.754,-529.377,-715.245,-601.329],[-89.169,-95.272,-131.433,-98.707,-24.197,-89.74,-85.739,-132.251,-99.217,-37.46,-84.711,-80.36,-119.29,-83.59,-36.001,-89.533,-95.423,-186.607,-168.334,-120.746,-109.355,-113.61,-125.369,-242.194,-196.434,-87.773,-111.975,-143.566,-173.146,-261.707],[-82.772,-64.437,-70.203,-89.844,-131.096,-84.185,-56.7,-50.246,-95.976,-129.133,-87.701,-51.785,-56.183,-87.432,-137.407,-86.832,-56.92,-64.745,-71.249,-132.222,-92.629,-96.354,-56.003,-121.209,-172.681,-100.451,-49.834,-92.306,-39.358,-140.803],[-91.939,-56.096,-40.019,-36.716,-52.289,-91.05,-53.478,-36.7,-29.319,-52.923,-90.021,-53.063,-31.76,-17.27,-49.689,-87.086,-43.55,-28.245,-27.9,-53.928,-97.289,-73.558,-54.429,-1.345,-67.003,-90.971,-74.257,-51.838,-53.346,-73.037],[-92.216,-54.792,-31.864,-15.336,-17.521,-93.229,-53.966,-29.804,-18.317,-17.495,-91.779,-54.538,-28.289,-20.156,-17.511,-91.665,-50.997,-24.349,-6.085,-7.942,-95.912,-40.442,-27.582,-17.109,-3.194,-85.141,-84.063,-93.901,-37.703,3.089],[-93.134,-58.745,-31.721,-18.127,-12.149,-93.963,-58.224,-32.153,-11.03,-12.243,-96.134,-60.495,-26.767,-16.444,-8.407,-95.555,-56.735,-28.529,-6.606,8.845,-96.035,-58.091,-12.898,-23.509,0.18,-93.611,-68.606,-17.018,-32.444,-85.975]],
"vp": [[325.564,-840.714,566.942,527.692,1216.055,5.786,-76.778,90.56,70.011,71.526,-44.734,33.174,65.089,4.158,-4.815,-3.738,20.388,-1.798,-0.451,16.041,15.409,-15.617,-4.425,-14.832,-9.371,-23.832,-3.174,2.106,14.276,-10.763],[2691.385,632.005,255.538,347.259,-131.761,574.213,231.567,154.544,-149.172,82.676,221.335,133.745,75.334,-11.343,-59.978,47.665,3.464,13.911,-10.471,-4.861,38.763,-0.845,-29.043,-13.08,-24.376,3.181,1.247,9.862,-18.714,-23.851],[4499.764,3742.514,1593.748,1039.239,532.697,820.168,623.588,345.888,87.282,-151.075,477.526,286.63,86.786,75.242,24.67,84.425,55.094,31.898,15.819,21.577,20.722,33.41,21.351,7.506,13.943,26.455,-18.788,-16.693,-15.538,-0.848],[6086.55,4844.563,3287.921,1605.75,956.796,1164.637,986.36,540.989,661.247,369.576,530.855,522.874,343.159,248.384,211.454,103.956,96.243,43.555,12.965,46.93,56.085,49.512,54.926,-19.014,-10.397,16.24,2.289,-10.685,-13.25,-13.072],[6650.192,7556.829,4969.548,2693.732,2309.551,1270.043,1371.273,1042.703,652.231,548.801,676.218,864.195,411.65,420.124,160.831,113.562,136.047,100.563,79.866,36.844,50.538,61.665,41.907,27.139,6.121,-2.192,35.821,14.36,-15.47,-42.818],[7197.762,10385.188,6630.305,4810.105,2981.142,1438.92,2127.027,1186.473,763.275,603.56,657.378,849.301,856.718,409.427,221.914,126.242,137.143,112.368,81.48,52.058,57.844,69.021,47.087,30.098,-13.476,13.246,17.647,-17.425,8.257,18.483]]
}