{
"KTrans": [[27.657,7.31,25.053,31.153,26.388,14.131,26.003,32.575,15.825,30.379,27.112,30.842,29.593,35.859,30.611,86.311,51.1,65.705,40.185,53.76,96.907,110.084,80.807,81.773,81.397,155.639,117.117,152.781,141.694,118.791],[-51.94,-7.27,8.945,12.703,13,-49.939,-6.149,4.972,11.211,9.469,-46.826,-3.998,7.372,7.319,18.069,-40.096,3.214,13.536,20.654,20.878,-32.732,14.603,24.748,24.422,35.104,-11.791,44.934,46.544,59.168,58.683],[-76.793,-29.27,-19.564,-3.234,6.434,-76.415,-26.64,-15.031,-1.119,1.041,-75.788,-32.221,-16.092,-4.625,4.934,-59.836,-22.098,-14.216,-1.204,10.104,-52.484,-21.663,-4.01,4.844,7.569,-42.929,-8.241,19.972,18.683,19.27],[-84.806,-54.001,-25.15,-16.753,-14.597,-83.645,-52.473,-31.814,-21.341,-11.63,-83.098,-53.406,-29.62,-21.391,-11.956,-75.965,-50.8,-29.297,-16.668,-7.793,-67.244,-38.89,-24.128,-14.55,0.359,-49.491,-42.866,-14.788,-2.781,8.866],[-88.298,-63.446,-47.185,-32.622,-21.74,-89.678,-64.057,-52.091,-31.549,-21.611,-88.305,-67.134,-44.08,-32.233,-22.777,-81.442,-58.327,-48.502,-33.188,-19.267,-78.164,-60.014,-37.511,-27.04,-19.787,-65.513,-45.299,-34.244,-25.736,-11.32],[-92.052,-72.917,-55.608,-44.966,-33.836,-90.365,-72.32,-55.197,-37.792,-33.007,-91.222,-73.872,-57.423,-41.51,-33.078,-88.268,-71.25,-52.706,-38.025,-29.619,-82.77,-68.454,-52.506,-38.122,-28.213,-73.795,-57.941,-48.112,-31.451,-23.464]],
"ve": [[-26.639,-53.57,-17.689,96.276,1118.485,31.298,8.689,-619.59,25.055,-378.15,-104.47,-595.984,-37.668,-54.407,-396.5,-15.92,-67.662,246.974,44.556,-153.303,41.208,242.201,88.934,395.757,-446.395,24.187,47.796,126.892,0.16,577.29],[-14.98,24.025,-1.197,4.043,24.516,-15.614,5.139,17.537,22.458,40.347,22.944,3.899,35.509,19.114,11.658,5.637,-3.409,12.266,20.058,25.808,-31.692,36.65,26.325,3.844,33.406,75.149,35.786,38.584,-5.304,55.467],[-17.476,-7.778,9.512,-0.062,0.029,-180.252,-0.746,5.787,0.46,5.159,-36.765,-6.097,209.974,2.571,5.193,3.076,54.95,4.978,6.05,9.594,10.327,-20.117,1.013,9.096,7.217,82.987,39.277,17.857,-116.195,24.202],[-437.11,-5.411,-7.604,-6.943,-3.993,-47.796,-13.846,-11.998,-5.842,-5.071,-54.432,-16.884,-9.011,-5.515,-1.524,5.372,11.806,-2.82,-1.323,0.215,-17.341,-46.646,3.505,3.404,6.15,70.519,-77.862,25.956,16.016,17.789],[-45.43,-5.475,-8.024,-9.753,-7.384,-65.296,-17.902,-14.117,-10.381,-8.579,-166.597,-15.09,39.754,-9.134,-7.409,-47.447,411.436,-134.02,-6.623,-2.252,-68.459,15.617,3.378,-1.317,1.326,80.921,35.566,56.593,14.605,9.797],[15.332,-24.493,-19.397,-15.825,-11.404,-58.132,-13.559,-19.432,-15.16,-10.464,-88.133,-15.978,-17.465,-13.989,-10.605,-23.784,-9.831,-12.77,-8.98,-8.07,41.79,-6.504,42.231,-3.287,-0.935,46.164,16.258,14.279,6.297,8.911]],
"kep": [[-42.542,-62.332,-60.808,-57.975,-66.786,-55.094,-48.838,-46.829,-82.176,-75.215,-56.474,-45.687,-56.255,-56.47,-68.396,-34.786,-35.878,-25.062,-61.767,-47.109,-43.902,-19.615,-31.158,-23.827,-26.011,-51.543,-55.289,-12.002,-16.722,-28.506],[-78.44,-48.62,-41.197,-42.185,-43.98,-76.702,-47.324,-45.446,-43.517,-48.924,-76.063,-48.647,-44.337,-45.402,-42.91,-75.198,-49.249,-42.551,-39.843,-42.292,-79.131,-50.728,-43.15,-41.929,-37.864,-81.486,-53.13,-46.154,-37.208,-34.738],[-89.595,-58.243,-52.961,-45.296,-40.695,-90.191,-56.241,-52.619,-44.96,-45.917,-91.066,-58.05,-51.735,-47.985,-43.942,-82.972,-59.51,-54.284,-47.593,-42.992,-83.289,-64.379,-53.43,-46.91,-44.524,-86.346,-68.961,-52.72,-48.71,-46.444],[-93.557,-71.685,-54.934,-50.751,-50.414,-93.063,-70.083,-56.992,-53.716,-48.446,-91.959,-71.501,-57.072,-53.833,-50.367,-89.763,-73.114,-59.543,-53.477,-48.914,-88.188,-72.067,-61.622,-54.508,-48.093,-86.385,-80.647,-64.883,-56.627,-49.141],[-95.19,-75.313,-66.607,-58.487,-53.28,-95.755,-76.88,-68.456,-58.088,-52.643,-94.278,-77.962,-64.454,-58.813,-53.931,-92.073,-77.152,-69.752,-60.616,-54.458,-94.105,-80.432,-66.956,-59.31,-56.259,-92.731,-81.173,-73.104,-65.213,-56.638],[-96.176,-80.908,-70.045,-64.037,-58.814,-96.289,-82.789,-69.343,-59.97,-58.729,-96.185,-82.409,-71.529,-62.448,-58.641,-95.256,-83.12,-71.194,-62.53,-58.146,-92.707,-84.887,-73.211,-65.204,-60.353,-91.981,-83.726,-77.503,-66.897,-62.526]],
"vp": [[276.141,34.106,-1032.012,-418.784,-101.209,119.522,-129.118,-234.543,-58.033,-204.221,-75.033,-89.189,-138.81,-107.898,-42.034,-30.471,-1.756,-40.437,-2.877,-15.529,-12.775,-27.518,-24.166,-21.008,-18.579,-21.789,4.387,-20.06,-15.178,-3.34],[3397.939,634.545,-737.293,-1034.46,187.884,746.899,146.717,-95.918,-49.454,-95.651,279.376,75.914,-30.554,36.378,-155.936,64.717,-3.617,6.039,-20.283,-31.294,28.744,-17.255,-13.35,16.325,-26.881,5.24,-9.497,-16.336,-23.291,-28.686],[5489.191,1967.678,3000.633,828.805,-534.398,1277.205,332.346,375.032,-66.83,79.395,553.679,349.375,220.842,68.085,-90.211,84.113,31.648,50.529,0.376,-17.528,48.24,38.404,7.065,4.856,29.203,12.843,8.323,-18.246,-7.202,13.55],[6705.283,5225.908,2597.937,2363.088,3187.426,1318.356,1063.083,845.319,529.252,341.547,643.822,550.057,354.76,319.409,209.14,87.905,123.968,86.732,57.556,39.165,24.879,49.185,28.92,30.839,4.275,-7.382,30.072,2.392,2.85,-1.923],[7033.701,6165.035,6699.47,5068.642,3616.686,1529.246,1396.83,1587.749,973.261,739.538,869.333,778.124,675.883,512.086,378.225,114.882,152.705,161.543,120.579,68.202,50.552,72.516,30.319,48.182,56.707,3.458,14.09,34.521,36.502,29.905],[7353.121,8088.763,8838.528,8199.588,7085.096,1528.876,1610.574,1595.729,1310.914,1158.312,773.204,940.885,822.323,806.093,700.245,175.95,183.154,161.422,129.746,135.135,64.146,86.18,90.346,64.671,47.994,2.197,20.251,49.264,31.135,33.483]]
}