{
"KTrans": [[-50.805,-58.122,-54.093,-54.725,-50.165,-26.923,-41.697,-36.778,-33.359,-33.764,-6.646,-30.027,-34.649,-29.465,-35.825,-15.946,24.922,32.239,28.676,10.601,-35.253,45.945,84.174,61.34,69.665,50.29,127.537,97.323,139.776,159.6],[-41.559,-33.655,-39.533,-43.851,-52.647,-41.476,-30.689,-28.151,-34.91,-29.103,-30.839,-35.252,-15.641,-37.907,-25.921,-0.768,6.934,-20.913,3.038,3.655,3.602,-20.311,-5.194,17.904,12.229,8.562,2.704,11.765,37.403,23.592],[-45.464,-34.79,-44.788,-40.679,-41.051,-43.903,-29.441,-31.588,-24.767,-27.119,-42.671,-31.412,-29.624,-25.936,-12.907,-12.867,-26.61,-10.209,-2.164,-7.172,-32.597,39.319,38.06,3.151,-3.601,7.235,54.944,-8.728,-8.475,16.045],[-61.751,-45.217,-36.711,-32.383,-43.052,-63.092,-30.83,-29.439,-33.095,-35.166,-54.94,-38.049,-36.572,-22.745,-29.087,-35.393,-23.493,-20.928,-12.005,-7.362,-35.149,15.755,13.986,16.584,21.641,-40.193,17.721,51.388,56.403,-30.564],[-72.685,-38.733,-38.238,-42.134,-28.844,-66.298,-37.567,-36.298,-29.515,-28.005,-69.524,-42.807,-41.929,-21.504,-31.03,-53.857,-36.038,-25.216,-24.651,-13.504,-40.856,1.367,-0.948,-8.136,-3.909,-39.927,-7.173,27.605,55.793,51.198],[-77.318,-45.179,-42.902,-38.391,-36.456,-78.198,-50.064,-34.286,-29.017,-23.719,-73.115,-39.999,-27.316,-23.547,-26.707,-67.009,-23.757,-31.856,-21.67,-22.243,-55.876,-36.759,-2.133,1.853,-11.835,-50.742,-11.321,21.746,69.744,55.257]],
"ve": [[-47.896,-23.859,-14.227,-9.717,89.994,-25.581,-32.837,-0.884,-45.196,-4.01,-2.847,-6.789,6.476,0.05,11.985,-64.878,8.185,-306.46,268.069,-777.157,18.945,8.425,-72.047,-91.557,69.772,116.151,79.796,19.001,-26.343,-26.281],[-101.509,-47.296,-39.487,-31.276,-30.678,-103.758,-48.465,-28.206,-24.081,-16.765,-74.729,-57.503,-16.369,-27.137,-14.995,-17.405,1.652,-9.107,9.495,5.222,-426.205,25.065,18.649,2.737,21.11,222.802,86.473,42.618,57.525,-16.323],[-75.627,-78.971,-73.183,-51.201,-41.094,-56.51,-63.292,-52.184,-32.159,-27.341,-66.04,-72.622,-48.738,-33.497,-13.07,112.545,-56.974,7.371,-8.905,-1.491,74.309,47.613,91.512,14.854,-2.257,129.437,151.724,86.783,28.017,31.532],[-78.565,-138.606,-79.415,-55.254,-59.011,-89.138,-81.313,-69.542,-58.279,-48.468,-76.49,-115.801,-79.449,-38.228,-41.334,72.219,-70.776,-59.947,-20.484,-15.809,86.168,10.181,13.179,14.745,21.042,272.524,155.771,85.212,116.367,50.825],[-78.932,-145.602,-104.482,-93.02,-50.501,-33.703,-120.068,-95.24,-61.61,-49.541,-67.412,-158.262,-111.997,-45.834,-56.036,56.614,-134.565,-76.366,-55.246,-28.02,176.428,36.63,-45.332,-34.318,-19.125,187.387,55.901,179.416,177.702,110.395],[-38.85,-212.046,-133.5,-100.598,-77.326,-42.309,-172.302,-98.985,-75.693,-46.36,-31.011,-149.537,-79.209,-54.544,-55.092,87.779,-142.452,-119.787,-57.402,-46.543,31.224,-87.995,-30.757,-8.904,-24.568,307.064,143.712,76.919,107.636,108.723]],
"kep": [[-112.497,-3.337,-0.294,5.656,1.058,-112.585,-1.465,-5.772,-8.772,-0.982,-101.377,-4.48,-2.254,3.963,-3.679,8.263,-45.676,-37.217,-29.963,-6.753,65.418,-93.662,-88.344,-57.599,-58.495,71.702,-213.892,-146.735,-159.9,-160.781],[-6.897,-9.905,-109.941,1.211,-1.935,-7.249,2.808,-103.228,0.704,2.965,-10.025,5.272,-114.897,-7.695,-3.227,-17.639,-15.638,-32.122,-29.146,-21.844,-31.58,-12.626,4.476,-89.08,-31.364,-51.409,-18.318,31.299,-150.688,-77.315],[-26.993,-3.606,-3.349,-0.797,-119.214,-30.385,-5.046,-1.35,8.431,-118.048,-28.697,-3.346,-2.03,2.202,-130.027,-57.593,-17.051,-15.184,-14.662,-42.029,-59.936,-12.073,-48.194,-18.787,31.197,-55.794,-32.799,-49.33,19.833,16.994],[-46.793,-4.591,-2.936,-1.012,-1.887,-49.502,-7.58,1.73,0.285,-4.037,-46.095,-4.861,-2.59,-0.581,2.053,-60.779,-14.386,-1.064,-4.871,-4.338,-64.814,-17.238,-13.093,-11.344,-20.863,-77.289,-44.009,-15.302,-21.362,-40.838],[-60.238,-6.629,-3.463,-0.797,-0.214,-62.01,-10.766,-4.953,-2.625,-0.138,-66.309,-8.701,-4.846,-0.919,0.196,-71.872,-18.538,-5.467,-2.532,0.83,-74.117,-36.202,-8.064,-2.282,-3.649,-75.281,-43.762,-42.063,-39.716,-42.859],[-74.971,-7.755,-6.199,-0.812,-0.97,-76.623,-16.211,-7.153,-0.544,-2.475,-72.606,-12.087,-4.911,-3.654,-1.75,-80.242,-18.763,-3.395,-2.72,-2.816,-72.226,-44.613,-21.455,-2.441,-8.767,-82.545,-60.504,-29.577,-14.116,-18.267]],
"vp": [[-87.201,-47.807,-18.212,-84.471,-53.247,7.865,-4.933,-14.17,-7.247,-10.865,10.792,-16.694,-11.477,0.914,-23.196,-26.281,-12.143,-15.29,-16.283,16.484,2.5,2.133,-24.963,-6.725,-10.493,-35.809,-1.565,8.926,-5.44,-11.424],[416.693,203.928,10.819,94.247,-78.281,81.448,28.785,0.661,-14.808,9.836,17.805,-6.532,0.398,-26.73,-11.271,-19.762,0.612,3.029,-23.584,-21.627,-27.977,-17.395,-26.798,-13.277,-10.129,-33.474,-39.877,-21.547,0.042,7.563],[1571.261,461.529,108.808,106.055,-30.144,330.688,87.162,12.866,19.417,-8.225,162.167,12.445,31.203,-10.017,-14.552,-9.265,7.171,17.531,-26.281,-16.9,-4.551,-27.926,-23.537,-41.592,-37.198,-20.439,-32.705,-38.451,-35.147,-35.371],[2661.966,629.963,483.747,308.344,183.004,565.784,193.644,69.944,-2.16,24.69,265.007,51.01,47.335,43.757,0.552,19.694,14.857,-17.362,8.32,-10.05,-6.88,-38.508,0.995,-15.279,-22.102,0.612,3.617,-22.828,-39.845,-37.666],[3981.145,1171.093,673.12,346.27,407.341,820.798,270.56,94.96,55.56,59.409,426.076,130.545,62.848,38.274,10.003,37.838,-4.145,2.114,7.652,-2.316,3.159,-4.38,-21.26,-10.45,-11.996,-11.997,-37.71,-20.114,-31.207,-29.922],[5377.333,1422.042,802.685,674.909,372.61,1177.777,463.052,216.525,170.564,154.521,394.117,164.714,106.931,73.553,41.543,49.561,19.328,8.807,12.448,10.452,-1.701,2.156,-7.764,5.535,19.623,11.609,-21.494,-34.894,-41.84,-16.571]]
}