{
"KTrans": [[2.87,3.462,-0.353,-1.705,-1.263,9.397,14.17,10.782,8.561,12.029,9.213,17.908,18.249,21.073,21.262,37.336,47.158,76.771,83.689,87.402,100.409,17.876,62.55,86.367,105.917,14.256,-109.61,11.417,66.001,55.475],[-9.727,-1.809,-0.079,0.613,-0.161,-4.46,6.745,1.664,5.263,3.692,-3.441,12.412,4.619,8.67,8.698,-15.932,1.081,0.164,20.709,33.224,32.401,25.315,13.159,21.122,15.917,9.404,44.198,55.292,54.337,9.288],[-17.558,-0.078,0.347,-0.818,0.228,-19.096,5.094,4.916,2.136,2.051,-15.539,11,6.482,6.155,1.512,-28.58,-23.284,11.173,-28.352,-18.906,-6.499,30.336,-15.398,13.572,19.705,-34.241,7.652,-147.385,-15.828,18.595],[-30.457,0.865,0.131,0.823,1.106,-27.712,6.629,7.698,3.916,3.74,-31.195,3.565,10.794,6.859,6.1,-31.255,16.239,-10.505,3.196,6.237,-29.661,-46.755,-7.323,52.758,12.546,2.796,-9.082,-16.294,18.086,26.617],[-38.215,-0.356,2.88,1.107,1.312,-53.202,-0.533,6.285,3.56,1.953,-53.305,-2.169,9.067,7.641,6.823,-64.56,-37.885,21.593,28.168,25.186,-71.79,-31.599,-15.128,-45.523,-19.969,-37.931,0.507,-97.968,-26.917,33.035],[-66.541,-11.503,3.61,2.428,0.92,-60.705,-5.429,2.949,3.398,5.013,-63.125,0.623,8.926,6.93,6.974,-56.986,-0.426,13.047,19.994,30.845,-50.688,-39.729,-18.42,-21.081,32.352,-81.142,14.547,9.789,-54.833,-59.45]],
"ve": [[-3.407,-3.095,42.169,-10.376,18.95,1.502,0.141,3.528,-138.464,1.375,16.416,-19.33,-31.435,-28.654,-265.645,45.233,-14.603,-178,77.472,-68.541,118.098,31.642,-9.234,-32.628,-64.567,198.014,82.215,30.971,1.212,-17.543],[-2.448,-2.209,-42.003,-6.93,1.348,0.989,-5.286,-22.248,8.565,3.815,13.705,31.605,4.676,0.061,-17.57,51.599,24.409,16.064,4.437,13.01,98.304,50.456,32.562,16.721,5.078,201.497,99.174,61.912,41.839,39.408],[-1.212,-0.155,-0.743,6.585,-0.229,4.345,1.823,0.887,-0.855,0.517,7.76,4.538,2.46,122.417,1.753,49.982,23.508,17.26,13.089,9.504,89.642,48.493,34.406,59.225,19.27,196.877,106.022,69.841,51.991,39.161],[-0.48,0.292,-0.128,0.213,-0.261,9.28,2,1.638,1.148,0.334,8.583,1.771,3.35,2.662,1.521,47.224,45.888,16.751,13.647,9.924,105.295,61.548,34.523,26.109,20.638,221.524,99.141,64.961,46.879,38.511],[16.456,0.212,0.792,0.377,0.312,-0.504,1.465,2.287,0.979,0.76,7.325,2.737,3.113,2.777,1.985,141.91,24.418,16.236,20.15,10.17,110.601,48.964,33.532,24.757,19.167,156.619,98.547,67.13,51.65,40.019],[-2.673,0.12,0.151,0.405,0.357,-11.173,0.622,1.291,1.237,1.183,4.872,5.808,3.471,2.74,2.255,46.673,23.999,16.498,-32.095,11.542,98.312,49.387,34.026,25.239,19.555,202.814,107.153,68.142,50.549,42.753]],
"kep": [[-108.699,-16.575,-0.598,3.542,1.889,-112.921,-38.45,-21.888,-8.867,-19.098,-113.356,-45.352,-22.529,-31.513,-38.371,-32.859,-201.188,-164.452,-157.858,-203.28,19.441,-331.295,-362.626,-371.892,-413.126,46.705,9.739,-428.41,-578.442,-669.501],[-20.709,-18.075,-115.223,-6.607,6.534,-19.567,2.155,-133.032,-21.43,-4.966,-28.894,-2.206,-114.749,-42.334,-16.381,-54.392,-31.483,-72.788,-158.332,-84.003,-27.899,0.656,10.54,-229.999,-228.257,-47.975,18.97,104.83,15.5,-287.377],[-31.492,-3.06,-1.553,-14.156,-121.932,-36.706,0.779,7.741,-4.886,-112.343,-33.905,4.115,4.18,5.378,-135.7,-58.894,-43.275,-18.545,-84.781,-143.703,-54.797,-23.416,-45.869,7.813,70.523,-64.525,-32.17,-98.384,-6.434,41.737],[-43.999,-2.644,-1.827,1.152,1.794,-45.59,-0.193,6.929,7.535,4.856,-50.742,-8.053,7.863,7.865,10.4,-62.511,-20.15,-33.889,-23.402,-17.974,-62.578,-57.939,-31.23,17.392,-1.578,-60.914,-46.904,-35.153,-15.862,-2.763],[-55.162,-8.842,3.463,1.48,2.369,-68.23,-9.938,5.345,3.387,2.725,-68.047,-16.464,2.912,6.896,7.921,-76.663,-55.064,-2.686,6.06,16.673,-79.357,-54.632,-42.432,-68.006,-47.478,-74.194,-42.291,-72.854,-42.117,-1.655],[-76.653,-20.32,-0.233,1.693,-0.024,-73.792,-16.453,-1.071,1.353,4.745,-75.376,-12.828,3.989,3.868,6.133,-73.877,-33.85,-10.135,-1.331,18.958,-75.576,-57.258,-41.242,-46.328,4.512,-81.73,-40.608,-33.431,-58.467,-66.6]],
"vp": [[-151.729,88.759,-9.981,75.854,-143.464,-10.227,-1.926,-14.737,24.835,21.107,-30.844,-24.983,-47.574,-40.029,-7.543,-47.588,-11.613,-30.343,-31.535,-3.066,-59.477,-24.701,-11.587,-1.752,-9.354,-31.721,-10.33,-23.572,-25.32,-12.706],[1606.264,506.493,54.51,-45.45,-314.037,263.076,64.666,-12.787,-2.296,11.059,103.162,56.299,-22.845,-32.712,-18.009,17.257,-39.571,-9.394,-26.604,-39.072,-15.339,-44.36,-45.422,-36.906,34.705,-62.192,-45.641,-51.343,-48.885,-13.128],[2793.02,728.58,157.272,148.346,64.111,688.183,162.031,78.514,3.696,-11.88,270.218,42.83,-30.483,-1.119,10.188,6.42,-30.514,-22.604,-2.99,2.624,-23.362,-36.729,-31.508,-44.988,-42.463,-48.051,-17.736,-18.813,-32.078,-39.416],[4229.921,2154.404,874.678,429.031,205.427,933.265,332.456,51.078,69.62,48.46,393.126,162.49,107.683,20.232,-4.568,38.148,27.438,-1.248,0.395,-12.301,-0.181,-31.717,-35.706,-19.077,-41.805,-26.033,-44.754,-42.723,-45.807,-67.996],[5476.476,3402.636,1585.708,1162.358,376.611,973.6,641.598,115.936,149.909,38.457,474.867,278.146,111.703,102.663,74.329,73.339,47.069,-15.508,40.556,-6.4,41.576,-40.991,-27.606,-4.973,-24.561,-29.741,-38.997,-31.205,-54.475,-39.09],[5586.636,4069.968,1548.729,1434.979,770.609,1165.925,696.955,403.627,206.702,174.404,519.736,333.975,205.036,210.387,74.482,56.502,23.629,-17.253,31.534,17.663,11.447,-10.208,-18.565,-4.336,-27.266,-22.607,-40.758,-21.903,-48.316,-31.274]]
}