{
"KTrans": [[13.19,9.072,14.291,11.725,6.481,22.188,24.424,14.779,17.233,12.314,47.881,31.161,21.023,16.55,21.459,190.455,105.877,79.765,74.892,72.063,475.943,252.12,193.75,160.816,159.657,1279.338,624.216,490.102,416.276,394.361],[-16.759,47.368,19.491,15.561,20.787,-19.414,29.981,22.667,22.467,16.438,1.462,47.614,33.339,19.567,28.029,81.701,118.949,76.251,62.474,50.822,287.771,214.148,139.833,88.916,76.988,693.102,461.436,274.855,203.103,190.642],[-66.632,57.241,40.273,37.005,17.528,-81.579,63.478,47.504,30.311,25.341,-79.687,84.411,59.18,15.16,30.685,-47.885,153.771,89.244,60.617,40.496,-71.883,244.843,134.425,120.781,86.464,198.534,546.612,304.492,209.874,149.264],[-86.183,-11.448,91.297,36.693,30.246,-84.039,-4.769,77.265,29.869,39.87,-91.522,-14.965,110.479,60.63,29.231,-78.578,22.658,141.565,91.936,58.108,-96.864,66.658,242.863,167.398,76.039,-57.671,233.204,414.896,257.407,164.674],[-105.103,-65.728,103.973,76.605,33.767,-96.157,-76.881,87.193,98.393,51.176,-107.903,-42.099,100.125,78.602,59.799,-110.385,-98.113,85.894,120.123,76.222,-99.389,-76.497,187.524,189.081,138.822,-143.803,60.615,346.446,345.995,216.365],[-106.855,-80.095,-34.59,114.072,111.828,-96.983,-75.793,-5.531,117.894,82.818,-106.247,-103.73,-30.545,177.967,79.157,-82.958,-91.589,-23.337,240.861,136.331,-93.067,-89.872,63.332,231.388,162.783,-50.898,-18.917,216.434,313.764,267.893]],
"ve": [[3.933,4.717,1.178,1.603,-18.335,5.823,3.422,2.667,5.083,18.646,12.029,4.576,0.835,-1.854,-1.119,46.544,14.464,-1.205,-11.204,-17.719,95.448,33.537,7.911,-8.052,-19.006,192.316,78.797,34.724,9.119,-5.256],[7.788,2.687,1.123,1.217,1.576,5.599,2.119,1.698,1.916,1.135,13.671,5.775,4.685,2.376,2.714,54.23,24.888,14.546,10.212,6.236,88.62,49.574,31.498,18.231,11.497,199.131,96.67,61.068,40.425,30.814],[7.017,2.778,1.142,1.501,0.346,6.422,2.209,2.448,2.094,1.409,10.008,5.147,5.114,0.858,2.725,47.023,25.718,16.199,11.74,8.138,103.083,49.429,32.093,25.155,17.848,196.727,99.508,65.308,48.081,35.116],[9.867,4.243,2.355,0.578,0.811,4.529,4.009,1.491,-0.058,2.022,-44.614,6.085,4.359,3.504,2.182,50.957,25.593,17.43,13.116,9.318,99.327,51.212,33.565,26.47,18.085,207.072,99.771,65.525,50.444,38.185],[2.965,0.7,-0.281,1.075,-0.092,3.921,3.334,3.162,3.112,1.593,10.195,4.422,5.781,3.785,2.489,52.907,21.678,17.516,11.936,9.617,103.18,52.34,34.136,24.935,22.177,215.404,101.698,67.051,51.125,40.351],[2.908,2.483,1.335,0.851,3.109,4.797,2.526,15.39,2.647,1.533,13.937,6.294,3.285,5.312,3.161,50.798,25.662,17.199,14.557,10.941,102.734,50.658,38.402,25.59,21.298,199.009,101.74,68.259,48.568,40.724]],
"kep": [[7.802,6.572,14.46,17.276,8.062,15.355,21.131,16.243,23.305,19.636,30.57,26.203,23.162,25.318,35.019,96.587,78.744,81.929,97.401,110.595,192.068,161.93,170.265,182.298,219.32,368.629,302.745,335.959,370.42,419.534],[-22.59,38.333,15.797,12.922,18.216,-27.359,23.618,17.934,18.596,14.377,-12.867,35.163,24.875,15.094,23.878,16.021,70.338,51.172,45.329,40.508,88.497,105.905,79.74,57.39,56.398,162.556,181.154,129.578,112.8,119.696],[-67.465,45.517,33.719,31.171,14.619,-81.127,51.645,38.221,24.405,21.029,-79.439,66.056,46.838,10.931,24.439,-62.337,94.139,57.202,40.426,27.118,-83.722,121.76,72.593,72.511,54.738,1.672,216.403,139.063,105.306,80.981],[-85.25,-16.147,77.928,30.721,24.936,-82.024,-11.303,65.089,24.697,33.036,-89.359,-20.914,89.589,49.228,22.94,-82.722,-5.101,97.052,63.817,39.835,-95.463,9.551,145.556,104.63,44.97,-82.592,65.142,199.486,131.692,86.854],[-102.172,-64.147,88.125,65.668,28.104,-93.742,-74.182,70.437,82.278,42.455,-103.351,-45.252,79.627,64.101,48.574,-104.608,-94.216,51.427,86.829,54.046,-97.142,-80.194,104.717,120.576,89.758,-111.236,-16.816,158.428,185.01,118.432],[-103.636,-76.772,-35.536,98.315,96.336,-95.447,-73.579,-10.274,99.392,70.518,-103.335,-98.227,-33.118,148.231,65.847,-85.406,-89.096,-34.234,180.791,101.656,-93.817,-88.179,19.532,150.431,107.588,-81.074,-55.276,84.075,165.805,152.315]],
"vp": [[0.001,0.001,0.001,0.001,0.001,0.005,0.005,0.005,0.005,0.005,0.01,0.01,0.01,0.01,0.01,0.05,0.05,0.05,0.05,0.05,0.1,0.1,0.1,0.1,0.1,0.2,0.2,0.2,0.2,0.2],[0.001,0.001,0.001,0.001,0.001,0.005,0.005,0.005,0.005,0.005,0.01,0.01,0.01,0.01,0.01,0.05,0.05,0.05,0.05,0.05,0.1,0.1,0.1,0.1,0.1,0.2,0.2,0.2,0.2,0.2],[0.001,0.001,0.001,0.001,0.001,0.005,0.005,0.005,0.005,0.005,0.01,0.01,0.01,0.01,0.01,0.05,0.05,0.05,0.05,0.05,0.1,0.1,0.1,0.1,0.1,0.2,0.2,0.2,0.2,0.2],[0.001,0.001,0.001,0.001,0.001,0.005,0.005,0.005,0.005,0.005,0.01,0.01,0.01,0.01,0.01,0.05,0.05,0.05,0.05,0.05,0.1,0.1,0.1,0.1,0.1,0.2,0.2,0.2,0.2,0.2],[0.001,0.001,0.001,0.001,0.001,0.005,0.005,0.005,0.005,0.005,0.01,0.01,0.01,0.01,0.01,0.05,0.05,0.05,0.05,0.05,0.1,0.1,0.1,0.1,0.1,0.2,0.2,0.2,0.2,0.2],[0.001,0.001,0.001,0.001,0.001,0.005,0.005,0.005,0.005,0.005,0.01,0.01,0.01,0.01,0.01,0.05,0.05,0.05,0.05,0.05,0.1,0.1,0.1,0.1,0.1,0.2,0.2,0.2,0.2,0.2]]
}