{
"KTrans": [[-9.32,-1.312,0.643,1.119,-0.63,-11.897,-4.493,0.207,0.487,1.509,-6.417,-2.699,-0.696,0.264,1.711,-14.804,-10.282,3.335,-0.881,2.24,31.051,9.767,4.703,4.454,-1.13,-9.846,60.204,35.285,29.28,27.456],[-49.672,2.932,0.267,-0.93,-0.251,-53.04,-2.762,-1.678,-1.142,0.601,-50.244,-0.848,0.595,0.208,0.36,-48.426,-8.342,-4.86,-1.889,-2.128,-25.227,0.301,-4.234,-3.796,-2.568,-20.498,42.218,-16.683,-7.178,-8.126],[-79.271,-8.373,1.401,1.236,-0.389,-82.587,-8.648,-2.572,2.211,1.461,-80.908,-8.967,0.485,-0.153,0.651,-70.736,-14.705,-4.702,-1.248,-0.408,-78.775,-8.807,-5.55,-10.617,-0.012,-55.238,-4.064,-21.136,-7.119,-8.087],[-93.384,-25.357,-1.023,3.034,-0.094,-92.404,-25.335,-0.203,-1.805,0.159,-92.483,-25.145,-4.59,-0.298,0.872,-83.305,-24.585,-0.628,-0.919,0.651,-80.211,-30.254,-13.864,-7.937,-4.091,-102.825,-15.282,0.961,-0.171,3.767],[-96.974,-44.804,-5.335,2.044,0.025,-96.613,-47.39,-2.213,-0.603,1.75,-97.153,-41.981,-4.269,3.075,0.432,-94.385,-42.537,-8.342,1.118,-1.662,-94.743,-32.617,-15.202,-2.591,-8.935,-86.692,-30.506,-3.996,-7.174,-3.181],[-98.126,-60.188,-9.618,1.18,2.316,-98.254,-58.704,-9.827,1.329,-0.393,-98.466,-59.521,-7.149,-0.385,1.441,-95.476,-61.612,-10.678,-7.077,-0.806,-92.996,-52.403,-26.868,-4.507,-5.906,-100.317,-43.392,-15.178,-10.69,-7.374]],
"ve": [[9.02,5.655,5.208,22.581,26.345,4.842,3.394,9.491,9.067,-33.686,15.925,4.003,303.041,12.898,62.145,-23.251,43.024,-16.496,58.036,-54.836,-1.282,493.447,29.048,-54.653,-75.818,1.162,-602.061,-33.92,-32.271,-18.852],[-24.685,-0.15,0.058,-0.783,-0.303,-24.392,0.008,0.043,-0.241,-0.345,-22.886,-0.082,0.295,0.158,0.224,-31.075,-1.906,-3.184,0.58,-0.176,-5.995,-0.809,-1.272,0.831,1.791,-27.894,12.648,7.876,16.027,47.492],[-46.478,-5.032,-0.495,0.22,-0.341,-52.476,-4.598,-1.683,-0.773,0.063,-54.175,-4.997,-0.05,-0.41,-0.269,-100.169,-8.712,-2.7,-1.246,-0.386,-67.943,-29.157,-3.7,-4.503,-0.295,-43.522,-16.81,-29.296,0.059,-1.638],[-19.387,-14.478,-1.684,0.25,-0.822,-69.579,-15.491,-2.19,-0.757,-0.54,-68.891,-13.595,-3.217,-0.973,-0.587,-57.637,-14.632,-1.457,-1.531,-0.302,-58.254,-26.092,-9.916,-5.077,-2.6,-107.193,-22.25,-7.003,4.334,0.817],[-54.44,-23.219,-3.75,0.116,-0.392,-105.893,-25.444,-3.79,-0.835,-0.031,-81.198,-24.93,-3.221,-0.166,-0.892,-83.691,-29.594,-5.906,-1.688,-2.01,-90.659,-22.824,-10.135,-1.767,-5.289,-79.479,-33.923,-18.461,-6.673,-3.115],[-84.341,-35.677,-6.112,-0.919,-0.403,-95.409,-34.356,-5.741,-0.521,-0.531,-89.832,-35.489,-5.023,-1.062,-0.004,-86.1,-43.041,-8.03,-5.563,-1.595,-76.365,-34.876,-10.953,-2.803,-5.394,-109.181,-37.881,-19.018,-10.464,-5.642]],
"kep": [[-13.056,-3.833,-0.03,1.528,-5.155,-14.944,-5.038,-2.848,0.949,-0.557,-12.341,-3.014,-0.813,-3.102,2.019,-21.618,-15.247,-2.552,-8.764,0.09,-27.692,-15.133,-14.948,-13.825,-23.066,24.142,-11.8,-26.09,-26.677,-24.227],[-41.275,2.577,0.099,-0.135,0.197,-40.967,-3.438,-1.792,-0.807,1.05,-41.769,-1.449,0.281,0.12,0.314,-55.719,-9.785,-3.643,-2.968,-2.147,-49.918,-12.253,-8.154,-6.421,-5.027,-20.169,-15.257,-33.739,-19.098,-19.87],[-70.751,-4.575,1.589,1.012,-0.018,-72.122,-5.263,-1.164,2.958,1.386,-73.736,-5.069,0.316,0.226,0.882,-72.209,-10.749,-3.725,-0.759,-0.498,-74.951,-25.668,-7.55,-9.677,-1.454,-56.904,-39.188,-33.992,-16.044,-12.355],[-88.36,-15.091,-0.183,2.628,0.667,-88.694,-13.821,1.637,-1.253,0.593,-88.003,-14.887,-1.901,0.514,1.377,-83.505,-19.764,-0.795,-0.506,0.524,-80.622,-45.037,-11.806,-6.337,-3.999,-71.925,-47.294,-31.379,-11.064,-4.917],[-95.193,-31.258,-2.475,1.643,0.351,-95.901,-33.338,0.681,-0.114,1.664,-96.309,-27.922,-1.908,2.873,1.126,-92.2,-41.924,-5.201,1.748,-0.23,-84.144,-47.911,-15.984,-3.487,-5.983,-80.385,-57.022,-50.595,-17.429,-8.022],[-98.194,-44.421,-4.514,1.664,2.49,-100.47,-43.052,-5.519,1.395,-0.074,-100.518,-45.144,-3.179,0.196,1.334,-93.153,-58.71,-7.703,-3.442,0.147,-87.293,-62.455,-27.661,-5.57,-2.719,-81.703,-65.422,-51.618,-22.571,-11.507]],
"vp": [[177.787,-26.721,141.498,48.087,76.493,68.672,50.668,-29.73,8.423,-1.977,27.598,33.856,18.068,10.715,16.445,32.427,26.18,0.726,9.14,3.492,-4.103,5.622,1.759,6.875,11.148,-0.39,-6.947,-0.913,-1.025,-2.391],[2852.994,17.41,163.6,207.762,27.707,552.238,20.165,55.036,37.358,42.507,288.481,16.606,9.877,10.002,2.289,61.918,14.294,25.306,5.63,12.768,13.666,7.043,12.035,9.185,7.687,11.584,-17.094,27.01,16.877,17.833],[5177.008,1138.1,113.851,-123.158,161.537,1121.875,203.903,99.254,9.179,6.087,568.123,112.318,15.455,15.04,16.966,95.801,38.035,19.02,12.616,1.394,71.165,23.018,12.931,25.25,2.091,19.585,18.881,32.361,16.375,15.031],[7529.949,3036.734,564.987,-115.738,342.441,1485.139,635.144,107.926,73.531,54.65,735.652,256.28,108.239,19.355,4.524,117.027,57.322,11.046,12.304,0.26,60.81,53.221,30.008,21.773,15.046,53.127,22.709,7.595,4.28,-1.068],[8354.379,4751.91,1313.269,-23.776,296.506,1665.605,1057.435,187.762,84.168,7.055,847.38,507.811,109.907,-3.781,31.334,167.598,122.694,30.747,14.182,18.117,92.591,44.259,33.251,7.509,28.265,39.815,33.442,27.976,16.208,8.901],[8914.861,7614.357,1995.341,310.626,36.395,1933.492,1427.764,357.858,32.446,49.283,953.16,730.059,175.543,42.13,11.132,169.665,173.019,48.903,47.598,19.602,80.153,74.92,67.88,11.963,28.205,50.742,36.227,32.144,21.532,15.336]]
}