{
"KTrans": [[-7.559,1.581,4.83,2.672,2.12,13.701,11.587,8.653,7.121,5.754,30.995,20.513,12.027,10.082,10.82,158.712,102.549,77.365,66.531,60.499,324.612,236.691,169.257,150.373,142.634,267.353,490.565,422.581,385.537,337.394],[-18.125,0.91,0.052,3.21,0.374,-5.206,7.37,5.868,5.381,4.412,-2.711,15.23,8.382,8.881,5.713,66.589,74.831,47.934,38.91,32.211,121.018,161.737,104.658,77.591,69.569,-41.883,393.794,250.457,185.684,149.459],[-39.288,-0.591,3.025,2.702,2.7,-34.342,6.466,5.816,5.651,3.005,-28.433,17.462,7.51,7.433,7.063,15.697,70.001,45.246,32.926,25.675,-45.452,164.684,101.385,70.846,55.833,-40.319,263.89,243.799,162.374,136.194],[-56.441,-2.995,2.906,1.772,3.065,-52.286,7.125,6.592,5.808,3.833,-53.382,17.518,9.497,7.134,5.074,-34.221,64.505,51.876,30.956,24.886,-53.477,150.047,96.994,78.491,57.584,-67.449,120.677,289.246,157.48,121.987],[-70.933,-2.485,3.695,2.046,2.376,-69.889,-3.225,6.239,6.051,3.217,-66.483,10.01,8.059,7.313,6.523,-52.696,51.093,42.161,30.808,24.42,-72.399,93.509,105.954,75.383,48.524,-85.141,-5.378,265.167,148.95,121.977],[-75.425,-11.595,2.078,2.735,2.504,-79.514,-2.619,6.562,5.256,4.358,-69.007,0.336,8.531,7.798,7.325,-64.744,38.655,45.866,30.446,27.841,-72.939,62.268,124.721,69.999,56.161,-68.851,17.527,217.53,205.782,124.865]],
"ve": [[12.878,6.871,5.133,19.572,11.442,7.203,4.375,3.17,3.387,10.392,13.664,3.853,1.882,3.483,1.278,48.922,13.321,1.079,-9.391,-16.11,94.794,34.781,10.677,-5.743,-17.71,194.077,98.119,38.468,13.046,-4.002],[2.799,1.731,0.363,-0.152,0.429,5.52,3.93,0.495,0.586,0.791,11.473,4.661,2.629,1.848,1.769,46.909,24.619,14.34,9.335,5.46,96.196,47.14,30.486,18.558,12.257,201.213,100.665,60.958,41.52,29.001],[6.506,1.357,0.591,0.723,-0.232,4.068,2.4,2.313,1.394,0.726,22.928,5.052,3.922,2.234,1.505,51.541,24.227,16.512,11.172,8.399,105.277,50.841,32.527,22.356,17.56,256.651,100.241,64.343,47.54,36.401],[7.457,1.36,0.116,0.385,-0.269,5.54,3.077,1.957,1.292,0.897,-2.099,5.357,3.468,2.805,1.806,48.57,25.674,16.869,12.031,9.395,68.33,52.851,32.703,24.389,18.633,201.669,102.042,66.327,48.201,37.822],[0.831,1.269,0.733,0.291,0.26,5.987,2.375,0.702,1.157,0.804,107.179,5.478,3.095,2.527,1.422,47.678,26.16,16.238,12.259,9.434,114.028,51.351,32.953,25.138,18.772,199.477,94.733,66.436,48.695,38.654],[-22.466,0.984,0.732,0.192,0.132,4.027,3.825,1.782,1.467,0.461,13.575,5.891,2.895,2.617,2.131,3.932,25.746,16.669,12.215,9.544,103.042,50.844,33.739,24.667,19.651,195.873,26.748,66.299,50.25,39.403]],
"kep": [[-14.654,-0.453,5.886,3.009,5.246,10.479,11.541,10.191,11.721,9.212,18.067,19.121,15.15,13.22,18.916,74.042,80.251,78.112,87.632,96.626,116.29,150.402,144.929,167.836,197.659,26.973,217.276,278.203,330.166,356.112],[-20.093,-0.463,-0.113,3.675,0.343,-9.985,3.889,5.621,5.165,3.905,-12.621,10.654,5.954,7.257,4.307,8.358,40.459,29.652,27.198,25.672,11.01,76.981,56.892,49.836,51.307,-75.056,143.487,116.301,101.463,93.152],[-41.526,-1.73,2.619,2.112,3.051,-38.96,4.102,3.624,4.348,2.405,-37.888,12.057,3.546,5.227,5.598,-25.401,36.854,24.769,19.601,16.002,-71.985,74.376,51.574,39.502,32.524,-76.093,79.496,106.42,76.9,72.779],[-59.561,-3.855,2.95,1.547,3.43,-56.628,4.152,4.573,4.516,2.987,-60.15,11.767,6.006,4.355,3.316,-57.204,30.564,29.986,16.963,14.182,-75.484,62.71,47.94,43.26,32.707,-85.604,11.061,129.884,72.436,60.395],[-73.101,-3.657,3.07,1.851,2.147,-73.218,-5.613,5.605,4.905,2.442,-70.924,4.312,5.023,4.737,5.077,-69.124,19.048,22.316,16.538,13.723,-84.576,27.021,53.705,39.766,24.905,-92.899,-50.741,114.504,65.789,59.342],[-76.943,-12.464,1.444,2.629,2.401,-81.925,-6.006,4.789,3.832,3.897,-73.979,-4.779,5.558,5.119,5.131,-76.751,9.863,24.882,16.255,16.696,-85.836,6.181,66.51,35.911,30.302,-87.662,-38.946,87.273,100.868,60.357]],
"vp": [[237.966,73.672,-239.945,-46.702,4.352,85.246,-1.464,7.725,8.443,68.781,53.262,18.006,2.199,15.421,-2.447,19.123,18.766,7.823,3.438,7.787,-10.596,13.681,-1.855,6.992,9.091,6.563,1.762,4.014,9.509,-3.572],[2970.688,155.656,3.531,301.414,-104.603,666.135,89.173,81.187,29.961,21.972,292.74,62.871,24.274,46,10.695,62.998,34.623,20.375,15.703,-0.449,19.365,8.372,16.629,-2.489,8.363,20.716,11.231,4.168,5.505,-4.857],[5938.803,1341.032,-47.315,429.129,-202.653,1300.888,309.781,166.037,29.944,27.172,613.341,162.539,57.693,10.161,27.117,121.379,42.412,23.006,5.059,7.115,75.749,38.578,29,16.211,5.654,25.342,-7.064,10.203,13.911,17.22],[7547.874,3161.967,630.325,91.821,-64.686,1443.586,682.97,205.241,-11.793,51.803,793.614,475.589,76.334,34.85,48.555,153.204,89.43,64.989,6.004,8.247,71.176,79.679,25.05,26.657,19.617,38.128,25.891,26.252,9.51,11.132],[8469.489,6519.621,1055.191,466.986,268.277,1699.708,1162.384,282.706,111.22,2.742,875.493,694.425,137.03,47.691,11.626,169.702,143.299,47.375,23.081,12.366,78.101,78.736,38.812,35.393,1.582,63.93,33.2,27.076,2.851,12.281],[8750.717,8830.895,2270.601,973.048,-49.133,1807.936,1759.547,478.354,106.049,90.108,925.022,899.122,191.764,52.197,27.221,184.919,201.298,79.909,24.969,12.034,91.508,103.7,81.621,24.912,26.644,51.726,31.116,33.001,33.41,16.012]]
}