{
"KTrans": [[2.505,1.186,0.687,0.352,0.071,12.308,7.185,5.442,4.698,4.086,26.469,15.451,11.925,10.678,9.55,163.762,94.212,74.404,65.261,59.69,415.816,226.133,175.603,153.229,140.22,1197.08,602.976,461.205,397.545,362.341],[4.205,1.602,0.869,0.422,0.048,13.848,6.501,4.12,2.967,2.347,25.38,12.264,8.337,6.439,5.345,144.169,66.855,45.434,35.743,30.399,352.63,151.288,100.247,78.361,66.188,1001.096,375.919,238.962,183.084,152.581],[5.941,2.823,1.614,0.908,0.519,15.188,7.176,4.564,3.239,2.455,26.992,13.005,8.517,6.183,4.966,144.41,65.002,42.201,32.085,26.13,360.287,144.647,91.614,68.416,55.773,1010.861,355.578,214.156,156.085,125.026],[6.693,3.835,2.118,1.376,0.938,16.178,7.923,5.092,3.857,2.812,28.935,13.759,9.005,6.694,5.116,150.556,65.724,42.186,31.299,25.097,364.296,144.483,89.969,65.839,52.665,1026.99,355.269,207.841,148.471,116.542],[7.019,4.114,2.921,1.975,1.354,17.829,8.615,5.947,4.19,3.167,29.18,14.473,9.664,7.159,5.318,150.374,66.397,42.347,31.279,24.85,367.663,145.143,89.828,65.072,51.445,1025.183,355.865,205.993,145.572,112.827],[9.856,5.894,3.538,2.514,1.739,17.423,9.929,6.28,4.703,3.587,31.841,15.833,10.325,7.475,5.825,151.746,67.266,43.098,31.38,24.838,372.103,148.049,89.822,64.92,51.005,1006.853,358.992,206.521,144.199,111.24]],
"ve": [[0.793,-0.627,-1.394,-2.128,-2.745,4.26,0.211,-2.191,-4.022,-5.441,8.346,1.017,-2.97,-6.193,-8.884,45.262,12.911,-1.945,-11.947,-19.349,93.346,33.138,7.708,-7.819,-18.842,191.984,79.01,35.035,10.111,-6.442],[1.302,0.623,0.206,0.018,-0.188,5.362,2.455,1.421,0.685,0.219,10.244,4.807,2.739,1.57,0.653,49.759,23.857,14.361,9.001,5.334,99.983,48.091,29.577,19.315,12.4,199.859,97.183,61.107,41.499,28.684],[1.369,0.784,0.518,0.307,0.155,5.356,2.746,1.756,1.195,0.82,10.5,5.149,3.319,2.338,1.658,50.471,24.929,16.087,11.457,8.477,100.539,49.616,32.196,23.178,17.357,200.887,99.441,64.892,47.019,35.741],[1.442,0.747,0.586,0.445,0.32,5.425,2.798,1.861,1.396,1.061,10.554,5.272,3.569,2.622,1.957,50.635,25.175,16.58,12.171,9.406,100.683,50.16,33.02,24.282,18.814,201.162,100.06,66.07,48.706,38.034],[1.438,0.855,0.635,0.492,0.366,5.51,2.83,1.978,1.445,1.164,10.552,5.402,3.596,2.641,2.117,50.704,25.302,16.786,12.447,9.794,100.847,50.338,33.354,24.701,19.467,201.384,100.42,66.578,49.429,38.972],[1.563,0.88,0.632,0.544,0.439,5.559,2.896,1.973,1.512,1.203,10.501,5.47,3.681,2.769,2.173,50.733,25.35,16.927,12.621,9.987,100.891,50.482,33.522,24.984,19.787,201.513,100.543,66.791,49.791,39.499]],
"kep": [[4.511,4.644,4.943,5.391,5.762,10.694,9.917,10.791,12.119,13.14,19.949,17.448,18.546,21.262,23.576,86.588,76.751,82.777,92.87,103.473,174.139,151.713,162.934,182.287,204.154,356.475,303.526,327.054,364.315,407.797],[5.705,3.757,3.435,3.171,2.999,11.035,6.813,5.489,5.085,4.938,16.866,10.066,8.355,7.681,7.545,67.54,38.429,30.676,27.966,27.207,132.576,74.362,58.797,53.607,51.928,277.331,148.009,116.193,105.573,101.688],[7.398,4.834,3.876,3.372,3.128,12.348,7.187,5.591,4.831,4.422,18.093,10.433,7.925,6.616,6.099,66.91,35.716,25.87,21.773,19.476,135.85,68.022,48.94,40.493,36.391,279.372,134.722,95.771,78.983,70.343],[8.08,5.905,4.32,3.707,3.388,13.241,7.878,6.015,5.249,4.535,19.841,11.04,8.147,6.833,5.939,70.925,36.043,25.325,20.278,17.492,137.742,67.301,46.747,37.114,32.03,284.524,133.838,90.475,71.691,61.197],[8.408,6.076,5.089,4.271,3.766,14.762,8.536,6.754,5.535,4.79,20.071,11.599,8.773,7.278,5.976,70.714,36.455,25.245,19.963,16.846,139.264,67.554,46.271,36.02,30.259,283.623,133.724,88.754,68.868,57.363],[11.149,7.863,5.722,4.769,4.085,14.309,9.778,7.095,5.985,5.175,22.6,12.853,9.339,7.46,6.428,71.613,37.118,25.754,19.87,16.63,141.487,69.379,46.082,35.588,29.534,277.211,135.18,88.839,67.518,55.6]],
"vp": [[-9.36,54.597,21.809,28.551,-28.704,3.639,4.321,-3.867,-5.056,9.112,1.053,-0.062,-1.344,1.151,-0.787,-0.168,0.497,0.341,-0.158,-0.239,-0.369,-0.148,-0.232,-0.119,-0.318,-0.055,-0.205,-0.21,-0.169,0.006],[13.899,8.94,8.231,30.953,-9.959,10.405,5.004,-2.431,0.129,-10.031,13.419,0.286,-0.557,-0.335,0.222,0.029,-0.27,-0.688,-0.649,0.103,0.1,0.016,-0.246,0.02,-0.35,-0.021,0.006,-0.144,-0.182,-0.06],[84.83,7.018,-34.638,-5.639,26.704,24.522,12.922,6.09,-7.469,1.302,17.783,-0.893,3.056,-2.934,1.504,1.922,0.9,0.031,0.673,-0.609,1.17,-0.277,0.01,-0.026,-0.031,0.583,-0.302,-0.27,-0.041,-0.206],[418.746,16.99,-10.496,43.809,7.4,53.221,-10.525,2.334,2.206,-0.033,36.884,3.449,1.232,4.515,-4.222,13.97,1.033,1.121,-0.652,0.873,3.526,0.208,-0.141,-0.63,-0.069,1.856,-0.376,-0.142,0.073,0.112],[604.346,30.403,17.194,-32.95,31.037,174.28,-13.358,13.328,0.273,3.693,96.845,0.767,6.273,2.381,-6.605,14.685,1.86,-0.577,0.706,0.781,9.59,-0.09,0.453,-0.238,0.189,4.05,-0.044,-0.015,-0.217,-0.296],[1854.788,168.594,53.131,-46.56,23.975,323.592,12.213,-10.913,6.274,2.883,168.076,8.894,6.888,-0.622,-4.166,28.646,1.358,1.857,1.244,0.932,17.644,1.632,-0.821,0.824,0.358,6.929,-0.187,0.043,-0.335,-0.075]]
}