{
"KTrans": [[-30.804,2.813,2.551,2.417,2.337,-16.629,13.714,12.594,12.033,11.69,-110.533,26.211,24.539,23.626,22.988,-833.031,84.029,98.399,100.081,99.736,-2389.3,47.267,134.967,154.467,161.855,-5698.243,-387.268,16.309,123.885,170.614],[2.53,1.566,-10.395,1.078,0.992,12.927,8.061,-44.539,5.241,4.936,26.636,16.848,-81.612,10.02,9.684,169.467,113.809,-155.428,33.08,40.387,434.768,290.936,-92.999,21.594,60.589,1097.7,813.805,-701.155,-132.752,40.172],[2.393,1.318,1.02,0.845,-1.629,11.521,6.697,5.109,4.361,-16.804,23.635,13.572,10.325,9,-24.658,142.43,78.284,61.375,59.346,-113.784,350.699,185.078,147.846,150.613,-175.202,818.111,482.565,383.708,431.618,-406.449],[2.296,1.249,0.933,0.727,0.646,10.829,6.124,4.521,3.703,3.244,22.598,12.381,9.181,7.522,6.627,133.988,70.593,50.683,42.709,38.353,307.1,161.196,115.712,98.044,91.582,806.537,393.239,277.639,243.436,230.96],[2.039,1.126,0.872,0.718,0.595,10.608,5.765,4.214,3.399,2.957,21.596,11.736,8.53,6.927,5.919,125.67,65.209,46.687,37.629,32.641,293.149,148.411,102.38,83.489,72.503,713.09,355.942,242.426,198.319,176.715],[2.035,1.132,0.812,0.644,0.572,10.683,5.766,4.08,3.171,2.714,20.947,11.465,8.097,6.479,5.522,120.278,62.501,44.269,34.784,29.727,272.333,141.168,96.214,76.769,65.494,650.456,346.46,223.95,177.82,148.892]],
"ve": [[1.002,1.219,1.415,1.702,2.026,4.957,7.099,8.199,10.058,12.197,9.961,18.287,20.164,25.157,31.144,49.949,-0.766,-46.091,-75.546,-91.583,100.245,31.13,-6.244,-29.696,-44.93,199.57,83.519,33.244,4.006,-15.106],[1.048,0.578,0.333,0.404,0.389,5.193,2.833,1.661,2.173,2.071,10.338,5.585,3.323,4.807,4.425,50.965,26.515,16.71,2.017,-183.317,101.261,51.752,33.285,18.757,0.999,200.746,101.621,66.236,44.869,27.22],[1.032,0.534,0.381,0.305,0.2,5.079,2.645,1.868,1.491,0.997,10.139,5.259,3.691,2.915,1.997,50.392,25.853,17.821,13.577,9.956,100.545,51.236,34.936,26.279,19.936,199.955,101.551,68.516,51.337,39.897],[1.027,0.526,0.365,0.281,0.238,5.045,2.581,1.779,1.388,1.165,10.085,5.146,3.544,2.759,2.305,50.219,25.535,17.403,13.437,10.964,100.124,50.785,34.472,26.388,21.365,200.103,100.916,68.078,51.767,41.57],[1.018,0.516,0.357,0.277,0.227,5.037,2.552,1.74,1.34,1.111,10.052,5.094,3.47,2.674,2.203,50.101,25.326,17.174,13.155,10.774,100.066,50.509,34.094,26.034,21.185,199.765,100.592,67.691,51.425,41.657],[1.02,0.518,0.351,0.268,0.223,5.041,2.549,1.724,1.311,1.074,10.037,5.074,3.428,2.62,2.144,50.046,25.222,17.043,12.966,10.573,99.933,50.363,33.908,25.792,20.963,199.606,100.503,67.418,51.13,41.296]],
"kep": [[-3226.398,-4.614,-3.608,-3.531,-3.677,-524.586,-23.571,-18.405,-18.144,-18.947,-1278.818,-47.088,-36.723,-36.282,-37.807,-1846.521,-237.288,-185.874,-182.387,-189.409,-2557.216,-480.641,-373.163,-365.48,-380.757,-3004.667,-961.675,-756.3,-737.793,-765.482],[2.033,3.04,-3250.467,-3.365,-1.934,9.787,14.802,-2823.024,-17.199,-10.012,19.278,29.529,-2598.688,-34.133,-20.111,93.753,147.69,-1118.754,-174.109,-100.948,188.697,279.598,-474.797,-354.383,-203.105,317.576,518.637,-1230.974,-706.601,-405.903],[1.584,1.242,1.629,3.011,-1000.199,6.9,5.975,7.731,14.816,-1844.074,13.609,11.731,15.007,29.022,-1409.865,65.448,56.7,74.061,144.109,-1321.046,130.453,113.238,149.367,276.823,-1035.603,208.211,225.505,286.893,540.456,-1193.928],[1.407,0.969,0.973,1.06,1.547,5.877,4.357,4.347,5.147,7.407,12.039,8.541,8.618,10.209,14.703,57.653,42.63,41.522,50.72,71.125,105.267,84.03,83.625,101.573,143.544,201.743,159.852,158.506,198.745,270.463],[1.117,0.775,0.758,0.794,0.855,5.54,3.653,3.319,3.4,3.983,10.851,7.269,6.568,6.837,7.752,51.038,35.364,32.359,33.326,38.535,96.757,70.828,62.61,66.474,76.069,169.222,134.64,121.62,130.774,153.864],[1.095,0.747,0.635,0.597,0.654,5.539,3.52,2.905,2.641,2.781,10.13,6.726,5.559,5.332,5.595,46.947,32.004,27.618,26.092,27.567,85.754,63.838,53.586,52.827,55.794,147.605,127.528,104.179,103.41,106.498]],
"vp": [[-2.403,-2.466,-2.844,-3.536,-3.876,-2.377,-0.175,-1.492,-1.907,-0.937,-3.7,-0.827,-1.007,-0.52,-0.357,-2.016,-1,0.027,-0.334,-0.482,-1.997,-0.69,-0.625,-0.591,-0.821,-2.488,-0.481,-0.533,-0.474,-0.88],[19.841,4.423,-2.205,-2.829,-4.988,3.153,-0.121,-2.08,-2.277,-1.516,0.4,-0.734,-2.728,-1.079,-1.307,-0.283,-1.275,-2.605,-0.999,-0.75,-1.143,-0.621,-2.871,-0.45,-0.513,-0.684,-0.862,-2.775,-0.768,-0.887],[70.27,26.538,10.956,3.017,-3.105,11.007,4.697,1.665,0.139,-3.197,5.572,0.897,-0.093,-0.663,-2.705,-0.507,-0.716,-0.049,-0.786,-2.17,-0.518,-0.596,-1.589,-0.987,-2.675,-1.338,-0.894,-2.003,-1.329,-3.815],[144.727,61.539,34.055,17.224,9.748,30.43,10.842,5.351,2.205,0.42,12.744,5.397,3.341,0.902,0.306,0.505,0.175,-0.337,0.401,-0.938,-1.94,-0.689,-0.93,-0.848,-0.568,0.426,-1.365,-0.964,-1.102,-1.03],[240.153,115.445,63.712,40.047,24.988,44.138,21.523,11.11,6.954,4.853,23.505,9.652,5.67,3.017,1.47,3.381,0.662,-1.223,-0.115,-0.796,0.978,-0.563,-1.062,-0.742,-0.93,0.108,-1.255,-0.978,-0.947,-1.177],[371.987,171.095,105.048,67.7,46.516,74.872,32.504,20.468,12.156,8.599,33.523,16.252,9.114,5.771,2.949,6.927,1.208,1.507,0.051,-0.085,1.634,0.487,0.626,0.123,0.003,1.091,-0.923,-1.353,-0.195,-1.201]]
}