{
"KTrans": [[3.995,2.981,1.266,3.282,-1.922,12.842,8.343,5.423,5.25,6.684,24.163,18.401,12.627,11.297,10.164,165.666,91.469,75.292,69.437,58.724,424.669,228.924,172.755,157.812,143.358,1094.703,567.933,446.04,392.647,364.332],[-17.169,-1.482,0.119,-0.741,1.12,-8.805,4.205,4.67,2.959,3.301,-5.728,14.452,7.106,8.009,6.636,92.848,64.726,46.723,34.526,30.146,204.477,146.603,97.901,75.847,66.167,602.613,353.236,233.904,185.535,155.057],[-40.592,2.694,2.82,0.975,-0.169,-38.393,7.593,3.161,1.293,2.417,-32.653,9.858,9.327,7.833,5.118,27.777,62.308,40.728,31.878,26.36,132.22,143.468,85.968,67.611,55.728,230.487,339.887,208.941,159.666,124.628],[-53.674,-4.361,0.535,0.057,1.48,-57.754,3.04,4.405,4.318,4.005,-51.196,1.286,10.331,8.011,4.189,-18.544,58.344,38.967,31.405,24.874,60.971,122.774,85.261,66.185,52.864,204.531,337.904,204.942,141.211,114.394],[-67.931,-5.304,0.688,-0.368,3.082,-74.567,-2.793,3.651,3.556,2.423,-63.107,2.404,5.822,6.02,5.068,-31.615,44.497,37.998,28.424,23.648,22.088,119.781,82.176,61.614,51.281,52.493,296.724,200.887,139.5,114.602],[-77.624,-11.543,-2.455,1.086,0.58,-76.459,-6.888,6.257,4.288,4.025,-68.727,-6.694,6.463,3.908,5.573,-49.84,41.924,40.502,31.33,24.139,-18.694,112.023,76.496,63.96,52.641,-22.891,290.11,181.603,132.431,111.417]],
"ve": [[6.88,1.675,10.687,22.919,294.901,9.248,3.876,7.133,9.006,4.616,15.94,3.008,6.701,1.498,-1.731,48.321,14.66,0.915,-10.518,-15.913,96.835,34.636,8.665,-7.022,-17.624,194.015,78.923,35.03,10.275,-6.435],[20.505,2.312,0.87,0.669,0.345,8.017,3.495,1.204,1.412,0.769,13.564,5.095,3.907,1.655,0.844,50.64,24.988,14.115,9.863,5.998,100.759,48.692,30.407,20.156,12.543,207.392,97.037,61.052,40.874,28.985],[6.193,2.496,0.772,0.667,0.262,9.614,3.616,1.564,0.774,1.407,9.258,5.842,3.324,2.872,0.943,55.441,24.388,16.127,11.066,8.62,105.183,50.899,31.874,23.013,17.01,197.194,98.951,64.666,46.743,35.737],[7.799,1.463,1.218,0.657,0.17,18.918,2.766,1.712,1.411,0.949,26.282,6.024,3.297,2.2,1.623,41.45,24.931,15.718,11.63,9.764,113.009,50.591,33.184,23.861,18.204,209.815,100.234,65.529,48.595,37.357],[2.138,0.806,0.517,0.373,-0.222,6.295,4.843,1.957,1.732,0.63,89.657,5.127,3.999,2.711,2.335,59.314,26.629,16.202,11.545,9.269,100.097,50.434,33.625,24.171,19.056,199.415,100.706,66.362,48.989,38.564],[2.732,1.124,0.48,0.1,0.201,17.274,3.115,1.475,1.608,0.772,12.602,5.634,3.088,2.586,2.027,57.647,26.066,16.797,12.178,9.776,116.053,51.195,33.734,24.66,19.746,198.109,101.985,66.179,48.718,39.018]],
"kep": [[0.077,4.64,-1.188,4.818,-8.159,6.386,7.19,4.32,7.483,13.459,10.467,17.562,11.221,17.438,18.688,80.879,69.468,76.034,92.327,93.271,168.15,145.962,152.76,180.019,198.747,307.506,274.184,305.618,348.261,397.772],[-21.113,-3.398,-0.353,-1.069,1.165,-15.106,1.055,3.884,1.811,2.911,-16.959,9.329,3.502,6.537,6.078,25.454,32.122,28.794,22.577,23.081,51.326,66.31,51.899,46.536,47.846,130.684,129.845,107.416,102.855,97.858],[-44.111,0.457,2.136,0.419,-0.311,-44.049,4.004,1.718,0.633,1.07,-40.421,4.159,6.055,4.958,4.247,-17.191,30.796,21.354,18.864,16.463,14.571,61.214,41.174,36.319,33.18,10.375,120.815,87.512,77.03,65.544],[-56.726,-5.352,-0.58,-0.537,1.402,-61.25,0.5,2.787,2.967,3.1,-58.582,-4.208,6.864,5.772,2.572,-47.247,26.824,20.268,17.771,13.854,-21.845,48.122,39.292,34.193,29.377,0.87,118.128,84.209,62.32,56.111],[-70.312,-5.979,0.277,-0.628,3.373,-78.24,-5.801,1.798,1.896,1.823,-68.557,-2.42,1.924,3.287,2.73,-56.63,14.419,18.767,15.172,13.183,-40.124,46.405,36.404,30.158,27.044,-49.959,97.219,80.805,60.706,54.826],[-79.786,-12.364,-2.842,1.066,0.419,-79.54,-9.353,4.774,2.676,3.285,-72.723,-11.662,3.438,1.322,3.523,-67.819,12.661,20.318,17.108,13.154,-60.608,40.154,32.055,31.561,27.524,-74.651,92.549,69.176,56.159,52.042]],
"vp": [[532.742,69.603,120.027,-32.217,-73.104,62.051,9.576,-9.977,10.969,18.17,55.418,0.716,47.481,11.393,-1.81,23.357,10.993,16.247,14.673,8.211,24.798,15.479,12.51,11.617,12.111,14.913,9.516,10.82,8.526,11.608],[2507.092,528.637,277.463,-175.325,117.624,472.806,68.808,22.723,54.467,-11.977,298.715,26.895,25.282,10.613,23.126,60.495,20.28,17.973,6.24,8.695,39.124,18.778,17.375,13.345,12.799,29.472,13.021,12.667,16.252,19.384],[4808.328,1568.232,271.078,180.463,27.712,1033.994,309.089,75.19,-22.392,18.284,504.579,117.939,33.652,21.701,1.013,109.147,40.56,19.901,16.449,18.444,56.801,37.27,16.88,16.069,16.018,33.844,26.843,17.583,23.434,14.936],[6372.317,2378,880.87,168.325,-99.038,1315.888,507.461,139.249,52.397,67.958,649.675,266.678,72.622,19.571,21.675,136.767,66.474,29.077,14.42,13.203,67.251,48.522,25.151,18.954,14.45,39.419,40.87,25.046,16.234,17.872],[7509.553,3940.063,1455.203,-35.643,263.758,1491.888,834.157,289.824,100.935,70.718,724.52,408.989,139.011,80.982,23.607,146.908,101.565,32.705,21.884,23.524,85.082,63.909,37.604,18.941,21.809,46.236,42.507,28.466,18.778,21.379],[8108.618,5972.481,2379.786,729.388,238.671,1622.282,1092.985,407.234,70.401,34.972,804.497,641.746,203.198,52.596,66.401,175.142,140.192,62.163,26.521,25.399,86.798,79.96,36.429,37.004,33.91,53.583,57.44,28.858,15.916,22.726]]
}