{
"KTrans": [[-2.257,3.165,-0.722,-0.145,-3.486,2.788,2.128,0.512,3.885,2.761,10.028,2.92,2.349,3.715,3.984,41.322,28.173,15.746,21.657,15.332,55.872,63.461,42.102,37.332,38.298,-107.179,112.389,97.249,87.225,106.499],[-26.447,-0.245,-1.408,-0.269,0.215,-11.803,1.822,0.872,-0.364,-0.543,-9.425,2.783,1.016,0.858,0.494,9.184,15.472,9.469,3.837,4.363,50.43,28.848,21.317,25.52,19.6,146.584,25.754,65.106,59.266,38.829],[-53.908,6.106,1.135,-1.055,-0.399,-54.501,2.55,-0.606,-1.203,0.148,-48.725,9.577,0.382,1.183,0.708,-23.493,19.791,8.386,7.152,1.806,-15.62,40.566,37.13,20.091,10.364,30.715,20.888,64.437,48.516,34.302],[-73.982,5.055,1.006,-0.508,0.562,-66.51,9.616,3.517,0.414,0.009,-71.726,-5.148,8.395,4.742,-0.282,-50.851,21.106,25.372,8.699,4.823,-52.073,0.623,38.989,24.559,9.655,12.094,-97.497,60.21,42.674,45.334],[-82.703,-21.923,10.687,5.852,0.98,-79.229,-8.001,6.17,7.145,0.056,-78.099,-18.075,7.471,2.694,0.793,-69.218,-5.554,15.269,15.331,6.469,-48.322,-3.092,12.242,29.096,11.257,-53.164,22.542,21.46,10.363,20.255],[-85.952,-38.261,14.932,4.444,3.111,-81.586,-36.045,13.871,1.82,1.522,-83.176,-40.169,12.606,8.238,4.007,-74.986,-28.753,-1.801,17.273,8.722,-75.641,-9.821,19.369,14.616,26.66,-22.19,-10.321,9.388,33.505,25.13]],
"ve": [[-1.499,-0.977,0.648,2.865,14.811,-1.133,-0.447,5.694,0.287,-1.157,0.873,-0.335,1.803,1.525,-1.076,11.432,-4.179,57.423,-9.385,-45.215,29.513,-4.204,-2.86,-14.158,-39.436,88.811,16.778,-10.307,-23.554,-24.63],[-23.219,-5.156,-3.798,-2.581,-3.07,-14.797,-3.911,-3.418,-2.823,-2.91,-11.967,-4.84,-3.619,-2.934,-2.524,-1.848,0.882,-0.87,-2.069,-2.487,17.304,2.457,-4.618,4.507,-8.175,90.226,24.479,13.371,7.575,2.533],[-42.628,-6.238,-4.708,-4.911,-3.694,-35.559,-6.322,-4.831,-4.364,-3.624,-29.473,-5.522,-5.156,-3.787,-3.01,-24.935,-2.288,-5.536,-2.356,-3.738,-0.022,15.986,6.336,5.818,-0.35,49.44,27.016,12.402,12.481,3.964],[-52.895,-9.88,-6.112,-5.208,-4.43,-41.64,-10.356,-5.667,-5.259,-4.245,-47.395,-11.344,-4.814,-4.702,-4.437,-20.414,-2.2,1.855,-1.993,-3.889,-4.473,-10.147,6.887,0.549,-2.682,47.814,24.371,16.033,6.671,13.616],[-61.828,-26.541,-6.384,-4.547,-4.842,-52.299,-20.696,-5.642,-4.655,-5.126,-46.982,-23.148,-5.421,-5.988,-4.746,-43.775,-14.775,-6.742,-2.442,-3.398,2.539,-6.332,-9.97,1.044,-3.863,101.46,15.084,37.355,-8.791,-0.742],[-58.156,-29.25,-10.065,-6.684,-5.165,-93.182,-28.422,-7.813,-7.155,-5.484,-57.659,-35.589,-8.468,-4.625,-4.941,-33.513,-24.29,-18.522,-3.731,-3.351,-47.166,-14.765,-4.453,-8.639,0.494,62.702,27.551,-13.886,1.968,-0.956]],
"kep": [[-1.646,5.834,0.813,0.507,-6.735,3.058,3.647,0.968,8.536,9.268,9.893,4.576,3.851,6.613,9.879,16.271,18.651,13.05,29.103,22.149,21.411,31,23.426,32.377,46.454,78.458,74.77,92.987,89.841,133.006],[-14.138,4.923,2.391,2.385,3.487,-3.318,5.568,4.325,2.563,2.555,-2.711,7.494,4.711,3.924,3.21,-8.421,8.158,8.382,4.627,6.157,7.02,10.836,9.256,15.657,15.468,12.53,20.921,32.131,29.525,18.466],[-30.705,12.008,5.749,4.037,3.405,-39.523,8.321,4.074,3.213,3.901,-39.337,14.422,5.403,5.078,3.796,-26.772,19.156,11.973,8.753,4.948,-33.954,13.17,25.912,12.601,7.233,-34.136,9.795,35.137,17.816,14.74],[-57.98,15.945,6.815,4.794,5.158,-55.486,19.436,8.92,5.826,4.373,-59.351,3.702,13.097,9.589,4.255,-52.241,15.504,23.327,9.915,8.074,-53.795,-13.614,25.206,21.897,8.457,-43.699,-23.536,25.672,23.51,19.781],[-72.389,1.604,16.48,10.651,5.949,-68.963,12.838,10.803,12.08,5.38,-69.156,1.671,12.323,8.549,5.7,-64.602,-5.847,19.995,17.646,9.826,-55.23,-17.265,-0.284,26.074,13.133,-55.798,-13.361,-3.104,5.526,9.211],[-76.469,-18.738,24.581,10.822,8.529,-73.382,-14.938,20.302,8.319,7.156,-74.804,-16.624,20.805,12.459,9.109,-71.626,-24.609,12.684,20.121,11.59,-73.051,-18.556,5.236,16.62,27.562,-62.747,-28.323,-7.138,17.161,10.484]],
"vp": [[354.803,252.426,281.814,195.272,471.796,28.126,22.653,36.837,22.208,41.075,21.585,1.32,12.718,-9.563,-6.931,-29.861,-29.112,-14.395,-32.514,-20.575,-33.108,-33.387,-19.759,-24.293,-28.928,-48.646,-36.546,-25.739,-22.515,-39.022],[2312.593,727.684,860.934,766.308,799.278,310.502,127.564,124.458,150.53,195.265,117.465,70.346,70.948,63.608,77.91,5.246,-6.187,-2.955,11.892,13.784,-18.291,-13.852,-8.616,-35.01,-23.21,-50.29,-24.769,-26.945,-38.403,-20.473],[4468.955,1047.012,1073.002,1448.114,1303.813,700.241,246.987,229.426,264.065,244.875,323.126,86.342,129.13,97.582,99.737,52.699,8.661,31.394,9.213,31.045,-0.493,-34.735,-28.349,-13.773,-1.684,-27.685,-28.558,-24.198,-35.251,-18.427],[5490.538,1889.688,1652.39,1767.881,1692.733,842.537,414.086,283.229,329.343,322.002,458.642,201.891,132.48,170.14,163.122,36.881,8.226,-20.388,2.89,28.06,4.572,6.999,-24.434,-1.64,10.358,-27.155,-22.485,-25.83,-17.671,-43.629],[6243.286,5373.738,1794.884,1485.95,2103.212,1051.732,827.977,265.466,301.574,412.381,501.297,470.958,119.955,217.051,189.083,83.73,57.391,37.812,10.048,22.306,-3.863,11.944,25.417,-11.684,15.366,-54.781,-17.256,-62.791,23.003,-6.464],[5737.261,5614.269,3001.586,2301.827,2253.519,1020.08,1125.713,433.664,511.482,449.72,587.74,731.051,234.772,142.317,206.046,62.734,93.554,114.881,22.825,23.754,49.064,29.299,13.188,34.126,-8.246,-37.729,-31.569,22.246,-3.905,1.871]]
}