{
"KTrans": [[-11.562,2.422,-0.272,0.946,-0.393,-8.546,0.151,1.758,1.418,3.408,-9.713,-2.05,-3.574,2.076,1.028,9.269,-1.787,-3.222,-7.043,0.439,29.66,25.553,15.769,3.199,1.24,-148.366,56.602,31.793,36.958,35.851],[-58.514,-3.579,2.558,0.513,1.429,-52.931,-1.267,-0.966,1.162,-1.108,-46.865,-2.333,-3.188,0.997,-0.323,-45.61,1.419,-10.782,-1.089,3.641,-29.448,13.101,3.558,-7.408,-0.926,-63.247,26.799,12.984,9.856,-0.996],[-84.583,-7.236,1.144,2.042,0.683,-84.313,-11.456,-1.475,0.038,2.027,-87.005,-8.486,2.11,2.258,1.203,-76.543,-24.576,-2.503,-4.392,-0.63,-78.463,-13.558,-2.511,-10.704,-4.134,-105.524,3.241,-0.378,13.617,3.257],[-94.967,-23.462,1.03,4.872,0.484,-94.456,-28.503,0.586,2.895,1.168,-94.361,-23.056,-1.237,-0.369,1.419,-88.81,-35.635,-5.237,-4.081,-1.163,-88.917,-26.002,-9.741,-0.497,0.259,-83.35,-30.294,2.118,6.114,7.78],[-96.944,-47.952,-2.173,3.12,4.558,-96.951,-54.911,0.648,-0.339,0.674,-96.944,-58.969,0.246,5.84,1.617,-95.654,-41.953,-17.681,1.636,3.426,-95.074,-33.955,-13.306,-11.998,-3.787,-121.3,-25.974,0.859,-1.336,-2.091],[-98.59,-73.711,-0.393,5.185,6.392,-98.2,-76.734,-6.128,7.132,4.102,-98.1,-77.919,-4.589,4.74,5.437,-94.987,-57.63,-16.573,-3.978,-6.955,-100.178,-62.034,-15.963,-10.008,-0.716,-107.309,-30.288,1.971,-6.34,-2.487]],
"ve": [[-4.646,6.034,9.11,7.842,13.563,-1.036,4.646,4.808,15.269,19.316,-9.232,4.953,7.217,37.468,18.502,-10.959,7.24,60.975,43.575,-4.762,-1.044,-85.716,-9.344,-60.967,-44.785,-36.002,3.694,-34.456,-45.446,20.527],[-33.968,-3.119,-0.283,-0.018,-0.893,-25.619,-2.86,-0.213,0.118,-0.032,-25.409,-1.901,-0.872,-0.499,-0.487,-21.298,-0.973,-6.123,-0.2,0.709,-21.937,1.352,4.706,3.896,3.585,-41.182,-1.223,4.856,-18.287,1.169],[-60.343,-5.657,-0.598,-0.802,-0.477,-59.288,-7.934,-1.562,-1.226,-0.482,-68.743,-6.152,-1.253,-0.114,-0.824,-36.172,-17.949,-2.365,-3.302,-0.957,-68.359,-18.867,-3.265,-6.271,-2.199,-75.424,-18.986,-17.368,-52.402,-1.167],[-80.162,-13.954,-2.195,0.317,-0.538,-82.3,-16.208,-1.744,-0.719,-0.484,-79.527,-15.887,-2.419,-1.339,-0.255,-76.281,-10.788,-4.605,-3.733,-1.513,-72.575,-28.921,-5.571,-1.964,-0.718,-70.449,-28.784,-13.673,-2.485,5.069],[-83.88,-27.888,-3.572,-0.545,0.993,-95.239,-33.028,-2.98,-1.317,-0.888,-109.853,-39.977,-3.229,0.761,-0.555,-87.775,-38.104,-12.865,-0.196,1.093,-76.342,-21.665,-22.634,-11.183,-4.316,-131.282,-20.75,-15.13,-13.052,-7.804],[-117.849,-48.932,-3.653,1.088,0.906,-86.304,-51.343,-5.554,0.36,-0.06,-97.857,-60.644,-7.028,-0.464,0.105,-85.147,-35.677,-11.98,-6.492,-6.475,-101.615,-73.763,-28.192,-10.471,-2.147,-86.439,-38.728,-14.308,-12.702,-6.571]],
"kep": [[-12.709,-0.043,-2.396,1.012,-2.003,-9.723,-1.674,1.771,-0.444,6.079,-7.013,-4.494,-5.95,2.852,3.262,-16.257,-10.503,-13.016,-19.889,-9.461,-13.652,-5.908,-7.425,-29.123,-29.407,73.392,0.571,-30.146,-25.324,-15.387],[-47.865,-1.255,2.679,0.602,2.451,-43.774,0.86,-0.96,1.077,-0.912,-39.608,-1.75,-2.623,1.495,0.305,-52.751,-2.892,-7.033,-1.99,2.607,-38.706,-11.929,-5.178,-12.51,-5.337,-27.484,-14.689,-18.177,-15.279,-16.446],[-78.93,-3.216,0.984,2.671,1.077,-78.336,-5.965,-0.51,1.134,2.477,-84.552,-4.027,2.74,2.172,1.948,-73.957,-25.189,-3.036,-2.706,-0.393,-66.154,-44.122,-7.524,-11.292,-5.559,-48.508,-27.435,-34.675,-9.324,-9.302],[-93.228,-15.209,2.264,4.288,0.881,-95.791,-18.633,1.319,3.384,1.521,-93.543,-15.151,0.375,0.737,1.481,-85.033,-41.171,-4.953,-2.903,-0.571,-73.795,-46.528,-17.821,-3.365,-2.273,-64.295,-32.681,-30.508,-15.593,-8.4],[-97.432,-34.251,0.438,3.182,3.248,-97.224,-41.339,1.31,0.451,1.393,-97.665,-46.787,1.69,4.476,1.838,-90.626,-54.216,-12.21,-0.317,1.491,-83.944,-43.223,-40.389,-12.067,-3.547,-71.123,-47.787,-40.804,-33.864,-16.634],[-99.066,-60.585,0.304,3.426,5.111,-98.828,-67.874,-3.725,5.64,3.822,-99.457,-70.869,-2.154,4.235,4.941,-91.871,-62.7,-20.252,-1.717,-2.037,-87.337,-62.952,-49.639,-13.107,-3.23,-75.175,-53.717,-35.715,-35.221,-20.903]],
"vp": [[611.387,18.945,47.177,61.013,34.316,119.61,9.528,-10.273,-0.428,-32.366,64.547,18.93,37.711,-0.905,11.439,12.277,12.328,11.07,22.226,2.843,1.403,-7.868,-6.088,7.833,12.533,19.458,-6.824,6.208,0.282,-6.1],[3577.454,663.506,-126.507,50.623,135.094,609.875,136.662,51.754,-21.002,69.858,289.992,49.511,60.793,22.34,14.299,60.257,11.24,46.096,10.977,-9.981,22.817,-5.108,-0.895,21.513,11.85,22.129,-1.93,0.942,2.967,12.651],[6243.665,1187.421,219.245,210.65,156.618,1292.411,345.013,114.816,88.426,21.686,676.615,124.487,28.452,-15.338,8.674,101.721,76.282,21.669,28.523,12.355,74.009,42.197,13.158,34.367,16.637,37.925,19.127,21.049,-6.378,2.387],[8506.675,2767.364,609.006,-270.616,200.87,1638.985,687.766,67.032,31.017,46.112,804.848,342.821,68.991,55.272,9.229,150.328,124.691,30.388,32.669,14.51,79.95,56.758,30.479,8.134,4.876,34.89,27.717,20.498,2.917,-3.539],[9118.645,5758.741,1048.231,107.696,-539.735,1846.821,1366.157,152.337,106.723,73.457,943.079,790.059,94.528,-44.833,37.889,170.018,149.982,78.561,-1.369,-16.549,71.041,40.913,73.062,48.194,22.781,65.808,20.847,31.015,25.036,16.95],[9389.405,10220.636,1164.932,-533.311,-564.597,1912.92,2373.036,334.322,-78.391,-11.765,1004.223,1205.493,220.441,8.914,-23.363,166.757,158.329,69.805,54.306,64.374,99.209,104.449,87.574,43.084,8.798,42.337,37.787,19.942,28.102,18.97]]
}