{
"KTrans": [[-46.795,-70.623,-75.57,-69.154,-73.15,-32.478,-67.111,-57.383,-60.218,-54.979,-30.829,-40.847,-45.6,-42.975,-59.783,70.445,16.306,13.736,-3.621,-0.038,143.876,21.745,20.022,30.377,24.35,274.879,108.513,68.89,92.978,117.182],[-59.437,-35.964,-45.089,-64.183,-60.639,-48.89,-34.196,-36.199,-55.67,-49.076,-49.994,-28.854,-26.865,-52.095,-38.269,-30.42,-0.065,22.681,-4.056,-0.927,-19.339,14.653,45.664,1.23,-6.488,10.769,28.917,94.785,11.004,-0.925],[-70.187,-50.602,-47.557,-42.675,-44.296,-67.663,-50.643,-50.034,-37.255,-21.186,-66.554,-35.148,-33.453,-33.229,-30.94,-54.135,-18.607,-4.758,1.821,12.618,-51.559,-9.769,-1.635,6.501,29.402,-38.315,-12.104,4.659,14.464,54.675],[-76.002,-55.33,-42.883,-54.914,-48.854,-77.714,-48.918,-42.971,-42.414,-37.996,-76.076,-48.032,-36.239,-37.025,-32.712,-66.914,-30.722,-8.645,-2.621,-0.915,-60.161,-32.16,-1.994,-1.15,2.124,-52.265,-23.28,-5.482,-0.792,2.143],[-83.536,-55.828,-44.845,-44.03,-48.45,-80.125,-59.908,-43.362,-36.857,-40.545,-80.961,-55.597,-37.576,-36.585,-35.334,-75.473,-42.621,-15.188,-12.935,-9.813,-69.373,-37.641,-7.545,-2.878,0.167,-60.45,-39.602,-12.036,-2.238,0.384],[-86.43,-63.792,-47.562,-40.689,-46.872,-86.213,-60.948,-45.09,-40.849,-45.339,-83.885,-60.357,-40.795,-37.733,-27.846,-80.748,-53.875,-21.557,-9.843,-9.65,-76.669,-50.846,-13.014,1.066,-1.206,-63.075,-52.001,-14.733,-5.841,2.246]],
"ve": [[-51.703,-16.196,17.007,9.744,54.544,-26.928,-51.122,-71.574,-10.515,-43.144,-51.6,578.674,-8.469,-6.863,-231.955,61.356,-6.167,-379.891,-1882.826,42.005,138.758,29.398,-4.247,-679.364,-96.632,274.268,37.698,61.659,149.785,-115.686],[-26.093,-34.067,-43.69,-47.403,-16.838,-45.399,-44.231,-35.523,-66.154,-46.267,-24.971,-26.167,-56.007,-37.318,-17.938,24.172,23.911,26.12,-6.203,133.325,70.611,56.144,29.678,-16.936,-5.467,243.211,58.966,101.316,8.659,69.867],[-41.028,-84.632,-73.532,-55.348,-44.394,-27.651,-104.687,-82.355,-53.881,-19.538,-10.505,-58.932,-50.972,-28.538,-26.492,47.526,-12.104,-8.373,4.762,13.574,61.284,-2.603,2.318,16.232,29.723,123.57,9.248,20.18,19.505,72.245],[0.513,-110.825,-96.289,-97.09,-69.074,-8.583,-73.809,-89.646,-76.235,-50.553,12.91,-63.244,-69.824,-62.36,-41.061,61.788,-17.77,-13.531,-5.473,-2.359,121.865,-10.272,0.027,0.048,-2.505,160.031,2.646,1.413,-3.345,1.685],[-10.899,-62.757,-103.882,-93.073,-87.276,37.873,-68.042,-100.149,-79.04,-72.584,18.015,-58.475,-78.284,-74.2,-64.52,74.271,-18.017,-13.284,-23.507,-16.18,138.952,-8.183,-2.13,-0.849,0.123,205.808,-0.544,-1.562,-0.55,0.778],[16.062,-72.158,-137.608,-101.627,-97.79,13.226,-43.882,-137.112,-102.802,-95.306,41.227,-46.22,-97.402,-102.719,-54.946,78.159,-22.712,-19.361,-21.868,-22.495,118.482,0.288,-4.189,0.666,-0.81,314.217,2.052,-3.227,-1.649,0.997]],
"kep": [[-130.49,-44.726,10.856,2.07,-5.207,-139.608,-24.862,-12.416,-18.389,-5.871,-134.844,-21.899,5.676,-9.87,17.215,-134.012,-30.56,-14.91,15.883,6.642,-139.763,-15.1,1.962,-7.768,-1.866,-136.367,-35.042,4.311,-8.679,-39.673],[-69.283,-59.344,-142.474,-34.51,-11.248,-72.375,-55.571,-127.169,-13.458,-8.707,-77.141,-51.565,-129.222,-23.813,-10.437,-66.24,-51.445,-151.07,-20.979,-9.62,-72.638,-56.89,-133.915,-17.269,-3.583,-74.306,-47.554,-141.609,-19.344,0.553],[-82.651,-32.351,-20.333,-52.855,-147.257,-83.675,-22.307,-16.592,-43.936,-137.989,-84.738,-24.608,-13.513,-40.987,-121.975,-87.015,-25.695,-18.458,-41.522,-121.482,-80.607,-25.528,-12.451,-31.811,-143.182,-82.353,-26.645,-18.325,-28.664,-136.837],[-88.907,-30.074,-4.077,-1.161,-2.766,-91.173,-34.997,-9.877,-1.222,-11.336,-96.01,-38.682,-11.375,-4.391,-10.493,-92.07,-34.524,-7.172,-4.762,-7.549,-90.576,-32.821,-5.495,-4.631,-10.126,-88.629,-31.735,-10.285,-8.052,-6.123],[-94.817,-44.062,-11.508,-5.63,-5.303,-95.543,-49.854,-13.774,-3.686,-2.354,-96.865,-46.409,-14.781,-8.555,-0.931,-97.24,-41.778,-12.211,-3.638,-3.736,-98.499,-39.357,-10.224,-6.471,-2.593,-97.013,-45.842,-14.086,-2.402,-3.491],[-99.806,-53.443,-10.403,-5.408,-4.177,-97.322,-54.185,-8.574,-6.842,-5.257,-100.168,-55.479,-14.636,-1.064,-4.939,-97.699,-51.702,-18.794,-3.231,0.195,-98.421,-53.272,-13.918,-1.263,-2.129,-100.88,-55.02,-15.809,-6.522,1.65]],
"vp": [[-33.348,-84.493,200.934,195.724,-60.362,61.441,-52.572,38.644,-3.429,51.099,-21.16,15.385,6.513,13.471,6.757,-0.162,-5.048,-8.242,4.165,2.41,-0.368,5.775,0.993,0.008,1.498,-1.003,-0.967,0.049,-0.301,-0.013],[2011.937,910.848,42.356,-3.112,-530.511,443.35,182.395,15.805,70.485,9.3,245.184,85.691,-14.357,-17.034,8.473,43.175,16.728,-0.999,-2.792,-4.44,25.651,4.77,0.277,-3.847,-0.105,10.106,4.001,-0.395,-2.039,0.43],[4162.152,1407,637.16,506.347,127.883,903.739,171.546,-16.843,48.366,87.375,479.023,117.205,80.584,52.708,0.089,89.179,26.167,22.971,3.32,2.412,43.046,9.889,5.362,2.981,-0.544,21.891,8.933,4.43,1.421,-1.432],[5321.759,2581.585,453.02,-22.323,175.24,1157.698,605.666,110.6,-7.956,165.549,602.462,322.419,104.818,52.166,37.01,112.12,48.241,9.021,2.412,3.33,53.491,34.433,3.211,2.246,2.719,27.022,12.663,4.478,3.148,2.031],[6668.222,4613.911,1697.938,801.17,60.588,1284.362,973.528,336.245,126.35,65.06,687.488,502.829,161.536,53.639,29.224,138.958,93.027,37.14,19.41,1.52,70.869,32.294,11.618,5.034,1.865,33.527,22.022,7.861,3.716,1.777],[7906.211,6260.337,1832.666,849.08,585.552,1497.627,1244.708,244.898,177.602,112.183,754.287,618.556,251.821,1.509,93.593,143.226,115.024,42.955,9.939,-0.96,74.614,57.87,16.307,-0.554,6.345,38.346,31.873,9.598,6.39,-2.055]]
}