{
"KTrans": [[-12.732,3.035,2.954,-3.334,8.6,-25.199,11.409,-0.841,9.991,10.171,-27.929,13.269,11.477,5.649,5.253,-27.116,-4.639,2.136,-1.458,8.269,-7.794,12.352,11.258,8.671,1.653,62.021,60.663,42.212,18.407,24.312],[-83.891,-15.23,-1.166,0.548,5.803,-77.465,-21.067,-3.146,0.857,-1.175,-80.799,-13.689,3.45,-1.911,2.178,-78.297,-14.423,-5.791,0.209,0.67,-70.624,-30.375,-8.942,4.862,-0.29,-77.231,-2.277,8.527,8.329,-3.576],[-94.143,-45.954,-7.923,-2.605,2.041,-94.925,-55.021,-3.959,-2.476,4.259,-94.664,-50.104,-10.168,-3.531,0.043,-90.523,-45.413,-10.445,-0.08,1.417,-91.574,-42.872,-10.941,-4.416,-0.332,-87.109,-26.789,-0.667,-6.927,0.316],[-97.394,-69.077,-18.12,0.419,3.145,-97.029,-73.998,-17.177,-3.405,2.348,-97.501,-71.566,-15.891,-5.005,-3.899,-97.565,-66.975,-21.49,-3.709,-4.493,-96.395,-59.121,-24.723,-21.433,-8.981,-100.508,-62.561,-2.146,-16.888,5.044],[-97.237,-83.557,-39.82,-7.81,0.345,-97.815,-83.63,-36.62,-6.542,-3.024,-98.944,-84.745,-38.166,-8.01,-3.502,-97.974,-81.452,-35.904,-8.803,-2.398,-102.477,-70.178,-39.572,-22.54,-6.175,-107.177,-70.814,-33.136,-12.015,-9.118],[-99.035,-89.771,-54.154,-14.843,-0.023,-99.07,-89.494,-54.816,-18.764,1.068,-99.186,-90.083,-51.92,-16.594,1.883,-98.958,-88.047,-55.376,-26.302,-5.129,-97.452,-83.553,-53.332,-20.878,-9.314,-113.479,-74.039,-42.736,-21.489,-9.648]],
"ve": [[12.954,-0.769,-24.495,-24.135,-21.516,-26.43,81.332,-24.707,652.106,-38.923,16.47,-18.94,-111.368,14.003,242.394,31.362,292.247,-914.184,-10.607,76.342,-27.823,16.416,11.731,1.869,-64.339,22.298,-27.187,29.107,-29.757,-32.765],[-42.507,-4.948,2.318,1.733,3.116,-31.14,-2.961,0.025,2.005,4.14,-47.509,-3.98,0.913,2.611,1.67,-52.018,3.588,0.05,1.174,2.867,-47.944,-38.137,4.163,3.176,7.667,-51.095,-19.712,-16.835,-7.997,-18.867],[2.834,-23.369,-4.281,-2.239,0.388,-25.971,-24.792,-1.735,0.475,0.953,-102.049,-31.329,-3.61,-0.391,0.15,-67.524,-24.868,-6.234,-0.175,-1.02,-74.457,-43.327,-5.178,-2.29,-0.011,-64.596,-26.747,-5.143,-3.963,7.188],[-78.157,-36.52,-10.164,-1.442,0.025,-33.295,-39.443,-8.433,-0.525,0.316,33.503,-41.011,-8.695,-2.205,-1.075,-56.269,-37.276,-8.972,-1.66,-3.308,-93.848,-42.51,-18.39,-11.489,-6.224,-88.598,-53.443,-9.217,-32.221,1.923],[-99.294,-57.068,-19.563,-5.282,0.683,-563.567,-55.463,-21.051,-6.273,-3.112,-75.009,-53.103,-20.179,-6.195,-2.751,-507.36,-47.336,-21.79,-6.998,-3.369,-107.191,-43.273,-26.89,-15.853,-4.052,-124.214,-46.707,-21.646,-7.734,-7.755],[-122.993,-61.823,-30.126,-8.577,-2.035,-103.21,-66.679,-31.385,-8.761,-1.413,-51.018,-70.923,-29.698,-7.973,-1.1,-108.954,-86.731,-33.945,-13.803,-3.909,-120.338,-68.459,-29.974,-17.327,-8.901,-133.096,-56.506,-32.612,-21.401,-18.727]],
"kep": [[-34.987,-6.102,0.906,-15.072,13.506,-40.559,3.308,-12.335,8.715,9.522,-45.992,-1.143,1.943,5.186,-1.435,-57.665,-19.379,-8.433,-19.571,-1.462,-50.839,-21.607,-16.387,-15.917,-29.97,-1.222,0.262,-19.651,-68.098,-39.084],[-87.88,-12.114,-4.162,-0.684,3.424,-80.6,-19.943,-3.082,-0.331,-3.791,-84.994,-12.345,1.991,-3.6,1.51,-84.822,-17.921,-6.707,-0.94,-1.563,-77.239,-41.768,-14.23,0.251,-3.813,-54.239,-52.309,-25.119,-17.455,-16.61],[-96.173,-36.45,-5.036,-1.289,1.596,-96.172,-47.024,-3.063,-3.593,2.995,-98.417,-41.01,-8.17,-4.157,-0.077,-92.769,-43.746,-8.47,-1.52,1.656,-84.673,-51.864,-16.354,-6.232,-2.562,-70.018,-49.557,-27.404,-24.023,-8.976],[-101.809,-60.33,-11.475,0.494,2.6,-100.363,-66.078,-11.883,-3.785,1.173,-98.288,-61.794,-11.562,-3.676,-3.463,-98.777,-65.781,-19.348,-4.519,-2.641,-92.472,-64.68,-28.047,-19.693,-6.737,-77.549,-57.134,-36.448,-29.576,-8.833],[-101.143,-76.409,-29.863,-4.201,-0.871,-99.45,-77.946,-25.672,-2.046,-0.835,-100.127,-76.706,-26.717,-3.32,-1.546,-99.167,-78.582,-27.59,-5.745,-1.024,-95.328,-71.035,-41.835,-18.078,-5.344,-85.094,-61.531,-44.652,-29.278,-15.636],[-100.584,-86.086,-41.014,-10.027,0.758,-101.585,-85.673,-41.755,-12.639,1.064,-100.068,-88.116,-39.477,-10.866,1.881,-97.887,-86.935,-48.148,-18.251,-3.402,-94.36,-84.1,-56.895,-21.686,-6.739,-87.659,-70.527,-51.966,-42.432,-25.131]],
"vp": [[1158.764,-124.713,656.474,452.424,-26.678,387.51,-64.374,25.639,-130.762,-92.955,108.988,-39.235,-26.388,12.066,8.24,37.962,13.69,16.525,6.624,-1.18,9.858,0.844,3.176,4.568,9.803,-6.383,-3.888,-3.067,12.928,4.093],[5613.46,1640.492,162.491,173.677,-744.857,938.054,385.827,151.548,96.932,51.173,535.205,160.871,33.392,20.56,10.72,109.917,33.429,30.763,14.032,3.885,49.774,48.768,22.008,-1.591,14.757,25.137,24.194,7.067,4.982,12.882],[7391.215,5190.665,1672.904,794.757,25.68,1506.05,1115.566,154.35,99.767,-81.817,792.238,560.704,142.195,56.663,48.703,142.48,118.786,49.461,9.032,7.132,77.141,60.025,15.734,15.095,5.339,34.173,29.806,8.672,23.354,2.844],[8832.807,8449.164,3428.985,980.362,162.783,1798.29,1887.934,641.508,214.453,74.409,830.531,878.048,309.627,131.57,84.17,174.968,170.947,69.255,16.874,31.401,89.517,87.226,60.562,52.613,36.638,44.719,59.122,9.825,37.39,-0.628],[9520.615,11820.71,6285.228,2364.423,-124.82,1783.272,2371.203,1440.315,475.205,317.962,968.282,1218.571,676.269,257.565,124.337,189.669,227.057,127.402,66.142,35.014,107.887,91.49,71.788,71.268,20.974,58.491,46.923,35.291,17.891,34.46],[9927.214,14177.576,9873.318,3657.174,1206.764,2152.5,2767.589,2011.428,766.865,130.85,1015.128,1482.418,946.725,328.594,61.123,197.357,272.331,212.043,125.613,47.336,90.026,134.525,116.646,56.069,45.207,68.678,64.598,46.34,42.841,28.733]]
}