{
"KTrans": [[-28.506,29.478,18.899,21.826,16.691,11.154,52.006,26.797,30.94,24.047,17.458,38.768,33.511,35.063,45.089,95.597,123.187,128.253,99.495,89.706,299.518,321.326,242.696,189.651,183.402,811.891,744.931,511.964,502,436.627],[-64.893,58.908,56.336,34.239,44.666,-86.307,44.83,50.443,39.371,37.948,-68.824,71.377,59.393,41.987,39.636,-49.741,116.213,117.705,85.927,67.491,-24.188,212.291,183.335,115.409,118.822,6.309,550.17,389.282,244.428,218.274],[-97.412,-0.037,64.562,63.141,51.224,-100.632,-9.815,81.612,84.734,51.035,-103.496,-16.376,96.092,77.177,54.558,-96.232,53.895,140.22,93.106,87.904,-101.01,69.026,209.703,169.421,120.044,-71.79,248.979,387.734,254.759,213.951],[-105.052,-76.414,74.194,84.522,75.014,-103.147,-68.431,72.207,101.651,77.55,-102.394,-63.246,46.823,105.592,81.622,-104.929,-48.93,111.731,162.343,101.415,-102.108,-48.574,222.616,210.563,171.91,-105.589,5.092,342.295,425.176,245.74],[-102.981,-125.384,-51.491,100.567,94.617,-105.14,-108.832,-1.056,110.869,102.518,-108.269,-111.571,9.94,132.922,111.463,-102.306,-121.131,30.577,130.095,172.149,-101.222,-115.496,-23.324,229.994,177.992,-97.497,-128.771,52.321,404.654,291.812],[-104.708,-100.605,-88.489,-6.958,133.181,-103.937,-106.746,-68.685,39.072,176.938,-104.513,-122.719,-71.848,44.942,188.432,-102.607,-125.287,-148.393,23.538,250.848,-110.777,-156.14,-61.109,150.924,245.766,-89.642,-164.541,-141.192,213.732,338.64]],
"ve": [[92.946,-3.1,-44.656,5.975,26.141,12.85,-16.95,46.147,-16.679,108.28,34.244,15.824,64.795,3.453,8.32,49.81,13.626,-5.388,-7.225,-13.376,96.635,40.24,11.485,-5.92,-18.76,202.673,83.01,36.535,10.008,-3.186],[3.65,6.107,2.989,2.803,4.381,25.089,7.981,4.521,2.6,3.752,31.451,10.716,6.172,2.954,3.801,57.466,24.819,14.671,11.873,6.488,83.76,54.365,31.561,21.703,13.638,205.224,99.689,65.214,42.051,31.642],[-1.617,13.103,3.34,3.017,3.398,-1.059,8.837,6.948,4.683,4.159,10.57,8.102,6.023,6.174,3.222,23.176,23.879,16.514,12.093,11.249,93.98,52.982,34.692,27.181,18.374,235.116,85.707,67.313,47.458,38.286],[-15.371,-5.604,5.696,2.107,4.029,7.296,9.928,7.918,3.149,3.708,19.71,13.602,2.617,4.423,5.351,51.012,30.948,21.737,14.825,11.841,99.988,47.551,34.395,27.088,22.477,207.655,105.058,67.927,54.292,41.793],[5.784,6.874,8.651,2.242,1.037,7.419,7.474,4.366,0.517,4.565,13.534,-25.327,8.245,7.208,4.45,24.998,15.288,24.321,13.156,14.338,101.988,47.82,36.827,26.825,19.175,158.934,106.036,68.351,53.477,41.659],[5.803,-8.322,7.081,2.044,3.669,17.531,3.397,10.378,1.204,5.904,14.36,7.836,10.271,3.799,5.302,74.452,24.993,19.526,15.587,14.008,94.582,49.128,34.577,27.046,22.362,209.36,111.561,-7.656,53.214,40.335]],
"kep": [[-45.34,26.348,16.045,25.251,17.972,-10.369,41.715,25.154,39.89,39.149,-10.254,27.493,34.44,42.699,70.852,24.307,86.433,129.944,129.279,132.565,98.152,200.989,210.056,208.515,252.63,206.125,360.401,350.1,448.951,453.486],[-71.781,43.854,47.621,28.518,38.588,-88.009,29.886,40.406,34.197,32.883,-75.27,49.033,46.351,34.289,33.96,-66.918,64.665,82.189,62.917,54.052,-61.801,98.593,108.556,73.363,89.047,-64.215,216.688,190.74,136.865,137.58],[-98.016,-14.257,54.493,52.21,42.297,-99.442,-22.027,62.055,70.283,40.749,-101.27,-29.137,76.06,63.065,44.627,-97.605,13.411,93.739,64.48,64.16,-98.222,6.938,119.299,106.479,79.801,-88.422,69.075,180.892,132.232,121.113],[-104.096,-78.841,56.061,70.632,62.962,-102.879,-72.36,50.829,83.005,63.563,-100.757,-69.041,28.826,85.278,64.435,-101.156,-63.325,65.37,118.856,71.874,-99.754,-65.356,125.818,135.594,113.861,-101.948,-51.333,152.044,230.947,137.043],[-101.881,-121.424,-58.127,83.3,79.686,-103.806,-105.499,-13.617,90.307,84.475,-106.62,-109.045,-5.589,105.84,90.702,-100.598,-113.578,1.821,89.978,128.131,-100.764,-107.736,-45.724,143.972,118.891,-98.73,-110.422,-12.468,216.409,165.368],[-103.292,-98.878,-89.62,-16.159,112.787,-103.192,-104.229,-70.778,24.52,146.816,-102.802,-117.913,-75.395,29.415,160.431,-100.94,-117.078,-135.425,0.591,192.154,-104.932,-131.491,-70.199,87.564,167.148,-95.468,-128.921,-120.221,95.598,194.14]],
"vp": [[0.001,0.001,0.001,0.001,0.001,0.005,0.005,0.005,0.005,0.005,0.01,0.01,0.01,0.01,0.01,0.05,0.05,0.05,0.05,0.05,0.1,0.1,0.1,0.1,0.1,0.2,0.2,0.2,0.2,0.2],[0.001,0.001,0.001,0.001,0.001,0.005,0.005,0.005,0.005,0.005,0.01,0.01,0.01,0.01,0.01,0.05,0.05,0.05,0.05,0.05,0.1,0.1,0.1,0.1,0.1,0.2,0.2,0.2,0.2,0.2],[0.001,0.001,0.001,0.001,0.001,0.005,0.005,0.005,0.005,0.005,0.01,0.01,0.01,0.01,0.01,0.05,0.05,0.05,0.05,0.05,0.1,0.1,0.1,0.1,0.1,0.2,0.2,0.2,0.2,0.2],[0.001,0.001,0.001,0.001,0.001,0.005,0.005,0.005,0.005,0.005,0.01,0.01,0.01,0.01,0.01,0.05,0.05,0.05,0.05,0.05,0.1,0.1,0.1,0.1,0.1,0.2,0.2,0.2,0.2,0.2],[0.001,0.001,0.001,0.001,0.001,0.005,0.005,0.005,0.005,0.005,0.01,0.01,0.01,0.01,0.01,0.05,0.05,0.05,0.05,0.05,0.1,0.1,0.1,0.1,0.1,0.2,0.2,0.2,0.2,0.2],[0.001,0.001,0.001,0.001,0.001,0.005,0.005,0.005,0.005,0.005,0.01,0.01,0.01,0.01,0.01,0.05,0.05,0.05,0.05,0.05,0.1,0.1,0.1,0.1,0.1,0.2,0.2,0.2,0.2,0.2]]
}