{
"KTrans": [[0.685,7.222,3.275,1.333,2.989,9.414,8.054,9.158,9.388,6.825,10.032,24.118,22.591,19.613,19.447,-47.451,68.621,85.748,90.423,93.029,-188.015,29.892,92.425,112.209,135.418,175.975,-135.365,-64.363,0.025,116.018],[-23.326,-8.502,-0.158,3.249,0.679,-17.039,-3.541,2.407,5.295,4.411,-11.987,1.668,4.657,10.664,7.139,51.068,26.989,-1.531,23.838,36.607,-15.292,-12.829,-55.162,11.997,41.304,-10.181,35.854,-128.009,-24.45,8.376],[-36.221,-6.805,-4.221,-1.685,1.493,-29.279,-2.003,1.085,0.004,1.103,-26.144,3.534,6.412,3.337,2.064,1.821,49.49,43.549,15.833,0.553,-71.623,116.836,78.45,-0.803,-12.704,-272.552,-83.065,-121.713,-24.934,-56.52],[-42.552,-5.382,-1.356,0.572,-0.428,-42.518,-4.003,0.614,2.7,1.875,-34.62,2.1,3.894,6.251,4.886,-9.213,38.304,33.934,34.186,27.5,-65.644,68.29,49.958,88.42,37.36,-63.114,-73.652,-182.335,75.887,-56.243],[-53.896,-5.588,-3.435,-0.257,-0.612,-48.822,-6.887,1.002,2.19,2.723,-47.741,1.612,5.127,3.703,4.324,-49.946,34.933,45.623,34.259,26.959,-57.72,-16.616,78.865,50.448,61.813,8.499,-20.902,31.295,-30.366,-25.984],[-55.807,-11.73,-2.951,-0.916,-0.006,-61.518,-8.209,-1.01,2.456,3.326,-61.263,-5.743,4.392,4.917,5.793,-56.473,7.249,39.223,32.253,29.946,-86.303,-21.685,51.266,90.697,53.413,-69.101,-44.314,-87.886,52.084,93.083]],
"ve": [[42.9,-26.343,56.165,-120.497,-23.261,18.893,-7.797,-15.497,-19.26,-55.603,10.452,1.112,74.374,28.423,-147.611,34.267,6.357,-15.375,-298.096,-3.248,78.1,27.847,-17.948,-43.27,-26.856,193.865,77.578,22.581,2.748,-19.662],[-4.436,4.21,-3.882,12.262,5.717,42.017,24.066,6.667,49.491,0.302,-10.223,3.347,2.073,-5.008,-9.644,37.545,26.217,17.579,3.562,-26.534,99.648,51.554,29.817,16.399,7.834,191.918,100.115,68.387,43.686,25.569],[-7.168,-1.772,-5.958,-4.688,0.696,-1.108,0.541,-0.929,4.907,-0.832,8.485,5.489,1.567,3.047,67.142,28.1,22.197,15.245,10.467,9.575,99.894,49.939,33.509,22.989,17.425,206.188,146.527,67.186,51.577,38.467],[-1.689,-0.644,-0.926,-0.782,-4.025,23.626,0.537,0.48,0.952,-0.494,8.157,3.225,2.502,2.028,0.966,43.919,23.455,14.986,22.048,5.895,99.963,48.302,33.859,27.034,16.078,194.846,101.61,68.132,52.416,41.527],[-5.133,-0.793,-0.013,0.044,-0.492,-2.52,3.895,0.567,0.489,0.658,5.258,3.91,2.58,1.402,1.392,46.32,14.876,16.52,13.131,9.526,98.69,49.114,37.705,24.425,17.153,177.894,98.952,64.007,49.844,44.991],[-5.106,-0.569,-0.679,-0.268,-0.001,6.2,2.787,0.784,1.255,1.272,2.697,3.867,3.122,2.237,1.555,42.706,24.832,16.782,12.344,10.053,93.303,45.828,32.477,25.557,23.003,191.775,95.337,65.039,33.164,40.475]],
"kep": [[-121.413,-56.097,-8.463,-7.929,-6.599,-125.438,-39.131,-30.621,-14.437,-9.78,-132.657,-65.852,-41.942,-27.794,-30.04,-196.885,-233.088,-178.261,-213.823,-210.289,-210.987,-321.539,-380.804,-393.13,-379.489,25.727,-265.918,-589.185,-682.122,-684.364],[-50.048,-50.316,-116.073,-35.378,-8.28,-47.435,-42.647,-128.37,-40.413,-12.54,-45.052,-38.143,-106.365,-65.566,-14.219,-28.658,-24.097,-154.292,-179.171,-105.048,-71.341,-71.337,-195.571,-266,-231.956,-63.278,-25.595,-176.655,-235.352,-351.408],[-53.791,-18.117,-18.288,-39.624,-134.774,-50.265,-11.883,-9.595,-35.112,-121.283,-50.388,-8.92,1.322,-28.524,-135.493,-50.228,11.388,27.625,-25.765,-158.129,-87.86,33.998,32.919,-64.731,-147.665,-129.233,-87.552,-114.893,-56.364,-88.118],[-58.5,-12.594,-6.762,-4.869,-5.231,-59.533,-13.412,-3.967,-0.445,-7.965,-55.375,-8.632,-2.209,7.933,3.725,-54.094,-1.468,15.774,25.969,35.502,-83.101,-2.776,3.157,64.057,10.821,-77.41,-81.102,-158.761,10.527,-110.68],[-67.886,-14.392,-7.354,-3.681,-3.173,-64.792,-14.939,-4.803,-0.499,1.609,-66.223,-11.359,-2.443,-0.7,3.728,-75.972,-1.578,23.934,22.917,22.638,-78.771,-51.636,22.208,14.848,46.366,-65.513,-63.198,-34.635,-62.219,-60.147],[-69.233,-18.683,-5.699,-3.171,-0.323,-74.409,-16.173,-4.005,3.457,2.281,-77.159,-18.748,-1.331,0.791,4.188,-75.476,-26.521,15.52,19.966,23.429,-89.668,-53.112,4.744,51.3,31.07,-85.341,-70.593,-90.669,-6.247,28.84]],
"vp": [[211.923,-1.806,503.847,-8.518,6.172,-71.976,-97.932,96.604,-60.847,30.356,-30.659,11.107,-27.621,-17.759,-16.011,-13.354,-12.274,-13.001,-6.02,11.817,6.203,-1.264,6.804,9.237,-11.574,-14.918,6.302,3.743,10.879,-11.458],[2531.413,923.555,118.934,58.06,163.236,402.797,135.212,67.944,-8.783,55.818,174.407,71.614,-18.389,-5.5,9.918,42.463,10.393,-6.244,-1.437,-26.172,9.81,-2.126,-3.244,-7.259,16.36,-39.257,-11.776,6.104,-6.907,2.507],[4253.665,1492.464,821.953,253.762,185.701,846.519,341.717,47.125,100.339,38.765,427.025,141.697,2.2,39.234,10.806,79.631,13.621,-3.637,4.113,-16.169,39.171,-4.133,-6.743,-2.93,-7.514,24.173,1.261,-11.613,-19.396,-4.346],[4990.766,3537.93,1633.455,521.032,677.245,1076.133,612.514,40.543,82.088,50.382,567.624,289.808,54.036,56.813,0.214,79.231,54.931,-27.666,3.371,-22.028,47.105,16.665,-0.534,8.519,8.393,1.172,2.615,6.049,-21.221,-20.568],[6592.868,5125.127,1883.511,711.374,538.794,1273.156,1098.129,304.646,165.807,138.254,641.294,493.751,148.178,96.45,59.812,111.025,70.178,28.043,34.91,-3.34,42.955,23.82,25.874,9.851,-11.593,9.041,-3.833,-2.243,-19.118,-27.209],[7675.305,6739.532,3419.593,1989.127,716.553,1338.809,1298.575,721.725,122.627,238.016,731.202,590.197,315.171,68.067,50.517,97.516,129.561,61.268,13.659,10.961,40.826,43.556,11.647,10.198,-6.507,5.495,7.048,-7.547,-13.67,-1.523]]
}