{
"KTrans": [[0.166,-0.13,-0.329,-0.257,-0.083,-1.536,-1.028,-0.161,-0.62,-0.453,-2.29,-1.635,-1.146,-0.993,-1.25,-16.426,-9.416,-7.284,-6.234,-6.156,-29.297,-18.494,-14.218,-13.494,-10.484,-57.006,-34.634,-26.323,-24.121,-22.753],[-0.759,0.009,-0.068,-0.149,0.216,-1.159,-0.259,-0.398,-0.184,-0.254,-3.318,-1.109,-0.865,-0.685,-0.387,-18.271,-8.457,-5.624,-4.176,-3.281,-35.192,-16.694,-10.54,-8.616,-7.022,-61.595,-31.607,-22.181,-17.14,-14.46],[0.724,0.428,-0.021,0.434,0.114,-0.643,-0.398,0.139,-0.059,-0.11,-3.534,-1.183,-0.753,-0.333,-0.346,-20.112,-8.726,-5.709,-3.717,-3.252,-41.336,-16.917,-10.813,-7.831,-6.467,-69.756,-32.948,-21.853,-15.742,-13.438],[-1.091,0.766,0.686,0.526,0.371,-1.708,0.433,0.248,0.073,0.013,-4.841,-0.667,-0.258,-0.3,-0.355,-24.815,-8.671,-5.278,-3.868,-3.017,-46.038,-17.703,-11.521,-8.169,-6.437,-79.93,-34.202,-22.005,-16.417,-13.548],[-3.864,2.575,1.646,0.742,0.4,-4.164,1.215,0.64,0.466,0.125,-7.314,-0.236,-0.361,-0.206,-0.265,-27.645,-8.761,-5.158,-3.643,-3.172,-53.254,-19.12,-12.142,-8.574,-6.334,-89.112,-37.814,-22.643,-17.284,-13.273],[-6.364,3.208,1.518,1.053,0.58,-10.551,2.591,0.54,0.31,0.511,-11.837,0.317,0.64,0.168,0.073,-36.769,-8.568,-4.742,-3.333,-3.003,-60.564,-18.511,-12.326,-8.497,-6.46,-89.758,-41.128,-24.93,-16.852,-13.139]],
"ve": [[0.036,0.114,0.058,0.503,0.147,-0.624,-0.261,0.071,0.281,0.506,-1.183,-0.177,0.426,0.407,1.306,-5.964,-0.454,1.971,4.173,7.276,-10.328,0.187,5.874,12.508,13.995,-18.508,5.747,18.948,36.975,62.573],[-0.359,-0.086,-0.196,-0.06,-0.189,-1.199,-0.333,-0.199,-0.128,-0.062,-1.795,-0.618,-0.425,-0.364,-0.172,-9.29,-3.571,-1.969,-1.136,-0.615,-19.224,-7.206,-3.772,-2.262,-1.217,-36.476,-14.388,-7.929,-4.294,-2.034],[-0.295,-0.056,-0.146,-0.027,-0.14,-1.136,-0.27,-0.312,-0.24,-0.151,-2.225,-0.815,-0.604,-0.379,-0.281,-11.08,-4.42,-2.561,-1.652,-1.249,-23.083,-8.594,-5.064,-3.275,-2.396,-44.932,-17.083,-10.16,-6.427,-4.835],[-0.974,0.125,0.09,-0.024,-0.045,-1.877,-0.265,-0.09,-0.166,-0.191,-3.331,-0.724,-0.421,-0.408,-0.356,-14.182,-4.777,-2.687,-1.897,-1.423,-27.177,-9.619,-5.543,-3.859,-2.76,-57.352,-18.404,-11.045,-7.67,-5.788],[-2.054,0.656,0.212,0.063,-0.03,-3.216,0.02,-0.136,-0.119,-0.149,-4.72,-0.78,-0.518,-0.275,-0.311,-16.365,-4.857,-2.942,-1.994,-1.593,-32.976,-10.356,-6.16,-4.246,-3.072,-74.38,-21.448,-11.799,-8.549,-6.151],[-4.183,0.582,0.26,0.128,0.043,-6.496,0.222,-0.098,-0.133,-0.034,-7.301,-0.676,-0.257,-0.329,-0.223,-21.162,-5.328,-3.015,-2.005,-1.587,-39.751,-10.722,-6.737,-4.457,-3.224,-80.075,-24.043,-13.38,-8.618,-6.437]],
"kep": [[0.159,-0.208,-0.334,-0.67,-0.114,-0.907,-0.733,-0.177,-0.83,-0.843,-1.107,-1.426,-1.505,-1.317,-2.402,-11.142,-8.971,-9.019,-9.849,-12.304,-21.327,-18.58,-18.801,-22.765,-20.99,-47.753,-37.652,-37.167,-42.774,-49.051],[-0.426,0.093,0.13,-0.087,0.408,0.021,0.076,-0.2,-0.054,-0.188,-1.558,-0.495,-0.44,-0.32,-0.213,-9.971,-5.082,-3.734,-3.076,-2.681,-20.115,-10.279,-7.054,-6.511,-5.879,-41.311,-20.346,-15.573,-13.463,-12.706],[0.982,0.481,0.125,0.461,0.255,0.453,-0.128,0.452,0.182,0.041,-1.39,-0.373,-0.15,0.047,-0.065,-10.312,-4.522,-3.237,-2.102,-2.03,-24.143,-9.187,-6.076,-4.726,-4.179,-47.934,-19.45,-13.115,-10.014,-9.071],[-0.175,0.635,0.595,0.551,0.415,-0.015,0.691,0.339,0.239,0.205,-1.647,0.042,0.163,0.109,0.001,-12.702,-4.104,-2.669,-2.012,-1.619,-26.711,-9.014,-6.352,-4.498,-3.788,-59.662,-19.651,-12.424,-9.529,-8.273],[-2.081,1.891,1.43,0.678,0.43,-1.202,1.182,0.774,0.586,0.274,-3.017,0.537,0.156,0.067,0.046,-13.956,-4.142,-2.289,-1.685,-1.607,-31.772,-9.867,-6.404,-4.535,-3.375,-76.766,-21.233,-12.442,-9.609,-7.625],[-2.8,2.595,1.251,0.922,0.537,-4.945,2.35,0.636,0.442,0.544,-5.356,0.967,0.895,0.497,0.295,-20.656,-3.459,-1.787,-1.36,-1.442,-36.881,-8.84,-6.037,-4.246,-3.353,-83.633,-23.017,-13.46,-9.065,-7.2]],
"vp": [[-3.55,12.921,24.697,3.096,20.124,13.244,18.593,5.368,17.191,9.428,13.648,12.873,10.838,12.252,12.106,14.871,13.166,12.554,12.131,12.819,13.511,13.109,12.465,12.922,10.828,14.998,13.187,11.739,12.23,12.341],[42.728,16.689,36.821,20.12,5.335,22.685,10.762,8.664,12.607,11.72,19.638,13.491,14.48,14.581,10.1,18.828,15.505,14.459,13.484,12.206,19.458,15.914,13.89,13.693,13.004,18.769,15.875,14.876,13.956,13.589],[39.824,5.998,28.191,-26.242,25.914,22.058,11.604,12.77,12.891,15.185,21.979,17.569,16.575,13.399,13.284,22.276,17.698,16.096,14.147,14.337,23.157,17.461,15.88,14.513,14.239,22.748,17.541,16.145,14.588,14.78],[108.784,-21.931,-24.712,-8.136,-0.707,35.514,11.767,3.41,8.941,11.784,33.512,12.309,13.785,13.699,17.638,28.195,19.214,16.587,16.231,15.139,27.19,19.22,17.303,16.067,14.812,28.998,18.577,16.987,16.054,15.888],[220.9,-126.79,-93.767,-51.636,-13.872,59.259,-2.942,4.755,5.817,12.002,46.542,14.598,13.107,9.128,13.98,32.946,19.248,17.197,15.921,16.09,33.141,20.816,18.671,17.245,15.695,37.095,21.466,17.943,17.561,16.177],[412.827,-155.474,-75.36,-78.883,-20.867,128.471,-11.642,7.393,10.086,0.694,72.988,13.404,5.746,11.102,8.37,42.687,20.787,17.666,15.77,15.999,39.886,21.246,20.45,17.913,16.283,39.885,24.148,20.198,17.46,16.514]]
}