{
"KTrans": [[8.337,2.238,1.772,2.871,1.658,-3.162,-0.436,4.706,-0.605,-1.716,1.272,2.478,-1.1,1.226,1.177,36.424,18.061,13.897,11.449,9.036,94.717,37.629,39.89,32.298,18.471,88.734,101.952,95.357,89.816,44.567],[-39.341,-2.131,2.903,1.511,-0.389,-41.187,2.141,2.979,0.331,1.335,-27.627,2.131,1.388,2.318,0.141,-16.004,4.935,11.524,4.365,2.44,23.738,40.777,25.52,17.152,13.936,1.13,92.034,46.531,23.961,33.418],[-74.707,-5.159,3.177,-0.331,1.218,-73.848,-0.32,5.031,0.113,0.923,-77.524,1.899,1.398,-0.802,0.564,-67.209,4.899,10.865,5.759,5.709,-45.563,36.67,14.885,16.762,3.055,-49.99,6.53,81.046,30.462,23.824],[-88.792,-18.136,4.469,4.862,0.628,-88.76,-19.129,3.602,0.908,0.945,-84.272,-15.439,3.734,6.452,2.678,-74.173,-9.234,13.577,7.04,4.341,-57.682,-6.223,27.872,10.354,11.241,-41.629,28.059,24.235,42.956,25.717],[-90.411,-29.992,0.128,5.226,-1.12,-90.98,-39.505,5.383,1.862,0.9,-87.624,-33.723,0.215,1.906,1.46,-81.603,-31.842,15.211,11.765,9.783,-72.45,-29.561,21.208,28.217,8.96,-68.534,-12.049,17.49,38.297,25.678],[-94.102,-62.417,-16.631,4.443,4.13,-95.593,-52.874,8.401,7.194,0.847,-94.023,-54.295,-5.081,6.13,8.623,-87.27,-43.285,-1.094,18.372,9.164,-79.197,-27.224,13.342,34.839,17.86,-65.448,-36.047,19.439,47.282,35.942]],
"ve": [[1.692,1.899,4.012,10.815,6.6,0.973,-0.268,2.565,6.367,50.232,2.654,3.707,7.323,8.235,11.37,-8.974,1.262,1.178,11.776,0.558,21.266,0.548,-10.958,-34.197,-27.821,30.449,3.807,-0.206,-11.221,-49.008],[-21.831,-2.915,-0.876,-1.366,-1.102,-27.146,-2.111,-1.379,-0.926,-0.723,-22.04,-1.154,-2.165,-1.295,-0.566,-10.118,-2.112,1.262,-0.487,-0.773,7.451,7.869,10.386,4.867,3.164,4.901,21.473,11.637,-4.044,0.12],[-63.499,-6.352,-1.423,-2.228,-1.863,-55.715,-5.232,-0.896,-1.4,-1.855,-53.345,-5.967,-2.589,-2.71,-1.645,-64.54,-1.04,1.44,0.377,-0.779,-54.601,14.813,-7.946,3.903,-1.617,-24.217,14.639,31.926,-0.801,26.57],[-59.062,-16.256,-3.362,-0.709,-1.888,-64.223,-17.33,-2.584,-2.424,-2.065,-70.567,-14.829,-2.003,-0.086,-1.527,-67.554,-11.968,0.192,0.043,-1.152,-48.712,-14.531,8.485,-0.534,2.261,0.273,7.826,6.199,9.112,5.943],[-77.968,-29.988,-6.005,-0.856,-3.763,-95.672,-35.457,-4.204,-2.139,-2.467,-80.1,-23.497,-5.502,-2.14,-2.399,-66.891,-27.778,-0.889,0.189,0.579,-317.577,-29.697,-2.312,0.097,-2.458,-85.175,-11.31,6.482,5.772,2.526],[-87.376,-46.877,-13.292,-2.451,-2.699,-81.286,-144.496,-6.732,-1.872,-3.3,-83.39,-46.994,-8.256,-2.606,-0.855,-73.398,-46.649,-7.72,1.671,1.088,-60.758,-31.757,-8.951,2.169,3.217,-27.082,-43.687,-3.289,4.045,10.244]],
"kep": [[5.732,2.975,1.716,2.933,4.424,-6.983,2.159,6.072,-0.421,-3.815,-2.861,2.63,-2.22,0.991,2.783,15.45,12.135,10.841,13.063,13.66,44.204,9.133,29.809,29.182,12.951,83.072,75.774,75.135,92.386,23.319],[-32.509,-0.017,3.492,2.99,0.847,-34.215,3.889,4.104,1.27,2.198,-20.896,2.161,3.385,3.632,0.838,-27.746,2.203,8.558,3.779,2.804,-13.225,28.247,11.288,10.32,9.672,-9.18,44.131,18.556,9.349,16.89],[-61.222,-1.1,4.23,1.834,3.077,-66.828,1.881,5.294,1.241,2.755,-66.016,6.804,3.498,1.777,2.171,-64.321,4.354,7.868,4.513,5.931,-53.563,6.719,15.27,10.313,1.108,-49.666,-12.046,26.829,11.331,6.511],[-85.351,-9.232,7.25,5.16,2.423,-83.826,-7.548,5.351,3.247,2.919,-77.875,-4.99,4.663,6.362,4.149,-73.129,-8.509,10.726,6.016,4.688,-65.307,-13.706,17.656,7.871,6.747,-64.069,-9.89,9.648,28.107,13.546],[-88.038,-15.759,4.316,5.321,2.555,-88.937,-26.077,8.562,3.54,3.291,-85.098,-17.079,4.017,3.401,3.687,-79.072,-23.392,14.347,10.951,8.767,-72.368,-29.38,14.882,27.189,9.865,-74.997,-32.491,-6.761,19.446,18.848],[-92.681,-49.326,-7.511,5.601,6.699,-92.589,-48.876,12.512,8.476,3.988,-90.321,-42.949,1.134,8.174,9.112,-82.623,-35.474,6.334,15.279,7.227,-78.129,-46.005,5.776,31.916,13.509,-74.754,-48.18,-1.292,31.336,18.941]],
"vp": [[49.342,100.534,25.435,-21.01,45.573,67.669,103.085,-11.933,52.716,73.393,9.499,3.187,19.487,-1.719,4.843,-11.464,-8.337,-17.935,-12.179,-7.164,-25.948,-12.721,-26.7,-19.162,-10.117,-19.864,-19.625,-29.369,-34.481,-9.678],[2793.573,674.538,129.804,346.504,411.712,580.516,100.941,50.531,89.047,42.894,232.643,30.022,47.412,8.821,38.562,19.692,10.779,-14.636,0.85,10.474,-10.462,-16.685,-35.266,-24.526,-19.471,-2.599,-22.36,-22.26,-6.495,-26.203],[6141.109,1256.894,372.21,763.011,538.883,1157.653,211.76,27.657,124.529,148.209,572.184,108.158,69.292,76.375,65.281,129.028,5.041,-15.404,-9.011,-6.125,41.942,-36.581,20.117,-20.531,11.666,11.341,-14.345,-54.414,-14.98,-15.794],[7594.829,3238.635,1043.634,85.312,715.064,1454.446,714.738,117.107,192.668,161.081,743.425,307.158,64.799,-1.803,41.796,136.676,54.775,-3.942,-4.023,3.478,48.9,33.577,-30.259,3.602,-17.108,-1.964,-6.977,-11.906,-21.759,-13.741],[7789.242,6316.03,1816.014,249.925,1669.735,1638.705,1470.572,267.484,142.421,177.507,816.589,670.056,159.311,65.1,99.487,127.428,113.995,1.1,-7.401,-12.039,33.805,60.487,8.225,-0.83,10.794,40.772,11.101,-12.085,-8.79,-4.975],[8450.224,9454.078,3844.492,784.973,1084.611,1648.817,2216.848,422.003,134.174,265.903,862.056,965.919,236.916,89.876,14.472,142.63,168.253,41.228,-18.929,-18.063,60.141,59.437,27.491,-10.712,-21.783,12.069,27.085,6.853,-8.284,-30.314]]
}