{
"KTrans": [[-4.294,25.073,27.777,19.689,23.826,24.085,60.176,43.391,36.092,24.711,50.237,67.113,44.257,44.364,30.75,143.976,144.336,134.082,116.506,127.888,331.025,299.124,232.06,205.06,188.033,878.284,779.711,530.407,465.85,463.756],[-87.093,60.285,60.686,46.811,32.601,-83.397,90.152,58.029,61.726,52.974,-79.461,72.736,79.849,56.289,48.484,-59.587,148.369,117.173,96.171,77.852,-33.78,274.74,200.973,166.443,127.581,3.062,491.494,402.776,296.209,215.782],[-95.674,5.256,97.335,90.201,58.435,-113.443,-29.013,97.51,86.883,58.34,-117.893,6.294,140.368,89.973,81.326,-78.534,39.965,200.329,133.634,88.739,-121.799,73.401,222.828,159.347,128.332,-167.736,205.508,479.528,314.721,234.132],[-107.319,-97.657,91.492,138.515,90.986,-112.165,-98.465,46.166,142.603,107.201,-114.842,-82.531,58.855,102.027,80.428,-103.432,-110.703,148.111,199.619,127.834,-98.948,-65.296,215.261,235.113,162.074,-144.417,-154.304,413.544,442.275,330.865],[-103.724,-135.424,18.024,149.367,160.826,-105.429,-125.213,-1.773,120.784,175.934,-111.63,-131.958,-50.994,167.913,141.48,-122.141,-165.048,-23.816,150.776,181.708,-120.379,-138.036,-14.347,207.607,229.248,-186.683,-101.055,-26.539,376.265,356.012],[-107.026,-148.364,-143.997,41.266,188.829,-108.621,-131.058,-103.228,80.343,165.821,-113.279,-124.849,-128.703,30.127,180.818,-109.38,-161.692,-122.238,62.8,249.513,-120.947,-158.36,-154.72,108.586,290.933,-131.83,-265.094,-187.752,187.182,378.205]],
"ve": [[-6.455,15.369,-2148.716,-37.269,-91.231,16.886,7.721,35.398,-114.981,-134.504,30.697,23.266,-39.651,3.108,-18.007,137.676,17.31,0.462,-0.808,-14.552,104.872,39.786,13.304,-5.512,-15.919,182.579,84.604,39.17,11.635,-6.08],[11.553,4.638,0.715,5.081,3.555,22.272,5.961,3.264,3.828,3.716,36.415,8.159,6.813,3.716,3.734,52.253,26.283,17.96,10.888,5.932,92.943,56.443,32.849,21.422,14.344,201.806,103.221,64.261,44.185,28.926],[5.312,8.909,4.823,4.899,1.525,4.24,7.8,4.437,5.757,2.851,23.449,11.953,5.158,4.854,5.718,58.891,24.104,22.386,14.94,10.914,171.336,56.001,34.976,24.462,18.607,200.948,108.37,69.116,50.646,36.386],[-28.241,-10.178,2.606,4.017,3.19,15.727,8.469,-202.341,5.124,3.511,16.113,1.712,6.101,6.533,3.052,48.588,21.451,21.968,16.806,12.436,102.987,48.726,36.948,25.839,19.889,203.973,74.638,69.808,54.685,43.03],[2.13,8.713,4.32,3.968,3.325,10.565,3.49,8.887,2.826,5.802,11.07,7.694,7.992,9.075,4.218,76.121,25.649,17.509,12.285,12.908,108.673,54.541,39.681,28.385,21.67,206.231,-5197.56,69.225,47.331,41.935],[-0.796,6.565,-17.12,6.828,6.752,15.305,2.613,8.849,7.106,10.203,10.476,0.726,5.269,4.761,3.185,56.778,34.048,21.316,12.619,13.145,100.946,45.501,37.055,30.386,22.227,209.146,195.708,68.798,51.556,40.779]],
"kep": [[-21.456,17.217,26.687,19.82,32.413,1.181,53.679,42.749,49.691,28.701,21.768,54.352,48.539,56.405,40.542,52.111,110.23,139.045,135.34,187.17,111.268,184.583,194.998,222.023,246.877,223.472,373.668,358.308,407.18,497.512],[-93.289,44.113,54.185,38.341,27.404,-91.218,68.863,47.593,52.863,46.135,-84.995,51.655,62.573,47.842,42.199,-78.374,83.767,77.506,72.647,63.602,-69.575,135.101,119.33,114.067,94.242,-65.867,187.139,199.161,167.791,138.743],[-97.55,-5.032,78.328,74.58,49.878,-112.271,-38.422,78.329,70.988,46.868,-116.987,-10.004,114.336,72.053,65.582,-87.086,5.888,136.033,94.543,64.859,-110.495,7.148,127.511,99.958,84.313,-122.632,44.501,233.013,166.708,136.653],[-106.29,-96.656,74.159,114.166,76.58,-111.242,-100.312,31.617,116.655,88.629,-112.236,-85.047,39.617,78.741,64.917,-101.992,-108.709,96.609,144.645,92.985,-99.239,-77.779,121.482,150.332,106.419,-113.349,-126.471,191.746,238.798,193.21],[-102.621,-131.164,4.147,125.934,138.425,-104.707,-118.899,-12.056,98.558,147.574,-109.864,-125.823,-59.679,133.465,116.675,-113.786,-146.524,-38.244,106.673,132.768,-108.588,-121.788,-38.631,126.096,153.129,-126.671,-98.109,-58.62,201.598,205.17],[-105.877,-141.428,-141.567,23.25,158.265,-107.228,-126.358,-102.303,58.324,138.342,-109.67,-119.665,-124.814,16.291,149.121,-104.93,-144.467,-114.715,34.544,189.636,-109.972,-133.871,-135.718,53.655,198.826,-109.088,-175.81,-145.652,80.452,220.32]],
"vp": [[0.001,0.001,0.001,0.001,0.001,0.005,0.005,0.005,0.005,0.005,0.01,0.01,0.01,0.01,0.01,0.05,0.05,0.05,0.05,0.05,0.1,0.1,0.1,0.1,0.1,0.2,0.2,0.2,0.2,0.2],[0.001,0.001,0.001,0.001,0.001,0.005,0.005,0.005,0.005,0.005,0.01,0.01,0.01,0.01,0.01,0.05,0.05,0.05,0.05,0.05,0.1,0.1,0.1,0.1,0.1,0.2,0.2,0.2,0.2,0.2],[0.001,0.001,0.001,0.001,0.001,0.005,0.005,0.005,0.005,0.005,0.01,0.01,0.01,0.01,0.01,0.05,0.05,0.05,0.05,0.05,0.1,0.1,0.1,0.1,0.1,0.2,0.2,0.2,0.2,0.2],[0.001,0.001,0.001,0.001,0.001,0.005,0.005,0.005,0.005,0.005,0.01,0.01,0.01,0.01,0.01,0.05,0.05,0.05,0.05,0.05,0.1,0.1,0.1,0.1,0.1,0.2,0.2,0.2,0.2,0.2],[0.001,0.001,0.001,0.001,0.001,0.005,0.005,0.005,0.005,0.005,0.01,0.01,0.01,0.01,0.01,0.05,0.05,0.05,0.05,0.05,0.1,0.1,0.1,0.1,0.1,0.2,0.2,0.2,0.2,0.2],[0.001,0.001,0.001,0.001,0.001,0.005,0.005,0.005,0.005,0.005,0.01,0.01,0.01,0.01,0.01,0.05,0.05,0.05,0.05,0.05,0.1,0.1,0.1,0.1,0.1,0.2,0.2,0.2,0.2,0.2]]
}