{
"KTrans": [[1.52,-0.162,1.524,1.04,1.431,-1.311,1.013,2.795,1.138,2.253,1.514,2.261,4.242,-0.247,1.717,14.75,15.313,7.982,9.469,8.454,19.946,34.202,24.538,24.241,23.685,-58.387,66.159,57.624,45.001,53.968],[-9.016,-1.625,-0.483,0.623,1.135,-12.439,-0.153,0.546,0.717,0.704,-5.699,-2.079,0.04,2.158,1.152,-1.553,4.322,2.005,4.795,1.228,-2.963,11.668,6.889,4.293,8.701,69.569,-36.394,42.646,28.584,15.955],[-44.339,-5.413,-3.043,-0.887,-0.223,-30.449,-5.329,-2.43,-0.795,0.33,-41.729,-4.692,-2.702,-0.06,0.419,-39.73,-6.323,-2.376,-1.188,-0.105,-12.067,9.161,2.079,3.267,2.954,-37.556,-8.675,10.081,8.646,12.224],[-68.416,-9.015,-7.087,-2.554,-1.388,-62.664,-8.829,-6.83,-3.233,-1.611,-67.278,-11.515,-7.048,-3.363,-1.607,-58.997,0.749,-1.608,1.005,0.321,-49.844,-5.862,0.821,-0.8,-0.427,-61.863,4.413,5.317,7.348,4.154],[-79.914,-11.998,-8.472,-5.703,-2.993,-74.005,-10.667,-9.559,-5.876,-2.813,-80.576,-14.829,-9.76,-5.341,-2.978,-76.67,-22.264,-8.459,-3.179,-1.98,-55.239,-22.915,9.789,-1.903,-2.043,-59.142,12.515,-2.264,-0.983,0.665],[-84.728,-31.767,-6.758,-5.824,-5.037,-86.032,-30.181,-6.36,-6.078,-5.435,-86.481,-19.695,-9.135,-7.604,-3.84,-84.34,-44.142,2.374,-5.719,-7.188,-82.137,-31.051,3.297,-3.679,1.107,-67.672,-27.781,-5.523,4.648,0.732]],
"ve": [[1.227,0.839,0.61,2.773,2.133,0.149,0.216,0.847,2.776,2.363,0.471,1.028,1.081,5.012,3.782,4.789,25.674,-6.385,-2.698,-36.173,10.144,-14.711,-3.918,-23.477,-29.896,27.545,9.511,-20.561,-31.549,-36.678],[-3.714,-0.546,-0.257,0.185,0.453,-6.329,-0.275,0.032,0.239,0.33,-2.656,-1.17,0.272,0.558,0.303,0.461,2.648,0.858,1.764,0.774,3.043,-3.193,3.635,3.628,4.383,103.298,21.739,10.027,2.459,-29.536],[-23.617,-2.825,-0.829,-0.54,-0.106,-14.881,-1.504,-0.692,-0.179,0.179,-24.434,-2.804,-1.315,0.169,0.37,-26.903,-2.165,-0.895,-0.588,-0.294,10.74,1.345,1.104,0.932,1.281,-73.755,14.939,3.124,0.919,20.416],[-43.268,-5.059,-2.747,-0.757,-0.58,-35.414,-5.629,-2.629,-0.95,-0.452,-44.181,-3.869,-2.826,-0.955,-0.72,-38.247,1.703,0.855,0.998,0.288,-12.828,-2.472,-0.41,0.075,-0.631,-25.238,20.509,17.68,1.26,1.939],[-49.682,-8.24,-3.271,-2.172,-1.111,-43.139,-6.59,-3.81,-2.171,-1.026,-58.02,-9.583,-3.393,-1.819,-0.928,-48.294,-12.98,-5.214,-1.099,-0.4,-11.186,-7.275,-0,-0.644,-0.701,2.602,33.888,10.17,-1.915,-0.753],[-52.858,-18.548,-5.053,-2.456,-1.706,-62.2,-17.771,-3.394,-2.582,-1.928,-63.962,-14.627,-3.623,-2.845,-1.301,-52.378,-25.132,0.54,-1.66,-2.967,-35.28,-14.122,2.195,-0.783,1.877,-18.028,603.821,4.613,6.961,2.067]],
"kep": [[-2.252,-3.122,-1.053,-3.271,-2.21,-4.096,-1.375,0.143,-2.769,-0.832,-2.174,-1.017,1.324,-5.667,-1.954,-9.16,2.829,-0.189,4.106,4.05,-29.415,-1.646,-3.937,9.436,19.098,53.879,-21.998,-20.378,-36.216,3.149],[-8.89,-3.459,-2.565,-1.901,-1.649,-10.137,-2.332,-1.857,-1.874,-1.943,-7.111,-3.542,-2.632,-0.796,-1.51,-24.553,-3.506,-2.809,-0.121,-2.461,-22.186,-13.62,-5.117,-4.721,0.901,-24.866,-7.472,-2.229,-0.424,-7.303],[-32.51,-5.293,-4.572,-2.683,-2.445,-24.824,-6.343,-4.107,-2.965,-2.19,-36.027,-4.81,-3.898,-2.602,-2.301,-47.874,-10.965,-5.553,-4.025,-2.909,-40.948,-7.824,-8.372,-4.382,-3.301,-49.232,-20.378,-25.171,-13.258,-6.578],[-62.362,-7.62,-6.796,-4.131,-3.139,-58.021,-7.356,-6.666,-4.63,-3.483,-62.403,-11.301,-6.878,-4.777,-3.244,-60.694,-7.379,-5.672,-3.069,-2.885,-59.88,-25.874,-8.277,-6.796,-4.902,-66.218,-31.282,-6.77,-14.703,-9.754],[-73.549,-10.002,-8.081,-5.893,-4.203,-70.515,-10.145,-8.656,-6.106,-4.13,-76.927,-10.605,-9.218,-5.975,-4.377,-75.913,-32.574,-7.226,-5.364,-4.439,-65.257,-37.554,0.156,-6.454,-5.873,-72.313,-31.957,-26.733,-27.353,-13.248],[-78.163,-24.294,-5.159,-5.841,-5.674,-81.752,-24.51,-6.467,-6.083,-5.899,-82.364,-17.202,-8.91,-7.277,-4.916,-79.923,-51.09,-2.43,-7.254,-7.308,-78.173,-44.254,-18.725,-8.317,-4.75,-74.791,-50.773,-26.383,-6.832,-11.873]],
"vp": [[-59.796,-2.376,-108.891,-27.234,-48.39,11.429,3.861,-28.604,8.013,-24.168,-0.61,-9.958,-27.038,13.978,-6.742,-4.881,-17.317,-7.117,-11.61,-8.33,-8.973,-17.036,-10.397,-15.49,-18.074,-16.256,-19.547,-17.071,-11.676,-17.776],[363.373,58.489,84.12,-18.646,-128.531,121.505,13.647,-2.197,-5.695,-2.27,33.44,25.317,-1.012,-33.662,-8.54,0.818,-8.951,0.53,-14.941,5.292,-0.421,-2.884,-1.114,3.038,-12.89,-56.326,-21.391,-29.197,-19.849,-5.343],[2727.237,572.053,282.132,203.549,95.222,304.452,59.299,43.864,17.584,-10.498,258.898,62.216,40.235,-9.422,-11.843,56.343,12.285,7.857,10.021,8.21,-9.332,0.329,0.848,-0.329,-1.218,14.383,-13.457,-2.198,1.413,-5.849],[4511.001,995.82,831.708,218.403,249.431,727.676,225.15,143.661,60.156,38.575,428.313,69.844,79.689,38.213,36.363,81.15,-7.476,-5.764,-8.93,0.219,12.642,6.881,4.781,1.449,7.325,15.658,-19.932,-27.736,-0.533,3.114],[5341.128,1713.689,939.974,848.778,502.622,987.392,267.212,238.326,180.5,89.958,590.632,203.079,95.344,70.885,42.543,102.382,55.278,35.567,10.534,5.472,11.977,18.85,4.423,4.916,5.542,-0.445,-23.564,-3.991,6.861,8.833],[5288.207,3810.922,1592.983,977.971,845.743,1273.45,748.961,219.326,201.712,194.334,654.542,309.109,108.912,110.841,66.325,111.733,107.404,-2.39,15.224,32.329,47.487,30.648,-4.926,4.53,-9.525,10.254,-3.25,-3.454,-14.148,-2.133]]
}