{
"KTrans": [[0.639,0.317,0.357,0.279,0.404,-0.271,-0.467,0.42,-0.521,-0.16,-2.32,-1.345,-1.402,-1.553,-0.708,1.629,-9.238,0.036,-2.057,0.166,39.074,12.242,-2.274,3.9,8.711,22.739,47.697,41.929,36.86,22.33],[7.159,1.74,1.026,0.691,0.627,3.321,1.002,0.419,0.442,0.434,0.564,-0.125,-0.091,0.652,-0.42,6.506,-9.535,-0.289,0.185,-1.639,35.333,10.364,-3.884,-1.701,-1.667,19.485,43.083,3.143,6.55,-1.246],[50.755,5.609,2.257,1.422,1.026,40.527,4.2,2.01,0.89,0.541,36.256,4.248,-0.164,0.666,0.878,46.168,-8.872,-2.919,-1.995,1.628,38.557,-4.509,-17.607,-1.824,-9.858,-69.412,-5.85,7.391,-1.235,-4.071],[6.363,11.585,5.259,2.794,1.723,58.089,12.572,4.233,2.069,1.622,4.981,11.951,3.626,2.145,1.421,-23.423,-5.668,-0.817,-6.851,-1.239,-11.567,52.99,-0.058,-5.356,-1.543,-61.264,77.347,13.24,-14.319,0.837],[-41.422,34.209,9.822,4.26,2.597,-28.236,34.624,8.668,4.066,2.405,-46.245,31.347,8.039,3.658,2.339,-37.816,56.935,-0.751,0.682,1.131,-18.892,52.074,0.852,-5.301,-3.519,241.538,73.529,47.099,-7.495,-8.722],[-67.619,75.357,16.471,6.233,4.414,-68.071,51.624,12.114,6.291,3.58,-66.509,58.692,14.081,4.415,3.627,-40.683,35.841,15.313,2.408,-1.441,63.243,23.935,12.414,-8.768,-4.084,-94.889,30.166,165.889,7.928,-7.16]],
"ve": [[-0.527,-0.505,-0.564,-0.636,-0.797,-0.803,-0.522,-0.487,-0.014,-0.175,-1.666,-0.411,0.275,0.995,1.152,-32.478,23.025,26.233,285.346,44.026,-134.973,43.77,-15.498,-8.334,-55.264,2.602,8.705,-35.111,-53.032,-46.198],[1.383,-0.216,-0.377,-0.433,-0.465,-1.008,-0.603,-0.607,-0.51,-0.486,-2.332,-1.159,-0.793,-0.375,-0.653,154.885,-6.729,-0.561,-0.116,-0.377,-43.551,2.764,-1.254,0.861,1.716,-28.934,6.904,11.267,-19.17,-24.294],[14.294,0.959,-0.044,-0.324,-0.378,10.333,0.438,-0.177,-0.563,-0.571,5.886,0.324,-1.375,-0.612,-0.379,-17.299,-7.644,-2.727,-1.817,0.202,-51.201,-14.364,-12.87,-1.701,-5.169,-102.14,-34.826,-1.999,-13.024,2.677],[-34.158,3.258,0.823,0.037,-0.215,-28.922,2.923,0.514,-0.142,-0.298,-41.206,2.533,-0.1,-0.148,-0.24,-32.886,-7.651,-2.14,-4.993,-1.533,-52.445,-17.251,-1.486,-4.141,-1.725,-30.777,-27.119,-1.397,-15.544,-0.375],[-51.912,9.924,2.388,0.55,0.05,-47.341,9.498,2.552,0.417,-0.08,-62.421,8.473,1.68,0.347,-0.085,-47.873,-13.73,-2.988,-0.97,-0.355,-81.467,-29.05,-2.852,-5.485,-3.168,-121.914,-37.562,-44.761,-12.045,-7.384],[-63.941,20.474,4.691,1.327,0.654,-73.6,13.783,2.855,0.934,0.294,-67.093,14.587,4.227,0.708,0.36,-83.252,-15.819,5.531,-0.715,-2.348,-97.821,-6.701,-22.582,-8.22,-4.019,-107.441,-50.969,-35.463,-8.351,-2.92]],
"kep": [[1.167,0.825,0.928,0.923,1.215,0.38,0.026,0.934,-0.41,0.157,-1.375,-1.048,-1.511,-2.145,-1.172,-17.018,-16.993,-5.463,-9.1,-5.836,-15.368,-15.915,-31.104,-14.968,-11.346,41.805,-21.626,-17.816,-27.645,-47.205],[5.578,1.958,1.408,1.129,1.097,3.913,1.573,1.016,0.949,0.92,1.874,0.859,0.639,0.992,0.211,-54.149,-8.377,-1.547,-0.662,-1.79,-39.706,-7.923,-10.211,-5.88,-4.528,-15.095,-15.091,-26.195,-11.736,-15.493],[25.992,4.57,2.299,1.751,1.41,19.882,3.652,2.171,1.452,1.113,17.446,3.697,1.132,1.249,1.242,-41.893,-7.913,-2.274,-1.182,0.882,-52.914,-35.02,-15.237,-4.384,-7.778,-31.524,-35.417,-23.78,-15.897,-13.139],[-41.46,7.685,4.382,2.754,1.942,-42.556,8.863,3.649,2.202,1.919,-61.854,8.415,3.598,2.255,1.643,-53.128,-8.375,-0.672,-3.09,-0.442,-56.966,-58.988,-7.62,-6.052,-2.818,-56.342,-35.462,-32.091,-25.354,-8.462],[-71.807,19.743,7.14,3.676,2.542,-65.513,20.065,5.786,3.606,2.474,-81.96,17.795,6.017,3.233,2.389,-63.355,-34.525,-0.526,0.565,0.806,-72.629,-62.819,-13.23,-4.924,-3.209,-88.391,-57.994,-85.404,-25.464,-14.424],[-82.207,34.427,10.717,4.779,3.724,-91.204,22.496,8.31,5.208,3.251,-85.354,25.105,8.76,3.519,3.215,-80.588,-42.427,6.758,2.032,0.187,-89.267,-31.442,-45.208,-7.564,-3.067,-73.03,-63.358,-85.759,-35.362,-17.365]],
"vp": [[25.716,27.706,29.254,25.732,28.595,12.171,16.452,0.954,24.251,12.636,17.677,16.434,19.527,21.978,14.694,10.471,25.039,4.798,9.938,4.415,-5.979,2.362,16.652,4.489,0.502,-5.469,-0.279,-3.224,-0.284,6.443],[-163.585,-17.319,19.77,36.195,49.155,18.497,14.404,21.02,17.678,16.459,22.18,19.646,17.47,0.724,24.642,38.139,30.54,3.751,2.027,10.72,46.668,-8.587,14.541,8.951,8.115,12.645,-15.468,13.037,3.045,11.575],[-1437.862,-240.833,-80.455,24.731,37.514,-211.579,-29.017,-6.462,26.17,31.441,-58.759,-11.336,37.044,14.486,3.163,34.811,31.505,16.147,14.284,-6.127,51.542,25.963,44.722,8.158,33.927,38.378,38.94,3.736,11.831,15.139],[3431.664,-715.356,-313.989,-111.884,-38.972,581.095,-122.476,-47.485,-13.375,4.03,412.889,-53.52,-1.78,-5.372,-4.538,63.096,31.512,11.596,41.591,13.926,50.302,36.998,3.632,17,8.652,14.43,27.671,0.451,33.174,4.79],[5160.552,-1997.976,-773.669,-331.821,-175.714,946.785,-379.391,-176.508,-54.247,-19.555,635.018,-171.061,-56.891,-25.806,-9.751,94.87,54.21,17.215,5.339,-0.208,74.633,57.328,4.911,22.749,15.64,59.865,37.142,69.303,23.025,22.628],[6455.921,-4120.681,-1460.263,-659.411,-469.989,1499.338,-566.733,-185.253,-89.225,-57.926,713.853,-299.195,-136.304,-43.778,-32.975,169.891,61.877,-36.284,3.673,22.02,97.162,9.448,65.569,33.948,20.022,53.069,52.648,53.473,15.366,22.136]]
}