{
"KTrans": [[1.509,4.142,2.231,3.89,3.65,3.976,-0.257,2.012,2.577,3.869,3.727,3.274,1.75,4.666,2.371,33.939,8.976,16.042,11.256,6.314,-85.223,25.245,33.935,19.609,27.881,-117.619,-8.249,40.824,23.224,37.26],[-10.336,-1.926,0.606,0.995,1.803,-15.349,-3.067,-0.148,1.169,2.527,-3.243,-1.959,0.673,2.122,3.166,-16.643,8.518,6.546,5.127,2.349,37.411,4.691,22.713,8.85,8.667,17.062,-84.412,25.078,21.256,30.796],[-46.767,-11.776,-4.72,-1.534,0.107,-42.239,-6.555,-6.717,-2.136,1.11,-42.222,-7.037,-4.616,-1.71,0.362,-28.317,4.94,2.729,2.297,0.968,-35.536,-20.937,7.69,4.68,1.9,-32.947,-4.918,-45.653,28.679,20.172],[-67.749,-7.966,-8.984,-5.07,-3.265,-68.146,-13.781,-8.917,-4.247,-2.545,-68.369,-15.226,-6.866,-5.428,-2.47,-61.245,-7.921,-7.093,-4.308,-1.383,-39.454,-6.266,-6.095,8.378,10.782,-50.387,-27.495,-20.867,3.199,15.406],[-82.604,-19.227,-12.667,-9.747,-4.686,-75.342,-19.073,-10.717,-9.361,-5.294,-79.651,-15.609,-12.267,-8.899,-5.979,-70.34,-25.736,-4.351,-3.342,-3.033,-60.099,-16.178,3.438,0.176,0.055,-54.503,-23.676,1.59,-34.723,-1.989],[-81.765,-53.196,-16.743,-12.959,-8.689,-83.292,-50.386,-14.826,-14.184,-8.617,-84.432,-44.74,-7.722,-13.851,-8.284,-84.997,-30.177,-8.233,-13.315,-10.286,-83.072,-40.717,2.331,-1.407,-5.398,-61.403,-25.903,-24.348,-14.611,-19.887]],
"ve": [[0.902,1.31,2.157,2.36,2.717,1.468,2.213,2.527,3.395,5.787,2.407,2.052,3.197,2.214,9.804,16.601,-15.09,-18.394,-15.824,-3.584,26.32,-0.263,-13.675,10.947,-29.013,45.67,7.154,-16.229,-14.076,-35.464],[-6.047,-1.517,0.109,0.32,0.788,-7.419,-0.952,0.13,0.426,0.936,0.32,-0.208,-0.108,1.005,0.955,4.775,10.733,3.366,2.78,2.539,52.746,12.13,7.184,-3.229,21.878,28.523,35.267,21.67,7.234,24.951],[-27.445,-4.884,-1.63,-0.504,0.129,-22.614,-2.74,-2.303,-0.968,0.078,-19.9,-4.357,-1.966,-0.715,-0.15,8.524,9.325,2.939,1.862,0.376,224.823,16.507,6.6,5.549,1.967,5.722,16.34,16.027,18.067,6.568],[-37.147,-4.558,-3.451,-1.827,-1.127,-35.721,-4.925,-3.192,-1.485,-0.788,-42.668,-6.825,-3.128,-1.851,-0.944,-31.927,-1.172,-4.202,-1.236,-0.804,10.833,9.968,6.951,9.25,7.246,44.567,8.714,9.6,16.173,7.718],[-59.509,-12.145,-6.074,-4.081,-1.776,-37.268,-10.625,-4.442,-3.337,-1.851,-55.325,-11.457,-4.118,-3.073,-2.326,-28.63,-9.098,-3.277,0.125,-0.164,-0.283,16.442,3.283,3.72,0.488,36.997,16.476,16.863,7.429,-1.404],[-46.847,-33.342,-7.781,-5.219,-3.358,-48.594,-32.127,-5.984,-5.323,-2.99,-58.329,-26.424,-4.11,-5.22,-3.14,-39.98,-3.736,7.392,-7.561,-4.334,-31.411,-11.908,2.164,-12.155,-1.111,260.887,15.045,7.18,7.126,2.904]],
"kep": [[-3.688,-1.181,-3.231,-1.809,-2.082,-2.03,-6.078,-4.032,-3.818,-2.806,-4.037,-2.563,-4.31,0.031,-5.015,-8.771,-13.635,1.677,-3.703,-12.087,15.159,-37.478,-6.344,-27.815,-9.019,43.544,90.562,5.683,-53.547,-44.741],[-10.392,-4.633,-3.659,-3.466,-3.121,-14.284,-6.399,-4.424,-3.393,-2.568,-9.972,-6.067,-3.526,-3.092,-2.01,-25.345,-6.871,-3.211,-3.099,-4.714,-19.042,-30.906,-1.818,-8.321,-4.839,-16.998,-1.354,-17.842,-29.263,-4.502],[-41.052,-11.467,-7.185,-5.125,-4.137,-39.83,-8.394,-8.555,-5.294,-3.134,-43.159,-7.995,-6.95,-5.172,-3.681,-48.633,-12.721,-6.724,-4.986,-4.555,-48.803,-26.095,-15.224,-8.731,-7.904,-52.525,-20.867,-11.201,-14.644,-8.392],[-65.485,-9.349,-9.832,-7.339,-6.202,-65.492,-14.309,-10.089,-6.869,-5.843,-69.73,-15.549,-8.217,-7.703,-5.669,-60.216,-27.66,-10.255,-8.854,-5.673,-57.846,-26.493,-17.415,-7.214,-2.947,-62.762,-40.745,-10.521,-23.886,-15.627],[-79.55,-17.482,-11.562,-9.907,-6.984,-73.126,-17.59,-10.94,-10.174,-7.53,-75.631,-15.585,-12.91,-10.15,-7.852,-73.677,-43.261,-9.764,-8.728,-7.722,-69.666,-40.817,-15.724,-13.713,-8.35,-73.908,-44.849,-22.727,-6.52,-30.283],[-78.806,-51.326,-15.081,-12.224,-9.438,-80.361,-51.633,-15.31,-13.408,-9.768,-79.438,-46.886,-9.881,-13.338,-9.333,-82.35,-42.74,-17.157,-13.081,-11.501,-78.101,-52.524,-21.486,-16.8,-13.393,-76.944,-50.279,-36.755,-16.727,-26.312]],
"vp": [[-38.135,-225.17,-35.123,-201.522,-145.011,-15.951,16.844,-30.199,-23.94,-39.921,-6.753,-13.145,8.843,-27.71,2.068,-33.621,4.333,-21.202,-9.593,0.666,-25.976,-16.068,-21.726,-4.52,-16.827,-23.515,-25.425,-23.496,-25.333,-25.402],[655.657,243.172,-11.239,-73.484,-168.267,159.47,46.187,3.02,-11.077,-69.16,-3.523,9.876,8.358,-28.993,-44.94,-5.099,-22.116,-13.722,-10.818,6.123,-57.701,-14.392,-32.998,-3.69,-7.476,-12.459,-35.726,-33.218,-11.137,-24.322],[2695.543,994.783,560.303,186.25,-2.235,476.381,112.689,160.108,77.382,-26.388,206.531,105.582,59.584,41.077,5.834,-0.121,-41.955,-15.181,-13.707,3.034,5.895,-31.62,-11.172,-0.135,9.435,1.356,-25.587,-23.008,-39.655,-19.81],[3765.629,900.703,901.643,648.564,581.637,775.964,197.585,190.762,112.113,80.586,455.49,144.614,104.351,70.813,52.278,69.07,9.784,33.435,15.267,12.863,-8.706,-19.169,-18.146,-30.336,-39.796,7.447,-3.564,-10.486,-30.949,-19.491],[6136.74,2567.897,1788.313,1509.476,853.652,736.255,450.945,280.7,276.229,178.528,532.1,243.28,112.172,116.804,117.062,64.53,40.051,26.976,-1.95,1.308,3.37,-6.576,-3.887,-17.364,2.269,-16.264,-13.735,-26.149,-5.128,2.048],[4628.295,7085.091,2400.66,2035.241,1783.811,1042.227,1347.773,324.366,409.002,279.727,590.32,542.106,120.152,200.755,151.158,89.307,28.355,24.754,69.889,49.892,40.494,23.139,-2.582,-1.178,10.499,-22.034,-19.264,-12.828,-11.439,-1.624]]
}