{
"KTrans": [[-57.253,-70.765,-75.716,-73.578,-68.109,-31.111,-64.769,-54.134,-56.895,-61.537,-18.381,-61.813,-49.075,-62.671,-52.469,67.478,7.564,8.866,9.098,8.786,128.669,45.451,27.445,45.827,32.149,255.712,121.232,67.257,106.258,85.545],[-54.817,-42.684,-52.213,-58.228,-60.465,-54.164,-40.832,-42.79,-56.68,-50.17,-47.17,-29.095,-20.505,-45.868,-44.452,-27.592,-0.798,23.077,-4.663,-8.201,-16.067,14.911,34.918,15.459,-4.726,10.769,36.003,75.98,22.821,6.159],[-71.38,-53.49,-49.319,-48.037,-41.882,-66.82,-48.175,-53.502,-34.116,-41.607,-64.633,-48.348,-33.757,-26.472,-31.224,-59.441,-17.66,-9.079,1.12,13.067,-46.889,-13.617,0.943,8.877,26.923,-30.335,-1.421,9.749,21.886,48.15],[-77,-55.24,-44.21,-50.802,-40.302,-75.906,-50.629,-42.594,-39.774,-36.423,-74.107,-45.557,-39.335,-31.856,-32,-70.55,-32.202,-12.276,-7.751,-4.317,-63.161,-26.76,-4.369,-0.533,1.925,-52.016,-19.915,5.784,1.436,5.675],[-83.19,-59.438,-46.953,-52.921,-39.425,-81.08,-54.542,-45.432,-45.51,-46.423,-81.326,-53.554,-36.168,-45.341,-42.294,-77.192,-43.815,-20.014,-10.65,-7.293,-70.507,-39.51,-12.99,0.634,-0.457,-59.732,-36.034,-0.833,3.533,5.781],[-85.897,-62.161,-50.23,-43.615,-53.204,-86.775,-65.591,-45.718,-50.884,-46.209,-84.837,-61.316,-44.04,-40.785,-47.779,-80.031,-52.869,-25.363,-16.13,-13.664,-76.255,-52.468,-14.561,-3.923,1.399,-69.047,-51.011,-16.322,-0.12,-0.331]],
"ve": [[-58.446,48.687,-177.632,-57.324,277.13,-50.774,-47.351,404.785,-31.244,-24.905,-7.842,-48.919,-16.272,23.795,-18.576,69.521,7.108,-27.787,95.14,-86.518,132.272,-0.808,1505.841,-151.666,-37.962,249.918,54.346,12.898,82.784,-641.329],[-94.941,-92.706,-52.12,-34.399,-11.669,-47.427,-30.367,-44.637,-44.815,-25.691,-34.254,-32.912,-21.987,-53.277,-15.556,29.472,12.733,19.764,1.821,-3.353,66.585,32.833,34.542,-1.26,18.475,110.04,57.044,75.642,18.002,20.249],[-25.684,-94.39,-75.984,-60.43,-41.259,-65.234,-85.261,-86.454,-45.775,-42.415,-21.144,-90.194,-53.849,-28.858,-30.435,11.742,-15.715,-6.403,-2.848,18.062,60.153,1.542,3.538,25.037,28.641,148.313,17.478,7.764,31.237,47.177],[8.017,-85.044,-91.356,-85.677,-52.981,1.457,-76.595,-85.574,-65.418,-48.299,12.822,-59.817,-74.899,-52.66,-46.872,51.976,-21.553,-14.716,-12.182,-6.183,71.816,-3.023,-3.001,1.296,-1.07,163.723,10.823,4.205,4.238,3.609],[1.607,-71.391,-99.068,-116.028,-67.62,1.324,-64.314,-98.055,-96.91,-84.023,8.527,-52.162,-68.145,-102.723,-78.773,44.026,-22.515,-23.658,-17.877,-13.571,107.788,-9.381,-7.955,-0.419,-0.249,186.932,8.735,0.651,2.86,3.449],[-14.383,-47.432,-126.415,-103.105,-117.695,16.78,-82.219,-104.699,-140.077,-101.294,28.437,-69.88,-110.98,-108.653,-107.631,119.647,-19.598,-35.845,-39.649,-34.869,86.769,-15.429,-6.965,-1.507,-2.581,180.913,10.362,-5.236,-1.185,0.95]],
"kep": [[-125.247,-37.687,11.823,-7.142,13.014,-129.417,-11.401,5.15,-20.57,-9.955,-124.331,-33.159,-20.86,2.71,-36.312,-136.163,-24.413,-26.628,-23.835,-15.894,-128.144,-44.879,-8.919,-31.416,-0.781,-120.462,-51.81,13.231,-21.914,3.253],[-73.295,-53.929,-139.48,-9.898,-12.583,-73.584,-49.019,-119.524,-30.998,0.24,-70.255,-55.672,-135.06,-40.218,-0.158,-70.883,-57.255,-132.459,-25.183,-6.025,-73.744,-54.197,-112.111,-45.321,-6.845,-64.897,-49.775,-109.339,-44.271,-12.776],[-84.459,-28.69,-18.932,-33.425,-137.857,-84.925,-29.708,-18.274,-52.312,-121.444,-78.747,-30.535,-16.113,-42.912,-131.782,-83.166,-26.813,-20.905,-46.876,-127.439,-79.822,-24.669,-13.34,-40.34,-137.493,-83.32,-25.15,-3.105,-43.753,-115.614],[-95.916,-39.942,-10.106,-7.525,-22.448,-89.932,-35.623,-9.887,-10.839,-11.868,-92.199,-37.051,-14.33,-7.468,-9.476,-92.678,-32.792,-8.617,-11.353,-6.631,-90.846,-35.925,-9.352,-6.968,-3.266,-89.542,-33.51,-0.56,-10.156,-11.421],[-94.846,-46.847,-17.773,-3.704,-5.11,-94.626,-46.669,-18.412,-6.415,-2.736,-95.583,-46.086,-16.989,-3.121,3.477,-92.985,-45.669,-15.332,-4.728,-2.994,-94.891,-42.14,-12.84,0.068,-3.646,-91.455,-45.691,-3.764,-2.215,0.54],[-98.74,-53.542,-19.197,-8.761,-2.414,-100.247,-53.815,-18.919,0.477,-1.993,-98.661,-52.92,-15.18,-2.447,0.179,-99.24,-49.944,-16.286,-3.301,1.169,-97.866,-49.901,-12.131,-3.678,1.981,-94.386,-56.889,-16.234,0.342,-3.791]],
"vp": [[-88.12,-289.113,302.537,-44.142,-29.034,4.337,52.01,50.871,25.086,14.092,19.457,-39.999,11.319,-3.97,1.167,-5.611,0.346,0.914,-6.812,0.413,-1.621,0.068,1.816,-1.967,-2.466,0.202,0.828,2.487,-1.655,0.865],[2369.49,1057.327,13.239,49.813,-271.23,441.134,116.088,-52.788,-100.435,-1.979,169.793,91.56,11.119,-8.918,9.02,39.921,11.874,-0.378,-0.842,0.196,18.899,2.038,-2.443,-8.711,-2.338,8.66,2.616,0.73,-0.103,-0.069],[4574.762,1501.674,837.798,254.898,115.69,865.539,203.265,57.235,116.958,-23.009,414.824,138.852,44.349,65.023,-10.291,92.211,16.954,10.501,11.63,-1.818,39.241,13.458,4.089,3.658,-0.536,20.774,3.851,-1.62,2.794,-0.984],[6022.05,3049.737,760.691,435.283,858.488,1113.124,640.16,170.94,184.185,121.354,559.341,299.441,130.452,55.843,6.134,117.374,57.404,20.727,2.225,-1.538,56.656,24.218,4.386,5.487,1.08,24.194,12.094,-3.765,2.662,0.975],[6761.777,4697.889,2161.836,371.503,1005.236,1374.632,939.22,389.649,111.826,43.639,646.402,511.921,205.173,13.946,-8.802,129.502,91.211,35.152,18.864,-1.118,60.77,40.522,15.499,4.271,5.286,29.001,21.492,1.187,-1.054,-6.505],[7730.439,6796.561,2031.152,990.335,220.675,1590.843,1264.289,539.692,96.74,111.871,706.027,618.167,193.179,60.247,20.24,142.925,113.027,50.43,10.869,-4.565,75.395,58.072,24.676,7.406,-5.71,34.14,32.688,13.847,3.982,1.153]]
}