{
"KTrans": [[12.548,35.335,28.311,25.552,22.673,9.733,16.008,32.707,31.678,24.599,22.286,40.504,46.752,27.803,25.373,20.442,46.69,53.924,47.573,51.762,102.132,105.929,78.194,69.196,73.451,194.775,160.713,120.456,127.713,138.583],[-50.242,-9.069,0.197,10.308,8.16,-55.564,2.817,2.158,15.833,13.954,-62.35,-1.015,8.181,14.379,18.106,-32.189,1.83,13.322,21.096,18.692,-15.63,9.652,31.497,25.458,25.154,-17.102,28.348,57.087,52.155,53.515],[-80.885,-29.147,-11.282,-5.547,1.096,-74.329,-30.36,-10.6,-5.573,-0.107,-71.313,-34.118,-18.144,-5.045,5.149,-66.36,-17.094,-3.67,-2.745,11.441,-64.807,-21.31,-1.136,5.823,17.993,-50.089,5.31,12.421,8.903,19.342],[-82.669,-51.4,-35.285,-22.646,-7.184,-82.658,-53.689,-30.437,-16.505,-9.87,-86.639,-58.125,-34.541,-20.159,-10.87,-78.855,-44.543,-31.901,-16.813,-2.299,-72.926,-34.441,-20.574,-8.725,-9.182,-75.041,-49.859,-0.182,4.943,10.011],[-89.545,-65.545,-40.954,-31.534,-20.241,-87.968,-66.495,-43.931,-33.98,-22.018,-89.121,-63.394,-41.494,-32.607,-22.229,-79.295,-59.901,-40.211,-25.003,-17.316,-74.79,-52.701,-42.209,-27.716,-14.007,-82.134,-49.132,-30.877,-19.879,-13.074],[-89.09,-69.347,-57.776,-40,-31.124,-90.145,-72.705,-58.336,-42.315,-33.265,-90.425,-71.797,-57.247,-40.321,-30.092,-86.091,-69.72,-50.949,-41.416,-29.279,-84.769,-65.798,-52.943,-36.713,-29.105,-81.245,-74.914,-39.407,-29.91,-16.18]],
"ve": [[193.116,-12.585,-96.947,2078.148,-4.709,56.161,-446.333,864.432,-32.878,1153.218,-64.472,79.452,210.835,91.697,-94.023,-21.166,-0.79,12.091,58.532,-9.222,249.215,67.121,99.495,-27.725,-38.492,148.958,59.133,47.245,8.346,-54.038],[-53.168,1.311,-0.643,17.108,21.904,-13.764,11.166,9.543,9.781,18.374,159.935,15.505,9.655,12.172,14.7,-1419.773,19.24,14.309,21.856,30.858,10.715,92.199,21.613,-133.425,37.562,91.361,68.503,-2025.186,13.56,1.682],[-1.161,-63.755,-3.088,-0.475,3.209,-96.971,-4.425,-0.653,0.684,3.697,-79.362,-22.638,-4.721,0.685,3.795,49.974,-4.522,6.531,3.106,7.1,15.474,8.932,10.318,11.807,14.421,85.112,41.261,17.13,-28.681,-12.35],[-71.662,-4.444,-9.725,-6.475,-3.264,-43.021,-15.892,-8.292,-4.261,-3.473,-46.738,-33.809,-11.278,-5.71,-3.052,-57.726,-9.652,-3.367,-1.629,3.071,10.737,-4.329,6.468,4.388,2.324,134.105,119.93,27.516,22.818,15.361],[-87.085,-31.855,-13.919,-10.918,-6.38,-125.995,-16.711,-169.478,-8.421,-8.344,-30.546,-199.988,-12.416,-8.276,-6.414,-6.841,-15.499,-10.087,-5.337,-3.213,43.567,-2.219,-0.305,3.521,1.228,78.989,27.67,9.716,7.331,18.283],[41.359,-20.127,-11.976,-14.006,-10.868,-5.388,-26.189,-17.636,-15.035,-11.197,-48.531,-30.298,-21.681,-14.086,-10.052,157.617,-7.269,-14.245,-9.877,-5.796,8.71,-5.469,-10.727,-3.882,-1.798,43.422,25.677,8.521,13.013,10.154]],
"kep": [[-45.988,-32.47,-42.45,-56.953,-75.354,-48.71,-49.983,-41.679,-49.048,-68.274,-45.359,-29.168,-26.56,-51.708,-70.617,-58.922,-38.182,-31.803,-43.005,-33.575,-38.026,-18.766,-27,-40.618,-27.605,-32.997,-30.167,-39.066,-20.641,0.886],[-72.535,-46.668,-41.601,-38.931,-41.974,-75.844,-41.313,-39.02,-34.484,-38.893,-84.28,-42.115,-38.837,-36.066,-34.842,-73.81,-46.215,-38.596,-35.281,-38.693,-69.266,-51.215,-35.439,-38.508,-38.755,-69.094,-58.75,-38.496,-35.917,-34.131],[-90.328,-55.481,-45.152,-42.63,-40.898,-87.547,-57.028,-45.847,-43.23,-41.557,-85.833,-56.971,-48.276,-42.777,-38.995,-83.814,-53.112,-46.335,-43.474,-37.176,-86.709,-62.606,-48.354,-43.434,-37.4,-82.284,-65.108,-54.625,-52.452,-42.995],[-91.838,-67.035,-56.682,-50.403,-42.441,-91.021,-69.098,-55.086,-47.967,-44.009,-92.418,-71.642,-56.13,-48.947,-44.662,-91.517,-66.994,-58.884,-49.443,-43.14,-88.122,-67.465,-57.974,-48.827,-47.405,-87.424,-76.526,-58.498,-50.702,-44.123],[-96.459,-76.323,-59.32,-54.315,-49.133,-94.548,-76.312,-62.343,-57.289,-49.277,-95.79,-73.791,-60.552,-56.292,-50.215,-91.412,-75.99,-61.315,-53.16,-49.329,-90.014,-78.049,-66.552,-58.817,-49.892,-92.316,-80.525,-69.429,-60.739,-55.326],[-94.911,-76.955,-69.056,-58.609,-54.184,-95.389,-78.708,-69.74,-59.564,-55.247,-94.645,-79.681,-68.389,-58.752,-53.555,-94.511,-82.366,-67.664,-61.715,-55.419,-93.342,-82.028,-71.306,-62.007,-57.633,-90.993,-89.354,-73.516,-66.098,-55.892]],
"vp": [[115.832,-285.521,-831.979,-419.811,-433.82,-8.867,6.529,-167.084,-264.664,-218.086,47.796,-113.468,-210.268,-31.751,-72.122,19.13,3.638,-33.096,-27.923,-33.444,-30.922,-47.604,-12.905,-13.325,-7.892,-41.046,-25.688,-27.987,-20.504,-23.348],[3022.184,305.439,-50.354,-1546.804,-550.564,764.925,-86.732,134.659,-263.636,-139.321,429.718,19.625,-126.691,-147.17,-151.239,41.788,34.259,-18.469,-31.084,-11.698,-0.701,8.171,-27.141,-11.819,13.745,-22.299,3.679,-31.809,-27.217,-18.932],[6156.952,2660.252,705.978,1402.743,-100.456,1192.765,515.312,109.14,161.735,22.833,533.047,419.221,227.504,87.397,-91.215,77.556,22.605,15.568,31.846,-40.532,36.618,23.449,-0.784,1.11,-32.798,-12.624,-23.009,-1.662,22.773,11.643],[6300.983,5641.566,4378.551,3080.804,932.971,1157.534,1213.923,753.118,324.153,360.465,738.276,585.83,550.778,350.613,213.946,128.184,83.267,83.682,59.714,-9.645,48.495,9.8,17.073,20.318,45.434,5.389,6.035,-18.364,-26.809,2.858],[7184.205,7315.457,5183.391,5184.585,3731.492,1269.236,1532.358,1161.748,1008.828,817.424,653.023,727.609,580.264,456.473,403.848,92.642,135.191,127.609,56.781,65.32,17.119,50.205,67.31,38.354,24.531,1.263,6.034,22.351,19.822,26.019],[6167.923,8983.136,9008.907,7654.681,5669.838,1357.244,1839.327,1908.583,1423.318,1374.688,818.224,1033.988,958.463,691.759,664.032,132.615,182.852,165.495,149.99,101.477,61.331,80.551,82.55,67.504,52.964,-2.305,15.983,11.446,19.909,7.338]]
}