{
"KTrans": [[2.631,9.059,2.706,5.088,4.66,8.217,17.711,18.832,14.397,11.865,9.311,20.53,22.141,24.766,16.186,61.614,73.065,94.513,92.876,98.518,103.699,75.118,114.685,143.254,151.734,54.785,-198.489,77.979,105.522,141.727],[-28.426,-11.542,2.176,5.463,2.815,-28.302,-6.316,1.677,7.617,6.699,-19.563,-6.253,2.648,13.545,9.175,41.719,31.561,18.597,30.165,39.888,122.506,83.5,25.254,26.988,57.469,130.737,225.67,85.114,-56.314,40.323],[-44.93,-12.155,-6.579,-5.428,0.293,-43.979,-9.09,-0.317,-2.321,0.492,-40.197,-1.371,2.047,-1.594,1.739,10.895,48.127,42.134,27.127,10.51,53.535,128.742,95.859,74.872,27.477,59.385,279.597,204.607,136.896,-26.168],[-52.977,-16.45,-5.655,-3.211,-2.617,-48.481,-12.688,-0.489,-1.57,0.398,-46.06,-3.004,3.736,3.418,1.048,-13.231,31.72,41.557,33.465,30.376,28.05,105.334,100.303,85.453,67.206,145.223,240.721,233.517,168.895,186.496],[-63.256,-16.557,-5.217,-3.182,-2.244,-59.165,-12.145,-1.524,-0.598,0.318,-54.333,-8.74,3.505,2.491,2.967,-29.056,28.823,34.95,31.966,25.37,13.187,88.372,81.971,76.354,62.563,34.32,211.009,193.668,165.161,169.311],[-67.298,-18.745,-6.732,-3.623,-2.063,-65.967,-15.966,-2.664,-0.134,0.786,-62.661,-13.877,-0.312,2.74,3.32,-38.523,22.707,29.695,28.828,27.909,-8.747,80.19,71.731,62.964,63.524,30.093,141.029,182.851,162.381,137.952]],
"ve": [[72.089,33.126,2.632,21.793,-64.202,98.333,22.177,-188.905,-94.463,-73.103,-0.786,-68.382,-21.986,-35.209,55.38,16.088,-46.209,-24.103,30.417,-35.287,130.789,31.566,-13.422,-32.923,-47.154,198.127,85.876,32.276,3.967,-15.64],[-5.741,0.912,-4.664,-26.832,3.578,-3.012,-154.249,-35.145,-1.41,-19.186,-5.751,8.188,12.005,4.883,9.107,31.612,8.373,2.546,13.066,35.771,91.855,15.562,34.958,16.545,12.683,195.761,103.652,65.424,43.629,27.615],[-52.99,-3.947,-5.445,2.383,8.185,-42.331,-0.905,4.141,-5.739,-4.206,0.942,0.239,0.901,7.05,2.258,53.245,24.053,15.994,14.103,13.16,115.897,48.299,43.061,24.202,17.5,206.498,110.41,72.657,49.337,112.28],[-7.774,-2.875,-1.468,-3.299,2.202,-12.761,-0.339,-0.358,-0.637,-16.449,60.376,1.893,2.155,1.011,-1.3,49.749,22.674,16.281,11.687,9.406,69.785,47.517,33.436,25.05,19.208,196.57,97.534,65.013,48.259,27.453],[-6.078,-1.65,-1.211,-0.583,-1.009,0.99,0.805,0.601,0.043,0.293,8.872,2.962,2.867,2.535,1.461,41.518,20.188,16.271,12.338,9.322,88.384,48.176,31.752,25.445,20.72,207.438,93.286,65.221,49.443,40.496],[-18.527,-0.962,-0.22,-1.089,-0.844,8.452,0.997,0.746,0.511,0.828,-2.791,3.605,2.586,2.012,1.688,46.1,23.703,16.996,12.221,10.193,103.053,48.764,32.883,24.694,20.214,195.285,104.623,65.45,49.961,40.516]],
"kep": [[-117.918,-53.072,-9.84,-26.716,-25.389,-130.927,-76.464,-59.897,-26.511,-38.002,-118.263,-72.164,-54.147,-56.646,-35.123,-113.317,-214.133,-193.162,-181.456,-200.369,-113.492,-345.232,-384.933,-380.416,-394.876,-158.284,-641.992,-601.096,-728.189,-786.436],[-62.885,-75.658,-123.835,-56.403,-11.807,-65.18,-59.608,-122.693,-65.9,-35.003,-60.854,-63.719,-126.083,-95.296,-29.887,-32.062,-30.98,-128.209,-155.419,-120.456,-15.593,-9.439,-136.707,-275.336,-192.673,-50.529,59.289,-56.032,-439.097,-369.44],[-68.291,-31.706,-31.996,-65.215,-118.429,-68.626,-27.629,-16.848,-51.681,-134.408,-65.876,-22.991,-18.079,-59.778,-129.087,-44.876,12.025,22.499,-5.755,-126.955,-44.981,50.973,59.649,52.134,-96.816,-62.494,81.601,96.082,68.673,-228.781],[-69.029,-30.237,-12.959,-15.693,-24.118,-67.168,-25.867,-6.897,-14.026,-13.873,-67.835,-18.203,-7.656,-4.07,-15.239,-57.517,-3.398,24.039,28.694,38.846,-53.072,30.709,63.783,75.705,78.148,-34.197,60.703,110.182,102.321,192.205],[-76.618,-27.164,-11.611,-8.654,-8.937,-73.252,-21.827,-8.72,-6.485,-2.395,-73.069,-21.036,-1.246,-2.398,-1.289,-66.597,-4.373,14.969,22.805,22.468,-55.748,18.724,36.947,54.534,55.625,-67.329,46.205,77.599,90.923,129.978],[-79.929,-27.643,-12.303,-8.438,-6.156,-78.81,-27.413,-8.839,-5.098,-3.205,-77.411,-24.209,-6.01,-1.476,1.642,-69.613,-8.185,11.088,16.12,23.406,-65.609,12.688,29.828,34.169,49.293,-65.713,7.675,70.045,82.555,90.197]],
"vp": [[-471.956,32.209,563.896,86.553,17.172,-35.473,-90.031,30.05,34.74,87.121,16.546,19.171,-0.989,12.526,20.637,-12.796,6.974,-8.02,9.928,2.665,-5.626,-0.772,1.501,1.801,3.901,-5.07,2.377,-6.785,0.104,2.544],[2413.656,1239.132,-550.196,53.221,368.839,410.988,179.912,17.462,-177.02,17.359,202.11,108.312,25.175,-68.303,38.192,41.669,12.037,-1.144,-6.953,7.286,23.939,2.296,-4.884,-5.824,-1.438,12.46,-5.336,-5.36,-5.558,-5.277],[4762.545,2417.958,1023.571,564.572,-357.765,852.996,424.894,295.198,238.952,9.706,467.909,219.2,14.118,41.594,24.555,90.974,46.276,24.313,15.778,-2.087,46.884,18.027,2.83,11.242,-4.804,16.372,12.258,-2.899,0.715,-1.393],[6323.321,3851.83,2135.446,1414.537,-273.798,1176.739,886.377,344.373,143.582,134.8,651.366,392.429,211.687,131.004,46.311,114.472,83.347,34.859,7.524,22.897,66.208,38.922,8.916,7.263,3.22,31.744,14.903,9.496,2.027,-6.084],[6757.153,6440.544,3086.944,551.517,353.088,1316.988,1050.728,570.084,245.417,52.351,708.438,558.274,266.678,101.873,92.537,143.88,99.893,58.509,10.736,6.096,71.184,62.826,23.406,9.943,4.703,30.515,20.332,9.564,3.477,11.218],[7723.529,7479.247,4207.964,1412.194,509.136,1461.013,1458.784,1015.815,299.566,86.333,785.09,714.482,475.904,162.445,89.106,141.4,151.865,67.978,34.129,22.181,74.413,85.934,26.982,7.333,17.303,32,37.778,12.082,9.114,-5.38]]
}