{
"KTrans": [[21.59,9.572,13.999,9.883,7.21,4.076,6.843,10.671,13.257,7.727,12.603,9.468,8.587,6.224,14.053,15.81,16.32,24.69,18.161,17.768,37.601,25.255,41.062,33.494,27.518,86.405,72.237,48.819,53.312,59.099],[-36.889,-4.799,0.955,4.087,4.906,-37.934,-6.605,-0.363,5.95,7.036,-33.924,-6.578,-1.107,2.796,4.771,-32.344,-0.499,3.813,7.377,8.916,-25.395,-5.705,8.886,10.614,12.826,-5.211,15.873,22.624,24.589,21.394],[-70.617,-23.887,-7.554,0.214,-0.707,-74.444,-24.877,-6.577,-2.985,-0.176,-70.649,-21.37,-12.626,-2.609,0.264,-63.348,-23.205,-7.919,-0.084,2.605,-57.264,-23.242,-0.886,3.351,6.547,-48.822,-11.619,4.554,2.655,7.256],[-81.138,-37.859,-22.975,-13.016,-6.609,-85.889,-40.151,-20.74,-9.364,-5.256,-83.22,-38.905,-20.367,-12.077,-5.214,-80.561,-39.134,-22.685,-10.277,-3.093,-69.564,-39.609,-15.074,-10.845,-2.726,-63.591,-38.005,-19.622,-5.66,0.493],[-91.104,-53.833,-32.748,-20.666,-11.527,-90.311,-50.999,-30.642,-20.725,-13.084,-87.986,-54.642,-34.065,-17.823,-14.016,-87.571,-49.887,-33.264,-22.167,-11.38,-75.104,-56.965,-29.117,-20.93,-6.703,-70.196,-52.604,-31.672,-19.87,-7.345],[-93.558,-66.142,-45.83,-29.167,-19.04,-93.626,-62.462,-43.556,-28.429,-19.138,-91.607,-64.46,-40.774,-28.663,-19.578,-89.662,-64.069,-44.181,-27.509,-19.314,-85.072,-63.457,-46.233,-29.059,-18.656,-86.729,-60.652,-47.736,-23.643,-15.576]],
"ve": [[8.761,0.215,17.298,73.207,12.091,12.63,11.865,18.658,29.309,22.58,8.502,-10.178,37.834,26.905,9.397,15.843,24.638,23.141,54.395,5.971,67.507,4.977,-4.946,92.239,-676.072,42.377,21.247,54.801,-7.903,-9.66],[-12.414,-2.535,1.156,2.238,3.255,-13.886,-2.099,1.991,1.806,4.109,-14.813,-0.892,2.14,3.159,4.077,-0.764,2.557,3.098,5.103,4.725,18.32,5.063,7.982,7.651,8.505,36.996,30.379,17.374,15.012,13.926],[-27.9,-9.151,-2.622,-0.29,-0.031,-37.125,-7.977,-3.108,-0.957,0.59,-31.154,-7.53,-4.844,-0.58,0.238,14.761,-7.739,0.195,0.845,2.086,-9.866,0.152,5.098,3.855,4.698,12.646,-54.395,11.696,7.056,7.015],[-44.836,-16.189,-8.471,-4.37,-2.608,-44.992,-14.524,-7.067,-3.282,-1.813,-48.379,-14.513,-6.971,-3.779,-1.64,-39.788,-9.476,-6.34,-1.759,0.172,-11.366,4.697,-0.703,-0.656,0.965,7.226,3.404,2.896,5.995,5.92],[-41.469,-23.976,-12.789,-6.728,-4.574,-49.497,-24.225,-11.148,-7.153,-4.557,-56.451,-25.052,-13.569,-5.818,-5.155,-79.372,-17.9,-10.589,-6.141,-2.034,-15.08,-19.914,-4.884,-4.818,0.997,8.748,-7.547,-2.003,-2.781,2.496],[-61.091,-33.191,-18.539,-11.432,-6.957,-56.755,-31.126,-18.367,-10.855,-7.281,-75.149,-31.258,-15.838,-10.635,-6.857,-51.637,-26.908,-15.619,-7.75,-5.029,-36.551,-23.65,-16.667,-8.096,-3.581,-22.245,-6.136,-13.06,0.762,1.875]],
"kep": [[-10.99,-17.303,-12.128,-20.683,-31.372,-17.645,-17.214,-17.602,-15.32,-29.702,-12.84,-16.646,-19.227,-28.566,-17.876,-20.937,-18.455,-4.685,-13.939,-13.306,-19.207,-17.625,4.741,0.797,-9.745,-30.471,-7.73,-11.586,1.45,14.065],[-45.75,-20.698,-18.475,-16.692,-16.64,-44.691,-22.781,-20.3,-14.776,-15.821,-44.839,-23.62,-20.945,-18.376,-17.456,-45.334,-21.636,-18.132,-16.621,-14.847,-53.44,-27.863,-18.746,-16.621,-14.966,-62.695,-28.825,-17.916,-13.236,-13.005],[-68.476,-32.786,-23.017,-18.041,-18.933,-71.953,-34.767,-21.753,-20.054,-18.943,-70.748,-31.644,-25.3,-20.066,-18.319,-66.222,-33.373,-25.571,-19.37,-18.036,-74.633,-40.176,-24.103,-19.359,-17.286,-75.667,-43.377,-27.442,-24.031,-19.696],[-78.705,-41.197,-31.905,-25.912,-21.757,-83.577,-44.046,-31.069,-23.735,-21.288,-81.486,-43.547,-30.48,-25.57,-21.381,-81.99,-46.574,-33.062,-25.834,-21.174,-79.17,-50.504,-31.813,-27.375,-21.852,-81.63,-58.308,-39.427,-29.264,-24.047],[-88.59,-52.573,-37.887,-30.921,-24.462,-88.091,-49.28,-36.88,-30.545,-25.797,-85.896,-53.292,-38.743,-29.104,-26.101,-89.099,-53.393,-39.72,-32.689,-26.36,-83.343,-60.052,-40.174,-32.958,-25.016,-86.589,-66.586,-46.572,-35.292,-28.224],[-92.913,-60.789,-46.476,-35.258,-29.122,-91.619,-58.323,-45.031,-34.73,-28.935,-90.238,-60.799,-43.551,-35.442,-29.644,-90.293,-62.058,-47.079,-36.611,-30.796,-89.24,-66.571,-49.247,-37.823,-31.563,-87.925,-73.481,-54.928,-39.911,-33.631]],
"vp": [[-561.361,-259.796,-604.744,-328.2,-244.229,17.237,-14.096,-93.611,-95.338,-39.868,-22.006,5.608,2.039,4.276,-67.667,6.636,-2.081,-18.476,-2.904,-4.172,-0.817,2.106,-17.642,-8.079,-6.425,-6.566,-7.638,2.914,-4.919,-9.676],[1792.874,494.506,-113.845,-274.383,-317.485,364.303,91.64,2.262,-88.94,-142.721,201.603,62.134,20.606,-10.31,-4.268,27.652,1.639,5.218,-7.647,-4.993,11.591,16.509,-4.731,-0.016,-10.083,-1.147,-4.692,-7.021,-8.347,-4.831],[4450.376,1777.968,440.996,-278.252,298.389,950.438,351.588,174.43,52.41,14.222,458.692,172.374,135.048,48.203,19.548,78.265,52.813,13.168,2.795,-4.944,30.03,20.065,-2.244,1.661,-5.319,11.084,4.509,-0.644,6.794,4.586],[5746.32,3567.846,2511.058,1602.517,1094.71,1244.306,673.388,457.823,181.873,131.115,608.554,365.369,220.874,152.373,61.914,118.122,62.724,59.389,30.699,6.396,33.797,30.765,17.114,20.816,10.906,14.963,21.953,14.346,4.71,1.833],[7418.025,5681.829,4084.107,2635.039,1914.982,1430.229,1077.154,706.073,558.349,405.795,643.697,616.332,460.68,202.761,255.22,131.095,100.631,88.924,63.28,38.086,37.379,65.11,30.7,40.515,2.889,11.947,35.173,22.229,26.027,10.648],[7917.907,7891.33,6115.302,4814.607,3303.14,1514.595,1515.705,1231.533,850.476,715.056,722.732,746.61,546.134,448.384,352.465,134.884,147.675,120.328,79.438,65.209,63.014,73.536,75.849,54.505,34.436,32.437,28.237,44.089,13.256,10.214]]
}