{
"KTrans": [[-50.331,-47.523,-48.349,-47.273,-50.865,-21.69,-26.647,-31.4,-32.462,-28.287,-6.357,-20.283,-16.159,-27.479,-18.253,12.768,3.411,23.863,5.465,11.88,36.568,56.192,42.045,41.833,42.015,233.3,83.319,150.58,106.696,135.423],[-37.864,-41.968,-38.526,-50.283,-39.596,-39.283,-27.768,-18.865,-32.423,-31.905,-26.955,-25.136,-8.861,-21.509,-19.261,-8.708,1.688,0.26,-5.192,-6.608,36.201,47.864,16.343,-9.381,-3.589,74.989,33.591,61.779,12.985,29.687],[-44.788,-40.798,-43.483,-51.915,-49.955,-43.178,-30.475,-28.753,-23.57,-21.236,-36.758,-27.521,-18.634,-16.33,-6.451,-21.672,-20.251,-11.098,0.288,-13.07,7.608,13.332,14.105,30.991,-10.49,37.256,84.424,56.939,23.186,2.131],[-52.888,-35.915,-44.167,-43.825,-39.546,-56.003,-36.197,-29.612,-30.345,-23.56,-48.895,-29.447,-17.566,-25.325,-23.101,-46.257,-22.719,-10.531,-5.898,-9.152,-19.591,-6.877,-11.373,3.349,7.199,8.074,48.352,78.399,50.508,55.847],[-66.543,-41.695,-35.816,-33.326,-44.703,-64.897,-31.22,-40.328,-30.62,-32.576,-70.718,-31.078,-26.489,-30.03,-18.802,-53.312,-20.998,-10.684,-17.638,-15.323,-40.08,1.497,-8.819,-6.957,-4.628,-33.026,20.245,60.263,13.518,21.787],[-77.392,-35.337,-37.029,-41.149,-37.328,-74.113,-36.848,-33.009,-21.57,-30.381,-76.143,-35.402,-30.249,-30.29,-29.542,-64.288,-33.394,-11.735,-13.935,-9.869,-68.828,-9.845,-7.944,-16.63,-7.89,-41.526,4.242,55.781,21.174,10.445]],
"ve": [[-46.983,-13.817,-13.239,-15.946,7.157,-18.458,-3.639,-6.807,-1.427,-14.248,-5.506,115.652,3.634,-0.568,23.268,31.493,17.361,55.596,35.039,-224.532,72.453,18.339,-32.477,58.809,-131.456,223.412,42.897,12.509,-130.817,50.603],[-96.262,-63.298,-41.407,-36.519,-23.285,-109.201,-42.272,-19.465,-23.763,-18.98,-66.205,-41.153,-8.532,2.485,-11.048,-41.687,-2.545,2.056,5.219,-1.847,102.192,77.564,5.387,-5.317,18.212,268.443,134.636,28.979,22.503,10.411],[-105.896,-99.223,-70.921,-65.834,-50.322,-104.908,-73.914,-48.519,-29.943,-21.395,-77.743,-62.536,-30.895,-20.635,15.291,-9.987,-54.919,-21.835,-2.346,-11.231,5.836,3.575,12.705,32.306,-4.815,283.133,276.824,120.654,72.315,15.712],[-60.229,-106.763,-99.481,-76.118,-54.896,-78.297,-116.49,-67.305,-51.545,-32.826,-32.915,-96.882,-37.769,-44.787,-32.195,-7.57,-95.24,-21.153,-14.74,-12.568,71.647,-42.077,-17.652,-6.058,7.55,243.771,169.395,127.702,69.499,63.469],[-58.12,-158.705,-99.608,-71.275,-79.797,-50.128,-111.563,-111.767,-64.528,-58.106,-66.901,-104.813,-71.074,-65.53,-33.112,21.125,-84.76,-38.299,-44.6,-26.922,69.389,-22.124,-36.85,-17.672,-10.332,316.86,113.473,80.709,11.271,21.551],[-71.131,-123.029,-117.725,-108.423,-79.563,-43.725,-155.762,-107.914,-50.548,-63.936,-76.798,-144.481,-99.48,-77.349,-62.205,17.357,-167.969,-41.387,-43.837,-22.448,81.45,-74.613,-51.878,-47.088,-20.059,48.376,121.875,127.266,5.688,-2.17]],
"kep": [[-117.274,15.266,2.14,-1.465,-6.219,-114.684,-2.53,3.408,0.069,1.294,-115.352,-5.689,-5.476,2.002,-3.219,-23.705,-18.41,-30.702,-5.316,-11.265,2.785,-81.64,-37.92,-25.094,-23.64,59.591,-119.295,-146.332,-93.254,-107.688],[-6.317,1.756,-114.71,-2.757,2.453,-3.892,-0.755,-126.97,-0.085,-2.827,-6.373,1.903,-105.811,-0.252,-5.467,-21.347,-10.54,-14.151,-18.926,-10.311,-28.947,-36.968,62.033,-36.585,-14.972,-43.601,-6.767,106.51,-86.396,-67.273],[-22.028,-1.393,-2.626,1.253,-125.125,-20.131,-1.802,1.597,-2.019,-130.658,-18.802,-3.912,0.771,-4.309,-121.438,-41.816,-1.872,-0.307,-12,13.049,-36.089,-10.904,-8.29,-27.755,39.937,-57.274,-54.062,-7.81,-2.916,48.977],[-37.783,-4.404,-2.08,-1.125,-0.484,-39.601,-2.203,-0.505,-2.469,-0.161,-38.322,-1.204,-0.951,0.369,-0.54,-63.074,0.351,-0.008,2.512,-4.073,-61.472,-9.696,-10.467,0.313,-1.308,-69.765,-45.995,-17.869,-28.861,-33.496],[-54.861,-4.119,-2.654,-1.656,0.458,-54.397,-5.284,-2.798,-2.844,-0.412,-59.975,-6.571,-2.669,-1.761,-0.614,-68.063,-4.345,0.159,1.689,-1.696,-68.962,-16.24,2.071,-1.407,-2.663,-80.841,-43.72,-11.698,-8.387,-9.37],[-67.991,-9.982,-4.379,-1.89,-1.125,-67.831,-7.34,-2.989,-2.722,-1.993,-69.17,-7.791,-3.018,-1.938,-1.838,-74.416,-9.927,-0.909,0.722,0.45,-83.198,-30.542,2.601,-0.525,0.73,-73.02,-54.098,-30.796,5.362,4.65]],
"vp": [[-82.381,64.059,-16.978,-32.25,-101.991,8.346,-6.829,-3.455,9.466,-0.379,-3.941,11.162,-8.416,4.829,7.065,0.207,1.976,-12.694,7.669,5.579,-4.175,-14.266,-0.181,5.672,3.529,-23.222,7.806,-12.82,1.178,-6.962],[390.378,72.678,91.388,-40.917,39.837,61.846,8.645,-14.422,-24.408,-31.946,29.267,-8.94,1.436,6.059,-20.045,-3.185,6.83,-6.932,-5.124,-5.837,-18.425,-22.141,-16.169,7.631,5.38,-10.158,-2.667,-21.283,9.362,-11.597],[1201.399,207.062,94.906,-76.448,-29.291,238.11,40.004,7.514,26.379,-17.062,108.196,33.976,11.208,11.349,7.284,34.632,-1.275,6.019,-4.488,-7.408,-6.816,-16.531,1.935,-8.692,-4.247,-17.973,-16.682,-11.899,-0.872,-8.625],[2671.601,577.801,173.645,57.97,67.586,513.141,97.863,28.801,30.162,27.343,265.384,33.347,30.698,3.123,2.475,79.69,-7.911,31.062,-13.645,10.149,-9.582,-2.398,23.311,-19.425,0.014,-23.362,-4.56,-11.176,-13.142,-12.351],[3943.856,843.554,377.653,279.864,132.565,770.601,187.865,49.463,99.345,21.413,407.575,119.587,36.047,19.575,17.762,62.524,21.011,-12.326,-4.069,8.728,17.188,10.852,9.644,4.185,6.788,-5.744,-2.669,-17.279,-3.287,-19.972],[4779.586,1743.058,599.658,314.018,308.488,1009.694,238.24,129.059,168.973,38.503,460.655,149.285,29.318,47.956,29.705,77.874,-0.755,15.257,-10.431,1.758,68.323,0.094,6.047,13.415,8.448,1.904,-4.935,-7.942,-18.246,-17.645]]
}