{
"KTrans": [[-1.102,0.489,3.255,-0.475,2.134,9.003,11.366,14.872,12.455,8.56,9.649,28.298,18.947,23.303,21.597,-1.493,62.822,91.046,94.571,93.696,-67.296,54.349,105.644,131.447,146.332,-64.456,-69.615,19.682,109.377,124.65],[-20.536,-6.77,0.244,1.974,1.522,-16.55,-2.903,1.53,5.735,4.125,-4.322,5.804,4.24,10.339,11.134,28.916,35.719,5.584,26.49,36.848,-30.641,9.28,-36.277,10.506,54.664,-166.358,-167.252,8.006,-57.595,20.682],[-35.249,-5.539,-1.909,-1.74,0.911,-26.26,-0.43,0.973,-0.696,1.156,-22.036,2.777,4.791,2.141,2.215,35.227,63.808,47.722,20.219,0.299,20.699,106.767,83.662,52.028,-18.926,-20.559,-24.064,-51.283,70.967,-69.141],[-40.406,-7.294,-0.44,1.057,-1.477,-37.3,-2.467,3.019,1.92,2.103,-29.405,0.48,6.93,7.997,5.411,-9.869,57.865,47.688,38.041,35.295,2.424,89.925,78.373,84.082,85.555,-137.458,115.226,83.087,152.352,-25.243],[-44.525,-9.946,-1.422,-1.51,0.359,-47.388,-5.029,1.165,2.822,1.358,-47.018,-0.958,7.548,6.952,4.288,-23.245,45.87,47.73,31.756,30.864,-27.092,101.571,80.332,84.444,68.839,-76.745,-152.675,70.026,95.261,117.336],[-53.792,-13.031,-3.86,0.435,-1.303,-53.743,-8.484,1.357,1.715,2.381,-51.23,4.275,3.208,4.859,5.878,-36.352,36.838,44.177,29.721,29.033,-65.405,65.733,87.374,71.402,56.579,-46.46,-28.911,76.832,135.991,134.138]],
"ve": [[31.232,37.929,67.456,-10.054,410.479,23.872,-36.869,-35.822,-72.959,-11.984,2785.781,-296.71,-8.038,-82.27,-26.426,51.743,-4.145,314.422,-79.781,-96.478,99.754,29.067,4.883,-33.794,-54.757,201.232,80.609,33.069,2.618,-15.645],[-10.732,-2.939,3.254,14.611,3.025,1.337,-2.278,0.53,-68.373,2.78,-1435.905,-6.319,0.734,19.448,24.148,57.104,23.264,16.297,7.371,21.424,96.149,51.968,32.746,17.848,3.217,204.915,97.456,66.166,42.073,25.598],[-4.803,-1.3,-2.319,-46.117,0.446,1.144,0.861,1.113,0.35,0.797,5.779,3.314,2.035,23.608,-2.295,54.298,23.961,14.489,10.992,9.797,98.712,73.35,31.293,26.899,19.743,136.147,101.537,69.621,101.408,38.482],[-0.931,-0.224,-0.367,-0.102,0.074,0.012,1.197,0.93,0.192,-0.582,8.902,3.479,2.417,2.311,1.549,49.059,24.963,16.507,12.838,9.443,95.243,60.527,28.08,24.215,20.056,202.88,95.646,69.904,53.929,34.374],[-3.897,-0.726,-0.377,-0.098,-0.267,0.424,1.297,1.254,1.056,0.702,5.009,4.492,3.424,2.406,1.541,43.44,23.4,16.372,12.553,9.743,96.174,49.149,31.196,24.811,20.523,195.819,104.983,66.869,52.148,43.117],[-6.179,-0.378,-0.144,-0.123,-0.367,-5.977,1.641,1.253,1.308,0.811,6.931,5.05,2.529,2.403,1.749,71.623,22.938,16.619,11.827,10.155,98.743,46.41,32.101,24.923,19.763,199.039,101.359,65.891,50.343,40.964]],
"kep": [[-125.077,-5.327,-21.402,5.305,-16.653,-124.107,-29.347,-40.687,-33.759,-15.766,-129.449,-67.016,-23.005,-40.924,-37.896,-175.72,-243.857,-187.505,-203.685,-177.585,-165.928,-337.407,-366.935,-384.645,-390.974,-107.587,-340.922,-609.043,-642.279,-740.268],[-46.355,-42.735,-128.973,-19.084,-2.954,-42.01,-42.624,-136.359,-41.242,-14.602,-33.789,-25.632,-126.738,-56.702,-30.274,-37.36,-14.204,-154.061,-186.76,-93.558,-73.967,-61.829,-205.102,-303.325,-185.227,-118.642,-160.71,-74.301,-319.372,-368.793],[-49.828,-12.376,-13.154,-36.724,-126.462,-43.522,-11.234,-6.474,-36.341,-123.764,-44.626,-7.624,-6.303,-26.58,-127.34,-27.517,29.884,36.575,-15.095,-176.071,-50.656,24.7,38.073,27.848,-200.66,-72.931,-73.25,-111.565,-1.607,-214.806],[-54.155,-13.048,-2.897,0.619,-11.227,-52.981,-10.77,-1.523,-0.991,-3.682,-47.801,-9.722,1.098,8.716,6.958,-49.648,20.999,30.349,34.869,47.298,-63.059,12.363,28.515,63.985,104.106,-106.405,-0.613,-2.228,72.019,-107.415],[-57.478,-13.942,-5.364,-3.431,-1.64,-60.023,-11.865,-2.92,1.919,-0.187,-63.358,-10.33,4.082,5.329,2.837,-59.626,10.662,26.04,22.621,30.015,-70.962,16.166,34.034,55.93,55.809,-89.62,-128.633,-19.032,19.817,53.025],[-64.311,-19.553,-6.977,-1.581,-5.072,-65.774,-15.686,-2.28,-0.103,2.22,-66.224,-5.751,-3.444,2.235,4.922,-68.709,0.641,22.067,15.462,22.858,-86.139,-2.096,32.007,40.635,37.412,-80.146,-68.617,-5.308,49.236,73.534]],
"vp": [[-40.305,181.551,15.409,-29.818,317.317,-57.397,-80.483,-8.492,-43.726,13.073,19.692,-1.458,12.928,18.95,-23.124,-0.152,4.404,5.614,11.966,-9.909,0.554,-8.515,5.905,5.577,-7.286,6.491,-6.414,-5.158,-6.836,6.454],[2070.604,596.972,-296.912,308.167,-5.633,471.951,147.423,44.909,-17.636,-58.875,212.281,85.101,-9.555,-12.81,-30.828,23.597,3.846,-9.168,6.163,-6.595,-9.262,-8.78,-3.222,7.166,-3.504,1.521,-7.281,-6.78,6.428,1.767],[4158.196,831.054,407.723,625.605,-201.179,729.947,260.652,11.443,129.277,4.449,414.935,53.856,32.159,49.085,-18.567,75.329,18.129,13.733,15.239,-4.835,12.821,-4.748,-9.739,-5.639,4.858,-12.064,-0.333,-3.409,-21.448,6.344],[5542.021,3200.999,710.155,727.145,658.969,1162.283,528.817,140.57,7.388,67.687,573.492,266.193,55.303,73.701,10.789,95.36,46.505,30.78,11.291,5.522,53.287,18.629,-8.834,-7.125,1.278,15.742,-17.338,-2.217,-6.225,-12.097],[6431.294,3679.239,1676.106,429.128,290.504,1238.165,849.855,392.262,190.678,44.079,632.451,386.439,191.959,28.52,64.574,123.74,79.481,53.525,-7.793,7.293,68.417,55.591,-8.621,-1.949,2.967,8.402,36.313,3.421,-5.14,-0.182],[7055.89,5762.05,2805.138,1336.319,7.698,1298.942,1034.446,416.971,170.598,62.248,682.024,586.015,220.59,127.431,55.12,137.111,121.312,41.542,17.446,10.19,49.219,46.93,33.704,-10.171,-11.534,17.25,21.982,-9.593,-5.584,-8.586]]
}