{
"KTrans": [[-18.121,13.899,8.942,8.594,7.098,-22.182,13.23,10.771,7.978,10.698,-11.004,16.081,16.707,23.011,19.299,31.985,85.531,82.253,63.642,68.773,57.855,61.628,51.172,75.39,101.369,170.593,173.533,35.385,78.696,127.912],[-66.818,-4.126,7.398,10.937,5.364,-67.082,3.469,12.785,10.135,6.7,-60.811,21.527,18.437,7.748,7.381,-43.482,67.589,73.072,46.84,36.957,-9.32,39.17,92.508,85.08,69.232,43.235,88.324,45.308,69.678,86.414],[-75.65,-7.023,5.577,10.527,7.011,-74.012,-11.229,8.636,12.995,7.089,-82.627,-8.644,11.777,13.315,10.365,-66.686,4.253,51.393,43.636,38.536,-28.202,16.94,41.521,67.506,66.632,1.018,38.121,57.245,45.314,75.278],[-90.176,-32.715,7.704,3.625,11.136,-87.576,-28.685,17.08,12.234,13.987,-84.298,-19.123,13.457,11.718,11.726,-84.218,-28.119,60.885,43.997,40.398,-74.382,-15.321,75.837,86.709,75.723,-30.66,23.595,19.891,43.618,71.084],[-93.601,-45.647,-1.58,10.322,6.527,-93.627,-47.745,7.77,8.022,8.729,-89.742,-44.543,1.639,17.308,9.015,-91.207,-39.763,16.504,41.256,36.311,-77.696,-26.139,-14.525,61.649,86.338,-52.223,-22.58,-12.089,4.461,48.107],[-97.934,-60.095,-8.751,11.829,11.238,-97.182,-60.105,-4.873,18.564,8.112,-91.253,-56.258,-2.129,17.131,14.158,-94.522,-46.188,4.612,37.521,38.215,-81.367,-40.281,-8.155,25.859,83.338,-60.585,-19.086,4.153,4.218,-6.116]],
"ve": [[13.714,-20.693,-1.816,107.374,294.319,-52.063,-10.87,161.639,-123.184,64.85,23.283,28.605,-65.951,-8.413,397.984,59.901,235.69,3.91,302.256,-25.616,56.424,40.245,13.613,-46.136,-16.074,190.538,79.149,41.137,13.952,-22.908],[-18.864,3.946,2.084,1.247,1.71,11.42,4.616,2.701,2.213,2.155,11.236,8.331,4.282,2.951,3.507,19.801,26.079,17.525,9.623,6.821,127.755,52.61,42.783,22.204,13.676,203.6,98.741,62.12,40.464,23.316],[-23.702,4.281,3.672,0.569,0.12,163.71,6.817,1.939,3.125,1.184,-74.66,22.205,5.21,2.965,1.142,69.815,30.301,17.939,10.303,7.964,98.471,58.979,34.608,22.951,17.834,203.655,102.256,63.53,47.891,35.806],[3.445,4.198,3.171,1.14,-0.395,21.545,3.713,3.142,0.693,0.402,12.911,-33.377,4.485,1.89,1.921,72.784,29.33,17.724,11.23,9.107,105.898,53.125,18.61,24.851,19.922,208.128,97.06,66.545,46.691,35.876],[-33.651,23.102,4.663,0.279,-0.77,4.161,-8.414,2.957,2.212,0.647,28.418,31.175,4.775,2.056,1.457,60.538,27.469,16.242,12.075,9.523,117.304,53.754,33.867,23.474,19.668,217.413,106.578,66.313,51.884,40.593],[0.91,9.479,0.576,0.214,0.254,9.961,108.496,7.277,0.659,1.037,-15.671,-5.597,4.84,2.377,1.133,51.189,48.561,17.383,11.863,9.321,106.135,50.821,34.458,25.405,20.211,902.805,100.521,67.206,48.752,39.3]],
"kep": [[-36.102,14.922,11.845,13.234,6.237,-43.384,6.396,6.427,8.813,13.33,-35.938,7.493,13.268,34.474,33.151,-16.622,52.679,78.641,74.725,101.986,-9.335,24.575,31.764,70.828,134.346,7.998,63.046,13.078,66.13,132.172],[-74.833,-6.172,8.296,12.646,6.706,-75.852,0.128,12.684,9.429,6.861,-74.185,13.629,15.666,7.294,6.723,-70.062,34.211,48.297,35.799,30.561,-50.791,-5.241,45.418,53.103,49.866,-42.515,5.444,-5.517,21.562,42.752],[-84.369,-10.348,2.842,11.249,7.888,-82.91,-17.506,8.002,10.505,7.022,-88.746,-14.848,7.515,11.589,9.853,-81.422,-21.12,29.024,30.902,28.936,-64.347,-19.578,9.819,35.421,41.428,-60.798,-21.717,2.111,4.237,25.168],[-93.338,-36.216,5.362,3.177,11.969,-92.342,-35.123,13.931,11.938,14.11,-90.323,-26.806,9.41,10.451,9.893,-89.533,-42.632,35.734,30.37,28.732,-86.011,-42.194,31.398,48.841,45.383,-74.054,-31.921,-20.15,3.359,26.385],[-95.945,-50.975,-5.129,10.754,7.682,-96.553,-52.632,5.036,6.063,8.53,-93.914,-52.189,-2.403,15.607,7.789,-94.116,-54.739,-1.502,26.256,24.513,-88.714,-49.2,-32.128,29.172,53.954,-80.433,-56.9,-39.285,-23.834,9.012],[-100.041,-63.676,-10.784,12.177,11.377,-98.98,-65.164,-9.816,18.413,7.437,-94.356,-60.584,-7.787,15.317,13.282,-97.337,-58.56,-11.656,22.045,26.117,-90.112,-59.13,-28.592,0.374,51.238,-85.253,-56.079,-32.317,-23.803,-26.053]],
"vp": [[2096.88,174.057,-103.887,-343.143,481.252,237.605,74.973,-44.801,-122.152,-130.153,186.255,8.188,-43.388,5.128,-2.019,-15.464,-34.398,-9.266,-15.913,-13.944,-5.312,-20.417,-24.375,-16.277,-28.215,-11.029,-43.11,-10.237,-21.496,-34.965],[4682.875,3374.188,580.562,1099.378,1329.07,978.058,327.453,322.707,269.922,99.297,575.737,323.576,72.991,-11.14,21.492,113.651,34.32,14.464,-2.001,2.703,27.569,-3.558,-23.669,-16.64,-14.93,3.698,-29.72,-22.066,-27.922,-31.554],[6809.305,6771.848,3470.752,2757.618,1108.158,1277.537,1266.363,605.635,530.114,108.795,719.654,673.207,93.622,204.119,146.474,132.489,102.195,26.14,11.272,-11.579,22.482,33.122,-11.364,-13.244,-6.863,8.48,-1.965,-14.422,-3.497,4.037],[7020.376,8970.005,7460.885,521.099,2847.763,1562.988,1971.407,1396.163,697.672,267.862,724.385,996.843,548.05,157.496,219.956,135.1,174.525,117.842,26.419,15.777,66.628,81.362,25.253,24.034,12.553,18.611,12.925,4.032,-13.118,-25.467],[7572.835,13616.343,9395.502,4854.156,2923.102,1569.566,2586.078,2026.994,959.696,521.721,706.279,1257.529,998.454,451.635,215.911,140.138,220.827,186.409,30.221,43.286,57.016,76.923,95.116,19.305,8.737,51.302,43.946,-7.397,10.457,-3.427],[9132.573,12515.65,14387.963,9433.758,5140.593,1725.184,2840.987,2396.851,1759.493,676.187,648.543,1295.882,1371.371,873.928,457.017,157.086,222.813,274.879,145.818,81.968,67.785,100.162,104.771,82.338,23.423,25.651,26.133,6.374,20.666,7.413]]
}