{
"KTrans": [[2.532,1.259,0.843,0.556,0.211,12.556,7.617,6.011,5.081,4.811,25.559,15.79,12.42,11.093,9.829,153.161,92.394,76.676,67.035,60.063,-103.633,194.107,154.207,147.648,133.861,137.008,116.459,221.924,271.621,284.87],[4.704,1.161,0.778,0.585,0.424,10.904,6.075,4.315,3.248,2.61,24.489,13.226,8.172,6.526,5.561,59.548,66.923,42.98,38.303,30.464,-30.846,169.601,100.801,80.913,66.246,47.864,-153.803,169.881,174.168,147.087],[8.802,3.644,0.847,0.712,0.487,21.602,7.169,3.981,3.263,2.383,31.218,10.541,7.884,5.897,4.721,-28.821,83.648,42.944,30.331,27.336,-11.567,110.37,113.585,67.704,58.836,-3.299,-1.352,44.592,167.975,132.853],[11.504,2.284,1.789,0.876,0.74,18.427,3.722,4.759,3.329,2.563,38.621,13.264,8.14,5.729,4.883,-50.408,122.902,46.534,29.815,21.476,-59.503,-73.6,105.175,68.421,57.128,-60.935,6.616,-144.605,192.687,130.532],[-4.788,4.091,0.516,1.28,1.602,-16.618,10.734,4.313,3.679,2.555,-29.183,11.086,7.954,5.893,4.857,-86.141,112.083,42.503,32.439,26.62,-45.112,10.693,131.428,71.687,48.201,-32.087,-56.87,-40.147,131.23,140.306],[-48.508,6.374,3.597,1.917,1.683,-69.403,9.046,6.579,4.243,2.154,-63.826,25.557,6.394,7.095,4.432,-74.591,22.286,45.836,35.58,21.625,-61.252,-14.148,120.484,78.342,55.749,-75.021,25.036,-7.51,67.021,160.395]],
"ve": [[0.833,-0.123,-0.737,-1.221,-1.557,4.23,0.396,-1.795,-3.39,-5.04,8.594,1.277,-2.566,-5.622,-7.902,46.27,14.006,-1.265,-11.035,-18.267,98.829,38.397,9.716,-4.537,-17.404,191.383,79.817,37.823,8.005,91.326],[1.306,0.526,0.274,0.091,-0.057,4.958,2.433,1.404,0.765,0.321,10.085,4.88,2.776,1.665,0.812,50.145,23.893,14.43,9.297,5.614,99.882,50.323,30.282,20.262,13.073,202.999,99.825,287.959,44.531,31.46],[1.509,0.841,0.39,0.274,0.164,5.525,2.7,1.679,1.185,0.826,10.252,4.913,3.262,2.283,1.657,52.822,25.164,16.086,11.418,8.667,98.68,50.772,33.195,23.197,17.701,200.392,98.987,64.65,49.194,36.62],[1.361,0.651,0.507,0.338,0.267,5.501,2.359,1.825,1.319,0.992,10.609,5.256,3.445,2.483,1.915,49.597,26.103,16.704,12.124,9.156,107.401,50.232,33.082,24.426,19.211,207.663,100.227,71.048,51.417,39.031],[2.158,0.73,0.366,0.403,0.401,6.86,2.824,1.804,1.413,1.057,11.038,4.881,3.435,2.562,2.033,52.166,25.521,16.504,12.495,9.911,99.322,49.769,33.567,24.817,19.257,204.016,101.818,66.923,50.214,39.642],[0.436,0.885,0.665,0.476,0.411,4.847,2.663,1.975,1.442,1.047,5.687,5.702,3.252,2.704,2.04,51.804,26.805,16.801,12.776,9.712,102.006,49.826,33.199,25.271,20.043,207.726,98.176,67.827,48.308,40.32]],
"kep": [[3.108,2.802,3.017,3.233,3.237,9.49,8.698,9.47,10.307,11.944,17.194,15.949,17.025,19.404,20.975,74.063,70.86,81.665,90.727,99.005,-85.069,118.336,135.188,163.736,187.489,4.442,32.257,131.033,230.104,295.176],[4.708,2.037,1.909,1.9,1.887,6.996,4.998,4.31,3.898,3.713,14.371,9.437,6.72,6.248,6.178,8.684,35.889,26.543,28.258,25.263,-56.544,78.909,55.358,52.197,48.935,-40.012,-106.536,67.64,91.792,89.778],[8.146,4.175,1.856,1.843,1.727,16.086,5.754,3.687,3.481,2.965,19.578,6.746,5.921,4.979,4.455,-48.157,47.093,24.559,18.514,18.761,-50.238,39.171,60.712,37.442,36.519,-60.704,-40.407,-9.853,79.761,71.389],[9.771,2.895,2.664,1.937,1.876,12.318,2.583,4.29,3.402,2.974,24.497,8.901,5.96,4.6,4.348,-63.573,75.732,26.777,17.23,12.776,-75.14,-74.723,54.266,36.377,33.198,-81.385,-39.275,-111.903,92.51,66.109],[-6.679,4.435,1.475,2.262,2.604,-21.074,8.694,3.806,3.637,2.893,-35.318,6.854,5.72,4.659,4.193,-87.082,66.878,23.265,19.055,16.674,-68.934,-22.857,71.686,38.292,25.564,-73.309,-71.134,-56.463,53.24,71.495],[-48.956,6.234,4.176,2.798,2.661,-69.618,6.955,5.772,4.132,2.488,-65.521,19.433,4.251,5.654,3.748,-80.455,-2.978,25.631,21.467,12.252,-77.743,-39.566,62.99,42.781,30.878,-87.863,-33.556,-38.969,14.843,83.908]],
"vp": [[-3.015,-32.039,-29.222,-46.417,-45.338,-28.71,-7.428,-2.927,-19.384,-1.15,-32.581,-4.281,-12.89,-7.328,-28.081,-34.185,-5.306,1.257,6.367,-1.283,13.471,-7.466,-24.139,11.607,-17.882,-38.152,-4.586,5.77,-10.056,2.478],[217.377,28.556,-38.325,-15.282,-51.694,59.769,7.926,-12.387,-5.493,-20.698,1.521,26.567,-29.85,-8.421,-8.099,-30.806,-16.409,-40.984,12.174,-6.8,-29.392,-26.273,-22.43,9.366,-1.972,-27.968,-3.45,-38.682,6.479,9.303],[256.965,285.933,69.474,32.578,-26.266,109,42.61,-3.024,11.334,-29.516,41.512,8.254,-6.454,-14.641,-33.747,2.961,-6.006,-10.378,-21.61,-10.145,-23.888,1.115,-0.462,-28.306,-11.461,-21.103,-38.053,0.347,-15.723,-24.06],[562.079,516.023,370.557,200.74,84.637,93.244,91.495,73.89,35.633,33.859,72.573,18.908,17.924,6.018,6.411,29.098,16.249,-3.587,-4.254,-32.693,17.676,-7.525,-16.93,-7.141,3.477,3.081,-29.422,-13.24,-7.744,-11.544],[2436.394,774.751,546.911,346.077,274.318,516.429,149.984,74.733,52.944,42.385,209.692,71.964,35.451,39.596,17.083,66.687,-13.045,-7.891,14.905,6.925,-3.878,-31.958,-9.688,-1.761,-15.183,-8.74,2.663,-32.373,-17.65,-10.957],[4066.95,777.248,662.998,581.657,445.8,848.336,200.915,185.039,142.822,64.14,348.41,112.702,77.053,54.67,20.503,63.931,42.797,8.719,19.42,-15.503,16.848,-1.802,-16.274,0.596,6.615,4.716,-29.187,-23.164,-44.735,-5.191]]
}