{
"KTrans": [[1.021,2.66,0.689,1.352,1.195,12.061,6.856,6.049,4.785,5.405,24.225,15.369,13.125,10.903,10.612,159.638,95.385,74.912,65.913,60.943,398.917,226.015,175.052,154.331,140.925,1124.069,591.575,455.456,395.64,359.615],[0.628,1.591,0.779,0.425,0.406,10.608,6.343,4.152,3.215,2.846,19.381,11.467,8.878,6.228,5.859,128.514,64.35,45.807,35.871,30.582,320.965,144.562,99.398,78.346,65.653,860.981,357.763,232.668,179.545,151.754],[0.075,1.065,0.441,0.571,0.357,9.887,6.521,3.423,3.012,2.126,19.615,11.106,7.282,5.771,4.902,125.927,60.191,41.185,31.34,26.008,298.163,135.128,87.817,67.08,55.439,825.469,325.856,204.495,151.067,122.67],[-1.585,2.038,1.001,0.846,0.26,1.845,6.098,3.875,3.175,2.356,16.168,11.029,7.423,5.711,4.578,115.662,60.2,39.374,30.049,24.093,288.858,134.29,84.709,62.939,50.687,806.416,317.038,195.202,140.997,112.69],[-8.938,1.065,0.963,0.625,0.741,2.382,5.142,3.674,2.265,2.79,7.343,9.436,7.364,5.601,4.742,110.092,58.122,38.38,28.701,23.571,276.441,131.963,81.936,61.612,49.234,740.249,315.768,190.108,138.409,108.044],[-9.589,-0.011,1.241,1.023,0.622,-3.549,5.658,3.25,2.922,2.388,7.978,11.031,8.351,5.775,4.663,106.434,59.234,37.012,28.589,22.802,254.088,128.949,82.657,59.734,47.798,705.724,308.406,187.022,134.276,105.272]],
"ve": [[1.523,0.416,0.558,-0.811,-0.649,4.504,0.62,-0.703,-0.836,-3.494,8.634,2.086,-2.277,-4.343,-7.339,45.237,13.031,-1.709,-11.391,-18.389,93.901,33.268,7.99,-7.76,-18.445,191.423,78.714,35.036,10.065,-6.434],[0.814,0.689,0.385,0.385,-0.022,4.81,2.256,1.323,0.915,0.458,9.728,4.867,2.801,1.553,1.08,49.897,23.666,14.167,9.131,5.492,99.653,47.828,29.348,19.295,12.462,199.237,96.895,60.932,41.468,28.617],[1.485,0.725,0.235,0.327,0.176,5.559,2.565,1.579,1.132,0.875,10.039,4.762,3.19,2.209,1.588,49.72,24.414,15.905,11.273,8.477,99.659,49.31,32.041,22.904,17.297,199.966,99.007,64.631,46.796,35.587],[1.218,0.597,0.35,0.133,0.218,5.832,2.364,1.627,1.092,0.858,10.04,4.781,3.292,2.31,1.688,50.061,24.704,16.173,11.878,9.211,100.465,49.461,32.704,23.852,18.752,200.19,99.408,65.539,48.394,37.696],[1.413,0.742,0.283,0.216,0.214,4.841,2.579,1.626,1.182,1.014,10.052,5.237,3.251,2.435,1.919,49.937,24.725,16.468,12.051,9.665,100.369,49.717,32.928,24.34,19.098,200.05,99.462,66.023,49.029,38.582],[1.347,0.553,0.406,0.209,0.111,5.084,2.372,1.671,1.218,0.92,10.626,5.017,3.509,2.526,1.909,50.925,24.924,16.507,12.194,9.736,100.64,49.913,33.132,24.648,19.621,199.957,99.687,66.269,49.331,39.045]],
"kep": [[-0.399,2.46,0.524,2.619,2.587,7.487,6.391,7.082,6.217,10.013,14.485,13.248,16.052,16.322,19.934,78.917,72.951,78.122,87.469,97.487,157.463,144.717,154.816,175.937,195.602,320.163,287.052,311.409,350.387,391.326],[-0.139,0.917,0.41,0.058,0.459,5.599,4.042,2.812,2.3,2.403,8.931,6.34,5.931,4.634,4.75,52.557,32.927,27.727,24.519,23.801,110.951,65.466,54.172,49.512,47.315,221.23,132.521,106.726,97.611,95.753],[-1.335,0.356,0.229,0.252,0.19,4.135,3.875,1.824,1.867,1.248,8.767,6.072,3.976,3.488,3.271,50.98,28.765,21.83,18.043,16.168,99.505,57.499,42.254,35.952,32.522,208.606,114.006,84.97,71.039,64.232],[-2.721,1.446,0.654,0.718,0.049,-3.707,3.665,2.22,2.065,1.491,5.686,5.981,4.005,3.335,2.846,43.705,28.485,19.98,16.249,13.631,94.028,56.756,39.196,31.564,26.896,201.978,109.163,78.342,62.406,54.469],[-10.112,0.337,0.689,0.417,0.53,-2.221,2.533,2.021,1.076,1.763,-2.453,3.993,4,3.095,2.773,40.149,26.795,18.811,14.869,12.684,88.085,54.956,36.868,29.982,25.306,180.162,108.456,74.755,59.979,50.127],[-10.742,-0.539,0.838,0.815,0.515,-8.123,3.201,1.561,1.689,1.459,-2.351,5.734,4.689,3.176,2.709,36.863,27.487,17.612,14.616,11.91,76.54,52.779,37.208,28.149,23.558,168.92,104.53,72.633,56.895,47.634]],
"vp": [[29.37,9.288,23.018,0.666,-3.244,10.078,5.48,10.526,9.575,11.634,6.764,0.473,4.439,2.817,4.301,4.505,4.419,4.055,5.399,4.592,4.966,4.788,3.821,4.844,4.54,5.27,4.481,4.433,4.402,4.307],[103.653,36.45,10.604,-8.423,-27.133,39.521,12.934,3.453,-4.695,1.906,23.208,4.386,6.29,2.812,10.162,8.183,6.121,4.495,5.968,4.428,7.162,5.164,5.076,5.058,4.264,6.99,5.563,5.168,4.762,4.724],[492.441,10.748,-13.637,26.611,-10.639,121.316,15.116,12.511,7.421,2.105,57.528,11.146,1.998,-0.502,5.008,15.539,6.239,5.322,4.927,5.047,11.025,6.833,4.756,5.192,5.143,9.074,5.857,5.552,4.898,5.314],[976.435,127.491,21.463,-3.929,35.514,172.819,27.769,7.968,12.679,8.289,99.87,14.01,3.549,8.248,1.763,25.626,8.474,6.392,6.063,4.872,16.518,7.225,5.984,5.437,5.273,11.503,6.577,6.111,5.657,5.479],[1795.172,184.394,33.568,-18.164,62.526,362.341,34.856,6.991,0.29,5.761,166.93,21.874,9.408,5.44,8.156,40.516,9.874,7.658,4.09,5.032,23.658,8.258,6.068,5.658,6.062,14.191,7.47,5.894,5.608,5.161],[2324.172,233,84.025,-61.725,-7.92,454.394,57.136,8.705,3.083,7.308,243.768,37.724,11.93,8.993,10.721,52.211,9.847,5.465,6.543,6.712,30.354,9.519,7.43,6.461,5.581,19.603,8.656,6.682,6.254,5.633]]
}