{
"KTrans": [[-0.293,-1.54,-0.318,0.043,0.096,1.61,0.709,1.615,1.387,0.784,6.213,2.399,3.225,2.536,2.962,39.106,25.364,14.501,16.201,12.338,52.512,53.947,51.881,29.624,38.481,161.035,133.947,109.091,90.986,98.635],[-2.077,-0.076,-0.315,0.031,-0.561,8.527,0.956,-0.353,-0.152,0.139,8.346,1.509,0.796,0.608,-0.131,16.435,19.782,11.556,6.573,7.653,31.139,55.162,29.632,17,14.787,68.549,76.553,57.823,41.182,37.497],[-27.891,4.561,-0.211,-0.788,-0.555,-32.835,2.713,0.026,0.271,-0.573,-20.88,4.275,1.741,1.413,-0.203,-3.074,23.044,9.496,7.749,5.756,14.369,26.502,28.757,22.399,13.683,-44.549,-65.13,66.483,56.699,35.988],[-58.7,12.349,3.449,1.259,-0.424,-54.613,7.985,3.535,0.495,0.407,-53.6,22.144,3.84,2.122,0.48,-35.667,11.938,14.75,7.045,8.708,-32.278,28.024,23.875,15.685,4.498,-111.879,42.051,2.538,44.73,34.682],[-75.55,-13.201,11.953,2.524,0.506,-70.277,-3.466,14.263,3.125,0.812,-65.357,-2.62,16.655,2.157,2.351,-67.755,-7.238,26.534,15.744,-0.096,-74.207,5.356,18.719,27.231,15.65,-75.026,-54.757,36.108,52.836,22.107],[-77.637,-35.566,22.396,2.672,2.729,-73.464,-36.701,10.908,4.578,3.802,-77.349,-31.937,21.816,6.562,3.517,-72.831,-15.018,11.992,21.432,12.686,-60.526,2.98,11.5,16.339,17.541,-138.21,-11.17,26.068,12.741,28.099]],
"ve": [[-3.222,-1.472,-1.44,-1.382,0.049,-2.919,-2.203,-1.848,-1.962,-1.551,-1.463,-1.347,-1.912,-2.534,-2.32,4.009,-4.559,-26.406,-57.54,-9.523,35.284,-31.301,-2.37,-30.205,-25.447,70.289,22.088,-5.992,-12.682,-34.092],[-10.553,-4.127,-3.517,-3.037,-2.719,-7.145,-3.946,-3.163,-2.737,-2.795,-5.355,-3.538,-2.983,-3.082,-2.632,-5.332,1.463,1.39,-0.922,-1.017,27.388,17.939,9.515,-18.533,11.709,114.951,52.383,8.456,3.018,-8.508],[-29.618,-5.422,-4.808,-4.275,-3.522,-29.267,-5.525,-4.757,-4.16,-3.797,-19.692,-5.215,-4.222,-3.155,-3.441,-9.367,20.249,-2.471,-1.909,-1.556,2.792,10.985,1.23,4.609,1.524,58.138,48.841,21.736,20.534,2.788],[-41.851,-7.672,-5.363,-4.613,-4.345,-44.607,-8.481,-5.241,-4.29,-4.116,-42.489,-4.565,-4.763,-3.898,-3.87,-14.09,-1.74,-10.28,-1.744,-0.816,-6.644,7.044,-1.572,1.098,-5.077,50.402,33.879,2.608,7.692,5.984],[-55.436,-20.932,-5.599,-5.329,-4.5,-47.402,-17.231,-3.691,-4.877,-4.294,-37.697,-12.999,-3.55,-4.71,-4.157,-32.498,-19.105,-6.436,-3.211,-7.443,-5.442,-6.947,-0.027,-5.724,-0.603,54.667,34.438,7.745,-5.949,-6.923],[-45.979,-33.292,-5.343,-5.636,-4.954,-42.514,-34.066,-6.256,-5.465,-4.294,-48.265,-29.582,-5.08,-5.511,-4.185,-35.463,-19.628,-11.6,-4.104,-2.227,8.781,-3.019,-7.868,-1.663,-6.235,63.944,17.222,19.239,-8.367,5.615]],
"kep": [[2.749,0.173,1.524,2.181,1.654,4.391,3.303,4.02,4.239,3.697,6.847,4.013,5.866,6.467,7.473,13.623,17.665,12.094,20.535,17.032,17.289,22.019,47.735,14.932,43.442,81.109,70.248,81.666,76.016,111.969],[7.305,4.138,3.309,3.166,2.225,14.36,4.954,2.872,2.661,3.036,12.233,5.004,3.835,3.785,2.559,3.452,14.393,8.043,6.32,8.255,0.114,25.799,14.724,9.485,10.435,8.386,23.371,24.998,14.289,16.082],[-3.867,10.135,4.738,3.624,3.073,-13.152,8.078,4.974,4.608,3.345,-12.393,8.562,5.991,4.669,3.317,-15.068,28.907,9.924,8.944,6.723,-23.669,4.831,17.363,14.282,9.622,-34.438,-8.966,31.602,26.171,15.294],[-43.63,19.18,9.065,6.136,4.086,-38.578,15.243,8.829,4.953,4.706,-41.409,26.663,8.514,6.195,4.446,-39.293,7.804,25.138,7.543,9.369,-39.33,5.818,9.384,9.248,4.989,-56.152,2.725,6.621,21.581,15.867],[-61.287,9.351,17.285,8.092,5.234,-59.267,17.744,17.283,8.217,5.305,-55.799,11.579,19.79,6.945,6.746,-62.796,-4.043,39.822,18.703,6.222,-60.485,-12.103,2.846,27.495,13.665,-56.374,-31.438,7.819,18.557,12.579],[-69.69,-8.808,26.592,8.241,7.99,-64.41,-8.609,16.353,9.842,8.386,-70.353,-12.24,25.54,11.894,7.943,-69.477,-12.675,21.848,23.923,15.02,-65.711,-13.846,2.135,18.759,22.764,-70.747,-29.746,-1.013,-3.224,6.582]],
"vp": [[246.022,305.6,293.488,257.089,238.668,35.231,42.578,31.58,26.942,46.355,8.437,14.414,-2.607,8.076,-0.212,-11.436,-22.673,-6.547,-18.361,-13.823,-39.117,-22.345,-31.6,-12.25,-28,-42.668,-43.818,-30.654,-26.429,-37.192],[976.588,676.706,748.809,754.142,795.782,122.524,133.096,149.587,128.467,158.271,43.892,56.012,62.781,69.871,79.101,13.172,-8.767,-17.633,-2.542,-12.483,-29.339,-40.126,-27.75,-12.271,-13.311,-62.402,-56.407,-21.585,-19.245,-23.263],[3095.274,887.274,1123.864,1282.853,1285.788,588.106,179.192,231.188,240.079,259.89,183.479,90.634,98.48,86.818,126.588,16.174,9.145,8.992,5.627,0.854,-2.562,-7.353,-9.02,-24.602,-16.635,-31.695,-50.529,-32.903,-50.57,-27.732],[4159.71,1415.581,1364.789,1421.985,1748.267,912.617,312.255,256.274,272.231,321.207,441.443,82.97,118.109,113.493,141.21,24.975,1.026,64.383,4.625,-7.582,8.207,-19.684,-1.967,-9.704,25.05,-23.818,-37.961,-1.458,-19.182,-24.989],[5655.615,4050.74,1607.842,1830.137,1861.389,974.129,685.707,199.976,332.59,340.437,357.676,240.728,94.929,154.178,166.959,65.155,76.894,38.715,21.334,71.095,5.788,10.95,-0.73,26.765,-3,-28.376,-37.017,-13.384,-41.264,2.739],[4334.362,6724.315,1505.639,1810.344,2106.57,814.248,1360.582,312.748,364.569,340.616,472.659,598.186,136.708,183.878,160.277,68.031,77.68,70.9,27.076,12.074,-12.908,1.887,19.62,0.844,30.688,-30.051,-20.953,-34.144,19.652,-18.654]]
}