{
"KTrans": [[0.001,0.001,0.001,0.001,0.001,0.003,0.002,0.002,0.002,0.002,0.004,0.004,0.002,0.002,0.002,0.023,0.016,0.013,0.009,0.008,0.064,0.029,0.029,0.016,0.019,0.053,0.05,0.033,0.027,0.03],[-0.021,-0.003,0,0.001,0.001,-0.017,-0.001,0.001,0.001,0.001,-0.013,0,0.001,0.002,0.002,0.013,0.016,0.004,0.011,0.007,0.053,0.022,0.004,0.012,0.008,0.101,0.064,0.036,0.022,0.018],[-0.074,-0.013,-0.004,-0.001,0,-0.069,-0.012,-0.003,-0.001,0,-0.067,-0.009,-0.002,-0,0.002,-0.016,0.004,0.005,0.008,0.004,0.012,0.02,0.009,0.011,0.01,0.172,0.065,0.025,0.019,0.024],[-0.159,-0.032,-0.011,-0.005,-0.002,-0.155,-0.03,-0.011,-0.004,-0.002,-0.15,-0.027,-0.009,-0.003,-0.001,-0.103,-0.009,0.003,-0,0.005,-0.046,0.011,0.007,0.013,0.01,0.086,0.072,0.029,0.023,0.015],[-0.279,-0.058,-0.022,-0.01,-0.005,-0.274,-0.057,-0.021,-0.009,-0.005,-0.271,-0.054,-0.019,-0.009,-0.004,-0.239,-0.033,-0.003,0.003,0.001,-0.185,-0.008,0.009,0.001,0.008,-0.089,0.039,0.024,0.017,0.022],[-0.43,-0.093,-0.036,-0.018,-0.01,-0.433,-0.091,-0.035,-0.017,-0.009,-0.426,-0.087,-0.033,-0.016,-0.007,-0.429,-0.066,-0.022,-0.009,-0.003,-0.405,-0.024,-0.002,0.006,0.006,-0.391,0.028,0.034,0.025,0.02]],
"ve": [[0,-0,-0.001,-0.002,-0.002,0.001,-0,-0.001,-0.003,-0.003,0.001,-0.001,-0.002,-0.003,-0.004,0.005,-0.002,-0.007,-0.009,-0.012,0.018,-0.004,-0.014,-0.017,-0.026,-0.002,-0.009,-0.022,-0.031,-0.044],[-0.01,-0.001,-0,0,0,-0.008,-0,0,0,-0,-0.006,0,0,0,-0,0.001,0.007,-0.001,0.002,0,0.017,0.006,-0.003,0.001,-0.001,0.023,0.024,0.009,0.001,-0.001],[-0.036,-0.006,-0.002,-0,0,-0.033,-0.006,-0.001,-0,0,-0.034,-0.004,-0.001,-0,0.001,-0.008,0.001,0.002,0.003,0,-0.015,0.006,0.001,0.003,0.002,0.09,0.027,0.005,0.003,0.006],[-0.078,-0.015,-0.005,-0.002,-0.001,-0.076,-0.014,-0.005,-0.002,-0.001,-0.074,-0.012,-0.004,-0.002,-0,-0.053,-0.005,0.002,-0.001,0.002,-0.025,0.002,0,0.005,0.003,0.076,0.035,0.008,0.007,0.003],[-0.137,-0.028,-0.01,-0.004,-0.002,-0.135,-0.027,-0.01,-0.004,-0.002,-0.131,-0.027,-0.009,-0.004,-0.002,-0.113,-0.017,-0,0.002,0,-0.111,-0.008,0.004,-0.002,0.003,-0.098,0.009,0.005,0.003,0.008],[-0.212,-0.045,-0.017,-0.008,-0.004,-0.213,-0.044,-0.016,-0.008,-0.004,-0.21,-0.043,-0.015,-0.007,-0.003,-0.206,-0.034,-0.012,-0.005,-0.002,-0.208,-0.003,-0.001,0.003,0.003,-0.191,0.016,0.016,0.011,0.008]],
"kep": [[0.002,0.003,0.004,0.004,0.005,0.004,0.004,0.005,0.006,0.006,0.005,0.006,0.006,0.006,0.008,0.02,0.019,0.021,0.02,0.022,0.047,0.034,0.044,0.034,0.047,0.056,0.06,0.057,0.06,0.075],[-0.01,-0,0.002,0.002,0.003,-0.008,0.001,0.002,0.003,0.003,-0.005,0.002,0.003,0.003,0.003,0.013,0.011,0.006,0.01,0.008,0.037,0.018,0.008,0.012,0.011,0.079,0.042,0.029,0.022,0.021],[-0.037,-0.006,-0.001,0.001,0.002,-0.034,-0.005,-0,0.001,0.002,-0.031,-0.004,0,0.002,0.003,-0.007,0.005,0.005,0.006,0.005,0.029,0.015,0.01,0.01,0.009,0.083,0.039,0.021,0.017,0.019],[-0.08,-0.015,-0.005,-0.001,0,-0.077,-0.014,-0.004,-0.001,0.001,-0.075,-0.013,-0.004,-0,0.001,-0.049,-0.003,0.003,0.003,0.005,-0.019,0.01,0.008,0.009,0.008,0.012,0.039,0.022,0.017,0.013],[-0.141,-0.029,-0.01,-0.004,-0.002,-0.138,-0.028,-0.01,-0.004,-0.001,-0.138,-0.026,-0.009,-0.003,-0.001,-0.126,-0.014,-0.001,0.002,0.003,-0.072,0.001,0.007,0.005,0.007,0.011,0.031,0.02,0.015,0.015],[-0.217,-0.047,-0.018,-0.008,-0.004,-0.219,-0.045,-0.017,-0.008,-0.004,-0.215,-0.043,-0.016,-0.007,-0.003,-0.222,-0.03,-0.009,-0.002,0,-0.196,-0.019,0.001,0.004,0.005,-0.198,0.014,0.019,0.016,0.013]],
"vp": [[-0.024,-0.102,-0.133,-0.135,-0.15,-0.029,-0.026,-0.044,-0.051,-0.036,-0.013,-0.023,-0.018,-0.016,-0.024,-0.017,-0.02,-0.019,-0.013,-0.012,-0.028,-0.017,-0.023,-0.011,-0.016,-0.003,-0.013,-0.01,-0.008,-0.011],[1.038,0.246,-0,-0.15,-0.227,0.165,0.017,-0.017,-0.04,-0.049,0.061,-0.002,-0.009,-0.03,-0.035,-0.003,-0.032,-0,-0.036,-0.023,-0.019,-0.016,0.006,-0.015,-0.01,-0.012,-0.03,-0.021,-0.013,-0.013],[3.627,1.298,0.545,0.176,-0.014,0.677,0.234,0.094,0.042,-0.016,0.348,0.078,0.04,0.007,-0.04,0.014,-0.004,-0.012,-0.03,-0.01,0.017,-0.013,-0.003,-0.016,-0.018,-0.048,-0.029,-0.01,-0.011,-0.025],[7.856,3.092,1.597,0.88,0.465,1.538,0.577,0.311,0.163,0.079,0.746,0.252,0.143,0.069,0.023,0.106,0.021,-0.013,0.01,-0.024,0.025,-0.004,-0.001,-0.025,-0.02,-0.041,-0.038,-0.014,-0.017,-0.011],[13.766,5.667,3.161,1.925,1.207,2.713,1.12,0.616,0.362,0.223,1.322,0.544,0.275,0.174,0.087,0.224,0.069,0.001,-0.019,-0.006,0.112,0.015,-0.013,0.009,-0.017,0.05,-0.01,-0.008,-0.008,-0.024],[21.365,9.142,5.222,3.358,2.302,4.275,1.784,1.002,0.643,0.437,2.115,0.864,0.471,0.304,0.162,0.412,0.139,0.074,0.039,0.021,0.208,0.003,0.001,-0.014,-0.017,0.094,-0.018,-0.026,-0.024,-0.023]]
}