{
"KTrans": [[41.624,20.672,18.479,22.066,18.557,60.962,23.599,18.118,22.611,15.794,80.907,39.136,25.42,30.24,31.931,213.34,117.873,104.996,93.218,75.318,510.657,265.365,218.288,180.564,166.149,1362.313,648.266,499.137,438.583,394.007],[-38.172,60.488,35.443,31.54,29.742,-54.176,95.541,46.437,36.203,38.618,-2.64,90.175,34.801,31.283,39.846,71.056,121.709,68.95,64.383,57.653,163.918,253.553,158.072,127.353,99.127,420.312,602.928,319.001,217.747,211.002],[-102.003,106.029,87.69,49.517,32.386,-116.039,132.668,75.391,45.388,39.716,-107.612,113.151,77.006,60.767,48.827,-105.55,240.666,129.867,85.758,71.551,-108.645,379.194,229.496,143.729,83.867,-128.841,781.877,363.669,237.003,180.66],[-121.565,-68.58,164.41,72.49,56.428,-121.845,-104.16,160.582,99.268,66.376,-102.925,-97.501,161.423,78.89,57.149,-131.379,-59.983,252.893,142.156,86.091,-112.297,-24.87,316.828,189.888,117.303,-112.455,17.388,599.036,344.901,213.776],[-109.99,-122.583,116.656,193.893,86.934,-112.34,-121.31,24.509,232.924,96.001,-108.61,-124.775,41.483,151.464,107.503,-104.109,-187.768,62.743,257.365,149.283,-107.329,-125.547,51.117,343.908,177.992,-67.64,-133.154,255.685,392.682,256.563],[-110.319,-125.187,-162.415,275.301,152.312,-114.034,-109.389,-134.73,166.051,143.121,-107.813,-112.291,-133.919,198.974,208.331,-112.778,-154.094,-117.512,323.676,237.572,-128.757,-171.199,-178.707,268.035,206.343,-120.399,-117.379,-168.655,533.553,368.156]],
"ve": [[3.748,2.434,2.741,5.441,104.48,8.408,3.263,2.552,8.503,41.869,11.118,3.533,1.534,0.308,2.48,46.843,12.815,-0.98,-10.974,-19.356,92.958,33.433,8.765,-7.903,-18.043,193.949,79.493,35.125,10.165,-6.149],[1.917,2.094,2.072,2.2,1.394,27.674,6.927,3.246,2.719,2.502,9.921,7.722,4.122,2.691,2.556,52.202,22.653,12.382,9.106,5.965,102.122,47.048,30.411,20.979,13.008,201.233,100.915,62.58,41.393,30.932],[0.657,1.999,2.835,1.403,1.141,5.58,5.394,2.838,1.608,2.124,11.532,6.511,3.964,4.026,4.12,51.355,24.505,16.748,13.016,9.675,102.791,55.224,34.401,24.934,15.935,188.512,103.693,65.282,47.006,35.848],[3.087,-2.489,2.925,1.157,1.026,5.808,2.921,3.827,3.022,2.92,9.078,6.83,4.18,3.393,2.906,48.861,25.503,17.999,14.173,10.288,101.969,48.986,33.741,25.339,19.175,198.789,100.903,64.738,51.357,39.009],[5.746,2.289,-20.966,2.731,1.369,6.114,5.93,-7.919,4.724,1.942,7.028,8.168,5.96,1.711,3.519,48.667,27.266,27.789,14.913,12.673,101.78,50.961,35.402,27.334,21.881,200.242,100.599,66.031,48.736,39.21],[3.163,1.465,0.218,4.524,1.908,7.897,5.719,2.964,-0.723,2.061,9.871,5.61,2.942,1.397,5.316,53.918,31.454,18.237,14.065,12.521,101.313,54.906,32.176,22.366,18.326,199.702,99.967,68.786,52.554,40.031]],
"kep": [[33.646,18.906,19.99,28.931,27.524,45.45,21.117,19.595,27.669,22.384,58.478,34.014,27.592,41.404,49.134,108.81,89.814,105.285,116.781,118.008,211.23,169.755,189.071,200.913,221.775,392.767,313.348,339.714,385.141,422.125],[-41.799,49.104,28.911,26.462,26.805,-58.376,75.739,37.775,30.381,34.136,-15.628,69.045,26.361,25.294,34.954,8.465,72.383,44.742,46.617,45.901,31.735,130.763,92.246,83.829,72.569,72.258,241.287,152.463,120.509,133.756],[-98.788,87.923,73.745,41.801,26.695,-110.227,106.835,62.114,37.2,32.287,-102.223,88.729,60.69,48.45,38.992,-99.355,153.099,87.669,59.055,51.344,-100.523,200.358,134.863,88.377,52.952,-103.998,320.753,171,122.217,100.575],[-116.837,-66.051,141.366,60.811,47.24,-115.663,-99.142,133.497,83.117,54.405,-99.116,-92.185,132.806,63.843,45.949,-116.64,-65.799,180.448,102.452,61.672,-102.644,-47.971,195.05,119.988,74.744,-99.574,-37.862,300.242,183.447,117.752],[-105.808,-113.851,97.074,165.516,73.849,-107.221,-113.895,15.013,196.861,80.318,-104.932,-114.637,27.266,126.759,88.873,-98.798,-159.265,32.469,193.402,111.003,-99.953,-108.744,8.193,230.264,118.258,-85.154,-107.551,106.428,213.003,144.175],[-107.505,-117.049,-148.444,235.839,130.373,-109.786,-103.32,-124.245,139.422,121.777,-104.067,-104.655,-122.127,164.902,175.663,-105.38,-135.494,-106.439,244.29,182.421,-111.079,-138.792,-146.114,175.373,140.533,-103.48,-101.752,-130.324,293.112,216.369]],
"vp": [[0.001,0.001,0.001,0.001,0.001,0.005,0.005,0.005,0.005,0.005,0.01,0.01,0.01,0.01,0.01,0.05,0.05,0.05,0.05,0.05,0.1,0.1,0.1,0.1,0.1,0.2,0.2,0.2,0.2,0.2],[0.001,0.001,0.001,0.001,0.001,0.005,0.005,0.005,0.005,0.005,0.01,0.01,0.01,0.01,0.01,0.05,0.05,0.05,0.05,0.05,0.1,0.1,0.1,0.1,0.1,0.2,0.2,0.2,0.2,0.2],[0.001,0.001,0.001,0.001,0.001,0.005,0.005,0.005,0.005,0.005,0.01,0.01,0.01,0.01,0.01,0.05,0.05,0.05,0.05,0.05,0.1,0.1,0.1,0.1,0.1,0.2,0.2,0.2,0.2,0.2],[0.001,0.001,0.001,0.001,0.001,0.005,0.005,0.005,0.005,0.005,0.01,0.01,0.01,0.01,0.01,0.05,0.05,0.05,0.05,0.05,0.1,0.1,0.1,0.1,0.1,0.2,0.2,0.2,0.2,0.2],[0.001,0.001,0.001,0.001,0.001,0.005,0.005,0.005,0.005,0.005,0.01,0.01,0.01,0.01,0.01,0.05,0.05,0.05,0.05,0.05,0.1,0.1,0.1,0.1,0.1,0.2,0.2,0.2,0.2,0.2],[0.001,0.001,0.001,0.001,0.001,0.005,0.005,0.005,0.005,0.005,0.01,0.01,0.01,0.01,0.01,0.05,0.05,0.05,0.05,0.05,0.1,0.1,0.1,0.1,0.1,0.2,0.2,0.2,0.2,0.2]]
}