{
"KTrans": [[-2.66,6.22,-28.805,-11.94,-6.327,13.454,2.272,0.767,-0.919,3.12,13.921,9.414,22.092,5.792,17.213,22.774,59.036,51.645,69.273,57.313,-33.773,21.679,67.413,40.913,102.793,-391.254,-22.734,69.003,98.794,-11.097],[-33.985,-14.128,0.968,5.531,-0.002,-34.586,-8.165,-1.314,5.325,5.234,-39.292,-6.268,-0.873,8.097,1.74,-23.701,19.865,5.208,16.918,26.835,-17.459,-58.979,-12.423,17.033,19.79,-85.133,-44.278,39.421,-26.623,33.311],[-50.357,-24.524,-11.821,-6.347,0.602,-58.638,-18.705,-6.804,-2.792,-0.591,-52.061,-15.136,-1.643,-2.497,1.767,-51.809,-18.685,7.605,0.295,0.546,-29.327,0.709,-14.049,-16.806,-12.992,-32.397,4.526,-25.199,10.425,25.969],[-65.213,-31.516,-10.164,-9.3,-6.232,-65.78,-30.11,-13.224,-4.306,-2.549,-58.062,-23.288,-13.143,-6.117,-0.487,-70.572,-20.891,-5.842,8.269,10.204,-70.53,-2.909,27.858,-20.804,22.836,-59.251,-46.737,-17.518,-10.895,0.561],[-73.029,-34.897,-19.733,-10.572,-4.93,-69.039,-34.042,-19.153,-2.32,-2.622,-75.487,-41.406,-15.858,0.194,1.123,-74.863,-21.952,-6.11,25.509,0.859,-73.325,-21.926,-4.201,48.296,8.26,-65.325,-50.202,27.899,-12.205,-0.429],[-78.02,-44.4,-18.092,-11.125,-5.319,-76.403,-46.464,-13.785,-13.101,-1.642,-78.913,-42.931,-18.51,-9.03,-0.338,-81.622,-39.083,-15.023,8.941,15.356,-55.775,-44.391,-46.401,14.122,10.276,-76.337,-45.309,4.08,-3.547,-18.357]],
"ve": [[9.63,-6.558,-27.903,12.507,-125.935,-89.143,57.79,-55.288,1044.957,-57.535,-17.951,-96.805,-25.28,175.837,-69.109,70.927,16.359,-5.498,-46.358,-32.88,52.65,16.683,6.486,-60.059,-14.85,170.363,86.37,-5578.369,-34.942,-17.215],[-30.244,21.464,-0.746,5.963,-39.964,-2.758,-334.327,0.021,-19.152,-24.973,47.09,22.065,-15.308,-7.076,-21.677,58.69,60.756,12.865,-5.774,-31.239,67.822,36.73,33.937,18.616,10.893,186.867,101.581,96.134,34.881,27.27],[4.276,-17.563,-10.977,21.177,-0.229,-1.687,115.924,2.02,3.159,-3.006,-49.079,7.262,9.295,0.606,-0.306,32.68,27.753,8.944,19.837,-0.74,78.699,47.592,19.823,15.042,16.597,191.171,110.165,62.547,48.193,12.297],[-3.294,-10.654,-10.009,-21.599,0.574,8.86,-4.893,-27.349,1.102,-6.75,2.937,-22.712,-7.729,-1.552,-0.518,280.982,20.098,167.802,17.952,6.329,89.598,48.735,25.567,21.443,-23.668,191.477,94.321,67.203,49.517,72.114],[-29.516,-10.47,20.373,-5.442,-5.537,8.573,-8.642,13.817,0.14,-2.557,-100.607,-4.227,-2.031,0.041,21.989,32.682,-20.729,14.653,8.207,-11.217,84.071,47.338,29.269,21.295,18.077,194.91,91.723,59.467,48.523,39.178],[36.069,-7.657,75.139,-4.536,-2.288,-82.921,15.806,-3.557,-10.252,-0.067,3.069,7.485,-5.793,-0.364,-1.349,36.187,20.387,9.709,13.561,-4.829,102.892,51.133,32.965,21.967,21.268,191.377,91.322,63.472,48.869,36.55]],
"kep": [[-101.891,-112.489,13.709,-69.868,-59,-119.276,-60.67,-70.561,-47.391,-43.477,-122.677,-66.799,-101.487,-58.986,-57.567,-140.018,-152.233,-215.008,-184.034,-113.714,-122.271,-211.171,-280.116,-332.665,-392.482,-139.613,-148.51,-268.053,-383.696,-568.928],[-86.678,-102.86,-97.256,-78.782,-24.048,-86.064,-94.742,-89.553,-59.772,-32.444,-88.574,-79.03,-108.749,-103.475,-34.084,-90.659,-78.468,-125.121,-165.76,-120.026,-78.072,-107.192,-136.628,-166.016,-188.942,-76.121,-66.044,-52.093,-174.193,-205.739],[-84.382,-66.719,-66.439,-103.855,-111.256,-91.452,-53.881,-54.51,-75.234,-112.076,-86.506,-62.519,-54.32,-87.618,-107.648,-89.672,-67.276,-49.452,-84.746,-127.33,-78.303,-55.216,-70.751,-105.943,-149.129,-71.729,-50.499,-52.139,-40.653,-31.429],[-88.481,-61.862,-39.926,-41.075,-52.686,-90.409,-58.757,-40.68,-31.298,-52.77,-85.751,-53.523,-41.865,-41.734,-41.414,-94.545,-60.618,-45.549,-31.952,-30.566,-91.484,-53.248,-19.553,-62.957,-24.134,-79.547,-66.363,-45.02,-42.116,-20.673],[-92.308,-58.367,-43.987,-27.687,-27.458,-89.264,-60.115,-40.754,-19.656,-22.897,-95.487,-68.947,-37.41,-14.417,-11.079,-93.278,-56.97,-39.24,-5.227,-33.543,-91.973,-58.922,-44.689,5.472,-19.903,-85.275,-68.525,-27.628,-33.226,-23.312],[-94.258,-66.358,-36.758,-24.575,-10.287,-93.993,-68.993,-36.028,-30.2,-11.652,-95.139,-67.2,-38.368,-23.06,-16.224,-94.578,-71.591,-42.295,-19.986,-5.508,-87.324,-70.79,-67.327,-23.129,-24.018,-90.429,-67.043,-40.385,-43.081,-46.526]],
"vp": [[47.128,317.281,694.143,158.807,918.596,18.512,-170.355,219.454,287.602,163.39,46.731,-30.234,-53.305,41.258,62.689,2.038,-24.48,-1.204,-13.482,-38.378,-41.355,-26.851,-20.758,2.909,-1.559,-8.259,-31.168,-28.993,-32.912,2.341],[2625.662,682.618,-424.389,-789.49,-35.015,482.686,256.514,155.9,-46.306,-64.784,289.369,156.585,-17.779,-78.267,-45.438,11.658,-1.617,-28.305,-36.71,11.696,-26.246,-15.969,-11.645,-22.592,-7.834,-13.878,-30.603,-23.033,-24.516,-29.682],[4332.015,4247.351,826.819,469.717,587.862,1011.17,566.113,434.388,286.662,-130.763,362.058,305.784,141.892,80.513,-3.296,108.363,63.235,-0.076,-6.9,-4.982,2.314,8.515,-38.711,-40.376,-19.044,-9.752,-23.875,-23.233,-39.955,-54.161],[5809.092,6126.913,3296.677,2159.102,1924.926,996.708,1194.203,598.104,284.307,342.004,527.219,481.151,384.302,137.26,109.448,85.173,75.022,55.053,35.355,12.492,16.077,12.9,-38.291,-5.715,0.431,-12.454,-17.976,-25.41,-22.25,-31.605],[6751.561,6724.977,5481.683,3526.449,1245.754,1076.649,1497.835,922.634,801.082,424.835,615.907,770.91,482.527,263.293,237.709,52.118,107.655,96.503,64,14.746,26.017,26.033,-6.821,-5.346,-35.889,7.678,7.633,-36.905,-18.401,-37.994],[6524.716,8696.068,8313.484,4136.988,3608.416,1005.511,1452.343,1602.815,1154.085,397.235,564.987,841.002,691.372,407.256,312.824,120.751,170.181,67.014,44.37,37.685,18.475,37.587,26.206,-11.479,47.668,23.388,5.172,-23.764,-36.124,-45.293]]
}