{
"KTrans": [[12.091,30.691,17.304,25.8,36.231,29.13,35.706,35.036,30.625,35.019,44.741,26.296,44.217,33.287,29.545,40.345,34.428,60.522,54.703,55.258,85.869,77.218,106.041,80.468,80.374,184.796,167.592,129.611,132.773,138.095],[-54.229,-5.684,5.293,12.755,12.731,-50.381,-13.644,8.023,7.317,20.788,-47.907,5.918,10.223,14.296,16.354,-33.823,16.187,15.578,22.899,20.245,-23.703,8.114,11.837,28.522,31.003,1.457,29.197,57.29,39.765,45.282],[-73.355,-35.519,-8.619,-3.271,3.543,-74.366,-36.808,-16.45,-2.847,2.994,-70.968,-27.895,-14.425,-4.469,0.668,-69.471,-19.616,-15.686,0.443,7.242,-54.938,-25.768,-9.284,4.648,15.332,-69.041,-15.253,21.303,25.289,20.776],[-83.352,-44.758,-36.585,-17.033,-9.562,-82.484,-46.636,-29.053,-19.637,-9.121,-83.328,-51.158,-31.445,-20.407,-8.888,-78.834,-48.986,-30.337,-12.206,-4.634,-69.091,-47.426,-25.265,-9.04,-8.705,-57.54,-26.031,-17.678,-0.606,8.414],[-88.381,-62.086,-46.392,-33.576,-23.279,-89.201,-67.826,-43.771,-29.374,-20.245,-89.101,-59.388,-42.924,-28.044,-18.903,-81.925,-63.371,-52.373,-32.186,-19.275,-80.114,-54.09,-39.008,-24.5,-16.489,-84.335,-50.061,-36.111,-14.777,-11.596],[-89.897,-72.794,-58.619,-41.218,-31.73,-93.018,-74.602,-49.841,-44.562,-30.024,-91.448,-71.377,-55.695,-43.139,-31.406,-84.885,-69.085,-52.983,-42.181,-28.701,-79.767,-63.334,-47.933,-41.54,-24.178,-87.221,-58.978,-47.495,-31.785,-21.201]],
"ve": [[-53.425,-8.365,78.314,-68.264,-30.312,-38.296,24.235,-24.817,-92.662,-62.344,-6569.815,-91.963,-377.952,-208.872,-30.842,-23.72,57.037,10.171,40.269,314.775,216.605,46.586,4.974,-65.433,-9.921,99.941,42.347,-29.934,7.387,56.542],[9.097,-0.199,11.259,11.054,22.917,-37.076,6.943,6.365,11.77,16.689,-21.042,4.361,10.79,14.502,38.677,5.382,12.761,19.86,13.675,20.949,63.173,37.595,18.973,15.493,-10.052,93.672,6.456,-7.781,-39.622,217.002],[35.606,-9.485,-3.418,-3.006,3.375,-15.072,-23.194,-3.031,-1.197,2.529,-25.802,30.94,2.079,0.41,3.295,-4.394,0.668,0.997,4.839,7.694,39.804,4.783,12.639,10.338,14.761,55.467,232.468,-80.112,34.85,31.038],[-47.725,-17.343,-9.56,-8.098,-3.211,-43.576,-14.483,-6.532,-5.306,-3.198,-31.753,-7.769,-7.831,-4.527,-2.462,-5.282,-28.761,-2.185,-0.184,-0.502,35.729,-8.637,4.696,4.9,4.683,83.357,31.108,8.237,18.377,13.925],[-50.521,-25.877,-16.344,-12.253,-7.814,-15.871,-26.951,-15.18,-10.141,-7.251,-53.349,-15.627,-14.534,-8.785,-7.448,-39.822,-52.005,-81.476,-6.734,-2.663,12.302,-4.222,2.467,0.131,-1.744,57.137,13.998,6.893,12.433,7.08],[-48.692,29.659,-20.515,-14.359,-10.736,-50.573,-26.044,-15.401,-14.391,-10.667,-44.277,-20.117,-18.023,-12.749,-11.683,-23.432,-16.991,-14.642,-10.374,-7.478,-7.286,-11.022,-2.282,-5.771,-0.656,51.862,20.133,0.668,9.487,10.48]],
"kep": [[-53.006,-40.076,-55.382,-55.377,-43.497,-48.177,-43.567,-33.272,-48.581,-51.887,-24.623,-38.538,-35.298,-44.465,-62.468,-44.512,-44.877,-22.58,-33.263,-33.896,-51.913,-31.914,-10.377,-22.994,-21.702,-42.268,-25.651,-29.206,-19.839,-3.592],[-76.98,-45.516,-40.488,-37.497,-40.216,-76.57,-48.348,-37.954,-40.761,-35.463,-74.134,-40.029,-37.133,-37.79,-37.536,-72.075,-40.163,-39.183,-34.332,-38.098,-75.586,-50.572,-44.853,-35.737,-35.859,-76.768,-62.322,-39.211,-41.184,-38.21],[-87.496,-57.461,-44.404,-40.944,-40.614,-87.726,-60.742,-48.898,-41.63,-40.464,-85.095,-55.886,-47.78,-43.122,-42.112,-86.116,-53.626,-51.322,-43.429,-41.105,-84.226,-64.635,-52.594,-44.475,-40.738,-84.399,-74.076,-49.446,-43.75,-43.626],[-89.639,-63.199,-57.874,-46.822,-45.134,-90.976,-62.924,-55.477,-50.331,-44.779,-91.375,-66.641,-56.55,-51.084,-45.028,-91.133,-70.158,-57.897,-48.617,-43.806,-89.745,-73.707,-60.047,-49.803,-49.277,-87.546,-72.289,-64.6,-53.995,-46.534],[-95.519,-73.459,-62.287,-55.568,-51.298,-95.47,-76.894,-61.637,-54.03,-49.468,-94.651,-72.807,-61.433,-53.934,-48.566,-92.419,-76.558,-69.051,-57.726,-51.452,-92.48,-76.318,-65.931,-56.666,-51.004,-90.54,-79.827,-71.971,-57.706,-55.477],[-95.075,-79.76,-70.071,-59.932,-54.993,-96.351,-80.79,-65.883,-62.244,-54.219,-95.893,-79.122,-69.389,-61.963,-54.633,-92.711,-81.655,-68.573,-62.409,-54.944,-92.541,-81.482,-69.63,-64.477,-55.872,-91.894,-83.704,-76.201,-65.826,-58.793]],
"vp": [[-63.594,-1148.851,-737.725,-504.835,-677.375,-66.629,-193.237,-206.295,-219.885,-323.675,-58.391,-72.031,-213.843,-144.671,-104.185,1.146,-5.323,-21.823,-30.336,-26.587,-14.122,-22.121,-37.302,-14.426,-31.41,-38.947,-27.164,-15.325,-8.906,-21.864],[2850.711,579.72,-404.243,-1334.35,-1090.704,525.219,354.921,-73.525,-57.755,-428.676,340.74,-12.079,-27.133,-124.482,-89.991,49.164,-18.022,-18.074,-37.35,-28.077,10.262,9.152,35.232,-14.17,-22.111,-22.853,8.687,-27.566,0.672,-3.529],[5317.751,3992.193,586.615,595.519,-239.207,1107.287,648.85,399.528,137.119,-148.406,464.866,223.346,192.649,132.629,12.69,96.258,44.516,60.961,14.53,-23.209,30.143,26.63,26.415,-5.41,-22.993,12.469,11.405,-23.861,-20.143,6.903],[7006.821,4293.202,5787.716,2928.46,1493.933,1281.939,1203.557,408.962,556.423,214.888,586.759,550.605,374.168,300.248,154.732,90.909,116.764,97.572,27.354,27.316,30.4,44.527,32.74,16.549,36.027,-3.345,-3.331,21.001,5.086,-0.381],[6467.794,6643.897,6597.869,6320.633,4524.839,1373.581,1742.519,1231.454,1059.585,637.943,699.997,630.595,603.612,376.427,337.588,109.198,167.035,190.21,124.52,50.489,53.659,67.068,47.636,59.317,60.831,15.607,10.354,33.222,7.959,19.449],[6723.27,9116.943,9102.791,6937.185,6544.222,1614.645,1997.512,1306.928,1723.915,1155.058,767.605,913.533,822.4,820.604,640.618,119.647,169.595,184.131,159.313,114.326,40.451,65.427,61.834,91.536,38.27,14.322,18.509,51.54,30.671,19.598]]
}