{
"KTrans": [[0.974,2.086,-0.06,0.524,0.318,12.154,6.292,5.298,3.947,4.516,24.457,14.814,12.368,10.052,9.704,162.781,95.338,74.272,65.055,59.97,411.458,227.729,175.077,153.815,140.119,1188.783,603.003,459.826,397.718,360.556],[2.317,2.087,0.737,0.107,-0.068,12.748,6.941,4.145,2.914,2.378,22.012,12.147,8.923,5.95,5.406,137.413,66.397,46.37,35.836,30.253,347.92,149.51,101.019,78.836,65.599,968.504,374.501,238.217,181.911,152.816],[2.857,2.514,1.088,0.792,0.309,12.917,8.155,4.141,3.27,2.098,23.518,12.945,8.073,6.067,4.903,137.86,64.1,42.878,32.09,26.267,331.112,143.4,91.064,68.628,56.164,949.159,349.897,213.214,155.155,124.852],[1.217,4.363,2.309,1.591,0.632,4.923,8.593,5.274,3.977,2.766,19.447,13.779,8.939,6.571,5.024,126.789,65.852,42.091,31.55,24.92,320.683,145.498,89.529,65.498,52.136,914.593,347.841,207.01,146.834,116.045],[-7.298,3.985,2.845,1.85,1.538,4.139,8.343,5.669,3.531,3.633,10.931,12.868,9.519,6.973,5.63,116.61,64.97,42.032,30.868,24.957,296.097,145.256,88.055,65.151,51.426,823.071,351.949,204.539,146.02,112.533],[-8.466,3.405,3.673,2.709,1.803,-1.777,9.415,5.8,4.676,3.62,9.285,15.294,11.11,7.643,5.957,111.406,67.183,41.424,31.403,24.704,262.481,144.164,90.218,64.111,50.637,679.911,348.675,203.957,143.335,110.846]],
"ve": [[1.532,-0,-0.327,-2.09,-2.379,4.534,0.232,-1.499,-2.066,-5.037,8.686,1.737,-2.969,-5.389,-8.656,45.442,12.907,-2.041,-11.865,-18.965,94.268,33.291,7.847,-7.989,-18.729,192.104,78.938,35.096,10.047,-6.494],[1.141,0.852,0.399,0.253,-0.297,5.15,2.426,1.345,0.792,0.192,10.074,5.046,2.833,1.438,0.824,50.398,23.909,14.255,9.08,5.317,100.335,48.151,29.496,19.309,12.362,200.296,97.376,61.192,41.586,28.63],[1.893,1.008,0.425,0.428,0.19,5.996,2.858,1.772,1.238,0.892,10.486,5.058,3.39,2.319,1.611,50.344,24.782,16.15,11.42,8.535,100.488,49.762,32.34,23.094,17.396,201.263,99.631,65.036,47.068,35.757],[1.687,0.94,0.619,0.337,0.356,6.309,2.716,1.9,1.298,1.001,10.578,5.141,3.57,2.52,1.834,50.761,25.137,16.497,12.122,9.384,101.41,49.992,33.084,24.135,18.959,201.68,100.123,66.031,48.757,37.968],[1.935,1.124,0.599,0.476,0.423,5.387,2.967,1.946,1.445,1.227,10.591,5.634,3.578,2.703,2.135,50.734,25.202,16.84,12.353,9.907,101.511,50.301,33.362,24.684,19.373,201.66,100.251,66.577,49.457,38.921],[1.928,0.961,0.754,0.508,0.366,5.642,2.791,2.022,1.521,1.178,11.337,5.442,3.872,2.833,2.171,51.766,25.44,16.914,12.537,10.024,101.828,50.532,33.604,25.033,19.943,201.128,100.521,66.866,49.804,39.433]],
"kep": [[2.165,5,3.297,5.807,6.186,10.373,9.033,9.995,9.477,13.737,17.66,16.063,19.146,19.764,23.816,85.589,77.657,82.758,92.435,102.888,170.377,152.439,161.897,183.33,203.427,352.976,303.306,325.378,364.264,405.623],[3.867,3.913,2.997,2.502,2.901,10.114,7.204,5.49,4.816,4.899,13.901,9.62,8.732,7.229,7.32,62.126,37.857,31.496,27.825,26.951,129.582,72.883,59.337,53.853,51.28,265.282,146.768,115.362,104.362,101.736],[3.653,4.183,3.336,3.014,2.766,9.361,7.937,5.031,4.702,3.869,14.799,10.355,7.293,6.395,5.969,62.449,34.98,26.271,21.683,19.407,120.769,66.829,48.19,40.609,36.532,257.502,131.317,94.8,78.073,69.996],[2.204,6.127,4.363,3.923,2.923,1.337,8.523,6.041,5.352,4.434,10.988,11.084,7.96,6.701,5.852,54.369,36.048,25.192,20.425,17.215,114.403,67.983,46.171,36.837,31.263,245.168,129.705,89.798,70.303,60.722],[-6.57,5.552,4.936,4.047,3.776,1.514,8.027,6.387,4.75,5.079,2.942,9.663,8.538,6.905,6.149,47.509,35.252,24.76,19.556,16.693,101.953,67.494,44.726,35.951,30.195,214.099,131.648,87.655,68.949,57.021],[-7.77,5.137,5.613,4.884,4.109,-4.512,9.235,6.443,5.829,5.116,0.882,12.229,9.797,7.442,6.444,43.012,36.809,24.162,19.842,16.332,84.357,66.534,46.132,34.712,28.901,165.562,129.651,86.962,66.726,55.204]],
"vp": [[-19.138,83.21,-187.849,76.847,-74.075,13.575,7.449,4.383,19.642,24.363,-5.05,-12.973,4.478,-0.954,-1.518,-1.494,-0.188,-1.135,-1.767,2.656,-0.128,-0.17,-1.282,0.052,-0.683,0.301,-0.389,0.224,-0.827,-0.041],[365.696,200.638,73.648,-42.53,11.117,76.599,26.145,6.829,-18.712,-40.939,66.906,-5.884,4.803,-6.945,17.298,8.723,0.955,-0.339,-0.782,-1.691,7.862,1.552,0.095,1.168,0.494,2.898,0.016,-0.067,-0.348,-0.037],[2082.033,340.496,-126.191,251.888,-38.966,416.811,69.297,32.363,7.832,-1.655,206.206,19.519,-3.934,-10.948,-0.686,39.102,1.76,3.44,2.68,-0.483,16.8,2.396,-0.483,1.97,0.125,10.719,0.4,-0.173,-0.397,0.154],[3431.172,700.376,17.903,-55.623,-112.831,679.978,103.098,2.352,42.634,-2.545,310.994,61.601,22.996,-1.925,-14.207,69.783,17.933,5.086,2.511,-1.505,36.561,5.251,1.757,-0.509,-1.167,16.676,1.888,1.144,0.349,0.208],[5110.486,1081.436,-124.381,-115.64,192.671,1062.081,180.736,47.19,-25.169,45.21,524.008,78.229,24.642,-4.181,30.21,98.024,11.902,3.973,-4.819,2.43,49.684,9.682,-0.358,-0.873,1.494,24.438,2.635,1.095,0.889,-0.478],[6083.401,1191.917,393.939,-42.463,104.095,1196.95,310.637,25.098,3.018,-1.711,617.374,179.767,83.286,24.501,17.115,131.174,23.708,-2.791,6.878,4.402,56.747,10.059,4.684,1.048,0.321,30.653,8.247,1.385,-1.064,0.233]]
}