{
"KTrans": [[44.23,41.201,27.317,29.25,25.844,70.485,47.52,48.2,33.497,37.712,60.161,55.069,45.017,43.456,47.007,259.085,135.062,108.438,118.98,106.234,576.414,329.072,235.152,214.511,209.538,1317.598,774.681,577.23,480.455,464.638],[-82.247,80.567,71.915,53.545,40.515,-64.308,84.527,67.61,55.601,42.08,-57.085,100.1,62.666,51.218,50.984,-41.61,235.668,126.913,95.951,76.402,34.359,319.219,184.238,170.642,135.511,208.056,716.857,381.827,266.545,219.93],[-111.201,4.174,143.577,97.7,74.717,-103.138,50.605,145.496,84.25,71.387,-134.764,41.02,160.212,86.673,72.828,-121.683,178.977,216.563,140.248,100.78,-176.214,212.736,313.977,174.822,162.878,-161.552,421.104,512.33,311.15,237.28],[-118.863,-153.226,109.125,136.568,94.033,-125.681,-118.956,137.922,149.841,80.823,-114.595,-70.157,173.704,130.922,110.063,-140.684,-86.334,207.453,189.439,129.17,-125.281,-34.856,261.577,257.337,174.231,-252.196,-89.393,481.118,394.6,313.693],[-114.675,-185.309,-17.43,233.944,148.482,-123.649,-174.403,-62.604,170.272,171.981,-123.861,-147.343,-23.619,251.246,178.445,-141.708,-155.892,-56.021,269.926,217.129,-148.008,-204.447,-54.382,399.852,282.591,-184.213,-201.024,88.996,561.829,341.517],[-117.148,-154.86,-178.017,59.463,267.067,-115.551,-167.53,-212.488,165.988,246.846,-118.062,-155.467,-107.981,163.059,258.573,-115.457,-179.713,-116.47,289.77,310.018,-117.465,-202.28,-234.345,201.568,366.009,-157.067,-297.441,-327.705,332.408,575.873]],
"ve": [[13.046,-3.23,49.947,-43.392,86.146,12.364,8.198,18.983,5.357,-121.954,11.39,7.921,-3.377,-1.84,-31.296,53.292,14.602,-2.756,-9.755,-15.839,95.371,36.523,7.335,-6.825,-18.303,177.419,81.925,39.82,11.143,-4.261],[8.758,0.269,4.165,3.955,1.49,-1.991,6.627,3.234,2.807,1.647,17.729,10.005,3.065,2.766,3.384,-1.799,26.253,15.388,10.037,6.33,106.503,49.556,28.861,22.166,14.316,198.969,102.091,65.552,41.443,29.33],[5.106,3.612,3.93,5.5,4.151,5.905,8.606,8.965,2.75,3.329,7.127,8.829,5.286,5.478,4.888,47.332,31.613,18.705,14.027,10.424,101.15,649.978,34.402,22.898,21.401,207.996,103.062,65.784,48.619,37.373],[4.047,3.982,-0.781,2.829,2.686,8.366,7.324,6.095,3.388,1.038,0.655,5.522,7.21,4.678,5.68,52.615,27.187,19.721,12.531,10.061,103.414,54.757,37.076,25.113,20.898,203.185,101.28,68.377,50.682,42.312],[2.569,4.317,4.599,3.743,1.263,-3.602,8.665,1.674,4.181,3.39,15.701,4.269,13.468,8.799,6.236,52.496,26.456,23.38,18.435,13.943,104.639,52.975,36.584,27.98,22.02,208.312,100.676,69.216,47.845,39.596],[3.986,4.484,4.392,5.137,4.313,10.195,7.977,7.255,3.559,6.208,25.362,9.245,11.546,4.84,3.907,57.079,30.796,20.313,14.64,9.556,98.331,34.608,33.94,31.966,23.51,197.941,103.532,70.506,55.126,44.402]],
"kep": [[31.551,36.764,27.643,37.839,37.873,51.369,44.305,53.484,40.949,59.77,37.588,47.748,51.128,57.094,70.201,132.1,102.605,112.151,145.089,151.432,237.079,210.282,207.803,233.805,277.979,373.766,376.036,381.967,416.61,487.578],[-84.709,67.437,59.507,45.087,37.14,-70.871,64.028,56.019,47.327,37.775,-66.492,74.735,51.24,43.665,44.209,-63.565,152.501,88.378,71.718,60.94,-38.922,168.828,110.959,115.012,101.354,-0.123,294.409,184.054,151.233,141.125],[-110.326,-6.991,122.13,82.408,62.543,-102.717,32.344,118.877,69.3,59.539,-127.585,16.899,130.454,69.511,59.018,-110.515,104.221,152.129,100.651,74.477,-137.559,97.321,193.346,111.661,110.066,-118.481,148.291,252.357,164.852,137.026],[-116.554,-144.826,90.194,115.58,78.151,-121.382,-116.54,110.386,126.974,67.56,-111.726,-72.153,139.459,107.044,90.449,-124.816,-88.253,139.923,138.926,95.846,-111.428,-61.43,150.2,169.053,116.406,-146.387,-93.882,229.454,212.756,179.843],[-112.837,-172.805,-25.826,199.495,125.62,-118.585,-163.711,-64.236,143.177,144.967,-120.113,-137.735,-34.631,206.281,146.938,-125.549,-140.958,-64.425,201.432,164.254,-122.161,-162.917,-65.91,266.692,195.237,-126.383,-144.021,9.026,314.793,198.75],[-114.08,-146.413,-169.276,43.619,228.604,-112.255,-157.399,-198.225,133.889,208.777,-114.727,-146.348,-104.352,133.497,216.954,-109.192,-154.33,-111.937,215.543,242.128,-105.704,-161.47,-188.931,123.012,254.01,-117.765,-190.676,-224.184,168.615,348.538]],
"vp": [[0.001,0.001,0.001,0.001,0.001,0.005,0.005,0.005,0.005,0.005,0.01,0.01,0.01,0.01,0.01,0.05,0.05,0.05,0.05,0.05,0.1,0.1,0.1,0.1,0.1,0.2,0.2,0.2,0.2,0.2],[0.001,0.001,0.001,0.001,0.001,0.005,0.005,0.005,0.005,0.005,0.01,0.01,0.01,0.01,0.01,0.05,0.05,0.05,0.05,0.05,0.1,0.1,0.1,0.1,0.1,0.2,0.2,0.2,0.2,0.2],[0.001,0.001,0.001,0.001,0.001,0.005,0.005,0.005,0.005,0.005,0.01,0.01,0.01,0.01,0.01,0.05,0.05,0.05,0.05,0.05,0.1,0.1,0.1,0.1,0.1,0.2,0.2,0.2,0.2,0.2],[0.001,0.001,0.001,0.001,0.001,0.005,0.005,0.005,0.005,0.005,0.01,0.01,0.01,0.01,0.01,0.05,0.05,0.05,0.05,0.05,0.1,0.1,0.1,0.1,0.1,0.2,0.2,0.2,0.2,0.2],[0.001,0.001,0.001,0.001,0.001,0.005,0.005,0.005,0.005,0.005,0.01,0.01,0.01,0.01,0.01,0.05,0.05,0.05,0.05,0.05,0.1,0.1,0.1,0.1,0.1,0.2,0.2,0.2,0.2,0.2],[0.001,0.001,0.001,0.001,0.001,0.005,0.005,0.005,0.005,0.005,0.01,0.01,0.01,0.01,0.01,0.05,0.05,0.05,0.05,0.05,0.1,0.1,0.1,0.1,0.1,0.2,0.2,0.2,0.2,0.2]]
}