{
"KTrans": [[4.344,2.893,2.237,1.51,1.713,15.092,7.931,7.392,5.987,6.759,21.713,15.706,13.834,11.871,12.232,127.633,91.543,72.95,66.452,59.711,58.931,151.191,144.67,142.747,130.918,145.689,-50.651,15.304,184.602,146.981],[-3.48,1.028,0.606,0.307,0.77,6.236,3.939,4.473,3.906,2.95,23.777,12.504,7.74,6.613,5.59,-11.587,72.273,48.777,37.204,31.251,-63.352,94.317,94.506,75.582,66.134,29.199,57.769,-0.274,152.232,148.366],[-7.267,-0.411,-1.105,0.693,0.347,6.288,2.449,2.662,3.056,2.292,9.613,7.417,7.225,5.436,4.939,-17.593,77.256,44.691,31.436,26.585,-21.948,63.666,85.347,66.864,54.429,14.196,60.068,7.169,116.611,129.316],[-23.067,-2.62,2.395,-0.866,0.525,-17.724,1.962,2.376,2.372,1.327,-15.664,13.016,5.734,4.71,4.563,-54.518,82.194,46.815,27.617,22.255,-37.027,-29.142,88.955,72.852,48.487,-40.981,-17.573,34.071,91.999,124.358],[-49.978,2.346,-0.014,-1.5,0.163,-49.502,0.088,2.999,0.901,2.077,-64.678,13.81,7.635,5.163,4.132,-60.194,13.08,46.714,27.865,18.987,-51.106,-38.736,61.852,68.739,52.28,-40.974,-39.792,0.569,-13.998,123.364],[-70.656,0.423,1.268,0.284,-0.073,-80.629,9.055,4.969,-0.187,1.842,-72.031,19.324,8.221,3.636,2.72,-63.246,-19.717,55.707,29.285,24.19,-55.89,-38.667,-33.072,71.184,51.385,-54.754,-11.512,-27.195,12.523,94.288]],
"ve": [[1.374,0.706,1.45,1.799,2.163,5.251,1.54,0.769,-0.966,-2.808,10.078,2.339,-0.819,-2.446,-5.522,48.939,14.803,0.457,-8.916,-17.559,94.129,43.096,7.381,-2.003,-15.503,192.525,81.236,35.248,12.371,-10.26],[1.193,0.017,0.498,0.48,0.148,5.411,2.538,1.433,0.888,0.844,10.694,5.072,2.821,2.118,0.983,59.237,24.047,14.875,9.806,6.177,102.631,50.288,29.711,20.14,13.344,204.431,95.093,72.369,-12329.662,31.217],[0.639,0.92,0.334,0.248,0.274,6.503,2.075,1.703,1.218,0.773,10.309,4.577,3.076,2.192,1.687,49.435,25.251,16.119,11.56,8.654,100.35,46.949,31.779,23.43,17.604,200.844,83.939,61.728,43.32,37.189],[2.24,1.047,0.2,0.145,0.167,5.864,2.674,1.367,1.3,0.658,9.953,5.292,3.097,1.913,1.866,49.745,26.03,16.735,11.795,9.241,99.113,50.113,32.54,24.75,18.424,205.188,100.41,66.814,47.946,40.414],[0.252,0.594,0.201,-0.076,0.128,5.753,2.328,1.653,1.004,0.858,9.947,5.183,3.543,2.669,1.819,56.782,25.175,17.128,11.917,9.377,101.696,51.298,34.878,24.399,19.759,202.232,104.056,66.963,48.989,41.8],[-1.418,0.703,0.157,0.348,0.205,6.688,3.064,1.824,1.237,0.979,10.594,5.767,3.277,2.504,1.639,50.388,25.512,16.53,12.499,9.998,95.699,51.351,30.654,24.992,19.349,205.943,101.324,72.331,49.443,37.862]],
"kep": [[1.884,1.547,0.347,-0.236,0.563,8.262,5.295,5.976,7.436,10.73,9.536,12.116,14.046,14.383,18.679,50.119,64.462,70.312,80.708,91.961,-4.688,76.178,116.416,149.526,171.833,8.77,-50.618,-15.24,146.29,147.076],[-6.162,-0.38,-1.36,-1.599,-0.819,-0.592,-0.078,1.521,1.523,0.626,10.04,5.502,3.298,2.89,3.066,-36.472,35.871,27.338,23.083,21.847,-71.057,26.894,46.843,43.491,44.194,-46.637,-11.204,-36.081,71.245,86.008],[-9.674,-2.828,-2.884,-1.04,-1.399,-2,-1.084,-0.544,0.321,0.023,-3.051,1.17,2.485,1.659,1.675,-42.699,37.59,22.303,15.867,14.693,-56.537,8.847,36.922,32.468,28.972,-57.23,-15.556,-27.685,40.474,63.289],[-26.683,-5.156,0.656,-2.487,-1.129,-24.527,-2.343,-0.514,-0.453,-0.832,-25.516,5.484,0.998,1.21,1.123,-67.431,39.507,23.024,12.225,10.13,-65.255,-47.779,37.704,35.33,23.111,-75.417,-52.819,-14.098,26.833,55.148],[-52.248,-0.355,-1.839,-2.903,-1.464,-53.287,-4.074,-0.335,-1.63,-0.303,-67.571,5.869,2.242,0.864,0.723,-71.625,-11.18,22.407,12.206,7.04,-72.558,-54.918,17.771,32.084,24.528,-76.859,-62.725,-34.227,-37.333,53.902],[-70.944,-2.946,-0.66,-1.624,-1.791,-80.929,3.117,1.264,-2.955,-0.667,-74.837,9.799,2.915,-0.483,-0.493,-73.962,-35.97,29.628,12.706,10.991,-75.646,-55.749,-46.776,32.772,24.003,-81.971,-51.96,-52.191,-22.845,34.521]],
"vp": [[73.006,-136.137,-29.234,-26.952,-84.436,12.457,-4.314,-24.526,4.594,18.853,-21.715,-0.88,-6.909,-17.922,5.125,-0.087,-8.585,-0.636,2.382,-26.373,-13.605,4.998,-13.847,5.2,-12.077,-24.368,-4.159,14.847,-9.193,-11.188],[1395.595,-8.014,114.86,23.921,174.584,236.428,45.714,3.708,-9.59,-7.934,136.955,45.597,-17.096,-17.018,-11.059,-7.366,-16,6.185,1.83,2.443,-10.809,-27.051,-31.408,-12.645,-9.315,-31.444,-23.126,-9.182,-2.384,-2.321],[3446.859,767.938,318.944,360.747,9.706,680.988,75.955,28.242,29.11,28.939,232.688,38.369,42.957,-0.947,-22.142,7.439,15.954,6.619,-16.061,-1.112,1.6,-20.887,-31.01,-29.399,-19.456,-37.46,-45.783,-33.43,-13.469,-25.375],[4330.559,1600.064,503.305,31.119,110.293,1087.835,298.162,56.204,76.02,14.947,337.278,112.663,58.759,-24.714,31.553,79.084,34.413,27.478,-19.536,-17.534,-0.618,-8.363,-25.33,-2.247,-30.416,-6.475,-31.368,-34.528,-25.288,-16.304],[5566.596,2871.704,797.529,423.83,436.644,1023.18,480.278,268.912,134.005,55.31,490.231,325.671,129.315,25.049,7.763,74.546,46.894,25.621,-7.564,-12.857,19.782,6.284,-13.422,-19.563,0.46,-19.779,-1.478,-32.239,-17.488,-23.392],[6800.926,3439.666,1459.86,591.406,773.537,1295.922,745.237,227.916,157.116,109.8,642.249,471.069,127.397,110.181,106.249,88.052,48.639,39.995,-8.095,27.025,11.865,18.442,15.873,-0.213,-16.408,2.647,-23.066,-6.92,-27.054,-32.777]]
}