{
"KTrans": [[3.013,9.935,-7.073,4.05,-4.941,14.126,20.764,15.314,11.156,-1.342,11.608,23.397,32.849,17.252,10.163,39.223,64.61,78.895,84.011,89.478,43.48,74.276,102.049,122.314,130.363,-245.43,-39.636,-51.723,6.024,77.464],[-45.717,-15.967,-2.451,11.206,1.151,-39.084,-13.213,4.19,9.61,8.02,-44.363,-6.788,3.624,10.543,9.306,-21.916,12.585,9.042,29.793,35.777,-12.492,-2.211,24.158,27.555,40.007,16.36,12.331,-43.805,-25.207,9.261],[-62.606,-29.621,-12.91,-9.513,-0.492,-58.052,-26.132,-11.429,-4.093,3.991,-55.45,-19.923,-9.317,-4.836,1.442,-38.374,1.189,17.744,5.463,12.42,-6.64,32.428,35.792,17.433,-8.306,-54.712,25.44,-19.882,-40.078,-18.703],[-68.889,-36.297,-17.361,-8.2,-6.757,-64.686,-30.364,-11.297,-9.338,-7.875,-64.579,-31.826,-16.34,-4.862,-2.325,-56.512,-2.484,20.85,7.162,11.578,-54.75,13.794,33.437,28.179,25.045,-62.875,-23.046,43.196,12.071,37.3],[-76.314,-40.034,-16.968,-9.612,-5.568,-75.302,-35.647,-14.011,-8.302,-4.921,-68.033,-37.427,-17.598,-2.959,-2.089,-65.914,-16.912,10.218,15.829,22.918,-50.728,6.088,31.372,34.235,46.595,-107.147,-38.19,54.896,20.957,69.538],[-82.128,-42.385,-22.668,-11.381,-4.496,-77.98,-44.527,-15.691,-8.502,-5.293,-76.476,-38.993,-16.49,-6.809,-3.623,-65.342,-25.301,3.859,12.763,20.735,-67.809,-11.308,22.702,40.74,48.963,-49.853,-22.273,30.449,62.581,64.398]],
"ve": [[20.461,-29.622,-53.102,152.445,-62.315,-27.45,-97.505,-208.204,7.213,-59.689,-26.277,-14.468,-10.21,-44.907,95.436,67.967,-26.956,-29.587,-113.045,-24.55,93.905,20.675,0.469,-1082.721,-74.733,205.336,83.544,30.706,-0.178,-22.951],[14.899,9.831,400.895,-4.642,-12.909,-6.531,44.068,3.742,5.029,0.061,95.337,-7.96,-9.91,5.494,18.851,54.576,58.132,7.375,17.494,24.495,91.346,26.651,32.88,34.679,91.386,190.264,102.009,79.287,44.447,12.632],[-21.192,-15.74,-4.864,9.168,-2.108,5.742,-21.851,-8.942,-11.255,-3.04,28.051,2.195,-0.335,-25.263,-7.314,22.411,19.259,12.811,12.463,0.981,59.587,21.902,37.192,23.87,111.165,198.472,97.173,64.083,50.617,35.162],[-5.19,-4.943,-3.132,-21.072,-12.524,68.271,13.101,-3.486,-2.797,-0.026,-4.122,-4.967,3.87,-10.162,-1.942,152.621,15.799,-3.693,8.94,9.742,97.586,121.833,23.041,15.974,20.511,190.869,97.23,64.654,49.815,38.157],[-35.696,7.111,-4.365,-4.642,-4.301,42.902,-4.063,-1.728,-2.164,-1.2,-10.211,-5.443,-3.262,-3.694,-1.224,53.634,24.227,18.054,10.316,6.829,92.493,43.895,41.417,22.4,20.222,187.155,99.301,68.265,46.862,41.542],[596.965,-5.704,-3.201,-3.003,-2.434,-8.268,-1.983,-3.976,-1.706,-1.722,-4.319,4.387,-0.983,0.385,0.159,43.302,16.396,30.784,11.137,9.057,87.709,52.284,34.263,21.685,18.431,188.904,111.451,60.653,46.283,26.687]],
"kep": [[-121.064,-98.77,-72.305,-36.74,-19.8,-127.045,-124.729,-78.478,-71.179,-12.341,-120.857,-116.883,-107.763,-89.863,-80.653,-147.113,-203.259,-238.928,-217.788,-215.298,-164.552,-259.995,-324.156,-334.112,-399.792,-200.774,-305.865,-526.412,-709.257,-733.565],[-94.906,-102.568,-129.654,-103.58,-39.441,-90.707,-99.563,-123.938,-99.594,-55.026,-95.556,-88.493,-129.323,-103.058,-49.07,-91.981,-84.069,-152.792,-125.673,-124.705,-96.928,-117.388,-125.864,-200.35,-218.66,-82.754,-99.841,-178.566,-295.78,-345.977],[-92.543,-70.942,-64.106,-108.594,-130.986,-90.712,-64.472,-62.31,-89.139,-103.313,-89.033,-62.521,-62.418,-98.046,-129.559,-85.811,-57.601,-45.29,-90.066,-126.121,-78.625,-44.985,-46.801,-78.392,-192.837,-90.591,-60.806,-96.131,-139.321,-183.52],[-92.791,-64.541,-43.233,-35.44,-60.491,-89.861,-60.161,-41.584,-42.904,-61.981,-88.843,-62.549,-47.283,-37.417,-54.441,-90.483,-50.702,-20.841,-36.129,-37.556,-91.064,-47.305,-23.595,-26.709,-44.398,-90.812,-74.984,-34.16,-58.997,-39.675],[-93.599,-63.383,-32.706,-27.092,-28.265,-92.424,-61.995,-35.67,-28.787,-25.487,-89.891,-58.631,-41.473,-20.467,-21.485,-93.085,-56.007,-24.54,-14.438,5.693,-89.744,-50.651,-20.359,-7.749,12.921,-103.747,-81.787,-27.499,-41.035,3.187],[-95.544,-60.75,-38.448,-25.516,-14.097,-94.241,-65.376,-32.289,-20.799,-15.763,-93.173,-61.868,-34.372,-21.125,-15.818,-90.566,-59.092,-26.2,-10.487,5.536,-93.355,-58.053,-25.597,0.35,19.644,-88.899,-73.739,-37.206,-4.831,4.371]],
"vp": [[-202.393,-670.647,417.765,639.387,-84.935,21.968,29.459,-20.295,-14.972,-23.775,-101.67,-12.207,36.885,-8.142,91.996,-9.41,-5.932,-22.565,24.689,11.223,-6.868,-11.728,8.787,-0.535,7.213,1.63,-5.266,7.733,9.777,6.497],[3216.912,1236.637,737.263,-21.297,-540.868,627.057,35.13,-139.73,-149.805,-10.109,250.066,157.027,-6.333,12.733,-111.079,60.545,18.42,-6.085,-38.692,17.688,32.415,-1.762,-11.309,1.593,20.249,3.533,4.393,-6.241,-10.61,8.414],[4529.119,4083.842,2235.461,505.656,218.982,1006.535,559.915,267.47,67.85,134.864,444.773,321.925,261.26,14.723,-24.832,98.836,52.066,29.801,26.9,-9.03,36.574,23.642,30.603,-0.519,8.776,11.312,-0.401,-12.448,-9.133,0.064],[6328.183,5921.931,3634.318,1530.179,2417.354,1290.257,1247.466,809.656,266.02,232.991,562.057,542.611,284.22,189.691,140.704,108.454,119.688,77.129,60.348,33.594,58.66,30.422,25.132,11.734,21.445,12.092,16.536,-8.39,6.463,3.232],[7565.679,8640.101,6219.475,3605.954,3122.766,1329.9,1902.498,929.641,568.233,380.517,662.519,742.245,477.041,331.012,265.336,152.812,173.923,116.539,68.662,56.58,75.387,60.092,48.064,16.718,22.829,34.168,28.522,20.432,4.835,7.531],[6797.76,9669.473,6948,5963.17,2877.604,1511.145,1804.726,1528.494,885.254,642.632,731.698,1007.158,737.657,458.72,252.078,140.286,190.354,142.381,73.577,59.045,64.643,80.199,63.277,33.139,12.686,8.339,44.327,9.732,-5.373,-0.334]]
}