{
"KTrans": [[2.19,1.304,1.322,1.385,0.689,12.36,8.1,6.55,5.558,5.775,27.507,16.518,13.542,11.764,11.405,46.514,84.55,66.291,58.957,57.277,25.54,-20.981,78.536,76.658,89.612,168.757,169.654,-30.146,81.173,71.294],[6.039,1.15,0.793,0.657,1.093,10.86,5.253,3.868,3.255,2.941,29.445,11.74,9.176,6.071,5.57,25.029,60.6,50.35,36.051,31.659,38.315,30.748,43.794,75.05,66.021,48.821,57.369,-28.491,15.173,36.222],[8.923,0.705,-0.177,0.189,0.478,38.58,8.162,4.429,2.63,2.647,-18.232,11.175,6.769,5.615,4.789,-10.749,69.306,41.64,32.591,25.434,8.468,-0.594,-26.666,73.003,56.057,21.073,53.144,69.87,41.345,-5.881],[-46.464,6.77,-0.682,1.426,-0.053,-46.64,5.949,2.468,2.166,2.315,-45.433,24.106,5.456,4.379,4.411,-49.224,-14.196,36.739,27.19,25.565,-36.585,2.859,-41.067,54.656,47.41,4.869,-0.408,46.602,30.847,-40.171],[-71.948,18.24,-1.533,-1.798,-0.391,-67.792,5.501,5.24,4.412,1.113,-70.152,41.163,6.172,5.334,3.984,-61.378,-20.177,61.602,36.259,20.066,-36.091,-14.457,-31.829,4.65,54.01,-11.817,10.65,10.564,2.201,27.264],[-73.857,-1.208,6.974,1.524,0.349,-73.997,-3.039,11.218,3.504,3.356,-79.691,-36.285,3.439,3.726,5.138,-65.314,-19.721,12.946,39.125,28.811,-50.403,-20.147,-8.92,-13.768,41.171,-43.746,-10.633,-6.949,13.081,10.633]],
"ve": [[0.827,0.293,0.141,0.033,0.332,4.311,0.808,-0.823,-2.131,-3.518,8.91,1.863,-1.756,-4.589,-7.064,45.351,18.713,0.235,-9.389,-16.708,94.512,32.072,7.651,-2.447,-28.698,201.422,80.606,39.131,8.381,6.903],[1.392,0.475,0.278,0.211,0.234,4.736,2.328,1.396,0.91,0.583,9.769,4.81,2.948,1.764,1.124,49.047,25.909,15.513,9.612,6.182,103.361,48.494,35.432,21.639,14.293,212.328,102.05,63.175,41.059,28.936],[0.959,0.46,0.229,0.181,0.168,6.285,2.768,1.702,1.115,0.849,11.369,4.971,3.161,2.252,1.7,49.442,24.56,16.375,11.815,8.87,99.721,49.303,36.291,24.533,18.949,211.106,102.044,65.094,47.951,37.103],[0.024,0.769,0.174,0.388,0.125,6.797,2.343,1.577,1.152,0.936,33.683,5.734,3.236,2.336,1.868,50.035,-2.554,16.231,11.862,9.608,102.047,49.226,32.131,25.593,18.86,205.106,106.232,44.48,47.953,-193.4],[0.932,1.61,0.076,0.047,0.108,3.355,2.182,1.735,1.472,0.862,5.75,5.826,3.127,2.456,1.898,52.804,26.513,15.228,12.726,9.561,97.117,49.541,35.131,25.058,19.649,204.54,103.123,68.652,49.773,37.927],[-6.403,-0.015,0.553,0.318,0.231,5.785,2.862,2.256,1.36,1.164,11.597,1.566,2.887,2.233,2.156,53.24,25.533,16.194,12.432,10.32,100.74,49.343,33.076,20.295,19.523,203.605,103.624,68.455,49.459,40.064]],
"kep": [[0.774,0.433,0.624,0.833,-0.121,7.065,6.627,6.837,7.285,9.092,16.21,13.737,14.947,16.547,19.294,5.723,57.573,65.153,74.903,88.156,-14.709,-29.065,58.629,74.43,112.571,19.417,72.631,-16.444,74.977,94.122],[3.464,0.081,-0.06,-0.128,0.281,4.439,2.241,1.853,1.738,1.759,15.551,5.924,5.425,3.635,3.799,-13.478,26.726,28.671,23.212,23.156,-24.054,-4.656,7.295,42.616,44.1,-38.893,-4.661,-40.509,-12.594,5.938],[4.443,-0.565,-0.999,-0.565,-0.261,25.185,4.381,2.057,0.915,1.202,-26.872,4.93,2.849,2.689,2.446,-38.173,31.528,20.087,17.466,14.387,-41.601,-26.901,-38.451,36.874,29.556,-53.116,-14.817,8.187,1.159,-26.736],[-47.781,4.357,-1.6,0.416,-0.757,-50.434,1.934,0.131,0.376,0.777,-50.422,15.388,1.4,1.363,1.897,-62.779,-28.934,15.521,12.489,13.618,-64.748,-27.912,-48.57,22.045,22.362,-60.829,-42.895,-7.224,-7.258,-46.17],[-71.284,13.59,-2.614,-2.531,-1.113,-68.316,0.524,2.322,2.168,-0.372,-71.672,29.197,1.774,2.03,1.4,-72.092,-34.976,33.011,19.152,8.678,-65.73,-40.338,-43.782,-15.022,26.327,-67.106,-40.048,-28.299,-25.438,-4.252],[-73.221,-4.796,4.57,0.262,-0.589,-74.397,-8.863,7.128,1.169,1.449,-80.331,-39.852,-0.999,0.441,2.195,-74.608,-35.446,-4.564,21.206,15.317,-73.212,-44.271,-28.843,-28.474,16.449,-78.287,-50.523,-37.792,-20.055,-16.069]],
"vp": [[-72.414,-80.86,-83.373,-102.503,-117.336,-47.181,-8.09,-46.273,-31.286,-15,-44.769,-4.839,1.081,-12.023,15.427,-58.272,-16.1,-40.78,-43.93,-19.398,-57.573,-2.514,-34.414,-10.733,-6.191,-37.697,-35.456,-16.375,-19.49,-21.459],[305.359,230.198,-62.645,-92.15,-124.6,77.602,-16.576,-55.604,-37.742,-24.649,20.961,30.478,-35.846,-44.556,-43.941,-59.082,-56.541,-27.278,-18.292,2.064,-73.273,-35.267,-33.069,-23.334,-11.135,-41.95,-34.2,-50.627,-14.03,-3.271],[671.888,648.067,307.206,47.124,-38.976,130.569,174.146,94.989,15.878,-17.979,31.56,16.542,28.651,-18.062,-64.176,-45.748,-64.116,-27.597,-48.632,-66.47,-59.05,-62.303,-45.209,-40.46,-38.763,-24.541,-51.945,-59.334,-60.185,-20.992],[1521.193,1120.371,805.346,419.96,246.704,364.752,169.991,148.107,68.669,82.581,118.139,93.409,26.844,-11.531,43.655,-5.531,-41.83,-32.056,-23.983,-8.896,-50.718,-51.051,-36.908,-55.727,-66.752,-27.917,-31.425,-45.419,-71.069,-40.264],[3051.554,767.235,1173.774,418.792,722.917,508.198,65.883,334.225,254.122,123.812,321.496,134.62,137.158,95.644,88.82,10.197,-41.907,15.486,4.102,-8.157,-35.466,-49.25,-38.854,-45.536,-40.3,-45.873,-48.88,-39.208,-42.352,-51.179],[3552.408,1356.083,1425.841,1520.719,992.04,603.205,404.738,258.329,230.572,262.432,331.491,214.644,96.738,113.773,48.486,51.757,-23.907,-36.925,-15.274,53.289,-29.921,-39.199,-37.506,-37.095,-46.325,-39.285,-20.661,-32.25,-53.697,-34.977]]
}