{
"KTrans": [[21.364,18.709,22.082,29.215,19.75,24.374,23.307,23.264,25.826,17.248,15.108,27.877,21.035,28.915,17.332,50.505,33.471,34.959,23.994,34.042,66.523,56.374,51.787,53.321,61.117,89.837,97.686,91.5,94.686,83.87],[-56.854,-8.269,-2.724,9.551,10.656,-43.457,-4.684,6.544,6.947,13.137,-50.758,-3.102,1.53,10.764,12.456,-32.103,-5.506,11.935,15.822,15.246,-24.321,10.096,15.608,18.684,23.539,-1.142,19.361,30.496,39.777,37.799],[-76.589,-36.741,-14.194,-6.675,1.168,-66.719,-29.959,-14.004,-5.038,1.105,-68.922,-35.745,-12.728,-2.603,-0.81,-62.454,-28.162,-12.89,1.935,4.882,-60.712,-28.416,-9.008,2.796,9.696,-47.932,-16.566,0.476,13.316,23.489],[-87.259,-46.247,-32.615,-17.14,-11.559,-84.25,-52.089,-32.101,-17.7,-10.676,-86.549,-48.646,-31.248,-17.42,-9.769,-79.613,-49.524,-30.335,-14.333,-5.149,-70.392,-41.579,-25.784,-12.434,-1.511,-60.115,-40.889,-20.523,-6.107,3.046],[-89.894,-66.882,-44.136,-30.219,-20.74,-87.601,-63.182,-43.987,-34.555,-20.67,-90.897,-62.987,-47.043,-30.4,-18.106,-84.883,-61.097,-48.705,-29.681,-18.61,-77.585,-63.172,-43.141,-26.706,-13.286,-76.041,-57.177,-41.685,-24.534,-11.897],[-92.731,-77.311,-56.95,-39.115,-28.902,-91.017,-71.539,-55.717,-43.982,-27.722,-91.696,-71.484,-52.837,-42.144,-30.229,-89.969,-71.061,-54.286,-38.645,-26.278,-85.941,-69.663,-53.099,-38.147,-24.992,-78.181,-64.534,-50.04,-38.882,-25.009]],
"ve": [[10.009,-169.86,-257.045,6.719,-84.24,-2.639,46.725,-796.147,80.669,-30.534,413.37,111.297,43.319,207.462,174.309,25.806,-145.966,52.319,-107.732,-54.561,27.545,4.502,-24.954,-23.252,-45.925,76.008,3036.314,24.849,99.765,-34.056],[-10.958,-0.148,3.969,7.592,11.24,-55.647,-0.688,3.486,6.064,10.234,-5.076,0.832,4.546,6.754,12.063,12.574,8.549,11.575,12.001,12.67,23.843,20.979,16.271,16.227,18.581,62.719,43.811,29.31,26.036,25.267],[-43.166,-10.003,-5.638,-1.597,2.504,-47.124,-8.911,-4.702,-2.191,0.568,-27.932,-7.991,-3.212,-0.043,1.22,85.982,-1.003,-1.243,2.8,6.184,14.249,6.499,5.806,6.997,9.852,123.296,23.021,21.243,16.748,17.679],[-12.662,-15.62,-11.213,-5.852,-3.051,-31.134,-16.345,-11.002,-5.726,-4.265,-37.884,-15.48,-8.88,-7.076,-3.204,-422.177,-10.572,-5.837,-1.462,0.899,40.695,0.331,2.944,2.507,4.791,61.72,21.093,13.763,12.023,13.05],[-53.438,-24.436,-15.612,-11.102,-7.659,-28.326,-25.033,-14.685,-12.097,-7.053,-37.908,-18.809,-16.212,-9.153,-4.96,-25.899,-18.744,-12.376,-7.373,-2.958,6.891,32.204,-5.523,-1.338,1.16,48.641,13.683,3.479,5.733,7.991],[-87.184,-8155.346,-21.449,-13.836,-11.238,-51.867,-27.425,-20.787,-15.379,-10.126,-120.057,-24.955,-17.962,-14.678,-10.133,-39.823,-4.517,-14.735,-9.817,-7.349,-2.818,-8.986,-8.589,-5.439,-3.215,42.071,28.651,3.548,-1.163,1.786]],
"kep": [[-30.996,-36.466,-37.833,-34.924,-59.115,-32.168,-33.999,-43.53,-39.268,-62.835,-38.85,-27.545,-39.341,-37.52,-63.943,-30.875,-33.251,-30.633,-53.136,-41.353,-32.825,-28.026,-26.431,-25.606,-16.748,-47.473,-27.774,-16.828,-7.534,-13.429],[-72.244,-40.933,-39.772,-34.122,-35.444,-64.54,-38.767,-33.954,-34.93,-33.591,-66.836,-38.817,-37.832,-33.255,-35.037,-64.279,-44.418,-35.741,-33.439,-34.125,-66.331,-42.821,-36.764,-34.111,-32.585,-69.121,-47.628,-37.008,-28.967,-29.341],[-84.674,-55.617,-42.542,-39.643,-37.139,-78.465,-52.178,-42.78,-38.343,-36.121,-80.473,-56.045,-42.882,-38.103,-37.7,-80.029,-55.031,-44.44,-37.018,-36.978,-81.73,-58.245,-46.048,-39.197,-36.603,-83.368,-60.554,-49.112,-39.53,-33.837],[-90.965,-60.619,-52.087,-44.235,-42.068,-89.021,-64.574,-51.956,-44.704,-40.878,-91.408,-62.694,-52.64,-43.712,-40.831,-87.97,-64.472,-53.472,-44.955,-40.303,-85.146,-65.242,-55.066,-46.053,-40.462,-87.133,-70.497,-56.897,-47.973,-42.837],[-92.974,-73.456,-58.473,-50.507,-45.607,-90.895,-71.149,-58.771,-52.89,-45.851,-93.684,-70.832,-60.171,-51.533,-45.377,-91.003,-71.484,-63.157,-52.008,-46.86,-89.257,-76.185,-62.535,-53.495,-45.844,-92.719,-78.461,-65.779,-55.486,-48.816],[-94.487,-79.733,-65.552,-55.429,-49.231,-93.877,-76.574,-64.969,-58.115,-49.043,-94.476,-77.161,-64.319,-57.461,-50.776,-93.487,-78.391,-66.438,-57.184,-49.618,-93.281,-79.4,-68.194,-58.974,-51.105,-93.092,-81.659,-71.001,-61.893,-53.918]],
"vp": [[-623.534,-655.87,-692.922,-1140.094,-682.074,-68.241,-99.2,-162.813,-203.555,-40.458,30.656,-78.016,-39.574,-80.287,-11.159,-16.78,-14.824,-1.237,2.609,-11.67,-5.394,-6.717,-7.843,-4.848,-13.139,4.535,-1.529,-4.175,-6.146,3.432],[3632.539,672.022,298.697,-1190.174,-1112.121,546.204,7.821,-131.687,-129.022,-188.804,291.048,-10.611,17.721,-87.677,-141.542,26.621,11.895,-17.302,-14.72,-12.552,10.96,-11.243,3.146,-4.89,-6.756,1.137,7.403,0.172,-6.883,-7.3],[5778.507,3353.233,1675.759,473.281,-328.573,831.182,595.62,322.123,166.86,-1.645,403.948,307.648,91.799,-19.029,-13.142,70.52,58.587,46.71,-4.615,-11.431,38.338,34.518,24.451,4.138,-7.066,9.041,12.558,2.932,-0.121,-12.771],[6881.945,4285.311,3695.68,1839.089,1586.164,1299.084,1056.366,755.366,446.587,414.417,751.327,509.901,368.7,250.125,155.018,131.065,107.584,86.502,45.487,23.026,43.715,45.754,22.557,19.128,3.887,4.744,24.382,16.094,5.313,-0.713],[7399.822,7874.404,5709.304,4590.788,3469.103,1349.72,1481.763,1145.638,1183.849,680.578,722.51,699.717,658.627,433.257,239.255,125.994,136.133,144.984,99.04,60.2,46.26,82.234,63.502,39.521,20.332,24.255,35.562,39.73,29.094,11.715],[7633.806,9892.897,8623.734,6258.846,5287.184,1474.803,1787.316,1704.279,1529.483,1001.022,778.998,926.179,771.345,766.442,588.295,167.159,184.306,168.174,139.6,96.652,65.735,77.361,77.078,66.215,49.995,22.829,32.285,38.257,49.818,33.545]]
}