{
"KTrans": [[3.404,2.579,1.414,1.81,0.84,13.09,7.395,7.251,5.274,5.745,24.131,15.421,12.1,11.098,10.415,166.264,95.415,75.737,65.292,59.841,426.976,232.977,173.418,151.164,138.858,461.006,546.919,420.839,382.337,345.485],[3.958,1.17,0.826,0.677,0.469,10.447,5.909,4.795,3.042,2.926,19.898,13.343,8.713,6.562,5.832,141.643,64.322,48.227,36.267,30.959,366.1,154.381,102.83,77.77,66.606,-52.748,372.325,227.114,184.299,155.369],[-2.724,1.678,0.66,0.552,0.596,7.151,5.528,3.54,3.052,2.548,15.573,10.944,7.377,5.71,5.305,137.845,65.731,42.278,30.652,25.779,-7.544,146.285,91.866,70.69,54.257,-13.746,530.356,229.703,159.556,126.157],[-4.105,1.73,0.36,0.257,0.205,-2.088,5.123,3.658,2.419,2.209,8.916,9.446,6.91,5.773,4.521,57.108,71.662,41.319,29.904,25.296,-102.429,171.176,83.998,68.411,51.732,-48.227,267.947,238.985,160.821,112.174],[-8.189,1.092,1.111,0.533,0.732,-8.766,5.699,4.084,2.438,2.797,3.801,9.777,6.639,4.844,4.345,50.782,67.848,37.412,31,23.188,-115.393,181.348,84.449,61.246,50.11,-84.095,183.437,255.771,156.784,108.539],[-19.7,-0.512,0.274,0.939,0.224,-14.816,0.682,3.869,2.594,1.888,-7.433,8.264,7.037,5.869,3.819,-5.294,63.087,39.561,26.985,21.788,-83.543,188.783,100.404,60.385,48.785,-27.337,-136.796,245.025,148.163,110.582]],
"ve": [[0.969,0.8,0.427,-0.93,0.933,4.798,1.245,-1.924,-1.771,-3.988,8.244,1.924,-1.144,-4.816,-6.095,46.715,13.172,-1.242,-11.583,-17.801,94.562,33.958,8.662,-7.358,-18.065,190.399,83.004,36.928,11.36,-4.82],[1.663,0.739,0.456,-0.181,0.096,5.614,2.468,1.333,0.925,0.333,10.723,4.725,2.975,1.525,1.115,49.533,23.645,14.584,9.005,5.612,105.02,48.189,29.536,19.402,12.658,203.127,96.868,60.835,41.73,29.498],[1.249,0.667,0.44,0.187,0.235,5.558,2.623,1.459,0.89,0.838,9.979,4.639,3.403,2.114,1.788,50.662,24.811,15.894,11.31,8.426,104.923,48.776,32.075,23.322,17.416,197.484,100.588,65.543,47.261,35.81],[1.313,0.805,0.424,0.215,0.275,5.594,2.549,1.892,1.259,0.915,10.296,4.921,3.318,2.344,1.864,45.569,25.042,16.521,12.087,9.301,98.182,50.391,32.699,24.403,18.718,199.644,97.545,66.166,49.079,37.793],[1.674,1.04,0.597,0.235,0.129,3.686,2.95,1.831,1.252,0.958,10.676,4.958,3.235,2.28,2.013,51.09,25.147,16.429,12.43,9.659,101.156,50.767,32.737,24.435,19.121,200.39,98.13,66.993,49.163,38.609],[-1.04,0.689,0.446,0.339,0.318,5.236,2.4,1.658,1.348,0.848,10.463,4.982,3.384,2.69,1.962,49.891,25.23,16.467,12.198,9.806,97.967,50.354,33.758,24.609,19.53,179.757,103.151,66.477,49.666,39.207]],
"kep": [[2.739,2.147,1.631,3.497,1.149,8.309,6.453,9.958,7.966,11.155,15.043,13.654,13.875,17.583,18.484,81.491,73.035,78.515,87.529,95.259,168.976,148.668,152.056,171.821,192.411,92.421,253.15,280.552,333.689,369.16],[2.425,0.56,0.499,0.981,0.506,4.79,3.498,3.553,2.214,2.714,8.535,8.375,5.72,5.09,4.805,60.712,32.908,29.457,25.134,24.157,127.324,71.129,56.497,48.993,48.058,-76.255,137.177,102.691,100.335,97.26],[-3.907,1.114,0.324,0.47,0.462,1.662,2.939,2.167,2.255,1.802,5.166,6.162,3.958,3.63,3.56,56.24,32.651,22.828,17.463,16.116,-51.66,64.499,45.088,38.432,31.463,-66.349,207.302,97.935,75.806,66.441],[-5.299,1.049,0.047,0.146,0.031,-7.335,2.617,1.846,1.248,1.386,-1.455,4.448,3.583,3.452,2.71,3.46,36.956,21.295,15.983,14.731,-97.359,78.991,38.276,35.342,27.828,-79.126,80.396,101.873,74.104,53.74],[-9.7,0.147,0.615,0.405,0.704,-13.702,2.716,2.317,1.275,1.922,-6.346,4.62,3.394,2.605,2.388,-1.392,33.769,17.981,16.57,12.412,-104.528,84.443,38.512,29.462,26.038,-91.727,39.744,110.486,71.138,50.087],[-21.018,-1.142,-0.084,0.702,0.005,-19.094,-1.606,2.269,1.321,1.13,-16.584,3.22,3.631,3.19,1.919,-37.229,29.732,19.731,13.225,10.996,-90.074,89.017,49.178,28.556,24.468,-73.454,-114.157,104.201,64.788,50.77]],
"vp": [[-14.265,-63.343,-163.718,88.73,51.639,1.985,25.756,9.6,-7.902,11.824,-21.744,-6.31,0.001,-7.583,5.46,2.908,1.354,-3.55,-14.779,4.163,-3.946,3.541,-3.704,-8.593,-5.057,-7.476,5.843,-3.569,-3.639,-0.973],[812.828,305.054,92.189,-76.616,208.902,211.333,49.857,20.518,4.161,11.432,85.451,34.445,-2.372,5.518,0.774,7.429,-2.893,4.533,-2.445,1.382,10.553,-4.999,0.214,-2.307,1.228,-14.818,-19.679,-15.156,1.321,6.367],[2102.525,213.336,-2.385,89.479,39.123,420.774,73.662,-3.673,17.566,-21.816,230.155,33.616,15.782,-5.724,8.503,34.857,12.817,0.284,-6.503,-0.482,11.631,-7.505,-5.864,5.149,-7.42,-6.742,-1.826,-1.434,-6.92,-7.113],[4283.642,758.899,297.393,81.54,54.332,758.216,81.084,74.258,10.46,-21.181,434.546,60.04,29.042,17.071,-1.66,70.016,23.609,10.897,2.331,8.433,34.461,6.366,-11.799,6.733,-2.983,-4.954,-2.793,-3.52,0.378,-11.123],[5036.337,1603.07,503.075,91.109,169.92,1060.783,304.072,179.291,25.92,33.963,547.222,135.037,46.119,5.351,6.665,94.31,37.49,-7.544,20.636,-5.904,42.73,14.341,-6.373,-5.997,0.075,9.223,1.364,-0.504,-5.696,-10.283],[6144.315,2304.535,744.359,296.668,431.161,1214.132,426.831,162.902,108.094,39.767,608.676,215.715,84.411,63.063,11.218,98.23,46.708,6.98,-3.494,-6.54,43.88,29.427,11.964,-5.329,-3.853,7.001,19.586,-14.157,-2.342,-9.852]]
}