{
"KTrans": [[1.098,6.737,-5.867,0.871,-2.24,9.914,12.476,3.517,10.232,8.026,9.101,21.801,23.178,18.777,17.24,4.098,42.231,78.858,84.927,90.214,-159.196,-34.664,107.505,107.443,102.517,8.441,-164.203,-7.218,28.56,39.609],[-31.015,-7.566,-0.396,5.364,-0.083,-19.595,-4.505,2.136,6.372,3.399,-23.648,3.333,3.056,9.855,7.016,1.895,9.74,-2.787,19.342,33.453,-108.285,-110.32,20.294,-3.692,40.28,6.513,-79.573,-83.819,-45.84,-6.854],[-40.96,-7.035,-3.734,-2.896,1.093,-35.373,0.023,-0.532,-1.703,1.099,-37.604,0.743,3.166,3.091,2.868,-44.653,20.823,21.354,-12.346,-6.289,-25.631,-47.531,-33.208,-28.523,23.005,6.714,-5.767,-9.214,85.662,8.818],[-50.252,-11.563,-4.329,-1.416,0.013,-49.595,-4.281,-0.757,2.818,3.094,-53.436,4.065,5.449,4.278,4.952,-47.639,-7.343,23.04,19.776,16.067,-28.097,5.212,-61.338,-8.313,-6.268,-113.644,-5.92,-25.583,41.837,60.199],[-61.632,-11.91,-1.916,-2.956,-0.515,-57.694,-15.928,-3.146,1.56,1.822,-55.624,-1.046,1.995,5.32,4.629,-50.317,9.487,39.287,23.784,19.057,-62.761,1.487,31.732,30.864,17.2,-19.931,-8.114,-19.392,-85.773,38.102],[-70.832,-22.519,-6.907,-1.265,1.129,-66.421,-16.192,-1.249,0.05,0.863,-71.891,-13.078,6.152,3.806,4.403,-56.753,-38.108,23.813,25.632,37.022,-86.566,-65.252,-19.072,11.959,21.459,-66.565,-38.003,-120.224,48.516,-60.282]],
"ve": [[5.631,-22.467,7.266,73.88,70.951,6.837,43.22,29.687,-81.774,6.053,20.188,79.537,-21.896,-54.069,-24.985,-292.407,8.624,-55.115,-62.635,-285.486,105.836,27.832,-12.565,-72.355,-67.548,194.551,87.463,32.496,1.939,-14.342],[-4.81,-7.745,3.484,-0.461,-9.325,-2.443,9.525,2.498,2.063,-33.076,-1.222,0.748,10.591,-12.942,-18.042,48.056,27.645,14.573,10.991,1.431,94.176,47.823,32.734,16.713,1.418,201.082,100.029,63.969,43.533,25.388],[-6.426,-0.626,-4.877,97.773,12.104,-4.359,1.65,-0.855,36.049,-0.48,1.111,1.737,0.578,-12.979,2.55,53.752,19.884,17.799,14.005,11.947,104.358,61.267,33.828,24.756,19.204,195.603,98.009,59.629,48.834,57.654],[1.558,-1.458,-0.402,-0.995,-2.512,-1.826,0.127,-0.307,-0.232,-0.212,0.328,4.716,1.964,-0.731,1.601,53.2,24.427,17.124,10.834,9.833,110.233,49.185,32.044,35.125,20.639,202.47,103.044,69.487,50.104,41.093],[-10.826,-1.275,-1.481,-0.844,-0.993,4.601,-0.521,0.411,1.41,0.809,7.061,3.201,2.068,1.975,1.763,49.306,23.412,17.584,11.8,7.133,101.495,49.002,34.432,24.784,16.863,196.535,97.082,66.395,49.728,41.09],[19.134,-0.469,-0.913,0.528,0.097,12.326,-0.504,0.438,0.253,0.415,-9.637,8.716,2.433,1.73,1.32,27.385,22.8,19.215,3.757,8.506,98.342,50.155,32.247,32.074,22.34,199.6,100.646,67.946,50.917,47.282]],
"kep": [[-112.708,-46.59,10.033,-12.355,-12.85,-118.897,-54.283,-25.197,-36.46,-19.403,-130.674,-75.701,-48.688,-26.923,-43.365,-138.57,-244.307,-217.772,-174.066,-194.27,-154.389,-364.601,-295.097,-370.997,-433.7,12.273,-209.709,-450.721,-610.465,-720.405],[-63.124,-58.494,-120.148,-55.92,-0.956,-54.218,-61.589,-118.241,-56.23,-15.015,-62.399,-40.937,-122.805,-62.497,-18.568,-55.538,-48.234,-156.477,-180.511,-107.193,-93.52,-117.855,-73.582,-254.434,-206.632,-48.883,-62.777,-50.741,-161.815,-322.56],[-62.456,-17.362,-19.489,-45.877,-135.362,-59.26,-11.084,-15.75,-44.811,-128.582,-63.755,-14.588,-9.832,-35.091,-110.561,-70.268,-16.635,-6.82,-83.032,-168.564,-60.212,-68.488,-55.96,-83.799,-29.185,-55.914,-35.66,-39.332,68.15,11.437],[-70.014,-21.335,-11.232,-4.211,-5.098,-69.528,-15.035,-6.993,2.348,2.735,-74.141,-10.09,-1.206,-3.162,4.957,-76.893,-38.936,-4.773,-1.924,-2.252,-64.016,-35.683,-78.28,-44.895,-49.064,-86.844,-46.572,-44.795,1.737,36.063],[-76.935,-21.272,-4.639,-5.93,-1.258,-75.721,-26.258,-10.045,0.675,-0.91,-74.902,-18.272,-6.345,3.314,4.748,-74.945,-26.11,12.206,7.262,6.561,-78.774,-40.523,-11.002,-5,-11.056,-72.324,-52.357,-45.586,-75.635,1.626],[-83.87,-34.974,-10.778,-2.877,0.054,-82.33,-28.071,-9.15,-4.262,-2.104,-84.853,-26.981,-1.217,1.728,1.287,-78.221,-56.906,-3.814,8.269,24.647,-88.795,-78.276,-45.001,-23.636,-8.99,-82.239,-66.774,-91.682,-7.617,-75.021]],
"vp": [[-122.698,-214.649,-207.612,194.756,-25.894,28.539,84.546,81.304,26.997,28.884,17.004,19.862,3.665,25.493,-0.047,-18.324,-0.972,-3.843,-20.631,-6.93,-1.345,0.928,-25.454,-8.309,15.176,-38.017,6.314,-3.97,-9.942,-3.905],[1671.172,976.66,-95.017,-205.818,-42.936,543.686,147.5,-2.168,37.47,5.444,200.558,86.964,-9.447,-37.963,77.275,-3.833,-12.817,-25.954,13.467,-0.142,7.354,-12.476,-27.354,-1.534,-12.004,-15.601,-22.1,-9.459,-3.38,-9.36],[4696.55,1809.502,552.926,737.076,-53.253,772.623,475.404,220.163,70.074,74.376,438.254,183.349,68.479,56.199,-72.792,47.55,-8.81,2.016,-9.406,-15.828,10.096,3.03,-24.622,-27.151,-37.043,-21.13,-36.922,-46.936,-36.707,-14.283],[5449.66,4000.584,891.921,637.019,288.874,1072.899,739.929,329.125,132.628,26.56,527.099,297.002,195.616,54.575,32.24,122.073,61.456,23.385,-7.272,-11.493,10.69,1.613,-12.973,-13.284,-25.984,-3.454,-7.946,-24.549,-28.617,-46.148],[6188.97,5838.608,2339.498,789.855,136.426,1187.515,1023.499,470.336,243.618,142.101,626.868,563.779,271.294,72.043,93.685,102.773,76.981,23.951,3.736,0.328,21.394,13.668,-6.569,-1.689,-11.285,-4.446,-34.636,-31.498,-26.19,-25.556],[7058.591,6836.823,3436.333,1041.823,1470.703,1429.389,1273.784,812.398,501.979,211.854,635.834,667.097,460.305,57.616,68.745,129.935,90.535,83.605,18.051,55.215,51.596,48.675,14.311,13.238,-5.903,-16.113,-26.357,-6.744,-14.443,-35.502]]
}