{
"KTrans": [[20.806,14.148,10.237,9.143,13.053,10.503,18.51,15.829,12.223,13.545,16.14,13.051,16.614,7.315,14.757,22.998,22.345,20.059,20.538,24.866,39.164,35.645,33.684,28.489,28.367,99.206,89.881,64.595,67.411,74.039],[-41.182,-9.194,0.019,3.282,4.949,-48.619,-7.125,3.089,3.336,6.895,-47.033,-7.787,4.177,7.807,4.647,-32.707,-2.119,3.28,8.476,10.996,-26.548,4.309,13.309,16.987,12.035,-0.262,20.444,22.967,25.286,17.529],[-74.751,-26.158,-9.493,-3.059,2.011,-68.305,-27.529,-8.329,-1.868,1.011,-68.72,-25.465,-9.729,-3.61,0.339,-63.608,-22.944,-11.958,-1.239,2.397,-43.455,-21.407,-3.016,-1.159,5.528,-49.832,-8.869,4.419,4.486,10.106],[-83.34,-43.797,-24.341,-14.866,-7.279,-83.034,-43.247,-22.86,-12.757,-5.452,-84.765,-38.479,-22.669,-11.736,-6.683,-73.012,-42.059,-24.06,-11.083,-6.227,-71.202,-43.474,-19.544,-7.168,-3.687,-62.851,-33.102,-21.149,2.275,2.246],[-90.443,-57.607,-37.595,-22.072,-12.787,-90.197,-55.493,-25.386,-21.066,-11.414,-90.971,-51.032,-34.763,-23.809,-14.196,-79.125,-59.558,-33.197,-19.494,-12.628,-74.675,-50.963,-36.912,-18.505,-13.316,-78.201,-52.467,-30.039,-10.886,-10.658],[-93.665,-66.775,-45.508,-29.12,-21.669,-94.762,-68.033,-42.545,-31.12,-20.643,-93.031,-62.502,-42.218,-30.906,-22.835,-89.278,-65.295,-42.504,-28.912,-19.722,-86.54,-67.884,-42.098,-28.755,-18.888,-82.673,-60.404,-46.36,-24.534,-17.121]],
"ve": [[12.364,-5.132,-1190.869,46.94,93.157,-94.906,-4.177,-22.202,27.041,44.417,5.966,17.428,34.087,0.031,67.39,16.174,15.302,30.161,52.041,57.159,16.044,32.067,-18.119,101.851,-128.051,40.918,27.462,8.481,-20.639,-22.438],[-11.778,-1.594,0.841,3.109,4.05,-13.697,-2.133,0.81,2.833,5.803,-18.089,-1.6,0.993,2.921,4.718,-2.203,4.151,2.833,5.296,6.856,3.667,8.648,9.72,8.593,8.803,38.204,29.833,19.163,17.164,16.367],[-38.32,-10.209,-3.244,-1.3,0.225,-29.551,-8.69,-2.849,-0.198,0.355,-34.47,-9.731,-2.39,-0.758,0.906,-18.962,-3.03,-1.365,1.669,2.743,-7.832,2.378,5.344,1.763,4.753,18.723,20.523,13.163,8.786,9.34],[-45.933,-18.721,-9.562,-5.255,-2.193,-38.413,-17.599,-7.107,-4.656,-2.479,-44.924,-15.424,-7.887,-3.484,-1.894,-25.334,-12.506,-5.618,-2.329,-1.132,-23.411,-11.704,-0.438,2.011,1.702,29.046,6.751,1.463,10.468,6.048],[-57.619,-25.344,-14.732,-7.629,-4.537,-27.031,-24.824,-9.399,-8.287,-4.139,-64.78,-20.606,-14.075,-8.219,-4.852,-29.121,-22.836,-9.865,-4.557,-3.844,-26.091,-11.472,-9.044,-2.551,-2.323,-1.546,-10.357,0.029,8.546,2.249],[-75.936,-31.07,-17.782,-10.504,-7.674,-111.142,-30.4,-17.809,-11.422,-7.117,-67.143,-29.219,-16.423,-10.601,-8.265,-43.385,-25.04,-13.439,-8.384,-5.017,-30.818,-23.516,-9.334,-6.701,-2.92,-10.03,-11.007,-6.025,2.209,1.291]],
"kep": [[-11.473,-13.463,-22.582,-25.981,-21.998,-16.214,-12.511,-14.445,-23.369,-19.98,-16.97,-16.273,-15.928,-31.936,-22.426,-19.038,-13.224,-18.461,-16.645,-12.997,-26.192,-16.188,-11.125,-16.223,-17.654,-40.059,-11.784,-12.113,-1.058,20.076],[-48.15,-27.135,-21.175,-20.111,-19.579,-55.073,-25.138,-18.734,-19.937,-19.314,-53.554,-26.188,-18.038,-16.433,-20.245,-50.028,-26.327,-20.292,-18.108,-17.307,-58.778,-26.91,-19.537,-15.073,-18.215,-66.376,-32.201,-22.196,-16.9,-20.005],[-73.026,-35.968,-26.026,-22.032,-19.136,-70.13,-38.363,-25.373,-21.865,-19.962,-68.843,-35.916,-26.936,-22.84,-20.99,-70.476,-37.811,-29.513,-23.124,-20.993,-69.92,-42.092,-28.648,-23.841,-20.546,-77.089,-48.436,-30.902,-26.541,-21.973],[-82.353,-46.221,-33.976,-28.769,-24.715,-83.669,-46.642,-34.711,-27.457,-23.067,-83.428,-44.112,-33.885,-27.487,-24.52,-79.874,-49.723,-36.849,-27.982,-24.784,-84.131,-51.587,-37.481,-28.687,-25.315,-78.571,-61.393,-43.321,-28.93,-25.434],[-90.044,-57.72,-42.639,-33.296,-27.495,-89.755,-55.31,-35.533,-31.862,-26.701,-90.647,-52.696,-40.399,-34.347,-28.45,-84.214,-61.213,-42.259,-33.308,-28.085,-84.483,-59.848,-46.74,-34.469,-30.229,-84.152,-70.263,-48.532,-37.002,-32.408],[-92.819,-64.258,-48.543,-37.317,-32.779,-95.2,-65.73,-45.677,-38.702,-32.346,-91.808,-60.286,-46.634,-39.064,-33.35,-90.606,-65.836,-48.489,-39.048,-33.197,-89.766,-71.113,-51.174,-40.089,-34.134,-86.724,-74.801,-58.796,-43.647,-36.467]],
"vp": [[-210.76,-353.158,-214.48,-115.254,-533.547,2.096,-161.767,-136.249,-83.316,-53.046,-19.267,-9.982,-73.52,-5.329,-62.252,-0.36,-7.511,-7.211,-5.449,-21.203,0.246,0.173,-4.466,-2.451,-1.6,-9.707,-8.742,-1.367,-8.083,-15.1],[2326.913,421.373,-36.845,-149.896,-318.041,544.296,122.363,-46.686,-30.4,-174.79,269.554,77.261,-12.898,-77.309,-9.586,42.545,4.132,7.576,-0.507,-22.481,18.613,4.683,-7.007,-12.031,-1.574,-3.625,-4.261,-1.222,-5.966,5.322],[5356.945,2207.18,823.024,345.537,-310.92,849.302,437.867,134.804,19.18,-25.616,443.159,238.721,71.463,31.444,-8.232,69.973,38.689,30.265,6.071,-1.461,16.01,18.052,-1.264,16.911,-2.201,9.646,-4.391,-1.321,5.226,1.375],[5969.914,4306.234,2868.592,1864.033,1085.618,1203.264,860.364,484.552,311.156,173.01,632.969,339.562,273.272,138.6,96.099,86.903,83.498,57.873,32.654,22.835,42.5,51.616,21.463,8.205,6.971,2.054,14.05,23.141,-4.635,3.742],[7146.282,6086.169,4960.323,3075.762,1853.494,1402.181,1165.459,530.546,654.784,289.869,738.287,490.921,451.254,369.688,227.973,97.377,137.429,83.305,57.413,48.608,37.62,46.202,52.991,27.571,34.565,22.654,29.593,21.387,-3.148,14.937],[8246.661,7487.96,6109.415,4245.441,3709.421,1715.878,1544.452,1200.192,1030.355,687.309,779.51,708.883,568.911,465.471,438.583,127.888,150.221,112.033,86.044,64.997,60.484,84.925,50.599,47.256,31.124,26.303,34.691,32.62,10.933,13.757]]
}