{
"KTrans": [[-5.961,2.841,4.303,5.891,-0.067,-12.04,9.961,5.292,7.96,7.19,-3.368,-0.85,5.216,6.828,7.106,12.262,8.481,8.676,7.974,13.353,63.778,58.557,45.25,27.148,30.449,168.703,123.193,95.459,74.084,77.193],[-68.509,-0.856,0.833,3.665,4.384,-72.407,-5.961,3.066,-0.241,1.358,-71.494,-1.976,4.302,-1.857,-0.356,-57.493,14.652,1.063,2.911,3.904,-45.671,25.602,20.548,14.5,10.326,-43.634,49.144,53.987,32.862,28.365],[-87.155,-37.707,-2.596,1.393,1.421,-89.074,-25.493,4.204,-0.685,1.021,-88.242,-34.21,2.363,5.107,1.444,-82.649,-21.646,4.534,1.651,3.549,-74.176,-15.787,7.23,9.781,7.712,-54.059,44.847,39.038,27.852,28.37],[-93.35,-57.364,-16.866,1.444,1.375,-93.824,-52.823,-6.893,-2.395,-0.286,-95.173,-61.739,-9.87,-0.98,3.403,-89.807,-49.646,-1.159,6.981,3.651,-88.749,-35.352,19.239,10.349,12.207,-79.099,-3.999,9.304,39.564,32.421],[-97.071,-78.334,-19.604,-2.81,9.685,-95.975,-73.668,-17.627,4.877,3.877,-96.582,-70.634,-20.584,3.383,3.406,-95.986,-63.381,-21.09,7.527,8.725,-89.951,-59.497,-12.163,20.494,11.765,-95.616,-22.525,-2.083,34.299,26.448],[-97.746,-81.045,-39.716,0.323,1.396,-97.034,-78.373,-41.43,-7.864,2.306,-97.672,-82.72,-44.116,-10.85,3.301,-96.303,-72.279,-29.302,-12.74,10.171,-90.416,-62.941,-33.859,10.934,14.64,-86.433,-74.332,-2.024,23.903,27.117]],
"ve": [[-0.8,28.714,25.85,41.82,-204.034,4.311,8.886,26.51,923.214,-62.811,6.908,5.724,5.329,-201.609,43.379,65.242,14.717,-33.836,66.638,-25.097,22.243,10.572,-22.741,66.155,76.272,49.312,2.658,-1.785,-7.57,28.979],[-36.714,-3.64,-1.847,0.392,0.835,-245.165,-4.834,-1.212,-1.468,0.129,-48.726,-2.53,-0.929,-0.767,-1.519,-38.489,3.48,0.482,-0.769,1.191,-68.177,1.891,4.421,-7.578,-3.551,-41.229,12.542,14.279,-7.003,12.162],[-99.736,-21.706,-5.011,-0.884,-1.882,-57.67,-18.069,0.596,-1.601,-2.093,-65.091,-18.653,-0.831,-0.218,-1.206,-51.413,-14.635,-2.736,-2.309,-0.337,-30.818,-15.356,-19.027,1.353,0.516,-21.635,24.746,19.286,0.256,10.33],[-69.277,-38.474,-11.967,-0.427,-1.769,-58.077,-24.311,-6.569,-3.511,-2.646,-82.65,-38.096,-7.894,-3.557,-1.165,-87.559,-30.817,-5.691,-0.548,-1.377,-81.397,-21.461,5.372,0.911,0.33,-85.231,9.911,-2.404,6.33,10.786],[-87.664,-62.28,-8.573,-5.126,0.094,8.658,-53.326,-12.352,-3.273,-1.102,-79.465,-58.357,-17.963,-3.62,-2.068,-88.082,-54.279,-16.49,-2.993,1.405,-68.043,-45.774,-14.346,0.484,2.143,-108.157,-15.304,-1.076,1.357,4.296],[-50.129,-73.89,-29.246,-5.548,-2.135,-87.486,-60.959,-24.905,-9.483,-2.196,-95.586,-63.837,-34.639,-8.499,-1.957,-82.806,-57.609,-23.535,-11.466,0.721,-80.928,-47.657,-22.558,-4.055,0.415,-57.949,-60.552,3.241,-0.375,21.293]],
"kep": [[-13.877,-2.181,-0.468,6.078,-3.977,-19.304,9.656,1.319,1.091,8.605,-17.498,-5.605,2.986,4.715,9.04,-12.454,-5.344,5.32,2.299,12.963,14.016,28.936,31.097,18.643,34.086,67.681,88.693,68.357,61.885,77.89],[-70.237,-3.714,2.638,3.345,3.953,-72.792,-2.371,3.01,1.372,1.549,-72.36,-2.283,4.642,-0.763,1.826,-58.098,0.28,-1.237,2.939,3.125,-46.138,8.755,7.145,7.073,2.96,-30.371,17.261,21.3,9.698,8.935],[-88.247,-29.423,0.391,1.54,3.077,-94.223,-20.672,0.9,-0.156,2.86,-89.685,-25.515,1.56,4.701,2.417,-82.239,-20.239,-0.399,2.569,3.163,-72.831,-20.968,-0.083,5.373,5.239,-60.993,4.344,4.613,4.694,10.614],[-92.521,-45.599,-8.23,0.345,2.412,-92.523,-40.1,-3.846,0.069,1.942,-95.503,-51.582,-5.522,1.708,4.224,-89.062,-42.338,1.873,5.306,3.761,-82.906,-33.976,13.233,4.967,9.354,-76.436,-27.073,-5.251,22.858,16.392],[-97.042,-65.978,-12.684,0.78,8.12,-97.096,-66.058,-10.422,7.268,4.233,-96.413,-62.845,-11.217,4.966,4.622,-93.982,-56.326,-15.291,7.556,6.374,-84.782,-56.468,-9.842,15.302,7.811,-79.753,-39.585,-10.528,20.321,13.492],[-96.193,-82.61,-24.582,2.794,2.374,-97.151,-72,-28.048,-2.797,3.523,-96.547,-73.02,-28.133,-5.245,3.347,-92.902,-67.787,-24.193,-8.335,7.726,-91.373,-60.007,-30.635,10.154,13.052,-84.461,-61.059,-16.299,9.388,11.313]],
"vp": [[496.168,116.676,107.041,156.645,224.113,136.778,59.253,46.222,-118.372,-33.764,24.55,46.009,-0.611,-34.865,-11.343,-1.852,1.82,-4.239,-13.045,-13.343,-19.072,-24.234,-27.254,-14.357,-20.124,-26.757,-22.167,-30.244,-26.535,-27.867],[4573.51,1160.931,802.223,192.765,-27.974,968.487,249.462,99.623,137.775,29.035,546.973,128.257,6.722,84.155,80.003,78.519,-15.118,9.244,10.926,-1.555,36.906,-4.094,-16.567,-16.694,-12.069,27.254,-12.393,-26.699,-17.096,-20.793],[6827.765,4481.217,1471.312,347.734,929.133,1479.235,794.93,58.702,156.325,139.667,730.801,406.347,51.898,9.56,39.789,123.948,67.07,4.237,19.139,4.395,64.367,36.37,11.371,-3.209,-1.062,13.697,-29.268,-31.288,-16.172,-25.653],[8040.119,8248.475,3665.903,292.871,715.52,1577.089,1371.581,419.242,285.297,213.831,881.717,857.115,235.263,133.796,65.679,138.066,140.123,26.001,4.608,6.306,88.102,46.845,-14.751,-5.451,-3.547,46.292,7.639,8.714,-17.623,-31.465],[8990.205,11563.131,4803.247,2038.236,-151.211,1709.455,2249.951,806.716,236.231,142.972,867.83,1078.913,521.116,149.635,97.79,180.414,219.886,108.601,22.935,-16.13,87.513,95.227,47.493,-2.464,-17.035,58.588,11.51,7.834,-0.622,-12.292],[8887.839,15093.618,9064.742,2262.617,1081.415,1716.264,2603.454,1598.402,748.406,242.774,896.691,1293.647,1066.328,344.532,110.048,172.575,237.239,152.541,102.342,-13.594,65.731,93.243,67.875,16.932,-3.172,36.261,69.511,-8.259,0.317,-27.304]]
}