{
"KTrans": [[-11.569,14.497,21.918,24.64,17.171,3.982,32.025,26.035,28.699,31.154,-13.131,40.543,33.957,34.822,33.289,110.049,128.839,82.838,104.685,88.315,291.462,264.772,214.809,202.927,172.232,875.908,719.851,547.077,442.824,428.504],[-86.31,28.196,41.558,35.555,28.236,-77.158,25.928,56.161,41.691,31.964,-75.933,46.089,46.924,47.82,39.328,-63.54,116.855,102.015,81.429,61.006,32.842,167.312,180.606,141.463,96.545,72.27,416.775,341.437,275.913,211.018],[-95.538,-16.996,82.986,43.736,39.908,-94.656,-19.577,87.732,79.415,51.75,-93.555,-17.869,73.799,59.561,45.048,-92.894,6.096,121.299,99.173,74.973,-71.431,52.986,218.432,130.544,119.336,-35.403,160.523,399.923,258.615,198.094],[-105.447,-90.998,28.296,105.399,82.355,-107.552,-98.322,50.738,82.403,83.105,-101.297,-66.083,19.116,122.766,74.022,-93.393,-67.087,90.084,98.662,113.915,-106.451,-50.578,143.792,193.221,133.007,-23.47,-118.709,215.22,335.97,264.504],[-100.603,-98.016,-58.1,87.367,80.685,-103.217,-92.644,-38.159,83.015,95.252,-109.2,-117.695,-26.127,102.987,110.009,-95.818,-103.319,-19.053,185.911,151.052,-95.343,-77.642,-31.849,171.187,177.724,-141.098,-81.061,69.363,296.705,320.13],[-98.634,-113.151,-95.922,89.387,98.538,-105.439,-115.263,-81.785,28.663,123.187,-105.148,-109.656,-79.735,49.838,120.925,-93.279,-119.112,-102.246,82.501,177.339,-108.382,-116.6,-108.259,96.078,182.256,-95.299,-119.297,-71.979,185.098,332.506]],
"ve": [[23.563,7.387,10.166,11.712,0.732,43.326,-45.083,-23.58,654.041,-7.273,-52.937,11.023,18.33,44.26,8.67,47.551,22.818,3.055,-2.106,-11.633,103.641,34.954,11.707,-4.27,-12.786,201.015,86.704,40.307,12.156,-3.492],[389.743,11.141,2.794,1.978,3.753,15.173,9.446,7.228,5.15,2.809,-18.659,13.47,4.921,4.263,2.158,62.194,33.084,17.863,11.695,7.418,117.564,51.596,35.172,23.017,12.854,201.814,52.314,64.578,44.853,30.688],[11.64,19.606,5.197,1.702,1.513,15.764,-11.02,6.091,3.768,3.844,57.172,5.711,6.756,3.386,3.066,63.944,26.091,53.455,13.043,11.594,106.69,52.161,36.282,23.955,20.845,203.21,91.203,72.005,47.822,37.036],[0.602,0.314,2.964,4.954,5.616,7.436,0.528,8.515,3.425,5.343,1.675,-5.458,5.303,6.303,2.144,60.119,19.712,15.3,11.732,12.285,101.131,55.833,37.903,27.359,20.556,234.88,101.339,70.745,53.86,40.999],[5.303,8.213,8.461,3.766,0.969,7.849,4.62,2.784,8.658,3.972,13.302,4.199,5.235,4.605,5.235,60.188,28.376,23.37,16.772,10.846,100.685,46.401,29.235,25.357,22.189,204.481,102.281,69.809,53.491,43.01],[7.505,5.128,-0.732,7.788,1.465,5.891,5.661,31.936,8.118,3.188,16.347,-1.309,1.969,4.663,2.827,48.147,26.533,16.796,27.33,11.988,116.404,72.099,35.222,26.282,20.774,193.638,112.598,73.009,50.235,42.67]],
"kep": [[-29.896,2.021,18.386,25.804,25.012,-19.868,26.339,28.412,34.541,40.483,-29.094,30.412,32.643,39.917,51.59,39.973,88.178,81.655,127.211,134.315,88.971,171.337,189.076,220.331,222.749,226.445,348.846,361.906,383.461,450.309],[-90.326,14.476,35.01,31.128,24.615,-81.892,8.157,43.468,33.977,28.451,-83.194,24.812,36.361,39.831,35.727,-78.457,63.703,66.103,59.5,47.587,-38.388,71.658,102.512,93.585,69.955,-40.972,153.639,161.189,155.783,133.726],[-96.87,-25.663,67.368,34.549,32.981,-96.449,-27.748,70.709,67.398,42.805,-94.983,-31.66,54.933,47.515,36.111,-93.893,-20.751,75.46,68.941,52.63,-86.499,-3.46,125.344,78.987,77.265,-78.512,28.55,185.664,135.238,111.644],[-105.736,-91.234,13.004,86.425,66.76,-106.224,-97.98,32.439,67.266,68.381,-101.003,-70.512,5.297,98.791,61.884,-95.687,-75.617,52.784,66.98,83.542,-103.1,-65.955,70.868,119.751,85.281,-74.968,-108.804,81.011,176.229,151.935],[-101.109,-98.295,-62.913,68.946,68.096,-102.056,-93.065,-43.018,62.967,78.665,-107.164,-113.842,-34.016,80.849,90.192,-97.272,-101.547,-34.915,132.42,113.627,-96.85,-84.066,-53.06,103.536,117.275,-113.241,-88.914,-3.559,148.631,184.002],[-98.712,-110.698,-94.286,67.357,82.448,-104.173,-109.294,-84.876,12.841,103.785,-103.997,-106.412,-80.023,33.115,99.341,-94.694,-111.331,-99.762,46.831,133.888,-103.376,-108.617,-103.524,44.374,119.581,-97.786,-105.741,-81.611,79.833,191.531]],
"vp": [[0.001,0.001,0.001,0.001,0.001,0.005,0.005,0.005,0.005,0.005,0.01,0.01,0.01,0.01,0.01,0.05,0.05,0.05,0.05,0.05,0.1,0.1,0.1,0.1,0.1,0.2,0.2,0.2,0.2,0.2],[0.001,0.001,0.001,0.001,0.001,0.005,0.005,0.005,0.005,0.005,0.01,0.01,0.01,0.01,0.01,0.05,0.05,0.05,0.05,0.05,0.1,0.1,0.1,0.1,0.1,0.2,0.2,0.2,0.2,0.2],[0.001,0.001,0.001,0.001,0.001,0.005,0.005,0.005,0.005,0.005,0.01,0.01,0.01,0.01,0.01,0.05,0.05,0.05,0.05,0.05,0.1,0.1,0.1,0.1,0.1,0.2,0.2,0.2,0.2,0.2],[0.001,0.001,0.001,0.001,0.001,0.005,0.005,0.005,0.005,0.005,0.01,0.01,0.01,0.01,0.01,0.05,0.05,0.05,0.05,0.05,0.1,0.1,0.1,0.1,0.1,0.2,0.2,0.2,0.2,0.2],[0.001,0.001,0.001,0.001,0.001,0.005,0.005,0.005,0.005,0.005,0.01,0.01,0.01,0.01,0.01,0.05,0.05,0.05,0.05,0.05,0.1,0.1,0.1,0.1,0.1,0.2,0.2,0.2,0.2,0.2],[0.001,0.001,0.001,0.001,0.001,0.005,0.005,0.005,0.005,0.005,0.01,0.01,0.01,0.01,0.01,0.05,0.05,0.05,0.05,0.05,0.1,0.1,0.1,0.1,0.1,0.2,0.2,0.2,0.2,0.2]]
}