{
"KTrans": [[8.14,12.09,18.408,15.183,19.738,5.247,12.063,12.225,18.992,19.553,5.065,14.433,16.43,15.179,15.529,15.378,27.863,20.612,22.366,25.787,38.727,36.732,35.53,37.651,32.178,74.034,45.813,49.921,52.557,55.723],[-44.362,-8.404,0.922,8.424,7.281,-40.878,-3.694,1.043,4.645,8.341,-45.416,-11.163,7.047,8.245,8.405,-36.495,-0.428,6.238,12.243,9.136,-26.121,-0.922,9.298,11.821,16.876,-15.678,11.927,18.977,23.504,26.983],[-70.236,-28.673,-13.351,-3.669,-2.24,-73.836,-21.733,-14.394,-3.4,1.053,-69.705,-23.116,-12.928,-3.516,1.587,-62.172,-27.175,-11.981,-0.351,4.892,-66.037,-25.188,-11.106,2.196,7.165,-59.433,-20.79,-3.331,4.226,10.561],[-87.111,-39.201,-22.77,-13.514,-9.492,-84.466,-38.773,-26.79,-14.583,-7.285,-84.973,-40.778,-28.962,-11.969,-6.372,-81.52,-39.155,-23.821,-12.77,-6.005,-80.645,-47.793,-26.044,-10.434,-4.132,-72.931,-46.117,-21.195,-6.123,1.107],[-89.295,-58.055,-33.758,-25.202,-15.784,-91.427,-56.382,-40.078,-24.18,-17.19,-90.685,-57.826,-37.448,-23.563,-14.34,-88.751,-62.87,-38.245,-22.247,-16.304,-83.228,-60.616,-36.865,-27.036,-13.32,-82.58,-56.379,-36.188,-21.278,-9.934],[-92.427,-70.915,-48.059,-35.624,-23.627,-92.336,-66.765,-45.927,-33.73,-24.697,-93.869,-65.476,-46.186,-33.013,-25.489,-92.378,-68.62,-52.854,-31.492,-24.737,-90.422,-67.417,-49.059,-33.179,-22.306,-85.787,-70.932,-49.008,-31.947,-22.237]],
"ve": [[12.153,19.678,-1366.235,-63.578,25.189,14.762,24.917,28.443,69.455,-694.494,10.389,8.963,63.992,13.274,120.579,39.876,20.45,19.568,-10.058,85.597,43.407,44.719,43.574,15.794,145.569,71.993,246.664,58.88,116.64,48.437],[-19.864,-1.71,2.541,3.611,4.692,-7.015,-0.526,1.291,3.701,6.051,-1.2,-2.371,1.214,4.832,4.698,-3.858,5.413,4.144,6.796,8.406,17.682,8.275,8.89,9.461,9.389,40.591,25.408,16.774,14.793,13.976],[-1.1,-9.896,-3.851,-1.54,0.166,-33.883,-8.047,-5.08,-0.859,0.663,-34.71,-6.05,-3.149,-0.408,1.047,-19.099,-6.075,-0.846,2.446,3.5,3.913,0.699,2.853,5.492,5.886,15.803,15.454,12.24,10.379,11.096],[-59.423,-16.377,-7.911,-4.845,-3.521,-83.23,-16.482,-9.72,-4.947,-2.419,-44.034,-15.718,-10.301,-3.997,-2.144,-31.844,-10.232,-5.352,-1.443,-0.829,-9.048,-9.021,-1.399,1.453,2.404,10.554,3.567,4.993,8.479,7.709],[-34.242,-23.42,-12.659,-9.787,-5.909,-37.507,-22.681,-15.213,-8.292,-6.166,-48.873,-23.175,-13.095,-8.34,-5.502,-39.742,-23.028,-10.25,-5.684,-4.507,-24.983,-14.175,-6.843,-5.93,-1.201,0.498,-0.61,0.522,2.426,3.852],[-57.778,-31.273,-19.542,-13.287,-9.411,-59.325,-28.877,-17.403,-12.489,-9.165,-37.342,-28.468,-17.87,-11.179,-8.813,-47.419,-25.668,-17.543,-8.64,-6.841,-26.941,-17.793,-13.843,-5.958,-5.264,41.171,-12.555,-6.033,-0.953,0.182]],
"kep": [[-25.753,-22.247,-19.278,-29.83,-25.466,-27.301,-23.305,-28.329,-21.591,-28.748,-29.72,-22.458,-25.055,-29.971,-33.482,-30.02,-14.566,-23.577,-24.24,-18.974,-22.979,-16.24,-14.803,-6.953,-13.943,-23.912,-19.898,-9.764,-1.159,5.201],[-54.061,-30.743,-26.418,-21.61,-23.153,-54.154,-28.288,-25.633,-24.412,-23.293,-55.23,-32.414,-20.953,-22.74,-22.351,-55.325,-30.18,-23.817,-21.375,-24.423,-55.67,-32.035,-25.265,-23.61,-19.987,-57.38,-34.544,-24.15,-19.779,-16.797],[-72.97,-41.49,-32.971,-27.23,-27.151,-76.598,-37.997,-33.011,-27.425,-25.028,-72.568,-40.009,-33.14,-27.788,-24.925,-71.606,-43.531,-34.356,-27.497,-24.342,-75.617,-45.326,-35.821,-27.732,-24.528,-77.621,-49.991,-36.407,-29.728,-25.883],[-86.77,-48.64,-38.16,-32.222,-30.059,-83.782,-47.569,-40.183,-33.23,-29.21,-85.657,-49.874,-41.383,-31.844,-28.707,-82.967,-51.076,-40.359,-34.052,-29.399,-83.789,-58.642,-44.41,-34.285,-30.244,-83.504,-62.204,-44.648,-35.707,-30.142],[-88.527,-60.894,-44.417,-38.568,-33.314,-92.056,-59.483,-47.884,-38.634,-34.309,-89.674,-60.798,-46.915,-38.223,-32.589,-89.522,-65.461,-49.264,-38.802,-34.767,-87.027,-66.973,-50.115,-42.536,-34.679,-89.475,-68.608,-53.578,-42.943,-35.62],[-92.391,-69.424,-53.14,-45.032,-37.254,-92.491,-67.466,-52.287,-43.975,-38.376,-93.59,-66.332,-51.992,-44.205,-39.193,-91.594,-69.689,-58.158,-44.296,-39.916,-91.326,-71.673,-56.878,-47.51,-39.038,-90.824,-76.141,-60.35,-49.135,-42.3]],
"vp": [[78.145,-104.107,-579.574,-438.595,-792.592,4.047,4.188,-35.786,-113.159,-180.961,0.718,-15.647,-55.65,-59.975,-59.803,5.543,-10.028,-1.918,-3.991,-13.091,-3.772,-1.669,-7.263,-3.215,-1.412,-6.241,4.846,3.544,-0.702,-1.156],[2338.974,685.283,-342.996,-816.558,-278.658,411.334,3.383,8.628,-85.286,-142.551,305.015,115.665,-35.901,-67.152,-57.906,44.368,3.455,0.833,-16.884,-4.222,9.901,10.672,0.597,-2.342,-5.807,6.265,-0.286,1.188,-1.934,-5.554],[4190.719,2133.627,1202.889,444.585,361.255,986.384,329.175,306.803,105.374,46.066,432.914,151.668,104.948,7.093,-5.006,69.783,53.679,33.325,-2.728,-12.915,41.442,24.112,13.422,1.047,-5.603,19.042,10.755,8.006,4.622,-1.081],[6678.961,4044.905,2533.137,1524.281,1361.458,1282.729,728.828,622.786,407.349,193.228,645.043,400.555,359.327,157.992,105.923,126.341,67.383,55.163,29.104,23.724,63.174,50.456,30.845,13.058,10.104,23.191,25.981,17.365,5.117,2.022],[7217.346,5742.094,4040.636,4001.784,2870.713,1503.177,1168.398,1048.61,678.622,581.416,672.502,631.276,463.051,356.19,262.996,138.963,146.578,97.131,64.206,69.272,62.486,65.969,49.054,54.002,25.518,33.24,29.941,26.498,19.926,12.168],[7526.468,8163.31,6701.556,5728.767,4603.457,1552.047,1493.799,1185.482,1070.541,925.993,832.513,742.862,642.871,496.638,485.373,155.47,155.58,157.725,94.734,94.577,80.761,75.018,77.472,53.325,47.994,33.411,48.694,38.888,25.692,23.438]]
}