{
"KTrans": [[-2.486,0.485,0.105,0.262,0.149,-4.823,0.704,0.285,0.942,0.945,-6.801,-2.049,-1.197,-6.18,-4.224,55.567,3.895,20.764,16.951,19.226,25.085,16.738,40.107,54.497,71.01,219.037,63.506,105.219,115.434,116.976],[-2.666,-0.278,-2.052,0.231,-13.749,-1.006,0.322,-1.89,0.808,0.81,-2.728,-1.018,-7.926,0.194,0.306,19.193,11.477,-3.885,-1.15,-5.541,84.554,56.042,17.75,3.919,-0.232,90.209,64.637,54.573,6.708,9.874],[-42.25,-1.483,-0.169,-0.265,-1.032,-36.345,-3.414,-0.279,0.139,-1.895,-37.114,-2.935,0.319,-0.215,-2.259,9.732,-0.008,4.266,6.813,-4.221,28.71,22.001,13.036,37.126,20.119,47.094,83.518,78.94,62.195,38.655],[-57.183,-25.04,-1.961,-0.56,-0.331,-53.168,-12.517,-1.774,-0.579,-0.065,-48.363,-3.708,-0.906,-0.769,-0.031,-37.367,4.399,-0.073,-1.199,3.026,-22.735,34.574,9.578,2.882,11.287,14.001,90.955,79.403,49.836,49.538],[-49.872,-42.344,-2.905,-1.555,-0.877,-50.386,-35.329,-3.173,-0.439,-0.702,-60.551,-33.64,-3.205,-0.893,-0.737,-49.81,8.119,0.88,-3.974,0.899,-46.671,19.089,0.414,2.85,6.598,-35.576,34.698,117.525,27.281,23.771],[-74.04,-43.603,-26.125,-2.916,-0.919,-65.903,-47.558,-24.577,-2.405,-1.008,-66.077,-43.63,-16.725,-2.417,-1.877,-58.408,-17.958,0.559,0.429,-2.535,-55.1,-12.745,12.007,5.782,-0.233,-34.262,22.91,53.132,17.237,10]],
"ve": [[-2.795,0.155,-0.017,0.033,-0.038,-5.835,0.298,0.321,0.764,0.885,-5.462,-0.765,0.374,-0.995,0.158,48.943,25.025,30.481,31.285,48.515,47.123,2.814,-33.919,-53.643,-40.492,178.386,49.725,35.237,-14.595,22.89],[-1.404,-0.066,-2.078,0.068,-8.34,-0.411,0.201,-1.385,0.315,0.281,-1.237,-0.513,-8.302,-0.002,0.116,8.825,9.782,-5.717,-0.131,-2.237,368.881,77.969,21.791,2.091,7.228,437.508,145.828,64.031,14.278,2.366],[-182.529,-0.716,-0.14,-0.077,-1.02,-193.608,-1.486,-0.037,0.085,-1.502,-162.165,-1.446,0.134,-0.115,-2.847,40.533,0.757,2.474,1.478,-3.232,111.101,22.682,6.451,35.842,20.311,216.187,22.794,134.811,87.362,25.708],[-419.658,-75.05,-0.897,-0.337,-0.131,-287.293,-38.802,-0.957,-0.336,-0.06,-272.745,-2.828,-0.718,-0.387,-0.084,-128.902,1.108,-0.687,-0.661,1.391,-51.978,11.039,4.571,3.664,24.809,375.518,245.628,122.782,45.944,50.602],[-241.446,-167.594,-1.392,-0.669,-0.326,-226.804,-128.444,-1.583,-0.298,-0.287,-262.187,-141.68,-0.839,-0.324,-0.365,-69.767,1.421,0.134,-2.841,0.299,-82.746,15.866,0.059,0.499,3.534,242.436,199.803,165.273,36.892,22.062],[-206.368,-183.833,-79.597,-1.051,-0.527,-175.363,-230.315,-87.259,-0.965,-0.475,-200.389,-201.26,-56.751,-0.853,-0.834,-5.5,-193.155,0.544,0.11,-1.945,77.258,-6.852,-0.38,2.734,-2.227,253.24,174.165,119.467,12.537,9.482]],
"kep": [[111.533,-0.333,0.127,0.023,0.136,102.801,-1.481,-0.899,-1.373,-1.315,69.308,-3.254,-2.294,0.77,-0.138,59.5,-16.37,-19.772,-16.351,-18.222,82.788,-45.092,-34.321,-41.05,-58.097,71.931,-110.472,-97.36,-88.065,-78.017],[-1.645,-0.251,54.507,-0.29,-0.069,-1.118,0.473,60.162,-1.777,-0.932,-2.075,-0.998,78.417,-1.871,-1.115,8.485,-0.674,96.68,-19.509,-6.811,-59.091,-30.371,59.345,-48.365,-18.083,-61.839,0.243,57.183,-94.884,-45.21],[-4.765,-1.005,0.044,-0.44,44.873,1.148,-2.386,-0.247,0.551,41.346,-5.009,-2.023,0.511,-0.091,99.351,-23.61,-3.482,1.288,-9.08,44.984,-44.874,1.812,-10.601,-22.364,4.316,-47.517,9.326,-17.467,-18.792,56.665],[0.027,-2.814,-1.318,-0.266,-0.323,-10.398,-0.965,-1.063,-0.294,0.262,-9.69,-1.582,-0.271,-0.467,0.486,-45.864,2.187,-0.096,-2.106,3.212,-48.994,17.23,2.78,-6.726,-2.384,-69.769,-34.647,-12.794,1.111,-14.888],[-17.816,-4.045,-1.911,-1.138,-0.753,-20.823,-5.559,-1.974,-0.215,-0.532,-24.71,-1.536,-2.748,-0.753,-0.477,-60.024,3.225,0.19,-2.151,0.552,-61.373,-9.198,-3.371,0.194,3.072,-79.168,-48.334,1.239,-8.821,-2.226],[-47.973,-8.414,-3.344,-2.236,-0.553,-46.22,-4.801,-0.923,-1.779,-0.701,-47.472,-6.581,-1.061,-1.952,-1.329,-69.464,7.93,-1.091,-0.26,-0.982,-75.854,-39.483,10.817,2.299,1.402,-77.143,-49.59,-21.512,1.986,-4.595]],
"vp": [[-17.678,-24.592,-12.548,-22.377,-18.397,-5.291,-7.803,-5.439,-14.137,-11.219,-18.69,-7.752,-6.471,15.115,6.638,-32.481,5.386,-10.589,-5.343,-8.581,-6.109,11.979,2.678,-7.158,-18.63,-30.418,12.295,0.657,-1.151,0.848],[147.027,12.177,-15.273,-22.717,-17.04,9.306,-6.958,-8.755,-24.655,-21.461,12.52,15.252,-24.814,-2.711,-4.918,3.448,-3.445,-13.5,-9.998,-2.001,-23.345,-5.548,-23.884,-5.452,0.34,-18.614,-27.807,-11.166,7.286,2.146],[308.179,152.827,62.843,27.025,-25.644,31.697,58.994,2.01,-4.858,-11.919,29.728,30.388,-2.013,11.312,-22.019,10.994,0.284,-8.615,2.576,-12.834,-2.593,0.028,6.121,-16.814,-28.074,-24.802,-15.281,-7.145,-30.078,-25.642],[402.882,380.083,276.394,163.403,72.49,153.858,72.413,62.387,33.083,10.977,60.991,61.276,25.616,17.963,8.886,28.144,-2.969,6.758,13.199,-6.039,2.412,-7.723,-7.008,7.846,-12.253,-10.295,-27.863,-19.902,-29.858,-18.841],[1364.993,564.085,427.211,274.107,161.74,274.701,116.954,97.059,30.545,30.775,214.13,61.132,20.105,13.703,21.283,35.53,-3.295,-0.09,27.449,0.532,8.086,0.23,3.355,4.437,-14.013,7.505,-15.579,-22.202,-6.332,-18.542],[4227.302,801.606,691.355,392.596,306.227,572.768,168.645,53.24,75.849,52.219,254.475,61.001,44.295,32.194,42.681,50.815,5.25,-3.074,-0.041,23.003,29.743,30.244,6.52,-10.008,16.676,10.589,-6.071,-16.008,-11.853,-2.314]]
}