{
"KTrans": [[1.201,0.688,1.49,1.876,2.231,2.721,0.959,2.218,2.999,1.347,2.374,1.656,1.397,1.394,0.603,26.431,10.129,6.117,4.277,5.92,20.779,29.841,21.27,22.22,15.228,-178.895,34.145,56.903,53.173,57.936],[-7.328,-3.508,-0.502,0.957,1.502,-14.734,-0.883,-0.97,1.03,1.171,-7.133,-4.061,-0.608,1.339,1.571,-6.198,5.687,2.877,2.268,1.577,4.505,25.59,11.703,9.128,2.627,0.859,-68.377,30.279,17.882,23.397],[-40.482,-7.872,-2.98,-1.154,0.117,-40.341,-7.112,-3.367,-0.464,0.011,-41.969,-7.187,-4.007,-0.611,0.474,-22.615,-2.082,-0.916,1.649,-1.54,-29.197,-11.649,5.365,7.32,7.07,-8.351,12.342,31.22,21.613,22.158],[-62.849,-11.139,-6.665,-3.879,-1.702,-70.456,-12.465,-5.252,-3.084,-1.619,-65.307,-7.63,-6.613,-2.533,-1.78,-59.622,0.854,-0.285,1.562,0.633,-57.3,-26.318,3.303,-7.233,6.718,-46.755,-2.279,-3.679,11.824,14.482],[-76.871,-8.77,-7.229,-5.906,-3.566,-80.745,-10.697,-10.464,-6.839,-4.791,-75.493,-13.133,-9.346,-6.016,-2.904,-74.398,-15.114,-8.655,-5.668,1.33,-53.275,-14.255,7.402,-6.736,-3.107,-67.2,-16.051,0.984,-54.575,15.128],[-81.42,-35.768,-9.055,-8.671,-5.98,-80.831,-35.08,-12.581,-9.714,-6.231,-83.559,-31.551,-11.571,-8.514,-4.477,-79.018,-27.195,-4.67,-6.5,-2.213,-73.867,-40.174,3.605,1.341,-4.617,-79.408,-18.615,-0.203,-2.701,12.312]],
"ve": [[0.627,1.472,1.537,1.999,1.083,0.896,1.766,1.405,0.918,3.762,0.851,1.627,1.889,3.633,5.902,1.779,-1.227,74.565,-9.41,-42.972,25.235,-3.514,-17.133,-53.231,-20.411,46.335,15.635,-0.046,-38.167,-43.601],[-4.138,-1.26,-0.297,0.417,0.469,-8.203,-0.402,0.29,0.378,0.527,-2.019,-1.948,-0.399,0.698,0.779,4.324,3.638,1.181,1.214,0.998,12.866,14.488,8.6,6.193,9.287,32.808,25.099,9.502,-5.669,-7.559],[-22.651,-3.049,-1.144,-0.308,0.109,-23.194,-2.889,-1.151,-0.143,0.204,-24.909,-2.277,-1.683,-0.274,-0.037,-0.05,-2.178,-0.385,1.168,-0.787,6.651,6.854,3.597,3.623,3.651,32.261,21.076,22.117,7.813,3.596],[-37.793,-5.421,-2.696,-1.571,-0.63,-45.94,-6.343,-1.879,-1.047,-0.557,-38.355,-4.726,-2.578,-1.084,-0.716,48.226,-3.614,1.292,2.293,0.738,-28.696,-4.828,0.916,-5.312,4.333,-3.61,-3.795,3.766,7.033,5.476],[-46.546,-6.551,-3.43,-2.011,-1.372,-50.783,-9.128,-4.135,-2.458,-1.867,-43.631,-12.164,-3.048,-2.663,-1.156,-45.766,-7.853,-5.983,-3.196,1.526,19.762,1.516,7.852,-3.179,-1.876,7.629,13.468,15.922,-1.337,10.462],[-47.133,-18.496,-4.696,-3.419,-2.047,-46.525,-21.287,-6.356,-3.929,-2.4,-51.551,-18.46,-3.654,-3.409,-1.726,-46.25,-6.77,-4.663,-3.147,-0.171,-30.487,-14.17,2.09,1.681,-2.098,-33.981,14.935,12.817,1.742,8.569]],
"kep": [[-1.943,-2.958,-1.86,-1.829,-0.224,-0.869,-2.941,-1.115,0.407,-3.286,-1.672,-2.188,-2.27,-2.923,-5.245,-7.233,-2.216,-4.82,-7.934,-4.713,-9.212,-16.557,-17.175,-1.763,-8.015,25.378,-26.676,-23.394,-17.745,6.582],[-7.173,-4.781,-2.64,-1.899,-1.411,-11.029,-3.052,-3.674,-1.794,-1.794,-10.194,-4.851,-2.757,-1.836,-1.663,-28.257,-4.125,-2.62,-2.537,-2.469,-17.532,-9.877,-3.898,-1.789,-6.768,-23.931,-23.843,-18.682,-14.882,-3.208],[-33.24,-7.686,-4.312,-3.276,-2.42,-36.42,-7.093,-4.7,-2.768,-2.629,-39.446,-7.857,-4.913,-2.82,-1.948,-42.264,-7.308,-4.868,-2.918,-4.04,-46.157,-26.513,-8.045,-2.838,-1.349,-43.608,-12.034,-0.291,-8.653,-1.555],[-59.555,-9.667,-6.532,-4.753,-3.489,-65.99,-10.326,-5.981,-4.51,-3.487,-61.445,-7.154,-6.764,-3.989,-3.539,-61.367,-11.951,-5.689,-3.74,-3.247,-59.12,-33.101,-10.073,-10.65,-2.119,-63.652,-28.117,-4.858,-23.517,-7.294],[-72.015,-6.81,-6.749,-6.395,-4.618,-76.037,-8.33,-9.384,-6.913,-5.396,-72.638,-10.506,-9.135,-5.938,-4.217,-71.18,-30.565,-7.627,-6.286,-3.115,-65.121,-33.246,-12.727,-11.735,-6.513,-71.77,-38.382,-24.825,-26.629,-7.187],[-76.168,-31.182,-8.002,-7.961,-6.381,-75.937,-30.995,-10.251,-8.492,-6.314,-78.208,-30.494,-11.747,-7.939,-5.289,-76.191,-39.023,-7.584,-6.715,-5.182,-74.679,-52.45,-18.164,-6.061,-7.94,-79.414,-44.448,-29.723,-10.746,-10.923]],
"vp": [[-15.718,-3.138,-67.38,-110.571,-84.929,-16.738,-9.829,-26.66,-41.985,-15.641,-4.745,10.523,-5.218,-1.683,-1.879,-18.948,-8.909,-1.72,3.633,-2.945,-31.707,-10.425,-5.382,-10.41,-6.303,-23.995,-14.156,-19.815,-16.958,-22.86],[448.249,249.406,99.354,-82.837,-205.034,166.13,5.417,1.245,-22.869,-31.909,20.144,50.631,22.462,-20.29,-23.495,-6.91,-13.521,-2.644,-0.547,5.15,-12.77,-33.054,-9.026,-8.456,7.614,-14.234,-31.586,-13.769,-3.384,-15.05],[2382.645,523.576,300.077,141.083,-27.83,486.652,121.881,71.936,7.092,-12.739,260.71,50.87,50.494,11.409,-3.778,-11.297,12.408,6.088,-9.058,16.142,-4.997,-10.911,-7.243,-12.259,-17.07,-15.661,-21.262,-36.259,-18.183,-24.643],[3824.454,1103.154,709.065,539.999,271.498,949.037,268.727,104.043,88.927,58.847,401.624,97.634,76.13,44.863,35.552,66.149,19.373,-7.14,-21.824,-7.97,32.406,13.584,-0.859,29.54,-22.329,3.437,7.253,-4.052,-8.354,-15.708],[4862.835,1330.11,1073.501,710.981,696.332,1023.91,391.388,240.423,181.399,189.309,438.478,258.479,90.138,108.582,62.793,94.729,36.763,41.616,30.515,-16.296,1.246,-1.372,-25.215,16.333,13.41,-3.183,-12.299,-21.361,7.977,-24.94],[4689.682,3625.385,1366.028,1303.927,965.616,1035.787,865.689,384.363,300.283,248.972,531.996,361.158,98.14,138.094,78.444,95.271,24.243,30.494,28.935,1.066,32.6,30.232,-5.116,-5.689,13.038,21.13,-17.199,-17.305,-0.635,-22.7]]
}