{
"KTrans": [[1.54,0.71,1.83,1.006,2.866,5.69,12.8,12.698,12.391,11.122,-11.904,25.265,24.173,22.944,22.33,-25.573,54.118,81.398,88.256,91.444,58.886,65.255,105.328,93.158,120.497,115.785,-117.237,-82.892,-100.501,103.154],[0.577,1.15,0.122,0.818,0.979,6.311,6.939,1.378,5.346,4.222,23.048,16.127,0.326,10.043,8.87,24.176,-17.301,16.267,21.776,35.094,63.137,4.154,-10.294,9.003,42.553,-0.291,29.16,17.312,-25.087,-49.492],[-3.44,1.422,1.759,1.363,0.351,9.58,5.848,4.821,3.631,0.366,18.74,15.125,10.777,7.55,0.368,-21.079,51.654,50.91,4.978,5.234,-7.661,-37.057,106.245,-83.405,25.662,-14.22,2.084,-62.272,-87.34,30.722],[-5.69,2.095,2.532,1.197,0.502,3.776,2.463,5.353,3.867,3.971,-16.701,9.242,8.52,6.107,7.159,-32.776,20.621,33.437,35.467,18.902,-34.733,-40.732,19.225,83.392,-37.58,-33.702,-31.932,41.719,43.013,-18.975],[-30.275,6.115,-0.507,1.161,1.016,-19.565,1.807,5.397,3.915,4.253,-40.587,11.513,9.16,6.91,5.604,-21.153,46.868,38.059,32.684,29.436,-11.661,50.264,53.729,14.215,24.73,-14.96,34.647,-72.287,-12.012,51.379],[-52.998,5.503,-2.182,-0.512,0.631,-30.367,5.255,2.81,0.991,3.352,-61.424,5.903,10.486,6.942,5.236,-54.573,-1.271,39.074,23.655,33.029,-39.283,-78.377,81.248,20.93,5.735,-73.97,-27.882,-19.425,-54.115,64.864]],
"ve": [[-7.523,-0.989,7.868,9.287,28.162,3.04,17.581,24.24,25.457,-15.367,16.69,41.199,31.512,-719.668,144.02,56.798,1.171,-63.277,46.077,572.483,115.405,28.53,-11.176,-35.835,-52.286,195.002,83.415,33.289,3.663,-18.215],[1.014,0.109,-0.525,1.22,0.798,4.005,2.143,2.38,3.431,2.792,8.986,5.034,1.37,10.867,5.849,48.364,24.811,16.198,17.004,-38.393,103.521,61.032,32.305,18.375,-4.172,203.067,99.23,65.179,42.645,27.622],[-0.047,0.458,0.365,0.329,0.598,4.375,2.378,1.672,1.019,1.043,8.997,5.165,3.515,2.219,2.375,51.567,25.358,16.994,12.688,9.568,104.903,52.677,35.143,25.306,18.759,195.898,107.372,66.836,51.508,39.391],[0.41,0.85,0.388,0.246,0.339,5.165,2.101,1.75,1.319,1.168,7.787,4.619,3.377,2.471,2.054,51.475,24.878,13.797,14.943,10.058,102.546,50.666,38.697,26.642,21.505,196.52,102.528,67.578,51.556,43.388],[-1.129,0.992,0.054,0.341,0.264,0.978,1.914,2.001,1.338,1.31,9.59,4.76,3.22,2.614,2.19,47.093,24.837,19.573,12.223,8.577,95.445,49.415,40.821,27.669,21.983,199.229,100.063,68.744,49.562,40.56],[0.437,0.47,-0.098,0.019,0.264,8.14,2.157,1.591,1.04,1.059,9.589,4.309,3.662,2.623,1.952,49.746,25.394,17.029,11.737,10.087,98.115,53.657,33.765,25.963,21.033,208.664,102.534,64.799,42.002,40.102]],
"kep": [[-114.737,2.735,-2.182,-0.59,-7.179,-135.918,-24.183,-18.258,-20.31,-15.023,-202.969,-48.719,-35.592,-35.624,-35.885,-67.686,-240.348,-191.552,-188.929,-195.528,66.855,-319.493,-348.637,-412.019,-413.863,79.187,-76.214,-539.332,-746.298,-698.728],[-1.877,0.839,-123.56,-5.174,-1.663,-1.559,9.421,-137.399,-15.42,-8.964,11.696,24.049,-157.588,-40.563,-18.12,-22.289,-52.955,35.853,-171.354,-119.824,-10.084,-31.368,0.545,-272.994,-200.363,-55.441,-8.897,60.984,-14.814,-375.915],[-9.046,0.692,3.193,6.897,-114.354,-1.885,3.295,6.548,9.167,-163.685,-0.155,11.591,15.141,15.611,-151.625,-51.833,12.972,44.393,-28.311,36.53,-49.685,-55.018,53.97,-132.967,93.457,-60.923,-34.913,-60.463,-74.337,65.284],[-12.314,0.248,2.827,3.087,2.135,-12.571,-1.924,5.252,6.315,9.947,-31.056,2.271,6.469,6.729,14.248,-60.201,-12.451,11.145,24.082,4.348,-64.265,-56.217,-16.992,50.871,-84.789,-65.062,-58.258,-14.576,-6.202,-49.258],[-40.555,2.224,-0.229,1.739,2.163,-35.941,-2.919,3.719,4.115,6.867,-56.624,3.061,6.207,6.599,6.466,-49.159,6.164,14.038,22.636,24.776,-57.272,-13.81,6.668,-24.333,-7.58,-68.394,-33.955,-73.033,-35.37,6.674],[-62.775,-0.269,-2.819,-0.743,1.449,-46.555,-2.207,0.464,0.102,4.116,-70.687,-4.251,6.356,4.612,5.121,-70.597,-28.927,14.163,10.429,25.568,-69.322,-78.781,23.749,-15.742,-26.365,-79.415,-52.389,-46.419,-67.574,16.71]],
"vp": [[-5.791,-75.36,-45.684,-21.034,-44.872,-18.656,-7.701,-17.964,-11.682,3.251,17.079,0.25,-13.183,1.662,1.091,-5.032,-1.057,-14.533,-5.183,-17.436,-5.046,-34.738,-15.236,15.064,1.843,-28.434,1.929,3.738,18.681,-22.481],[380.038,165.386,1.489,7.933,-116.266,36.16,12.527,-13.389,18.175,-12.688,14.355,-8.656,-2.258,8.06,0.486,-26.881,-25.474,-9.784,0.4,22.851,-36.128,-32.805,-19.031,-3.708,-7.816,-11.47,-43.986,-38.028,0.916,32.132],[1582.678,518.663,173.546,44.752,6.937,323.281,42.831,26.912,13.449,29.612,158.689,18.872,26.695,5.601,-17.518,13.087,-10.35,-31.504,-22.609,-24.87,-18.393,-36.993,-19.159,-20.303,-40.34,-50.831,-34.558,-47.217,-20.795,-33.302],[3119.193,650.015,521.541,289.385,140.775,671.906,140.082,25.333,43.092,64.551,241.31,43.748,39.813,6.257,28.606,51.55,-15.116,-5.071,8.689,5.668,15.911,-19.675,-13.96,-6.148,-18.222,-24.778,-38.517,-17.154,-38.592,-36.506],[4499.754,1086.462,584.091,690.071,350.941,826.609,221.038,118.276,129.679,83.766,452.847,133.107,86.92,69.113,21.374,20.688,10.666,-5.25,-31.816,-1.162,-8.319,-0.762,-29.142,8.284,-1.723,-23.629,-23.177,-27.769,-34.222,-23.772],[5118.706,2169.255,1200.059,1043.28,613.695,1092.313,310.554,217.631,79.279,89.646,476.735,172.566,82.052,109.326,44.028,66.403,24.23,-5.805,-44.995,10.243,10.571,23.398,-13.002,16.049,15.351,19.671,8.72,-47.802,-22.783,-44.107]]
}