{
"KTrans": [[-0.27,0.037,-0.188,-0.045,-0.08,-1.285,-0.734,-0.559,-0.492,-0.568,-2.178,-1.218,-1.182,-1.244,-1.018,-12.046,-7.049,-5.541,-5.103,-4.765,-23.976,-14.379,-11.05,-9.902,-8.902,-43.92,-26.954,-21.544,-18.931,-17.538],[-0.186,-0.027,-0.211,0.231,-0.034,-0.898,-0.553,-0.189,-0.065,-0.114,-2.121,-1.152,-0.788,-0.72,-0.441,-12.576,-6.219,-4.364,-2.974,-2.68,-25.672,-12.182,-8.396,-6.409,-5.385,-48.184,-23.798,-16.122,-12.613,-10.954],[0.137,0.407,0.145,0.271,0.12,-0.992,-0.135,-0.189,-0.005,-0.037,-2.843,-1.056,-0.282,-0.496,-0.295,-14.232,-6.195,-3.91,-2.897,-2.484,-29.301,-12.434,-7.991,-6.135,-5.027,-53.587,-25.072,-16.169,-11.983,-9.948],[-0.603,0.769,0.511,0.203,0.161,-1.489,0.709,0.122,0.162,0.036,-2.163,-0.931,-0.45,-0.316,-0.15,-15.829,-5.81,-3.996,-2.902,-2.147,-32.512,-13.238,-8.377,-6.103,-4.809,-59.881,-26.026,-16.824,-12.433,-9.846],[-1.269,0.969,0.586,0.51,0.266,-3,0.315,0.357,0.086,0.275,-3.907,-0.216,-0.051,-0.199,-0.114,-18,-6.171,-3.769,-2.895,-2.18,-34.636,-13.416,-8.612,-5.964,-4.882,-64.766,-27.694,-17.385,-12.593,-9.745],[-3.906,0.402,1.023,0.546,0.491,-5.034,0.886,0.474,0.246,0.21,-6.435,0.495,0.165,0.126,-0.027,-20.691,-6.485,-3.723,-2.8,-2.15,-39.294,-13.702,-8.414,-6.251,-4.858,-71.085,-28.809,-17.661,-12.674,-9.97]],
"ve": [[-0.158,-0.036,0.034,0.139,0.063,-0.438,-0.042,0.15,0.403,0.576,-1.011,-0.087,0.443,0.928,0.902,-4.341,-0.383,1.599,3.379,5.259,-8.268,-0.24,4.165,7.602,10.769,-15.457,1.418,10.87,20.102,29.767],[-0.339,-0.106,-0.07,-0.073,-0.045,-0.605,-0.249,-0.096,-0.104,-0.087,-1.197,-0.605,-0.301,-0.256,-0.136,-6.359,-2.687,-1.505,-0.905,-0.438,-13.208,-5.3,-2.964,-1.608,-0.927,-26.6,-10.37,-5.685,-3.247,-1.573],[-0.366,-0.063,-0.075,-0.001,-0.056,-0.914,-0.212,-0.156,-0.154,-0.131,-1.779,-0.524,-0.258,-0.272,-0.262,-8.004,-3.062,-1.811,-1.209,-0.934,-15.712,-6.159,-3.677,-2.511,-1.741,-31.743,-12.572,-7.214,-4.794,-3.494],[-0.905,-0.005,-0.022,-0.04,-0.002,-1.12,-0.182,-0.147,-0.085,-0.066,-1.855,-0.529,-0.415,-0.228,-0.167,-8.728,-3.282,-1.949,-1.37,-0.977,-18.084,-6.779,-4.05,-2.827,-2.043,-36.647,-13.733,-8.18,-5.646,-4.161],[-1.056,0.2,0.027,-0.014,-0.031,-1.795,-0.164,-0.118,-0.073,-0.074,-2.817,-0.573,-0.302,-0.244,-0.176,-10.309,-3.43,-2.057,-1.485,-1.14,-20.208,-7.227,-4.402,-2.948,-2.249,-41.732,-14.958,-8.782,-6.074,-4.521],[-2.181,0.145,0.119,0.086,0.013,-2.932,-0.109,0.029,-0.065,-0.041,-3.865,-0.276,-0.203,-0.203,-0.186,-11.9,-3.671,-2.175,-1.458,-1.167,-23.173,-7.621,-4.574,-3.165,-2.42,-47.307,-15.776,-9.143,-6.431,-4.813]],
"kep": [[-0.101,0.094,-0.186,-0.122,-0.063,-0.83,-0.669,-0.66,-0.815,-1.055,-1.161,-1.109,-1.565,-2.091,-1.832,-8.047,-6.661,-6.97,-8.14,-9.447,-17.111,-14.146,-14.556,-16.184,-17.635,-33.633,-27.938,-29.17,-32.378,-36.291],[0.146,0.079,-0.141,0.306,0.014,-0.312,-0.305,-0.09,0.041,-0.025,-0.948,-0.549,-0.488,-0.464,-0.302,-6.644,-3.631,-2.901,-2.085,-2.25,-14.366,-7.268,-5.596,-4.878,-4.498,-29.424,-14.983,-11.066,-9.678,-9.529],[0.478,0.467,0.219,0.272,0.176,-0.099,0.075,-0.033,0.15,0.095,-1.103,-0.538,-0.024,-0.224,-0.033,-6.786,-3.233,-2.138,-1.708,-1.564,-16.145,-6.688,-4.479,-3.717,-3.343,-32.029,-14.3,-9.651,-7.551,-6.687],[0.254,0.77,0.531,0.242,0.163,-0.416,0.889,0.269,0.248,0.102,-0.362,-0.406,-0.035,-0.089,0.016,-7.814,-2.615,-2.089,-1.553,-1.181,-17.658,-6.931,-4.511,-3.371,-2.823,-36.745,-14.253,-9.415,-7.194,-5.931],[-0.306,0.761,0.557,0.524,0.297,-1.3,0.477,0.475,0.159,0.349,-1.187,0.353,0.251,0.045,0.062,-8.679,-2.843,-1.748,-1.432,-1.052,-18.173,-6.68,-4.405,-3.108,-2.694,-39.653,-14.979,-9.435,-6.942,-5.472],[-1.855,0.249,0.901,0.459,0.477,-2.36,0.991,0.445,0.311,0.251,-2.816,0.766,0.368,0.329,0.159,-10.154,-2.931,-1.585,-1.363,-0.994,-21.193,-6.589,-4.025,-3.188,-2.499,-45.406,-15.48,-9.377,-6.674,-5.417]],
"vp": [[31.793,-9.787,-0.106,-1.99,4.461,9.419,9.235,10.687,9.342,9.06,10.412,9.309,10.772,11.612,10.958,10.712,9.897,9.384,9.307,9.392,10.595,9.802,9.356,9.445,9.062,10.574,9.878,9.467,9.271,9.254],[26.501,16.355,29.908,7.522,21.598,8.842,11.61,9.394,6.062,9.217,11.909,11.824,10.679,11.171,9.963,12.754,11.555,10.893,9.86,9.974,13.468,11.499,10.818,10.075,9.99,13.701,11.394,10.529,10.088,10.062],[35.198,11.688,8.053,-2.212,4.678,19.988,6.741,10.339,9.944,10.163,16.221,9.769,8.152,10.181,10.538,15.808,12.498,11.507,10.816,10.741,15.831,12.624,11.727,11.077,10.628,15.947,12.881,11.61,10.866,10.66],[83.087,-10.483,-13.235,4.523,-7.024,22.572,6.986,7.337,3.331,5.365,18.978,9.82,10.643,8.617,7.802,17.468,13.117,12.043,11.621,10.33,18.104,13.754,12.46,11.74,11.073,18.358,13.87,12.579,11.851,11.326],[103.337,-47.735,-15.467,-30.435,-2.447,37.944,7.009,2.903,6.569,4.689,27.364,11.325,7.493,9.843,8.201,20.471,13.399,12.225,11.743,11.484,20.059,14.652,13.383,12.192,11.826,20.859,15,13.38,12.431,11.872],[216.23,-33.968,-39.829,-39.889,-39.414,60.18,3.937,-1.167,2.005,4.333,38.454,5.733,4.698,8.112,8.794,23.846,14.573,13.044,11.988,11.661,23.206,15.263,13.685,12.804,12.316,23.69,15.886,13.833,12.962,12.273]]
}