{
"KTrans": [[2.231,9.823,6.427,2.259,2.503,6.553,16.948,15.386,11.943,4.191,9.699,23.75,21.775,22.418,22.748,66.724,74.575,94.758,96.988,93.53,-25.137,52.048,117.678,147.154,158.407,146.271,-119.77,30.157,85.711,148.965],[-31.336,-9.224,0.628,5.082,2.14,-25.28,-3.891,1.493,4.854,7.005,-12.019,0.465,3.14,10.509,9.11,55.633,52.001,7.057,29.268,38.012,115.927,104.24,1.45,19.413,55.76,283.542,132.315,-20.222,-39.937,33.157],[-42.039,-9.619,-5.466,-3.187,0.849,-38.046,-8.783,-1.179,-2.291,1.817,-34.063,0.993,3.856,0.739,2.733,19.457,51.479,47.574,30.15,10.547,65.994,132.253,95.844,49.188,-1.357,163.306,280.572,216.264,85.639,-4.309],[-50.002,-12.091,-5.261,-1.108,-1.328,-48.414,-9.359,3.076,0.989,0.261,-43.408,-1.084,1.863,6.789,3.857,-3.117,37.863,42.706,36.977,32.077,64.354,118.552,99.242,85.856,74.119,60.763,223.303,211.399,194.095,147.606],[-60.8,-17.132,-5.365,-1.668,-1.16,-52.898,-8.298,-1.358,-0.003,2.473,-54.317,-7.496,1.592,5.578,4.154,-10.489,34.406,37.426,33.432,29.257,24.094,86.821,92.794,79.998,63.992,-63.252,189.035,189.865,189.486,163.959],[-61.671,-18.374,-4.599,-0.063,-1.31,-61.526,-12.989,-2.907,0.842,-0.514,-57.904,-11.69,0.179,3.116,3.405,-34.33,29.579,37.982,32.028,27.204,-13.993,86.25,92.126,69.669,61.525,-45.393,144.068,190.493,166.725,139.579]],
"ve": [[10.08,-18.801,-39.903,547.548,-91.895,7.644,-96.43,1054.074,31.81,54.225,92.193,-33.883,46.29,-41.564,200.869,13.221,62.269,-25.688,-38.389,8.436,-22.096,31.884,-8.94,-16.712,-50.747,197.35,83.144,31.976,3.991,-15.707],[5.467,-6.996,-4.058,23.168,4.605,-15.638,-2.402,2.605,5.069,13.478,-21.286,2.043,112.878,-293.295,-40.528,47.108,34.528,17.254,3.198,6.686,113.859,27.089,24.815,20.319,-4.141,243.172,98.628,72.327,43.953,26.996],[-6.371,-3.773,3.914,-9.766,0.727,-0.931,-2.779,-0.474,2.641,-6.862,7.942,6.858,1.503,1.307,11.616,36.594,24.397,16.26,-13.301,9.064,100.423,51.069,30.097,25.159,20.341,192.193,91.539,68.241,49.845,38.188],[-7.095,-1.506,-1.195,-1.199,-2.085,0.049,0.521,0.771,0.035,-0.162,-0.401,3.294,2.123,1.706,0.546,44.968,24.251,15.877,12.995,10.034,98.947,49.145,33.119,24.882,20.436,195.101,101.002,66.019,48.539,43.779],[-5.348,-1.63,-0.592,-0.38,-0.446,-1.689,1.454,0.946,0.489,0.749,14.591,3.887,2.833,1.979,1.462,39.325,23.704,16.261,12.103,10.343,95.064,47.831,33.011,25.546,19.851,195.673,93.841,63.971,49.622,39.945],[-0.838,-1.397,-0.889,-0.609,-0.404,-0.119,1.436,0.487,0.617,-0.249,3.475,3.894,2.616,2.485,1.367,50.289,22.852,16.836,12.51,9.78,98.589,47.833,33.965,24.933,20.753,201.413,101.026,67.674,49.613,39.828]],
"kep": [[-119.243,-41.225,-27.721,-14.967,-3.573,-130.646,-59.389,-38.192,-22.293,-10.403,-134.675,-71.507,-41.797,-47.597,-46.275,-104.531,-214.544,-192.979,-194.214,-193.243,-221.26,-391.206,-374.803,-375.774,-382.202,-86.695,-513.159,-653.434,-727.865,-783.961],[-64.618,-60.674,-118.23,-55.588,-8.841,-58.039,-46.773,-121.805,-37.88,-21.57,-47.224,-45.75,-128.003,-63.625,-28.081,-22.975,8.946,-168.22,-174.039,-101.672,-17.817,18.57,-191.532,-301.693,-209.266,6.07,-26.335,-191.82,-394.474,-395.016],[-61.197,-24.686,-26.15,-51.985,-122.405,-59.633,-28.251,-16.686,-45.957,-124.143,-60.53,-15.627,-6.458,-44.08,-116.974,-37.085,14.842,37.854,16.268,-129.23,-38.182,56.226,60.039,2.806,-204.832,-29.416,79.933,104.476,6.231,-170.73],[-65.802,-23.532,-11.693,-8.484,-15.188,-64.798,-21.358,-2.617,-5.212,-10.248,-64.283,-15.52,-6.938,3.916,-0.589,-47.564,4.26,26.289,35.897,45.48,-33.351,40.664,59.494,75.394,92.992,-57.834,48.04,92.963,128.822,119.076],[-72.44,-25.089,-10.795,-5.614,-6.416,-67.213,-16.326,-8.236,-5.609,-0.398,-71.014,-18.219,-5.973,2.952,-0.018,-51.975,1.674,16.673,24.142,26.303,-48.992,20.216,45.394,56.936,59.553,-94.006,32.431,72.331,113.003,129.161],[-74.348,-26.835,-7.978,-3.093,-4.761,-73.879,-22.138,-10.647,-0.874,-6.175,-72.644,-23.695,-6.434,0.524,-0.462,-67.43,-3.019,21.081,19.367,20.68,-66.477,15.707,45.221,42.357,47.869,-87.164,9.878,70.662,86.197,91.744]],
"vp": [[-41.44,485.495,125.897,188.821,-47.129,-58.173,44.756,57.35,37.576,-66.87,27.993,9.461,27.304,30.348,44.047,1.219,-0.035,-14.254,2.215,0.031,5.377,6.615,6.591,4.562,-8.399,-6.919,-3.521,-2.016,10.258,-5.905],[2304.244,693.545,-144.043,-88.478,-304.132,469.849,160.02,1.392,-12.102,-6.572,223.169,64.192,-2.744,3.502,25.797,40.531,14.362,7.644,-13.851,2.485,25.363,4.539,-7.988,-0.089,0.231,6.168,-2.413,3.363,-4.357,-0.96],[4872.959,2276.701,469.007,739.202,-201.521,914.945,365.209,210.869,111.475,36.368,492.598,197.581,130.973,79.472,8.281,77.812,40.305,17.243,5.555,-13.055,44.799,16.475,7.93,6.776,3.005,12.238,8.758,-5.326,-6.322,-0.416],[5902.521,3569.085,842.199,735.208,318.524,1148.178,697.689,308.022,133.362,60.138,611.502,296.771,139.264,56.448,47.597,105.049,66.406,24.854,14.913,11.741,57.146,35.739,1.76,1.002,-1.017,20.894,14.758,8.374,0.177,0.115],[6828.309,5364.934,1826.939,1416.546,366.067,1380.161,1003.057,352.118,48.341,249.886,669.375,503.705,199.798,131.517,31.682,141.883,87.394,33.537,13.081,6.215,66.22,38.969,23.385,16.313,-8.374,31.892,16.741,5.995,2.353,-3.857],[7902.13,7166.949,3581.79,1690.396,1655.652,1483.528,1600.531,805.319,225.215,4.54,711.697,694.835,263.229,136.008,39.814,158.775,144.715,60.212,37.832,6.788,69.584,60.195,42.346,10.003,5.654,29.66,37.068,11.882,1.859,-7.239]]
}