{
"KTrans": [[9.245,16.257,27.05,17.751,25.153,21.946,31.211,30.338,26.742,32.196,33.746,22.495,28.425,22.764,21.357,58.927,52.435,37.671,42.535,43.137,71.605,59.494,66.034,58.2,50.135,107.296,136.319,110.079,110.709,105.159],[-52.793,-4.761,5.215,10.232,13.842,-49.757,-5.559,10.336,5.723,13.364,-38.237,0.923,2.318,7.047,15.283,-41.452,-3.351,10.076,18.468,21.984,-20.978,0.814,20.797,26.461,28.6,-7.759,30.264,32.013,43.276,41.795],[-74.75,-27.893,-12.99,-4.035,1.117,-73.884,-35.918,-14.39,-8.186,-1.302,-69.782,-29.562,-15.162,-1.233,2.963,-60.479,-28.369,-10.333,-0.688,7.734,-49.336,-32.988,-1.186,7.541,16.77,-43.573,-17.757,4.527,16.433,26.61],[-81.518,-55.876,-35.325,-14.203,-10.214,-85.023,-50.129,-34.656,-19.641,-11.126,-82.511,-47.638,-33.944,-22.144,-6.238,-79.51,-47.12,-29.557,-17.441,-8.956,-75.864,-44.695,-28.049,-12.139,-2.014,-54.019,-34.444,-17.44,-3.125,2.5],[-89.732,-61.067,-42.637,-31.507,-19.012,-87.382,-63.863,-46.51,-33.58,-21.951,-84.788,-63.36,-46.781,-32.012,-20.192,-80.375,-62.877,-44.281,-27.866,-15.642,-81.156,-62.674,-38.762,-29.085,-16.701,-72.572,-52.228,-37.525,-20.327,-10.181],[-93.115,-69.026,-57.739,-40.329,-35.453,-91.644,-74.63,-58.189,-41.232,-31.758,-90.604,-69.139,-55.267,-42.593,-30.303,-86.456,-69.611,-57.095,-39.794,-30.114,-81.087,-71.502,-55.577,-39.886,-28.887,-79.392,-62.6,-49.907,-38.134,-18.129]],
"ve": [[493.617,818.422,-82.756,278.142,230.032,-193.151,-214.446,-49.707,143.591,25.238,-43.275,310.106,-33.482,-21.808,59.137,47.039,48.592,0.947,-41.294,285.252,48.857,27.088,25.47,-53.192,6.556,117.617,-30.437,68.024,-21.647,-44.829],[-76.313,2.55,4.972,11.14,14.482,-24.689,-0.141,5.576,11.878,12.544,-26.779,-2.834,6.876,11.009,19.691,-4.636,10.634,11.159,12.838,14.253,32.912,25.25,29.713,20.668,-4.515,56.718,12.835,-3.899,30.089,17.893],[-27.787,-11.639,-4.531,-1.607,2.101,-34.57,-17.881,-3.577,-1.051,3.191,-18.517,-6.02,-3.949,-0.332,2.848,-21.927,8.523,4.456,3.69,5.331,40.426,7.248,11.013,9.164,9.955,55.818,18.621,26.69,22.383,20.369],[-21.983,-15.815,-10.324,-6.272,-2.871,5.129,-14.647,-11.183,-5.258,-3.101,-58.596,-20.059,-10.199,-6.56,-2.939,-101.833,-35.413,-4.84,-3.029,0.329,86.182,9.43,3.12,0.822,6.834,69.053,3807.004,19.456,13.819,13.038],[-45.717,-21.267,-15.598,-10.797,-7.251,-40.581,-23.675,-15.177,-10.201,-8.044,-44.05,-22.012,-14.281,-11.422,-6.971,23.655,-15.121,-9.021,-6.055,-2.463,-24.564,-2.117,-2.684,-1.363,-0.4,69.317,24.39,10.868,11.168,11.488],[-967.404,-27.776,-20.14,-15.516,-12.38,-37.763,-23.456,-21.974,-15.782,-10.537,-56.672,-24.682,-18.846,-14.058,-11.348,-26.91,-17.178,-13.596,-10.342,-7.046,7.318,-21.454,-7.533,-4.253,-5.417,46.872,7.373,5.442,5.379,9.379]],
"kep": [[-46.893,-47.566,-45.186,-64.29,-62.882,-43.562,-34.145,-39.354,-54.706,-47.355,-37.731,-46.178,-44.977,-59.439,-64.914,-35.944,-28.031,-41.945,-40.367,-43.11,-40.612,-37.081,-28.693,-38.714,-53.695,-55.549,-21.227,-32.329,-15.219,-20.162],[-72.914,-43.954,-39.021,-38.417,-37.575,-70.701,-41.447,-36.624,-42.19,-38.065,-66.422,-41.895,-41.88,-40.126,-38.553,-72.914,-47.079,-39.768,-36.276,-34.995,-71.318,-51.003,-38.31,-35.922,-34.555,-77.856,-52.122,-45.098,-35.041,-34.754],[-84.164,-53.52,-45.722,-41.672,-40.501,-87.158,-57.74,-46.611,-44.368,-42.389,-83.809,-55.923,-47.704,-40.579,-39.834,-83.122,-58.975,-48.356,-42.826,-38.854,-79.7,-63.591,-47.386,-41.298,-36.673,-86.786,-67.384,-52.053,-43.666,-37.655],[-88.503,-67.82,-57.506,-45.601,-44.739,-92.03,-65.547,-56.05,-49.212,-45.236,-88.733,-64.284,-56.387,-50.317,-42.427,-89.984,-68.731,-56.16,-49.451,-45.885,-90.153,-70.392,-59.375,-48.496,-45.447,-87.545,-74.231,-60.023,-50.581,-46.568],[-94.09,-71.343,-59.919,-54.346,-48.05,-94.054,-73.671,-62.702,-55.803,-49.491,-92.374,-72.49,-63.203,-54.41,-48.879,-90.894,-74.77,-63.978,-54.252,-48.624,-91.677,-77.801,-62.871,-57.791,-50.422,-92.227,-79.461,-69.128,-58.868,-52.681],[-96.714,-75.74,-68.995,-58.052,-56.115,-95.119,-80.975,-68.334,-58.5,-54.615,-95.301,-76.933,-67.352,-60.337,-53.285,-94.063,-79.382,-70.989,-60.195,-55.374,-92.244,-82.976,-71.945,-62.984,-55.673,-93.607,-84.123,-74.507,-65.865,-55.955]],
"vp": [[662.67,-733.123,-1145.606,-179.21,-881.221,-91.755,-79.439,-275.359,-247.773,-298.977,-21.252,0.808,-91.691,-78.062,-13.551,-13.19,-23.836,-13.404,-24.181,-16.242,-12.062,1.01,-6.479,-2.187,4.881,-7.867,-17.694,1.674,-8.984,-0.679],[3930.367,427.074,-860.303,-801.927,-792.687,416.19,128.84,-213.365,-115.021,-85.828,209.186,-22.855,-64.813,4.265,-157.967,45.486,13.98,-4.134,-28.283,-37.543,5.217,9.788,-15.968,-20.31,-18.507,3.271,2.31,8.948,-7.851,-9.471],[5922.1,2446.473,1428.374,-33.511,188.475,1058.595,663.266,252.181,319.365,16.296,457.683,326.765,278.505,0.332,8.01,54.688,51.764,25.75,10.829,-29.341,11.918,39.691,0.674,-8.467,-23.289,13.658,29.13,2.307,-3.662,-18.278],[5568.823,6067.646,4527.777,1527.41,1484.897,1457.128,1013.619,938.773,430.84,303.328,576.914,533.354,435.974,383.325,70.725,122.002,82.295,75.412,75.355,40.126,63.542,47.245,45.364,29.352,-0.038,2.446,16.256,5.523,7.816,15.149],[7071.804,6796.79,5654.291,4935.93,3561.054,1377.905,1490.827,1204.789,951.415,826.96,581.119,750.082,686.729,544.513,356.636,89.601,156.052,119.595,72.991,44.038,66.479,83.886,51.281,45.784,43.52,11.506,25.903,27.635,14.502,8.349],[7784.715,8356.144,8780.707,7515.457,7282.247,1508.774,1882.641,1966.601,1549.613,1272.654,693.635,843.907,855.578,762.931,616.954,121.711,191.242,179.123,140.677,117.894,46.655,90.672,97.424,73.192,70.711,7.976,29.682,45.065,37.319,0.404]]
}