{
"KTrans": [[-1.411,5.562,8.008,6.224,4.458,6.082,11.486,10.181,9.668,11.858,23.395,17.321,17.974,15.941,13.362,136.257,95.254,77.194,69.319,64.186,306.397,207.856,173.188,156.872,140.705,183.587,491.26,405.95,371.02,351.5],[-19.648,-1.817,2.081,2.172,3.012,-9.843,2.572,4.144,5.434,5.052,-13.777,5.977,6.618,7.735,9.385,70.14,51.804,41.439,33.077,34.889,99.652,119.86,87.038,76.234,67.677,-0.845,298.726,208.952,156.756,147.62],[-39.997,-8.622,-1.998,-0.482,0.666,-34.769,-4.392,0.391,-0.124,1.92,-23.564,2.155,1.284,2.886,4.965,28.592,50.775,30.994,27.035,23.641,34.588,118.655,79.021,56.155,53.187,-57.887,257.009,183.124,128.427,114.572],[-51.864,-13.026,-6.823,-2.522,-1.383,-46.492,-11.789,-5.674,-1.805,-0.693,-45.212,-8.113,-4.264,1.089,1.992,-10.862,31.658,23.765,22.639,20.686,-13.369,90.884,68.835,49.723,43.556,-80.551,172.815,191.728,120.448,95.139],[-60.09,-15.907,-8.497,-7.126,-4.567,-56.07,-15.067,-7.966,-3.849,-1.758,-56.877,-11.862,-4.466,-2.555,-0.967,-30.758,22.289,21.26,18.588,14.928,-82.756,84.053,54.425,43.5,37.061,-76.939,52.673,145.221,105.811,87.616],[-64.349,-23.13,-9.157,-7.996,-5.746,-66.689,-21.06,-10.904,-7.339,-3.821,-66.885,-14.165,-7.686,-5.004,-2.783,-53.48,23.48,9.835,14.115,14.372,-51.027,54.202,64.921,38.599,36.804,-102.26,-4.967,160.029,105.348,81.754]],
"ve": [[11.641,9.297,16.704,77.091,-13.623,10.481,8.466,18.761,21.62,22.193,16.589,10.27,12.587,18.063,-11.025,48.41,16.57,4.439,-5.215,-9.501,97.627,36.4,12.365,-2.869,-14.522,169.226,83.059,38.979,12.713,-3.41],[2.435,1.149,1.371,1.736,2.483,7.136,2.578,2.999,2.338,2.377,14.988,3.133,3.804,3.444,2.581,50.502,22.335,15.177,10.77,6.656,98.598,46.574,29.58,19.604,13.51,199.696,94.758,60.597,42.248,29.547],[1.241,-0.528,0.028,-0.476,-0.531,3.032,2.206,1.422,1.57,0.757,11.857,4.068,3.201,2.496,2.045,51.541,22.675,15.061,11.114,8.119,89.071,48.013,31.931,21.677,17.319,189.79,97.387,63.568,46.288,35.217],[0.792,-0.142,-0.755,-0.395,-0.415,26.347,2.144,0.917,0.308,0.846,7.605,3.445,1.545,1.44,1.253,49.996,23.691,14.644,10.864,8.702,97.395,47.103,32.183,22.912,17.701,193.772,102.106,64.281,47.032,36.881],[4.195,-1.746,-1.19,-0.906,-0.518,4.696,1.172,0.178,-0.156,0.391,10.545,3.568,1.498,1.333,1.037,49.808,23.115,14.919,10.712,7.849,99.535,49.694,30.617,23.121,18.177,193.082,98.586,63.547,45.954,37.11],[2.651,-0.123,-0.842,-1.443,-1.001,0.499,1.558,-0.216,0.046,-0.393,8.882,3.457,1.643,0.883,0.819,52.468,23.33,14.322,10.731,8.48,97.127,48.933,31.865,22.641,17.935,205.917,98.209,63.974,47.274,37.484]],
"kep": [[-19.752,-10.992,-10.587,-14.565,-20.118,-12.875,-7.586,-10.531,-10.482,-6.347,-4.379,-4.308,-1.272,-4.301,-7.685,42.21,46.921,49.362,58.26,63.38,78.791,96.433,112.05,132.752,147.537,-7.768,180.389,217.564,264.299,306.43],[-30.795,-15.505,-12.623,-12.695,-12.574,-25.834,-13.165,-12.032,-10.539,-10.774,-33.778,-10.638,-10.716,-9.586,-7.267,-1.716,7.715,6.63,4.298,9.713,-13.59,29.502,25.091,27.686,28.06,-65.858,74.084,65.713,55.812,65.142],[-48.266,-20.093,-15.016,-13.325,-12.27,-47.11,-18.889,-14.154,-14.756,-12.344,-41.002,-14.823,-14.823,-12.985,-10.854,-25.97,6.411,-1.414,-0.93,-0.866,-41.143,27.113,16.976,11.043,13.057,-82.758,52.5,47.985,34.476,36.993],[-59.227,-24.366,-18.542,-15.247,-14.2,-56.734,-25.184,-18.993,-15.159,-14.688,-56.964,-22.817,-18.276,-13.579,-12.741,-48.194,-8.098,-6.539,-4.211,-3.879,-62.468,10.888,10.153,5.241,5.553,-90.066,16.593,50.871,28.982,22.961],[-67.008,-25.744,-19.62,-18.774,-16.89,-64.32,-27.12,-20.373,-16.533,-15.25,-66.325,-26.117,-18.429,-16.68,-15.076,-60.33,-13.85,-8.631,-7.268,-7.766,-90.824,5.648,1.743,0.752,0.26,-89.381,-34.1,27.955,20.915,17.824],[-70.651,-33.349,-20.64,-19.144,-17.51,-73.671,-32.632,-22.575,-19.672,-16.344,-74.464,-28.031,-21.212,-18.392,-16.448,-73.546,-13.852,-16.886,-10.843,-8.749,-78.564,-11.13,7.611,-2.487,0.268,-98.148,-58.346,34.406,19.431,13.73]],
"vp": [[-359.096,510.026,-211.504,-244.644,113.969,-13.842,64.412,46.6,142.971,3.063,-6.321,17.505,7.328,-4.588,33.345,-10.645,-21.946,5.262,0.509,-0.759,-5.38,-2.337,4.464,4.235,-6.133,-1.579,-2.041,0.084,-7.237,7.209],[3276.701,678.024,-108.683,289.169,-42.026,539.131,291.185,44.512,-5.79,-30.188,244.316,50.347,3.459,-26.605,-7.067,52.859,0.081,-4.689,-29.884,7.057,1.605,-4.022,-7.013,-6.881,2.829,-9.954,-16.148,-7.035,-8.666,2.671],[3632.593,2059.413,1463.245,861.95,-250.482,976.918,472.696,226.647,182.042,-21.548,451.321,174.839,79.83,61.538,-4.638,75.09,49.297,10.903,15.712,-9.017,23.344,22.331,7.998,-16.795,-1.139,13.363,-4.947,-3.551,-17.563,1.966],[5575.752,4666.024,2561.126,1416.141,953.948,1192.291,790.456,327.645,234.109,112.894,610.566,397.356,192.988,40.374,93.546,96.198,77.044,11.144,14.445,13.714,56.424,30.466,23.513,1.555,-5.969,8.873,19.59,5.342,-8.208,-13.546],[6910.874,5422.777,3483.155,738.676,546.369,1256.041,1195.899,630.694,135.144,232.539,619.866,611.041,246.415,153.249,0.145,129.037,93.317,49.291,31.127,1.369,59.666,65.342,16.922,5.105,-1.27,21.102,30.89,-4.763,-13.474,-7.89],[7004.345,8249.362,4473.322,1671.236,1206.984,1526.083,1597.529,836.931,424.872,199.094,732.601,868.345,389.35,122.624,120.943,142.985,164.022,75.338,42.837,26.431,64.114,66.557,59.703,7.351,9.845,29.961,36.447,16.243,6.58,1.803]]
}