{
"KTrans": [[-4.422,7.7,11.029,10.095,5.047,15.89,12.97,20.519,16.3,12.108,23.057,22.05,28.28,20.4,15.455,110.169,99.461,80.024,68.896,69.772,283.407,200.589,160.141,156.776,147.692,-51.538,344.401,320.324,337.97,311.036],[-30.027,-5.75,-2.011,4.13,6.223,-24.209,2.298,3.624,5.879,6.689,-17.146,4.631,8.379,11.432,8.371,50.775,58.042,38.729,34.123,31.896,-26.112,95.415,84.817,74.528,68.349,81.141,172.237,195.598,165.197,145.955],[-42.914,-14.912,-5.496,0.067,2.525,-47.713,-8.045,-4.387,2.078,3.569,-37.223,-2.982,3.252,2.85,4.545,-4.068,29.006,31.726,28.688,24.811,-12.91,75.072,65.824,56.314,45.036,-80.897,22.202,146.007,126.502,111.333],[-61.633,-16.799,-7.904,-6.92,-2.266,-60.557,-15.487,-8.498,-4.15,-1.442,-54.168,-9.828,-7.086,-1.155,0.186,-37.023,13.847,18.138,16.903,17.318,-54.578,57.066,60.31,44.099,36.923,-71.879,-13.302,124.388,104.363,87.908],[-71.861,-25.845,-15.186,-10.59,-6.338,-65.922,-24.958,-14.901,-6.384,-5.107,-64.745,-18.335,-11.031,-6.823,-4.618,-63.73,17.173,11.039,13.58,14.503,-61.631,60.29,43.831,30.747,32.583,-92.467,-9.877,89.575,90.622,86.073],[-74.648,-28.683,-17.181,-11.456,-7.718,-74.396,-20.845,-15.125,-12.266,-8.049,-73.309,-27.5,-13.534,-7.85,-7.227,-71.52,2.63,2.612,3.777,7.265,-61.394,15.012,52.814,31.543,27.496,-75.975,-57.907,60.143,98.106,79.049]],
"ve": [[21.806,21.868,28.81,108.681,183.905,16.167,64.639,68.269,4.933,190.235,18.247,14.51,15.515,10.491,173.277,32.01,23.165,8.386,7.634,-1.696,93.887,48.728,17.28,-2.187,-11.031,185.575,75.548,53.33,14.401,-22.517],[15.417,0.574,1.877,3.13,2.824,9.78,3.235,3.641,3.373,4.542,-5.581,4.352,2.804,4.149,4.338,49.295,22.829,15.019,11.074,8.071,97.154,60.678,29.797,20.758,15.302,191.285,118.159,61.035,43.14,31.123],[4.262,-0.469,-0.107,-0.546,0.365,-1.92,1.594,0.013,0.596,0.741,12.277,4.671,1.482,2.036,1.998,38.954,21.319,14.084,10.543,8.705,94.358,46.73,29.661,22.074,16.258,194.958,78.121,64.378,46.216,36.211],[-22.834,-1.756,-2.36,-0.005,-0.637,6.843,-0.798,-0.89,-0.185,-0.185,31.758,3.088,1.96,0.559,-0.224,49.717,20.805,12.895,10.134,7.628,98.599,46.156,30.566,22.775,16.849,172.67,93.804,61.776,47.019,36.005],[3.845,-1.689,-1.483,-2.052,-1.423,8.528,0.74,-0.675,-0.769,-0.864,2.152,1.901,0.912,0.717,0.536,53.525,23.086,14.749,9.819,7.89,72.275,47.804,29.003,20.93,16.776,201.522,94.18,66.632,46.269,36.778],[0.993,-1.315,-2.309,-1.943,-2.149,0.467,1.214,-0.924,-1.237,-0.967,11.544,2.793,1.003,0.511,0.327,65.06,22.233,13.243,9.457,7.715,97.152,39.7,30.781,21.785,16.776,192.124,93.247,58.372,46.243,36.816]],
"kep": [[-28.653,-19.654,-16.731,-22.179,-38.345,-13.609,-16.274,-6.613,-11.488,-26.325,-11.349,-6.111,0.412,-12.784,-20.066,13.435,35.727,37.649,37.524,54.296,56.143,71.357,81.922,113.09,128.13,-71.258,93.614,133.264,206.337,238.881],[-46.976,-24.918,-23.039,-19.1,-17.293,-43.489,-20.594,-19.985,-18.134,-18.25,-39.251,-19.377,-15.986,-14.425,-16.924,-20.115,2.312,-3.879,-3.551,-2.608,-69.097,5.471,13.287,14.931,16.347,-45.425,7.263,44.848,46.699,48.717],[-56.441,-31.943,-24.499,-19.929,-18.692,-60.774,-27.635,-23.853,-19.088,-18.12,-55.996,-25.939,-19.032,-19.608,-18.458,-48.748,-15.559,-8.249,-7.379,-8.702,-64.022,-6.135,1.355,1.671,-0.851,-88.09,-46.519,17.596,21.947,22.639],[-70.72,-32.494,-24.933,-26.013,-21.696,-71.099,-32.224,-26.547,-23.665,-21.469,-67.303,-30.104,-27.578,-21.722,-20.146,-66.085,-25.26,-16.827,-15.632,-13.342,-79.392,-16.739,-3.335,-6.902,-7.07,-87.963,-61.947,8.47,9.331,9.071],[-78.909,-39.84,-31.409,-27.349,-24.46,-75.1,-40.583,-31.858,-24.8,-23.865,-76.038,-36.095,-29.834,-26.4,-24.581,-80.249,-24.63,-23.282,-17.849,-15.748,-82.956,-15.256,-12.156,-14.373,-9.957,-93.888,-61.841,-10.206,2.256,7.185],[-79.955,-42.617,-32.569,-28.235,-25.011,-81.663,-37.845,-31.75,-29.393,-26.22,-81.576,-43.925,-31.893,-27.097,-26.527,-84.392,-33.789,-28.365,-24.716,-20.946,-84.117,-37.503,-8.247,-14.568,-13.513,-90.656,-79.467,-22.941,5.671,2.939]],
"vp": [[-275.738,-34.843,240.417,321.974,1056.833,-56.201,52.346,26.363,-14.935,111.031,-59.197,36.61,40.124,64.351,-0.896,-10.695,5.269,24.518,5.676,5.443,-12.423,5.808,0.321,-1.761,9.754,-12.422,-11.902,6.07,-5.401,-19.209],[2862.107,1673.822,-97.794,-421.276,-279.685,536.165,301.891,19.136,-77.445,103.458,274.694,77.112,-30.9,48.135,23.444,74.063,18.744,-20.212,-20.553,-18.212,31.11,-8.773,-15.172,-0.299,1.993,-12.428,7.123,-15.686,6.557,9.075],[4483.371,2996.104,1445.616,1326.543,623.858,971.57,637.789,243.853,284.466,14.634,465.32,315.594,196.378,67.054,-26.093,75.816,21.36,55.409,12.659,-0.737,33.361,14.394,7.225,-0.243,-26.038,17.096,-5.551,-14.593,-5.365,2.637],[6373.623,4952.237,2225.837,1037.647,858.383,1036.06,983.876,570.352,515.339,140.726,562.68,487.031,198.138,262.213,17.989,125.03,63.897,48.708,15.609,-0.164,40.439,38.468,28.328,-1.76,-19.066,6.356,2.134,-15.764,-13.55,-21.87],[8478.96,6584.234,3368.037,1330.065,196.493,1261.139,1332.678,798.063,217.616,303.565,619.291,690.45,388.218,246.394,119.265,131.748,131.782,60.256,39.314,30.194,37.261,56.449,13.693,-19.951,2.024,22.559,3.799,16.737,-13.394,2.548],[6653.23,8462.541,6007.346,4245.128,1675.705,1335.728,1779.329,1333.938,731.551,308.633,747.593,792.386,635.79,511.257,193.246,126.617,160.441,103.077,37.975,34.589,50.4,59.18,75.174,35.303,0.656,28.521,28.052,16.105,10.626,2.014]]
}