{
"KTrans": [[2.363,1.508,2.194,1.589,3.544,6.159,14.542,12.926,11.296,13.81,11.89,27.726,23.388,24.776,23.162,25.377,80.824,98.2,99.348,97.365,81.862,47.153,134.024,153.122,160.368,-242.889,-326.694,30.294,123.22,171.572],[-8.557,-0.997,0.664,1.708,1.302,5.348,4.703,1.52,5.301,5.3,14.11,11.738,3.55,9.93,10.099,141.375,96.32,-9.237,32.231,40.222,347.743,241.431,-27.841,22.593,59.937,990.598,694.692,8.873,-129.536,42.204],[-10.962,0.011,-0.608,-0.028,0.059,0.156,4.059,3.607,2.932,1.19,4.821,10.457,8.086,6.985,2.192,106.151,71.887,60.44,56.159,5.999,272.65,171.466,136.104,146.622,27.125,759.709,450.038,333.114,370.808,-52.728],[-14.808,-3.358,0.802,1.548,-0.618,-4.701,3.346,4.394,3.138,2.495,-2.185,9.506,8.442,6.547,6.079,83.549,63.353,52.739,40.798,39.284,232.258,153.569,111.678,96.603,87.788,471.667,363.692,268.298,214.25,217.601],[-24.345,-2.332,-1.328,-0.36,-0.23,-17.173,2.037,3.001,3.017,2.302,-6.705,6.497,6.58,6.946,5.667,72.086,57.608,46.981,37.25,31.36,158.465,144.257,100.562,81.056,72.838,427.599,358.541,241.2,190.72,169.282],[-28.425,-3.058,-0.142,0.129,0.552,-20.79,1.994,3.108,2.931,2.78,-13.969,6.763,6.719,6.626,5.781,53.649,55.484,39.982,34.16,29.318,163.01,131.57,93.982,73.903,63.989,328.289,326.375,206.493,170.745,148.958]],
"ve": [[2.346,14.216,-1115.258,1.88,21.105,6.926,19.206,24.785,46.318,156.16,11.062,-15.605,-3.917,57.148,194.701,50.649,-5.15,-60.083,-63.671,-107.582,-22.928,31.243,-6.768,-30.189,-45.273,217.684,83.747,33.515,3.914,-15.219],[-1.123,-1.189,-0.548,4.056,1.848,4.23,0.696,1.058,5.495,2.973,8.248,4.491,2.049,10.359,13.438,49.528,25.167,17.963,-1.22,64.538,99.042,49.131,33.742,18.484,0.318,194.672,108.504,64.906,45.433,27.318],[0.046,-0.012,-0.211,-0.633,1.562,5.302,1.795,1.381,0.762,67.694,8.884,4.472,3.258,2.186,-3.191,48.836,25.09,17.494,13.272,9.823,99.011,50.528,34.249,25.855,19.563,197.453,99.962,67.149,51.265,39.624],[0.646,-0.62,0.226,0.067,-0.31,4.6,1.95,1.618,0.966,0.851,8.447,4.851,3.215,2.479,1.912,48.671,25.165,17.432,13.372,10.773,98.408,50.7,34.134,26.227,21.083,125.988,99.545,67.751,50.899,40.942],[0.424,-0.313,0.181,0.106,-0.132,4.186,2.088,1.562,1.215,0.917,8.651,4.37,3.246,2.618,2.152,49.56,24.92,17.013,13.12,10.655,97.972,50.38,33.973,25.869,21.152,212.961,100.213,67.259,50.863,41.24],[-0.92,0.267,0.1,-0.089,0.095,3.827,2.189,1.476,1.153,1.026,9.036,4.762,3.245,2.471,2.055,48.731,24.925,16.639,12.883,10.456,96.949,50.406,33.712,25.636,20.871,199.862,99.825,66.699,50.678,41.085]],
"kep": [[-127.864,-8.188,-7.067,-0.172,-11.513,-124.818,-29.548,-20.029,-17.614,-30.889,-124.006,-60.164,-32.691,-45.539,-47.777,-180.54,-237.704,-188.147,-183.224,-188.494,-145.622,-471.31,-370.934,-366.468,-385.328,-324.263,-875.199,-723.194,-730.955,-754.976],[-16.76,-10.247,-126.922,-8.774,-3.955,-6.075,-1.282,-125.005,-19.817,-10.603,-2.474,9.892,-131.717,-38.417,-21.882,66.374,109.191,-285.227,-179.813,-101.532,128.633,208.609,-278.434,-339.007,-202.57,267.319,405.284,-216.204,-683.607,-391.998],[-17.482,-3.587,-3.977,-9.024,-124.684,-8.396,-1.27,1.816,4.894,-120.115,-9.982,5.576,10.278,16.519,-129.503,33.554,48.063,68.994,131.14,-164.896,82.335,99.553,128.848,256.364,-97.087,180.075,198.438,231.424,429.022,-311.34],[-21.013,-6.39,0.058,1.557,-6.421,-15.481,-1.13,3.701,3.706,4.267,-16.008,4.709,5.624,8.032,11.423,19.141,33.96,44.489,46.24,73.869,59.799,75.536,75.867,97.17,134.621,80.591,139.568,150.088,163.434,244.813],[-29.276,-3.275,-2.635,-1.459,-2.057,-26.19,-1.172,0.971,1.602,1.619,-21.052,0.407,3.003,6.795,7.2,11.19,26.453,32.808,33.168,35.086,22.083,66.527,60.986,62.19,76.241,65.767,132.626,118.159,121.043,142.585],[-34.988,-5.387,-1.357,-0.614,0.702,-29.497,-1.981,1.446,1.614,2.894,-27.224,-0.104,3.462,5.281,4.819,-1.495,24.934,22.032,24.835,25.996,24.731,55.408,50.925,50.531,54.069,33.414,111.165,89.731,95.462,104.834]],
"vp": [[79.302,28.287,-111.167,106.628,-142.749,1.264,-15.455,-10.366,-12.82,-5.247,12.725,-2.816,16.34,4.605,-13.701,-0.076,2.207,-4.14,5.279,-3.02,-3.275,-0.477,-1.55,0.649,1.075,-1.901,-0.624,-0.86,-0.576,-1.781],[834.373,352.06,-35.356,81.13,65.16,224.812,36.606,0.079,-17.971,-11.657,108.215,-6.598,-4.796,1.412,7.787,16.147,7.742,-0.106,-1.007,-0.491,10.089,2.313,-0.499,-1.775,-1.093,4.786,1.908,-2.796,1.513,0.768],[2800.371,578.303,-313.622,-18.531,89.011,612.723,128.954,27.354,19.358,-15.921,299.841,45.948,-22.474,12.594,3.241,56.576,5.951,8.028,-3.026,-0.051,30.03,-2.985,-5.315,3.82,0.626,10.383,-0.519,-2.875,-2.55,-1.533],[4630.26,681.055,322.802,449.55,96.847,930.515,193.039,17.184,-7.01,20.66,411.963,92.045,40.694,13.496,-1.589,85.474,12.243,3.953,-4.261,0.566,41.207,10.99,1.735,-0.137,-4.548,18.159,1.563,-5.751,-3.713,-2.227],[6340.224,1277.471,-9.686,52.652,181.43,1132.149,313.935,125.851,75.015,6.195,586.256,130.552,16.07,9.344,13.345,110.972,30.351,10.671,-1.763,2.149,59.196,14.271,-4.106,0.774,-0.256,23.296,7.226,0.949,-2.092,-2.121],[7035.065,2494.065,660.582,162.695,-99.695,1389.418,570.676,106.539,41.437,8.047,717.695,211.317,68.335,40.654,35.951,129.968,38.069,16.329,1.2,2.528,64.821,20.39,4.542,-4.348,-4.054,28.062,15.974,0.913,0.05,0.921]]
}