{
"KTrans": [[-3.362,8.157,6.862,10.024,10.104,14.175,10.94,15.538,17.835,11.666,18.209,18.856,22.238,18.337,17.572,136.898,93.823,81.232,73.745,69.521,294.736,210.034,184.649,153.704,147.585,716.045,501.118,404.253,368.103,339.534],[-32.95,-4.881,0.086,3.018,2.851,-26.015,2.766,4.181,4.875,7.319,-17.939,3.85,8.807,7.977,10.418,41.896,48.128,39.374,34.578,32.233,137.967,107.259,86.451,71.634,66.974,347.887,248.428,197.221,162.853,141.358],[-47.586,-9.376,-6.418,-1.845,-0.601,-44.687,-8.843,-0.866,0.654,1.407,-41.287,-3.888,2.498,3.949,5.465,3.082,29.924,28.342,24.282,22.597,56.916,78.815,64.838,55.818,48.048,215.623,198.134,152.749,124.586,106.621],[-62.32,-20.436,-7.961,-6.62,-4.072,-62.6,-19.711,-5.712,-3.628,-1.004,-53.442,-12.245,-6.131,-2.464,1.661,-17.071,15.456,15.227,18.008,18.688,35.057,57.21,51.592,43.174,38.403,128.167,152.105,125.531,101.919,87.656],[-68.884,-29.123,-14.652,-10.884,-6.236,-66.491,-20.507,-13.511,-7.283,-5.153,-61.045,-23.323,-10.016,-6.635,-1.408,-33.191,8.649,10.623,13.065,11.192,4.776,42.039,39.419,37.587,32.183,76.592,113.379,113.484,91.129,74.893],[-73.744,-32.72,-19.265,-11.392,-8.436,-69.506,-28.866,-15.112,-9.871,-8.366,-69.756,-25.47,-14.585,-9.368,-4.96,-48.521,-3.804,7.304,4.931,6.982,-13.347,30.13,29.316,26.977,25.383,35.394,110.226,89.872,72.592,64.987]],
"ve": [[25.059,15.864,30.415,17.629,8.347,23.757,17.254,165.888,37.603,-86.815,19.371,24.554,31.957,82.456,52.742,51.171,18.42,8.816,2.283,-5.293,96.101,33.196,12.554,-1.185,-11.549,191.292,77.775,37.569,13.259,-4.131],[7.871,0.848,2.772,2.808,5.244,8.665,2.087,2.658,4.195,5.197,12.53,3.536,4.756,4.063,6.022,47.01,24.396,15.588,9.811,8.629,97.548,46.574,28.873,19.831,14.444,192.142,93.859,60.247,41.251,28.948],[4.002,-0.753,-0.3,-0.16,0.854,6.028,-0.343,0.592,0.332,2.099,13.737,3.308,0.928,1.678,1.401,54.063,22.732,14.261,9.783,8.971,94.771,46.785,30.604,21.63,15.834,193.997,95.4,61.742,44.726,34.351],[3.485,-2.701,-1.893,-2.006,-1.437,6.357,1.389,-0.29,-1.124,0.411,12.027,2.842,1.242,1.067,0.793,46.745,21.874,14.572,9.616,8.081,92.415,45.446,30.224,21.695,16.913,191.492,93.301,62.029,45.304,35.868],[4.99,-2.339,-2.579,-1.989,-1.544,4.109,-0.222,-1.122,-0.651,-0.882,10.602,2.748,0.534,0.427,-0.165,56.051,21.484,13.949,9.813,7.053,84.666,46.375,29.207,21.818,16.302,192.009,94.784,61.637,45.575,35.629],[3.527,-1.559,-1.971,-2.393,-2.074,-1.958,-0.156,-0.932,-0.673,-1.474,14.175,2.918,0.821,-0.271,-0.526,48.837,22.398,13.528,8.573,6.684,96.583,45.053,29.292,21.428,17.04,193.921,94.844,62.015,44.697,35.601]],
"kep": [[-27.241,-19.48,-25.109,-22.251,-28.866,-21.364,-19.439,-15.427,-12.05,-28.959,-17.748,-13.451,-7.327,-13.227,-16.734,27.418,33.456,37.692,43.148,52.295,60.306,86.436,103.71,106.635,126.61,122.005,168.086,190.836,228.327,265.466],[-48.569,-24.96,-22.664,-20.278,-22.191,-45.408,-19.842,-19.336,-20.018,-18.545,-41.216,-20.085,-17.589,-17.524,-17.194,-23.78,-5.358,-4.507,-2.809,-3.442,-4.452,11.919,14.56,13.376,15.551,20.598,41.874,46.634,47.168,48.033],[-60.087,-27.72,-25.708,-22.091,-21.976,-58.472,-27.135,-21.915,-20.569,-21.486,-59.108,-26.179,-19.478,-19.057,-17.677,-46.367,-16.243,-10.996,-10.463,-10.997,-37.258,-3.67,-0.135,1.295,1.106,-15.193,20.375,23.44,22.498,21.474],[-71.509,-35.066,-25.742,-24.619,-23.018,-71.523,-36.897,-25.202,-22.889,-22.094,-66.908,-32.222,-26.671,-23.668,-20.23,-56.983,-24.886,-20.369,-14.865,-13.231,-45.99,-14.541,-8.07,-7.078,-6.451,-39.173,3.101,9.777,9.809,9.015],[-77.101,-42.498,-30.649,-28.11,-24.716,-75.579,-36.605,-30.791,-26.199,-24.392,-72.149,-40.895,-29.221,-26.466,-21.983,-64.815,-29.148,-23.167,-18.628,-17.889,-57.703,-23.159,-14.757,-10.729,-10.239,-52.212,-13.81,4.347,3.699,1.816],[-80.48,-45.775,-34.787,-28.155,-26.113,-77.831,-43.484,-32.07,-28.241,-26.532,-79.029,-42.33,-32.992,-28.189,-24.479,-73.326,-37.612,-25.228,-23.65,-20.769,-65.018,-28.916,-20.873,-17.303,-15.385,-64.207,-15.156,-7.579,-5.881,-4.018]],
"vp": [[-247.23,76.234,-218.482,558.423,-400.653,47.775,28.266,58.553,44.572,-76.565,41.794,-79.744,64.339,37.132,42.315,1.031,-2.479,13.541,4.524,3.968,-0.841,-4.704,1.27,3.007,0.659,-3.724,-6.925,2.656,-1.862,-4.482],[2943.787,1491.696,133.151,-319.439,-600.102,617.038,341.085,-10.047,-55.889,4.231,285.251,135.862,7.379,-47.188,32.839,56.57,23.439,-11.417,-4.191,-0.001,27.969,16.184,-1.412,-10.433,3.613,8.635,5.656,1.687,-1.602,0.996],[5007.259,4225.344,1272.095,171.492,-194.156,1027.884,690.084,527.861,257.203,-84.596,490.321,315.492,208.027,193.955,21.59,99.482,70.986,28.172,9.152,-3.608,45.657,35.546,21.084,4.991,-8.333,22.373,13.853,7.287,2.736,-2.862],[6303.579,5685.594,3122.17,1362.241,350.197,1283.962,952.298,664.318,362.998,306.563,556.48,540.338,236.506,185.449,140.297,118.316,96.634,62.406,32.247,25.961,58.051,36.39,31.676,18.119,2.496,27.776,21.735,14.355,2.826,4.533],[7048.755,8018.012,3639.483,1901.708,1798.709,1460.699,1436.428,821.97,571.833,247.396,609.123,752.065,476.049,180.674,187.476,134.161,144.84,78.562,38.819,11.068,65.623,61.981,35.315,31.23,16.903,23.119,32.686,27.59,13.682,5.58],[7763.599,9695.735,6606.536,3725.162,2250.419,1513.104,1951.971,1255.882,862.677,338.153,761.327,904.682,762.934,233.061,269.01,156.567,183.887,136.725,55.862,8.313,76.491,86.733,58.964,23.363,15.854,32.771,42.317,25.387,2.75,9.33]]
}