{
"KTrans": [[-1.943,2.324,1.764,2.567,1.662,11.796,9.045,6.918,4.566,3.615,30.862,17.415,13.701,12.978,11.03,163.136,95.554,72.431,67.987,59.679,407.353,223.969,176.932,159.854,139.343,474.739,566.941,437.509,383.526,347.899],[-1.44,1.1,2.647,2.46,0.815,5.182,7.313,5.88,4.511,2.975,16.852,12.019,9.02,8.418,7.005,148.17,69.13,44.883,36.424,31.707,264.464,151.885,105.595,75.868,67.529,-103.155,453.607,253.227,187.328,155.589],[-10.748,1.207,2.219,0.874,2.044,-6.099,6.149,6.096,3.819,3.383,0.284,11.961,8.21,7.673,5.013,79.065,70.807,41.459,32.785,27.36,33.382,148.159,93.714,72.09,56.68,-26.513,423.516,222.455,150.514,130.972],[-28.324,1.88,2.759,1.935,1.551,-25.761,7.954,5.027,4.436,3.737,-19.34,14.128,10.719,6.828,5.772,15.509,65.983,38.708,31.06,24.514,-0.545,187.932,96.643,61.489,52.981,-132.154,291.265,249.436,151.892,122.849],[-42.726,2.654,3.161,2.722,1.297,-40.023,0.513,6.423,3.485,3.942,-33.966,11.874,10.71,7.744,5.842,-12.255,70.868,46.336,30.019,24.281,-53.417,168.675,107.643,71.73,54.184,-70.787,93.793,287.574,182.243,117.546],[-56.737,1.592,1.632,2.069,2.406,-49.901,6.501,6.28,4.265,4.57,-53.431,6.633,12.103,7.369,5.873,-46.443,68.511,48.697,32.699,24.734,-40.273,153.008,113.114,70.66,48.294,-66.802,27.495,264.228,157.053,119.84]],
"ve": [[4.077,2.507,2.655,2.629,3.936,4.945,2.383,-0.473,2.482,1.928,10.661,2.444,-1.573,-4.208,-3.808,44.807,13.895,-0.387,-10.893,-18.042,97.397,33.071,9.442,-7.207,-17.641,182.727,82.22,36.898,11.719,-5.678],[2.71,0.545,0.253,0.026,0.005,6.383,1.986,1.435,0.826,0.551,10.936,5.396,2.469,1.212,0.763,51.407,23.856,14.356,8.812,5.345,102.138,47.055,29.675,19.065,12.353,200.217,99.676,61.241,41.821,29.128],[11.849,0.891,0.49,0.18,-0.082,5.745,2.272,1.183,0.915,0.406,10.465,5.752,3.2,2.356,1.552,52.013,24.149,15.513,11.271,8.408,99.663,49.042,31.762,22.812,17.059,198.988,100.083,64.968,46.462,35.872],[6.959,0.887,0.31,0.348,-0.185,7.346,2.841,1.815,0.595,0.766,11.347,5.248,2.918,2.583,1.646,52.366,24.925,15.888,11.508,8.932,100.319,50.221,32.492,23.739,18.688,200.049,99.904,66.258,48.06,37.883],[3.497,0.776,0.508,0.241,0.15,6.369,2.275,1.749,1.432,0.844,11.596,5.252,3.222,2.129,1.875,53.096,25.113,16.487,12.001,9.047,99.159,50.332,32.918,24.872,18.964,188.693,99.058,66.567,49.826,38.538],[4.183,-0.01,1.115,0.4,-0.084,6.164,2.833,1.684,0.969,0.64,7.532,4.637,3.33,2.681,1.583,50.455,25.535,16.772,12.435,9.407,100.35,50.991,32.542,24.291,18.953,191.561,103.604,65.617,49.191,39.584]],
"kep": [[-4.304,0.896,1.254,4.617,2.867,7.429,7.653,9.325,6,5.628,19.393,15.665,17.132,21.114,19.965,82.119,72.632,74.081,90.163,96.546,155.676,143.202,153.489,180.941,191.388,94.77,265.13,291.91,332.483,375.207],[-3.867,0.713,2.49,2.548,0.943,-0.976,5.373,4.489,3.781,2.556,5.622,6.371,6.548,7.217,6.323,63.931,36.624,26.724,25.445,25.112,78.836,70.709,58.4,47.696,49.158,-92.039,173.942,118.247,102.145,97.798],[-13.602,0.492,1.763,0.754,2.164,-10.903,3.84,4.927,2.943,3.013,-9.665,5.959,4.933,5.259,3.45,17.214,37.494,22.442,19.325,17.488,-32.946,65.366,46.813,39.984,33.809,-71.131,156.676,94.073,70.468,69.716],[-31.014,1.049,2.5,1.61,1.778,-31.038,5.094,3.184,3.871,2.98,-27.906,8.449,7.672,4.166,4.072,-24.205,32.609,19.597,17.475,14.316,-49.504,89.477,47.913,30.386,28.811,-106.391,93.804,107.729,69.219,61.173],[-45.166,1.992,2.716,2.52,1.16,-44.096,-1.502,4.651,2.045,3.09,-41.869,6.421,7.299,5.536,3.924,-42.989,36.026,25.483,16.059,13.966,-75.491,76.451,55.519,37.307,29.497,-87.477,-2.381,129.751,87.128,56.54],[-58.503,1.618,0.578,1.692,2.506,-52.96,3.47,4.558,3.272,3.917,-58.709,1.895,8.481,4.583,4.25,-64.282,33.704,27.181,17.975,14.004,-69.204,65.401,59.739,37.05,24.577,-86.575,-34.054,115.59,70.826,56.869]],
"vp": [[69.366,156.996,-21.468,-39.839,130.909,9.161,7.699,72.349,10.503,-2.976,30.929,23.53,14.11,-3.284,0.473,2.533,11.224,6.554,15.811,-2.521,8.073,-0.767,11.151,15.269,3.338,6.253,5.856,3.668,3.818,-1.995],[1771.87,2.227,-78.952,41.954,-27.349,345.154,10.188,26.038,12.878,13.918,197.049,33.785,18.374,26.653,6.57,68.714,14.5,-4.504,2.073,8.752,23.738,4.341,17.174,-6.067,10.643,16.283,28.492,15.35,11.608,10.401],[4553.62,483.981,217.799,155.983,-171.544,907.507,115.291,17.973,65.027,-11.489,435.509,84.553,16.888,53.247,14.274,93.272,31.522,9.069,7.558,18,49.138,16.535,14.654,23.243,9.008,24.262,27.779,12.658,-1.232,18.628],[6788.887,1334.706,121.413,-50.448,-16.904,1301.428,296.608,123.623,-3.734,-16.047,681.192,160.252,42.384,28.483,36.944,136.229,46.486,7.413,1.936,8.698,68.04,46.401,20.494,1.633,15.382,37.041,20.197,23.588,8.352,16.03],[8294.086,2532.375,436.276,-98.33,-49.882,1592.359,546.584,133.53,25.583,-23.638,792.521,302.675,57.266,1.295,-14.298,145.652,80.104,35.922,1.777,13.42,77.768,53.224,41.871,31.351,20.171,35.859,29.368,30.598,40.331,12.417],[8812.235,4309.64,900.992,-126.755,-193.001,1703.668,1011.68,155.589,2.287,33.078,861.97,520.32,135.919,34.296,-18.115,163.202,132.543,52.992,6.142,8.457,73.91,77.932,39.056,22.565,-0.19,47.287,26.863,17.453,13.596,20.093]]
}