{
"KTrans": [[9.176,8.575,12.789,8.829,13.586,18.958,17.926,11.982,10.363,14.66,27.569,23.561,24.591,27.543,21.162,63.432,98.002,81.642,72.296,71.201,178.028,80.866,154.976,129.017,121.69,98.086,223.663,62.407,178.151,89.859],[-31.9,-7.629,-2.246,1.414,6.102,-30.015,-1.179,3.006,6.615,4.966,-13.333,7.305,3.753,7.211,10.473,15.69,43.624,43.052,35.635,31.809,-25.073,104.917,91.941,72.744,68.371,24.927,-40.112,44.78,123.094,131.028],[-58.263,-14.814,-5.312,-1.369,-0.012,-48.12,-9.536,-3.081,-0.33,1.86,-49.788,-7.331,0.384,3.271,4.953,-26.912,19.487,28.264,22.866,26.628,-34.437,-9.545,55.187,54.451,46.283,11.944,53.174,37.076,72.475,90.478],[-65.484,-22.881,-13.959,-6.285,-2.047,-63.367,-19.815,-7.399,-5.764,-1.305,-63.122,-15.042,-9.458,-3.007,0.044,-59.615,4.737,19.962,12.727,12.072,-66.431,-32.958,42.918,37.601,39.734,-26.439,-30.223,-28.979,21.658,67.237],[-79.166,-28.741,-19.073,-12.514,-8.953,-75.779,-25.234,-16.146,-7.72,-5.02,-76.258,-19.814,-15.476,-9.421,-5.886,-67.395,-15.593,12.71,9.127,9.879,-73.1,-26.788,24.937,29.717,30.621,-50.851,-0.447,-63.253,7.921,58.422],[-79.308,-30.08,-21.413,-16.493,-10.871,-83.539,-30.2,-20.899,-11.468,-7.755,-78.282,-26.385,-15.757,-12.131,-9.202,-68.992,-25.429,2.004,0.379,3.949,-63.75,-42.363,33.151,24.696,20.918,-86.42,-56.221,-60.511,-49.731,58.12]],
"ve": [[-0.843,-71.188,-110.756,44.301,103.159,32.226,27.312,141.992,-152.947,105.589,101.359,105.802,-39.38,-0.179,-87.933,167.401,27.021,13.856,8.597,2.923,90.859,36.024,16.569,-25.389,15.693,179.778,76.162,40.127,13.012,-11.459],[8.998,2.765,5.089,4.308,4.978,16.327,1.351,3.665,2.896,5.2,19.03,3.822,4.546,6.663,6.696,52.959,22.939,15.012,10.253,10.872,-4.561,48.952,32.892,23.092,16.245,190.304,94.037,56.713,38.297,14.066],[-15.843,-0.863,0.136,0.038,0.613,5.307,2.214,0.091,0.571,2.351,9.431,2.125,3.191,1.511,2.608,53.194,21.503,14.054,10.36,8.029,93.764,36.601,31.503,23.896,17.694,249.983,96.7,60.977,35.9,36.991],[45.939,-0.966,-1.678,-1.406,-0.666,7.451,1.523,0.891,-0.682,-0.349,10.306,3.427,1.605,0.966,0.265,51.887,20.9,13.282,9.529,8.548,96.42,46.45,32.673,22.231,17.649,194.805,94.34,61.6,47.401,39.914],[8.321,-2.094,-2.365,-2.885,-1.732,8.519,2.059,-0.627,-2.19,-1.241,5.926,1.942,1.654,0.536,0.354,52.719,17.805,14.177,9.402,7.516,96.218,-34.473,26.679,21.649,17.345,196.83,83.934,62.088,42.796,37.694],[6.64,-1.662,-3.386,-2.849,-3.071,-0.463,1.955,-1.909,-1.542,-1.245,5.201,3.354,1.289,-0.997,-0.517,32.183,25.9,14.093,9.537,5.799,93.979,47.391,25.324,22.341,15.789,207.724,94.281,63.099,46.324,43.298]],
"kep": [[-27.339,-24.053,-25.401,-34.286,-27.611,-17.158,-18.228,-27.679,-35.072,-29.587,-16.367,-17.323,-9.889,-11.085,-23.202,-19.036,26.662,27.275,32.982,41.36,12.023,-3.122,69.609,71.987,78.016,-27.102,52.572,-5.886,80.777,32.575],[-50.755,-31.586,-29.059,-26.091,-22.77,-51.659,-25.3,-23.818,-20.969,-23.678,-45.093,-21.248,-24.651,-23.333,-21.063,-43.387,-11.918,-6.049,-6.919,-9.853,-64.634,4.231,8.15,5.48,9.224,-59.341,-61.999,-26.789,16.972,33.034],[-70.104,-34.996,-28.383,-25.494,-24.913,-64.147,-32.556,-26.631,-25.148,-24.942,-66.58,-31.301,-26.295,-23.193,-22.847,-62.241,-25.467,-15.286,-16.055,-11.683,-70.399,-50.713,-11.093,-6.659,-6.602,-67.046,-36.666,-32.831,-12.038,3.963],[-75.896,-40.962,-33.887,-28.285,-25.713,-75.425,-39.999,-30.552,-28.499,-25.287,-75.656,-37.935,-32.685,-27.489,-24.852,-78.701,-35.721,-20.655,-22.512,-22.295,-83.118,-61.442,-18.656,-15.677,-11.128,-77.348,-66.638,-59.676,-35.736,-9.552],[-85.659,-44.738,-37.57,-32.205,-30.252,-83.226,-44.389,-36.232,-28.965,-27.54,-84.395,-41.332,-37.343,-32.137,-29.46,-83.566,-48.051,-26.015,-25.17,-23.171,-86.101,-58.695,-28.427,-20.415,-16.693,-84.324,-57.754,-74.825,-41.585,-12.471],[-85.272,-46.864,-38.647,-35.331,-30.81,-89.583,-48.743,-39.276,-32.255,-29.627,-86.601,-46.636,-37.356,-33.273,-31.385,-84.055,-54.465,-33.288,-31.172,-26.087,-84.705,-68.022,-23.412,-24.059,-21.921,-93.038,-77.182,-75.086,-68.857,-14.951]],
"vp": [[476.449,-292.104,210.578,823.18,135.328,-74.116,14.267,70.025,-93.637,152.71,38.586,28.341,5.595,92.282,81.626,-9.704,5.35,3.623,-27.227,15.185,-40.956,1.33,-31.588,-10.665,-13.196,-56.702,-14.915,-16.54,-22.265,8.942],[2607.3,1269.068,284.351,-839.272,-376.541,477.643,200.422,-153.145,-231.096,-168.883,235.271,119.474,-45.48,-51.629,-10.928,35.982,-8.217,-6.658,-18.942,-6.937,-13.459,-5.06,-1.799,0.728,-3.996,-17.975,-27.742,-26.984,-26.537,-24.712],[5503.042,2586.457,1917.055,712.721,-249.87,757.987,657.519,349.063,217.49,-74.492,324.074,240.168,111.675,50.697,-33.421,52.581,45.476,13.524,-8.295,4.636,30.708,-9.825,-15.159,-10.057,-28.424,-15.028,-14.575,-40.138,-30.833,-19.482],[5611.416,5536.614,2097.97,1538.41,2298.418,1086.059,1054.897,725.809,546.447,332.416,492.688,555.047,284.538,127.834,55.17,97.15,75.447,62.146,2.817,-12.916,21.67,10.105,15.491,-13.261,-16.833,-8.361,-19.468,-23.408,-31.301,-27.757],[5959.822,7084.576,5083.464,3141.176,1112.992,1140.559,1735.313,948.443,518.778,421.124,524.238,745.661,557.601,265.7,193.452,109.481,75.94,67.078,42.277,25.081,39.232,35.801,5.532,-7.245,-8.738,23.228,-33.691,-12.497,-42.478,-43.414],[5491.173,9651.151,6244.801,5191.158,2469.629,1307.624,1759.358,1458.076,922.999,636.558,588.679,840.985,858.015,463.443,242.929,100.711,128.521,100.988,77.31,30.143,22.691,37.555,13.558,32.24,-16.603,24.456,20.482,-7.169,-4.31,2.223]]
}