{
"KTrans": [[7.562,7.391,6.652,9.339,6.812,6.437,5.932,7.1,5.041,9.142,2.977,6.507,8.783,9.997,8.294,26.772,17.727,10.874,12.521,17.596,60.886,46.521,24.201,29.497,33.443,33.825,97.923,98.138,85.101,76.549],[-25.74,-1.434,0.277,2.586,3.8,-32.791,-5.571,2.286,2.247,4.497,-30.242,-4.406,0.705,0.976,3.046,-24.516,-6.983,6.088,5.518,7.486,-30.295,12.347,10.564,9.167,15.319,-31.572,57.36,31.239,26.981,15.52],[-64.814,-16.59,-8.463,-3.442,-0.256,-65.886,-18.737,-7.343,-2.147,-0.468,-57.413,-15.779,-7.024,-1.589,1.298,-54.489,-13.348,-2.122,-1.289,4.007,-38.914,-7.992,4.494,2.177,4.471,-57.317,-5.39,12.228,12.505,15.266],[-79.05,-30.301,-15.724,-7.329,-2.862,-80.864,-36.001,-17.996,-9.912,-3.547,-80.118,-34.653,-17.238,-8.01,-4.13,-68.719,-24.258,-14.547,-6.504,-4.108,-63.601,-18.295,-12.085,-3.382,2.624,-78.536,-20.803,-0.438,-2.072,12.925],[-88.189,-46.295,-24.83,-13.845,-11.441,-88.33,-43.639,-26.594,-15.402,-9.758,-88.088,-42.399,-25.179,-16.951,-8.887,-82.242,-40.666,-29.354,-15.61,-7.839,-79.818,-41.198,-21.591,-8.508,-4.387,-80.874,-57.54,-19.692,0.146,-5.422],[-91.173,-57.563,-30.967,-21.174,-15.376,-91.662,-52.885,-31.181,-20.603,-14.664,-91.032,-54.614,-35.085,-24.679,-16.446,-86.088,-56.002,-31.075,-22.434,-15.332,-85.783,-48.671,-27.91,-20.018,-10.304,-87.165,-56.229,-14.906,-9.088,-10.999]],
"ve": [[3.667,4.515,15.933,3.883,31.964,-1.859,6.195,18.699,22.886,23.19,7.583,10.48,8.961,16.558,19.495,8.773,-0.918,20.874,-19.143,-2875.145,28.921,5.71,-20.622,40.577,-36.07,41.779,3.103,-7.067,28.98,-25.907],[-9.46,-0.213,-0.268,1.244,2.363,-14.741,-1.45,0.293,2.1,2.378,-14.471,-0.294,0.748,1.304,2.636,-5.242,-1.533,3.236,3.127,3.88,-0.58,12.146,6.949,5.149,6.877,10.821,38.19,9.027,6.483,-22.577],[-34.763,-7.271,-3.535,-1.032,0.215,-35.954,-6.853,-3.241,-0.645,0.612,-28.532,-5.526,-2.383,-0.534,0.949,-27.583,-2.357,0.551,0.1,2.451,11.621,3.471,7.324,2.151,3.475,8.909,12.491,2.524,32.809,10.5],[-48.804,-12.301,-5.793,-3.218,-1.527,-52.122,-15.819,-7.013,-3.141,-1.883,-58.751,-14.072,-6.614,-2.62,-1.228,-22.063,-2.225,-4.111,-1.559,-0.971,-3.36,2.856,-0.933,1.738,3.046,-32.569,20.576,10.114,3.277,10.564],[-53.998,-21.885,-9.829,-5.247,-3.879,-57.146,-21.372,-10.265,-5.339,-3.415,-55.985,-18.822,-9.773,-6.499,-3.392,-286.187,-15.222,-10.212,-4.222,-1.865,-11.934,-18.323,-5.993,0.915,0.523,-3.239,-6.658,4.296,14.959,-0.587],[-61.636,-29.749,-12.858,-8.027,-5.612,-63.096,-27.194,-13.466,-8.301,-5.656,-54.848,-25.899,-13.443,-9.032,-5.685,-44.815,-30.29,-9.184,-7.366,-4.292,-31.938,-10.834,-7.508,-5.165,-0.917,-40.232,-12.526,13.244,3.126,-0.933]],
"kep": [[-8.263,-7.53,-10.763,-10.026,-14.048,-11.739,-9.986,-10.162,-16.035,-8.788,-14.462,-10.469,-7.96,-7.332,-13.896,-7.914,-8.162,-14.33,-9.686,-0.784,-24.773,-3.644,-15.934,-1.349,7.84,19.398,-11.574,18.252,30.738,34.545],[-30.512,-13.619,-11.484,-10.705,-10.602,-34.03,-16.235,-10.341,-11.681,-9.959,-33.963,-16.216,-12.013,-12.126,-11.442,-43.199,-19.812,-10.413,-10.377,-8.881,-52.131,-18.166,-12.518,-10.499,-5.141,-35.307,-16.406,-18.141,-10.807,-15.508],[-60.902,-22.273,-16.819,-14.228,-12.383,-60.608,-24.541,-16.019,-13.435,-12.921,-58.422,-22.809,-16.384,-13.046,-11.685,-64.776,-25.023,-15.398,-13.872,-10.962,-62.113,-34.273,-17.27,-14.241,-12.517,-56.527,-29.441,-27.704,-18.378,-12.584],[-74.898,-31.69,-21.674,-15.931,-13.187,-77.622,-35.259,-22.84,-18.274,-13.546,-78.41,-34.805,-22.583,-17.059,-14.63,-72.272,-35.462,-22.717,-17.009,-15.304,-72.808,-40.267,-25.912,-18.77,-13.866,-68.543,-46.926,-35.734,-25.574,-14.554],[-83.206,-42.108,-27.3,-20.209,-18.974,-85.464,-40.752,-28.885,-21.551,-17.891,-85.901,-39.741,-27.854,-22.098,-17.049,-85.115,-46.124,-32.678,-23.205,-17.671,-78.818,-55.466,-31.966,-21.545,-17.802,-79.065,-60.079,-43.672,-25.907,-22.616],[-90.323,-50.127,-31.96,-25.037,-21.175,-89.515,-46.504,-31.048,-24.199,-20.515,-90.067,-50.223,-35.141,-27.539,-22.146,-83.664,-60.225,-35.192,-27.328,-22.759,-80.622,-60.781,-36.752,-27.441,-21.373,-81.491,-59.523,-39.987,-32.543,-26.204]],
"vp": [[-51.318,-161.635,-10.377,-443.063,-121.3,2.085,-7.048,-59.037,-17.081,-68.093,-3.712,-15.987,-25.787,-20.961,-50.818,-14.199,-9.378,4.578,-4.644,-11.528,-20.681,-20.105,0.543,-8.593,-17.573,-14.394,-19.595,-28.259,-24.904,-22.822],[1244.964,-56.942,156.297,-94.512,-422.393,382.057,105.017,-44.073,-55.306,-79.802,191.454,29.227,0.235,13.485,-16.608,23.358,25.974,-6.949,-3.832,-13.398,14.12,-9.938,-4.826,0.876,-18.387,7.368,-36.328,-12.954,-12.562,4.389],[4006.895,1546.135,897.113,234.366,107.98,833.247,313.818,197.244,42.967,-12.262,341.529,102.581,68.227,31.776,-34.333,60.917,20.182,2.824,8.65,-13.497,-4.906,0.212,-17.863,3.906,-1.712,7.817,-2.472,-5.124,-4.058,-9.646],[5378.916,2541.283,1648.321,917.289,457.426,1201.479,680.648,445.158,226.813,123.968,561.609,316.141,196.691,90.59,56.602,72.305,14.152,32.189,19.402,22.2,14.34,3.448,12.278,0.392,-9.338,34.5,-13.975,-2.784,9.656,-19.76],[6206.242,4882.244,2885.415,1722.776,1667.318,1362.214,951.06,650.973,415.783,329.609,692.917,427.993,314.177,273.664,155.976,98.117,75.076,76.267,42.314,28.117,37.328,47.189,30.227,2.967,5.205,15.804,14.088,1.842,-8.162,16.016],[7127.968,6536.272,3892.759,3154.194,2750.979,1453.929,1225.494,849.312,629.626,537.959,681.246,575.613,427.164,389.069,299.066,115.825,145.077,63.064,68.883,54.291,48.405,34.371,35.059,32.444,9.724,36.85,25.607,-16.801,0.528,15.803]]
}