{
"KTrans": [[24.78,13.577,20.204,14.59,16.436,12.259,20.003,29.405,24.762,21.206,23.356,20.118,17.068,21.501,25.037,26.872,30.166,37.683,24.787,26.802,54.727,57.991,46.009,41.454,51.661,88.335,89.199,84.979,65.146,80.391],[-49.483,-6.248,1.392,7.398,12.17,-47.495,-9.48,0.693,5.421,15.131,-33.954,-9.546,0.588,11.828,12.775,-49.062,-4.424,8.415,12.693,17.481,-29.412,2.997,14.01,18.423,18.863,-14.045,8.118,23.981,35.673,30.466],[-73.864,-25.618,-15.419,-1.944,-1.277,-65.498,-31.626,-11.644,-5.754,0.796,-72.105,-27.684,-13.116,-5.977,-1.014,-68.655,-29.92,-11.704,-2.843,5.536,-68.247,-27.249,-6.413,3.637,7.14,-52.196,-23.671,1.741,11.32,13.624],[-86.441,-45.844,-31.186,-18.978,-9.224,-81.026,-47.287,-30.514,-17.214,-6.418,-86.175,-50.555,-30.508,-15.101,-5.784,-80.348,-49.034,-31.845,-14.383,-6.466,-75.707,-47.359,-28.092,-18.721,-3.526,-66.222,-47.976,-22.168,-9.26,0.435],[-91.489,-64.509,-42.983,-32.018,-20.505,-89.216,-64.237,-43.923,-28.496,-19.058,-88.322,-62.55,-44.127,-31.823,-18.883,-88.179,-59.339,-44.418,-27.56,-18.001,-82.012,-64.182,-41.897,-28.028,-16.38,-75.882,-60.278,-43.351,-26.362,-13.257],[-92.259,-73.551,-54.294,-40.795,-26.833,-93.493,-70.005,-55.082,-41.598,-29.898,-92.356,-74.791,-54.6,-38.617,-27.89,-87.795,-72.216,-55.121,-42.13,-27.515,-87.255,-71.401,-52.441,-40.165,-26.974,-84.343,-69.209,-53.552,-39.03,-23.33]],
"ve": [[-39.673,14.87,22.787,80.071,3.697,83.846,-9.263,38.439,55.827,60.914,3.675,71.268,375.754,40.883,-1.634,24.736,38.51,37.598,275.669,-12.331,49.652,54.298,216.698,76.562,3385.149,44.583,53.686,26.987,108.206,69.251],[-22.62,0.533,1.726,5.761,10.053,-5.97,0.001,2.61,6.122,8.431,-19.649,1.815,3.836,5.354,8.051,36.11,7.084,8.126,9.758,11.475,-14.156,17.246,14.472,14.692,16.176,56.726,31.899,22.906,24.108,20.505],[-25.467,-6.482,-6.35,-1.427,0.711,-22.161,-10.26,-3.297,-1.236,1.25,-38.785,-9.782,-3.958,-0.723,1.825,3.386,-2.749,-1.401,3.537,4.465,3.948,5.95,6.002,6.638,6.923,55.723,21.039,20.165,16.297,13.194],[-68.417,-17.966,-10.918,-7.031,-3.677,-46.993,-18.313,-10.609,-7.291,-1.595,-64.665,-15.92,-11.046,-4.156,-2.295,-10.237,0.012,-6.932,-2.001,-0.031,-4.799,-3.817,-0.571,0.036,3.672,66.572,11.503,10.229,10.099,9.674],[-64.406,-32.806,-16.268,-10.154,-6.669,-53.69,-25.846,-15.686,-10.263,-6.785,-29.281,-19.437,-14.99,-10.49,-6.093,-182.451,-14.433,-12.922,-6.371,-3.553,-13.796,-10.347,-6.421,-3.506,-0.174,62.782,-6.657,1.379,4.336,5.553],[-61.103,-29.641,-20.787,-14.762,-10.399,-147.578,-26.711,-20.798,-14.429,-9.839,-76.601,-35.761,-21.076,-14.276,-9.185,-47.807,-24.183,-17.481,-11.841,-7.659,-16.814,-12.473,-10.845,-6.711,-4.654,12.283,2.859,-1.447,-1.139,2.712]],
"kep": [[-30.279,-37.865,-34.206,-50.783,-53.404,-35.918,-31.6,-26.186,-32.644,-46.727,-31.714,-33.174,-42.781,-40.125,-38.574,-37.64,-28.508,-24.342,-43.291,-46.011,-30.837,-17.472,-25.579,-28.184,-15.042,-34.29,-14.809,-6.652,-16.866,2.78],[-62.843,-38.467,-33.666,-32.445,-31.546,-64.782,-40.1,-34.741,-33.761,-29.119,-59.856,-41.1,-35.933,-29.364,-30.636,-69.43,-41.38,-33.773,-31.97,-29.863,-64.969,-42.355,-34.221,-31.393,-31.83,-65.34,-47.003,-33.732,-27.773,-27.824],[-80.58,-49.592,-40.853,-34.545,-35.379,-76.843,-50.226,-40.07,-37.075,-34.312,-79.288,-48.558,-41.007,-37.606,-35.805,-81.094,-52.776,-41.261,-38.233,-33.246,-81.352,-55.095,-42.212,-35.993,-34.055,-80.255,-59.345,-44.728,-37.2,-34.071],[-90.192,-58.528,-49.59,-42.8,-37.977,-86.059,-58.047,-49.2,-41.417,-37.364,-89.886,-62.12,-48.749,-41.959,-36.524,-86.335,-63.442,-52.23,-42.659,-38.487,-86.315,-64.868,-52.759,-46.774,-38.789,-86.283,-70.064,-54.185,-46.141,-39.961],[-93.468,-70.255,-55.735,-50.365,-44.028,-91.547,-68.682,-56.797,-47.827,-43.036,-91.166,-68.61,-57.316,-50.054,-43.151,-90.942,-70.245,-58.497,-49.378,-44.18,-89.255,-74.634,-59.618,-51.159,-44.995,-89.222,-76.468,-63.733,-53.977,-46.204],[-94.442,-76.65,-62.634,-54.493,-46.497,-94.667,-74.29,-63.205,-55.329,-48.991,-94.331,-77.475,-62.45,-53.218,-47.94,-90.557,-76.855,-64.494,-56.896,-48.526,-92.391,-78.855,-65.444,-58.025,-49.736,-92.318,-80.768,-69.492,-59.758,-51.109]],
"vp": [[-755.025,-648.602,-340.108,-552.464,-473.993,-57.85,-65.585,-284.18,-138.203,-112.092,-42.863,-78.093,-63.909,-30.023,-82.408,-3.14,-2.49,-22.208,-2.933,-1.208,-8.55,-6.164,-8.161,0.119,-7.039,-6.153,-6.298,-3.219,5.75,-5.992],[2713.545,175.477,-40.337,-616.359,-1553.429,429.334,173.976,76.648,-117.845,-279.349,155.598,87.717,33.665,-82.759,-103.96,70.923,14.826,-7.521,-12.32,-19.483,20.822,3.017,-6.519,-5.661,-3.802,4.862,8.694,3.673,-7.368,-1.482],[5188.527,1592.268,1474.056,99.857,324.077,768.336,546.605,142.06,132.204,-11.451,482.387,285.364,125.311,71.798,-5.132,88.853,60.254,35.039,2.056,-10.973,52.587,27.922,8.98,-1.11,0.737,12.313,15.495,-2.43,-2.025,3.486],[6561.018,4699.534,3400.068,2586.738,1648.904,1221.39,942.724,708.988,543.745,46.201,723.288,486.852,374.607,139.443,77.649,116.687,103.027,88.29,38.329,24.99,54.787,54.138,40.81,39.594,1.677,15.797,31.667,18.481,12.324,7.406],[7687.861,6586.839,5660.329,4553.23,3667.173,1504.858,1591.58,1184.376,907.993,662.706,748.417,698.211,600.959,520.477,317.016,149.615,124.039,131.859,90.078,64.132,60.275,76.436,64.182,51.167,29.527,21.942,37.578,39.146,29.003,18.644],[7649.287,9001.785,7755.485,7342.14,4782.379,1551.831,1639.102,1651.088,1440.067,1117.181,748.565,1019.796,838.094,645.697,503.006,137.451,188.346,172.362,155.199,111.645,69.35,85.276,83.931,71.942,56.424,38.522,41.546,46.455,44.89,26.185]]
}