{
"KTrans": [[-47.537,-57.958,-70.154,-61.302,-56.215,-38.799,-40.558,-51.456,-48.939,-48.829,-14.371,-40.074,-43.09,-42.748,-41.158,21.946,-5.116,10.51,6.022,8.517,19.158,52.574,30.098,55.927,54.168,139.809,80.591,110.453,99.337,96.028],[-48.736,-41.308,-48.16,-46.944,-46.29,-45.648,-45.217,-31.666,-41.159,-48.215,-36.044,-31.116,-19.12,-33.133,-35.88,-16.55,4.444,-1.21,-31.949,-13.381,27.644,20.046,1.198,7.243,0.748,52.125,77.228,40.926,28.33,-0.34],[-58.149,-43.381,-45.052,-42.167,-56.808,-59.577,-36.558,-42.156,-37.155,-32.389,-59.598,-32.766,-32.874,-28.864,-24.714,-40.75,-22.93,-13.072,-3.336,-3.534,-9.657,2.494,18.199,17.325,0.008,10.242,69.42,64.431,45.04,14.235],[-70.797,-49.518,-42.862,-47.084,-50.705,-73.446,-35.557,-36.577,-42.952,-40.578,-69.703,-34.384,-28.52,-28.691,-29.206,-52.819,-26.572,-27.736,-22.206,-14.278,-43.443,6.042,-16.438,-5.31,2.472,-20.913,33.427,64.998,57.82,29.181],[-78.038,-44.127,-39.994,-45.459,-49.896,-77.404,-42.059,-32.677,-35.961,-37.915,-76.724,-38.887,-29.919,-30.178,-31.937,-59.458,-28.588,-30.874,-29.04,-20.054,-52.009,-6.703,-13.712,-16.576,-2.323,-36.681,13.381,40.045,32.985,28.069],[-84.953,-48.174,-43.451,-37.501,-36.486,-83.356,-46.001,-35.34,-33.577,-34.163,-81.509,-47.712,-40.082,-30.716,-27.279,-74.16,-41.241,-24.783,-23.516,-22.829,-62.444,-27.716,-21.111,-25.365,-10.823,-40.116,-22.792,29.905,9.714,1.058]],
"ve": [[-42.837,-52.689,11.327,-1.662,-13.952,-38.991,-8.278,-37.364,-7.304,-54.62,-19.287,30.902,-29.61,-0.436,138.596,74.421,-28.535,44.039,-23.695,274.241,-436.741,21.519,-112.243,-9.268,-10.887,85.001,44.011,7.382,-3.913,-46.974],[-85.363,-60.685,-47.047,-32.997,-25.406,-76.504,-74.125,-29.556,-28.785,-25.411,-54.586,-44.595,-17.36,-25.677,-19.01,5.954,7.004,-2.234,-10.8,-10.245,111.464,28.102,10.255,35.231,-3.915,370.194,163.117,67.724,21.316,5.05],[-63.692,-102.767,-75.419,-54.746,-55.989,-47.814,-82.26,-69.328,-49.818,-31.704,-69.754,-74.737,-55.865,-43.446,-25.097,-28.179,-59.667,-28.481,-7.714,-10.268,155.14,-16.74,28.266,11.781,4.079,82.219,147.509,194.379,73.67,-7.975],[-56.956,-126.865,-96.54,-82.368,-70.488,-54.753,-78.021,-81.164,-74.072,-57.263,-44.815,-100.358,-61.951,-50.628,-42.498,21.758,-99.423,-66.003,-41.75,-24.204,62.117,-26.898,-37.793,-18.978,-7.145,127.666,152.74,128.197,84.065,25.182],[-15.236,-119.028,-118.295,-99.764,-89.521,-11.143,-105.649,-85.382,-76.64,-66.824,-8.098,-81.81,-76.301,-66.415,-56.927,34.505,-76.804,-82.835,-69.035,-39.324,21.899,6.88,-66.778,-41.387,-12.014,376.909,179.406,83.792,20.288,12.832],[-27.52,-113.295,-135.154,-90.939,-76.396,-24.457,-90.729,-94.443,-78.804,-70.873,3.843,-99.232,-130.517,-77.339,-55.371,7.067,-31.32,-93.211,-61.168,-55.627,59.805,-18.482,-80.679,-70.273,-29.458,288.487,-78.673,132.44,22.632,-9.696]],
"kep": [[-102.587,9.191,-8.097,15.687,-12.08,-122.28,-18.787,-7.599,-6.061,-4.326,-116.966,-3.666,-5.153,3.666,-2.996,-91.154,-20.206,-16.419,-4.459,-15.445,26.398,-89.747,-33.219,-47.769,-35.814,84.629,-121.725,-113.793,-94.873,-78.794],[-35.194,-11.333,-125.605,-1.354,7.568,-26.619,-2.825,-122.076,3.201,-8.091,-29.416,-14.617,-116.603,-1.03,1.139,-46.971,-40.664,-62.082,12.585,-13.058,-55.883,-14.677,-21.431,-77.249,-25.149,-66.045,-24.874,-16.963,-96.549,-49.702],[-49.419,-4.771,1.153,-13.218,-106.254,-55.015,-7.488,-5.514,4.82,-124.134,-52.635,-6.278,-1.246,-2.163,-121.39,-52.27,-4.487,0.135,-12.894,-77.06,-73.694,-17.627,-33.053,-13.472,-28.029,-54.605,-31.713,-77.204,-35.137,72.946],[-64.419,-12.689,-0.875,-1.501,-2.205,-69.244,-13.876,-1.5,-3.234,-2.47,-67.819,-6.302,-5.028,0.943,3.594,-67.666,-2.169,-4.189,-2.386,-0.687,-66.643,-13.647,-14.549,-7.387,-4.998,-65.022,-41.904,-25.26,-33.246,8.686],[-80.154,-16.501,0.03,-1.56,-0.425,-81.087,-17.785,-5.395,-1.12,-1.185,-81.598,-18.559,-3.996,0.102,-0.2,-73.352,-17.49,-5.309,0.692,0.562,-69.913,-34.135,-0.417,-3.022,-4.36,-86.096,-62.259,-32.033,-3.163,9.579],[-86.391,-21.589,-5.548,-4.282,-2.024,-82.888,-26.17,-9.019,-6.735,-1.806,-86.187,-26.994,-4.428,-4.228,-2.44,-80.639,-38.379,-1.092,-2.356,1.929,-79.998,-49.791,-8.233,-1.769,-0.302,-79.69,-42.598,-45.399,-28.563,-11.22]],
"vp": [[-3.927,103.21,-163.868,230.109,-15.595,-28.568,3.18,-35.514,-32.895,30.538,-18.44,1.308,-5.818,11.594,-9.446,-2.179,-5.542,-8.104,4.131,-0.242,-6.745,-15.882,6.515,-3.448,-2.481,-23.706,8.84,-4.648,4.786,8.24],[1086.996,314.616,-46.451,84.837,132.952,218.428,-8.855,-1.581,18.009,-45.431,107.371,11.418,2.575,-10.574,-7.383,27.774,19.803,-16.629,23.313,-9.317,-8.43,-14.836,-9.946,-4.987,2.02,-1.034,-24.697,-24.26,-6.811,11.971],[2828.319,407.839,298.145,68.912,-170.992,554.467,86.064,19.964,35.181,-8.003,297.918,43.069,2.745,-15.401,-13.946,27.975,4.871,-7.14,3.068,-4.665,19.363,-6.881,12.033,-26.289,-27.411,-11.403,-12.042,5.353,-30.794,-27.262],[3858.8,1165.401,187.123,119.215,132.607,848.059,266.643,89.466,16.223,28.2,424.882,83.525,59.158,24.381,26.713,57.649,-1.218,8.188,-7.145,1.639,21.306,-15.187,0.901,2.012,-27.822,-6.466,-20.029,-18.89,-22.222,-43.642],[6240.296,1771.929,442.336,373.28,139.969,1096.196,386.318,168.306,106.337,47.925,574.937,239.373,103.652,41.4,42.455,82.902,26.334,17.385,-8.226,-8.631,0.879,7.868,-6.453,11.27,-10.546,6.896,3.669,-18.839,-35.154,-31.218],[6046.896,3380.476,1177.206,864.961,663.894,1149.983,615.105,297.745,186.998,115.977,642.063,348.413,79.058,27.966,67.142,92.838,79.94,25.587,7.147,-12.804,27.005,37.892,12.625,8.309,-3.085,-7.289,-7.251,-20.715,-0.99,-4.297]]
}