{
"KTrans": [[0.18,1.16,4.334,2.815,4.341,-0.359,7.185,2.976,3.6,5.354,4.252,6.306,3.815,4.381,5.099,9.603,13.853,14.007,8.388,10.383,50.599,30.849,15.086,21.841,25.734,-199.96,61.685,61.471,59.723,46.277],[-18.595,-3.981,-0.543,0.453,1.313,-19.831,-6.038,-0.433,2.941,2.754,-18.164,-3.616,-0.228,1.891,2.867,-18.157,4.903,3.206,6.295,6.758,-27.019,10.577,9.531,7.047,13.695,-12.917,56.034,23.413,24.91,22.915],[-52.767,-13.483,-3.555,-1.603,-0.267,-57.526,-8.049,-3.957,-1.938,0.814,-57.563,-14.932,-4.426,-1.438,0.24,-37.867,-10.66,-2.768,-0.561,4.626,-50.979,-6.871,1.49,-1.125,2.746,-32.776,-33.373,19.789,11.951,9.562],[-75.51,-24.981,-11.336,-6.303,-2.872,-78.501,-22.037,-12.162,-5.426,-3.618,-76.333,-21.188,-11.224,-6.143,-3.217,-68.373,-23.694,-10.212,-3.26,-1.065,-64.758,-8.439,-4.02,1.084,3.406,-71.75,-11.078,-3.841,13.462,7.915],[-84.573,-30.58,-15.066,-11.529,-6.053,-84.344,-32.179,-21.254,-10.952,-5.488,-84.127,-31.313,-18.498,-10.866,-5.209,-78.22,-24.451,-13.892,-11.103,-4.203,-79.618,-32.098,-10.164,-4.788,-2.512,-66.721,-47.656,0.211,3.436,4.336],[-88.35,-43.945,-21.314,-17.13,-8.394,-88.835,-42.131,-20.555,-16.111,-10.442,-87.126,-40.926,-25.8,-14.086,-9.37,-85.154,-50.661,-21.679,-11.99,-11.884,-87.297,-45.395,-15.511,-13.769,-7.635,-83.597,-42.107,-39.892,-0.947,-5.197]],
"ve": [[0.864,4.439,4.994,8.296,9.517,2.726,3.063,5.878,8.498,8.592,1.059,3.558,6.43,10.276,8.403,-9.212,-18.997,-48.658,-35.847,-43.099,37,-37.636,15.381,-83.378,-41.54,1.344,20.34,0.365,-20.794,-16.494],[-8.622,-0.993,0.298,1.282,0.806,-9.179,-1.924,-0.105,0.848,1.529,-7.928,-1.242,0.077,1.247,1.589,-9.118,4.011,2.448,2.886,2.548,4.987,1.355,7.105,5.089,5.962,8.927,35.384,10.849,0.787,-3.835],[-29.972,-5.211,-1.253,-0.343,0.127,-31.449,-2.776,-1.488,-0.757,0.483,-30.223,-5.183,-1.524,-0.162,0.07,-3.551,-1.117,0.327,0.182,2.397,-28.533,-5.886,2.787,-0.64,1.728,30.076,2.424,12.505,-13.132,7.681],[-46.046,-10.286,-3.738,-2.229,-1.085,-51.359,-9.045,-4.171,-1.378,-1.247,-45.441,-8.92,-3.579,-2.152,-1.01,-37.16,-7.317,-3.75,0.282,0.181,-23.77,4.342,1.437,2.578,3.69,-5.43,9.025,7.745,5.291,6.113],[-60.182,-12.806,-6.218,-3.963,-2.267,-54.162,-15.717,-8.089,-3.93,-1.772,-54.725,-13.179,-6.602,-3.62,-1.832,-42.18,-10.235,-4.953,-3.495,-0.18,-33.426,-11.161,-0.653,0.439,0.323,10.201,-17.677,19.316,3.917,4.721],[-59.513,-20.723,-9.312,-6.082,-3.165,-60.617,-21.844,-8.319,-5.795,-3.587,-59.146,-21.897,-11.655,-5.366,-3.629,-52.227,-25.078,-6.642,-4.512,-4.191,-42.34,-17.201,1.264,-3.949,-2.128,-13.975,3.227,-0.651,9.676,-1.528]],
"kep": [[-8.124,-9.051,-5.755,-8.893,-6.901,-10.288,-2.49,-7.922,-7.798,-3.834,-5.036,-3.524,-7.043,-6.433,-4.566,-16.898,-5.004,-1.139,-10.033,-1.702,-25.403,-9.637,-19.799,-4.366,2.801,52.488,-36.692,-25.72,-8.256,-32.726],[-20.152,-10.094,-7.722,-7.588,-6.373,-20.205,-10.959,-7.214,-4.943,-5.693,-21.238,-9.548,-7.206,-6.273,-5.642,-38.434,-9.039,-7.447,-4.453,-3.289,-31.344,-17.682,-9.263,-7.328,-0.768,-25.758,-10.565,-18.388,-9.81,-3.433],[-46.669,-15.725,-9.222,-8.121,-7.246,-50.318,-12.658,-9.346,-8.013,-6.589,-51.649,-17.429,-9.825,-8.121,-6.74,-49.676,-17.703,-10.873,-8.349,-5.18,-59.221,-34.564,-13.172,-11.209,-7.809,-58.465,-28.299,-22.887,-15.579,-10.502],[-70.475,-23.376,-14.493,-10.833,-8.586,-74.408,-21.514,-14.892,-10.811,-9.154,-73.18,-20.914,-14.709,-10.785,-9.012,-66.63,-28.62,-14.731,-10.874,-8.484,-66.797,-30.631,-16.288,-10.796,-8.368,-71.417,-31.28,-28.923,-16.817,-12.181],[-79.984,-28.157,-16.17,-14.384,-10.578,-78.867,-27.709,-20.855,-13.875,-10.457,-81.457,-29.033,-19.394,-14.106,-10.163,-75.483,-33.097,-17.411,-14.871,-11.178,-74.31,-46.316,-20.921,-14.138,-11.248,-76.301,-48.647,-31.597,-18.653,-14.143],[-84.665,-37.307,-20.261,-17.966,-12.011,-85.578,-36.163,-20.358,-17.269,-13.659,-84.222,-35.761,-23.066,-15.806,-12.539,-81.692,-55.769,-24.048,-15.358,-14.961,-79.835,-54.355,-28.697,-19.389,-13.851,-78.888,-53.453,-53.74,-27.816,-17.827]],
"vp": [[116.291,12.498,-202.159,-44.89,-231.084,-12.017,-49.04,-25.99,-20.21,-36.447,-0.825,-26.513,-14.204,-17.856,-12.412,6.735,-6.847,-13.283,-2.163,-6.748,-19.802,-7.297,4.234,-8.561,-12.021,3.134,-12.805,-14.284,-15.799,-9.045],[1049.153,163.153,89.31,-15.937,40.455,206.011,78.147,23.119,-57.126,-41.117,114.729,24.089,9.561,-19.518,-32.828,26.427,-9.623,-5.935,-16.292,-15.482,2.5,-5.322,-5.818,-1.403,-20.638,3.211,-35.84,-7.595,-10.848,-12.233],[3367.181,1077.036,337.091,69.003,65.804,691.461,107.061,79.483,63.056,-54.829,342.132,121.635,56.185,9.279,12.436,10.178,11.982,3.2,6.541,-23.919,22.648,14.254,-0.816,15.096,1.767,-12.173,5.346,-13.271,-3.638,-3.626],[5200.878,2166.172,1033.358,795.222,462.896,1071.428,381.12,231.117,91.162,112.472,511.299,169.3,97.101,79.63,43.96,90.779,36.679,28.966,-0.699,0.517,32.245,-4.397,0.834,-7.502,-16.051,9.201,-3.958,-5.443,-14.272,-7.202],[6213.01,2654.48,1871.399,1574.595,1086.798,1107.642,675.28,481.752,304.046,162.477,580.01,276.054,199.179,141.852,78.698,94.387,49.827,34.251,32.593,2.745,45.858,29.76,6.728,1.364,2.399,-1.093,27.434,-28.447,-3.273,-5.407],[6231.474,4265.412,2878.562,2230.049,1458.753,1289.469,931.062,511.689,459.138,331.441,637.141,456.364,366.369,215.865,160.181,116.298,111.191,43.026,41.551,47.608,55.667,42.551,-3.066,22.476,16.655,16.76,1.787,7.604,-16.373,12.386]]
}