{
"KTrans": [[3.12,3.639,6.34,5.764,6.873,5.089,8.598,6.993,4.375,7.272,7.347,6.363,5.054,6.023,5.388,16.37,11.456,10.322,14.079,8.336,37.348,20.347,27.452,23.972,11.069,96.121,67.84,47.657,36.337,38.03],[-24.567,-5.565,-0.128,0.663,2.99,-25.936,-0.668,1.595,1.678,3.176,-23.482,-1.854,0.923,3.397,4.007,-29.199,-4.946,4.045,5.032,7.328,-35.444,9.425,6.063,10.066,6.385,-3.682,23.769,23.078,18.934,18.004],[-60.081,-15.009,-7.045,-2.447,1.134,-66.645,-12.716,-6.681,-3.318,-0.403,-60.524,-12.197,-4.582,-2.467,1.058,-56.761,-10.154,-3.185,0.017,2.807,-44.94,-7.05,-0.447,3.807,7.699,-48.496,3.666,-2.312,12.187,13.402],[-78.467,-30.23,-11.329,-5.994,-2.932,-79.109,-28.123,-15.892,-7.548,-3.491,-74.46,-27.516,-13.335,-6.916,-3.368,-71.61,-25.832,-13.506,-6.553,-1.699,-71.281,-20.795,-15.823,-3.685,-0.376,-71.728,-17.266,-7.978,-1.324,-3.856],[-88.911,-38.066,-24.77,-11.84,-8.352,-89.663,-37.677,-19.592,-13.498,-7.918,-89.246,-39.792,-20.754,-12.709,-9.028,-81.826,-41.235,-21.739,-11.582,-6.803,-80.039,-39.508,-17.712,-16.282,-8.426,-82.651,-32.582,-14.08,-7.727,3.254],[-92.631,-50.367,-29.072,-17.185,-12.696,-93.09,-48.901,-30.209,-19.624,-11.745,-89.032,-49.12,-30.709,-18.727,-11.963,-89.052,-56.676,-29.414,-18.84,-10.992,-84.278,-51.619,-29.702,-20.222,-10.164,-84.813,-45.774,-31.013,-19.324,-5.411]],
"ve": [[2.337,4.802,7.049,8.645,2.722,2.315,4.306,7.077,15.886,17.799,1.842,6.099,8.883,14.694,18.767,11.834,13.516,20.84,15.386,158.609,9.736,20.554,21.737,19.102,129.904,49.879,-2.541,-17.504,-52.045,-35.522],[-12.286,-1.144,0.379,1,2.06,-8.737,-1.302,0.711,0.314,1.682,-9.375,-1.335,0.447,1.815,1.834,-13.617,-0.847,2.779,2.188,3.362,-18.867,8.007,4.659,4.838,4.122,25.549,15.939,16.025,13.077,11.361],[-33.026,-4.822,-2.557,-0.903,0.322,-49.695,-5.242,-2.413,-1.138,-0.016,-29.956,-3.605,-0.566,-0.629,0.238,-28.398,-0.838,0.218,1.241,1.869,-1.543,2.865,3.713,2.868,4.321,-0.402,10.607,2.481,8.385,8.094],[-48.029,-12.032,-4.141,-2.047,-1.03,-50.365,-11.139,-5.524,-1.814,-0.909,-43.013,-12.419,-4.473,-1.935,-1.277,-36.186,-8.418,-2.796,-1.491,-0.02,-27.891,-0.869,-4.598,1.286,1.224,-14.928,9.493,1.771,3.165,-1.135],[-60.733,-17.309,-9.217,-4.235,-3.118,-63.978,-16.855,-8.119,-5.122,-2.41,-63.221,-18.056,-8.04,-4.64,-3.234,-39.874,-15.508,-6.865,-2.037,-1.176,-52.078,-15.237,-1.849,-6.103,-1.474,-20.442,4.791,1.448,2.136,6.619],[-69.961,-24.353,-11.189,-6.749,-4.736,-67.748,-23.358,-12.061,-7.334,-3.94,-61.527,-23.233,-11.418,-7.075,-4.067,-52.629,-25.253,-11.857,-5.715,-2.586,-37.691,-10.256,-7.438,-6.206,-1.371,-29.688,-10.416,-9.146,-3.287,3.818]],
"kep": [[-8.727,-9.648,-8.42,-9.385,-9.311,-8.03,-5.309,-7.322,-13.43,-10.403,-5.9,-8.033,-9.436,-10.095,-12.126,-10.066,-7.537,-8.202,-1.932,-12.642,-15.052,-11.269,0.461,2.23,-15.678,-11.697,-8.471,-12.201,-14.136,-5.508],[-27.567,-14.602,-10.669,-10.459,-9.273,-30.767,-10.046,-9.476,-8.945,-8.804,-27.258,-11.345,-9.866,-8.782,-8.193,-39.072,-15.515,-9.743,-8.011,-6.81,-59.284,-13.15,-11.562,-6.967,-8.955,-32.626,-22.046,-11.103,-8.603,-5.988],[-54.763,-20.945,-14.572,-11.658,-9.522,-59.661,-18.208,-14.307,-12.233,-10.569,-54.52,-19.121,-14.101,-11.927,-9.534,-60.325,-20.14,-14.072,-11.584,-9.607,-62.206,-22.641,-16.055,-10.583,-8.076,-61.874,-37.086,-23.757,-11.756,-8.947],[-73.27,-30.299,-17.319,-13.934,-11.974,-74.137,-29.03,-20.501,-15.573,-12.596,-69.439,-27.487,-18.918,-14.952,-12.204,-73.367,-29.28,-21.245,-15.288,-11.942,-74.99,-32.131,-22.586,-16.059,-12.437,-72.053,-47.795,-25.539,-18.216,-16.002],[-83.902,-36.007,-26.164,-17.541,-15.185,-84.699,-35.322,-22.102,-18.343,-15.368,-86.615,-37.133,-23.462,-18.059,-15.641,-83.792,-41.792,-25.547,-19.364,-15.534,-81.593,-46.423,-25.834,-21.11,-17.379,-80.47,-57.03,-31.25,-22.367,-15.292],[-89.434,-43.704,-29.259,-20.561,-17.834,-89.795,-43.132,-29.744,-22.393,-17.641,-86.393,-43.39,-30.923,-21.862,-17.71,-88.578,-50.348,-29.559,-23.334,-18.289,-83.427,-57.571,-33.761,-24.8,-18.827,-81.995,-57.922,-43.86,-28.685,-20.185]],
"vp": [[101.905,-110.965,-325.724,-219.561,-269.158,-28.675,-61.704,-45.92,-9.359,-44.945,-4.459,-14.105,-6.756,-17.407,-6.525,-6.805,-4.282,-1.916,-11.211,1.093,-6.299,1.583,-9.664,-8.605,7.602,-15.41,-10.431,-4.811,-1.439,-2.535],[1282.792,278.714,76.858,103.66,-235.845,238.096,28.945,-28.584,-4.383,-46.324,120.289,31.258,-5.179,-29.278,-30.408,44.346,17.495,-5.139,-2.009,-17.445,35.462,-8.784,-0.422,-8.257,3.526,-5.955,-7.941,-11.277,-8.128,-6.316],[3640.099,1017.863,725.089,273.197,-119.783,843.718,201.87,119.218,97.152,27.174,351.268,81.129,15.378,35.176,-13.144,74.267,10.665,7.169,-1.292,-11.596,11.445,2.168,-3.522,-2.39,-15.935,9.344,-3.924,9.085,-8.611,-11.996],[5484.599,2591.693,1205.741,640.642,400.62,1133.48,474.381,310.544,119.329,73.911,493.976,260.842,133.939,71.822,43.485,95.357,46.226,23.689,20.616,3.02,41.553,8.742,24.104,2.002,1.433,19.479,-2.816,6.885,3.817,16.343],[6775.821,3759.081,2814.896,1445.179,1346.028,1395.672,732.827,458.714,399.132,206.008,715.378,396.846,247.602,190.38,159.896,114.84,74.151,47.655,20.221,15.228,50.471,44.059,13.191,37.969,16.687,20.845,3.348,6.192,3.195,-11.686],[7802.095,5152.562,3511.511,2503.946,2002.996,1549.615,1023.153,744.88,597.399,337.174,725.363,512.409,359.221,275.748,188.887,139.13,129.911,84.559,53.909,30.673,52.189,37.515,31.569,35.258,12.466,27.768,20.167,26.386,16.473,-4.896]]
}