{
"KTrans": [[2.459,1.133,0.718,0.519,0.404,12.561,7.392,5.79,5.029,4.563,26.189,15.592,12.369,10.894,9.945,162.997,93.721,74.213,65.175,60.52,408.777,225.249,175.79,153.549,140.843,1148.118,602.454,454.676,392.32,362.583],[3.596,1.54,0.818,0.456,0.249,12.569,6.19,4.12,3.11,2.55,24.239,12.066,8.328,6.501,5.457,139.13,65.978,45.418,35.905,30.585,340.534,147.808,99.783,77.955,66.537,983.829,366.962,235.729,181.56,151.933],[4.922,2.258,1.269,0.781,0.49,13.695,6.732,4.286,3.122,2.456,25.269,12.356,8.191,6.121,4.95,141.827,63.545,41.469,31.61,26.045,333.591,141.549,89.875,67.978,55.386,984.9,348.904,210.807,153.213,124.085],[5.731,2.852,1.737,1.135,0.77,14.66,7.218,4.717,3.43,2.643,26.183,12.989,8.449,6.247,4.973,135.94,62.095,41.132,30.538,24.621,327.749,137.686,86.359,64.957,52.3,1036.132,343.174,197.453,147.047,115.183],[6.326,3.44,2.202,1.516,1.076,15.782,7.841,5.107,3.712,2.843,27.418,13.484,8.854,6.502,5.171,140.065,62.187,40.638,30.097,24.241,331.852,138.241,86.875,64.19,49.99,874.626,324.241,199.484,141.494,110.798],[6.646,3.839,2.582,1.854,1.365,15.949,8.391,5.574,4.044,3.121,27.121,13.82,9.14,6.827,5.32,134.968,63.884,40.175,30.196,23.994,332.539,139.387,84.316,62.447,49.766,733.005,332.259,195.141,140.644,108.399]],
"ve": [[0.825,-0.223,-0.943,-1.582,-2.192,4.188,0.304,-1.928,-3.73,-5.315,8.479,1.141,-2.81,-5.92,-8.505,45.098,13.039,-1.79,-11.689,-19.322,93.335,33.239,7.79,-7.72,-18.727,191.963,78.854,35.115,10.457,-6.396],[1.202,0.571,0.275,0.059,-0.124,5.153,2.438,1.378,0.738,0.255,10.092,4.77,2.774,1.598,0.75,49.815,23.797,14.336,9.047,5.36,99.81,48,29.546,19.285,12.371,200.215,97.063,61.054,41.518,28.651],[1.277,0.687,0.442,0.287,0.165,5.264,2.645,1.701,1.182,0.825,10.255,5.093,3.284,2.303,1.659,50.314,24.776,16.031,11.416,8.484,100.403,49.574,32.157,23.092,17.336,201.046,99.421,64.821,46.975,35.731],[1.297,0.73,0.509,0.374,0.274,5.31,2.713,1.81,1.326,1.01,10.317,5.197,3.437,2.514,1.93,50.372,25.047,16.498,12.108,9.369,100.539,49.95,32.875,24.196,18.775,201.51,100.041,65.862,48.679,37.935],[1.307,0.761,0.549,0.424,0.334,5.351,2.754,1.862,1.394,1.094,10.366,5.25,3.509,2.611,2.053,50.487,25.184,16.684,12.373,9.724,100.732,50.202,33.277,24.639,19.406,201.557,100.172,66.445,49.378,38.971],[1.324,0.773,0.57,0.455,0.371,5.351,2.781,1.9,1.437,1.146,10.372,5.273,3.547,2.666,2.115,50.478,25.292,16.778,12.526,9.904,100.852,50.338,33.392,24.851,19.723,202.004,100.467,66.643,49.746,39.401]],
"kep": [[3.565,3.298,3.623,4.088,4.618,10.103,9.115,9.933,11.186,12.545,18.551,16.475,17.831,20.128,22.466,84.722,74.663,80.798,90.638,102.795,168.173,148.8,160.784,180.066,202.076,335.545,300.29,318.444,354.326,403.763],[4.324,2.895,2.465,2.317,2.294,9.1,5.646,4.669,4.313,4.247,15.008,9.011,7.421,6.831,6.675,62.648,36.636,29.618,27.015,26.315,124.612,70.632,57.168,52.041,51.042,267.422,141.456,112.443,102.768,99.583],[5.581,3.503,2.752,2.415,2.244,10.074,5.972,4.503,3.867,3.561,15.788,8.956,6.755,5.716,5.212,63.917,33.575,24.256,20.385,18.411,120.339,64.563,46.418,39.075,34.962,266.541,129.329,92.158,75.572,68.252],[6.374,4.059,3.158,2.686,2.417,10.959,6.383,4.823,4.029,3.561,16.566,9.462,6.852,5.625,4.956,59.854,32.101,23.462,18.666,16.125,117.165,61.517,42.928,35.36,30.678,282.94,125.676,82.743,69.33,58.982],[6.96,4.622,3.589,3.022,2.667,12.001,6.958,5.16,4.243,3.676,17.653,9.885,7.176,5.778,5.027,62.507,32.03,22.832,17.986,15.396,118.974,61.612,42.888,34.249,28.015,228.297,115.847,83.337,64.743,54.58],[7.261,5.014,3.952,3.332,2.922,12.159,7.475,5.588,4.533,3.902,17.371,10.186,7.417,6.044,5.112,59.039,33.292,22.329,17.915,14.979,119.124,62.229,40.808,32.598,27.486,180.33,119.565,80.447,63.756,52.346]],
"vp": [[-6.074,-3.853,-4.406,-4.517,-3.073,-6.261,-1.83,-1.988,-0.949,-1.982,-3.152,-1.702,-1.508,-0.164,-1.521,-6.996,-0.796,-0.982,-1.809,1.37,-5.906,-0.395,-1.001,-0.31,-0.34,-7.072,-1.376,-1.981,-0.271,-0.534],[23.678,4.939,-5.032,-5.902,-6.621,3.986,2.612,-6.55,-2.251,-0.295,0.579,-1.491,-3.475,-1.516,-0.676,-1.65,-0.526,-4.486,-0.416,-1.505,-1.021,-1.904,-4.961,-2.183,-0.744,-0.271,-2.828,-6.821,-1.275,-1.915],[88.081,34.239,13.098,2.125,-3.108,17.89,7.174,0.242,-0.951,-4.183,5.119,2.713,1.431,-1.526,-5.955,-0.415,-1.363,-1.209,-2.379,-6.205,-0.724,-0.882,-1.825,-1.246,-4.47,-1.206,-0.971,-1.798,-1.979,-5.836],[193.74,79.745,41.662,22.632,12.682,33.86,14.821,8.428,4.325,3.164,16.05,3.625,4.289,0.351,0.691,1.105,-1.427,-0.512,0.037,-0.533,-1.653,-2.604,-2.917,-0.885,-0.94,-2.159,-1.657,-3.374,-0.349,-1.736],[325.206,132.567,78.104,51.73,32.063,52.937,28.948,17.963,7.856,3.422,24.68,10.651,7.376,4.906,4.674,-1.569,0.316,-1.13,-0.591,-0.542,0.103,-0.622,0.701,-1.346,-0.989,-0.497,-2.182,-1.691,-0.64,0.031],[433.021,213.625,132.19,81.372,58.364,86.387,43.618,23.821,16.551,9.33,35.459,22.221,10.831,6.661,2.445,3.929,2.849,-0.576,1.08,-1.323,0.986,0.74,0.15,-2.522,0.277,1.734,-0.211,-2.33,-0.421,-1.38]]
}