{
"KTrans": [[0.05,0.05,0.05,0.05,0.05,0.05,0.05,0.05,0.05,0.05,0.05,0.05,0.05,0.05,0.05,0.05,0.05,0.05,0.05,0.05,0.05,0.05,0.05,0.05,0.05,0.05,0.05,0.05,0.05,0.05],[0.15,0.15,0.15,0.15,0.15,0.15,0.15,0.15,0.15,0.15,0.15,0.15,0.15,0.15,0.15,0.15,0.15,0.15,0.15,0.15,0.15,0.15,0.15,0.15,0.15,0.15,0.15,0.15,0.15,0.15],[0.25,0.25,0.25,0.25,0.25,0.25,0.25,0.25,0.25,0.25,0.25,0.25,0.25,0.25,0.25,0.25,0.25,0.25,0.25,0.25,0.25,0.25,0.25,0.25,0.25,0.25,0.25,0.25,0.25,0.25],[0.35,0.35,0.35,0.35,0.35,0.35,0.35,0.35,0.35,0.35,0.35,0.35,0.35,0.35,0.35,0.35,0.35,0.35,0.35,0.35,0.35,0.35,0.35,0.35,0.35,0.35,0.35,0.35,0.35,0.35],[0.45,0.45,0.45,0.45,0.45,0.45,0.45,0.45,0.45,0.45,0.45,0.45,0.45,0.45,0.45,0.45,0.45,0.45,0.45,0.45,0.45,0.45,0.45,0.45,0.45,0.45,0.45,0.45,0.45,0.45],[0.55,0.55,0.55,0.55,0.55,0.55,0.55,0.55,0.55,0.55,0.55,0.55,0.55,0.55,0.55,0.55,0.55,0.55,0.55,0.55,0.55,0.55,0.55,0.55,0.55,0.55,0.55,0.55,0.55,0.55]],
"ve": [[0.1,0.2,0.3,0.4,0.5,0.1,0.2,0.3,0.4,0.5,0.1,0.2,0.3,0.4,0.5,0.1,0.2,0.3,0.4,0.5,0.1,0.2,0.3,0.4,0.5,0.1,0.2,0.3,0.4,0.5],[0.1,0.2,0.3,0.4,0.5,0.1,0.2,0.3,0.4,0.5,0.1,0.2,0.3,0.4,0.5,0.1,0.2,0.3,0.4,0.5,0.1,0.2,0.3,0.4,0.5,0.1,0.2,0.3,0.4,0.5],[0.1,0.2,0.3,0.4,0.5,0.1,0.2,0.3,0.4,0.5,0.1,0.2,0.3,0.4,0.5,0.1,0.2,0.3,0.4,0.5,0.1,0.2,0.3,0.4,0.5,0.1,0.2,0.3,0.4,0.5],[0.1,0.2,0.3,0.4,0.5,0.1,0.2,0.3,0.4,0.5,0.1,0.2,0.3,0.4,0.5,0.1,0.2,0.3,0.4,0.5,0.1,0.2,0.3,0.4,0.5,0.1,0.2,0.3,0.4,0.5],[0.1,0.2,0.3,0.4,0.5,0.1,0.2,0.3,0.4,0.5,0.1,0.2,0.3,0.4,0.5,0.1,0.2,0.3,0.4,0.5,0.1,0.2,0.3,0.4,0.5,0.1,0.2,0.3,0.4,0.5],[0.1,0.2,0.3,0.4,0.5,0.1,0.2,0.3,0.4,0.5,0.1,0.2,0.3,0.4,0.5,0.1,0.2,0.3,0.4,0.5,0.1,0.2,0.3,0.4,0.5,0.1,0.2,0.3,0.4,0.5]],
"kep": [[0.5,0.25,0.167,0.125,0.1,0.5,0.25,0.167,0.125,0.1,0.5,0.25,0.167,0.125,0.1,0.5,0.25,0.167,0.125,0.1,0.5,0.25,0.167,0.125,0.1,0.5,0.25,0.167,0.125,0.1],[1.5,0.75,0.5,0.375,0.3,1.5,0.75,0.5,0.375,0.3,1.5,0.75,0.5,0.375,0.3,1.5,0.75,0.5,0.375,0.3,1.5,0.75,0.5,0.375,0.3,1.5,0.75,0.5,0.375,0.3],[2.5,1.25,0.833,0.625,0.5,2.5,1.25,0.833,0.625,0.5,2.5,1.25,0.833,0.625,0.5,2.5,1.25,0.833,0.625,0.5,2.5,1.25,0.833,0.625,0.5,2.5,1.25,0.833,0.625,0.5],[3.5,1.75,1.167,0.875,0.7,3.5,1.75,1.167,0.875,0.7,3.5,1.75,1.167,0.875,0.7,3.5,1.75,1.167,0.875,0.7,3.5,1.75,1.167,0.875,0.7,3.5,1.75,1.167,0.875,0.7],[4.5,2.25,1.5,1.125,0.9,4.5,2.25,1.5,1.125,0.9,4.5,2.25,1.5,1.125,0.9,4.5,2.25,1.5,1.125,0.9,4.5,2.25,1.5,1.125,0.9,4.5,2.25,1.5,1.125,0.9],[5.5,2.75,1.833,1.375,1.1,5.5,2.75,1.833,1.375,1.1,5.5,2.75,1.833,1.375,1.1,5.5,2.75,1.833,1.375,1.1,5.5,2.75,1.833,1.375,1.1,5.5,2.75,1.833,1.375,1.1]],
"vp": [[0.001,0.001,0.001,0.001,0.001,0.005,0.005,0.005,0.005,0.005,0.01,0.01,0.01,0.01,0.01,0.05,0.05,0.05,0.05,0.05,0.1,0.1,0.1,0.1,0.1,0.2,0.2,0.2,0.2,0.2],[0.001,0.001,0.001,0.001,0.001,0.005,0.005,0.005,0.005,0.005,0.01,0.01,0.01,0.01,0.01,0.05,0.05,0.05,0.05,0.05,0.1,0.1,0.1,0.1,0.1,0.2,0.2,0.2,0.2,0.2],[0.001,0.001,0.001,0.001,0.001,0.005,0.005,0.005,0.005,0.005,0.01,0.01,0.01,0.01,0.01,0.05,0.05,0.05,0.05,0.05,0.1,0.1,0.1,0.1,0.1,0.2,0.2,0.2,0.2,0.2],[0.001,0.001,0.001,0.001,0.001,0.005,0.005,0.005,0.005,0.005,0.01,0.01,0.01,0.01,0.01,0.05,0.05,0.05,0.05,0.05,0.1,0.1,0.1,0.1,0.1,0.2,0.2,0.2,0.2,0.2],[0.001,0.001,0.001,0.001,0.001,0.005,0.005,0.005,0.005,0.005,0.01,0.01,0.01,0.01,0.01,0.05,0.05,0.05,0.05,0.05,0.1,0.1,0.1,0.1,0.1,0.2,0.2,0.2,0.2,0.2],[0.001,0.001,0.001,0.001,0.001,0.005,0.005,0.005,0.005,0.005,0.01,0.01,0.01,0.01,0.01,0.05,0.05,0.05,0.05,0.05,0.1,0.1,0.1,0.1,0.1,0.2,0.2,0.2,0.2,0.2]]
}