{
"KTrans": [[3.994,1.629,1.018,0.661,0.952,12.413,6.361,5.594,5.666,5.567,25.928,16.558,13.515,12.004,12.179,162.443,94.507,76.524,66.498,61.724,402.96,226.19,174.896,153.803,141.841,1132.074,586.265,456.096,393.609,364.083],[1.251,2.302,1.066,0.246,1.539,7.882,5.477,3.757,3.546,2.662,19.439,12.33,8.941,6.697,6.578,131.412,63.634,43.737,34.246,31.526,319.547,148.707,100.639,78.731,65.633,867.809,360.952,232.719,183.005,152.289],[-3.925,3.119,1.317,0.64,1.436,5.218,5.652,3.765,4.542,3.061,15.232,11.986,7.418,5.789,5.23,114.202,61.149,40.979,32.629,26.747,297.089,133.233,89.465,67.717,54.566,808.276,322.449,204.573,152.519,122.409],[-6.05,1.992,2.485,0.487,1.247,1.89,5.036,4.634,4.099,2.686,14.33,12.368,8.439,6.388,4.67,106.327,61.476,41.19,30.887,24.208,275.605,133.305,86.818,64.06,50.342,774.013,319.73,192.458,143.62,112.439],[-15.634,1.619,0.19,1.661,1.243,-9.653,7.601,4.357,2.83,3.642,5.482,10.058,7.495,6.598,5.134,96.457,59.873,41.24,30.423,23.122,234.23,132.3,83.501,61.042,48.39,687.685,315.387,199.98,139.725,108.068],[-22.082,5.531,0.935,1.174,2.718,-12.936,9.392,2.408,3.206,2.606,-4.809,14.111,8.617,4.843,4.403,77.756,56.19,37.304,29.477,22.873,213.359,132.838,80.398,62.605,51.165,621.135,308.76,186.228,133.071,107.211]],
"ve": [[1.406,0.44,0.738,0.874,0.181,4.257,1.406,-0.453,-2.532,-3.622,9.222,2.07,-2.429,-4.369,-8.064,44.959,13.069,-1.329,-11.34,-18.911,93.459,33.332,8.234,-7.713,-18.403,192.036,78.882,35.142,10.041,-6.425],[1.054,0.595,0.219,0.189,0.023,4.972,2.435,1.453,0.815,0.568,10.406,4.583,2.535,1.423,0.878,50.344,23.816,14.131,8.723,5.588,99.187,47.713,29.561,19.377,12.609,199.048,97.055,60.899,41.489,28.823],[1.048,0.862,-0.027,0.248,0.304,5.161,2.821,1.436,1.295,0.74,10.21,4.985,3.34,2.194,1.497,50.024,24.399,15.524,11.177,8.489,99.82,48.943,31.842,22.985,16.943,200.772,99.006,64.379,46.804,35.499],[1.545,0.558,0.404,0.138,0.269,5.761,2.532,1.577,1.26,0.86,10.559,5.038,3.436,2.514,1.804,50.298,24.64,16.251,12.097,9.251,99.964,49.314,32.678,23.793,18.521,199.816,99.554,65.474,48.44,37.571],[1.956,0.422,0.325,0.292,0.244,5.573,2.212,1.489,1.091,1.007,11.093,5.157,3.078,2.488,1.874,50.753,24.833,16.46,12.155,9.511,100.478,49.776,32.737,24.192,18.996,200.984,99.533,66.175,48.875,38.557],[2.276,0.657,0.337,0.262,0.305,5.54,3.007,1.448,1.093,0.931,10.422,5.019,3.129,2.413,1.922,51.681,24.885,16.076,12.104,9.558,100.91,49.989,32.715,24.768,19.669,200.643,99.784,66.249,49.166,39.304]],
"kep": [[2.831,1.591,0.902,0.561,1.676,8.067,5.23,6.74,9.18,10.789,15.581,14.567,16.853,18.004,23.072,81.232,72.199,79.174,88.197,99.934,160.077,144.748,154.14,175.207,196.777,322.039,283.744,311.615,348.663,396.063],[0.176,1.726,0.863,0.076,1.546,2.733,2.964,2.277,2.747,2.125,8.296,7.412,6.244,5.22,5.679,53.9,32.178,25.929,23.487,24.57,110.844,68.359,54.846,49.72,47.094,223.739,133.9,106.786,100.001,95.842],[-4.856,2.224,1.324,0.376,1.131,0.132,2.729,2.269,3.189,2.296,4.597,6.645,3.923,3.496,3.662,42.755,29.503,21.992,19.279,16.817,98.737,56.593,43.671,36.331,32.153,202.353,112.288,85.265,72,64.123],[-7.625,1.383,2.049,0.31,0.943,-3.676,2.431,2.97,2.771,1.782,3.386,6.933,4.792,3.74,2.783,37.206,29.481,21.397,16.729,13.663,87.804,56.186,40.765,32.491,26.812,191.501,110.309,76.705,64.083,54.389],[-17.273,1.081,-0.194,1.295,0.958,-14.45,5.166,2.765,1.67,2.557,-5.175,4.603,4.244,3.952,3.158,30.301,27.975,21.202,16.232,12.38,66.811,55.017,38.155,29.624,24.661,161.622,108.13,80.48,60.96,50.134],[-23.776,4.728,0.502,0.84,2.359,-17.854,6.099,0.88,2.018,1.61,-14.586,8.56,5.262,2.31,2.386,17.555,24.978,18.189,15.415,12.112,56.137,55.118,35.839,30.258,26.27,140.371,104.478,72.083,56.191,48.695]],
"vp": [[0.001,0.001,0.001,0.001,0.001,0.005,0.005,0.005,0.005,0.005,0.01,0.01,0.01,0.01,0.01,0.05,0.05,0.05,0.05,0.05,0.1,0.1,0.1,0.1,0.1,0.2,0.2,0.2,0.2,0.2],[0.001,0.001,0.001,0.001,0.001,0.005,0.005,0.005,0.005,0.005,0.01,0.01,0.01,0.01,0.01,0.05,0.05,0.05,0.05,0.05,0.1,0.1,0.1,0.1,0.1,0.2,0.2,0.2,0.2,0.2],[0.001,0.001,0.001,0.001,0.001,0.005,0.005,0.005,0.005,0.005,0.01,0.01,0.01,0.01,0.01,0.05,0.05,0.05,0.05,0.05,0.1,0.1,0.1,0.1,0.1,0.2,0.2,0.2,0.2,0.2],[0.001,0.001,0.001,0.001,0.001,0.005,0.005,0.005,0.005,0.005,0.01,0.01,0.01,0.01,0.01,0.05,0.05,0.05,0.05,0.05,0.1,0.1,0.1,0.1,0.1,0.2,0.2,0.2,0.2,0.2],[0.001,0.001,0.001,0.001,0.001,0.005,0.005,0.005,0.005,0.005,0.01,0.01,0.01,0.01,0.01,0.05,0.05,0.05,0.05,0.05,0.1,0.1,0.1,0.1,0.1,0.2,0.2,0.2,0.2,0.2],[0.001,0.001,0.001,0.001,0.001,0.005,0.005,0.005,0.005,0.005,0.01,0.01,0.01,0.01,0.01,0.05,0.05,0.05,0.05,0.05,0.1,0.1,0.1,0.1,0.1,0.2,0.2,0.2,0.2,0.2]]
}