{
"KTrans": [[1.112,3.451,2.665,1.463,4.281,-0.612,4.154,3.483,3.978,4.346,6.385,2.415,3.574,2.706,4.057,20.206,26.641,11.513,14.71,13.388,-100.827,57.57,31.303,32.239,27.192,-100.307,-24.219,22.603,28.252,21.803],[-10.419,-2.171,0.027,1.579,2.513,-19.618,-2.356,-0.571,1.905,1.578,-16.143,-4.185,0.967,0.897,2.429,-18.781,4.92,0.578,5.53,5.92,13.673,1,26.066,16.685,14.146,36.921,-53.782,3.005,26.986,22.402],[-42.857,-11.597,-5.25,-2.068,-0.025,-49.377,-12.223,-4.311,-1.604,-0.49,-41.698,-11.145,-4.254,-1.073,0.089,-14.471,-11.779,-6.641,4.936,1.929,-10.529,7.87,8.008,6.947,7.653,22.559,-56.99,-31.516,19.36,32.631],[-69.09,-11.563,-11.431,-5.661,-3.476,-65.506,-12.706,-8.77,-5.724,-2.726,-70.06,-7.017,-11.173,-6.459,-2.81,-57.857,-9.495,-4.552,-0.395,-0.744,-43.892,7.479,-29.08,2.878,2.611,-26.413,-31.243,28.155,-50.851,8.145],[-81.532,-24.858,-16.283,-9.8,-6.299,-80.186,-15.895,-17.023,-9.344,-5.358,-84.764,-15.808,-13.618,-11.875,-4.942,-70.122,-30.5,-6.316,-1.926,-2.565,-66.393,-22.469,-17.699,-4.525,2.567,-26.68,-21.921,6.211,-2.563,2.386],[-84.259,-47.686,-11.746,-16.718,-9.693,-86.34,-39.587,-5.864,-11.694,-9.635,-90.342,-40.15,-12.182,-12.368,-8.471,-76.9,-26.633,-4.201,-13.368,-8.474,-72.345,-32.718,-2.566,1.035,-3.879,-48.804,-12.005,4.843,0.01,-19.048]],
"ve": [[0.417,1.365,2.37,6.057,3.569,1.331,1.75,2.956,3.618,2.837,3.094,2.137,4.614,7.001,8.333,5.128,5.125,34.693,-1.089,-12.466,41.668,11.016,-23.53,-55.107,-25.705,-6.465,6.992,-13.561,-13.373,-27.854],[-4.938,-0.82,0.095,0.636,0.997,-8.932,-0.653,-0.247,0.55,0.721,-7.614,-1.185,0.826,0.263,0.872,0.922,34.112,1.688,3.31,3.089,37.72,21.281,7.735,4.215,-19.837,70.176,17.559,13.697,39.563,1.004],[-23.319,-4.848,-1.778,-0.529,0.152,-31.173,-4.588,-1.492,-0.495,-0.203,-25.302,-3.986,-1.58,0.021,-0.088,10.241,-6.444,-4.264,3.24,0.832,33.55,19.343,8.32,-13.038,4.411,80.017,-10.616,10.873,14.841,11.517],[-67.235,-6.635,-4.464,-2,-1.586,-35.443,-7.946,-3.8,-1.85,-0.714,-43.577,-5.546,-5.161,-2.675,-0.787,-18.307,2.451,0.58,1.449,0.423,14.424,12.408,7.523,10.924,2.164,25.811,-1.46,18.101,10.771,4.37],[-49.906,-11.155,-6.105,-3.095,-2.221,-52.351,-8.227,-7.054,-3.111,-1.963,-62.687,-12.143,-6.215,-4.08,-1.377,-25.608,-5.305,-2.971,0.432,0.491,2.41,-7.514,5.534,22.4,4.244,63.745,-0.318,8.857,12.895,9.261],[-49.95,-28.106,-6.134,-6.408,-3.352,-59.027,-26.973,-4.65,-4.366,-3.195,-49.559,-17.179,-7.016,-5.44,-3.321,-27.747,-2.044,-7.325,-6.414,-2.8,-3.537,-1.902,12.761,1.697,0.082,89.964,38.326,10.346,9.397,6.37]],
"kep": [[-4.245,-2.34,-4.047,-7.801,-2.434,-6.948,-2.214,-3.385,-3.376,-1.532,-2.567,-4.096,-3.873,-6.25,-3.604,-29.15,5.525,-8.266,2.529,2.443,-4.338,4.748,-17.519,-2.965,-9.63,67.868,70.921,16.74,5.982,-40.022],[-12.079,-6.249,-4.898,-3.887,-3.36,-18.672,-6.623,-5.165,-3.519,-3.973,-18.712,-8.092,-4.81,-4.242,-3.341,-18.44,-10.671,-9.01,-3.581,-2.53,-27.495,-14.375,-0.846,-2.544,-2.329,-18.977,-1.671,-3.452,-19.538,-28.723],[-40.327,-12.008,-8.254,-6.288,-4.977,-48.329,-12.82,-7.708,-5.914,-5.097,-47.366,-12.401,-7.568,-5.92,-4.709,-39.62,-25.247,-11.635,-4.334,-4.727,-46.941,-20.278,-18.696,-8.959,-4.403,-43.381,-23.519,-9.107,-18.443,0.467],[-66.902,-11.247,-11.908,-8.398,-6.667,-64.517,-12.304,-10.075,-8.666,-6.76,-68.543,-8.757,-11.56,-8.641,-6.811,-61.789,-26.41,-13.235,-7.931,-7.052,-61.692,-17.88,-38.33,-11.174,-7.918,-59.881,-31.988,-5.898,-7.977,-25.457],[-79.778,-24.36,-15.875,-11.509,-8.787,-76.804,-17.5,-15.767,-11.087,-8.144,-79.82,-18.454,-13.5,-12.877,-8.333,-70.623,-46.982,-12.773,-8.577,-8.542,-73.835,-40.333,-31.712,-14.687,-9.274,-67.236,-48.97,-16.461,-11.186,-23.601],[-80.108,-49.278,-12.086,-15.686,-11.129,-84.588,-43.806,-8.808,-12.437,-11.292,-85.413,-43.74,-13.758,-12.459,-10.027,-78.839,-37.586,-22.112,-15.552,-12.218,-78.323,-49.613,-26.36,-16.785,-13.716,-75.538,-47.214,-24.523,-18.779,-17.233]],
"vp": [[19.748,-116.539,-57.723,-99.069,-230.77,2.109,-32.733,-17.498,-53.106,-43.447,-29.928,4.255,-9.687,-1.475,-22.942,-15.358,-32.065,-4.005,-18.666,-13.879,-43.736,-42.884,-19.081,-19.05,-18.211,7.768,-24.288,-25.033,-33.592,-27.198],[561.731,176.127,-12.783,-137.549,-284.063,203.082,22.827,20.611,-48.779,-20.162,96.405,29.501,-15.864,7.353,-12.197,5.953,-6.695,11.284,-9.37,-13.256,-38.602,-43.427,-38.776,-23.789,-19.156,-31.893,-13.72,-20.966,-19.168,-10.536],[2374.345,978.692,606.13,212.55,-24.007,703.04,171.484,97.346,35.898,35.317,276.298,88.802,45.216,1.04,16.224,-22.811,35.168,39.019,-26.144,-1.922,-35.695,-38.446,-16.568,-5.671,-13.855,-39.133,22.161,-12.797,-28.785,-45.995],[4662.431,1503.904,1379.058,773.568,727.631,790.819,355.942,242.158,113.33,56.089,467.228,128.158,164.425,114.167,30.378,42.337,-9.306,-2.482,-11.572,-1.765,-14.76,-14.958,-16,-1.668,-2.992,-7.544,10.448,-26.82,-20.165,-7.568],[5341.569,2715.551,1801.065,1230.472,1113.308,1137.148,329.413,428.675,238.66,201.769,684.567,264.3,207.447,159.022,56.743,60.406,25.717,28.633,-0.964,-7.178,3.091,19.144,-11.955,10.912,-19.42,-31.418,-14.548,-9.036,-25.008,-22.015],[5302.537,5909.379,1776.596,2369.236,1514.174,1228.769,1183.158,281.717,333.006,300.356,671.407,332.42,217.579,222.208,172.403,55.961,7.536,51.297,58.646,31.908,3.128,7.529,-41.307,-9.463,5.002,-46.774,-25.424,-16.178,-15.739,-14.055]]
}