{
"KTrans": [[15.521,8.716,15.593,16.784,12.862,20.039,17.683,13.25,18.858,18.934,14.068,8.283,18.81,19.71,17.271,58.301,28.281,35.512,29.767,25.349,-4.888,78.69,55.978,49.595,36.729,-180.461,30.653,107.021,84.925,94.618],[-44.967,-4.94,6.181,5.82,10.317,-53.064,-4.746,0.968,7.88,7.475,-46.825,-1.443,5.548,4.75,10.564,-34.233,2.903,10.509,7.456,16.214,-45.774,10.343,16.232,22.51,28.113,-34.216,-9.313,32.126,27.867,40.36],[-77.715,-30.943,-9.99,-5.727,2.537,-70.957,-31.445,-15.344,-5.023,1.313,-72.885,-22.642,-11.387,-1.738,3.225,-62.912,-27.113,-9.237,-0.228,7.675,-59.932,-20.703,4.254,-0.539,7.688,-50.862,-27.454,7.6,17.881,26.027],[-86.016,-41.321,-28.73,-14.007,-9.78,-85.132,-42.36,-20.973,-14.821,-7.738,-80.206,-41.195,-24.108,-13.336,-8.697,-71.9,-31.211,-21.763,-13.335,-6.622,-79.302,-33.435,-16.581,-6.35,0.031,-80.874,-70.838,-6.515,9.265,7.291],[-88.495,-61.076,-37.254,-26.557,-16.134,-88.204,-62.925,-39.487,-24.928,-16.288,-89.55,-59.262,-37.945,-25.293,-16.839,-80.967,-56.173,-32.234,-23.202,-14.545,-77.519,-61.306,-31.386,-23.72,-11.728,-92.087,-58.598,-62.139,-11.533,-5.249],[-91.748,-68.532,-47.471,-31.206,-25.846,-92.293,-66.88,-42.576,-31.238,-25.414,-89.631,-66.13,-48.722,-33.459,-25.966,-96.424,-64.969,-42.394,-31.188,-23.432,-89.156,-64.967,-38.301,-33.575,-21.983,-87.528,-50.681,-62.946,-23.428,-14.197]],
"ve": [[-154.257,55.363,36.61,23.168,8.697,31.779,12.788,45.126,-59.341,-18.749,19.546,53.684,2346.663,77.289,48.344,33.461,-112.963,-3.793,1.681,56.377,39.949,27.815,12.643,2.09,-26.519,54.28,6.778,8.095,-5.234,-12.39],[-11.917,-4.144,2.854,3.818,3.499,-17.807,-0.35,2.959,4.279,6.577,-20.056,2.104,2.207,4.046,5.071,9.265,7.229,3.152,8.431,9.81,56.582,41.843,-3.998,-10.162,21.222,65.561,31.3,77.657,-47.18,1.773],[-40.541,-11.076,-2.1,-2.522,0.115,-32.563,-9.866,-4.517,-1.424,0.985,-44.42,-7.177,-2.56,0.767,0.812,-4.577,-3.347,0.398,1.816,4.394,4.779,7.874,13.345,4.509,7.788,45.835,21.669,15.966,8.479,73.009],[-59.068,-16.614,-10.858,-4.537,-2.891,-33.637,-16.371,-7.856,-5.183,-2.871,-40.695,-11.316,-9.557,-3.848,-1.995,-11.593,-5.571,-5.298,-2.555,-0.022,-6.989,5.09,0.395,4.088,4.704,76.142,7.765,22.027,14.384,7.222],[-29.998,-22.143,-13.388,-9.497,-6.273,-38.545,-26.433,-12.988,-8.942,-5.47,-42.532,-22.514,-12.854,-9.117,-6.835,-19.698,-9.718,-9.516,-6.595,-3.274,7.103,-10.293,-6.89,-6.08,-0.198,-6.776,4.57,13.699,7.649,6.183],[-52.906,-30.769,-18.839,-11.464,-9.562,-108.719,-27.12,-16.184,-10.785,-9.68,-47.405,-31.105,-18.556,-11.414,-8.868,-54.388,-21.357,-13.524,-8.304,-5.424,-14.01,-8.165,-7.388,-5.886,-3.713,26.043,21.773,-6.925,5.356,3.143]],
"kep": [[-21.899,-26.167,-20.75,-24.757,-36.814,-16.237,-19.146,-28.411,-20.515,-26.469,-27.237,-25.381,-21.303,-23.479,-28.516,-16.078,-25.142,-10.604,-19.929,-29.828,-25.794,-6.388,-17.06,-21.303,-48.4,8.238,20.262,-16.302,-39.304,-10.142],[-57.281,-25.521,-21.459,-22.078,-18.707,-62.81,-28.399,-25.19,-21.072,-22.548,-59.735,-27.174,-21.654,-23.221,-19.342,-61.382,-30.039,-22.437,-23.878,-19.153,-64.655,-43.175,-27.264,-20.35,-14.805,-55.416,-49.442,-38.722,-40.113,-21.103],[-80.081,-41.776,-30.649,-26.916,-22.429,-78.16,-43.567,-33.416,-27.03,-23.995,-77.522,-38.902,-31.358,-26.195,-22.403,-78.748,-48.127,-32.93,-26.626,-22.062,-74.961,-54.809,-30.635,-30.398,-25.076,-69.307,-41.897,-47.848,-35.944,-22.205],[-89.404,-48.629,-39.952,-32.177,-29.689,-88.487,-49.716,-36.058,-32.204,-28.053,-84.88,-51.072,-37.503,-32.197,-29.659,-79.359,-49.354,-39.322,-33.566,-29.942,-78.682,-59.458,-43.829,-34.179,-28.641,-80.734,-58.118,-50.151,-37.443,-33.892],[-90.503,-63.675,-46.191,-38.95,-32.457,-90.974,-65.303,-48.113,-38.021,-33.15,-90.429,-62.984,-47.631,-38.078,-32.639,-84.536,-66.828,-45.545,-39.09,-33.713,-85.371,-71.184,-52.065,-43.056,-34.798,-85.74,-62.827,-64.161,-47.81,-40.881],[-93.089,-69.133,-52.255,-41.956,-38.298,-93.833,-68.264,-49.281,-42.118,-37.783,-91.152,-69.029,-53.454,-43.579,-38.695,-90.446,-73.167,-52.893,-44.418,-39.44,-88.247,-76.772,-56.718,-49.772,-40.792,-86.994,-70.255,-69.593,-52.874,-44.432]],
"vp": [[-386.604,4.304,-285.389,-764.558,-660.991,-72.897,-40.71,-60.1,-114.878,-135.13,-24.228,2.186,-54.781,-80.118,-30.158,-40.743,8.284,-11.144,-10.939,0.398,-23.92,-38.372,-16.883,-10.248,-0.266,-4.603,-20.337,-28.135,-23.049,-27.77],[2425.781,715.535,-719.734,-545.57,-574.68,687.1,84.115,41.258,-151.367,-67.43,274.973,21.214,-11.367,-17.166,-74.64,30.198,1.626,-12.353,14.8,-38.856,-3.534,3.153,-0.699,-20.317,-41.048,-19.702,-15.293,-7.061,10.714,-15.314],[5649.603,2830.272,790.644,1046.813,-220.511,901.675,456.274,348.671,138.328,-26.278,483.849,205.351,122.262,-23.267,-13.189,55.785,39.213,18.681,2.268,-32.492,25.59,5.324,-17.542,16.729,-4.872,-3.037,-4.137,-8.455,-2.34,-20.178],[6861.22,3887.605,3736.896,1515.567,1503.043,1228.328,819.896,431.13,369.34,244.163,504.739,366.429,338.605,161.067,147.421,90.184,48.139,56.192,44.239,33.847,46.631,9.563,21.212,3.125,-4.988,-18.873,16.705,-14.961,-21.216,-3.721],[7060.808,5798.368,4783.896,3667.539,2395.249,1218.649,1358.815,903.489,746.469,509.526,621.33,647.677,545.723,382.616,353.691,71.188,109.808,94.163,79.401,43.505,18.728,39.261,42.502,56.168,19.486,24.682,19.937,12.185,2.938,7.956],[6916.064,7440.37,7111.671,4579.504,4824.074,1445.825,1397.521,1157.629,873.718,1034.728,572.841,768.835,695.62,487.64,465.186,166.479,125.974,121.655,91.823,81.465,48.048,43.401,32.44,51.022,45.775,10.563,-7.254,30.067,6.235,13.714]]
}