{
"KTrans": [[-0.011,-0.529,2.931,2.102,2.312,7.515,9.377,6.164,4.116,6.603,22.431,15.873,13.224,13.484,9.033,168.905,94.538,75.371,65.513,62.589,397.945,231.313,172.921,153.574,142.242,1099.13,573.892,454.901,391.896,361.624],[-10.944,2.056,0.11,1.094,0.79,-1.135,6.255,7.074,3.527,2.777,6.117,9.069,6.198,5.026,7.488,93.62,66.23,45.738,36.442,30.439,279.883,142.817,101.949,78.296,66.815,766.723,366.767,233.921,182.33,152.759],[-28.225,3.31,1.526,1.591,0.724,-28.114,2.561,3.748,3.724,2.123,-15.427,12.539,8.892,6.097,5.457,51.129,58.66,41.021,30.245,27.261,188.233,137.058,90.677,67.049,57.249,553.743,327.581,206.672,151.083,124.349],[-42.567,2.396,-1.017,1.139,0.793,-40.943,1.199,3.949,3.474,1.766,-35.803,12.048,6.592,5.428,4.858,25.116,52.937,37.784,31.506,25.883,95.205,130.251,86.834,63.469,50.49,388.531,311.256,194.231,142.701,115.904],[-54.146,-2.138,2.407,3.042,1.301,-53.815,1.545,1.052,4.569,1.977,-50.416,7.502,9.197,5.514,4.525,-9.045,52.182,40.406,28.473,23.166,63.115,124.977,80.654,64.256,49.202,292.213,295.003,183.481,139.809,108.549],[-64.099,-11.781,0.04,1.327,1.048,-65.367,1.738,4.637,1.716,3.563,-62.382,-2.146,9.919,6.024,5.736,-22.048,46.67,38.014,28.867,23.042,33.845,120.634,78.522,57.1,50.332,167.598,264.751,190.201,141.999,103.856]],
"ve": [[2.565,4.72,2.178,2.643,5.577,8.427,3.218,3.476,3.551,2.079,11.924,2.996,0.289,-2.508,-0.94,47.058,14.8,-0.599,-9.356,-18.35,93.939,33.858,8.537,-6.33,-18.121,192.351,79.835,35.332,11.015,-6.257],[3.915,1.476,0.317,0.322,0.259,7.414,3.248,1.497,0.889,1.179,11.224,5.27,3.103,2.24,0.349,49.809,24.01,14.583,9.616,5.731,102.144,46.956,29.282,19.531,12.696,198.957,97.162,61.027,41.78,29.247],[4.408,1.966,0.553,0.331,0.396,8.414,2.057,1.634,1.403,0.8,12.939,6.418,3.335,2.136,1.795,58.02,24.27,15.501,11.546,8.688,99.658,49.79,31.765,23.266,17.134,200.038,99.773,65.092,46.558,35.714],[5.826,0.915,0.409,0.283,-0.013,8.901,2.021,1.991,1.417,0.888,24.155,5.131,3.68,2.42,1.953,53.112,25.116,16.618,12.343,8.939,97.953,50.398,32.649,23.846,18.92,202.794,99.409,65.623,48.321,37.771],[4.573,1.325,0.713,1.081,0.29,9.5,3.09,1.901,1.719,1.016,14.908,5.609,3.917,2.708,2.193,53.813,25.79,16.337,12.254,9.509,89.174,49.908,32.658,24.65,18.948,198.575,99.879,65.704,49.112,38.699],[0.418,1.06,0.717,0.192,0.188,6.274,3.412,1.226,1.011,0.918,24.329,4.879,3.472,2.27,1.853,49.596,25.921,16.682,12.1,9.597,117.108,49.836,32.909,24.882,20.05,204.268,99.715,66.42,49.536,39.241]],
"kep": [[-0.721,-2.685,3.895,4.299,4.067,2.122,7.941,6.686,5.807,10.6,11.599,14.59,16.03,20.665,15.508,84.392,70.894,77.818,85.436,101.801,158.679,148.485,152.489,172.295,197.006,311.22,275.444,310.898,344.212,393.65],[-14.043,0.69,0.006,0.886,0.722,-7.603,3.078,5.654,2.782,1.746,-4.149,4.012,3.099,2.87,7.307,29.185,34.281,27.34,24.618,23.553,88.376,65.59,56.296,49.255,48.175,190.493,136.904,107.456,99.182,95.596],[-30.654,1.384,1.066,1.289,0.365,-33.888,0.496,2.124,2.397,1.349,-25.132,5.93,5.464,3.923,3.637,-0.451,27.778,22.145,16.805,17.144,43.178,58.44,44.716,35.57,34.271,117.554,114.264,85.821,71.356,65.324],[-45.651,1.495,-1.384,0.821,0.807,-46.273,-0.722,1.888,2.023,0.876,-44.058,6.646,2.812,2.924,2.851,-18.138,22.317,18.207,17.09,15.567,-4.107,53.13,40.855,31.974,26.536,61.829,106.39,77.738,63.679,56.725],[-56.259,-3.493,1.665,1.942,0.962,-57.454,-1.653,-0.847,2.837,0.949,-57.066,1.905,4.993,2.68,2.259,-41.05,20.97,20.752,14.424,12.44,-19.375,50.186,36.149,31.752,25.391,28.926,97.697,71.103,60.803,50.344],[-65.709,-12.586,-0.707,1.07,0.839,-67.847,-1.695,3.443,0.613,2.587,-67.213,-6.81,6.186,3.63,3.809,-49.608,16.458,18.193,14.927,12.24,-34.412,47.305,34.319,25.739,25.193,-11.803,82.716,74.365,61.825,46.4]],
"vp": [[0.001,0.001,0.001,0.001,0.001,0.005,0.005,0.005,0.005,0.005,0.01,0.01,0.01,0.01,0.01,0.05,0.05,0.05,0.05,0.05,0.1,0.1,0.1,0.1,0.1,0.2,0.2,0.2,0.2,0.2],[0.001,0.001,0.001,0.001,0.001,0.005,0.005,0.005,0.005,0.005,0.01,0.01,0.01,0.01,0.01,0.05,0.05,0.05,0.05,0.05,0.1,0.1,0.1,0.1,0.1,0.2,0.2,0.2,0.2,0.2],[0.001,0.001,0.001,0.001,0.001,0.005,0.005,0.005,0.005,0.005,0.01,0.01,0.01,0.01,0.01,0.05,0.05,0.05,0.05,0.05,0.1,0.1,0.1,0.1,0.1,0.2,0.2,0.2,0.2,0.2],[0.001,0.001,0.001,0.001,0.001,0.005,0.005,0.005,0.005,0.005,0.01,0.01,0.01,0.01,0.01,0.05,0.05,0.05,0.05,0.05,0.1,0.1,0.1,0.1,0.1,0.2,0.2,0.2,0.2,0.2],[0.001,0.001,0.001,0.001,0.001,0.005,0.005,0.005,0.005,0.005,0.01,0.01,0.01,0.01,0.01,0.05,0.05,0.05,0.05,0.05,0.1,0.1,0.1,0.1,0.1,0.2,0.2,0.2,0.2,0.2],[0.001,0.001,0.001,0.001,0.001,0.005,0.005,0.005,0.005,0.005,0.01,0.01,0.01,0.01,0.01,0.05,0.05,0.05,0.05,0.05,0.1,0.1,0.1,0.1,0.1,0.2,0.2,0.2,0.2,0.2]]
}