{
"KTrans": [[54.702,39.981,32.739,31.114,25.872,88.007,44.18,41.544,25.689,27.312,93.887,58.761,41.042,36.103,35.229,286.399,157.15,119.374,105.168,97.807,623.33,297.735,226.779,212.26,181.318,1519.666,718.968,570.813,485.751,431.697],[-16.433,86.474,54.41,45.612,37.747,19.712,92.946,48.596,51.236,37.804,159.75,97.629,57.036,45.184,49.291,238.048,215.861,120.911,78.941,86.99,342.587,390.08,207.502,139.421,115.963,1024.022,668.754,381.262,283.652,226.968],[-210.517,290.908,113.427,72.722,50.554,-241.64,337.921,132.907,83.485,57.76,-253.35,368.983,114.618,75.273,65.851,-357.233,607.997,182.168,135.363,100.48,-443.296,700.87,293.163,165.138,127.131,-828.276,1409.676,535.124,295.641,205.497],[-184.756,-227.922,386.709,111.629,96.599,-195.199,-172.133,373.579,119.127,86.445,-204.146,-285.972,241.803,137.475,102.975,-214.355,-207.557,433.251,184.149,124.816,-377.258,-149.331,556.4,237.516,170.88,-822.854,-578.988,1023.509,418.225,255.519],[-154.128,-256.138,5.724,293.609,120.803,-163.516,-259.958,64.9,294.017,129.88,-181.763,-270.495,344.093,306.702,154.826,-230.414,-362.698,217.122,420.735,158.501,-254.367,-469.591,232.168,414.839,256.643,-554.995,-700.951,757.681,553.759,393.989],[-153.094,-222.788,-194.886,393.474,290.437,-157.476,-223.938,-164.502,327.525,229.968,-147.923,-224.477,-171.403,541.324,313.85,-195.98,-285.498,-286.281,701.351,343.688,-294.096,-381.846,-51.755,564.61,305.652,-399.484,-479.114,-574.071,1061.063,517.213]],
"ve": [[3.247,2.494,4.998,15.394,3.418,8.623,3.023,3.139,21.918,4.798,9.92,3.134,0.062,5.866,14.972,48.895,15.5,-1.887,-11.938,-20.22,100.052,34.008,7.882,-6.765,-19.703,192.65,81.333,37.943,11.556,-5.933],[2.145,1.413,1.864,2.513,2.141,15.545,3.483,1.875,3.643,2.104,7.226,5.023,3.312,2.678,2.982,44.225,26.806,16.047,9.356,8.465,100.299,53.437,34.219,19.747,13.316,200.335,99.821,63.882,44.455,30.011],[5.197,3.717,2.248,2.506,1.538,7.982,4.574,5.6,3.665,2.87,14.481,9.146,4.418,3.297,4.412,52.837,27.286,18.36,14.682,12.035,99.55,52.308,33.981,24.681,17.959,201.506,101.869,68.216,48.845,35.107],[6.858,3.536,6.708,0.839,3.883,8.214,3.798,7.262,2.966,2.923,15.493,7.416,4.615,4.56,4.548,48.509,26.929,16.471,14.205,11.569,104.462,51.33,34.2,26.344,20.25,204.579,103.268,70.146,51.341,39.174],[4.905,4.374,2.909,2.323,1.907,6.363,-0.513,6.391,5.999,2.191,14.668,7.567,4.353,5.199,4.721,50.593,27.388,20.38,18.294,11.123,101.136,53.178,36.667,27.51,23.214,204.197,101.293,69.588,49.266,43.588],[7.367,4.715,1.294,5.089,5.08,7.284,5.505,6.296,3.12,4.246,11.184,5.605,5.61,7.18,7.84,48.77,27.359,19.335,16.41,14.343,102.943,54.691,36.669,25.587,20.733,200.603,103.41,68.572,51.874,42.301]],
"kep": [[44.948,37.213,35.905,39.697,37.945,68.899,39.704,45.832,32.582,38.906,68.779,52.203,44.332,46.638,53.94,153.069,117.704,118.774,129.402,145.13,257.22,191.242,197.036,229.799,243.449,445.043,347.195,382.204,420.302,459.541],[-23.404,71.861,45.181,39.065,33.622,4.04,75.047,39.071,43.275,33.081,116.473,76.446,45.152,36.909,42.735,113.667,138.261,82.687,58.009,69.638,113.768,210.378,123.916,93.13,85.569,265.291,274.601,186.346,159.889,145.317],[-196.249,249.433,95.539,60.735,41.968,-218.568,285.502,109.908,68.455,47.597,-223.125,304.802,92.62,60.194,53.488,-257.057,419.579,126.429,96.696,73.979,-258.275,398.864,177.703,103.864,84.339,-329.211,617.171,263.434,156.772,117.249],[-174.011,-208.954,335.054,94.371,81.042,-179.415,-155.025,318.098,98.896,71.28,-184.605,-250.586,202.338,113.47,83.785,-167.182,-171.134,318.573,134.768,91.718,-229.727,-123.665,356.284,153.943,113.531,-330.41,-318.301,532.49,227.618,144.326],[-146.869,-235.45,0.84,252.968,102.25,-153.399,-235.667,49.529,251.038,109.018,-166.471,-242.533,288.172,258.135,128.871,-179.188,-288.291,151.276,320.876,118.993,-170.834,-323.969,134.393,281.243,175.764,-245.166,-377.917,385.721,310.965,230.606],[-147.022,-206.952,-176.575,341.566,249.779,-149.186,-205.716,-149.764,279.567,196.703,-138.889,-203.506,-153.719,460.032,264.773,-158.828,-232.845,-236.601,545.686,266.059,-191.488,-271.096,-58.068,386.756,213.496,-194.729,-275.165,-357.396,620.475,312.172]],
"vp": [[0.001,0.001,0.001,0.001,0.001,0.005,0.005,0.005,0.005,0.005,0.01,0.01,0.01,0.01,0.01,0.05,0.05,0.05,0.05,0.05,0.1,0.1,0.1,0.1,0.1,0.2,0.2,0.2,0.2,0.2],[0.001,0.001,0.001,0.001,0.001,0.005,0.005,0.005,0.005,0.005,0.01,0.01,0.01,0.01,0.01,0.05,0.05,0.05,0.05,0.05,0.1,0.1,0.1,0.1,0.1,0.2,0.2,0.2,0.2,0.2],[0.001,0.001,0.001,0.001,0.001,0.005,0.005,0.005,0.005,0.005,0.01,0.01,0.01,0.01,0.01,0.05,0.05,0.05,0.05,0.05,0.1,0.1,0.1,0.1,0.1,0.2,0.2,0.2,0.2,0.2],[0.001,0.001,0.001,0.001,0.001,0.005,0.005,0.005,0.005,0.005,0.01,0.01,0.01,0.01,0.01,0.05,0.05,0.05,0.05,0.05,0.1,0.1,0.1,0.1,0.1,0.2,0.2,0.2,0.2,0.2],[0.001,0.001,0.001,0.001,0.001,0.005,0.005,0.005,0.005,0.005,0.01,0.01,0.01,0.01,0.01,0.05,0.05,0.05,0.05,0.05,0.1,0.1,0.1,0.1,0.1,0.2,0.2,0.2,0.2,0.2],[0.001,0.001,0.001,0.001,0.001,0.005,0.005,0.005,0.005,0.005,0.01,0.01,0.01,0.01,0.01,0.05,0.05,0.05,0.05,0.05,0.1,0.1,0.1,0.1,0.1,0.2,0.2,0.2,0.2,0.2]]
}