{
"KTrans": [[-16.394,16.771,8.61,5.438,10.313,-26.568,15.233,15.531,20.287,10.823,-13.601,36.802,10.019,14.93,18.91,9.264,80.431,100.764,62.774,54.275,33.497,123.035,45.189,42.788,96.018,234.282,101.732,196.457,21.7,214.614],[-57.18,1.105,11.368,7.879,8.419,-59.393,13.62,13.099,8.291,7.632,-64.468,13.373,15.969,20.089,14.909,-43.972,71.698,74.427,47.946,52.06,-43.022,46.267,87.013,79.977,78.303,98.619,46.641,57.14,45.688,64.835],[-85.95,-10.327,12.372,7.536,7.197,-86.482,-15.263,9.887,8.357,12.652,-84.45,-7.124,20.496,12.748,13.148,-89.65,0.368,59.046,42.887,35.08,-61.644,-3.365,13.83,74.474,75.224,-10.387,68.254,30.443,16.556,28.525],[-90.767,-35.329,-1.248,12.896,12.316,-88.174,-34.816,5.982,16.236,9.195,-91.02,-30.106,12.448,15.502,13.039,-79.215,-27.654,31.281,55.543,41.929,-74.316,-3.042,21.049,48.272,73.669,-21.213,11.997,52.285,46.395,19.211],[-97.916,-52.23,-1.113,11.673,11.185,-96.116,-51.672,2.723,11.536,13.445,-95.275,-44.542,18.673,27.905,16.02,-87.987,-42.052,27.501,37.093,44.113,-85.896,-30.614,13.325,29.568,67.726,-42.118,27.466,62.941,33.061,4.491],[-97.431,-63.244,-3.131,12.525,15.704,-96.232,-64.251,-10.662,18.889,17.338,-96.031,-52.845,-5.132,17.859,16.005,-94.039,-64.518,-9.67,35.832,38.125,-78.414,-43.032,-20.984,46.943,43.807,-59.721,-27.823,13.672,49.518,42.112]],
"ve": [[-157.343,-77.905,10.231,-60.506,-2.109,24.839,43.968,26.579,-502.199,57.624,33.352,1.982,31.467,-29.594,-49.844,137.291,18.816,-6.193,84.139,-12.485,112.372,38.158,12.101,-9.365,-10.513,205.701,88.907,38.163,11.927,-5.878],[4.749,27.709,0.757,2.827,-0.093,-35.421,10.397,5.351,5.013,2.224,25.197,8.503,7.913,-0.075,2.252,52.429,25.348,18.077,11.397,5.755,-34.06,55.171,31.541,20.781,13.008,200.304,107.311,65.557,40.575,28.962],[29.045,9.998,1.846,2.336,-0.779,7.911,5.699,1.524,1.05,1.082,104.948,8.702,4.698,2.91,2.881,79.517,25.953,14.954,12.314,8.408,111.408,58.883,32.614,26.042,16.344,216.101,102.037,66.383,49.922,33.929],[-5.402,1.52,0.741,0.453,-1.46,-27.454,-6.486,0.433,1.721,2.57,7.771,20.631,4.555,3.258,1.8,63.498,31.703,16.58,14.182,8.958,104.123,50.042,29.061,25.635,18.009,208.926,102.558,65.841,53.424,39.58],[25.745,-0.489,1.705,0.886,-0.114,21.48,15.511,2.893,1.793,1.549,-95.139,7.726,5.717,0.675,0.905,84.313,23.961,17.056,12.817,8.129,106.734,53.555,34.279,24.237,19.101,195.563,99.858,64.643,48.012,37.665],[-12.562,7.399,-0.719,-0.325,-0.605,22.735,12.48,3.432,1.851,-0.263,34.999,11.933,7.145,4.14,1.718,37.214,24.361,17.247,15.395,8.838,113.451,45.382,36.288,-51.076,18.688,194.824,106.338,66.191,46.262,38.34]],
"kep": [[-44.971,15.319,2.763,5.078,23.537,-46.738,5.85,15.337,34.394,13.533,-40.933,28.004,-2.173,21.128,24.44,-35.987,43.554,114.93,81.228,79.527,-25.334,69.711,18.904,31.442,121.94,39.868,37.771,140.384,36.042,245.613],[-67.826,-2.574,12.957,8.812,11.914,-70.826,5.439,9.989,6.325,8.679,-75.162,6.488,11.13,22.853,16.174,-65.111,38.722,50.55,35.226,46.976,-69.315,3.479,45.198,49.799,58.763,-27.645,-10.42,7.894,9.827,29.082],[-92.204,-15.66,12.342,6.402,9.246,-91.637,-20.842,11.322,8.441,12.669,-91.711,-18.489,16.322,10.871,10.579,-92.364,-20.007,37.497,28.543,25.483,-77.488,-31.665,-9.732,38.613,51.26,-65.268,-9.666,-9.424,-14.975,0.134],[-94.508,-40.568,-1.29,13.418,14.852,-93.099,-38.58,6.774,15.395,7.477,-95.374,-37.301,8.807,12.447,11.705,-86.802,-43.22,13.878,36.917,31.014,-85.847,-35.438,-4.607,19.249,46.039,-70.528,-36.381,-3.159,1.85,-8.77],[-100.126,-56.055,-2.611,11.169,12.322,-99.583,-55.876,-2.011,9.865,12.262,-97.772,-50.225,12.845,27.734,15.712,-92.887,-52.657,8.389,21.799,33.082,-91.33,-51.083,-12.339,6.362,39.213,-77.923,-31.718,4.026,-3.02,-16.588],[-99.298,-66.067,-5.974,12.925,16.766,-97.87,-68.611,-14.261,16.893,18.242,-97.153,-58.765,-10.081,13.954,14.638,-95.748,-70.249,-22.589,19.657,27.215,-88.381,-59.393,-38.225,18.752,21.629,-84.632,-59.132,-24.922,5.556,8.177]],
"vp": [[1675.22,477.416,435.338,-486.27,-526.659,103.326,-354.191,142.781,79.343,72.822,122.259,82.282,-15.254,19.786,52.839,4.37,-2.407,-25.989,-15.132,-32.538,-18.551,-27.036,-22.519,-17.638,-26.088,-14.649,-25.484,-39.495,-39.036,-40.272],[4684.819,3401.161,1441.038,441.5,71.52,766.104,556.612,421.659,294.079,109.695,501.063,323.744,168.353,45.866,158.53,42.839,34.024,49.484,-7.165,11.102,38.723,-5.374,-2.78,-7.458,-33.47,-16.658,-16.336,-16.814,-34.148,-39.805],[6698.13,7239.4,3641.158,785.349,1396.655,1123.432,1278.669,873.822,243.276,345.679,559.896,780.922,332.528,211.386,215.265,160.681,138.179,69.796,45.946,5.726,57.209,48.98,19.608,-23.187,-9.264,19.635,-17.03,-15.792,-9.39,-16.211],[6884.19,8836.532,5981.19,4449.699,3424.02,1265.245,1575.581,1083.486,732.805,550.891,724.45,957.305,575.572,269.677,263.014,126.484,147.101,60.036,52.615,32.508,42.576,52.414,13.569,-5.675,1.735,7.531,6.33,-21.629,-15.828,3.617],[7284.409,11300.116,9892.916,5883.659,4651.56,1503.072,2158.902,1695.588,1020.436,668.117,780.604,1038.248,831.078,608.085,438.883,119.657,171.292,76.999,90.633,25.273,55.496,54.807,45.833,50.827,-15.835,-16.401,-9.313,5.399,-10.633,-7.376],[6833.667,11170.019,10643.748,8889.535,5901.868,1570.974,2416.248,2576.425,1823.802,886.813,729.167,1219.535,1169.93,927.147,465.085,99.518,216.589,193.293,120.518,88.784,48.746,76.696,103.674,44.589,19.208,-7.859,28.281,18.184,-28.135,-5.463]]
}