{
"KTrans": [[2.378,1.485,0.843,0.864,0.36,13.975,7.586,6.067,5.194,4.698,28.329,15.508,12.25,11.41,10.543,63.888,86.883,75.069,64.647,58.266,21.002,154.222,130.382,127.201,126.61,199.928,98.4,29.189,127.478,13.916],[3.683,0.861,0.82,0.638,0.549,11.857,5.139,4.418,3.382,2.64,22.702,13.979,8.038,6.2,5.753,1.947,72.875,46.185,36.273,34.222,3.813,22.361,97.611,70.324,62.843,81.556,-4.376,-30.386,81.565,119.444],[11.918,2.731,0.48,0.649,0.473,40.624,6.52,3.338,2.996,2.332,34.438,14.044,7.89,5.654,5.355,-16.761,109.112,47.457,28.122,25.303,-33.036,-35.902,79.556,76.824,50.626,12.393,37.715,40.682,29.492,88.74],[-3.041,9.219,2.09,0.36,0.219,-26.141,10.705,3.945,2.538,2.319,-29.568,15.036,8.173,6.687,4.507,-52.541,-46.784,56.894,31.582,24.427,-26.492,8.49,47.28,78.994,58.226,-21.961,-13.822,8.31,-56.146,115.699],[-62.545,6.714,4.766,2.654,0.778,-66.657,13.639,3.536,2.464,2.713,-53.557,22.587,7.756,6.826,5.348,-51.245,-27.438,51.622,31.633,24.922,-47.989,-9.921,-98.641,70.956,56.55,-27.854,-0.989,31.472,-8.273,56.18],[-68.004,3.183,6.956,0.203,1.684,-83.554,3.948,5.54,1.997,2.842,-78.063,36.644,10.657,5.7,4.057,-60.189,-45.675,96.036,24.143,25.277,-49.612,-33.451,1.591,98.502,57.911,-34.84,-12.301,22.648,49.252,150.947]],
"ve": [[0.835,0.011,-0.428,-0.815,-0.937,4.304,0.58,-1.571,-2.967,-4.291,8.732,1.547,-2.256,-5.201,-7.738,77.092,14.696,0.127,-10.452,-17.551,92.867,33.378,-6.973,-10.257,-9.743,203.192,80.035,35.957,8.573,-16.093],[1.224,0.464,0.276,0.135,0.034,5.091,2.323,1.416,0.83,0.391,9.971,4.93,2.767,1.702,0.957,50.424,24.738,14.564,9.443,5.694,102.612,50.763,33.188,20.052,13.217,196.81,98.947,189.983,43.548,13.191],[1.541,0.751,0.333,0.247,0.164,6.268,2.652,1.6,1.163,0.828,10.083,5.264,3.254,2.259,1.701,57.749,26.998,16.354,11.257,8.59,105.455,48.9,34.722,24.137,17.452,204.61,101.17,62.485,46.888,33.018],[2.419,1.264,0.579,0.271,0.182,6.305,2.911,1.77,1.237,0.968,9.443,5.218,3.437,2.572,1.894,51.526,25.874,17.091,12.249,9.333,100.617,50.48,33.091,24.987,19.438,202.119,58.879,67.373,49.556,39.764],[2.793,0.727,0.817,0.575,0.297,4.486,2.802,1.7,1.273,1.06,-35.542,5.667,3.462,2.671,2.09,50.547,27.781,16.903,12.51,9.857,99.85,48.625,34.858,25.868,19.794,205.789,101.552,66.06,43.895,30.172],[-0.09,0.438,0.838,0.29,0.422,6.864,2.268,1.8,1.25,1.134,11.232,5.778,3.625,2.579,1.983,49.571,26.409,17.665,12.218,10.006,108.899,55.374,33.356,25.648,19.997,196.615,107.928,63.559,49.824,41.239]],
"kep": [[2.371,2.314,2.124,2.563,2.193,10.152,7.857,8.668,9.332,10.334,18.905,14.699,15.829,18.551,20.864,15.167,64.185,76.409,85.904,94.011,-16.748,89.789,101.638,135.752,173.75,28.888,41.7,16.978,109.555,20.837],[3.024,1.218,1.375,1.334,1.346,6.968,3.584,3.811,3.378,3.086,11.939,9.466,5.995,5.286,5.619,-26.811,38.529,28.371,25.456,28.027,-39.608,-12.173,48.683,42.684,44.777,-29.524,-35.651,-43.851,27.422,63.975],[9.638,2.694,0.962,1.231,1.14,31.041,4.491,2.534,2.652,2.332,20.308,9.024,5.315,4.168,4.447,-41.156,62.334,27.025,15.966,16.246,-59.799,-47.875,35.14,42.222,28.967,-55.483,-21.824,-6.558,-7.769,38.694],[-6.29,8.243,2.275,0.898,0.861,-30.298,7.888,2.895,2.102,2.172,-36.041,9.623,5.318,4.839,3.406,-65.374,-53.606,33.448,17.823,14.616,-59.21,-23.655,11.558,42.483,32.629,-69.063,-49.18,-26.323,-60.333,53.658],[-61.976,5.759,4.532,2.844,1.29,-66.62,10.209,2.393,1.949,2.453,-57.202,15.689,4.751,4.819,4.017,-65.17,-40.007,28.94,17.457,14.429,-70.675,-36.208,-88.17,34.849,30.509,-71.683,-44.325,-15.914,-31.975,14.195],[-67.308,2.043,6.414,0.587,2.036,-82.765,0.897,3.998,1.411,2.47,-78.787,27.31,7.103,3.708,2.803,-71.601,-53.753,63.39,11.141,14.449,-71.821,-51.944,-21.158,55.235,31.149,-74.703,-50.499,-22.563,2.515,74.669]],
"vp": [[-42.995,-49.942,-57.514,-69.644,-75.544,-10.966,-21.779,-8.132,-29.875,-37.719,-29.829,-13.601,-29.407,-7.949,-20.983,-51.026,-18.604,8.152,-9.528,-14.711,-41.621,-14.122,20.732,6.42,-19.43,-46.485,-10.585,11.141,-16.315,13.576],[191.956,89.262,-32.677,-61.283,-85.34,12.378,9.209,-5.022,-5.977,-22.178,-3.182,31.101,-46.861,-32.116,-20.159,-50.976,-29.369,-34.759,-7.948,24.422,-9.189,-37.908,-8.358,-27.961,-17.632,-45.83,-37.3,-35.496,7.785,21.738],[431.567,327.84,188.032,122.642,-31.896,137.88,51.056,20.738,9.265,-51.43,30.658,28.122,29.311,-23.864,-7.501,-5.98,24.454,-9.584,-50.832,-37.594,-19.855,-53.905,-57.433,-33.15,-61.116,-23.211,-35.459,-55.102,-44.093,-51.826],[2065.988,579.119,495.096,264.666,195.554,373.677,73.746,50.225,29.545,21.119,97.738,89.793,40.352,38.881,0.545,4.158,32.341,29.081,-2.937,-24.221,-36.864,-37.158,-47.223,-18.49,-28.292,-34.894,-21.112,-34.252,-51.551,-34.154],[2927.516,704.71,597.172,581.481,335.834,607.905,177.066,145.704,123.399,146.184,251.829,50.244,39.761,60.829,66.248,23.378,9.546,16.215,-0.91,1.96,3.101,-44.596,-21.688,11.216,-7.777,-27.168,-26.112,-52.731,-41.669,-57.384],[3627.185,1325.369,1276.293,713.694,783.251,790.6,238.8,280.758,129.261,128.714,381.863,126.429,109.068,94.263,96.822,3.453,31.236,36.315,-33.562,12.949,-21.855,-5.616,-23.465,-8.137,-4.857,-25.198,18.196,-47.349,-51.016,-28.545]]
}