{
"KTrans": [[0.01,0.04,0.035,0.022,0.03,0.173,0.123,0.161,0.033,0.027,-0.004,0.044,0.01,0.143,0.001,1.191,0.655,0.043,-0.026,0.033,2.373,0.779,1.567,1.137,0.403,10.125,4.05,3.858,-0.257,-0.787],[-0.399,-0.062,0.006,0.03,0.021,-0.43,0.007,-0.002,0.062,0.007,-0.016,-0.026,0.02,0.123,0.061,0.233,0.639,0.39,0.288,-0.02,0.756,1.164,1.334,1.025,0.359,3.021,2.516,0.983,0.145,0.986],[-2.045,-0.375,-0.084,-0.017,0.005,-1.409,-0.331,-0.063,-0.018,0.001,-1.033,-0.141,0.033,0.042,0.002,0.524,-0.225,0.219,0.352,0.316,12.077,1.077,0.772,0.081,0.417,6.078,0.859,2.184,0.593,1.436],[-2.796,-0.596,-0.235,-0.094,-0.047,-3.638,-0.512,-0.319,-0.097,-0.043,-0.779,-0.457,-0.137,-0.022,-0.008,3.31,0.857,0.211,0.041,0.312,24.267,1.534,-0.295,0.265,0.152,-8.718,2.009,0.336,0.828,0.951],[-4.895,-1.276,-0.555,-0.233,-0.126,-3.307,-1.183,-0.533,-0.308,-0.161,-6.785,-1.301,-0.509,-0.214,-0.14,8.941,-1.601,-0.37,-0.39,0.015,-28.535,1.996,0.444,0.639,-0.384,-25.224,4.112,0.089,1.824,-0.207],[-6.253,-2.229,-0.857,-0.458,-0.209,-5.733,-2.523,-0.793,-0.402,-0.187,-5.933,-1.875,-0.644,-0.332,-0.327,-15.91,-0.376,-0.804,-0.072,0.008,-44.927,3.742,-0.416,0.22,0.271,-64.079,16.695,2.241,1.624,-0.405]],
"ve": [[0.001,-0.004,-0.026,-0.042,-0.069,0.07,0,-0.057,-0.051,-0.072,-0.06,-0.024,-0.032,-0.115,-0.047,0.329,0.052,0.036,0.109,0.175,0.745,0.192,0.138,0.055,0.797,3.646,1.348,1.465,3.877,6.615],[-0.203,-0.025,0.002,0.006,-0.001,-0.208,0.002,-0.007,0.016,-0.009,-0.053,-0.02,-0.005,0.035,0.003,-0.681,0.253,0.145,0.067,-0.054,-0.221,0.52,0.567,0.289,0.02,-0.751,0.773,0.198,-0.11,0.187],[-0.864,-0.159,-0.037,-0.005,0.002,-0.467,-0.177,-0.03,-0.011,-0.004,-0.593,-0.005,0.029,0.02,-0.007,-0.065,-0.315,0.082,0.154,0.125,3.666,0.464,0.237,-0.024,0.116,3.234,0.26,0.931,0.13,0.559],[-1.576,-0.298,-0.103,-0.035,-0.018,-1.618,-0.272,-0.149,-0.048,-0.019,-0.908,-0.245,-0.064,-0,-0.003,-0.01,0.394,0.102,-0.003,0.138,6.79,0.974,-0.421,-0.077,-0.023,-16.365,-0.596,-0.063,0.194,0.4],[-2.836,-0.628,-0.245,-0.11,-0.046,-2.104,-0.581,-0.252,-0.148,-0.075,-3.63,-0.639,-0.296,-0.103,-0.078,1.03,-1.019,-0.499,-0.327,-0.033,-20.37,0.671,0.253,0.329,-0.323,-20.501,0.788,-0.254,1.109,-0.444],[-4.094,-1.069,-0.393,-0.192,-0.1,-3.915,-1.16,-0.401,-0.171,-0.079,-4.322,-1.047,-0.24,-0.152,-0.16,-10.566,-0.46,-0.499,0.07,0.007,-35.094,1.275,-0.249,0.028,0.078,-51.377,4.927,1.562,0.986,-0.5]],
"kep": [[0.054,0.089,0.106,0.109,0.143,0.145,0.167,0.263,0.13,0.145,0.093,0.111,0.088,0.308,0.102,0.681,0.609,0.099,0.031,0.144,0.825,0.45,1.679,1.661,0.638,2.46,2.094,3.288,-1.574,-2.87],[-0.153,0.008,0.048,0.068,0.066,-0.181,0.049,0.05,0.091,0.061,0.074,0.037,0.069,0.132,0.102,0.914,0.379,0.262,0.25,0.069,0.788,0.511,0.715,0.722,0.352,3.045,1.01,0.443,0.069,0.698],[-1.159,-0.173,-0.002,0.032,0.048,-0.923,-0.11,0.012,0.037,0.049,-0.431,-0.094,0.047,0.065,0.054,0.574,0.101,0.16,0.228,0.227,8.121,0.536,0.496,0.099,0.308,5.547,0.25,0.962,0.289,0.765],[-1.294,-0.256,-0.088,-0.014,0.015,-2.129,-0.199,-0.126,-0.005,0.02,-0.003,-0.174,-0.029,0.022,0.039,2.106,0.485,0.138,0.079,0.209,13.187,0.556,0.11,0.336,0.191,-24.977,2.657,0.214,0.497,0.45],[-2.447,-0.614,-0.267,-0.079,-0.036,-1.73,-0.573,-0.238,-0.116,-0.041,-3.838,-0.636,-0.171,-0.067,-0.018,4.711,-0.576,0.161,-0.029,0.084,-25.615,1.275,0.203,0.318,-0.044,-38.827,3.206,0.271,0.631,0.175],[-3.288,-1.151,-0.423,-0.223,-0.065,-3.249,-1.367,-0.352,-0.188,-0.064,-3.278,-0.833,-0.365,-0.137,-0.123,-8.985,-0.001,-0.282,-0.106,0.039,-45.664,2.293,-0.13,0.208,0.215,-67.97,10.595,0.688,0.593,0.054]],
"vp": [[-0.22,-3.665,-4.507,-3.466,-5.025,-1.911,-2.033,-3.353,-0.631,-0.744,0.653,-0.096,0.138,-1.536,0.092,-0.874,-0.89,0.198,0.333,0.185,-0.906,-0.197,-1.302,-0.965,-0.142,-2.033,-1.194,-1.528,0.683,0.935],[21.844,5.915,-1,-5.292,-4.908,4.284,-0.043,0.435,-2.471,0.129,0.661,0.422,0.07,-2.46,-1.177,1.663,-1.179,-1.203,-0.995,0.489,0.238,-1.249,-2.236,-1.878,-0.535,0.476,-0.862,-0.392,0.315,-0.845],[84.834,32.336,13.116,2.857,-1.381,8.764,7.647,2.128,1.138,0.38,6.087,-0.179,-1.04,-1.013,0.317,0.075,1.42,-0.594,-1.535,-1.708,-3.619,-1.016,-0.772,0.041,-0.829,-2.064,-0.347,-1.577,-0.348,-1.829],[160.506,62.718,33.313,15.802,11.074,31.85,11.577,9.364,4.447,2.294,9.694,5.175,2.124,-0.006,0.199,0.006,-1.603,-0.69,-0.008,-1.615,-6.857,-2.152,1.424,0.451,0.126,8.514,0.808,0.072,-0.42,-1.21],[285.85,128.317,75.151,47.954,24.233,42.481,23.663,15.622,12.535,8.262,35.974,12.915,9.506,4.443,4.455,-2.077,4.139,3.446,2.931,0.402,20.472,-1.361,-0.874,-1.461,1.798,10.362,-0.8,0.382,-2.513,1.302],[412.142,214.684,119.89,77.978,55.535,78.515,46.032,24.943,13.945,8.508,43.343,21.398,7.01,6.376,8.404,20.961,1.877,3.08,-0.826,-0.125,35.438,-2.574,0.693,-0.105,-0.407,25.051,-4.873,-2.618,-2.192,1.391]]
}