{
"KTrans": [[-1.131,2.885,1.083,1.987,1.913,5.003,14.919,14.296,15.42,9.935,10.722,25.737,24.022,24.158,23.733,60.45,81.737,98.326,100.027,99.348,159.644,47.035,135.367,152.852,161.756,436.516,-389.62,20.5,125.797,168.743],[-5.867,0.084,0.115,1.881,0.472,2.602,5.072,2.174,6.268,5.514,15.514,12.324,2.879,10.485,9.097,143.902,98.409,21.896,32.398,40.483,364.004,272.376,9.724,22.384,60.317,1084.57,811.282,104.079,-118.454,39.25],[-10.42,-1.076,-0.191,0.232,0.315,-0.937,3.937,4.478,3.366,0.993,9.067,10.852,8.849,7.714,2.279,111.064,75.537,58.677,56.383,7.02,287.131,183.546,145.916,139.716,7.575,812.507,488.406,391.718,406.284,11.149],[-15.646,-1.291,0.6,-0.009,0.048,-8.803,2.691,3.332,2.756,3.209,0.275,11.102,8.04,7.012,5.75,94.123,67.297,49.632,42.794,37.667,251.086,153.012,113.76,96.398,90.618,696.221,401.769,284.689,241.658,240.864],[-23.456,-0.728,0.05,-0.115,0.179,-13.947,3.301,4.175,2.893,2.331,-4.703,9.637,7.732,5.805,5.868,85.558,58.634,45.526,36.552,32.552,215.618,143.247,102.553,83.394,71.716,611.465,361.116,250.561,198.339,176.734],[-27.35,-2.235,-1.107,0.012,-0.125,-20.609,0.719,4.187,2.476,2.426,-15.174,8.21,6.474,6.111,5.33,60.194,58.739,42.79,34.352,29.258,196.859,137.169,95.698,77.589,63.968,532.722,331.405,229.912,179.155,150.902]],
"ve": [[4.808,-298.501,11.685,41.434,14.767,2.036,9.151,24.861,7.861,-41.227,8.968,-453.801,58.417,62.647,83.889,51.429,-3.406,-45.218,-74.195,-97.771,98.2,31.106,-6.514,-30.284,-45.224,213.377,83.86,33.019,4.005,-15.223],[-0.346,-0.71,-3.76,2.663,1.28,3.765,1.443,0.6,1.662,4.321,9.459,4.622,3.414,-22.277,6.326,50.085,25.916,15.186,-4.447,41.82,99.956,51.455,31.284,18.763,0.579,200.684,102.907,68.019,44.977,27.321],[0.418,-0.064,-0.237,-0.598,0.957,3.65,2.446,1.461,0.62,1.33,9.471,4.798,3.366,2.286,2.02,50.083,25.925,17.528,13.221,11.578,98.624,51.387,35.111,25.863,20.739,199.842,101.716,68.751,51.445,41.222],[-0.292,0.464,0.355,0.107,-0.047,4.64,2.379,1.329,0.948,0.676,9.325,5.143,3.244,2.522,2.073,49.255,25.1,17.193,13.41,10.857,99.878,50.583,34.354,26.374,21.283,200.652,100.77,68.251,51.806,41.721],[-0.036,0.696,0.037,0.073,0.125,3.961,2.221,1.611,1.081,0.744,9.39,5.1,3.238,2.354,2.255,49.652,24.753,17.053,12.918,10.74,99.267,50.404,34.186,26.168,21.087,199.866,100.861,67.732,51.349,41.585],[0.133,0.212,0.196,0.228,0.09,4.365,2.553,1.55,1.336,1,7.809,5.192,3.362,2.61,1.97,49.462,25.22,16.76,12.772,10.61,99.232,50.078,33.95,25.809,20.909,198.815,100.164,67.467,50.906,41.308]],
"kep": [[-122.129,-14.886,-3.32,-2.104,-5.484,-130.362,-29.684,-25.104,-28.873,-19.452,-123.113,-55.031,-31.875,-42.337,-45.07,-121.575,-231.486,-188.027,-188.284,-182.403,-82.983,-468.751,-366.103,-365.046,-378.934,-25.592,-962.158,-742.215,-733.08,-770.212],[-13.148,-8.67,-123.838,-12.213,-0.607,-8.681,-1.208,-119.985,-28.665,-13.895,2.31,11.633,-140.004,-43.115,-18.904,70.413,114.406,-105.989,-176.012,-101.408,142.038,256.457,-212.042,-345.495,-202.634,313.212,520.48,-79.677,-665.011,-408.713],[-15.82,-2.606,-3.914,-7.138,-128.137,-10.844,2.534,4.739,3.307,-127.297,-3.23,6.668,9.944,19.419,-130.188,39.942,51.349,67.227,130.368,-163.488,93.408,111.368,145.518,246.999,-196.209,205.842,230.778,296.306,500.769,-212.177],[-21.075,-2.568,-1.402,-1.505,-1.125,-17.979,-1.794,3.164,1.688,4.93,-12.578,5.77,6.036,8.165,9.541,26.766,38.876,39.38,50.481,68.538,73.981,75.582,81.372,99.334,140.36,163.978,165.544,164.271,196.574,288.78],[-29.009,-2.812,-0.74,-1.757,-0.726,-22.878,-0.34,2.585,1.521,2.011,-17.742,4.188,4.617,3.798,7.402,20.991,27.827,30.194,30.317,38.393,53.974,66.837,63.598,66.561,75.578,134.792,138.742,128.503,131.833,154.889],[-32.311,-4.77,-2.458,-0.717,0.048,-28.289,-2.101,2.246,0.867,2.594,-28.004,2.424,1.975,5.024,4.783,2.741,28.516,25.734,25.155,26.016,44.39,60.281,52.893,54.169,53.849,107.148,119.671,108.892,105.895,109.35]],
"vp": [[140.952,-80.105,21.956,45.027,29.204,-8.219,-26.731,7.898,0.205,12.666,4.077,8.179,-4.926,3.828,10.927,-0.172,-0.1,0.358,3.381,-2.906,0.243,0.768,-0.042,0.373,-0.419,-0.708,-0.195,0.831,-0.917,-0.659],[729.265,274.764,89.933,-131.821,-192.423,180.888,26.338,7.954,31.642,-4.135,92.646,18.707,-4.447,9.536,-8.076,18.562,5.425,-3.587,-1.286,-1.874,7.217,3.099,1.075,-0.495,0.433,3.58,0.649,-0.447,-0.171,-0.772],[2747.61,-19.166,-24.474,155.338,25.461,504.699,69.699,7.173,-32.295,3.727,303.747,21.36,0.268,2.412,-4.177,54.951,11.323,2.52,-1.523,0.815,23.829,5.412,1.247,-0.009,0.281,12.933,1.71,0.359,0.41,-0.424],[4291.896,647.971,333.084,29.635,-37.188,908.233,175.678,-66.323,-19.208,41.536,436.186,85.231,10.39,20.462,21.178,84.278,18.101,-0.014,-1.239,-4.671,47.646,10.272,2.94,0.113,0.187,21.706,1.803,0.966,1.212,-0.883],[5691.617,1505.52,296.25,2.651,-81.176,1141.51,291.074,130.149,58.978,21.532,577.971,128.408,46.356,1.09,14.21,119.774,23.351,3.6,4.51,-0.516,54.399,12.959,1.274,1.232,-3.081,27.948,3.991,1.016,-0.793,-1.947],[6874.388,2770.514,685.142,-70.015,-233.652,1310.482,416.808,188.18,74.311,-6.121,653.037,285.608,89.574,-15.059,36.019,136.988,51.439,9.09,4.195,2.848,65.976,20.308,6.242,0.582,-0.644,32.753,8.578,1.835,-0.433,-0.601]]
}