{
"KTrans": [[-45.457,-62.935,-64.603,-61.405,-59.921,-34.124,-62.342,-51.037,-48.539,-56.785,-18.484,-41.708,-37.328,-44.811,-31.775,25.064,3.985,4.492,10.596,9.563,26.113,24.202,43.3,48.883,31.739,118.842,102.878,155.735,173.736,104.55],[-49.501,-41.777,-50.648,-55.463,-46.088,-48.706,-30.519,-26.787,-47.577,-33.825,-41.719,-32.289,-14.374,-37.992,-33.956,-3.529,3.631,-3.489,-13.112,-7.79,-0.371,42.117,10.015,4.983,6.696,69.558,30.315,42.355,50.631,34.133],[-60.809,-35.521,-44.562,-52.051,-45.134,-55.328,-36.664,-37.608,-36.857,-38.312,-59.782,-35.815,-28.237,-27.184,-27.032,-35.531,-19.952,-14.435,-7.202,1.887,-18.597,20.805,18.103,-1.471,-5.347,15.353,45.041,40.152,1.779,1.594],[-68.73,-48.027,-40.069,-43.716,-49.133,-71.179,-41.994,-37.622,-28.389,-37.316,-66.872,-35.748,-37.472,-26.561,-27.893,-55.859,-26.838,-20.676,-25.726,-14.904,-40.332,0.764,-6.768,-11.226,7.756,-12.82,28.375,58.621,47.111,26.244],[-79.368,-37.51,-39.736,-43.58,-37.461,-79.78,-38.838,-40.002,-42.174,-39.5,-76.753,-38.497,-36.943,-28.833,-35.106,-65.42,-34.386,-32.633,-17.126,-19.334,-50.928,-10.642,-9.079,-11.232,-4.91,-52.842,3.071,33.284,54.565,41.821],[-81.447,-52.127,-43.13,-39.754,-38.953,-82.182,-47.05,-40.034,-32.975,-34.735,-83.072,-45.121,-34.361,-38.07,-31.263,-71.645,-39.622,-38.221,-29.383,-23.345,-67.735,-21.673,-23.692,-12.774,-17.498,-41.786,-17.691,-4.288,29.381,9.137]],
"ve": [[-49.2,-206.722,-23.13,359.643,7.314,-1.106,25.061,-27.552,182.661,-15.163,-17.149,-51.127,-10.909,-21.526,-13.635,25.349,-18.223,-12.109,-24.834,417.565,54.057,119.597,8.7,-4.957,-47.611,103.723,38.861,11.342,-34.158,-35.235],[-87.858,-60.145,-55.166,-36.757,-9.92,-79.088,-38.272,-28.914,-20.445,-40.427,-60.219,-51.347,-8.988,-65.592,-81.434,54.721,6.431,4.671,-8.577,2.37,20.543,46.319,32.136,7.772,7.511,225.358,116.847,44.412,32.795,-0.277],[-69.69,-67.775,-73.924,-68.504,-43.692,-64.318,-84.2,-61.459,-41.916,-37.504,-56.166,-76.453,-48.42,-35.801,-26.202,32.361,-49.527,-31.21,-11.981,13.294,71.974,42.352,29.094,-8.517,-4.622,446.658,98.653,59.351,101.949,-1.928],[-48.494,-137.26,-85.511,-74.443,-69.997,-28.309,-118.523,-82.378,-47.26,-54.769,-20.97,-81.935,-87.43,-46.249,-38.869,1.728,-76.162,-59.613,-49.439,-25.914,82.394,9.702,-22.865,-23.946,-27.377,302.878,127.679,182.006,90.174,43.948],[-13.645,-80.165,-107.775,-95.701,-64.22,-32.973,-82.327,-115.799,-89.57,-71.049,-7.132,-112.883,-104.711,-62.292,-64.837,72.409,-83.443,-99.786,-36.455,-36.018,152.836,34.019,-51.851,-36.783,-10.591,154.817,24.569,83.328,94.103,68.193],[-26.929,-104.419,-127.687,-99.517,-81.844,-17.592,-101.15,-115.98,-80.007,-71.357,-24.202,-78.316,-101.499,-92.429,-64.169,73.578,-93.173,-102.705,-80.873,-50.422,143.149,31.302,-100.363,-42.538,-36.311,281.486,165.509,38.067,37.336,-1.839]],
"kep": [[-112.2,5.097,8.33,-6.618,1.16,-129.735,19.959,5.123,1.982,-2.218,-108.537,2.893,-3.318,-5.172,-7.583,-74.421,-39.248,-21.602,-10.575,-16.398,-5.865,-63.951,-39.764,-42.601,-18.355,58.894,-134.792,-163.685,-162.006,-90.369],[-28.566,-13.684,-103.327,3.153,-1.936,-33.583,-12.151,-119.77,-10.057,-5.298,-33.587,-7.775,-122.265,-4.229,-1.21,-54.252,-34.443,-101.533,-10.848,-6.217,-41.893,-24.762,-78.302,-62.605,-22.653,-29.659,-38.828,36.504,-140.138,-80.537],[-51.483,-13.181,-1.187,-0.731,-122.364,-49.389,-3.733,-5.855,3.144,-112.163,-56.07,-8.766,-0.183,-1.336,-115.884,-60.776,-9.818,2.815,-28.933,-81.325,-57.652,-32.769,-39.291,-4.823,-7.822,-76.332,-24.187,-0.697,-52.78,97.402],[-67.231,-9.559,-5.185,-1.031,4.659,-71.582,-7.88,-2.326,-3.992,1.669,-70.454,-10.059,0.366,-0.603,1.399,-69.644,-13.065,2.016,-0.624,3.228,-69.769,-34.099,-13.503,-14.039,-33.333,-72.727,-42.831,-57.677,-25.185,-6.225],[-82.69,-16.141,-2.439,-0.884,-3.593,-82.077,-18.848,-0.987,-3.788,-1.862,-81.466,-13.226,-2.478,-0.711,1.185,-83.25,-24.554,-3.107,-1.517,-0.626,-79.25,-49.268,-2.589,0.518,-8.251,-75.792,-38.673,-32.607,-29.228,-35.083],[-84.671,-27.886,-7.169,-3.297,-2.569,-85.441,-25.881,-7.881,-5.249,-2.873,-86.249,-26.243,-5.254,-4.187,-2.658,-84.114,-34.325,-11.924,0.219,-1.536,-84.701,-50.723,-10.721,-1.796,-3.909,-83.185,-69.829,-45.615,-9.333,-10.401]],
"vp": [[46.256,17.544,94.388,-127.757,67.427,-0.511,25.816,-18.198,16.93,-9.417,12.524,29.071,-10.159,-1.705,13.096,-11.669,-6.635,-0.477,3.695,-25.011,-2.446,13.875,-2.904,4.414,18.738,-20.073,8.97,-12.978,-20.653,8.262],[966.878,299.86,12.896,102.671,143.167,272.743,68.057,23.399,-33.191,22.799,140.675,2.632,19.214,10.277,-16.761,18.457,6.945,-11.861,-7.624,-11.512,10.529,-24.636,-15.269,-3.4,-7.264,-23.92,-27.678,-38.711,-14.467,-8.626],[2919.037,914.759,335.169,94.711,-30.723,541.845,70.602,57.419,-9.068,-42.448,283.434,63.891,28.712,22.632,-12.373,37.725,4.123,-17.125,-5.207,-6.465,-3.779,1.687,-15.437,-25.651,-22.983,-12.257,-26.863,-17.223,-16.15,-11.384],[4126.993,1096.558,657.308,265.89,-44.15,914.845,207.889,113.175,93.352,-10.008,427.064,153.254,-3.678,33.481,34.84,49.305,11.048,-6.05,-4.834,-19.191,-3.277,-6.179,11.802,6.649,-7.332,-11.061,-12.708,-7.285,-35.337,-23.984],[5482.308,2375.523,717.316,284.606,554.47,1152.371,455.924,118.97,81.256,22.031,531.591,145.45,55.238,59.685,3.574,95.614,41.476,-7.408,12.089,5.588,17.154,16.457,-8.811,-12.45,-1.241,9.107,-35.836,-24.092,-15.549,-14.616],[5632.879,4060.949,1342.754,1078.971,506.976,1247.593,593.462,267.569,179.368,142.563,594.426,345.529,85.552,95.257,64.854,86.45,63.467,36.505,18.262,0.641,50.043,24.402,-5.496,-6.644,12.815,2.816,13.156,12.987,-0.201,-6.599]]
}