{
"KTrans": [[-3.632,2.835,2.572,2.441,2.362,-35.63,13.719,12.634,12.046,11.689,-32.696,26.259,24.654,23.644,23.008,-352.568,83.904,98.544,100.053,99.869,-552.932,48.777,135.197,154.557,161.773,-1151.385,-381.395,21.691,126.273,171.225],[2.537,1.565,-1.951,1.085,1.003,13.038,8.113,-14.425,5.262,4.947,27.053,16.972,-28.933,10.09,9.695,174.338,114.499,-104.963,33.082,40.409,445.084,302.37,-246.49,22.53,60.595,1267.249,893.567,-698.772,-130.791,39.96],[2.321,1.324,1,0.845,-1.067,11.816,6.705,5.085,4.367,-8.924,24.32,13.701,10.419,9.103,-17.744,149.646,80.271,62.184,60.237,-114.393,368.266,189.805,149.524,157.012,-91.81,1005.15,495.58,398.588,458.063,-142.141],[2.232,1.231,0.9,0.737,0.642,11.317,6.19,4.528,3.72,3.26,23.227,12.59,9.188,7.563,6.665,140.669,71.569,51.629,42.911,39.227,341.498,164.702,117.444,98.59,93.165,915.429,414.757,291.28,247.83,244.707],[2.183,1.181,0.848,0.682,0.585,11.034,5.92,4.243,3.42,2.936,22.619,12.013,8.586,6.916,5.946,135.794,67.438,47.255,37.922,32.806,327.192,153.296,105.394,84.22,73.318,866.127,379.436,253.942,201.818,177.356],[2.151,1.153,0.817,0.65,0.55,10.852,5.753,4.071,3.24,2.748,22.22,11.655,8.223,6.538,5.546,132.698,64.977,44.798,35.323,29.929,317.806,146.661,98.901,77.303,65.394,834.992,359.622,234.811,181.03,152.872]],
"ve": [[0.988,1.238,1.444,1.742,2.076,4.984,7.127,8.265,10.076,12.21,9.776,18.434,20.438,25.234,31.355,48.825,-0.775,-46.026,-75.488,-91,99.827,31.105,-6.278,-29.725,-44.963,195.5,83.32,33.211,3.972,-15.115],[1.044,0.576,0.335,0.409,0.397,5.196,2.838,1.653,2.187,2.082,10.358,5.598,3.322,4.871,4.439,51.062,26.548,16.425,2.021,-1099.513,101.4,51.925,33.223,18.746,0.946,201.653,102.187,66.543,44.789,27.196],[1.021,0.531,0.376,0.304,0.201,5.085,2.642,1.864,1.492,0.981,10.156,5.267,3.7,2.928,2.008,50.505,25.927,17.86,13.614,9.862,100.694,51.341,34.997,26.391,19.702,200.847,101.724,68.729,51.582,39.903],[1.014,0.519,0.358,0.28,0.236,5.051,2.58,1.776,1.389,1.166,10.091,5.152,3.541,2.762,2.31,50.299,25.562,17.449,13.449,11.017,100.415,50.855,34.531,26.416,21.423,200.508,101.154,68.294,51.87,41.773],[1.011,0.514,0.35,0.27,0.223,5.035,2.554,1.738,1.339,1.107,10.062,5.101,3.469,2.67,2.204,50.198,25.381,17.2,13.171,10.787,100.276,50.59,34.185,26.066,21.225,200.321,100.811,67.874,51.512,41.699],[1.01,0.511,0.346,0.265,0.217,5.027,2.54,1.718,1.313,1.075,10.046,5.073,3.431,2.62,2.144,50.143,25.278,17.055,12.992,10.586,100.195,50.433,33.966,25.809,20.959,200.229,100.606,67.589,51.19,41.408]],
"kep": [[-601.934,-4.719,-3.695,-3.62,-3.772,-951.851,-23.679,-18.556,-18.184,-18.974,-565.935,-47.389,-37.131,-36.402,-38.006,-944.987,-237.387,-185.868,-182.323,-190.138,-792.216,-475.976,-371.757,-364.771,-380.016,-815.239,-955.792,-745.594,-731.217,-761.672],[2.012,3.014,-824.735,-3.455,-2.002,9.949,14.986,-1105.483,-17.364,-10.092,19.86,29.953,-1107.459,-34.731,-20.195,98.663,149.056,-869.171,-174.057,-101.104,195.89,296.556,-978.994,-349.021,-202.491,385.967,586.62,-1288.341,-701.481,-406.042],[1.474,1.216,1.548,2.988,-772.578,7.216,5.978,7.65,14.865,-1132.562,14.383,11.93,15.274,29.702,-1126.273,71.29,59.404,76.134,147.957,-1384.074,141.259,118.357,151.877,294.638,-698.666,277.359,235.087,301.93,583.899,-594.427],[1.312,0.909,0.887,1.052,1.507,6.382,4.423,4.338,5.172,7.454,12.703,8.819,8.644,10.318,14.881,62.804,43.838,43.067,51.417,74.205,124.143,87.351,85.915,102.66,148.066,242.565,173.437,171.029,204.453,294.687],[1.235,0.789,0.689,0.702,0.801,5.972,3.811,3.335,3.416,3.916,11.881,7.586,6.643,6.803,7.809,58.579,37.674,33.045,33.884,38.909,115.531,74.999,65.928,67.623,77.67,224.301,148.729,131.212,134.772,154.841],[1.188,0.728,0.599,0.565,0.583,5.728,3.487,2.869,2.717,2.821,11.384,6.933,5.707,5.407,5.616,56.022,34.393,28.349,26.895,27.966,110.12,68.4,56.538,53.692,55.834,212.921,135.563,112.528,106.975,111.35]],
"vp": [[-0.217,-0.641,-0.768,-0.851,-0.92,-0.204,-0.263,-0.287,-0.32,-0.336,-0.216,-0.23,-0.238,-0.25,-0.238,-0.185,-0.201,-0.192,-0.194,-0.185,-0.202,-0.189,-0.222,-0.188,-0.219,-0.196,-0.178,-0.2,-0.178,-0.193],[5.198,1.13,-0.196,-0.88,-1.31,0.784,0.043,-0.175,-0.304,-0.392,0.257,-0.06,-0.192,-0.272,-0.314,-0.197,-0.189,-0.198,-0.218,-0.236,-0.298,-0.269,-0.192,-0.204,-0.217,-0.287,-0.224,-0.169,-0.179,-0.193],[18.044,6.642,2.862,0.897,-0.202,3.306,1.07,0.355,0.028,-0.17,1.455,0.423,0.04,-0.074,-0.21,0.005,-0.128,-0.197,-0.179,-0.169,-0.255,-0.234,-0.185,-0.185,-0.192,-0.279,-0.263,-0.23,-0.204,-0.208],[38.133,15.828,8.334,4.644,2.361,7.365,2.831,1.498,0.744,0.303,3.489,1.308,0.536,0.216,0.02,0.416,-0.052,-0.093,-0.19,-0.177,-0.009,-0.198,-0.198,-0.187,-0.212,-0.115,-0.245,-0.251,-0.224,-0.262],[65.318,28.584,16.278,10.1,6.411,12.775,5.432,2.971,1.826,1.1,6.274,2.543,1.348,0.727,0.433,1.01,0.209,-0.011,-0.083,-0.107,0.373,-0.115,-0.152,-0.2,-0.194,-0.002,-0.272,-0.271,-0.254,-0.228],[99.567,45.066,26.758,17.532,11.929,19.798,8.72,5.06,3.25,2.157,9.805,4.17,2.381,1.465,0.921,1.877,0.546,0.154,0.051,-0.016,0.856,0.013,-0.111,-0.086,-0.146,0.466,-0.145,-0.195,-0.225,-0.196]]
}