{
"KTrans": [[0.164,0.814,0.835,1.476,0.326,13.884,7.849,6.632,5.38,5.915,28.254,15.505,13.209,12.655,9.848,160.186,92.345,76.628,66.917,59.969,404.672,224.416,172.178,152.979,140.908,1110.958,591.456,455.157,393.385,364.333],[-4.448,1.778,2.353,0.523,0.589,10.488,4.863,3.624,3.175,2.118,17.498,11.485,8.22,7.061,5.441,130.73,63.866,45.883,36.18,29.979,303.237,147.867,99.132,78.091,65.913,822.755,357.235,230.826,180.221,150.428],[-5.56,-0.149,1.513,-0.113,-0.059,-2.418,5.943,4.167,3.013,2.763,10.686,10.176,7.838,5.754,4.623,108.69,59.812,40.94,31.523,25.539,267.666,134.469,88.145,66.197,54.685,706.652,321.782,206.266,150.693,122.604],[-15.035,-0.324,-1.596,0.128,0.6,-13.092,6.44,3.154,2.569,2.802,-2.237,8.087,7.084,5.825,4.519,87.169,57.333,37.164,30.544,24.026,221.516,131.035,85.882,62.387,50.614,672.539,314.999,195.226,142.232,111.952],[-24.658,-1.617,1.787,0.488,0.233,-18.405,2.437,2.78,2.484,2.437,-13.382,9.382,6.928,5.608,4.166,62.311,51.337,37.23,28.966,23.463,190.027,125.297,81.937,60.313,48.296,582.08,307.674,192.792,135.828,107.571],[-38.069,-3.28,0.334,0.857,0.132,-33.26,2.348,2.805,2.163,2.548,-29.09,7.72,6.182,5.677,4.472,39.539,54.532,35.605,27.908,22.06,149.844,120.968,81.902,60.252,47.911,441.461,306.265,187.502,132.992,105.596]],
"ve": [[2.363,0.649,0.986,0.883,2.448,3.916,1.343,-0.279,-2.131,-2.367,9.579,1.731,-1.032,-5.271,-4.64,46.452,12.784,-1.602,-11.207,-17.727,94.403,33.282,8.423,-7.509,-18.406,191.131,78.721,35.331,10.151,-6.577],[0.756,0.695,0.316,0.193,0.21,6.353,2.857,1.526,1.145,0.927,9.663,4.958,2.751,1.468,0.85,51.004,23.838,14.297,8.894,5.629,99.543,47.936,29.653,19.314,12.499,199.641,96.781,61.231,41.452,28.811],[1.179,1.156,0.223,0.196,0.419,6.128,2.338,1.683,0.993,0.718,10.306,4.584,3.125,2.231,1.769,50.444,24.561,15.892,11.319,8.516,101.087,49.163,31.859,22.897,17.259,199.704,99.186,64.826,46.714,35.585],[1.834,0.882,0.396,-0.032,0.183,5.606,2.65,1.927,1.059,1.079,11.041,5.18,3.2,2.207,2.049,51.188,24.897,16.317,11.878,9.438,100.343,50.216,32.932,24.198,18.64,200.076,99.572,65.651,48.331,37.652],[2.324,0.963,0.459,0.605,0.232,7.073,2.527,1.629,0.899,1.032,11.239,5.43,3.272,2.578,2.041,51.823,25.501,17.028,12.187,9.547,101.348,49.586,32.989,24.545,19.176,201.48,99.517,66.118,49.075,38.537],[-10.695,0.722,0.585,0.272,0.167,7.03,3.051,1.695,1.363,1.021,11.663,4.989,3.365,2.519,2.181,52.728,25.482,16.578,12.05,9.849,99.841,49.942,32.792,24.639,19.343,200.87,100.189,66.052,49.426,38.999]],
"kep": [[-1.556,0.763,0.836,2.185,-0.041,10.472,6.919,7.665,9.147,10.473,17.621,14.169,15.078,20.409,17.089,78.205,70.836,80.009,88.548,95.448,159.95,143.704,151.279,173.961,195.903,316.47,287.118,310.48,348.181,397.385],[-5.096,1.148,2.08,0.393,0.437,4.285,2.081,2.153,2.054,1.232,7.434,6.281,5.382,5.568,4.628,52.983,32.42,27.695,25.105,23.095,102.293,67.622,53.625,49.311,47.526,208.343,132.434,105.242,98.138,94.466],[-6.562,-1.226,1.324,-0.281,-0.446,-8.189,3.528,2.474,2.031,2.058,0.448,5.373,4.608,3.476,2.832,38.93,28.351,21.645,18.181,15.706,83.085,57.298,42.718,35.263,31.936,169.417,111.832,85.855,70.909,64.202],[-16.443,-1.177,-1.96,0.172,0.422,-17.493,3.763,1.229,1.517,1.72,-11.95,2.845,3.79,3.559,2.435,24.048,26.017,17.941,16.699,13.349,60.698,53.9,39.853,30.757,26.97,157.535,107.974,78.277,63.323,53.986],[-26.479,-2.535,1.34,-0.097,0.014,-23.127,-0.049,1.157,1.602,1.405,-22.05,3.787,3.57,2.979,2.097,7.183,20.657,17.278,14.971,12.709,44.258,50.69,36.85,28.736,24.454,127.194,104.397,76.287,58.223,49.844],[-39.287,-3.916,-0.208,0.603,-0.022,-37.271,-0.682,1.121,0.803,1.523,-36.151,2.608,2.749,3.102,2.251,-7.661,23.253,16.331,14.154,11.128,24.572,47.455,36.985,28.582,23.953,79.4,102.978,73.148,55.945,47.92]],
"vp": [[0.001,0.001,0.001,0.001,0.001,0.005,0.005,0.005,0.005,0.005,0.01,0.01,0.01,0.01,0.01,0.05,0.05,0.05,0.05,0.05,0.1,0.1,0.1,0.1,0.1,0.2,0.2,0.2,0.2,0.2],[0.001,0.001,0.001,0.001,0.001,0.005,0.005,0.005,0.005,0.005,0.01,0.01,0.01,0.01,0.01,0.05,0.05,0.05,0.05,0.05,0.1,0.1,0.1,0.1,0.1,0.2,0.2,0.2,0.2,0.2],[0.001,0.001,0.001,0.001,0.001,0.005,0.005,0.005,0.005,0.005,0.01,0.01,0.01,0.01,0.01,0.05,0.05,0.05,0.05,0.05,0.1,0.1,0.1,0.1,0.1,0.2,0.2,0.2,0.2,0.2],[0.001,0.001,0.001,0.001,0.001,0.005,0.005,0.005,0.005,0.005,0.01,0.01,0.01,0.01,0.01,0.05,0.05,0.05,0.05,0.05,0.1,0.1,0.1,0.1,0.1,0.2,0.2,0.2,0.2,0.2],[0.001,0.001,0.001,0.001,0.001,0.005,0.005,0.005,0.005,0.005,0.01,0.01,0.01,0.01,0.01,0.05,0.05,0.05,0.05,0.05,0.1,0.1,0.1,0.1,0.1,0.2,0.2,0.2,0.2,0.2],[0.001,0.001,0.001,0.001,0.001,0.005,0.005,0.005,0.005,0.005,0.01,0.01,0.01,0.01,0.01,0.05,0.05,0.05,0.05,0.05,0.1,0.1,0.1,0.1,0.1,0.2,0.2,0.2,0.2,0.2]]
}