{
"KTrans": [[2.465,1.028,0.579,0.363,0.236,12.66,7.307,5.658,4.863,4.398,26.156,15.48,12.241,10.691,9.778,164.56,94.112,74.407,65.226,59.961,415.414,225.66,175.914,153.372,140.499,1189.242,602.094,459.749,396.907,361.817],[4.093,1.656,0.818,0.405,0.162,13.146,6.318,4.127,3.071,2.457,25.021,12.303,8.348,6.461,5.371,142.947,66.529,45.448,35.848,30.434,350.079,150.382,100.25,78.307,66.148,980.127,373.247,238.392,182.458,152.428],[5.635,2.559,1.428,0.844,0.49,14.686,7.036,4.482,3.214,2.465,26.556,12.776,8.366,6.22,4.964,144.434,64.423,42.166,31.947,26.155,352.246,143.611,91.31,68.35,55.667,990.383,352.381,213.036,155.485,124.831],[6.964,3.399,2.042,1.318,0.87,16.102,7.842,5.02,3.59,2.731,28.088,13.532,8.805,6.468,5.083,147.247,64.692,41.644,31.008,24.934,358.284,142.985,89.193,65.497,52.347,1008.278,349.55,206.318,147.367,115.91],[8.128,4.17,2.622,1.782,1.253,17.361,8.614,5.573,4.013,3.063,29.481,14.31,9.325,6.837,5.349,150.07,65.47,41.832,30.879,24.601,363.54,143.828,88.81,64.569,51.081,1019.039,351.099,204.447,144.32,112.218],[9.163,4.88,3.167,2.225,1.625,18.489,9.34,6.111,4.438,3.409,30.714,15.055,9.853,7.238,5.663,152.569,66.419,42.268,31.054,24.613,367.758,145.128,89.076,64.387,50.625,1019.107,353.525,204.394,143.17,110.547]],
"ve": [[0.826,-0.305,-1.113,-1.836,-2.519,4.183,0.22,-2.088,-3.948,-5.609,8.482,1.086,-2.955,-6.08,-8.764,45.157,12.915,-1.961,-11.844,-19.36,93.379,33.148,7.736,-7.819,-18.801,192.016,78.976,35.059,10.127,-6.425],[1.26,0.599,0.275,0.031,-0.18,5.208,2.461,1.38,0.709,0.199,10.149,4.799,2.775,1.572,0.694,49.871,23.804,14.354,9.031,5.358,99.767,48.03,29.528,19.3,12.409,199.832,97.203,61.068,41.518,28.675],[1.339,0.734,0.476,0.304,0.165,5.33,2.691,1.736,1.199,0.826,10.321,5.14,3.314,2.321,1.658,50.318,24.827,16.057,11.444,8.482,100.406,49.592,32.197,23.114,17.338,200.685,99.369,64.873,46.994,35.738],[1.379,0.792,0.557,0.411,0.299,5.382,2.774,1.856,1.361,1.033,10.388,5.253,3.482,2.55,1.953,50.468,25.129,16.54,12.129,9.382,100.626,50.049,32.963,24.224,18.811,200.998,100.018,66,48.669,37.985],[1.404,0.827,0.603,0.469,0.37,5.413,2.82,1.918,1.441,1.133,10.426,5.31,3.562,2.656,2.087,50.548,25.264,16.748,12.418,9.759,100.736,50.254,33.289,24.689,19.428,201.171,100.316,66.485,49.38,38.945],[1.423,0.852,0.634,0.507,0.416,5.435,2.849,1.956,1.489,1.192,10.451,5.346,3.61,2.718,2.163,50.6,25.342,16.861,12.571,9.955,100.81,50.368,33.462,24.931,19.744,201.288,100.475,66.745,49.749,39.44]],
"kep": [[4.086,3.791,4.174,4.715,5.316,10.755,9.664,10.524,11.816,13.279,19.108,17.006,18.46,20.71,23.237,86.671,76.073,82.205,91.962,103.168,172.984,150.508,162.303,181.519,203.357,352.188,301.782,324.484,362.141,405.48],[5.286,3.497,2.976,2.804,2.773,10.15,6.277,5.196,4.825,4.729,16.251,9.756,7.976,7.352,7.178,66.029,37.768,30.271,27.613,26.799,130.757,73.239,58.343,53.081,51.386,268.967,145.79,115.181,104.425,100.924],[6.763,4.277,3.392,2.973,2.754,11.52,6.756,5.186,4.461,4.087,17.494,9.86,7.429,6.324,5.752,66.55,34.91,25.463,21.265,19.108,131.13,66.794,48.22,40.054,35.878,271.414,132.402,94.462,78.015,69.647],[8.065,5.071,3.933,3.347,3.005,12.84,7.472,5.602,4.674,4.143,18.845,10.479,7.69,6.334,5.567,68.298,34.806,24.484,19.666,16.984,133.958,65.858,45.736,36.451,31.332,277.117,130.197,88.997,70.418,60.263],[9.213,5.817,4.477,3.76,3.322,14.031,8.194,6.095,5.019,4.376,20.095,11.174,8.12,6.593,5.694,70.129,35.296,24.427,19.241,16.272,136.512,66.207,45.085,35.179,29.568,280.56,130.647,87.296,67.516,56.433],[10.238,6.512,4.999,4.173,3.655,15.101,8.885,6.595,5.397,4.666,21.211,11.861,8.592,6.929,5.93,71.77,35.987,24.69,19.238,16.076,138.576,66.966,45.101,34.769,28.835,280.435,131.703,86.971,66.316,54.651]],
"vp": [[-0.165,-0.372,-0.456,-0.495,-0.516,-0.15,-0.149,-0.161,-0.193,-0.187,-0.156,-0.145,-0.142,-0.129,-0.15,-0.138,-0.086,-0.1,-0.118,-0.088,-0.149,-0.12,-0.121,-0.102,-0.119,-0.137,-0.122,-0.093,-0.111,-0.108],[2.924,0.655,-0.16,-0.51,-0.748,0.454,0.031,-0.171,-0.195,-0.246,0.116,-0.051,-0.161,-0.15,-0.155,-0.137,-0.112,-0.15,-0.139,-0.087,-0.155,-0.135,-0.163,-0.113,-0.122,-0.196,-0.126,-0.141,-0.103,-0.101],[10.17,3.726,1.604,0.527,-0.14,1.856,0.602,0.228,-0.018,-0.147,0.808,0.232,0.028,-0.054,-0.145,-0.009,-0.084,-0.111,-0.12,-0.145,-0.08,-0.093,-0.108,-0.124,-0.142,-0.164,-0.158,-0.095,-0.115,-0.137],[21.573,8.956,4.705,2.592,1.347,4.137,1.616,0.816,0.427,0.179,1.975,0.699,0.32,0.122,0.02,0.193,0.029,-0.087,-0.062,-0.098,0.069,-0.082,-0.071,-0.085,-0.098,-0.081,-0.15,-0.137,-0.107,-0.112],[37.051,16.135,9.219,5.678,3.632,7.27,3.114,1.667,1.015,0.612,3.58,1.456,0.757,0.394,0.224,0.569,0.11,-0.017,-0.038,-0.066,0.212,-0.03,-0.085,-0.104,-0.118,0.049,-0.073,-0.139,-0.104,-0.107],[56.587,25.471,15.096,9.88,6.773,11.304,4.92,2.848,1.843,1.229,5.538,2.373,1.346,0.811,0.545,1.073,0.301,0.112,0.021,-0.012,0.488,0.049,-0.054,-0.075,-0.111,0.222,-0.092,-0.086,-0.121,-0.112]]
}