{
"KTrans": [[-0.835,5.577,5.82,-0.682,-1.88,5.166,10.711,11.081,8.215,10.139,16.708,21.034,18.421,19.825,17.973,19.537,54.929,73.844,82.966,86.508,-29.306,-36.467,81.69,78.168,101.326,27.083,28.305,-173.84,-15.479,16.169],[-16.467,-3.84,0.261,1.92,-0.226,-10.528,1.925,2.307,4.531,3.247,-8.815,10.295,3.001,9.912,10.904,-44.588,-36.915,-8.068,20.68,34.895,30.656,8.361,-45.633,4.121,39.657,-57.296,21.786,-69.2,-16.175,-26.014],[-21.15,-3.812,1.577,-1.091,-0.167,-27.348,3.685,3.193,1.084,2.331,-19.725,4.796,8.319,3.256,1.454,-59.383,8.802,-2.141,-6.102,3.927,0.237,-21.236,-14.982,10.334,4.037,50.309,-85.311,56.31,-40.814,42.297],[-36.97,-3.658,-0.431,-0.114,-0.222,-34.166,4.334,3.053,1.756,2.664,-30.15,0.481,10.805,5.971,7.016,-30.299,53.269,33.93,29.54,11.776,-73.033,-4.092,-3.251,-25.559,-13.275,-76.799,-40.843,-27.973,16.478,12.723],[-50.043,-5.631,2.9,2.33,-0.332,-55.681,-0.446,2.401,5.467,4.228,-49.545,3.155,9.051,5.248,5.823,-44.829,7.472,34.356,28.182,29.428,-39.663,-3.75,-4.352,-42.122,25.106,-35.692,-13.477,-24.655,83.401,46.787],[-59.388,-7.546,2.005,1.576,1.124,-57.621,-3.078,0.886,3.887,1.841,-66.005,-6.359,7.896,5.789,6.136,-74.483,-6.729,43.703,28.384,19.039,-35.133,-68.086,-67.429,54.865,14.36,-43.749,-18.056,8.866,30.221,52.867]],
"ve": [[-2.098,-858.54,-2.037,133.428,15.735,-0.156,93.252,-38.395,-81.625,360.636,2.67,-1.594,5.295,30.104,-55.569,51.919,-14.934,6.064,-37.208,-17.86,93.24,28.183,-15.248,-40.068,-37.981,199.277,80.64,35.376,4.138,-17.743],[-3.869,-49.042,6.166,-3.647,-1.267,-0.976,-2.413,3.042,8.803,-0.451,9.175,-0.924,0.511,6.403,-4.854,58.312,19.996,17,-0.68,-3.01,91.911,48.861,33.63,18.528,25.581,195.272,46.102,66.389,45.23,26.082],[-4.735,-0.543,-1.654,-3.714,-0.177,6.232,0.622,-0.262,5.249,-1.65,-91.854,2.697,2.218,8.075,2.225,68.135,27.016,16.669,12.14,7.558,96,51.516,35.084,24.624,18.325,233.117,71.387,61.535,50.916,38.316],[-3.375,0.406,0.17,-0.175,-1.118,3.108,2.779,0.561,0.168,-0.218,12.497,4.024,3.593,2.104,0.831,47.085,22.841,16.304,11.426,10.024,100.242,50.947,39.883,27.43,21.249,208.048,99.513,68.934,50.783,39.292],[-3.301,-1.039,0.334,-0.319,-0.257,-0.79,1.679,1.386,1.659,0.474,10.333,3.204,2.838,1.96,2.303,48.112,25.507,16.682,12.635,13.384,96.409,48.144,33.451,25.253,21.695,197.698,96.317,69.789,49.343,38.823],[-14.142,-0.083,0.524,0.011,0.056,-1.081,1.25,1.196,1.028,1.022,6.096,3.296,3.22,2.046,2.488,52.061,22.827,17.677,11.715,9.107,98.576,51.16,34.555,24.142,21.192,189.914,91.644,66.113,51.228,40.833]],
"kep": [[-118.333,-25.782,-18.798,-2.558,3.608,-112.016,-33.175,-17.017,-11.588,-25.773,-128.15,-56.593,-33.707,-30.149,-29.597,-123.793,-221.456,-203.205,-207.888,-184.353,-29.253,-372.256,-361.078,-410.854,-442.553,29.42,3.11,-577.067,-649.47,-716.582],[-37.097,-36.904,-130.081,-27.258,-2.287,-32.347,-23.487,-112.226,-29.505,-8.604,-37.402,-13.278,-137.196,-45.3,-30.449,-73.543,-105.37,-149.445,-174.679,-113.734,-31.865,-32.19,-120.976,-252.162,-194.56,-63.113,-3.31,-36.529,-82.725,-350.414],[-37.084,-11.52,1.144,-29.538,-116.691,-48.506,-5.687,-2.203,-19.073,-123.251,-43.923,-5.715,6.735,-23.784,-133.896,-72.171,-30.605,-49.543,-50.151,-92.895,-54.828,-51.03,-42.951,-10.859,-28.156,-47.977,-78.967,9.953,-38.162,82.119],[-52.449,-5.396,-2.79,0.398,-7.289,-52.624,-3.253,-1.129,-1.475,1.701,-53.955,-9.251,9.945,5.043,11.619,-61.812,8.071,7.433,17.101,-15.403,-79.02,-36.887,-38.849,-59.619,-51.001,-79.583,-62.229,-53.005,-25.072,-19.539],[-64.104,-12.07,2.606,0.685,-0.68,-70.131,-10.959,-0.837,5.887,3.754,-66.697,-8.442,4.536,2.765,8.003,-71.594,-24.864,9.46,11.603,20.981,-69.292,-39.922,-38.078,-68.159,-13.168,-71.656,-51.57,-48.589,14.726,1.91],[-72.716,-14.669,-1.23,0.919,-0.036,-71.848,-12.859,-2.979,1.267,1.272,-79.915,-18.852,0.903,3.529,7.719,-85.092,-35.794,12.219,13.361,8.837,-70.007,-78.078,-77.739,17.37,-15.56,-77.315,-56.198,-34.716,-21.326,3.828]],
"vp": [[176.96,-33.679,-3.642,10.265,-34.563,-31.315,57.119,51.998,-13.248,18.74,-15.048,0.135,9.635,-35.433,24.889,-22.704,-1.95,4.591,-2.321,-21.631,-22.581,1.295,-10.106,10.847,9.862,-27.11,-2.891,21.82,11.09,3.151],[2224.297,445.15,59.462,46.552,215.5,312.232,162.11,27.82,-36.197,-2.764,168.733,26.211,9.148,-5.552,39.08,13.955,-3.061,1.631,-15.04,0.384,-31.156,-14.894,-20.465,-17.64,-13.274,-26.518,-25.491,-2.238,-4.882,7.623],[3740.407,1573.555,-34.067,140.387,-63.071,792.87,286.928,103.555,41.859,-35.585,380.607,60.415,40.926,58.095,11.65,38.354,24.505,20.329,-38.128,-36.558,5.127,-23.773,-14.432,-38.875,-33.713,-12.404,-35.31,-32.259,-14.146,-33.766],[5411.896,2501.901,870.438,753.856,683.476,933.277,579.731,127.509,86.054,90.266,481.596,130.473,70.803,90.318,20.731,61.98,51.924,2.07,-38.377,-0.329,15.532,-9.223,-15.625,-2.876,-24.809,7.512,-20.557,-32.868,-35.428,-45.606],[5915.717,4743.089,1657.783,836.107,325.542,1169.068,805.792,375.005,259.65,52.417,524.572,406.353,158.868,84.996,5.319,86.112,40.719,-3.572,12.558,16.306,7.513,8.546,-0.289,-11.875,21.741,-13.301,-28.514,-6.52,-23.983,-29.816],[6280.311,5830.985,3038.39,705.41,1260.582,1398.767,985.717,437.483,339.402,93.148,625.453,484.012,192.077,143.017,65.428,113.748,61.359,68.959,-7.32,-14.577,17.602,47.83,-2.307,-29.183,-5.749,-15.555,-3.688,-26.884,-17.24,-23.229]]
}