{
"KTrans": [[26.64,16.401,19.431,19.144,18.81,13.206,20.086,26.397,26.243,21.513,25.8,23.833,25.045,22.281,23.46,40.013,42.738,33.045,37.059,30.625,74.073,78.188,62.46,59.665,54.87,108.754,126.004,121.287,128.732,117.3],[-50.2,-8.168,-0.922,10.993,12.94,-42.145,-4.343,1.07,10.26,11.833,-47.34,-6.741,6.345,10.8,11.651,-35.276,-1.526,12.244,13.61,17.891,-21.332,16.139,15.957,25.156,17.126,5.872,23.754,33.924,43.081,45.068],[-72.532,-34.817,-14.977,-8.268,2.159,-73.584,-29.325,-15.724,-1.401,2.061,-70.546,-28.883,-12.085,-4.175,2.791,-65.805,-28.104,-12.595,1.19,4.519,-45.926,-21.085,-7.251,5.204,8.692,-52.295,-6.043,6.96,21.55,19.882],[-85.237,-46.791,-34.724,-18.027,-10.18,-85.495,-50.55,-24.223,-17.597,-9.178,-87.126,-51.08,-32.556,-18.298,-10.255,-77.647,-47.243,-28.808,-14.683,-5.515,-69.775,-37.569,-24.816,-18.011,0.984,-74.586,-43.659,-16.687,-0.435,8.082],[-88.913,-58.473,-42.294,-28.752,-21.816,-89.808,-58.383,-42.555,-26.355,-19.466,-87.092,-60.561,-43.443,-31.792,-18.843,-86.96,-63.735,-41.681,-27.174,-16.342,-76.55,-62.856,-43.258,-25.947,-17.093,-83.08,-55.226,-29.599,-25.558,-13.638],[-89.636,-66.765,-50.836,-39.405,-30.184,-92.653,-70.214,-51.409,-38.212,-29.062,-87.627,-72.749,-54.01,-42.811,-29.988,-88.243,-67.813,-53.073,-36.729,-24.938,-81.756,-67.911,-53.753,-38.498,-28.34,-76.577,-58.714,-44.827,-30.017,-21.36]],
"ve": [[969.378,90.754,27.912,50.686,-191.264,-76.269,-121.076,89.557,-13.406,-140.321,13.121,-28.556,-19.061,306.591,-35.78,20.855,27.769,-49.112,53.608,378.546,41.201,-6.458,1.33,62.365,96.626,64.175,23.12,-3.678,-26.407,-24.631],[-32.345,-2.433,2.121,5.206,9.545,-15.198,1.18,3.756,7.978,9.126,-63.979,-1.352,6.053,7.136,9.632,5.779,15.491,11.933,11.216,13.988,19.6,-31.541,36.063,18.004,27.24,65.4,45.467,34.179,19.618,22.228],[-35.822,-10.859,-4.914,-1.077,1.287,-31.176,-8.499,-3.199,-0.585,1.395,-34.422,-4.554,-2.903,-0.665,0.565,-15.624,0.841,0.548,2.809,2.621,-3.003,30.628,7.193,8.791,8.002,65.947,25.283,24.294,19.121,23.087],[-53.924,-12.901,-11.622,-5.88,-2.667,-36.228,-17.014,-9.522,-5.542,-3.884,-65.129,-16.029,-10.356,-6.965,-4.637,-14.755,189.025,-7.134,-1.994,-0.398,6.568,6.044,4.83,-1.095,4.292,42.217,23.608,9.384,6.984,14.286],[-50.308,-22.769,-14.875,-9.955,-8.16,-57.345,-7.313,-17.283,-9.48,-6.457,-36.863,-24.607,-14.781,-10.323,-6.13,-26.009,-14.413,-11.897,-6.846,-3.251,7.014,-7.393,-4.56,-2.256,-1.898,34.247,12.949,18.704,8.947,5.485],[-40.547,-21.903,-17.98,-14.417,-11.228,-49.435,-22.131,-21.858,-14.191,-10.268,-27.463,-30.252,-19.065,-14.572,-10.495,-31.224,-18.331,-14.156,-10.747,-5.217,136.946,-11.444,-9.136,-8.127,-5.492,55.835,11.392,-0.361,6.601,4.326]],
"kep": [[-27.426,-30.726,-37.008,-46.602,-51.093,-42.309,-30.925,-35.311,-34.304,-46.513,-31.142,-28.29,-34.846,-44.688,-44.705,-31.962,-25.004,-33.482,-24.673,-42.129,-37.59,-13.746,-19.107,-16.959,-25.916,-53.726,-31.972,-3.146,19.245,19.82],[-69.497,-37.428,-35.145,-29.631,-30.455,-63.965,-37.064,-35.127,-31.849,-31.203,-66.659,-37.483,-32.578,-30.449,-31.466,-67.093,-41.868,-33.447,-31.544,-30.458,-68.175,-39.022,-34.303,-28.878,-33.748,-64.693,-53.889,-38.33,-29.427,-24.782],[-79.904,-51.439,-40.965,-38.766,-33.349,-83.004,-48.879,-42.761,-34.471,-33.336,-79.24,-51.687,-40.588,-36.366,-32.344,-82.043,-53.629,-43.147,-35.255,-32.673,-78.219,-56.711,-44.402,-36.99,-33.795,-80.207,-62.299,-47.703,-35.687,-34.523],[-89.207,-59.596,-51.673,-42.671,-39.147,-89.001,-62.942,-45.365,-42.733,-37.662,-90.639,-62.572,-50.869,-42.258,-37.835,-87.204,-63.118,-50.247,-42.818,-37.523,-83.416,-64.061,-52.606,-46.309,-36.682,-85.133,-75.632,-56.852,-45.448,-38.697],[-91.698,-65.103,-55.986,-48.115,-43.921,-92.997,-66.894,-54.663,-46.632,-43.192,-91.021,-68.015,-56.828,-50.216,-42.942,-91.619,-73.164,-56.746,-48.649,-43.325,-89.534,-76.037,-62.382,-51.089,-44.754,-86.979,-79.993,-62.995,-57.138,-48.718],[-92.63,-71.758,-60.96,-53.668,-48.293,-94.817,-73.078,-59.645,-52.807,-48.005,-91.516,-76.112,-63.057,-56.032,-48.567,-93.034,-76.493,-64.848,-53.872,-47.974,-89.456,-79.454,-67.837,-56.831,-50.645,-89.132,-79.637,-70.971,-58.76,-51.926]],
"vp": [[-617.214,220.426,-510.032,-414.944,-737.339,-41.959,-55.186,-182.627,-93.091,-180.331,-94.847,-44.688,-79.073,-60.247,-52.449,-10.423,-17.117,4.278,-12.888,0.786,-9.473,-30.958,-11.739,-18.161,-5.455,-5.144,-15.278,-15.95,-23.492,-20.277],[2535.131,1000.897,388.556,-1336.708,-909.959,546.563,91.132,68.481,-309.167,-152.63,301.289,84.659,-95.735,-89.707,-124.8,50.578,-6.458,-17.801,-15.107,-14.535,5.442,-11.327,-0.875,-18.698,2.355,-8.655,-7.41,5.42,-12.371,-22.003],[5074.595,3173.634,1308.927,1329.91,-146.053,1053.858,473.976,340.873,41.927,-40.513,438.689,214.672,108.36,103.295,5.441,80.424,38.042,34.538,-1.779,10.358,23.801,12.523,15.532,-5.631,2.001,10.289,2.327,-4.324,-15.81,-3.948],[6176.374,3993.932,4705.439,2530.055,1327.424,1190.584,930.271,502.03,449.065,364.7,683.109,503.613,379.8,289.928,256.68,106.264,86.745,82.556,47.395,20.89,44.016,23.554,27.187,53.864,5.413,9.219,16.13,17.163,0.648,-10.91],[7406.336,6962.09,5067.655,4631.814,3607.96,1531.346,1217.888,1215.465,764.154,596.808,634.554,636.287,573.265,477.634,300.396,141.668,157.02,126.747,93.073,55.825,30.01,82.281,55.085,48.685,49.516,17.23,27.407,15.358,34.486,31.088],[6884.147,7840.338,7240.782,6649.159,5882.128,1545.449,1785.747,1639.287,1261.278,1100.455,644.931,929.136,781.122,759.484,587.141,142.714,139.51,169.114,130.313,71.602,42.718,85.305,95.303,78.637,66.602,-0.064,22.534,33.402,19.934,21.541]]
}