{
"KTrans": [[-47.702,-60.866,-62.34,-73.469,-69.984,-34.487,-62.649,-60.239,-51.099,-46.148,-21.014,-47.28,-46.847,-45.241,-48.508,38.606,-5.991,-7.509,9.663,8.04,25.283,53.644,45.738,68.366,52.804,58.841,128.616,74.233,101.298,114.322],[-54.886,-49.879,-49.237,-61.929,-58.133,-50.985,-37.963,-32.437,-46.895,-48.081,-44.38,-31.684,-25.596,-39.407,-25.42,-20.086,-2.341,10.5,-10.458,-14.845,8.182,29.997,0.592,-7.666,-14.345,43.448,77.271,10.602,-0.227,2.083],[-68.009,-46.043,-44.786,-50.061,-52.219,-65.663,-45.711,-32.782,-45.937,-30.886,-61.586,-37.329,-35.247,-28.255,-27.024,-47.7,-23.727,-21.194,-13.291,0.017,-26.097,-5.108,3.936,9.789,2.843,-13.194,68.127,67.91,45.952,-4.349],[-74.683,-45.708,-42.444,-48.115,-53.004,-76.096,-44.634,-40.428,-38.355,-44.337,-72.846,-39.711,-33.341,-28.033,-43.984,-56.918,-33.563,-13.541,-15.514,-15.652,-46.86,-24.363,-13.302,-6.742,1.819,-22.294,20.896,32.448,30.261,35.797],[-80.252,-48.195,-50.549,-47.983,-47.51,-80.198,-46.318,-41.005,-37.779,-42.256,-78.298,-50.393,-38.221,-43.892,-36.465,-69.938,-42.915,-26.591,-23.329,-21.214,-60.092,-27.36,-11.754,-14.349,-7.268,-33.132,-5.551,16.213,-1.649,7.259],[-86.493,-51.161,-43.348,-47.163,-47.498,-84.1,-52.718,-37.489,-37.708,-33.67,-84.374,-52.033,-39.914,-26.452,-31.07,-77.947,-44.982,-32.372,-19.769,-23.305,-65.561,-35.768,-27.362,-23.251,-17.272,-61.312,-15.261,0.45,-0.597,0.485]],
"ve": [[-49.129,-56.999,-17.771,9.455,-12.62,-29.861,-24.281,-7.2,42.125,-0.343,-16.414,-66.06,-43.893,-4.588,-235.578,37.649,381.653,-38.477,17.508,92.859,48.707,14.674,-56.049,-49.01,21.274,78.895,51.533,22.397,-47.718,10.845],[-60.544,-62.808,-49.709,-48.097,-66.22,-63.411,-178.317,-37.113,-29.553,5.709,-40.504,-42.625,-28.836,-36.264,-9.106,13.756,-8.568,9.856,-15.925,9.546,39.89,22.749,10.939,2.708,-8.411,223.918,102.051,21.143,-2.072,-3.583],[-28.962,-99.41,-70.976,-63.633,-53.413,-43.365,-96.431,-51.178,-57.297,-25.618,-29.944,-71.733,-61.472,-34.761,-25.742,11.825,-42.784,-39.692,-26.219,0.111,66.158,-12.938,-14.239,0.985,3.567,301.718,136.98,65.939,55.874,0.284],[-19.643,-105.367,-90.117,-82.545,-77.814,-33.856,-94.525,-88.295,-66.189,-63.407,-2.463,-72.718,-78.551,-48.653,-65.307,25.266,-68.207,-28.526,-33.062,-24.655,110.91,-63.132,-35.245,-20.845,20.018,259.095,49.627,29.135,13.33,34.714],[9.391,-89.269,-129.853,-109.867,-86.08,-0.25,-69.957,-102.174,-81.471,-75.94,4.262,-113.447,-98.309,-98.017,-65.348,25.388,-48.336,-77.443,-51.815,-44.723,98.802,-30.684,-35.142,-40.932,-19.4,257.999,39.02,-8.588,-30.118,-8.811],[-16.571,-70.306,-116.588,-125.74,-102.095,16.438,-73.009,-114.013,-98.207,-71.734,-108.25,-85.436,-110.686,-59.944,-63.659,64.926,-63.509,-91.406,-52.54,-51.613,117.617,-12.386,-71.672,-56.129,-39.634,77.445,33.959,-6.356,-47.274,-18.469]],
"kep": [[-119.888,-14.631,-20.898,18.808,11.778,-114.895,-0.343,6.248,-0.339,-14.65,-113.645,-13.82,6.676,-7.218,-11.316,-104.102,-33.339,-5.234,-30.109,-16.546,-26.481,-72.644,-46.188,-67.03,-26.039,39.319,-127.743,-64.565,-77.247,-80.488],[-45.437,-25.737,-127.208,-7.32,-0.759,-49.422,-34.299,-126.201,-8.921,-9.13,-51.08,-29.415,-131.064,3.812,-4.216,-51.476,-20.675,-104.184,-18.754,3.426,-44.529,-15.454,-23.82,-35.69,-0.595,-58.141,-13.369,30.764,-73.674,-32.621],[-73.914,-8.963,-8.907,-20.017,-129.196,-67.794,-11.915,-9.914,-4.18,-111.637,-65.514,-14.996,-0.802,-13.325,-131.485,-66.445,-14.926,-4.498,7.031,-96.551,-66.717,-24.201,-3.902,-13.963,-40.121,-63.85,-33.784,-7.842,-25.766,28.668],[-80.005,-18.886,-6.83,-3.95,4.577,-79.263,-19.98,-4.943,-4.599,-4.191,-82.822,-18.509,2.226,-1.877,4.319,-71.722,-18.983,-4.452,-2.771,-6.487,-82.037,-22.142,-8.16,1.101,-1.192,-80.383,-37.224,-15.517,-2.748,-17.274],[-89.363,-27.62,-8.391,3.557,-1.143,-87.728,-29.139,-7.189,-2.452,-1.155,-87.954,-25.624,-7.294,-3.012,-0.827,-83.622,-37.136,-1.863,-0.601,5.238,-83.818,-37.355,-5.51,2.29,0.506,-78.526,-55.264,-7.263,-4.283,-6.242],[-91.477,-36.17,-11.294,-2.686,-2.963,-93.547,-39.724,-5.914,-1.248,-1.147,-90.56,-35.872,-9.323,-6.458,-3.066,-90.835,-36.059,-6.641,-1.068,-0.639,-89.226,-44.217,-13.127,-4.493,-1.556,-80.821,-53.668,-24.166,-3.444,-3.431]],
"vp": [[84.338,137.114,-41.067,86.068,250.012,-39.242,18.413,30.484,3.728,23.521,-0.53,3.828,4.367,5.436,-21.938,1.674,-7.539,-3.698,-1.26,-2.06,-2.824,-8.396,-4.38,-18.874,-5.156,10.514,-4.41,6.962,3.199,2.885],[1496.255,132.404,8.425,-427.888,-156.772,297.294,47.397,9.303,20.521,-18.758,140.887,39.3,-24.301,-4.808,19.912,16.437,0.095,-2.279,0.952,11.374,1.942,-7.954,-7.846,2.39,8.767,11.741,-15.555,-9.343,14.116,7.017],[4080.011,932.476,348.836,-29.122,-224.897,663.247,141.695,96.972,9.898,10.35,351.932,109.666,-7.169,23.273,-1.504,69.964,13.83,-3.741,-13.203,3.195,22.406,13.803,-4.402,-22.447,-2.036,3.091,-15.575,-16.911,-19.519,-5.46],[5149.892,1579.93,663.334,157.352,-119.348,1017.894,361.198,72.06,48.06,6.519,554.869,215.64,18.762,45.005,-41.211,58.201,29.483,11.683,-1.832,7.487,44.259,5.839,-5.5,4.837,-0.746,15.196,-21.335,-3.744,-20.29,-12.02],[6094.444,2980.055,1050.753,79.578,80.927,1190.145,624.384,207.702,153.914,42.626,590.56,252.693,55.926,-14.497,28.269,81.388,89.272,-4.576,10.73,-14.271,40.733,15.988,10.451,-2.146,-9.718,8.207,11.153,-15.432,-0.247,-14.399],[6807.365,4588.023,1764.537,205.865,370.811,1394.05,908.11,191.979,139.28,136.333,668.802,361.057,145.288,103.196,60.267,133.549,63.246,38.635,16.035,4.394,43.353,40.463,11.293,11.588,4.186,16.162,10.626,0.718,-6.504,-17.88]]
}