{
"KTrans": [[10.877,26.137,16.695,18.679,25.573,14.622,34.022,21.471,23.974,19.92,23.161,24.757,19.349,35.193,31.514,48.094,35.456,40.641,44.675,40.223,49.465,68.223,62.376,73.193,68.411,144.384,124.841,120.696,92.989,107.537],[-48.826,-10.012,-0.166,6.378,12.325,-49.79,-2.844,3.385,9.004,13.398,-44.041,-2.692,1.557,8.575,15.372,-39.341,0.473,7.597,14.092,20.134,-34.909,3.926,29.127,25.59,32.552,-12.268,33.891,31.126,46.828,53.394],[-72.675,-30.883,-14.065,-6.894,0.613,-67.006,-33.458,-15.666,-3.693,2.793,-73.002,-29.154,-11.742,-2.274,0.47,-65.761,-31.724,-12.558,-0.792,1.62,-51.904,-29.9,-8.967,4.485,2.942,-52.16,-13.095,5.231,17.219,16.517],[-83.499,-45.548,-33.04,-16.094,-9.264,-84.719,-47.87,-27.504,-23.103,-11.165,-77.845,-49.064,-34.472,-19.939,-11.882,-76.772,-43.697,-31.255,-13.517,-9.586,-74.928,-44.483,-31.034,-10.532,-3.441,-67.081,-35.879,-19.332,-3.375,4.056],[-90.569,-60.878,-46.829,-31.001,-21.739,-88.817,-64.625,-47.005,-30.77,-21.317,-88.261,-64.662,-45.111,-32.19,-17.682,-83.357,-61.836,-41.738,-29.402,-17.821,-78.429,-59.661,-40.934,-28.5,-16.119,-69.448,-53.635,-43.469,-20.124,-3.515],[-91.275,-75.421,-57.651,-41.72,-29.144,-91.671,-73.394,-55.01,-43.507,-29.257,-89.701,-71.335,-58.591,-42.074,-30.845,-87.601,-67.618,-51.81,-40.491,-30.511,-82.134,-68.855,-52.013,-35.2,-23.918,-77.043,-63.796,-43.625,-35.339,-27.445]],
"ve": [[31.408,48.905,-2398.175,-563.15,-13.182,-76.163,7.16,71.95,-181.368,73.399,-20.079,151.904,69.166,-57.308,96.439,-91.921,33.1,-171.09,29.976,-61.918,15.06,21.627,-5.187,2.219,-46.8,82.903,15.993,133.285,10.39,-12.021],[4.484,1.293,6.269,6.599,13.353,-29.519,-0.395,4.861,11.066,11.495,10.962,5.312,5.941,6.689,9.316,180.09,11.277,8.447,13.291,15.011,3.225,19.348,17.747,16.512,21.864,63.675,63.924,24.996,25.862,25.529],[-30.038,63.934,-4.883,-0.955,1.052,-8.179,-9.135,-6.178,-0.784,2.417,9.377,-8.829,-1.694,0.623,1.538,-25.766,-1.344,1.367,1.882,5.71,32.143,-97.287,5.824,8.136,8.801,52.251,36.284,19.798,19.994,16.775],[-34.092,-13.582,-10.181,-4.912,-1.774,-36.255,-14.431,-9.308,-7.445,-2.897,-21.74,-15.139,-11.651,-7.532,-2.551,-12.428,-6.371,-3.566,-1.5,-0.359,8.248,-16.639,0.005,4.435,4.292,52.9,17.898,20.138,16.527,13.195],[-48.168,-22.224,-15.001,-11.621,-7.25,-32.52,-22.375,-14.431,-11.387,-7.839,-40.283,-27.73,-14.679,-11.122,-5.941,-104.37,-24.367,-9.952,-8.04,-5.316,39.15,-9.554,-2.357,-2.008,0.26,68.912,-7.046,2.878,9.839,12.807],[-44.121,-29.675,-19.982,-14.151,-10.883,-37.834,-30.164,-18.784,-14.58,-10.639,-40.922,-25.063,-22.241,-14.068,-10.117,-15.409,-12.748,-10.762,-10.607,-8.395,-0.204,-11.423,-8.102,-4.16,-2.537,51.322,8.442,16.648,5.334,2.364]],
"kep": [[-43.06,-36.51,-47.471,-50.872,-48.662,-36.364,-25.305,-41.636,-45.612,-58.267,-34.539,-34.549,-43.04,-33.374,-37.826,-36.176,-35.968,-31.402,-27.868,-37.238,-50.432,-25.128,-28.703,-11.117,-15.157,-45.381,-26.808,-15.312,-34.777,-6.228],[-67.69,-43.697,-39.961,-35.913,-35.569,-70.091,-38.938,-36.551,-36.537,-34.732,-68.238,-40.022,-38.274,-35.355,-32.903,-70.908,-42.562,-36.933,-34.627,-32.619,-73.4,-46.322,-31.208,-31.699,-29.037,-76.334,-49.618,-41.628,-30.56,-24.771],[-82.695,-53.74,-43.768,-40.987,-37.359,-79.542,-54.154,-43.784,-39.119,-36.896,-83.107,-52.087,-43.469,-38.994,-37.742,-80.85,-57.588,-46.06,-39.045,-39.589,-81.753,-61.206,-47.07,-40.101,-40.939,-85.107,-63.962,-49.195,-40.391,-38.376],[-89.672,-61.01,-53.779,-44.847,-42.132,-90.019,-63.146,-50.246,-48.138,-42.545,-88.445,-63.288,-53.83,-45.954,-43.408,-87.427,-62.955,-55.83,-45.382,-43.204,-89.013,-68.698,-56.94,-46.652,-42.314,-88.346,-74.353,-59.354,-49.676,-43.772],[-93.723,-69.601,-61.067,-51.572,-47.195,-93.103,-72.34,-61.3,-51.277,-46.665,-93.039,-71.745,-59.998,-52.5,-45.247,-91.839,-73.447,-60.176,-52.302,-45.874,-90.792,-74.532,-63.022,-54.984,-48.094,-91.167,-81.462,-69.898,-56.28,-47.45],[-94.095,-79.345,-67.368,-57.852,-50.451,-95.653,-78.032,-65.636,-58.792,-50.593,-93.795,-77.417,-67.216,-57.936,-52.007,-94.075,-77.379,-66.137,-58.574,-52.747,-92.302,-80.511,-68.248,-58.48,-51.752,-93.059,-83.99,-69.883,-63.551,-57.298]],
"vp": [[139.253,-1244.288,-668.547,-400.878,-634.73,25.946,-174.567,-109.135,-164.82,-109.721,-65.93,-38.261,-28.262,-120.79,-99.998,-10.405,-3.1,-21.286,-16.269,-8.18,11.156,-20.092,-16.465,-21.643,-19.203,-23.537,-10.261,-9.999,0.668,-17.586],[2673.113,558.06,308.763,136.927,-1276.289,604.608,139.972,91.517,-235.928,-183.984,252.401,77.456,45.384,-51.923,-161.852,54.88,1.315,13.685,-15.605,-30.292,40.098,8.741,-26.46,-14.254,-30.555,4.169,-2.051,7.958,-19.642,-26.087],[5672.687,3043.51,1544.467,732.715,170.961,887.783,558.476,352.41,38.982,-191.255,552.926,259.066,71.68,41.691,21.296,96.788,59.63,31.196,18.856,8.241,15.84,37.714,30.235,12.845,19.128,19.743,0.436,4.897,-0.109,4.305],[6360.769,4384.129,3723.62,2202.653,990.013,1272.159,913.38,671.811,678.897,345.939,526.129,417.386,426.2,334.379,226.145,108.303,93.785,73.649,36.368,61.259,50.523,57.899,66.605,6.276,6.539,16.622,17.516,15.459,2.266,2.251],[7587.448,7026.124,5950.603,4952.547,3453.971,1438.98,1334.956,1210.923,989.786,857.24,688.657,815.605,555.79,566.501,287.92,109.12,143.261,123.206,117.01,77.365,45.11,67.405,59.525,52.213,34.118,-1.919,41.862,45.296,16.679,-11.984],[7898.897,10046.64,8397.929,6993.173,5991.34,1566.587,1982.909,1513.268,1481.572,1179.771,671.774,821.667,983.831,747.988,559.182,132.914,133.062,153.992,149.463,128.21,57.064,80.142,80.937,66.347,37.518,19.357,28.656,9.903,38.465,46.64]]
}