{
"KTrans": [[-12.751,32.519,22.756,29.014,32.775,-14.408,41.631,34.946,34.338,33.343,-16.739,55.243,39.501,49.3,31.852,45.742,134.07,107.149,107.931,101.242,272.373,312.948,253.188,183.307,169.797,708.466,679.906,605.467,482.421,412.969],[-95.98,4.798,47.622,46.073,36.178,-86.036,50.551,73.934,50.929,46.516,-94.115,43.102,73.792,52.684,43.644,-57.875,107.118,119.614,80.993,74.032,21.149,144.259,195.857,143.358,105.963,112.508,507.675,360.069,268.168,224.326],[-97.158,-33.413,62.459,87.073,64.983,-109.9,-43.228,64.085,80.132,62.961,-108.554,-32.559,66.586,93.793,68.587,-108.072,-7.591,124.799,134.278,75.579,-105.103,59.863,195.281,174.406,134.233,-117.706,156.074,373.224,328.515,227.972],[-107.571,-73.781,45.282,91.322,64.668,-107.712,-84.475,30.028,107.056,108.303,-108.796,-99.356,16.574,123.108,82.438,-104.583,-69.765,45.163,166.28,105.695,-112.028,-53.231,131.942,198.414,148.248,-131.325,-37.653,225.603,308.076,282.674],[-103.385,-124.572,-27.986,76.314,120.159,-100.292,-109.248,-47.505,84.906,124.253,-102.962,-100.447,-48.505,89.685,109.881,-103.848,-125.151,-19.815,123.489,129.147,-114.337,-112.644,11.055,233.821,243.774,-124.896,-83.383,72.638,277.873,287.558],[-104.562,-123.748,-128.344,33.926,90.575,-103.48,-114.064,-106.851,4.232,158.671,-105.407,-111.867,-86.965,48.974,154.839,-107.259,-125.901,-109.968,16.464,168.767,-100.27,-132.117,-126.504,108.066,168.356,-96.251,-140.695,-73.893,181.525,300.673]],
"ve": [[17.845,-4.389,-41.601,40.423,52.616,24.374,1576.035,-457.57,42.098,-30.119,-1.414,17.177,3.365,-32.853,-220.172,51.957,11.963,25.09,4.97,-19.556,101.41,39.387,10.27,-2.077,-14.232,189.895,9.706,37.868,13.254,-5.42],[22.22,5.627,3.128,-27.274,2.766,15.731,7.13,4.989,6.101,2.167,20.647,9.753,7,2.973,5.712,62.558,28.965,15.469,8.988,8.204,93.113,52.495,32.171,20.639,12.665,183.542,105.547,63.807,45.117,29.643],[22.329,4.649,4.771,6.084,3.85,7.995,5.985,5.346,3.253,4.829,-32.322,10.661,3.698,7.526,4.68,51.508,33.577,14.544,13.851,8.701,88.644,53.22,33.998,25.238,18.935,223.989,99.237,69.809,50.659,36.068],[-8.309,5.582,6.808,5.857,0.427,25.681,6.861,6.021,5.797,4.365,14.838,11.877,11.062,6.823,2.994,55.479,-18.648,25.071,15.633,11.008,128.702,52.829,38.688,20.601,21.761,-36.16,102.425,68.503,54.489,41.837],[6.016,22.54,7.052,3.869,5.111,-23.951,7.077,6.004,6.044,5.561,15.234,2.569,9.462,7.143,4.214,60.435,27.203,17.022,14.528,11.803,112.902,50.799,31.066,29.659,27.128,222.315,103.421,71.421,56.672,41.599],[-22.89,0.943,9.434,2.664,1.682,18.258,5.994,3.013,3.348,5.248,-5.245,4.164,3.079,6.097,6.968,31.542,32.722,19.919,17.405,13.344,132.256,53.174,28.706,25.757,20.44,206.795,110.857,63.607,56.128,40.293]],
"kep": [[-35.076,22.9,21.947,33.132,44.578,-35.888,29.961,30.981,42.679,45.669,-33.964,41.449,42.764,66.644,35.49,-10.841,92.604,105.433,125.193,140.339,78.275,196.735,226.787,201.778,222.544,163.579,327.649,411.534,416.508,448.461],[-97.591,-7.077,37.438,37.213,33.187,-90.725,32.833,61.979,40.154,44.262,-99.314,26.549,58.706,45.59,35.777,-76.179,54.481,82.94,60.618,58.731,-45.768,55.973,117.823,96.802,78.031,-32.264,192.388,174.298,148.424,143.524],[-99.174,-42.292,45.409,71.556,54.898,-108.662,-51.818,45.008,66.633,51.104,-105.287,-46.456,48.328,74.41,55.287,-105.012,-32.586,79.731,97.547,53.991,-102.789,-0.126,110.666,111.33,89.367,-106.246,21.705,170.354,174.718,133.331],[-106.516,-78.873,30.028,73.697,53.994,-106.774,-86.133,13.416,85.497,90.854,-107.211,-99.638,3.331,100.288,68.267,-102.279,-80.224,14.004,121.391,75.031,-106.545,-69.544,63.636,123.382,95.099,-108.809,-66.719,85.92,157.4,161.245],[-104.213,-121.515,-38.799,59.405,100.409,-99.358,-108.083,-53.855,62.999,103.367,-104.074,-99.899,-55.952,67.581,88.891,-102.142,-118.184,-39.558,81.991,94.94,-106.827,-106.516,-22.653,145.104,162.573,-108.217,-92.586,-2.508,134.368,162.101],[-104.369,-118.976,-123.484,19.434,73.349,-103.051,-111.401,-104.381,-8.432,132.507,-104.368,-109.131,-89.105,30.058,125.795,-104.954,-119.041,-109.31,-7.377,122.488,-101.004,-118.623,-116.393,54.965,108.074,-99.034,-118.225,-83.933,75.655,170.211]],
"vp": [[0.001,0.001,0.001,0.001,0.001,0.005,0.005,0.005,0.005,0.005,0.01,0.01,0.01,0.01,0.01,0.05,0.05,0.05,0.05,0.05,0.1,0.1,0.1,0.1,0.1,0.2,0.2,0.2,0.2,0.2],[0.001,0.001,0.001,0.001,0.001,0.005,0.005,0.005,0.005,0.005,0.01,0.01,0.01,0.01,0.01,0.05,0.05,0.05,0.05,0.05,0.1,0.1,0.1,0.1,0.1,0.2,0.2,0.2,0.2,0.2],[0.001,0.001,0.001,0.001,0.001,0.005,0.005,0.005,0.005,0.005,0.01,0.01,0.01,0.01,0.01,0.05,0.05,0.05,0.05,0.05,0.1,0.1,0.1,0.1,0.1,0.2,0.2,0.2,0.2,0.2],[0.001,0.001,0.001,0.001,0.001,0.005,0.005,0.005,0.005,0.005,0.01,0.01,0.01,0.01,0.01,0.05,0.05,0.05,0.05,0.05,0.1,0.1,0.1,0.1,0.1,0.2,0.2,0.2,0.2,0.2],[0.001,0.001,0.001,0.001,0.001,0.005,0.005,0.005,0.005,0.005,0.01,0.01,0.01,0.01,0.01,0.05,0.05,0.05,0.05,0.05,0.1,0.1,0.1,0.1,0.1,0.2,0.2,0.2,0.2,0.2],[0.001,0.001,0.001,0.001,0.001,0.005,0.005,0.005,0.005,0.005,0.01,0.01,0.01,0.01,0.01,0.05,0.05,0.05,0.05,0.05,0.1,0.1,0.1,0.1,0.1,0.2,0.2,0.2,0.2,0.2]]
}