{
"KTrans": [[-2.469,2.806,-10.84,-8.407,5.56,10.779,8.832,15.474,-1.507,-3.543,32.086,13.658,1.917,7.595,1.622,3.758,27.469,35.333,64.585,77.665,-51.491,54.39,58.405,102.068,85.723,62.085,-54.374,-38.506,-63.778,65.528],[-46.422,-10.613,-0.743,5.223,1.884,-42.126,-9.087,6.047,4.876,-0.971,-34.405,-0.903,8.906,13.001,12.558,-30.965,13.125,-3.119,24.036,29.834,-51.528,25.103,-49.346,-22.365,31.52,2.176,-138.547,10.193,-7.134,-10.477],[-64.546,-26.925,-11.146,-4.197,2.122,-57.258,-25.208,-6.845,-3.776,2.168,-55.457,-20.019,-5.631,-0.416,2.027,-34.98,23.213,-17.708,-2.078,10.042,-89.931,-22.167,-24.224,-1.453,11.183,-33.205,-87.978,5.335,-0.353,-59.502],[-65.993,-33.018,-12.468,-5.912,-4.714,-64.176,-22.142,-20.214,-6.553,-2.854,-67.59,-31.464,-14.705,-5.604,-3.46,-66.399,-26.666,-4.078,9.485,3.585,-48.724,-21.221,-16.86,-12.592,-30.27,-42.577,-22.013,-48.545,-58.85,-27.401],[-73.659,-41.934,-19.112,-8.397,-3.776,-76.604,-35.302,-21.833,-7.194,-6.759,-73.827,-42.135,-13.954,-6.955,-2.312,-73.371,-32.727,-1.92,-2.963,9.764,-71.554,-27.933,4.85,-5.983,-3.568,-85.311,-38.479,-23.506,-6.291,-10.063],[-79.206,-49.093,-22.796,-10.809,-5.127,-78.837,-43.854,-23.65,-6.838,-5.227,-74.292,-48.076,-24.902,-5.534,-1.585,-72.241,-47.905,-22.74,3.87,14.396,-54.349,-29.311,3.505,-6.887,13.788,-84.465,-32.122,-61.936,-15.03,-11.453]],
"ve": [[-28.261,-15.965,7.789,42.814,-29.885,-14.422,75.699,-46.536,-28.971,100.26,-32.171,22.222,-1.68,-35.2,-44.068,-55.885,-9.404,15.3,-31.005,-48.74,88.124,-87.805,12.531,-23.656,-30.613,296.402,79.556,157.001,10.379,-16.806],[96.651,9.195,23.045,3.53,48.506,-0.465,13.105,-1.408,-174.771,13.06,-26.611,24.021,-14.24,-50.4,-1.224,53.424,39.202,8.844,-0.124,7.684,84.139,41.411,35.788,-57.611,85.933,184.219,95.761,53.112,49.061,27.761],[-24.833,-8.578,10.061,1.503,4.546,-817.282,-27.492,0.586,-21.373,2.749,23.878,51.313,4.964,-9.705,-0.803,744.389,-5.107,9.987,-68.561,2.213,96.971,43.105,35.635,21.147,19.107,174.936,109.999,65.799,50.47,34.952],[7.138,-7.709,-4.288,-7.19,7.958,-185.709,-4.72,-16.702,-4.486,2.873,-468.552,-3.252,-6.272,-66.071,3.559,-0.934,-1.992,10.568,3.97,12.704,120.596,36.328,29.772,16.372,16.077,190.677,87.359,61.749,49.188,39.994],[-48.049,-40.026,-4.521,-4.861,-1.551,-25.902,-4.939,-8.915,5.111,32.298,13.223,-10.211,-5.382,-0.285,-7.144,61.006,82.299,16.258,10.844,7.156,96.224,43.642,45.175,25.327,19.677,181.897,91.154,67.508,45.919,40.766],[4.746,-6.864,-0.522,-4.487,-1.372,-6.834,-11.813,-4.526,0.946,0.832,38.177,7.692,-5.97,-0.42,-3.996,86.971,70.465,-8.303,4.495,5,66.145,39.976,31.318,25.271,18.032,335.717,94.686,67.207,47.496,37.482]],
"kep": [[-112.424,-112.704,-93.495,-26.933,-56.248,-108.826,-104.15,-97.17,-47.983,-39.888,-105.342,-114.255,-58.37,-67.336,-9.256,-140.031,-174.492,-242.201,-182.107,-212.809,-162.301,-190.209,-323,-353.177,-337.733,-92.393,-207.204,-386.833,-486.433,-542.383],[-96.815,-92.961,-120.017,-83.083,-48.638,-97.034,-91.996,-116.634,-106.819,-19.303,-87.863,-85.47,-111.183,-111.607,-66.078,-97.409,-81.81,-168.385,-157.531,-114.131,-89.658,-84.245,-182.804,-244.015,-181.753,-70.683,-112.239,-70.583,-182.584,-277.569],[-97.513,-70.928,-68.189,-92.905,-110.764,-92.355,-71.985,-66.485,-81.24,-113.169,-89.903,-64.363,-59.397,-86.951,-120.77,-85.683,-41.439,-95.746,-113.309,-107.429,-100.981,-68.161,-90.068,-93.969,-126.699,-78.615,-77.344,-52.871,-51.917,-137.188],[-91.252,-66.264,-40.085,-41.7,-55.511,-91.738,-55.205,-56.464,-42.023,-50.812,-93.028,-66.316,-45.294,-43.025,-61.441,-95.02,-69.78,-48.305,-30.929,-58.602,-86.602,-65.591,-59.256,-63.347,-105.111,-83.433,-62.458,-70.877,-76.706,-62.505],[-93.601,-64.592,-41.793,-29.265,-23.426,-96.239,-60.341,-48.919,-31.42,-34.938,-93.718,-70.648,-38.836,-28.581,-30.29,-95.537,-69.5,-38.384,-39.814,-13.667,-94.66,-68.287,-44.01,-51.411,-51.375,-93.402,-61.329,-54.942,-41.077,-47.422],[-95.686,-73.569,-37.686,-24.524,-18.209,-95.52,-67.077,-46.168,-19.936,-22.473,-94.82,-73.945,-44.705,-25.572,-17.017,-93.671,-75.946,-56.083,-22.62,-8.316,-90.019,-67.922,-35.292,-43.905,-24.535,-92.961,-71.266,-69.958,-48.235,-41.71]],
"vp": [[314.799,-418.047,743.982,855.565,673.546,5.584,28.791,71.214,65.377,-1.838,1.416,31.241,-37.982,-21.128,35.493,-0.526,5.987,-9.026,-11.339,-3.041,-10.319,-15.247,-25.86,-5.256,-23.733,-45.769,-27.683,-15.95,-13.976,-8.91],[1899.695,1152.501,-238.595,-461.339,407.277,493.533,448.022,-29.494,49.383,-291.396,323.514,38.034,16.304,-60.575,-40.363,51.013,-16.938,-29.277,-29.296,1.818,12.844,0.972,12.248,-26.479,-14.125,-16.76,-11.783,-37.916,-11.602,-5.881],[4512.89,4068.516,1183.862,1337.095,-360.576,1040.351,838.375,378.011,177.743,-107.132,370.662,277.305,211.408,161.955,47.37,77.537,48.806,49.555,24.111,-24.25,17.977,7.731,10.632,-13.191,-35.654,8.172,8.79,-52.225,-36.336,-15.807],[6178.201,4462.215,5835.873,1902.818,1711.091,1182.282,1256.733,537.555,488.875,143.915,479.733,511.445,386.666,276.148,118.912,85.881,113.02,79.617,6.89,21.341,13.522,28.68,15.299,-5.924,9.708,-20.74,-20.045,-11.321,-33.768,-9.364],[5533.702,6693.634,6359.252,4609.098,3845.664,1222.194,1759.05,1275.79,947.02,347.642,676.376,657.682,603.317,209.493,198.055,95.549,154.638,159.566,97.338,10.697,52.583,52.198,28.848,5.428,35.722,-2.772,-13.788,-2.92,-33.049,-24.582],[5981.934,9291.178,7797.79,5401.972,3998.214,1501.623,1760.375,1361.066,1161.486,695.913,622.612,884.205,744.049,709.458,417.29,112.35,164.433,157.752,93.501,68.215,43.797,57.858,30.378,34.469,6.067,15.191,-0.026,23.297,-11.652,-26.52]]
}