{
"KTrans": [[4.279,1.113,4.475,3.196,4.257,0.544,3.433,3.525,5.219,3.378,2.424,4.542,4.638,2.931,3.367,9.389,5.925,5.536,5.384,5.454,3.907,9.385,8.964,8.022,10.274,15.918,14.396,16.494,14.132,11.909],[-18.517,-3.861,0.494,0.92,2.008,-10.889,-1.572,1.063,1.576,2.394,-21.273,-2.585,-0.284,3.042,2.421,-23.182,-1.406,2.095,2.147,3.567,-23.475,0.355,1.41,3.871,4.025,-25.231,2.506,4.388,7.139,6.211],[-55.641,-11.983,-4.963,-1.679,-0.176,-47.88,-11.084,-5.612,-2.299,-0.071,-47.431,-11.159,-4.297,-1.179,0.71,-44.331,-9.724,-4.233,0.199,0.903,-51.144,-13.178,-4.64,0.092,1.197,-49.741,-13.437,-3.451,0.921,2.383],[-73.361,-24.842,-10.759,-5.459,-2.136,-71.76,-18.929,-11.166,-5.558,-3.924,-75.413,-21.779,-10.745,-4.596,-2.772,-73.267,-26.652,-9.219,-5.582,-1.428,-66.874,-28.369,-10.419,-3.918,-0.729,-74.502,-28.909,-11.667,-3.392,-0.76],[-84.895,-33.949,-16.088,-11.413,-4.64,-85.979,-33.263,-18.198,-8.971,-5.259,-81.576,-31.046,-17.406,-8.656,-5.452,-82.328,-36.02,-17.22,-10.061,-5.371,-83.639,-38.544,-17.834,-10.178,-5.536,-81.468,-39.036,-21.639,-9.783,-4.051],[-91.484,-39.7,-24.052,-15.457,-9.063,-91.516,-42.112,-25.4,-15.568,-8.462,-92.04,-42.269,-23.193,-14.335,-9.742,-90.268,-49.938,-24.956,-13.766,-10.408,-87.431,-50.924,-25.575,-16.463,-9.049,-88.559,-51.337,-28.64,-15.836,-9.554]],
"ve": [[2.159,2.327,4.37,7.877,7.181,-0.4,1.58,4.432,6.326,10.607,0.796,2.855,4.601,6.897,10.609,6.615,4.323,5.494,8.74,11.09,6.991,4.369,4.578,6.203,6.332,15.822,9.339,5.489,4.876,3.922],[-8.229,-1.189,0.281,1.027,1.075,-5.267,-0.501,0.77,0.451,0.957,-9.683,-1.159,0.362,0.622,1.426,-9.107,0.94,1.09,1.416,2.049,-3.749,2.854,2.519,2.429,2.594,3.011,6.192,4.921,4.215,3.994],[-29.122,-4.471,-1.984,-0.448,-0.049,-24.842,-4.305,-2.083,-0.561,0.057,-23.892,-3.344,-1.447,-0.182,0.225,-16.339,-2.302,-0.944,0.734,0.758,-17.662,-1.528,0.226,1.455,1.437,-10.706,1.536,2.947,2.901,3.019],[-44.717,-10.417,-3.746,-1.984,-1.024,-42.094,-7.426,-4.112,-2.057,-1.351,-45.803,-8.667,-4.05,-1.136,-1.169,-41.313,-9.497,-2.013,-1.312,-0.224,-32.094,-7.708,-1.978,0.138,0.907,-30.827,-5.361,-0.331,1.468,1.911],[-57.347,-15.212,-6.443,-4.256,-1.32,-65.418,-14.907,-6.34,-3.091,-1.685,-52.7,-13.078,-6.6,-2.947,-2.156,-50.262,-14.4,-5.446,-3.063,-1.439,-46.321,-14.92,-4.673,-2.348,-0.767,-37.447,-11.194,-3.873,-0.232,0.964],[-65.229,-18.269,-8.786,-5.837,-3.259,-65.294,-18.577,-10.181,-5.474,-2.978,-67.215,-20.211,-9.218,-5.174,-3.431,-56.387,-22.124,-8.579,-4.133,-2.953,-50.266,-21.528,-8.142,-4.934,-2.045,-46.512,-17.567,-6.653,-2.685,-1.189]],
"kep": [[-6.007,-7.893,-5.839,-8.768,-7.258,-7.022,-5.209,-6.805,-5.991,-10.591,-6.586,-5.396,-6.32,-8.8,-10.791,-5.397,-5.552,-6.267,-8.017,-7.958,-10.338,-2.459,-2.637,-3.677,0.364,-7.795,-2.577,3.231,2.555,1.873],[-20.629,-10.155,-7.304,-7.501,-6.539,-16.235,-8.783,-7.217,-6.4,-6.071,-22.478,-9.139,-8.101,-5.197,-6.485,-24.711,-9.863,-6.616,-6.765,-6.018,-27.932,-9.938,-8.482,-6.146,-6.086,-34.142,-10.982,-7.94,-4.831,-5.418],[-47.477,-15.435,-10.463,-8.63,-7.555,-40.59,-14.699,-10.935,-9.13,-7.577,-41.661,-15.579,-10.295,-8.415,-7.018,-42.543,-15.08,-10.659,-7.984,-7.329,-48.385,-19.087,-12.054,-8.732,-7.682,-49.884,-21.598,-13.297,-9.253,-8.028],[-62.347,-23.501,-14.441,-10.81,-8.512,-61.374,-20.083,-14.491,-10.804,-9.882,-65.147,-22.016,-14.237,-10.767,-8.962,-63.158,-26.056,-14.39,-11.555,-8.592,-60.271,-29.073,-15.696,-11.257,-8.969,-68.583,-31.008,-18.166,-11.945,-9.906],[-73.529,-30.081,-17.401,-14.447,-10.585,-76.703,-29.246,-19.582,-13.155,-10.862,-72.412,-28.037,-18.675,-12.993,-10.601,-73.193,-32.681,-19.329,-14.241,-11.162,-74.262,-34.728,-20.568,-15.013,-11.965,-75.118,-37.753,-24.97,-16.406,-12.1],[-83.703,-34.378,-23.481,-17.155,-13.056,-83.612,-37.247,-23.558,-17.5,-12.766,-84.9,-36.091,-22.277,-16.602,-13.561,-83.785,-42.411,-24.469,-16.905,-14.589,-79.645,-44.466,-25.629,-18.843,-14.133,-82.278,-47.02,-29.755,-20.088,-15.353]],
"vp": [[-152.838,50.269,-184.69,-99.786,-99.953,27.357,8.058,-16.788,-43.448,-22.858,-0.701,-14.363,-21.618,-3.932,1.54,-5.131,-0.089,-0.056,-1.414,-1.254,1.982,0.002,-0.069,0.766,-2.202,0.042,0.198,-0.922,-0.054,1.121],[881.103,249.4,4.403,-53.655,-111.855,108.352,17.158,-25.265,-6.843,-15.516,109.481,24.002,-0.803,-17.177,-19.38,26.844,2.747,1.024,1.252,-4.194,10.944,1.156,0.755,-0.241,-1.038,6.051,0.507,0.078,-1.171,-0.481],[3241.348,791.407,442.882,137.365,20.656,538.763,154.844,125.027,41.042,16.673,264.042,73.038,35.914,12.828,-10.383,42.377,14.138,10.805,0.536,-1.066,26.599,10.463,6.103,1.415,1.016,13.098,5.204,2.705,1.157,0.38],[4788.14,2231.315,1025.539,658.2,274.083,954.798,277.454,246.156,124.832,123.931,502.754,179.494,114.685,35.745,44.205,97.296,46.721,17.353,14.03,5.295,41.138,23.462,12.106,4.982,1.407,24.431,12.628,7.007,3.393,1.754],[6217.124,3166.49,1947.465,1666.393,445.308,1278.313,599.363,398.5,212.95,132.63,611.595,271.485,199.726,109.446,88.274,115.352,67.272,39.9,27.604,18.186,59.033,38.123,20.544,14.687,8.781,27.212,18.54,12.992,7.193,3.759],[7192.043,3795.206,2697.518,2246.447,1463.841,1430.584,780.208,619.285,437.08,252.555,736.384,424.71,275.556,202.964,158.995,139.929,100.65,57.71,36.467,32.521,63.334,52.383,31.224,25.377,14.869,33.547,25.534,17.238,11.742,8.99]]
}