{
"KTrans": [[2.223,4.195,2.818,1.524,1.608,11.515,6.673,5.969,5.066,6.417,28.664,14.591,11.191,11.131,10.349,158.204,94.055,71.45,66.606,61.272,393.158,222.982,174.366,157.031,141.319,1098.418,586.218,455.078,389.154,359.504],[-4.376,0.744,-0.001,0.762,0.984,7.112,5.264,5.401,3.33,2.369,14.314,11.732,8.24,7.388,6.436,117.264,66.285,44.246,35.549,30.334,289.74,143.293,96.298,77.669,66.025,797.368,354.586,233.781,180.188,153.065],[-14.096,-0.879,-0.274,1.203,0.414,-11.997,3.344,3.177,2.387,2.762,-0.985,10.502,8.695,6.198,4.379,83.292,61.477,39.951,30.938,24.651,225.388,139.802,86.826,66.74,54.557,621.355,327.438,208.802,153.638,122.278],[-31.653,1.32,0.58,0.543,0.023,-21.387,4.068,2.198,3.438,3.134,-17.957,8.506,7.043,5.661,4.968,51.802,56.734,38.7,29.584,24.367,174.535,125.458,83.619,64.142,50.991,508.897,310.371,197.433,142.665,114.019],[-39.33,-2.4,-1.006,-0.134,0.363,-39.236,1.292,3.674,1.351,2.633,-38.428,8.443,8.028,6.585,4.48,27.557,53.861,37.234,29.347,23.973,129.49,117.244,80.18,62.315,49.742,425.1,305.17,194.879,137.915,108.181],[-50.921,-3.056,0.944,-0.507,0.554,-44.291,-0.462,3.725,3.607,2.952,-45.643,5.36,5.89,6.214,4.234,9.238,49.147,37.009,27.832,22.141,101.388,116.055,83.095,60.121,48.693,330.311,293.887,189.434,133.567,104.657]],
"ve": [[2.386,0.194,-0.475,3.405,2.578,5.256,2.31,0.138,0.8,-4.041,9.065,3.39,0.234,-2.419,-3.861,46.539,13.897,-0.069,-10.269,-18.198,93.244,33.482,8.175,-7.721,-18.148,193.172,79.063,35.389,10.038,-6.314],[3.264,0.912,0.47,0.19,0.312,5.683,1.865,2.011,0.975,1.043,11.466,4.27,2.89,2.117,0.645,49.556,23.802,14.81,9.34,5.405,99.566,48.221,29.407,19.234,12.601,199.924,97.462,61.092,41.662,28.867],[2.653,0.75,0.217,0.474,0.218,6.56,2.93,1.605,1.19,0.844,11.829,4.99,3.312,2.492,1.449,51.56,24.484,16.074,11.688,8.502,101.74,49.25,32.205,22.989,17.457,200.867,98.396,64.235,46.854,35.376],[0.305,0.838,0.622,0.158,0.077,6.415,2.39,1.743,1.04,1.057,12.5,5.614,3.456,2.493,1.921,57.543,24.535,16.146,11.783,9.566,107.531,49.952,32.215,24.044,18.594,196.715,99.659,65.636,48.645,37.645],[4.127,0.901,0.374,0.778,0.243,7.348,2.59,1.821,1.267,0.953,9.018,5.534,3.474,2.577,2.09,51.708,24.683,16.899,12.154,9.597,100.717,50.416,32.866,24.483,19.356,202.12,99.914,65.735,49.074,38.719],[3.866,0.763,0.845,0.168,0.407,8.356,3.326,2,1.237,1.045,11.025,5.998,3.847,2.854,1.856,50.12,24.974,16.437,12.229,9.97,129.47,50.885,33.331,24.757,19.531,202.839,99.708,66.065,49.165,39.362]],
"kep": [[1.188,5.251,4.958,1.328,3.222,6.747,6.034,8.02,6.402,13.188,19.058,11.987,12.698,15.999,17.121,76.619,71.295,72.306,86.808,98.618,155.823,142.505,154.182,179.381,195.926,309.089,283.479,310.326,345.071,391.002],[-7.033,-0.084,-0.365,0.687,0.787,1.616,3.414,3.463,2.452,1.444,2.67,7.316,5.318,5.271,5.869,45.51,34.418,25.756,24.04,23.747,95.577,64.305,51.767,49.089,47.518,199.759,130.4,107.249,97.837,96.453],[-16.313,-1.506,-0.445,0.795,0.224,-17.365,0.472,1.59,1.239,1.93,-11.09,5.29,5.266,3.661,2.92,21.157,29.878,20.641,17.268,14.937,61.516,60.873,41.371,35.623,31.616,140.04,115.562,88.1,72.767,64.213],[-33.885,0.549,0.007,0.413,-0.035,-25.97,1.7,0.48,2.389,2.096,-27.142,2.794,3.532,3.108,3.009,-0.206,25.951,19.444,15.945,13.519,36.775,50.425,38.954,32.362,27.327,101.477,105.7,79.594,63.287,55.508],[-41.501,-3.082,-1.313,-0.869,0.145,-43.481,-1.139,1.86,0.103,1.688,-44.828,2.815,4.446,3.942,2.357,-15.059,23.534,17.411,15.353,13.138,14.394,44.52,35.65,30.418,25.487,74.476,102.792,77.984,59.632,50.083],[-52.15,-3.752,0.121,-0.633,0.156,-47.74,-3.621,1.681,2.379,1.911,-51.191,-0.606,1.994,3.314,2.349,-27.643,19.463,17.723,13.945,11.079,-0.469,43.221,37.352,28.349,24.413,42.466,97.332,74.368,56.593,46.868]],
"vp": [[0.001,0.001,0.001,0.001,0.001,0.005,0.005,0.005,0.005,0.005,0.01,0.01,0.01,0.01,0.01,0.05,0.05,0.05,0.05,0.05,0.1,0.1,0.1,0.1,0.1,0.2,0.2,0.2,0.2,0.2],[0.001,0.001,0.001,0.001,0.001,0.005,0.005,0.005,0.005,0.005,0.01,0.01,0.01,0.01,0.01,0.05,0.05,0.05,0.05,0.05,0.1,0.1,0.1,0.1,0.1,0.2,0.2,0.2,0.2,0.2],[0.001,0.001,0.001,0.001,0.001,0.005,0.005,0.005,0.005,0.005,0.01,0.01,0.01,0.01,0.01,0.05,0.05,0.05,0.05,0.05,0.1,0.1,0.1,0.1,0.1,0.2,0.2,0.2,0.2,0.2],[0.001,0.001,0.001,0.001,0.001,0.005,0.005,0.005,0.005,0.005,0.01,0.01,0.01,0.01,0.01,0.05,0.05,0.05,0.05,0.05,0.1,0.1,0.1,0.1,0.1,0.2,0.2,0.2,0.2,0.2],[0.001,0.001,0.001,0.001,0.001,0.005,0.005,0.005,0.005,0.005,0.01,0.01,0.01,0.01,0.01,0.05,0.05,0.05,0.05,0.05,0.1,0.1,0.1,0.1,0.1,0.2,0.2,0.2,0.2,0.2],[0.001,0.001,0.001,0.001,0.001,0.005,0.005,0.005,0.005,0.005,0.01,0.01,0.01,0.01,0.01,0.05,0.05,0.05,0.05,0.05,0.1,0.1,0.1,0.1,0.1,0.2,0.2,0.2,0.2,0.2]]
}