{
"KTrans": [[3.967,17.343,-0.856,-0.259,-1.914,7.119,-11.319,7.503,7.219,-12.42,21.026,19.098,0.788,11.962,18.594,28.296,55.132,63.519,78.894,81.558,-65.046,7.975,121.266,102.221,111.108,53.993,-123.411,9.413,76.089,-12.993],[-40.149,-8.875,-1.609,5.697,4.543,-36.029,-11.556,2.131,11.457,4.089,-39.308,-7.608,3.472,9.129,11.786,-39.021,-8.787,13.591,28.646,30.024,15.71,33.157,-26.632,31.148,47.75,65.98,-94.093,2.225,-93.92,23.884],[-61.513,-25.214,-16.839,-6.918,-0.037,-49.531,-29.08,-15.947,-7.583,2.6,-54.357,-21.883,-8.771,-4.515,5.524,-50.92,-10.032,7.767,2.255,5.824,-85.817,-20.107,-43.429,2.014,-14.317,-11.416,-63.187,-22.429,-3.478,-53.708],[-66.773,-36.428,-19.388,-9.44,-8.341,-66.358,-31.298,-16.536,-7.577,-6.344,-68.02,-32.278,-10.669,-4.921,-5.347,-53.055,-19.232,4.186,3.757,7.45,-47.397,-17.78,-5.081,-12.026,-6.122,-48.082,16.43,-26.726,-0.002,-59.877],[-74.059,-39.901,-15.643,-10.541,-6.155,-74.174,-37.365,-16.944,-6.864,-1.35,-71.765,-29.393,-20.122,-6.854,-5.646,-64.682,-30.154,-2.109,6.953,21.651,-76.202,-41.478,20.786,-0.767,-12.226,-77.482,-33.926,-5.447,-18.7,-12.425],[-75.899,-51.337,-20.496,-12.097,-11.37,-74.095,-37.188,-20.785,-10.921,-1.053,-80.75,-45.946,-17.052,-9.079,-1.655,-65.505,-32.385,-16.753,2.641,8.277,-69.908,-27.413,-9.829,9.482,17.92,-70.407,-67.401,-79.716,-13.954,11.922]],
"ve": [[-497.422,-2.017,22.634,-45.95,-60.006,72.444,-26.295,-35.142,-386.468,-233.744,10.291,24.579,-34.504,55.288,-929.656,40.55,22.992,-70.387,-56.028,6.204,66.927,178.247,0.299,-32.884,-77.09,-64.64,82.583,29.596,-14.054,-22.854],[-18.049,30.207,6.725,-3.984,-21.746,27.443,-68.975,28.97,7.167,79.245,12.212,23.364,9.637,-56.541,-54.529,-14.713,-28.906,15.784,16.261,-14.131,108.904,46.744,33.499,7.591,4.407,147.969,90.282,71.18,42.154,30.076],[15.371,-31.045,11.32,-27.248,19.288,784.862,-4.637,8.501,2.606,-52.817,-35.41,-4.186,4.724,-2.142,2.298,90.657,29.366,10.875,9.505,4.72,60.072,64.706,43.515,21.389,14.529,175.74,279.858,67.861,40.872,37.687],[-15.28,7.409,-13.669,-26.286,-17.723,-37.097,-9.848,4.459,-6.233,-8.592,-31.643,-4.021,-27.382,-11.972,6.709,31.568,27.866,16.634,21.222,-30.495,89.411,62.425,28.512,22.344,15.127,188.075,81.584,58.596,47.065,41.968],[-24.627,0.288,-8.998,-7.348,-1.516,23.252,-2.667,4.705,-4.208,-3.808,-8.416,-1.397,-5.01,1.552,-3.065,8.769,2.093,9.706,-3.431,7.774,82.571,40.401,29.783,23.107,19.251,211.956,99.231,61.958,47.692,39.304],[-20.282,-12.148,-9.814,-1.866,-4.06,-59.307,14.1,-1.605,-2.349,-0.874,-2.004,-2.711,-2.442,-3.486,1.241,8.087,19.199,15.206,8.089,7.179,93.002,48.974,31.448,27.916,21.067,178.253,91.983,62.85,47.909,38.444]],
"kep": [[-109.761,-89.229,-42.634,-49.879,-55.064,-110.627,-61.531,-62.987,-67.803,-17.473,-126.111,-100.021,-62.31,-64.401,-51.878,-144.152,-162.795,-184.85,-189.645,-182.877,-177.682,-271.066,-239.93,-317.973,-376.146,-107.921,-274.325,-379.092,-459.501,-671.731],[-93.757,-86.702,-127.718,-108.237,-66.028,-89.23,-96.07,-118.907,-99.412,-49.403,-95.854,-94.288,-110.93,-115.513,-79.015,-96.819,-106.98,-142.854,-145.601,-137.373,-80.61,-79.118,-189.46,-163.961,-167.648,-58.143,-101.629,-73.633,-230.005,-232.658],[-93.835,-67.147,-75.404,-90.406,-124.883,-85.8,-75.933,-81.874,-95.879,-115.613,-89.937,-67.243,-70.811,-97.513,-124.793,-91.016,-64.986,-59.75,-91.719,-139.858,-99.7,-76.572,-109.756,-85.886,-156.836,-76.878,-83.115,-63.178,-58.098,-144.187],[-90.615,-64.417,-49.242,-46.048,-66.425,-92.262,-62.392,-50.233,-39.492,-58.982,-93.604,-67.093,-43.285,-38.69,-64.962,-88.419,-64.692,-40.886,-45.178,-44.77,-86.476,-61.019,-49.687,-64.093,-79.094,-82.024,-51.505,-65.685,-36.561,-103.901],[-93.2,-65.416,-34.973,-28.57,-26.301,-94.331,-62.247,-40.047,-22.462,-17.811,-93.097,-59.289,-45.719,-28.349,-30.256,-92.03,-65.442,-34.796,-26.454,-1.168,-95.067,-72.848,-29.476,-45.016,-60.331,-92.46,-68.129,-47.596,-52.868,-54.264],[-93.561,-72.923,-40.571,-26.061,-27.715,-93.162,-62.526,-41.307,-23.918,-11.985,-96.44,-71.41,-35.624,-26.139,-16.872,-89.872,-67.369,-53.521,-23.353,-16.428,-94.328,-68.524,-51.619,-29.337,-17.568,-91.191,-81.828,-82.758,-40.151,-25.759]],
"vp": [[-94.948,-333.259,914.054,682.738,-436.469,-0.876,-85.625,-59.835,-30.854,129.798,-8.878,45.253,53.195,108.065,109.369,-6.325,5.716,27.435,-1.573,1.545,-10.086,-13.91,-14.725,-10.782,-15.542,-21.753,-1.795,-12.639,-16.395,15.693],[2647.636,1071.573,-101.45,521.615,-400.846,501.352,118.871,208.279,-187.393,54.112,280.625,153.558,-43.192,76.396,-58.137,49.492,-0.248,-35.535,-17.43,-2.781,-7.332,-13.041,-9.89,-11.557,-11.799,-16.067,-25.422,-7.449,8.87,-12.853],[3941.254,3868.028,1851.584,1520.544,-140.667,916.561,525.231,390.992,267.633,1.478,442.597,399.472,179.166,65.245,-84.22,71.525,24.437,49.284,-6.01,-13.75,35.567,13.675,25.215,-11.885,31.359,-1.551,-3.088,-13.087,-18.982,-4.173],[6419.815,5478.389,3879.799,1984.891,1788.531,1032.429,1320.194,747.11,490.129,230.058,430.989,564.811,376.786,295.266,106.723,92.441,129.231,45.015,-4.56,23.623,22.587,29.186,0.259,9.102,17.933,-6.091,-0.881,-3.616,-27.77,-1.677],[6190.627,6485.52,6154.763,3929.843,2983.096,1429.5,1468.709,844.19,787.332,262.338,592.912,862.886,505.544,289.206,203.747,103.938,148.977,110.729,83.21,66.539,23.533,49.273,16.842,8.647,41.844,-0.229,17.744,-20.49,-9.249,-22.189],[7178.972,8715.03,6445.938,4987.201,2940.592,1313.315,1987.702,1619.444,733.182,868.868,660.684,833.35,710.572,532.87,274.939,108.856,165.189,176.288,84.715,93.863,56.624,82.23,64.663,31.622,17.863,11.071,1.151,-4.853,-2.487,-19.917]]
}