{
"KTrans": [[-28.251,26.496,23.659,23.077,23.912,-28.35,13.414,34.715,24.157,18.934,-2.561,30.448,30.729,38.712,26.848,65.423,129.007,115.681,102.894,70.219,177.262,279.838,223.14,210.419,183.525,672.374,595.77,517.427,488.602,380.053],[-79.563,7.4,50.028,30.725,19.694,-86.817,14.801,61.101,35.702,35.412,-73.962,25.917,52.009,46.513,34.893,-43.657,76.029,84.341,62.134,70.049,-32.278,116.604,138.449,137.721,107.468,45.029,323.991,340.66,258.246,205.387],[-99.969,-34.402,41.99,41.652,42.708,-98.929,-35.895,47.439,61.724,52.84,-101.261,-63.203,36.375,61.776,50.74,-103.89,-19.493,81.982,112.059,86.919,-83.625,1.347,179.114,138.61,108.875,-31.29,89.031,298.271,265.939,190.793],[-101.934,-79.267,0.704,93.916,78.191,-108.093,-77.121,9.597,82.453,63.31,-98.543,-71.737,-0.796,86.654,71.322,-87.714,-69.708,33.876,114.524,114.859,-98.719,-42.888,93.084,170.456,135.286,-93.855,-17.604,199.081,254.033,245.86],[-101.602,-93.295,-83.705,51.143,72.637,-98.321,-110.7,-62.768,48.379,102.229,-102.884,-90.045,-53.324,63.074,82.377,-94.334,-88.153,-7.528,82.764,152.528,-96.199,-87.108,-3.757,131.741,168.689,-112.576,-80.017,1.341,249.972,230.408],[-100.695,-115.362,-76.681,-2.812,89.661,-102.384,-108.817,-81.974,-25.744,115.249,-101.239,-100.379,-79.866,3.639,90.839,-102.136,-100.427,-100.619,5.521,90.671,-100.494,-112.06,-41.321,50.414,166.9,-95.743,-127.811,-36.868,122.079,284.179]],
"ve": [[-5.131,-17.429,164.249,-54.115,-117.562,20.868,18.692,23.979,34.319,-1035.454,53.219,23.492,-21.316,27.085,-84.641,87.413,35.127,19.778,-518.872,19.2,99.598,46.398,13.218,-2.234,-7.498,198.693,55.237,40.862,15.209,-2.582],[18.505,0.145,9.695,3.781,4.575,9.312,8.166,8.312,5.33,5.451,20.517,14.48,7.377,6.206,4.081,57.478,26.43,15.709,9.611,6.837,100.666,52.585,31.539,23.383,13.707,201.108,100.561,64.585,44.587,28.446],[58.064,82.868,2.111,2.746,3.498,-63.345,7.096,8.213,4.536,3.573,15.35,12.261,6.613,5.674,4.114,46.981,28.598,56.624,14.955,11.357,117.525,53.206,38.149,25.6,19.701,198.66,102.027,66.221,48.646,36.765],[2.175,0.839,5.032,2.274,3.804,47.547,5.288,5.395,-8.504,3.608,131.87,6.596,3.228,5.457,3.231,59.114,28.105,20.273,15.637,11.576,89.167,52.151,39.085,27.422,19.176,206.803,100.975,67.022,52.164,41.989],[18.732,0.788,5.337,3.588,2.473,-46.581,12.095,7.017,3.5,2.651,14.153,-28.409,294.375,7.155,4.075,51.973,25.812,22.785,16.711,15.836,63.843,950.101,31.022,25.907,22.828,192.677,94.019,67.128,52.02,41.026],[2.516,-159.178,1.936,1.555,2.091,14.136,-20.439,9.176,5.459,5.73,9.496,13.794,2.211,10.492,5.641,85.405,10.55,18.512,15.056,10.278,117.596,55.715,34.195,39.914,21.353,154.622,106.215,71.747,42.71,41.65]],
"kep": [[-49.924,12.314,22.585,21.774,27.562,-49.634,-4.349,39.8,25.961,26.065,-28.511,12.665,27.775,42.582,30.403,-2.476,83.552,119.382,126.61,104.005,36.298,170.908,188.276,230.197,234.387,152.837,272.715,340.358,415.78,398.706],[-87.424,-2.786,36.551,25.717,15.579,-91.419,0.406,47.655,30.272,30.146,-80.977,6.301,42.085,37.825,30.532,-68.241,28.497,55.144,44.578,57.103,-66.418,37.855,77.508,90.505,79.019,-54.183,109.587,163.097,144.661,133.58],[-99.902,-45.252,28.681,32.523,34.177,-98.962,-43.711,32.432,49.606,43.453,-102.448,-71.061,22.179,47.67,40.607,-103.967,-39.391,48.337,78.761,63.86,-93.246,-36.229,94.176,84.162,69.054,-78.029,-8.987,129.8,138.403,106.967],[-101.877,-80.683,-11.192,80.125,65.378,-107.732,-80.942,-1.59,62.78,50.922,-99.119,-74.545,-11.917,68.486,57.088,-92.286,-77.392,4.805,77.747,85.989,-99.899,-62.363,34.498,103.364,89.681,-97.685,-60.982,74.937,127.502,137.11],[-101.151,-93.46,-85.416,37.499,59.581,-98.322,-109.623,-67.178,32.588,86.364,-102.616,-91.855,-60.459,45.292,64.757,-96.343,-88.87,-28.524,49.483,110.789,-98.102,-92.834,-30.835,74.717,109.154,-103.87,-87.31,-40.079,120.403,124.45],[-101.274,-111.065,-80.004,-14.384,73.025,-101.85,-106.822,-84.364,-32.295,93.067,-101.289,-99.745,-81.494,-11.425,70.464,-101.738,-99.633,-99.947,-14.459,60.556,-100.719,-106.381,-57.79,11.385,109.661,-98.508,-111.943,-60.026,40.731,160.057]],
"vp": [[0.001,0.001,0.001,0.001,0.001,0.005,0.005,0.005,0.005,0.005,0.01,0.01,0.01,0.01,0.01,0.05,0.05,0.05,0.05,0.05,0.1,0.1,0.1,0.1,0.1,0.2,0.2,0.2,0.2,0.2],[0.001,0.001,0.001,0.001,0.001,0.005,0.005,0.005,0.005,0.005,0.01,0.01,0.01,0.01,0.01,0.05,0.05,0.05,0.05,0.05,0.1,0.1,0.1,0.1,0.1,0.2,0.2,0.2,0.2,0.2],[0.001,0.001,0.001,0.001,0.001,0.005,0.005,0.005,0.005,0.005,0.01,0.01,0.01,0.01,0.01,0.05,0.05,0.05,0.05,0.05,0.1,0.1,0.1,0.1,0.1,0.2,0.2,0.2,0.2,0.2],[0.001,0.001,0.001,0.001,0.001,0.005,0.005,0.005,0.005,0.005,0.01,0.01,0.01,0.01,0.01,0.05,0.05,0.05,0.05,0.05,0.1,0.1,0.1,0.1,0.1,0.2,0.2,0.2,0.2,0.2],[0.001,0.001,0.001,0.001,0.001,0.005,0.005,0.005,0.005,0.005,0.01,0.01,0.01,0.01,0.01,0.05,0.05,0.05,0.05,0.05,0.1,0.1,0.1,0.1,0.1,0.2,0.2,0.2,0.2,0.2],[0.001,0.001,0.001,0.001,0.001,0.005,0.005,0.005,0.005,0.005,0.01,0.01,0.01,0.01,0.01,0.05,0.05,0.05,0.05,0.05,0.1,0.1,0.1,0.1,0.1,0.2,0.2,0.2,0.2,0.2]]
}