{
"KTrans": [[3.242,0.746,1.165,0.728,1.159,-1.397,1.938,1.551,1.453,1.478,3.684,2.574,1.676,2.706,1.01,14.981,8.743,8.207,7.917,5.095,41.668,20.533,19.622,15.525,10.699,-93.982,65.096,40.76,33.532,37.328],[-7.549,-2.08,0.215,0.193,0.49,-10.07,-1.336,-0.146,0.231,0.951,-15.831,1.025,-0.444,0.837,0.43,0.016,-4.387,2.804,3.204,2.44,-2.391,12.918,9.39,4.52,4.051,15.714,38.187,8.305,24.909,7.965],[-21.798,-5.981,-1.462,-0.257,0.101,-28.601,-4.908,-1.88,-0.733,0.398,-28.266,-6.043,-1.976,-1.113,0.168,-35.774,-5.193,2.688,0.232,-1.739,-28.628,-1.883,1.808,0.989,-0.571,-37.369,-4.542,5.779,7.893,0.753],[-62.442,-11.145,-3.141,-2.785,-1.348,-64.39,-5.029,-4.96,-2.25,-0.898,-58.871,-9.924,-4.874,-1.714,-1.649,-58.188,-0.49,-7.834,-0.302,-0.116,-53.21,3.448,2.96,-1.437,0.041,-45.172,7.909,21.862,11.68,8.528],[-77.622,-7.065,-6.618,-4.673,-2.644,-75.285,-11.774,-8.87,-2.818,-2.808,-78.617,-6.142,-5.875,-3.642,-2.328,-68.114,-4.175,-6.3,-3.329,-2.588,-73.885,-20.456,-4.978,-0.968,-1.87,-66.676,-23.685,3.421,-2.748,8.49],[-83.893,-16.549,-8.895,-5.361,-3.424,-86.91,-12.733,-10.672,-5.158,-4.108,-85.982,-13.003,-9.368,-6.488,-3.132,-76.965,-29.312,-4.008,-3.107,-0.961,-74.685,-34.968,-1.058,-5.304,-1.128,-91.078,-23.246,-11.026,2.613,-0.886]],
"ve": [[1.176,0.838,0.484,1.998,2.463,-0.102,0.866,0.573,1.266,2.184,1.687,1.19,0.943,1.068,2.645,8.817,6.865,12.737,30.29,78.044,15.386,-9.868,-31.034,-40.001,-445.104,-5.726,1.079,-8.844,-40.811,-42.142],[-2.638,-0.536,0.102,0.209,0.466,-6.046,-0.14,-0.119,-0.046,0.415,-7.935,0.2,-0.274,0.304,0.498,-4.428,-3.121,1.152,1.28,1.14,-3.518,6.894,4.403,2.337,2.165,9.999,16.669,31.741,31.121,29.754],[-11.661,-2.803,-0.448,-0.232,0.074,-16.45,-2.004,-0.492,-0.04,0.1,-14.678,-2.084,-0.659,-0.563,0.014,-23.238,-3.395,2.473,0.18,-1.007,-15.039,-0.634,1.339,-0.097,-0.688,-8.579,17.178,0.256,3.651,-0.019],[-37.786,-5.399,-1.832,-1.018,-0.478,-49.024,-3.071,-1.764,-0.846,-0.377,-35.786,-5.157,-1.599,-0.809,-0.686,-34.027,1.913,-4.395,0.433,0.373,-19.426,2.569,4.823,-0.933,-0.441,-5.953,18.145,16.545,7.19,4.453],[-58.253,-4.3,-2.894,-1.768,-0.974,-47.295,-6.146,-3.519,-1.374,-1.04,-162.208,-3.858,-1.887,-1.017,-0.771,-36.415,-6.196,-3.166,-0.963,-1.109,-53.383,-9.822,-0.025,0.563,-1.031,-2.356,-10.02,2.983,-2.151,5.993],[-61.957,-8.074,-4.198,-2.31,-1.336,-63.846,-9.345,-4.517,-1.896,-1.644,-59.837,-10.538,-3.82,-2.394,-0.925,-43.3,-15.406,-1.153,0.566,0.099,-36.043,-29.05,0.937,-2.241,-0.116,-75.823,-4.927,-4.443,2.098,-0.692]],
"kep": [[-0.048,-1.89,-0.911,-2.705,-2.441,-3.402,-0.728,-0.621,-1.201,-1.753,-0.637,-0.525,-0.906,0.368,-2.388,-2.596,1.147,2.859,4.754,-0.531,-18.29,-3.721,2.865,4.262,-3.57,44.505,-19.918,-26.403,-24.701,-11.145],[-7.645,-3.546,-1.867,-1.963,-1.916,-7.491,-3.212,-2,-1.68,-1.418,-11.845,-1.319,-2.183,-1.447,-2.018,-13.959,-6.511,-1.343,-0.594,-1.014,-18.755,-3.867,-1.449,-2.11,-1.381,-10.986,-23.134,-13.936,0.753,-7.157],[-16.138,-5.389,-3.016,-1.991,-1.926,-20.904,-5.143,-3.373,-2.645,-1.665,-20.133,-6.198,-3.347,-2.524,-1.82,-47.393,-5.32,-2.387,-2.438,-3.07,-44.553,-9.375,-4.825,-3.129,-3.527,-53.062,-22.176,-13.034,-6.701,-7.505],[-50.404,-8.569,-3.368,-3.734,-2.822,-53.721,-4.887,-5.255,-3.388,-2.482,-51.618,-7.793,-5.354,-2.903,-2.928,-62.179,-5.018,-6.431,-3.186,-2.79,-62.266,-21.069,-5.54,-4.917,-2.869,-60.808,-30.015,-9.413,-5.308,-3.702],[-72.809,-6.707,-5.959,-4.919,-3.624,-68.943,-9.477,-7.627,-3.459,-3.716,-71.939,-6.035,-6.252,-4.646,-3.525,-68.421,-4.181,-5.962,-4.733,-3.785,-70.416,-39.608,-8.737,-4.731,-4.078,-75.153,-43.95,-24.046,-10.688,-3.838],[-77.843,-13.533,-7.127,-5.13,-4.06,-81.806,-10.334,-8.829,-5.359,-4.444,-80.319,-9.215,-8.228,-6.221,-4.195,-75.14,-35.298,-5.681,-6.064,-3.314,-74.582,-46.623,-3.837,-6.181,-3.948,-79.115,-49.209,-26.544,-7.325,-6.324]],
"vp": [[-141.356,-10.504,-21.389,-11.569,-42.957,13.437,-19.49,-12.443,-9.709,-14.155,-16.479,-13.613,-5.58,-20.239,-7.527,-12.033,-7.66,-8.876,-11.062,-5.17,-13.789,-7.591,-11.176,-8.823,-3.013,4.358,-14.354,-6.499,-5.206,-9.336],[291.854,120.043,-22.283,-15.21,-56.933,123.988,13.273,6.914,8.572,-17.467,90.223,-10.408,13.235,-12.273,-7.171,12.623,18.228,-5.768,-9.08,-7.672,6.687,-11.927,-11.056,-2.909,-1.708,-3.56,-17.35,4.186,-18.556,1.111],[1189.851,549.424,115.314,54.204,-40.098,337.421,79.592,20.996,1.916,-13.889,147.926,42.531,22.057,26.004,4.174,53.662,16.463,-14.682,0.438,16.535,16.13,3.455,-2.836,3.998,8.769,6.553,-17.179,1.704,-2.698,8.267],[3955.957,1105.943,502.063,339.142,215.976,874.653,128.035,107.328,63.235,21.548,367.436,107.743,43.659,25.255,33.624,72.664,-8.965,29.888,-3.093,-1.84,20.367,-1.77,-15.246,6.103,4.633,4.256,-17.94,-26.155,-13.824,-9.689],[5718.715,877.58,844.782,724.988,461.634,965.629,240.676,192.213,113.388,103.486,528.591,82.59,48.8,32.772,35.559,73.606,27.692,20.938,9.139,13.733,56.696,20.811,1.023,-1.728,7.849,1.358,11.445,-3.26,7.256,-15.193],[6216.687,1666.588,1286.594,910.665,608.699,1329.814,391.586,265.469,134.966,152.585,621.08,220.919,110.124,94.235,37.395,88.955,62.367,6.948,-8.305,-0.771,37.886,65.107,-2.759,10.163,2.206,42.905,5.45,8.63,-2.507,4.095]]
}