{
"KTrans": [[-0.911,2.684,2.492,2.175,2.357,-6.873,13.503,11.693,12.192,11.358,-6.244,25.575,24.697,23.96,22.764,-58.565,64.033,90.84,95.04,94.982,-98.219,41.18,94.933,135.848,144.613,51.229,-182.636,-9.817,88.41,83.869],[2.924,1.388,-0.07,0.949,0.95,15.49,8.437,-0.083,5.091,4.736,28.37,17.79,0.039,9.188,9.756,175.445,83.527,-7.106,28.369,37.659,-170.37,-18.342,-54.789,13.543,51.495,58.214,-68.213,-57.69,-1.439,11.003],[3.388,1.594,0.767,1.168,-0.318,11.39,6.402,4.888,4.93,-1.082,27.785,13.815,11.868,9.19,-1.405,31.945,96.49,63.579,52.278,5.941,-18.565,169.709,150.214,-50,8.26,-138.455,-66.827,-94.582,-57.171,-30.532],[5.097,0.527,1.385,1.127,0.633,13.521,7.473,4.344,3.367,3.451,27.614,13.546,10.266,7.275,5.746,16.778,79.15,57.188,43,39.007,-35.745,139.611,94.162,97.584,43.121,53.239,-235.799,573.666,-299.528,-73.681],[-5.081,3.042,1.496,0.765,0.439,5.717,8.549,2.344,3.545,2.899,41.046,13.324,8.842,6.51,5.653,-54.93,74.482,49.263,35.244,31.335,-37.062,132.296,100.949,97.598,74.489,-7.294,16.61,-212.476,109.622,9.935],[-1.873,1.325,1.355,0.278,0.449,9.707,2.933,4.328,4.162,2.627,32.821,9.284,6.728,4.937,5.188,-89.043,62.678,40.139,35.394,30.883,-39.956,142.054,114.427,88.598,66.583,-96.79,11.791,158.681,167.163,113.84]],
"ve": [[0.998,1.128,1.244,1.343,1.722,4.852,7.777,7.364,10.633,12.324,10.068,33.867,27.099,32.983,39.798,48.902,-9.289,-1244.6,-162.389,-271.191,99.005,30.507,-8.787,-34.123,-52.292,196.303,41.565,33.336,2.848,-15.861],[1.082,0.555,0.321,0.353,0.332,5.328,2.82,1.635,2.155,1.94,10.283,5.5,3.273,5.084,4.76,-7.972,40.638,16.233,-20.984,-3.956,103.073,49.992,32.786,18.33,-33.99,198.347,98.357,66.05,45.108,26.959],[1.1,0.582,0.353,0.365,0.2,4.973,2.601,1.827,1.538,0.992,10.157,5.219,3.779,2.848,1.944,49.579,25.306,16.897,14.275,9.696,100.347,48.281,36.572,26.467,20.171,199.214,104.283,70.834,51.277,39.554],[1.091,0.469,0.439,0.352,0.243,5.128,2.684,1.762,1.338,1.19,10.04,5.197,3.632,2.702,2.149,46.647,25.032,17.077,13.061,10.449,98.972,53.107,32.392,24.866,28.624,199.921,136.758,67.144,62.016,40.71],[0.511,0.659,0.443,0.294,0.217,4.664,2.742,1.583,1.361,1.108,10.254,5.158,3.484,2.612,2.158,49.374,24.931,16.888,12.678,10.269,99.902,42.028,32.303,25.477,20.102,195.97,100.706,70.435,51.577,29.776],[0.496,0.521,0.424,0.236,0.227,4.674,2.319,1.737,1.418,1.07,9.821,4.816,3.317,2.459,2.098,50.693,24.457,16.461,12.712,10.393,98.135,49.174,33.075,25.342,20.261,196.454,100.78,66.5,49.715,40.741]],
"kep": [[-101.145,-4.116,-3,-2.69,-2.987,-171.03,-23.408,-15.907,-17.986,-18.147,-91.557,-46.647,-37.635,-37.722,-36.947,-104.431,-256.895,-182.687,-185.591,-185.897,-76.091,-398.901,-392.941,-368.787,-372.29,-45.147,-371.362,-610.947,-640.336,-776.024],[2.642,2.9,-59.695,-2.599,-1.347,12.1,15.422,-64.958,-15.88,-8.725,19.197,29.719,-32.199,-30.111,-20.464,71.775,64.006,-63.407,-159.258,-98.974,-129.039,-61.209,-145.926,-303.18,-198.346,-40.465,-78.958,-89.934,-164.26,-384.757],[1.674,1.698,1.444,4.785,-117.675,5.796,5.558,7.199,17.271,-110.124,15.049,11.459,17.605,28.342,-129.056,-21.657,64.678,66.265,99.017,52.033,-63.322,74.369,111.85,-138.687,11.344,-100.397,-83.652,-112.774,-85.094,-68.214],[2.076,0.25,1.63,1.987,1.84,5.497,5.39,4.124,4.709,7.934,12.607,8.954,9.678,9.505,11.528,-30.404,42.388,45.096,42.122,63.416,-69.011,46.599,47.756,80.721,25.474,-53.983,-149.132,293.877,-298.33,-118.138],[-8.241,2.026,1.331,1.122,0.935,-2.699,5.435,1.097,3.69,4.005,20.776,7.636,6.548,6.177,7.115,-72.005,36.336,30.564,26.897,33.288,-70.638,40.381,50.429,71.097,66.675,-69.767,-45.17,-169.041,31.838,-50.921],[-7.573,-0.031,0.901,0.441,0.651,-1.78,0.244,3.027,3.823,2.863,11.275,3.642,3.702,3.572,5.148,-92.656,25.469,20.956,24.364,26.492,-69.505,44.328,55.79,54.463,48.423,-93.527,-50.115,35.995,72.238,46.991]],
"vp": [[-10.331,-12.518,-16.405,-20.712,-23.261,-19.645,-5.605,-18.784,5.625,-8.849,-12.845,0.375,3.553,5.826,-0.739,-6.641,17.292,-4.73,-0.473,-7.042,-23.287,-4.817,12.889,-2.518,-7.849,-27.251,7.24,-1.431,-2.122,8.833],[152.389,31.571,-28.821,-25.906,-39.19,49.685,4.839,-12.126,-6.946,-10.762,25.073,3.434,-14.854,-20.329,1.962,-2.332,8.608,-24.449,-11.474,-4.396,0.031,-29.135,-5.522,-1.12,-2.603,-29.124,-34.602,-7.415,-2.592,6.639],[280.604,152.982,56.992,61.815,-10.016,67.616,28.473,4.377,11.622,-1.354,41.31,3.834,26.073,-1.49,-31.974,-4.599,4.823,-3.174,-7.05,-35.37,3.407,-7.934,16.306,-15.268,-1.931,-7.007,-11.422,-18.229,-15.84,-15],[592.771,335.083,168.296,120.026,58.231,55.976,67.829,29.804,17.43,5.651,64.512,28.895,21.079,-1.048,-8.798,24.582,4.4,-7.912,25.245,-4.435,8.594,-9.368,-13.532,-2.777,-10.193,-16.151,-15.318,-24.88,5.997,-20.515],[1059.693,467.613,292.77,250.971,169.221,277.821,93.049,20.873,42.032,30.599,221.778,41.278,22.375,10.483,4.927,48.274,-16.616,6.023,-3.841,-14.189,16.5,-12.295,-17.734,-2.44,-3.478,-7.249,-8.841,4.127,-3.737,3.182],[2996.501,573.209,470.33,409.244,200.183,596.094,167.271,149.987,101.719,59.665,371.175,67.051,28.131,41.412,13.396,81.043,-11.046,-25.804,-2.823,10.438,7.573,0.799,-0.672,8.789,1.482,2.978,-1.023,-20.228,-18.404,1.573]]
}