{
"KTrans": [[0.967,-0.754,-0.084,0.31,0.529,-1.308,-0.462,0.183,-0.244,0.282,-0.68,-0.132,-0.614,-0.823,-0.335,-6.582,-3.617,-2.549,-2.447,-1.839,-10.32,-7.29,-4.743,-5.03,-4.663,-21.977,-13.397,-10.714,-9.512,-8.822],[-3.62,-0.22,0.264,0.272,-0.066,-1.932,-0.487,-0.145,-0.095,-0.26,-2.519,-0.613,-0.169,-0.361,-0.593,-7.771,-3.309,-2.092,-1.065,-1.205,-14.372,-5.55,-4.126,-3.404,-2.5,-24.449,-12.492,-7.998,-6.251,-4.979],[-7.041,-0.358,-0.054,-0.069,-0.139,-6.935,-0.498,-0.131,-0.046,-0.233,-7.644,-0.705,-0.362,-0.027,-0.105,-11.744,-3.775,-1.732,-1.569,-1.01,-18.797,-5.868,-4.378,-2.671,-2.275,-31.049,-12.324,-7.371,-5.88,-4.655],[-11.368,-0.876,0.347,0.356,0.131,-15.28,-1.459,-0.372,0.238,-0.041,-12.391,-1.317,-0.55,-0.213,-0.148,-16.964,-2.482,-2.044,-1.407,-1.141,-27.614,-6.731,-4.192,-3.028,-2.086,-38.401,-12.857,-8.285,-5.767,-4.859],[-24.15,-1.629,0.227,0.561,0.313,-22.249,-0.552,-0.698,-0.077,0.055,-24.944,-0.68,-0.089,0.025,0.041,-29.866,-3.628,-2.206,-0.608,-1.003,-33.14,-8.245,-4.668,-2.939,-2.145,-47.293,-14.034,-8.373,-6.049,-4.803],[-35.801,-0.701,0.216,0.229,0.325,-30.353,-0.329,-0.497,-0.36,0.293,-32.326,-3.653,-0.316,-0.084,-0.027,-40.532,-4.186,-1.911,-1.479,-1.285,-42.185,-8.304,-4.114,-2.966,-2.001,-51.569,-14.876,-8.51,-6.034,-4.721]],
"ve": [[0.488,0.735,0.268,-0.073,0.169,0.418,-0.102,0.436,0.364,0.158,-0.352,-0.354,0.047,1.086,0.96,-1.917,0.307,1.121,2.204,1.788,-4.043,0.334,1.494,4.083,5.316,-8.06,0.06,4.148,7.731,11.917],[-1.879,-0.132,-0.001,-0.031,0.074,-1.177,-0.106,-0.127,0.16,-0.04,-0.905,-0.109,-0.301,-0.042,0.019,-3.743,-1.28,-0.657,-0.414,-0.303,-6.872,-2.399,-1.457,-0.673,-0.329,-12.082,-4.777,-2.659,-1.615,-0.713],[-2.718,-0.184,-0.014,0.007,-0.018,-2.341,-0.333,-0.099,-0.059,0.022,-2.854,-0.399,-0.161,-0.047,-0.07,-5.55,-1.542,-1.009,-0.564,-0.452,-9.291,-2.729,-1.878,-1.031,-0.978,-16.44,-5.755,-3.477,-2.416,-1.633],[-4.258,-0.185,-0.185,0.057,0.032,-6.879,-0.252,-0.004,-0.077,-0.138,-6.14,-0.602,-0.219,-0.091,-0.014,-8.084,-1.766,-0.803,-0.569,-0.604,-12.997,-2.99,-2.1,-1.308,-0.884,-20.607,-6.611,-3.921,-2.552,-1.915],[-9.221,-0.503,-0.194,0.149,0.057,-9.474,-0.762,-0.239,-0.101,0.118,-10.374,-0.81,-0.325,-0.145,-0.006,-13.719,-2.199,-1.04,-0.529,-0.459,-16.018,-3.574,-2.103,-1.363,-1.095,-25.258,-7.07,-4.155,-2.956,-2.117],[-16.46,-0.312,-0.044,-0.066,0.033,-12.742,-0.63,0.022,-0.137,-0.077,-15.586,-1.44,-0.09,-0.069,-0.093,-20.142,-2.124,-0.956,-0.703,-0.605,-21.38,-4.027,-2.171,-1.457,-0.965,-29.14,-7.583,-4.215,-2.939,-2.217]],
"kep": [[0.533,-1.33,-0.194,0.684,0.799,-1.659,-0.225,0.007,-0.301,0.59,-0.271,0.321,-0.459,-1.596,-0.925,-4.657,-3.794,-3.44,-4.233,-3.206,-6.496,-7.34,-5.893,-8.398,-9.076,-15.084,-13.278,-14.065,-15.615,-17.942],[-1.822,-0.095,0.269,0.312,-0.129,-0.739,-0.38,-0.017,-0.243,-0.21,-1.602,-0.489,0.138,-0.308,-0.6,-4.202,-2.06,-1.433,-0.647,-0.89,-8.122,-3.216,-2.7,-2.739,-2.17,-14.046,-8.101,-5.478,-4.701,-4.283],[-4.483,-0.171,-0.041,-0.073,-0.119,-4.733,-0.172,-0.034,0.016,-0.252,-5.009,-0.308,-0.203,0.026,-0.034,-6.646,-2.277,-0.731,-1.006,-0.556,-10.477,-3.223,-2.546,-1.655,-1.307,-17.5,-6.971,-4.036,-3.548,-3.068],[-7.529,-0.704,0.527,0.298,0.1,-8.943,-1.215,-0.365,0.317,0.099,-6.803,-0.727,-0.333,-0.123,-0.135,-9.603,-0.751,-1.254,-0.841,-0.539,-16.941,-3.868,-2.135,-1.744,-1.213,-22.443,-6.691,-4.541,-3.296,-3],[-16.608,-1.137,0.418,0.412,0.259,-14.288,0.209,-0.458,0.02,-0.063,-16.758,0.105,0.231,0.169,0.048,-19.219,-1.474,-1.184,-0.081,-0.547,-20.548,-4.853,-2.622,-1.596,-1.062,-29.754,-7.494,-4.398,-3.184,-2.744],[-23.717,-0.43,0.258,0.293,0.292,-20.857,0.288,-0.53,-0.224,0.369,-20.294,-2.259,-0.233,-0.013,0.066,-26.055,-2.126,-0.968,-0.782,-0.684,-27.057,-4.479,-1.985,-1.53,-1.048,-32.356,-7.906,-4.481,-3.191,-2.56]],
"vp": [[-23.451,41.354,10.854,-1.874,-27.092,4.506,3.949,4.963,4.739,3.678,6.564,3.79,4.584,5.631,6.029,5.101,4.032,4.576,4.696,4.303,4.827,4.876,4.177,4.675,4.815,4.916,4.711,4.462,4.598,4.372],[167.713,33.83,-2.892,-32.149,33.58,27.44,8.064,2.835,0.375,6.73,12.832,4.059,7.218,6.455,5.798,7.955,5.535,5.001,4.319,4.215,6.873,5.291,5.338,5.149,4.62,6.286,5.347,4.958,5.027,4.65],[254.973,32.477,11.395,-17.549,44.949,54.27,16.959,7.308,10.299,6.562,31.399,7.388,7.931,3.89,2.473,11.759,6.397,6.678,5.167,5.079,9.45,5.358,5.847,5.115,5.332,8.267,5.968,5.353,5.34,5.074],[463.373,8.252,23.328,-8.511,-21.7,140.411,14.693,12.561,2.062,12.102,62.635,9.702,7.193,4.953,4.118,16.854,6.912,6.012,4.392,5.96,13.198,6.444,5.99,5.587,5.058,10.447,6.858,5.886,5.399,5.193],[963.456,115.533,40.48,-0.35,-13.006,201.008,24.426,17.611,8.56,-7.215,107.015,14.481,6.578,5.399,2.497,28.036,8.592,6.843,4.662,4.806,16.395,7.294,6.117,5.546,5.637,12.814,7.12,6.432,5.979,5.495],[1662.137,51.329,-6.266,-1.766,-20.501,263.314,25.549,-1.67,9.272,1.326,158.024,25.144,2.4,3.797,5.659,41.521,8.39,6.89,5.779,5.753,21.477,8.336,6.402,6.252,5.227,14.822,7.574,6.442,5.923,5.54]]
}