{
"KTrans": [[4.358,3.504,4.299,3.566,2.022,6.633,2.785,3.538,4.684,1.795,6.306,2.93,3.468,3.499,3.939,10.729,14.804,12.314,6.85,6.446,48.927,44.252,17.65,18.481,16.746,55.805,60.605,63.922,44.794,34.046],[-10.239,-2.772,0.574,1.284,2.217,-19.657,0.311,-0.577,2.078,2.069,-15.834,-1.482,0.47,1.963,2.591,-18.76,-5.95,5.171,1.005,4.723,-10.265,6.22,7.289,9.348,5.942,-62.983,32.337,21.921,23.632,10.595],[-52.304,-7.777,-5.36,-0.495,0.366,-53.768,-7.202,-3.441,-2.719,-0.088,-54.704,-7.383,-3.653,-0.057,0.479,-43.297,-10.218,-2.547,-1.242,0.954,-54.448,-5.817,-6.408,5.379,6.959,-23.821,-18.396,-10.11,11.28,15.879],[-71.994,-23.801,-10.306,-4.444,-2.826,-73.499,-21.211,-10.612,-4.334,-2.274,-71.463,-17.592,-7.101,-5.275,-3.239,-70.038,-19.291,-7.23,-2.949,-1.677,-62.992,-11.137,-7.991,-3.309,4.036,-57.956,-7.881,1.841,8.069,17.056],[-88.271,-26.979,-15.346,-9.046,-5.435,-86.656,-29.84,-12.474,-11.035,-5.84,-88.177,-31.477,-17.44,-9.794,-5.686,-80.863,-27.119,-16.207,-8.48,-3.442,-67.33,-29.925,-11.74,-12.691,-0.536,-85.798,-40.522,-4.035,6.917,7.236],[-89.715,-41.915,-20.541,-14.619,-8.959,-87.728,-38.375,-20.965,-11.316,-9.841,-89.504,-42.086,-21.688,-10.548,-9.469,-82.836,-46.17,-20.033,-12.736,-6.966,-75.73,-48.207,-16.09,-15.007,-6.945,-77.595,-31.926,-18.878,-13.711,-5.619]],
"ve": [[0.992,2.792,3.231,5.679,10.91,3.731,1.905,5.322,3.591,12.044,2.469,4.445,6.2,7.881,9.059,26.705,7.811,14.648,8.317,32.752,21.09,-12.177,-23.854,-43.327,-101.116,45.647,-155.476,-5.203,11.841,13.637],[-4.887,-1.415,0.105,0.792,1.266,-7.962,-0.333,0.3,0.702,1.024,-6.533,0.151,-0.003,1.116,0.983,4.277,-2.033,3.232,0.933,2.062,11.668,5.45,3.931,4.198,3.899,-3.501,17.944,16.551,50.826,37.58],[-31.398,-3.606,-2.076,0.064,0.415,-26.756,-2.69,-0.9,-0.875,0.226,-30.48,-3.187,-0.958,-0.075,0.338,-15.611,-2.966,0.147,-0.379,0.732,-25.86,2.023,-3.388,3.623,3.678,8.612,6.788,-2.999,7.429,8.762],[-40.275,-9.002,-3.408,-1.601,-0.779,-45.632,-8.755,-3.933,-1.367,-0.789,-45.121,-7.739,-3.304,-1.729,-1.449,-12.255,-5.851,-2.455,-0.061,-0.479,-25.739,-1.14,-1.178,-0.856,3.806,-4.087,8.163,4.11,6.835,11.449],[-67.097,-12.248,-6.275,-3.395,-1.809,-17.769,-13.353,-5.445,-3.917,-2.047,-58.857,-15.293,-7.235,-3.636,-2.21,-51.726,-11.486,-5.848,-1.824,-0.472,-19.341,-10.763,-2.554,-4.654,1.097,-34.641,-11.751,4.383,10.155,7.906],[-55.038,-21.877,-8.765,-5.446,-3.441,-64.217,-18.347,-8.545,-4.037,-3.619,-65.454,-21.617,-8.651,-3.557,-3.275,-48.778,-23.171,-9.51,-3.865,-1.678,-29.405,-24.846,-7.49,-5.218,-1.565,-14.446,-2.296,2.632,-3.521,-0.101]],
"kep": [[-3.27,-4.764,-3.4,-5.596,-10,-4.034,-4.577,-6.052,-3.208,-10.117,-2.846,-6.587,-6.201,-6.987,-6.211,-12.496,0.605,1.654,-6.658,-7.952,-20.973,6.329,-10.805,-0.581,-2.384,27.794,-23.2,-3.209,-16.508,-23.952],[-14.53,-7.62,-5.686,-5.591,-5.127,-20.75,-5.895,-6.944,-4.768,-5.058,-17.741,-7.869,-5.683,-5.282,-4.537,-29.17,-12.312,-5.123,-6.694,-3.875,-41.821,-13.691,-7.115,-3.38,-4.923,-44.973,-23.918,-9.841,-3.308,-10.185],[-43.313,-10.987,-9.387,-6.64,-6.133,-46.422,-11.207,-8.616,-7.855,-6.412,-48.325,-10.989,-8.817,-6.151,-5.96,-51.445,-14.458,-9.474,-7.505,-6.24,-59.005,-19.054,-13.236,-6.24,-4.213,-47.825,-36.195,-24.547,-8.866,-4.381],[-62.745,-22.73,-13.13,-8.86,-8.041,-64.647,-20.034,-12.852,-8.994,-7.53,-65.473,-17.681,-10.073,-9.583,-7.82,-68.715,-20.536,-11.884,-9.487,-7.571,-65.32,-26.051,-16.166,-10.525,-6.986,-66.01,-33.016,-23.539,-12.721,-4.151],[-82.977,-24.414,-15.582,-11.694,-9.592,-80.814,-26.068,-13.598,-13.182,-9.764,-85.707,-25.816,-16.798,-12.256,-9.49,-78.467,-25.809,-17.744,-12.96,-9.192,-70.919,-43.71,-17.342,-16.145,-8.823,-78.392,-53.585,-26.837,-13.218,-9.581],[-85.28,-34.135,-18.972,-15.418,-11.534,-83.063,-32.845,-19.608,-13.486,-12.22,-86.545,-34.655,-20.188,-13.149,-12.183,-80.104,-44.824,-18.852,-15.383,-11.505,-78.353,-55.439,-18.306,-17.21,-12.199,-80.32,-47.918,-46.139,-23.195,-14.998]],
"vp": [[-64.3,-82.793,-161.719,-45.953,-30.129,-47.341,7.073,-44.778,-35.594,10.106,-18.03,-10.395,-13.163,-6.693,-17.622,0.054,-10.844,-9.034,-0.86,-2.165,-15.158,-23.864,-2.632,-5.799,-5.48,-22.064,-10.378,-16.043,-7.077,-3.105],[554.125,294.215,-33.038,-50.179,-162.848,189.228,-2.243,6.746,-13.447,-39.656,77.275,2.087,4.782,-18.266,-22.409,29.644,22.292,-16.039,9.422,-9.341,-0.1,-2.708,-2.62,-7.818,-0.579,9.338,-12.887,-8.402,-14.853,1.79],[3298.708,664.716,625.19,0.844,-178.939,585.333,113.101,41.047,86.163,-8.567,345.115,60.018,26.573,-6.508,-8.297,36.468,16.99,2.435,10.035,-0.637,34.994,4.918,20.299,-11.685,-15.56,2.107,-0.017,26.078,-9.129,-16.649],[4329.888,1826.212,932.427,513.823,328.716,958.476,351.455,232.212,76.151,63.801,487.009,165.582,94.23,77.564,66.615,76.349,29.068,20.583,2.457,10.253,34.364,3.824,9.386,9.385,-18.065,6.499,-2.622,-1.487,-8.904,-28.965],[7219.07,2491.781,1868.757,1231.625,802.93,1260.74,551.381,313.169,305.63,167.741,698.458,316.458,219.439,144.027,107.021,117.698,54.169,40.836,16.551,6.276,22.002,29.705,12.854,26.204,-3.81,24.197,17.657,-1.799,-19.302,-18.388],[6626.722,4655.094,2631.107,2089.327,1625.162,1240.768,782.949,521.194,331.611,331.102,718.192,455.424,258.209,127.096,167.998,109.757,99.888,66.511,35.56,16.296,36.094,59.36,28.867,26.781,11.156,12.475,8.855,-0.142,12.664,4.849]]
}