{
"KTrans": [[-1.561,2.728,2.289,-0.89,4.213,4.825,9.026,4.73,7.993,1.139,16.944,15.914,14.506,21.555,20.26,16.397,21.804,50.826,71.936,79.862,47.269,-9.998,64.289,72.236,104.107,-53.7,63.991,-3.564,-57.039,-48.367],[-30.517,-8.709,-0.607,-1.702,0.637,-19.663,-2.387,2.538,4.556,5.488,-6.634,-1.851,4.571,8.923,6.502,-73.713,-8.932,-0.319,14.986,29.422,16.654,-5.188,-43.611,20.578,39.152,77.826,-128.291,14.378,21.778,-12.937],[-37.825,-8.748,-1.356,-4.239,2.088,-31.905,-6.085,-4.411,-1.537,1.121,-36.481,4.39,7.704,-1.32,3.094,-38.853,18.916,23.266,9.045,0.881,-64.806,-2.842,-31.975,-21.796,-0.372,42.914,55.608,-61.102,1.739,-14.436],[-60.86,-7.954,-4.026,-0.187,-1.631,-51.94,-11.765,-3.665,1.981,1.931,-49.483,-4.902,1.92,2.168,3.283,-58.369,20.324,3.273,-4.352,4.787,-67.014,-11.492,6.062,-1.232,-29.888,-18.879,-62.504,55.374,24.377,17.744],[-54.415,-19.795,-8.578,2.553,1.874,-57.827,-3.145,-0.471,5.646,0.952,-62.022,-5.195,7.849,4.266,5.717,-64.967,-27.458,24.037,30.648,13.515,-64.734,-50.698,-28.331,-53.551,-65.966,-34.769,-5.962,-3.233,-15.764,-24.831],[-60.126,-19.106,-1.367,-1.985,0.302,-68.099,-21.345,-3.747,7.213,4.84,-71.622,-23.839,4.528,6.845,4.987,-66.713,-38.474,-6.959,11.889,17.514,-74.372,-57.45,46.707,-18.294,30.265,-30.227,-11.024,18.432,50.438,-11.385]],
"ve": [[17.68,1.905,-2.006,-18.326,43.028,-555.829,-6.421,-26.801,-107.13,-70.268,-20.44,-15.159,2335.204,-23.355,-47.1,21.743,58.329,-54.187,-36.748,83.867,95.943,39.645,-19.438,-31.232,-104.056,208.353,83.187,29.645,1.213,-19.118],[11.027,3.011,-45.587,2.212,-21.9,1.916,7.228,3.867,-1.306,20.07,-2.882,4.652,1.768,-3.979,-5.933,36.824,24.559,4.742,8.996,0.937,102.607,48.368,31.674,16.047,-0.502,193.958,100.929,56.78,56.853,16.944],[-5.22,85.13,-28.759,-12.929,8.578,103.456,-0.74,0.176,1.653,2.119,5.536,0.961,2.792,-3.109,0.293,23.624,15.983,11.824,12.129,8.745,100.589,52.387,33.585,26.638,19.348,202.88,94.436,64.771,50.261,38.832],[-12.065,-1.257,0.11,-1.216,-2.484,1.503,-0.202,-1.194,-0.894,4.193,16.561,5.349,1.77,0.911,-3.946,40.262,26.472,15.216,13.136,9.945,99.788,48.83,53.94,24.784,15.041,194.999,103.802,226.516,51.217,39.082],[2.011,-2.48,-1.673,-0.058,-0.94,-3.639,-1.944,0.824,0.687,-0.233,10.935,3.795,2.249,2.021,1.299,47.526,22.784,15.472,13.444,10.318,99.391,48.429,31.367,27.762,21.404,196.724,97.564,63.342,58.402,39.513],[7.401,-2.236,-0.149,-0.811,-0.254,-1.376,18.152,0.759,1.627,0.643,0.531,3.371,1.145,2.398,1.381,39.555,25.37,15.694,11.32,12.505,89.365,50.739,33.556,28.669,20.574,192.339,91.377,66.624,49.061,42.009]],
"kep": [[-117.506,-52.625,-20.685,-3.232,-9.099,-115.673,-46.386,-7.716,-25.073,10.817,-107.676,-50.91,-43.782,-43.41,-55.241,-97.968,-227.963,-258.55,-212.463,-202.656,-59.757,-280.264,-329.865,-374.489,-405.919,-2.013,-32.413,-409.328,-617.516,-717.01],[-65.659,-59.129,-116.462,-36.268,-6.507,-56.821,-46.048,-117.389,-39.959,-12.119,-44.529,-57.838,-131.317,-65.527,-18.095,-88.46,-54.754,-123.185,-183.078,-107.202,-43.747,-35.718,-106.12,-181.486,-170.421,-36.597,-60.791,20.513,-47.335,-287.123],[-59.774,-21.628,-16.473,-53.203,-115.845,-59.742,-25.995,-32.681,-50.75,-109.96,-63.235,-15.883,0.237,-50.232,-109.997,-68.999,-17.744,1.6,-26.328,-124.34,-73.219,-49.809,-49.363,-42.775,-89.305,-52.16,-13.998,-41.319,-3.783,-17.165],[-79.332,-19.283,-12.219,-2.845,-12.941,-74.908,-26.867,-14.612,-5.929,-7.564,-72.858,-22.196,-7.028,-9.604,-4.671,-81.917,-22.63,-24.541,-34.666,-20.574,-77.82,-44.97,-23.155,-25.543,-65.257,-67.531,-61.379,0.619,-10.273,5.208],[-74.512,-30.177,-17.706,3.197,1.091,-79.084,-19.269,-5.854,5.391,-3.498,-80.589,-21.211,-1.839,1.871,3.843,-82,-49.409,-0.223,12.907,-6.37,-77.808,-61.841,-47.089,-66.087,-88.885,-73.199,-49.117,-38.506,-36.322,-40.353],[-79.76,-34.795,-7.122,-4.66,0.815,-83.144,-35.509,-11.026,6.886,2.882,-86.741,-40.407,-5.371,4.146,1.94,-82.62,-57.995,-26.491,-9.147,2.245,-85.254,-69.322,-4.944,-41.758,-0.758,-77.336,-52.164,-35.476,-3.019,-35.319]],
"vp": [[736.564,376.818,190.068,43.612,-19.475,8.859,-51.956,-71.849,62.297,185.857,-0.776,-19.104,-1.44,19.278,-1.981,-17.084,-4.744,26.242,4.701,2.221,-38.37,-9.363,-22.946,-24.324,-24.773,-24.369,-49.253,-31.37,-9.143,-3.083],[2571.009,582.913,64.306,-264.218,-87.046,518.78,223.545,-91.144,-32.548,56.587,219.466,67.747,-12.329,23.931,32.396,44.331,-24.224,-21.957,-19.858,-3.581,-41.208,-19.785,3.189,-36.455,-38.834,-31.176,-35.727,-43.888,-44.843,-18.352],[3620.05,2104.182,1408.369,625.255,-313.822,770.003,366.867,141.476,17.382,-5.516,410.731,269.281,70.322,30.291,-12.924,25.978,8.89,-18.791,-15.24,-49.834,-23.533,-16.58,-11.814,-13.319,-6.007,-41.52,-69.338,-38.474,-19.723,-38.31],[4560.786,3613.721,1447.456,563.009,346.731,1138.061,612.305,306.357,257.735,54.259,521.044,313.259,156.616,82.373,12.583,93.556,74.503,-12.947,-25.729,-26.038,21.299,-16.223,-21.508,-41.197,-23.245,-8.244,-51.563,-34.476,-62.05,-42.618],[6091.417,5923.331,2319.012,1055.741,574.848,1091.361,1253.237,512.875,301.378,266.55,647.498,463.171,290.906,123.389,82.402,90.465,54.421,-5.162,14.577,5.523,-10.636,-9.362,-10.977,-17.982,-15.821,-25.975,-31.382,-4.715,-48.732,-40.426],[6287.743,6735.092,4440.366,1667.973,1134.208,1175.696,1296.965,753.097,458.475,281.658,623.015,698.376,440.859,231.352,124.971,99.397,68.309,37.197,1.624,-7.631,20.82,18.708,-1.431,-15.014,-4.985,-21.715,-44.743,-36.071,-40.56,-32.318]]
}