{
"KTrans": [[2.631,1.613,3.575,1.331,1.595,15.141,7.126,8.722,5.741,4.44,28.955,17.476,12.791,12.782,12.318,176.677,93.553,78.031,66.075,63.17,225.511,216.588,181.971,147.346,145.881,-149.658,292.847,328.484,320.586,307.598],[2.826,4.278,2.13,2.104,1.422,11.308,7.765,4.716,4.974,3.85,24.706,13.632,10.147,6.782,6.831,98.346,75.448,45.701,36.59,31.869,16.895,184.85,101.891,86.759,68.419,-53.799,40.081,238.435,188.597,158.299],[-10.586,2.798,2.909,1.99,1.714,1.783,11.05,7.207,4.087,4.027,4.926,13.31,11.197,7.197,6.192,18.302,78.063,45.768,33.742,26.283,-7.386,184.605,108.021,76.593,61.929,-44.529,-25.687,256.559,173.199,142.082],[-27.717,5.611,3.56,2.678,2.296,-17.665,11.174,8.016,5.911,4.615,-21.066,15.651,11.653,8.333,6.078,-65.737,75.604,49.068,32.976,26.365,-78.737,126.867,122.107,71.13,57.103,-67.206,-26.916,153.035,172.518,133.421],[-48.295,2.643,4.866,3.383,2.353,-42.801,12.647,5.127,5.569,4.187,-41.904,19.023,10.407,7.403,6.21,-45.059,98.667,47.501,33.846,24.486,-43.104,74.015,142.237,75.529,56.615,-56.961,-48.966,62.009,185.667,138.587],[-63.594,1.925,4.402,3.481,1.645,-64.343,9.148,9.783,5.952,4.627,-60.018,14.886,11.578,8.744,7.615,-59.169,60.208,62.45,35.699,27.234,-69.213,-26.668,145.246,86.227,60.773,-49.698,-40.304,7.397,243.405,155.532]],
"ve": [[0.962,1.98,-0.118,3.348,3.657,4.676,2.302,-1.869,2.166,2.354,9.622,3.9,-1.404,-4.416,-6.428,46.467,13.972,-0.989,-10.488,-18.245,88.22,33.897,9.147,-6.477,-17.653,195.851,77.272,26.394,29.138,1.006],[0.93,0.006,0.207,-0.473,-0.182,5.463,2.171,1.188,0.917,0.218,10.394,4.749,2.245,1.02,0.642,50.172,23.718,13.873,9.166,5.196,99.928,48.381,29.616,19.311,12.723,196.448,95.981,61.578,41.398,29.819],[2.523,0.377,0.314,0.215,-0.18,6.897,2.801,1.356,1.099,0.593,11.963,4.123,3.006,1.927,1.468,51.559,24.528,16.269,10.973,8.404,99.878,49.541,32.121,23.392,17.347,201.796,101.954,65.499,47.042,36.528],[-1.162,-0.128,0.167,-0.075,-0.033,5.11,2.138,1.661,1.103,0.701,11.523,5.056,2.956,2.094,1.689,52.351,24.5,16.286,11.448,9.083,103.53,48.837,32.462,23.616,18.344,205.975,100.493,65.804,47.905,38.002],[3.143,1.202,0.534,-0.316,0.139,-4.046,2.911,1.569,0.989,0.685,11.063,5.091,3.135,2.033,1.679,50.958,25.702,16.187,12.03,9.216,95.338,48.528,33.395,24.311,19.263,204.142,100.069,66.994,48.474,38.841],[9.574,0.835,0.096,0.267,-0.074,24.271,2.638,1.591,1.255,0.875,10.987,4.868,3.416,2.151,1.879,46.351,25.652,16.85,12.276,9.5,100.502,53.235,33.345,24.789,19.314,200.642,101.635,66.747,50.183,39.627]],
"kep": [[2.867,1.015,5.574,0.94,1.99,10.679,5.749,12.208,6.712,5.43,18.065,13.997,15.391,20.534,23.252,87.594,70.091,80.967,86.586,101.557,64.546,135.454,157.973,164.726,199.467,-95.691,115.655,204.217,263.452,316.44],[2.353,4.429,2.026,2.676,1.705,5.773,5.607,3.569,4.125,3.724,13.194,8.56,7.801,5.782,6.264,28.868,41.308,27.939,25.136,25.446,-35.55,89.077,55.256,56.319,49.379,-73.288,-22.022,106.39,102.378,97.979],[-12.701,2.536,2.655,1.812,1.949,-3.569,8.153,5.815,2.994,3.443,-6.221,8.883,8.003,5.206,4.698,-21.413,42.079,25.147,20.448,16.499,-50.701,86.453,56.252,42.696,37.772,-75.104,-53.437,110.857,83.683,76.239],[-29.779,5.781,3.435,2.794,2.35,-23.063,8.794,6.289,4.764,3.911,-29.338,9.998,8.464,6.113,4.321,-74.922,39.853,27.861,19.203,15.792,-85.286,49.878,65.652,37.746,32.45,-83.869,-56.101,51.135,80.961,67.605],[-50.352,1.295,4.32,3.721,2.221,-47.056,9.318,3.476,4.532,3.5,-47.517,13.082,6.985,5.297,4.474,-62.6,55.567,26.425,19.23,13.909,-68.951,16.472,78.76,40.489,30.924,-81.484,-67.669,-0.637,87.387,69.547],[-64.432,0.739,4.258,3.17,1.724,-67.104,5.978,7.982,4.628,3.732,-64.434,9.126,7.825,6.455,5.627,-70.859,25.747,38.069,20.615,16.045,-82.279,-48.8,80.746,48.09,34.136,-80.338,-65.231,-30.509,121.951,79.982]],
"vp": [[20.096,6.668,-104.221,-36.585,-19.173,56.829,26.67,8.054,1.001,0.921,34.079,31.597,1.502,23.462,24.313,7.357,7.927,8.067,12.902,15.459,11.264,-7.396,12.235,-2.238,12.561,28.565,1.121,-4.147,1.337,3.717],[1961.275,102.287,103.015,-236.711,120.461,414.633,-8.62,55.031,59.928,10.346,218.525,35.919,-1.467,-14.634,8.779,57.864,24.348,-5.651,6.862,17.809,16.889,21.768,1.911,24.885,8.835,2.53,-2.03,-4.032,1.754,8.99],[5033.85,267.865,220.231,-87.595,-63.296,1141.134,122.937,25.623,7.151,1.853,534.115,60.219,12.405,-10.052,16.604,86.52,28.276,18.291,7.346,5.78,35.86,18.849,20.295,24.364,28.878,36.825,34.6,6.659,3.833,24.377],[7603.568,1369.252,169.755,28.274,361.219,1557.734,243.786,-9.459,-14.034,23.342,771.841,147.675,-22.995,13.549,-4.285,162.139,42.492,30.911,4.297,18.967,84.63,10.493,25.31,6.982,14.987,48.675,29.913,-11.126,-4.755,16.18],[8901.432,3615.412,-133.664,-206.703,-228.264,1887.586,740.882,60.766,31.043,6.177,796.439,376.738,7.765,6.528,-13.969,149.239,151.579,12.908,17.414,0.361,74.17,15.646,56.521,23.637,18.195,55.754,39.05,26.912,-1.327,15.111],[9245.41,6475.386,580.255,-276.064,-271.808,1910.982,1424.573,91.939,-97.727,-42.305,949.316,725.145,126.691,-44.073,-0.503,171.155,198.508,59.298,15.209,12.792,92.36,92.506,77.567,47.344,29.313,54.265,53.365,41.336,31.687,30.109]]
}