{
"KTrans": [[2.858,2.633,0.674,0.967,1.066,12.925,7.984,6.905,5.051,5.802,26.041,16.133,13.514,11.809,11.233,162.75,93.933,76.034,66.076,62.208,403.531,224.606,175.679,154.405,140.885,1122.827,589.606,456.99,393.722,361.963],[1.732,1.617,0.55,1.169,0.594,9.62,4.53,4.174,3.256,2.902,20.736,11.602,8.419,7.078,6.248,132.308,63.38,45.911,35.835,30.975,318.477,146.836,98.192,78.099,66.303,866.708,357.987,235.231,180.344,151.707],[1.545,1.072,1.092,1.29,0.41,10.832,5.738,4.106,2.93,2.614,20.407,10.621,7.579,6.14,4.963,129.99,61.128,39.954,31.529,25.738,305.615,135.044,87.318,67.865,55.192,841.765,328.796,206.26,151.006,122.477],[-1.923,1.052,0.17,0.044,0.31,7.77,4.72,4.247,2.527,2.424,20.78,10.727,7.377,5.776,4.412,122.093,60.764,40.003,29.984,24.133,297.829,131.688,84.004,63.16,51.017,818.614,320.415,197.594,142.602,112.553],[-3.591,0.594,1.671,1.359,0.749,5.534,5.654,3.944,2.876,2.806,20.247,10.273,7.52,5.895,4.523,114.863,59.455,38.245,29.277,22.512,298.375,128.804,83.169,60.957,49.363,789.033,309.975,189.61,136.27,108.461],[-7.763,0.621,1.109,1.566,0.643,0.687,6.554,4.374,2.914,3.322,11.231,10.481,8.051,6.046,5.102,106.584,57.818,37.076,28.342,23,281.191,129.196,83.369,60.492,47.808,740.552,308.479,189.387,135.432,106.177]],
"ve": [[1.397,0.321,0.437,-0.162,-1.142,4.253,0.811,-1.625,-1.92,-4.945,8.318,1.821,-2.304,-5.043,-7.737,45.207,13.047,-1.608,-11.155,-19.044,92.929,33.152,8.083,-7.548,-18.574,191.425,78.65,35.136,10.14,-6.381],[0.86,0.395,0.272,0.272,-0.014,4.826,2.478,1.275,0.878,0.361,9.66,4.746,2.907,1.665,0.861,49.699,23.504,14.175,9.13,5.581,99.02,47.773,29.365,19.286,12.376,198.756,97.076,60.961,41.571,28.769],[1.076,0.805,0.32,0.124,0.139,5.48,2.448,1.549,1.085,0.842,10.128,4.658,3.078,2.272,1.562,50.145,24.763,15.816,11.296,8.406,99.806,49.171,31.865,23.002,17.274,199.408,98.704,64.471,46.681,35.535],[1.357,0.524,0.266,0.146,0.108,5.118,2.36,1.709,1.169,0.815,10.403,5.222,3.33,2.396,1.774,49.799,24.768,16.204,11.898,9.241,100.078,49.795,32.445,23.944,18.612,199.732,99.298,65.522,48.206,37.692],[1.132,0.337,0.355,0.313,0.172,4.892,2.536,1.517,1.255,0.993,10.361,5.104,3.236,2.524,1.876,50.598,25.221,16.361,12.064,9.406,100.407,49.528,32.939,24.259,19.143,199.893,99.636,65.888,48.896,38.673],[1.229,0.584,0.378,0.269,0.176,5.179,2.589,1.74,1.149,1,10.337,4.899,3.464,2.395,2.004,50.049,24.958,16.216,12.208,9.778,100.344,49.7,33.028,24.477,19.454,200.105,99.958,66.168,49.213,39.131]],
"kep": [[1.578,2.449,0.42,1.547,2.678,8.466,7.286,8.92,7.334,11.663,16.472,14.188,16.356,18.085,20.883,81.011,71.633,79.015,87.101,100.53,161.097,143.843,155.136,175.26,195.952,319.645,286.059,312.233,348.322,393.52],[0.925,1.231,0.287,0.902,0.623,4.623,2.028,2.874,2.363,2.548,10.14,6.549,5.361,5.331,5.353,55.185,32.294,27.799,24.479,24.058,110.31,67.044,53.213,49.309,47.994,223.621,132.406,108.275,98.025,95.474],[0.49,0.25,0.766,1.167,0.269,5.111,3.205,2.515,1.821,1.756,9.366,5.698,4.368,3.782,3.348,53.219,29.149,20.835,18.177,15.988,103.043,57.56,42.051,36.473,32.333,214.611,115.813,86.206,71.121,64.146],[-3.191,0.514,-0.101,-0.11,0.195,2.528,2.317,2.483,1.337,1.589,9.394,5.229,3.911,3.29,2.589,48.231,28.846,20.467,16.157,13.627,98.851,54.655,38.921,31.636,27.317,206.462,110.94,79.778,63.682,54.363],[-4.706,0.245,1.297,1.037,0.571,0.618,3.036,2.381,1.593,1.788,8.952,4.892,4.134,3.277,2.591,42.691,27.331,18.796,15.342,11.972,98.795,52.991,37.771,29.525,25.355,196.429,105.353,74.566,58.674,50.318],[-8.934,0.013,0.711,1.277,0.456,-4.221,3.859,2.574,1.729,2.287,0.82,5.299,4.416,3.554,3.029,37.703,26.282,17.939,14.364,12.033,90.3,53.082,37.828,28.924,23.727,180.118,104.287,74.143,57.77,48.178]],
"vp": [[0.001,0.001,0.001,0.001,0.001,0.005,0.005,0.005,0.005,0.005,0.01,0.01,0.01,0.01,0.01,0.05,0.05,0.05,0.05,0.05,0.1,0.1,0.1,0.1,0.1,0.2,0.2,0.2,0.2,0.2],[0.001,0.001,0.001,0.001,0.001,0.005,0.005,0.005,0.005,0.005,0.01,0.01,0.01,0.01,0.01,0.05,0.05,0.05,0.05,0.05,0.1,0.1,0.1,0.1,0.1,0.2,0.2,0.2,0.2,0.2],[0.001,0.001,0.001,0.001,0.001,0.005,0.005,0.005,0.005,0.005,0.01,0.01,0.01,0.01,0.01,0.05,0.05,0.05,0.05,0.05,0.1,0.1,0.1,0.1,0.1,0.2,0.2,0.2,0.2,0.2],[0.001,0.001,0.001,0.001,0.001,0.005,0.005,0.005,0.005,0.005,0.01,0.01,0.01,0.01,0.01,0.05,0.05,0.05,0.05,0.05,0.1,0.1,0.1,0.1,0.1,0.2,0.2,0.2,0.2,0.2],[0.001,0.001,0.001,0.001,0.001,0.005,0.005,0.005,0.005,0.005,0.01,0.01,0.01,0.01,0.01,0.05,0.05,0.05,0.05,0.05,0.1,0.1,0.1,0.1,0.1,0.2,0.2,0.2,0.2,0.2],[0.001,0.001,0.001,0.001,0.001,0.005,0.005,0.005,0.005,0.005,0.01,0.01,0.01,0.01,0.01,0.05,0.05,0.05,0.05,0.05,0.1,0.1,0.1,0.1,0.1,0.2,0.2,0.2,0.2,0.2]]
}