{
"KTrans": [[3.204,1.349,2.139,1.168,1.25,13.454,8.341,7.021,5.962,6.442,25.191,16.405,12.992,10.367,10.654,156.514,96.605,73.323,66.364,60.812,397.589,220.761,176.53,151.86,142.216,1108.783,592.569,454.463,390.912,359.249],[1.998,0.752,0.527,1.24,0.718,7.991,4.814,3.823,3.556,2.777,21.676,12.056,8.157,7.144,6.442,125.212,65.807,46.169,35.892,30.57,314.861,143.635,99.787,78.482,65.962,828.036,354.925,229.624,180.882,152.83],[-6.079,0.455,-0.01,0.62,0.378,1.193,6.212,4.09,3.446,2.624,11.47,10.272,8.015,6.061,4.985,108.601,60.813,41.73,30.62,26.571,286.676,134.802,88.371,66.593,55.506,790.71,341.835,205.898,153.654,122.127],[-11.225,2.291,0.79,0.577,0.84,-0.745,3.143,3.962,2.78,2.318,1.645,10.578,7.033,5.401,4.675,97.66,59.138,39.265,30.571,24.771,235.461,133.157,85.103,63.624,51.218,701.404,314.229,196.915,141.51,112.849],[-25.871,0.29,0.222,0.727,0.147,-18.316,3.877,4.448,3.138,2.129,-5.431,11.615,7.253,5.18,4.796,73.162,54.703,38.225,29.058,23.21,212.894,128.955,83.736,62.789,48.779,618.674,310.045,192.746,138.332,108.305],[-29.16,-1.921,-0.033,0.493,0.844,-27.088,5.853,4.092,3.327,2.839,-19.155,10.25,6.827,5.245,4.291,57.248,55.416,39.597,28.537,22.889,165.994,123.963,80.783,60.676,48.696,539.315,304.291,190.1,135.219,105.872]],
"ve": [[1.121,1.694,0.08,0.681,0.797,4.765,-0.155,-0.819,-2.475,-4.491,10.05,1.637,-1.771,-2.976,-6.874,45.896,13.471,-0.938,-11.236,-18.748,93.759,33.651,8.321,-7.16,-18.479,191.74,78.942,35.09,10.42,-6.258],[1.51,0.316,0.012,-0.231,0.067,6.012,2.739,1.403,0.933,0.779,10.759,4.693,2.758,1.721,0.847,49.894,23.594,14.461,9.215,5.286,99.384,47.58,29.308,19.45,12.402,199.628,96.623,60.857,41.34,28.574],[1.783,0.811,0.23,0.361,0.144,5.383,2.823,1.331,1.141,1.128,10.535,4.946,2.919,2.376,1.751,50.368,24.476,15.97,11.575,8.552,100.364,49.552,31.834,22.973,17.199,200.195,98.405,64.698,46.525,35.62],[1.328,1.02,0.369,0.252,0.17,6.406,2.476,1.611,1.178,1.004,10.65,5.304,3.017,2.395,1.732,50.293,25.01,16.393,11.862,9.211,100.915,49.531,32.818,24.193,18.514,201.006,99.499,65.465,48.338,37.695],[1.743,0.725,0.217,0.261,0.173,6.427,2.934,1.471,1.251,0.875,10.656,5.031,3.167,2.389,1.745,51.239,25.012,16.331,12.148,9.464,100.478,49.731,32.812,24.473,19.221,200.989,99.769,65.979,48.93,38.622],[2.254,0.473,0.271,0.435,0.119,5.75,2.911,1.891,1.19,1.081,9.219,4.964,3.358,2.558,2.061,50.978,24.807,16.455,12.411,9.62,102.438,50.686,32.982,24.628,19.577,199.928,100.297,66.21,49.418,39.229]],
"kep": [[2.766,0.235,2.846,2.068,1.796,8.838,9.118,8.512,9.545,13.221,14.154,14.927,15.83,15.09,20.462,76.073,73.644,75.419,87.895,98.766,157.313,140.223,155.567,171.65,197.549,314.601,287.284,310.687,344.863,390.267],[0.672,0.504,0.579,1.527,0.71,2.004,2.119,2.448,2.657,2.04,9.966,7.096,5.297,5.372,5.597,50.394,34.264,27.735,24.469,24.068,108.293,65.165,54.551,49.461,47.691,209.883,131.522,104.957,98.75,96.672],[-7.731,-0.319,-0.212,0.288,0.247,-3.844,3.348,2.744,2.299,1.504,1.053,5.141,4.973,3.622,3.198,38.745,29.219,22.239,17.092,16.614,93.178,57.023,42.938,35.486,32.703,196.808,122.764,85.758,73.135,63.806],[-12.385,1.313,0.459,0.337,0.685,-6.645,0.736,2.333,1.59,1.317,-8.131,5.079,3.942,2.955,2.906,31.601,27.31,19.682,16.752,14.268,67.491,55.996,39.386,31.756,27.608,166.385,107.728,79.462,62.83,54.591],[-26.952,-0.386,0.021,0.476,-0.018,-22.904,0.957,2.969,1.872,1.252,-14.367,6.344,3.993,2.742,3.008,14.758,23.762,18.855,15.088,12.572,56.171,52.964,38.361,30.803,24.805,138.938,105.299,76.392,60.038,50.281],[-30.67,-2.304,-0.277,0.065,0.73,-30.999,2.865,2.17,2.12,1.747,-27.042,5.096,3.379,2.637,2.195,4.294,24.614,19.884,14.369,12.105,32.172,48.651,35.994,28.946,24.365,112.954,101.917,74.569,57.443,47.87]],
"vp": [[10.934,43.09,74.453,-99.005,103.129,20.97,11.629,7.091,10.072,1.617,7.439,16.697,10.225,5.286,13.936,12.184,11.386,9.05,8.151,11.41,11.063,9.282,9.562,9.834,9.005,10.804,9.725,9.834,9.102,9.492],[365.812,8.971,48.514,102.319,15.47,108.793,4.329,4.602,15.972,1.374,49.77,2.847,7.075,12.541,17.071,20.127,12.064,10.377,10.615,8.055,17.362,11.807,10.505,10.376,9.627,15.032,11.696,10.665,10.441,9.921],[1128.708,154.386,93.617,69.601,-48.607,288.49,29.258,21.651,19.883,6.253,138.404,26.185,29.183,6.949,10.8,36.634,16.296,13.267,10.127,13.276,26.676,14.208,11.266,11.536,10.723,21.154,13.384,11.905,11.065,10.639],[2381.502,373.154,141.603,-31.855,-36.649,497.111,67.853,18.794,20.06,2.254,254.361,42.509,11.929,14.783,11.782,62.962,17.413,15.51,11.814,12.761,37.282,16.27,14.334,12.735,11.493,26.131,15.591,12.947,11.335,10.861],[3263.792,397.378,90.47,77.273,-29.178,723.85,184.435,34.07,19.868,7.54,369.37,64.064,24.47,19.731,10.402,82.009,26.626,13.788,12.487,12.147,47.997,19.03,14.885,13.579,12.277,31.08,17.694,14.342,12.89,11.932],[3973.06,884.016,204.256,93.643,63.86,874.97,210.145,64.224,21.048,-0.749,469.431,106.156,26.042,20.181,14.117,102.096,32.982,16.698,14.264,14.848,61.231,23.499,16.402,12.221,13.728,35.689,19.949,15.164,13.444,12.923]]
}