{
"KTrans": [[-1.755,-0.313,0.089,2.38,-0.575,2.596,-2.397,1.789,2.793,0.817,-3.473,2.357,-2.591,1.933,0.031,11.324,4.023,-4.215,-5.008,-4.066,32.386,19.974,4.131,3.455,-1.631,-98.89,41.98,46.202,23.247,21.903],[-51.903,1.335,0.75,1.958,0.068,-49.827,0.59,-1.53,2.14,0.919,-54.607,-2.896,2.264,0.584,0.453,-41.308,-2.293,-7.988,-1.341,-2.235,-21.006,-3.2,-9.178,0.228,-0.317,-75.154,7.19,14.381,8.814,5.088],[-86.792,-3.059,-0.217,-1.745,0.748,-85.441,-5.127,-1.339,-1.492,0.37,-82.832,-10.264,0.81,2.496,0.355,-75.869,-11.178,-8.295,0.056,0.765,-81.052,-0.436,-7.058,-4.468,-5.739,-92.218,-9.722,-2.447,6.668,-11.759],[-94.765,-26.154,-0.537,4.176,2.761,-94.596,-22.948,-0.849,3.356,1.746,-95.156,-28.189,0.229,0.231,1.935,-89.034,-24.605,-4.448,-3.811,-1.265,-90.183,-31.17,-2.101,-4.3,-0.404,-104.045,-32.626,3.463,7.047,-5.404],[-96.923,-45.09,1.836,3.269,2.859,-97.053,-45.214,0.877,2.937,3.052,-96.027,-54.409,0.971,0.837,-0.054,-96.216,-38.065,-5.979,-3.99,-3.07,-99.445,-30.078,-3.542,-7.598,-0.596,-123.523,-30.533,-4.395,-3.741,-3.522],[-98.729,-71.048,-1.737,2.14,2.951,-97.56,-67.834,-3.533,5.457,2.42,-97.492,-64.999,-4.716,-1.423,2.843,-97.406,-59.101,-15.681,1.644,2.264,-102.315,-55.542,-18.658,-14.085,-2.947,-103.276,-46.427,-4.78,1.175,-6.417]],
"ve": [[4.649,4.168,6.641,7.144,19.715,1.464,1.812,4.651,8.404,18.384,6.719,4.914,7.396,5.084,17.704,8.173,-10.113,-12.923,12.695,-241.613,50.1,187.452,-85.245,53.195,-38.66,-24.694,-28.142,-21.718,-36.848,-42.171],[-25.926,-0.841,-0.358,-0.659,-0.203,-28.575,-1.086,-0.885,0.805,-0.75,-30.038,-0.361,-0.924,-0.24,-0.931,-28.829,-1.823,-3.516,0.094,-0.225,-38.606,-10.013,2.901,2.713,3.339,-66.186,-13.108,-6.471,-5.517,-25.472],[-49.095,-3.677,-0.729,-1.306,0.004,-67.338,-4.798,-1.223,-1.577,-0.98,-56.418,-6.828,-0.901,0.348,-1.038,-26.96,-6.855,-5.629,-0.857,0.184,-70.016,-7.172,-5.185,-3.768,-3.052,-74.913,-20.223,-16.167,-4.421,-1.021],[-75.926,-14.185,-1.223,0.051,-0.378,-78.182,-12.576,-1.562,0.2,-0.423,-89.955,-16.853,-2.194,-1.125,-0.67,-74.311,-14.88,-2.604,-4.264,-1.529,-50.014,-44.181,-3.958,-4.443,-1.247,-96.129,-32.205,-11.751,0.287,-7.325],[-85.348,-27.946,-1.616,-0.14,-0.458,-88.736,-25.731,-2.575,-0.711,-0.311,-85.686,-34.986,-3.124,-1.297,-1.312,-81.853,-31.701,-4.633,-4.403,-3.301,-105.993,-22.754,-8.262,-5.831,-1.846,-132.964,-32.076,-11.044,-14.876,-4.991],[-90.733,-49.995,-4.656,-1.186,0.353,-98.135,-48.272,-5.932,0.43,-0.79,-98.227,-41.668,-7.564,-1.905,0.153,-96.426,-47.353,-10.936,-1.541,-0.478,-106.834,-36.933,-30.497,-11.778,-2.953,-93.947,-34.471,-15.332,-9.713,-48.69]],
"kep": [[-5.347,-1.525,-1.155,3.367,-4.395,-1.649,-2.097,1.776,3.822,0.954,-7.495,0.06,-4.789,3.83,-1.667,-8.68,-6.296,-16.313,-16.783,-16.49,-15.436,-10.245,-22.486,-17.805,-36,54.543,-28.915,-10.367,-41.961,-40.443],[-42.835,1.899,1.004,2.672,0.376,-42.371,1.088,-0.768,1.307,1.798,-47.281,-3.603,2.959,0.819,1.489,-55.941,-6.406,-6.794,-2.346,-2.571,-36.071,-20.27,-15.288,-4.949,-4.567,-22.344,-8.901,-20.691,-13.613,-11.863],[-80.594,-1.234,0.043,-0.618,0.653,-81.02,-2.424,-0.631,-0.054,1.293,-76.634,-5.529,1.19,1.97,1.344,-73.97,-13.978,-5.69,-0.109,-0.188,-68.059,-30.07,-11.324,-6.872,-5.569,-49.929,-22.914,-38.931,-12.086,-20.557],[-93.054,-17.087,0.104,3.802,3.08,-92.811,-15.543,-0.043,2.826,2.05,-94.489,-17.631,1.612,1.103,2.498,-83.986,-25.186,-4.414,-1.335,-0.631,-78.003,-53.545,-12.945,-4.861,-1.833,-66.135,-26.713,-33.539,-16.515,-14.419],[-98.123,-32.866,1.95,2.912,3.19,-100.148,-33.688,2.32,3.301,3.161,-97.626,-42.843,1.844,1.761,1.105,-89.079,-47.603,-6.684,-2.21,-0.817,-86.575,-44.07,-22.764,-7.991,-2.863,-71.912,-45.122,-31.887,-38.662,-14.564],[-99.424,-57.673,1.192,2.197,2.302,-100.271,-58.591,-0.058,4.448,2.998,-99.126,-56.648,-0.297,-0.052,2.451,-92.249,-64.795,-14.911,1.332,1.647,-83.953,-54.604,-48.964,-14.945,-3.702,-80.162,-49.79,-40.508,-34.659,-24.258]],
"vp": [[162.772,31.501,112.85,24.752,146.531,3.995,84.148,6.413,1.022,6.543,21.988,-12.608,39.204,4.289,6.916,-3.175,2.835,12.252,23.445,13.989,-3.388,-4.01,9.075,5.787,16.093,7.308,4.428,-7.693,6.188,4.543],[2818.973,82.747,81.111,-55.239,170.443,549.604,40.622,75.195,-35.475,25.736,333.25,39.361,26.672,8.501,26.615,62.26,8.649,29.788,7.083,19.097,22.301,15.586,28.439,3.314,5.933,30.253,9.832,2.653,3.782,5.418],[6534.26,882.809,331.837,487.218,-70.919,1409.889,204.857,71.849,135.868,62.338,606.089,136.471,33.007,-6.169,36.657,102.263,31.327,35.546,6.795,-1.646,73.392,12.41,20.59,20.398,22.263,38.142,20.033,22.73,3.173,31.815],[7998.375,2975.859,406.349,-4.174,33.726,1650.341,562.363,101.36,-46.214,37.899,863.627,349.551,62.823,46.715,10.254,143.975,64.149,16.742,36.36,11.43,83.005,64.627,10.365,18.074,5.163,50.944,31.464,13.048,1.502,18.38],[9219.429,5805.669,304.571,3.332,6.013,1881.411,1100.337,156.926,46.747,7.273,905.264,717.403,104.919,45.268,50.702,198.172,126.197,27.518,37.898,35.402,111.025,45.076,22.496,23.785,7.608,67.558,33.103,12.685,30.139,15.932],[9978.822,10144.346,1365.393,399.017,-166.614,2019.46,1994.343,332.288,-43.581,39.327,979.625,850.77,235.639,71.51,-17.025,179.85,190.315,63.314,11.547,2.399,108.978,79.016,90.331,50.888,14.417,45.512,30.729,20.407,19.006,29.725]]
}