{
"KTrans": [[5.671,0.908,-0.06,0.748,-0.049,2.006,-2.015,-0.672,1.126,0.036,-4.01,-1.853,-2.167,0.676,0.411,-1.429,-1.744,-4.832,-4.868,-1.455,23.779,13.112,-0.749,3.013,4.915,27.952,49.976,16.653,28.014,7.338],[-6.16,0.939,0.256,1.383,0.543,-9.049,1.908,0.098,-0.122,0.115,-13.745,0.244,-0.77,1.083,0.242,-28.464,-6.589,-3.406,-0.921,-1.384,-9.168,-5.79,-9.168,-2.67,-4.815,-39.183,23.378,6.809,-8.176,-3.854],[-37.13,3.578,1.495,0.931,0.053,-36.738,3.144,0.889,1.254,0.914,-37.158,-0.427,1.465,-0.614,0.031,-30.665,-5.29,-6.171,-2.57,-3.244,-26.817,-13.51,-7.513,-6.073,-3.203,-26.337,20.245,17.936,-4.014,-2.592],[-72.137,3.907,2.418,0.565,1.036,-73.69,-0.091,1.383,0.761,1.082,-66.421,1.453,1.954,2.298,-0.167,-57.056,-11.716,-3.222,-4.05,-1.221,-61.193,-7.943,-14.507,-4.547,0.067,-101.796,31.199,-2.192,-2.146,-6.025],[-85.307,2.345,5.217,3.006,2.28,-87.914,2.819,6.752,2.827,1.952,-83.769,-2.477,6.729,2.891,1.683,-76.937,-14.04,0.811,1.704,-2.131,-75.172,-7.48,-10.769,-4.427,-6.794,-101.706,22.224,5.491,-23.171,-1.408],[-92.765,2.67,3.969,5.519,3.129,-92.018,0.721,3.116,2.991,2.344,-91.611,-4.92,5.254,1.28,3.102,-82.821,-14.684,-2.13,-0.752,-1.199,-82.302,-9.766,-7.635,-3.02,-1.29,-73.684,-12.15,41.469,-8.239,6.411]],
"ve": [[1.15,0.483,0.406,0.56,1.904,1.341,1.077,1.754,-0.67,3.403,-1.023,0.166,1.433,0.424,2.004,-175.641,9.045,31.456,35.137,294.531,-20.506,-2.354,-16.766,-110.284,-34.458,-22.905,-78.113,-43.875,-57.366,-83.362],[-4.144,-0.867,-0.161,-0.225,-0.217,-4.949,-0.075,-0.88,-0.696,-0.267,-7.056,-0.674,-0.559,-0.217,-0.437,-23.316,-4.084,-1.722,-0.055,-0.123,-41.27,-4.114,-3.85,0.389,0.521,-56.992,4.339,5.853,-12.019,39.168],[-22.089,0.306,0.153,-0.333,-0.135,-20.668,0.734,-0.657,0.006,-0.232,-21.45,-1.231,-0.441,-0.872,-0.718,-24.922,-3.492,-4.188,-1.444,-1.966,-39.733,-11.373,-5.744,-3.55,-1.722,-34.451,-11.711,-10.304,-1.093,-0.473],[-50.019,-0.312,0.51,-0.457,-0.111,-51.951,-2.146,-0.981,-0.304,-0.389,-45.923,-0.932,-0.735,-0.068,-0.653,-38.112,-8.242,-2.924,-3.201,-0.941,-44.173,-18.159,-10.054,-3.033,-0.331,-102.83,-12.831,-9.169,-2.076,-4.029],[-67.53,-1.656,0.975,0.524,-0.263,-75.395,-0.698,1.584,0.185,-0.054,-66.067,-3.55,1.07,0.062,-0.255,-112.583,-15.334,-1.382,-0.381,-2.073,-67.199,-15.576,-9.738,-2.91,-4.651,-128.445,-14.333,-24.891,-14.509,-1.763],[-83.47,-2.052,0.356,0.86,0.252,-80.901,-3.311,0.247,0.222,0.25,-86.81,-7.83,0.679,-0.702,0.28,45.742,-21.906,-4.197,-2.747,-1.791,-73.19,-15.641,-10.815,-3.225,-1.535,-55.221,-26.678,-22.779,-9.133,3.38]],
"kep": [[4.505,0.902,0.174,1.112,0.022,0.55,-2.874,-1.609,2.729,-0.968,-3.552,-1.712,-2.594,1.457,0.365,-14.198,-7.539,-11.413,-12.845,-8.214,-21.187,-8.418,-16.381,-11.951,-10.198,8.561,-15.03,-53.102,-20.568,-61.583],[-2.909,1.743,0.402,1.629,0.791,-5.002,1.852,0.968,0.576,0.4,-8.542,0.796,-0.263,1.294,0.696,-37.337,-5.936,-2.871,-1.486,-1.565,-59.769,-14.982,-11.228,-5.752,-6.453,-17.482,-24.131,-14.374,-22.12,-13.391],[-24.448,2.993,1.273,1.247,0.178,-24.749,2.138,1.498,1.227,1.141,-26.093,0.534,1.785,0.216,0.729,-52.778,-5.227,-3.651,-1.888,-1.77,-57.504,-21.802,-8.304,-5.973,-3.408,-46.626,-45.733,-9.679,-12.447,-8.974],[-57.36,3.668,1.828,1,1.135,-60.528,1.453,2.302,1.033,1.456,-56.179,1.578,2.526,2.33,0.452,-63.921,-8.522,-2.141,-1.606,-0.751,-63.323,-35.881,-11.253,-4.217,-1.213,-55.163,-36.147,-26.938,-12.435,-9.679],[-78.346,2.86,4.039,2.417,2.53,-83.493,2.233,4.854,2.542,1.971,-79.441,-0.238,5.218,2.749,1.881,-76.908,-20.437,0.385,1.235,-0.608,-71.686,-40.677,-10.952,-4.401,-4.648,-69.491,-28.047,-56.719,-25.798,-7.337],[-93.541,2.145,3.263,4.511,2.832,-92.292,0.79,2.521,2.648,2.019,-94.63,-1.662,3.783,1.852,2.786,-83.147,-33.443,-0.398,1.148,0.076,-80.315,-40.832,-12.154,-3.769,-1.714,-72.441,-46.279,-72.678,-19.028,-4.593]],
"vp": [[-80.701,-23.72,80.209,-12.718,24.657,-10.96,14.845,6.656,2.613,-5.928,23.069,23.043,28.694,-1.015,-2.031,8.22,6.654,15.915,15.245,6.085,-1.025,-2.097,7.899,2.679,1.941,6.189,-6.165,11.417,-0.725,11.912],[379.464,123.108,58.179,-145.976,24.464,112.727,-1.291,44.806,31.147,12.896,74.393,11.878,19.228,2.547,3.792,49.968,19.259,13.134,6.02,8.264,36.836,13.769,21.381,9.504,15.274,29.795,-3.398,3.201,19.072,10.814],[2273.433,-66.139,-51.975,65.874,138.588,421.034,-18.331,20.76,-12.199,7.067,217.661,24.94,1.968,34.553,23.749,52.95,13.516,26.114,14.172,22.507,41.255,24.553,18.995,17.096,11.664,16.974,12.216,-10.923,10.44,9.162],[4973.154,5.749,-163.162,152.79,-29.089,1053.659,75.786,28.023,1.293,4.512,460.413,15.806,20.078,-6.383,28.307,77.482,33.805,17.954,26.227,8.182,45.282,30.181,31.64,12.443,0.015,53.159,8.145,10.841,6.735,13.042],[6766.825,390.494,-332.449,-266.253,-48.071,1451.322,24.69,-104.576,-40.995,-18.813,680.385,70.372,-38.439,-12.293,-5.274,127.01,62.869,10.59,0.455,20.719,65.914,35.277,30.516,10.036,24.667,65.077,13.61,32.213,43.394,4.803],[8398.796,404.834,-128.695,-421.618,-165.207,1676.843,130.382,-24.981,-28.264,-52.308,865.568,154.398,-25.512,18.866,-21.084,140.938,83.947,25.395,22.309,17.563,73.594,29.294,35.211,11.72,5.897,25.619,27.543,33.613,17.824,-10.332]]
}