{
"KTrans": [[6.483,11.854,8.257,14.72,13.563,5.92,15.464,15.777,16.192,13.742,18.045,20.039,27.292,24.011,22.075,56.645,87.113,84.061,70.007,70.245,-24.084,154.67,168.988,120.522,125.634,103.414,-27.016,50.597,-8.997,81.414],[-38.124,-1.885,-1.26,2.646,5.668,-33.008,-0.332,2.842,8.127,10.019,-23.797,-0.803,7.088,8.798,12.348,-21.097,50.834,48.052,31.499,34.628,13.958,79.697,82.223,69.905,64.016,57.723,57.246,109.189,118.947,118.14],[-54.688,-14.099,-8.029,-0.34,2.086,-49.8,-13.925,-3.693,-1.736,2.203,-48.756,-6.631,-0.029,5.602,4.607,-49.859,28.918,23.782,24.134,23.237,-66.287,-34.691,54.939,58.842,46.444,-67.12,-45.153,45.122,69.912,82.052],[-65.789,-18.28,-10.535,-5.537,-4.438,-64.319,-19.651,-9.775,-5.58,-2.625,-64.646,-15.759,-6.706,-3.238,-1.597,-48.184,14.708,14.729,15.123,17.566,-76.047,-34.735,45.659,48.379,38.259,-35.491,4.268,25.153,72.445,83.108],[-75.304,-29.473,-14.604,-11.454,-9.11,-75.689,-33.568,-14.613,-8.836,-5.821,-72.357,-30.561,-14.437,-7.677,-3.046,-65.778,-18.26,13.833,6.865,7.534,-61.827,-28.324,38.124,32.458,35.458,-45.312,-53.446,-63.03,17.58,70.705],[-86.267,-33.358,-20.242,-15.646,-8.953,-80.232,-29.802,-21.747,-12.721,-8.996,-81.595,-30.125,-23.23,-15.376,-7.077,-79.145,-23.061,4.07,3.609,4.982,-83.169,-33.32,29.892,29.995,19.639,-52.043,-39.4,-76.297,29.801,52.123]],
"ve": [[39.023,-16.757,-34.953,0.776,69.758,14.879,35.896,11.504,-104.65,27.626,-15.748,22.83,9.351,66.684,-343.081,53.074,28.392,47.529,-69.077,6.855,97.243,57.396,32.819,1.015,-592.277,201.343,76.685,37.342,12.178,16.332],[1.947,-0.591,2.043,4.554,5.729,13.536,2.811,5.079,3.493,4.613,23.024,6.105,3.76,5.04,7.182,49.991,25.123,14.675,12.789,9.127,92.983,45.865,34.216,21.231,15.513,188.601,90.852,58.583,40.924,34.181],[8.92,0.06,-2.145,0.132,-0.167,0.082,1.762,-0.359,1.08,1.872,12.939,4.372,2.035,3.003,2.14,50.064,25.279,14.257,9.904,8.205,93.681,50.022,29.883,22.429,16.728,198.647,95.27,58.404,40.638,44.655],[8.887,-1.504,-1.121,-1.854,-2.083,9.958,2.002,-1.09,-0.98,0.059,18.336,3.039,0.758,0.865,-0.067,50.521,95.573,13.845,9.894,8.137,95.873,50.153,31.399,22.828,17.795,190.284,92.877,63.571,45.919,37.551],[7.375,-1.075,-1.138,-2.327,-2.781,-1.142,0.123,-1.337,-1.178,-1.185,18.771,2.606,0.564,-0.224,0.153,44.941,18.22,14.036,9.816,7.113,92.373,45.178,29.745,21.569,16.915,187.184,93.987,60.282,44.282,35.521],[776.698,0.762,-2.49,-3.137,-1.556,13.226,2.818,-1.593,-1.055,-1.97,13.396,2.595,-1.009,-0.24,-1.595,53.439,22.112,13.681,8.462,6.448,97.881,44.907,28.594,22.039,16.731,187.04,95.16,63.391,35.011,31.77]],
"kep": [[-25.054,-19.566,-30.517,-22.389,-29.392,-27.789,-24.808,-25.604,-23.93,-32.764,-19.749,-19.11,-8.917,-16.022,-21.573,-23.994,20.126,28.195,26.209,42.21,-58.335,36.458,81.225,63.449,75.183,-30.718,-48.207,-3.196,-44.826,16.795],[-56.769,-24.363,-26.257,-24.976,-23.505,-53.166,-25.483,-25.04,-20.548,-19.688,-49.024,-27.794,-21.562,-21.229,-19.515,-58.068,-8.525,-2.136,-11.517,-6.507,-51.118,-7.946,4.152,6.155,7.471,-50.819,-33.656,-1.161,15.101,24.404],[-68.529,-34.587,-28.992,-24.742,-22.637,-65.44,-35.454,-26.986,-26.507,-24.159,-66.636,-31.943,-25.847,-22.463,-22.688,-73.819,-21.721,-18.213,-14.761,-14.116,-80.239,-62.802,-10.289,-2.707,-5.493,-84.564,-68.303,-28.533,-13.384,-0.021],[-75.985,-36.826,-31.683,-27.308,-26.434,-76.059,-40.528,-31.138,-27.996,-26.549,-76.242,-38.563,-30.07,-27.686,-25.709,-72.834,-30.834,-24.258,-21.016,-18.079,-85.711,-63.986,-17.155,-10.024,-11.941,-79.935,-54.371,-37.612,-12.141,-0.796],[-83.482,-46.043,-34.82,-31.668,-29.588,-83.498,-49.8,-34.51,-30.366,-28.137,-82.262,-49.048,-35.981,-30.232,-27.054,-81.303,-48.245,-25.285,-26.95,-24.369,-82.63,-60.359,-21.215,-18.533,-13.311,-82.379,-74.782,-76.023,-38.702,-6.183],[-90.54,-50.187,-38.277,-34.368,-30.298,-86.804,-48.827,-40.012,-33.517,-30.072,-87.631,-48.404,-41.465,-36.014,-28.908,-88.687,-52.167,-31.59,-28.462,-25.837,-90.506,-64.306,-26.208,-20.98,-23.28,-84.977,-73.316,-80.994,-31.855,-16.188]],
"vp": [[339.827,365.869,-577.804,374.2,1060.208,36.193,59.707,65.597,97.991,53.642,-60.318,-3.52,57.575,20.212,21.337,13.019,-19.41,23.234,14.906,-3.095,-18.548,-17.626,-25.597,-32.639,27.11,-23.408,-8.929,-3.613,1.707,7.119],[2385.502,808.794,-385.597,216.712,-214.682,615.134,-21.526,-57.533,-53.697,95.397,248.309,111.37,-34.298,-16.638,-25.929,48.171,-14.712,-7.737,-19.164,-8.946,-27.235,-11.858,-11.305,-29.468,-27.425,-28.042,-41.909,-16.371,-25.335,-23.062],[5207.019,3264.212,723.086,1163.993,-235.881,842.074,633.186,397.193,239.235,-54.017,429.619,235.378,177.62,66.557,-23.519,60.462,35.182,-9.114,-0.519,-23.173,24.921,13.373,-18.174,-28.109,-33.378,-8.24,-14.38,-27.917,-33.151,-39.892],[4856.654,5258.454,2661.498,2636.242,1106.405,1116.315,1082.294,627.2,218.221,257.066,539.542,436.472,288.367,181.894,62.632,70.01,92.337,32.49,18.191,7.766,28.441,13.713,15.747,13.413,-19.23,-27.422,-20.55,-51.863,-34.079,-18.171],[6534.425,6695.904,5393.968,2895.07,1688.668,1037.431,1112.156,1026.791,568.507,458.126,575.559,698.583,541.445,313.235,184.789,62.224,115.966,127.289,28.355,10.601,28.25,39.19,20.884,4.23,-12.555,-6.695,-2.018,-37.527,-17.04,-33.917],[6408.501,9277.114,7179.587,3342.177,3343.215,1379.08,1787.038,1133.738,793.395,685.281,668.481,858.59,463.303,320.657,332.189,88.505,150.192,127.305,54.698,12.377,49.184,37.136,36.528,23.36,0.534,-16.213,-6.23,8.906,-42.494,-37.887]]
}