{
"KTrans": [[8.655,31.77,26.165,24.208,30.929,42.317,28.982,25.638,28.495,18.524,18.41,32.655,20.36,29.704,17.615,50.172,42.47,49.657,43.282,37.619,90.755,67.68,69.216,64.671,67.968,168.104,139.7,133.675,92.577,98.992],[-41.398,1.151,7.464,11.607,12.307,-51.156,-4.049,1.648,4.723,14.816,-50.897,-10.665,3.012,10.397,14.882,-30.898,0.625,5.506,20.672,16.718,-21.882,9.965,25.089,28.22,29.813,15.339,36.165,44.648,45.615,49.477],[-75.465,-32.007,-15.669,-4.104,4.094,-76.632,-27.475,-13.108,-4.6,4.484,-73.579,-32.851,-11.341,-5.102,3.962,-65.249,-32.929,-16.949,-1.316,2.719,-50.505,-30,-6.342,4.98,7.779,-54.446,-18.802,7.562,19.635,23.558],[-88.858,-48.771,-30.3,-19.965,-9.204,-84.556,-52.214,-26.415,-17.864,-4.688,-83.428,-57.396,-31.856,-19.248,-7.34,-79.608,-47.759,-31.554,-16.419,-4.889,-70.299,-42.383,-20.728,-7.315,0.91,-69.842,-28.092,-23.082,-8.665,4.722],[-89.104,-62.312,-41.238,-29.545,-19.749,-87.11,-62.388,-43.486,-32.751,-21.517,-89.185,-59.426,-42.234,-29.599,-19.463,-85.279,-60.097,-38.638,-29.834,-15.645,-77.453,-54.897,-44.49,-26.485,-15.674,-87.06,-60.504,-33.959,-17.433,-9.642],[-93.18,-75.316,-52.681,-41.029,-28.372,-90.489,-68.39,-50.126,-41.407,-32.5,-89.772,-71.539,-55.691,-39.442,-29.551,-88.566,-69.489,-55.526,-40.541,-27.914,-78.89,-62.572,-51.454,-41.485,-25.534,-91.134,-60.975,-47.24,-37.674,-25.288]],
"ve": [[2.494,7.827,-19.546,6.428,-42.707,215.221,-115.158,46.218,-1090.771,209.027,-2.227,263.975,-18.498,-41.257,159.533,49.785,-97.032,36.763,29.07,43.809,44.444,50.571,164.599,-1605.01,-1068.505,104.832,-98.529,12.62,-16.699,-14.47],[-1.832,-3.108,3.502,10.86,13.172,-7.54,3.697,5.04,10.365,14.465,-14.369,3.645,8.034,10.659,-6.46,-6.141,7.765,11.244,16.344,14.715,33.306,21.576,3.261,10.897,16.759,95.305,36.151,14.237,-0.449,17.947],[-34.908,-8.177,-3.849,-1.627,2.288,-45.408,3.236,-3.504,-0.878,0.949,-164.054,-0.699,-2.942,-0.565,3.819,9.191,-3.395,0.171,4.457,4.911,23.15,6.453,-0.13,10.171,9.745,-5.66,25.729,11.515,40.844,90.348],[-130.066,-19.892,-9.359,-7.195,-3.464,-67.438,-13.675,-8.44,-6.584,-2.259,-44.833,-20.544,-8.029,-7.374,-3.195,-29.476,-14.577,-5.969,-3.293,0.482,-239.336,-0.472,8.179,5.527,6.554,95.328,43.399,-8.023,14.223,11.596],[-41.588,-28.028,-15.11,-11.231,-7.474,-30.882,-28.264,-13.002,-11.245,-7.931,-49.328,-32.853,-14.119,-8.865,-6.46,-30.434,265.167,-8.157,-7.501,-2.961,-324.741,-4.587,-2.756,-2.168,-1.082,66.615,-11.368,8.313,9.577,11.729],[-57.902,-118.891,-18.785,-15.009,-10.173,-59.178,-5.47,-16.776,-12.834,-10.68,-51.486,-32.203,-18.81,-12.501,-9.802,-21.118,-20.689,-15.134,-11.043,-6.384,16.091,-1.236,-4.287,-8.607,-1.731,46.2,-7.732,3.055,-0.519,3.45]],
"kep": [[-44.263,-29.163,-40.653,-49.198,-44.535,-28.418,-36.697,-36.615,-39.529,-57.568,-40.805,-32.947,-44.881,-39.962,-61.772,-37.286,-30.653,-23.571,-34.742,-43.882,-32.708,-35.099,-25.639,-29.478,-16.808,-27.492,-33.847,-13.879,-40.505,-19.216],[-62.161,-36.698,-33.758,-33.307,-34.481,-69.75,-40.133,-36.583,-38.023,-33.953,-69.941,-43.799,-38.803,-35.931,-31.748,-66.201,-43.566,-39.03,-29.718,-33.512,-70.487,-47.772,-33.615,-31.108,-31.048,-61.891,-53.087,-41.19,-33.838,-28.421],[-85.387,-53.489,-44.441,-38.279,-35.386,-87.008,-52.326,-43.175,-39.341,-34.342,-83.726,-55.106,-42.295,-39.419,-36.494,-83.166,-57.595,-47.986,-40.167,-37.683,-79.244,-64.09,-46.439,-40.457,-38.229,-79.697,-71.667,-49.496,-41.616,-36.258],[-93.384,-61.814,-51.868,-45.767,-40.626,-89.375,-65.098,-49.819,-44.777,-38.456,-90.431,-68.689,-53.475,-45.145,-39.611,-90.004,-64.825,-54.573,-45.96,-40.31,-86.546,-68.363,-53.616,-45.255,-40.789,-87.127,-70.122,-63.721,-52.664,-43.982],[-93.101,-71.574,-57.177,-50.167,-45.269,-92.809,-69.521,-59.324,-52.433,-46.362,-94.434,-69.753,-58.096,-51.558,-45.795,-93.462,-73.409,-58.955,-52.429,-45.443,-89.868,-74.563,-64.768,-53.113,-46.783,-91.008,-83.408,-68.585,-54.986,-49.97],[-96.277,-79.414,-63.703,-56.728,-49.928,-94.564,-75.589,-62.877,-57.939,-52.413,-94.357,-77.977,-66.027,-56.824,-50.827,-95.073,-79.934,-67.454,-58.826,-51.722,-91.966,-79.665,-68.827,-60.612,-52.844,-90.779,-82.148,-73.443,-65.242,-56.1]],
"vp": [[688.259,-1403.428,-831.495,-680.518,-1243.469,-77.332,-36.099,-158.831,-136.95,-107.781,-60.07,-98.433,-21.355,-109.016,2.873,-23.098,-0.295,-38.637,-24.642,-25.814,-20.099,-7.813,-17.629,-4.778,-17.624,-32.636,-20.14,-20.396,7.437,-2.197],[2635.492,204.997,-1188.991,-668.625,-1402.071,503.044,-48.929,108.311,11.967,-263.286,350.66,57.092,-51.116,-84.7,-91.298,36.862,11.051,-5.326,-36.518,-16.48,13.913,10.196,-20.005,-9.552,-35.114,-30.986,-11.181,-9.856,-8.712,-19.221],[6094.142,2763.408,1510.207,614.434,-771.691,1096.258,582.51,283.853,108.054,-76.399,549.359,364.535,135.809,92.044,-50.372,79.018,80.531,58.743,15.776,3.331,19.29,62.359,27.601,-6.746,8.335,12.378,17.456,0.551,-10.321,-14.966],[7630.113,5146.232,3411.044,2649.061,1555.231,1289.613,952.033,567.634,545.884,4.07,617.464,591.896,421.092,280.626,130.597,116.766,133.412,87.184,49.224,20.997,47.155,40.352,20.112,1.92,-12.421,25.401,-3.573,30.063,26.662,3.714],[7373.408,6658.312,5843.437,4518.707,3686.736,1303.317,1391.533,1084.515,1006.68,790.662,741.391,643.064,503.298,388.961,327.235,117.882,140.625,104.041,109.159,49.974,45.125,62.136,71.136,41.469,38.93,20.517,37.437,36.292,6.916,8.955],[7981.79,9897.011,7351.704,7398.168,5298.112,1472.746,1629.322,1312.438,1343.8,1320.556,700.144,893.247,780.403,692.849,505.105,148.472,172.428,171.229,156.315,111.482,35.801,46.952,86.636,93.491,44.981,16.037,25.207,34.348,39.194,42.391]]
}