{
"KTrans": [[-54.181,-71.248,-75.345,-69.051,-83.03,-33.955,-66.235,-70.645,-71.855,-69.478,-18.417,-50.66,-59.556,-61.819,-73.114,61.056,11.383,14.042,-3.805,-2.03,131.069,50.41,35.121,31.247,22.512,268.223,179.109,140.281,100.801,107.806],[-56.138,-39.446,-53.647,-64.795,-62.364,-52.876,-33.849,-42.431,-59.533,-64.071,-51.006,-28.098,-38.752,-54.734,-53.467,-30.279,-0.556,22.585,-5.495,-11.791,-12.899,17.213,41.62,11.579,0.563,19.659,48.88,94.469,17.697,12.785],[-73.998,-43.484,-46.055,-47.098,-44.62,-67.903,-44.808,-43.835,-41.751,-42.932,-66.367,-44.45,-40.461,-28.522,-28.701,-54.921,-26.231,-11.014,0.431,9.595,-40.933,-18.259,-1.512,13.294,26.779,-32.284,-1.064,12.103,30.857,47.833],[-77.452,-55.679,-45.509,-53.322,-45.604,-76.26,-57.547,-46.245,-36.653,-45.203,-78.337,-51.001,-41.744,-40.41,-40.66,-69.105,-41.061,-20.366,-10.415,-5.5,-59.984,-35.824,-7.211,-3.559,2.113,-46.963,-24.856,-4.233,5.097,9.936],[-82.519,-60.074,-56.113,-47.526,-50.636,-81.845,-60.918,-48.197,-40.886,-43.74,-81.716,-59.926,-47.294,-39.318,-44.601,-75.434,-55.48,-27.784,-21.556,-10.423,-69.325,-47.939,-18.45,-8.857,3.325,-56.13,-38.47,-8.972,-5.09,5.344],[-86.5,-69.739,-52.194,-48.524,-42.888,-85.432,-66.165,-50.219,-45.706,-49.281,-85.54,-66.589,-47.93,-40.039,-44.433,-81.97,-64.061,-38.774,-22.916,-25.216,-75.575,-61.835,-26.159,-11.029,-6.325,-64.528,-55.165,-22.131,-7.638,2.921]],
"ve": [[-58.472,440.128,75.804,-128.031,93.445,-33.217,-61.627,-125.107,-19.922,-74.796,-51.004,-41.779,57.871,-21.286,-13.694,67.492,-15.448,-117.714,-31.308,-32.142,62.825,18.164,-64.379,-54.798,41.391,274.114,69.522,14.192,166.096,-12.834],[-23.909,-34.16,-54.413,-48.982,-19.596,-57.839,-35.973,-48.587,-52.26,-43.198,-16.329,0.783,-37.378,-47.737,-45.175,31.015,13.711,27.92,-1.147,10.785,112.658,37.384,44.195,0.892,13.629,170.8,82.57,96.542,14.942,3.658],[-91.94,67.851,-78.199,-57.478,-44.314,4.898,-79.503,-41.429,-52.645,-42.562,-16.697,-47.624,-67.191,157.589,-38.54,20.243,-17.559,11.872,26.059,8.824,109.062,3.972,16.393,16.022,28.851,158.251,48.183,-108.787,46.087,46.504],[22.169,-47.358,-78.849,-96.428,-68.884,51.316,-53.312,-87.596,-56.503,-61.892,6.464,-54.855,-74.403,-73.243,-49.081,120.381,-4.443,-22.493,-2.024,-0.02,251.998,1.155,0.305,3.693,1.356,203.143,23.047,7.53,6.536,35.266],[11.21,-54.446,-122.263,-94.5,-88.91,24.795,-50.332,-100.27,-85.723,-79.736,35.102,-38.687,-92.609,-80.604,-75.024,72.208,-23.541,-39.272,-40.883,-18.081,137.848,-4.645,-4.19,-4.452,-1.964,254.096,16.087,6.973,-0.588,4.63],[13.102,-47.043,-86.672,-111.172,-91.382,16.934,11.001,-91.305,-96.137,-102.276,12.291,-34.2,-76.605,-93.149,-100.201,208.666,5.811,-36.799,-44.941,-58.108,120.772,-1.27,-14.142,-11.068,-3.599,246.439,23.234,-2.987,-0.571,0.059]],
"kep": [[-125.265,-69.383,-7.466,5.017,-3.406,-141.049,-83.89,-22.683,-22.832,29.903,-138.993,-54.541,-13.25,-11.489,19.742,-119.206,-45.814,-40.286,6.654,-5.145,-123.774,-61.776,-19.471,-9.116,18.497,-128.127,-96.908,-66.255,-14.506,-14.98],[-87.128,-83.288,-133.737,-61.998,-6.733,-92.29,-83.059,-123.893,-69.22,-2.343,-87.202,-89.153,-141.256,-36.659,-6.436,-84.24,-74.839,-135.946,-37.526,-2.344,-87.537,-80.331,-135.655,-55.857,-18.456,-78.665,-69.429,-141.761,-36.375,-23.504],[-93.449,-51.14,-29.609,-55.402,-131.679,-91.746,-51.153,-35.362,-69.044,-139.101,-96.551,-52.74,-35.506,-69.311,-121.202,-93.813,-41.404,-37.289,-51.301,-125.423,-91.716,-46.236,-41.9,-65.466,-140.541,-85.299,-47.88,-29.245,-59.802,-122.486],[-97.915,-55.777,-23.788,-16.632,-21.746,-97.938,-56.303,-19.963,-20.868,-25.57,-97.022,-50.287,-20.332,-15.66,-7.184,-96.82,-53.676,-25.127,-18.882,-21.422,-97.209,-51.199,-19.12,-18.808,-14.576,-93.917,-47.98,-20.145,0.667,-7.556],[-99.629,-57.917,-24.502,-10.838,-6.627,-100.456,-61.213,-28.049,-6.877,-4.726,-99.382,-63.538,-24.988,-11.407,-12.101,-96.835,-60.184,-21.665,-10.5,-5.941,-99.952,-57.768,-24.908,-13.719,1.818,-99.357,-54.32,-22.972,-10.005,-3.658],[-99.796,-71.301,-34.466,-11.987,-3.911,-101.746,-69.148,-31.001,-15.216,-7.856,-98.136,-69.841,-33.418,-7.961,0.643,-98.173,-76.733,-32.907,-9.386,-1.45,-99.301,-69.767,-24.604,-9.923,-11.694,-98.546,-68.842,-26.622,-11.641,3.592]],
"vp": [[-221.75,173.049,190.79,301.648,-78.497,13.849,-68.273,-32.812,25.201,85.724,28.451,18.858,-24.351,-43.219,-30.884,8.797,1.978,-0.323,-8.009,-5.299,3.833,2.356,4.349,5.163,3.932,0.832,-4.565,-0.211,-1.043,-0.066],[2905.868,1123.602,-247.977,-534.924,117.595,481.991,237.427,-5.129,-121.858,-5.001,248.409,128.399,-12.624,-23.761,29.447,51.997,17.161,1.835,-5.213,-3.8,25.381,6.524,3.07,-2.196,-0.18,8.313,5.373,0.433,1.538,-1.733],[4439.208,2993.474,1020.711,259.598,249.461,978.231,445.481,196.217,96.862,-83.844,476.391,276.844,98.747,88.999,15.113,96.907,38.46,29.631,16.147,-9.593,43.937,22.105,12.032,7.686,-0.092,23.606,7.918,2.161,-1.731,1.029],[6159.537,5131.623,2167.146,111.694,391.892,1196.298,823.275,278.866,285.863,158.087,623.348,393.447,149.481,116.362,10.669,120.571,91.965,34.585,29.263,15.281,54.369,40.207,9.089,9.045,3.797,28.867,16.64,4.86,0.428,-2.536],[7294.951,5275.611,1899.598,1545.713,420.757,1450.759,1219.438,586.786,170.286,129.906,715.781,639.171,217.877,76.461,54.895,126.687,121.297,38.749,20.327,2.98,65.853,53.169,25.495,10.645,-2.518,36.781,21.989,8.156,5.933,0.295],[7538.926,7521.959,4535,1562.12,901.82,1581.68,1490.508,728.036,383.677,162.849,770.915,764.551,443.507,152.229,17.684,140.955,165.119,96.189,18.605,-7.005,71.139,84.304,33.687,15.715,7.595,35.047,39.472,16.879,7.098,1.729]]
}