{
"KTrans": [[4.528,3.662,0.104,3.217,3.331,15.548,7.18,6.133,3.937,7.487,20.266,18.168,13.568,9.328,13.804,170.96,93.283,73.818,65.58,61.802,388.113,228.009,180.534,155.42,143.905,748.922,571.65,434.07,374.201,354.822],[-14.259,3.132,0.45,2.879,1.451,-7.35,6.874,5.518,4.475,3.667,12.905,13.861,10.077,7.229,6.991,101.47,67.5,45.664,34.538,31.337,225.256,159.512,100.144,81.887,65.88,129.324,392.848,232.047,178.001,155.951],[-32.194,4.571,-0.099,2.177,1.04,-22.021,5.393,4.99,3.66,2.668,-18.786,12.85,10.115,6.165,4.447,47.068,59.5,42.738,33.952,28.218,73.57,145.824,92.172,70.206,55.256,-37.238,387.911,213.743,167.332,125.163],[-49.742,3.806,0.872,-0.712,1.02,-42.974,5.991,5.619,3.501,2.547,-44.532,11.073,7.383,6.393,5.597,-8.562,58.459,38.744,30.603,23.889,12.33,145.08,87.289,66.693,54.889,19.639,351.637,218.593,151.216,124.615],[-62.155,-0.977,2.422,2.094,2.104,-55.474,0.134,7.824,4.768,3.598,-54.708,7.947,7.684,5.053,5.832,-31.366,60.249,43.214,33.339,25.551,-1.094,129.16,89.047,63.44,50.545,-55.561,235.047,208.75,149.309,115.79],[-74.95,-4.123,-1.539,2.456,0.889,-67.339,0.807,6.115,3.593,2.927,-68.64,3.327,7.6,6.926,6.016,-42.797,50.356,45.101,30.399,25.63,-13.381,112.484,94.388,65.636,53.077,-56.758,169.749,229.543,149.758,116.668]],
"ve": [[5.435,2.941,6.387,4.129,6.961,9.579,4.956,3.642,5.222,2.524,10.119,3.609,1.017,7.49,-6.96,47.23,15.189,-0.56,-9.668,-17.394,94.202,33.794,8.765,-6.928,-18.291,210.866,79.773,35.564,10.994,-5.046],[-331.582,1.342,0.124,0.114,-0.143,7.47,1.993,1.93,1.221,0.788,12.213,5.317,2.993,2.476,0.984,50.457,23.81,15.273,9.157,5.019,93.437,49.138,29.145,19.312,12.731,202.281,97.435,59.678,41.708,29.839],[4.018,1.156,0.54,-0.183,0.422,8.481,3.242,1.751,1.276,0.492,16.518,4.463,3.633,2.264,1.656,51.383,25.547,15.49,11.623,8.535,101.867,50.405,31.659,22.618,17.163,201.449,99.395,64.191,47.285,35.8],[3.967,0.086,0.19,-0.056,-0.031,6.806,2.417,2.443,1.018,0.773,7.208,5.329,2.234,2.556,2.009,57.914,25.7,16.273,12.129,9.257,100.762,50.745,32.129,23.73,18.753,202.209,100.224,65.153,48.507,37.959],[10.09,0.856,0.451,0.217,0.368,-18.028,3.058,1.761,1.05,1.23,11.701,5.731,3.488,2.574,1.645,48.877,25.385,16.902,12.123,9.574,107.435,49.787,32.998,24.139,19.02,201.978,87.296,65.819,48.888,38.961],[5.13,0.283,0.616,0.581,0.104,-24.034,3.231,2.209,1.478,1.078,16.143,6.379,3.066,2.433,1.674,52.219,24.639,16.343,12.706,9.664,104.185,50.557,33.099,24.761,19.763,203.31,102.501,66.32,48.836,38.751]],
"kep": [[2.171,3.514,-0.885,5.262,7.174,8.722,5.246,6.369,4.246,12.557,11.153,16.235,15.063,9.873,27.364,84.739,69.132,76.329,86.409,99.393,151.708,145.78,159.384,176.068,200.194,185.814,272.923,293.733,327.741,379.687],[-16.511,2.258,0.577,3.039,1.982,-12.961,5.121,3.862,3.446,3.141,0.528,8.56,7.087,4.884,6.26,32.451,35.607,26.587,23.448,25.269,60.062,73.858,54.94,52.555,47.306,-20.413,147.927,107.377,96.032,97.085],[-35.053,3.572,-0.497,2.472,0.686,-28.221,2.064,3.26,2.431,2.287,-27.566,8.203,6.383,3.883,2.833,-2.763,27.091,23.634,20.09,18.171,-15.206,63.09,45.927,38.816,32.578,-77.092,141.807,90.296,81.112,65.645],[-53.195,3.59,0.747,-0.56,1.076,-47.678,3.613,3.26,2.553,1.825,-52.636,5.719,5.106,3.783,3.547,-40.363,26.002,19.367,16.535,13.448,-43.148,62.023,41.511,34.595,30.404,-57.772,122.749,91.94,68.667,62.511],[-64.285,-1.8,2.04,1.94,1.779,-60.162,-2.66,5.964,3.718,2.405,-60.277,2.393,4.214,2.482,4.195,-55.899,27.683,22.549,18.979,14.6,-51.84,53.022,41.872,31.51,26.446,-83.043,65.453,84.805,66.845,55.051],[-76.784,-4.384,-2.094,1.895,0.831,-70.287,-2.223,3.806,2.122,1.838,-73.427,-2.809,4.441,4.466,4.333,-62.826,20.528,24.787,15.743,14.566,-57.501,40.012,45.639,32.617,27.816,-84.261,31.671,95.819,67.24,55.801]],
"vp": [[466.607,95.605,-62.801,-93.572,186.116,63.519,-2.129,-27.167,-27.891,34.738,53.824,6.184,5.835,20.952,-8.425,19.045,4.169,14.836,6.747,3.368,6.201,11.963,10.364,11.907,6.373,7.242,-0.351,4.228,2.039,14.333],[2620.08,115.332,85.259,47.53,-181.463,475.416,72.545,102.287,35.823,-28.993,252.808,63.126,27.364,21.498,23.501,69.018,18.302,18.189,8.362,2.782,41.51,23.702,16.004,19.205,9.759,14.728,15.701,3.387,6.254,14.909],[5372.63,1065.999,-262.437,180.14,190.364,1041.799,232.114,104.235,54.002,2.673,548.723,127.942,53.446,37.29,12.293,116.213,26.504,25.477,23.71,13.277,66.78,35.021,9.801,7.216,6.671,34.93,15.591,7.755,24.455,14.01],[6763.995,2954.215,469.255,278.803,14.063,1342.08,502.014,169.575,69.101,14.134,704.58,256.371,73.173,22.167,45.279,140.224,79.344,22.219,11.808,11.435,57.511,39.739,12.777,20.857,23.365,34.238,36.086,16.527,15.139,22.705],[8207.562,4084.375,895.606,-50.788,90.98,1619.284,793.92,267.16,95.846,33.622,830.852,440.908,116.134,26.607,8.39,157.031,114.506,56.353,34.386,28.956,78.275,64.785,28.56,12.235,2.981,41.945,44.57,18.191,18.397,19.692],[8903.539,6865.782,1189.701,654.947,245.319,1748.31,1345.584,449.853,102.294,38.237,852.518,629.5,162.678,70.339,18.367,180.75,133.767,49.626,26.657,26.151,88.445,78.989,44.486,27.983,29.04,41.796,64.897,28.226,15.27,18.48]]
}