{
"KTrans": [[51.634,37.58,19.774,31.022,28.528,64.289,52.621,28.415,42.406,40.52,93.422,55.007,49.676,43.404,32.92,261.985,156.293,116.226,104.712,95.282,557.353,318.667,229.969,197.093,190.494,1469.274,717.718,543.328,471.644,441.285],[-84.948,89.02,54.728,52.903,39.775,-37.949,98.757,56.47,59.973,39.183,-83.593,105.207,66.868,48.071,40.925,-6.633,226.442,111.439,89.92,70.191,120.923,303.333,214.116,127.217,122.333,231.413,722.525,381.636,256.05,232.607],[-123.441,121.686,132.267,81.626,45.25,-130.034,87.167,107.301,62.245,67.41,-136.559,105.896,109.572,68.399,62.248,-136.004,247.68,187.218,113.152,84.137,-212.714,252.574,288.667,184.773,125.781,-205.707,836.894,439.725,292.455,228.285],[-125.655,-69.446,191.699,133.555,73.327,-127.241,-80.656,180.998,141.21,92.574,-120.914,-117.303,221.919,151.563,81.244,-156.872,-62.725,274.041,165.587,124.617,-223.225,-141.384,404.896,255.525,156.072,-268.666,-395.685,722.976,380.573,270.35],[-128.31,-180.559,22.389,217.478,149.217,-116.875,-164.387,-4.985,260.647,138.741,-125.846,-180.465,19.543,236.277,143.293,-123.273,-213.658,-34.97,270.257,220.277,-165.483,-219.069,149.566,429.235,270.635,-254.933,-341.908,233.067,580.942,346.826],[-119.736,-168.288,-137.998,161.636,221.251,-125.013,-151.746,-211.982,204.269,250.254,-116.137,-196.137,-199.133,181.995,234.841,-135.016,-185.282,-196.261,206.357,291.415,-127.873,-172.403,-150.571,348.328,387.747,-144.089,-348.845,-285.771,599.458,482.406]],
"ve": [[4.818,5.033,12.898,-12.998,-9.466,10.623,4.562,64.013,8.305,17.748,13.218,4.67,1.47,4.353,40.548,48.686,15.074,-1.81,-10.478,-19.473,97.399,37.175,8.091,-7.846,-18.594,193.424,80.274,36.344,10.945,-5.181],[6.805,3.106,1.167,3.623,0.45,14.918,3.258,4.05,3.717,1.936,9.747,5.505,4.535,3.407,1.632,47.869,24.155,14.303,11.519,5.674,111.729,49.812,33.117,19.035,14.546,201.814,100.981,63.12,41.055,31.505],[2.441,4.524,3.055,2.558,1.042,9.653,6.388,4.024,1.768,4.201,8.891,7.734,3.565,2.498,3.751,52.032,27.839,19.061,12.579,9.954,103.392,52.752,35.883,25.449,17.867,197.697,101.789,64.046,47.748,38.271],[-8.495,4.374,0.369,3.345,0.217,10.552,9.249,2.686,3.765,4.202,11.118,5.426,8.106,7.001,3.459,51.456,16.305,17.666,12.34,12.353,103.839,52.313,34.083,27.738,21.588,192.388,103.389,70.293,50.652,42.105],[2.416,5.011,2.871,3.893,4.932,3.518,5.005,2.115,4.298,2.257,6.637,7.809,4.886,5.619,5.572,48.591,26.121,18.986,15.793,13.986,101.572,50.321,34.666,27.54,23.69,203.829,100.982,64.262,51.367,42.821],[1.396,0.371,2.556,2.876,2.74,2.293,4.592,3.523,3.108,3.695,11.549,6.469,5.518,4.446,4.098,51.89,26.065,18.011,15.547,13.287,98.429,51.383,34.502,24.553,21.225,209.257,102.653,68.274,52.162,42.613]],
"kep": [[42.847,35.012,21.587,41.869,42.775,46.267,47.245,29.105,54.58,60.824,68.13,48.509,54.475,59.024,51.45,136.961,119.885,117.347,127.818,143.094,224.291,202.099,201.185,217.878,251.437,430.396,348.527,367.312,410.211,466.211],[-88.565,74.096,47.469,45.761,36.735,-48.621,79.546,45.623,51.699,35.22,-88.015,84.754,53.574,39.298,35.371,-40.596,146.702,77.295,66.053,56.431,4.671,160.257,129.863,83.77,89.559,9.102,300.269,188.035,144.944,147.824],[-118.642,98.551,111.486,68.383,37.779,-124.154,65.53,89.401,51.461,56.71,-126.454,78.772,89.548,54.225,50.668,-120.739,158.768,129.482,80.598,61.745,-151.364,120.227,175.504,117.762,83.368,-131.408,350.425,213.106,155.33,129.638],[-122.624,-71.521,164.251,112.997,61.373,-121.675,-83.51,150.585,116.84,76.982,-114.939,-113.472,181.284,124.816,66.562,-133.057,-69.198,197.321,120.833,91.05,-157.453,-122.618,254.046,166.218,102.474,-151.829,-234.563,368.138,204.887,153.043],[-124.227,-169.535,12.498,186.394,125.847,-113.374,-153.972,-15.106,223.788,117.774,-119.886,-167.801,8.769,198.498,118.528,-112.337,-180.412,-44.065,202.072,167.665,-130.24,-170.846,76.024,291.403,186.565,-147.998,-210.544,92.092,326.303,200.522],[-116.653,-157.254,-131.191,136.58,189.08,-120.541,-142.035,-192.966,172.014,212.855,-111.605,-179.079,-183.232,149.743,197.214,-120.526,-159.499,-169.226,151.124,225.322,-112.13,-141.659,-129.254,232.871,274.291,-111.537,-213.584,-199.38,336.337,287.777]],
"vp": [[0.001,0.001,0.001,0.001,0.001,0.005,0.005,0.005,0.005,0.005,0.01,0.01,0.01,0.01,0.01,0.05,0.05,0.05,0.05,0.05,0.1,0.1,0.1,0.1,0.1,0.2,0.2,0.2,0.2,0.2],[0.001,0.001,0.001,0.001,0.001,0.005,0.005,0.005,0.005,0.005,0.01,0.01,0.01,0.01,0.01,0.05,0.05,0.05,0.05,0.05,0.1,0.1,0.1,0.1,0.1,0.2,0.2,0.2,0.2,0.2],[0.001,0.001,0.001,0.001,0.001,0.005,0.005,0.005,0.005,0.005,0.01,0.01,0.01,0.01,0.01,0.05,0.05,0.05,0.05,0.05,0.1,0.1,0.1,0.1,0.1,0.2,0.2,0.2,0.2,0.2],[0.001,0.001,0.001,0.001,0.001,0.005,0.005,0.005,0.005,0.005,0.01,0.01,0.01,0.01,0.01,0.05,0.05,0.05,0.05,0.05,0.1,0.1,0.1,0.1,0.1,0.2,0.2,0.2,0.2,0.2],[0.001,0.001,0.001,0.001,0.001,0.005,0.005,0.005,0.005,0.005,0.01,0.01,0.01,0.01,0.01,0.05,0.05,0.05,0.05,0.05,0.1,0.1,0.1,0.1,0.1,0.2,0.2,0.2,0.2,0.2],[0.001,0.001,0.001,0.001,0.001,0.005,0.005,0.005,0.005,0.005,0.01,0.01,0.01,0.01,0.01,0.05,0.05,0.05,0.05,0.05,0.1,0.1,0.1,0.1,0.1,0.2,0.2,0.2,0.2,0.2]]
}