{
"KTrans": [[-0.893,0.149,0.156,0.115,0.079,-2.673,0.294,0.726,0.15,0.333,-2.354,0.817,0.542,0.153,0.482,87.012,0.794,0.586,-2.179,2.521,178.163,11.764,18.828,33.93,28.905,217.03,82.18,67.531,106.868,89.963],[-1.223,-0.117,-0.259,0.101,0.088,-0.503,0.096,0.18,0.094,0.018,-0.186,0.15,-1.024,0.366,0.163,1.96,2.903,2.187,-1.096,0.406,11.391,10.689,43.253,-1.494,-2.674,20.619,25.211,153.885,15.881,1.732],[-3.184,-0.679,-0.199,-0.021,-0.07,-3.076,-0.788,-0.162,-0.11,-1.056,-1.292,0.003,0.164,0.244,1.21,5.099,1.357,1.824,1.115,2.31,16.588,6.151,1.722,1.315,31.065,54.25,9.501,10.06,13.445,20.34],[-6.525,-1.466,-0.61,-0.243,-0.06,-6.243,-1.482,-0.603,-0.111,-0.068,-4.073,-0.603,-0.511,-0.091,0.045,5.481,2.477,1.912,0.938,0.488,17.495,6.325,1.798,0.719,1.55,32.316,10.421,9.596,4.482,5.213],[-19.956,-2.18,-1.007,-0.501,-0.271,-7.31,-2.123,-0.988,-0.326,-0.316,-7.548,-2.771,-0.83,-0.385,-0.174,0.939,0.317,-0.405,-0.627,1.057,-18.752,1.396,0.703,3.256,1.773,0.103,9.601,5.581,3.084,5.344],[-34.192,-3.397,-1.837,-0.717,-0.523,-21.423,-3.685,-1.793,-0.819,-0.388,-1.866,-2.265,-1.374,-0.81,-0.295,-4.378,0.131,-0.667,0.258,0.527,-13.888,1.051,3.282,0.875,-0.121,-10.311,15.289,0.855,0.522,4.479]],
"ve": [[0.295,0.051,0.057,0.045,0.03,-2.361,0.135,0.369,0.157,0.315,-1.085,0.392,0.398,0.359,0.679,53.676,1.956,2.698,2.82,6.41,106.908,21.997,17.141,30.614,35.484,158.167,-24.426,38.496,-44.74,184.121],[-0.47,-0.043,-0.31,0.035,0.028,-0.097,0.035,-0.377,0.03,0.001,-0.168,0.004,1.314,0.149,0.064,-0.164,1.204,0.501,-0.58,0.252,5.719,4.374,16.407,-0.621,-1.197,8.283,22.147,89.315,-39.881,5.081],[-1.654,-0.275,-0.064,-0.007,-0.193,-1.532,-0.34,-0.053,-0.052,-0.886,-0.655,0.059,0.038,0.097,-1.403,1.553,0.432,0.649,0.322,0.126,4.663,3.431,0.852,0.945,0.053,12.208,4.647,5.419,10.365,43.131],[-3.096,-0.631,-0.237,-0.096,-0.026,-2.809,-0.677,-0.26,-0.059,-0.035,-2.904,-0.204,-0.27,-0.04,0.013,1.973,1.217,1.069,0.315,0.197,4.158,3.002,0.444,-0.218,0.524,135.095,6.125,4.965,1.589,2.75],[-92.735,-1.113,-0.424,-0.218,-0.119,-3.904,-1.1,-0.438,-0.098,-0.141,-4.201,-1.308,-0.303,-0.185,-0.071,-2.853,0.285,-0.237,-0.53,0.484,-4.943,0.178,-0.221,1.379,0.656,163.517,0.293,2.269,1.059,2.38],[-236.737,-1.763,-0.758,-0.344,-0.201,-112.097,-1.891,-0.81,-0.323,-0.144,-2.158,-1.197,-0.525,-0.351,-0.129,-4.21,0.467,-0.505,0.089,0.255,15.26,-1.089,1.345,0.416,-0.579,136.376,4.554,-2.097,-1.203,1.86]],
"kep": [[-110.25,-0.143,-0.109,-0.072,-0.045,100.63,-0.54,-0.821,-0.307,-0.527,64.583,-1.392,-0.962,-0.72,-1.113,128.238,-6.581,-4.774,-2.885,-6.203,152.654,-7.496,-4.092,-14.594,-9.548,183.228,-30.061,-7.758,-28.885,-9.686],[-0.82,-0.094,122.867,-0.178,-0.071,-0.411,0.292,94.45,-0.347,-0.09,0.035,0.574,-45.781,-1.08,-0.402,1.936,3.247,95.595,-3.25,-2.773,4.455,10.137,175.946,-13.495,-6.327,2.361,-1.786,185.941,-34.383,-9.076],[-1.68,-0.471,-0.19,0.028,174.543,-1.662,-0.494,-0.108,-0.072,98.38,-0.728,0.003,0.382,0.847,251.587,3.108,1.189,2.371,3.185,105.794,11.361,2.778,0.932,-0.42,266.852,15.111,2.854,4.271,-2.184,10.53],[-3.733,-0.912,-0.445,-0.205,-0.031,-3.745,-0.869,-0.387,-0.015,0.022,-1.657,-0.425,-0.244,0.019,0.248,2.331,1.445,1.205,1.287,0.928,10.75,3.408,1.656,1.697,2.542,-34.706,3.425,4.629,3.437,3.585],[-5.734,-1.197,-0.657,-0.348,-0.21,-4.206,-1.141,-0.607,-0.254,-0.222,-4.156,-1.552,-0.557,-0.201,-0.079,1.484,-0.009,-0.109,-0.013,1.13,-24.796,1.002,0.944,2.565,1.965,-52.59,8.962,3.088,1.962,4.031],[-7.664,-1.826,-1.155,-0.443,-0.397,-6.755,-1.955,-1.053,-0.551,-0.283,-1.35,-1.25,-0.901,-0.499,-0.164,-4.112,-0.413,-0.155,0.272,0.49,-31.838,1.892,2.124,0.579,0.701,-58.124,8.919,2.732,1.622,3.131]],
"vp": [[-8.252,-6.006,-7.515,-7.082,-7.336,-6.082,-2.056,-7.181,-0.957,-3.323,-4.552,-3.787,-2.583,-0.461,-2.374,-9.079,-1.654,-1.328,0.956,-2.424,-8.268,3.179,2.527,-3.783,-0.925,-3.919,1.023,3.241,-2.87,3.125],[45.031,9.095,-5.6,-12.117,-12.653,1.462,-0.985,-11.74,-0.999,1.218,1.939,0.609,-8.524,-3.98,-1.199,0.678,-4.446,-9.44,1.883,-1.801,-6.1,-9.279,-8.386,-3.188,-2.293,-1.421,-2.955,-12.8,-3.573,0.856],[168.551,54.749,18.005,4.271,-7.494,30.924,13.616,3.11,4.953,-8.723,6.833,-1.297,-0.468,-3.583,-12.379,-2.693,-1.777,-4.196,-1.874,-11.765,-4.017,-7.637,-1.494,3.13,-9.703,-3.947,-4.641,-5.507,-1.04,-5.43],[307.095,125.822,69.397,39.012,16.234,55.134,27.321,15.731,5.83,4.385,30.306,4.046,8.722,1.913,-0.118,-3.954,-4.995,-7.015,-2.469,-1.409,-2.923,-6.251,-1.352,1.485,-1.958,6.731,-6.521,-8.449,-2.462,-3.704],[526.358,228.859,127.213,89.679,62.991,77.919,45.278,26.604,7.395,14.774,42.113,26.156,8.724,7.936,3.813,6.295,-1.273,1.465,4.878,-5.102,5.797,-0.105,0.943,-6.042,-3.529,10.626,0.765,-3.577,-2.101,-6.559],[706.926,359.179,222.325,144.562,97.803,138.088,76.541,48.615,25.391,14.277,22.512,24.714,15.267,14.137,6.891,8.898,-2.126,3.296,-0.63,-2.62,13.194,2.902,-4.055,-1.806,3.619,16.648,-4.065,3.991,2.962,-5.135]]
}