{
"KTrans": [[2.001,1.232,2.122,1.97,2.179,13.604,7.855,5.419,5.747,5.92,26.91,16.157,14.6,11.486,11.873,57.877,94.818,66.905,65.065,61.025,107.058,-21.157,90.995,92.012,89.557,265.719,189.788,8.472,-37.422,4.954],[6.074,2.248,1.211,0.771,0.958,12.431,5.29,3.663,3.622,2.901,19.356,11.186,9.378,6.404,5.693,-35.187,55.538,45.461,35.59,33.339,68.658,-31.258,66.698,69.16,65.974,103.333,106.092,-16.76,-21.816,75.4],[5.116,0.546,0.958,0.318,0.548,11.252,6.394,3.498,3.155,2.839,-2.968,17.412,7.56,6.767,5.282,-12.821,21.158,39.912,30.47,27.054,-15.507,-1.602,-1.957,67.758,60.497,42.583,34.058,18.917,19.963,69.646],[-37.707,3.252,-0.616,-0.121,0.271,-50.33,2.916,2.907,2.347,2.061,-43.712,10.509,9.454,4.818,4.833,-48.916,-13.5,53.505,31.373,25.249,-8.739,-1.735,-45.356,49.682,43.338,-10.766,-7.745,9.159,17.872,-12.637],[-66.925,8.631,1.896,0.023,0.463,-66.3,12.423,4.816,2.23,1.755,-75.439,29.329,4.78,4.054,4.26,-59.532,-17.608,58.792,27.807,20.659,-38.754,-8.026,-20.58,65.401,59.803,-40.255,-6.996,-0.862,-0.406,8.226],[-75.354,15.743,2.132,-0.088,0.962,-76.794,16.22,0.749,0.729,0.879,-78.268,1.842,10.615,2.997,3.988,-69.494,-21.804,73.939,45.991,26.799,-56.88,-39.686,7.676,-49.213,46.854,-33.771,-7.698,-18.699,-14.902,-7.458]],
"ve": [[1.475,0.642,-0.014,0.389,-0.01,4.714,1.543,-0.195,-1.569,-2.249,9.396,1.7,-2.173,-4.435,-7.04,45.459,19.166,1.724,-9.059,-16.188,94.664,34.158,9.074,-9.996,-10.703,196.277,77.526,35.809,9.077,-5.83],[1.357,0.211,0.346,0.198,0.275,5.222,2.494,1.578,0.948,0.603,9.713,4.853,2.79,1.885,1.055,50.788,24.783,14.82,9.736,6.103,94.103,65.686,29.191,22.687,14.061,177.286,97.151,61.884,44.418,32.249],[1.198,0.532,0.534,0.235,0.288,26.087,2.536,1.806,1.023,0.657,10.175,5.62,3.11,2.407,1.553,50.931,22.625,16.181,11.347,8.656,103.784,49.854,36.625,24.755,18.734,203.165,95.964,65.111,45.59,35.281],[-3.282,0.583,-0.031,0.09,0.216,6.181,2.555,1.63,1.182,0.937,10.839,5.198,3.574,2.287,1.88,52.37,25.68,17.303,12.303,9.499,100.867,49.613,34.868,21.685,18.17,207.708,103.505,67.815,50.079,38.582],[-1.399,1.023,0.246,-0.042,0.19,3.72,2.906,1.93,1.328,0.928,9.816,5.517,2.928,2.274,1.883,49.919,25.656,17.625,12.031,9.479,99.684,52.074,34.91,32.638,19.799,207.264,101.286,64.898,48.455,38.787],[-0.05,1.397,0.508,0.134,0.418,-5.983,3.297,1.12,0.999,0.838,9.918,5.589,3.298,2.253,1.835,54.266,25.152,16.483,13.045,10.069,-6.71,45.775,33.988,20.236,20.269,201.29,100.946,67.557,50.694,40.829]],
"kep": [[-0.286,-0.167,1.592,1.263,1.996,7.71,5.409,4.976,6.911,8.127,15.078,13.478,16.456,16.088,20.093,12.136,65.619,63.793,81.054,91.67,19.644,-34.386,65.918,89.104,109.858,49.392,81.51,3.248,-26.949,15.591],[3.265,1.047,-0.09,-0.387,-0.267,5.476,1.735,1.073,1.677,1.326,6.981,4.973,5.396,3.447,3.601,-49.942,23.142,25.053,22.27,24.449,-11.125,-44.708,26.685,36.682,43.91,-23.107,14.033,-33.324,-39.388,32.921],[0.276,-1.078,-0.567,-0.882,-0.707,2.506,2.613,0.646,1.124,1.183,-14.572,9.784,3.256,3.245,2.668,-40.007,-2.776,18.463,15.735,15.663,-52.966,-28.185,-22.655,32.235,33.081,-47.26,-24.945,-18.045,-12.286,23.099],[-40.209,1.006,-1.677,-1.21,-0.919,-53.03,-1.153,0.105,0.139,0.128,-50.21,3.138,4.486,1.432,1.892,-62.793,-28.959,28.015,15.282,13.103,-51.478,-30.491,-51.196,18.708,19.485,-66.095,-46.887,-26.501,-15.691,-30.923],[-67.785,4.892,0.319,-1.016,-0.735,-67.002,6.509,1.389,-0.211,-0.207,-76.194,18.823,0.376,0.599,1.292,-70.972,-33.565,31.253,12.295,8.914,-66.724,-36.373,-36.293,28.524,30.473,-76.187,-48.15,-34.275,-26.07,-19.283],[-74.679,9.366,-0.206,-1.467,-0.532,-76.794,8.289,-2.115,-1.507,-1.055,-78.919,-6.73,4.899,-0.567,1.012,-78.068,-36.766,41.835,26.188,13.471,-75.605,-56.898,-18.15,-53.384,19.568,-74.901,-50.018,-45.197,-36.53,-29.316]],
"vp": [[-28.743,-114.028,77.611,-16.776,6.315,-20.321,18.341,-14.99,-7.691,-49.86,-3.445,-15.028,12.105,-27.641,18.07,-41.331,4.386,-24.195,-7.844,4.234,-49.818,-1.403,-20.898,8.383,-7.163,-54.28,-31.503,-16.771,-4.149,-6.283],[690.309,240.221,32.645,-127.943,-162.262,152.121,22.656,-21.366,2.836,-41.968,-0.19,-14.033,-17.516,-27.132,-38.894,-25.375,-69.074,-40.327,-22.533,8.707,-71.179,-49.249,-63.263,-23.502,-13.332,-30.522,-59.007,-41.682,-18.369,-29.602],[1532.896,765.471,324.387,84.922,-48.424,313.56,71.029,95.831,58.26,-38.092,131.61,79.185,26.909,10.262,-7.508,-33.567,-63.22,-37.707,-40.683,-32.678,-38.47,-54.817,-36.869,-46.25,-37.557,-43.234,-54.663,-32.573,-72.933,-50.962],[2444.095,828.722,664.525,506.762,353.566,590.881,155.355,112.046,40.623,9.997,280.989,92.534,61.36,26.366,27.773,43.098,-29.525,9.129,-1.505,-10.079,-44.816,-47.876,-44.814,-59.091,-65.253,-23.435,-44.666,-33.216,-66.097,-37.216],[4207.759,1473.347,1036.311,1069.98,623.369,522.961,258.326,176.511,139.246,88.843,443.764,128.271,57.731,77.973,75.967,21.065,-10.207,-7.911,-19.543,-20.535,-30.985,-38.782,-39.543,-50.01,-26.721,-56.078,-40.268,-38.918,-31.879,-58.888],[3454.831,3245.723,1516.652,1372.227,1134.413,860.539,686.681,260.483,286.79,176.476,500.224,291.32,83.523,126.84,75.821,25.664,-12.615,-17.26,47.554,31.569,-12.106,-12.181,-40.018,-31.71,-22.105,-47.07,-30.946,-43.769,-44.541,-36.087]]
}