{
"KTrans": [[0.248,13.13,0.389,3.321,0.133,19.601,12.555,4.475,8.276,3.123,23.671,24.337,18.089,13.259,12.833,137.779,93.804,81.519,72.465,59.509,130.233,175.441,170.104,146.25,134.232,65.352,124.187,273.071,251.831,279.337],[-37.658,0.987,3.789,3.142,2.619,-42.515,11.217,4.986,7.094,3.181,-38.016,15.48,8.13,8.06,7.028,15.905,67.556,49.038,36.058,36.665,-20.935,139.538,117.091,89.431,72.612,31.154,43.059,202.722,201.38,151.708],[-65.466,1.897,0.888,0.18,1.708,-60.615,7.461,3.177,4.868,2.887,-68.718,15.09,10.514,9.714,5.852,-65.133,70.178,48.803,36.142,28.156,-38.429,80.369,104.938,88.639,62.825,-61.309,22.808,106.808,182.973,145.985],[-79.715,-11.157,2.975,2.004,0.658,-78.494,-4.917,5.663,4.532,5.087,-75.48,-3.571,10.601,8.723,8.486,-61.218,58.824,48.292,37.149,25.806,-55.548,6.342,100.074,73.325,54.531,-19.674,-11.51,77.843,191.176,126.68],[-83.544,-22.704,1.761,3.672,1.13,-87.333,-20.554,2.778,6.236,5.191,-88.261,-15.398,9.243,8.901,5.517,-78.926,4.834,54.384,32.189,28.642,-66.321,-2.214,71.708,71.052,63.428,-75.436,-36.543,-28.528,149.245,135.513],[-92.283,-29.224,-0.701,1.797,0.722,-92.127,-27.858,1.287,7.93,5.074,-90.07,-28.013,10.496,8.925,4.371,-94.524,-10.996,40.392,32.211,29.365,-84.888,-37.668,61.344,92.475,56.414,-81.891,-13.438,-28.166,84.579,139.404]],
"ve": [[10.578,11.644,11.477,7.946,-7.869,18.686,1.371,15.121,1.982,140.86,16.967,11.625,7.312,13.323,25.183,52.954,18.751,-0.136,-5.838,-10.844,122.634,13.529,13.64,-0.927,-12.536,191.706,63.699,25.178,-9.204,12.305],[21.674,2.499,1.863,0.245,0.327,44.986,2.463,3.208,0.964,1.958,5.47,6.489,3.77,2.516,2.376,56.86,25.21,15.737,9.815,4.542,101.937,57.825,29.213,20.268,13.567,202.397,98.246,61.635,44.905,29.766],[-82.054,2.229,0.637,0.928,-0.179,-0.465,2.793,0.94,0.324,2.388,16.154,5.824,3.586,1.544,1.548,37.553,25.038,15.861,12.077,9.001,106.257,52.122,31.851,23.675,17.263,202.441,101.264,65.005,48.903,36.926],[5.422,2.486,1.591,0.882,0.532,10.465,4.577,2.608,2.267,0.716,1.303,5.669,3.569,2.455,2.286,55.732,26.869,17.026,12.627,8.813,94.709,50.16,33.195,24.051,18.538,197.081,103.619,64.866,49.892,36.874],[-5.636,2.287,0.386,0.935,-0.082,9.398,3.329,1.848,2.04,0.883,16.746,4.901,3.023,2.772,2.363,41.883,28.655,16.217,12.171,9.177,93.773,49.874,25.501,24.891,18.401,202.508,102.491,68.037,48.685,37.878],[9.242,-3.766,0.103,0.712,-0.474,67.272,1.772,1.269,1.417,0.897,452.599,20.898,3.79,2.352,1.905,30.188,29.439,18.126,12.171,10.495,112.326,50.137,34.672,24.791,19.871,194.047,98.701,66.464,47.95,39.104]],
"kep": [[-5.065,12.975,-0.137,3.307,-3.247,4.491,12.581,2.701,9.099,3.265,11.293,22.063,20.967,19.959,20.258,57.811,67.484,87.601,91.435,91.658,16.635,93.683,140.633,161.855,176.699,-20.269,26.692,162.74,197.521,286.966],[-43.936,-0.481,2.9,3.642,3.156,-48.535,9.942,2.538,6.648,2.005,-47.788,9.694,4.789,6.122,5.055,-25.651,34.19,29.693,24.118,31.364,-56.986,58.988,67.581,57.85,52.549,-47.417,-23.009,84.738,106.628,93.642],[-70.443,0.411,0.527,-0.547,2.135,-66.916,4.925,2.464,4.899,0.813,-74.79,9.172,7.218,8.434,4.553,-78.975,35.726,28.768,21.761,17.896,-67.264,16.471,54.459,52.255,38.938,-80.824,-32.65,25.002,87.188,78.437],[-83.026,-12.99,1.819,1.32,0.325,-82.304,-9.225,3.17,2.366,4.56,-80.912,-8.699,7.179,6.439,6.357,-75.244,24.343,26.721,21.692,15.63,-76.573,-27.911,48.293,39.473,30.265,-69.2,-49.955,9.842,90.978,64.329],[-86.383,-24.521,1.624,2.997,1.454,-89.98,-23.241,1.536,4.294,4.494,-91.116,-20.961,6.376,6.126,3.245,-87.302,-18.157,32.144,17.893,17.853,-81.986,-35.164,27.708,35.902,37.551,-88.613,-62.854,-51.64,62.93,68.303],[-93.837,-31.397,-0.66,1.275,1.32,-93.701,-30.446,0.168,6.496,4.251,-92.879,-33.732,6.575,6.529,2.567,-96.431,-31.235,18.558,17.793,17.104,-91.289,-56.496,20.137,52.964,30.207,-91.022,-53.432,-52.901,22.142,69.432]],
"vp": [[826.358,95.316,-331.305,-329.107,-64.957,177.829,-7.03,0.18,111,-53.051,113.986,16.652,54.035,1.219,8.044,5.553,0.02,20.168,21.682,-1.187,10.595,7.588,5.471,-1.073,5.74,8.854,-5.107,8.413,3.2,-5.127],[5698.003,1329.468,614.959,590.074,601.794,1117.264,238.716,-1.065,108.464,-23.007,519.438,101.422,25.367,92.482,23.321,93.84,35.025,-5.667,-2.977,24.123,41.482,20.292,12.631,27.883,19.422,22.611,8.823,-0.751,19.218,-0.023],[8118.897,4406.457,1186.645,-30.211,398.586,1547.635,860.418,167.322,20.298,27.066,791.297,520.997,141.288,102.649,9.415,168.57,108.554,16.126,16.854,8.432,73.651,47.282,11.551,48.922,9.885,51.131,21.473,3.484,13.466,19.606],[9543.704,7731.664,3047.058,530.774,101.225,1885.428,1853.512,516.556,297.199,178.967,911.995,903.4,229.736,171.129,119.976,167.036,174.014,74.583,45.045,19.796,100.069,76.928,27.485,18.446,17.459,39.841,30.578,11.89,24.89,2.43],[9543.961,12860.878,4815.78,1549.122,380.875,2008.479,2386.271,943.306,474.779,116.871,973.115,1178.31,543.229,220.778,34.136,190.443,253.602,158.815,73.185,28.081,99.003,88.306,71.073,20.177,19.682,64.15,71.715,32.42,18.452,5.678],[9934.226,15141.134,7963.574,2319.685,1096.329,1955.987,2767.499,1621.081,732.871,22.99,977.85,1441.394,974.516,304.393,194.641,210.784,315.494,176.55,64.215,61.581,125.219,135.076,88.207,72.855,32.038,67.602,50.715,44.687,34.667,16.677]]
}