{
"KTrans": [[0.618,2.33,0.807,2.007,1.218,12.672,7.517,6.671,6.413,5.427,28.433,15.46,13.505,12.857,10.441,80.025,85.863,69.141,66.412,60.199,20.338,20.411,87.843,68.001,121.359,183.172,108.445,35.317,-7.82,65.337],[-0.329,-0.482,0.761,1.589,1.064,8.928,5.357,4.007,3.519,3.26,23.783,11.467,7.704,6.676,6.229,-42.136,70.155,44.802,36.159,30.298,-25.929,-88.719,71.634,74.996,66.94,112.146,40.507,-22.365,37.33,72.813],[-0.582,0.472,0.015,0.344,0.5,17.582,4.65,3.844,2.787,2.157,5.41,12.941,6.217,5.243,4.511,-11.151,-5.864,39.662,30.23,26.029,15.205,-0.897,47.221,53.829,62.532,31.646,10.521,94.314,-25.596,53.464],[-44.392,3.738,-0.507,0.513,0.564,-49.331,4.423,4.098,2.185,2.249,-49.426,16.509,3.972,6.494,4.307,-51.875,-38.38,40.809,31.256,27.09,-49.592,23.186,-68.202,55.457,53.428,21.516,-2.403,16.365,20.646,50.676],[-64.57,17.331,-0.141,0.502,0.178,-78.432,15.511,5.542,1.768,1.67,-58.867,11.273,11.669,4.296,3.53,-36.573,-13.838,60.411,29.617,21.034,-39.885,1.009,-3.639,34.54,62.369,-10.575,7.325,4.361,-15.458,-62.27],[-77.43,16.984,3.228,0.38,-0.135,-76.578,28.279,5.581,3.367,1.09,-73.076,15.021,8.616,1.305,4.755,-60.529,-25.101,14.861,52.872,20.595,-63.106,-32.631,-30.796,11.759,52.561,-39.415,24.722,-7.038,16.702,-58.993]],
"ve": [[0.769,0.714,1.483,0.102,1.17,4.407,1.249,-0.695,-1.741,-2.796,8.7,2.338,-1.503,-4.34,-6,50.096,14.938,0.703,-8.86,-17.071,95.547,36.456,6.968,-11.546,-18.109,192.298,78.182,34.209,11.627,-7.76],[0.184,0.332,0.453,0.375,0.251,5.177,2.278,1.464,0.879,0.57,9.715,4.754,2.604,1.766,1.153,52.44,25.018,15.102,9.482,5.861,120.771,50.606,25.489,21.372,14.256,202.842,95.995,62.765,41.026,37.303],[0.732,0.739,0.326,0.142,0.141,7.052,2.636,1.481,1.024,0.856,11.381,4.843,2.976,2.247,1.838,50.557,25.071,16.131,11.451,8.655,99.829,49.215,32.346,23.796,18.407,200.685,104.281,64.865,48.259,38.597],[1.263,0.536,0.049,0.209,0.012,7.643,2.304,1.835,1.21,0.986,10.541,5.538,2.865,2.296,1.825,46.195,24.909,16.097,12.184,9.713,106.787,48.861,32.66,25.669,19.58,198.201,102.405,66.206,48.768,36.013],[-0.188,1.249,0.256,0.188,0.123,6.06,2.67,2.026,1.04,0.946,7.081,4.346,3.432,2.169,1.898,50.673,25.993,16.403,12.303,9.519,101.904,48.818,43.83,26.426,20.323,202.025,96.832,65.619,50.334,40.815],[1.979,1.535,0.551,0.249,0.217,4.345,3.428,1.808,1.294,0.85,31.097,5.837,3.19,2.134,1.912,51.32,26.392,17.289,13.325,9.751,104.368,50.035,34.048,26.214,20.176,212.876,99.862,68.314,50.067,40.563]],
"kep": [[-0.935,0.845,-1.245,1.403,-0.152,7.014,5.382,6.715,7.917,8.023,17.173,11.971,14.616,17.387,16.861,25.581,55.761,67.079,82.14,92.697,-18.84,-7.291,62.709,57.668,160.904,22.293,41.439,18.761,1.869,86.051],[-1.847,-1.75,-0.655,0.245,-0.154,2.242,2.015,1.519,1.635,1.696,10.905,5.335,3.944,3.817,4.008,-54.096,33.235,24.109,23.024,21.911,-53.638,-76.649,28.654,42.319,44.418,-21.633,-15.914,-38.897,1.174,29.396],[-4.439,-1.397,-1.294,-0.775,-0.618,7.115,0.79,1.321,0.75,0.302,-7.398,6.349,2.106,1.913,1.623,-38.539,-23.431,18.418,15.442,14.726,-38.947,-28.138,9.716,22.41,34.945,-51.019,-34.545,21.587,-39.8,11.1],[-46.27,1.504,-1.656,-0.71,-0.434,-52.741,0.371,1.106,-0.061,0.258,-54.346,8.479,-0.032,3.041,1.423,-64.587,-46.27,18.65,15.367,14.428,-70.307,-15.523,-66.582,21.819,26.243,-55.186,-43.273,-23.716,-13.701,9.975],[-65.022,12.913,-1.712,-0.778,-0.96,-77.883,9.402,2.101,-0.379,-0.306,-62.497,3.617,6.43,0.929,0.551,-56.863,-30.627,33.311,13.512,9.172,-67.364,-30.228,-24.904,5.927,31.757,-67.062,-41.087,-32.052,-36.378,-60.851],[-76.898,11.428,0.945,-1.08,-1.427,-76.913,18.918,1.89,0.751,-0.823,-74.849,4.616,3.373,-2.086,1.673,-72.013,-39.282,-4.147,31.583,8.341,-78.948,-52.296,-44.257,-10.614,24.047,-76.393,-34.716,-38.517,-19.313,-61.278]],
"vp": [[-46.886,-17.484,23.266,-155.35,-257.436,-7.866,9.306,-19.608,-16.194,-26.526,-18.611,-9.437,-4.816,-10.631,-33.177,-27.56,17.327,-26.897,5.281,-6.691,-50.071,-13.626,-15.997,19.574,-21.188,-46.198,-23.438,-28.186,-9.093,-10.967],[668.693,58.117,4.998,15.631,5.616,73.68,8.888,-15.257,-34.313,-6.752,66.457,8.139,-17.702,-23.254,-11.592,-41.017,-32.689,-32.552,-15.876,-23.387,-34.04,-21.594,-35.474,-18.818,0.656,-42.149,-57.799,-39.745,-30.756,-7.874],[1291.174,425.801,386.957,19.849,-43.742,437.483,71.895,49.553,-10.492,-38.313,116.767,34.32,-1.667,6.538,-33.625,-42.07,-1.158,-33.231,-46.469,-33.565,-45.434,-38.629,-33.481,-70.113,-4.676,-46.682,-21.88,-40.193,-48.156,-24.806],[2780.45,1127.373,652.839,492.776,255.687,691.798,195.888,144.108,83.753,9.16,282.369,94.652,48.651,72.012,2.948,21.873,-13.154,-20.282,-3.225,8.545,9.803,-55.283,-13.671,-45.686,-42.462,-50.531,-25.586,-43.722,-62.642,-66.098],[3619.709,1705.354,1301.463,789.861,579.538,846.829,225.292,287.284,136.149,80.38,310.821,165.814,103.006,35.245,32.355,3.807,-20.219,-24.166,-4.329,-11.114,10.768,-61.632,-42.155,-20.612,-1.936,-53.144,-35.734,-37.961,-51.304,-30.611],[4320.309,2393.904,1912.405,1241.852,808.367,773.121,428.358,341.624,215.418,241.927,251.983,216.592,189.238,113.357,78.568,40.332,10.549,15.208,85.648,-6.588,-12.824,-16.042,-8.778,-41.094,-10.141,-33.743,-46.34,-27.778,-45.965,-48.597]]
}