{
"KTrans": [[9.563,2.4,5.124,2.474,3.712,15.911,7.277,4.95,6.72,5.58,29.328,17.641,14.733,13.616,12.231,161.955,98.553,72.067,67.874,65.108,57.915,225.152,178.065,154.565,139.039,72.036,155.543,248.622,265.999,283.203],[-4.485,0.488,1.09,2.477,1.237,6.545,7.385,7.837,4.232,4.122,13.684,16.61,11.502,9.283,6.988,72.204,68.719,50.019,39.541,31.103,-56.977,159.356,110.435,79.68,75.041,119.769,72.207,241.221,179.98,159.321],[-29.166,3.497,2.12,3.46,2.731,-17.895,8.722,6.413,5.415,4.853,-16.385,14.682,9.57,9.111,6.927,-2.381,76.951,45.555,35.369,27.618,-61.82,186.491,110.964,75.602,57.122,-128.902,3.62,127.875,174.521,139.538],[-43.751,7.578,5.42,5.081,2.367,-47.507,9.658,5.475,6.064,5.635,-41.598,16.45,9.615,7.662,6.592,-60.113,82.774,38.913,33.591,24.333,-60.346,63.126,116.828,85.521,63.259,-9.096,-48.615,-14.298,189.342,133.828],[-62.162,14.776,3.983,4.445,2.981,-64.498,4.7,9.72,6.725,5.723,-60.076,20.931,14.967,8.903,6.893,-65.515,62.556,51.593,36.448,26.769,-59.502,18.345,153.864,79.959,57.802,-23.886,-18.897,12.333,163.197,130.646],[-77.027,-0.092,6.202,4.675,3.128,-75.107,3.969,6.094,4.95,6.538,-85.306,11.979,12.503,10.252,9.065,-62.9,13.997,60.966,33.439,28.663,-75.541,-11.976,111.018,97.66,56.792,-69.117,-19.594,19.371,130.721,176.624]],
"ve": [[4.342,0.014,-0.132,2.2,5.516,4.888,2.819,3.283,-0.292,0.709,10.221,4.62,-0.333,-1.262,-3.415,48.401,14.347,-0.42,-10.544,-18.192,93.73,36.048,10.725,-6.095,-17.27,191.649,76.643,31.782,95.324,-10.777],[3.27,0.859,0.923,-0.107,-0.624,7.029,2.812,1.552,0.782,0.712,10.974,3.411,1.807,1.232,0.793,51.75,24.149,14.12,8.746,5.177,102.49,47.638,29.556,19.311,12.811,194.529,98.736,68.649,42.374,29.835],[3.487,1.015,-0.095,0.299,0.042,7.176,1.728,0.865,1.194,0.601,12.579,4.579,2.844,1.935,1.68,53.201,24.72,15.759,11.191,7.867,104.497,54.662,31.583,22.514,16.949,211.62,100.456,63.909,46.635,36.143],[6.256,0.943,-0.005,-0.095,-0.041,89.591,2.343,1.574,1.272,0.556,5.971,4.566,3.062,2.14,1.714,129.19,25.522,15.276,11.539,8.988,101.42,48.253,32.501,24.593,18.834,199.819,99.929,67.52,48.105,37.87],[-35.807,0.966,0.643,0.454,-0.208,37.772,4.059,1.317,0.682,0.78,19.256,5.877,3.246,1.702,1.37,51.41,24.796,16.45,12.093,9.12,101.679,48.959,33.576,24.232,18.473,199.994,93.574,65.781,48.563,38.249],[2.782,0.887,-0.168,0.029,-0.022,46.811,4.122,1.131,0.943,1.259,12.735,6.15,3.542,2.394,1.523,56.402,21.757,16.792,12.1,9.591,97.917,49.047,33.458,25.216,19.026,196.485,100.24,65.774,49.754,39.773]],
"kep": [[7.429,4.272,8.283,5.394,9.18,11.898,6.327,6.302,11.573,11.092,19.176,14.567,17.611,19.308,24.389,76.341,74.964,74.209,90.008,105.216,-16.268,139.671,151.819,172.492,191.258,-22.13,43.68,145.648,211.934,293.302],[-7.197,-0.127,0.331,2.727,2.005,0.077,4.784,6.424,3.644,3.617,3.142,13.071,9.826,8.163,6.325,11.823,35.535,31.554,28.433,24.782,-70.948,71.448,61.633,50.392,55.103,-18.647,-7.92,103.71,95.186,98.719],[-31.527,2.539,2.402,3.227,2.745,-24.283,6.91,5.639,4.28,4.293,-26.507,9.856,6.685,7.171,5.218,-34.54,40.849,25.616,21.741,18.331,-75.305,87.441,59.069,42.854,34.118,-101.961,-40.611,37.278,84.592,74.425],[-46.906,6.576,5.502,5.305,2.443,-51.577,7.212,3.875,4.808,5.096,-49.473,11.565,6.4,5.473,4.841,-72.121,43.814,20.42,19.643,14.105,-76.984,8.945,61.399,47.886,37.001,-64.909,-65.904,-44.411,90.681,67.613],[-63.857,13.572,3.489,4.01,3.24,-67.463,0.545,8.271,6.072,4.961,-65.985,13.957,11.312,7.084,5.477,-75.672,28.91,29.509,21.54,16.131,-76.847,-18.354,86.121,43.653,32.723,-71.275,-54.139,-28.461,73.318,64.363],[-79.115,-1.608,6.289,4.652,3.182,-76.937,-0.474,4.839,4.003,5.231,-86.992,4.894,8.597,7.7,7.445,-73.835,-9.65,37.008,18.763,17.271,-84.857,-39.217,55.116,56.092,30.983,-86.389,-54.967,-22.753,52.072,93.454]],
"vp": [[425.743,29.492,307.995,-17.753,63.407,-50.961,-69.476,52.759,-40.968,9.595,6.261,27.669,-12.654,-7.072,-6.666,5.783,-0.346,-4.386,5.947,20.822,8.568,2.657,9.425,11.298,-3.653,2.769,-0.226,-2.217,3.88,-9.328],[3356.428,487.907,84.69,147.364,71.433,683.896,57.325,96.363,17.822,46.836,331.047,29.618,2.737,23.037,11.855,78.211,28.352,13.053,13.716,-2.763,42.263,12.565,11.557,1.267,28.276,-20.011,5.909,22.709,-0.65,7.339],[6929.786,1122.911,242.608,-194.188,151.852,1359.732,276.31,-55.091,41.527,69.811,685.624,157.603,13.711,5.776,30.38,135.804,51.302,20.176,20.739,-0.347,71.409,24.925,15.46,18.642,7.644,83.807,29.009,7.123,2.055,13.017],[8315.768,4133.514,750.449,-28.151,470.325,1651.792,645.048,-33.649,13.365,-22.484,887.019,337.638,35.357,55.155,31.449,152.755,98.896,-10.799,19.455,3.912,93.87,46,24.099,38.906,32.838,41.32,30.932,33.666,7.804,7.598],[9130.42,7856.992,686.313,-34.378,108.304,1936.927,1664.091,68.219,9.902,23.299,957.399,874.027,52.838,19.892,28.259,196.306,163.764,64.355,49.652,5.719,101.846,57.154,63.162,28.401,6.519,55.677,34.786,23.06,-2.101,-2.352],[10408.736,11922.104,2359.79,398.359,123.623,1851.767,2392.906,592.418,91.649,92.217,1000.888,1241.651,218.897,3.404,-3.503,166.996,202.784,107.75,22.858,19.352,102.819,90.058,42.279,44.346,7.351,45.701,52.883,18.834,12.616,26.394]]
}