{
"KTrans": [[0.198,3.773,3.062,4.612,2.508,5.907,13.362,13.756,13.527,8.701,12.271,27.043,21.395,22.888,22.606,52.177,79.417,97.843,100.43,99.588,63.022,46.743,133.826,152.84,160.72,290.561,-322.721,25.13,127.276,173.415],[-12.236,-4.318,-0.171,1.957,0.853,-9.505,1.253,2.451,6.723,5.631,5.962,7.286,3.566,11.049,9.76,114.988,87.901,20.717,31.905,40.655,298.735,212.335,49.507,22.915,59.623,902.612,676.581,0.405,-122.866,42.166],[-20.887,-2.574,-0.643,-1.607,0.376,-17.302,1.699,4.164,1.684,1.026,-4.863,10.165,7.845,6.342,2.038,83.128,72.224,53.965,50.321,13.51,242.977,168.318,141.568,129.742,18.008,710.165,464.591,375.112,380.174,14.622],[-30.915,-3.97,-2.347,-0.065,-0.269,-24.016,0.694,2.571,1.839,1.909,-18.02,6.144,7.616,5.668,5.388,65.232,62.235,48.125,41.947,35.946,181.056,145.666,112.238,94.736,88.569,564.888,387.52,276.716,249.34,229.795],[-36.991,-7.113,-1.952,-0.129,0.126,-33.082,0.93,2.564,2.833,2.885,-24.056,5.602,5.168,5.597,5.478,47.981,58.454,44.044,35.878,31.184,148.482,135.827,101.176,83.69,70.711,484.43,344.926,248.177,203.423,175.8],[-42.351,-6.367,-1.947,-0.618,-0.699,-37.916,-2.15,2.785,1.898,2.625,-30.076,1.869,5.373,5.947,4.846,23.264,50.331,42.937,32.952,28.853,120.069,128.861,94.264,76.771,63.991,421.486,317.304,225.137,175.262,150.189]],
"ve": [[-10.099,-167.899,-22.364,62.197,-74.541,6.264,-12.026,-26.351,31.097,-137.191,12.256,12.475,23.387,191.575,94.327,126.066,-1.563,-103.608,-88.059,-96.416,102.146,30.618,-6.972,-30.16,-45.4,221.333,83.968,33.328,4.239,-15.321],[-2.567,-2.238,588.741,4.251,2.64,0.848,-3.612,6.013,3.661,6.061,8.345,1.892,5.386,9.2,9.421,48.588,23.776,17.586,-0.114,54.656,97.75,54.357,32.899,18.891,-0.275,200.999,100.781,37.887,44.838,27.306],[-0.986,-0.838,-0.769,-2.548,0.333,4.397,1.528,1.145,-0.171,2.051,8.784,4.625,2.85,0.975,2.472,47.998,25.479,16.936,12.852,9.942,100.49,50.81,34.626,25.759,17.136,198.719,101,68.429,50.952,39.246],[-0.925,0.482,-0.295,-0.263,-0.596,2.459,2.04,1.255,0.509,0.423,7.76,4.848,3.18,1.99,1.742,48.93,25.012,16.971,13.309,10.552,99.378,49.731,34.229,26.269,21.027,199.34,100.758,67.923,51.994,41.597],[0.704,-0.551,0.04,0.12,0.149,3.4,2.125,1.348,1.483,1.164,7.789,4.474,2.959,2.368,2.111,48.091,25.172,16.457,12.803,10.584,97.553,50.575,34.127,25.846,21.049,198.162,100.439,67.62,51.016,41.459],[-1.03,-0.043,0.251,-0.113,-0.27,2.293,2.153,1.33,1.158,1.16,7.379,4.244,3.237,2.231,1.897,47.426,24.499,16.908,12.707,10.249,100.374,50.463,33.673,25.947,20.992,198.24,100.366,67.313,51.036,41.189]],
"kep": [[-119.943,-20.45,-10.938,-9.62,-2.789,-126.749,-37.383,-21.778,-28.023,-14.764,-118.26,-63.494,-32.076,-44.503,-38.328,-130.734,-246.978,-185.962,-191.295,-194.067,-172.514,-465.402,-370.629,-370.166,-385.36,-94.631,-871.214,-738.086,-726.08,-745.405],[-29.31,-30.349,-130.838,-16.012,-1.018,-28.316,-17.637,-123.05,-33.323,-14.011,-14.513,-12.484,-128.623,-54.356,-23.879,40.722,88.003,-121.37,-176.63,-108.149,100.587,167.426,-89.515,-335.033,-202.764,245.918,403.412,-242.048,-673.468,-397.722],[-32.517,-8.622,-6.404,-23.946,-125.986,-30.299,-5.029,1.604,-7.443,-131.315,-23.022,2.234,4.273,3.954,-128.66,16.707,47.129,57.772,109.724,-105.394,67.637,96.666,138.121,218.953,-146.622,167.18,215.278,277.648,458.266,-199.016],[-40.115,-7.58,-6.929,-3.546,-5.351,-35.917,-4.152,0.58,-2.868,-0.325,-33.165,0.44,6.734,2.782,9.033,4.658,33.872,35.647,48.722,60.605,34.887,69.651,79.038,96.524,135.781,118.528,158.769,159.328,205.996,267.265],[-46.517,-10.577,-4.262,-1.035,-0.805,-44.337,-3.712,0.377,2.754,2.336,-37.815,-1.762,1.425,3.287,6.693,-9.067,28.431,27.906,29.771,34.553,18.239,59.653,58.773,67.061,71.602,89.675,128.017,126.67,136.337,150.774],[-50.226,-9.614,-4.126,-2.093,-2.731,-48.461,-5.792,-0.646,0.293,2.807,-43.464,-5.386,1.801,3.811,3.882,-24.53,19.478,25.398,23.381,25.112,4.016,53.261,51,53.212,54.27,69.218,111.39,105.532,101.211,107.139]],
"vp": [[157.395,8.08,-122.62,-202.272,-81.674,16.375,-34.004,-48.278,-28.819,-22.952,3.084,-10.587,-19.631,-3.268,3.676,-0.339,0.949,-3.696,-0.667,3.27,0.359,0.712,-1.037,0.873,1.476,-0.959,0.274,-0.832,0.388,-0.243],[1809.123,494.656,111.897,-83.401,46.556,339.476,47.675,-9.658,-13.738,3.495,193.557,22.111,4.64,-0.335,21.374,37.785,5.823,-1.411,-2.21,2.747,13.065,6.333,-0.205,-2.425,-0.289,7.969,4.401,0.209,-0.782,-0.197],[3545.837,795.113,403.592,271.013,-65.611,614.489,94.328,121.995,39.934,15.592,371.13,131.617,40.515,26.602,3.42,67.631,15.353,0.159,-4.832,-0.663,37.331,8.608,4.398,0.142,-0.027,17.904,1.617,-0.116,0.417,-0.413],[5209.698,1472.397,-52.493,73.127,-313.423,1094.805,245.333,-5.154,52.06,17.016,555.939,100.088,-8.335,26.584,36.678,105.116,26.566,9.406,-5.081,7.607,52.146,11.092,2.762,3.523,-2.003,25.132,7.282,0.95,0.744,1.255],[6490.729,2439.364,647.695,196.744,216.19,1255.569,652.379,94.144,39.333,3.381,686.554,232.468,60.34,44.101,35.117,127.567,48.78,14.424,5.395,7.763,63.836,27.725,7.01,2.433,2.457,32.047,13.724,3.207,-1.039,3.476],[7286.532,4610.071,1082.937,183.242,-13.841,1360.782,867.906,278.102,79.301,10.585,769.976,429.77,52.107,110.775,1.739,149.162,90.116,22.687,1.577,4.575,75.053,52.774,14.316,8.666,-0.363,37.471,20.446,4,1.499,1.234]]
}