{
"KTrans": [[-48.29,-52.226,-57.258,-54.909,-50.777,-19.696,-43.409,-37.926,-31.258,-30.774,6.748,-21.096,-15.26,-14.07,-13.983,64.558,-11.273,-4.542,-1.034,-0.617,140.191,14.381,10.428,16.015,18.722,269.852,72.706,81.192,77.688,74.835],[-48.577,-44.674,-42.323,-54.748,-50.572,-42.118,-27.32,-25.091,-37.484,-34.286,-32.918,-20.099,-3.506,-22.223,-8.595,-13.607,0.964,22.993,0.375,-2.103,-13.462,1.665,47.309,-4.824,-3.423,-6.733,7.626,78.102,2.565,-2.382],[-53.022,-45.284,-46.465,-44.282,-43.341,-54.921,-35.692,-41.687,-33.607,-28.503,-47.421,-26.283,-28.271,-32.095,-7.703,-41.476,1.965,1.443,1.06,13.866,-38.954,-1.163,2.068,2.118,28.402,-35.759,-0.268,1.225,2.542,55.375],[-66.775,-51.334,-49.657,-40.833,-50.461,-66.411,-40.154,-39.042,-32.974,-31.177,-65.359,-29.661,-20.146,-24.104,-15.458,-59.289,-3.44,-1.366,0.802,0.017,-62.708,-3.878,0.337,0.581,0.275,-57.983,-0.833,2.292,-0.082,1.059],[-78.198,-44.378,-47.163,-52.198,-48.707,-78.853,-37.45,-40.06,-32.414,-36.22,-75.506,-32.085,-20.172,-30.804,-19.909,-75.486,-7.987,-3.989,-0.964,-0.666,-75.773,-11.863,1.483,-0.737,1.25,-67.755,-5.747,-0.486,1.1,0.64],[-82.896,-45.378,-45.4,-54.722,-53.535,-83.189,-37.761,-32.066,-29.22,-40.847,-84.243,-28.876,-32.682,-29.704,-26.661,-81.257,-19.545,-2.036,0.017,-0.875,-78.053,-17.92,-2.024,-0.729,-0.586,-75.57,-8.504,0.425,0.458,0.645]],
"ve": [[-116.928,-16.14,1.845,-17.451,-25.537,-14.705,-39.872,3.767,-23.094,8.53,8.604,-7.637,10.937,-28.764,38.159,57.171,34.254,-4.952,56.216,23.427,147.906,3.095,10.647,-15923.116,-9.607,268.27,14.42,56.145,-81.186,23.039],[-90.176,-67.551,-42.489,-36.83,-29.367,-70.676,-40.713,-25.243,-24.94,-18.804,-55.092,-33.964,-4.339,-15.764,-3.917,1.684,0.481,33.336,3.55,-0.304,3.607,1.219,47.154,-1.516,-0.122,5.608,6.681,75.276,8.024,0.15],[-77.971,-109.471,-79.16,-56.987,-43.203,-68.815,-89.891,-71.221,-43.172,-27.025,-35.748,-64.342,-49.775,-42.408,-8.846,-15.547,0.59,0.22,0.525,14.227,-10.257,-0.479,0.401,1.258,28.296,-7.022,0.402,1.752,-0.742,54.9],[-70.475,-165.926,-118.125,-70.578,-72.052,-41.76,-130.148,-93.474,-55.96,-43.494,-29.1,-89.733,-46.857,-41.443,-22.794,-25.198,-1.574,-0.61,0.218,-0.274,-16.908,-2.423,0.175,0.248,0.115,2.136,0.207,0.282,0.971,0.615],[-38.595,-152.621,-136.764,-115.631,-87.43,-46.114,-132.439,-117.149,-70.042,-64.959,-31.333,-96.552,-55.178,-70.503,-34.796,-19.002,-3.599,-1.294,-0.111,-0.36,-6.443,-4.372,0.184,-0.251,0.423,32.806,-2.768,0.936,0.441,-0.172],[-19.262,-171.998,-157.071,-150.127,-118.828,-40.115,-120.466,-101.886,-77.992,-90.901,-26.982,-67.203,-106.536,-81.561,-58.367,-27.641,-7.781,-0.685,0.047,-0.442,9.584,-8.143,-0.9,-0.038,-0.091,35.507,-3.357,-0.334,0.148,0.398]],
"kep": [[-127.455,-8.797,-5.795,2.086,0.9,-126.214,-3.528,-3.058,-5.444,-5.342,-125.731,7.595,5.319,-0.505,-0.009,-126.829,13.2,1.782,0.517,-2.836,-138.083,-6.427,0.265,-0.222,-1.543,-132.729,-16.543,-13.376,-10.218,-1.894],[-24.505,-2.283,-129.125,-8.244,4.138,-25.61,-5.423,-126.689,0.177,1.717,-21.442,-5.027,-122.283,4.009,-4.812,-18.274,-2.618,-135.926,-6.878,1.449,-22.2,-1.092,-140.384,-1.375,-0.509,-12.959,4.341,-115.411,-7.847,-1.885],[-36.696,-2.994,0.443,-2.342,-138.314,-39.902,-0.231,-2.029,0.182,-124.317,-40.006,-1.821,1.129,1.27,-154.579,-37.199,1.516,0.031,-0.279,-136.457,-35.776,-1.169,2.478,-3.732,-143.074,-33.13,-1.009,-1.035,8.128,-136.053],[-53.679,-3.908,1.567,-0.969,0.191,-59.855,-3.441,0.323,-3.925,-1.852,-58.46,-4.909,-1.526,-1.164,0.756,-51.218,-2.831,-1.768,1.063,-0.897,-57.221,-1.843,-0.68,-0.546,-0.179,-55.498,-1.645,2.854,-2.721,0.456],[-72.322,-9.483,-1.755,-2.161,-0.758,-70.846,-7.594,-0.727,-1.294,0.786,-69.478,-9.797,-1.735,0.662,-2.496,-72.256,-5.671,-4.74,-2.05,-0.782,-73.491,-9.417,1.664,-0.44,1.216,-70.62,-4.079,-2.602,0.643,2.272],[-82.17,-12.26,-2.435,0.057,0.169,-78.016,-13.406,-4.149,-1.566,0.256,-81.514,-13.418,-3.381,0.24,0.13,-79.507,-15.723,-2.038,-0.431,-1.672,-78.283,-12.111,-1.342,-1.882,-1.053,-78.293,-7.063,0.674,0.201,0.28]],
"vp": [[-49.727,27.857,-44.286,61.857,22.491,10.643,-2.342,16.489,-1.496,16.054,1.044,14.065,10.459,2.76,-14.616,0.904,0.04,-0.169,0.031,-0.549,-1.465,0.683,-0.307,-0.707,-0.478,-0.743,-0.63,-1.334,-0.25,-0.388],[913.22,77.719,35.406,-18.577,-6.504,187.149,25.904,-12.698,-2.973,8.728,76.69,14.578,2.885,9.485,8.457,13.418,1.615,-3.846,-0.114,-0.887,5.347,0.615,0.012,-0.173,0.741,1.945,-0.144,-0.609,-0.339,0.089],[2214.321,164.273,33.724,42.066,-54.46,460.987,33.493,-36.121,-24.959,-13.748,229.89,5.008,-18.778,-20.104,1.303,40.526,-2.699,-0.651,0.365,-1.159,20.451,2.323,-0.781,0.412,-1.985,9.391,0.657,-0.466,-1.452,-0.905],[3468.002,476.991,-17.882,157.266,-96.957,783.675,70.306,-31.681,29.478,33.493,397.861,40.311,5.343,2.311,-3.895,68.304,7.149,3.5,-1.823,3.195,39.74,5.989,0.7,0.526,1.279,18.488,0.05,-0.619,0.461,-0.877],[5196.767,1095.063,238.832,226.169,-40.61,1050.579,148.383,46.295,60.102,27.969,498.957,96.476,39.355,-9.776,9.582,104.57,15.448,9.883,1.795,4.347,53.887,10.702,-0.54,1.937,-2.227,24.014,3.037,-0.395,-0.546,-0.125],[6340.493,1349.936,366.489,104.006,-138.323,1196.41,339.442,119.036,56.609,-8.588,632.998,177.286,60.234,17.653,10.543,120.058,34.159,4.005,0.972,5.103,58.852,17.807,3.051,0.725,1.478,28.868,4.304,0.767,-0.083,-0.984]]
}