{
"KTrans": [[1.99,3.136,3.778,0.889,3.395,11.319,9.985,7.713,3.852,4.399,20.475,17.935,13.067,12.444,11.148,164.271,93.16,75.442,61.242,62.641,380.533,226.26,177.922,157.406,140.85,1119.102,594.918,456.452,405.394,360.096],[-10.57,1.304,-0.755,1.717,1.067,-8.315,4.602,5.955,3.256,3.042,0.325,12.912,9.616,7.663,6.729,97.694,66.045,45.615,37.898,31.313,238.067,144.746,100.067,78.782,67.108,728.588,359.346,236.464,183.279,152.5],[-38.486,-0.341,1.882,0.469,0.601,-32.114,1.314,2.737,4.861,3.047,-23.502,10.659,7.17,6.543,4.882,46.106,58.475,41.317,31.304,25.083,146.114,137.877,88.42,66.741,55.748,428.015,317.168,200.134,153.107,124.477],[-52.283,-1.051,-0.186,0.931,1.525,-48.6,5.996,4.905,4.123,3.044,-48.099,9.379,9.56,6.577,5.569,5.206,53.993,39.124,29.688,24.326,81.389,129.851,83.529,66.161,51.695,319.59,311.03,194.66,142.103,111.093],[-70.896,-4.516,-0.439,1.941,0.806,-58.728,-5.17,7.5,2.918,1.861,-58.038,7.681,6.971,5.536,4.358,-18.412,52.859,37.54,30.063,25.272,41.211,116.106,85.454,61.116,49.299,175.204,295.077,190.774,143.31,109.815],[-68.761,-5.73,2.322,0.473,0.106,-71.303,-7.148,3.112,2.891,2.866,-67.289,-0.218,7.229,7.062,6.808,-47.346,38.538,39.019,28.85,24.135,2.603,105.824,86.321,63.124,46.868,135.542,278.373,195.643,134.089,103.257]],
"ve": [[7.714,3.78,2.821,13.734,4.078,8.484,5.001,2.375,5.571,3.969,13.521,4.265,0.714,-0.012,-0.945,47.457,15.039,-0.553,-7.518,-17.17,93.114,34.176,8.598,-7.89,-17.708,193.316,79.776,35.77,10.258,-5.872],[3.699,0.198,0.882,0.751,0.671,8.265,2.726,1.996,1.343,0.301,-4.154,5.148,2.885,1.658,1.124,50.829,23.462,14.575,9.287,5.895,100.255,48.537,29.233,19.394,12.754,201.276,97.226,61.453,41.446,28.892],[4.779,1.878,-0.639,-0.082,0.327,9.488,2.822,1.553,0.867,0.668,12.921,4.815,3.363,2.653,1.837,51.278,25.081,15.866,11.093,8.47,100.906,49.208,31.999,22.991,17.452,203.81,98.734,65.124,46.968,35.727],[-57.435,1.48,0.985,0,0.246,8.726,2.891,1.984,1.089,1.307,2.148,4.224,3.675,2.293,1.829,53.41,25.779,16.831,11.927,9.648,99.091,49.655,33.165,23.94,18.48,200.406,98.964,65.818,48.091,37.582],[2.37,-0.068,0.475,0.546,0.414,19.987,3.996,1.778,1.146,1.318,2.171,5.961,2.783,2.788,1.844,51.856,25.155,16.372,12.288,9.512,107.463,50.291,32.3,24.751,18.952,204.799,100.177,66.229,48.682,38.458],[21.796,1.036,0.621,0.554,0.532,7.832,3.846,2.102,1.212,0.989,15.056,6.316,3.892,2.229,1.532,50.79,25.328,16.323,12.237,9.831,106.4,51.522,33.323,24.355,19.48,201.349,100.255,66.772,49.585,39.062]],
"kep": [[-0.972,3.122,4.721,0.595,7.717,6.998,8.16,9.883,4.663,9.046,8.144,15.361,15.945,17.576,20.937,81.261,69.513,78.596,78.598,99.966,150.422,144.578,157.01,181.164,195.068,316.768,287.836,310.663,359.526,390.013],[-13.644,1.506,-1.431,1.205,0.598,-16.085,2.24,4.109,2.181,3.003,-11.643,7.708,6.822,6.157,5.802,30.819,34.851,27.394,26.374,24.175,69.835,64.969,54.984,49.935,48.381,175.368,133.183,108.595,100.359,96.071],[-41.051,-1.986,2.636,0.633,0.419,-38.04,-1.157,1.319,4.035,2.438,-32.664,5.897,3.828,3.857,3.121,-3.602,26.938,22.099,18.273,15.409,21.449,59.533,42.796,35.672,32.696,74.034,109.935,81.834,72.276,65.439],[-55.701,-2.122,-1.037,1,1.314,-53.495,3.111,2.982,3.076,1.807,-54.879,5.29,5.779,4.25,3.722,-32.008,22.547,19.212,15.916,13.437,-10.354,53.84,37.941,34.111,28.085,38.585,106.892,77.767,63.534,53.466],[-72.789,-4.579,-0.812,1.44,0.427,-62.611,-8.774,5.598,1.837,0.572,-63.697,1.566,4.252,2.725,2.516,-47.301,22.269,18.255,15.924,14.446,-31.046,44.106,40.19,29.185,25.569,-9.931,97.448,75.073,63.687,51.588],[-71.216,-6.689,1.722,0.015,-0.389,-74.532,-10.46,1.129,1.708,1.87,-72.401,-5.968,3.319,4.779,5.206,-65.935,10.942,19.634,14.851,13.072,-50.374,36.256,39.914,31.252,22.95,-22.812,89.099,77.315,56.567,46.18]],
"vp": [[140.253,-23.338,5.455,-89.571,86.533,53.524,42.789,-9.209,13.479,21.629,19.38,11.788,5.36,2.848,38.852,20.963,11.482,9.869,14.411,12.686,13.301,12.651,15.127,13.827,14.854,15.31,15.856,12.56,12.672,12.184],[1984.352,191.325,33.136,-9.687,-40.083,514.269,76.344,0.032,50.735,12.304,187.618,52.516,10.724,41.34,21.89,65.422,22.87,20.643,17.739,12.793,36.397,19.997,15.069,11.905,15.674,27.637,16.122,16.553,14.012,14.416],[4141.273,704.045,5.741,301.28,-72.625,861.225,165.566,64.282,-9.039,58.164,451.77,98.058,42.453,21.097,6.77,99.722,34.317,23.138,14.776,14.331,61.839,30.293,19.682,18.937,12.764,39.052,18.222,20.924,16.911,16.205],[5514.306,2110.562,764.528,-41.297,262.072,1159.351,455.752,95.251,92.564,16.189,592.236,224.855,59.552,31.77,27.835,121.6,59.145,28.829,15.233,17.639,72.292,39.894,26.318,17.166,18.753,40.193,29.641,21.129,18.358,17.813],[6622.346,3263.304,547.864,481.733,63.841,1293.871,649.724,195.032,15.371,57.571,682.026,354.152,121.743,28.377,-3.65,141.501,83.389,27.642,30.811,23.768,75.177,51.551,32.972,21.966,13.663,47.647,36.197,26.549,20.228,16.119],[7414.742,4949.409,1553.722,524.626,253.166,1522.01,944.726,292.145,69.329,21.624,722.398,480.785,154.449,53.245,45.739,168.556,108.451,43.256,36.39,24.646,89.488,73.543,35.889,22.081,19.097,49.834,43.586,31.018,20.768,17.21]]
}