{
"KTrans": [[-3.247,0.61,-2.432,-0.626,-1.586,4.614,19.408,13.517,11.146,9.789,18.842,15.688,24.325,9.468,21.384,29.103,62.067,75.402,69.445,80.848,-35.967,15.688,51.344,121.423,112.486,47.189,17.035,-63.762,11.649,110.15],[-39.329,-12.817,0.302,4.165,3.911,-32.771,-10.255,3.14,9.77,4.672,-34.856,-3.018,3.915,7.164,8.619,-52.178,-5.478,5.301,21.544,32.416,-52.009,-27.603,-16.233,0.846,39.761,64.596,54.001,-16.481,-31.135,11.802],[-56.298,-19.457,-10.72,-5.905,-0.159,-57.181,-18.446,-11.864,-5.721,2.065,-45.424,-12.16,-7.703,-3.682,4.301,-60.506,17.452,8.746,8.937,-4.753,-17.879,-10.069,8.681,-23.453,-15.701,-58.543,-18.093,38.379,-19.546,-17.334],[-61.743,-28.61,-10.556,-3.716,-5.103,-62.39,-21.2,-4.99,-6.011,-3.827,-60.602,-15.009,-8.366,-1.085,2.833,-36.866,-24.514,13.386,24.239,11.914,-66.375,-51.253,9.232,-9.54,4.352,-68.276,-70.328,35.795,27.884,-25.433],[-69.946,-34.516,-12.077,-10.406,-3.616,-68.369,-33.712,-7.764,-1.372,-0.577,-68.625,-27.987,-11.174,-0.247,0.465,-62.109,-25.389,-3.049,15.781,17.749,-77.301,-59.929,-17.406,19.868,20.847,-91.545,-15.198,11.936,-55.08,-27.878],[-76.252,-39.581,-16.337,-7.786,-3.236,-77.336,-38.285,-13.261,-0.212,-3.088,-77.153,-28.458,-15.928,-2.157,3.076,-78.402,-27.321,-1.658,17.803,18.041,-62.182,-58.179,-36.538,0.254,30.431,-81.349,-38.056,15.016,-55.952,26.942]],
"ve": [[16.788,-52.354,-34.385,-62.693,-8.197,-22.781,-18.166,1.164,-42.014,-104.212,16.261,254.261,-86.946,-46.75,-58.653,39.929,-28.589,-30.292,-64.91,1459.175,132.227,28.934,0.599,-37.479,-47.915,185.566,75.022,28.297,-24.306,-29.548],[-18.229,0.514,1.634,5.45,12.724,-22.338,76.425,-7.574,-3.342,46.157,-21.003,-78.6,0.936,-24.436,-7.276,55.133,22.672,15.561,4.001,27.106,110.033,38.873,39.397,20.829,-3.454,238.43,94.35,52.163,40.258,26.335],[-0.857,-4.966,-3.73,11.532,20.236,5.541,484.071,-10.638,-34.736,-0.984,6.107,19.808,40.52,9.424,-1.251,40.287,37.396,-13.304,16.928,4.625,75.495,43.662,-1.607,18.127,18.967,175.386,98.738,79.008,47.985,37.589],[-5.186,-4.597,-3.449,-2.201,17.608,-15.319,1.058,-48.039,-22.165,-8.459,-92.151,-4.219,-2.468,-1.061,-8.646,49.219,213.079,12.192,4.298,-4.248,101.391,40.36,32.068,23.836,20.984,203.468,100.332,65.264,4.02,38.688],[-4.484,-7.7,-2.724,-4.09,-3.579,-20.175,-6.799,-1.172,-1.679,-2.005,3.372,27.387,-1.672,-0.773,-1.325,35.393,22.259,33.413,8.697,9.405,85.61,48.135,31.746,23.624,19.898,192.675,90.713,64.291,50.33,41.602],[-17.641,-3.621,-2.934,-2.443,-1.788,15.051,-2.027,-0.912,0.123,-8.199,1.551,4.438,0.117,1.071,0.796,12.966,19.952,12.05,7.703,7.056,181.86,50.222,31.335,26.952,20.105,194.892,102.013,66.573,35.961,39.015]],
"kep": [[-104.026,-81.496,-30.321,-40.455,-25.76,-106.538,-104.98,-58.315,-67.059,-65.918,-122.646,-79.88,-97.602,-47.183,-80.505,-136.19,-193.66,-198.185,-219.98,-189.485,-149.543,-262.261,-360.611,-407.492,-391.023,-53.688,-150.952,-441.153,-562.274,-618.367],[-83.572,-91.628,-118.583,-87.79,-41.448,-86.41,-86.474,-119.275,-99.737,-45.035,-84.127,-82.201,-113.895,-108.691,-32.568,-103.41,-97.723,-156.741,-156.745,-128.849,-90.812,-93.907,-137.92,-224.808,-202.018,-52.464,-33.641,-84.109,-180.762,-280.906],[-85.8,-47.867,-52.871,-88.685,-115.915,-87.085,-53.328,-61.751,-83.044,-121.464,-80.628,-47.904,-54.964,-89.212,-129.926,-92.099,-41.365,-44.591,-74.057,-179.957,-71.405,-55.515,-46.842,-104.148,-164.784,-78.529,-49.88,-29.178,-50.967,-85.836],[-84.452,-51.658,-30.131,-18.601,-42.175,-85.799,-47.411,-25.23,-31.335,-48.193,-86.007,-43.71,-35.082,-29.323,-33.939,-75.845,-59.606,-21.235,-2.086,-30.946,-88.806,-81.684,-33.648,-55.553,-48.851,-82.302,-81.979,-29.153,-10.167,-68.21],[-88.912,-54.215,-26.317,-22.702,-17.522,-87.929,-56.567,-22.322,-11.525,-14.021,-89.333,-49.499,-28.4,-10.627,-13.956,-87.171,-60.789,-39.688,-6.413,-9.439,-90.856,-73.916,-53.48,-15.223,-20.372,-89.115,-55.282,-36.449,-75.277,-68.19],[-92.043,-57.459,-30.715,-14.687,-10.588,-93.89,-56.003,-25.981,-10.411,-12.714,-92.855,-51.578,-28.807,-13.514,-2.894,-94.903,-59.44,-28.812,-5.348,0.098,-86.945,-76.926,-60.278,-34.109,-4.616,-90.662,-69.793,-38.729,-66.233,-9.988]],
"vp": [[-339,278.945,440.929,229.595,-501.174,21.173,25.754,-42.911,99.075,70.409,-33.487,23.656,19.325,13.88,-24.35,-3.409,3.345,29.512,23.58,-1.197,-12.361,-17.584,0.621,-9.614,-11.284,-28.46,-10.999,7.046,0.07,-22.309],[1964.639,1171.761,-15.285,-709.819,80.674,463.815,182.477,-16.655,34.476,-49.622,268.683,96.809,-56.682,-6.721,-10.548,41.282,3.644,-15.09,-22.143,4.775,-0.456,-3.623,-11.112,4.114,-12.635,-20.188,-36.999,-32.731,-9.336,-7.062],[5167.078,2103.15,1420.629,542.577,89.111,828.442,749.941,399.351,145.564,-100.673,416.679,331.777,188.158,109.967,-33.262,84.681,72.021,-3.449,-26.033,5.949,20.732,-1.355,-13.265,-2.947,-3.579,-9.401,0.282,-20.225,-34.042,-8.906],[4975.85,5449.436,3108.896,2211.789,621.001,1195.308,928.358,665.696,374.518,316.558,529.07,492.279,270.248,95.089,196.711,82.27,86.464,48.539,5.905,-0.977,50.811,32.563,-5.78,-3.289,-14.228,-15.904,0.402,-34.526,-22.945,-22.877],[5914.552,7210.689,6273.837,2984.366,2288.668,1393.17,1621.073,1339.901,557.603,336.649,620.972,644.242,574.775,269.672,125.409,109.051,164.112,150.71,17.197,72.9,19.209,38.681,47.537,-18.602,-2.664,-2.69,-9.738,-10.345,-27.336,-16.435],[7539.668,9100.083,6191.261,4348.95,2414.955,1337.357,1672.44,1239.417,922.362,516.618,693.667,857.948,612.722,329.474,259.196,165.212,154.022,131.216,65.06,26.298,54.208,81.789,29.59,20.62,29.855,1.135,30.484,6.918,-13.139,-33.867]]
}