{
"KTrans": [[1.257,0.442,4.196,1.403,-0.43,7.416,9.58,12.405,10.005,14.621,8.478,25.727,20.218,22.31,17.75,39.236,49.475,82.153,89.944,91.296,-96.298,3.802,75.676,117.402,107.294,-19.675,102.584,-33.015,-15.975,29.721],[-2.695,-0.187,0.516,2.109,0.582,2.342,4.283,1.418,5.659,3.568,9.139,9.987,3.796,9.507,8.92,0.05,-9.792,-12.051,25.205,34.53,22.956,-3.314,5.455,13.658,38.736,63.399,41.013,124.825,12.516,4.876],[-9.17,-0.764,0.244,0.056,0.203,-11.855,5.484,3.801,3.065,0.804,-3.171,11.186,10.103,6.277,1.552,-23.417,61.583,8.14,-2.536,-1.637,-119.61,-62.401,2.787,19.872,22.825,79.177,17.285,10.446,51.286,0.09],[-18.624,-4.508,2.459,-0.101,-0.128,-26.584,5.692,4.102,3.675,2.325,-13.915,10.073,9.268,6.858,6.615,-56.983,34.964,49.277,25.202,24.924,-11.475,-37.779,-9.189,27.193,31.418,55.25,-22.003,-39.143,15.369,26.773],[-40.291,0.602,0.53,1.869,0.2,-40.893,-4.737,2.709,4.39,2.437,-51.871,15.949,5.783,3.986,5.703,-55.858,7.483,23.626,35.597,22.768,-46.954,-63.436,32.528,31.287,16.69,-16.936,-49.053,13.701,26.134,-34.209],[-54.659,-3.234,-1.649,0.919,1.208,-56.201,0.164,7.337,5.44,3.444,-56.935,4.959,10.222,3.681,5.937,-60.724,8.03,29.201,27.069,28.998,-40.117,52.492,-1.412,8.464,27.924,-60.556,-26.191,-61.758,0.299,-47.725]],
"ve": [[-2.832,3.3,-8.143,193.113,11.325,3.728,43.043,21.018,-103.924,30.867,-1.874,-12.671,-365.706,14.501,-237.746,45.723,9.13,-40.434,90.13,-313.799,95.909,28.173,4.315,-15.103,-54.402,196.35,79.249,32.772,2.576,-16.666],[-1.726,-1.888,1.176,5.338,2.982,3.047,1.318,-20.139,6.044,3.458,8.003,3.614,3.413,9.255,6.865,49.945,26.81,16.896,9.233,7.46,91.104,47.357,32.067,16.319,18.949,195.879,91.326,59.234,50.65,26.395],[-0.526,-0.716,-0.3,-1.853,0.286,0.295,2.749,0.7,-2.806,-1.973,11.732,4.751,3.027,1.784,2.039,49.144,28.218,18.12,10.548,9.537,100.944,49.168,33.56,25.29,19.361,192.76,99.207,72.226,51.173,39.133],[0.308,-0.578,0.535,-0.157,-0.28,15.447,2.864,1.671,0.926,0.314,39.683,4.66,3.094,2.701,1.867,49.83,25.538,17.093,14.13,9.968,95.872,54.35,30.017,25.846,22.553,192.176,97.671,66.712,47.674,41.334],[-1.609,0.604,-0.086,0.493,-0.223,8.856,1.589,1.598,1.307,0.954,6.872,5.284,2.835,2.156,1.954,52.76,23.169,16.519,12.171,6.6,95.857,49.667,39.787,5.692,21.503,198.236,100.891,67.752,50.345,38.938],[-0.006,0.179,0.202,0.53,0.214,4.92,1.658,1.643,1.598,1.049,7.444,3.929,3.287,2.321,1.928,47.542,24.595,14.429,11.457,9.818,99.87,48.729,35.217,26.323,21.389,197.03,196.072,65.689,36.169,39.17]],
"kep": [[-122.907,2.12,-14.204,-3.635,5.175,-115.777,-18.031,-23.43,-13.233,-28.084,-139.627,-58.046,-27.395,-39.447,-21.948,-48.364,-261.765,-188.609,-206.444,-221.872,-78.518,-346.671,-373.285,-356.307,-454.569,-9.33,79.09,-541.354,-671.589,-715.731],[-13.857,-8.256,-114.487,-18.133,-3.398,-12.237,-5.025,-133.123,-30.033,-6.132,-11.995,-2.564,-139.336,-41.481,-17.738,-40.828,-42.792,-117.022,-152.786,-94.024,-35.288,-41.264,-7.038,-255.616,-197.598,-33.868,2.154,121.5,-52.903,-325.115],[-20.003,-3.858,-2.8,-9.889,-122.051,-25.073,1.953,0.058,0.385,-133.518,-23.117,7.244,13.662,6.085,-143.51,-55.033,19.33,-24.618,-38.051,-102.909,-93.03,-72.16,-27.608,7.79,62.32,-35.165,-29.345,-25.073,33.432,35.554],[-30.736,-7.726,3.346,-0.926,-1.979,-37.329,0.124,2.686,5.375,3.203,-33.939,3.012,7.959,8.092,15.764,-71.233,-4.325,29.283,5.342,18.847,-59.015,-53.053,-39.03,-3.812,14.084,-46.537,-47.928,-57.605,-21.766,8.329],[-52.384,-3.591,-1.652,3.538,-0.464,-54.851,-10.379,1.494,4.057,1.938,-63.163,5.969,2.104,1.671,7.785,-74.362,-26.383,0.979,21.975,13.429,-70.879,-68.633,-15.51,-2.687,-16.904,-68.594,-61.537,-35.509,-17.695,-62.303],[-65.371,-8.735,-2.571,0.871,2.293,-66.452,-8.935,2.384,4.19,4.361,-72.077,-7.348,4.272,1.497,5.203,-77.45,-24.045,5.188,13.414,21.37,-68.33,-13.942,-34.663,-24.592,-1.665,-79.677,-60.588,-63.983,-31.414,-59.602]],
"vp": [[-153.762,29.987,204.675,-139.09,-44.273,9.953,-52.049,-49.818,-25.666,10.906,-20.541,12.674,-17.099,10.332,-16.134,-21.954,2.206,-11.211,4.91,13.522,-9.109,-4.377,0.47,-24.448,14.361,-22.272,-13.186,-7.952,-1.827,8.144],[1476.264,55.238,-38.398,-64.059,-123.189,257.282,138.408,33.103,36.61,-3.834,131.534,53.352,12.276,1.682,-5.654,-0.047,9.659,-19.184,-22.006,-21.698,-25.471,-20.411,-30.084,-20.159,-1.019,-37.221,-26.316,-23.098,-16.119,-1.765],[3554.376,562.947,324.178,1.046,-25.341,502.248,184.712,29.596,40.543,-34.074,306.623,67.038,12.3,25.358,-20.461,48.803,21.568,0.649,-20.392,-8.285,3.352,-32.889,-20.661,-40.905,-23.097,-38.187,-25.787,-37.977,-48.863,-28.25],[5215.675,1017.224,731.165,284.982,235.621,687.04,323.034,93.082,-22.963,-2.685,427.779,120.769,23.212,18.124,17.154,51.744,28.767,4.592,14.004,-0.157,-10.476,-17.1,1.228,-19.769,-7.276,-41.018,-24.458,-20.064,-47.259,-23.468],[5529.803,2487.04,849.942,333.48,377.162,1052.153,464.822,236.538,102.112,135.388,461.971,305.033,84.936,54.16,23.784,71.024,47.368,-1.066,8.178,-10.849,-0.364,0.166,19.359,-19.939,-3.397,-13.958,-9.275,-44.668,-18.917,-36.973],[6728.508,3964.299,1476.115,854.48,627.043,1140.148,645.043,360.045,258.221,191.422,686.677,353.029,153.321,65.92,20.934,114.739,48.818,-6.221,-5.169,-4.479,-7.458,7.011,9.831,1.972,11.773,-9.863,-15.343,-27.411,-26.497,-46.632]]
}