{
"KTrans": [[2.114,1.587,3.846,0.965,4.038,18.519,7.026,8.631,5.979,4.397,32.814,19.557,17.23,13.466,11.084,177.349,94.976,81.847,64.743,62.045,417.512,234.017,176.663,155.327,140.507,1139.639,595.713,467.671,408.128,366.145],[14.923,4.07,6.323,1.626,1.045,17.457,18.586,2.139,5.468,6.215,32.477,17.529,16.312,8.787,9.325,174.731,73.071,51.205,39.238,34.496,332.695,161.116,95.947,77.012,66.085,949.036,376.433,249.855,180.411,156.551],[-4.457,13.645,8.808,9.038,4.77,0.654,20.063,10.314,5.984,6.659,21.361,22.488,14.494,7.614,9.971,131.372,75.513,50.034,41.568,29.191,304.181,150.756,96.955,73.703,57.662,733.935,361.097,238.005,167.817,128.943],[-28.488,28.279,14.851,7.19,9.992,-31.071,28.671,15.608,10.803,7.401,-4.217,32.425,15.39,16.213,12.583,59.675,107.933,53.324,44.15,36.611,167.919,172.78,106.293,78.51,62.605,561.934,393.983,230.084,151.84,115.257],[-52.741,25.501,18.918,10.483,10.214,-37.487,27.468,17.913,26.285,8.306,-42.269,57.071,17.161,17.131,19.589,5.926,81.912,57.193,42.477,29.052,106.628,160.066,105.973,63.252,55.448,428.568,407.622,234.276,150.332,126.337],[-59.85,28.208,33.189,9.905,16.184,-51.891,43.283,24.112,25.916,14.945,-51.699,44.178,30.752,20.838,17.662,-12.374,109.994,74.968,60.577,32.557,39.928,199.837,143.444,91.421,60.901,273.145,390.078,253.909,158.588,123.893]],
"ve": [[1.085,0.996,0.351,1.561,2.86,6.21,1.349,-0.793,-0.025,-1.351,8.411,1.781,-0.607,-3.132,-3.144,46.086,13.242,-0.896,-10.647,-18.432,94.553,33.513,7.597,-7.279,-18.717,192.118,78.856,35.617,10.503,-6.673],[2.188,0.982,0.784,0.18,0.227,4.83,3.878,0.733,0.875,0.88,10.243,4.843,3.44,1.915,1.107,50.269,24.328,14.546,9.273,5.641,98.959,47.784,28.596,18.942,11.947,198.973,96.432,61.081,41.062,29.003],[1.389,1.32,0.903,0.548,0.644,5.691,2.892,1.753,0.996,0.915,11.736,4.874,3.011,2.072,1.944,48.081,24.38,16.165,11.889,8.172,98.451,48.718,32.028,22.987,16.782,200.167,98.267,65.404,47.208,35.658],[2.388,1.389,0.822,0.328,0.831,5.355,3.175,1.812,1.307,1.068,13.044,4.773,2.85,2.527,2.423,45.472,26.039,16.179,12.53,10.185,121.766,49.882,33.422,24.491,19.079,199.898,100.127,65.867,47.811,37.089],[-0.216,0.573,0.401,0.648,0.478,4.394,2.326,1.469,2.746,0.88,13.79,5.904,2.677,2.924,2.725,48.445,24.535,16.237,12.044,9.172,102.558,49.758,32.353,23.315,18.788,201.087,99.976,65.648,48.711,39.002],[3.95,1.106,0.959,-0.105,1.02,3.567,2.451,1.549,1.814,1.199,14.64,5.95,3.334,2.487,2.157,37.53,26.928,16.613,13.268,9.726,103.397,50.756,34.428,25.272,19.358,200.44,100.063,66.377,49.108,39.106]],
"kep": [[0.988,1.144,4.751,1.784,4.966,11.614,6.04,10.455,7.97,8.817,22.48,17.826,18.831,18.876,18.872,89.598,72.129,83.637,84.709,99.12,165.402,149.908,156.801,175.2,195.858,323.922,288.646,318.097,359.395,399.013],[11.461,2.578,5.123,1.237,0.718,10.304,13.555,1.014,4.28,5.197,18.454,11.495,11.973,6.47,7.997,81.486,38.599,31.424,27.046,27.076,116.208,75.814,51.876,48.4,47.929,249.493,141.696,116.528,98.205,98.415],[-7.442,11.017,6.984,7.763,3.66,-5.998,15.534,7.499,4.393,5.228,7.393,15.331,10.194,4.769,7.398,51.859,39.665,28.244,25.828,18.864,100.797,67.352,48.348,40.504,34.383,176.9,131.202,103.309,81.119,68.101],[-31.161,24.525,12.586,5.939,8.376,-35.359,22.787,12.395,8.406,5.567,-14.495,24.075,10.927,12.3,9.282,5.494,63.147,30.72,27.268,23.27,32.831,79.757,53.479,42.394,35.707,119.781,145.017,97.597,69.309,56.275],[-54.118,22.317,16.575,8.603,8.661,-42.21,21.824,14.447,21.618,6.537,-47.618,44.771,12.492,12.629,15.412,-30.103,43.661,33.504,25.849,17.129,2.87,71.348,53.814,31.211,29.813,75.485,150.95,99.792,67.172,61.853],[-60.857,24.231,29.47,8.524,13.913,-54.665,35.162,20.088,22.001,12.292,-56.191,32.924,24.125,16.171,13.882,-41.689,62.981,47.378,40.052,19.692,-30.126,95.452,79.006,50.994,33.398,24.559,142.392,110.448,71.831,59.677]],
"vp": [[0.001,0.001,0.001,0.001,0.001,0.005,0.005,0.005,0.005,0.005,0.01,0.01,0.01,0.01,0.01,0.05,0.05,0.05,0.05,0.05,0.1,0.1,0.1,0.1,0.1,0.2,0.2,0.2,0.2,0.2],[0.001,0.001,0.001,0.001,0.001,0.005,0.005,0.005,0.005,0.005,0.01,0.01,0.01,0.01,0.01,0.05,0.05,0.05,0.05,0.05,0.1,0.1,0.1,0.1,0.1,0.2,0.2,0.2,0.2,0.2],[0.001,0.001,0.001,0.001,0.001,0.005,0.005,0.005,0.005,0.005,0.01,0.01,0.01,0.01,0.01,0.05,0.05,0.05,0.05,0.05,0.1,0.1,0.1,0.1,0.1,0.2,0.2,0.2,0.2,0.2],[0.001,0.001,0.001,0.001,0.001,0.005,0.005,0.005,0.005,0.005,0.01,0.01,0.01,0.01,0.01,0.05,0.05,0.05,0.05,0.05,0.1,0.1,0.1,0.1,0.1,0.2,0.2,0.2,0.2,0.2],[0.001,0.001,0.001,0.001,0.001,0.005,0.005,0.005,0.005,0.005,0.01,0.01,0.01,0.01,0.01,0.05,0.05,0.05,0.05,0.05,0.1,0.1,0.1,0.1,0.1,0.2,0.2,0.2,0.2,0.2],[0.001,0.001,0.001,0.001,0.001,0.005,0.005,0.005,0.005,0.005,0.01,0.01,0.01,0.01,0.01,0.05,0.05,0.05,0.05,0.05,0.1,0.1,0.1,0.1,0.1,0.2,0.2,0.2,0.2,0.2]]
}