{
"KTrans": [[2.936,2.223,3.828,2.196,1.764,4.105,1.18,0.591,1.611,3.941,-1.975,3.175,1.737,2.994,2.783,3.585,3.668,5.097,3.946,4.002,5.392,5.257,5.963,4.655,5.124,9.854,10.311,9.309,7.494,8.989],[-12.018,0.249,0.44,1.518,1.843,-10.552,-0.924,0.181,0.411,1.57,-9.159,-1.056,0.151,1.003,1.098,-12.421,-1.596,0.644,2.108,2.589,-12.657,0.066,2.561,2.358,2.678,-20.104,-0.426,2.892,3.059,3.573],[-31.205,-8.935,-2.116,-1.169,0.112,-33.88,-6.06,-2.866,-0.714,0.729,-34.297,-8.287,-2.611,-1.509,0.125,-36.735,-8.061,-1.872,0.486,0.482,-48.535,-5.653,-3.059,-0.454,0.846,-40.859,-9.016,-0.743,0.743,2.175],[-61.991,-12.017,-7.102,-1.999,-1.119,-67.058,-16.263,-5.715,-3.894,-1.693,-63.983,-15.931,-6.861,-3.528,-2.147,-62.494,-16.021,-6.955,-2.343,-1.36,-60,-17.857,-7.226,-1.877,-0.125,-61.156,-20.707,-6.812,-2.367,-0.458],[-79.868,-23.718,-12.133,-5.223,-3.649,-77.809,-23.139,-9.712,-6.625,-3.198,-78.073,-24.131,-12.01,-6.784,-3.602,-77.043,-26.043,-10.82,-5.816,-2.975,-76.527,-25.575,-12.91,-5.516,-3.331,-77.059,-34.471,-13.153,-6.529,-2.821],[-86.189,-33.392,-17.621,-9.424,-5.199,-87.704,-29.176,-13.477,-9.104,-5.016,-86.992,-31.641,-17.691,-9.9,-6.731,-86.216,-34.327,-14.405,-9.606,-5.382,-87.312,-34.9,-18.199,-9.861,-5.648,-84.743,-42.073,-19.641,-11.061,-5.735]],
"ve": [[0.714,1.436,1.264,3.328,5.566,1.152,2.092,3.339,4.943,3.484,1.344,1.813,2.046,3.521,3.376,2.314,2.217,1.186,3.267,3.696,5.306,3.021,3.262,3.146,3.279,8.584,5.358,3.634,3.474,0.86],[-4.695,-0.093,0.247,0.553,0.687,-4.003,-0.02,0.304,0.348,0.691,-3.185,-0.443,0.3,0.77,0.716,-2.536,0.275,0.745,0.858,1.285,0.049,1.807,2.091,1.194,1.526,-0.947,3.206,2.739,2.375,2.432],[-14.701,-3.083,-0.366,-0.439,-0.018,-19.115,-1.983,-0.898,0.017,-0.129,-16.516,-2.644,-0.932,-0.296,0.05,-16.694,-1.922,-0.264,0.773,0.347,-21.958,0.528,0.183,0.668,0.993,-12.548,0.554,2.358,1.861,2.061],[-37.262,-4.926,-2.515,-0.611,-0.292,-41.309,-6.531,-1.463,-1.123,-0.528,-36.294,-6.061,-2.371,-1.068,-0.841,-34.58,-6.049,-2.075,-0.099,-0.25,-29.289,-5.612,-1.27,0.348,0.538,-24.86,-3.686,0.357,0.832,1.315],[-51.395,-9.789,-4.657,-1.749,-1.449,-47.485,-10.012,-3.481,-2.475,-1.052,-43.695,-10.763,-3.895,-2.384,-1.349,-50.455,-10.097,-3.646,-1.804,-0.794,-43.964,-9.384,-3.608,-0.869,-0.447,-40.085,-11.175,-2.27,-0.395,0.443],[-59.901,-15.859,-6.832,-3.5,-1.84,-63.56,-13.469,-5.112,-3.121,-1.797,-63.252,-14.229,-6.649,-3.359,-2.319,-58.233,-14.629,-4.725,-3.012,-1.598,-56.478,-13.925,-6.024,-2.619,-1.227,-49.005,-15.174,-5.034,-2.1,-0.542]],
"kep": [[-2.708,-3.499,-1.397,-4.801,-6.429,-2.013,-5.054,-6.379,-6.376,-2.19,-7.895,-2.814,-4.156,-4.122,-3.445,-3.917,-2.894,-0.28,-2.673,-2.991,-4.575,-2.125,-1.357,-2.162,-1.358,-3.664,0.198,1.086,0.2,4.59],[-13.627,-4.29,-4.34,-3.579,-3.365,-12.979,-5.528,-4.614,-4.418,-3.631,-12.754,-5.224,-4.642,-4.257,-4.111,-15.933,-6.51,-4.621,-3.302,-3.231,-18.406,-6.304,-4.075,-3.369,-3.388,-24.257,-7.987,-4.379,-3.84,-3.405],[-26.531,-10.779,-6.264,-5.213,-4.36,-25.811,-8.901,-6.474,-5.198,-3.677,-28.045,-10.338,-6.17,-5.673,-4.413,-30.909,-10.835,-6.1,-4.775,-4.358,-40.108,-10.7,-7.668,-5.581,-4.624,-38.242,-13.809,-7.454,-5.559,-4.385],[-48.429,-12.523,-9.196,-5.871,-5.293,-53.881,-15.408,-8.811,-7.223,-5.632,-51.55,-15.583,-9.043,-6.897,-5.761,-51.17,-15.466,-9.417,-6.667,-5.565,-51.206,-17.688,-10.361,-6.651,-5.14,-53.944,-22.006,-11.472,-7.578,-6.164],[-68.051,-20.301,-12.276,-7.966,-6.639,-65.957,-20.161,-10.951,-8.646,-6.589,-66.836,-20.19,-12.762,-8.87,-6.696,-65.204,-22.871,-11.853,-8.492,-6.612,-65.057,-22.838,-13.911,-9.032,-7.284,-66.765,-30.331,-15.376,-10.47,-7.611],[-75.288,-26.373,-15.951,-10.451,-7.807,-75.776,-23.993,-13.366,-10.505,-7.661,-75.276,-26.227,-16.172,-11.059,-8.847,-75.192,-28.967,-14.608,-11.082,-8.193,-77.161,-29.533,-17.191,-11.711,-8.804,-74.528,-35.871,-19.515,-13.325,-9.524]],
"vp": [[-74.506,-93.478,-181.19,-104.229,-37.345,-23.542,4.279,8.506,-5.716,-41.12,8.6,-9.696,2.873,-11.038,-0.442,0.301,0.349,-3.01,-1.401,-2.358,-0.531,-0.04,-0.774,-0.211,-0.141,0.269,-0.334,-0.417,-0.007,-0.259],[510.494,-17.293,-9.897,-113.937,-134.537,86.307,4.622,-12.55,6.626,-23.125,32.916,7.648,-1.675,-3.043,-1.352,9.458,2.962,0.923,-2.072,-4.884,4.17,0.339,-1.671,-0.512,-1.214,5.135,0.855,0.362,0.465,0.023],[1540.689,569.053,57.829,169.713,18.438,382.785,73.383,50.785,-1.22,-10.239,171.436,57.888,22.524,9.764,0.448,39.037,12.194,3.418,-1.919,0.536,27.482,2.222,3.164,1.382,0.455,10.977,3.746,0.536,0.619,-0.643],[3883.785,974.223,727.657,110.536,28.393,881.187,267.563,78.711,87.012,39.609,380.291,125.268,60.095,37.229,32.638,77.329,28.212,15.408,3.495,5.898,35.124,14.745,6.895,2.333,0.445,17.199,7.916,3.54,2.39,0.991],[5421.049,1941.736,1321.283,548.793,607.939,1027.942,404.631,193.669,173.531,72.62,528.537,223.403,118.892,90.114,59.112,109.807,45.862,24.423,17.379,9.157,50.832,23.19,14.163,6.166,5.182,25.36,15.554,7.394,4.312,2.523],[6362.052,3226.222,1996.99,1294.935,755.339,1330.945,556.932,292.3,226.106,143.208,669.28,293.602,196.746,129.457,105.662,126.32,64.476,30.305,26.053,16.55,64.024,32.018,21.942,14.084,9.102,29.997,19.786,11.788,8.099,4.611]]
}