{
"KTrans": [[6.841,-1.483,-0.91,0.048,0.506,6.547,5.682,-1.376,0.129,-0.049,-6.512,0.207,2.442,1.197,0.41,-4.218,1.676,-1.507,1.306,0.18,32.648,10.985,-1.427,-4.711,1.582,-64.798,52.139,39.325,11.875,37.486],[-51.793,-2.906,1.985,-1.409,0.621,-50.939,0.564,-0.201,3.825,1.714,-44.24,-1.801,-0.54,0.078,-1.174,-38.825,-7.632,-0.85,0.047,-0.014,-14.737,4.722,-3.572,-4.009,0.106,-74.877,25.535,0.442,1.784,10.181],[-82.459,-7.29,1.006,0.695,1.265,-84.115,-1.73,1.413,3.529,0.256,-83.935,-3.074,-0.709,-0.778,0.354,-68.923,-7.206,-4.586,3.08,-4.871,-70.039,-14.936,-1.838,-1.368,-3.662,-95.608,21.972,8.113,-6.194,-8.566],[-94.375,-18.307,5.13,1.963,1.669,-93.002,-13.361,0.651,1.255,1.47,-92.985,-24.378,0.786,-0.415,-0.729,-84.43,-27.824,-4.421,0.105,-1.689,-91.949,-16.556,-20.209,-0.852,-5.42,-96.738,-4.525,3.29,-10.196,3.056],[-96.848,-36.494,-0.426,4.714,0.503,-95.902,-40.234,0.117,2.877,3.314,-96.348,-47.213,-0.984,-0.037,1.363,-93.864,-48.124,-1.448,0.861,-0.226,-88.102,-37.706,-17.489,-2.098,-5.308,-117.97,-46.061,10.951,-3.324,-13.389],[-97.842,-63.842,-4.494,3.044,3.116,-96.915,-57.988,-4.585,4.686,0.798,-97.098,-62.954,-0.328,2.032,2.039,-96.872,-60.927,-18.694,-6.65,-0.763,-96.597,-41.454,-12.874,-13.388,-6.509,-118.872,-43.97,-1.26,1.767,-7.749]],
"ve": [[4.703,6.07,28.387,17.706,11.717,6.189,4.387,9.589,8.03,47.125,-0.629,4.767,7.213,11.786,16.86,-23.555,-1.726,38.675,15.491,110.513,1.362,-12.668,-75.47,-102.112,260.751,3.735,-25.022,-1.702,-43.992,-32.206],[-29.031,-0.992,0.144,-0.098,-0.311,-25.262,-0.465,-0.501,0.251,0.222,-22.324,-1.669,-1.534,-0.521,-0.102,-27.122,-4.236,-1.018,0.135,1.448,3.905,3.805,-1.103,1.948,2.729,-65.174,3.19,-12.071,-8.494,-60.803],[-57.16,-3.572,-0.3,-0.296,-0.538,-59.004,-1.144,-0.257,0.483,-0.706,-121.523,-4.814,-1.042,-0.827,-0.216,-47.78,-5.033,-2.808,1.032,-2.763,-55.243,-27.337,-0.514,-2.289,-2.136,-89.801,-16.635,-6.551,-3.989,1.146],[-73.629,-9.825,0.289,-0.007,-0.474,-62.18,-7.843,-1.384,-0.428,-0.292,-151.604,-13.898,-1.075,-1.753,-0.501,-72.501,-22.803,-3.817,0.422,-1.386,-82.037,-24.007,-14.141,-1.017,-3.975,-76.977,-23.832,9.264,-20.42,1.611],[-85.96,-21.314,-1.318,0.172,-0.64,-98.405,-21.785,-2.461,-0.39,-0.137,-82.073,-32.42,-2.246,-1.005,-0.774,-73.934,-40.313,-3.862,-1.298,-1.219,-72.098,-26.592,-17.39,-2.528,-3.652,-148.172,-44.849,-22.814,-39.332,-10.081],[-103.111,-43.364,-4.539,-0.472,0.552,-97.876,-35.604,-4.124,0.007,-0.942,-86.199,-41.85,-3.788,-0.82,-0.202,-79.343,-50.075,-14.045,-5.622,-1.417,-89.608,-27.471,-15.687,-10.325,-5.783,-133.205,-35.005,-13.973,-12.496,9.33]],
"kep": [[0.433,-3.839,-3.671,-4.415,0.149,1.713,4.397,-4.883,-1.455,-2.304,-6.613,-1.771,2.606,-1.864,2.882,-23.607,-5.571,-12.876,-5.749,-6.551,-13.328,-21.373,-26.59,-37.137,-23.542,61.889,-22.611,-22.984,-76.831,-9.038],[-37.593,-2.665,1.859,-1.29,1.019,-38.459,0.447,0.213,3.615,1.654,-35.638,-0.777,0.811,0.614,-0.97,-51.19,-8.901,-1.677,-0.956,-1.852,-39.261,-10.838,-9.239,-8.536,-3.166,-19.758,-31.425,-27.449,-20.153,-7.765],[-72.547,-5.297,1.009,0.878,1.808,-74.976,-1.471,1.33,2.882,0.922,-75.041,0.161,0.032,-0.049,0.534,-69.912,-10.712,-3.48,1.129,-2.924,-61.667,-36.162,-9.684,-3.795,-4.275,-45.455,-46.861,-28.911,-20.045,-16.176],[-94.638,-11.504,4.381,1.823,2.089,-89.327,-8.965,1.331,1.474,1.689,-93.131,-15.529,1.151,1.174,-0.32,-81.797,-27.691,-3.271,-1.313,-1.002,-76.327,-52.152,-20.968,-4.109,-4.379,-64.209,-38.13,-37.441,-26.378,-7.428],[-98.084,-24.474,-0.195,4.203,1.032,-95.799,-28.662,1.333,2.925,3.32,-96.615,-33.759,-0.284,0.678,2.036,-89.9,-55.267,-1.087,0.833,0.264,-77.813,-48.693,-27.08,-5.501,-5.219,-70.615,-43.229,-55.042,-22.969,-18.077],[-99.169,-49.7,-2.03,3.032,2.298,-100.17,-43.099,-1.958,4.162,1.579,-97.061,-50.784,1.395,2.437,2.018,-91.31,-65.807,-13.784,-2.728,-0.205,-84.96,-57.683,-32.131,-10.671,-4.178,-78.494,-46.773,-45.745,-39.938,-19.978]],
"vp": [[-114.729,20.64,84.488,-22.274,-27.194,-2.981,-15.177,23.46,19.858,2.415,46.987,11.907,-7.887,-15.919,22.779,16.925,5.381,8.289,2.761,8.552,-7.074,5.827,13.818,20.283,9.083,-2.059,0.143,-1.349,18.585,-5.668],[3243.783,412.555,9.205,195.899,55.359,584.59,62.294,22.823,-34.072,-15.322,249.455,46.491,33.485,24.32,26.681,57.624,20.592,8.723,4.616,-0.192,2.15,-1.631,10.891,11.709,4.38,28.099,0.005,14.586,12.482,-1.064],[5859.652,910.931,179.926,132.838,139.744,1206.258,73.177,35.152,-54.996,48.299,609.459,101.043,31.732,33.083,24.6,105.705,22.895,16.805,-12.312,33.92,57.213,38.453,3.84,8.042,14.513,46.453,14.254,5.622,18.472,20.512],[8474.003,2020.744,10.179,-47.346,143.575,1494.542,346.675,73.303,16.396,-10.655,836.246,286.854,31.988,61.139,26.459,150.194,90.814,21.478,-6.709,13.992,85.198,49.583,47.455,3.956,22.4,42.403,19.42,13.907,26.906,0.45],[9176.483,4412.471,527.205,-181.116,264.833,1734.424,881.899,154.473,40.455,-13.908,882.162,634.476,63.278,28.385,17.185,169.078,153.116,24.38,6.623,10.51,71.773,65.263,54.021,10.27,19.324,75.401,46.365,35.71,13.911,31.966],[9472.849,8882.741,1428.822,110.711,-276.074,1923.396,1471.933,259.665,-28.48,90.953,890.221,834.57,102.019,20.82,3.391,182.175,203.892,85.983,44.05,15.178,89.438,57.149,47.648,43.314,29.401,68.304,34.316,20.791,24.024,25.622]]
}