{
"KTrans": [[-60.322,-75,-67.975,-83.569,-77,-45.515,-62.724,-80.122,-73.209,-80.544,-33.802,-70.714,-73.977,-64.555,-66.579,16.381,-28.57,-14.87,-25.071,-15.539,-18.438,1.318,43.238,31.421,15.071,-3.983,159.604,174.18,198.58,178.488],[-55.123,-47.431,-48.885,-63.998,-63.625,-60.182,-42.732,-43.782,-57.076,-59.151,-47.43,-35.434,-39.757,-53.151,-54.03,-33.28,-19.311,-9.826,-28.241,-43.391,-51.244,-7.771,-37.813,-56.194,1.046,-71.171,-30.421,-71.978,56.571,67.74],[-70.148,-49.433,-43.186,-38.475,-45.757,-67.764,-40.606,-36.745,-37.829,-40.582,-65.157,-45.303,-40.55,-41.162,-43.042,-60.018,-25.092,-22.291,-16.006,-15.009,-32.987,-13.054,-14.66,-23.697,-30.085,-91.141,-25.5,-13.879,-69.383,-10.094],[-77.361,-56.767,-51.546,-54.601,-40.801,-77.333,-57.766,-47.422,-43.735,-44.818,-73.977,-47.79,-43.971,-38.252,-44.184,-63.978,-40.669,-31.593,-31.706,-21.216,-80.057,-29.936,-12.859,0.978,-5.9,-50.022,-41.572,-40.599,-46.976,-29.183],[-82.025,-61.272,-48.266,-43.196,-46.272,-83.715,-59.199,-54.295,-50.667,-46.885,-81.203,-58.424,-46.499,-46.492,-41.309,-73.16,-46.37,-34.362,-20.745,-34.984,-73.05,-39.313,-24.668,-9.396,-6.498,-74.988,-36.787,-30.405,-19.06,-46.8],[-86.154,-66.624,-54.511,-47.562,-43.273,-85.989,-66.113,-53.238,-46.053,-46.126,-84.686,-65.874,-45.089,-37.827,-43.071,-79.806,-53.019,-40.389,-30.767,-35.797,-88.52,-47.226,-30.36,-26.113,-15.786,-71.616,-74.031,-42.161,-37.706,-24.84]],
"ve": [[-69.408,-55.584,-20.258,-63.318,-58.659,-48.052,-57.021,-132.486,-55.131,-53.689,43.82,-75.938,19.116,-91.463,-66.308,-10.177,5.811,-59.999,-115.425,-517.481,17.94,2.36,-32.88,-31.088,-40.978,108.324,106.606,51.316,15.048,2.921],[35.134,-57.866,-54.094,-53.995,-68.257,-16.504,-51.999,-43.912,-46.863,-90.622,-16.939,-47.369,-141.16,-42.215,-31.683,34.962,-32.154,5.854,-916.945,-41.757,61.854,17.312,2.111,-7.152,-26.128,170.661,15.529,54.773,50.517,18.323],[-45.945,-155.095,-39.913,-41.234,-35.287,-22.819,-61.248,-41.29,-38.024,-38.551,-18.604,-48.312,-51.879,-41.884,-46.912,63.634,-80.473,-47.225,-17.496,-15.911,138.087,49.861,-36.665,-3.463,-16.546,33.86,18.011,27.092,15.334,16.047],[-8.755,-80.63,-91.563,-124.327,-60.443,-20.755,-51.413,-73.958,-5.572,-55.619,8.484,-44.229,-65.637,-60.995,-62.742,36.93,-26.737,-39.6,-65.196,-202.566,63.142,-5.878,13.124,28.124,-9.236,249.239,75.643,-34.941,0.386,-4.943],[-195.18,-33.704,-79.242,-76.194,-74.566,30.335,5.703,-93.723,-106.236,-76.9,10.531,-59.427,-72.007,-91.106,-70.763,106.812,15.119,-28.555,-20.379,-63.861,115.702,6.2,-42.623,-19.692,-14.491,172.524,66.373,108.056,8.267,-22.146],[-81.995,-60.155,-89.976,-90.814,-90.617,-5.591,-35.639,-57.79,-92.858,-105.061,57.186,-40.819,-68.417,-78.061,-90.974,106.016,22.04,-51.335,-45.59,-70.309,60.747,39.076,29.794,-69.607,-14.74,53.077,31.914,-63.409,31.927,-29.306]],
"kep": [[-98.689,-63.096,-52.467,-6.537,-68.154,-115.054,-72.462,-10.683,20.316,-32.281,-106.161,-59.71,1.811,2.908,-11.392,-96.195,-57.072,-107.84,-98.159,-36.845,-113.894,-144.153,-173.306,-91.988,-72.407,-43.781,-162.212,-327.079,-362.942,-280.17],[-90.648,-75.272,-129.946,-41.408,-15.555,-87.092,-71.562,-96.852,-46.56,10.703,-86.766,-84.14,-97.934,-64.14,-18.519,-87.537,-78.152,-139.443,-101.435,-35.133,-75.028,-71.743,-104.373,-130.856,-91.362,-65.184,-27.002,-39.246,-121.597,-175.639],[-89.556,-51.02,-44.668,-69.048,-131.364,-90.849,-49.623,-54.591,-90.876,-129.839,-89.905,-52.911,-57.723,-72.398,-121.346,-89.993,-62.94,-49.326,-68.756,-117.59,-85.46,-56.453,-32.539,-73.172,-114.133,-75.213,-44.989,-27.919,-61.737,-37.162],[-92.99,-57.809,-34.967,-29.263,-38.121,-97.44,-64.809,-39.803,-28.942,-37.467,-94.808,-59.776,-36.901,-20.02,-31.352,-91.48,-56.478,-41.877,-17.206,-51.515,-89.017,-54.778,-48.159,-64.797,-53.377,-82.242,-58.796,-24.361,-44.236,-22.22],[-94.636,-71.154,-34.763,-21.378,-9.596,-99.047,-63.795,-39.865,-12.604,-7.077,-98.824,-66.322,-35.155,-12.102,-13.067,-97.057,-73.673,-41.131,-23.21,-16.664,-92.621,-62.809,-29.976,-30.92,-27.008,-87.429,-63.409,-55.972,-35.377,-35.476],[-99.136,-68.266,-39.981,-18.746,-5.009,-98.393,-75.386,-38.851,-21,-4.469,-99.986,-73.378,-35.826,-13.646,-8.749,-97.192,-75.846,-42.15,-27.596,-17.539,-94.386,-67.942,-61.264,-17.196,-37.402,-85.026,-68.983,-47.799,-51.375,-28.519]],
"vp": [[106.981,348.641,443.071,-30.095,53.696,1.478,37.452,-45.506,62.649,17.251,55.009,-26.03,60.014,7.398,-35.726,3.784,-9.454,-26.256,-26.149,2.731,-2.962,-10.607,-13.991,-9.807,-15.522,-43.387,-24.794,-35.566,-17.062,-11.604],[3061.681,554.854,-79.934,122.608,-265.077,542.804,192.858,6.14,-44.182,28.005,251.705,88.334,6.202,-58.953,-4.135,46.858,-3.44,-22.07,-18.005,-5.168,-7.151,-40.11,2.67,-7.332,-32.488,-29.18,-17.202,-34.192,-40.141,-40.475],[4288.946,2406.885,1180.556,719.351,190.042,810.386,414.58,288.751,153.837,47.162,391.52,287.26,116.966,42.948,-1.461,72.472,22.517,-10.429,1.139,-31.787,-7.983,-9.68,-47.761,-8.561,1.064,-34.815,-40.916,-42.629,-37.852,-37.759],[5608.213,3981.597,2428.447,701.148,1181.785,1092.051,800.678,603.148,212.685,238.342,522.424,402.003,239.9,97.783,76.476,41.095,33.832,42.93,-7.366,3.264,29.437,-15.91,-5.715,3.236,-28.867,2.426,-30.045,-24.812,-39.092,-46.807],[6856.659,7044.816,3501.32,2433.289,1420.622,1139.935,885.501,805.137,237.544,133.949,524.138,603.005,316.606,160.159,98.59,97.183,85.677,66.826,29.315,-7.316,17.411,4.678,-37.997,-17.954,-11.612,-29.447,-40.234,-41.72,-37.632,-34.338],[5847.536,6803.802,5173.66,2240.629,1103.037,1172.508,1556.022,1124.855,522.411,193.698,622.592,678.031,421.974,262.265,79.249,111.689,129.299,73.719,35.374,18.276,19.47,4.663,38.557,-26.026,-9.842,-38.889,-10.146,-32.696,-41.596,-35.577]]
}