{
"KTrans": [[44.742,23.057,21.8,8.81,16.656,63.253,17.814,20.844,19.412,13.955,67.002,42.488,35.233,31.32,35.077,217.127,131.216,98.333,96.967,81.264,502.791,279.616,207.021,196.909,166.083,1454.125,686.503,502.892,434.358,401.4],[90.62,52.19,37.13,34.84,24.222,13.603,72.277,38.628,28.648,23.978,100.917,91.583,37.806,30.957,27.296,205.846,145.905,103.656,77.798,58.491,308.228,300.458,139.768,123.267,112.554,1357.981,576.37,301.117,237.912,215.174],[-129.737,298.489,75.622,47.665,29.248,-189.181,264.624,96.033,59.435,45.776,-140.274,320.482,90.413,38.883,35.629,-191.852,411.284,166.229,78.472,67.403,-135.543,678.606,227.231,137.415,105.598,-543.962,1248.678,396.138,251.826,197.359],[-127.85,-197.62,184.796,72.177,50.495,-126.998,-97.041,157.399,96.046,71.351,-140.487,-114.943,208.42,84.904,61.823,-131.689,-77.819,306.591,128.769,91.293,-187.062,-217.511,437.116,196.095,143.055,-328.646,-146.249,638.8,342.125,223.099],[-117.009,-139.32,221.752,166.839,85.17,-126.884,-155.057,7.524,152.303,110.634,-139.383,-152.326,43.637,189.685,111.02,-167.321,-292.592,201.545,225.792,137.932,-155.228,-280.348,179.121,287.653,180.752,-215.938,-228.495,810.366,461.978,278.178],[-118.749,-157.819,-99.424,492.896,145.196,-128.382,-140.837,-89.055,531.953,169.371,-129.417,-127.216,-115.296,596.669,170.273,-126.256,-172.408,-48.269,693.51,214.737,-99.964,-153.484,109.783,819.222,292.335,-278.366,-238.353,-123.589,1368.095,431.18]],
"ve": [[2.521,2.457,1.984,14.674,34.726,6.54,1.168,0.932,7.267,24.922,8.918,2.307,-0.917,-2.537,-1.364,43.966,13.675,-2.199,-11.435,-19.586,91.687,34.374,6.775,-6.704,-19.283,194.306,80.026,34.317,9.398,-6.156],[4.381,0.801,1.735,1.857,1.058,4.484,3.198,1.694,1.321,1.342,8.805,7.091,2.574,2.403,1.431,49.512,22.972,16.154,10.782,5.797,99.767,50.972,27.854,19.878,14.425,203.222,99.164,59.756,41.674,31.393],[0.462,4.659,0.834,1.377,0.729,7.237,3.9,3.969,3.227,2.541,8.844,8.129,4.563,0.893,1.944,51.432,25.258,18.986,10.826,8.674,99.004,51.347,35.285,24.415,18.786,202.021,101.629,65.359,48.265,36.898],[6.253,2.575,2.742,0.673,0.035,7.755,4.389,0.886,2.166,3.576,12.186,5.752,4.51,3.171,3.558,50.609,27.396,18.332,12.683,9.395,102.752,50.785,35.848,26.011,21.036,203.091,100.714,65.33,49.946,39.151],[2.05,-0.302,3.485,2.119,0.997,7.119,4.772,2.363,1.348,2.831,15.213,9.443,7.603,4.321,4.224,51.838,27.345,17.35,14.802,11.219,103.247,50.872,31.925,24.723,21.061,201.736,100.213,66.725,49.814,41.355],[3.346,2.893,2.815,-0.346,1.249,6.327,3.969,1.39,3.533,2.624,11.917,6.742,6.218,4.773,3.745,52.693,27.346,18.62,14.197,12.133,102.494,51.479,33.511,27.03,21.919,199.898,101.682,70.948,53.552,40.533]],
"kep": [[37.055,20.662,24.229,10.778,23.568,49.101,15.684,23.773,24.783,20.135,48.053,38.132,39.266,41.591,53.959,114.317,99.343,99.811,120.428,124.397,208.074,178.164,182.591,214.266,224.819,423.001,332.643,343.982,383.261,429.489],[70.817,43.497,30.71,30.06,21.558,2.458,58.216,31.387,23.926,20.96,69.279,71.482,29.196,24.866,23.668,93.335,89.817,70.18,56.927,46.484,98.558,157.274,81.1,81.277,82.224,372.202,231.909,144.562,132.824,136.436],[-121.133,259.445,63.693,39.556,24.243,-171.001,225.55,79.478,48.78,37.846,-127.635,264.091,72.648,30.503,28.413,-151.458,279.031,114.778,53.668,48.25,-109.629,387.243,133.861,84.551,68.276,-236.482,543.258,189.253,130.551,111.072],[-120.568,-177.988,159.139,61.088,42.215,-119.478,-88.585,133.706,80.112,58.899,-128.972,-103.295,173.345,69.335,50.257,-114.381,-74.763,222.351,92.231,65.877,-137.531,-163.412,276.208,124.724,93.491,-169.16,-112.812,322.079,182.778,123.88],[-111.637,-128.3,189.151,144.017,72.333,-120.371,-142.882,0.968,129.752,93.244,-130.013,-138.556,30.352,159.254,91.525,-138.672,-235.162,140.914,168.56,102.416,-122.84,-205.223,101.538,191.476,120.829,-133.51,-153.731,413.274,255.579,158.023],[-114.309,-146.616,-91.577,432.173,125.219,-121.95,-130.472,-81.821,460.832,144.364,-122.512,-117.159,-105.258,510.482,143.533,-113.359,-148.474,-50.812,539.583,164.42,-96.231,-127.018,53.153,574.159,203.731,-154.858,-158.791,-104.654,807.92,257.07]],
"vp": [[0.001,0.001,0.001,0.001,0.001,0.005,0.005,0.005,0.005,0.005,0.01,0.01,0.01,0.01,0.01,0.05,0.05,0.05,0.05,0.05,0.1,0.1,0.1,0.1,0.1,0.2,0.2,0.2,0.2,0.2],[0.001,0.001,0.001,0.001,0.001,0.005,0.005,0.005,0.005,0.005,0.01,0.01,0.01,0.01,0.01,0.05,0.05,0.05,0.05,0.05,0.1,0.1,0.1,0.1,0.1,0.2,0.2,0.2,0.2,0.2],[0.001,0.001,0.001,0.001,0.001,0.005,0.005,0.005,0.005,0.005,0.01,0.01,0.01,0.01,0.01,0.05,0.05,0.05,0.05,0.05,0.1,0.1,0.1,0.1,0.1,0.2,0.2,0.2,0.2,0.2],[0.001,0.001,0.001,0.001,0.001,0.005,0.005,0.005,0.005,0.005,0.01,0.01,0.01,0.01,0.01,0.05,0.05,0.05,0.05,0.05,0.1,0.1,0.1,0.1,0.1,0.2,0.2,0.2,0.2,0.2],[0.001,0.001,0.001,0.001,0.001,0.005,0.005,0.005,0.005,0.005,0.01,0.01,0.01,0.01,0.01,0.05,0.05,0.05,0.05,0.05,0.1,0.1,0.1,0.1,0.1,0.2,0.2,0.2,0.2,0.2],[0.001,0.001,0.001,0.001,0.001,0.005,0.005,0.005,0.005,0.005,0.01,0.01,0.01,0.01,0.01,0.05,0.05,0.05,0.05,0.05,0.1,0.1,0.1,0.1,0.1,0.2,0.2,0.2,0.2,0.2]]
}