{
"KTrans": [[-0.848,8.383,5.668,2.786,2.288,5.837,13.037,20.604,15.589,3.617,10.3,27.349,20.337,20.333,20.977,65.593,75.888,90.808,89.905,92.37,99.85,85.208,123.344,146.535,152.959,96.728,-138.284,45.138,118.608,165.946],[-42.515,-10.511,1.942,6.042,3.048,-39.6,-10.165,2.469,10.176,6.89,-34.037,-8.406,4.021,12.38,15.281,18.417,19.564,18.227,28.886,38.42,66.286,86.665,36.363,36.791,56.417,321.6,144.391,54.212,1.98,39.758],[-58.025,-17.271,-11.395,-7.674,0.407,-51.527,-18.706,-7.473,-5.01,2.353,-50.364,-12.33,-3.254,-2.214,1.56,-15.505,29.497,31.441,16.712,12.715,24.322,98.428,72.94,52.168,18.613,103.296,244.762,161.836,49.505,28.957],[-64.797,-24.654,-8.577,-7.824,-3.174,-62.211,-20.867,-7.474,-4.402,-4.396,-58.81,-17.099,-2.556,-0.649,0.364,-36.988,19.61,27.604,28.021,22.171,3.081,71.376,78.158,68.747,51.794,52.107,210.466,196.025,182.697,140.098],[-69.669,-27.87,-8.098,-6.564,-4.978,-68.429,-25.533,-10.379,-3.973,-1.367,-66.261,-24.88,-5.117,-0.367,0.182,-49.379,6.009,26.039,28.845,25.324,-12.584,59.843,77.769,59.794,63.791,50.626,143.659,160.939,145.823,142.452],[-74.182,-37.556,-14.119,-4.1,-3.82,-73.053,-32.29,-11.177,-2.091,-3.326,-72.56,-29.231,-5.916,-0.249,1.21,-52.613,3.847,21.093,22.701,22.341,-27.939,43.003,61.873,64.579,57.662,28.959,133.655,172.451,143.798,136.789]],
"ve": [[-25.842,11.145,-1.712,-32.545,-15.192,-33.009,57.376,59.963,-73.462,41.592,21.97,5.964,-26.447,7.236,2027.418,-117.196,376.505,-20.089,-15.562,-22.834,100.614,28.446,-9.001,-23.883,-180.819,176.924,84.173,9.051,3.385,-15.921],[-15.986,-6.022,-0.462,21.104,16.411,35.072,2.152,-8.411,-5.512,-6.879,4.138,-7.79,7.572,2.838,38.633,18.986,-43.76,20.01,9.38,-90.209,84.708,48.083,34.737,26.105,8.288,244.09,100.102,67.025,42.035,27.6],[-2354.258,-2.773,-4.942,7.352,-4.88,-2.563,-8.693,-55.567,-4606.587,-2.233,0.802,-51.994,-3.938,1.649,-0.72,39.629,23.045,14.638,35.757,7.634,87.025,47.313,28.554,22.953,18.476,-30.993,101.244,65.264,51.905,41.395],[-7.114,-3.741,-2.517,-9.978,-165.511,10.992,-0.526,-3.145,-3.177,-6.024,-5.017,13.949,0.984,-1.642,3.424,33.134,21.88,14.998,10.783,7.409,84.221,43.068,31.651,22.733,37.401,198.122,99.561,63.481,20.335,38.924],[14.655,-4.229,-1.627,-1.366,-1.815,3.162,-2.419,-0.448,-0.928,-0.922,-2.73,-1.617,1.476,-0.077,0.273,39.349,26.002,15.952,11.241,8.762,100.953,57.887,33.063,23.721,20.098,279.185,76.509,63.856,48.427,42.187],[-5.66,-3.462,-1.386,-0.48,-0.754,-6.857,-1.227,0.252,0.227,-0.946,-18.853,1.925,2.073,0.842,1.111,45.098,21.294,14.678,12.415,9.249,91.185,40.126,32.18,24.882,19.753,210.135,97.592,65.82,50.13,40.155]],
"kep": [[-123.827,-75.206,-47.761,-36.745,-5.594,-118.198,-79.373,-67.719,-52.208,-35.493,-129.555,-109.894,-80.193,-50.242,-45.276,-119.778,-193.815,-181.831,-191.12,-217.456,-127.389,-298.293,-351.886,-368.753,-368.084,-171.306,-570.352,-624.018,-682.341,-725.356],[-86.064,-83.219,-134.022,-80.924,-28.122,-84.944,-84.249,-129.419,-88.728,-35.035,-80.206,-78.251,-121.628,-93.528,-46.937,-58.158,-65.368,-125.178,-163.783,-115.447,-55.454,-14.922,-122.485,-215.297,-199.712,14.2,-29.232,-145.553,-333.731,-371.18],[-83.575,-47.737,-51.69,-94.17,-127.798,-77.488,-50.016,-48.196,-81.614,-119.334,-79.973,-40.208,-36.807,-73.375,-120.934,-67.879,-15.085,-2.87,-51.439,-119.715,-61.922,18.124,22.005,0.285,-126.761,-53.534,57.783,46.488,-65.618,-144.249],[-83.948,-44.338,-24.714,-31.874,-37.753,-82.172,-41.475,-24.73,-22.56,-42.405,-81.355,-38.664,-21.067,-18.257,-32.525,-74.538,-20.09,-1.379,14.655,5.971,-65.53,-0.131,27.475,42.646,34.288,-65.37,40.873,78.038,112.954,106.04],[-86,-44.331,-19.364,-17.004,-17.255,-85.861,-41.729,-25.571,-13.171,-11.826,-84.806,-45.392,-20.797,-15.032,-9.875,-80.827,-28.068,2.826,13.407,16.935,-69.434,-4.707,33.379,29.025,56.009,-64.207,10.175,50.349,71.753,102.03],[-87.827,-51.123,-23.762,-10.035,-10.912,-87.474,-48.035,-23.21,-8.776,-10.857,-88.107,-45.17,-18.742,-11.23,-4.859,-80.828,-29.749,-3.871,7.024,11.817,-75.72,-18.186,16.404,36.839,41.578,-67.857,3.652,60.686,66.736,89.193]],
"vp": [[-91.639,-180.881,219.258,-26.928,882.749,44.799,-94.818,10.645,128.399,155.157,18.909,-57.932,-1.343,4.106,-16.843,-9.495,-16.881,-3.213,-9.017,18.638,-7.562,3.123,3.878,-0.047,0.982,-1.449,5.195,-2.67,1.867,-1.632],[2888.043,1042.458,12.953,-568.139,517.841,622.751,51.754,6.311,-87.809,-22.1,276.379,165.605,-63.498,9.087,-50.936,51.74,16.083,-7.338,-4.622,-2.417,31.586,9.535,-5.137,-3.16,-0.651,3.745,-0.395,-0.962,-8.12,2.124],[3925.854,3488.377,1265.913,994.851,-139.718,911.473,612.93,342.703,185.324,-48.919,480.232,367.115,136.157,102.549,26.398,92.911,70.25,46.716,15.07,-9.188,50.481,31.016,20.998,5.912,-2.84,26.43,10.934,5.656,1.598,0.18],[6080.869,5510.046,3344.198,1390.811,727.642,1298.103,999.35,491.743,368.768,179.462,615.286,480.974,392.886,207.676,132.081,123.563,117.706,59.384,29.195,21.579,55.328,52.089,31.231,21.735,4.39,29.921,26.051,16.182,9.56,7.019],[6754.323,6228.008,5465.69,1924.165,891.693,1439.212,1396.158,900.383,250.963,31.57,754.091,749.175,454.823,219.584,73.836,152.162,143.453,83.252,49.363,30.848,68.357,70.294,44.837,14.052,8.404,32.463,28.603,13.149,4.366,2.898],[7562.103,9463.611,6741.175,3328.887,1006.084,1600.087,1806.921,1310.802,660.584,331.346,813.55,953.613,588.714,183.702,253.764,152.65,196.036,129.49,65.655,24.714,73.461,87.947,60.593,31.19,15.176,34.83,43.399,21.344,12.685,8.983]]
}