{
"KTrans": [[-28.343,6.03,6.373,7.082,4.214,-9.667,26.027,12.467,14.392,17.11,-8.029,17.755,20.744,13.344,19.892,48.102,101.89,101.342,73.694,65.429,48.914,119.825,108.395,104.064,103.614,-36.707,-3.118,175.706,59.412,178.817],[-50.041,-0.231,0.54,1.364,3.677,-64.565,10.242,17.939,8.297,8.341,-53.645,15.594,14.926,13.791,12.034,-41.473,66.931,50.259,38.12,36.128,-34.98,29.256,78.083,80.977,77.223,39.15,78.832,55.56,97,103.392],[-75.897,-9.596,7.046,8.141,5.717,-76.448,-3.621,12.772,9.944,7.657,-73.649,6.283,12.455,13.704,7.034,-76.696,27.836,59.006,39.392,36.81,-33.651,-27.246,52.046,87.559,73.878,37.554,56.406,22.71,59.057,106.207],[-90.24,-22.807,9.482,9.204,5.458,-91.917,-27.527,10.189,7.064,10.026,-89.458,-23.046,10.544,15.181,11.518,-82.207,-35.532,48.191,52.49,27.714,-65.662,-2.313,34.044,115.607,70.025,-32.888,10.72,0.967,41.319,41.365],[-97.087,-36.466,0.448,11.901,9.75,-92.922,-37.435,6.02,15.679,8.563,-92.33,-39.111,9.178,11.155,16.817,-85.61,-21.735,51.793,40.475,37.503,-60.266,-36.354,-0.491,37.958,65.813,-36.201,14.627,12.268,2.932,57.201],[-94.468,-60.652,-7.494,14.15,10.113,-91.631,-48.49,1.761,14.439,11.36,-97.064,-52.74,10.453,14.709,16.855,-97.465,-50.882,7.535,50.904,38.15,-79.236,-33.653,-17.712,38.605,75.959,-58.931,-25.656,-19.704,6.986,-26.839]],
"ve": [[-11.414,-84.243,-2.655,2.781,-101.476,37.893,52.71,127.69,-8.682,-6.49,-100.805,63.797,-21.636,113.441,-0.977,64.378,25.66,14.382,104.568,2.29,108.756,40.874,15.298,-3.833,-0.826,208.244,84.17,42.868,3.891,-5.618],[-46.995,3.969,0.206,1.814,-0.221,-36.975,2.711,1.817,1.841,2.607,-143.782,10.714,2.47,2.632,3.448,88.83,26.03,14.1,8.218,7.882,101.33,49.205,70.913,23.596,12.535,211.571,96.4,61.187,42.968,26.811],[-20.315,3.591,2.324,-0.802,-0.858,6.769,3.823,4.089,2.053,1.613,19.338,8.304,3.007,1.237,1.673,39.116,31.762,17.202,12.931,8.409,103.825,279.842,33.599,22.262,17.355,197.24,97.23,73.378,45.031,4.982],[-3.567,3.746,0.189,0.084,0.405,35.337,4.115,3.485,0.444,0.834,8.896,9.357,3.881,3.131,0.813,60.406,29.829,16.347,10.748,9.246,106.272,54.439,34.775,24.925,19.297,219.181,99.812,67.268,49.54,37.609],[-2.813,-11.401,1.616,1.424,0.067,2.642,12.39,0.368,2.307,-0.014,23.696,22.571,5.356,2.245,2.219,33.762,26.487,20.259,11.912,9.876,78.714,49.68,33.216,23.642,19.761,195.437,101.737,67.59,49.336,37.078],[11.963,3.349,1.353,-0.15,1.026,10.311,13.929,1.972,1.789,0.914,26.526,9.137,4.756,1.754,1.802,47.079,29.6,16.26,13.273,8.31,108.351,47.163,35.285,24.083,19.63,199.77,103.929,70.2,49.972,40.435]],
"kep": [[-40.336,6.39,9.807,9.181,5.963,-31.8,27.798,12.996,17.842,31.376,-28.333,7.67,16.371,13.814,38.054,-10.524,71.746,103.048,91.196,94.147,-19.935,65.462,79.815,109.029,131.015,-45.701,-16.643,110.367,47.894,200.928],[-61.046,-2.913,2.267,1.356,6.206,-73.94,7.547,17.812,8.512,8.436,-65.981,6.595,14.971,13.299,12.394,-63.368,34.311,33.238,28.738,27.757,-64.076,-9.575,37.079,46.978,57.977,-45.298,5.383,7.996,38.065,53.783],[-82.378,-11.685,5.58,10.229,7.39,-83.699,-6.029,9.685,9.025,6.698,-82.211,-2.458,10.512,13.407,6.164,-86.153,2.428,35.61,24.034,26.659,-65.594,-45.756,13.846,51.064,47.863,-48.465,-10.751,-17.194,12.883,50.898],[-94.147,-27.002,10.113,9.642,5.304,-95.432,-29.952,7.021,7.355,9.511,-93.745,-30.491,7.43,12.143,10.983,-89.33,-48.646,26.697,38.039,17.178,-81.897,-33.24,2.293,70.039,41.853,-73.525,-38.622,-28.823,1.441,4.42],[-98.048,-42.01,-0.595,10.798,10.149,-96.491,-43.351,5.891,13.492,8.987,-95.361,-44.838,4.255,9.117,14.599,-90.975,-39.576,28.099,25.881,25.098,-79.664,-54.141,-23.035,11.089,37.37,-76.027,-36.745,-25.742,-25.256,16.351],[-97.059,-62.938,-9.427,14.74,9.276,-95.04,-53.278,-1.158,12.351,10.592,-98.562,-58.95,5.225,12.576,14.751,-98.551,-61.233,-8.639,32.594,27.554,-88.782,-53.951,-37.459,10.577,45.079,-83.819,-56.707,-43.29,-22.957,-40.601]],
"vp": [[1663.533,89.652,-171.611,-132.105,-1276.22,255.729,28.006,-43.004,-131.985,16.451,90.738,-34.167,28.253,-17.821,-64.82,-3.295,-8.62,5.257,-6.361,-14.023,8.553,-28.873,-15.173,-32.17,-27.006,22.229,-5.169,-30.895,-25.738,-38.156],[6101.475,3114.103,370.846,80.134,611.092,1138.382,381.855,139.762,366.403,80.101,500.288,272.633,64.866,129.601,-17.444,93.411,2.887,-21.971,-24.965,-20.11,43.696,-7.786,-18.564,-0.245,-10.204,-5.772,-20.441,-27.164,-21.5,-12.921],[7312.193,7341.292,2127.886,1951.263,1015.731,1325.641,1373.964,623.892,251.087,427.628,639.964,718.311,258.807,17.32,2.247,116.918,74.423,9.039,-20.804,18.247,44.854,56.228,-8.468,0.064,-8.24,3.257,-9.072,-24.412,-29.743,-26.767],[7716.025,9450.319,5623.837,2729.004,1956.941,1600.509,1948.66,1042.393,469.309,440.918,725.478,1042.198,585.548,301.457,174.147,124.445,205.739,88.465,42.536,2.486,61.545,58.688,33.511,5.104,-5.359,47.99,-3.769,2.833,-12.948,-9.78],[7981.236,12914.391,8601.567,4570.35,2811.604,1523.52,2382.646,1634.354,776.832,372.09,789.35,1173.971,786.682,376.709,37.046,147.37,222.977,128.365,74.185,66.864,59.765,91.473,43.681,18.073,-0.482,9.307,38.037,25.096,-7.451,-8.132],[7317.803,13138.274,11007.04,8422.658,4158.857,1599.957,2736.242,2457.035,1531.649,850.231,831.782,1392.095,1274.59,585.067,473.101,146.404,209.714,176.963,107.982,71.005,83.075,74.612,83.282,56.599,9.549,41.564,56.163,60.69,16.119,19.115]]
}