{
"KTrans": [[4.382,2.715,2.206,1.873,1.494,14.758,9.199,7.462,6.465,6.162,28.295,17.535,13.987,12.572,11.253,164.581,96.675,79.122,69.753,62.649,-1.777,204.963,160.31,155.709,136.779,189.683,186.45,254.143,286.635,300.336],[8.435,3.417,2.555,2.183,1.933,15.564,8.485,6.225,4.903,4.157,29.977,15.948,10.145,8.307,7.157,39.211,73.08,46.276,40.836,32.637,-39.794,190.648,107.992,86.219,69.809,18.536,-58.832,191.283,186.593,157.654],[14.03,6.771,3.236,2.692,2.227,28.164,10.564,6.444,5.299,4.218,40.204,14.33,10.483,8.009,6.644,-16.522,92.607,47.2,33.44,30.044,-6.381,128.371,123.941,72.571,62.418,26.509,28.722,133.746,183.645,139.051],[11.971,6.343,4.744,3.318,2.847,21.661,8.145,7.921,5.861,4.748,28.587,18.124,11.535,8.414,7.128,-30.89,140.097,52.179,34.111,24.428,-65.74,-12.699,116.619,76.239,62.073,-83.628,15.012,0.867,211.876,141.905],[-16.669,8.842,4.124,4.188,4.036,-24.564,16.062,8.132,6.71,5.102,-26.082,16.931,11.994,9.139,7.524,-84.322,113.269,49.868,37.806,30.184,-34.101,32.244,149.718,80.798,53.918,-46.162,-42.238,-38.125,161.019,151.557],[-53.823,11.784,7.8,5.312,4.511,-56.523,14.863,11.161,7.716,5.12,-59.202,32.204,11.175,10.793,7.516,-75.537,67.35,56.663,41.722,25.812,-65.592,-5.726,120.377,92.442,63.666,-73.189,21.116,-3.096,73.09,175.023]],
"ve": [[0.365,-0.597,-1.24,-1.749,-2.1,3.723,-0.085,-2.293,-3.896,-5.553,8.037,0.791,-3.056,-6.103,-8.385,45.226,13.358,-1.641,-11.54,-18.752,93.27,35.74,8.866,-5.782,-17.733,188.195,57.753,29.905,8.929,4.822],[0.843,0.06,-0.181,-0.372,-0.53,4.436,1.957,0.93,0.3,-0.151,9.545,4.384,2.304,1.175,0.343,51.755,23.229,13.866,8.786,5.111,98.226,48.987,29.525,19.502,12.46,201.091,100.825,52.159,43.131,30.302],[1.077,0.39,-0.073,-0.181,-0.28,5.053,2.229,1.214,0.726,0.363,9.714,4.407,2.785,1.819,1.18,49.479,24.56,15.519,10.879,8.124,98.487,51.36,32.466,22.572,17.148,197.071,97.461,65.29,47.996,35.923],[1.006,0.193,0.052,-0.122,-0.187,5.093,1.871,1.356,0.852,0.528,10.297,4.768,2.958,2.002,1.448,49.808,25.466,16.138,11.542,8.631,104.391,52.021,32.361,23.731,18.574,204.135,98.64,66.473,50.045,38.211],[2.805,0.286,-0.099,-0.057,-0.047,-65.624,2.362,1.331,0.944,0.593,9.535,4.381,2.953,2.075,1.559,51.783,24.936,15.908,11.912,9.395,99.487,49.121,32.793,24.106,18.609,204.101,101.641,66.565,43.8,38.85],[0.977,0.453,0.215,0.016,-0.043,7.162,2.209,1.503,0.979,0.576,8.695,5.244,2.757,2.227,1.56,25.014,25.323,16.168,12.206,9.17,99.944,49.857,32.346,24.57,19.38,204.078,88.664,65.444,47.539,39.508]],
"kep": [[4.002,3.333,3.494,3.699,3.692,10.63,9.298,9.998,10.802,12.437,18.703,16.634,17.618,19.946,21.501,80.253,73.19,82.284,92.236,100.676,-39.552,124.224,138.622,171.059,187.857,19.395,66.167,151.234,239.026,308.166],[7.434,3.353,2.742,2.565,2.476,10.5,6.395,5.246,4.589,4.315,18.343,11.047,7.661,7.05,6.793,-4.701,39.662,28.302,29.408,26.197,-60.722,91.104,59.523,55.444,50.839,-49.992,-65.039,78.748,98.606,96.44],[12.25,6.313,3.306,2.878,2.514,21.206,8.095,5.16,4.538,3.841,26.625,9.411,7.472,6.074,5.4,-40.584,52.798,27.106,20.244,20.213,-47.575,49.583,66.951,40.159,38.305,-50.78,-26.455,38.138,88.569,74.267],[9.228,5.983,4.661,3.438,3.039,14.369,5.984,6.445,4.956,4.196,14.862,12.53,8.288,6.274,5.593,-50.517,87.484,30.457,20.055,14.472,-78.078,-36.811,61.371,41.466,36.2,-89.01,-35.207,-32.516,103.123,72.699],[-18.483,8.169,4.15,4.223,4.078,-28.593,12.857,6.617,5.683,4.472,-32.795,11.456,8.668,6.886,5.862,-85.851,66.726,28.477,22.794,18.856,-63.357,-9.202,83.556,44.386,29.287,-78.13,-64.049,-55.987,71.222,77.885],[-54.092,10.564,7.385,5.238,4.532,-57.689,11.6,9.302,6.604,4.495,-61.394,24.574,7.949,8.297,5.835,-81.044,31.248,33.771,25.841,15.079,-79.813,-34.08,62.324,52.654,36.343,-87.288,-35.523,-36.456,17.64,92.434]],
"vp": [[38.29,30.992,35.625,25.099,18.662,17.037,18.186,22.389,8.718,25.413,10.099,16.211,7.935,13.954,-4.306,-3.931,4.581,16.171,17.937,10.044,21.708,-3.855,-13.871,13.923,-4.874,-1.408,-8.54,3.205,-6.622,4.496],[-280.614,-30.95,36.582,77.012,85.339,5.427,14.981,39.082,30.435,20.211,-15.421,45.745,13.438,15.604,20.714,33.032,5.672,-2.266,30.132,10.924,6.762,16.734,6.622,19.089,10.038,37.248,20.502,-10.703,9.246,10.774],[-1316.214,-301.17,-105.288,15.691,53.696,815.712,-43.643,-19.523,28.41,20.177,312.82,-19.7,-0.491,6.431,9.9,51.707,30.642,13.197,1.671,27.974,37.947,40.801,31.742,2.402,20.354,41.492,1.964,41.517,14.71,10.414],[6412.461,-1082.022,-330.091,-134.821,-25.369,1556.593,-171.942,-39.844,-7.293,27.588,567.185,-122.379,-28.053,-6.539,17.948,150.354,120.641,20.797,10.57,-16.598,100.532,57.328,13.212,13.282,29.642,94.976,18.202,30.111,32.869,17.101],[11623.821,-2861.533,-921.319,-488.96,-192.841,2502.919,-617.456,-212.767,-93.208,-27.05,910.508,-151.447,-85.28,-18.545,-6.58,232.55,102.277,1.608,29.016,29.717,123.898,32.068,44.992,20.132,0.875,88.762,54.523,21.924,16.094,17.852],[11677.237,5631.181,-2418.34,-1039.189,-534.154,2235.201,1148.221,-391.141,-135.034,-107.59,1116.179,967.55,-152.301,-74.324,-53.855,294.77,193.184,30.341,30.924,-11.176,157.012,44.902,29.985,24.913,26.304,101.427,57.365,35.589,-13.105,26.145]]
}