{
"KTrans": [[-10.855,27.561,28.423,20.61,14.911,-0.908,32.138,34.832,20.483,23.627,7.487,42.174,26.538,41.594,30.413,115.114,143.366,104.16,98.312,94.145,316.743,266.701,218.76,182.814,184.9,963.59,707.735,526.818,481.255,398.27],[-92.015,54.065,37.567,35.767,33.897,-76.19,47.382,45.47,33.747,25.569,-78.195,67.711,66.343,42.088,41.398,-42.59,140.539,104.072,60.356,66.613,-17.607,237.972,134.905,116.694,99.906,251.389,488.873,326.961,273.061,201.399],[-95.412,-12.741,72.114,53.637,36.017,-105.905,3.186,79.89,52.388,40.162,-106.436,-22.294,82.382,39.832,59.769,-84.288,32.396,152.111,96.682,74.715,-75.397,116.904,218.696,127.877,100.984,27.98,239.903,369.147,233.753,220.354],[-99.569,-91.123,43.876,75.797,86.334,-103.556,-66.779,19.733,92.965,66.388,-104.143,-62.873,77.043,70.088,48.241,-96.972,-74.911,112.915,136.121,100.106,-100.957,-43.055,151.715,187.089,143.468,-97.945,45.658,399.59,313.566,239.02],[-101.661,-119.983,-33.339,89.348,100.975,-99.915,-108.912,3.478,107.148,103.364,-100.805,-112.962,2.775,102.75,114.911,-104.502,-122.243,20.381,175.514,131.552,-95.334,-130.216,81.472,201.695,163.738,-106.471,-82.72,104.778,346.649,323.765],[-103.739,-111.218,-66.501,66.058,161.704,-104.284,-111.044,-43.662,70.052,146.222,-103.7,-107.879,-82.18,27.788,114.555,-100.048,-119.618,-86.568,115.104,198.905,-104.441,-122.438,-86.184,88.551,208.762,-120.116,-169.77,34.832,257.663,345.539]],
"ve": [[15.935,12.068,574.107,75.059,-92.696,52.724,16.619,-5.089,-26.285,-185.603,-4.116,36.414,-19.064,-107.687,-0.113,64.138,16.6,2.852,-5.556,-13.287,91.329,38.832,11.301,-4.366,-17.192,228.789,81.154,37.796,10.79,-5.284],[26.355,7.679,3.552,1.626,3.345,76.863,7.037,3.926,3.263,2.239,-1.326,12.22,5.04,4.733,2.973,88.364,25.038,16.615,8.926,7.072,567.39,51.274,28.857,19.238,14.043,201.86,104.341,63.643,45.399,30.614],[12.216,5.252,2.742,3.147,2.162,4.203,-20.317,3.553,2.475,1.063,50.689,6.29,3.711,1.501,5.242,56.427,28.978,20.271,13.894,10.138,115.793,57.414,34.389,22.363,18.275,196.681,108.502,67.486,46.96,38.997],[-0.153,2.877,-2.654,2.435,4.034,48.28,5.35,3.671,4.621,1.717,26.042,-29.123,7.994,2.078,0.663,49.574,22.569,20.551,14.158,11.499,103.906,53.095,35.118,27.326,21.114,216.296,99.066,70.262,50.623,40.566],[9.926,-30.446,0.867,-2.892,2.97,5.225,6.978,6.118,2.516,2.679,19.778,9.217,10.563,3.825,5.731,43.283,25.316,29.157,17.361,11.577,94.836,47.985,37.938,28.491,20.981,196.574,103.545,65.409,50.386,40.932],[12.425,3.273,3.936,2.816,4.425,68.606,3.864,5.925,4.369,2.845,7.854,9.702,9.547,7.742,2.886,55.149,28.774,17.067,12.659,12.887,247.593,50.841,32.019,24.168,19.524,201.775,97.114,70.307,53.024,41.605]],
"kep": [[-28.619,25.487,29.235,21.788,17.977,-19.061,26.174,36.116,22.62,32.208,-11.625,35.111,30.094,52.184,42.323,36.126,108.312,101.991,120.228,138.976,102.415,165.368,189.087,197.145,247.4,253.583,344.503,353.78,423.787,424.121],[-92.659,38.356,30.368,31.521,29.136,-79.715,33.829,36.562,28.038,23.267,-83.601,46.468,54.392,33.731,36.784,-65.702,83.746,71.004,44.212,53.294,-59.064,116.701,76.678,76.55,71.864,14.284,183.674,156.176,153.766,126.549],[-96.896,-21.631,59.051,43.132,29.246,-103.41,-9.757,63.563,42.113,33.476,-104.886,-31.128,66.416,30.445,47.689,-89.213,0.378,102.449,67.556,53.72,-89.227,35.931,127.764,78.715,64.373,-57.041,63.175,172.74,119.619,125.214],[-99.424,-92.564,33.102,61.039,73.422,-102.531,-68.831,7.08,76.425,55.244,-103.793,-65.679,57.878,55.736,39.339,-98.588,-79.431,69.509,97.735,72.666,-100.017,-63.852,78.965,116.551,93.614,-97.912,-27.212,185.021,164.499,133.726],[-100.81,-117.453,-37.841,74.613,84.787,-99.629,-106.787,-5.671,86.825,86.702,-101.361,-109.289,-11.437,82.783,94.849,-101.518,-113.118,-5.693,125.502,96.072,-97.755,-117.96,24.787,125.198,108.339,-101.217,-87.349,20.657,181.125,188.574],[-102.618,-108.919,-66.815,49.136,138.792,-103.286,-109.317,-50.186,51.886,124.097,-102.235,-106.121,-83.017,14.849,94.37,-98.901,-114.425,-85.698,77.564,150.542,-101.085,-111.71,-88.585,43.212,140.024,-106.335,-127.595,-21.821,125.569,200.523]],
"vp": [[0.001,0.001,0.001,0.001,0.001,0.005,0.005,0.005,0.005,0.005,0.01,0.01,0.01,0.01,0.01,0.05,0.05,0.05,0.05,0.05,0.1,0.1,0.1,0.1,0.1,0.2,0.2,0.2,0.2,0.2],[0.001,0.001,0.001,0.001,0.001,0.005,0.005,0.005,0.005,0.005,0.01,0.01,0.01,0.01,0.01,0.05,0.05,0.05,0.05,0.05,0.1,0.1,0.1,0.1,0.1,0.2,0.2,0.2,0.2,0.2],[0.001,0.001,0.001,0.001,0.001,0.005,0.005,0.005,0.005,0.005,0.01,0.01,0.01,0.01,0.01,0.05,0.05,0.05,0.05,0.05,0.1,0.1,0.1,0.1,0.1,0.2,0.2,0.2,0.2,0.2],[0.001,0.001,0.001,0.001,0.001,0.005,0.005,0.005,0.005,0.005,0.01,0.01,0.01,0.01,0.01,0.05,0.05,0.05,0.05,0.05,0.1,0.1,0.1,0.1,0.1,0.2,0.2,0.2,0.2,0.2],[0.001,0.001,0.001,0.001,0.001,0.005,0.005,0.005,0.005,0.005,0.01,0.01,0.01,0.01,0.01,0.05,0.05,0.05,0.05,0.05,0.1,0.1,0.1,0.1,0.1,0.2,0.2,0.2,0.2,0.2],[0.001,0.001,0.001,0.001,0.001,0.005,0.005,0.005,0.005,0.005,0.01,0.01,0.01,0.01,0.01,0.05,0.05,0.05,0.05,0.05,0.1,0.1,0.1,0.1,0.1,0.2,0.2,0.2,0.2,0.2]]
}