{
"KTrans": [[2.346,1.256,0.773,1.006,0.837,12.652,7.445,5.889,5.458,4.856,24.714,15.639,12.781,11.155,10.05,174.055,90.864,73.506,63.264,60.003,90.259,216.592,158.905,150.517,139.798,177.945,205.784,284.006,287.426,307.75],[2.634,1.217,0.811,0.521,0.472,12.316,6.046,4.067,3.148,2.69,25.208,12.149,8.671,6.798,5.732,297.907,73.788,45.941,34.027,30.539,-66.957,173.988,103.111,84.724,63.711,-74.242,-67.957,221.655,169.089,148.789],[6.386,1.307,0.927,0.652,0.484,16.843,6.763,3.758,3.215,2.39,22.658,10.599,7.877,6.12,5.249,-78.81,72.46,44.398,32.654,27.18,-51.238,225.762,99.926,76.569,62.76,-55.01,-49.876,188.795,167.583,129.966],[9.929,1.444,1.159,0.619,0.525,36.069,5.721,4.021,2.714,2.547,29.025,12.199,7.783,6.57,4.738,-72.831,70.391,40.536,28.312,25.874,-46.36,52.28,108.554,73.049,49.072,-69.37,-21.69,86.004,183.652,126.948],[8.67,3.971,0.786,0.848,0.707,19.977,6.706,3.316,3.145,2.19,15.679,18.95,7.538,6.102,4.651,-79.74,85.528,42.857,30.243,26.057,-55.49,-1.844,113.126,74.688,55.96,-101.482,-36.892,-172.222,177.517,130.516],[-26.131,5.361,2.048,1.811,1.027,-33.707,6.994,6.455,3.842,2.508,-37.588,18.26,9.182,6.849,4.106,-79.028,112.807,48.293,30.552,25.523,-82.804,-24.603,145.384,73.62,55.441,-59.092,-12.441,22.292,229.879,125.298]],
"ve": [[0.828,-0.08,-0.639,-1.252,-1.722,4.248,0.461,-1.627,-3.435,-4.777,8.49,1.354,-2.623,-5.497,-7.891,46.354,13.767,-1.057,-11.006,-18.404,92.44,37.485,9.278,-5.987,-16.775,190.624,76.84,33.678,-2.409,82.867],[1.101,0.518,0.279,0.101,-0.028,5.113,2.416,1.382,0.772,0.334,10.116,4.78,2.806,1.67,0.843,49.756,24.274,14.479,9.181,5.623,100.183,48.648,30.25,20.178,12.788,201.421,104.382,64.536,42.231,30.115],[1.317,0.578,0.384,0.259,0.166,5.294,2.647,1.624,1.179,0.829,9.86,4.931,3.249,2.295,1.676,52.685,24.916,16.205,11.579,8.66,99.428,49.952,32.471,23.803,18.072,206.636,99.335,68.759,47.655,36.669],[1.263,0.598,0.435,0.297,0.232,6.094,2.523,1.731,1.236,0.991,10.236,5.14,3.374,2.529,1.901,50.438,24.862,16.385,11.968,9.454,100.22,51.539,33.267,24.76,18.673,202.455,101.8,68.991,49.686,38.224],[1.745,0.748,0.385,0.332,0.272,6.16,2.571,1.685,1.328,0.995,11.313,5.567,3.395,2.561,1.993,51.618,25.005,16.683,12.363,9.86,98.677,50.398,33.61,25.056,19.738,209.6,99.959,68.825,49.762,39.615],[2.893,0.79,0.49,0.433,0.323,7.118,2.517,1.962,1.424,1.063,9.689,5.361,3.559,2.656,1.976,54.31,25.91,16.949,12.492,9.982,101.084,113.667,33.492,25.068,19.963,202.893,100.343,67.73,49.582,39.478]],
"kep": [[2.663,2.492,2.58,3.457,3.784,9.284,8.175,8.874,10.464,11.386,16.231,15.408,17.166,18.988,20.874,87.365,69.493,77.386,85.727,98.6,5.365,132.187,139.324,169.569,191.657,13.262,74.013,172,238.159,328.814],[2.614,1.842,1.676,1.564,1.645,7.965,4.719,3.818,3.525,3.515,14.767,8.233,6.908,6.241,6.045,156.662,40.776,28.779,24.12,25.001,-72.011,83.253,56.893,55.121,46.708,-80.655,-70.859,96.498,90.09,92.555],[5.838,1.845,1.683,1.536,1.46,11.702,5.157,3.256,3.175,2.706,12.266,6.538,5.661,4.917,4.692,-81.315,38.605,25.396,20.145,18.337,-68.889,113.044,51.244,43.708,39.158,-78.762,-64.104,72.768,80.716,69.006],[8.65,1.895,1.85,1.459,1.434,28.049,4.156,3.388,2.611,2.696,16.91,7.779,5.42,5.114,3.952,-77.975,36.571,21.76,15.785,16.239,-70.247,2.98,56.451,39.575,26.733,-84.134,-54.032,16.494,87.992,64.375],[6.556,4.122,1.49,1.645,1.574,12.383,4.928,2.698,2.936,2.331,3.853,13.6,5.123,4.604,3.766,-83.51,47.492,23.296,17.029,15.928,-74.115,-31.463,59.073,40.202,31.259,-96.048,-62.337,-130.586,82.945,64.887],[-27.306,5.227,2.587,2.487,1.835,-37.243,5.016,5.468,3.51,2.569,-42.908,12.838,6.491,5.215,3.232,-83.649,66.858,27.467,17.098,15.272,-88.569,-46.717,81.267,39.243,30.513,-83.328,-51.59,-22.383,115.255,61.081]],
"vp": [[-27.572,-22.614,-26.353,-19.841,-21.774,-13.195,-14.191,-13.843,5.353,-14.489,-32.404,-6.959,1.706,-7.961,-16.314,-14.48,-10.55,-6.147,-19.532,-4.396,-23.016,15.831,-20.224,0.462,10.009,-26.267,-10.612,7.949,-0.283,-11.778],[138.126,40.34,-23.471,-27.848,-46.254,35.17,12.881,-17.548,-14.512,-7.337,0.645,4.848,-10.558,7.198,0.829,-13.99,3.463,-16.891,-18.137,-5.555,-24.745,-15.711,-14.474,17.677,-15.973,-22.075,-19.128,-23.3,-12.013,-1.642],[303.287,168.048,103.011,45.151,-14.12,75.387,44.14,16.191,13.787,-28.92,34.403,-1.777,2.442,-1.795,3.448,34.596,-0.58,0.491,-0.833,-12.547,-8.013,-13.52,-10.989,2.312,8.708,9.988,-17.421,-29.598,-17.887,-17.834],[591.194,320.688,233.49,107.018,34.925,78.552,81.837,24.734,22.34,4.231,34.008,19.822,17.457,25.299,6.722,34.823,-13.926,-12.075,-14.242,4.782,2.38,-30.735,-6.277,9.833,-21.935,-5.892,-9.289,-42.008,-10.027,-23.644],[2029.524,629.999,448.428,352.591,223.384,539.868,139.306,63.705,52.582,56.791,258.915,59.33,52.411,23.34,7.146,75.335,17.442,5.682,6.921,12.635,-0.137,-9.905,-5.354,10.363,7.966,10.747,-3.148,-13.272,-13.693,-3.489],[4270.481,806.809,706.336,553.717,330.382,717.987,126.614,135.375,90.733,74.934,337.745,55.744,49.785,47.148,28.241,78.958,-12.165,23.295,1.354,10.929,32.723,8.326,-7.711,-0.472,6.869,14.761,-9.606,-19.17,-21.823,-12.078]]
}