{
"KTrans": [[-13.479,8.635,-9.301,2.428,11.812,13.618,7.273,12.767,9.933,-12.27,14.473,19.897,19.311,22.72,0.809,42.593,64.176,52.429,46.013,72.655,56.561,69.076,22.926,36.364,82.609,65.157,-86.465,-27.385,-43.568,-10.02],[-40.761,-11.938,2.968,10.67,2.432,-39.35,-7.864,-0.186,7.066,5.626,-42.515,-10.129,1.841,8.795,10.749,-39.513,2.527,15.006,23.729,21.871,-62.402,-41.723,1.38,24.81,38.152,-135.236,-50.097,-29.736,-73.934,-4.364],[-57.954,-26.345,-14.767,-7.43,2.282,-60.283,-24.883,-10.582,-8.595,2.647,-55.837,-23.471,-5.351,-0.547,1.159,-62.015,-15.883,0.858,3.969,10.477,-20.794,-33.326,29.462,-6.46,-9.273,-63.473,-26.302,-20.987,-26.121,1.258],[-71.769,-33.128,-22.918,-14,-1.419,-67.901,-34.053,-16.99,-12.424,-6.942,-68.829,-30.287,-17.171,-9.166,-3.592,-58.689,-24.819,-15.761,7.734,0.507,-63.625,-46.934,-21.605,-16.561,-7.745,-53.61,-77.251,3.467,-18.968,7.268],[-74.531,-41.171,-29.169,-14.546,-13.317,-69.242,-43.4,-27.755,-8.763,-9.079,-76.759,-35.553,-20.178,-12.219,-4.164,-71.117,-38.376,-12.13,7.619,1.05,-56.583,-31.34,-0.483,-1.212,5.269,-65.509,-55.581,-2.047,-22.388,-21.857],[-76.516,-54.816,-24.05,-13.992,-6.861,-73.88,-50.465,-28.286,-14.278,-5.861,-79.599,-44.89,-22.807,-14.84,-0.757,-85.856,-58.933,-12.285,-3.301,17.597,-66.231,-20.009,7.044,-7.964,12.374,-82.755,-31.074,8.639,53.382,-31.616]],
"ve": [[61.494,42.404,-11.192,158.756,-346.611,-573.047,-8.479,-35.783,-12.283,-59.547,12.098,144.189,-132.624,-54.662,-56.469,142.347,2.723,-46.827,-11.097,-53.261,66.036,33.647,105.355,-28.674,-38.97,118.014,79.717,31.138,-84.913,-16.469],[8.178,-3.534,-15.3,14.331,9.127,-68.395,6.433,70.026,-98.523,-1.733,22.96,-5.672,0.241,-131.714,-1.729,31.052,-2.102,28.464,8.302,36.241,134.342,36.196,82.159,24.273,5.014,254.366,214.781,74.191,47.71,28.3],[-48.694,64.666,-9.323,-2.448,-4.751,-244.825,49.468,5.587,-10.671,-32.755,0.76,12.729,13.412,-20.638,3.716,8.5,15.35,143.218,36.289,16.504,89.724,2.305,22.724,26.324,18.215,194.693,93.36,66.993,42.239,41.859],[4.186,-24.069,6.037,-23.733,-26.015,-3.146,0.839,-174.729,3.286,-1.213,33.581,-1.326,-6.316,4.151,0.967,80.155,20.877,12.512,7.948,52.972,92.846,40.441,34.472,22.439,14.882,187.664,91.658,73.59,47.133,32.046],[-52.423,-7.522,-0.647,-5.239,4.242,11.936,-3.298,-112.293,5.92,-6.803,16.964,-2.309,-11.479,-3.144,-6.358,-291.204,-12.963,13.001,5.184,10.093,71.839,42.163,25.935,23.284,18.877,202.121,88.126,52.645,32.452,53.002],[-24.751,-2.092,-5.135,-2.906,-5.602,-8.789,-4.057,-9.151,-1197.965,35.208,569.516,-1.922,-2.255,-17.509,-5.034,63.851,-8.683,14.143,26.965,8.897,89.59,40.42,71.425,21.303,10.785,173.983,91.9,56.434,42.995,39.446]],
"kep": [[-126.431,-110.06,-82.571,-63.044,-79.774,-103.251,-89.136,-96.343,-94.354,-75.037,-130.011,-117.536,-75.427,-94.524,-63.639,-136.804,-169.468,-241.313,-130.409,-257.176,-114.408,-213.955,-288.098,-401.192,-321.274,-77.874,-223.043,-352.717,-488.11,-523.904],[-92.449,-87.17,-104.783,-116.151,-50.387,-90.498,-99.36,-117.544,-92.723,-69.231,-93.292,-103.462,-126.424,-82.503,-90.463,-99.313,-92.809,-130.425,-127.678,-145.247,-101.527,-117.103,-132.103,-176.723,-158.52,-94.401,-80.507,-123.125,-234.957,-219.694],[-93.273,-72.779,-81.83,-101.643,-102.623,-93.701,-70.79,-75.207,-123.431,-116.079,-92.598,-70.431,-65.895,-85.112,-127.132,-99.401,-80.134,-74.66,-96.068,-120.907,-81.001,-86.657,-36.729,-101.698,-140.893,-85.875,-65.497,-64.918,-88.668,-81.859],[-94.452,-69.41,-60.262,-62.336,-53.904,-93.636,-71.023,-55.458,-59.781,-68.202,-92.774,-67.392,-56.795,-55.503,-65.968,-95.027,-68.852,-63.917,-43.464,-64.683,-93.221,-78.092,-70.85,-69.673,-74.569,-87.527,-82.706,-47.439,-56.084,-58.509],[-96.479,-70.368,-59.309,-38.972,-51.705,-92.645,-71.999,-60.673,-33.729,-42.564,-97.366,-65.236,-51.606,-40.015,-31.499,-95.222,-74.023,-53.578,-22.818,-34.722,-90.516,-72.077,-44.202,-36.351,-37.507,-89.489,-79.599,-52.218,-56.597,-48.516],[-94.832,-81.119,-47.083,-36.776,-23.064,-94.403,-73.151,-50.234,-34.067,-18.082,-96.025,-71.359,-49.135,-37.21,-19.837,-100.739,-83.48,-46.828,-34.465,-0.898,-92.039,-67.259,-37.742,-44.283,-15.76,-92.993,-68.342,-43.521,-18.376,-53.54]],
"vp": [[276.421,270.489,140.505,1323.142,560.267,-15.482,223.851,-5.037,56.029,145.986,-111.053,25.891,65.353,13.166,40.843,-44.106,-12.558,-7.982,-1.295,4.558,-44.128,-22.491,-4.138,27.876,-11.359,-13.09,-7.22,-5.105,13.49,-7.169],[2281.167,611.517,-181.863,-4.143,-619.278,582.134,101.942,103.245,12.821,-40.217,382.927,115.191,-16.2,-97.025,36.839,34.446,4.157,-38.611,-18.17,7.567,16.793,-14.372,-23.995,-11.689,-26.898,-21.288,-23.881,-29.401,-6.336,-9.355],[3979.211,2078.339,2075.454,1041.922,-97.238,936.919,608.227,220.943,-1.483,149.342,510.08,84.897,265.77,153.898,-25.493,71.499,39.25,10.73,3.227,-35.423,30.697,41.492,-9.831,-9.022,-14.973,14.777,-27.349,8.679,-45.614,-29.178],[4845.256,6416.206,4125.086,2811.808,2091.872,956.977,1355.749,891.398,348.059,335.086,461.887,531.37,379.627,207.487,99.538,98.452,87.202,95.252,58.319,-2.171,29.602,10.231,17.124,-1.831,-35.938,-14.217,-2.532,-15.639,-16.585,-5.781],[5992.291,8126.791,6651.157,2940.47,2807.126,1261.305,1787.676,1154.718,1138.252,538.259,713.37,665.468,735.566,288.29,201.885,112.48,120.872,87.8,2.084,43.638,26.484,57.665,1.239,38.904,3.572,-2.382,-3.76,-24.228,-35.216,-11.3],[7316.804,8872.306,8255.154,7559.955,3158.079,1322.319,1682.493,1506.303,1173.944,785.166,765.987,875.605,763.671,485.7,530.031,97.963,136.402,98.849,102.712,106.427,21.523,39.768,35.569,59.001,-19.19,0.654,-5.479,-30.492,4.383,-3.152]]
}