{
"KTrans": [[9.48,19.05,32.828,32.199,29.138,12.947,40.23,25.029,23.939,27.851,19.622,17.386,30.562,21.466,24.396,49.396,58.707,44.428,43.126,48.907,102.693,74.75,101.204,63.704,61.941,191.641,143.169,123.917,109.665,120.482],[-59.496,-3.41,-0.846,9.663,13.187,-44.011,-13.101,-0.353,14.243,12.943,-50.115,-11.654,0.979,8.196,16.276,-43.422,0.704,6.963,12.214,27.514,-16.419,15.85,20.54,15.894,27.973,-7.791,35.749,38.193,48.055,43.101],[-78.296,-29.443,-16.451,-3.876,2.99,-69.482,-36.9,-11.901,-5.059,1.46,-73.168,-36.985,-14.155,-1.061,0.279,-64.315,-24.645,-8.551,2.411,6.664,-58.604,-26.808,-11.019,8.045,8.725,-34.723,-4.217,5.983,17.327,31.703],[-83.131,-52.969,-31.655,-16.615,-9.06,-83.078,-48.994,-34.92,-18.686,-11.524,-85.464,-54.456,-35.304,-16.966,-12.84,-76.954,-47.514,-30.494,-16.125,-11.724,-71.573,-45.756,-29.605,-13.149,0.093,-69.456,-33.42,-18.428,-0.298,8.158],[-89.017,-64.488,-46.423,-31.748,-25.929,-88.228,-67.885,-47.559,-31.447,-20.382,-88.572,-57.791,-46.862,-33.758,-21.765,-82.27,-61.363,-44.313,-28.412,-16.579,-78.619,-56.745,-40.58,-28.421,-14.183,-74.839,-47.428,-33.745,-20.233,-10.193],[-92.426,-76.986,-57.802,-45.24,-30.901,-90.298,-71.091,-58.393,-44.221,-29.06,-91.239,-74.511,-58.629,-43.617,-27.57,-88.208,-70.974,-56.329,-42.057,-30.107,-81.202,-61.381,-56.139,-40.623,-29.468,-78.254,-62.328,-46.56,-36.044,-21.393]],
"ve": [[-16.537,56.008,27.961,-672.257,-11.915,26.676,-1276.623,29.355,-159.362,-172.259,135.417,166.276,-86.692,220.244,-60.869,54.305,17.11,-12.539,43.124,-56.278,52.116,-2188.454,-15.844,-142.197,-738.51,62.639,51.805,65.496,25.641,1.201],[-35.589,10.574,18.88,8.977,22.132,-11.181,9.376,13.552,9.328,15.765,11.755,6.621,7.72,10.835,15.614,-10.705,21.124,12.536,18.387,16.781,33.023,35.921,20.408,30.83,27.507,100.093,32.786,-10.825,43.616,26.077],[-48.372,-4.147,-3.143,-1.62,0.731,98.067,-14.203,-3.659,-0.588,2.132,-17.028,-2.719,-5.51,-0.894,2.85,-9.151,3.936,4.637,3.213,6.044,4.041,9.424,5.302,10.629,10.912,79.966,33.184,17.989,26.953,23.49],[-28.552,-22.149,-10.904,-5.069,-3.203,-57.697,-7.604,-12.825,-4.651,-3.112,-40.32,-15.198,-9.338,-3.624,-2.686,-22.037,3.696,-5.713,-0.678,1.227,-6.496,3.737,1.449,2.737,4.104,68.062,29.02,14.977,17.818,15.493],[-11.718,-23.668,-15.774,-11.17,-8.056,-75.068,-14.809,-15.312,-11.984,-7.087,-61.792,-19.348,-12.105,-10.087,-7.606,-30.336,-141.226,-7.841,-6.202,-1.925,17.397,-8.243,-2.405,-0.661,0.564,50.481,17.654,27.843,13.806,9.758],[-60.03,-28.402,-20.202,-15.558,-10.95,-59.974,-21.845,-17.228,-14.91,-10.819,-48.258,-50.608,-21.637,-14.255,-9.592,-571.24,-17.489,-16.941,-11.183,-7.185,16.602,3.808,-6.325,-11.169,-3.494,51.982,8.209,4.809,6.65,7.062]],
"kep": [[-52.688,-37.455,-37.943,-41.523,-57.02,-52.273,-29.181,-46.367,-59.454,-60.763,-41.977,-49.586,-44.458,-63.561,-67.034,-35.702,-26.527,-38.071,-43.61,-38.212,-29.943,-28.451,-6.181,-32.96,-42.399,-38.761,-25.611,-26.747,-29.13,-8.825],[-77.083,-43.287,-43.138,-39.102,-40.603,-71.166,-50.053,-43.678,-36.428,-38.489,-74.816,-49.624,-42.006,-40.654,-38.514,-74.181,-47.106,-43.044,-41.326,-33.513,-68.954,-46.5,-40.961,-42.967,-36.867,-76.327,-51.586,-44.353,-36.637,-37.32],[-87.462,-54.851,-48.879,-42.052,-39.434,-82.505,-58.868,-46.028,-43.412,-41.121,-85.77,-60.299,-46.517,-40.936,-42.204,-83.892,-57.606,-48.777,-41.594,-40.387,-83.995,-63.915,-51.696,-42.849,-42.261,-82.771,-63.655,-52.891,-45.214,-36.941],[-92.165,-65.496,-54.781,-48.16,-44.545,-90.583,-66.032,-56.171,-49.888,-46.304,-91.417,-68.911,-57.654,-49.279,-47.199,-88.249,-67.833,-56.582,-50.086,-48.58,-89.312,-70.944,-60.001,-51.022,-43.744,-89.188,-74.782,-62.403,-51.434,-45.873],[-93.988,-73.056,-62.93,-54.965,-52.472,-92.817,-76.877,-64.215,-54.345,-49.62,-95.205,-69.974,-64.734,-56.816,-50.106,-91.967,-76.913,-65.107,-55.496,-50.062,-92.247,-77.688,-65.144,-58.083,-50.409,-91.453,-80.015,-68.175,-59.751,-53.118],[-95.949,-82.007,-69.026,-61.941,-54.363,-94.286,-78.825,-70.796,-61.585,-53.219,-95.188,-81.199,-69.273,-61.524,-52.929,-95.182,-80.168,-69.699,-61.948,-55.935,-92.029,-79.756,-73.183,-63.773,-57.345,-93.021,-83.983,-74.012,-66.76,-58.34]],
"vp": [[741.158,-171.781,-1339.985,-1054.974,-1069.158,-26.213,-180.091,-103.323,-86.569,-175.946,-18.83,-73.691,-58.289,-71.978,-87.528,-7.574,-33.52,-26.96,-19.07,-33.435,-25.805,-12.366,-37.564,-8.419,-8.132,-24.284,-17.963,-7.181,-2.594,-16.249],[4481.969,1515.185,455.21,-184.706,-1407.371,528.582,254.664,48.267,-307.494,-90.41,298.178,115.202,12.595,-47.663,-136.759,57.35,3.606,-12.395,-7.71,-60.534,-3.892,-11.214,-4.613,12.712,-11.907,-26.028,-14.252,-1.124,-17.4,-3.616],[5712.416,2326.221,1484.313,791.886,-469.479,874.7,675.485,156.286,133.133,22.368,512.394,354.7,139.948,53.278,28.859,74.894,44.454,27.675,-15.873,-5.262,42.677,43.686,31.598,-4.491,1.435,-8.113,-2.544,-0.16,-10.294,-26.064],[5639.208,5928.788,3750.774,1901.344,1597.002,1410.637,958.438,1123.304,441.901,342.829,716.791,607.327,448.209,188.048,208.732,104.746,107.412,103.901,44.33,51.778,45.343,42.851,57.886,28.188,5.488,13.998,18.356,22.042,-5.435,-6.932],[6986.132,8193.618,6496.953,4697.315,5073.813,1495.316,1582.355,1339.25,1045.77,641.436,719.117,588.075,572.985,486.989,366.405,109.176,140.676,118.217,97.623,32.709,54.211,61.41,52.248,51.128,28.434,21.11,21.25,22.103,22.089,18.5],[8149.506,10004.308,9058.081,8152.724,5958.016,1551.969,1602.348,1688.082,1547.492,1143.689,712.371,956.941,866.118,733.254,505.924,138.666,177.934,191.483,164.92,122.147,44.528,51.263,90.838,85.524,67.373,14.865,41.962,40.012,36.072,23.136]]
}