{
"KTrans": [[-5.388,1.386,2.858,3.36,1.933,16.62,13.408,7.359,6.716,5.091,17.368,20.068,15.634,16.192,8.55,104.704,86.147,79.723,61.024,62.169,213.112,219.051,170.054,155.862,140.181,-171.68,333.224,363.575,349.698,345.566],[-48.293,0.913,-0.343,0.809,0.664,-47.196,2.009,7.229,2.682,5.286,-32.337,11.34,8.852,8.329,5.105,14.362,67.755,44.447,39.635,31.839,16.217,146.197,114.255,80.005,69.84,-4.545,214.959,258.514,192.485,155.243],[-70.386,-6.073,4.429,-0.365,0.955,-63.421,5.251,7.537,5.687,4.098,-57.651,6.513,8.049,5.94,3.581,-35.117,58.797,50.048,34.638,25.86,-41.132,105.976,105.167,71.52,56.849,-39.706,130.897,222.076,172.046,127.766],[-79.078,-11.068,-0.59,0.975,0.188,-76.896,-10.376,3.42,3.813,5.357,-73.286,0.807,5.305,9.835,5.77,-71.501,29.22,44.907,34.479,28.463,-59.296,23.695,81.019,69.81,55.533,-49.358,5.723,162.064,165.841,118.435],[-89.022,-22.459,-0.1,2.685,1.991,-82.714,-17.451,2.427,5.038,3.501,-84.159,-16.154,7.365,6.007,4.358,-76.789,9.081,41.1,35.576,23.192,-65.423,-1.3,88.98,65.166,52.626,-76.84,-31.251,142.522,195.101,119.022],[-90.398,-32.36,-1.887,1.411,2.816,-89.011,-30.134,1.83,2.475,5.517,-87.068,-38.72,1.967,7.668,7.016,-95.032,1.078,35.833,34.358,26.559,-89.492,16.901,86.164,66.932,55.55,-85.156,0.039,52.001,173.845,146.506]],
"ve": [[44.438,18.852,10.877,255.472,23.984,22.412,15.673,37.128,21.284,5.08,33.124,7.628,-8.63,-76.989,174.312,73.409,19.236,2.503,0.699,-11.212,91.939,39.232,17.286,-3.746,-15.103,185.993,112.183,37.264,41.68,1.134],[13.356,2.359,1.229,1.862,1.184,-5.009,3.239,1.825,1.257,0.985,14.581,4.995,4.221,2.657,1.908,58.137,25.905,16.725,11.125,5.771,108.343,48.737,32.765,19.497,14.318,201.292,105.085,63.709,42.689,29.329],[5.697,2.156,0.51,0.185,1.438,-3.378,5.62,2.491,1.107,0.545,2.705,6.846,3.437,2.3,1.127,76.241,27.019,16.324,11.116,9.136,110.782,55.349,33.131,22.876,18.264,180.682,98.954,65.109,46.96,35.936],[8.066,2.554,0.022,0.286,0.596,27.368,5.715,1.83,1.242,0.684,32.468,6.944,4.261,1.449,1.766,74.233,25.582,17.432,12.897,10.094,97.489,51.432,32.268,23.894,19.21,194.288,99.293,65.903,47.238,38.021],[-2.064,1.484,0.811,0.215,-0.08,1.983,3.619,2.392,1.314,0.934,11.608,7.683,3.557,2.982,2.322,53.159,25.123,16.642,11.933,9.795,90.512,51.409,33.581,24.387,19.376,201.827,101.662,72.877,50.265,38.439],[15.29,-1.523,1.041,0.639,-0.56,14.815,6.76,2.591,1.415,0.889,21.982,6.396,4.626,2.907,2.284,45.996,28.561,17.872,13.449,9.175,100.97,50.247,33.666,25.216,19.689,201.725,97.667,66.038,52.121,39.243]],
"kep": [[-10.143,-1.482,2.933,2.755,-1.637,0.822,10.121,2.938,6.822,4.508,2.241,20.618,20.008,22.333,11.371,34.551,61.28,82.744,74.262,96.199,59.123,134.4,147.506,172.107,190.56,-108.626,132.154,229.633,298.251,356.959],[-55.368,-0.4,-0.867,0.155,0.635,-54.486,0.324,6.159,2.417,4.875,-43.296,6.328,5.186,6.223,3.766,-28.087,33.524,24.227,26.488,25.313,-40.967,64.67,61.53,51.195,49.087,-62.538,54.285,116.415,104.191,96.999],[-74.264,-7.774,4.515,-0.263,-0.144,-69.005,-0.126,5.155,4.863,3.738,-64.573,0.525,4.824,3.934,2.628,-59.735,25.487,29.243,21.542,15.564,-70.466,35.93,53.824,39.637,32.71,-75.83,15.08,91.229,83.58,67.03],[-82.065,-12.872,-0.188,0.915,-0.208,-81.463,-15.189,2.069,2.937,4.699,-79.467,-5.691,1.221,8.613,4.196,-82.608,1.53,23.578,19.145,16.843,-79.353,-19.296,36.349,36.752,30.467,-78.956,-44.847,55.837,78.947,57.278],[-91.548,-24.454,-0.844,2.563,2.193,-86.343,-21.675,0.302,3.901,2.706,-87.955,-21.768,3.929,3.147,2.193,-85.746,-13.589,21.142,21.389,12.357,-82.975,-34.94,39.891,32.437,27.772,-89.605,-62.863,42.652,93.768,57.093],[-91.822,-34.259,-2.475,1.079,3.653,-90.905,-34.007,-0.715,1.187,4.645,-90.264,-44.245,-2.274,4.754,4.795,-97.237,-21.357,15.067,18.274,15.901,-94.634,-22.267,38.024,32.752,29.812,-92.237,-47,-7.688,78.212,75.431]],
"vp": [[705.684,52.966,-151.559,-363.887,54.138,189.732,59.827,5.989,-31.006,94.006,159.974,-17.904,46.016,18.441,18.181,10.569,3.559,17.925,20.984,8.391,9.905,7.714,-0.219,5.137,-3.765,14.494,2.301,2.494,-2.649,10.369],[4889.924,1217.739,869.424,-412.341,25.005,1020.703,257.491,-22.436,24.664,-24.329,497.732,99.747,69.487,12.604,-21.72,87.327,29.854,11.699,7.413,21.88,37.133,5.479,22.815,13.353,14.71,18.585,19.449,8.102,3.657,5.397],[7516.39,4094.67,1140.133,325.728,-153.868,1434.479,813.388,285.193,73.752,61.235,711.815,421.449,108.666,20.887,0.646,133.535,105.824,48.644,8.067,7.441,65.3,61.704,34.256,17.633,11.192,23.368,21.556,5.567,9.277,3.165],[8663.623,7698.89,2605.259,304.844,181.176,1778.197,1483.372,444.682,159.868,145.352,879.554,715.015,252.836,94.356,70.302,186.515,146.664,83.187,38.607,8.129,80.64,74.205,13.833,15.018,13.068,29.626,38.495,22.248,5.504,7.616],[9122.489,10119.216,4558.967,1584.2,569.638,1862.687,2117.913,1009.145,437.445,81.494,928.501,1001.636,568.558,97.588,68.566,176.338,213.679,119.294,57.633,32.719,80.712,100.986,49.561,18.154,6.697,46.887,47.235,38.788,33.297,10.274],[9417.433,12472.983,7019.688,2161.529,791.756,1904.248,2671.087,1514.75,521.117,-44.96,994.661,1381.871,688.198,392.283,123.953,215.256,290.616,177.696,90.044,16.833,96.226,112.491,78.337,43.49,18.142,50.517,47.109,32.253,54.464,31.545]]
}