{
"KTrans": [[-1.576,3.587,9.36,13.091,14.303,5.083,23.877,15.923,14.111,18.83,25.546,22.256,23.854,20.809,21.927,126.674,92.65,77.47,76.404,74.56,169.137,199.911,156.985,147.522,138.737,126.774,246.771,318.044,303.718,295.047],[-36.862,-4.404,-0.528,5.006,8.391,-37.094,0.693,5.709,4.97,10.796,-20.998,2.587,4.329,9.571,10.496,-7.747,42.279,37.382,35.249,32.936,15.379,86.432,80.949,68.888,64.333,-28.972,123.914,173.645,149.792,132.475],[-51.12,-14.659,-6.115,-4.062,1.762,-57.081,-15.018,-4.214,-0.03,0.253,-48.899,-6.802,3.037,2.851,6.565,-42.688,18.041,21.111,23.161,20.79,4.532,56.793,52.904,49.532,45.853,-27.915,33.452,117.918,109.786,95.629],[-70.983,-25.452,-15.539,-8.128,-4.454,-66.223,-21.63,-11.842,-8.799,-4.412,-64.625,-17.857,-9.685,-4.438,0.148,-51.109,0.157,11.318,16.219,13.503,-69.332,33.756,42.587,41.949,31.282,-67.635,-38.519,86.505,91.119,85.626],[-75.381,-32.935,-19.671,-12.845,-7.002,-75.809,-31.003,-21.197,-14.599,-7.549,-72.028,-23.934,-15.883,-9.02,-5.46,-55.306,-6.486,-0.704,3.113,6.911,-73.625,7.571,36.149,21.987,30.321,-54.821,16.831,71.324,61.243,61.281],[-83.615,-35.03,-27.139,-15.858,-14.89,-80.913,-41.366,-22.605,-13.41,-12.059,-78.138,-33.783,-19.879,-14.885,-9.414,-73.09,-13.231,-9.333,0.069,0.785,-60.89,-11.949,19.582,17.765,20.829,-49.157,-30.064,21.453,53.458,43.82]],
"ve": [[22.919,-132.162,126.03,-155.062,40.983,-14.541,60.631,-6.667,-95.425,-6.248,25.457,36.302,13.378,298.725,-1098.665,59.662,21.988,36.106,29.49,31.095,100.07,46.524,17.207,22.017,-24.555,195.403,107.412,41.115,15.939,0.36],[14.065,2.551,2.277,5.211,7.148,8.025,0.936,3.589,7.075,7.723,13.564,5.271,5.054,6.967,9.789,44.216,22.606,14.711,12.017,10.236,96.631,44.797,26.746,21.097,16.068,186.584,119.684,66.037,43.315,31.224],[5.522,-1.425,-1.281,-1.12,1.146,11.213,-1.099,-0.445,0.918,2.41,5.587,4.305,2.105,1.195,2.998,48.765,20.231,14.613,9.985,7.389,91.367,45.91,28.862,20.147,15.244,188.962,95.182,61.768,44.271,33.309],[0.304,-3.644,-1.987,-2.566,-0.809,9.967,0.838,-0.869,-0.883,-0.56,10.341,3.659,-0.035,0.265,-0.414,52.341,21.261,12.002,9.297,7.718,86.219,34.488,30.391,19.367,16.809,192.368,91.187,60.594,43.424,35.691],[19.646,-3.189,-3.89,-2.837,-2.133,11.481,0.722,-2.533,-2.089,-2.224,15.373,1.864,0.239,-1.383,-1.046,47.442,20.2,12.067,7.278,6.492,95.499,45.682,26.819,19.466,15.849,188.746,104.987,59.896,43.665,34.491],[4.159,-3.404,-3.764,-3.42,-3.407,8.687,-0.362,-2.454,-2.818,-1.726,16.176,2.526,-0.236,-0.964,-2.117,46.124,23.285,12.248,8.056,6.137,98.606,48.855,28.709,21.08,14.6,186.836,84.587,10.959,43.753,32.722]],
"kep": [[-39.474,-40.603,-37.343,-45.618,-42.752,-38.993,-21.717,-32.288,-43.393,-37.525,-23.674,-26.38,-28.75,-35.71,-30.343,2.669,14.02,11.102,20.885,32.071,-5.673,47.956,53.809,63.678,78.854,-40.184,31.755,97.713,138.661,169.549],[-57.527,-34.015,-31.386,-29.593,-28.253,-57.879,-29.291,-28.021,-30.631,-27.536,-51.43,-30.944,-30,-27.566,-28.93,-56.665,-18.52,-16.286,-15.552,-15.735,-57.769,-12.155,-0.282,-2.642,-0.915,-75.014,-20.087,15.007,20.753,23.366],[-68.163,-38.987,-33.488,-32.264,-29.758,-72.801,-39.576,-32.643,-30.932,-31.717,-66.993,-37.502,-29.583,-29.077,-27.787,-73.257,-31.498,-26.032,-22.053,-21.746,-62.031,-24.8,-17.802,-13.494,-12.043,-79.439,-50.653,-6.979,0.31,1.539],[-79.59,-45.507,-39.775,-34.291,-32.974,-79.74,-45.281,-37.819,-35.994,-33.114,-78.002,-44.273,-36.96,-33.676,-30.055,-77.623,-42.124,-30.951,-26.138,-26.615,-86.764,-37.247,-24.501,-17.736,-22.043,-88.496,-74.616,-20.155,-8.231,-5.67],[-84.609,-51.16,-41.823,-37.564,-33.943,-85.111,-52.01,-43.547,-39.298,-34.313,-83.416,-47.587,-41.468,-35.804,-33.579,-79.317,-45.75,-38.405,-33.042,-30.344,-88.072,-49.377,-25.799,-29.347,-22.049,-87.202,-57.254,-27.341,-22.818,-17.399],[-89.833,-53.102,-47.26,-39.356,-38.782,-87.893,-59.019,-44.589,-38.004,-37.871,-86.951,-54.793,-44.117,-40.257,-35.79,-87.356,-50.685,-43.918,-35.655,-34.128,-85.133,-58.397,-35.827,-32.937,-27.022,-86.611,-72.586,-47.497,-26.659,-25.398]],
"vp": [[672.311,116.661,-181.529,962.478,1057.425,20.881,45.468,-68.542,51.197,-51.304,14.727,30.074,41.769,105.158,158.83,-4.463,2.323,16.091,-9.664,7.154,-14.397,7.366,9.535,7.24,19.301,0.643,-13.515,17.397,-2.479,13.404],[4022.82,757.857,-614.463,-725.06,225.778,398.436,218.469,-159.446,-64.849,96.335,227.591,35.117,-50.3,27.422,-50.912,49.604,13.139,-7.032,-26.471,-13.131,3.122,11.422,-12.376,-14.542,-12.338,2.392,2.611,9.896,-10.8,-5.848],[5372.907,3304.588,1814.739,536.356,367.377,930.238,723.092,258.681,300.234,1.424,342.334,405.524,268.917,15.338,-5.977,60.781,55.602,25.613,15.534,-23.652,19.537,35.974,-6.82,-18.8,-24.854,16.496,21.747,-9.748,-15.597,-16.863],[4898.597,6399.636,4019.675,1128.619,1737.55,1308.819,1128.714,888.295,270.664,208.424,545.455,558.338,447.81,325.898,45.885,118.552,86.335,46.845,63.438,26.434,71.177,37.288,34.612,14.833,-13.383,-2.839,-0.374,-11.052,-15.906,0.375],[7002.601,7108.775,4059.579,3362.726,2421.219,1214.244,1537.136,848.358,614.499,628.318,529.353,812.476,608.697,373.561,169.434,89.069,154.838,96.805,29.788,12.371,65.354,76.08,31.439,20.507,19.163,10.896,9.764,7.935,-15.251,-7.296],[7211.756,8604.894,8115.202,4964.737,3824.593,1339.593,1885.922,1813.012,1124.687,681.9,672.055,852.669,817.376,443.732,330.576,132.19,190.012,161.134,69.3,44.314,48.843,79.963,66.531,45.13,37.591,4.877,15.029,20.951,3.265,-32.752]]
}