{
"KTrans": [[4.486,1.066,1.157,2.074,0.371,11.832,10.601,7.158,5.99,4.037,24.918,19.373,14.119,12.084,10.096,160.565,96.171,72.454,64.574,62.302,415.876,222.423,184.702,155.514,138.883,1124.852,597.783,454.597,394.927,362.115],[-8.535,2.516,1.033,0.4,1.928,2.59,7.313,5.17,3.435,4.135,9.906,14.171,9.122,7.453,5.887,109.68,62.336,46.439,36.42,28.622,263.013,145.447,103.856,77.796,65.615,767.121,364.963,236.305,181.447,150.853],[-27.671,2.497,-0.188,1.27,-0.222,-22.044,3.105,3.195,3.471,2.64,-11.224,10.902,7.184,7.086,4.84,69.002,61.594,39.376,31.039,27.06,182.641,137.711,87.107,66.67,54.972,523.722,321.729,204.164,154.401,122.542],[-47.779,0.484,-0.318,1.505,-0.253,-32.585,2.92,1.529,3.595,2.852,-35.239,7.776,5.892,6.03,3.806,34.899,56.343,39.002,31.522,24.157,129.406,126.924,82.144,62.594,51.372,462.736,310.988,195.666,143.52,112.727],[-55.723,-4.041,0.769,0.779,0.843,-51.142,5.28,3.316,2.163,2.685,-50.245,5.058,7.832,5.904,3.97,-8.283,51.916,36.636,27.639,23.352,72.505,119.917,81.684,62.893,48.716,301.549,303.23,187.564,139.21,109.36],[-65.186,-3.429,0.719,1.462,0.061,-63.679,-0.784,3.954,3.083,1.457,-58.172,2.605,4.846,4.871,4.212,-8.16,49.234,36.678,30.529,22.49,52.623,111.523,80.795,59.844,47.792,222.734,283.947,191.151,137.398,105.094]],
"ve": [[2.273,2.374,1.802,1.595,9.414,6.697,2.188,1.251,6.468,4.441,10.379,3.303,-0.644,-3.317,0.896,45.749,15.057,-0.928,-10.381,-18.422,94.863,33.949,8.439,-6.997,-17.558,191.178,79.406,35.738,10.614,-6.199],[2.958,1.076,0.63,0.496,0.26,6.411,2.526,2.257,1.748,-0.07,11.521,4.707,3.627,1.873,1.071,52.358,23.641,14.747,9.485,5.844,101.417,48.248,29.395,19.12,12.588,200.556,96.924,60.849,41.725,28.81],[2.598,0.929,0.48,0.281,-0.101,6.326,2.15,1.734,1.071,0.901,13.635,4.422,3.155,2.267,1.567,51.15,24.966,15.886,11.527,8.415,101.356,48.665,32.147,23.291,17.507,195.106,100.276,64.906,47.04,35.525],[14.972,0.468,0.253,0.437,0.415,9.413,2.644,1.707,0.817,1.258,16.5,4.984,3.749,2.963,2.155,54.503,25.543,16.627,12.231,9.072,103.118,49.76,33.271,23.956,18.292,194.44,99.827,65.407,48.411,37.615],[3.648,0.864,0.399,0.37,0.129,12.051,3.643,1.862,1.355,0.787,37.604,4.77,3.261,2.506,2.466,53.522,26.195,16.855,12.225,9.864,100.39,49.572,33.084,24.652,19.187,206.122,99.13,66.386,49.019,38.717],[2.493,1.49,0.523,0.382,0.277,12.284,3.07,1.662,1.126,0.793,12.078,5.443,3.506,2.612,1.776,52.191,25.87,16.564,12.348,10.011,103.32,50.928,32.802,24.527,19.413,198.43,100.179,65.955,49.022,38.942]],
"kep": [[3.998,0.173,1.674,3.645,-1.202,6.463,10.145,8.27,7.83,7.203,14.539,17.664,17.303,18.795,15.958,79.9,71.768,75.469,85.804,101.821,165.615,141.408,163.498,176.087,191.626,321.354,289.802,309.276,348.179,393.399],[-10.544,1.637,0.574,0.112,1.85,-3.05,4.889,3.022,1.846,4.411,-0.912,9.25,5.505,5.612,4.922,37.982,31.368,27.753,24.749,21.664,80.835,65.84,57.73,49.429,47.271,189.04,136.494,109.113,98.691,94.9],[-29.427,1.709,-0.565,1.054,-0.08,-26.887,1.106,1.481,2.44,1.786,-20.896,6.319,3.959,4.797,3.273,12.1,29.459,20.378,17.572,17.26,40.371,60.113,41.664,35.255,31.952,106.276,110.742,84.574,73.074,64.264],[-49.712,0.167,-0.48,1.111,-0.631,-36.846,0.301,-0.09,2.813,1.621,-43.23,2.719,2.16,3.041,1.652,-12.475,24.636,19.319,17.264,13.875,12.954,51.595,36.733,31.254,28.007,86.604,105.916,78.811,64.123,54.604],[-58.126,-4.903,0.393,0.449,0.74,-55.795,1.763,1.414,0.834,1.92,-55.992,0.389,4.574,3.385,1.497,-40.114,20.469,17.042,13.785,12.33,-15.798,47.109,36.562,30.751,24.825,33.376,102.723,72.897,60.553,50.985],[-67.094,-4.828,0.29,1.111,-0.18,-66.522,-3.642,2.354,1.995,0.688,-63.474,-2.558,1.369,2.247,2.418,-40.657,18.629,17.32,16.206,11.35,-25.012,40.26,36.202,28.414,23.813,6.116,91.959,75.532,59.362,47.651]],
"vp": [[33.705,143.978,26.689,-10.081,-128.428,29.803,58.585,20.888,14.694,11.545,17.608,16.837,8.908,-12.622,9.547,11.799,12.542,8.874,10.076,10.63,12.938,9.403,10.44,8.258,8.732,11.598,9.783,9.916,9.366,9.186],[1539.575,86.766,125.897,64.008,13.49,265.49,41.961,29.13,5.629,49.374,141.694,28.107,25.254,10.477,-7.47,39.145,14.236,12.499,9.316,9.588,24.689,11.546,12.076,10.094,9.777,17.718,12.511,10.761,10.551,10.296],[2652.991,598.442,18.774,247.742,-146.566,566.053,127.347,-9.129,22.065,13.678,265.808,70.817,7.346,34.005,9.786,61.329,22.702,12.451,9.737,10.037,40.617,16.584,12.124,10.92,12.03,25.703,15.728,12.665,11.269,10.734],[3842.543,1135.529,261.365,103.173,40.91,812.105,229.631,78.941,6.881,30.076,440.229,110.94,39.842,22.422,6.582,87.454,32.564,14.795,13.027,10.746,52.905,22.821,16.535,11.759,11.154,31.667,19.541,12.957,13.042,12.236],[5062.009,1778.198,349.877,270.166,31.464,1008.031,440.502,83.114,46.771,-1.935,518.715,168.696,54.316,30.524,29.92,110.261,46.514,22.802,17.444,11.798,63.71,31.693,17.434,14.685,12.557,36.464,24.448,15.284,13.336,12.592],[5798.251,2881.444,560.281,309.029,113.82,1227.302,516.348,159.971,59.503,28.68,589.193,281.689,83.927,28.329,9.334,121.504,76.004,28.253,16.441,19.593,68.658,41.93,21.545,16.267,13.72,39.448,28.139,17.693,14.564,13.598]]
}