{
"KTrans": [[49.61,29.911,24.682,28.362,36.698,20.465,38.879,30.191,28.792,31.02,34.854,44.151,35.296,21.012,28.566,54.496,32.801,48.666,52.165,33.703,67.779,85.795,93.736,58.588,73.928,197.716,161.005,154.198,137.264,143.008],[-45.504,-11.641,-2.512,8.909,15.568,-51.165,-13.933,12.363,13.336,14.993,-51.985,-4.858,6.207,15.678,16.505,-30.734,-6.602,11.613,19.324,22.443,-1.239,9.253,17.732,27.431,29.16,4.491,25.869,56.852,49.159,53.888],[-74.357,-34.668,-13.67,1.452,2.755,-75.592,-35.725,-21.297,-1.524,4.136,-66.226,-33.122,-14.942,-3.208,1.356,-69.937,-23.824,-9.334,2.199,3.754,-49.405,-25.157,-8.938,4.346,13.404,-39.754,-1.779,9.426,13.612,23.933],[-80.495,-51.471,-33.968,-19.895,-8.046,-85.274,-45.147,-31.423,-20.482,-13.854,-84.905,-51.315,-32.909,-18.145,-9.252,-76.204,-47.994,-30.529,-13.521,-1.872,-70.88,-46.131,-21.385,-12.558,-3.868,-58.95,-35.125,-20.357,-10.784,2.744],[-86.245,-68.816,-49.34,-33.616,-22.564,-90.2,-66.751,-42.109,-33.739,-20.463,-87.456,-65.355,-45.335,-32.56,-18.015,-80.767,-64.555,-43.112,-26.828,-18,-75.865,-53.11,-41.806,-28.598,-17.927,-68.167,-50.394,-36.267,-20.939,-6.172],[-90.896,-73.753,-57.44,-43.53,-32.269,-91.216,-72.275,-54.693,-43.546,-31.667,-88.862,-73.45,-57.58,-38.87,-33.767,-85.701,-72.744,-58.958,-41.354,-31.069,-81.841,-66.803,-53.849,-37.975,-28.783,-67.15,-65.822,-47.171,-40.013,-26.682]],
"ve": [[-4.335,-43.442,300.596,-256.81,-30.594,-527.983,0.359,20.772,168.981,-69.984,101.642,-302.755,233.081,18.255,8337.416,29.11,-29.064,-420.092,-82.232,37.007,55.94,31.599,-25.748,138.751,210.199,118.776,44.419,25.958,32.213,-173.733],[-347.221,15.827,15.255,13.255,-52.668,0.785,-7.273,16.598,18.003,22.413,-83.292,1.575,-13.767,12.857,20.966,-3.688,16.085,16.282,13.471,23.643,38.583,-13.367,31.527,27.596,36.989,44.826,41.384,64.591,33.864,51.862],[-52.207,3.085,-3.829,-2.63,1.304,-39.88,-3.523,6.584,1.061,4.671,39.658,-6.091,-2.05,1.409,2.833,105.849,-2.099,6.89,4.814,9.5,21.353,13.117,9.372,29.879,14.284,79.531,23.877,29.026,20.912,28.987],[-33.13,-12.26,-10.431,-7.287,-3.358,-68.205,-13.322,-10.567,-6.077,-3.599,-60.922,-4.146,-8.826,-6.355,-3.015,2.218,-4.2,-4.648,-3.301,1.163,-6.582,-14.773,6.298,4.238,2.619,214.056,20.767,11.379,15.398,17.818],[-4.891,-24.517,-15.812,-10.77,-7.13,-29.621,12.177,-11.47,-11.701,-7.271,25.302,-20.908,-18.26,-11.066,-5.708,-15.209,-10.825,-8.248,-3.98,-3.371,2.878,6.077,-0.811,1.177,0.219,57.56,14.059,19.408,14.855,10.593],[-25.623,-6.507,-17.086,-14.137,-12.917,-80.471,-21.95,-11.923,-15.617,-12.136,-44.148,-23.536,-17.418,-12.328,-10.649,50.742,-15.064,-12.64,-8.06,-7.592,-2.991,-15.545,655.377,-4.319,-2.065,82.514,-11.348,-13.186,1.624,6.097]],
"kep": [[-33.108,-43.753,-58.333,-59.962,-61.216,-52.337,-33.227,-54.951,-57.539,-69.9,-51.212,-35.942,-42.684,-70.277,-71.903,-33.426,-53.452,-43.91,-42.75,-77.115,-51.121,-34.052,-22.83,-49.616,-36.175,-36.707,-22.129,-16.417,-13.226,2.356],[-74.671,-51.484,-48.073,-43.87,-43.729,-73.896,-53.466,-38.422,-42.416,-43.472,-76.922,-48.544,-42.971,-40.548,-43.171,-71.244,-52.934,-44.679,-39.678,-41.956,-67.943,-54.228,-46.833,-41.134,-43.042,-78.58,-57.907,-41.999,-39.547,-35.845],[-87.034,-59.532,-49.882,-42.319,-43.318,-90.443,-61.34,-54.587,-45.534,-44.515,-83.884,-61.13,-51.458,-46.924,-44.99,-88.036,-59.403,-51.129,-45.595,-46.361,-82.505,-66.315,-54.35,-47.955,-44.312,-87.134,-65.382,-54.94,-49.914,-44.521],[-89.548,-68.74,-59.584,-52.378,-47.516,-92.732,-66.798,-57.744,-53.006,-50.487,-94.647,-69.223,-58.544,-51.675,-48.124,-89.463,-70.49,-59.528,-50.766,-46.254,-88.823,-73.509,-59.501,-54.191,-48.746,-88.583,-78.347,-65.965,-58.51,-52.092],[-92.932,-77.44,-66.547,-58.877,-53.888,-96.274,-77.536,-64.138,-58.49,-52.655,-95.021,-77.16,-62.983,-58.278,-52.14,-92.15,-79.987,-65.839,-58.342,-53.294,-90.844,-77.53,-68.708,-61.579,-55.178,-92.506,-82.706,-72.165,-62.48,-54.109],[-95.744,-81.797,-71.004,-63.764,-57.106,-96.01,-80.885,-70.344,-63.094,-57.146,-95.453,-82,-72.131,-62.031,-59.145,-94.03,-83.679,-73.686,-64.779,-58.946,-93.68,-83.943,-73.519,-64.789,-60.302,-91.413,-88.533,-76.083,-70.072,-62.753]],
"vp": [[-1011.757,-375.436,-284.912,-932.812,-1143.231,-5.218,-201.737,-172.017,-99.422,-100.673,-62.435,-123.972,-103.927,-66.541,-82.225,-6.283,2.573,-24.762,-31.863,11.991,2.93,-23.675,-23.488,-0.26,-19.028,-31.674,-22.042,-11.26,-14.831,-22.168],[2819.256,946.996,1372.515,-630.43,-1872.05,665.542,283.307,-165.534,-261.941,-130.475,373.258,37.674,37.652,-132.806,-176.396,42.714,30.925,-10.645,-26.391,-22.557,-12.139,8.388,-4.197,-0.989,-9.839,-1.575,5.843,-25.432,-8.264,-19.742],[4990.421,3709.594,1283.916,-55.77,-269.509,1009.914,783.318,578.931,65.98,-162.818,401.219,302.509,161.843,35.453,68.303,112.845,58.883,29.692,-12.14,18.186,7.78,15.414,24.643,11.609,-20.686,4.819,-9.396,-2.735,15.228,2.54],[5370.925,5202.424,4901.329,2453.493,953.796,1338.953,766.794,946.059,627.893,626.021,607.197,528.92,438.317,300.812,151.169,114.244,99.078,110.028,63.895,8.24,50.414,55.764,19.897,28.335,19.656,-1.046,16.52,26.038,30.152,6.549],[5589.707,9105.619,6681.193,4929.547,3135.152,1737.721,1720.218,946.333,1268.947,701.76,673.624,811.513,738.785,537.114,211.159,127.963,161.967,121.799,68.927,74.945,40.583,47.846,71.145,50.615,53.338,9.456,23.737,36.135,24.654,5.32],[7154.502,11213.514,9040.457,7097.955,5839.83,1570.76,1795.853,1698.668,1644.295,1326.948,762.176,915.296,940.748,632.086,694.849,112.862,198.277,193.578,141.674,115.419,47.76,99.09,91.818,75.496,52.718,-16.349,54.697,41.194,58.533,36.24]]
}