{
"KTrans": [[-17.003,2.825,2.555,2.425,2.339,-120.115,13.693,12.598,12.019,11.66,-78.209,26.226,24.555,23.599,22.916,-1149.591,83.902,98.573,100.01,99.987,484.515,49.224,134.846,154.544,161.561,-2586.111,-382.313,22.572,125.482,171.271],[2.554,1.567,-0.573,1.082,0.995,12.911,8.098,-15.92,5.247,4.936,26.852,16.906,-118.266,10.063,9.669,170.89,113.479,-43.247,33.083,40.385,434.408,296.304,-448.796,22.507,60.492,1193.18,822.616,-2018.621,-141.767,39.789],[2.332,1.344,1.005,0.846,-6.136,11.704,6.691,5.077,4.35,-18.707,24.055,13.625,10.41,9.07,-48.632,145.974,79.197,61.481,59.672,-184.024,347.659,188.161,147.09,152.539,-312.657,910.334,481.899,386.825,443.735,-909.449],[2.203,1.257,0.909,0.741,0.645,11.103,6.175,4.494,3.718,3.258,22.961,12.502,9.149,7.545,6.655,135.252,70.804,50.951,42.736,38.992,318.356,160.617,116.512,97.497,92.04,812.44,401.664,285.46,244.101,239.738],[2.126,1.2,0.859,0.688,0.591,10.909,5.905,4.238,3.411,2.936,21.871,11.912,8.539,6.887,5.909,129.133,66.302,46.901,37.818,32.72,299.187,150.828,104.461,83.521,72.918,726.514,367.593,249.55,198.492,174.217],[1.922,1.171,0.838,0.658,0.561,10.446,5.697,4.06,3.227,2.745,21.35,11.545,8.184,6.541,5.524,125.382,63.589,44.167,35.035,29.631,286.544,143.145,97.543,75.625,65.057,722.691,342.989,227.665,178.523,150.609]],
"ve": [[0.995,1.229,1.423,1.716,2.028,4.915,7.095,8.199,10.032,12.109,9.933,18.352,20.176,25.088,30.911,49.67,-0.758,-46.118,-75.703,-90.845,99.937,31.126,-6.272,-29.675,-44.91,200,83.354,33.249,3.966,-15.103],[1.049,0.578,0.33,0.407,0.391,5.191,2.837,1.666,2.175,2.073,10.35,5.593,3.334,4.846,4.416,50.993,26.519,16.636,2.02,2178.681,101.314,51.856,33.17,18.753,0.968,201.382,101.878,66.498,44.763,27.207],[1.027,0.536,0.378,0.305,0.2,5.085,2.643,1.864,1.49,0.992,10.153,5.263,3.7,2.924,1.988,50.46,25.887,17.828,13.593,9.966,100.561,51.3,34.943,26.327,19.785,200.503,101.595,68.606,51.493,39.594],[1.019,0.525,0.361,0.282,0.237,5.051,2.583,1.775,1.39,1.166,10.094,5.15,3.54,2.761,2.309,50.252,25.542,17.419,13.439,11.001,100.286,50.782,34.504,26.379,21.386,200.197,101.038,68.208,51.808,41.711],[1.017,0.519,0.354,0.273,0.226,5.042,2.558,1.741,1.34,1.108,10.054,5.101,3.469,2.67,2.201,50.152,25.358,17.188,13.168,10.78,100.137,50.571,34.165,26.039,21.212,199.953,100.738,67.812,51.451,41.629],[1.012,0.517,0.351,0.268,0.22,5.028,2.543,1.721,1.315,1.076,10.041,5.075,3.432,2.624,2.144,50.093,25.257,17.034,12.978,10.568,100.051,50.4,33.945,25.75,20.946,200.013,100.509,67.495,51.149,41.354]],
"kep": [[-1894.444,-4.669,-3.63,-3.562,-3.68,-2607.906,-23.559,-18.416,-18.103,-18.84,-995.71,-47.223,-36.771,-36.241,-37.642,-2508.32,-237.686,-185.675,-182.063,-190.526,260.984,-475.237,-373.534,-365.855,-381.622,-1500.09,-959.08,-743.831,-735.126,-762.57],[2.057,3.037,-391.674,-3.417,-1.954,9.772,14.928,-1174.266,-17.223,-10.025,19.555,29.676,-3738.83,-34.505,-20.052,95.487,146.842,-480.542,-174.131,-101.036,188.744,287.743,-1559.777,-349.557,-203.265,356.469,528.07,-3217.685,-728.739,-407.151],[1.509,1.269,1.58,3.009,-3265.636,7.1,5.965,7.636,14.746,-2072.373,14.073,11.811,15.242,29.469,-2631.574,68.251,57.99,74.543,145.65,-2036.51,129.036,116.835,147.74,282.548,-1776.178,242.448,225.853,289.654,560.572,-2468.401],[1.31,0.966,0.925,1.083,1.539,6.163,4.418,4.293,5.177,7.455,12.406,8.715,8.576,10.282,14.838,58.567,42.948,41.939,51.028,73.415,111.214,83.735,84.696,100.643,145.268,205.538,165.345,165.881,199.815,285.962],[1.202,0.838,0.73,0.736,0.836,5.843,3.808,3.345,3.414,3.928,11.138,7.469,6.588,6.758,7.726,53.58,36.481,32.567,33.659,38.719,100.32,72.753,64.81,66.655,76.747,174.997,141.487,127.589,131.128,150.525],[0.988,0.778,0.651,0.602,0.625,5.327,3.444,2.873,2.717,2.833,10.529,6.818,5.665,5.423,5.586,50.746,32.991,27.606,26.485,27.435,93.515,65.486,55.006,51.584,55.234,173.374,125.817,107.032,104.419,108.595]],
"vp": [[-1.204,-1.927,-2.289,-2.749,-2.86,-1.101,-0.833,-1.176,-0.943,-1.325,-1.274,-0.696,-0.717,-0.638,-0.892,-1.524,-0.574,-0.771,-0.584,-0.578,-0.924,-0.647,-0.693,-0.375,-0.305,-1.205,-0.889,-0.479,-0.814,-0.587],[15.437,3.409,-1.259,-2.581,-4.102,2.062,0.278,-1.186,-1.049,-1.175,0.883,0.078,-0.706,-1.017,-0.906,-0.98,-0.701,-1.354,-0.743,-0.628,-0.741,-0.653,-1.149,-0.708,-0.528,-0.902,-0.927,-0.896,-0.504,-0.661],[52.933,20.289,8.38,3.052,-1.136,9.152,3.304,1.108,0.015,-1.213,4.437,0.991,0.324,-0.228,-1.24,-0.03,-0.737,-0.611,-0.77,-1.223,-0.115,-1.236,-0.56,-0.922,-1.362,-1.131,-1.065,-1.076,-0.819,-1.315],[114.813,46.991,25.489,14.224,6.979,21.635,8.601,3.944,2.277,0.793,10.455,3.364,1.875,0.379,0.054,1.637,-0.147,-0.056,-0.673,-0.809,0.137,-0.779,-0.689,-0.641,-1.026,-0.649,-1.075,-1.047,-0.888,-0.769],[192.543,86.585,48.565,30.57,19.039,37.421,16.398,8.824,5.402,3.396,18.195,7.776,3.722,2.391,0.98,3.322,0.596,-0.134,0.004,-0.559,1.144,0.155,-0.351,-0.912,-0.201,0.323,-0.622,-0.923,-0.745,-0.932],[293.248,137.04,81.243,52.957,35.985,56.956,25.453,14.95,9.699,6.142,29.189,12.089,7.21,4.476,2.88,4.225,1.895,0.198,-0.159,-0.326,1.696,0.343,0.3,-0.551,-0.335,0.671,-0.222,-0.772,-0.591,-0.782]]
}