{
"KTrans": [[1.053,39.863,28.162,35.766,21.23,6.248,30.334,32.189,42.936,19.148,2.578,39.754,43.052,37.155,37.736,70.908,142.343,99.652,101.583,87.026,350.373,303.769,238.585,192.255,179.748,972.765,678.559,545.63,505.056,447.65],[-64.004,62.026,41.718,29.773,19.03,-85.517,45.345,54.028,40.204,42.676,-92.433,61.698,54.348,43.983,42.519,-48.17,153.608,107.482,88.601,63.44,-28.013,235.301,173.257,134.448,102.719,80.67,489.88,352.264,256.276,220.692],[-105.087,-8.671,72.706,54.647,47.69,-100.139,-19.23,90.185,57.588,48.839,-94.818,-13.468,98.722,62.216,60.623,-100.142,5.992,126.406,114.074,77.734,-63.387,115.678,209.318,175.884,105.792,-83.848,125.325,386.934,269.46,200.182],[-102.765,-72.417,44.814,97.669,63.647,-99.72,-99.45,85.074,86.968,71.621,-111.471,-53.571,74.148,111.956,86.923,-94.095,-71.545,123.549,146.612,126.226,-102.418,-68.221,216.113,161.867,150.788,-101.476,-49.691,291.187,340.349,244.856],[-101.671,-128.244,-34.003,89.612,91.87,-108.181,-95.632,-45.399,132.962,113.495,-104.386,-97.769,-10.852,133.258,126.686,-89.956,-113.536,-23.388,180.682,149.326,-100.69,-83.203,25.626,176.469,171.169,-116.592,-37.363,118.86,366.67,270.302],[-106.419,-101.853,-65.072,61.092,155.72,-104.047,-119.603,-112.281,22.25,190.414,-109.452,-108.335,-80.375,77.737,151.733,-108.058,-140.698,-73.878,44.677,236.936,-120.036,-150.885,-66.983,179.52,213.271,-130.075,-199.256,-47.579,286.637,287.188]],
"ve": [[9.712,37.707,-86.884,30.844,-106.114,96.475,18.127,-3.493,8.581,38.356,52.624,-17.988,-112.217,7.283,-261.031,64.365,22.922,3.84,-5.82,-3.963,119.094,38.674,11.922,-3.252,-15.96,190.84,82.947,37.123,13.508,-5.169],[-45.16,11.998,2.337,1.029,2.145,12.517,6.83,5.526,4.415,3.075,-104.062,10.191,5.786,3.909,3.081,54.126,30.201,18.764,11.565,6.572,85.077,58.975,31.093,20.834,12.979,205.985,103.16,62.225,43.087,31.622],[6.061,-73.39,0.894,2.927,2.415,45.186,9.888,6.539,2.9,2.689,3.224,7.371,8.03,4.003,3.876,57.748,31.376,18.772,13.019,8.121,88.535,53.84,34.283,26.86,18.384,173.753,101.333,68.965,50.489,36.85],[5.103,6.36,2.787,2.255,1.918,2.103,-2.073,6.064,2.836,2.833,3.049,5.537,7.981,4.755,4.549,27.167,27.814,19.257,14.381,12.536,99.074,56.279,36.94,22.388,20.147,175.154,80.711,66.382,50.047,41.716],[-9.53,1.537,3.56,1.937,1.1,4.548,21.158,-120.985,3.903,4.868,-2.564,5.794,20.147,7.052,5.058,43.067,26.907,15.562,14.35,12.35,105.144,52.117,35.323,26.724,19.245,194.06,98.698,67.29,50.155,38.179],[1.972,-1.059,6.326,2.59,3.315,-86.828,6.155,3.914,-1.288,6.744,14.657,20.016,8.365,5.874,4.756,53.475,28.915,23.977,13.998,15.463,153.157,50.336,46.415,24.926,19.623,208.643,104.593,66.673,53.061,42.966]],
"kep": [[-15.035,38.115,32.806,41.032,29.961,-16.168,24.709,31.269,55.233,29.103,-21.818,32.463,46.483,40.418,55.498,5.472,104.329,97.384,130.779,129.265,123.959,191.072,205.352,203.258,237.596,263.557,324.867,368.381,432.168,477.417],[-71.49,47.419,34.288,26.073,16.659,-88.455,30.826,42.385,32.169,38.33,-97.648,42.938,42.571,36.8,38.489,-68.332,89.415,69.906,65.828,50.125,-64.833,118.174,102.867,89.727,75.13,-39.663,186.635,170.82,143.56,139.631],[-103.241,-20.77,62.243,44.055,39.115,-100.411,-29.514,70.572,46.398,40.108,-94.586,-25.268,77.713,48.307,50.49,-101.693,-24.266,81.961,81.756,58.314,-82.869,33.111,120.234,111.181,67.833,-93.854,8.53,180.511,139.066,113.124],[-101.337,-75.877,31.736,81.591,52.403,-98.865,-100.104,67.053,71.717,59.722,-109.257,-59.739,51.414,91.785,71.709,-95.393,-76.86,77.86,104.797,94.186,-99.739,-80.181,122.304,101.421,99.366,-98.217,-73.52,123.299,182.328,136.865],[-101.193,-123.457,-38.922,72.94,79.358,-105.776,-96.069,-48.494,110.197,95.007,-102.897,-96.094,-22.16,107.919,105.374,-92.485,-109.561,-37.177,129.62,111.098,-98.92,-84.844,-13.631,105.993,114.846,-103.32,-69.656,25.049,193.922,152.604],[-105.871,-102.065,-69.612,45.529,132.786,-103.752,-116.714,-109.163,10.072,161.421,-107.375,-104.193,-82.811,57.023,126.562,-103.989,-127.747,-78.081,18.038,179.682,-108.929,-129.802,-75.597,107.928,145.194,-109.887,-145.11,-65.588,142.408,160.842]],
"vp": [[0.001,0.001,0.001,0.001,0.001,0.005,0.005,0.005,0.005,0.005,0.01,0.01,0.01,0.01,0.01,0.05,0.05,0.05,0.05,0.05,0.1,0.1,0.1,0.1,0.1,0.2,0.2,0.2,0.2,0.2],[0.001,0.001,0.001,0.001,0.001,0.005,0.005,0.005,0.005,0.005,0.01,0.01,0.01,0.01,0.01,0.05,0.05,0.05,0.05,0.05,0.1,0.1,0.1,0.1,0.1,0.2,0.2,0.2,0.2,0.2],[0.001,0.001,0.001,0.001,0.001,0.005,0.005,0.005,0.005,0.005,0.01,0.01,0.01,0.01,0.01,0.05,0.05,0.05,0.05,0.05,0.1,0.1,0.1,0.1,0.1,0.2,0.2,0.2,0.2,0.2],[0.001,0.001,0.001,0.001,0.001,0.005,0.005,0.005,0.005,0.005,0.01,0.01,0.01,0.01,0.01,0.05,0.05,0.05,0.05,0.05,0.1,0.1,0.1,0.1,0.1,0.2,0.2,0.2,0.2,0.2],[0.001,0.001,0.001,0.001,0.001,0.005,0.005,0.005,0.005,0.005,0.01,0.01,0.01,0.01,0.01,0.05,0.05,0.05,0.05,0.05,0.1,0.1,0.1,0.1,0.1,0.2,0.2,0.2,0.2,0.2],[0.001,0.001,0.001,0.001,0.001,0.005,0.005,0.005,0.005,0.005,0.01,0.01,0.01,0.01,0.01,0.05,0.05,0.05,0.05,0.05,0.1,0.1,0.1,0.1,0.1,0.2,0.2,0.2,0.2,0.2]]
}