{
"KTrans": [[-31.815,-42.91,-41.986,-42.614,-44.927,-6.507,-19.834,-25.734,-18.665,-21.25,8.707,-7.53,-11.133,-5.573,-5.519,27.934,6.539,12.687,7.304,3.291,72.848,11.392,43.041,51.965,38.849,233.201,85.25,94.765,118.423,118.708],[-43.178,-41.279,-39.032,-45.124,-48.916,-25.222,-19.684,-8.294,-17.855,-28.917,-19.902,-12.049,-1.221,-6.168,-2.747,5.668,4.992,9.979,-2.036,-0.293,20.387,17.738,1.941,-15.087,-0.979,107.257,82.306,75.202,-6.707,2.7],[-40.311,-43.149,-48.316,-46.904,-40.983,-33.413,-28.729,-16.48,-18.044,-5.992,-32.746,-16.938,-13.579,-8.6,0.944,-13.265,-0.866,4.401,2.075,-1.492,-4.507,4.834,2.995,10.456,-1.882,63.483,27.629,19.778,47.586,30.287],[-45.746,-38.029,-37.162,-43.098,-42.085,-40.296,-28.172,-31.766,-20.618,-13.75,-41.555,-18.07,-11.753,-6.929,-10.851,-36.705,1.051,-1.611,1.177,0.46,-3.151,0.475,9.504,3.973,5.745,61.886,12.948,13.683,7.208,17.737],[-61.135,-34.93,-42.538,-48.65,-32.465,-55.649,-29.495,-23.447,-28.044,-23.137,-51.124,-23.801,-8.936,-11.622,-10.669,-53.578,-4.519,-1.467,-1.073,2.078,-37.033,1.833,4.31,4.634,3.812,3.9,35.229,4.015,5.491,6.374],[-66.249,-36.819,-37.899,-38.446,-42.466,-68.904,-31.509,-28.336,-31.733,-23.536,-65.854,-22.013,-21.077,-9.815,-7.493,-60.112,-9.072,-3.016,-1.528,1.287,-41.969,-1.429,0.734,2.323,1.201,-20.913,0.206,3.77,8.564,4.835]],
"ve": [[-32.627,-18.535,-8.009,-7.03,-5.663,-6.625,-6.617,-5.894,0.728,5.019,9.972,0.179,-0.19,4.344,5.474,21.735,29.14,29.448,39.258,33.737,52.897,111.261,-7.746,133.052,7.255,146.422,40.554,3.05,-7.979,-44.669],[-117.531,-61.213,-39.651,-33.351,-28.908,-65.005,-29.571,-7.359,-13.06,-17.217,-59.82,-20.173,5.898,-4.396,-1.418,-0.685,2.442,7.549,-0.44,0.024,16.183,14.202,-2.902,-4.665,2.25,227.712,78.583,41.126,-2.251,-5.325],[-145.915,-105.289,-81.345,-59.394,-41.007,-91.079,-70.312,-27.061,-22.544,-6.981,-87.13,-44.879,-23.269,-10.772,-0.747,-21.02,-6.545,2.415,0.958,-1.022,12.093,2.135,2.05,3.928,-4.499,169.48,15.728,17.411,47.502,35.489],[-71.599,-122.928,-85.496,-75.458,-59.105,-71.534,-86.435,-71.494,-35.573,-19.203,-61.025,-56.393,-25.25,-11.152,-15.998,-25.149,1.777,-0.808,0.345,-0.018,55.246,0.284,5.314,1.664,2.721,306.629,6.954,8.256,4.141,10.763],[-99.033,-133.617,-121.445,-108.647,-57.562,-51.833,-116.4,-68.19,-63.18,-40.959,-54.341,-89.599,-20.871,-26.207,-19.059,-19.164,-7.706,-0.619,-0.857,0.912,80.716,3.799,1.549,2.478,1.809,193.678,13.819,0.164,2.226,3.502],[-45.375,-163.884,-135.931,-104.693,-91.894,-55.598,-132.929,-98.849,-83.445,-50.185,-32.476,-73.119,-75.221,-24.246,-14.326,-11.905,-19.514,-6.076,-2.945,0.612,89.771,-2.731,-0.371,1.181,0.463,166.022,5.898,-2.61,5.526,2.53]],
"kep": [[-114.94,1.276,-6.207,1.594,1.95,-125.603,3.817,-0.713,-1.121,-5.225,-124.315,-0.7,0.795,-1.257,-2.067,-6.177,-11.674,-12.55,-8.056,-3.271,39.868,-9.095,-25.393,-29.27,-17.214,119.11,-55.36,-35.591,-49.526,-46.026],[-4.228,-3.876,-120.111,-2,-0.356,-3.144,-1.771,-135.01,-1.664,2.163,-0.544,1.271,-113.602,-10.077,-2.798,-1.673,-0.424,-15.833,-9.765,-5.31,-1.937,-7.069,82.07,-5.427,-12.553,-22.015,-0.855,115.193,-27.156,-16.818],[-8.813,-1.854,1.276,2.925,-126.922,-12.409,-1.1,-0.417,-1.706,-124.645,-13.015,0.237,-0.729,-0.618,-107.664,-12.056,0.866,2.586,-3.314,-3.671,-24.669,1.699,-1.404,6.777,72.406,-33.639,4.197,-4.696,-24.672,39.137],[-28.775,-2.445,-0.043,0.621,-0.854,-24.299,-3.173,-1.067,-0.085,0.84,-25.426,-2.116,-0.871,-1.416,1.777,-31.688,-1.506,-1.412,0.948,1.047,-35.352,-1.801,4.707,3.05,5.685,-50.168,-2.676,2.204,0.441,4.631],[-41.816,-3.642,-1.937,-0.693,-0.609,-40.317,-2.392,-0.022,-0.135,-0.502,-36.172,-3.48,-1.138,0.353,-0.527,-50.666,-2.436,-1.61,-0.778,2.042,-60.971,-2.57,2.206,2.619,3.032,-60.649,12.084,1.011,0.478,0.626],[-52.419,-5.273,-0.128,0.111,-0.463,-53.94,-5.949,-1.094,-1.333,-0.926,-52.973,-6.121,-0.018,-0.927,-1.374,-59.986,-3.65,-0.798,-1.071,1.123,-65.344,-1.131,0.078,1.267,0.46,-66.836,-18.786,2.772,1.363,1.215]],
"vp": [[6.824,28.923,-44.593,32.007,13.952,-11.435,10.666,-13.074,-7.096,-13.909,-3.379,3.468,2.388,-1.513,-2.973,-5.605,-5.461,-8.877,-5.977,0.502,-3.887,6.016,-4.84,-10.487,-1.625,-8.442,2.024,0.802,-3.968,-1.82],[229.081,99.613,-20.927,-4.49,-11.277,58.085,14.573,2.027,-6.429,-10.057,13.341,-14.496,-0.436,-13.172,-3.359,-7.146,1.046,-14.349,-4.481,-7.742,-7.683,-6.096,-3.116,11.237,-3.362,-3.277,-12.435,-15.977,6.771,3.344],[669.773,94.154,15.839,-50.297,-42.673,160.626,17.562,21.446,14.973,5.292,78.874,-5.247,-8.006,3.664,-3.619,7.826,-1.429,-13.981,2.391,4.415,10.232,-2.931,1.212,-8.365,-5.693,-3.708,-8.664,1.032,-3.642,-14.976],[1993.427,362.355,133.494,49.21,7.498,324.315,78.4,16.799,19.298,19.99,191.517,22.424,17.916,6.812,-13.206,39.572,-6.687,5.946,-1.989,4.03,12.617,0.422,-17.705,-4.674,-8.091,-5.71,-3.326,-9.22,1.764,-7.945],[2918.58,654.893,277.205,74.305,172.161,614.364,102.624,37.328,-8.868,13.169,272.188,39.966,39.916,0.544,3.322,68.732,9.236,4.804,8.184,-9.66,35.3,-8.24,-4.298,-10.535,-7.535,-4.245,-11.795,1.704,-1.028,-2.968],[4045.508,754.635,228.568,193.553,167.114,857.86,125.115,52.887,43.803,47.442,431.806,110.547,17.388,25.579,29.699,83.263,15.913,6.639,-3.32,-5.182,33.838,7.015,2.397,-4.789,-1.042,3.55,12.088,6.872,-10.805,-5.661]]
}