{
"KTrans": [[83.686,37.813,33.842,20.158,29.808,74.574,53.098,41.97,30.226,32.662,110.856,55.146,51.356,42.014,41.348,271.438,174.454,118.917,93.471,111.674,669.999,342.976,238.566,212.88,188.427,1668.648,756.943,576.192,480.391,469.82],[-42.135,107.32,72.82,49.313,30.902,-57.771,137.865,69.756,54.075,42.533,-52.542,133.025,74.725,61.558,46.758,-8.596,239.596,120.088,99.072,76.696,19.568,336.983,195.05,161.376,123.24,213.458,743.922,368.214,265.571,241.955],[-129.52,141.748,113.965,82.078,79.206,-140.547,76.403,159.982,90.799,62.184,-136.117,109.731,160.081,91.237,61.464,-165.57,300.3,229.274,149.228,101.278,-255.601,238.327,326.162,177.919,136.623,-386.177,688.846,546.637,366.007,252.989],[-123.779,-85.452,135.262,161.343,89.845,-140.73,-128.873,217.804,183.302,103.366,-147.286,-147.62,210.459,179.209,104.193,-180.935,-212.165,276.306,232.605,140.387,-166.658,-212.725,487.16,275.977,212.944,-314.413,-207.085,537.321,506.635,277.672],[-120.263,-203.876,-30.414,272.322,152.164,-120.335,-158.521,-141.205,279.581,138.945,-124.835,-160.173,-49.305,219.338,146.333,-137.068,-216.672,96.721,359.661,223.738,-157.643,-316.828,19.566,441.408,261.252,-152.631,-268.111,329.37,738.691,390.107],[-122.466,-184.745,-184.006,125.099,309.362,-108.091,-205.568,-230.503,162.692,304.775,-121.42,-189.274,-208.568,173.24,302.593,-136.456,-229.764,-179.266,251.264,381.335,-143.916,-269.807,-251.036,369.104,485.515,-212.86,-430.08,-368.9,469.36,532.463]],
"ve": [[9.563,3.549,2.343,-90.452,85.368,6.676,8.02,11.717,-16.161,69.605,14.285,7.102,11.455,9.257,11.079,45.676,14.913,-1.519,-11.123,-18.657,96.973,36.072,8.074,-8.977,-20.3,196.358,80.466,37.103,10.079,-3.857],[5.055,5.283,2.327,2.431,1.845,9.983,7.81,4.623,2.726,1.794,14.68,7.161,6.263,3.178,1.954,61.311,27.411,15.65,11.585,5.988,122.33,49.772,30.259,20.225,13.722,207.409,101.664,61.641,40.97,31.05],[7.026,3.922,0.885,2.379,4.083,4.192,3.339,6.282,4.008,2.438,-4.866,-0.491,7.714,4.274,3.337,55.628,30.458,22.81,15.015,10.476,96.758,55.511,35.926,23.459,19.338,197.409,106.203,66.365,49.751,38.699],[-2.667,-0.316,4.06,4.085,1.206,16.019,5.989,7.327,6.561,3.301,12.868,3.512,9.071,4.554,4.021,55.156,32.663,17.175,16.228,11.436,100.825,56.379,34.717,25.567,23.234,198.814,101.513,67.614,52.808,37.647],[2.277,0.231,1.836,2.177,2.826,3.324,4.168,4.951,4.466,1.657,5.724,4.391,11.303,3.567,4.23,51.008,28.898,19.68,17.262,13.296,102.607,54.922,33.869,25.953,22.405,196.324,97.645,71.65,53.691,42.212],[7.116,6.09,6.1,1.187,2.784,8.912,9.168,3.678,3.363,5.636,6.431,7.776,7.638,7.034,2.14,45.919,24.104,12.59,7.404,14.462,102.552,52.064,36.396,30.08,22.707,203.018,99.057,68.49,52.392,43.377]],
"kep": [[65.136,35.213,36.524,25.457,44.376,58.826,47.985,46.743,34.99,50.518,82.894,47.118,57.6,56.419,61.546,148.294,134.739,119.226,117.134,161.479,283.453,221.113,208.442,237.729,255.329,492.571,369.283,389.38,421.486,489.715],[-52.067,88.256,62.134,41.931,26.805,-66.376,111.551,56.896,45.1,38.168,-61.268,106.625,59.913,52.334,41.014,-44.929,154.382,83.061,74.07,61.547,-44.389,181.236,117.837,109.844,91.717,2.097,307.558,180.915,150.818,155.101],[-125.972,116.388,95.343,69.467,66.181,-135.369,55.436,133.378,73.937,51.126,-128.342,79.093,130.313,73.78,49.998,-141.361,189.689,160.046,107.56,75.211,-171.581,112.773,198.327,113.457,90.981,-190.247,276.521,271.754,200.059,146.39],[-119.856,-86.701,111.794,135.577,76.423,-134.3,-123.361,178.329,154.309,85.848,-136.475,-139.706,170.812,147.321,85.512,-148.389,-180.69,194.967,170.679,103.528,-129.403,-166.7,307.856,180.028,144.207,-167.394,-146.613,264.124,280.583,159.554],[-116.868,-191.467,-37.505,233.183,128.988,-116.132,-148.539,-133.028,237.85,116.801,-119.821,-148.754,-55.375,181.955,121.517,-121.313,-183.103,54.933,271.798,168.939,-126.409,-233.121,-14.418,298.244,179.684,-114.71,-173.536,142.291,419.789,228.84],[-120.103,-172.73,-169.909,103.401,267.478,-105.866,-189.859,-209.81,134.559,260.417,-116.93,-173.223,-190.123,141.456,255.069,-120.926,-191.883,-157.763,184.44,293.863,-120.094,-201.771,-199.814,242.436,346.499,-134.479,-252.665,-247.722,255.69,320.524]],
"vp": [[0.001,0.001,0.001,0.001,0.001,0.005,0.005,0.005,0.005,0.005,0.01,0.01,0.01,0.01,0.01,0.05,0.05,0.05,0.05,0.05,0.1,0.1,0.1,0.1,0.1,0.2,0.2,0.2,0.2,0.2],[0.001,0.001,0.001,0.001,0.001,0.005,0.005,0.005,0.005,0.005,0.01,0.01,0.01,0.01,0.01,0.05,0.05,0.05,0.05,0.05,0.1,0.1,0.1,0.1,0.1,0.2,0.2,0.2,0.2,0.2],[0.001,0.001,0.001,0.001,0.001,0.005,0.005,0.005,0.005,0.005,0.01,0.01,0.01,0.01,0.01,0.05,0.05,0.05,0.05,0.05,0.1,0.1,0.1,0.1,0.1,0.2,0.2,0.2,0.2,0.2],[0.001,0.001,0.001,0.001,0.001,0.005,0.005,0.005,0.005,0.005,0.01,0.01,0.01,0.01,0.01,0.05,0.05,0.05,0.05,0.05,0.1,0.1,0.1,0.1,0.1,0.2,0.2,0.2,0.2,0.2],[0.001,0.001,0.001,0.001,0.001,0.005,0.005,0.005,0.005,0.005,0.01,0.01,0.01,0.01,0.01,0.05,0.05,0.05,0.05,0.05,0.1,0.1,0.1,0.1,0.1,0.2,0.2,0.2,0.2,0.2],[0.001,0.001,0.001,0.001,0.001,0.005,0.005,0.005,0.005,0.005,0.01,0.01,0.01,0.01,0.01,0.05,0.05,0.05,0.05,0.05,0.1,0.1,0.1,0.1,0.1,0.2,0.2,0.2,0.2,0.2]]
}