{
"KTrans": [[6.453,5.862,2.428,2.549,2.596,15.149,9.089,7.151,7.276,5.173,27.679,19.19,10.672,13.901,13.207,168.152,95.646,77.314,70.997,68.58,408.849,231.415,175.391,159.706,143.272,1187.363,596.806,463.832,410.817,367.789],[-3.96,3.003,0.548,0.902,-0.251,0.37,9.447,7.206,6.518,5.132,21.855,15.87,11.237,11.472,5.91,122.613,72.82,47.717,39.763,31.733,290.129,158.466,103.984,83.311,69.387,792.228,365.501,245.573,185.651,156.826],[-23.363,4.313,7.157,4.45,5.483,-19.293,20.692,7.166,3.834,7.175,-12.689,16.337,12.952,10.877,11.334,72.96,68.803,43.622,31.933,30.284,217.004,148.711,102.69,71.317,59.991,567.143,379.405,214.39,163.747,125.565],[-47.216,12.132,4.649,3.518,6.495,-44.142,25.159,15.528,5.829,10.946,-29.203,23.911,13.613,10.453,7.171,27.134,64.07,42.965,33.744,27.176,128.183,178.628,94.796,73.857,57.187,419.782,294.061,214.777,162.646,126.005],[-59.045,20.088,13.966,3.438,2.073,-53.349,9.497,22.067,9.629,8.791,-54.159,26.047,22.417,13.356,11.67,-19.293,65.7,49.449,40.654,25.212,63.668,152.477,106.927,69.378,61.733,297.059,367.338,211.498,155.534,115.967],[-68.597,12.828,11.691,7.622,4.657,-69.096,4.762,15.377,10.274,9.999,-64.144,26.328,11.563,19.772,12.115,-29.761,65.717,51.147,46.496,24.607,34.532,142.146,126.415,63.936,60.619,158.798,320.149,226.616,163.854,123.632]],
"ve": [[2.487,2.321,3.094,4.114,3.086,6.685,1.496,0.63,1.123,2.503,9.49,3.049,1.394,-1.22,-5.353,47.239,14.242,-0.248,-11.136,-17.915,93.636,32.873,7.736,-7.606,-18.074,192.034,79.481,34.954,10.201,-6.412],[2.82,0.603,-0.288,-0.079,0.758,3.495,2.688,2.302,1.23,0.234,10.981,5.289,2.89,2.067,1.458,49.469,24.801,14.559,8.592,5.555,100.797,48.277,29.633,19.924,12.833,201.68,96.641,60.724,41.762,29.007],[3.683,0.568,0.204,0.461,0.571,6.373,4.076,1.378,0.552,1.224,13.583,4.915,3.724,2.616,1.923,52.008,24.62,15.859,10.834,8.787,100.724,49.372,32.856,22.802,17.8,202.756,99.256,64.675,47.458,35.507],[4.049,1.123,0.174,0.21,0.237,-3079.668,3.59,2.329,1.23,1.794,13.919,5.076,3.26,2.427,1.756,49.922,24.936,15.785,11.724,9.179,100.827,51.338,32.102,24.74,18.834,203.545,99.014,65.9,48.789,38.2],[3.216,2.161,0.301,-0.143,-0.359,9.742,2.75,2.457,1.398,0.776,9.558,5.172,3.767,2.863,2.226,54.752,25.273,16.385,12.722,8.946,100.241,51.11,33.145,24.599,19.795,193.151,100.169,65.934,49.43,38.611],[-0.416,1.581,0.593,-0.028,-0.209,8.189,2.738,1.378,1.267,1.415,12.806,7.03,3.237,3.208,1.991,44.927,26.754,16.493,13.161,9.3,103.957,50.343,34.343,23.892,20.179,199.946,100.397,66.485,50.197,39.757]],
"kep": [[4.492,4.896,1.836,3.51,4.245,8.336,8.989,8.541,10.092,7.905,16.939,16.753,11.329,19.022,25.431,82.464,71.775,79.051,94.066,106.877,163.35,149.437,155.906,181.482,198.05,341.247,288.451,318.063,363.699,400.256],[-7.349,1.899,0.677,0.831,-1.023,-3.826,6.185,4.489,5.081,4.882,9.099,9.684,7.94,9.155,4.36,47.411,38.04,28.724,28.582,24.771,94.149,73.817,57.145,52.61,49.967,196.32,136.339,114.626,101.106,98.836],[-26.915,2.984,6.271,3.526,4.659,-24.003,15.151,5.152,2.867,5.644,-22.793,9.978,8.378,7.748,8.898,13.716,34.604,23.539,18.596,19.429,58.265,65.603,51.943,39.122,35.427,121.434,139.67,90.365,78.382,65.99],[-49.339,9.71,3.759,2.762,5.706,-47.476,19.56,12.071,3.967,8.569,-37.486,16.51,9.128,7.221,4.872,-15.747,30.417,22.804,19.077,15.989,13.099,82.947,46.43,38.844,31.852,72.093,97.013,88.858,75.89,62.996],[-59.917,16.146,12.625,2.941,1.892,-57.306,5.715,18.107,7.263,7.249,-60.113,18.22,16.567,9.364,8.528,-47.147,31.141,27.601,23.82,14.356,-19.174,65.778,54.265,35.162,34.222,31.759,132.086,86.433,70.117,55.243],[-69.896,9.39,9.803,6.547,4.091,-70.943,0.937,12.2,7.981,7.801,-68.145,17.009,6.894,15.011,9.108,-53.922,29.813,28.363,28.511,13.19,-33.351,59.463,67.297,31.375,32.843,-13.115,108.833,94.865,74.581,59.327]],
"vp": [[0.001,0.001,0.001,0.001,0.001,0.005,0.005,0.005,0.005,0.005,0.01,0.01,0.01,0.01,0.01,0.05,0.05,0.05,0.05,0.05,0.1,0.1,0.1,0.1,0.1,0.2,0.2,0.2,0.2,0.2],[0.001,0.001,0.001,0.001,0.001,0.005,0.005,0.005,0.005,0.005,0.01,0.01,0.01,0.01,0.01,0.05,0.05,0.05,0.05,0.05,0.1,0.1,0.1,0.1,0.1,0.2,0.2,0.2,0.2,0.2],[0.001,0.001,0.001,0.001,0.001,0.005,0.005,0.005,0.005,0.005,0.01,0.01,0.01,0.01,0.01,0.05,0.05,0.05,0.05,0.05,0.1,0.1,0.1,0.1,0.1,0.2,0.2,0.2,0.2,0.2],[0.001,0.001,0.001,0.001,0.001,0.005,0.005,0.005,0.005,0.005,0.01,0.01,0.01,0.01,0.01,0.05,0.05,0.05,0.05,0.05,0.1,0.1,0.1,0.1,0.1,0.2,0.2,0.2,0.2,0.2],[0.001,0.001,0.001,0.001,0.001,0.005,0.005,0.005,0.005,0.005,0.01,0.01,0.01,0.01,0.01,0.05,0.05,0.05,0.05,0.05,0.1,0.1,0.1,0.1,0.1,0.2,0.2,0.2,0.2,0.2],[0.001,0.001,0.001,0.001,0.001,0.005,0.005,0.005,0.005,0.005,0.01,0.01,0.01,0.01,0.01,0.05,0.05,0.05,0.05,0.05,0.1,0.1,0.1,0.1,0.1,0.2,0.2,0.2,0.2,0.2]]
}