{
"KTrans": [[0.589,0.324,0.274,0.184,0.277,-1.269,-0.573,-0.274,-0.492,0.149,-0.049,-0.844,-0.042,-0.585,-0.381,-7.504,-0.26,-3.11,-4.303,-0.556,3.285,-0.782,2.38,-3.479,-2.627,56.112,27.86,32.667,16.744,13.053],[4.986,1.619,0.754,0.544,0.47,5.047,0.804,0.009,0.274,0.176,0.694,0.053,0.536,-0.305,-0.056,3.486,-5.705,-4.591,0.12,-2.175,38.506,-0.048,0.045,-8.63,-4.903,1.737,7.869,-5.278,4.815,3.918],[24.617,3.947,1.876,1.123,0.787,24.735,3.164,1.514,0.892,0.518,12.427,1.881,0.682,0.401,0.602,25.948,-5.476,-1.839,-2.547,-3.906,-4.343,-14.643,-1.212,2.632,-7.996,106.762,30.371,-9.437,-5.602,0.949],[95.525,9.089,3.465,2.073,1.422,52.889,9.44,2.769,1.845,1.066,50.458,7.422,2.15,1.106,0.504,0.47,1.564,-6.208,-2.07,-1.458,13.7,1.889,-6.672,1.343,-2.512,-13.142,135.773,-4.764,1.296,-6.816],[7.548,15.261,5.998,3.201,2.145,14.779,10.71,6.071,2.652,1.777,3.407,13.004,4.389,3.159,0.973,-28.309,4.739,2.385,-2.601,-2.461,-11.416,126.249,-8.122,-7.22,-2.197,56.096,170.161,-1.828,-1.596,-9.836],[-36.858,22.796,10.356,4.786,3.209,-25.114,29.519,10.475,4.498,3.018,-49.797,25.442,8.144,5.913,1.802,-42.627,48.702,0.929,1.301,-1.719,-24.293,30.047,-5.868,-4.731,-3.542,-24.697,15.154,62.673,-8.358,-7.536]],
"ve": [[-0.346,-0.372,-0.427,-0.469,-0.604,-1.072,-0.395,-0.223,0.041,-0.283,-0.395,-0.29,0.004,0.549,0.726,1.507,7.332,20.276,36.894,96.44,-17.393,-246.502,110.443,-73.19,-44.323,-6.469,-27.144,971.666,-33.412,-51.48],[0.976,-0.085,-0.297,-0.33,-0.347,0.673,-0.498,-0.584,-0.39,-0.391,-1.491,-0.776,-0.294,-0.553,-0.412,-4.051,-3.661,-2.374,-0.068,-0.414,-0.285,-0.688,0.099,-1.601,0.802,-63.898,-14.338,-91.336,88.828,47.115],[7.4,0.696,-0.076,-0.217,-0.286,6.511,0.315,-0.178,-0.304,-0.381,2.229,-0.448,-0.556,-0.498,-0.315,-23.765,-5.105,-1.651,-1.783,-2.125,-46.496,-24.248,-1.449,1.016,-3.812,-46.102,-2.116,-15.134,-2.72,0.727],[24.907,2.712,0.44,0.019,-0.146,12.214,2.551,-0.046,-0.043,-0.305,0.225,1.076,-0.153,-0.364,-0.511,-21.261,-0.805,-5.219,-2.041,-1.455,-12.058,-15.324,-5.29,0.333,-1.861,-79.736,-28.156,-8.999,-0.509,-4.429],[-45.182,4.569,1.338,0.366,0.078,-34.719,3.578,1.111,0.22,-0.108,-34.14,3.19,0.635,0.317,-0.474,-30.289,-6.236,0.237,-2.723,-2.511,-39.497,-39.456,-6.752,-5.276,-1.948,-132.073,-26.207,-17.938,-2.441,-7.439],[-57.208,6.871,2.724,0.936,0.4,-52.207,9.207,2.66,0.887,0.175,-53.238,6.869,2.378,1.036,-0.141,-58.164,-3.579,-1.502,-0.538,-1.89,-42.776,-15.561,-6.766,-4.428,-3.155,-124.326,-17.156,-22.673,-11.819,-6.032]],
"kep": [[0.934,0.698,0.705,0.658,0.89,-0.321,-0.197,-0.027,-0.463,0.536,-0.068,-0.618,0.049,-0.84,-0.608,-16.564,-5.39,-8.835,-11.608,-5.956,-45.701,-25.222,-16.003,-27.595,-23.637,7.545,-38.612,-26.116,-45.102,-51.819],[3.914,1.705,1.054,0.877,0.821,4.136,1.283,0.582,0.661,0.565,1.519,0.72,0.79,0.223,0.342,-20.855,-5.089,-3.745,-0.492,-2.155,-29.679,-9.024,-5.127,-10.052,-6.804,-2.594,-34.721,-23.471,-10.161,-7.449],[14.537,3.213,1.953,1.343,1.076,14.554,2.779,1.681,1.193,0.898,7.165,2.187,1.198,0.877,0.906,-62.803,-3.936,-1.567,-1.54,-2.369,-39.882,-21.531,-5.037,-1.146,-6.443,-37.47,-34.815,-24.877,-13.145,-5.689],[41.103,6.093,3.003,2.052,1.57,22.043,6.511,2.788,1.881,1.37,6.769,5.859,2.234,1.441,1.001,-44.316,-1.093,-2.354,-0.832,-0.514,-41.776,-38.032,-8.663,-2.131,-2.607,-42.496,-61.436,-30.015,-10.586,-10.994],[-59.677,9.478,4.554,2.818,2.064,-51.508,6.038,4.831,2.407,1.881,-51.563,8.492,3.597,2.789,1.43,-59.54,-0.313,0.775,-0.676,-0.397,-56.074,-92.542,-8.725,-5.161,-2.427,-74.315,-62.57,-43.956,-12.868,-11.422],[-76.144,12.535,7.264,3.794,2.793,-73.414,15.513,7.409,3.542,2.828,-75.853,13.916,5.372,4.765,1.913,-67.571,-15.064,0.514,1.025,-0.354,-62.178,-45.027,-9.472,-3.846,-2.202,-76.665,-36.822,-69.989,-22.164,-10.221]],
"vp": [[12.552,17.326,17.014,18.342,13.293,20.794,16.208,12.018,17.014,5.408,2.177,9.636,3.853,10.03,7.182,16.042,4.195,10.383,13.243,4.443,18.546,12.918,6.038,12.963,9.925,-0.221,6.484,0.388,7.19,8.36],[-122.487,-26.595,19.585,30.166,31.743,-16.607,13.299,25.518,13.832,16.858,13.58,12.306,1.698,17.245,11.791,6.482,15.922,17.883,0.9,11.765,-0.371,3.873,3.584,22.066,14.536,31.732,8.041,15.464,3.017,1.862],[-752.321,-188.514,-32.643,-2.459,27.574,-131.641,-21.94,-1.763,7.178,16.787,-25.055,5.397,11.103,12.381,3.959,47.333,20.872,9.129,14.698,24.659,46.799,30.434,4.243,-5.281,25.228,22.854,-1.671,19.494,13.01,2.697],[-2494.39,-594.485,-194.69,-91.008,-35.021,-249.023,-109.622,-5.918,-14.356,10.636,0.998,-22.9,-1.654,6.22,15.948,40.882,1.754,32.422,15.8,13.786,8.616,29.646,16.021,-3.011,9.436,40.474,28.214,12.269,3.057,14.702],[4554.857,-959.679,-465.57,-232.333,-155.295,688.847,-161.296,-75.134,-37.857,-10.348,342.439,-67.885,-26.097,-20.697,14.021,82.95,26.761,-3.831,21.374,25.452,39.026,78.852,20.303,21.447,8.998,64.81,25.825,27.316,7.191,20.88],[5720.924,-1433.69,-861.603,-467.193,-311.465,1045.072,-379.443,-166.619,-91.537,-33.927,533.199,-141.286,-80.75,-45.554,-5.394,118.073,8.869,7.355,2.069,17.178,40.229,31.168,20.23,17.57,15.468,61.354,16.13,33.864,20.998,15.842]]
}