{
"KTrans": [[-49.41,-81.306,-96.267,-98.964,-87.287,-45.462,-59.967,-74.358,-98.625,-99.368,-40.72,-63.676,-85.851,-97.089,-93.096,22.377,-1.203,-35.459,-31.715,-21.628,120.577,7.718,-6.876,1.27,30.083,153.683,80.508,117.79,126.798,128.24],[-63.8,-53.789,-58.65,-64.431,-71.976,-56.136,-52.444,-51.543,-44.323,-68.257,-52.787,-39.879,-37.937,-57.925,-60.203,-34.279,-20.628,-14.932,-15.772,-42.926,-12.436,11.637,21.845,-8.028,-24.497,24.873,8.701,33.544,44.576,48.952],[-76.463,-54.087,-49.409,-46.42,-61.524,-74.454,-54.541,-43.113,-36.562,-51.125,-73.212,-52.174,-49.145,-46.277,-36.15,-62.85,-35.965,-25.231,-30.322,-21.212,-35.968,-22.725,-13.534,1.291,-26.869,-24.381,-1.261,31.651,35.135,-10.897],[-80.56,-61.744,-48.236,-52.485,-55.069,-79.717,-57.427,-48.066,-45.84,-41.711,-78.258,-61.16,-49.417,-41.151,-34.179,-75.428,-52.21,-33.385,-27.252,-19.84,-66.448,-38.859,-23.546,-13.751,-9.225,-47.929,-19.919,-8.434,25.032,-6.157],[-84.297,-66.778,-60.685,-59.691,-48.117,-85.675,-67.396,-54.502,-51.38,-43.579,-83.959,-64.539,-52.11,-44.719,-40.865,-78.07,-57.054,-50.96,-39.3,-33.072,-75.921,-44.269,-35.203,-29.306,-29.288,-57.436,-40.057,-4.435,-1.318,4.421],[-86.404,-74.955,-61.34,-45.19,-46.274,-87.596,-73.628,-60.307,-51.309,-41.814,-84.781,-71.132,-56.317,-51.429,-47.615,-81.939,-66.086,-54.278,-36.868,-42.193,-78.887,-57.371,-40.947,-35.266,-29.297,-71.356,-44.188,-27.596,-16.751,-9.583]],
"ve": [[656.694,-31.764,-58.252,-69.323,-118.097,-66.839,-54.385,-204.44,-29.421,-77.049,-42.068,-122.187,-51.819,35.337,-40.7,19.63,-13.75,-33.055,-32.841,-58.378,58.902,24.499,-25.047,-22.099,-44.074,165.506,87.164,22.807,15.335,-86.62],[-68.279,-89.103,-43.744,-55.665,-50.547,9.695,-58.667,-29.519,-39.182,-53.65,-335.741,-86.623,-47.673,-60.101,-14.14,25.71,2.07,-54.518,-25.841,76.578,76.711,29.102,27.163,-24.721,0.355,248.859,-39.979,83.789,28.759,17.892],[23.693,-41.425,-59.019,-55.332,-58.827,40.111,-154.041,-84.451,-32.205,-43.293,-24.014,-43.164,-53.351,-48.79,-44.383,40.666,-8.118,-9.491,-43.145,23.397,302.272,3.224,-5.556,-1.249,-31.372,141.404,80.583,79.135,31.367,-0.276],[-309.55,-36.809,-45.045,-59.974,-74.449,-77.906,-46.274,-58.66,-58.238,-41.409,-7.301,-39.439,-56.717,-301.845,-43.882,-25.961,-11.42,63.678,-18.137,-23.624,65.081,35.421,-39.852,-10.372,18.973,225.808,19.398,15.631,60.858,-37.148],[74.613,55.183,-63.467,-94.235,-79.924,-6.315,-50.174,-57.777,-109.381,-77.853,6.737,1097.922,-34.509,6.727,-61.957,30.482,19.95,-57.217,-29.885,-34.907,131.49,31.484,-26.907,-43.797,-65.853,214.415,111.478,120.031,1.482,55.786],[-14.045,-43.787,-74.591,-62.953,-84.105,-56.522,-34.121,-67.091,-78.434,-63.298,4.046,-30.518,-50.56,-85.836,-89.619,83.543,14.565,-76.992,-49.961,-77.35,76.922,21.992,-22.626,-41.164,-35.12,138.65,-10.467,23.197,-10.219,-17.125]],
"kep": [[-114.967,-69.085,-13.238,16.205,-40.881,-105.778,-117.859,-72.75,18.277,-12.804,-113.517,-78.358,-58.404,26.208,30.51,-113.347,-131.954,-41.25,-111.021,-5.857,-119.873,-103.339,-88.135,-106.62,-103.354,-82.277,-86.592,-144.493,-145.51,-202.267],[-100.907,-109.554,-119.817,-68.582,-5.435,-99.246,-95.583,-111.688,-87.417,-57.174,-98.789,-99.974,-119.355,-109.876,-30.099,-100.279,-106.821,-112.94,-101.481,-45.305,-89.194,-91.917,-129.25,-96.734,-69.618,-87.584,-79.414,-136.272,-108.411,-154.232],[-99.682,-90.567,-80.798,-93.202,-101.457,-101.616,-76.037,-73.838,-99.946,-112.469,-96.675,-72.946,-72.943,-100.217,-116.711,-95.633,-75.795,-73.297,-84.728,-101.092,-94.942,-80.037,-66.382,-87.433,-84.044,-86.701,-70.482,-77.349,-73.436,-77.878],[-102.306,-82.536,-67.898,-50.768,-58.92,-99.498,-81.172,-58.417,-53.263,-69.841,-100.466,-84.407,-58.034,-56.331,-66.074,-95.193,-81.686,-59.184,-64.622,-58.356,-94.526,-76.29,-49.643,-48.666,-67.054,-93.148,-71.942,-53.882,-63.62,-44.216],[-100.755,-93.314,-64.364,-44.195,-33.951,-99.209,-86.44,-62.574,-46.554,-24.491,-98.845,-87.782,-65.718,-47.746,-37.26,-97.999,-89.88,-59.093,-48.1,-40.219,-97.046,-84.12,-57.451,-37.319,-37.623,-93.241,-78.376,-76.204,-42.446,-39.414],[-100.13,-87.579,-59.215,-38.965,-21.988,-99.869,-85.846,-62.334,-41.863,-23.321,-99.522,-88.567,-61.156,-39.13,-24.096,-99.629,-91.254,-58.922,-34.244,-30.655,-97.688,-82.823,-63.753,-52.023,-34.859,-95.192,-78.284,-55.071,-46.058,-35.748]],
"vp": [[-158.584,520.549,701.899,1303.332,536.804,-8.592,29.953,32.777,247.282,111.472,23.184,-30.489,-15.997,66.507,91.527,-8.498,-20.093,-9.643,-6.059,31.83,-7.109,-13.544,12.289,10.998,-7.15,-15.07,0.303,-6.57,-1.398,-11.427],[2691.839,815.827,-93.961,-430.108,986.258,578.549,239.514,-52.625,135.784,-44.851,269.371,118.609,128.446,-32.954,60.095,34.484,18.949,-9.638,-2.838,2.772,-8.584,-0.428,-8.581,-14.057,-5.948,1.447,-1.806,-16.704,-18.595,-15.775],[3834.228,4229.897,1026.351,615.621,-932.766,1035.546,788.348,566.042,395.392,88.78,465.081,322.052,156.323,57.098,18.655,82.24,28.437,22.258,-23.659,-24.993,29.446,22.413,10.159,-5.578,-14.944,-0.234,0.228,-4.083,-20.752,-3.066],[6073.466,6197.712,4364.067,2005.74,585.224,1211.229,1135.736,599.617,417.718,308.127,595.304,558.102,346.866,221.13,154.124,97.091,114.211,49.972,37.526,13.43,42.634,18.165,2.701,4.795,-10.936,18.293,5.648,-4.334,-4.961,0.161],[7462.92,8076.344,5092.517,2414.534,2934.491,1178.287,1414.931,1056.496,684.107,433.416,635.097,793.273,722.277,427.395,292.999,136.971,147.112,86.48,107.051,40.798,86.324,75.222,40.59,30.09,-1.61,15.496,24.246,13.984,-28.347,-24.492],[8168.249,9016.195,7250.777,6045.267,2875.608,1380.696,1761.257,1541.567,996.416,801.091,706.813,924.592,746.393,326.052,207.507,174.734,175.821,105.867,80.337,35.412,64.879,61.632,53.437,61.441,35.923,4.229,6.884,5.873,6.379,-2.699]]
}