{
"KTrans": [[1.838,0.704,2.83,1.993,1.466,14.073,9.335,6.739,6.49,4.828,26.823,17.448,14.016,11.019,10.498,170.836,95.967,77.381,67.775,60.822,419.433,231.301,169.459,153.408,140.951,1095.835,608.136,460.562,392.946,354.145],[-4.68,3.56,2.194,1.359,0.858,9.026,5.531,6.202,3.276,2.777,19.616,12.626,9.939,7.088,5.481,147.708,68.085,46.515,36.693,30.986,340.031,157.591,100.522,78.196,67.815,415.09,406.21,246.597,184.52,151.793],[-4.026,0.167,1.91,0.851,0.679,-7.249,6.558,5.848,3.83,3.516,6.454,12.408,9.389,7.754,5.859,106.88,66.291,42.731,32.829,27.158,214.463,147.48,95.253,69.43,58.435,41.375,385.576,211.679,152.023,126.019],[-26.366,2.815,2.515,1.72,1.273,-16.023,8.088,3.745,2.794,3.389,-11.856,10.177,7.293,6.802,5.756,56.092,61.913,40.255,31.825,24.696,60.592,171.878,90.919,66.031,51.564,21.519,431.328,219.759,138.854,122.006],[-36.793,0.321,2.425,1.469,1.931,-30.754,7.914,6.275,2.923,2.975,-27.161,10.871,8.54,7.249,4.982,26.748,68.424,43.469,31.429,24.683,14.582,158.876,95.806,65.172,50.87,-26.172,379.609,204.546,147.77,113.752],[-48.751,-1.231,0.63,1.228,1.479,-40.567,1.231,4.655,4.572,3.938,-31.204,11.698,8.765,7.287,4.749,-14.462,59.879,46.494,30.339,24.717,-11.671,142.762,85.42,72.245,51.665,-37.19,303.199,247.942,156.488,113.77]],
"ve": [[1.992,2.372,-0.888,2.275,2.223,6.634,1.483,-0.237,-2.718,-0.6,9.962,1.685,-1.619,-3.269,-6.184,43.569,13.906,-1.255,-11.551,-18.051,93.166,33.098,8.131,-7.328,-18.171,186.35,79.76,35.933,10.453,-6.053],[0.526,-0.137,0.594,0.29,0.12,6.145,1.65,1.32,1.024,0.823,10.735,4.515,2.699,1.371,1.231,50.497,23.251,13.941,9.35,5.31,101.313,48.002,29.018,19.571,12.719,202.497,97.466,61.405,42.132,29.055],[2.279,0.58,0.592,0.182,0.032,6.873,2.073,1.5,1.259,0.781,11.24,4.79,2.889,2.009,1.529,50.126,25.005,15.662,11.028,8.332,99.537,49.245,32.464,22.85,17.17,198.12,98.98,64.147,46.741,35.574],[-2.929,0.835,0.718,0.224,0.064,7.481,3.023,1.661,0.894,0.676,11.027,5.075,2.966,2.279,1.564,52.338,24.713,15.883,11.599,8.973,96.701,50.138,32.364,23.921,18.332,196.148,99.642,65.847,47.725,37.905],[1.775,0.814,0.297,0.133,0.123,6.112,3.064,1.748,1.361,0.929,15.791,5.542,3.459,2.167,1.66,16.799,25.065,16.052,12.137,9.455,98.915,50.086,32.801,24.457,19.013,198.337,100.398,65.288,48.896,38.635],[7.234,0.562,0.292,-0.071,0.027,6.592,2.876,1.81,1.379,0.915,11.707,5.103,3.039,2.597,2.016,49.716,25.488,16.61,11.768,9.665,100.091,49.476,32.565,24.867,19.495,202.238,100.369,66.85,49.378,39.336]],
"kep": [[1.033,-0.673,5.11,2.548,2.585,8.002,8.55,8.623,11.359,8.284,16.061,16.651,17.562,16.614,19.827,88.974,72.728,80.545,90.811,97.688,168.569,148.995,149.529,174.125,195.522,306.652,293.017,312.006,346.194,383.723],[-4.982,3.794,1.709,1.172,0.814,3.037,3.954,4.924,2.31,2.056,8.244,7.872,7.136,5.735,4.342,64.509,36.467,28.611,25.092,24.45,116.772,73.748,55.395,49.065,48.939,72.731,154.656,114.309,99.957,95.043],[-6.491,-0.305,1.363,0.698,0.674,-12.885,4.443,4.334,2.585,2.74,-4.026,7.362,6.341,5.662,4.301,37.527,33.015,23.47,19.665,17.411,55.39,65.447,47.321,37.909,35.217,-49.655,141.5,89.334,71.472,66.605],[-27.596,2.134,1.843,1.51,1.22,-21.766,4.9,2.088,1.908,2.723,-20.426,4.97,4.242,4.455,4.16,3.021,29.795,21.038,18.102,14.445,-19.624,80.442,44.099,33.896,28.057,-56.726,162.46,91.987,61.385,60.829],[-37.969,-0.427,2.173,1.353,1.819,-34.659,4.718,4.554,1.586,2.051,-34.942,5.111,4.986,4.997,3.279,-16.612,34.489,23.604,17.219,13.914,-43.212,71.52,47.221,32.64,26.713,-72.926,136.136,83.352,65.984,53.941],[-50.77,-1.793,0.349,1.319,1.457,-44.905,-1.451,2.805,3.178,3.011,-38.585,6.306,5.554,4.617,2.702,-43.047,27.118,25.596,16.593,13.723,-55.229,61.227,39.523,37.823,26.875,-77.77,98.433,107.033,71.168,53.121]],
"vp": [[-177.444,96.997,-94.252,-190.247,44.06,18.88,4.04,9.503,20.195,2.921,19.438,12.671,1.446,14.166,1.624,8.874,10.845,12.185,16.467,3.787,9.537,9.248,5.147,3.98,5.388,5.332,12.416,12.641,9.301,5.029],[1203.208,35.359,57.833,-148.966,-98.509,246.644,2.39,16.371,13.432,1.324,163.09,46.809,14.31,20.306,28.036,52.564,12.542,12.077,5.117,12.763,27.694,14.903,13.303,9.186,13.928,17.031,17.739,17.217,12.768,9.094],[3735.76,466.138,115.626,-85.158,80.571,699.718,119.764,19.17,45.133,41.609,353.157,62.418,44.467,21.615,22.007,94.004,24.784,23.588,10.029,15.422,50.427,21.303,20.153,15.91,19.056,28.647,18.854,9.042,8.526,12.445],[5485.998,920.991,219.342,170.672,-161.508,1135.721,135.251,15.075,49.188,-6.61,553.469,128.382,30.412,21.369,30.716,117.755,30.022,21.406,18.261,5.749,64.869,44.227,19.898,21.007,11.332,33.024,30.482,22.992,6.337,25.375],[7239.125,1686.131,410.89,-201.045,271.502,1452.415,318.996,91.314,6.274,-2.714,753.416,192.97,66.229,-3.44,21.715,141.986,63.179,27.615,21.283,11.858,72.305,49.133,29.599,16.652,16.361,34.063,35.983,10.713,17.548,16.886],[8379.292,2764.687,384.594,-115.73,-85.706,1555.438,640.465,136.94,-12.792,-42.666,826.92,370.75,46.575,38.919,22.116,153.954,91.298,42.353,14.428,11.113,79.596,46.614,19.069,43.233,21.772,40.557,56.883,40.316,25.015,20.52]]
}