{
"KTrans": [[7.561,6.199,5.633,6.363,4.499,5.999,3.486,4.059,5.266,4.644,2.201,5.892,3.93,4.671,6.845,13.936,10.107,7.999,10.289,8.103,18.883,10.474,15.796,12.662,15.719,35.897,16.301,24.67,19.737,18.667],[-21.48,-4.137,0.586,1.039,4.139,-22.557,-5.015,-0.705,1.003,1.944,-25.803,-3.691,1.059,2.291,3.442,-28.816,-3.568,2.244,5.027,4.221,-19.66,2.119,2.023,6.228,7.015,-19.805,5.312,8.588,9.598,9.557],[-56.953,-12.241,-7.173,-2.962,0.294,-57.418,-15.442,-3.682,-1.347,1.673,-59.235,-12.677,-5.388,-1.418,-0.282,-53.906,-14.724,-3.08,-1.539,0.873,-52.486,-16.392,-4.152,2.607,2.291,-48.688,-13.004,-3.355,2.776,4.077],[-80.127,-26.023,-13.595,-6.546,-3.67,-78.583,-27.022,-12.673,-7.338,-3.952,-79.683,-32.263,-12.807,-6.358,-3.465,-76.458,-29.374,-12.614,-6.448,-3.013,-75.163,-33.636,-11.41,-5.021,-2.281,-68.303,-34.768,-10.775,-5.675,0.744],[-88.677,-34.967,-19.924,-11.653,-7.347,-89.695,-41.408,-23.762,-11.771,-8.051,-87.888,-39.718,-20.509,-14.369,-5.878,-87.406,-40.949,-23.458,-12.144,-7.299,-85.63,-44.074,-24.056,-13.134,-5.991,-79.224,-47.002,-21.432,-13.133,-4.923],[-91.53,-49.221,-26.261,-17.623,-12.779,-91.594,-54.946,-31.994,-18.386,-11.697,-93.222,-55.227,-30.111,-19.789,-11.821,-89.761,-54.792,-33.842,-18.887,-13.447,-87.697,-50.913,-32.65,-20.748,-12.362,-87.013,-59.19,-37.898,-19.39,-13.025]],
"ve": [[1.921,3.817,7.065,9.277,16.743,3.372,5.569,8.547,12.331,23.68,3.121,4.171,8.884,13.935,14.86,7.945,6.295,8.604,10.169,16.926,11.764,8.995,9.17,10.964,7.467,24.744,15.216,22.362,-6.934,76.195],[-9.451,-1.575,0.355,0.979,1.361,-10.638,-0.849,-0.318,1.138,2.007,-9.49,-0.742,0.421,1.058,1.933,-7.982,0.475,1.807,2.385,2.355,2.632,4.444,2.577,3.248,3.079,9.211,10.819,7.397,6.371,5.608],[-31.654,-5.519,-1.793,-0.67,-0.1,-29.48,-5.728,-1.23,-0.665,0.739,-27.833,-4.787,-0.919,-0.147,0.062,-21.255,-3.457,0.622,0.425,1.129,-19.413,-1.992,0.949,3.077,2.282,1.083,5.023,3.787,4.273,3.929],[-49.949,-10.935,-4.173,-2.406,-0.941,-48.927,-10.721,-4.678,-2.323,-1.459,-50.525,-13.172,-4.543,-2.016,-0.762,-44.273,-9.765,-3.548,-1.689,-0.263,-40.06,-9.272,-1.177,-0.166,1.024,-17.213,-6.529,1.673,0.944,3.688],[-44.068,-15.846,-7.551,-4.349,-2.667,-60.488,-18.852,-9.349,-3.966,-2.363,-59.923,-17.885,-8.059,-5.309,-2.046,-47.903,-16.39,-8.136,-3.253,-1.607,109.362,-16.627,-6.507,-2.766,-1.017,-29.16,-13.445,-1.049,-0.077,1.71],[-67.256,-23.639,-10.437,-6.599,-4.301,-63.179,-27.707,-13.187,-6.265,-4.092,-52.741,-26.97,-11.891,-7.363,-4.142,-59.845,-24.842,-12.828,-5.693,-4.428,-48.425,-20.647,-11.048,-6.165,-2.635,-38.843,-22.46,-10.465,-3.395,-1.426]],
"kep": [[-5.687,-6.692,-8.774,-8.511,-13.895,-7.919,-9.864,-10.102,-12.157,-13.89,-12.146,-7.321,-11.428,-12.018,-9.493,-6.011,-5.935,-8.403,-5.607,-8.722,-5.701,-7.793,-0.872,-3.023,3.309,-6.316,-8.306,2.249,1.682,2.659],[-25.859,-12.661,-9.845,-9.899,-7.463,-25.657,-14.037,-10.366,-10.077,-9.938,-28.462,-13.011,-9.466,-8.89,-8.59,-32.099,-14.107,-9.651,-7.654,-8.283,-32.437,-12.641,-10.625,-7.478,-6.516,-37.512,-15.839,-9.507,-7.549,-6.729],[-50.197,-17.054,-15.081,-12.135,-9.639,-52.661,-20.022,-12.449,-10.7,-9.167,-53.055,-18.408,-14.309,-11.215,-10.309,-52.036,-21.431,-13.59,-11.804,-10.244,-53.84,-23.916,-14.781,-10.519,-10.063,-58.088,-26.835,-16.712,-11.582,-10.057],[-70.869,-27.632,-19.084,-13.923,-12.516,-69.429,-28.215,-17.937,-14.713,-12.296,-69.965,-31.214,-18.067,-14.059,-12.512,-70.22,-31.086,-18.919,-14.547,-12.52,-71.817,-35.429,-19.709,-14.602,-13.015,-71.549,-38.888,-21.614,-16.281,-12.756],[-82.471,-32.58,-22.682,-17.091,-14.376,-82.556,-37.102,-24.895,-17.513,-15.321,-80.913,-35.974,-22.772,-18.792,-13.59,-81.349,-38.843,-25.721,-18.474,-15.303,-80.474,-41.766,-27.617,-19.795,-14.628,-79.563,-46.387,-29.069,-22.002,-16.05],[-85.654,-43.046,-26.685,-20.905,-18.095,-86.472,-46.128,-30.132,-21.913,-17.245,-88.149,-47.083,-29.305,-22.325,-17.296,-85.698,-48.641,-32.551,-22.879,-18.578,-83.874,-46.754,-32.852,-24.294,-19.194,-86.933,-55.025,-38.449,-25.458,-20.783]],
"vp": [[-188.608,-189.158,-156.335,-231.686,-150.638,6.489,-2.183,-30.693,-30.112,-21.647,-11.573,-6.987,1.91,-7.037,-25.203,-4.179,-4.425,-3.996,-6.607,-1.553,-0.534,0.691,-2.045,-0.511,-4.109,-1.534,2.49,-2.437,0.631,1.017],[1025.423,369.721,-100.823,66.839,-360.105,239.042,45.764,40.663,11.134,-7.907,121.735,30.296,-5.232,-6.349,-26.668,28.158,7.384,-1.224,-7.649,-3.326,6.554,0.3,3.184,-1.794,-2.101,5.325,-1.714,-0.831,-1.332,-0.78],[3472.391,1028.808,527.766,310.085,-30.958,678.906,220.828,50.22,63.776,-85.357,328.261,92.524,27.742,12.111,17.468,59.324,21.154,2.959,5.354,0.653,32.16,14.622,6.058,-4.136,-1.497,14.01,3.843,3.848,1.034,1.124],[5668.818,2223.395,1238.822,788.408,429.302,1093.576,453.931,263.585,158.517,118.496,562.358,287.578,136.428,70.787,34.428,108.227,51.638,27.845,19.196,8.011,51.153,29.869,12.489,8.805,3.456,19.75,17.875,6.106,7.083,-1.246],[6785.254,3300.047,2228.055,1493.391,1125.792,1355.818,804.344,587.306,293.991,220.118,684.771,389.136,244.428,208.219,78.57,132.936,80.154,59.51,34.386,22.184,63.41,44.874,29.057,19.695,12.44,25.621,24.807,10.259,9.106,4.009],[7380.173,5073.84,3190.428,2586.422,2025.085,1432.227,1212.66,809.946,518.22,373.845,756.436,586.115,374.24,297.668,195.251,138.283,117.172,90.977,53.678,50.292,61.972,54.953,43.992,34.004,21.318,32.125,34.546,26.761,15.159,13.085]]
}