{
"KTrans": [[-41.33,-65.214,-64.68,-73.684,-71.875,-29.767,-53.135,-55.347,-48.836,-63.478,-22.71,-49.427,-35.921,-35.729,-37.284,28.065,-7.162,6.971,11.654,13.97,14.851,15.99,22.279,67.931,70.404,65.415,159.41,106.639,75.195,160.687],[-54.204,-43.648,-47.049,-53.02,-59.601,-50.494,-37.717,-37.617,-44.488,-44.834,-54.199,-30.231,-21.597,-30.985,-31.704,0.673,-11.728,0.778,-17.784,-25.208,32.772,21.416,-17.142,-7.721,6.515,0.374,-26.236,-16.087,36.856,12.857],[-65.618,-48.94,-42.349,-43.857,-45.928,-57.972,-41.862,-35.613,-35.894,-29.686,-60.895,-35.597,-34.526,-33.39,-29.059,-42.635,-27.996,-17.095,-14.667,-0.627,-9.765,22.736,17.757,9.411,-0.238,-8.947,-0.295,36.357,-22.92,2.856],[-70.74,-43.355,-43.524,-50.37,-45.691,-68.99,-33.936,-41.916,-33.696,-46.836,-71.062,-38.015,-43.811,-31.467,-32.907,-50.407,-22.042,-32.523,-18.922,-15.205,-39.929,-1.777,-3.852,-2.169,9.192,-32.44,10.739,35.927,28.463,14.383],[-78.178,-48.02,-40.254,-42.591,-49.733,-76.551,-41.85,-36.969,-38.909,-32.511,-77.253,-37.279,-29.971,-34.767,-28.841,-61.491,-32.789,-23.146,-27.656,-26.49,-47.562,-8.955,-13.669,-15.206,-10.336,-39.456,-1.82,34.327,29.193,51.683],[-83.193,-51.52,-35.578,-36.244,-42.182,-82.575,-46.492,-40.012,-46.315,-38.757,-81.349,-44.586,-38.321,-31.627,-26.325,-78.169,-42.988,-32.928,-20.721,-27.491,-64.507,-21.722,-9.91,-18.203,-18.021,-45.445,-15.973,27.257,38.597,40.592]],
"ve": [[-37.211,-13.606,16.252,66.142,-0.668,-27.725,-31.649,-9.568,-1.445,-50.935,-82.385,-61.639,-17.735,-33.02,-153.713,51.69,-15.78,35.152,-17.577,234.292,-1853.762,59.072,-18.687,-78.774,-65.487,55.244,64.963,-14.617,-18.746,-54.776],[-96.497,-63.989,-47.324,-23.614,-26.576,-83.543,-61.032,-38.162,-29.497,-23.232,-87.992,-45.488,-20.55,-4.509,-54.383,28.891,-26.66,3.88,-6.445,23.905,144.171,24.772,-0.297,25.096,34.105,130.819,61.608,26.09,29.796,-11.508],[-74.334,-111.023,-73.309,-52.575,-48.103,-46.472,-101.274,-59.667,-47.729,-29.337,-83.897,-76.444,-57.395,-43.174,-28.909,-0.633,-75.778,-38.208,-22.25,-7.424,135.048,44.336,6.209,-1.182,5.629,23.23,89.581,50.863,25.978,7.753],[-49.875,-114.96,-96.66,-87.634,-64.876,-28.714,-67.026,-98.673,-56.425,-67.865,-9.969,-91.398,-97.181,-54.782,-47.604,95.749,-72.287,-80.981,-30.934,-25.273,171.901,33.82,-42.115,-17.054,10.689,154.596,225.052,119.344,40.926,77.397],[-29.401,-111.8,-110.247,-90.614,-89.304,-1.363,-109.213,-90.937,-84.569,-56.035,-11.017,-97.508,-72.476,-76.203,-51.537,100.756,-84.961,-56.984,-64.371,-52.167,240.357,-2.54,-55.336,-48.913,-28.406,199.522,26.081,98.04,71.529,117.358],[-17.715,-110.506,-100.03,-85.924,-87.835,-29.347,-112.758,-118.552,-118.779,-84.211,-2.52,-89.704,-118.729,-85.209,-54.627,9.771,-70.81,-106.019,-52.673,-59.129,55.867,-22.717,-35.545,-42.483,-42.031,195.991,168.357,38.977,37.483,54.579]],
"kep": [[-109.442,-9.738,5.99,2.355,1.35,-111.295,-10.341,-8.042,5.747,-11.156,-112.901,-1.825,0.656,-1.338,-9.099,-93.83,-33.655,-12.893,-21.731,-24.748,3.894,-80.648,-38.825,-69.9,-64.635,83.44,-174.883,-129.151,-88.837,-158.884],[-35.663,-17.144,-135.399,3.296,-7.02,-36.019,-10.875,-119.065,8.107,-4.647,-41.4,-15.988,-104.918,-3.89,-3.039,-43.411,-18.336,-79.404,-24.539,-1.727,-49.08,-15.76,-14.436,-55.868,-33.93,-37.153,-24.609,55.757,-125.959,-68.014],[-55.838,-7.43,-3.869,-6.974,-124.119,-58.707,-2.316,-1.47,-9.836,-113.4,-51.963,-7.886,-2.167,-11.705,-109.705,-62.961,-5.141,-3.919,12.354,-92.638,-64.862,-26.946,-11.074,2.652,-21.737,-49.79,-30.33,-2.967,3.099,61.097],[-67.376,-8.11,-2.298,-0.612,2.507,-70.641,-13.512,0.625,-2.45,1.674,-77.615,-11.312,-2.014,-1.767,1.442,-77.587,-10.917,0.663,-4.985,-2.793,-79.072,-44.036,-2.67,-7.809,-21.366,-67.077,-64.028,-40.005,-6.241,-54.288],[-78.118,-21.791,-1.34,-0.826,-0.664,-83.463,-15.855,-7.586,-1.139,-3.489,-81.049,-15.669,-6.699,0.951,-0.262,-82.724,-27.781,-7.201,-2.234,-0.611,-82.801,-34.505,-19.641,-2.682,-6.148,-76.816,-42.343,-33.831,-34.023,-67.697],[-86.652,-29.28,-5.61,-4.701,-2.876,-85.515,-25.861,-5.072,-2.471,-0.098,-87.893,-28.326,-6.98,-0.743,-1.046,-83.174,-40.995,-7.31,-1.403,-0.879,-77.433,-42.855,-19.988,-9.944,-7.121,-80.04,-64.159,-23.107,-9.911,-8.894]],
"vp": [[228.482,-27.885,-108.055,-107.847,-235.557,23.88,-9.106,-40.934,-25.221,-62.136,-45.651,8.454,6.024,19.246,-11.117,-8.399,5.681,2.687,2.562,-7.413,-16.436,20.805,15.87,-11.163,-20.279,-15.84,-1.421,4.907,23.113,-12.815],[1178.259,400.065,64.272,53.771,-121.994,257.835,20.308,-12.581,-19.034,-9.317,120.782,-1.25,-11.671,-14.232,-2.955,16.461,-16.582,-0.418,-5.378,16.666,-20.003,-18.837,11.541,14.458,-5.979,-17.545,-19.343,-0.904,-0.308,12.469],[3422.843,592.844,145.319,114.839,-60.047,603.89,20.193,56.44,33.789,-2.496,231.981,85.146,26.883,-13.181,-13.871,61.617,-3.949,-6.583,-37.754,-10.2,0.502,-17.569,-24.698,-34.711,-6.716,-15.176,-10.769,-40.449,-22.025,-11.91],[3951.771,1301.212,491.038,39.252,52.964,834.783,374.021,24.116,112.544,-19.274,549.97,136.439,21.683,22.535,2.065,64.799,-3.289,10.962,6.228,1.744,24.877,11.561,-25.385,-13.107,2.941,-4.902,2.718,-38.358,-35.384,-24.621],[5145.897,2389.618,657.574,460.746,46.471,1153.009,439.324,166.013,108.898,82.88,579.114,153.91,117.527,36.639,43.832,78.888,48.84,26.103,-14.223,-20.554,10.285,-15.601,2.913,-16.524,8.693,18.201,-10.015,-35.37,-9.155,10.005],[5769.943,3465.771,1506.821,1191.684,427.627,1127.972,576.476,377.208,84.896,103.017,611.727,325.923,106.88,54.77,56.605,96.59,87.294,6.921,27.303,1.139,7.038,-10.414,14.945,11.749,-7.98,-10.077,18.031,-30.057,-19.268,-11.442]]
}