{
"KTrans": [[23.309,9.087,20.031,17.775,19.893,16.896,13.741,18.067,25.029,15.248,12.49,26.355,22.68,23.181,23.841,38.494,42.649,38.346,41.927,30.347,80.987,73.538,49.265,52.238,63.173,-39.427,127.476,140.285,100.426,104.778],[-53.395,-0.623,5.054,4.152,6.31,-37.326,-2.136,0.877,4.172,9.592,-45.172,-6.823,6.634,7.81,10.748,-31.861,13.301,11.254,16.952,15.709,-31.383,16.768,18.889,24.976,26.75,-7.706,22.841,37.204,39.716,41.796],[-74.411,-21.101,-11.072,2.448,-0.2,-73.85,-24.032,-11.881,-4.82,-0.416,-73.52,-20.101,-8.897,0.402,2.678,-60.083,-29.693,-7.308,0.675,5.368,-50.242,-5.889,-4.433,2.624,9.545,-70.612,-30.702,3.552,19.649,28.192],[-81.184,-45.128,-23.65,-18.733,-8.54,-85.986,-46.101,-26.958,-13.198,-8.931,-85.57,-50.199,-25.828,-15.52,-7.166,-80.002,-45.354,-27.819,-13.525,-1.611,-71.782,-50.25,-23.096,-9.856,2.017,-73.376,-42.8,-22.118,4.451,9.108],[-89.703,-59.777,-36.656,-25.74,-17.234,-87.536,-63.341,-38.505,-23.421,-17.785,-86.097,-58.133,-35.408,-28.238,-16.976,-84.694,-52.369,-34.403,-19.994,-13.837,-77.028,-45.028,-30.772,-18.014,-13.798,-81.519,-91.529,-23.377,-15.067,1.785],[-90.834,-73.247,-48.88,-37.278,-26.537,-90.133,-70.683,-46.684,-34.99,-26.351,-91.404,-71.1,-46.799,-37.506,-24.816,-83.521,-66.319,-45.216,-33.198,-25.356,-81.356,-60.168,-40.589,-32.392,-23.706,-92.162,-78.812,-46.863,-30.861,-20.169]],
"ve": [[12.125,81.964,17.175,-190.46,0.507,16.967,28.725,-30.728,-6.567,21.282,2.189,-98.452,-236.194,-38.053,44.348,20.597,-57.227,45.925,55.238,-83.872,38.168,103.699,7.758,-6.752,-56.861,85.302,36.809,14.708,6.068,-15.127],[5.935,1.086,2.726,5.455,8.822,-0.947,2.36,2.772,4.554,7.598,-15.574,-1.04,1.338,4.197,8.47,-5.142,10.09,9.098,8.463,12.1,20.658,19.207,9.301,24.234,24.592,102.53,43.041,24.473,5.665,2.016],[84.14,-8.335,-2.81,0.019,0.402,-37.124,-7.355,-2.499,-0.899,2.046,-30.692,-9.314,-2.854,0.515,0.66,-18.799,-5.338,2.37,3.381,5.997,6.726,0.573,10.816,7.202,9.402,28.141,21.117,-115.126,12.236,12.796],[-40.161,-13.273,-7.566,-6.859,-3.327,-76.808,-64.368,-9.101,-4.475,-1.413,-35.686,-29.228,-7.765,-5.196,-2.061,-12.671,-9.892,-6.26,-0.99,2.392,-8.133,-3.757,2.757,2.849,4.971,25.064,24.622,13.411,7.437,-27.747],[-46.525,-24.655,-14.332,-9.34,-6.775,-35.059,-22.098,-13.541,-8.296,-6.324,-45.331,-20.951,-12.945,-9.568,-4.954,-27.448,-14.117,-9.445,-3.787,-3.048,13.771,3.274,-3.145,1.59,-1.906,60.75,12.421,14.864,-35.465,12.788],[-50.112,-67.691,-18.4,-12.703,-9.272,-31.988,-19.202,-23.2,-12.906,-9.983,-70.263,-19.201,-17.704,-12.411,-8.926,-7.747,-22.797,-13.043,-7.439,-6.249,22.075,0.503,0.871,-5.858,-2.066,13.054,-4.95,8.648,-3.28,-1.549]],
"kep": [[-30.274,-31.994,-23.741,-32.966,-37.048,-28.805,-34.703,-29.341,-22.565,-43.36,-36.89,-18.359,-26.341,-25.646,-27.331,-32.297,-15.038,-15.698,-13.254,-28.25,-30.594,-24.387,-28.448,-20.447,-0.608,9.969,-9.044,11.355,-12.345,-8.815],[-66.435,-29.533,-25.516,-27.269,-27.956,-58.542,-31.292,-28.939,-27.145,-25.239,-63.038,-31.716,-23.244,-24.558,-24.912,-63.251,-29.949,-26.221,-21.628,-23.944,-68.737,-38.909,-28.066,-22.934,-20.065,-57.967,-40.15,-38.005,-31.415,-23.172],[-81.937,-39.883,-34.044,-25.928,-27.968,-83.355,-42.221,-34.809,-30.533,-29.289,-81.497,-41.267,-32.822,-27.894,-26.272,-77.079,-51.868,-35.517,-30.057,-28.251,-72.499,-50.85,-39.592,-31.573,-28.341,-71.697,-46.793,-54.192,-37.364,-26.517],[-86.116,-55.42,-41.54,-37.247,-31.737,-89.884,-55.923,-42.78,-34.434,-33.328,-90.524,-59.275,-42.975,-36.118,-31.628,-85.525,-61.982,-45.184,-37.302,-31.024,-82.581,-69.07,-50.064,-38.311,-31.072,-77.932,-58.861,-56.995,-44.782,-36.142],[-93.08,-64.96,-48.263,-41.324,-36.247,-91.708,-67.107,-49.938,-40.125,-36.85,-90.266,-63.308,-47.878,-43.44,-37.079,-89.915,-65.133,-50.351,-40.898,-36.721,-85.712,-67.872,-54.384,-43.447,-38.348,-84.127,-75.759,-53.911,-52.533,-38.341],[-92.912,-74.874,-56.008,-49.065,-41.688,-92.05,-73.804,-55.869,-46.912,-41.111,-94.337,-74.412,-55.034,-49.011,-40.738,-90.542,-74.876,-57.042,-49.004,-42.991,-89.878,-75.836,-61.062,-50.639,-45.06,-86.773,-74.71,-61.861,-61.09,-51.129]],
"vp": [[-580.238,189.489,-291.721,-250.044,-817.903,-99.958,-91.756,-122.37,-232.804,-37.371,41.221,-82.415,-69.627,-75.782,-86.078,-12.048,-38.552,-22.868,-33.348,-15.047,-22.167,-22.17,-7.099,-20.398,-30.155,-16.798,-29.766,-36.304,-18.371,-19.014],[3236.477,397.951,-499.648,-96.64,-465.087,415.045,-14.866,53.293,-8.116,-98.471,327.054,132.751,-8.086,-55.099,-77.584,33.416,-21.708,-21.872,-17.375,-24.601,-7.924,-9.384,-5.623,-24.171,-32.217,-31.059,-28.76,-3.734,-4.618,-12.113],[5350.482,1461.75,884.542,-738.995,235.537,1010.281,481.011,183.325,133.792,-87.143,484.147,193.588,78.379,-54.343,-12.519,38.255,60.701,12.796,-7.957,-25.549,12.817,-4.45,11.111,24.722,-9.453,15.02,4.474,1.243,-6.534,-23.77],[5851.209,3653.356,2908.255,3106.116,1376.287,1379.267,872.129,604.538,376.212,142.158,692.034,567.818,314.292,226.429,75.565,70.943,109.673,71.742,36.425,-22.558,44.106,43.008,29.04,12.864,-2.607,3.549,-1.948,5.295,-3.412,-9.727],[6510.872,7067.838,5497.605,3798.558,3340.651,1334.128,1494.48,1075.201,755.037,588.024,611.852,632.357,444.77,449.107,252.691,110.855,116.477,88.751,49.785,54.813,26.841,18.93,47.482,13.305,44.527,-8.116,13.393,-5.329,16.261,-18.021],[5738.255,9473.718,7106.517,5940.56,4627.956,1228.977,1737.643,1374.263,1120.117,1127.174,664.246,862.223,687.772,553.939,491.421,70.086,146.101,125.594,91.744,91.058,12.26,31.782,36.572,59.866,36.635,25.201,44.793,8.316,20.342,31.495]]
}