{
"KTrans": [[-8.318,14.414,2.081,9.751,-7.862,6.812,14.436,7.194,9.414,7.676,4.858,21.546,25.445,22.393,19.507,20.762,60.819,84.813,85.246,89.144,-5.534,-3.607,76.435,97.923,133.597,-349.957,10.444,-86.004,54.429,93.369],[-38.762,-10.639,-0.692,7.21,6.255,-36.185,-12.44,2.753,7.974,5.312,-31.016,-4.014,2.026,11.175,9.337,2.336,16.524,10.488,26.052,31.881,-54.087,20.637,-17.946,13.264,44.451,-138.738,-52.244,-53.259,-74.78,5.004],[-52.667,-19.81,-8.56,-5.329,0.383,-53.37,-12.583,-3.378,-5.176,1.18,-45.233,-13.025,-1.162,-3.055,1.834,-24.452,22.338,23.057,16.64,4.474,-54.261,42.829,69.013,21.415,-17.083,12.159,-10.929,-22.332,-30.553,-34.825],[-64.173,-21.446,-9.985,-3.514,-4.85,-62.844,-19.532,-2.945,-1.744,-1.309,-51.796,-17.043,-2.136,1.322,4.742,-35.069,14.826,23.994,27.74,21.702,-46.797,24.339,41.273,26.616,32.882,3.544,44.497,110.763,-8.629,16.41],[-66.87,-25.706,-12.815,-5.379,-3.193,-70.456,-21.677,-5.679,-1.154,-0.132,-65.272,-19.835,-6.754,4.938,1.482,-60.403,0.058,27.73,22.671,21.997,-26.966,-17.12,39.435,44.34,53.737,-71.184,-0.463,35.502,46.915,40.016],[-75.001,-34.424,-10.068,-4.456,-4.23,-70.524,-29.584,-6.27,-3.485,-3.284,-68.679,-26.922,-3.551,-0.332,2.644,-71.676,-11.285,18.6,27.544,25.853,-32.735,17.706,52.922,50.434,49.159,-101.445,-59.85,52.914,77.552,79.72]],
"ve": [[-25.186,-125.729,19.257,-71.521,-25.952,28.533,-32.928,156.069,-51.797,-63.131,-35.533,-1.808,-48.73,-55.495,-17.85,80.333,1.084,-29.864,-181.868,-38.582,89.773,2.346,-14.876,-46.722,44.023,194.981,56.356,29.007,-6.913,-15.954],[-54.269,1.57,-0.164,5.341,-12.195,-3.096,5.774,3.411,-16.843,-425.639,-0.17,11.481,1.201,53.262,7.828,43.688,17.388,5.993,34.835,-12.435,109.21,49.668,32.394,18.838,25.658,186.675,-39.913,69.562,45.003,22.191],[-8.71,-11.39,-5.48,2.005,-0.978,-32.344,-1.685,-77.565,-4.589,57.707,1.937,-8.74,-77.651,-7.049,1.671,46.289,-10.772,4.981,16.245,11.635,104.144,52.043,83.895,24.01,18.114,209.074,99.54,65.422,50.724,49.001],[0.564,-3.432,-3.371,-4.961,-7.431,11.72,-0.677,-1.146,2.458,1.963,-18.114,0.613,0.537,-1.86,-2.686,28.724,21.681,13.528,9.334,4.805,86.588,49.876,30.817,25.463,17.288,269.155,93.977,69.625,49.938,40.966],[-12.421,-5.16,-2.707,-1.652,-1.863,-18.465,0.034,-0.243,0.179,-1.077,2.965,0.467,0.924,1.423,0.161,48.03,20.934,14.682,13.034,9.115,79.066,49.785,29.835,27.005,10.569,61.703,94.546,63.984,56.996,37.816],[245.251,-4.473,-1.082,-1.508,-1.768,-63.585,1.419,-0.636,0.378,-0.815,-18.828,-2.318,1.99,0.729,0.617,44.052,19.947,14.376,11.519,9.892,87.547,47.146,31.822,22.554,18.686,184.04,98.915,68.869,49.835,39.592]],
"kep": [[-132.597,-95.846,-45.227,-72.753,-10.595,-121.931,-84.374,-44.257,-45.76,-34.019,-126.468,-88.683,-80.933,-58.306,-53.49,-165.71,-204.514,-215.134,-201.927,-216.988,-172.156,-355.15,-396.654,-436.057,-397.045,-190.031,-232.135,-630.601,-617.673,-740.255],[-81.727,-84.108,-134.241,-92.918,-32.625,-79.3,-86.736,-118.883,-86.2,-22.752,-75.739,-80.854,-128.822,-106.74,-37.77,-67.62,-69.897,-154.439,-179.412,-98.87,-107.834,-75.04,-186.034,-258.481,-197.066,-111.791,-89.336,-142.819,-313.403,-342.612],[-80.043,-48.946,-42.756,-74.864,-107.135,-79.099,-39.553,-32.869,-78.685,-119.068,-76.451,-41.43,-33.631,-74.343,-126.098,-74.569,-29.093,-24.604,-44.516,-150.98,-86.36,-30.725,12.69,-58.589,-196.642,-68.699,-70.372,-74.436,-100.154,-147.342],[-82.885,-41.243,-24.928,-17.978,-38.029,-86.228,-37.808,-18.596,-17.439,-24.72,-76.142,-38.048,-17.437,-13.45,-16.959,-74.459,-25.97,-2.938,6.779,-8.204,-82.155,-33.025,-12.843,-18.638,-11.85,-68.382,-42.68,18.189,-68.044,-27.511],[-83.504,-41.99,-24.133,-14.971,-14.549,-87.133,-36.854,-16.991,-7.746,-11.414,-85.615,-38.526,-17.89,-1.883,-7.307,-86.944,-35.953,0.294,4.156,13.704,-75.808,-60.015,-6.753,8.402,31.496,-88.582,-56.402,-32.917,-20.342,-11.095],[-88.957,-48.493,-19.231,-11.157,-13.535,-86.096,-45.623,-15.413,-10.49,-11.813,-84.738,-41.27,-13.391,-11.089,-6.033,-90.649,-43.373,-8.45,11.204,15.781,-75.988,-34.683,0.584,14.566,24.222,-96.621,-78.32,-22.609,-0.588,24.069]],
"vp": [[10.33,358.383,328.683,298.038,47.494,-53.207,-85.51,107.412,110.946,11.859,44.206,9.491,-18.535,38.036,31.26,6.313,15.889,14.351,12.239,3.876,-6.728,5.459,22.933,16.846,-11.456,0.165,-5.271,4.072,-6.26,8.241],[2077.342,824.936,-283.428,-363.757,497.953,552.59,141.953,22.772,-66.728,-48.784,284.293,86.384,10.843,-60.477,-28.714,38.799,-6.514,-10.959,-13.968,1.504,20.117,-1.327,-10.178,9.69,-16.815,0.242,-5.165,3.785,2.969,-0.244],[4840.877,3720.537,2013.253,850.692,218.62,875.849,648.397,285.58,212.907,-63.427,533.009,237.886,175.664,76.912,-46.496,90.289,51.691,14.725,3.843,-1.27,32.903,14.111,-7.545,4.581,-4.132,4.747,-9.511,-15.781,-10.27,-2.861],[5982.357,4350.735,2503.545,1561.892,999.8,1323.742,960.585,579.572,16.452,312.374,541.423,469.801,294.554,134.636,130.483,127.32,79.313,1.973,25.028,37.277,43.207,37.432,29.294,-2.706,1.242,-4.238,4.09,-12.692,-6.555,-15.654],[6583.652,7162.262,4311.317,1900.38,1377.856,1413.656,1520.814,844.12,424.614,315.879,746.134,600.114,354.988,196.479,79.726,124.722,163.923,100.003,27.649,8.795,51.551,81.381,17.529,10.031,3.826,13.207,25.276,9.445,-1.451,-7.642],[7624.176,8635.607,5235.903,3001.455,1488.625,1379.719,1633.549,1048.297,593.95,142.142,702.253,885.603,542.763,300.025,263.196,134.82,147.426,98.633,53.379,20.523,61.44,64.262,69.277,15.115,-4.685,24.03,24.676,26.997,27.78,-4.209]]
}