{
"KTrans": [[-48.969,-62.209,-58.972,-64.821,-56.902,-38.234,-49.52,-45.401,-54.245,-47.574,-12.061,-37.271,-44.106,-40.081,-34.216,27.619,12.74,0.255,12.562,5.241,42.767,46.186,26.501,55.255,47.023,56.548,136.438,76.405,152.899,150.313],[-50.708,-45.055,-48.149,-51.8,-49.896,-37.214,-37.562,-26.229,-38.382,-40.044,-39.705,-34.012,-20.451,-35.89,-32.407,-10.32,-0.17,3.881,-15.807,-23.243,20.265,12.208,-4.941,5.109,-5.568,29.39,-10.763,34.418,41.548,15.091],[-58.745,-40.089,-49.403,-42.298,-49.517,-62.095,-40.443,-32.693,-41.544,-31.041,-59.082,-38.734,-27.853,-27.925,-22.59,-38.335,-22.351,-15.746,-1.925,-13.272,-16.085,19.527,26.406,13.481,-3.112,24.12,-0.052,46.565,23.924,-7.398],[-72.099,-43.329,-40.247,-45.619,-42.193,-66.911,-40.414,-36.773,-40.682,-39.366,-69.123,-35.877,-35.105,-35.026,-33.872,-57.866,-27.44,-23.961,-19.054,-10.121,-39.899,3.457,-7.343,4.371,4.868,-7.944,35.284,34.346,53.819,38.099],[-78.942,-43.387,-43.653,-39.763,-37.28,-77.633,-41.725,-44.002,-34.553,-37.872,-73.745,-40.87,-34.272,-31.619,-30.927,-61.152,-33.863,-25.518,-26.56,-18.216,-50.699,-7.396,-5.749,-7.236,-15.409,-34.304,3.069,28.563,49.331,35.876],[-83.44,-47.774,-40.386,-38.02,-40.925,-84.122,-49.326,-38.225,-39.738,-26.785,-82.332,-43.261,-30.773,-31.637,-30.82,-74.126,-42.597,-22.727,-28.435,-22.195,-69.36,-26.992,-20.94,-17.216,-22.155,-57.298,-14.372,29.055,26.209,17.852]],
"ve": [[-43.608,-47.052,-13.947,-57.991,-20.446,-35.908,-14.265,21.703,-12.779,133.28,-13.687,-10.013,-71.915,-4.631,39.834,31.396,-16.539,-25.711,143.06,17.383,81.943,2.324,-543.579,-14.526,-31.095,64.106,268.162,-1.406,-146.747,-39.155],[-90.238,-63.273,-54.329,-37.225,-26.134,-50.88,-59.52,-33.991,-21.607,-19.22,-83.739,-58.149,-20.762,-22.829,-16.431,4.712,-7.599,6.109,-4.606,5.673,79.963,21.956,-0.403,4.563,436.816,175.595,41.061,41.391,36.906,-253.937],[-55.03,-91.412,-81.252,-56.446,-51.664,-52.421,-77.545,-54.64,-46.828,-29.08,-56.247,-92.468,-45.8,-35.426,-29.85,-8.171,-43.822,-36.084,-5.237,-10.393,102.389,18.611,37.503,19.509,-5.272,417.038,129.01,108.702,68.892,-0.81],[-58.155,-122.078,-86.15,-79.435,-60.279,-37.537,-99.6,-78.258,-71.992,-55.215,-18.054,-92.034,-80.076,-64.017,-49.304,8.597,-70.643,-49.901,-38.887,-14.11,108.419,-15.661,-23.258,-0.972,-6.106,183.792,79.615,75.069,106.986,71.935],[-20.672,-103.093,-130.149,-87.741,-63.97,-22.616,-103.584,-123.397,-72.549,-65.581,-24.045,-87.356,-96.087,-68.074,-55.183,89.769,-99.093,-77.814,-66.292,-32.948,160.698,-11.098,-39.121,-37.04,-35.092,320.697,67.361,35.807,68.788,59.376],[-28.132,-85.918,-121.981,-97.195,-86.57,-0.887,-109.874,-109.642,-101.382,-55.917,-9.893,-92.105,-85.016,-77.846,-64.845,0.591,-68.402,-94.991,-72.97,-48.65,63.084,-45.416,-76.867,-67.957,-59.197,94.279,17.177,103.628,53.338,21.424]],
"kep": [[-107.286,13.035,-10.934,-9.865,4.886,-126.451,-14.419,1.073,7.217,-1.109,-129.474,-12.555,-16.009,-2.56,-10.177,-86.807,-40.535,-24.972,-15.653,-14.539,-17.491,-79.639,-33.177,-49.119,-30.241,67.865,-137.158,-114.194,-147.1,-147.168],[-34.533,-14.382,-113.87,4.68,5.8,-29.644,-17.38,-117.563,-1.214,-2.175,-34.039,-6.005,-136.153,0.376,1.852,-40.959,-25.803,-109.171,-21.378,-6.645,-40.187,-24.293,-6.583,-76.227,-21.255,-37.901,-15.116,15.421,-89.086,-65.581],[-53.505,-5.272,-3.567,-14.886,-115.715,-57.682,-12.869,-2.266,-2.295,-118.643,-56.958,-3.253,-0.035,-1.271,-122.694,-56.717,-11.263,-1.858,-21.576,-77.274,-55.483,-24.38,-28.136,-36.519,18.226,-71.569,-42.802,-27.101,-25.97,66.503],[-68.702,-7.91,-3.857,-0.673,-0.202,-66.45,-13.466,-2.8,0.598,-4.002,-74.22,-12.424,-1.972,2.143,2.359,-72.624,-15.755,-6.629,3.802,-9.464,-69.461,-17.864,-11.753,-3.194,-2.076,-66.436,-31.902,-28.527,-37.405,-24.794],[-80.84,-18.686,0.767,-1.505,-4.498,-81.238,-17.698,-1.622,-2.459,-3.891,-74.597,-21.557,-1.031,-2.357,0.923,-83.569,-19.481,-1.301,1.586,-1.934,-80.231,-36.187,-4.333,2.19,-0.282,-81.921,-43.538,-14.439,-15.758,-16.243],[-84.538,-29.709,-5.84,-1.606,-2.154,-88.763,-25.624,-7.424,-3.285,-1.194,-85.875,-25.002,-6.46,-3.611,-2.386,-80.521,-37.423,-2.274,-2.789,-0.477,-80.237,-44.665,-15.989,-1.095,0.426,-74.881,-48.771,-36.001,-26.389,-18.869]],
"vp": [[50.795,129.335,94.853,6.181,-31.704,-56.762,4.987,6.741,9.204,-8.104,-3.924,-21.876,-28.266,-5.309,-29.627,-7.654,-18.487,2.946,-8.089,4.601,-15.741,-11.201,11.898,-4.435,3.732,-8.895,-9.089,16.263,-10.433,-9.459],[1280.775,333.623,-30.768,123.228,-20.304,236.443,40.553,10.261,59.685,-14.724,116.306,-22.775,8.697,-17.732,-8.872,2.225,0.255,-10.872,2.475,-2.047,-13.969,-6.071,-14.273,-7.753,20.412,-9.209,-16.402,-43.785,-10.323,4.594],[2717.242,488.515,261.929,217.2,-185.217,618.422,199.391,39.68,13.845,25.295,295.288,65.227,36.149,10.445,4.756,45.246,-1.7,-12.386,9.334,-0.361,9.577,-26.233,-5.11,-22.568,-16.007,-21.47,-17.88,-24.588,-28.87,-2.363],[3969.165,999.075,588.881,168.225,193.472,786.792,280.936,168.357,17.022,12.862,410.805,59.035,43.132,7.695,4.197,68.806,29.152,11.474,2.538,14.669,-0.88,1.716,-1.737,-6.426,-8.148,-9.447,-7.193,-13.423,-32.587,-24.617],[5285.674,2328.732,543.665,287.647,476.31,1125.57,385.232,113.175,161.686,87.524,483.37,228.985,70.912,29.815,34.187,94.219,49.009,7.837,-0.916,16.105,12.994,0.027,-8.217,-24.765,-5.099,-8.48,-14.12,1.098,-35.088,-23.144],[5356.239,3505.977,1512.481,632.329,460.886,1362.435,766.312,310.68,91.741,173.442,590.421,334.955,162.8,57.168,30.985,66.796,46.149,-5.101,5.471,-3.513,36.096,6.89,18.921,-29.315,-17.298,8.254,-2.819,-33.543,0.249,-9.942]]
}