{
"KTrans": [[3.91,1.596,2.028,1.993,1.623,12.622,7.471,6.668,5.414,5.28,24.824,17.596,13.314,12.184,11.845,155.67,93.781,72.273,68.38,57.448,-50.513,193.622,161.651,153.76,144.103,199.001,75.214,250.915,261,219.636],[-2.405,0.373,1.894,1.182,1.055,12.226,4.359,3.955,3.414,3.116,27.559,10.72,8.565,6.341,5.04,43.565,74.893,45.159,37.147,30.356,-57.594,143.963,102.772,78.473,65.255,36.343,36.072,167.197,158.543,143.39],[-0.174,1.223,0.808,0.492,0.362,7.362,4.171,3.875,2.191,2.233,9.514,9.024,8.311,6.072,4.496,-48.644,70.434,38.279,31.465,26.599,-17.995,-39.611,90.036,64.013,54.626,-50.296,-21.096,97.821,165.915,127.479],[-12.961,2.511,0.228,-0.498,-0.348,-6.837,5.79,3.123,2.744,2.66,-0.73,9.855,5.342,5.851,4.269,-13.256,78.011,41.035,30.177,21.551,-18.254,-33.298,115.889,72.143,51.241,-64.067,-22.899,-117.066,131.957,114.358],[-33.161,1.873,-0.928,-0.366,0.349,-37.943,5.371,4.014,1.911,2.138,-31.162,11.214,6.774,5.892,4.311,-65.635,94.071,38.608,30.488,24.03,-47.845,-68.369,123.851,62.192,51.367,-61.637,22.71,-56.873,115.999,132.284],[-55.176,4.759,-1.06,0.462,0.058,-55.323,4.544,2.696,3.032,2.028,-61.924,11.6,4.366,3.36,3.83,-69.982,38.976,45.952,34.715,22.21,-85.172,-21.767,98.281,68.992,52.976,-67.112,-86.639,-82.095,124.476,139.225]],
"ve": [[1.071,1.716,1.261,0.476,2.128,4.99,1.434,0.261,-0.142,-1.204,11.053,1.26,-1.022,-3.602,-6.377,47.185,13.691,0.655,-10.713,-16.699,93.473,43.626,11.208,-5.416,-16.204,195.29,77.336,34.251,14.893,-21.047],[1.268,0.896,0.02,0.114,-0.07,4.915,3.169,1.399,0.984,0.861,10.276,4.752,3.379,1.908,1.59,51.133,24.903,14.568,9.313,5.771,102.014,48.168,30.573,19.741,12.959,191.281,96.737,67.39,43.008,30.28],[1.639,0.704,0.479,0.434,0.363,6.331,2.427,1.562,1.112,0.91,10.364,5.446,3.456,2.36,1.647,49.937,25.032,15.888,11.681,8.71,97.64,48.982,32.59,23.155,17.551,199.893,99.752,66.401,48.738,36.97],[1.852,0.527,0.461,0.263,0.168,6.322,2.616,1.605,1.361,0.853,12.029,5.402,3.157,2.604,1.715,49.439,25.379,16.156,12.065,9.273,97.518,50.373,33.556,24.448,18.937,193.553,95.555,70.844,48.942,38.225],[2.618,0.364,0.419,0.307,0.265,7.981,2.585,1.743,1.212,0.82,11.367,5.366,3.431,2.451,1.757,50.092,25.571,16.283,12.1,9.61,100.885,52.568,33.004,24.346,19.217,201.023,98.496,65.112,51.483,39.667],[-0.043,1.046,0.258,0.238,0.116,58.543,2.42,1.811,1.238,0.891,4.839,5.108,3.112,2.204,1.679,49.938,26.722,16.736,12.629,9.656,102.174,70.368,33.419,24.519,20.004,205.564,105.015,68.925,50.772,39.909]],
"kep": [[2.493,-0.293,0.846,1.963,0.588,7.011,5.683,6.648,6.173,7.429,12.238,15.85,14.46,16.726,20.102,71.942,69.365,70.385,87.952,88.724,-64.583,108.629,134.719,167.388,191.315,21.235,-0.271,151.878,216.476,208.267],[-4.243,-1.175,1.207,0.395,0.451,6.131,0.529,1.839,1.736,1.578,14.832,4.997,4.316,3.65,2.708,-4.813,38.275,25.662,24.554,22.4,-70.094,61.633,53.37,47.765,45.165,-45.031,-22.324,63.005,78.848,84.739],[-2.88,-0.207,-0.356,-0.643,-0.697,-0.009,1.013,1.563,0.365,0.606,-1.751,2.599,3.966,2.9,2.082,-62.846,34.129,18.248,16.784,15.602,-54.705,-53.966,41.112,31.785,30.404,-76.872,-50.255,19.041,75.265,63.612],[-15.678,1.151,-0.961,-1.464,-1.209,-13.684,2.178,0.738,0.644,1.081,-12.967,3.381,1.367,2.427,1.783,-41.845,39.031,20.151,15.155,10.4,-56.647,-51.144,57.983,36.422,25.904,-83.213,-54.932,-99.238,52.767,52.491],[-35.798,0.479,-2.1,-1.376,-0.636,-42.964,1.654,1.417,-0.042,0.585,-39.185,4.467,2.433,2.617,1.773,-75.679,50.236,17.741,15.291,12.24,-71.16,-73.792,63.277,28.632,25.57,-83.118,-34.312,-65.159,40.245,62.454],[-56.516,2.147,-2.146,-0.521,-0.788,-58.407,0.534,-0.019,0.976,0.397,-65.951,4.541,0.287,0.359,1.362,-77.638,8.016,23.028,18.331,10.477,-89.475,-45.859,44.265,33.27,25.976,-85.995,-86.959,-81.44,45.937,66.564]],
"vp": [[46.256,17.544,94.388,-127.757,67.427,-0.511,25.816,-18.198,16.93,-9.417,12.524,29.071,-10.159,-1.705,13.096,-11.669,-6.635,-0.477,3.695,-25.011,-2.446,13.875,-2.904,4.414,18.738,-20.073,8.97,-12.978,-20.653,8.262],[966.878,299.86,12.896,102.671,143.167,272.743,68.057,23.399,-33.191,22.799,140.675,2.632,19.214,10.277,-16.761,18.457,6.945,-11.861,-7.624,-11.512,10.529,-24.636,-15.269,-3.4,-7.264,-23.92,-27.678,-38.711,-14.467,-8.626],[2919.037,914.759,335.169,94.711,-30.723,541.845,70.602,57.419,-9.068,-42.448,283.434,63.891,28.712,22.632,-12.373,37.725,4.123,-17.125,-5.207,-6.465,-3.779,1.687,-15.437,-25.651,-22.983,-12.257,-26.863,-17.223,-16.15,-11.384],[4126.993,1096.558,657.308,265.89,-44.15,914.845,207.889,113.175,93.352,-10.008,427.064,153.254,-3.678,33.481,34.84,49.305,11.048,-6.05,-4.834,-19.191,-3.277,-6.179,11.802,6.649,-7.332,-11.061,-12.708,-7.285,-35.337,-23.984],[5482.308,2375.523,717.316,284.606,554.47,1152.371,455.924,118.97,81.256,22.031,531.591,145.45,55.238,59.685,3.574,95.614,41.476,-7.408,12.089,5.588,17.154,16.457,-8.811,-12.45,-1.241,9.107,-35.836,-24.092,-15.549,-14.616],[5632.879,4060.949,1342.754,1078.971,506.976,1247.593,593.462,267.569,179.368,142.563,594.426,345.529,85.552,95.257,64.854,86.45,63.467,36.505,18.262,0.641,50.043,24.402,-5.496,-6.644,12.815,2.816,13.156,12.987,-0.201,-6.599]]
}