{
"KTrans": [[57.812,37.513,31.936,30.666,35.408,64.995,36.406,44.284,36.89,47.71,91.606,67.238,57.579,50.927,48.199,298.282,173.764,122.712,109.7,99.61,650.693,315.744,239.605,219.657,200.354,1505.619,759.623,564.33,499.967,484.4],[-65.696,83.482,70.157,52.351,47.705,-55.316,143.518,63.472,57.711,42.282,-70.631,150.847,92.702,61.463,49.828,-21.038,258.246,122.855,106.153,75.551,-10.948,363.048,195.328,152.261,124.776,62.89,781.97,416.515,287.759,243.129],[-126.531,79.695,151.697,87.719,60.685,-139.272,95.833,137.858,91.037,73.137,-141.99,103.814,140.564,101.111,78.553,-168.976,188.646,233.563,129.158,110.152,-172.613,372.734,350.9,182.461,141.74,-277.04,613.013,579.041,347.898,240.569],[-127.337,-146.14,221.823,158.428,94.521,-122.207,-150.335,218.442,177.195,94.794,-135.467,-118.782,191.202,181.3,91.992,-147.246,-177.372,274.163,264.093,122.572,-148.242,-72.574,417.979,312.397,177.394,-298.302,-104.938,744.246,447.851,300.709],[-122.255,-179.553,-86.046,275.023,203.578,-121.283,-168.819,23.421,273.912,133.3,-121.633,-197.041,-54.881,337.024,180.156,-147.259,-246.332,44.83,367.196,201.205,-165.682,-297.233,111.352,488.408,297.381,-178.029,-490.284,100.638,805.801,435.658],[-112.533,-177.882,-226.113,48.462,281.274,-115.393,-191.518,-181.815,142.804,252.145,-117.098,-208.106,-233.164,134.785,362.941,-136.295,-229.091,-163.595,193.091,449.895,-174.667,-305.566,-284.526,261.095,413.328,-217.029,-415.309,-314.665,475.846,529.069]],
"ve": [[8.92,7.307,12.158,-2.944,126.779,6.746,7.672,55.673,0.228,1.95,12.8,4.77,0.201,9.495,-2118.543,50.324,14.954,-0.83,-11.88,-18.452,97.201,33.955,7.256,-7.465,-19.15,197.834,83.709,36.814,11.064,-3.139],[-0.8,1.021,3.073,2.15,2.571,7.557,7.366,2.492,3.569,2.354,33.889,7.465,6.547,3.531,2.556,53.18,29.545,14.659,12.26,5.025,102.613,51.231,29.233,20.129,12.281,199.771,103.076,66.008,42.617,30.625],[3.694,9.813,4.433,3.796,2.055,7.411,4.472,3.354,4.701,3.143,9.593,14.497,5.886,4.76,4.646,45.033,28.031,20.406,12.89,11.217,101.78,57.713,35.595,22.09,18.182,211.467,102.324,68.067,51.13,37.501],[7.265,4.956,4.625,4.48,0.664,7.309,7.598,6.816,4.084,3.149,19.203,12.548,7.355,6.787,1.553,53.671,29.766,18.635,16.068,7.884,120.211,53.506,38.787,25.732,19.584,197.83,100.258,67.786,49.864,40.579],[-61.232,2.788,5.976,1.303,2.903,-252.635,5.114,3.94,7.106,1.441,13.014,7.416,7.252,6.657,4.261,59.922,30.321,21.18,16.047,13.695,102.362,78.374,36.119,27.95,25.28,198.473,104.847,67.405,54.131,41.403],[6.452,5.106,6.021,2.672,3.546,-2.966,10.84,5.742,1.679,3.956,14.494,8.276,5.887,5.704,5.2,47.42,32.403,20.204,16.916,13.34,107,54.988,37.812,28.278,20.615,190.851,103.025,68.76,53.792,42.798]],
"kep": [[45.892,32.295,35.199,41.53,52.36,49.596,29.93,47.843,50.629,74.859,64.07,59.842,63.111,68.208,73.111,159.886,134.031,122.417,135.753,146.449,275.4,204.781,210.201,240.929,267.167,438.498,366.274,382.107,435.758,500.524],[-68.475,69.249,57.505,45.786,42.679,-61.998,115.99,51.556,48.848,36.456,-79.489,120.288,74.751,51.255,44.12,-52.954,166.282,85.132,78.549,60.878,-56.093,192.239,118.15,102.301,93.424,-49.548,322.868,204.397,164.812,156.299],[-124.356,61.305,127.465,72.993,50.284,-130.675,70.327,113.954,74.98,60.9,-132.213,74.203,113.096,81.574,63.754,-140.097,112.045,163.25,92.048,81.484,-133.241,191.859,215.695,117.389,95.856,-152.321,238.569,288.483,186.631,137.916],[-123.821,-138.576,186.319,133.818,79.116,-118.775,-141.826,182.811,149.711,78.49,-128.263,-113.602,155.472,148.871,75.037,-128.202,-153.718,194.033,195.998,89.878,-121.005,-83.24,256.914,206.162,118.623,-160.251,-100.011,375.015,246.903,171.989],[-118.763,-168.552,-85.449,234.999,174.262,-117.431,-157.07,11.209,229.927,112.5,-116.739,-180.932,-57.95,283.525,149.927,-127.696,-205.615,14.44,275.853,151.264,-129.469,-218.332,46.991,333.46,204.588,-124.223,-283.115,17.042,459.127,259.36],[-110.424,-168.255,-209.228,35.568,243.109,-112.033,-177.054,-168.4,117.277,214.503,-112.607,-190.118,-210.575,107.361,307.827,-121.617,-191.881,-145.89,136.688,353.358,-134.895,-224.398,-223.495,166.52,292.578,-136.612,-247.67,-214.47,256.348,319.351]],
"vp": [[0.001,0.001,0.001,0.001,0.001,0.005,0.005,0.005,0.005,0.005,0.01,0.01,0.01,0.01,0.01,0.05,0.05,0.05,0.05,0.05,0.1,0.1,0.1,0.1,0.1,0.2,0.2,0.2,0.2,0.2],[0.001,0.001,0.001,0.001,0.001,0.005,0.005,0.005,0.005,0.005,0.01,0.01,0.01,0.01,0.01,0.05,0.05,0.05,0.05,0.05,0.1,0.1,0.1,0.1,0.1,0.2,0.2,0.2,0.2,0.2],[0.001,0.001,0.001,0.001,0.001,0.005,0.005,0.005,0.005,0.005,0.01,0.01,0.01,0.01,0.01,0.05,0.05,0.05,0.05,0.05,0.1,0.1,0.1,0.1,0.1,0.2,0.2,0.2,0.2,0.2],[0.001,0.001,0.001,0.001,0.001,0.005,0.005,0.005,0.005,0.005,0.01,0.01,0.01,0.01,0.01,0.05,0.05,0.05,0.05,0.05,0.1,0.1,0.1,0.1,0.1,0.2,0.2,0.2,0.2,0.2],[0.001,0.001,0.001,0.001,0.001,0.005,0.005,0.005,0.005,0.005,0.01,0.01,0.01,0.01,0.01,0.05,0.05,0.05,0.05,0.05,0.1,0.1,0.1,0.1,0.1,0.2,0.2,0.2,0.2,0.2],[0.001,0.001,0.001,0.001,0.001,0.005,0.005,0.005,0.005,0.005,0.01,0.01,0.01,0.01,0.01,0.05,0.05,0.05,0.05,0.05,0.1,0.1,0.1,0.1,0.1,0.2,0.2,0.2,0.2,0.2]]
}