{
"KTrans": [[-49.923,23.518,38.435,24.19,33.879,-18.159,22.751,38.925,23.685,27.983,-6.992,63.606,48.498,47.906,37.533,1.228,122.69,118.354,88.835,107.58,165.413,255.615,236.11,182.673,186.221,641.499,714.928,540.56,476.863,436.132],[-83.003,7.22,54.949,47.769,29.297,-81.189,22.205,59.261,44.71,36.027,-80.894,12.294,55.814,51.09,47.297,-75.906,104.442,109.365,80.347,65.961,-18.22,149.415,189.498,117.875,97.764,144.056,360.155,370.574,282.431,213.188],[-95.777,-52.388,38.418,53.891,45.091,-102.918,-49.793,63.087,74.835,69.44,-102.345,-45.003,48.429,85.655,78.285,-97.678,-45.488,155.008,130.614,85.36,-111.613,51.371,180.282,155.307,151.019,-46.751,133.224,344.198,265.215,232.302],[-101.237,-71.509,-4.724,73.341,107.401,-108.396,-87.18,4.986,87.461,102.158,-105.022,-106.969,22.83,83.326,97.973,-113.892,-73.477,65.719,105.676,133.324,-99.155,-73.867,114.754,204.434,178.74,-98.932,-0.544,210.887,272.306,263.589],[-99.909,-111.235,-78.769,28.28,116.969,-107.622,-125.933,-63.547,47.851,108.121,-106.517,-103.447,-37.038,58.702,125.451,-109.908,-110.121,-31.601,114.187,115.37,-126.907,-125.446,-1.023,171.246,201.278,-67.599,-95.735,42.324,169.366,261.181],[-103.507,-113.104,-97.496,-5.773,107.928,-104.104,-115.973,-82.278,-7.497,126.858,-102.185,-121.818,-96.28,8.07,80.355,-111.609,-136.634,-113.672,-19.951,146.378,-104.89,-119.911,-123.012,8.047,197.757,-123.005,-154.28,-36.362,167.896,282.422]],
"ve": [[63.042,7.098,2.716,-58.449,-78.302,27.6,24.978,25.601,170.386,-78.32,-62.749,30.496,-278.297,-10.759,65.552,93.244,36.109,7.976,6.677,-97.534,91.943,42.14,96.628,-3.066,-7.577,196.208,89.623,40.926,11.968,-3.727],[-9.316,35.14,-1.72,6.266,23.852,50.406,10.748,9.916,9.427,5.461,14.153,7.523,5.054,4.877,4.98,51.1,4.243,17.317,10.033,8.655,51.505,54.699,34.008,21.865,10.877,258.265,105.597,64.878,44.083,30.471],[9.969,7.741,3.38,1.523,1.686,69.851,-39.032,18.713,2.651,6.027,0.659,7.63,4.141,6.57,5.006,112.002,29.773,37.315,14.582,9.882,114.466,54.736,37.13,26.536,19.652,204.654,109.372,71.472,50.202,36.858],[18.953,3.629,5.548,2.598,4.364,17.464,15.811,4.694,3.344,6.67,6.937,2.291,5.373,4.554,4.975,39.545,32.979,21.376,14.558,12.041,105.401,70.82,44.354,39.536,22.735,177.435,105.175,70.897,49.097,41.819],[50.656,92.208,1.321,2.158,6.119,-4.397,6.841,2.78,4.513,6.56,-6.534,2.962,13.988,3.447,3.94,50.402,28.893,26.403,16.124,13.565,98.936,81.973,37.261,33.587,21.037,194.591,101.071,68.734,44.605,43.045],[-5.458,5.808,-6.047,4.548,3.247,7.574,42.778,6.748,26.85,4.921,6.541,11.68,5.676,2.504,2.461,23.163,20.353,26.336,10.635,14.478,101.812,55.351,12.605,35.729,21.398,209.084,102.855,66.873,50.912,44.645]],
"kep": [[-64.82,7.683,40.015,22.12,41.889,-42.32,5.242,36.389,23.47,40.62,-36.104,55.864,51.131,59.805,54.092,-35.107,82.352,107.672,99.309,143.515,21.435,154.314,199.219,193.885,242.624,147.884,334.661,356.482,416.862,457.405],[-88.595,-5.132,44.859,38.895,25.514,-88.123,5.857,45.254,35.465,30.126,-90.106,-1.933,44.451,40.397,41.212,-87.036,51.527,73.94,58.983,50.356,-62.01,55.743,110.391,74.528,72.407,-21.893,121.299,181.924,160.394,135.64],[-97.511,-62.517,26.288,44.491,37.494,-103.102,-55.503,44.785,59.819,56.43,-102.529,-51.641,29.919,68.065,65.188,-100.698,-62.546,99.168,94.33,62.371,-107.093,-6.774,97.357,93.236,101.775,-83.665,10.877,153.364,135.49,134.809],[-102.843,-75.683,-17.14,59.962,89.639,-107.074,-89.046,-6.208,68.492,83.628,-105.204,-107.624,7.293,66.654,80.089,-110.054,-79.145,25.088,71.68,97.682,-99.037,-84.684,42.874,127.02,119.118,-99.997,-52.944,75.047,136.964,147.91],[-101.074,-109.389,-82.576,16.552,95.238,-107.054,-121.99,-68.029,31.662,87.748,-105.642,-103.26,-46.325,40.492,104.411,-106.399,-106.896,-48.45,73.551,80.859,-112.974,-114.592,-31.867,98.017,135.31,-88.584,-97.067,-20.134,69.735,143.144],[-103.999,-110.277,-97.201,-16.156,84.567,-104.01,-112.443,-82.995,-22.239,105.368,-101.97,-118.152,-96.012,-5.33,61.221,-106.726,-125.791,-110.421,-32.884,104.999,-102.26,-109.935,-116.209,-18.282,130.418,-107.268,-124.581,-63.574,68.048,154.867]],
"vp": [[0.001,0.001,0.001,0.001,0.001,0.005,0.005,0.005,0.005,0.005,0.01,0.01,0.01,0.01,0.01,0.05,0.05,0.05,0.05,0.05,0.1,0.1,0.1,0.1,0.1,0.2,0.2,0.2,0.2,0.2],[0.001,0.001,0.001,0.001,0.001,0.005,0.005,0.005,0.005,0.005,0.01,0.01,0.01,0.01,0.01,0.05,0.05,0.05,0.05,0.05,0.1,0.1,0.1,0.1,0.1,0.2,0.2,0.2,0.2,0.2],[0.001,0.001,0.001,0.001,0.001,0.005,0.005,0.005,0.005,0.005,0.01,0.01,0.01,0.01,0.01,0.05,0.05,0.05,0.05,0.05,0.1,0.1,0.1,0.1,0.1,0.2,0.2,0.2,0.2,0.2],[0.001,0.001,0.001,0.001,0.001,0.005,0.005,0.005,0.005,0.005,0.01,0.01,0.01,0.01,0.01,0.05,0.05,0.05,0.05,0.05,0.1,0.1,0.1,0.1,0.1,0.2,0.2,0.2,0.2,0.2],[0.001,0.001,0.001,0.001,0.001,0.005,0.005,0.005,0.005,0.005,0.01,0.01,0.01,0.01,0.01,0.05,0.05,0.05,0.05,0.05,0.1,0.1,0.1,0.1,0.1,0.2,0.2,0.2,0.2,0.2],[0.001,0.001,0.001,0.001,0.001,0.005,0.005,0.005,0.005,0.005,0.01,0.01,0.01,0.01,0.01,0.05,0.05,0.05,0.05,0.05,0.1,0.1,0.1,0.1,0.1,0.2,0.2,0.2,0.2,0.2]]
}