{
"KTrans": [[3.402,10.737,2.494,4.012,5.625,12.311,12.032,7.737,11.243,9.911,29.138,15.756,14.774,17.223,16,8.026,77.379,66.312,70.009,65.067,90.608,-15.959,54.354,74.396,105.593,74.416,85.935,34.107,28.776,-2.812],[-14.651,-1.712,1.182,2.916,4.109,-12.193,0.33,2.336,4.695,4.018,-5.694,8.452,6.752,7.053,6.329,-3.484,34.536,39.192,35.524,31.549,12.424,47.917,68.29,67.077,70.568,47.877,-3.416,89.81,31.613,96.124],[-40.388,-5.134,-4.081,-1.417,0.742,-44.744,0.562,0.671,3.277,2.772,-34.633,7.061,3.835,4.091,3.715,-31.358,32.64,29.933,30.963,27.163,-2.4,-36.521,70.046,55.309,54.94,57.774,22.109,35.305,-95.847,85.117],[-61.746,-8.296,-4.825,-2.373,-1.095,-56.468,-4.785,-7.419,-1.714,-0.422,-55.395,-6.155,-1.031,-0.04,1.511,-45.779,-42.484,18.488,22.459,22.033,-29.436,-15.271,-0.281,49.489,44.549,4.065,47.709,8.546,-17.397,-41.991],[-73.76,-12.492,-6.458,-6.349,-3.67,-71.62,-7.781,-2.09,-5.208,-0.703,-77.186,-7.486,-0.993,-0.549,2.18,-60.15,-39.389,24.847,22.217,18.976,-62.79,-18.92,-19.804,31.614,42.599,-24.192,-28.482,-2.424,-11.577,73.686],[-81.885,-15.717,-6.993,-6.218,-5.533,-77.466,-16.297,-7.102,-5.346,-3.185,-78.43,-20.32,0.952,-3.618,-3.219,-67.466,-61.789,14.281,6.684,8.208,-56.674,-30.172,-36.328,2.15,32.485,-41.35,-8.076,3.171,14.529,13.192]],
"ve": [[12.116,12.363,82.455,28.279,24.361,11.764,10.07,-22.627,20.305,47.194,8.766,10.607,10.362,13.774,25.041,54.643,19.361,11.578,-3.813,-9.448,90.572,34.807,2.014,-11.022,-24.598,199.474,79.607,36.39,13.004,1.743],[3.978,1.177,1.239,0.598,1.767,5.74,1.269,2.646,2.59,2.703,9.819,3.417,3.617,3.268,3.177,50.657,23.801,15.242,9.857,7.865,103.827,50.637,28.393,23.426,16.289,205.131,100.815,62.444,42.009,21.933],[4.102,1.204,0.289,0.012,0.534,12.039,2.211,1.763,0.817,0.901,3.518,3.638,2.387,1.714,2.814,50.052,25.377,16.097,11.628,8.802,97.603,49.72,30.731,23.617,17.946,182.778,97.117,62.744,47.123,34.213],[-1.571,-0.675,0.256,-0.174,-0.622,6.528,1.853,0.595,0.963,0.732,10.238,3.631,2.458,2.151,1.344,48.804,24.021,14.361,11.38,8.703,102.131,47.316,31.065,24.032,18.326,191.432,95.511,67.553,46.89,37.938],[4.61,0.085,-1.062,-0.912,-0.767,4.09,2.814,1.133,-0.035,0.245,8.546,5.763,2.426,1.585,1.173,48.859,21.765,15.438,11.732,8.646,93.496,48.705,30.963,18.65,19.425,205.733,103.3,61.847,48.431,38.73],[-0.022,0.018,-1.949,-0.699,-0.878,13.599,-4.531,0.845,-0.49,0.483,12.416,12.289,1.841,1.12,0.911,39.884,21.62,15.541,10.578,8.155,95.969,48.12,33.445,23.195,18.477,190.61,94.974,51.516,48.499,37.707]],
"kep": [[-12.623,-4.139,-11.677,-17.276,-12.509,-5.545,-4.372,-11.114,-5.516,-6.028,3.572,-3.105,0.206,3.248,1.704,-30.784,32.77,39.011,60.695,68.567,-2.698,-36.872,13.818,43.398,102.217,-15.534,13.019,10.1,17.695,-16.244],[-26.703,-13.576,-11.241,-9.028,-9.073,-25.946,-11.9,-11.196,-9.409,-9.891,-24.923,-6.854,-8.483,-7.855,-8.491,-40.244,-4.351,7.052,9.476,8.245,-43.024,-8.662,14.208,20.993,29.935,-45.441,-41.132,8.526,-15.926,32.228],[-48.955,-17.061,-15.073,-12.613,-11.216,-53.945,-12.719,-12.306,-9.213,-9.714,-48.492,-8.356,-10.092,-9.309,-10.618,-57.025,-7.037,-1.274,3.703,3.404,-52.88,-54.563,12.342,10.72,15.806,-49.156,-39.96,-18.698,-81.92,20.084],[-66.63,-18.315,-16.053,-13.261,-11.851,-65.623,-17.47,-18.568,-13.734,-12.444,-65.811,-20.031,-14.397,-13.328,-11.331,-66.838,-55.578,-9.353,-2.93,-0.784,-65.638,-44.775,-30.683,6.041,7.32,-65.158,-29.504,-34.218,-40.787,-56.201],[-77.612,-23.657,-16.49,-16.298,-14.042,-75.971,-21.484,-14.414,-16.149,-12.337,-81.315,-23.838,-14.63,-13.367,-10.578,-74.908,-53.736,-6.205,-3.987,-3.373,-80.408,-48.731,-41.799,-6.193,4.668,-74.319,-62.507,-41.766,-40.336,11.045],[-83.867,-27.218,-16.801,-16.617,-15.666,-81.041,-29.028,-19.121,-16.016,-14.73,-82.488,-34.88,-13.247,-15.865,-15.202,-78.939,-70.127,-13.594,-14.955,-11.603,-78.931,-56.851,-53.576,-26.114,-1.849,-79.822,-55.163,-40.729,-28.398,-23.939]],
"vp": [[-260.806,94.924,-9.748,378.642,514.913,53.497,90.365,61.034,-11.71,30.246,-28.342,-31.909,3.933,33.543,-2.269,-25.373,-32.159,-7.516,-12.92,-15.112,-53.046,-13.689,-13.009,-0.032,-12.996,-9.479,-39.503,-36.912,-35.535,-25.515],[1925.346,731.03,136.248,-257.064,-266.199,381.085,147.792,-23.191,-107.69,-23.094,216.764,68.295,-9.293,-13.933,-14.02,15.787,-26.007,-50.826,-42.16,-5.713,-24.167,-65.541,-37.537,-42.772,-3.987,-34.623,-28.65,-52.646,-27.047,-45.454],[3873.491,1776.446,1420.098,320.272,-350.8,675.826,354.055,265.174,154.377,63.245,373.002,171.857,18.887,-1.377,-31.407,47.934,2.368,-21.713,-8.605,-28.254,-21.029,-10.021,-30.211,-51.445,-35.077,-57.751,-35.792,-51.632,-29.181,-27.913],[4398.261,3924.758,1859.106,1143.203,716.751,920.214,649.811,308.863,187.601,133.405,501.496,366.778,93.515,98.589,3.075,26.868,29.875,-26.017,-23.984,-13.995,-11.984,-39.202,-52.527,-49.575,-33.019,-48.41,-56.987,-36.134,-52.608,-51.947],[4778.616,5273.128,2455.519,1655.715,912.986,958.908,1019.165,606.875,355.27,97.884,486.058,521.513,254.95,170.43,96.348,62.704,59.85,32.937,20.958,14.183,-19.267,-31.189,-31.317,-44.684,-34.18,-15.364,-22.274,-41.928,-56.95,-57.599],[5641.563,6733.889,3160.642,2570.159,939.999,1121.49,1116.062,900.687,455.204,358.93,540.923,635.303,414.56,193.587,208.401,26.14,104.233,18.826,-29.753,-17.416,2.377,-39.071,-19.531,-25.043,-37.962,-29.853,-50.171,-32.208,-38.401,-72.329]]
}