{
"KTrans": [[16.716,11.006,8.771,13.38,14.474,20.932,20.122,19.522,19.732,20.097,26.926,19.903,20.828,22.087,18.04,36.771,74.966,84.329,69.603,73.21,46.652,142.072,112.818,143.973,132.01,227.26,63.747,65.572,144.439,163.143],[-34.837,-4.671,4.462,1.338,5.684,-28.267,-6.471,1.913,9.175,8.379,-26.795,6.557,5.962,10.092,12.034,6.226,37.997,45.976,38.249,31.16,-55.793,30.325,69.132,75.729,68.523,-3.974,-9.41,73.174,79.829,96.4],[-55.073,-11.19,-5.345,1.694,1.089,-58.068,-14.186,-5.211,-1.064,4.105,-52.871,-2.31,1.904,2.19,4.693,-49.508,11.652,23.559,23.635,22.569,-20.313,22.494,58.805,45.807,46.115,33.636,-24.845,-5.964,53.652,87.432],[-66.981,-25.342,-11.263,-7.213,-4.332,-73.442,-22.372,-9.389,-6.289,-2.199,-67.381,-21.024,-8.309,-2.925,0.569,-63.206,12.637,15.391,19.405,14.157,-57.478,-29.264,27.928,38.198,29.349,-60.436,-28.116,-18.661,12.881,75.196],[-76.968,-25.995,-19.665,-9.939,-8.266,-72.185,-28.774,-16.343,-6.648,-7.713,-75.632,-30.497,-14.692,-5.655,-4.574,-73.344,-5.805,2.81,6.176,9.876,-45.11,-51.601,2.08,37.468,28.135,-37.897,-1.788,18.016,52.922,39.966],[-78.767,-43.584,-22.399,-14.587,-11.368,-83.097,-30.664,-17.451,-14.903,-5.983,-85.24,-22.978,-23.838,-11.197,-9.948,-83.138,-31.607,-1.963,4.836,5.48,-66.435,-44.632,-6.118,21.592,29.2,-74.011,-20.521,-60.74,-49.35,14.151]],
"ve": [[17.118,17.229,-52.052,55.095,49.583,-281.704,-2.633,171.911,88.53,740.226,31.524,102.835,-17.4,-90.779,-8.055,60.431,30.42,24.315,27.307,43.854,95.679,39.641,23.441,0.061,-10.345,185.882,80.771,24.068,12.179,-5.327],[5.851,1.094,3.139,6.749,7.322,-2763.25,1.836,4.714,3.995,7.65,9.015,4.882,3.778,6.33,5.521,50.574,22.935,16.698,11.64,12.254,102.998,47.525,38.845,22.108,16.269,197.384,93.584,59.722,43.554,22.073],[20.346,-0.341,-0.511,-0.203,0.307,6.892,2.187,-1.72,0.235,1.496,17.904,4.397,1.501,1.364,3.294,53.501,22.51,15.321,10.818,8.222,99.744,44.561,29.755,21.961,18.304,180.521,96.735,56.272,48.592,35.5],[10.592,-0.074,-2.412,-1.561,-1.193,7.592,0.986,-0.505,-0.769,0.29,13.283,3.656,0.849,0.396,0.982,47.228,25.693,14.88,9.814,7.924,98.446,51.667,27.068,21.032,16.319,201.704,94.707,61.005,46.14,39.702],[3.215,-1.487,-2.889,-2.887,-1.479,18.564,1.519,-1.645,-1.186,-0.813,13.852,3.302,1.081,-0.703,0.142,51.555,23.177,12.916,9.22,7.952,102.479,45.355,45.935,22.035,16.525,185.402,90.602,59.843,44.714,34.908],[13.514,-0.028,-2.297,-3.357,-2.758,12.99,2.189,-1.317,-1.647,-0.663,1.137,3.144,-0.431,0.917,0.379,50.409,23.074,14.38,9.286,6.707,97.598,47.721,32.372,29.802,17.545,187.519,90.895,62.488,45.667,34.03]],
"kep": [[-14.745,-23.567,-32.5,-27.31,-29.581,-17.914,-18.167,-15.365,-20.965,-22.015,-18.191,-15.973,-14.547,-11.998,-27.743,-34.206,9.374,31.691,25.605,43.322,-31.373,31.356,31.936,84.964,88.422,1.362,-4.929,10.941,59.582,103.641],[-52.792,-27.673,-22.653,-26.941,-24.268,-51.218,-29.627,-25.59,-19.886,-22.844,-51.987,-22.592,-22.151,-20.963,-18.909,-46.325,-15.302,-5.16,-6.403,-10.908,-73.53,-29.241,-4.053,8.312,9.584,-64.383,-49.493,-13.52,-6.848,9.796],[-68.926,-32.027,-28.141,-23.119,-23.93,-71.24,-36.192,-27.414,-25.653,-22.689,-70.233,-28.831,-24.206,-23.852,-23.634,-73.775,-31.087,-19.276,-15.971,-14.775,-66.507,-35.02,-9.142,-10.47,-7.436,-61.424,-59.881,-49.149,-19.692,3.076],[-77.716,-44.113,-31.478,-28.92,-27.193,-82.052,-42.162,-31.398,-28.766,-26.572,-78.027,-42.047,-31.542,-27.146,-25.111,-79.935,-34.399,-24.928,-18.482,-20.496,-80.621,-60.224,-25.848,-15.195,-16.601,-83.816,-66.292,-55.861,-38.861,-5.592],[-83.901,-44.049,-37.895,-30.16,-30.027,-81.937,-46.798,-35.998,-28.872,-30.013,-84.882,-49.15,-36.547,-28.556,-28.322,-84.812,-42.921,-32.114,-27.094,-23.754,-77.589,-70.638,-40.577,-16.275,-17.947,-79.947,-58.049,-41.755,-22.086,-22.963],[-85.286,-57.642,-40.361,-33.544,-31.55,-88.82,-49.119,-37.131,-35.014,-28.879,-90.093,-44.736,-42.517,-33.869,-32.498,-90.091,-59.631,-36.189,-28.595,-26.064,-85.126,-68.681,-45.389,-25.663,-18.276,-90.049,-66.483,-75.393,-67.414,-34.825]],
"vp": [[-91.369,-19.867,623.41,334.82,-820.445,131.338,-77.411,63.364,137.01,-20.757,-5.837,-6.533,-1.54,25.442,52.456,-43.18,-32.373,-19.298,4.426,21.996,-27.476,-20.149,-26.555,-19.497,-2.366,-56.586,-21.528,-17.863,-26.666,-15.91],[2457.109,658.217,229.843,22.562,477.947,290.756,186.058,52.783,-43.866,109.124,254.366,142.483,-65.143,-42.492,-141.476,14.397,-9.991,1.207,-20.31,2.255,0.362,-16.922,-14.624,1.366,-11.566,-42.008,-31.916,-51.448,-11.662,-14.925],[3767.986,3465.717,2237.339,1067.527,340.865,761.448,650.685,229.736,111.589,-14.624,475.83,224.221,168.536,-34.01,-13.744,50.869,43.044,9.722,-5.251,-2.224,6.189,-24.754,-25.785,-26.857,-29.952,-30.724,-30.646,-38.596,-38.469,-48.514],[5399.595,4507.277,2758.292,1809.967,1174.451,1060.36,1172.675,651.719,165.852,334.247,473.347,447.122,399.804,171.362,209.625,86.563,108.293,58.319,36.891,-28.296,6.977,32.146,-19.23,-25.95,-46.788,-0.906,-37.062,-28.35,-16.24,-23.474],[6436.59,5818.976,4092.126,3928.414,2070.774,1059.887,1557.055,957.078,731.909,279.639,672.745,531.031,516.954,273.339,192.552,67.963,101.868,79.261,33.845,37.816,-4.575,38.635,17.531,13.015,-8.279,-21.43,-36.075,-51.813,-46.324,-36.327],[5111.74,7534.168,6275.712,4546.275,2476.143,1211.209,1680.487,1459.759,974.787,596.377,635.743,970.065,506.221,439.646,340.135,122.168,141.514,96.637,79.186,60.815,25.452,39.536,24.942,-2.365,25.34,-5.04,-21.165,9.224,-34.18,-48.611]]
}