{
"KTrans": [[4.158,1.966,2.123,1.735,-1.402,13.366,6.975,7.012,5.035,5.652,30.625,17.844,12.786,10.025,9.675,163.171,95.568,76.313,65.836,59.639,396.209,226.815,178.101,157.892,137.894,1115.429,588.527,460.787,391.411,355.068],[-5.045,-0.539,0.084,0.472,1.267,1.582,2.249,3.445,2.775,2.47,12.053,11.347,8.268,7.015,5.477,106.965,62.618,44.98,35.816,30.731,287.142,139.962,99.113,77.786,67.069,792.762,356.316,232.847,179.268,150.703],[-18.515,1.027,-0.271,0.72,1.336,-15.745,6.516,3.403,1.939,1.636,-6.741,11.713,8.176,5.224,4.758,75.949,60.059,40.064,30.646,25.193,228.489,131.982,85.251,67.394,54.243,622.031,323.987,205.158,152.07,122.007],[-34.943,0.03,-0.243,0.889,-0.069,-28.614,-0.637,3.218,3.574,2.744,-24.195,8.602,7.443,6.577,4.607,49.717,51.81,38.295,29.092,23.702,157.116,129.198,82.859,62.37,51.163,472.152,314.385,193.054,140.255,113.154],[-46.214,-2.669,0.477,0.347,-0.05,-38.29,0.058,2.698,1.981,2.735,-36.32,6.769,7.446,6.575,5.17,26.495,53.622,38.345,27.6,23.061,124.818,119.764,81.67,60.38,48.517,380.569,298.919,191.436,138.131,109.028],[-56.025,-4.849,1.563,-0.032,0.023,-57.963,-2.22,5.362,1.634,1.906,-49.448,4.3,4.58,5.226,4.623,-8.883,52.127,36.679,27.233,23.448,82.582,118.349,83.141,60.807,46.826,280.023,302.719,185.916,132.298,103.939]],
"ve": [[2.918,1.535,1.245,1.426,19.73,6.615,2.712,1.275,2.121,-1.937,10.754,1.602,-1.029,-1,-4.15,46.374,13.054,-0.83,-11.297,-16.898,94.671,32.601,8.167,-7.527,-17.214,191.467,79.227,34.738,10.72,-5.707],[2.215,0.879,0.586,0.224,-0.196,6.873,3.144,1.481,0.981,0.601,10.663,4.866,3.465,1.491,0.808,50.981,24.081,14.383,9.427,5.14,100.734,48.225,29.081,19.524,12.563,200.73,96.902,61,41.555,28.817],[4.101,0.392,0.767,0.107,0.276,7.567,3.037,1.458,1.229,0.47,14.04,5.592,3.7,1.903,1.831,51.788,25.757,16.073,11.401,8.326,102.257,49.485,32.146,23.461,17.232,199.857,98.683,64.146,46.538,35.65],[-3.893,0.95,0.758,0.115,0.356,7.378,2.5,1.811,1.467,0.814,13.801,4.913,3.477,2.546,2.141,51.742,24.786,16.435,11.68,9.245,101.337,50.531,32.711,24.038,18.447,200.38,99.262,65.686,48.869,37.882],[3.16,1.04,0.216,0.467,0.443,26.284,2.675,1.57,1.276,1.052,12.192,4.59,3.458,2.423,1.94,51.81,24.507,16.494,11.984,9.488,99.71,49.881,32.955,24.732,19.292,205.242,99.643,65.882,49.187,38.532],[5.281,1.203,0.869,0.543,0.436,8.972,2.997,1.976,1.599,1.232,13.818,4.623,3.698,2.68,1.978,57.697,25.193,16.72,12.273,9.802,103.857,50.135,33.165,24.372,19.429,201.086,99.716,66.525,49.528,39.205]],
"kep": [[2.801,1.919,2.92,2.95,-4.846,7.32,5.614,8.427,6.708,12.083,19.014,17.1,16.106,13.623,17.278,80.792,73.843,78.697,88.073,94.261,155.725,147.052,157.778,179.951,188.294,317.838,284.753,316.622,344.448,383.326],[-7.101,-1.2,-0.369,0.411,1.585,-4.666,-0.733,2.138,1.896,2,1.442,6.324,4.781,5.564,4.766,37.122,31.206,26.922,24.229,24.462,93.177,62.123,54.329,48.836,48.508,197.32,131.866,106.816,97.358,94.677],[-20.492,0.796,-0.987,0.672,1.118,-21.316,3.548,1.954,0.751,1.195,-16.641,5.938,4.395,3.286,2.915,16.081,27.468,20.74,17.319,15.619,62.387,55.247,40.22,35.598,31.605,141.132,113.536,85.984,72.075,63.693],[-36.526,-0.838,-0.904,0.806,-0.396,-33.384,-2.982,1.436,2.112,1.953,-33.001,3.536,3.886,3.97,2.425,-1.68,21.757,18.816,15.642,13.266,27.356,52.361,37.819,30.946,27.646,89.43,108.167,76.936,61.433,54.621],[-47.914,-3.638,0.325,-0.093,-0.454,-42.961,-2.522,1.176,0.718,1.702,-43.006,2.201,3.894,4.074,3.208,-16.572,23.394,18.771,13.974,12.409,11.897,46.681,36.686,28.612,24.527,59.08,99.956,75.751,59.658,50.91],[-57.736,-5.993,0.693,-0.536,-0.391,-61.303,-4.933,3.326,0.05,0.676,-55.099,-0.093,0.897,2.516,2.625,-40.239,21.539,17.1,13.34,12.444,-9.592,45.452,37.602,29.304,22.963,25.651,101.818,71.718,55.397,46.506]],
"vp": [[113.677,8.605,-6.956,81.764,-3.835,43.878,6.038,-11.736,-8.326,-6.104,4.181,-1.025,9.342,3.418,1.405,6.852,7.424,4.578,3.428,6.31,6.439,4.679,3.509,4.842,4.108,5.289,5.459,4.474,4.234,4.156],[938.146,-7.125,-45.881,-81.702,-96.886,163.074,29.031,16.339,-4.112,30.709,92.917,8.115,17.274,0.901,2.608,18.79,6.736,0.615,4.183,3.261,13.927,6.604,4.269,5.77,6.244,8.97,6.566,5.677,4.896,4.742],[1902.532,212.113,192.976,-52.149,239.669,445.537,86.886,11.537,55.494,9.053,225.811,42.14,17.08,-0.825,16.749,45.999,10.567,4.463,4.379,4.628,22.974,9.945,6.539,5.038,5.47,15.34,7.359,6.045,5.044,5.143],[3270.17,625.889,109.987,77.258,202.255,561.163,132.919,63.333,11.454,-9.311,303.63,79.987,27.371,18.661,7.541,71.543,19.59,11.043,8.02,5.111,40.499,11.099,6.062,6.027,3.551,22.409,9.873,6.815,6.28,5.72],[4067.091,1099.113,336.452,193.939,112.223,815.973,188.138,23.828,14.226,31.744,387.069,85.196,47.394,18.894,4.655,83.781,24.093,12.347,5.62,3.434,46.672,17.096,7.846,5.303,5.218,26.192,11.962,8.45,7.397,5.023],[4863.359,1741.712,708.448,348.432,0.427,962.222,373.097,112.713,38.225,0.279,507.408,172.784,58.41,37.896,18.01,99.753,38.221,15.758,10.048,12.102,52.296,25.835,11.77,6.988,7.367,29.679,15.795,8.509,7.07,6.22]]
}