{
"KTrans": [[-1.863,7.795,1.883,2.352,2.408,18.775,10.508,8.632,8.037,5.379,19.867,17.403,14.461,14.921,11.773,143.706,91.757,77.267,68.638,66.192,211.186,233.183,187.7,163.807,147,117.774,429.561,398.663,346.465,346.363],[-27.772,2.938,3.833,2.198,2.521,-29.568,7.93,4.022,4.007,4.283,-9.939,14.579,8.992,8.384,6.088,25.151,63.024,45.132,36.96,34.738,82.162,159.519,95.35,79.409,64.607,110.116,306.844,253.951,191.033,155.574],[-51.97,0.212,2.578,1.96,4.647,-49.832,6.241,3.152,5.964,2.838,-36.242,7.736,8.165,7.79,6.748,-17.003,69.802,48.038,31.713,26.487,-34.881,152.655,103.922,71.567,57.139,6.575,165.722,242.395,165.345,137.498],[-72.103,-9.859,2.85,2.421,1.735,-65.933,4.646,5.297,5.218,3.643,-69.67,6.244,11.836,8.037,6.339,-47.262,53.24,46.876,32.31,27.017,-52.993,113.274,107.414,75.508,59.252,-35.991,-117.236,202.476,215.512,133.486],[-78.69,-11.733,1.566,4.389,1.868,-75.956,2.074,5.019,4.383,2.843,-73.97,-4.19,8.856,9.883,6.491,-67.229,46.106,49.645,36.192,27.403,-63.108,36.089,114.051,74.089,53.196,-28.182,14.229,206.551,178.678,126.076],[-82.339,-9.959,0.178,4.362,3.134,-87.156,-14.435,7.927,3.461,5.01,-83.298,-9.08,9.886,8.067,8.369,-72.005,15.897,41.326,28.68,26.314,-86.67,42.331,102.68,73.658,60.466,-71.137,-42.122,111.089,160.186,118.044]],
"ve": [[9.045,3.829,17.472,13.946,-31.163,12.806,6.866,7.874,43.83,46.52,12.647,6.591,2.448,3.485,71.678,52.001,16.915,1.931,-9.458,-16.575,95.882,36.943,10.781,-5.925,-16.375,200.015,79.524,-13.826,14.187,-1.026],[6.988,2.142,1.647,0.062,0.001,9.833,3.331,1.895,0.317,1.459,14.917,6.412,3.904,2.467,1.871,53.745,24.773,14.267,9.134,4.92,104.034,50.816,30.176,19.513,12.329,198.593,74.984,61.74,41.809,29.384],[0.916,0.311,1.312,-0.182,-0.316,-5.411,3.769,1.555,1.461,1.163,24.282,5.692,4.03,2.822,1.416,42.407,25.05,16.795,12.044,8.505,100.914,50.913,32.493,23.239,17.103,198.789,98.396,65.193,47.14,36.25],[177.792,1.632,0.921,0.313,0.062,-1.783,3.777,0.711,1.024,1.258,18.828,5.041,3.381,2.576,1.554,45.695,26.835,17.193,11.733,8.66,101.83,53.914,33.087,24.699,18.863,203.177,100.127,66.503,50.187,37.864],[4.147,0.102,0.116,0.018,0.243,15.647,3.844,2.142,1.315,0.639,13.979,5.879,2.608,2.536,1.735,-0.09,26.862,16.543,12.991,9.454,97.236,50.644,33.655,24.964,18.987,194.758,99.848,66.975,49.337,38.706],[18.934,2.039,0.373,0.631,0.265,-45.414,3.998,2.171,1.291,0.808,15.12,7.086,4.132,3.165,1.958,56.334,24.28,17.206,11.864,9,102.363,47.417,33.642,24.591,20.013,202.235,101.923,63.987,48.29,38.362]],
"kep": [[-5.108,9.396,0.98,3.386,1.986,8.754,9.699,9.668,12.347,7.784,7.077,15.018,16.685,22.502,20.996,61.735,66.407,78.726,91.834,108.412,57.697,145.326,162.495,183.633,200.405,-17.931,182.528,263.516,294.066,359.393],[-32.16,1.566,2.584,2.702,3.193,-35.562,4.654,2.49,4.124,3.516,-19.71,8.154,5.291,6.198,4.74,-19.685,31.278,27.433,25.7,28.7,-11.433,71.382,50.082,50.218,46.921,-24.352,103.2,116.632,104.434,97.205],[-55.229,0.333,1.583,2.289,5.115,-56.064,2.86,1.906,4.61,1.804,-44.683,2.219,4.175,5.135,5.428,-46.251,36.478,26.944,17.64,16.75,-65.159,66.088,53.357,39.105,34.152,-59.759,33.411,103.582,78.958,73.523],[-74.635,-11.113,2.302,2.241,1.766,-70.998,1.029,4.848,4.308,2.474,-74.683,1.013,8.345,5.398,4.868,-66.494,20.534,25.64,18.4,16.92,-74.947,38.639,55,40.217,33.966,-75.548,-102.45,79.729,107.804,68.346],[-80.526,-11.463,1.61,4.417,1.715,-79.116,-1.81,2.942,3.182,2.297,-78.848,-9.301,6.164,7.332,4.747,-78.725,15.487,28.294,20.43,16.424,-81.086,-10.359,59.447,38.977,28.573,-73.454,-39.67,81.043,84.103,61.885],[-84.797,-11.505,-0.05,3.94,2.889,-89.745,-17.532,5.805,2.31,4.278,-86.273,-14.459,5.652,4.884,6.346,-81.998,-6.603,20.296,15.014,15.916,-91.946,-5.544,50.166,38.757,33.372,-88.15,-67.338,25.036,72.377,56.172]],
"vp": [[381.66,-174.827,-242.821,99.789,-58.423,172.538,-62.739,-27.175,47.816,-0.328,57.874,29.371,7.396,5.457,1.814,10.396,1.472,6.396,0.534,8.329,6.437,10.851,12.236,10.946,21.811,4.684,3.485,-10.124,-1.648,10.073],[3560.222,766.216,-115.283,-227.485,469.9,877.129,155.675,-7.933,71.988,1.138,417.854,93.086,48.92,22.074,20.659,96.161,22.228,9.476,16.766,27.964,53.645,30.48,-7.978,20.009,-9.829,11.994,6.34,0.501,9.059,4.094],[6966.842,2196.984,339.737,376.252,493.167,1376.415,536.42,89.049,-34.589,87.909,703.724,202.837,97.072,68.14,11.612,120.35,49.754,32.42,2.392,14.348,72.832,43.391,27.693,15.743,0.51,20.715,18.919,3.254,11.79,16.863],[8331.968,5192.847,1456.322,519.359,221.885,1711.012,1175.465,107.576,86.32,11.506,786.443,512.341,189.178,64.875,4.941,161.808,124.437,58.937,31.596,8.081,73.975,71.542,41.362,29.064,39.735,39.226,53.187,18.934,51.607,20.202],[8801.798,8120.66,2604.423,481.607,43.085,1796.616,1831.351,514.065,213.596,25.24,923.899,791.962,282.942,161.728,12.074,161.462,186.818,78.248,52.203,22.679,67.696,82.04,69.562,38.333,9.821,20.319,24.549,18.809,28.797,19.041],[9252.948,11268.899,3802.751,1141.747,520.641,1868.789,2291.137,1180.938,351.713,51.514,902.981,1204.463,435.154,234.357,-2.747,184.55,213.902,114.607,38.928,26.885,103.817,84.103,77.158,44.732,47.021,46.866,45.664,36.414,-4.419,10.728]]
}