{
"KTrans": [[13.464,9.625,14.884,10.917,12.826,7.437,10.883,11.232,6.169,14.045,10.119,12.658,9.983,17.77,12.819,34.43,25.957,22.686,24.275,24.678,66.477,56.6,49.837,47.03,43.966,-41.653,117.499,80.512,87.672,87.672],[-29.765,-3.176,3.862,3.688,8.676,-43.994,-4.409,-0.194,5.273,7.232,-45.057,-0.53,1.685,4.805,4.57,-18.912,3.173,5.668,10.517,9.863,-18.237,11.473,9.232,15.644,15.258,-14.02,9.465,35.155,39.6,20.979],[-71.361,-24.021,-10.296,-2.977,2.261,-68.502,-20.242,-8.942,-2.847,1.969,-68.592,-19.857,-9.802,-0.102,0.344,-65.539,-13.156,-4.629,1.049,6.084,-61.39,-10.308,-1.916,4.809,4.553,-50.6,7.655,21.658,21.482,20.074],[-85.619,-43.664,-21.351,-10.928,-5.825,-84.57,-37.603,-21.852,-11.438,-6.03,-83.968,-37.82,-24.704,-11.243,-5.407,-78.819,-36.317,-18.147,-10.732,-0.814,-70.204,-24.268,-6.94,-4.012,-2.833,-75.74,-34.461,-5.928,5.488,2.584],[-88.698,-59.179,-33.695,-22.224,-13.902,-88.874,-47.057,-30.629,-19.187,-12.183,-87.757,-45.803,-31.495,-19.724,-13.048,-80.753,-52.589,-36.293,-19.035,-8.534,-79.467,-51.985,-33.253,-19.231,-10.222,-73.795,-45.992,-49.359,-13.904,1.284],[-91.698,-63.434,-38.908,-30.354,-20.183,-93.195,-60.925,-41.056,-28.869,-16.37,-92.071,-66.697,-44.129,-27.586,-20.146,-88.366,-52.656,-41.138,-30.098,-20.856,-87.606,-59.441,-37.314,-26.272,-17.269,-82.017,-64.2,-31.397,-19.6,-6.232]],
"ve": [[-5.438,19.804,21.967,34.785,200.102,-8.562,-24.185,29.433,-84.474,17.369,6.867,10.612,-42.215,146.678,23.659,10.899,-18.113,13.386,-14.373,-6.936,8.969,-2.363,12.724,51.202,-51.292,49.684,22.646,-25.452,-267.862,-24.008],[-4.616,-1.357,0.967,2.593,3.779,-35.459,-1.603,0.441,3.266,3.216,-18.69,-0.352,0.277,4.169,4.079,1.775,6.023,5.411,5.4,6.547,20.375,7.244,14.866,17.36,13.215,42.726,15.617,4.853,-5.595,-17.34],[-49.332,-10.633,-4.167,-1.049,0.073,-35.587,-9.378,-2.433,-0.366,0.678,45.377,-6.716,-2.485,-0.142,0.336,-19.514,-2.571,0.327,3.011,3.002,-13.608,3.729,4.016,5.254,3.862,36.763,35.064,22.911,15.175,-10.921],[-49.181,-17.335,-8.064,-3.352,-1.906,-58.886,-15.382,-8.239,-3.036,-2.339,-112.589,-15.176,-7.529,-4.444,-0.691,-39.579,-11.287,-3.145,-1.908,1.095,-10.681,2.533,5.778,3.535,1.24,2.458,12.847,10.146,10.645,8.693],[-45.705,-26.571,-13.327,-6.715,-4.759,364.902,-19.756,-12.169,-6.983,-4.047,-45.167,-19.433,-11.896,-5.903,-4.697,-62.818,-24.031,-12.453,-2.93,-0.657,-25.903,-9.723,-11.745,-4.556,-1.516,54.18,10.221,10.195,1.319,9.522],[-85.562,-31.577,-15.258,-11.707,-7.111,-50.997,-25.815,-16.912,-10.955,-5.52,-59.683,-41.833,-16.514,-9.62,-6.849,-37.41,-17.042,-13.861,-9.781,-7.526,-43.73,-18.291,-8.331,-5.987,-3.001,6.237,6.44,3.91,1.233,11.211]],
"kep": [[-15.387,-15.505,-12.315,-18.365,-16.78,-17.988,-17.512,-15.988,-29.386,-17.328,-14.843,-11.976,-21.988,-12.269,-20.111,-17.366,-10.722,-11.29,-7.512,-7.694,-30.127,-7.36,-1.04,5.782,4.215,25.062,-4.709,-25.335,-3.663,17.19],[-41.808,-20.231,-15.85,-17.049,-13.9,-50.663,-21.112,-18.606,-16.302,-14.724,-50.017,-18.975,-17.165,-17.521,-17.455,-47.016,-22.344,-19.296,-14.57,-15.405,-48.323,-28.464,-22.149,-16.15,-14.857,-43.573,-24.692,-26.203,-15.718,-21.269],[-70.311,-31.806,-23.861,-19.987,-16.432,-69.896,-30.024,-24.022,-20.433,-17.218,-69.988,-31.291,-24.562,-18.272,-18.191,-75.165,-32.135,-23.648,-20.417,-16.076,-65.175,-41.008,-28.556,-20.76,-19.569,-66.553,-40.437,-31.94,-20.558,-18.758],[-84.692,-45.555,-30.902,-24.826,-21.55,-84.799,-41.559,-31.296,-25.61,-21.413,-84.19,-42.969,-34.275,-24.346,-22.186,-81.729,-46.715,-32.042,-26.425,-20.256,-78.727,-48.873,-31.873,-26.641,-23.487,-76.6,-49.338,-45.246,-30.985,-27.447],[-88.2,-56.427,-38.578,-32.177,-26.149,-88.984,-49.243,-36.452,-29.406,-25.311,-87.807,-47.963,-37.177,-30.612,-25.681,-83.361,-60.383,-43.082,-32.542,-25.175,-81.868,-65.585,-46.115,-33.27,-27.019,-80.611,-61.064,-60.23,-41.931,-28.589],[-92.641,-59.411,-42.261,-35.947,-29.982,-93.098,-59.607,-43.34,-35.134,-27.811,-92.871,-64.504,-46.795,-35.059,-30.035,-88.411,-60.029,-46.803,-37.677,-30.84,-84.634,-69.377,-50.154,-39.344,-31.923,-83.52,-66.233,-52.568,-48.523,-32.742]],
"vp": [[-208.792,-79.105,-414.187,-206.227,-329.949,4.93,-69.916,-86.856,-48.616,-88.565,15.828,-29.149,-29.012,-57.286,-30.861,-12.094,-3.417,-8.181,-9.805,-18.559,-24.231,-18.527,-20.969,-23.423,-19.373,-9.719,-27.273,-10.19,-18.016,-19.931],[1399.568,191.524,-449.159,-268.03,-743.326,506.406,89.456,34.333,-81.387,-104.376,238.913,7.562,34.402,-61.123,-35.629,8.16,-8.008,-4.002,-17.689,-17.115,-8.456,-1.284,0.791,-8.447,-1.598,-6.92,0.958,-8.56,-19.119,6.25],[4824.694,2314.383,946.058,414.694,-122.272,787.373,424.781,155.393,60.705,-92.046,462.162,160.341,75.058,-3.322,16.553,80.528,23.011,11.151,-5.726,-18.042,37.779,-3.225,10.034,-6.7,5.128,-10.095,-29.099,-23.925,-20.101,-15.2],[6236.582,4266.101,2498.364,1329.617,887.776,1220.629,753.855,462.805,262.799,203.459,608.575,371.697,291.456,141.976,56.442,116.352,68.678,33.326,28.816,-5.33,32.679,0.991,-7.039,2.336,15.611,19.01,6.379,-5.788,-14.115,9.209],[6118.831,6458.484,4265.039,2857.778,2540.828,1279.144,946.483,762.223,519.751,374.103,591.681,462.467,385.887,256.001,233.286,110.234,128.325,112.4,36.375,5.987,43.67,41.215,58.977,39.439,22.674,-0.35,7.315,-3.554,14.678,-11.442],[7359.207,7400.443,5038.292,4809.459,3185.313,1311.955,1384.501,1126.241,921.684,512.375,767.147,806.706,575.38,366.853,347.176,119.921,108.775,118.407,99.075,96.423,47.764,63.981,53.171,43.052,33.601,22.27,6.993,7.538,12.055,-2.89]]
}