{
"KTrans": [[12.036,9.837,10.37,13.984,10.019,12.33,13.046,9.412,11.74,11.505,9.677,17.683,14.197,8.799,17.289,25.524,20.118,16.136,20.142,21.622,38.687,25.215,30.836,26.934,30.565,57.145,70.406,57.551,53.333,38.511],[-32.701,-6.032,1.955,5.557,7.874,-39.212,-8.725,-0.906,2.759,8.244,-35.531,-5.347,0.711,3.51,7.925,-33.992,-0.921,3.099,7.463,9.314,-28.097,-0.276,9.003,9.378,12.6,-15.135,7.482,21.373,20.353,19.091],[-70.478,-23.329,-10.268,-1.859,0.214,-67.201,-23.007,-10.55,-3.966,0.3,-72.864,-21.511,-11.962,-3.89,1.546,-57.387,-19.361,-9.047,-1.843,3.795,-67.048,-23.145,-3.135,5.662,6.977,-61.34,-17.119,0.618,3.545,8.614],[-85.374,-39.099,-23.683,-13.887,-6.566,-82.81,-38.065,-21.993,-12.107,-6.285,-84.729,-39.55,-23.31,-10.908,-6.967,-80.03,-43.315,-24.166,-9.463,-4.789,-74.226,-36.823,-19.249,-10.792,-4.565,-68.946,-40.103,-17.411,-6.553,-1.494],[-89.453,-51.931,-32.798,-19.746,-13.148,-91.189,-52.155,-31.851,-23.116,-14.991,-89.368,-53.378,-35.435,-22.764,-11.986,-86.824,-54.223,-35.482,-21.167,-14.597,-81.944,-61.784,-35.775,-19.094,-9.553,-78.645,-57.886,-32.367,-20.674,-10.68],[-93.061,-62.784,-40.207,-30.628,-21.77,-93.551,-66.29,-45.558,-30.359,-21.198,-92.272,-66.17,-43.052,-31.349,-19.723,-89.275,-64.219,-40.095,-28.893,-19.729,-85.815,-63.063,-42.808,-31.569,-19.739,-84.168,-67.48,-43.023,-28.205,-17.71]],
"ve": [[28.108,14.857,8.951,330.273,-39.415,48.562,19.01,83.147,15.709,69.662,11.553,18.101,38.956,36.094,62.687,16.106,21.256,52.69,-29.474,35.194,35.554,63.847,61.442,60.152,-59.252,270.973,32.303,0.768,29.175,33.29],[-15.364,-1.622,1.011,2.505,3.964,-10.287,-3.199,0.71,2.566,4.534,-12.427,-1.471,0.932,3.621,4.289,-7.586,3.682,4.456,5.503,5.531,3.399,7.36,7.764,6.406,8.351,27.418,18.404,16.488,14.27,12.499],[-19.244,-9.221,-2.74,-1.467,0.464,-19.223,-7.39,-3.735,-1.308,0.181,-37.835,-7.984,-3.876,-0.868,1.23,-16.084,-1.603,-1.343,0.929,2.321,43.542,0.324,3.936,4.939,5.302,2.138,11.119,11.972,7.32,8.635],[-33.619,-17.458,-8.147,-4.348,-2.452,-42.356,-15.728,-7.214,-4.065,-1.983,-47.497,-14.955,-8.681,-3.255,-2.089,-4.07,-12.593,-5.242,-1.073,0.185,-18.913,-4.603,-0.9,-0.275,0.684,-1.511,-1.979,4.593,5.768,4.58],[-57.968,-23.06,-12.424,-7.255,-4.607,-61.114,-21.297,-12.803,-8.731,-5.212,3.671,-22.235,-12.798,-7.181,-4.255,-38.563,-20.321,-10.93,-6.197,-3.845,-28.855,-20.4,-7.999,-2.36,-0.122,79.175,-10.666,1.077,0.55,2.44],[-67.681,-30.548,-14.681,-11.258,-7.608,-30.685,-31.746,-18.768,-10.686,-7.163,-49.729,-30.059,-16.79,-11.43,-6.961,-46.674,-26.061,-14.189,-7.99,-5.773,-30.952,-19.044,-12.498,-7.74,-4.042,-20.815,-19.061,-4.316,-1.805,-0.127]],
"kep": [[-17.457,-18.284,-20.708,-18.942,-26.287,-17.653,-16.441,-23.74,-23.459,-28.247,-19.916,-12.966,-18.985,-30.358,-14.61,-14.753,-15.587,-19.172,-15.407,-12.279,-16.704,-14.544,-7.357,-9.218,-2.921,-23.382,2.833,3.648,6.204,-8.579],[-44.816,-24.238,-19.585,-17.621,-16.843,-49.065,-25.315,-21.479,-20.034,-17.152,-45.324,-23.925,-20.488,-20.113,-17.107,-47.798,-24.129,-21.2,-18.692,-17.125,-50.81,-27.224,-20.061,-18.128,-16.939,-54.99,-30.852,-18.381,-16.637,-15.889],[-69.971,-33.584,-26.648,-20.657,-20.464,-66.828,-35.348,-26.328,-22.527,-20.181,-71.034,-33.458,-27.214,-22.892,-20.033,-64.859,-36.061,-26.964,-22.59,-19.178,-71.979,-39.956,-26.434,-19.979,-19.126,-77.739,-43.244,-29.898,-23.946,-20.903],[-83.896,-42.983,-34.352,-28.437,-23.746,-82.223,-43.938,-33.483,-27.111,-23.85,-82.068,-44.959,-33.62,-26.808,-24.339,-81.835,-49.965,-36.724,-27.25,-24.314,-80.672,-48.992,-35.779,-29.195,-24.59,-82.14,-55.209,-38.539,-30.817,-25.531],[-88.055,-53.275,-39.518,-31.259,-27.534,-88.859,-54.005,-38.867,-33.278,-28.658,-86.655,-54.158,-41.772,-33.912,-26.831,-86.305,-56.491,-43.131,-33.412,-29.396,-85.704,-63.411,-45.157,-34.306,-28.021,-87.644,-65.128,-48.473,-38.112,-31.154],[-92.094,-60.101,-45.164,-37.979,-32.635,-91.54,-62.496,-47.829,-38.252,-32.528,-91.389,-63.916,-46.564,-38.527,-31.438,-89.009,-63.271,-45.572,-38.846,-32.301,-88.63,-66.243,-49.355,-41.559,-33.571,-90.884,-70.923,-54.339,-42.66,-34.818]],
"vp": [[-135.716,-165.396,-417.572,-499.279,-34.591,-31.449,-98.254,-42.602,-116.015,-36.817,-37.339,-61.783,-53.311,-25.026,-55.078,-5.514,-6.852,-1.638,-9.885,-9.751,-7.527,0.916,-1.881,-1.278,-4.456,-1.331,-8.678,-7.283,-6.38,2.598],[1690.969,442.495,-290.655,-254.005,-766.819,346.269,141.808,71.344,16.342,-162.507,187.707,55.301,17.166,-8.339,-60.617,40.18,2.983,2.833,-12.477,-10.255,18.638,8.166,-2.986,3.105,-5.819,4.881,2.557,-7.397,-5.435,0.168],[4708.473,2007.316,682.324,191.914,-4.576,865.72,352.899,225.632,111.493,-17.159,497.298,167.857,147.575,46.787,-46.264,65.055,27.834,22.387,13.973,-1.1,50.207,21.999,3.089,-6.529,-8.286,24.409,8.143,-0.631,6.973,0.042],[6516.299,3749.701,2457.453,1448.987,878.14,1141,707.975,488.501,280.434,142.189,629.769,357.36,245.239,123.328,116.304,115.572,82.441,52.127,22.711,11.647,45.642,32.625,18.897,18.391,15.809,21.985,22.471,11.126,7.39,8.699],[7266.659,5360.163,3952.788,2676.115,2144.949,1539.088,1022.872,837.3,720.227,541.552,697.92,543.014,439.608,305.912,177.068,133.92,117.095,95.541,68.745,56.729,56.94,70.781,46.875,25.503,14.265,28.144,35.942,18.256,18.298,13.683],[7796.668,7160.119,4793.72,4835.158,3659.872,1556.56,1548.853,1323.707,920.664,714.099,747.505,765.232,562.438,498.009,332.894,133.327,141.665,110.52,88.582,73.077,61.576,68.396,62.442,54.191,40.317,28.554,48.141,27.979,22.08,17.905]]
}