{
"KTrans": [[-7.241,0.8,-5.243,0.27,-4.383,-6.026,4.606,5.036,2.097,9.042,0.903,9.958,2.435,4.593,6.459,41.313,22.896,11.558,19.002,18.059,27.971,60.425,60.627,37.646,36.886,-152.752,141.025,114.486,91.766,92.194],[-64.449,-5.36,-5.699,0.492,0.621,-65.43,-4.302,3.588,-3.866,1.147,-62.551,-6.553,2.984,0.615,-0.338,-44.624,16.383,6.757,7.429,5.328,-11.437,30.051,20.497,23.439,16.818,53.72,44.09,47.148,46.535,32.866],[-86.239,-26.849,1.872,-3.964,-2.61,-73.568,-21.304,-3.284,-1.628,-2.106,-83.137,-11.148,-2.408,1.943,-0.376,-61.076,2.375,9.164,9.416,4.299,-68.194,13.109,31.181,23.45,12.934,9.371,22.505,48.46,49.733,30.777],[-88.681,-40.807,-9.636,-3.043,1.303,-88.347,-41.318,-10.114,-2.726,0.372,-84.388,-41.22,-3.321,-3.485,-0.017,-74.863,-23.871,8.071,4.302,8.035,-73.92,-23.983,24.901,17.875,13.616,-91.339,16.363,42.204,31.411,31.273],[-93.531,-57.228,-19.145,-9.759,-4.074,-90.768,-58.437,-4.155,3.897,2.589,-91.071,-57.019,-10.624,2.203,0.658,-86.744,-48.403,-2.01,9.932,8.559,-67.758,-19.184,11.768,21.764,19.855,-62.013,-27.662,21.787,33.667,37.233],[-92.601,-69.634,-28.665,-1.339,-0.84,-93.412,-64.012,-26.274,-7.963,-1.973,-92.271,-67.937,-21.526,-6.703,-0.98,-82.748,-53.353,-19.583,13.947,3.358,-85.472,-43.473,-3.666,13.03,25.911,-89.547,-17.128,-4.012,19.617,40.954]],
"ve": [[-20.475,29.054,-2.954,18.191,47.025,8.102,2.538,31.593,15.658,57.798,-9.308,-6.919,29.919,-7.464,-56.884,14.308,-14.947,-76.798,-18.473,25.13,25.2,5.977,8.417,-46.133,-25.743,51.827,18.468,-4.02,-18.227,-30.885],[-33.985,-5.819,-4.703,-2.897,-1.365,-42.628,-6.402,-0.789,-1.25,-1.305,-32.118,-4.863,-0.952,-1.284,-0.538,-25.221,-4.249,-4.917,-0.437,0.767,-21.211,-1.13,4.272,-79.343,1.887,40.862,16.751,14.132,-53.665,-9.267],[-60.06,-17.63,-6.238,-5.214,-3.755,-53.7,-17.934,-4.44,-3.776,-3.389,-61.138,-10.077,-6.133,-3.201,-3.158,-39.366,-3.961,-70.749,-0.211,-3.392,-35.64,4.505,4.241,2.974,-1.951,16.318,25.776,3.619,12.859,1.595],[-50.095,-31.552,-9.93,-5.754,-4.004,-64.153,-24.075,-10,-7.3,-4.223,-50.211,-29.299,-11.598,-5.01,-4.263,7.685,-25.093,-5.013,-7.877,-1.796,-50.994,-17.353,3.132,1.157,0.107,-19.156,5.396,-1.956,1.859,2.072],[-73.411,-47.89,-14.583,-8.612,-6.42,-66.622,-41.933,-12.521,-6.77,-4.027,-61.825,-34.077,-13.816,-6.563,-5.361,-61.9,-38.052,-8.412,-1.025,-2.514,-11.686,-8.159,-7.927,2.596,0.583,13.952,5.224,-0.242,-0.607,8.405],[-69.98,58.453,-21.541,-7.064,-6.491,-38.536,-42.589,-24.093,-10.229,-6.205,-53.401,-47.654,-23.146,-8.165,-6.065,-29.377,-35.677,-19.688,-3.708,-4.791,-65.631,-26.234,-10.436,-0.402,1.824,74.221,-10.22,3.607,22.491,10.311]],
"kep": [[-9.92,-3.756,-11.594,1.833,-14.196,-17.919,-1.876,1.28,3.437,15.357,-5.262,5.525,0.765,3.444,12.416,11.222,7.501,-2.68,14.004,27.868,-0.66,33.318,53.062,32.816,34.848,42.263,92.936,100.825,86.637,101.642],[-57.269,-2.384,-1.329,3.61,2.559,-61.259,1.592,4.058,-2.344,2.788,-61.504,-2.834,3.305,2.1,1.137,-45.735,8.451,4.05,6.439,4.882,-28.347,12.107,7.886,12.596,11.379,-10.24,19.518,16.916,15.075,13.112],[-84.263,-15.556,6.823,0.786,0.944,-80.791,-15.352,-0.304,1.936,1.125,-76.279,-5.98,3.305,5.17,3.009,-64.695,-3.956,6.846,8.374,6.541,-56.287,-8.643,13.823,17.195,9.411,-38.037,-3.016,27.988,28.48,12.589],[-83.031,-27.897,-1.89,1.923,5.004,-84.327,-29.856,-1.63,3.651,4.501,-79.711,-25.062,6.004,0.527,4.001,-73.868,-21.828,9.464,10.382,9.241,-69.068,-31.36,11.664,21.068,10.823,-67.951,-15.831,19.362,14.07,16.607],[-90.323,-43.723,-7.354,-2.198,1.793,-88.313,-44.492,5.598,10.484,6.066,-87.972,-42.064,1.601,7.591,6.021,-81.915,-42.803,-0.635,9.537,9.582,-72.192,-30.712,7.012,12.87,17.075,-70.449,-42.093,-0.941,17.741,18.29],[-89.12,-53.022,-14.123,4.745,5.035,-90.871,-46.335,-10.124,0.293,3.683,-88.929,-55.612,-3.928,0.203,4.183,-81.577,-50.231,-10.332,14.567,7.508,-80.614,-47.397,-7.164,7.105,22.422,-76.302,-35.697,-14.659,-4.426,20.87]],
"vp": [[811.067,650.139,679.719,258.281,265.156,230.662,13.381,31.269,69.663,-39.647,37.544,-16.16,33.769,22.955,10.022,-26.885,-17.077,1.857,-25.403,-20.569,-27.048,-26.561,-37.29,-21.286,-23.31,-22.572,-37.928,-25.071,-27.125,-27.557],[4383.341,1469.97,1473.073,839.665,855.984,936.87,319.583,90.622,239.291,108.12,402.362,132.477,41.749,49.777,75.808,40.304,-3.606,7.585,7.376,3.193,15.633,-10.101,-6.906,-32.334,-21.12,-25.301,-18.422,-22.815,-26.818,-16.556],[6392.105,3687.187,1500.117,1788.813,1595.865,1276.848,790.531,303.193,296.965,350.028,615.22,241.843,190.06,69.791,131.946,81.685,24.188,4.176,-9.74,22.932,40.515,-13.639,-22.379,-14.248,-2.315,-12.787,-25.895,-4.829,-30.891,-27.232],[6795.618,6513.041,2991.396,2177.718,1767.457,1334.984,1080.575,642.097,511.633,366.079,539.652,601.962,344.937,202.148,164.717,94.36,92.52,30.412,62.022,3.245,51.763,37.851,-12.08,-9.074,-7.947,12.02,-7.415,4.379,-5.044,-8.457],[7717.641,9268.533,4581.868,3435.607,3128.631,1347.813,1824.981,716.251,532.428,333.403,689.728,711.879,389.521,232.489,243.955,124.551,144.582,43.685,0.785,14.897,2.585,13.094,25.113,-10.307,-8.729,-7.556,-8.202,-2.128,-0.106,-30.288],[6547.97,10197.15,6582.222,2763.448,3100.555,1314.191,1816.043,1392.522,835.481,601.913,590.518,1021.471,722.285,314.564,282.282,71.298,140.835,108.663,24.141,36.897,70.502,45.348,28.667,-4.933,-13.513,-40.621,10.378,-5.561,-20.888,-31.798]]
}