{
"KTrans": [[5.288,4.392,0.892,4.229,3.458,13.832,9.783,9.4,9.428,7.45,28.384,16.334,14.674,14.734,11.083,16.352,88.234,69.959,66.176,60.72,72.261,59.673,58.349,118.375,114.104,118.669,-2.676,-44.121,-28.283,51.633],[-3.265,-2.725,0.494,2.73,1.5,-1.963,2.554,2.89,3.813,4.276,4.965,8.266,6.203,8.149,7.104,-7.734,54.508,36.758,32.745,33.076,4.829,-35.103,60.782,72.222,61.847,86.377,95.351,-44.052,22.092,65.68],[-25.511,-1.541,-2.729,-0.88,1.288,-22.216,1.165,1.826,1.649,1.897,-35.5,8.547,5.439,6.138,5.201,-34.434,26.308,34.5,31.173,25.265,-23.397,-14.226,7.131,57.33,45.969,38.268,7.799,56.825,-34.248,78.638],[-48.447,-3.259,-5.688,-3.593,-0.694,-62.862,1.751,-1.207,-1.531,1.176,-58.199,1.957,1.42,2.604,2.713,-32.454,-8.488,41.21,27.929,19.305,-26.176,-4.168,-25.818,58.272,51.307,-6.655,1.354,-8.179,-39.32,32.354],[-75.64,-3.303,-5.746,-2.449,-2.107,-76.277,-4.264,2.993,-0.559,-0.107,-72.511,10.37,0.263,2.416,2.115,-70.98,0.187,24.163,28.991,18.24,-43.768,-7.007,-15.71,53.405,40.399,-20.777,-24.819,-24.025,48.518,-0.413],[-78.572,-13.037,2.91,-3.832,-1.281,-78.828,-11.111,-0.511,-0.895,-1.083,-82.757,-17.312,-2.146,-1.646,-1.647,-66.229,-37.068,28.888,18.328,18.89,-71.044,-24.336,4.091,15.522,40.077,-40.16,-6.901,-10.048,-6.482,-50.522]],
"ve": [[3.758,4.028,13.499,14.408,17.718,5.182,4.694,5.761,4.236,205.401,11.618,6.837,3.53,6.837,12.09,46.851,20.179,4.05,-5.422,-11.208,96.641,34.257,-9.441,-6.346,-13.431,189.625,84.229,35.237,10.314,1.794],[1.4,1.358,1.494,0.457,1.379,8.918,2.865,1.682,1.677,1.366,11.977,4.831,3.627,2.941,1.961,51.591,26.21,14.773,10.555,6.587,101.08,59.975,28.799,21.042,15.343,208.5,94.766,59.664,45.711,24.618],[1.066,-0.438,-0.285,0.134,0.452,6.311,2.664,1.109,1.713,1.017,7.093,4.414,2.15,2.012,1.348,49.735,22.907,14.992,11.491,8.344,103.595,48.501,32.817,23.625,17.229,200.743,100.153,62.465,46.955,27.962],[2.449,-0.144,-0.295,-0.581,-0.075,4.715,1.651,1.362,0.692,0.329,13.108,4.493,2.411,2.029,1.523,47.804,25.433,16.85,11.78,8.619,99.925,51.069,34.366,25.009,19.003,196.285,103.955,65.601,50.674,42.503],[-0.825,0.755,-0.031,-0.119,0.128,58.799,1.869,1.213,0.474,0.547,-587.209,5.614,2.34,1.832,1.523,52.456,25.392,15.935,11.993,9.252,95.072,49.379,33.898,27.65,18.858,205.073,100.593,66.782,54.322,37.279],[-0.145,-0.516,0.098,-0.33,-0.214,1.894,2.908,1.588,1.386,0.573,8.24,3.62,2.008,2.076,1.059,48.03,25.282,18.042,11.32,9.784,102.622,53.106,22.631,24.47,19.016,201.114,102.314,66.319,50.158,38.911]],
"kep": [[-2.709,-4.209,-11.759,-6.431,-9.381,3.101,-0.355,1.083,1.933,-1.51,9.562,3.525,6.908,8.32,3.139,-20.112,51.884,54.351,68.662,73.811,-3.497,13.989,20.361,106.357,124.057,-5.811,-10.717,-28.472,-13.009,65.453],[-10.105,-10.491,-7.709,-4.693,-6.671,-12.732,-6.976,-5.713,-4.87,-4.079,-12.841,-3.607,-4.457,-2.105,-2.06,-37.924,13.639,10.745,11.766,16.183,-41.583,-49.27,13.798,32.132,30.321,-34.563,3.987,-51.96,-15.197,14.272],[-32.36,-7.907,-9.236,-7.853,-6.167,-31.898,-8.318,-6.296,-6.999,-6.12,-45.479,-3.172,-3.996,-3.197,-3.39,-56.792,-6.404,7.984,9.117,7.441,-58.558,-38.669,-22.339,17.563,15.43,-51.321,-38.509,-4.279,-46.976,20.838],[-54.536,-10.367,-12.015,-9.823,-7.548,-68.029,-7.615,-9.397,-9.014,-6.207,-65.933,-9.688,-7.997,-6.493,-5.86,-56.492,-29.61,11.349,5.976,1.947,-61.92,-36.553,-42.826,17.169,17.259,-66.908,-45.996,-38.92,-50.602,-6.573],[-76.034,-12.144,-12.643,-9.238,-9.07,-77.943,-13.846,-5.756,-8.082,-7.626,-76.415,-4.673,-9.297,-6.576,-6.463,-79.63,-25.491,-1.769,6.425,0.391,-71.425,-39.792,-36.978,12.864,8.955,-71.499,-58.885,-50.301,-5.629,-26.597],[-79.452,-20.739,-5.136,-10.512,-8.086,-80.804,-21.065,-9.582,-9.27,-8.645,-84.197,-26.71,-11.513,-10.673,-9.572,-77.431,-52.099,1.045,-1.812,0.143,-83.333,-49.703,-25.663,-14.299,8.227,-78.398,-52.89,-43.675,-36.299,-57.345]],
"vp": [[-51.758,-5.167,-206.631,21.869,61.856,-6.891,47.662,-42.5,-51.364,25.625,-16.222,0.465,18.552,21.116,1.916,-24.913,-28.574,-24.956,-8.665,-14.391,-16.385,-15.383,7.619,-8.713,-1.835,-47.087,-8.011,-6.993,-4.053,-16.143],[1663.125,746.88,195.493,-139.306,158.361,385.699,75.395,-9.501,11.514,14.471,193.672,7.896,-34.514,6.884,-5.489,6.58,-28.766,-59.348,-31.453,-9.321,-22.106,-47.642,-38.423,-27.97,-14.219,-37.05,-60.101,-40.192,-14.229,-14.144],[3408.363,1200.942,502.649,294.242,-147.473,690.49,387.358,149.067,81.705,-51.875,352.812,110.953,10.579,51.744,-32.727,16.63,-5.672,-15.495,-23.506,-27.081,-11.583,-18.099,-51.202,-38.266,-43.689,-52.225,-45.215,-43.469,-34.45,-57.667],[5067.55,2614.743,1041.54,454.274,416.825,1093.231,573.778,87.591,58.073,39.749,500.587,211.666,142.643,51.329,14.952,12.641,28.682,8.886,-20.177,-30.11,-6.123,-4.255,-29.499,-39.388,-36.2,-36.321,-37.297,-18.623,-37.641,-48.304],[6001.413,4181.077,2063.026,935.638,894.556,947.981,692.283,510.578,233.924,97.019,530.002,379.577,153.965,47.672,78.668,83.929,14.75,12.563,14.662,-14.523,-12.793,-30.806,-17.005,-45.373,-37.75,-13.932,-21.352,-40.353,-50.644,-57.152],[5613.895,4760.828,2954.077,1115.515,996.504,982.998,941.538,540.908,254.483,217.291,604.203,381.466,269.619,63.194,114.071,74.28,68.678,1.228,-18.405,14.392,8.141,-9.08,-26.894,-15.304,-16.345,-19.086,-29.643,-41.848,-53.646,-51.03]]
}