{
"KTrans": [[-6.284,9.427,6.005,7.302,1.791,0.614,18.373,15.96,10.231,8.949,9.994,30.052,19.342,15.648,15.756,97.799,90.783,71.672,72.29,76.79,104.394,4.976,94.64,102.642,85.241,272.356,149.274,169.564,25.859,176.366],[-48.669,10.342,8.946,6.443,7.717,-39.508,18.126,15.884,12.864,6.447,-37.761,32.549,13.934,13.007,9.109,-11.567,59.472,71.909,43.28,39.496,3.839,14.314,90.19,92.002,78.389,57.152,61.068,122.601,-13.504,79.058],[-71.776,5.984,11.615,7.063,7.287,-70.22,9.174,11.885,10.589,7.658,-65.473,10.424,20.147,15.929,15.51,-60.592,6.748,78.196,50.161,36.792,-32.243,34.56,18.311,70.558,89.848,33.077,45.935,20.145,90.769,28.081],[-81.897,-14.446,13.474,10.612,9.512,-84.377,0.108,22.034,11.57,9.46,-78.788,3.709,18.869,16.401,13.375,-72.132,19.906,45.529,58.033,44.067,-47.249,46.015,33.018,34.81,74.811,14.363,47.373,47.309,34.526,-0.216],[-91.195,-31.502,17.628,19.244,12.604,-86.838,-25.042,19.567,16.056,14.882,-89.421,-26.113,30.407,22.824,16.999,-75.457,-9.084,32.037,70.329,42.547,-58.494,-11.906,-3.492,53.784,66.28,-20.06,27.086,36.064,29.488,35.994],[-94.685,-41.055,8.235,20.74,11.314,-95.894,-43.853,19.357,24.602,11.394,-93.006,-49.549,18.161,23.901,15.878,-91.113,-27.338,21.73,56.693,46.368,-82.658,-32.985,19.161,40.69,81.802,-28.354,-19.282,29.78,34.849,50.101]],
"ve": [[6.642,26.191,7.911,5.297,-155.693,-147.182,18.615,-9.849,-34.813,-13.097,45.027,6.985,30.277,31.253,36.707,42.59,21.928,14.027,-11.667,70.496,101.189,38.089,-116.597,-7.022,-11.513,200.061,88.305,30.562,10.846,-3.276],[-7.795,3.704,0.125,0.287,-0.913,6.637,4.423,0.259,1.192,-0.599,18.937,6.818,3.462,0.909,0.196,58.213,24.191,15.6,9.682,4.737,100.917,51.811,30.799,21.804,11.859,208.279,98.952,58.543,42.959,27.83],[30.224,1.228,0.732,-0.696,0.121,14.911,5.702,1.367,1.171,-0.012,15.678,7.344,4.061,2.038,-0.14,63.014,22.891,16.108,10.983,7.577,93.281,48.57,29.111,17.533,17.88,210.734,100.531,65.184,43.531,33.146],[-9.572,2.48,0.277,0.587,-0.484,2.739,4.975,1.57,0.159,-1.557,14.954,29.304,1.841,2.171,1.62,59.117,24.036,17.086,11.256,8.482,98.439,47.794,30.088,23.244,17.958,200.853,91.489,64.242,50.148,38.059],[-40.003,-25.797,1.793,0.746,-0.619,455.264,6.392,2.189,0.518,1.096,11.636,9.912,2.84,2.714,1.989,54.538,25.739,17.381,10.915,9.74,103.058,54.121,33.448,25.508,18.272,205.29,101.921,64.565,48.376,38.296],[69.066,0.985,0.814,-1.009,-0.145,-26.522,1.92,-11.104,0.594,0.12,12.746,6.99,4.3,2.651,1.262,56.498,30.667,17.971,11.807,8.816,100.234,54.962,31.546,34.839,18.631,212.504,103.706,67.208,51.202,39.178]],
"kep": [[-13.341,6.244,6.15,7.352,-1.549,-12.346,20.173,17.875,11.328,20.202,-10.032,24.374,20.009,25.13,26.913,34.76,64.173,66.813,93.828,126.044,11.501,-21.466,73.316,99.017,102.823,51.674,59.354,117.521,33.804,203.062],[-55.113,8.306,10.401,7.826,9.951,-46.034,14.745,16.96,13.274,8.479,-49,27.241,11.315,13.665,10.568,-41.359,27.043,49.654,31.461,34.703,-40.508,-12.764,43.936,59.298,60.043,-37.377,-5.597,47.748,-32.586,40.155],[-76.916,3.461,11.037,8.283,7.634,-75.946,5.044,10.588,9.788,8.332,-74.363,3.963,16.322,14.152,16.232,-73.704,-11.145,51.377,35.28,27.474,-64.347,-5.074,-5.172,39.716,60.328,-48.577,-15.896,-16.48,34.8,-0.053],[-85.305,-16.963,13.4,10.176,10.585,-87.74,-4.532,20.877,12.09,11.592,-83.329,-2.167,17.078,14.462,11.843,-81.031,-5.534,23.905,41.608,33.193,-71.868,1.153,5.464,10.571,45.818,-56.881,-17.404,-4.059,-1.104,-19.656],[-92.352,-33.061,16.157,18.795,13.466,-90.011,-29.755,17.51,15.924,13.655,-91.004,-32.034,26.516,20.109,14.858,-83.651,-27.771,12.564,51.778,29.597,-77.524,-39.569,-22.232,23.455,39.126,-69.02,-29.552,-11.878,-6.949,4.015],[-96.209,-44.043,6.692,22.24,11.594,-96.659,-47.604,16.092,23.917,11.543,-94.557,-53.886,12.623,20.438,14.671,-93.128,-42.952,3.064,38.064,34.139,-89.229,-53.368,-6.158,13.527,50.407,-73.085,-53.587,-14.424,-5.838,12.307]],
"vp": [[846.911,355.875,167.019,-354.623,500.112,315.426,72.548,-31.352,17.329,27.309,127.741,-17.006,-24.52,10.35,58.033,-11.959,-28.972,-19.792,-28.582,-21.007,-33.15,-30.735,-34.374,-20.302,-26.631,-28.207,-30.047,-40.831,-30.232,-34.739],[4751.67,1775.326,1208.665,652.382,1063.186,823.864,429.326,192.425,423.539,176.782,379.478,199.805,-45.614,81.307,13.795,42.969,7.637,22.711,-2.317,0.401,2.977,-16.057,-18.889,-7.311,-9.915,-16.514,-32.986,-39.529,-3.225,-45.209],[6020.828,5925.573,2100.924,1391.957,1455.512,1287.019,1130.556,447.287,240.153,253.314,564.166,472.543,169.784,161.849,190.882,91.139,78.48,42.005,22.841,23.079,29.769,-15.25,3.955,-24.559,15.634,9.386,-13.639,-14.121,-43.251,-17.409],[6518.546,7637.74,4892.601,2889.699,1433.051,1341.744,1730.606,842.065,496.819,161.073,573.888,743.199,399.999,158.913,207.816,103.829,86.924,57.514,35.591,38.511,28.333,11.564,-1.926,9.588,4.107,-10.922,-13.529,-33.735,3.954,-14.106],[7130.101,9712.505,6587.336,4239.343,3804.031,1414.845,1791.056,1406.041,640.858,491.299,666.59,950.418,652.206,359.25,295.628,114.161,129.922,134.522,73.257,57.899,28.537,66.08,38.479,5.751,-3.418,-5.204,2.195,-11.146,1.269,-0.69],[7008.396,10553.746,9983.787,5171.659,4419.164,1528.043,2122.667,1869.196,1190.236,807.019,744.795,1187.423,932.923,524.817,364.608,148.122,179.884,134.902,88.461,51.898,38.569,91.217,45.496,41.601,10.781,34.705,20.602,-0.326,14.094,-0.355]]
}