{
"KTrans": [[-17.152,7.871,-1.186,15.539,9.42,-10.901,13.41,7.439,15.772,8.729,-10.413,30.885,14.265,18.17,21.919,40.442,110.931,79.472,82.704,73.089,0.854,101.926,117.789,110.55,145.759,321.95,133.596,119.885,59.386,85.053],[-48.722,9.241,12.442,4.612,1.631,-49.878,15.573,15.459,9.783,7.576,-50.415,19.142,19.774,13.392,10.319,-39.364,48.884,55.716,47.765,36.829,-17.247,27.921,87.563,102.25,91.203,50.655,148.626,33.538,85.856,99.073],[-81.923,-7.147,4.16,6.551,6.225,-76.877,-2.007,14.689,9.416,6.758,-78.152,-10.576,12.099,14.475,15.807,-52.921,4.885,45.998,42.848,37.901,-48.768,14.222,65.993,83.34,68.877,-42.158,52.723,18.18,24.093,72.507],[-89.828,-25.657,5.62,6.924,9.562,-82.134,-22.068,9.854,16.938,7.449,-89.082,-17.726,27.295,16.339,13.174,-86.565,-12.528,48.185,48.162,36.975,-68.598,-35.518,21.943,81.93,84.43,-30.972,47.187,24.777,77.124,80.223],[-94.159,-43.084,5.026,6.852,12.156,-94.513,-47.444,10.803,19.341,12.057,-94.458,-36.474,13.854,21.976,15.266,-89.314,-29.089,31.622,44.086,34.388,-77.351,-40.188,20.537,50.113,62.348,-21.951,43.577,47.163,49.748,74.792],[-94.959,-57.802,-10.965,13.873,9.187,-93.993,-53.657,7.878,13.841,10.328,-97.194,-57.893,5.855,19.979,12.664,-88.749,-45.506,0.447,47.089,35.706,-80.076,-32.896,-10.227,57.561,83.199,-62.807,0.887,2.28,16.351,42.377]],
"ve": [[0.837,54.456,-63.302,-91.147,12.721,18.488,26.087,-219.801,77.27,204.478,27.752,61.256,-27.213,56.337,13.708,194.958,-16.029,8.848,18.35,78.885,105.378,88.235,10.56,-2.05,-12.307,195.701,76.121,47.542,340.188,-6.03],[14.134,2.61,1.643,1.933,0.512,27.702,9.413,2.629,2.444,2.76,23.868,8.18,3.399,3.63,1.928,57.87,29.918,15.632,9.927,5.397,115.762,42.824,25.708,22.553,13.421,211.674,98.466,62.869,40.32,-120.968],[53.969,3.149,3.101,-0.193,-1.119,12.324,-0.928,3.103,1.6,0.415,14.781,9.9,6.524,3.125,1.097,58.571,23.544,18.597,11.202,7.653,103.865,51.189,32.303,23.6,17.802,215.995,100.34,66.452,46.541,36.333],[2.148,-10.721,0.493,-0.178,0.278,30.635,9.088,3.036,2.297,-0.072,-7.101,10.989,4.853,1.463,2.043,43.007,25.817,16.693,11.337,9.53,107.544,54.915,12.377,25.85,19.566,212.692,101.488,44.808,46.975,41.596],[41.119,-24.803,1.189,-0.503,-0.628,23.222,2.318,3.335,1.129,0.876,18.937,8.242,5.045,3.012,2.226,54.909,27.17,16.122,14.459,9.069,81.973,51.497,31.13,24.608,18.433,201.223,98.418,63.386,47.649,36.276],[-4.328,3.252,-0.692,-0.321,-0.886,28.655,0.554,0.686,1.986,1.075,18.292,3.003,-0.27,1.855,2.281,70.322,53.337,16.192,12.794,9.033,101.936,66.556,29.927,26.307,20.496,210.156,98.281,67.358,51.258,38.034]],
"kep": [[-35.817,7.053,-5.129,24.45,19.525,-35.758,10.862,6.749,25.405,11.887,-30.554,31.215,8.94,25.092,42.274,-7.871,85.373,78.668,101.802,110.553,-35.364,49.125,89.954,112.957,201.718,64.543,49.167,73.418,69.18,96.798],[-59.064,9.44,12.549,4.554,3.234,-61.929,9.093,15.456,9.731,6.752,-64.036,11.668,17.447,12.05,11.281,-62.316,15.432,36.013,36.15,31.538,-55.41,-9.853,44.9,67.622,69.565,-37.485,34.717,-4.438,37.321,52.853],[-87.512,-7.981,1.947,7.455,8.232,-82.061,-7.128,12.139,8.539,7.025,-83.959,-17.392,6.48,12.019,15.236,-70.668,-15.352,23.77,28.491,28.509,-73.119,-18.869,26.626,48.15,42.945,-74.362,-15.106,-18.136,-5.382,26.763],[-93.357,-28.799,5.484,7.734,9.777,-87.497,-29.838,7.437,14.92,8.106,-94.514,-24.965,21.804,15.067,11.135,-91.596,-29.83,25.278,33.004,25.297,-83.207,-53.458,-6.427,43.251,53.397,-72.162,-19.498,-19.366,22.683,31.839],[-96.915,-46.069,4.428,7.974,13.147,-97.207,-51.598,7.926,18.608,11.446,-96.236,-42.862,8.881,18.8,13.232,-93.009,-44.023,13.029,25.846,23.302,-87.141,-57.175,-5.903,19.002,36.096,-70.79,-22.106,-3.704,5.707,29.192],[-97.151,-60.429,-10.455,14.507,10.639,-96.669,-56.432,4.977,12.392,9.644,-98.792,-61.11,1.6,17.981,10.469,-92.983,-56.023,-14.833,30.802,24.248,-88.756,-52.759,-30.913,24.282,49.982,-85.201,-45.429,-31.651,-16.326,5.593]],
"vp": [[1993.612,-183.312,-765.786,466.088,18.906,421.556,15.983,68.609,-56.29,-123.062,109.045,39.827,-40.905,-0.229,-66.787,1.501,-15.423,-22.947,-7.489,-8.944,-4.653,-24.063,-30.002,-28.605,-22.427,-30.381,-35.417,-26.956,-22.19,-24.333],[4875.404,2881.102,1556.52,1041.068,-211.396,941.356,724.621,418.176,227.198,172.853,414.896,296.993,-6.527,22.707,24.321,61.737,18.891,-13.386,-8.055,-16.504,63.163,7.385,-17.163,2.224,-4.787,10.042,-36.261,-28.3,-38.508,-22.348],[7084.197,6046.006,2995.981,1239.943,1562.846,1369.755,1013.489,427.308,268.555,237.808,647.656,602.946,291.127,227.399,171.37,87.996,90.619,21.959,-5.303,17.902,41.142,29.219,1.23,-2.738,-3.86,41.227,-24.278,-20.342,-23.615,-17.23],[7666.017,8800.087,4675.568,2914.752,2916.958,1361.726,1838.313,1076.254,599.921,78.85,746.661,880.829,537.443,309.671,150.728,143.503,215.332,61.442,45.764,25.522,56.212,80.444,27.864,36.536,-2.286,48.57,10.431,-9.654,-32.54,-11.566],[8574.19,11116.641,8371.451,5237.638,2496.158,1432.353,2553.049,1693.525,1033.569,251.05,753.585,1078.31,697.029,431.55,259.04,145.944,181.073,136.813,77.379,38.569,90.476,81.925,36.896,39.844,-1.151,8.957,9.413,-4.128,-19.694,-38.222],[7185.544,13217.54,10740.545,8031.875,2456.307,1636.861,2102.107,2394.557,1319.37,894.274,845.402,1192.384,1315.458,536.892,400.078,108.109,181.929,211.808,153.598,46.374,51.561,110.085,94.643,47.713,-2.538,34.614,-1.81,36.006,21.495,-14.599]]
}