{
"KTrans": [[1.665,10.818,14.297,9.146,19.95,2.187,19.744,20.677,15.884,17.41,21.906,28.942,19.703,21.615,23.419,134.695,89.371,81.89,75.17,78.373,160.605,180.732,171.824,147.327,142.616,-89.713,146.306,303.292,273.238,261.535],[-37.774,-6.382,0.734,2.61,6.082,-32.416,-2.078,1.501,10.7,9.788,-25.833,6.122,9.966,10.314,12.155,13.008,32.172,38.025,35.833,38.632,2.708,93.629,80.241,70.379,66.25,54.769,45.181,156.275,142.44,129.666],[-63.014,-20.982,-10.472,-2.398,0.266,-55.109,-13.753,-4.527,0.155,2.477,-53.414,-11.54,-2.853,-0.36,3.594,-22.854,17.443,19.728,20.058,22.999,-39.62,55.669,55.777,46.698,45.634,-25.173,30.482,127.982,107.947,100.321],[-70.755,-24.217,-15.91,-9.678,-5.714,-68.079,-23.745,-13.738,-7.519,-4.301,-63.935,-20.147,-10.535,-4.508,-0.684,-48.192,2.962,10.837,7.5,14.533,-53.826,26.518,34.433,34.981,33.554,-93.394,-12.368,81.095,95.367,81.253],[-77.999,-33.545,-23.739,-15.503,-9.782,-78.66,-35.686,-21.075,-13.631,-6.512,-72.64,-31.992,-15.469,-9.462,-5.329,-64.448,-8.062,-3.462,9.44,4.303,-79.255,1.522,28.445,31.393,25.809,-61.988,-64.786,62.424,58.827,61.325],[-82.908,-38.972,-22.651,-17.149,-12.467,-79.376,-38.942,-23.258,-17.408,-12.363,-79.249,-36.743,-19.715,-15.744,-9.93,-78.27,-29.109,-7.86,0.734,0.589,-65.063,-6.804,13.979,17.738,19.319,-57.896,-21.672,14.256,55.498,51.093]],
"ve": [[4.344,37.993,14.371,-245.372,107.634,269.341,42.096,31.239,22.825,12317.344,164.529,15.479,91.869,-444.175,48.59,35.771,39.307,21.503,8.512,24.01,99.954,43.792,50.103,-36.15,-7.145,188.81,63.72,45.287,12.265,-14.778],[-95.522,1.22,1.669,7.535,9.257,6.902,1.468,6.675,5.407,5.957,6.553,3.881,4.698,6.98,8.346,48.919,24.33,15.624,14.313,9.623,92.818,44.945,28.581,21.222,17.115,193.18,90.148,60.637,43.911,32.277],[-12.398,-1.541,-0.637,0.8,3.123,13.983,0.774,0.752,1.317,2.724,15.198,1.037,1.336,1.073,2.04,48.861,21.638,12.981,9.379,8.035,89.546,46.789,29.327,21.143,16.491,190.255,94.674,61.455,44.013,35.265],[-7.535,-1.566,-3.454,-1.315,-0.877,20.311,1.259,-1.769,-1.372,-0.503,14.653,1.21,-0.553,1.171,-0.488,62.036,21.69,13.181,8.101,6.636,93.51,43.173,28.058,21.093,16.137,192.654,88.586,17.295,45.752,34.997],[6.41,-3.383,-4.369,-2.953,-2.195,-2.309,0.988,-2.066,-1.466,-2.503,4.357,0.886,-0.105,-0.646,-0.818,34.172,20.649,12.648,8.237,5.522,107.978,57.889,28.06,20.537,14.909,185.905,89.419,-1781.313,43.278,33.898],[17.414,-2.004,-2.362,-4.176,-2.807,-5.274,-2.64,-1.705,-3.393,-3.223,17.125,2.323,-1.355,-1.367,-1.985,-150.317,17.52,12.305,7.993,5.65,96.56,44.773,26.341,21.314,15.529,186.751,87.055,53.636,43.327,34.089]],
"kep": [[-36.124,-32.109,-33.719,-51.63,-32.831,-39.386,-26.308,-25.637,-41.153,-43.731,-28.814,-18.421,-33.597,-34.151,-35.103,9.535,10.134,14.806,17.454,33.938,-8.786,38.863,63.235,64.864,84.736,-78.112,-9.054,95.918,115.746,146.396],[-59.274,-35.135,-31.03,-33.291,-32.244,-58.554,-31.728,-33.448,-26.447,-27.163,-53.504,-28.214,-26.698,-27.809,-27.431,-48.47,-26.371,-16.974,-17.282,-12.144,-59.648,-8.689,-3.203,-3.034,-1.703,-60.13,-46.922,8.114,15.901,19.614],[-75.193,-43.725,-37.393,-33.171,-32.762,-71.899,-40.132,-33.986,-31.647,-30.912,-71.464,-39.142,-33.345,-31.847,-29.974,-64.011,-33.356,-26.882,-24.047,-21.655,-75.585,-27.049,-17.354,-16.782,-13.899,-78.267,-49.905,-4.207,-1.386,1.26],[-80.861,-46.164,-39.626,-36.784,-34.54,-80.33,-47.724,-39.193,-35.384,-33.73,-78.72,-44.891,-38.011,-34.871,-31.2,-75.385,-41.758,-32.536,-31.634,-26.07,-82.462,-39.711,-28.263,-23.685,-21.054,-93.617,-65.645,-24.361,-8.975,-8.396],[-86.527,-52.567,-44.773,-39.975,-36.492,-86.38,-55.222,-44.429,-39.505,-33.937,-83.913,-53.515,-41.476,-37.225,-34.295,-83.752,-48.121,-40.935,-30.594,-32.067,-90.954,-53.479,-31.461,-25.316,-24.936,-88.064,-82.111,-31.698,-24.498,-17.935],[-89.748,-56.722,-45.303,-40.431,-38.005,-87.405,-56.305,-46.191,-41.061,-37.587,-87.657,-56.846,-43.736,-41.242,-36.783,-89.444,-59.21,-43.609,-35.878,-34.589,-86.411,-55.431,-38.679,-33.598,-29.217,-88.011,-70.388,-50.403,-26.387,-23.154]],
"vp": [[-158.584,520.549,701.899,1303.332,536.804,-8.592,29.953,32.777,247.282,111.472,23.184,-30.489,-15.997,66.507,91.527,-8.498,-20.093,-9.643,-6.059,31.83,-7.109,-13.544,12.289,10.998,-7.15,-15.07,0.303,-6.57,-1.398,-11.427],[2691.839,815.827,-93.961,-430.108,986.258,578.549,239.514,-52.625,135.784,-44.851,269.371,118.609,128.446,-32.954,60.095,34.484,18.949,-9.638,-2.838,2.772,-8.584,-0.428,-8.581,-14.057,-5.948,1.447,-1.806,-16.704,-18.595,-15.775],[3834.228,4229.897,1026.351,615.621,-932.766,1035.546,788.348,566.042,395.392,88.78,465.081,322.052,156.323,57.098,18.655,82.24,28.437,22.258,-23.659,-24.993,29.446,22.413,10.159,-5.578,-14.944,-0.234,0.228,-4.083,-20.752,-3.066],[6073.466,6197.712,4364.067,2005.74,585.224,1211.229,1135.736,599.617,417.718,308.127,595.304,558.102,346.866,221.13,154.124,97.091,114.211,49.972,37.526,13.43,42.634,18.165,2.701,4.795,-10.936,18.293,5.648,-4.334,-4.961,0.161],[7462.92,8076.344,5092.517,2414.534,2934.491,1178.287,1414.931,1056.496,684.107,433.416,635.097,793.273,722.277,427.395,292.999,136.971,147.112,86.48,107.051,40.798,86.324,75.222,40.59,30.09,-1.61,15.496,24.246,13.984,-28.347,-24.492],[8168.249,9016.195,7250.777,6045.267,2875.608,1380.696,1761.257,1541.567,996.416,801.091,706.813,924.592,746.393,326.052,207.507,174.734,175.821,105.867,80.337,35.412,64.879,61.632,53.437,61.441,35.923,4.229,6.884,5.873,6.379,-2.699]]
}