{
"KTrans": [[6.964,4.283,2.506,1.897,0.985,12.86,9.101,8.833,7.576,10.034,33.873,17.604,13.697,12.962,12.298,166.735,96.331,81.172,68.916,63.208,410.867,227.002,182.376,156.609,145.283,1136.936,600.29,468.607,401.968,362.998],[14.216,11.548,0.551,5.259,3.738,33.415,11.174,8.319,4.34,5.594,45.126,18.192,15.511,12.152,5.765,155.611,81.406,48.732,37.697,32.339,379.142,158.444,107.261,84.09,73.81,965.347,382.648,246.396,180.576,156.209],[14.597,12.47,12.241,5.658,2.296,35.942,21.496,13.606,8.211,2.686,46.408,31.323,15.201,11.447,6.727,152.848,79.194,49.319,42.707,30.739,380.507,159.629,98.912,76.714,60.428,963.322,382.424,214.998,159.433,129.684],[-4.59,18.225,10.639,5.883,4.521,-0.67,36.179,21.061,6.231,3.409,15.872,29.935,17.033,11.493,9.893,120.361,87.626,63.377,37.165,24.178,276.545,166.456,107.451,68.108,61.055,722.418,442.56,225.99,155.594,129.179],[-40.471,36.8,21.398,15.501,7.647,-15.437,41.985,17.467,15.556,10.71,-31.727,52.579,13.898,17.87,15.091,44.186,121.76,62.473,43.392,32.448,157.184,224.39,102.818,69.313,66.704,464.731,442.226,216.004,160.343,131.675],[-56.622,17.462,33.121,17.34,13.467,-43.862,42.482,27.271,15.906,19.075,-27.966,46.58,22.272,13.416,18.766,3.816,118.463,64.464,50.791,44.409,64.799,194.375,124.044,88.264,56.069,316.302,410.152,253.079,168.721,127.784]],
"ve": [[2.017,-0.005,0.612,0.991,3.003,3.984,0.886,-1.041,-1.503,-4.374,9.49,1.687,-1.326,-3.781,-6.482,44.552,13.256,-1.535,-11.532,-18.699,92.245,33.252,8.131,-7.815,-18.351,190.954,78.752,35.333,10.119,-6.839],[1.036,1.471,0.072,0.435,0.383,5.367,2.327,1.582,0.955,0.839,10.731,4.608,3.199,1.934,1.108,49.274,24.495,13.819,8.82,5.591,99.362,47.803,29.714,19.629,12.983,198.427,97.015,60.977,41.046,28.698],[1.59,0.622,0.854,0.553,0.107,5.113,3.172,2.236,1.272,0.551,11.095,5.672,3.229,2.569,1.333,49.554,24.934,16.057,11.842,8.658,100.681,49.086,31.747,23.346,17.367,200.516,98.793,64.32,46.637,35.682],[2.773,0.664,0.236,0.035,0.175,5.668,3.672,2.184,0.624,0.377,11.754,4.728,3.147,2.437,1.84,50.07,24.398,17.336,11.773,8.67,100.815,49.382,33.162,23.512,18.851,201.229,101.029,65.744,48.253,38.299],[0.861,1.008,0.706,0.919,0.246,5.737,2.8,1.552,1.315,1.285,16.64,5.514,2.871,2.257,2.445,48.131,25.349,16.284,12.176,9.589,93.056,50.697,32.614,23.665,20.023,201.377,100.329,64.924,49.227,39.234],[0.472,-0.422,1.045,0.671,0.455,6.248,3.092,1.979,1.019,1.903,9.611,5.299,2.602,1.994,2.488,50.922,25.631,16.3,12.825,10.65,99.417,49.57,33.199,25.062,18.951,200.223,99.523,66.259,49.41,39.363]],
"kep": [[4.619,4.522,2.646,2.51,0.7,8.233,8.262,10.54,10.57,17.556,21.802,15.759,15.908,19.086,21.752,84.087,73.082,83.898,90.944,100.924,165.323,144.911,160.754,178.077,200.107,324.592,291.318,319.78,355.361,396.484],[11.606,9.169,0.052,4.522,3.252,24.612,7.898,6.172,3.012,4.616,29.134,12.178,11.464,9.751,4.459,69.545,44.791,30.045,26.155,25.032,138.894,74.039,59.099,53.374,53.503,255.557,144.155,114.505,98.411,98.494],[10.371,10.58,10.417,4.466,1.649,25.522,16.358,10.186,6.206,1.679,29.484,22.778,10.847,8.003,4.799,66.927,42.029,27.727,26.899,19.767,137.345,72.601,49.958,42.588,36.042,251.765,140.935,90.839,76.074,68.572],[-8.299,15.762,9.158,4.861,3.734,-7.332,29.253,17.11,4.545,2.298,2.659,21.992,12.161,8.034,7.161,43.904,48.486,37.923,21.774,13.618,86.084,76.319,54.399,35.12,34.649,171.745,168.127,95.482,71.31,64.863],[-42.223,31.975,18.72,13.367,6.368,-20.986,34.764,13.822,12.7,8.43,-38.839,41.359,9.34,13.722,11.453,-3.953,73.298,37.644,26.497,19.838,27.162,111.981,51.271,35.575,37.917,88.277,167.794,89.553,73.185,65.219],[-56.446,14.996,29.342,15.018,11.745,-46.938,34.928,22.725,13.158,15.761,-34.57,36.138,16.868,9.759,14.69,-30.775,70.729,38.919,32.178,29.16,-17.153,93.553,65.715,48.955,29.987,38.866,152.393,109.863,77.931,62.057]],
"vp": [[0.001,0.001,0.001,0.001,0.001,0.005,0.005,0.005,0.005,0.005,0.01,0.01,0.01,0.01,0.01,0.05,0.05,0.05,0.05,0.05,0.1,0.1,0.1,0.1,0.1,0.2,0.2,0.2,0.2,0.2],[0.001,0.001,0.001,0.001,0.001,0.005,0.005,0.005,0.005,0.005,0.01,0.01,0.01,0.01,0.01,0.05,0.05,0.05,0.05,0.05,0.1,0.1,0.1,0.1,0.1,0.2,0.2,0.2,0.2,0.2],[0.001,0.001,0.001,0.001,0.001,0.005,0.005,0.005,0.005,0.005,0.01,0.01,0.01,0.01,0.01,0.05,0.05,0.05,0.05,0.05,0.1,0.1,0.1,0.1,0.1,0.2,0.2,0.2,0.2,0.2],[0.001,0.001,0.001,0.001,0.001,0.005,0.005,0.005,0.005,0.005,0.01,0.01,0.01,0.01,0.01,0.05,0.05,0.05,0.05,0.05,0.1,0.1,0.1,0.1,0.1,0.2,0.2,0.2,0.2,0.2],[0.001,0.001,0.001,0.001,0.001,0.005,0.005,0.005,0.005,0.005,0.01,0.01,0.01,0.01,0.01,0.05,0.05,0.05,0.05,0.05,0.1,0.1,0.1,0.1,0.1,0.2,0.2,0.2,0.2,0.2],[0.001,0.001,0.001,0.001,0.001,0.005,0.005,0.005,0.005,0.005,0.01,0.01,0.01,0.01,0.01,0.05,0.05,0.05,0.05,0.05,0.1,0.1,0.1,0.1,0.1,0.2,0.2,0.2,0.2,0.2]]
}