{
"KTrans": [[-8.919,15.026,5.905,5.256,3.268,4.721,14.548,12.245,13.86,5.916,16.89,22.054,17.44,13.483,13.318,108.115,100.077,85.799,76.608,64.812,45.235,148.572,144.894,139.411,135.322,-10.48,60.247,216.287,233.031,180.362],[-46.868,8.007,4.018,3.161,4.888,-32.134,11.342,9.322,2.646,6.119,-37.94,19.958,8.262,9.766,6.859,-20.373,70.187,49.725,39.974,37.028,-21.949,47.353,111.363,81.336,71.144,71.149,61.352,0.387,127.005,137.09],[-68.912,-2.703,3.518,3.663,4.664,-69.243,6.637,5.945,8.666,6.282,-72.8,7.293,11.949,11.781,10.693,-51.131,50.876,51.545,39.045,34.557,-41.488,9.145,110.201,74.486,66.331,-20.503,44.296,43.041,124.231,141.943],[-80.81,-9.338,7.105,5.487,2.85,-75.778,-8.409,10.579,5.654,8.248,-77.404,-2.52,10.438,10.722,12.882,-69.103,18.925,63.02,40.554,30.342,-60.673,7.619,51.113,119.412,67.949,-32.991,7.577,-12.831,41.321,118.95],[-86.364,-13.217,2.347,7.449,3.492,-92.092,-17.222,14.584,9.446,5.079,-89.488,-10.833,9.233,8.377,8.957,-92.326,-20.616,53.035,48.554,29.844,-63.655,-36.788,37.704,97.706,76.87,-19.71,-36.97,7.837,-19.375,103.596],[-89.642,-38.488,3.209,7.376,6.553,-94.424,-37.929,15.116,10.648,7.505,-89.928,-27.582,6.669,10.25,10.66,-95.573,-20.839,45.788,48.373,27.329,-75.138,-38.426,10.655,112.171,80.94,-38.457,-14.918,6.386,5.894,76.045]],
"ve": [[-368.047,12.291,9.513,35.724,-558.601,3.978,-7.939,20.75,18.02,5.78,27.045,-349.36,11.858,-18.431,38.371,47.567,24.015,7.051,-2.402,-3.861,97.522,36.905,7.875,-5.876,-9.679,201.899,80.049,61.273,9.312,-8.942],[13.368,1.735,0.467,-0.238,0.368,1.842,4.021,2.611,2.239,0.653,15.83,5.049,3.573,1.701,0.383,55.438,24.864,16.42,9.099,6.394,100.58,46.256,30.836,19.478,13.285,203.221,98.66,62.053,46.126,30.245],[13.548,1.558,-0.334,1.086,0.237,26.047,3.557,2.894,1.471,0.481,37.197,6.671,3.482,2.754,0.888,60.534,26.362,16.655,10.704,7.347,107.567,49.954,32.95,22.774,17.873,203.072,102.811,66.842,45.79,37.492],[8.489,2.607,1.484,0.606,0.427,-1.864,3.623,0.61,0.975,0.316,30.367,6.633,3.054,1.507,1.2,49.349,23.673,15.999,12.109,8.446,99.965,49.15,32.133,25.266,18.861,206.644,99.885,66.379,47.198,37.161],[4.687,4.287,-0.081,0.846,-1.036,-35.253,37.365,0.87,0.998,0.544,1.853,8.019,3.538,1.884,1.429,54.377,16.839,17.591,12.206,9.147,99.752,51.74,32.161,25.153,19.615,206.281,107.144,65.362,49.774,40.586],[15.134,2.704,1.704,0.233,-0.401,-17.235,10.016,1.667,0.755,0.603,13.391,7.996,3.786,2.735,1.458,3.733,25.379,19.081,12.006,9.288,100.512,52.365,33.093,25.162,19.245,201.369,97.648,67.492,48.979,36.87]],
"kep": [[-13.911,18.849,10.821,3.568,5.602,-10.302,13.696,11.341,21.823,10.566,0.097,20.555,20.152,14.8,21.687,42.186,73.516,84.355,102.375,101.767,-13.429,85.7,118.523,150.118,175.163,-41.264,8.91,142.853,198.015,196.683],[-53.678,7.675,4.519,4.275,5.437,-41.14,8.565,7.31,0.981,6.229,-48.51,15.905,5.897,8.797,7.391,-47.391,36.653,29.508,29.307,29.568,-55.883,3.554,60.836,51.577,51.489,-32.125,-8.851,-29.895,57.492,81.903],[-73.85,-3.374,4.404,2.865,4.637,-76.666,4.09,3.513,7.57,6.148,-77.483,1.597,8.858,9.171,10.131,-70.018,19.162,29.957,25.815,25.629,-67.916,-22.887,55.899,41.465,40.887,-66.588,-19.825,-7.625,51.909,74.005],[-84.604,-11.272,6.017,5.071,2.473,-80.208,-12.231,10.363,4.984,8.193,-81.842,-8.651,7.619,9.459,11.785,-80.334,-5.931,40.28,25.267,20.265,-78.419,-26.264,13.809,72.676,40.652,-73.615,-38.632,-40.496,-0.515,56.974],[-88.794,-16.613,2.55,6.797,4.795,-93.711,-21.099,13.63,8.555,4.894,-91.651,-17.098,5.35,6.506,7.739,-93.885,-37.742,30.235,32.042,19.09,-80.163,-55.581,4.653,55.666,46.876,-69.763,-62.137,-28.669,-39.41,42.306],[-91.557,-40.41,1.638,7.24,7.011,-96.179,-41.798,13.112,9.918,6.972,-91.767,-33.292,2.886,7.448,9.353,-96.664,-37.092,21.15,31.92,16.392,-86.747,-55.592,-15.772,65.605,50.183,-76.66,-53.181,-30.659,-23.928,26.612]],
"vp": [[611.236,516.471,239.332,260.47,-196.535,191.281,119.079,-65.948,5.013,-38.333,35.21,17.091,-56.799,7.126,32.354,4.762,-13.125,9.319,-3.727,5.327,-6.962,-29.074,-13.741,-15.787,-8.008,9.861,-16.571,-23.43,-26.1,-23.434],[5185.674,1782.246,1005.752,-32.653,96.281,1106.035,218.722,217.428,-92.393,86.246,636.245,150.052,-31.504,-13.159,-27.495,102.453,-10.369,-3.688,-4.598,-5.657,39.013,-14.529,-3.449,-13.756,7.36,8.678,-13.295,-4.942,-16.368,-21.801],[7965.515,5580.688,1452.445,1360.183,508.97,1612.588,1066.604,285.14,58.024,65.135,751.885,499.605,94.313,113.459,56.22,135.206,64.077,26.223,-7.414,21.66,69.606,17.007,-1.411,-9.731,0.051,30.879,0.491,-18.293,-27.284,-12.025],[8708.92,8228.417,3421.65,1388.244,573.899,1607.809,1792.409,449.571,166.205,201.829,868.085,833.495,380.36,142.634,179.831,167.322,147.279,67.991,-1.389,-3.242,88.335,52.425,6.206,21.44,-17.281,31.485,43.068,3.73,-19.641,-23.397],[9643.796,13350.781,5684.439,2420.382,1136.447,1951.451,2517.565,1358.181,276.967,166.572,879.841,1188.519,659.66,223.073,36.348,178.44,256.998,107.999,28.448,2.188,87.313,102.739,44.545,10.767,9.068,38.063,49.499,7.343,8.818,4.025],[9459.309,14591.778,10317.556,4193.046,1614.681,1885.686,3066.32,2614.552,938.329,222.968,967.047,1496.243,1121.255,518.081,193.614,197.658,288.223,186.479,41.651,-18.235,85.796,132.425,81.356,31.274,6.435,29.296,44.375,21.067,-13.073,-14.023]]
}