{
"KTrans": [[2.536,1.169,2.472,3.358,1.805,13.381,11.688,8.347,8.03,6.056,24.531,15.824,15.083,13.698,11.018,163.734,94.383,73.059,72.982,62.095,208.875,214.367,175.291,149.385,144.673,-4.263,263.713,310.277,310.91,302.455],[-5.777,3.147,1.835,2.114,1.496,2.46,8.237,5.419,4.025,4.478,16.813,11.885,12.604,7.701,7.741,98.684,68.633,49.197,36.439,33.813,-23.497,172.627,118.795,78.696,67.377,-21.621,69.529,240.88,187.476,154.926],[-22.566,6.288,2.359,1.537,0.714,-11.8,9.421,4.487,5.217,4.231,-6.485,13.72,10.464,7.901,7.099,-15.797,75.724,46.879,33.834,26.058,-41.26,168.833,106.755,77.561,61.437,-5.39,20.159,264.187,173.1,151.953],[-48.153,1.64,2.49,4.298,3.313,-40.491,8.181,5.619,4.402,4.787,-40.442,16.078,11.627,8.338,7.037,-37.33,71.616,42.611,38.139,25.851,-34.774,70.75,104.242,75.502,54.886,-39.469,-82.153,133.169,181.856,136.45],[-66.289,2.25,3.095,3.324,3.135,-57.418,4.484,9.581,6.631,5.238,-52.509,11.513,13.708,8.555,6.595,-83.135,54.043,45.81,36.705,29.677,-88.794,8.949,119.942,76.788,54.634,-93.578,-35.101,-9.998,232.228,137.791],[-73.404,2.754,7.367,3.474,2.273,-73.049,7.13,9.897,6.511,5.32,-68.735,-1.235,17.318,7.678,6.257,-78.381,33.146,48.306,35.809,26.498,-76.804,-7.093,168.52,92.549,56.383,-59.518,-45.042,38.709,188.673,169.554]],
"ve": [[3.674,2.651,2.637,1.264,8.275,7.211,1.094,0.56,-0.959,-0.988,11.639,4.29,0.425,-4.866,-3.726,46.447,14.57,0.815,-10.15,-16.639,91.237,34.908,10.151,-5.639,-16.181,193.291,77.139,39.739,-40.899,1.084],[1.493,-0.042,0.031,-0.669,-0.078,5.44,2.08,1.397,1.218,-0.23,11.521,5.952,2.488,1.48,0.166,19.888,23.248,13.991,9.236,5.505,100.368,48.544,30.205,19.71,12.765,203.591,99.932,62.35,42.498,29.543],[3.14,1.063,0.567,-0.03,0.005,8.053,2.544,1.423,0.999,0.306,15.101,4.578,3.223,2.408,1.198,28.13,24.462,15.619,11.196,8.355,102.221,49.465,32.02,23.058,17.523,207.314,99.663,66.931,47.117,37.072],[5.181,0.862,0.392,0.246,-0.144,6.31,3.603,1.664,0.806,0.821,14.593,5.19,3.046,2.335,1.342,48.984,24.548,16.272,11.973,8.732,100.848,53.351,31.708,23.727,18.252,203.663,100.159,65.609,48.118,38.056],[3.666,1.063,-0.341,0.09,-0.27,5.587,3.317,1.621,1.053,0.693,11.015,5.119,3.528,2.21,1.542,-58.321,25.959,16.25,12.304,9.629,103.095,52.667,32.079,24.256,18.693,202.441,100.175,66.041,50.128,38.847],[8.911,0.881,0.147,0.002,0.209,10.2,3.274,1.151,1.108,0.552,13.13,4.533,3.449,2.281,1.746,48.84,25.54,15.955,12.138,9.469,102.514,49.173,33.814,24.997,19.301,199.056,97.702,66.094,49.251,39.583]],
"kep": [[0.576,0.856,2.804,6.044,1.25,7.712,12.272,10.911,13.154,11.968,13.274,13.163,17.483,22.665,19.941,79.257,70.736,73.656,95.378,97.392,58.649,132.333,150.132,165.406,193.23,-44.715,96.697,192.612,253.982,309.225],[-6.705,3.532,2.014,3.012,1.774,-2.238,6.318,4.162,2.946,4.878,4.944,5.785,9.983,6.314,7.749,29.897,36.365,30.871,24.99,26.998,-54.753,81.054,67.267,49.241,48.383,-62.666,-8.968,107.164,99.971,95.91],[-24.875,5.243,1.916,1.616,0.765,-18.774,6.967,3.074,4.265,3.99,-17.604,8.992,7.129,5.462,5.902,-42.786,40.429,26.937,20.393,16.388,-67.491,76.365,55.487,43.804,37.152,-62.983,-33.467,113.565,83.551,82.383],[-50.215,0.962,2.155,4.127,3.504,-45.72,4.296,3.977,3.631,3.989,-49.066,10.591,8.419,5.912,5.659,-57.503,36.862,22.478,23.299,15.683,-63.629,12.34,53.207,41.244,30.74,-75.431,-83.129,39.543,86.362,69.729],[-68.474,1.082,3.419,3.239,3.438,-60.981,0.785,7.864,5.588,4.545,-57.849,6.268,9.844,6.25,4.994,-87.694,22.204,25.128,21.515,18.214,-92.319,-25.684,63.838,41.4,29.867,-94.094,-61.21,-41.335,115.075,69.178],[-74.738,1.62,7.161,3.491,2.085,-75.117,3.349,8.711,5.316,4.786,-72.965,-6.056,13.269,5.251,4.453,-84.157,5.141,27.287,20.874,15.429,-85.65,-34.335,96.861,52.448,30.58,-83.011,-67.687,-13.512,88.349,89.478]],
"vp": [[162.772,31.501,112.85,24.752,146.531,3.995,84.148,6.413,1.022,6.543,21.988,-12.608,39.204,4.289,6.916,-3.175,2.835,12.252,23.445,13.989,-3.388,-4.01,9.075,5.787,16.093,7.308,4.428,-7.693,6.188,4.543],[2818.973,82.747,81.111,-55.239,170.443,549.604,40.622,75.195,-35.475,25.736,333.25,39.361,26.672,8.501,26.615,62.26,8.649,29.788,7.083,19.097,22.301,15.586,28.439,3.314,5.933,30.253,9.832,2.653,3.782,5.418],[6534.26,882.809,331.837,487.218,-70.919,1409.889,204.857,71.849,135.868,62.338,606.089,136.471,33.007,-6.169,36.657,102.263,31.327,35.546,6.795,-1.646,73.392,12.41,20.59,20.398,22.263,38.142,20.033,22.73,3.173,31.815],[7998.375,2975.859,406.349,-4.174,33.726,1650.341,562.363,101.36,-46.214,37.899,863.627,349.551,62.823,46.715,10.254,143.975,64.149,16.742,36.36,11.43,83.005,64.627,10.365,18.074,5.163,50.944,31.464,13.048,1.502,18.38],[9219.429,5805.669,304.571,3.332,6.013,1881.411,1100.337,156.926,46.747,7.273,905.264,717.403,104.919,45.268,50.702,198.172,126.197,27.518,37.898,35.402,111.025,45.076,22.496,23.785,7.608,67.558,33.103,12.685,30.139,15.932],[9978.822,10144.346,1365.393,399.017,-166.614,2019.46,1994.343,332.288,-43.581,39.327,979.625,850.77,235.639,71.51,-17.025,179.85,190.315,63.314,11.547,2.399,108.978,79.016,90.331,50.888,14.417,45.512,30.729,20.407,19.006,29.725]]
}