{
"KTrans": [[-57.668,-63.233,-76.336,-92.734,-112.24,-54.604,-68.127,-58.746,-86.296,-82.907,-30.659,-48.324,-93.295,-69.173,-96.067,-5.379,-1.502,-13.284,-50.71,-49.078,49.28,25.985,18.82,5.736,-17.23,188.562,148.989,111.876,101.462,68.739],[-62.463,-47.249,-49.034,-59.333,-65.631,-61.744,-46.272,-53.408,-57.964,-62.109,-52.832,-46.38,-47.444,-50.988,-58.225,-35.65,-23.308,-11.699,-33.732,-33.108,-15.114,6.431,18.28,-10.553,-11.764,59.98,8.691,43.804,35.089,26.068],[-73.13,-59.414,-56.261,-48.543,-50.898,-72.577,-56.933,-40.187,-47.84,-43.044,-69.497,-51.042,-46.576,-44.758,-48.7,-55.786,-44.017,-23.85,-20.592,-29.592,-49.532,-20.821,-5.068,2.438,3.604,-25.414,8.306,27.471,15.957,11.493],[-80.825,-66.258,-50.283,-51.646,-48.113,-80.462,-59.31,-52.08,-38.855,-43.87,-79.939,-58.082,-48.962,-42.192,-45.126,-70.164,-53.254,-35.835,-39.776,-34.864,-60.203,-43.64,-24.523,-20.952,-10.468,-64.764,-21.541,2.731,20.096,2.025],[-83.641,-69.997,-54.476,-50.786,-39.269,-84.344,-67.344,-56.135,-51.582,-48.661,-83.757,-66.239,-47.202,-43.518,-43.173,-78.517,-60.462,-46.346,-34.684,-35.156,-66.421,-48.499,-31.818,-28.119,-16.488,-56.222,-30.832,-13.137,3.724,-1.852],[-87.165,-72.777,-60.752,-53.866,-48.939,-88.762,-73.674,-58.625,-49.948,-49.622,-85.908,-70.181,-62.57,-48.42,-42.778,-81.564,-64.84,-52.222,-39.476,-36.717,-77.836,-53.231,-50.975,-33.972,-32.381,-66.748,-51.524,-26.452,-13.191,-6.837]],
"ve": [[-1034.076,9.267,-51.737,-59.209,-1029.506,-57.865,-49.312,-58.739,-19.887,-29.124,-15.351,-76.926,-98.48,-134.544,-71.857,-79.933,-209.902,-35.063,823.181,-8.175,100.393,8.465,-53.744,-207.293,-24.934,196.829,87.987,16.883,-140.614,26.631],[-0.556,-35.432,-75.676,-47.645,-54.394,-29.541,11.934,-73.918,-32.856,-34.627,22.14,-79.18,-40.359,-77.207,-26.918,-129.467,-2.524,3.005,2.835,-56.869,85.257,35.146,11.864,-9.875,-11.184,350.651,108.127,49.357,30.698,-9.363],[-62.244,492.899,-78.935,-45.141,-56.06,-56.502,-49.78,-58.846,-39.733,-40.68,-69.376,-41.552,-62.51,-53.254,-47.099,-237.179,-7.231,-26.279,4.739,-27.593,45.352,397.389,-2.193,19.673,5.959,177.674,98.053,101.159,38.171,-18.724],[-91.225,-51.398,-57.794,-77.078,-82.426,-38.544,25.751,-48.799,-44.268,-49.648,-12.037,-5.482,-64.755,-42.135,-61.141,70.646,-73.282,-1.134,-53.15,-45.572,190.79,-30.322,-0.541,-15.631,-47.112,147.997,42.442,24.576,68.269,44.451],[-627.926,83,-59.744,-69.403,-54.622,12.099,-27.412,6.555,-71.745,-84.343,32.241,-6.11,-37.41,-61.596,-65.435,-6.162,-60.211,-57.247,-45.251,-102.529,151.294,2.746,7.04,-63.248,-34.313,183.463,60.981,29.981,-6.743,-11.65],[-19.136,-39.595,-51.175,-101.332,-76.547,61.805,-73.823,-40.989,-55.211,-69.683,8.178,0.389,355.702,-59.935,-62.975,153.227,6.497,-25.53,-38.44,-48.251,-259.03,61.94,-36.739,-31.331,-53.728,297.344,56.589,84.401,-5.944,-9.661]],
"kep": [[-110.892,-120.805,-88.753,-16.569,48.735,-110.545,-104.993,-131.535,-24.492,-40.954,-123.693,-133.463,-48.936,-114.279,35.562,-125.216,-143.524,-121.767,-16.258,-5.536,-103.981,-91.021,-119.799,-104.013,-105.04,-91.335,-144.732,-159.578,-111.514,-169.654],[-98.913,-111.607,-107.603,-92.322,-38.984,-99.273,-111.027,-105.514,-126.881,-36.755,-100.351,-98.588,-118.964,-108.242,-45.262,-94.03,-94.104,-120.274,-99.672,-97.023,-92.281,-95.995,-133.616,-112.99,-68.267,-102.757,-88.398,-110.897,-122.167,-98.542],[-100.611,-87.739,-88.233,-102.921,-117.719,-97.926,-84.19,-93.952,-90.994,-107.827,-98.329,-90.202,-74.035,-97.976,-122.859,-98.211,-87.591,-81.965,-90.764,-99.514,-95.057,-87.827,-72.563,-101.71,-119.706,-91.617,-77.476,-75.903,-62.722,-73.873],[-101.147,-83.792,-72.354,-61.416,-74.982,-100.811,-87.407,-66.187,-61.571,-77.36,-101.594,-89.777,-69.268,-61.98,-63.393,-102.128,-80.952,-69.036,-57.316,-62.659,-102.973,-77.964,-70.023,-64.741,-72.405,-93.963,-67.241,-53.729,-75.963,-68.521],[-98.779,-87.138,-62.811,-43.319,-42.797,-99.997,-87.762,-67,-46.067,-32.305,-101.716,-94.328,-61.498,-48.674,-46.086,-98.658,-92.238,-70.483,-51.275,-29.374,-100.254,-83.445,-70.474,-48.77,-34.3,-92.782,-77.442,-61.971,-61.345,-50.672],[-100.733,-89.668,-67.454,-42.966,-34.224,-100.17,-91.236,-73.429,-51.771,-37.356,-100.371,-92.643,-74.037,-44.574,-38.032,-100.751,-90.132,-75.015,-48.712,-47.506,-100.041,-92.875,-72.315,-53.579,-38.055,-98.06,-82.996,-77.546,-44.967,-43.672]],
"vp": [[-139.979,488.607,-95.763,1428.266,1103.268,-97.261,-136.366,107.378,61.923,230.532,22.089,2.413,7.957,-18.331,42.246,-33.882,-3.637,4.617,3.147,-17.956,6.676,-7.531,10.859,-21.659,-3.542,-23.527,-6.515,12.146,7.729,16.921],[3402.099,1256.522,392.088,-142.867,-274.712,495.149,215.678,37.476,-203.298,169.247,322.168,107.714,-2.812,-113.784,-56.218,49.648,-11.812,14.038,-14.606,-6.893,3.346,15.04,-5.235,17.838,-2.649,-5.595,11.089,-15.437,-8.233,-5.109],[5292.36,4121.991,1578.743,192.207,112.86,1087.241,743.833,697.542,-24.183,138.489,445.714,414.596,159.71,45.975,-87.053,107.94,87.124,59.499,4.98,-24.826,45.136,26.686,4.544,-0.715,-9.568,19.241,4.273,13.614,9.905,-12.897],[5583.006,4368.62,4665.739,1964.943,1704.229,931.842,1216.823,822.83,622.913,360.099,539.177,651.409,367.807,189.968,16.595,134.926,112.558,79.968,9.529,5,59.331,48.692,42.123,7.316,-11.739,41.769,14.177,-11.4,-11.05,-11.15],[6033.447,7129.168,4976.457,3741.573,3627.087,1192.838,1479.436,1249.078,718.783,421.588,626.211,853.118,615.815,284.929,294.668,127.562,139.12,90.659,77.889,15.684,63.915,49.947,56.043,15.623,-3.157,-3.182,-8.406,6.226,9.981,-11.937],[7080.387,9655.572,8497.554,4670.797,3446.334,1557.521,1813.887,1692.279,1220.636,753.306,832.061,1013.236,812.731,491.367,375.39,145.401,151.701,155.343,134.804,106.06,69.063,116.644,76.5,62.766,11.225,18.222,42.84,43.332,-7.556,-8.42]]
}