{
"KTrans": [[27.376,14.467,13.941,13,14.029,45.606,25.976,25.35,13.689,17.308,56.274,34.703,23.83,18.397,21.141,226.55,107.646,96.401,81.705,79.578,517.588,265.235,193.465,175.026,171.299,1353.101,650.885,505.173,439.251,387.435],[192.537,50.365,35.058,23.97,26.257,150.389,56.633,30.575,25.254,23.909,16.392,68.159,35.06,41.043,19.107,297.153,122.616,92.531,71.194,53.288,599.746,276.078,147.056,112.865,91.727,1554.082,598.945,293.998,226.641,179.547],[-138.137,205.568,62.583,16.363,26.259,-99.087,243.083,72.913,31.881,24.394,-98.328,270.4,57.661,43.583,41.19,-142.195,419.64,127.057,75.468,75.075,-132.813,607.563,141.729,130.384,72.758,-349.706,904.956,377.751,230.164,168.217],[-97.754,-167.639,176.763,73.176,45.662,-124.478,-0.657,176.09,64.043,47.54,-96.46,6.664,143.13,84.507,62.387,-108.172,-107.803,236.817,81.801,79.867,-144.539,-156.506,385.52,168.586,120.519,-164.627,-359.865,634.429,237.654,199.878],[-103.266,-110.987,185.917,107.788,73.595,-105.692,-101.825,143.595,126.227,77.022,-108.782,-138.893,415.898,162.003,93.322,-89.803,-67.427,459.975,202.401,141.014,-84.605,-122.101,198.594,227.244,145.074,-163.984,-189.485,597.948,397.983,220.298],[-116.164,-114.25,-169.426,321.095,158.555,-109.32,-138.511,-59.607,348.799,121.385,-117.715,-117.741,-122.114,474.148,166.976,-84.364,-128.954,-113.847,587.743,155.504,-81.425,-107.238,-17.856,657.567,207.756,-96.401,-128.753,-201.642,1265.85,331.99]],
"ve": [[1.11,0.803,1.764,3.882,6.018,5.23,1.189,-1.026,2.158,1.13,8.871,1.832,-1.191,-2.235,-3.454,45.621,11.819,-1.48,-11.724,-19.086,94.615,33.949,6.907,-7.649,-18.429,193.502,79.197,35.805,10.612,-6.67],[0.563,1.475,2.055,1.094,1.304,3.854,3.083,1.906,1.664,1.369,9.419,5.258,3.315,3.444,1.171,49.994,22.995,15.985,10.52,6.021,98.003,50.83,29.838,19.999,12.978,201.496,99.919,60.735,42.446,28.622],[0.048,1.814,2.054,-1.609,0.744,3.71,3.736,3.293,0.918,0.621,9.466,6.634,2.083,3.077,3.514,51.753,24.814,16.868,12.121,10.945,99.721,50.179,29.8,24.366,15.812,195.366,97.346,66.235,47.383,35.745],[0.84,2.027,2.505,1.272,1.268,5.572,3.22,3.494,2.454,2.076,8.582,5.735,3.67,4.245,4.191,51.236,25.171,17.754,10.407,10.359,99.549,50.895,34.997,25.004,20.156,201.125,100.787,68.204,47.09,39.399],[3.845,1.548,2.598,0.761,1.005,6.674,3.257,6.034,2.266,2.059,9.148,6.005,5.281,4.582,3.927,50.987,26.058,17.51,13.939,12.2,100.75,50.901,36.09,24.804,20.189,201.632,100.431,64.194,49.451,38.65],[2.535,2.931,2.399,1.263,3.772,7.847,3.911,0.495,0.929,1.835,11.315,5.782,6.54,3.867,4.216,49.52,27.414,20.714,13.926,9.981,102.679,53.199,33.502,24.483,20.127,200.423,100.149,67.66,51.529,39.762]],
"kep": [[22.176,13.313,15.23,16.66,20.765,34.504,23.727,28.512,18.176,27.028,39.571,30.903,26.754,25.629,34.181,118.663,82.295,97.262,104.489,121.491,212.373,169.237,170.662,194.97,228.869,391.084,315.424,342.05,383.251,417.473],[165.141,41.907,29.24,20.507,23.595,121.231,45.32,24.49,21.022,20.978,4.184,52.336,27.185,33.97,16.284,153.701,73.632,61.607,51.786,42.232,239.929,143.069,85.163,73.674,66.871,439.311,242.141,140.05,125.823,113.81],[-128.273,178.144,52.65,13.39,21.824,-92.173,205.606,59.901,25.767,19.738,-91.665,222.55,45.527,34.489,33.17,-119.51,286.035,85.502,51.387,54.027,-107.917,344.48,78.424,79.504,45.203,-172.535,384.608,178.556,117.787,92.902],[-92.736,-152.124,152.708,61.984,38.171,-116.525,-4.789,149.43,53.074,39.146,-91.756,-0.378,118.565,68.825,50.367,-99.526,-96.223,169.513,55.819,56.793,-116.034,-126.054,241.443,105.361,77.201,-115.043,-212.822,319.391,120.556,109.1],[-99.269,-103.258,161.071,92.834,62.327,-100.77,-94,120.459,107.2,64.359,-102.868,-126.511,351.03,135.497,76.905,-88.927,-68.185,341.145,150.254,104.75,-87.768,-105.681,112.477,147.851,94.842,-116.325,-134.316,298.981,216.697,121.365],[-111.555,-106.659,-154.134,280.948,136.57,-104.738,-128.744,-55.592,302.028,103.223,-111.576,-109.231,-111.603,405.294,140.344,-85.848,-115.238,-102.993,456.723,117.372,-86.977,-98.34,-34.371,458.576,141.543,-94.961,-106.521,-148.516,747.056,193.104]],
"vp": [[0.001,0.001,0.001,0.001,0.001,0.005,0.005,0.005,0.005,0.005,0.01,0.01,0.01,0.01,0.01,0.05,0.05,0.05,0.05,0.05,0.1,0.1,0.1,0.1,0.1,0.2,0.2,0.2,0.2,0.2],[0.001,0.001,0.001,0.001,0.001,0.005,0.005,0.005,0.005,0.005,0.01,0.01,0.01,0.01,0.01,0.05,0.05,0.05,0.05,0.05,0.1,0.1,0.1,0.1,0.1,0.2,0.2,0.2,0.2,0.2],[0.001,0.001,0.001,0.001,0.001,0.005,0.005,0.005,0.005,0.005,0.01,0.01,0.01,0.01,0.01,0.05,0.05,0.05,0.05,0.05,0.1,0.1,0.1,0.1,0.1,0.2,0.2,0.2,0.2,0.2],[0.001,0.001,0.001,0.001,0.001,0.005,0.005,0.005,0.005,0.005,0.01,0.01,0.01,0.01,0.01,0.05,0.05,0.05,0.05,0.05,0.1,0.1,0.1,0.1,0.1,0.2,0.2,0.2,0.2,0.2],[0.001,0.001,0.001,0.001,0.001,0.005,0.005,0.005,0.005,0.005,0.01,0.01,0.01,0.01,0.01,0.05,0.05,0.05,0.05,0.05,0.1,0.1,0.1,0.1,0.1,0.2,0.2,0.2,0.2,0.2],[0.001,0.001,0.001,0.001,0.001,0.005,0.005,0.005,0.005,0.005,0.01,0.01,0.01,0.01,0.01,0.05,0.05,0.05,0.05,0.05,0.1,0.1,0.1,0.1,0.1,0.2,0.2,0.2,0.2,0.2]]
}