{
"KTrans": [[14.416,7.951,-2.159,-17.746,-5.042,10.396,1.559,14.322,2.131,1.541,21.679,15.462,12.448,12.929,9.709,8.32,38.045,69.774,61.2,65.954,-65.547,73.099,56.894,88.02,72.587,201.685,-61.982,-9.156,51.974,99.384],[-37.107,-8.911,2.031,-0.74,-0.278,-35.847,-15.327,0.013,11.541,3.311,-34.529,-5.573,3.121,5.817,11.018,-16.114,-10.584,0.515,7.818,24.05,-92.792,-7.739,-41.097,-2.867,22.702,-40.808,-27.461,36.17,-54.829,5.615],[-56.651,-20.939,-8.548,-0.259,0.937,-49.027,-22.087,-8.449,-6.524,2.458,-52.029,-12.136,-3.184,-0.861,2.891,-46.797,-12.847,-15.117,17.699,5.141,-61.867,16.517,17.438,9.055,-24.605,1.998,-19.492,-16.499,-72.434,50.998],[-63.518,-29.219,-9.432,-6.478,-3.58,-64.664,-28.322,-10.23,-4.839,-3.047,-60.779,-27.309,-9.403,-4.043,-4.686,-59.715,-28.547,-13.422,-3.567,10.082,-36.356,-21.205,-21.235,-8.861,-10.988,-80.022,-39.331,-11.19,7.257,34.525],[-75.127,-32.251,-15.628,-4.974,-4.332,-71.937,-35.674,-12.536,1.066,-0.424,-65.498,-30.563,-12.397,-2.071,2.399,-65.883,-11.796,-0.927,15.697,6.317,-53.472,-62.048,4.893,-8.903,-16.463,-33.497,-21.434,45.471,51.678,29.099],[-78.089,-46.141,-18.116,-5.927,-3.04,-79.269,-40.148,-12.831,-3.302,3.331,-81.561,-25.817,-24.385,2.985,2.428,-80.873,-43.097,0.878,1.204,15.017,-72.755,-30.824,-19.709,23.522,32.647,-89.558,8.264,-54.507,-27.532,-9.005]],
"ve": [[-1.944,-24.693,20.768,-43.611,-58.719,-72.276,3.009,-28.364,-8.855,-146.598,-39.216,-10.747,76.097,-41.639,97.028,45.313,-1.125,12.445,37.945,-9.418,94.726,3.554,-7.276,-29.134,-60.802,183.1,84.348,49.21,6.573,-20.653],[-15.187,-6.371,10.541,11.345,-32.682,-1.137,-1.977,44.544,10.985,-4.36,160.128,66.063,1.811,21.66,-31.686,8.331,24.427,14.194,15.989,-11.208,119.396,47.59,34.176,-3.105,-31.951,195.798,93.323,54.166,49.088,23.85],[-71.367,-15.345,4.722,5.925,-4.338,30.464,-5.156,-7.125,-5.52,-2.887,5.677,-22.227,-35.4,3.936,4.878,21.687,16.863,16.391,17.874,17.617,97.78,35.56,-242.386,22.487,20.718,179.876,97.827,65.148,49.011,39.048],[-23.051,36.418,-7.653,-36.921,-0.893,-31.162,-12.666,-11.987,1.571,2.666,-2.591,-1.191,-5.381,15.07,8.589,94.706,35.721,13.792,6.578,11.291,134.312,42.91,31.322,24.043,15.565,208.456,96.647,65.564,74.076,42.35],[7.953,-3.5,-3.335,-4.401,-128.526,-8.656,-4.703,0.436,-1.074,20.778,226.288,-3.898,7.136,-1.967,1.131,61.295,34.022,14.428,9.647,6.215,9.092,46.173,31.464,23.92,10.146,177.754,91.404,62.411,46.542,39.009],[-16.088,-82.214,-5.45,-2.613,-1.791,13.99,-0.459,-3.728,-1.256,0.742,-2.089,8.12,-2.194,2.011,2.161,57.371,31.878,15.488,11.17,8.176,77.09,49.188,32.163,23.429,19.991,212.367,84.279,67.537,51.422,57.248]],
"kep": [[-111.809,-82.597,-75.452,52.925,-6.05,-114.043,-92.966,-73.899,-28.267,-6.361,-105.56,-131.852,-44.568,-44.882,-55.998,-156.247,-152.803,-185.187,-171.473,-202.226,-144.964,-173.293,-245.598,-341.806,-376.313,-5.736,-149.371,-269.198,-510.986,-589.479],[-83.795,-80.84,-110.072,-80.401,-36.757,-89.387,-97.531,-116.916,-99.369,-15.702,-86.038,-82.385,-111.142,-77.012,-53.813,-79.386,-90.647,-136.697,-175.949,-133.194,-91.083,-60.365,-149.92,-201.533,-218.142,-65.804,-48.159,-29.915,-148.742,-217.006],[-88.921,-58.64,-50.412,-66.208,-100.765,-83.741,-59.464,-46.302,-83.468,-109.077,-85.338,-54.307,-49.918,-75.249,-115.415,-85.067,-58.67,-73.609,-40.85,-116.461,-80.737,-42.524,-47.493,-56.568,-165.084,-67.677,-38.726,-39.714,-91.173,6.038],[-85.521,-54.542,-30.924,-30.787,-37.766,-88.895,-56.521,-35.959,-28.527,-41.405,-86.912,-53.413,-33.733,-39.025,-52.628,-87.594,-65.484,-54.109,-42.359,-29.206,-77.877,-49.476,-47.007,-49.208,-69.913,-83.142,-60.19,-39.421,-29.109,7.338],[-93.728,-55.546,-29.667,-17.114,-18.622,-91.767,-59.351,-29.229,-10.721,-8.105,-87.46,-52.898,-30.98,-20.239,-6.19,-88.746,-48.326,-28.175,-7.738,-21.945,-83.738,-73.435,-30.969,-39.747,-50.738,-75.151,-57.831,-19.014,-8.705,-15.987],[-92.387,-66.123,-33.46,-15.019,-8.443,-93.764,-63.581,-28.57,-10.624,-6.694,-95.51,-52.932,-41.32,-6.253,-0.891,-93.595,-70.681,-26.182,-24.572,-3.744,-89.251,-62.931,-49.833,-15.62,-1.826,-90.798,-55.291,-69.701,-48.565,-37.089]],
"vp": [[-91.369,-19.867,623.41,334.82,-820.445,131.338,-77.411,63.364,137.01,-20.757,-5.837,-6.533,-1.54,25.442,52.456,-43.18,-32.373,-19.298,4.426,21.996,-27.476,-20.149,-26.555,-19.497,-2.366,-56.586,-21.528,-17.863,-26.666,-15.91],[2457.109,658.217,229.843,22.562,477.947,290.756,186.058,52.783,-43.866,109.124,254.366,142.483,-65.143,-42.492,-141.476,14.397,-9.991,1.207,-20.31,2.255,0.362,-16.922,-14.624,1.366,-11.566,-42.008,-31.916,-51.448,-11.662,-14.925],[3767.986,3465.717,2237.339,1067.527,340.865,761.448,650.685,229.736,111.589,-14.624,475.83,224.221,168.536,-34.01,-13.744,50.869,43.044,9.722,-5.251,-2.224,6.189,-24.754,-25.785,-26.857,-29.952,-30.724,-30.646,-38.596,-38.469,-48.514],[5399.595,4507.277,2758.292,1809.967,1174.451,1060.36,1172.675,651.719,165.852,334.247,473.347,447.122,399.804,171.362,209.625,86.563,108.293,58.319,36.891,-28.296,6.977,32.146,-19.23,-25.95,-46.788,-0.906,-37.062,-28.35,-16.24,-23.474],[6436.59,5818.976,4092.126,3928.414,2070.774,1059.887,1557.055,957.078,731.909,279.639,672.745,531.031,516.954,273.339,192.552,67.963,101.868,79.261,33.845,37.816,-4.575,38.635,17.531,13.015,-8.279,-21.43,-36.075,-51.813,-46.324,-36.327],[5111.74,7534.168,6275.712,4546.275,2476.143,1211.209,1680.487,1459.759,974.787,596.377,635.743,970.065,506.221,439.646,340.135,122.168,141.514,96.637,79.186,60.815,25.452,39.536,24.942,-2.365,25.34,-5.04,-21.165,9.224,-34.18,-48.611]]
}