{
"KTrans": [[-10.579,1.341,1.614,3.623,3.468,1.029,-1.987,8.322,-0.192,4.351,13.79,5.221,2.03,5.142,3.776,32.49,27.324,23.725,18.537,19.607,98.038,53.925,36.281,48.974,42.771,82.561,111.845,140.793,92.625,81.987],[-63.057,-2.648,1.294,0.16,-1.3,-62.772,-2.151,-2.316,5.501,5.332,-58.102,3.077,-0.372,1.304,2.465,-30.617,9.116,14.825,11.121,6.759,-16.32,60.886,24.525,32.009,12.321,50.359,5.34,72.278,44.118,42.281],[-81.987,-14.377,1.452,-2.111,-0.386,-82.618,-18.972,-0.086,-1.64,1.573,-80.752,-16.083,2.112,4.293,5.802,-62.817,-2.954,10.843,7.104,5.945,-44.361,16.759,40.123,26.2,8.475,-32.516,39.644,57.611,56.564,38.43],[-90.997,-38.763,-9.255,-0.497,-2.031,-85.086,-41.599,-5.77,2.565,-1.732,-86.163,-37.285,-0.545,-0.198,1.357,-75.882,-21.512,14.659,7.072,10.192,-65.792,-17.292,23.752,21.816,10.716,-63.352,24.254,32.237,42.523,28.49],[-91.002,-54.715,-16.607,-2.595,1.674,-89.491,-56.783,-13.654,1.877,1.113,-88.277,-57.609,-11.517,-0.431,0.772,-88.206,-60.652,-1.023,15.107,4.316,-87.148,-37.314,13.773,18.02,22.09,-46.698,-27.703,28.077,30.297,28.295],[-94.074,-61.272,-27.481,0.928,-1.26,-91.784,-65.923,-31.01,-3.885,4.237,-92.745,-66.398,-26.142,2.65,-1.857,-86.807,-59.698,-9.312,9.653,12.963,-88.242,-51.249,4.087,17.622,20.873,-80.936,-16.855,15.874,23.253,28.524]],
"ve": [[-54.173,-10.948,-50.72,-392.074,-278.351,13.264,2.267,-206.259,47.856,16.615,3.227,5.292,144.89,803.06,7.904,-5.893,-85.779,-31.755,-27.533,-31.749,-121.026,-10.892,10.503,-18.938,-13298.865,37.332,-3.335,34.423,-20.048,5.781],[-39.353,-8.293,-2.515,-2.411,-1.015,-43.572,-5.066,-2.842,-2.183,-1.192,-44.043,-2.898,-2.413,-2.323,-1.865,-17.617,-4.547,2.389,3.337,-1.5,4.657,18.593,2.387,5.121,2.292,46.721,41.037,23.823,-20.949,-0.145],[-55.424,-11.565,-3.015,-4.916,-3.554,-37.486,-17.616,-4.287,-4.604,-2.727,-65.196,-15.321,-6.045,-3.01,-2.413,-15.481,-17.136,-0.817,-1.37,-0.603,-2434.93,-1.445,7.184,12.908,-1.006,58.513,20.905,15.613,16.486,8.279],[-50.742,-29.386,-8.352,-5.295,-4.244,-51.706,-25.391,-9.91,-4.956,-4.264,-51.339,-36.992,-8.544,-6.306,-4.023,-33.637,-18.297,-4.647,-2.855,-0.136,-30.752,-13.018,4.025,2.26,-0.969,45.54,22.627,6.147,7.348,3.887],[-104.814,-70.807,-16.624,-5.606,-5.104,-52.536,-38.379,-12.823,-4.655,-4.896,-58.66,-39.489,-16.906,-7.922,-4.195,-55.007,-48.12,-11.675,-3.334,-6.529,-29.853,-26.61,3.705,-3.681,0.133,15.062,-16.959,14.199,3.991,-4.422],[-76.105,-44.7,-25.787,-10.014,-6.309,-46.195,-47.279,-26.578,-8.286,-5.661,-65.834,-51.919,-24.085,-8.033,-8.286,-61.544,-38.051,-17.449,-8.695,-3.799,-70.49,-21.147,0.425,-1.788,-3.743,21.922,0.067,4.946,3.663,0.091]],
"kep": [[-18.308,-4.984,-0.009,6.749,10.342,-7.524,-0.652,7.075,-2.26,10.863,3.124,3.021,-2.052,5.764,3.252,1.12,14.81,21.61,22.614,25.312,36.744,16.891,7.91,44.328,49.9,45.971,108.825,119.557,98.836,98.731],[-60.664,4.743,4.001,2.628,0.136,-57.138,1.566,0.157,8.216,7.155,-56.046,4.514,1.584,4.009,5.014,-38.094,7.601,11.159,8.544,8.086,-29.372,32.391,8.037,20.98,5.447,-14.077,10.197,31.198,18.257,18.019],[-77.283,-4.581,3.088,2.335,3.305,-76.979,-6.968,3.603,2.571,4.162,-75.711,-6.022,6.922,6.888,8.388,-59.829,-5.553,10.699,7.177,5.73,-50.2,-0.488,24.638,16.344,7.406,-44.685,-0.48,24.366,23.772,17.083],[-86.969,-26.611,-2.575,4.21,1.982,-79.991,-30.687,2.221,7.161,1.998,-79.495,-22.893,7.51,5.995,4.977,-75.074,-17.763,14.118,9.217,9.63,-68.9,-24.972,11.957,12.641,8.371,-66.995,-10.35,4.81,23.313,15.118],[-84.912,-42.348,-3.576,1.591,6.553,-85.978,-40.304,-4.238,5.445,5.629,-83.395,-43.692,1.712,6.494,4.713,-84.13,-50.337,2.866,16.21,8.804,-77.633,-37.223,1.07,18.79,23.439,-68.571,-35.689,-2.518,10.725,20.636],[-92.105,-43.521,-7.395,10.778,3.781,-87.992,-48.388,-13.542,2.821,9.7,-88.685,-50.691,-8.575,10.261,5.905,-82.919,-49.818,-4.901,18.456,16.114,-81.838,-49.599,-7.725,11.75,23.374,-77.271,-39.718,-8.077,4.351,15.541]],
"vp": [[856.487,288.268,515.676,286.31,177.121,116.436,131.428,-32.553,125.781,71.826,-10.86,33.54,41.524,1.052,-1.49,-17.204,-17.977,-17.969,-16.934,-24.301,-33.885,-17.962,-15.426,-30.529,-32.097,-16.814,-17.56,-40.936,-24.061,-24.407],[4464.902,1555.149,790.496,821.757,748.594,756.812,271.113,219.266,70.653,43.546,354.522,100.851,89.023,103.57,62.751,42.629,18.979,-13.418,-13.337,5.065,-1.821,-39.497,-5.867,-46.93,-7.079,-25.536,-35.576,-41.958,-13.981,-27.423],[5953.842,2995.642,1230.101,1848.168,1559.719,1242.62,718.388,281.351,306.004,203.778,602.07,307.018,153.912,85.164,41.143,79.879,60.531,6.806,3.337,7.605,29.57,6.768,-33.667,-34.529,6.97,-33.625,-19.76,-27.425,-47.666,-29.85],[7283.988,6298.056,2598.27,1915.091,1928.35,1203.053,1143.338,551.132,340.78,453.963,603.067,561.704,267.844,194.194,136.996,72.019,78.419,25.705,14.961,-12.072,26,24.657,-17.36,-23.57,5.756,-26.433,-27.296,-9.696,-14.787,-8.185],[6747.166,7058.362,5160.87,2158.946,2388.627,1380.852,1819.534,804.718,351.078,396.047,600.71,784.65,507.979,298.592,206.819,111.687,193.859,64.863,15.647,58.544,38.44,49.277,-15.729,12.549,0.224,-6.667,19.01,-25.002,-8.342,10.766],[7496.718,8986.688,7325.355,3939.057,2768.268,1228.453,1975.41,1609.687,647.146,438.488,671.242,1126.489,726.916,319.454,395.065,121.552,157.647,100.401,70.802,28.881,82.272,43.99,-7.735,-4.891,16.303,-13.393,1.362,-10.267,-9.771,-1.036]]
}