{
"KTrans": [[-47.786,-73.27,-86.495,-93.534,-79.668,-43.709,-57.968,-80.011,-82.983,-89.364,-25.906,-61.561,-68.071,-58.396,-81.775,43.89,15.236,7.495,-24.059,-19.5,120.795,90.201,14.319,28.458,16.806,250.271,152.613,116.957,120.298,131.397],[-60.616,-45.309,-62.437,-59.432,-71.714,-62.895,-31.483,-51.598,-63.622,-61.069,-51.522,-36.263,-37.074,-49.712,-57.567,-29.401,-8.147,12.134,-9.13,-28.901,-10.402,26.951,34.689,24.522,3.714,43.339,64.844,70.554,38.57,29.022],[-71.067,-46.297,-41.808,-47.409,-46.367,-70.09,-51.995,-40.192,-38.647,-46.567,-69.009,-44.974,-39.635,-38.502,-42.679,-55.893,-31.606,-14.75,-3.515,-0.862,-40.616,-19.352,-1.702,14.255,25.539,-13.869,10.172,29.643,44.026,40.763],[-77.35,-59.425,-51.625,-48.66,-48.705,-78.96,-57.719,-48.067,-50.084,-41.383,-76.573,-56.747,-48.457,-40.861,-36.806,-67.346,-51.247,-34.021,-22.405,-18.93,-58.969,-35.448,-18.016,-7.369,-2.268,-41.866,-14.932,-4.877,13.287,16.592],[-82.717,-66.368,-51.064,-46.901,-49.587,-83.394,-61.982,-54.614,-43.608,-46.333,-82.587,-62.458,-50.613,-47.509,-41.31,-75.266,-59.658,-44.873,-29.527,-23.497,-68.312,-49.431,-34.851,-17.762,-8.033,-60.082,-29.32,-18.816,3.776,1.844],[-86.042,-73.775,-57.322,-46.127,-54.235,-84.088,-71.805,-61.47,-48.505,-44.394,-84.047,-69.331,-56.819,-42.82,-44.898,-80.144,-65.92,-45.939,-43.362,-28.706,-74.533,-60.519,-45.431,-25.183,-15.774,-68.046,-48.645,-29.236,-20.635,-7.172]],
"ve": [[-83.446,-91.729,-992.365,-463.452,-34.071,-30.236,-56.828,-66.015,-63.683,-45.752,-64.748,-8.984,-36.443,50.088,-104.58,-20.433,-4.785,-37.529,-37.028,48.305,87.744,-78.072,-13.987,271.223,-47.61,205.365,-88.352,68.749,-55.104,-1.214],[-20.473,-42.891,-52.074,-38.658,-53.026,-53.065,48612.776,-55.92,-44.161,-84.658,-32.419,-63.755,-40.442,52.52,-27.227,43.25,10.72,4.204,12.711,-27.578,105.122,55.169,32.205,2.308,0.076,230.635,106.731,70.605,17.527,-58.976],[-20.873,-35.034,-33.571,-43.969,-52.221,20.017,-49.841,-39.622,-33.6,-10.586,1.461,-23.672,-56.108,-39.464,-31.989,71.668,12.705,6.23,7.493,-0.35,156.851,3.181,203.662,27.648,23.669,219.055,16.3,41.195,53.545,47.783],[-10.423,-45.027,-116.189,-48.792,-55.669,-3.853,-40.849,-68.257,-76.253,-48.115,20.178,-31.894,120.455,-60.374,-35.621,75.601,-48.537,-49.524,-26.544,-22.414,683.261,29.624,-0.616,54.58,6.307,259.777,91.578,12.777,35.171,16.824],[28.602,-21.668,-54.555,-72.952,-86.166,17.438,-13.043,-73.398,-119.603,-81.644,11.368,-57.831,-58.852,-68.361,-63.14,49.875,2.489,-64.599,-45.717,-29.68,141.333,39.492,-11.189,-3.341,-9.69,195.743,79.638,17.61,17.867,10.451],[-15.491,-24.709,-56.602,-60.071,-103.778,52.71,-47.643,-86.856,-87.66,-76.079,50.53,0.623,-61.756,-68.603,-84.136,111.912,25.891,-31.489,-62.573,-47.52,149.907,12.345,-19.586,-34.983,-26.277,216.929,80.014,2.289,-10.301,2.452]],
"kep": [[-136.97,-105.699,-53.569,-31.444,-57.239,-114.537,-116.905,-42.934,-27.56,51.072,-124.827,-90.145,-52.155,-47.304,-21.921,-102.534,-119.001,-54.974,-4.885,-29.051,-126.598,-112.253,-24.819,-19.669,-3.84,-123.276,-88.002,-82.429,-60.381,-78.528],[-99.774,-87.443,-127.519,-93.102,-33.442,-94.575,-94.8,-130.429,-70.216,-27.945,-96.826,-93.242,-120.218,-87.266,-13.025,-102.854,-99.576,-150.842,-74.413,-17.169,-95.709,-85.79,-110.749,-107.126,-32.364,-88.497,-87.187,-104.671,-81.101,-59.877],[-95.986,-70.357,-65.344,-89.96,-137.955,-99.579,-76.075,-75.572,-89.345,-114.027,-98.978,-78.864,-55.391,-105.956,-124.984,-98.036,-74.495,-71.429,-102.104,-121.77,-100.089,-66.455,-56.701,-98.699,-131.331,-90.438,-63.334,-54.051,-86.965,-118.636],[-99.467,-70.982,-44.944,-44.568,-51.095,-101.824,-80.303,-48.303,-39.349,-49.267,-100.769,-69.309,-47.145,-38.494,-43.35,-101.969,-77.402,-43.051,-31.203,-51.127,-99.123,-75.276,-45.841,-35.031,-46.603,-99.107,-69.695,-38.36,-45.792,-56.881],[-102.976,-81.446,-51.694,-26.015,-18.212,-100.692,-83.793,-50.488,-27.445,-17.32,-101.05,-78.902,-52.44,-36.388,-22.224,-99.168,-83.282,-39.462,-28.671,-25.058,-100.448,-78.974,-51.056,-26.754,-19.044,-97.036,-73.073,-48.943,-22.629,-21.48],[-101.583,-88.297,-56.841,-34.129,-20.828,-100.961,-83.293,-53.531,-26.192,-19.926,-102.959,-88.929,-54.583,-27.312,-16.713,-102.469,-87.033,-50.85,-31.677,-11.031,-102.363,-78.849,-56.272,-24.659,-13.279,-98.311,-81.996,-49.733,-27.874,-20.091]],
"vp": [[466.343,-202.455,-250.899,-130.995,36.256,-13.75,-81.805,15.837,-131.402,218.693,19.009,-38.585,30.415,51.895,-3.053,-1.35,4.788,0.246,9.342,11.215,-2.418,-3.204,4.871,6.005,4.189,-5.911,-2.022,-0.624,-0.738,-0.709],[2871.88,1037.868,-121.963,-498.846,-143.742,504.079,306.817,-63.262,22.529,68.35,282.526,123.059,-18.827,3.095,42.562,54.646,18.63,-15.215,-10.575,12.726,19.896,4.823,-3.951,3.462,-6.727,8.318,7.588,-3.571,-3.117,-6.982],[5290.642,3694.528,2238.186,585.834,74.708,1045.351,815.51,540.505,219.369,-44.107,500.52,394.957,158.03,28.689,-21.614,94.086,77.777,42.242,16.085,-1.617,46.875,33.637,25.482,5.977,4.701,19.562,13.768,-6.564,2.429,2.555],[6433.067,4772.182,3113.01,1791.138,1477.294,1183.12,1315.414,640.074,329.885,199.956,570.763,506.876,298.257,115.018,61.647,136.131,120.315,53.205,43.155,13.925,63.399,50.743,29.287,10.12,19.452,27.029,18.53,8.68,7.663,7.902],[6879.239,8141.425,5570.2,3076.629,1544.845,1352.685,1689.574,860.874,544.175,270.872,701.7,776.535,503.211,345.065,118.465,131.126,169.311,72.564,55.952,25.523,64.803,72.352,52.561,23.483,12.636,36.334,26.061,16.602,5.836,8.699],[7966.924,9876.433,7995.861,4590.043,1694.736,1472.231,1743.172,1237.078,749.404,482.894,766.554,984.127,679.498,402.588,140.187,150.052,196.382,124.653,89.782,17.443,71.262,84.465,76.116,33.391,16.815,33.306,40.845,27.868,21.558,11.435]]
}