{
"KTrans": [[-21.803,5.716,-5.781,4.993,2.408,1.268,9.2,8.944,6.082,5.861,4.278,15.462,24.016,8.703,8.286,100.066,93.528,79.654,74.994,73.463,89.978,182.743,195.237,152.768,140.317,-17.78,285.918,263.161,321.817,284.123],[-49.968,-2.532,-0.003,4.993,0.331,-46.043,0.536,2.367,4.72,4.182,-52.942,12.18,9.37,7.91,5.767,-20.912,60.513,49.823,34.729,35.035,-38.905,139.56,115.544,78.364,72.953,49.436,161.458,257.384,185.995,159.305],[-74.246,-11.701,3.978,0.102,2.789,-73.424,-7.34,4.638,4.799,7.037,-64.879,-1.067,10.648,5.926,6.198,-62.857,39.463,51.373,34.416,28.317,-53.586,69.59,118.641,72.891,58.194,-43.355,47.342,173.827,172.269,127.167],[-88.239,-20.715,-2.309,1.341,3.298,-81.824,-14.656,8.156,2.362,2.096,-79.268,-17.759,1.961,8.113,8.307,-67.462,24.526,53.486,33.096,28.198,-62.619,42.353,92.119,70.986,61.99,-32.702,-3.747,106.914,217.452,138.794],[-90.987,-27.867,-1.746,3.092,4.81,-89.29,-29.43,6.669,5.956,4.783,-89.693,-30.129,3.321,9.457,6.062,-87.113,2.28,46.591,38.101,31.053,-95.3,-4.149,96.365,70.627,63.03,-71.196,-28.524,60.175,162.2,143.836],[-91.722,-39.669,-6.189,3.493,3.79,-91.722,-38.57,5.428,3.75,2.508,-92.926,-36.439,5.978,5.792,3.916,-84.034,-22.681,22.495,29.945,28.76,-78.621,-34.948,62.246,75.108,56.958,-61.809,-54.878,50.582,131.89,142.482]],
"ve": [[6.719,30.878,40.653,1.1,-92.891,28.213,14.974,-102.032,25.634,-467.429,-9.954,28.141,-2.685,-48.48,72.917,52.244,19.872,3.957,6.013,-9.345,49.834,36.551,12.721,-2.033,-10.768,193.266,65.681,32.175,14.925,-14.395],[9.921,2.856,2.194,1.392,2.672,16.303,4.774,1.891,2.71,2.512,34.454,6.863,3.555,4.123,2.632,54.262,23.126,14.879,10.507,7.371,103.014,50.509,29.065,19.935,12.64,196.255,106.886,63.54,43.083,31.015],[18.961,2.924,0.145,1.353,0.154,14.624,3.097,1.065,2.306,0.541,13.603,7.255,2.9,2.851,1.139,55.918,27.552,16.949,12.414,8.759,96.259,53.185,32.871,23.308,18.099,204.12,98.348,150.303,48.324,37.09],[15.278,3.663,-0.112,0.146,0.385,6.623,5.855,2.755,1.1,0.807,10.236,7.72,2.933,2.362,1.361,53.764,0.557,16.71,12.605,9.153,71.137,51.595,33.169,23.919,19.285,181.738,100.567,66.536,50.502,37.872],[-114.059,2.44,0.736,0.359,0.176,36.867,-1.443,3.506,1.288,0.946,7.411,4.006,5.023,3.503,1.996,61.289,27.576,17.566,12.72,9.961,102.431,49.026,34.065,23.512,19.465,201.166,101.841,65.917,48.892,38.821],[15.31,-21.868,2.088,0.312,-0.265,17.543,7.471,1.809,0.872,0.337,5.161,3.988,4.377,3.168,2.45,48.977,29.837,18.677,13.601,10.167,106.595,49.401,33.183,23.743,19.411,-2778.481,101.208,65.307,49.016,39.208]],
"kep": [[-33.122,7.104,-14.113,9.833,2.738,-15.323,2.782,4.786,6.517,10.332,-12.15,7.555,30.573,4.044,6.53,27.543,68.649,84.523,96.509,116.812,-6.832,108.106,171.572,171.206,184.46,-51.851,107.962,153.984,260.903,284.267],[-58.615,-2.599,-1.302,4.564,-1.052,-56.716,-3.036,2.091,3.103,2.862,-61.243,6.112,6.178,4.902,4.215,-51.557,29.076,31.382,22.763,26.771,-69.285,59.256,67.212,49.216,54.447,-47.267,28.972,114.693,99.234,97.801],[-77.897,-14.12,4.256,-0.816,3.014,-79.172,-9.333,4.298,2.974,7.095,-73.006,-7.078,7.88,3.226,5.537,-78.651,9.381,29.972,19.938,18.4,-77.697,10.705,64.055,40.104,34.105,-77.036,-20.852,64.581,81.495,65.221],[-91.322,-23.381,-1.787,1.43,3.16,-86.667,-18.83,5.7,1.395,1.555,-84.739,-23.687,-0.572,6.224,7.141,-80.867,-3.85,30.997,18.363,17.594,-80.766,-6.54,43.838,37.554,35.593,-75.045,-48.025,24.092,107.066,71.776],[-93.224,-30.832,-2.445,2.836,4.876,-91.668,-34.35,3.177,4.946,3.842,-92.954,-34.728,-1.206,6.057,4.372,-92.971,-20.996,24.178,22.613,19.318,-96.766,-37.182,45.192,37.658,36.186,-87.396,-60.699,-3.188,73.221,73.979],[-93.846,-42.54,-8.198,3.454,4.217,-94.487,-42.27,3.909,2.815,2.343,-95.104,-42.241,1.514,2.491,1.486,-90.65,-40.36,3.042,14.302,16.945,-88.976,-56.651,21.627,40.607,31.07,-85.561,-73.468,-7.387,52.784,71.319]],
"vp": [[727.094,-94.051,-113.929,330.255,-237.256,386.8,97.51,-17.454,-2.344,-91.474,53.287,1.5,42.387,4.764,27.125,18.795,14.118,0.809,22.59,8.802,4.833,-7.906,16.028,6.352,6.268,8.893,-4.005,-0.628,4.345,-1.911],[5337.919,1554.649,1071.552,811.532,-396.663,1158.016,253.024,-41.688,8.534,87.553,483.977,245.807,80.789,33.331,-53.925,107.478,49.641,7.698,-11.026,35.341,60.28,18.496,10.604,13.867,28.159,24.119,13.001,8.283,-3.341,15.326],[7389.312,6043.637,1334.071,204.742,683.715,1632.751,916.457,152.531,-23.783,56.546,727.459,601.264,225.178,-9.953,36.791,162.595,87.931,49.185,36.561,16.118,68.068,52.786,52.211,19.449,21.928,42.997,16.786,-0.218,7.765,13.675],[8098.201,8561.214,2819.926,746.493,933.966,1782.95,1899.883,727.605,125.672,125.422,870.809,819.988,364.299,115.488,75.309,176.012,205.998,106.607,64.148,32.335,94.583,58.747,40.684,24.023,39.129,39.693,34.565,5.594,35.694,23.154],[9869.548,12363.237,6599.835,2320.056,1270.963,1821.35,2707.394,1022.223,338.556,145.056,1045.763,1112.395,572.217,238.698,159.222,206.087,258.627,166.933,70.604,66.521,114.248,110.829,84.214,26.75,33.489,68.485,54.064,46.972,23.781,28.813],[9581.365,13593.885,8422.626,3995.644,1583.905,2065.072,2935.875,2239.106,740.937,291.155,969.417,1437.571,1034.187,360.768,206.453,196.017,295.45,192.295,79.179,68.458,100.765,129.655,111.232,51.955,22.997,40.22,76.425,30.027,6.37,19.467]]
}