{
"KTrans": [[-10.893,22.462,9.703,15.179,14.116,-9.946,28.417,16.831,31.708,26.13,0.921,29.202,30.335,21.578,30.181,91.791,134.635,91.626,83.444,65.679,301.909,242.532,172.325,182.229,171.3,757.127,663.558,492.385,448.463,392.322],[-74.555,3.331,28.039,28.633,20.09,-68.954,30.064,35.15,31.953,16.462,-64.587,30.015,30.333,29.308,29.693,-32.509,88.548,84.458,64.16,53.399,-1.691,163.415,141.199,136.303,94.899,125.75,354.646,291.083,230.482,186.619],[-91.509,-26.224,41.096,46.193,23.289,-93.386,-37.834,36.464,22.361,33.519,-86.444,-25.305,37.369,36.977,45.709,-92.768,-0.853,78.517,80.829,58.867,-57.599,52.013,127.615,108.002,94.246,0.043,222.461,301.612,222.319,185.686],[-94.976,-66.977,-1.763,36.415,44.563,-93.256,-55.627,21.636,53.517,41.48,-105.512,-80.619,43.312,76.818,50.029,-96.691,-38.515,58.385,91.648,83.535,-66.463,-21.447,95.806,150.684,106.29,-40.679,48.511,210.954,255.132,180.182],[-100.524,-82.081,-11.427,71.972,54.011,-98.861,-79.983,-36.7,80.736,84.11,-97.872,-74.023,-12.77,72.42,44.762,-93.177,-83.486,-16.592,107.853,109.133,-90.367,-76.139,15.153,136.603,141.13,-57.635,-26.284,105.59,245.347,247.355],[-100.969,-105.105,-62.52,15.591,72.834,-100.271,-85.237,-58.605,55.546,71.014,-98.46,-86.393,-60.014,1.817,103.932,-94.547,-88.458,-72.586,59.467,114.088,-92.374,-66.526,-75.22,59.142,159.982,-72.656,-32.489,-27.903,130.908,275.845]],
"ve": [[-211.135,-16.847,-47.015,7.642,-44.219,5.974,10.125,-252.618,12.095,18.069,29.287,22.904,22.313,-2.606,4.96,53.672,81.935,7.836,-4.71,3.859,107.647,38.459,9.971,-4.842,-12.67,197.049,81.797,39.714,12.209,-3.749],[6.347,4.071,4.616,1.158,3.87,20.383,7.69,4.657,3.141,1.994,11.533,11.4,4.918,4.404,3.956,30.439,26.569,16.112,11.577,6.828,99.087,56.342,31.431,22.739,14.677,212.477,102.359,59.818,43.424,29.613],[2.22,2.768,2.565,5.192,1.22,13.936,2.374,3.013,3.431,4.487,15.629,12.741,1.55,2.808,4.188,55.638,20.045,16.954,12.91,9.714,93.05,52.421,32.327,23.423,18.394,885.365,95.67,65.827,46.194,38.44],[-8.322,7.925,2.422,-1.017,0.374,-2.741,9.721,5.432,2.979,1.291,13.901,8.296,11.76,5.63,3.476,58.195,25.12,16.859,13.777,10.661,99.504,47.472,38.012,26.976,19.927,192.519,101.023,69.987,52.331,38.636],[7.084,5.934,3.608,3.453,1.564,8.982,7.138,7.166,5.001,4.953,25.058,-0.799,7.107,-2.08,1.279,59.507,13.152,19.569,14.467,11.485,111.127,54.087,33.853,25.486,19.846,205.194,98.185,59.3,51.164,40.388],[3.603,0.966,3.739,1.743,2.227,7.079,4.202,-0.828,4.47,3.122,-126.619,5.274,4.218,4.079,4.602,39.413,20.975,14.977,17.595,11.723,102.87,46.841,37.93,28.952,21.744,198.458,96.714,67.102,43.006,40.708]],
"kep": [[-27.231,16.359,3.654,11.285,9.97,-32.251,23.107,12.769,43.469,30.734,-25.47,21.825,32.506,23.498,43.805,22.707,106.056,91.856,101.856,98.376,95.362,150.691,149.099,203.498,218.679,190.231,318.932,323.516,389.758,415.223],[-79.327,-3.918,20.403,26.499,17.164,-76.249,18.451,27.58,26.66,13.678,-71.705,15.702,22.472,22.73,24.98,-57.135,43.681,54.942,44.837,42.51,-53.338,68.908,80.16,90.703,68.214,-25.552,126.429,140.177,126.767,118.363],[-93.777,-30.576,32.179,35.436,18.597,-92.95,-43.344,27.068,14.961,25.368,-89.26,-35.128,26.96,28.926,36.617,-95.49,-21.822,47.231,55.143,41.55,-77.357,0.315,65.806,63.791,60.139,-65.847,58.359,136.437,115.811,101.841],[-95.462,-70.004,-5.783,29.599,38.736,-94.068,-59.572,10.82,41.644,34.082,-103.93,-83.197,27.128,59.842,39.572,-95.807,-52.149,29.76,61.294,60.491,-82.573,-48.039,39.831,90.723,67.444,-80.134,-25.509,80.753,126.621,95.752],[-100.064,-81.354,-16.324,58.348,44.719,-98.322,-78.809,-41.629,63.759,67.968,-98.961,-76.261,-21.777,56.329,36.542,-95.717,-84.013,-32.16,72.788,77.595,-94.926,-80.553,-16.618,78.643,91.862,-85.753,-61.276,21.777,119.204,138.403],[-100.248,-100.886,-64.781,7.351,60.2,-100.923,-85.203,-60.922,39.691,57.27,-99.248,-84.73,-60.767,-7.654,84.628,-96.558,-88.905,-72.338,29.533,82.65,-95.361,-74.736,-78.086,21.647,104.37,-90.547,-63.907,-54.678,45.849,155.742]],
"vp": [[0.001,0.001,0.001,0.001,0.001,0.005,0.005,0.005,0.005,0.005,0.01,0.01,0.01,0.01,0.01,0.05,0.05,0.05,0.05,0.05,0.1,0.1,0.1,0.1,0.1,0.2,0.2,0.2,0.2,0.2],[0.001,0.001,0.001,0.001,0.001,0.005,0.005,0.005,0.005,0.005,0.01,0.01,0.01,0.01,0.01,0.05,0.05,0.05,0.05,0.05,0.1,0.1,0.1,0.1,0.1,0.2,0.2,0.2,0.2,0.2],[0.001,0.001,0.001,0.001,0.001,0.005,0.005,0.005,0.005,0.005,0.01,0.01,0.01,0.01,0.01,0.05,0.05,0.05,0.05,0.05,0.1,0.1,0.1,0.1,0.1,0.2,0.2,0.2,0.2,0.2],[0.001,0.001,0.001,0.001,0.001,0.005,0.005,0.005,0.005,0.005,0.01,0.01,0.01,0.01,0.01,0.05,0.05,0.05,0.05,0.05,0.1,0.1,0.1,0.1,0.1,0.2,0.2,0.2,0.2,0.2],[0.001,0.001,0.001,0.001,0.001,0.005,0.005,0.005,0.005,0.005,0.01,0.01,0.01,0.01,0.01,0.05,0.05,0.05,0.05,0.05,0.1,0.1,0.1,0.1,0.1,0.2,0.2,0.2,0.2,0.2],[0.001,0.001,0.001,0.001,0.001,0.005,0.005,0.005,0.005,0.005,0.01,0.01,0.01,0.01,0.01,0.05,0.05,0.05,0.05,0.05,0.1,0.1,0.1,0.1,0.1,0.2,0.2,0.2,0.2,0.2]]
}