{
"KTrans": [[3.278,3.209,3.724,5.068,3.585,5.739,4.691,4.049,3.376,5.612,5.13,4.28,5.852,3.31,3.647,23.106,11.297,6.499,4.472,10.189,59.283,28.534,15.602,24.161,24.185,-75.646,94.701,76.106,63.011,74.609],[-19.267,-0.779,0.245,1.579,1.768,-20.095,-1.38,0.734,1.663,2.34,-26.221,-4.976,1.011,3.985,1.668,-5.227,5.111,5.487,6.385,4.69,-21.421,7.711,13.527,8.185,5.753,-36.142,32.858,25.005,27.084,13.302],[-60.815,-8.246,-4.924,-1.819,0.827,-51.608,-9.086,-4.283,-1.946,0.861,-52.404,-15.275,-4.558,-0.896,0.141,-38.622,-5.181,-2.677,1.136,1.641,-67.513,4.227,-4.763,-0.135,1.464,-49.204,-15.818,3.054,14.255,8.903],[-72.757,-23.737,-8.92,-6.738,-2.579,-80.959,-21.248,-11.764,-4.867,-2.096,-70.621,-18.14,-12.474,-6.805,-1.837,-68.095,-17.664,-9.827,-1.987,-0.125,-64.821,-17.203,-3.298,0.394,0.337,-53.684,-19.711,-8.691,10.648,6.186],[-83.852,-31.479,-14.328,-10.001,-6.573,-85.61,-31.457,-16.291,-8.817,-6.846,-80.528,-31.842,-19.333,-12.467,-5.216,-75.219,-34.709,-15.912,-8.333,-5.953,-79.226,-24.449,-22.588,-8.574,-8.485,-71.688,-48.765,-9.167,1.408,-0.715],[-87.507,-45.243,-18.62,-15.582,-10.075,-88.796,-42.625,-24.246,-14.649,-10.762,-89.27,-45.505,-23.866,-17.543,-10.693,-84.956,-48.877,-16.074,-16.201,-7.49,-76.246,-46.277,-18.839,-11.008,-5.53,-95.052,-41.285,-36.028,-0.071,-10.076]],
"ve": [[2.648,3.796,3.868,4.113,14.662,1.215,3.632,5.182,8.056,5.301,2.666,3.358,4.688,7.762,643.902,-320.377,25.997,15.673,105.548,-2474.481,18.903,-23.888,-69.026,-30.858,-32.774,-2.659,14.088,-21.443,-1.245,-38.394],[-9.153,-0.367,-0.112,0.885,0.83,-9.437,-0.345,0.583,0.635,0.959,-12.382,-1.044,0.251,1.206,1.135,-13.944,3.932,2.683,3.041,2.326,11.741,8.614,7.17,4.56,4.085,15.422,19.002,7.208,-96.21,21.846],[-36.116,-2.692,-1.508,-0.132,0.442,-26.737,-3.481,-0.813,-0.529,0.439,-28.125,-5.141,-1.3,-0.054,0.221,-35.089,1.341,-1.324,1.472,1.326,-37.73,6.011,-2.726,-0.357,0.676,-15.601,5.12,-3.884,12.46,6.089],[-42.537,-10.028,-3.624,-2.881,-0.809,-57.022,-8.472,-4.675,-1.833,-0.565,-40.251,-8.35,-3.892,-2.148,-0.676,-36.952,-8.802,-3.873,0.368,0.613,-27.786,-4.187,0.715,1.299,1.334,9.716,3.261,5.364,20.135,3.107],[-57.189,-15.346,-6.096,-4.348,-2.476,-51.668,-16.342,-6.644,-2.873,-2.709,-47.841,-16.42,-7.707,-4.21,-1.955,-51.688,-17.364,-5.064,-2.739,-2.253,-36.337,-6.48,-10.491,-2.245,-3.511,-16.813,-1.979,8.611,5.149,1.932],[-57.711,-23.243,-7.633,-5.928,-3.238,-61.111,-21.073,-10.729,-5.492,-3.856,-60.236,-24.34,-9.934,-6.789,-3.955,-52.887,-14.054,-6.939,-5.822,-2.437,-97.392,-15.664,-8.604,-2.741,0.115,-43.154,0.669,-6.462,3.73,-5.272]],
"kep": [[-5.984,-5.878,-5.085,-2.11,-8.293,-2.497,-4.569,-4.913,-7.189,-2.888,-5.144,-4.699,-2.726,-7.198,-8.839,-7.555,-5.581,-7.444,-11.747,-0.356,-21.483,-8.955,-15.634,1.57,10.423,43.801,-3.833,10.629,1.01,48.977],[-19.642,-7.146,-6.09,-5.71,-5.473,-21.195,-7.688,-6.292,-5.395,-5.053,-24.611,-10.457,-5.741,-3.816,-5.834,-28.532,-7.514,-5.059,-3.917,-4.541,-35.324,-14.769,-4.793,-5.666,-5.814,-35.403,-19.471,-14.611,-4.648,-10.653],[-51.814,-12.387,-9.825,-8,-6.053,-45.32,-12.91,-9.862,-7.787,-6.014,-47.868,-16.996,-9.63,-7.242,-6.495,-49.957,-15.119,-9.452,-7.373,-6.582,-54.622,-18.38,-14.464,-9.325,-7.523,-53.507,-20.133,-36.743,-10.814,-9.861],[-66.555,-21.909,-11.829,-10.249,-8.096,-75.031,-20.848,-13.788,-9.409,-7.87,-68.745,-18.339,-15.127,-10.988,-7.552,-71.576,-23.11,-13.662,-9.122,-7.425,-66.427,-40.681,-15.016,-9.085,-8.904,-68.58,-26.34,-19.408,-15.676,-10.362],[-80.647,-26.41,-15.46,-12.065,-10.391,-81.417,-25.899,-16.74,-12.325,-10.427,-78.595,-27.682,-18.978,-14.67,-9.58,-76.269,-38.415,-18.654,-12.602,-10.567,-77.03,-41.657,-24.744,-15.371,-13.122,-72.412,-55.39,-29.373,-21.723,-15.706],[-85.551,-37.089,-18.468,-16.316,-13.11,-85.595,-35.772,-22.115,-15.913,-13.202,-86.577,-39.389,-22.214,-17.523,-13.118,-81.417,-51.097,-18.191,-17.957,-11.611,-75.842,-57.257,-30.214,-17.313,-13.232,-82.412,-59.77,-44.192,-18.854,-21.763]],
"vp": [[-110.623,-74.221,-96.051,-154.672,-224.194,-2.386,-56.114,-26.218,-13.195,-53.748,1.25,-16.58,-18.739,-10.43,-19.01,-13.594,0.763,5.192,9.252,-3.538,-20.49,-7.202,3.12,-8.284,-13.218,-7.813,-24.81,-20.646,-16.19,-28.18],[963.641,-55.773,5.893,-181.174,-93.43,210.163,14.655,-7.61,-38.661,-53.18,132.615,21.758,-5.595,-41.469,-8.605,-6.05,-12.646,-11.072,-15.266,-6.468,-5.933,-2.746,-13.162,-4.362,0.032,-2.485,-16.93,-6.548,-14.079,1.519],[3852.694,405.22,397.281,140.803,-151.634,589.482,128.698,71.505,68.371,-28.479,301.809,110.698,37.734,1.794,-1.074,21.904,-1.998,15.65,-6.059,-4.83,49.09,-8.871,19.46,11.143,6.379,16.196,0.296,11.898,-7.331,0.216],[4467.016,2130.38,988.418,1012.879,212.507,1282.735,347.673,282.076,140.882,32.839,468.695,170.626,114.795,87.187,19.898,87.704,45.519,31.129,-3.103,-4.789,38.69,15.977,3.479,-1.107,-0.127,-1.125,0.861,-1.237,-12.464,0.36],[5891.327,3081.677,1846.323,1783.703,1051.887,1166.225,697.565,400.248,229.542,238.485,540.96,351.666,245.666,169.642,94.358,95.28,77.899,35.892,27.709,30.505,45.793,16.957,41.717,14.535,25.972,15.024,8.114,-11.081,-4.245,2.057],[6209.343,4856.671,2189.583,2351.093,1570.848,1309.898,901.533,697.705,427.624,373.03,655.292,507.25,307.391,285.837,201.613,118.788,122.004,47.167,53.877,26.785,32.18,38.195,33.328,14.065,1.556,30.831,8.722,15.397,-2.652,23.753]]
}