{
"KTrans": [[-1.468,0.178,0.122,0.102,0.159,-1.203,0.415,0.218,0.384,0.183,-4.43,0.706,0.049,0.396,-0.174,43.653,-7.127,0.266,3.233,1.358,112.845,22.297,29.59,23.74,26.657,603.366,65.434,72.705,90.169,105.332],[-0.885,-0.093,-0.014,0.056,0.084,-0.594,0.166,-1.196,0.029,0.156,-0.804,0.272,-2.874,0.129,0.253,1.64,0.715,17.315,0.391,1.71,7.08,2.696,20.414,-3.912,-5.103,24.145,14.763,100.321,0.393,7.726],[-2.939,-0.554,-0.159,-0.06,-0.302,-1.964,-0.443,-0.261,0.066,-0.918,-2.371,-0.227,-0.218,0.155,-0.58,2.393,0.007,1.568,1.224,2.61,6.845,1.893,1.28,2.351,16.972,44.352,7.444,8.076,10.397,61.826],[-5.32,-1.208,-0.47,-0.247,-0.083,-4.387,-1.273,-0.516,-0.129,0.004,-3.514,-1.301,-0.24,-0.063,0.013,2.291,1.116,0.871,1.09,0.791,15.094,2.517,0.679,0.356,1.129,12.648,9.179,5.135,3.83,3.985],[-10.062,-2.271,-1.006,-0.442,-0.257,-8.581,-2.481,-0.71,-0.421,-0.249,-6.041,-2.075,-0.719,-0.247,-0.137,9.81,-0.037,0.154,-0.21,0.122,5.341,5.825,1.271,0.723,0.268,-15.846,6.446,4.632,2.708,3.807],[-25.248,-3.52,-1.287,-0.695,-0.442,-10.368,-3.499,-1.339,-0.568,-0.314,-14.201,-3.166,-1.335,-0.676,-0.317,2.959,1.652,-0.072,0.553,0.366,-25.338,3.733,1.371,0.548,1.233,-14.548,8.51,3.205,3.932,3.44]],
"ve": [[-1.244,0.065,0.046,0.041,0.078,0.667,0.185,0.138,0.262,0.183,-0.096,0.341,0.144,0.392,0.191,51.68,-2.375,1.973,4.309,4.591,175.633,17.018,17.99,16.322,20.25,584.091,18.812,48.308,-17.182,-772.564],[-0.387,-0.039,0.014,0.018,0.027,-0.25,0.076,0.454,0.003,0.055,-0.492,0.09,-2.033,0.046,0.1,0.325,-0.061,9.473,0.221,0.842,2.031,1.128,14.954,-2.46,-2.518,7.357,10.405,66.891,66.924,6.595],[-1.373,-0.231,-0.062,-0.02,-0.203,-0.786,-0.161,-0.133,0.026,-0.936,-1.118,-0.092,-0.13,0.054,-0.389,2.134,-0.442,0.613,0.344,-2.51,3.33,0.301,0.11,0.689,18.712,14.331,3.386,2.918,5.472,73.042],[-2.541,-0.552,-0.183,-0.095,-0.029,-2.086,-0.455,-0.21,-0.052,0.002,-1.605,-0.536,-0.106,-0.023,0.007,-0.481,0.237,0.38,0.536,0.223,0.466,0.351,-0.398,-0.403,0.203,5.104,3.774,1.42,1.256,1.665],[-4.533,-0.99,-0.414,-0.178,-0.101,-4.092,-1.046,-0.285,-0.152,-0.117,-3.532,-0.925,-0.423,-0.116,-0.057,1.249,0.268,-0.102,-0.135,0.032,-0.768,2.781,0.332,-0.253,-0.104,81.342,0.703,0.771,0.653,1.344],[-171.348,-1.641,-0.579,-0.306,-0.178,-5.595,-1.545,-0.625,-0.249,-0.129,-7.719,-1.396,-0.66,-0.313,-0.116,-2.376,0.617,0.388,0.332,0.091,-16.265,1.087,0.522,0.144,0.295,113.96,0.96,1.026,1.762,0.991]],
"kep": [[156.992,-0.18,-0.092,-0.069,-0.122,52.925,-0.642,-0.344,-0.507,-0.303,89.522,-1.185,-0.445,-0.758,-0.331,115.721,-2.606,-4.481,-6.426,-5.344,9.105,-12.542,-12.819,-7.718,-8.084,93.826,-15.412,-9.347,-17.45,-23.316],[-0.553,-0.059,7.853,-0.097,-0.073,-0.348,0.344,-94.615,-0.169,-0.221,-0.293,0.633,89.753,-0.622,-0.451,1.38,1.904,155.176,-3.73,-3.373,4.428,1.966,108.188,-6.839,-2.36,12.87,4.498,179.754,-14.864,-13.109],[-1.659,-0.377,-0.132,-0.086,70.05,-1.253,-0.301,-0.148,0.317,124.928,-1.318,-0.102,-0.042,0.646,49.708,0.217,0.638,1.989,3.672,183.297,2.314,1.749,2.108,5.245,29.859,21.424,2.946,7.309,8.865,52.741],[-3.001,-0.725,-0.343,-0.215,-0.09,-2.527,-0.859,-0.347,-0.064,0.104,-2.144,-0.793,-0.112,0.027,0.15,1.742,0.982,0.764,1.112,1.89,12.296,2.254,1.51,1.531,2.687,-14.495,4.51,4.168,3.523,4.318],[-5.989,-1.356,-0.654,-0.322,-0.217,-5,-1.494,-0.465,-0.31,-0.159,-3.068,-1.207,-0.318,-0.118,-0.055,5.754,-0.281,0.367,0.018,0.293,1.926,3.133,1.101,1.442,0.77,-48.177,5.381,3.912,2.415,3.57],[-5.706,-1.992,-0.779,-0.449,-0.326,-5.966,-2.05,-0.773,-0.358,-0.211,-8.096,-1.861,-0.724,-0.393,-0.215,0.985,0.924,-0.403,0.352,0.509,-22.433,2.387,0.891,0.563,1.425,-51.829,5.983,2.028,2.515,3.237]],
"vp": [[-15.487,-8.452,-6.855,-6.376,-8.698,-7.814,-3.203,-1.5,-3.6,-1.341,-5.122,-2.646,0.336,-1.524,1.552,-7.509,2.077,-1.692,-3.858,-2.369,-4.68,-0.756,-3.437,-0.09,-0.948,-12.044,2.37,2.442,-0.551,-2.717],[38.922,8.683,-10.699,-5.493,-11.637,5.031,-2.962,-2.39,0.756,-3.105,5.219,-1.693,-5.339,-0.308,-2.62,-0.693,0.563,-8.128,-0.541,-3.69,-2.095,0.082,-5.826,-0.323,1.722,-3.365,-1.927,-10.305,1.015,-3.477],[137.338,46.494,19.475,7.749,-8.506,15.454,6.253,8.771,-1.586,-8.457,11.179,1.908,4.548,-1.89,-7.336,-4.82,2.063,-4.273,-3.564,-8.956,-3.473,-0.672,-0.244,-3.042,-8.275,-6.899,-3.556,-5.759,-5.356,-11.718],[253.182,111.97,54.24,37.625,14.744,41.679,17.181,12.476,4.569,0.27,15.967,10.476,3.374,1.076,-0.109,1.255,-0.788,-2.468,-4.752,-2.429,0.636,-0.533,1.31,1.967,-1.319,1.92,-3.912,-2.618,-2.66,-3.574],[444.924,196.253,121.926,71.122,50.564,80.86,40.855,17.072,11.694,12.586,35.897,18.386,13.701,5.014,3.152,-1.858,-1.341,0.796,1.144,-0.216,1.533,-5.643,-1.034,1.266,0.794,9.932,-0.279,-1.106,-1.522,-3.788],[544.599,327.456,175.76,124.695,88.664,111.471,60.997,38,20.536,13.372,76.316,27.607,20.273,12.843,5.667,5.058,-2.295,-2.919,-2.869,-0.789,17.917,-1.975,-1.6,-0.663,-1.489,10.624,-0.451,-1.539,-4.032,-2.943]]
}