{
"KTrans": [[21.003,14.687,12.074,9.766,14.348,26.941,17.548,15.117,11.592,16.111,55.006,27.934,24.573,20.498,20.218,190.506,113.167,86.832,73.887,73.326,441.17,242.374,193.022,163.38,150.91,1245.397,620.144,488.654,412.913,377.391],[188.429,46.377,18.031,13.894,17.274,238.486,31.202,18.59,19.257,14.671,295.508,44.409,33.415,17.604,19.266,649.382,105.032,64.766,60.733,43.957,1234.209,209.014,137.984,90.512,79.671,2154.99,461.661,263.554,215.798,179.737],[-64.259,121.307,28.795,27.191,10.719,-41.773,110.362,39.125,30.824,19.847,-71.159,117.119,41.308,26.889,27.596,-34.285,175.137,92.218,59.468,40.311,92.911,304.461,162.775,119.944,69.329,35.745,705.97,277.824,191.981,161.104],[-101.531,23.019,77.05,45.56,37.156,-95.787,126.195,62.057,47.073,25.912,-94.246,32.039,79.972,51.968,28.447,-103.25,129.161,99.022,77.498,57.526,-102.19,381.756,230.052,153.252,94.103,183.365,428.702,411.985,243.505,161.671],[-87.528,-84.06,227.105,58.946,50.698,-96.475,-46.17,186.58,71.969,40.033,-80.988,-48.462,198.251,95.134,43.162,-40.308,-85.321,392.256,98.439,55.866,-75.095,-89.629,408.174,141.481,123.784,33.808,-44.462,653.152,314.035,166.773],[-68.263,-122.395,-65.079,117.395,70.572,-103.096,-77.808,26.37,152.205,66.512,-88.043,-95.043,-40.8,124.868,63.993,-82.091,-114.416,-29.263,239.338,99.519,-76.333,-62.152,4.03,277.509,130.853,44.956,-4.581,193.315,414.598,213.981]],
"ve": [[1.642,0.864,0.673,2.249,1.793,4.14,1.15,-0.405,0.228,-1.943,9.857,1.841,-1.83,-3.693,-5.654,44.749,13.625,-1.718,-11.607,-18.878,91.773,32.75,8.024,-8.071,-18.821,191.879,78.536,35.593,9.973,-6.625],[1.29,2.643,0.796,0.751,1.036,6.003,2.507,1.262,1.581,1.085,10.091,5.269,4.209,1.986,1.582,51.592,23.943,14.3,10.329,5.816,100.994,49.046,30.665,18.64,12.411,198.825,97.274,60.372,42.377,29.605],[1.344,2.376,0.158,1.156,-0.171,4.96,3.636,2.522,2.141,1.305,9.473,5.431,3.574,2.769,2.905,50.552,24.571,16.966,11.772,8.057,96.368,48.598,33.465,25.271,16.559,199.649,100.757,64.176,46.992,36.755],[1.914,4.368,0.8,1.261,1.762,5.502,4.792,0.993,2.621,1.164,10.463,6.763,3.789,3.178,2.048,50.58,28.129,15.207,12.422,9.853,102.212,51.957,33.57,26.402,19.627,199.044,100.762,66.864,49.99,38.174],[1.896,0.833,1.462,0.503,2.116,6,4.06,2.178,2.212,1.421,11.031,4.651,3.996,4.215,1.744,50.616,24.103,18.543,12.122,8.934,100.465,50.422,33.501,24.491,20.54,198.395,100.595,65.878,50.442,38.556],[1.816,-0.018,1.214,0.866,1.724,5.322,3.804,2.918,2.929,1.237,11.569,5.96,5.668,3.622,2.263,48.972,27.403,17.653,13.832,10.249,102.045,51.07,33.808,25.15,19.973,198.914,101.006,67.374,50.019,39.672]],
"kep": [[16.93,13.609,13.279,12.44,21.507,19.529,15.786,17.012,15.616,25.302,38.515,24.924,27.69,28.159,32.984,97.541,85.79,88.667,95.829,113.388,178.708,155.387,169.1,184.108,207.073,358.221,301.172,331.541,363.774,408.359],[164.155,38.784,14.878,11.677,15.468,198.282,24.438,14.449,15.883,12.66,233.092,33.195,25.879,13.92,16.497,372.321,61.255,41.38,43.734,34.589,539.601,103.686,79.075,58.042,57.84,634.91,180.015,123.685,119.242,113.564],[-60.994,105.034,24.218,22.643,8.673,-42.294,92.509,31.778,24.945,16.018,-69.993,94.582,32.089,20.812,21.975,-52.102,111.154,59.685,39.234,27.124,-0.48,160.743,91.828,72.276,42.456,-48.239,291.259,125.013,95.326,88.155],[-96.356,14.875,66.491,38.565,31.187,-90.884,105.166,52.068,38.918,21.069,-89.73,21.707,65.256,41.727,22.336,-96.406,75.598,65.204,52.679,39.591,-95.731,206.876,137.102,94.606,58.244,-1.561,159.093,197.254,123.556,85.136],[-84.071,-78.844,199.774,50.778,43.054,-92.57,-46.037,161.296,60.75,33.221,-79.049,-48.295,167.637,79.074,34.848,-57.429,-81.482,291.193,69.291,38.248,-83.21,-85.902,259.497,86.72,79.454,-51.221,-65.405,332.285,166.023,87.486],[-66.088,-114.558,-61.18,102.684,60.792,-99.156,-74.354,19.214,131.311,56.437,-86.051,-89.956,-42.454,105.787,52.936,-84.554,-104.629,-37.681,181.304,72.9,-84.74,-69.761,-20.146,185.147,84.98,-48.58,-48.185,73.056,228.04,117.379]],
"vp": [[0.001,0.001,0.001,0.001,0.001,0.005,0.005,0.005,0.005,0.005,0.01,0.01,0.01,0.01,0.01,0.05,0.05,0.05,0.05,0.05,0.1,0.1,0.1,0.1,0.1,0.2,0.2,0.2,0.2,0.2],[0.001,0.001,0.001,0.001,0.001,0.005,0.005,0.005,0.005,0.005,0.01,0.01,0.01,0.01,0.01,0.05,0.05,0.05,0.05,0.05,0.1,0.1,0.1,0.1,0.1,0.2,0.2,0.2,0.2,0.2],[0.001,0.001,0.001,0.001,0.001,0.005,0.005,0.005,0.005,0.005,0.01,0.01,0.01,0.01,0.01,0.05,0.05,0.05,0.05,0.05,0.1,0.1,0.1,0.1,0.1,0.2,0.2,0.2,0.2,0.2],[0.001,0.001,0.001,0.001,0.001,0.005,0.005,0.005,0.005,0.005,0.01,0.01,0.01,0.01,0.01,0.05,0.05,0.05,0.05,0.05,0.1,0.1,0.1,0.1,0.1,0.2,0.2,0.2,0.2,0.2],[0.001,0.001,0.001,0.001,0.001,0.005,0.005,0.005,0.005,0.005,0.01,0.01,0.01,0.01,0.01,0.05,0.05,0.05,0.05,0.05,0.1,0.1,0.1,0.1,0.1,0.2,0.2,0.2,0.2,0.2],[0.001,0.001,0.001,0.001,0.001,0.005,0.005,0.005,0.005,0.005,0.01,0.01,0.01,0.01,0.01,0.05,0.05,0.05,0.05,0.05,0.1,0.1,0.1,0.1,0.1,0.2,0.2,0.2,0.2,0.2]]
}