{
"KTrans": [[-41.953,-64.312,-63.441,-67.309,-56.074,-42.014,-48.885,-52.811,-50.11,-48.317,-28.016,-51.448,-46.656,-45.128,-47.361,5.954,-2.474,9.471,9.419,1.577,-6.346,104.248,34.274,42.932,44.804,-33.206,195.769,183.484,168.368,110.586],[-46.633,-44.41,-47.335,-55.579,-49.771,-53.585,-32.833,-46.212,-50.151,-40.261,-48.611,-33.158,-19.12,-35.33,-32.554,-5.863,-11.054,-9.009,-5.733,-19.627,15.436,-6.562,0.901,9.366,-5.075,20.43,35.69,41.393,35.847,50.847],[-59.781,-50.368,-48.501,-48.262,-34.253,-61.072,-40.172,-36.315,-36.624,-29.851,-62.666,-35.237,-33.095,-27.481,-26.196,-34.218,-19.235,-11.18,-9.201,-4.253,-12.852,8.458,15.631,-12.429,-18.118,-21.754,26.555,-5.052,1.9,-15.549],[-73.178,-42.58,-43.468,-44.459,-46.49,-70.864,-33.554,-37.622,-46.408,-35.659,-71.087,-35.164,-40.477,-29.555,-44.664,-52.788,-32.88,-26.14,-24.301,-15.539,-46.125,-11.029,-1.088,7.093,8.328,-18.462,-18.606,14.897,20.141,14.805],[-79.529,-47.244,-44.386,-33.213,-47.693,-78.08,-41.887,-31.24,-37.108,-46.734,-78.28,-38.852,-41.084,-35.018,-38.132,-64.944,-34.452,-37.41,-29.078,-26.58,-65.294,-13.583,1.786,-5.086,0.775,-42.738,1.907,0.06,2.169,33.611],[-85.052,-51.701,-39.236,-37.769,-43.191,-82.09,-52.547,-36.354,-41.367,-36.124,-84.525,-55,-36.544,-31.402,-32.357,-75.174,-41.861,-31.212,-33.811,-34.177,-74.585,-32.265,-12.915,-16.104,-17.365,-58.819,-27.349,-16.596,34.62,14.312]],
"ve": [[-52.537,-55.753,-45.946,-193.468,-69.45,-38.345,-83.626,-43.616,-16.739,-76.26,56.988,-13.535,-18.617,-2.796,12.372,9.889,-30.19,22.243,220.89,63.867,79.556,23.475,-1456.297,8.74,-66.057,48.821,84.157,35.466,-5.648,-24.213],[-54.887,-73.485,-48.493,-45.792,30.596,-89.085,-29.415,-11.264,-35.423,-21.057,-75.328,-55.964,-17.649,-20.058,12.914,-1.782,-33.449,3.049,-10.451,-26.867,102.886,20.143,6.625,5.44,-1327.342,-25.76,92.707,34.916,30.824,-51.926],[-23.21,-127.775,-82.885,-62.163,-34.833,-74.395,-96.673,-61.29,-45.843,-31.184,-63.98,-78.282,-54.871,-38.537,-29.194,49.254,-52.498,-25.158,-15.026,-5.827,74.962,9.656,18.555,-3.566,-15.532,91.612,144.06,57.473,8.137,-7.145],[-63.019,-96.855,-94.847,-76.809,-65.86,-32.631,-64.9,-77.769,-84.23,-50.232,-40.954,-89.246,-90.386,-50.37,-65.367,66.969,-92.239,-59.761,-46.715,-25.522,149.284,-65.767,-14.196,-4.737,6.371,199.244,26.755,86.849,32.749,27.107],[-17.913,-107.791,-120.629,-66.663,-85.097,-17.219,-107.781,-70.347,-76.129,-83.895,-30.396,-75.894,-118.07,-78.101,-67.669,49.888,-39.936,-101.545,-67.004,-51.603,49.803,62.957,-33.416,-42.034,-9.35,194.585,33.326,-56.933,96.21,71.739],[-27.336,-114.104,-116.197,-99.88,-92.998,-40.59,-124.045,-109.062,-101.122,-75.824,-20.453,-90.108,-94.41,-70.723,-67.461,83.242,-93.271,-90.906,-93.177,-74.473,29.201,-22.826,-12.605,-62.036,-49.748,234.27,111.099,125.842,59.578,42.149]],
"kep": [[-119.074,1.287,9.487,8.975,19.228,-109.126,-6.926,-11.193,6.716,-9.078,-98.504,-15.426,7.775,-6.949,-6.245,-64.573,-33.574,-15.783,-30.886,-22.315,-47.014,-155.777,-64.222,-50.473,-38.07,80.064,-131.345,-214.235,-189.137,-136.635],[-41.862,-13.602,-110.875,4.904,-3.812,-41.341,-9.903,-103.823,10.339,2.44,-39.629,-12.53,-99.128,3.816,6.245,-37.78,-15.412,-114.735,-45.87,-13.957,-46.036,-8.797,-14.841,-92.171,-30.117,-20.928,-23.432,47.466,-94.732,-100.817],[-60.591,-0.463,0.383,-3.928,-106.796,-56.634,-3.369,-0.215,-14.094,-130.296,-59.53,-7.088,-6.264,8.43,-106.905,-65.085,-16.224,-7.806,-24.792,-85.164,-52.057,-19.895,-15.113,-0.42,11.949,-54.562,-49.411,-13.388,13.751,69.165],[-69.708,-16.101,-2.904,-1.649,-1.192,-72.318,-14.229,-7.515,3.858,-4.834,-72.3,-10.085,-3.643,1.986,3.574,-76.823,-22.895,-5.87,-3.983,-8.524,-74.461,-23.526,-19.987,-11.065,-22.733,-68.444,-45.42,-29.7,-12.328,-18.497],[-84.242,-21.756,-4.552,-4.613,0.612,-80.615,-19.731,-7.111,-5.265,-0.528,-82.678,-19.65,-4.218,-0.38,-1.598,-80.442,-42.686,-11.46,-1.275,-2.197,-76.879,-52.904,-12.172,2.992,-10.041,-75.075,-39.657,-5.62,-44.617,-28.329],[-87.469,-28.7,-6.872,-2.89,-1.03,-83.928,-28.871,-7.212,-5.256,-2.245,-90.567,-36.926,-11.15,-6.209,-1.453,-88.085,-38.439,-12.63,-4.067,-1.843,-80.431,-48.313,-36.922,-3.197,-2.761,-83.393,-59.713,-52.54,-18.643,-21.17]],
"vp": [[11.78,117.026,43.797,-100.996,293.585,20.914,-25.02,-26.421,4.801,5.918,-0.853,-29.499,4.293,-29.355,-11.598,-23.357,-0.314,-4.156,-2.769,-9.357,-16.733,-18.574,11.158,2.886,2.253,-28.692,-10.687,-13.646,-12.655,6.966],[1709.161,271.77,-12.91,78.025,17.481,264.378,47.883,-53.481,2.941,13.724,119.277,18.545,1.461,18.695,2.017,3.344,-34.567,-0.46,-18.378,-9.568,-9.641,-25.914,-26.559,-2.227,11.81,-24.346,-36.977,-36.695,-8.807,-11.19],[3250.126,133.412,236.359,49.946,120.852,497.814,88.824,76.065,43.666,26.761,335.523,50.697,20.845,-19.839,-29.975,24.032,-22.303,-6.583,-18.885,-31.87,-28.845,-43.619,-51.153,-12.501,-25.715,-18.987,-44.504,-5.129,-28.291,-21.883],[4181.35,1401.518,491.669,342.672,131.958,907.661,359.111,143.331,-25.389,33.813,466.3,125.668,47.467,67.598,-35.525,72.193,27.88,12.835,-16.106,-15.857,1.117,-37.004,-5.01,-12.465,-14.617,-19.137,-16.265,-16.716,-27.707,-45.091],[6500.002,2580.682,649.558,834.126,302.088,1025.659,399.922,280.501,92.452,0.686,524.755,291.931,42.262,18.307,30.028,56.87,64.783,14.185,0.707,-14.395,-1.988,1.659,-4.824,-26.625,-1.315,-10.918,-20.616,-27.422,-34.588,-40.303],[6158.471,3979.33,1672.386,924.892,634.821,1018.051,656.452,347.894,221.513,136.914,728.64,491.625,206.732,113.727,50.223,68.508,25.753,26.392,-5.473,-3.116,37.36,1.748,13.358,-12.975,-9.026,-23.105,-6.222,4.078,-27.494,-28.515]]
}