{
"KTrans": [[5.729,1.653,4.7,3.641,6.102,0.898,6.95,7.131,9.506,4.602,8.258,6.878,7.837,4.69,7.758,18.953,6.68,17.235,14.426,15.665,41.583,30.476,32.45,26.253,19.723,103.805,64.698,53.081,65.349,52.573],[-20.607,-3.743,2.286,2.328,4.839,-27.394,-5.906,0.467,1.491,2.45,-28.732,-6.533,2.452,2.225,4.023,-21.6,0.212,1.106,6.806,3.96,-2.684,11.714,2.224,9.276,11.625,-29.604,25.596,40.25,14.067,22.05],[-61.476,-11.858,-6.884,-3.182,-0.056,-59.212,-17.303,-5.381,-2.982,-2.882,-66.161,-13.224,-7.31,-2.289,0.783,-52.64,-22.657,-4.059,-1.069,2.391,-60.866,-12.329,-3.979,6.497,1.953,-65.386,6.01,14.827,1.565,12.306],[-79.8,-29.975,-15.197,-7.979,-5.554,-81.149,-32.1,-17.249,-6.94,-3.754,-79.549,-28.102,-14.961,-7.057,-5.539,-70.947,-26.873,-12.243,-5.605,-3.159,-61.192,-24.528,-10.054,-0.656,-1.411,-68.864,-28.075,-5.313,0.236,-0.292],[-89.063,-42.275,-21.523,-14.457,-6.918,-92.078,-43.004,-27.119,-13.695,-9.255,-87.057,-43.662,-25.098,-16.348,-8.738,-80.423,-42.067,-23.356,-10.872,-7.741,-77.075,-44.739,-22.015,-9.899,-4.65,-90.862,-49.347,-26.834,-1.995,-3.221],[-92.083,-56.042,-31.885,-23.039,-14.344,-90.602,-50.295,-33.759,-19.969,-12.668,-88.925,-50.214,-29.449,-23.292,-14.78,-87.102,-60.233,-28.457,-23.462,-12.908,-90.663,-54.289,-31.425,-15.726,-9.361,-84.647,-49.297,-28.643,-20.969,-9.374]],
"ve": [[3.955,7.206,12.354,19.872,31.266,2.963,5.615,7.507,11.011,53.18,4.274,5.427,11.141,55.82,25.366,20.033,81.731,-31.632,14.603,-794.321,20.904,-47.475,-50.553,-151.544,-45.998,52.583,78.656,-96.97,-23.243,-26.912],[-7.798,-0.819,0.628,1.335,1.296,-15.211,-2.683,0.574,1.268,2.369,-12.986,-1.653,1.009,1.977,2.08,-1.437,2.112,2.722,3.004,2.897,9.943,10.302,2.461,5.499,6.142,40.995,20.115,31.512,5.318,18.004],[-32.268,-3.418,-2.2,-0.171,0.112,-29.835,-8.016,-2.172,-0.536,-0.635,-39.603,-5.252,-1.433,-0.817,0.061,-19.841,-7.911,0.263,-0.102,1.665,-26.427,1.322,-0.418,5.04,1.856,-2.485,21.994,14.446,2.106,7.94],[-47.414,-13.133,-5.817,-2.82,-1.54,-42.045,-13.155,-6.283,-2.353,-1.265,-47.516,-11.544,-6.335,-1.729,-2.309,-48.367,-9.625,-3.573,-1.012,-0.141,-9.214,-0.822,1.288,3.326,1.143,-12.621,-2.497,3.236,3.777,1.946],[-44.576,-18.874,-8.397,-4.949,-3.065,-73.244,-19.403,-10.409,-5.062,-3.182,-55.077,-18.5,-9.543,-5.254,-2.834,-40.051,-17.832,-6.982,-2.715,-1.828,-21.154,-16.515,-5.657,-0.352,1.018,-57.671,-17.039,1.848,8.494,2.771],[-66.776,-25.377,-13.136,-9.413,-5.131,-54.667,-25.436,-13.826,-7.492,-4.914,-54.508,-26.639,-11.116,-8.515,-4.949,-47.01,-28.817,-9.633,-8.386,-3.624,-50.723,-21.919,-10.299,-1.116,-1.676,-15.78,-6.569,4.096,-5.499,-0.193]],
"kep": [[-9.578,-13.607,-12.691,-13.845,-14.653,-12.345,-8.166,-8.08,-6.167,-16.659,-7.92,-8.229,-9.68,-14.14,-9.477,-14.963,-16.39,-1.771,-6.17,-2.567,-32.191,-8.437,1.855,-2.163,-8.332,-7.085,-25.163,-22.673,14.573,-3.405],[-27.42,-13.906,-9.648,-10.094,-7.793,-27.955,-14.612,-11.284,-10.782,-10.759,-32.879,-15.843,-9.87,-10.799,-9.18,-42.598,-14.227,-13.119,-8.161,-10.17,-39.555,-14.862,-14.712,-9.477,-6.944,-45.73,-34.245,-6.863,-16.33,-6.137],[-56.86,-20.16,-15.482,-13.749,-11.171,-56.689,-21.122,-14.299,-13.255,-13.054,-62.022,-19.254,-16.531,-12.461,-10.425,-60.577,-26.871,-15.511,-12.514,-10.684,-66.791,-29.525,-18.144,-11.134,-12.325,-61.17,-35.769,-19.608,-19.164,-11.673],[-75.159,-29.758,-20.305,-15.911,-14.676,-75.125,-31.912,-21.899,-15.337,-13.315,-74.591,-29.857,-19.781,-16.053,-14.039,-74.436,-31.645,-19.768,-15.744,-14.141,-73.638,-40.637,-23.293,-15.854,-14.439,-70.764,-41.947,-29.65,-20.381,-17.903],[-84.885,-38.939,-24.626,-20.146,-14.717,-89.25,-39.731,-28.355,-19.425,-16.731,-83.323,-40.511,-27.027,-21.627,-16.512,-81.829,-41.44,-28.158,-18.934,-16.63,-79.738,-55.41,-29.985,-21.307,-17.064,-79.239,-54.654,-46.873,-24.756,-20.464],[-88.665,-50.848,-31.158,-24.645,-19.831,-88.825,-43.444,-32.745,-23.383,-18.423,-87.36,-44.42,-30.595,-25.714,-20.469,-86.828,-59.087,-30.991,-26.266,-20.153,-86.09,-61.398,-35.226,-25.635,-18.958,-82.36,-55.858,-46.338,-31.658,-23.648]],
"vp": [[-237.647,111.41,-168.978,74.617,-295.485,29.501,-20.495,-41.984,-85.506,-8.216,-8.288,-19.759,-25.44,13.405,-28.804,-10.463,11.756,-13.506,-12.201,-20.266,-6.709,-3.519,-12.175,-5.729,-2.534,-21.208,-6,-3.506,-14.593,-7.907],[967.487,77.18,-181.651,-114.772,-318.054,339.172,115.534,21.798,-5.075,-25.199,160.027,51.464,-20.825,-9.956,-24.947,16.93,-0.696,1.642,-11.371,7.487,-5.774,-13.137,12.436,-5.642,-12.081,-14.473,-9.493,-27.517,4.764,-9.294],[3950.847,663.024,617.963,117.365,-66.489,688.389,350.966,123.32,66.342,123.513,461.067,103.734,47.683,23.746,1.034,53.024,49.376,5.15,6.949,-5.285,51.534,9.156,14.823,-13.839,6.919,12.794,-16.921,-12.031,13.608,-6.039],[5653.239,2699.389,1713.24,1042.665,787.155,1132.012,576.87,368.471,119.916,114.085,573.886,243.225,190.792,66.635,110.021,79.265,49.284,28.348,18.217,11.033,16.757,15.545,5.357,-8.355,6.495,16.888,14.209,2.248,4.924,8.574],[6651.539,4025.71,2484.43,1983.984,1244.404,1589.322,860.334,623.008,384.226,288.442,660.032,419.961,317.407,213.962,141.147,102.953,91.188,52.983,26.838,24.759,30.026,48.436,26.587,8.187,-1.395,44.999,32.375,24.44,-11.66,2.623],[6920.509,5466.104,3995.921,3748.649,2520.808,1368.205,1126.026,901.678,616.995,457.829,630.043,586.382,360.509,354.295,238.646,124.095,141.056,69.115,79.872,43.023,68.174,58.167,44.204,9.208,14.582,18.875,19.606,12.276,23.657,11.432]]
}