{
"KTrans": [[5.897,0.765,1.653,1.339,1.005,13.519,5.129,6.769,4.274,6.267,24.716,13.213,13.293,13.515,10.917,170.239,92.278,72.436,66.663,58.771,394.655,227.617,173.174,160.104,143.436,1123.623,593.25,449.689,393.706,365.802],[-4.731,3.457,0.39,0.712,0.226,4.838,6.106,5.024,3.773,3.217,15.336,12.771,7.993,7.01,4.353,131.412,64.254,47.152,36.282,31.112,288.461,140.778,98.602,77.313,66.028,832.308,357.438,229.678,181.822,153.175],[-16.679,1.065,0.627,0.106,0.362,-11.905,0.34,4.363,2.777,3.125,-3.977,8.624,7.314,5.646,6.257,88.644,62.761,41.398,32.3,26.49,207.469,135.883,91.905,67.754,55.27,622.785,335.639,206.396,153.09,123.928],[-35.108,-1.933,3.677,1.951,0.804,-24.477,5.045,3.471,2.966,2.761,-25.339,9.441,6.476,6.173,5.162,54.504,58.8,39.322,32.005,23.779,168.196,132.841,85.485,63.706,51.637,506.764,313.795,200.314,143.897,112.521],[-43.771,-2.831,2.012,0.667,0.679,-39.513,3.746,4.779,1.946,2.985,-39.481,7.851,7.965,6.739,5.462,23.317,51.655,36.562,29.642,23.833,102.943,132.645,80.714,61.112,48.551,385.585,308.303,192.326,137.326,107.81],[-54.411,-4.009,1.314,1.535,0.775,-49.732,-1.116,3.411,1.816,2.779,-46.761,8.578,5.422,6.256,4.423,-5.87,50.202,36.187,29.732,23.2,76.171,122.7,83.803,61.02,48.458,284.761,295.372,187.025,134.737,106.727]],
"ve": [[2.847,2.57,1.577,2.573,9.053,7.002,2.658,0.071,1.209,-1.733,9.741,4.833,-0.294,-4.703,-3.548,47.437,14.343,-0.194,-11.325,-17.696,92.339,34.077,8.628,-8.141,-18.419,193.005,79.019,35.782,10.569,-6.554],[3.139,1.13,0.606,0.537,0.373,6.359,2.909,2.009,1.343,0.408,10.947,4.681,2.552,2.202,1.61,49.875,24.248,14.715,9.536,5.487,100.899,47.73,29.87,19.447,12.704,200.825,97.532,61.402,41.286,28.57],[2.589,0.911,0.308,0.638,0.35,6.884,2.607,1.388,1.551,0.401,12.834,4.97,3.378,2.397,1.443,52.031,24.345,15.987,11.379,8.269,102.354,49.08,32.074,23.003,17.28,202.072,99.313,64.174,46.645,35.618],[2.535,0.736,0.75,0.07,0.032,6.709,2.743,1.904,1.403,0.937,13.202,4.994,3.203,2.074,1.902,54.198,25.08,15.984,11.92,9.349,101.575,50.376,32.474,23.925,18.679,200.803,99.585,65.494,48.713,37.861],[2.343,0.308,0.516,0.414,0.305,7.242,2.2,1.248,1.085,0.903,-6.952,5.385,3.222,2.431,1.821,51.204,25.716,16.65,12.126,9.706,107.151,50.102,32.603,24.445,19.09,191.684,99.147,66.451,49.225,38.658],[5.87,1.043,0.583,-0.06,0.223,3.027,3.089,1.895,1.264,1,9.874,5.766,3.379,2.377,1.803,58.617,25.244,16.447,12.773,9.893,103.107,50.604,32.998,24.307,19.35,209.394,99.937,65.886,49.108,38.947]],
"kep": [[3.697,-0.457,2.582,2.009,0.828,7.615,3.595,8.436,6.306,12.074,14.975,9.278,15.379,21.54,18.813,84.237,68.926,73.81,89.439,94.855,157.889,145.184,152.167,184.014,199.834,318.641,287.772,305.278,347.037,399.104],[-7.235,2.386,-0.058,0.26,-0.03,-1.165,3.247,3.072,2.494,2.92,4.173,7.843,5.445,4.815,2.807,54.764,32.439,28.424,24.57,24.391,93.912,63.159,52.991,48.525,47.394,210.11,131.722,104.407,99.548,96.989],[-18.547,0.332,0.368,-0.489,0.049,-17.751,-2.062,3.019,1.263,2.781,-14.51,3.508,3.876,3.211,4.804,24.598,31.05,22,18.837,16.86,52.675,58.452,45.327,36.426,32.46,139.706,118.707,86.688,72.638,65.156],[-36.898,-2.511,2.933,1.944,0.807,-29.877,2.322,1.596,1.59,1.844,-33.709,4.248,3.18,4.045,3.223,1.496,27.036,20.15,18.008,13.229,33.048,55.112,40.104,32.145,27.801,101.346,107.411,81.554,64.018,54.166],[-46.265,-3.086,1.534,0.299,0.409,-43.854,1.639,3.567,0.847,2.09,-46.737,2.37,4.629,4.257,3.6,-18.147,20.747,17.142,15.685,12.898,0.397,55.145,36.319,29.497,24.755,60.131,105.141,75.687,59.089,49.894],[-56.266,-4.978,0.759,1.613,0.579,-52.82,-3.953,1.509,0.576,1.791,-52.387,2.678,2.027,3.823,2.605,-38.315,19.996,17.009,15.069,12.139,-13.004,48.115,38.23,29.563,24.401,27.311,97.993,73.102,57.442,48.79]],
"vp": [[166.189,52.307,7.809,-0.786,79.759,28.886,25.312,11.712,-17.024,27.851,19.123,24.471,-0.314,9.959,8.638,15.299,12.756,9.227,11.528,9.634,15.107,13.231,9.804,10.502,12.433,14.025,11.381,10.751,10.999,11.055],[1048.829,184.783,76.428,17.523,68.328,247.314,46.92,31.378,27.406,20.197,130.905,19.302,16.537,23.282,14.556,35.558,15.331,14.92,12.671,10.93,24.777,15.167,12.152,13.123,12.194,20.35,13.951,13.084,12.794,12.642],[2380.167,225.43,-96.462,-4.374,46.921,497.475,76.962,33.677,3.482,20.786,265.437,42.51,7.024,8.645,20.464,67.738,21.984,14.78,13.117,12.475,38.174,19.3,15.079,13.949,12.098,27.182,17.675,14.34,13.995,13.166],[3778.429,791.508,257.631,30.106,-28.307,873.641,153.266,8.84,22.028,29.126,373.631,107.171,37.155,20.005,22.138,93.202,36.304,16.938,15.434,13.173,53.499,25.585,15.751,15.677,13.97,35.451,20.267,16.856,15.327,13.791],[4856.098,1099.946,432.951,122.8,130.738,1043.097,289.53,104.018,47.722,76.488,518.471,155.073,59.65,35.876,27.681,115.455,43.156,22.627,14.986,13.191,63.708,32.105,17.981,17.534,13.389,39.755,25.857,18.539,15.436,14.124],[5963.821,2066.414,541.648,295.569,3.475,1144.275,421.22,145.501,61.372,12.433,588.299,266.867,56.424,16.943,11.075,134.364,61.758,25.011,21.532,18.341,73.443,41.654,21.666,16.794,15.089,44.146,28.327,19.375,16.485,15.287]]
}