{
"KTrans": [[1.681,2.902,2.254,1.886,1.258,6.119,12.317,12.516,11.354,10.157,12.051,24.655,24.981,25.912,25.077,31.051,82.263,98.204,100.084,99.99,-101.92,48.649,134.622,154.05,160.661,17.66,-381.637,18.199,118.038,174.388],[-6.49,-0.69,0.615,0.806,0.944,2.739,5.042,2.04,4.972,4.712,16.641,14.772,4.336,9.774,9.693,138.877,107.238,32.183,32.432,40.672,364.649,244.221,-5.628,23.605,60.05,821.475,722.015,-37.986,-126.394,40.969],[-11.849,0.152,0.176,-0.09,0.134,-2.514,4.437,4.204,3.218,1.401,8.315,11.758,7.938,7.29,2.196,110.083,74.691,58.874,54.976,13.009,269.403,173.761,135.606,136.699,33.483,593.915,459.112,358.636,367.321,-90.742],[-16.162,-0.359,1.152,0.698,0.249,-7.52,2.94,4.293,2.751,3.275,1.694,9.871,7.484,7.358,5.357,85.309,67.424,49.551,40.522,38.88,248.831,155.308,113.484,93.502,90.986,594.117,382.091,285.145,239.075,234.53],[-21.546,-1.739,0.076,-0.481,0.892,-16.401,2.092,3.491,3.021,2.742,-5.891,9.158,6.856,5.599,5.306,74.75,60.866,42.715,35.768,32.791,207.517,137.093,102.434,82.434,74.139,493.196,349.684,237.771,187.41,172.304],[-24.843,-1.812,-0.823,0.156,0.199,-19.099,2.316,2.34,2.744,2.21,-13.22,6.581,6.83,5.879,5.684,64.74,58.741,43.014,34.935,29.108,161.944,132.789,94.442,74.005,63.776,410.742,307.391,227.045,174.711,143.547]],
"ve": [[41.185,14.571,26.792,2.967,16.32,4.432,17.77,-0.527,-20.908,23.071,-3.066,46.185,31.969,86.866,-23.676,50.296,-1.941,-65.274,-67.559,-77.263,120.544,31.405,-6.756,-30.216,-45.344,200.434,83.421,33.401,4.106,-15.127],[-0.89,25.754,1.036,2.785,1.198,3.93,1.698,1.164,4.003,3.494,9.47,4.372,3.593,-6.538,5.578,50.515,26.107,16.699,-4.654,6.044,99.666,50.693,34.072,18.901,0.1,199.203,86.561,57.869,45.111,27.273],[-0.132,0.352,-0.426,-0.478,6.308,3.847,2.616,1.339,0.655,0.938,9.391,4.844,3.327,2.183,1.147,49.764,25.421,17.185,13.013,9.598,98.876,50.703,34.204,25.813,20.005,198.832,101.499,67.838,53.364,40.572],[0.103,0.284,0.257,0.167,0.012,4.307,2.332,1.586,0.987,0.97,9.328,4.891,3.337,2.731,1.932,49.21,25.145,17.121,13.266,10.967,99.223,50.256,34.271,25.939,21.286,198.482,100.68,68.124,51.528,41.305],[0.093,0.207,0.389,0.05,0.256,4.352,1.799,1.47,1.173,0.953,9.567,5.154,3.068,2.448,1.977,49.649,25.075,16.745,12.85,10.8,99.087,50.116,33.933,25.864,21.157,198.12,100.336,67.354,50.87,41.456],[0.363,0.123,0.251,0.194,0.043,4.418,2.486,1.544,1.154,0.942,9.63,4.592,3.095,2.655,2.201,49.787,25.171,16.66,12.802,10.428,98.72,50.251,33.632,25.721,20.847,195.86,100.037,67.61,51.014,41.245]],
"kep": [[-125.49,-6.834,-4.664,-4.931,-4.334,-119.858,-32.546,-24.527,-16.607,-11.049,-122.108,-46.366,-35.397,-45.827,-44.327,-174.667,-236.811,-191.087,-184.299,-192.185,-343.571,-472.797,-366.405,-366.84,-382.554,-204.663,-954.476,-753.797,-740.881,-756.718],[-15.245,-11.151,-131.042,-9.738,-1.673,-6.045,4.279,-124.775,-20.599,-11.086,3.372,18.926,-112.835,-41.681,-18.611,63.558,134.135,-40.512,-169.993,-106.444,143.901,210.68,-256.823,-337.529,-201.553,207.674,441.558,-285.536,-688.63,-403.044],[-17.019,-1.96,-2.179,-7.491,-120.534,-11.284,1.869,2.997,4.517,-117.097,-5.046,8.23,7.929,15.794,-122.77,39.546,52.048,68.361,120.575,-118.632,82.968,102.443,129.016,235.022,-62.333,123.847,207.61,257.752,437.536,-446.227],[-20.828,-3.072,0.813,1.87,-2.417,-16.772,-0.242,3.994,0.18,5.962,-11.322,5.231,4.871,8.848,7.935,19.802,39.657,39.734,46.459,73.465,70.665,78.828,80.168,91.443,140.679,123.69,152.802,163.969,193.113,275.369],[-27.592,-2.941,-0.552,-1.934,1.226,-23.891,-1.085,2.244,2.5,2.822,-19.568,3.508,3.683,3.656,5.419,12.219,30.402,26.317,30.634,38.377,48.591,61.836,63.514,64.292,79.266,90.76,127.825,117.965,118.552,146.078],[-30.361,-4.537,-1.433,-0.816,-0.835,-26.08,-1.833,0.144,1.71,1.195,-25.708,1.272,3.86,4.374,5.33,5.621,27.643,26.13,26.406,26.339,26.597,57.35,52.353,49.54,52.78,64.3,104.847,106.313,100.032,98.664]],
"vp": [[28.299,151.114,99.74,-5.893,123.505,-10.049,-2.769,-12.624,-20.637,-2.998,-7.498,-1.188,-15.122,14.021,-7.346,2.533,1.697,2.024,-0.275,-1.848,-0.506,-1.045,-0.287,-1.853,0.758,-1.224,-0.614,-1.625,2.1,-2.425],[937.208,146.688,-32.916,-353.826,-139.52,168.284,13.476,-13.544,-26.607,25.244,96.64,0.697,-4.457,-2.777,22.011,16.118,7.923,-3.665,-2.79,-3.765,8.496,1.593,-0.602,-2.02,-0.983,3.016,-1.98,-1.178,-2.264,-2.181],[2549.593,376.059,138.999,267.725,-74.805,519.375,61.4,56.879,-8.808,-9.197,241.296,0.927,2.897,-3.413,-1.546,48.391,-1.478,-3.092,-0.07,-4.713,18.35,0.847,-1.562,1.647,-1.703,12.868,1.882,-1.59,-1.994,-1.624],[4221.876,1186.029,121.257,5.12,240.634,943.914,82.664,55.878,30.953,12.695,439.014,60.307,37.486,54.608,-10.881,89.883,8.841,0.846,1.062,-0.338,43.736,4.949,-4.773,-0.427,0.821,19.68,-0.632,-0.64,-2.478,0.429],[5767.37,878.253,284.437,-48.669,212.076,1085.961,290.651,50.45,-17.76,26.466,572.217,174.724,-12.819,-1.711,29.705,118.245,22.381,2.511,-2.129,5.42,52.972,12.563,2.328,2.566,1.582,25.086,9.816,-2.744,0.525,0.154],[6389.604,3177.207,492.255,141.733,233.773,1255.045,529.059,70.605,31.509,20.933,660.155,200.692,30.777,43.487,34.71,134.63,45.357,2.547,-4.541,-1.553,61.173,22.801,3.208,1.384,-3.173,27.265,8.215,1.272,1.645,0.222]]
}