{
"KTrans": [[2.381,7.02,10.39,1.75,6.273,7.007,17.742,9.571,9.297,14.571,9.802,24.682,18.791,19.476,20.366,54.292,80.482,94.66,96.132,98.508,166.607,57.549,131,147.831,156.85,-95.11,-232.594,38.65,127.572,167.142],[-30.727,-8.909,-0.6,3.897,1.277,-22.493,-7.757,2.417,8.024,4.776,-17.202,-3.904,4.166,11.952,10.374,60.093,54.773,19.015,29.96,38.693,181.226,148.077,40.994,30.225,59.055,578.854,324.348,-8.201,-59.18,41.914],[-39.315,-7.759,-4.848,-4.338,-0.539,-33.165,-4.592,-1.396,-1.361,0.404,-29.803,0.939,3.01,2.168,2.242,20.831,47.115,47.33,33.549,9.842,99.139,134.2,117.884,75.547,20.127,245.137,348.123,308.564,217.142,38.743],[-52.349,-11.876,-4.555,-2.155,-1.788,-49.271,-8.077,0.078,0.401,1.714,-38.761,-4.437,4.343,3.539,5.055,10.589,47.874,41.212,36.622,31.054,66.906,117.815,102.39,84.812,75.062,237.003,281.456,236.633,218.856,209.489],[-56.613,-16.784,-4.002,-2.938,-0.308,-53.675,-9.996,-1.758,-1.637,1.28,-51.056,-6.507,5.126,3.97,4.523,-13.627,38.831,37.71,35.899,29.252,33.144,103.489,89.423,80.713,69.197,155.358,242.441,222.71,180.878,173.976],[-63.085,-19.426,-4.346,-1.402,0.086,-60.46,-12.012,-1.481,0.915,2.228,-57.513,-12.442,2.363,3.932,2.662,-29.052,26.61,33.266,31.883,25.259,21.606,87.736,83.056,68.71,58.185,123.348,244.775,196.895,168.234,142.134]],
"ve": [[-7.725,-51.305,44.821,-14.401,-55.61,104.774,-18.396,-6.342,2108.844,-13.735,-113.718,-115.362,-41.102,-86.239,-78.732,50.685,-11.446,0.216,-50.75,-164.407,103.628,30.067,-1.857,-63.077,-47.339,199.808,83.544,32.367,3.921,-15.19],[-8.252,-15.422,-4.441,-2.904,7.47,3.68,-18.578,4.416,13.193,22.069,2.375,-9.604,7.88,9.625,3.828,36.408,18.306,15.106,6.821,-25.428,98.336,33.119,36.996,17.478,-14.155,201.622,96.364,65.487,45.163,27.148],[-7.166,-2.184,-1.029,701.104,4.257,-0.905,-1.369,-1.02,28.715,0.018,1.892,1.677,0.288,-1.107,3.741,47.768,22.442,16.422,11.353,7.736,84.529,49.184,30.013,23.865,20.475,210.868,97.229,64.247,56.728,38.886],[-0.381,-1.146,-1.302,-1.337,-1.382,-0.418,1.217,0.783,0.293,-1.032,7.354,3.599,2.331,0.921,-0.131,31.875,23.677,16.088,12.078,9.76,108.285,48.825,33.726,25.289,20.683,174.602,101.245,66.095,50.63,43.629],[-5.499,-2.298,0.124,-0.601,-0.712,-3.07,1.424,0.96,0.506,0.453,12.784,3.734,2.277,2.345,1.267,47.214,24.564,16.205,12.61,10.052,89.989,48.983,33.223,25.621,20.836,198.388,98.367,66.326,50.984,41.166],[-24.506,-0.099,-0.401,-0.209,-0.107,-3.912,1.792,1.14,1.072,0.417,-52.605,3.247,2.406,1.873,1.613,49.819,23.408,16.264,12.418,10.291,98.047,49.227,32.994,25.612,20.114,176.591,98.565,66.391,50.159,40.374]],
"kep": [[-117.567,-46.064,-41.814,-9.53,-17.229,-119.207,-74.626,-24.512,-19.863,-41.996,-126.148,-72.962,-38.331,-37.741,-43.254,-135.886,-204.725,-169.573,-181.693,-208.181,-78.728,-391.745,-350.128,-375.189,-386.194,-274.027,-739.729,-702.405,-714.812,-760.111],[-61.539,-66.436,-127.534,-43.712,-8.492,-57.129,-61.039,-121.152,-59.745,-13.593,-53.216,-57.544,-115.041,-66.085,-36.426,-12.988,10.552,-129.373,-169.694,-107.523,24.995,68.562,-111.074,-280.459,-200.226,108.887,117.817,-242.176,-502.109,-392.213],[-60.316,-21.915,-24.028,-54.42,-124.609,-53.243,-18.107,-18.303,-43.496,-129.326,-53.125,-15.943,-13.851,-34.037,-121.642,-34.892,14.797,39.169,22.617,-138.433,-17.627,57.606,98.24,71.203,-133.961,-1.489,133.664,201.837,189.822,-122.925],[-68.859,-20.694,-12.648,-8.393,-18.151,-64.882,-20.14,-6.594,-4.538,-6.74,-60.759,-16.585,-1.077,-4.44,-1.148,-39.822,12.228,26.413,36.067,45.594,-29.884,42.907,64.628,74.654,100.964,-1.645,92.424,120.611,166.918,234.355],[-70.182,-24.127,-6.808,-7.466,-2.343,-68.004,-19.24,-8.142,-7.713,0.622,-67.55,-17.232,-1.992,-0.299,2.878,-52.478,9.026,19.094,27.11,28.632,-43.779,32.529,46.796,62.595,67.311,-26.89,68.4,100.709,108.762,147.131],[-74.01,-24.905,-7.347,-5.668,-1.604,-72.912,-21.777,-6.174,-2.579,-1.722,-73.059,-23.274,-4.746,-1.597,0.791,-62.12,-6.03,13.211,20.425,19.983,-49.33,20.598,40.345,43.185,43.121,-36.786,66.467,80.773,91.848,96.485]],
"vp": [[56.266,-391.497,425.58,-40.396,-97.079,-25.643,54.048,9.66,-33.003,57.832,7.207,40.588,-17.409,32.84,15.776,0.187,-2.799,-2.944,-5.783,-0.455,-1.82,0.873,2.738,2.44,1.836,-0.965,1.147,-2.578,-1.903,-0.393],[2151.993,1594.141,161.912,-512.317,-172.254,481.192,113.75,32.159,-71.232,-0.793,225.201,95.419,-21.937,11.493,-12.541,40.968,6.641,-4.044,2.523,-0.602,16.018,11.666,-1.634,-9.148,3.402,9.937,2.442,-1.178,-4.69,-0.606],[4930.2,2127.031,1370.779,867.743,-96.023,886.577,386.624,67.187,40.19,-61.095,380.913,164.369,31.171,34.443,-9.523,89.603,45.708,14.039,13.263,-2.996,44.891,20.432,3.507,3.382,0.83,16.444,8.339,2.072,-0.224,-0.5],[6343.413,3713.088,1043.622,270.869,328.833,1130.274,801.024,283.583,168.288,167.705,613.914,370.407,147.128,80.936,70.866,121.104,72.855,23.822,6.507,-4.216,60.968,32.353,14.242,2.515,4.336,26.682,12.712,-2.658,0.74,0.986],[6691.113,5499.748,1539.296,454.104,24.815,1418.598,1200.597,431.582,31.851,162.778,714.661,516.516,299.338,60.946,58.97,137.385,104.29,47.265,26.822,12.018,67.905,58.661,26.753,10.355,9.329,30.025,16.746,14.06,3.897,1.665],[7554.172,6210.208,3962.712,1093.174,786.504,1492.061,1688.371,706.138,542.959,210.313,728.833,680.667,357.112,177.241,32.547,143.726,144.328,66.409,22.201,-2.627,71.595,66.693,26.848,11.057,7.041,33.613,35.13,16.331,4.525,-0.323]]
}