{
"KTrans": [[-64.258,-70.916,-73.598,-75.273,-69.977,-36.079,-66.615,-56.694,-51.437,-55.472,-21.203,-35.533,-49.202,-33.528,-35.398,70.539,0.851,5.345,2.272,7.017,113.858,41.419,34.147,50.535,46.621,180.924,102.696,80.145,100.203,113.665],[-55.924,-47.233,-42.404,-60.199,-56.253,-51.815,-35.25,-35.198,-53.439,-54.058,-47.405,-29.49,-17.943,-38.069,-37.9,-29.042,1.196,11.277,-7.28,-2.777,-3.89,19.944,32.525,1.191,-6.865,35.99,77.29,54.227,9.796,9.124],[-65.29,-48.595,-47.011,-48.659,-45.111,-67.412,-39.546,-34.674,-36.61,-27.99,-63.405,-37.452,-35.795,-28.401,-19.747,-54.988,-16.95,-4.037,-1.215,12.801,-34.745,-5.28,3.564,10.487,21.588,5.409,21.181,26.6,42.128,22.643],[-76.471,-51.329,-47.04,-52.77,-55.783,-76.204,-46.65,-44.426,-40.317,-40.182,-75.723,-43.246,-37.095,-35.572,-37.081,-67.897,-19.963,-14.314,-13.583,-3.766,-55.338,-18.561,-1.077,0.159,4.54,-32.614,-4.29,1.347,13.84,10.074],[-81.797,-48.837,-42.068,-52.089,-38.878,-81.313,-47.492,-39.676,-52.463,-48.142,-81.719,-48.166,-39.788,-36.4,-42.095,-75.927,-33.713,-16.577,-9.4,-5.62,-69.597,-31.091,-6.239,-3.787,-0.094,-43.302,-11.673,6.156,4.652,2.206],[-86.44,-52.399,-50.594,-45.667,-50.229,-85.138,-56.926,-37.071,-51.218,-47.757,-85.395,-56.266,-36.854,-32.724,-37.705,-78.871,-47.722,-18.179,-9.702,-8.405,-73.032,-37.481,-7.586,-6.102,0.128,-55.946,-31.559,-13.291,-1.211,0.99]],
"ve": [[-76.598,-43.75,-74.639,-134.571,-30.957,-30.636,-51.109,-97.542,-80.273,105.417,-18.922,-139.768,-33.416,20.67,-10.109,65.165,-1.562,0.391,462.639,-208.167,322.333,25.491,-11.306,0.216,-71.683,171.722,38.108,11.878,-17.074,-24.089],[-69.14,-68.712,-43.952,-48.351,-57.678,-62.664,-48.031,-38.236,-38.277,-11.037,-38.503,-36.529,-19.827,-34.37,-22.013,16.583,-7.956,10.346,-2.861,12.632,77.487,24.831,35.82,-3.254,10.032,144.73,95.43,52.553,9.593,22.752],[-41.581,-96.117,-79.606,-63.265,-45.404,-43.643,-76.264,-54.858,-46.224,-11.274,-21.63,-72.962,-57.702,-41.854,-20.873,9.024,-17.234,-8.576,-9.471,12.029,73.016,-15.429,3.566,9.731,27.374,203,38.34,22.865,33.547,17.606],[-18.884,-111.98,-102.994,-89.292,-79.254,-6.245,-110.373,-102.946,-68.498,-58.725,-6.238,-73.881,-83.101,-60.809,-54.242,24.548,-15.234,-27.895,-24.697,-7.848,50.221,-8.844,-7.249,-4.1,0.787,189.977,20.781,5.854,10.199,14.26],[-6.292,-75.964,-106.137,-117.427,-67.368,-29.44,-71.991,-102.332,-117.574,-88.689,-7.607,-84.441,-112.318,-83.198,-75.981,35.095,-24.536,-35.983,-22.911,-11.227,-30.479,-22.551,-11.291,-9.005,-1.695,183.034,22.729,5.144,1.727,-1.083],[45.703,-52.2,-150.261,-113.732,-106.578,11.259,-88.412,-90.263,-135.185,-103.828,12.529,-67.944,-109.865,-77.588,-82.36,59.245,-20.42,-32.885,-25.041,-16.482,90.699,-15.822,-7.687,-3.748,-3.131,222.672,27.312,-5.761,-0.406,0.38]],
"kep": [[-128.478,-17.098,-5.451,-0.733,3.561,-132.767,-0.923,4.288,-7.406,6.442,-125.378,-34.393,-1.962,-17.089,1.383,-126.514,-15.523,-5.445,-4.753,-5.764,-100.316,-30.234,-15.938,-32.992,-28.107,-43.649,-57.592,-24.888,-26.361,-39.735],[-58.098,-28.589,-133.166,-0.412,-1.222,-52.633,-41.043,-111.762,-12.319,2.196,-60.544,-35.218,-132.755,-7.866,-5.509,-60.536,-31.653,-107,-23.814,-15.333,-57.867,-29.71,-101.35,-32.924,-5.294,-55.651,-36.128,-56.699,-41.272,-18.452],[-68.144,-17.577,-4.183,-18.274,-126.093,-72.663,-15.997,-14.569,-18.183,-135.787,-73.101,-15.105,-5.755,-26.601,-127.27,-72.364,-18.477,-1.23,-19.156,-128.746,-71.017,-10.139,-15.251,-21.789,-108.999,-71.447,-18.753,-0.16,-9.952,-22.432],[-84.816,-25.364,-4.488,-8.057,-5.249,-87.326,-18.656,-2.059,-4.413,-5.607,-88.592,-25.686,-0.428,-3.389,-0.938,-83.029,-18.459,-5.472,-3.206,-2.499,-83.345,-21.08,-1.247,0.432,3.585,-79.314,-25.5,-8.418,0.61,-12.769],[-90.962,-32.052,-8.456,-2.108,-3.174,-90.592,-32.365,-7.009,-1.374,2.358,-89.517,-29.415,-1.232,-1.377,-2.41,-88.928,-28.906,-5.183,-0.125,-3.109,-90.553,-31.712,-2.397,-4.044,-1.394,-81.759,-32.148,-2.888,1.721,0.527],[-96.042,-41.859,-10.014,-6.441,-4.493,-94.976,-41.223,-12.264,-4.616,-3.267,-94.96,-43.222,-6.098,-5.476,-0.379,-93.084,-43.387,-8.308,-0.518,-2.694,-91.421,-36.601,-7.197,-5.693,2.588,-89.541,-48.282,-13.464,-3.886,-0.68]],
"vp": [[-398.767,186.201,-130.248,-171.729,99.382,-50.357,-4.25,11.615,14.606,11.231,-23.977,-13.56,-25.136,9.544,-3.508,-7.706,2.536,-1.393,3.645,-9.603,-2.595,-1.241,-5.269,-6,-5.098,-3.94,3.988,4.668,-0.479,-2.535],[1747.743,470.655,75.126,-36.956,-260.398,308.392,73.307,4.044,-34.264,-7.446,204.513,71.626,0.286,22.997,25.198,42.843,3.142,-3.823,-7.652,-5.442,16.274,0.504,0.012,-1.891,3.356,3.521,-2.787,1.294,1.341,-0.785],[3805.22,942.533,242.167,49.361,38.695,741.857,201.845,127.021,72.445,29.633,375.599,88.477,50.887,47.227,8.923,71.58,21.956,3.65,-5.253,-3.092,30.284,3.982,6.092,2.219,3.08,12.09,-2.919,-7.591,-9.548,-3.42],[5485.899,1846.609,683.875,479.928,-108.452,1133.536,327.546,5.889,56.226,17.686,547.857,236.672,46.934,35.151,7.301,98.351,29.803,5.362,7.164,-5.342,50.214,27.488,-0.547,1.198,-4.93,18.36,6.945,4.984,-8.839,6.032],[6192.226,3367.013,1140.079,1.883,699.393,1316.902,693.886,196.294,-11.471,-8.212,634.769,327.703,60.991,10.768,-11.613,112.847,65.295,20.099,0.629,-3.596,62.579,31.192,11.274,-0.568,-0.512,19.033,11.638,-7.315,-0.821,0.651],[7562.01,4624.708,1279.954,609.158,339.027,1396.854,833.919,368.487,82.907,22.579,721.32,535.652,120.263,101.104,4.822,132.226,100.013,38.638,5.265,6.96,64.244,32.477,3.845,20.635,2.007,24.79,28.427,15.174,4.217,1.83]]
}