{
"KTrans": [[-47.81,-66.421,-70.271,-83.58,-69.79,-48.678,-74.047,-61.052,-64.126,-66.86,-16.853,-56.686,-66.998,-73.537,-64.945,30.142,1.599,-15.002,-35.993,-20.045,71.314,37.403,1.721,9.599,26.23,110.593,71.884,121.786,121.557,101.054],[-53.091,-44.314,-47.291,-63.065,-58.025,-59.283,-37.578,-39.015,-60.528,-58.537,-55.084,-35.954,-29.058,-50.795,-63.347,-37.569,-11.201,-7.295,-20.87,-30.554,2.401,16.008,2.105,2.265,-16.018,25.095,37.036,32.981,35.053,-8.083],[-70.23,-49.632,-47.025,-50.592,-47.9,-65.652,-46.965,-39.574,-38.6,-52.945,-65.811,-43.345,-39.548,-34.626,-38.7,-60.412,-31.912,-25.386,-7.37,-7.358,-38.287,-21.536,-6.268,8.974,3.071,-21.89,19.488,20.848,31.394,9.64],[-79.325,-57.613,-46.969,-46.193,-45.35,-75.666,-58.274,-46.823,-39.958,-42.518,-77.02,-54.266,-49.16,-38.46,-33.203,-68.617,-45.076,-37.281,-30.37,-19.08,-58.615,-38.607,-16.651,-12.445,-0.638,-35.348,-2.819,26.238,15.178,30.868],[-83.189,-63.146,-49.75,-51.888,-49.944,-81.593,-66.029,-48.466,-35.563,-48.112,-81.83,-64.432,-49.418,-42.081,-39.475,-76.307,-57.711,-35.914,-27.301,-24.179,-70.351,-43.794,-28.891,-18.372,-19.297,-62.844,-21.229,-9.128,1.166,2.502],[-85.44,-68.652,-55.783,-39.052,-42.786,-85.784,-67.141,-49.953,-48.108,-39.886,-85.679,-67.57,-49.586,-38.47,-41.865,-80.341,-62.901,-45.968,-34.893,-25.642,-76.303,-56.952,-38.623,-32.625,-18.806,-64.147,-40.481,-15.96,-11.848,-2.739]],
"ve": [[-145.318,-72.503,-37.293,-53.831,-53.84,-66.389,-44.798,-30.304,28.686,-58.601,-15.476,-49.929,-14.907,-81.852,148.197,87.464,452.994,-49.532,39.593,-84.953,82.32,76.325,29.882,-57.887,-251.797,164.433,134.87,-0.911,-76.846,9.84],[-37.63,-59.215,-50.153,-48.676,-89.096,-64.843,-20.737,-14.768,-21.166,-37.14,-24.997,-18.88,-31.285,410.75,-71.752,8.634,54.024,2.985,112.474,-17.635,87.113,24.403,6.276,-16.136,-24.826,149.301,-1.919,46.446,21.305,3.592],[-18.401,-61.264,-66.217,-30.314,-47.31,15.314,-109.883,-44.382,-44.187,-47.883,-4.85,-44.979,-44.936,-53.143,-38.146,21.112,-40.627,-38.581,-20.828,-16.191,120.21,-35.384,-327.457,15.066,8.303,199.012,79.042,5.234,27.62,19.812],[-35.113,-14.567,-82.248,-70.272,-60.794,14.433,-68.552,-83.411,-194.99,-54.014,-7.901,-54.99,-85.989,-61.04,-12.38,101.821,-31.191,-56.657,-46.248,-24.867,91.223,4.072,-26.087,-20.519,-1.523,252.229,64.913,57.723,11.62,32.787],[-16.751,-54.783,-90.691,-107.241,-82.088,16.222,-187.727,-101.506,-63.266,-89.427,16.015,-46.416,-87.788,-76.074,-68.949,132.49,-17.127,-58.103,-50.938,-40.798,103.952,1.655,-53.179,-31.613,-38.896,142.013,41.155,8.731,-9.312,-12.808],[14.697,-42.069,-93.193,-70.967,-87.169,11.965,-41.124,-80.193,-110.948,-71.711,-2.249,-37.503,-64.77,-76.352,-83.98,79.805,-35.272,-69.621,-72.137,-55.467,87.43,-4.238,-38.431,-67.741,-36.279,157.806,19.242,6.603,-201.151,-6.363]],
"kep": [[-127.744,-95.545,16.107,-42.972,-16.102,-105.428,-58.494,-46.334,21.295,-18.252,-126.407,-75.408,-16.071,-8.44,-66.375,-108.905,-85.134,-25.746,11.603,-19.069,-92.869,-86.321,-13.124,-48.253,-72.311,-48.103,-110.432,-124.51,-149.797,-93.019],[-82.649,-93.782,-115.697,-37.531,4.322,-87.096,-67.688,-123.902,-63.099,-5.942,-90.526,-79.04,-119.701,-43.467,-13.913,-80.198,-77.514,-136.988,-83.294,-18.788,-78.389,-65.607,-73.457,-69.783,-22.473,-68.01,-42.505,-67.602,-90.841,-30.143],[-90.587,-53.324,-39.607,-62.496,-127.084,-96.352,-49.759,-40.049,-56.929,-114.586,-95.076,-52.816,-43.941,-62.432,-123.956,-89.81,-55.388,-37.865,-72.413,-130.61,-92.629,-51.854,-41.761,-60.202,-89.706,-81.689,-54.343,-27.254,-36.345,-46.704],[-97.283,-56.382,-32.405,-26.241,-25.04,-98.411,-57.327,-27.119,-19.315,-29.466,-95.532,-63.4,-28.408,-19.875,-34.273,-96.503,-57.502,-29.551,-19.36,-30.354,-91.757,-66.959,-24.59,-26.394,-26.868,-88.761,-61.258,-46.426,-21.514,-39.644],[-96.452,-63.559,-21.972,-9.799,-12.489,-98.082,-70.889,-24.251,-14.724,-5.076,-98.927,-69.86,-26.536,-15.787,-9.961,-97.889,-70.146,-25.037,-9.064,-8.477,-94.792,-66.132,-27.532,-11.582,-12.339,-85.579,-59.824,-45.203,-20.913,-15.299],[-97.563,-73.112,-39.437,-13.662,-7.152,-98.262,-69.291,-35.362,-12.98,-10.276,-99.37,-72.346,-36.624,-15.559,-7.528,-98.73,-68.936,-34.862,-13.839,-2.764,-95.294,-75.692,-38.745,-18.086,-10.45,-89.811,-68.892,-48.244,-28.369,-21.336]],
"vp": [[129.987,-281.659,566.049,-336.209,202.048,-21.092,-42.358,18.98,135.106,52.205,38.206,-4.064,-4.519,-34.931,-33.176,-6.782,7.453,-0.937,6.185,11.606,-1.058,-10.542,19.678,-6.42,-2.572,-2.395,0.725,-0.293,2.321,-0.413],[2468.493,1217.028,44.717,-194.667,530.514,488.867,180.595,54.349,-112.298,124.366,251.179,79.805,34.642,-29.746,5.429,15.38,0.507,-23.357,-9.026,5.42,7.849,-6.439,-0.947,-7.938,-4.588,-4.506,-15.493,10.768,-12.247,8.784],[4299.653,2774.826,1059.903,-31.569,-65.486,944.431,566.616,332.558,139.488,-80.631,498.392,267.315,82.463,57.282,-11.218,81.188,53.295,4.111,17.394,-20.53,39.451,6.376,12.944,-16.606,-5.278,16.982,8.274,-25.412,-17.355,-6.211],[6231.631,4187.185,2066.901,918.559,339.719,1232.822,822.738,434.704,243.445,75.778,553.317,461.429,168.344,148.204,117.989,110.242,83.357,32.663,6.408,9.451,47.948,56.019,-4.116,9.89,-2.929,15.257,14.686,5.247,-6.073,-8.056],[6654.617,6730.188,3377.732,1291.551,1044.508,1290.081,1439.071,458.39,428.946,33.599,668.928,647.148,269.257,169.859,72.557,127.38,150.402,59.05,35.885,22.978,63.476,42.463,22.594,17.077,-4.839,19.051,4.986,8.064,4.995,-10.366],[7267.814,8093.936,4838.318,3318.485,1131.014,1421.031,1493.068,943.563,400.326,421.582,724.732,823.187,568.574,233.234,145.577,160.221,147.751,86.664,21.572,1.894,58.49,73.265,48.281,23.217,13.297,16.497,22.219,22.011,8.809,15.53]]
}