{
"KTrans": [[-5.121,-27.556,-21.684,-29.588,-50.393,-3.995,1.287,0.977,-0.693,1.128,8.345,-1.558,2.686,-1.81,-4.1,9.461,11.787,22.333,18.228,26.781,119.738,64.179,53.018,74.615,59.891,79.737,141.142,182.524,179.305,126.613],[-8.213,-7.739,-4.734,-36.652,-32.293,-5.794,-0.875,-8.143,0.851,0.881,-3.8,0.918,-4.908,1.312,0.034,34.755,45.28,7.144,3.709,4.207,50.212,-0.397,31.717,20.612,2.87,96.793,104.198,28.934,63.94,48.476],[-50.152,-4.582,-12.92,-5.319,-5.853,-38.436,-4.325,-1.049,-0.627,-3.447,-42.415,-3.258,-0.498,1.279,-10.907,-8.974,12.196,10.24,20.738,-10.606,-0.542,5.193,50.37,-10.446,25.283,-3.721,34.401,-13.686,-17.158,34.188],[-57.801,-6.58,-8.782,-12.249,-6.787,-60.064,-6.344,-4.693,-3.497,-0.846,-57.974,-7.573,-3.865,-1.198,-0.363,-30.642,11.856,5.557,4.796,6.126,-25.609,22.93,39.306,28.788,36.309,-41.321,36.682,49.602,45.404,-11.701],[-68.831,-50.607,-6.349,-7.621,-12.011,-61.973,-37.281,-4.54,-4.009,-4.893,-64.904,-43.865,-3.617,-2.711,-1.766,-58.281,-16.384,-7.021,-2.864,0.099,-55.177,-2.022,41.899,19.269,16.789,-43.853,-7.642,28.208,46.777,45.889],[-74.021,-49.858,-14.839,-6.015,-7.237,-71.781,-55.281,-21.048,-5.191,-7.557,-69.606,-54.906,-9.354,-3.923,-3.792,-74.609,-29.655,4.382,-0.436,1.81,-72.622,-23.176,37.655,11.482,8.161,-47.234,-6.393,48.182,32.761,51.427]],
"ve": [[-4.87,-13.92,-7.29,-7.38,-10.462,-2.839,0.5,0.601,0.126,1.086,3.606,-0.284,2.138,1.268,1.006,22.4,70.048,42.955,52.567,95.521,92.784,10.204,-55.584,-141.298,-133.165,144.332,104.717,21.868,13.228,-39.764],[-2.989,-10.656,-4.791,-27.624,-19.571,-2.174,-0.337,-7.444,0.275,0.287,-1.387,0.8,-5.336,0.383,-0.097,63.207,62.206,6.825,4.467,3.203,186.263,36.96,31.43,4.676,14.767,113.623,65.454,61.363,43.558,6.371],[-268.345,-3.987,-19.95,-6.331,-5.848,-160.729,-1.879,-0.142,-0.278,-3.734,-242.649,-1.276,-0.007,0.706,-11.301,39.026,22.41,23.802,19.418,-6.348,141.59,96.381,112.402,21.398,10.987,214.45,96.38,86.084,33.66,15.386],[-267.623,-3.339,-12.374,-19.329,-8.587,-215.133,-2.949,-3.629,-4.139,-0.319,-207.752,-2.728,-2.15,-0.629,-0.048,138.349,20.448,4.228,4.068,8.195,94.709,31.227,60.949,32.982,53.297,112.992,120.509,78.595,94.554,31.021],[-135.648,-217.828,-2.479,-11.895,-19.649,-128.482,-164.496,-2.515,-3.224,-5.96,-82.276,-194.132,-1.394,-0.98,-0.55,-27.228,-152.414,-2.001,-0.61,-0.048,29.273,66.639,82.458,15.887,16.1,106.275,186.718,167.02,98.004,104.054],[-148.217,-233.135,-31.178,-2.637,-11.511,-83.672,-264.252,-58.605,-2.57,-11.62,-67.535,-331.748,-25.564,-2.29,-1.715,-160.043,-173.649,3.635,1.138,1.591,-9.646,63.946,74.137,-11.848,7.259,227.381,75.101,240.471,76.204,176.688]],
"kep": [[62.057,0.04,-0.412,-0.237,0.77,50.088,-2.795,-1.499,-0.265,-1.469,87.33,-4.291,-5.355,-1.953,-0.824,83.011,-33.182,-25.243,-13.196,-21.605,67.358,-117.052,-63.671,-73.25,-56.888,77.157,-226.717,-207.599,-192.675,-154.049],[-6.279,-0.731,94.396,0.006,-0.031,-5.254,-1.004,76.987,-1.858,-0.78,-5.314,-0.612,117.738,-4.6,-0.959,-17.457,-31.368,91.595,-33.474,-15.201,-41.384,17.087,98.8,-92.401,-29.245,-15.163,52.842,33.609,-201.636,-107.057],[-0.226,-2.638,-1.001,-0.29,66.435,-8.128,-3.307,-1.269,-1.042,123.027,-2.121,-2.779,-1.097,1.836,105.758,-44.96,-9.591,-13.912,-13.902,51.186,-52.122,-39.867,-45.741,-8.066,148.705,-62.461,-22.003,-27.513,11.419,124.244],[-19.93,-5.06,-3.298,-1.152,-0.975,-29.282,-5.347,-2.896,-1.107,-0.982,-34.823,-6.822,-2.598,-0.792,-0.815,-66.545,-7.583,-1.514,-2.486,-6.259,-58.943,-20.293,-7.642,-7.839,-50.116,-68.937,-32.195,-2.501,-10.94,-10.916],[-55.047,-3.032,-4.859,-2.003,-1.043,-51.99,-2.589,-3.234,-2.501,-1.756,-61.004,-3.741,-3.367,-2.264,-1.777,-68.309,-5.699,-11.178,-6.065,-1.527,-68.864,-41.451,-13.399,4.909,-2.999,-68.546,-57.508,-39.407,-22.798,-24.042],[-62.482,-8.84,-4.96,-4.31,-1.797,-68.042,-10.607,-3.995,-3.536,-2.149,-70.132,-2.244,-2.931,-2.531,-2.776,-67.202,-26.173,-6.467,-4.395,-0.727,-76.551,-55.152,-14.872,-11.886,-2.066,-80.119,-44.501,-43.337,-21.22,-33.596]],
"vp": [[-16.676,-38.532,-51.128,-57.552,-76.699,-50.172,-19.22,-18.378,-6.12,-19.606,-50.049,-5.757,-24.948,-6.522,2.053,-21.291,7.707,-3.862,6.091,-4.718,-51.764,-5.165,0.698,-16.347,-1.271,-29.347,3.52,-4.66,-9.582,0.9],[274.6,82.553,-52.028,-51.868,-68.327,43.624,21.516,-18.35,-22.861,-30.569,18.304,-7.274,-26.626,-21.782,-2.52,-26.434,-32.494,-39.852,-11.803,-14.278,-45.815,-7.757,-50.525,-15.15,8.459,-42.341,-57.066,-30.211,-18.889,-20.256],[263.663,357.848,181.191,62.75,-37.026,101.216,77.723,4.26,34.975,-5.287,41.543,26.643,5.621,-19.822,-35.469,-32.11,-6.197,11.744,-26.371,-37.585,-22.194,-32.842,-35.72,-35.933,-56.997,-31.091,-33.437,-25.781,-28.526,-45.345],[943.03,675.809,470.648,366.014,161.317,343.776,118.609,85.413,67.489,38.23,154.276,51.838,71.997,32.021,9.533,15.023,1.087,-13.157,-12.441,-4.594,-53.595,-33.403,-15.439,-23.999,-3.168,-16.984,-25.108,-26.511,-40.558,-28.845],[3213.675,861.299,716.172,626.971,365.208,417.552,93.791,163.495,87.173,75.276,335.322,31.854,41.374,38.915,28.165,23.502,-19.084,34.767,21.153,15.904,-7.806,-7.658,-24.741,-11.392,-40.057,-9.201,-33.817,-36.841,-29.79,-41.088],[3595.386,934.307,1240.212,1048.116,673.615,819.595,95.528,324.756,215.649,141.554,285.736,63.921,75.353,100.464,89.378,60.412,-5.957,-3.173,-3.252,-12.831,35.507,-7.454,-23.305,4.997,-6.502,-8.843,-32.1,-32.974,-24.717,-25.99]]
}