{
"KTrans": [[2.308,1.336,1.563,0.951,1.117,12.689,7.568,6.287,5.814,4.971,26.02,15.982,12.977,11.446,10.697,160.145,93.341,74.91,66.023,61.239,402.401,223.993,176.453,153.919,141.503,1123.818,591.25,457.187,394.929,361.802],[2.121,1.166,0.88,0.608,0.614,10.943,5.634,4.183,3.412,2.837,21.862,11.562,8.562,6.825,5.837,133.746,65.123,44.938,36.019,30.747,320.642,145.8,98.298,77.728,66.116,872.426,356.693,233.135,179.749,151.657],[1.425,0.801,0.547,0.577,0.552,10.511,5.525,3.449,2.831,2.456,22.127,10.622,7.595,6.001,5.027,129.282,60.469,40.666,31.172,25.855,311.599,136.837,88.096,66.975,55.23,845.77,329.804,204.41,151.681,122.95],[2.317,0.993,0.83,0.525,0.599,10.412,4.791,3.826,2.883,2.438,18.946,11.026,7.249,5.619,4.79,129.391,59.71,39.127,29.46,24.238,307.965,133.047,84.691,63.424,51.002,823.275,321.674,194.922,141.834,112.685],[0.988,0.964,0.618,0.578,0.584,9.41,5.313,3.895,2.878,2.273,20.649,11.38,7.207,5.536,4.586,124.241,58.34,38.097,28.833,23.2,301.616,130.43,82.439,61.218,48.941,804.1,314.334,191.142,136.902,107.903],[-0.051,0.876,0.555,0.385,0.484,8.17,5.451,3.74,2.667,2.244,18.042,10.643,7.235,5.432,4.42,125.846,57.392,38.056,28.418,22.807,297.689,129.886,81.95,60.124,47.8,811.264,312.35,187.533,134.488,105.259]],
"ve": [[0.849,0.184,-0.454,-0.296,-1.129,4.211,0.666,-1.361,-2.912,-3.732,8.34,1.392,-2.316,-5.22,-7.576,45.161,13.038,-1.619,-11.423,-18.813,93.196,33.183,7.833,-7.623,-18.572,191.602,78.87,34.931,10.154,-6.402],[1.092,0.604,0.244,0.126,0.08,4.948,2.388,1.331,0.847,0.474,10.147,4.752,2.733,1.669,0.879,49.613,23.673,14.339,9.029,5.535,99.15,47.773,29.396,19.302,12.487,199.036,96.799,60.892,41.428,28.657],[1.133,0.455,0.358,0.153,0.215,4.989,2.423,1.61,1.078,0.878,10.116,4.832,3.152,2.27,1.686,49.817,24.435,15.908,11.306,8.422,99.765,49.181,31.854,22.945,17.244,199.628,98.646,64.48,46.77,35.592],[1.027,0.468,0.384,0.235,0.136,5.011,2.49,1.624,1.212,0.932,10.115,4.9,3.23,2.353,1.825,49.854,24.71,16.215,11.926,9.246,99.854,49.598,32.632,23.938,18.653,199.539,99.405,65.583,48.388,37.729],[0.998,0.597,0.343,0.245,0.217,5.206,2.482,1.627,1.217,0.951,10.031,4.925,3.266,2.409,1.911,49.967,24.944,16.378,12.143,9.534,99.914,49.808,32.925,24.359,19.2,199.86,99.554,65.957,49.018,38.695],[0.992,0.453,0.272,0.285,0.187,5.181,2.532,1.696,1.248,0.923,10.03,4.969,3.281,2.505,1.943,50.009,25.004,16.483,12.312,9.677,100.003,49.804,32.994,24.573,19.488,199.854,99.766,66.213,49.338,39.102]],
"kep": [[1.483,1.196,2.094,1.321,2.364,8.161,6.901,7.805,9.061,9.143,16.341,14.431,15.702,17.656,19.867,79.226,71.061,77.817,87.473,98.649,160.071,143.288,156.387,174.898,196.613,319.707,286.472,312.96,349.318,393.408],[1.02,0.565,0.638,0.485,0.538,5.726,3.176,2.816,2.548,2.355,10.649,6.503,5.676,5.074,4.92,56.255,33.521,26.765,24.757,23.893,111.228,66.342,53.252,48.976,47.679,225.198,132.066,107.058,97.805,95.605],[0.296,0.345,0.19,0.425,0.338,5.278,3.034,1.811,1.736,1.565,10.928,5.527,4.31,3.649,3.287,53.057,28.962,21.362,17.85,16.079,106.052,58.762,42.657,35.814,32.4,215.671,116.368,85.076,71.482,64.427],[1.27,0.523,0.446,0.291,0.463,5.144,2.249,2.168,1.652,1.493,8.033,5.844,3.895,3.193,2.913,53.106,28.068,19.717,15.667,13.724,104.146,55.786,39.253,31.86,27.264,208.266,111.47,78.113,62.975,54.424],[0.009,0.369,0.275,0.333,0.367,4.002,2.76,2.234,1.642,1.31,9.663,6.156,3.817,3.054,2.626,49.547,26.732,18.663,14.883,12.478,100.91,53.818,37.251,29.64,24.952,201.521,107.635,75.433,58.976,49.901],[-1.008,0.421,0.283,0.099,0.297,2.844,2.849,2.01,1.403,1.31,7.301,5.407,3.83,2.856,2.43,50.568,25.914,18.52,14.342,11.972,98.862,53.461,36.812,28.539,23.695,203.911,106.423,72.994,57.019,47.56]],
"vp": [[-13.357,17.467,3.871,-6.055,2.378,5.847,-0.807,4.643,1.885,4.573,1.358,2.711,2.566,1.363,0.594,2.5,2.204,1.844,2.138,1.974,2.711,2.258,2.195,2.249,2.178,2.497,2.242,2.172,2.162,2.158],[34.092,11.175,15.33,-4.866,-12.36,6.626,5.763,1.707,4.646,1.91,4.796,2.308,1.995,3.99,-0.143,3.561,2.806,2.117,2.41,2.472,3.137,2.419,2.128,2.252,2.204,2.967,2.565,2.36,2.34,2.365],[40.379,11.874,7.306,-22.699,5.051,15.682,0.88,-0.167,1.702,0.449,10.699,2.087,3.293,2.061,6.226,4.367,2.545,2.577,2.584,2.465,3.837,2.597,2.317,2.498,2.7,3.538,2.84,2.629,2.405,2.414],[144.297,17.514,1.851,15.383,0.122,28.977,5.513,9.564,2.023,4.596,20.516,4.429,1.036,3.33,3.224,5.853,3.214,3.299,2.285,2.665,5,3.127,2.871,2.559,2.645,4.226,3.221,2.847,2.667,2.509],[342.698,27.342,3.306,11.675,3.158,63.066,7.644,1.461,2.558,-2.819,30.38,7.115,2.763,2.359,1.894,9.092,3.821,2.757,2.762,2.414,6.44,3.643,2.7,2.815,2.561,5.109,3.264,2.886,2.581,2.535],[541.128,14.421,-49.173,4.648,-16.725,101.415,8.119,11.391,1.537,3.538,41.984,5.108,2.449,3.524,1.566,13.761,4.041,3.042,3.051,2.551,8.196,3.476,2.911,2.831,2.631,6.313,3.586,2.956,2.889,2.703]]
}