{
"KTrans": [[-26.474,5.269,8.387,11.493,3.466,-18.896,21.153,8.215,14.192,6.618,-13.124,36.213,11.881,15.442,17.718,79.803,76.183,82.694,75.787,65.044,4.631,49.51,85.814,99.489,109.617,190.168,223.936,52.743,87.919,76.602],[-61.157,5.187,7.119,6.956,5.635,-58.889,11.794,11.608,7.898,7.157,-58.974,12.65,19.354,14.388,11.595,-13.776,62.799,57.943,45.656,40.193,-5.965,43.072,117.872,93.762,77.557,64.867,23.432,111.147,18.438,144.437],[-85.597,-11.071,4.915,7.793,6.497,-86.01,-3.931,13.275,8.368,4.841,-80.815,-6.307,21.282,14.193,6.897,-76.117,19.675,61.479,51.52,31.409,-42.645,18.752,59.115,89.455,58.179,-12.581,55.908,41.333,52.278,81.062],[-94.077,-29.243,10.593,9.269,8.95,-91.14,-33.646,8.952,8.337,9.062,-88.996,-26.479,13.401,11.253,11.531,-93.501,-17.274,32.936,43.399,35.851,-71.31,4.485,25.752,75.401,76.555,-19.31,55.739,53.883,18.488,83.555],[-93.824,-51.173,-0.647,3.41,8.354,-92.417,-47.68,-2.187,19.062,15.503,-92.912,-44.142,3.681,11.783,12.943,-87.95,-33.583,19.766,41.143,35.063,-73.335,-37.889,43.637,66.462,75.613,-59.444,-24.514,8.953,-17.681,23.464],[-95.929,-56.17,3.141,5.928,10.497,-99.796,-60.043,-0.545,10.199,12.424,-96.192,-51.535,-1.863,8.713,13.561,-95.696,-55.815,15.475,54.617,32.461,-78.516,-34.152,-1.514,26.798,63.217,-54.105,-8.339,6.545,-2.587,39.369]],
"ve": [[95.552,6.462,20.305,13.371,-17.707,-39.457,0.064,-100.466,-74.657,-47.286,61.657,43.897,3.433,-305.773,1148.447,79.417,14.767,17.353,-8.473,-3.924,104.236,9.174,41.066,9.635,8.553,201.418,81.429,149.204,9.566,-18.94],[19.859,5.157,5.067,0.304,0.223,-18.928,11.017,3.021,5.072,0.568,153.622,7.786,6.027,3.153,2.136,58.927,26.54,18.772,12.395,5.807,109.433,57.564,10.46,20.658,13.836,375.033,100.739,55.694,41.378,30.556],[14.351,2.716,1.272,0.591,-0.344,43.82,-13.779,1.74,0.903,0.598,69.258,15.415,3.065,2.994,2.53,137.291,26.233,15.508,11.479,8.546,103.71,35.191,28.945,23.363,17.853,201.511,103.686,63.793,45.272,34.959],[22.127,3.669,2.193,0.278,-0.638,11.019,9.452,3,-0.03,0.724,36.247,7.005,5.463,1.737,1.557,54.804,25.449,17.549,11.968,9.7,182.809,52.969,32.262,23.438,19.777,206.026,94.756,65.884,47.667,38.487],[-12.398,-2880.34,3.326,-0.733,0.434,30.052,5.639,2.907,1.613,0.716,19.339,-20.157,4.747,1.888,1.634,55.298,31.074,17.62,12.712,8.972,96.369,43.048,43.348,25.921,19.444,213.536,118.214,67.635,50.1,39.319],[-2.876,-9.85,3.644,0.469,-0.478,40.144,4.696,1.836,1.634,0.471,14.555,-73.682,6.389,3.565,2.34,59.74,31.42,17.592,12.595,10.217,122.176,47.935,34.019,26.174,18.79,202.881,99.072,67.408,50.069,40.593]],
"kep": [[-50.694,-4.732,12.817,12.973,-3.815,-40.819,16.381,8.945,16.632,6.37,-36.302,35.4,6.525,21.337,39.254,12.872,51.008,76.005,97.346,106.301,-33.689,13.837,63.61,95.19,134.122,20.342,100.629,22.825,81.267,88.443],[-72.598,3.695,5.665,9.504,8.17,-71.236,7.33,11.491,5.549,7.888,-72.48,6.497,15.622,13.288,12.033,-49.312,28.66,35.867,31.911,35.209,-51.763,-0.833,61.759,61.363,57.242,-39.096,-23.282,36.954,-12.709,87.028],[-90.137,-13.309,5.633,8.085,7.824,-92.311,-10.447,13.085,8.691,5.239,-89.188,-13.938,18.928,11.722,5.581,-86.587,-8.164,40.356,36.823,22.103,-70.542,-17.614,19.116,51.991,34.098,-66.252,-13.454,-5.86,11.938,34.672],[-97.686,-32.821,9.405,9.627,10.216,-94.495,-38.377,6.893,9.001,8.997,-93.261,-30.586,8.895,10.645,10.354,-96.589,-34.414,13.806,28.466,24.198,-84.306,-29.354,-4.605,40.566,46.435,-69.509,-15.928,-1.176,-14.832,31.786],[-96.408,-55.832,-3.039,4.623,8.22,-95.871,-52.55,-3.964,17.904,15.382,-96.136,-51.201,0.946,10.368,11.6,-93.398,-48.861,0.814,25.388,24.414,-85.799,-55.677,6.712,32.82,45.562,-83.185,-55.524,-28.206,-35.626,-5.394],[-98.001,-60.168,-0.334,5.804,11.577,-101.517,-64.374,-4.483,8.926,12.524,-98.25,-56.486,-7.197,5.477,11.386,-97.038,-66.363,-2.648,36.54,20.253,-89.147,-53.622,-24.795,1.791,36.64,-82.531,-49.6,-31.143,-27.404,3.875]],
"vp": [[2184.425,455.004,-727.464,-127.1,79.884,147.968,-41.895,-47.887,-34.652,-110.636,145.777,-49.324,52.509,-116.909,-53.491,21.308,-4.908,-20.014,-23.256,-23.942,-7.884,-20.855,-27.064,-19.79,-14.01,-13.97,-28.263,-24.859,-26.189,-23.349],[5910.723,3283.677,1404.793,1721.093,237.852,1191.773,471.612,528.222,64.554,25.708,563.032,226.772,101.465,52.919,53.219,45.274,66.088,-6.923,4.907,1.609,29.327,1.554,-4.358,-9.368,-6.684,22.657,-13.642,-17.431,-23.749,-14.125],[6774.561,7764.673,3405.878,1000.522,2585.866,1398.201,1427.149,494.659,49.961,120.235,589.514,697.214,312.209,92.015,140.435,115.005,122.506,72.942,16.118,27.075,38.802,26.32,13.632,-6.644,-22.888,2.548,9.877,-31.801,-20.503,-23.822],[7718.332,10423.127,6524.174,1694.671,2691.883,1450.845,2140.438,1549.429,328.508,245.841,823.312,1045.096,649.343,194.167,170.925,141.326,151.184,90.884,50.27,34.933,58.884,71.695,16.268,3.893,8.251,9.935,-17.627,1.267,-4.177,-9.468],[8166.983,12931.779,10373.003,4681.642,2670.384,1670.073,2325.29,2085.823,1109.892,758.82,789.455,1276.503,854.512,604.236,270.747,115.584,210.384,154.101,84.876,-1.717,57.912,96.675,33.769,59.422,2.903,36.511,30.707,6.263,16.803,1.704],[7553.063,12657.228,10790.977,8607.708,5868.798,1659.26,2747.419,2368.135,1630.789,807.878,796.184,1256.69,1383.705,774.222,390.39,201.475,249.894,172.38,114.656,55.997,52.969,91.739,85.103,67.206,10.525,21.451,40.965,17.297,8.741,-9.864]]
}