{
"KTrans": [[0.712,1.101,1.101,0.839,1.292,16.517,8.51,8.252,5.312,5.807,23.544,16.749,13.989,11.27,11.256,168.472,95.601,76.355,65.777,59.884,426.438,218.588,174.578,155.241,141.665,893.676,574.379,446.146,400.461,358.565],[1.337,1.747,0.666,1.357,1.627,12.896,6.072,4.759,4.048,3.127,22.036,10.84,9.137,7.275,5.711,134.73,67.525,46.283,36.432,31.675,374.429,146.916,103.689,79.455,65.023,139.91,379.472,249.373,184.556,151.711],[-1.104,3.336,1.74,0.72,1.586,6.763,7.683,4.843,3.719,2.996,16.677,14.707,8.019,7.338,5.372,125.524,64.89,43.248,33.235,27.279,187.121,161.307,89.148,67.531,55.849,-108.66,463.413,230.779,158.951,127.831],[-9.715,1.904,2.785,1.946,1.553,-2.274,7.469,6.014,3.851,2.608,7.459,12.674,7.374,6.803,5.608,96.142,65.109,44.769,32.749,25.278,60.089,165.206,87.211,69.539,53.815,-2.817,453.249,231.901,151.214,122.091],[-24.818,2.476,1.827,2.13,1.922,-13.935,5.594,5.939,4.425,3.077,-10.312,12.336,8.554,6.17,5.455,40.663,64.091,43.617,32.222,24.212,-14.438,183.507,92.049,64.777,51.441,-73.606,336.697,247.838,151.671,110.425],[-32.843,2.992,2.187,2.101,2.003,-22.114,5.169,6.122,3.88,3.227,-20.852,13.529,8.256,6.744,5.369,7.42,69.157,42.281,32.188,23.35,-61.179,166.85,100.96,67.977,50.591,-29.077,221.596,220.713,165.037,113.87]],
"ve": [[2.277,2.033,1.314,2.267,1.337,4.774,1.072,-1.147,-1.767,-3.199,8.393,0.797,-2.199,-3.112,-6.567,46.249,14.147,-1.626,-11.256,-18.108,94.859,33.384,8.002,-7.189,-18.318,189.92,80.031,35.907,11.754,-5.985],[1.212,0.112,0.335,-0.145,-0.047,5.458,2.339,1.544,0.818,0.279,9.692,4.849,2.31,1.654,1.086,49.522,23.639,14.061,9.135,5.382,99.489,47.576,29.241,19.627,12.398,197.265,97.101,61.64,41.505,28.668],[0.687,0.401,0.165,0.274,0.049,5.554,2.641,1.36,0.859,0.852,10.648,4.975,2.856,2.058,1.399,49.339,24.516,15.726,11.444,8.267,100.281,49.63,31.582,22.872,17.214,199.912,100.101,64.713,46.639,35.766],[1.417,0.371,0.702,0.051,0.041,5.814,2.129,1.409,1.08,0.817,11.497,5.017,2.879,2.504,1.633,50.6,25.269,16.402,11.894,9.073,99.227,50.186,32.439,24.056,18.699,198.574,99.826,65.761,48.272,38.082],[2.242,0.308,0.208,0.13,0.035,7.53,2.86,1.476,1.181,0.786,11.323,5.075,3.153,2.347,1.925,49.371,24.809,16.746,12.414,9.26,107.541,49.877,32.717,24.173,19.088,199.917,103.959,66.194,48.962,38.462],[3.856,0.32,0.155,0.1,0.069,6.518,2.925,1.847,0.984,0.75,10.81,5.279,3.442,2.445,1.854,51.411,25.211,16.355,12.059,9.69,103.458,49.576,32.987,24.418,19.242,198.747,99.419,65.926,49.734,39.023]],
"kep": [[-1.046,-0.122,0.819,-0.051,1.652,11.69,8.018,10.608,7.941,10.826,14.368,16.332,17.239,16.274,20.862,83.702,71.625,79.764,87.556,96.34,169.045,138.758,154.393,175.405,196.516,240.085,272.971,301.129,347.53,387.57],[0.199,1.68,0.38,1.572,1.743,7.331,3.706,3.237,3.25,2.898,11.443,5.827,6.735,5.579,4.633,56.309,35.466,28.279,25.064,24.997,134.59,66.908,57.442,50.007,46.85,-16.435,141.479,115.32,100.832,95.521],[-1.502,2.981,1.609,0.46,1.554,1.353,4.93,3.478,2.853,2.146,5.738,9.322,5.052,5.202,3.934,50.238,32.25,23.79,19.565,17.575,42.864,73.869,43.595,36.283,32.936,-97.813,178.059,99.847,76.139,67.633],[-11.078,1.603,2.093,1.922,1.517,-7.485,5.281,4.575,2.761,1.791,-3.731,7.323,4.399,4.217,3.926,29.162,31.727,24.349,18.643,14.853,-20.268,75.585,41.116,36.57,29.553,-64.503,172.377,98.978,68.95,60.605],[-26.466,2.245,1.645,2.014,1.899,-19.59,2.696,4.412,3.219,2.281,-19.219,6.909,5.263,3.758,3.459,-7.172,31.247,22.918,17.599,13.68,-56.188,88.091,44.334,32.601,27.11,-87.752,114.864,107.564,68.333,51.663],[-34.394,2.622,2.037,2.004,1.941,-26.858,2.202,4.223,2.873,2.466,-28.704,7.769,4.684,4.205,3.457,-29.329,34.778,22.224,17.921,12.446,-79.964,76.894,50.678,34.833,26.222,-74.293,58.519,91.577,76.247,53.429]],
"vp": [[130.165,120.766,-9.787,-83.358,23.372,44.211,16.799,-0.013,23.131,13.63,10.778,18.204,11.826,6.201,17.489,24.21,14.739,10.082,-3.082,1.599,9.313,6.592,6.739,9.824,7.771,-8.524,3.768,3.886,15.692,7.112],[678.012,-111.536,-20.474,82.971,-31.377,204.429,21.605,-20.348,26.183,-20.002,110.983,13.92,3.409,10.424,22.531,21.094,11.72,12.605,10.51,18.38,17.261,7.719,16.541,13.836,-4.635,15.117,8.791,20.276,10.524,8.352],[2498.267,158.675,239.541,13.059,60.32,556.376,60.91,-0.102,27.819,4.199,285.97,58.278,45.845,20.898,3.075,82.743,22.217,13.518,17.017,14.74,32.174,33.424,4.506,10.522,8.591,20.792,28.093,20.614,11.333,12.376],[5042.349,524.214,305.488,-47.107,3.876,1003.655,47.361,69.28,7.676,42.475,542.442,97.295,-4.869,28.622,20.663,110.588,21.755,30.819,20.875,10.182,48.196,34.553,4.137,31.808,20.249,19.015,27.087,22.447,14.16,24.39],[6801.377,1512.735,6.042,-142.262,-66.987,1351.65,147.959,47.393,-34.327,-0.288,651.698,148.514,1.397,-7.932,-0.906,133.975,47.316,21.383,33.594,4.504,64.273,54.552,20.01,15.27,16.725,35.243,21.395,27.653,17.363,9.99],[7991.568,1812.79,3.259,-221.666,-300.358,1571.044,351.803,-1.805,-30.61,-21.357,779.345,181.568,20.816,8.256,-11.292,143.665,72.144,20.799,22.902,-6.598,82.371,59.789,29.881,21.608,9.741,37.568,45.252,14.375,30.1,19.803]]
}