{
"KTrans": [[2.417,17.002,7.795,7.123,3.743,3.782,21.299,13.652,16.856,15.814,14.865,29.81,24.278,31.024,17.545,51.891,63.74,84.569,90.774,90.819,24.609,75.749,108.601,145.012,141.256,39.602,-177.317,-66.067,103.802,107.8],[-37.324,-12.338,-0.713,6.52,3.728,-37.249,-9.895,3.625,7.133,8.826,-32.062,-3.54,4.532,12.504,10.891,14.427,21.063,18.856,28.568,35.549,5.671,63.765,7.968,33.784,47.792,35.58,-72.36,-38.812,-4.395,10.646],[-47.495,-18.52,-9.473,-8.223,-0.171,-50.934,-17.467,-6.166,-6.638,-0.901,-48.048,-15.079,-4.331,-1.656,1.316,-21.459,29.776,26.474,19.015,4.893,-13.793,66.511,60.663,20.583,16.458,-17.046,19.942,59.96,-7.631,19.145],[-58.498,-21.998,-9.119,-5.179,-4.755,-60.597,-20.447,-5.489,-3.703,-1.91,-61.156,-16.932,-0.69,-0.624,-2.214,-38.12,13.76,27.787,23.154,22.787,-20.28,50.844,68.588,48.785,39.983,-57.703,70.77,26.4,40.744,45.555],[-71.391,-29.152,-13.439,-4.489,-4.999,-69.516,-21.813,-6.924,-3.377,0.516,-68.001,-24.954,-4.742,-3.514,0.961,-55.172,5.541,28.245,26.93,23.093,-55.224,35.387,31.209,59.312,61.146,-115.503,-21.53,64.215,84.208,108.626],[-76.574,-35.26,-13.575,-1.42,-1.922,-72.364,-30.535,-5.984,-4.111,-2.333,-71.957,-26.933,-7.426,-0.676,1.077,-57.383,-8.577,19.643,21.681,19.797,-68.525,10.223,64.367,66.47,57.282,-112.535,-20.491,49.321,87.719,91.245]],
"ve": [[22.473,18.574,61.204,-113.84,52.612,10.265,-28.498,-37.833,-7984.994,-27.515,25.065,-6.104,-47.155,-26.99,-92.489,21.553,-60.926,-12.089,-23.406,-61.173,96.188,33.995,-8.118,-80.858,-88.567,204.378,79.601,38.744,3.039,-16.675],[39.533,-0.87,-0.645,7.483,-9.886,-25.345,4.904,10.83,-1.066,-6.218,61.783,-8.901,15.982,-76.442,-131.527,36.087,16.321,12.804,-29.972,1.644,160.379,45.999,33.406,308.854,-2.942,181.274,96.854,58.556,45.649,26.703],[-20.94,-2.084,-16.574,-4.821,-7.227,-0.184,-2.906,-10.47,-57.745,-1.478,38.474,3.444,-3.509,9.084,17.706,44.271,21.72,117.579,6.668,1.788,86.478,49.725,32.318,28.876,-83.923,189.135,96.75,75.216,52.227,37.948],[-17.076,104.451,-0.679,-6.22,4.055,-27.538,-5.536,0.099,-8.681,9.188,-29.177,-0.734,-0.735,0.512,-18.206,63.78,20.088,10.676,7.364,10.681,84.309,32.221,31.815,22.534,20.945,191.508,99.56,67.395,51.999,37.77],[-5.869,-2.188,-1.855,-1.367,-2.175,-405.919,0.017,-1.087,-0.666,-1.106,-11.672,-1.09,0.127,0.62,-0.632,39.293,20.198,14.966,10.49,8.488,79.832,25.873,32.346,23.742,17.806,281.148,99.001,63.862,48.642,32.185],[-34.492,-3.313,-1.458,-0.62,-0.647,-0.671,-2.048,0.555,0.518,0.201,-0.552,1.049,1.458,1.383,1.091,26.559,29.548,14.114,10.999,9.469,96.524,48.758,33.184,24.079,18.774,198.456,92.636,68.701,47.36,42.324]],
"kep": [[-127.601,-115.294,-48.56,-21.468,-25.793,-118.927,-107.869,-84.88,-44.327,-40.223,-122.914,-122.101,-75.6,-88.433,-44.576,-120.972,-211.211,-194.352,-199.397,-196.223,-167.229,-296.85,-341.691,-344.974,-405.93,-118.281,-434.881,-614.457,-615.173,-766.482],[-81.94,-89.406,-116.249,-78.973,-21.781,-84.169,-83.299,-121.66,-82.833,-42.523,-78.489,-74.308,-117.474,-105.993,-48.274,-60.266,-59.806,-122.896,-163.605,-108.623,-76.779,-38.914,-162.471,-202.021,-225.383,-65.356,-125.619,-200.402,-261.077,-367.031],[-76.245,-47.897,-46.688,-87.19,-116.41,-80.295,-48.877,-46.418,-85.795,-124.045,-78.497,-46.725,-44.555,-71.873,-123.08,-71.653,-17.571,-16.539,-44.614,-150.95,-74.714,-15.962,2.574,-60.463,-136.092,-81.191,-62.23,-26.034,-93.776,-101.735],[-80.298,-42.732,-30.157,-24.174,-38.246,-81.333,-43.801,-21.839,-28.166,-36.803,-82.607,-38.738,-19.144,-17.872,-37.013,-78.566,-27.411,-3.502,-0.945,7.599,-77.188,-21.891,15.192,4.037,1.28,-93.13,-36.8,-43.714,-23.911,-22.247],[-87.84,-45.639,-25.029,-12.664,-16.441,-86.532,-39.664,-19.605,-13.042,-9.746,-86.125,-43.21,-16.528,-14.921,-11.642,-84.911,-32.817,2.747,6.715,13.698,-89.248,-29.816,-16.433,22.82,44.747,-105.435,-66.196,-24.356,8.9,47.433],[-89.384,-50.157,-22.573,-8.675,-6.688,-88.499,-45.786,-16.86,-12,-8.889,-87.965,-41.097,-20.357,-11.817,-3.83,-83.226,-40.609,-6.647,2.84,8.859,-93.638,-41.957,13.519,30.358,36.049,-105.414,-67.287,-24.138,10.318,29.366]],
"vp": [[489.948,109.371,-503,216.009,364.103,-44.202,41.063,78.71,107.988,222.219,41.498,-72.511,-26.009,48.29,23.788,-3.75,-7.393,20.234,10.84,-6.061,5.072,-7.078,2.293,-15.844,6.907,-8.018,17.095,12.344,-1.168,7.469],[2704.377,1382.096,-284.896,-68.811,112.988,649.435,155.398,-32.714,-71.672,-60.106,271.291,117.542,-31.418,-33.409,20.687,47.741,-0.85,-14.591,-5.003,-1.269,14.274,-0.034,-2.418,-10.207,11.969,6.484,-7.156,-2.903,-9.322,10.519],[5026.167,2875.01,1069.566,1056.006,382.65,947.132,773.106,329.318,257.931,36.441,497.502,307.652,140.541,105.908,-41.646,106.556,50.498,54.399,24.631,-7.01,30.098,14.85,3.727,10.973,3.638,0.22,4.962,-7.593,-10.947,-24.59],[5449.997,5822.718,2904.185,2276.492,608.149,1099.015,1093.466,486.459,259.701,288.105,554.96,618.938,298.314,96.426,170.671,137.234,84.527,36.904,24.899,5.348,45.385,48.716,18.267,11.881,-8.118,29.823,17.665,-2.198,-12.403,2.72],[6597.307,6546.786,4707.105,2445.493,1257.407,1281.782,1556.899,827.172,483.213,563.159,705.124,683.724,453.931,193.516,159.055,130.314,137.659,92.793,48.278,25.068,59.924,81.406,27.939,25.916,7.029,18.328,5.7,6.763,-0.323,-0.462],[7257.625,8658.46,6307.951,3838.371,1025.344,1526.268,1699.962,1390.28,695.687,147.209,772.15,839.861,756.09,315.296,81.049,138.047,171.684,105.881,66.132,-8.534,80.547,82.534,56.98,39.125,14.768,45.887,39.431,11.473,15.754,2.384]]
}