{
"KTrans": [[7.152,7.359,-0.135,1.997,-1.352,15.421,15.841,6.694,6.851,7.244,24.339,21.405,16.108,18.744,12.957,93.796,100.664,72.738,65.789,65.859,163.26,164.732,163.908,144.758,142.45,-34.643,157.142,224.866,265.78,259.707],[-17.56,7.192,2.535,1.206,2.315,-25.347,12.105,5.956,3.291,5.476,-15.573,13.827,13.094,7.438,7.092,25.684,74.516,52.73,36.887,31.321,-31.727,154.585,105.007,78.639,70.602,75.393,-36.154,155.795,170.126,152.005],[-50.533,1.857,5.292,1.21,1.476,-45.399,7.384,4.136,6.042,3.927,-46.666,17.344,11.524,8.902,7.463,-29.812,80.63,45.247,35.604,30.986,-31.761,73.889,122.916,79.555,58.088,-7.059,43.941,103.059,163.982,135.21],[-77.054,-2.974,1.005,4.735,2.538,-66.313,-2.79,8.625,7.46,4.379,-63.374,7.869,10.176,10.193,7.923,-70.402,37.29,51.424,33.746,27.282,-25.654,5.777,145.537,84.928,62.631,-19.274,-9.838,-11.698,172.681,138.284],[-80.654,-11.773,7.11,2.261,2.835,-81.447,-11.103,9.909,2.09,5.794,-78.224,-8.308,13.075,10.028,5.703,-81.188,17.503,39.03,44.843,28.034,-71.678,-21.977,111.703,83.449,56.053,-59.147,-15.179,35.215,134.959,130.22],[-87.145,-13.478,3.825,7.316,5.139,-88.923,-13.262,5.944,4.927,7.276,-85.927,-8.439,12.91,7.377,6.178,-94.939,-8.902,55.014,39.054,27.002,-67.132,-55.416,62.17,82.78,66.44,-98.656,-56.94,-40.801,7.133,150.14]],
"ve": [[-3.811,6.203,19.133,31.095,101.115,10.929,5.258,8.607,21.296,-193.574,39.458,5.177,3.584,-3.603,18.464,45.179,19.812,4.168,-6.969,-18.035,100.161,37.46,12.041,-4.755,-30.536,197.354,78.195,46.055,-10.477,-7.419],[7.966,1.41,0.385,0.639,-0.431,9.526,2.743,1.688,1.387,-0.576,12.207,5.841,3.53,1.719,0.616,45.464,24.34,14.545,9.832,6.756,101.899,50.521,28.832,19.997,13.226,203.181,96.974,64.796,43.771,30.22],[261.008,0.846,-0.284,-0.178,0.805,1.903,3.104,0.728,0.949,1.181,23.874,4.852,3.056,2.416,1.595,50.882,26.056,15.11,11.254,8.695,100.919,50.334,32.436,23.04,16.742,196.585,98.874,68.198,47.019,36.427],[13.896,1.955,0.584,0.237,0.162,8.086,3.068,2.048,1.808,0.307,20.707,5.623,3.212,2.205,2.383,-65.251,25.764,17.129,11.104,8.869,104.209,51.022,33.792,23.641,18.977,203.621,101.291,66.628,48.183,38.354],[4.763,1.382,0.113,0.35,0.117,13.409,4.768,2.364,1.498,0.825,21.018,4.836,3.308,2.425,2.329,50.829,25.412,14.923,12.034,9.894,108.949,50.615,32.686,24.224,19.135,202.268,99.803,64.809,50.797,37.948],[7.426,1.55,0.852,0.342,0.359,11.993,3.898,1.798,1.099,0.624,5.791,6.578,3.995,2.686,1.634,49.625,25.928,16.414,12.7,10.059,98.946,51.984,33.613,24.42,19.582,213.954,102.139,66.763,52.211,39.344]],
"kep": [[5.522,8.451,-2.568,4.216,-2.474,7.513,15.97,6.763,10.539,14.488,9.651,20.34,19.037,32.736,23.623,32.803,72.707,69.999,84.514,110.015,37.118,89.177,137.583,164.239,192.995,-54.588,52.578,135.165,219.11,266.291],[-22.531,6.161,2.595,1.069,3.138,-31.27,9.878,4.59,2.266,6.605,-27.53,8.176,9.71,6.337,6.946,-16.642,40.239,33.383,24.878,23.347,-58.759,68.336,58.393,48.832,50.882,-31.589,-56.698,56.341,86.62,92.88],[-53.63,1.258,5.853,1.608,0.866,-51.983,4.044,3.666,5.332,2.863,-55.573,12.378,8.518,6.573,6.002,-53.574,42.173,26.141,21.912,20.682,-60.854,16.053,66.432,45.446,35.342,-62.818,-19.997,22.864,77.216,71.136],[-78.956,-4.749,0.743,4.604,2.515,-70.033,-5.364,6.566,5.906,4.164,-69.081,2.069,7.201,8.054,5.569,-80.218,8.333,29.198,20.452,16.905,-60.613,-27.566,80.447,48.864,36.22,-68.627,-48.34,-39.728,79.982,69.72],[-83.173,-12.78,7.288,1.991,2.825,-84.01,-13.995,7.353,0.683,5.032,-82.289,-12.346,9.57,7.519,3.384,-86.552,-6.979,20.643,29.013,16.461,-83.133,-46.133,57.204,46.216,30.507,-83.047,-52.354,-14.725,54.565,63.915],[-88.794,-15.486,2.887,6.977,4.853,-90.668,-16.996,4.046,3.856,6.667,-88.711,-14.396,8.467,4.854,4.483,-95.563,-27.856,31.867,22.954,15.329,-81.927,-67.797,20.835,45.024,38.352,-96.35,-73.254,-57.447,-25.497,76.014]],
"vp": [[793.29,-413.917,219.323,-51.584,-19.631,32.906,-68.05,-40.209,-24.003,16.959,52.842,4.55,-2.5,-6.472,-21.459,4.837,7.211,16.429,5.612,8.289,14.279,12.535,-11.045,-9.337,6.126,28.919,-10.492,-9.452,-3.16,-7.685],[4910.321,724.368,-369.317,229.741,14.853,958.982,179.672,112.524,-18.192,-18.468,557.079,122.163,60.021,-6.454,-19.437,111.449,26.043,35.099,4.142,14.275,41.018,16.577,-1.157,7.798,7.893,34.813,3.175,0.479,-3.617,0.044],[7643.097,3887.208,574.313,-38.582,293.128,1595.091,706.03,128.303,70.64,16.826,808.257,326.84,86.775,72.461,52.158,128.279,84.515,23.887,15.095,24.587,72.868,25.944,31.839,22.012,0.211,31.053,20.443,23.146,2.673,7.89],[9500.148,7428.219,2010.191,987.151,11.126,1876.797,1290.466,365.347,158.286,100.485,895.592,742.787,163.791,74.03,149.253,181.843,130.371,76.568,35.548,3.282,77.723,65.471,61.316,38.24,28.432,61.68,50.516,12.796,0.617,13.578],[10003.857,11601.713,3627.128,891.558,659.818,1885.085,2360.065,1049.217,118.315,106.151,941.88,1119.367,287.525,-14.771,46.22,194.662,228.221,61.266,51.661,43.323,131.931,105.776,45.577,32.247,13.117,74.895,29.897,20.196,19.189,-9.819],[10267.134,14626.383,6889.555,753.315,835.83,1980.511,3028.643,1431.188,272.767,-16.392,1033.531,1411.182,677.768,174.244,136.886,212.148,297.955,185.898,39.599,12.521,105.457,134.428,88.552,42.532,33.192,117.723,76.935,39.241,37.711,13.823]]
}