{
"KTrans": [[1.35,5.772,1.228,2.539,2.529,7.444,4.667,9.265,4.642,2.946,30.801,17.761,13.399,15.972,10.33,154.348,92.163,76.745,71.019,59.787,219.554,235.229,178.169,152.541,149.013,-90.032,385.102,376.424,365.966,323.883],[-13.225,3.971,2.048,2.133,2.003,-9.234,7.932,3.36,5.196,3.544,-3.941,12.461,8.556,7.525,7.36,73.322,77.616,47.706,38.301,31.634,33.19,183.766,103.542,78.405,68.115,65.433,244.195,246.537,180.413,161.19],[-52.405,1.401,4.05,3.619,3.224,-45.147,6.118,6.076,2.682,3.352,-36.05,8.575,9.805,7.258,5.066,-18.14,73.46,44.185,34.777,26.933,-8.556,160.737,103.834,72.882,59.056,-222.788,158.563,256.65,173.947,132.966],[-59.863,2.127,2.131,3.734,2.747,-56.843,5.767,6.383,5.289,3.105,-63.136,7.433,13.698,5.359,6.174,-37.378,64.076,40.649,30.532,27.848,-55.312,130.091,109.461,74.583,57.149,-48.931,-57.979,225.53,184.876,127.723],[-75.832,0.268,5.009,2.841,3.113,-69.725,-0.508,4.911,5.508,3.559,-67.656,4.438,8.163,8.846,5.612,-70.497,51.42,53.189,33.763,26.757,-66.086,43.969,102.779,72.576,55.663,-34.256,-7.26,164.155,179.016,135.932],[-82.77,-10.441,3.511,2.493,2.926,-82.173,-9.02,9.291,3.816,4.045,-74.882,0.977,11.884,9.021,6.325,-72.205,23.847,48.882,31.384,26.538,-68.022,13.671,115.307,80.97,62.328,-68.55,-43.319,80.098,164.311,141.22]],
"ve": [[6.74,5.326,6.224,7.013,25.079,10.433,4.75,3.9,10.114,2.007,15.867,6.411,4.362,-2.683,15.316,51.656,15.698,1.132,-10.81,-14.627,91.363,37.245,10.518,-4.884,-17.344,207.561,87.239,35.731,16.157,-2.504],[6.103,0.176,0.758,0.258,0.103,9.375,4.232,2.456,1.104,0.96,13.151,4.106,2.49,2.581,0.814,51.723,24.481,14.389,9.553,6.096,102.32,48.959,29.973,19.455,12.848,193.432,87.177,62.514,41.156,28.821],[-13.569,0.973,0.054,0.416,-0.225,27.552,2.298,1.053,1.549,0.654,19.531,4.951,3.431,2.402,1.403,-18.075,25.095,16.088,10.854,8.206,97.897,49.363,32.217,23.429,16.754,210.037,98.525,65.554,47.066,35.961],[7.352,1.053,1.142,-0.031,0.36,19.165,3.087,0.986,0.91,0.907,-45.928,6.57,3.644,1.966,2.063,49.969,25.432,15.542,12.107,9.568,100.84,50.293,32.421,24.732,18.746,155.238,98.524,67.497,49.336,38.06],[106.857,1.785,1.079,0.515,0.148,5.231,2.815,1.747,0.833,1.025,6.656,5.004,2.748,2.54,1.951,60.344,26.93,17.393,11.82,9.7,101.335,49.643,32.754,24.832,19.191,199.33,103.055,72.921,49.362,39.322],[-4.258,2.253,0.181,0.29,0.053,-5.236,3.773,2.168,1.23,0.876,44.056,6.103,3.538,2.576,2.077,53.053,25.993,15.843,12.035,9.341,206.038,52.398,34.266,25.063,19.502,200.662,100.675,69.024,49.029,39.677]],
"kep": [[0.242,7.449,1.063,4.04,4.38,2.247,3.44,10.245,4.356,1.58,17.889,15.672,15.651,26.916,18.671,68.441,68.342,78.723,95.75,91.997,60.724,143.864,153.554,169.221,204.71,-77.482,166.216,240.241,308.061,339.48],[-16.416,4.144,1.571,2.182,2.516,-16.691,3.776,1.375,4.328,2.833,-15.373,8.264,6.271,5.154,6.847,13.429,42.673,29.36,26.593,24.384,-29.968,88.68,56.333,49.511,49.143,-38.073,73.323,111.184,97.922,102.17],[-54.798,0.636,4.15,3.348,3.649,-50.101,4.06,5.218,1.222,2.788,-45.956,3.647,6.269,4.912,3.746,-46.18,38.306,24.155,21.664,17.37,-52.093,71.807,53.316,39.969,36.194,-134.771,31.068,111.819,84.497,70.528],[-62.985,1.091,1.143,3.829,2.449,-61.514,2.78,5.568,4.55,2.237,-68.62,1.063,9.767,3.437,4.168,-60.116,30.332,21.522,16.519,16.756,-76.044,50.937,56.973,39.722,32.121,-79.532,-73.084,91.069,88.136,64.07],[-78.254,-1.734,4.061,2.391,3.032,-73.015,-3.223,3.247,4.695,2.607,-72.579,-0.504,5.402,6.238,3.634,-80.498,17.912,30.384,19.557,15.496,-81.338,-5.207,51.424,37.767,30.336,-75.468,-48.951,54.458,84.021,67.698],[-84.746,-12.483,3.456,2.257,2.93,-84.227,-12.11,7.07,2.646,3.193,-78.523,-5.277,8.077,6.375,4.243,-81.479,-2.435,28.185,17.088,15.671,-82.658,-24.133,58.79,43.85,35.422,-86.752,-67.234,7.039,73.629,70.895]],
"vp": [[158.638,21.311,-44.957,-208.909,167.439,123.91,21.745,-6.709,-1.723,-14.105,101.166,17.914,12.316,26.947,-4.504,32.832,-1.305,2.004,12.412,9.302,5.557,14.956,5.993,9.953,15.818,14.36,-6.754,-0.025,12.198,-5.332],[4214.311,647.372,-49.377,-175.479,-114.8,706.987,21.212,55.048,20.844,-4.872,430.006,69.53,20.427,26.313,38.688,55.594,52.892,13.22,15.569,-3.875,43.554,22.028,11.284,12.218,6.055,-4.569,-1.808,0.051,-5.939,8.596],[6774.255,2131.896,525.389,354.623,24.581,1379.634,339.869,64.647,64.452,73.958,688.037,153.949,49.239,79.948,36.125,116.548,66.835,26.911,6.166,12.089,39.312,30.076,25.356,10.498,16.28,72.496,11.335,9.529,13.046,10.651],[8336.326,4407.073,440.537,131.871,24.521,1640.495,900.547,132.274,10.84,19.504,828.576,425.001,82.879,-1.837,28.025,152.323,109.044,16.366,2.566,37.086,60.521,40.427,38.455,31.446,19.697,45.87,34.78,25.096,17.615,8.859],[9624.219,7656.993,1659.579,758.084,-116.536,1836.248,1473.296,492.899,47.702,56.622,891.641,849.712,198.414,82.4,1.91,176.291,191.983,80.395,18.994,23.766,78.32,74.556,32.667,22.412,20.9,49.731,53.924,30.018,16.734,21.026],[9637.791,10576.018,2740.426,620.6,439.693,1974.309,1928.281,721.97,165.861,70.716,917.402,1062.281,490.436,161.761,78.314,176.944,206.521,108.782,13.134,20.015,98.086,99.586,76.378,48.278,36.66,57.973,50.901,52.465,-0.927,26.04]]
}