{
"KTrans": [[-19.852,34.913,44.074,47.055,44.248,-40.644,40.541,27.645,48.797,51.694,-11.551,43.634,60.63,39.806,40.76,114.243,106.507,137.282,118.803,105.38,197.121,315.479,258.724,237.372,204.223,788.887,777.626,527.042,537.582,430.603],[-96.634,11.74,55.213,45.945,46.923,-94.547,-9.762,81.258,67.509,42.275,-103.548,28.674,106.543,49.846,48.257,-57.997,79.974,152.74,119.154,92.972,-40.147,111.281,213.704,162.788,127.982,9.108,370.969,360.302,296.656,240.298],[-107.02,-49.782,42.694,79.112,76.663,-105.017,-46.597,63.972,73.336,66.077,-100.224,-39.84,46.74,74.346,68.173,-97.33,-10.773,117.896,145.703,107.398,-104.511,-15.608,164.799,180.617,160.885,-96.323,48.417,319.751,317.712,264.705],[-106.935,-105.428,-37.561,111.195,114.404,-110.888,-97.109,3.82,87.347,98.916,-103.524,-111.231,17.001,93.763,84.136,-101.084,-83.981,36.423,134.849,108.925,-119.542,-104.518,106.199,244.125,181.287,-77.034,-92.991,223.197,349.89,313.361],[-105.093,-113.503,-103.279,57.947,140.49,-106.499,-116.221,-62.313,65.19,137.417,-108.704,-113.624,-65.869,80.211,153.237,-104.775,-111.619,-29.414,82.675,164.912,-95.009,-122.553,-48.173,103.342,258.44,-125.596,-152.598,6.003,190.278,368.133],[-102.772,-106.691,-107.991,-21.12,100.864,-105.616,-128.322,-99.328,-17.034,65.583,-102.415,-139.529,-92.755,-18.961,73.461,-105.181,-129.414,-114.773,-40.75,112.451,-113.128,-124.455,-81.136,61.99,206.881,-106.676,-112.825,-50.131,167.658,290.491]],
"ve": [[-0.408,17.201,-1.536,-78.452,14.805,22.879,103.611,-14.44,-11.197,-390.516,-37.031,12.996,9.629,88.746,56.461,113.589,30.282,-8.537,27.745,12.447,107.749,45.165,30.022,-1.416,-10.981,208.188,84.403,41.092,15.502,-2.058],[25.708,11.571,6.479,7.649,5.928,16.089,-12.408,7.878,6.49,3.037,1.391,11.317,9.705,6.876,5.135,80.599,28.232,17.625,14.687,7.663,105.26,48.734,30.828,20.904,13.821,241.003,101.566,66.335,42.748,30.783],[1.54,6.997,-64.408,4.159,3.659,19.202,14.934,7.55,1.539,3.633,-7.404,14.04,5.273,4.984,5.248,54.638,23.198,22.165,16.998,11.012,108.499,49.32,32.284,24.652,20.979,193.982,94.535,67.782,51.668,39.27],[13.792,6.438,17.649,2.433,3.791,-1.694,5.532,5.68,3.346,4.022,36.028,4.231,6.347,4.571,1.81,68.656,32.575,21.024,12.953,9.68,98.92,47.971,37.131,30.836,23.407,107.307,107.581,79.669,52.382,44.245],[10.652,4.89,0.171,-27.934,4.667,8.099,-1.711,3.327,12.836,4.075,27.144,4.281,30.641,1.141,7.886,49.347,10.269,14.994,22.913,11.861,94.305,52.86,36.762,26.234,27.033,264.506,94.266,68.861,50.629,43.565],[-89.918,-76.383,-0.176,5.755,15.126,53.993,7.157,3.92,-4.876,2.778,45.847,3.037,10.544,5.686,8.138,59.086,10.929,18.965,17.816,13.902,115.484,61.234,39.378,33.685,23.045,151.859,103.062,69.378,52.222,43.24]],
"kep": [[-42.916,29.917,38.245,60.149,57.979,-63.026,31.389,19.739,64.757,79.159,-33.137,28.524,59.294,49.104,52.457,23.854,68.181,134.284,140.949,152.723,33.925,188.856,220.616,257.678,259.72,191.757,383.994,353.075,457.918,449.882],[-100.52,-7.331,41.284,36.662,42.114,-99.92,-21.528,62.768,56.448,38.245,-104.737,7.626,86.329,38.224,43.963,-75.08,32.917,110.412,87.934,75.417,-73.483,35.78,134.877,109.608,96.639,-65.889,128.396,172.487,171.117,154.419],[-106.152,-59.621,24.85,64.883,65.537,-106.039,-58.207,44.06,60.458,57.059,-100.839,-50.548,27.865,58.592,53.191,-100.406,-35.455,69.432,105.062,81.141,-104.431,-50.125,89.106,114.381,109.06,-98.981,-30.389,139.893,170.334,154.668],[-106.255,-107.022,-48.565,93.449,97.495,-109.634,-99.116,-9.403,64.989,81.341,-103.549,-109.216,-1.214,73.171,69.916,-101.932,-89.825,5.004,95.067,78.71,-109.186,-100.123,39.585,150.679,117.76,-92.388,-94.904,80.26,184.072,176.556],[-104.67,-111.009,-105.625,41.583,116.984,-106.222,-114.585,-69.377,44.671,115.078,-107.452,-112.022,-72.678,57.171,124.332,-101.847,-105.976,-46.888,46.832,120.278,-97.363,-118.166,-65.009,49.107,172.043,-108.562,-123.144,-40.455,82.257,210.848],[-103.445,-107.269,-107.009,-30.705,80.484,-105.941,-125.351,-100.256,-28.643,49.226,-102.442,-131.475,-95.079,-29.179,51.65,-102.886,-122.292,-112.136,-50.996,74.6,-106.149,-112.529,-89.724,16.853,138.769,-102.031,-105.009,-75.441,67.608,161.055]],
"vp": [[0.001,0.001,0.001,0.001,0.001,0.005,0.005,0.005,0.005,0.005,0.01,0.01,0.01,0.01,0.01,0.05,0.05,0.05,0.05,0.05,0.1,0.1,0.1,0.1,0.1,0.2,0.2,0.2,0.2,0.2],[0.001,0.001,0.001,0.001,0.001,0.005,0.005,0.005,0.005,0.005,0.01,0.01,0.01,0.01,0.01,0.05,0.05,0.05,0.05,0.05,0.1,0.1,0.1,0.1,0.1,0.2,0.2,0.2,0.2,0.2],[0.001,0.001,0.001,0.001,0.001,0.005,0.005,0.005,0.005,0.005,0.01,0.01,0.01,0.01,0.01,0.05,0.05,0.05,0.05,0.05,0.1,0.1,0.1,0.1,0.1,0.2,0.2,0.2,0.2,0.2],[0.001,0.001,0.001,0.001,0.001,0.005,0.005,0.005,0.005,0.005,0.01,0.01,0.01,0.01,0.01,0.05,0.05,0.05,0.05,0.05,0.1,0.1,0.1,0.1,0.1,0.2,0.2,0.2,0.2,0.2],[0.001,0.001,0.001,0.001,0.001,0.005,0.005,0.005,0.005,0.005,0.01,0.01,0.01,0.01,0.01,0.05,0.05,0.05,0.05,0.05,0.1,0.1,0.1,0.1,0.1,0.2,0.2,0.2,0.2,0.2],[0.001,0.001,0.001,0.001,0.001,0.005,0.005,0.005,0.005,0.005,0.01,0.01,0.01,0.01,0.01,0.05,0.05,0.05,0.05,0.05,0.1,0.1,0.1,0.1,0.1,0.2,0.2,0.2,0.2,0.2]]
}