{
"KTrans": [[12.865,-1.503,3.324,1.838,2.43,4.942,2.106,3.438,2.758,3.928,3.17,3.061,3.822,2.417,-1.092,45.182,29.821,17.776,16.389,14.417,106.45,35.113,36.554,26.994,17.211,130.112,129.5,105.533,107.546,79.215],[-42.334,1.628,2.375,1.983,0.976,-35.433,2.282,0.994,1.868,1.59,-35.146,7.241,3.691,0.133,1.183,-11.93,12.938,8.712,4.444,3.473,29.225,32.888,19.91,5.943,7.89,12.25,102.43,56.916,49.548,24.621],[-69.331,-6.833,0.219,-0.12,-0.531,-75.885,-1.465,0.95,-0.22,-0.844,-74.096,5.86,0.728,0.44,0.863,-61.035,22.941,9.927,10.575,4.51,-44.688,26.727,34.91,21.903,11.462,-8.359,53.546,56.297,34.264,35.35],[-82.31,-13.309,-1.588,-0.595,-0.266,-77.537,-6.821,-3.059,1.382,0.71,-82.188,-17.294,3.331,1.627,0.618,-71.094,-6.897,26.392,12.397,7.016,-57.788,24.099,40.605,22.504,11.728,-32.168,17.468,40.122,35.791,25.877],[-89.059,-28.026,1.868,-4.103,0.985,-88.588,-31.095,3.481,2.696,4.086,-86.754,-28.229,6.377,2.654,1.211,-72.895,-23.21,18.633,15.046,3.792,-62.779,-16.493,11.91,20.846,13.49,-48.426,-16.258,25.464,28.96,33.904],[-95.615,-58.009,1.45,5.028,3.392,-91.272,-45.823,-3.473,5.841,5.789,-92.322,-49.57,5.359,1.655,3.311,-82.408,-35.667,-2.71,12.434,11.394,-73.24,-28.088,15.683,27.595,19.811,-50.465,-1.403,32.323,48.939,43.052]],
"ve": [[4.509,4.394,5.59,12.775,22.071,2.162,5.208,7.94,6.901,15.973,0.43,3.35,-4.541,13.703,196.423,12.459,39.463,-6.385,-16.906,-24.341,28.49,-10.441,-21.068,-350.055,-28.9,70.458,13.527,-4.879,-26.566,-5.308],[-19.277,-3.135,-1.52,-1.212,-1.462,-23.63,-2.216,-2.093,-1.504,-1.691,-23.901,-0.651,-1.186,-2.32,-1.82,-9.416,1.793,0.514,-0.479,-1.011,14.716,7.33,0.415,14.941,8.48,2.169,45.407,10.25,8.31,-13.122],[-52.126,-7.157,-3.3,-2.988,-2.392,-57.896,-6.089,-4.533,-3.274,-2.918,-28.125,-3.18,-2.762,-1.889,-2.087,-48.133,3.404,-0.306,1.691,-1.07,-28.927,3.744,7.073,3.782,0.42,81.047,3.993,7.943,6.281,8.666],[-62.723,-14.006,-5.419,-3.823,-3.275,-59.658,-12.125,-6.432,-3.103,-2.878,-59.906,-13.792,-4.745,-2.454,-3.321,-89.807,-12.194,1.52,0.155,0.237,-36.405,10.734,2.461,4.517,1.276,-19.171,21.78,-6.192,11.9,1.665],[-69.209,-23.957,-7.523,-5.064,-3.291,-64.93,-29.137,-6.05,-4.125,-2.271,-67.591,-25.162,-5.544,-3.826,-2.669,-44.984,-25.2,-0.041,-0.062,-1.783,-15.211,-14.752,-4.824,0.433,-2.05,-5.791,-14.263,1.54,-1.874,5.185],[-75.173,-42.61,-11.298,-4.093,-2.909,-28.298,-39.709,-9.431,-4.004,-2.3,-67.338,-40.85,-7.396,-5.131,-3.759,-62.798,-29.137,-11.763,-2.818,0.554,-48.915,-21.043,-0.169,-2.002,1.663,25.223,-11.568,11.3,12.341,6.653]],
"kep": [[9.334,-1.744,3.502,2.371,3.236,0.11,0.808,5.073,6.626,7.522,-0.642,2.081,5.226,3.38,-3.975,19.827,19.51,15.509,18.499,20.356,45.375,10.109,17.709,14.856,-4.898,76.358,92.14,77.038,98.393,87.629],[-30.016,4.474,3.778,3.27,2.599,-23.433,3.722,2.97,3.415,3.529,-26.15,6.75,4.56,2.592,3.137,-19.111,6.833,6.769,4.298,4.073,-8.231,19.303,9.689,-0.991,3.182,-14.423,37.494,21.05,20.089,4.385],[-59.745,-1.752,3.127,2.824,1.879,-67.597,2.724,5.207,2.955,2.039,-67.395,7.137,3.122,2.218,2.951,-57.528,9.746,8.492,7.554,5.167,-47.374,6.29,22.414,16.009,7.39,-43.121,15.911,35.602,14.857,15.777],[-77.694,-2.07,3.109,2.991,3,-69.307,0.843,2.6,4.329,3.657,-73.373,-8.286,7.194,3.833,3.758,-64.261,-6.648,24.556,11.777,6.059,-60.708,-0.055,36.301,14.286,8.487,-54.871,-19.375,24.031,10.934,16.915],[-81.698,-12.735,8.231,0.376,4.098,-81.679,-12.004,8.187,6.192,6.406,-79.958,-12.097,11.21,5.905,3.8,-69.521,-17.686,14.846,14.579,4.491,-67.309,-22.507,3.94,25.088,12.094,-63.068,-26.942,1.654,21.507,27.042],[-90.417,-39.444,12.162,8.756,6.181,-85.466,-24.658,4.418,9.081,7.941,-85.58,-31.354,11.252,5.982,6.931,-76.789,-27.57,6.622,13.453,10.573,-75.708,-33.654,4.253,33.869,18.244,-68.872,-24.896,0.973,20.196,21.906]],
"vp": [[38.718,223.931,-78.823,45.637,-10.105,58.995,3.261,36.776,28.012,-17.657,13.643,4.866,2.64,-5.82,21.052,-20.211,-28.107,-28.051,-23.948,-20.876,-34.157,-7.412,-19.266,-20.274,-8.253,-38.839,-32.154,-34.26,-37.618,-26.327],[2766.473,684.586,474.165,252.76,381.319,530.915,69.246,90.645,52.785,90.939,255.546,20.535,13.735,74.046,32.827,25.885,-3.742,-11.82,2.207,5.437,-18.976,-16.248,-10.779,2.84,0.264,-1.733,-51.844,-23.954,-33.972,-8.01],[5378.83,1643.54,857.885,1013.112,946.329,1183.893,280.775,210.665,188.581,242.28,535.536,56.713,68.578,77.662,83.222,98.922,-16.345,-3.92,-25.88,2.082,27.622,-8.253,-23.382,-20.76,-6.381,-44.185,-3.787,-12.4,-16.999,-33.028],[6503.131,2984.175,1624.77,1221.346,1301.959,1313.069,492.317,383.156,186.92,220.743,621.061,282.323,116.43,86.095,125.256,119.904,49.954,-13.344,-5.282,-14.227,40.082,-25.775,-5.909,-21.663,-12.862,11.268,-24.231,12.789,-27.457,-6.888],[7252.299,4925.765,2255.638,1849.773,1203.668,1341.848,1191.079,317.99,275.15,168.048,669.193,501.425,140.731,149.228,114.934,90.4,104.68,-4.296,-8.229,8.485,24.451,28.684,13.394,-5.339,9.44,1.132,17.791,-3.355,3.892,-13.36],[8327.626,8807.193,3396.448,1658.207,1099.443,1443.71,1620.912,508.371,270.11,139.251,684.109,817.828,213.609,187.434,143.682,126.993,115.266,67.318,17.6,-13.442,46.903,42.488,-4.785,5.955,-13.224,-15.554,12.847,-17.937,-29.023,-15.195]]
}