{
"KTrans": [[-26.124,15.776,22.9,21.707,14.123,-1.049,25.659,24.896,22.832,27.955,-14.615,35.396,44.655,31.775,35.874,103.01,135.851,113.815,91.125,91.429,241.815,263.031,211.593,209.252,178.456,847.51,669.429,516.617,449.301,422.226],[-79.066,36.707,36.631,37.67,30.669,-75.885,30.605,44.434,28.474,38.078,-93.237,28.88,55.534,35.792,28.147,-37.086,81.3,102.466,74.99,62.184,9.394,187.574,169.331,123.222,110.42,18.718,430.69,301.888,277.893,218.246],[-94.759,-46.153,65.459,53.661,37.57,-99.212,-36.898,70.787,56.361,51.396,-103.238,-17.142,76.075,53.047,54.087,-85.513,-30.33,81.648,85.008,68.794,-73.924,61.309,177.999,144.062,122.809,-24.432,162.96,342.866,240.893,219.314],[-104.033,-65.37,29.948,62.771,60.781,-98.15,-71.182,11.313,69.658,53.795,-99.597,-90.133,-0.896,90.957,70.143,-107.58,-47.76,64.936,131.503,95.794,-101.043,-47.871,97.003,176.597,158.621,-94.079,13.592,216.152,295.849,220.278],[-100.464,-98.277,-62.285,111.948,106.119,-103.219,-92.13,-42.825,70.877,106.492,-102.15,-90.159,-34.412,77.172,107.197,-109.241,-87.965,-14.535,104.122,124.112,-101.219,-89.989,52.951,165.75,182.191,-73.652,-99.152,25.737,273.239,220.489],[-104.756,-112.623,-97.525,25.074,126.278,-104.37,-117.356,-90.121,34.795,102.963,-102.942,-99.932,-77.533,16.043,115.666,-100.281,-111.432,-91.548,53.397,134.882,-107.133,-137.786,-67.734,81.573,162.484,-86.877,-79.295,-69.886,137.735,351.412]],
"ve": [[118.578,-323.551,84.168,-97.531,-16.239,7.78,44.092,4.409,12.629,-18.26,51.218,19.951,-24.699,-131.118,-4.286,76.188,24.726,15.505,1.667,-8.09,224.191,41.415,19.741,-4.995,-16.594,210.322,82.993,36.862,11.948,-5.969],[25.468,4.985,4.897,3.601,3.92,14.52,7.321,4.561,4.994,4.716,1.253,10.721,5.591,4.771,5.422,61.899,22.823,16.308,11.692,6.913,55.253,58.039,34.994,21.431,15.796,235.011,101.372,65.337,44.772,31.438],[3.927,3.072,5.311,1.46,1.498,19.591,4.468,-4.87,3.315,3.85,14.24,8.265,8.551,4.561,4.778,50.06,23.728,16.826,12.698,9.075,98.752,57.148,31.774,25.739,21.43,194.667,102.754,69.958,47.103,38.439],[-6.619,-0.215,2.597,2.461,2.949,-13.969,7.659,5.716,1.181,2.637,77.7,17.82,3.449,5.24,4.058,45.298,28.184,17.831,15.6,10.035,100.455,49.587,38.248,27.536,21.542,223.668,105.423,69.283,51.718,38.414],[-53.16,4.089,1.114,4.64,4.636,8.58,7.52,-15.843,5.806,1.603,18.132,3.88,19.953,6.479,4.868,53.624,19.601,20.087,16.087,11.36,106.654,55.061,40.53,26.032,20.842,199.102,101.512,69.696,51.676,36.428],[10.192,15.429,7.717,0.349,3.855,9.739,6.978,-1.271,2.727,4.961,30.005,14.859,3.502,4.859,4.425,67.937,26.926,17.582,10.442,10.947,92.608,51.294,22.651,28.989,19.158,168.273,62.156,63.445,41.949,42.012]],
"kep": [[-38.308,7.958,21.528,29.224,23.805,-22.755,17.221,22.637,29.44,37.753,-38.12,24.304,44.195,39.282,48.383,24.067,95.746,105.651,109.763,139.5,62.434,162.797,176.815,231.08,237.097,210.259,324.358,350.694,391.758,455.544],[-84.966,23.217,27.647,32.002,26.779,-81.091,16.468,34.238,20.817,33.232,-95.032,10.941,43.82,28.013,23.868,-61.795,39.674,70.58,54.214,49.95,-47.658,80.383,95.371,80.336,79.61,-62.949,158.534,140.278,158.082,138.441],[-96.469,-53.022,50.075,45.754,30.709,-100.87,-39.881,55.298,45.619,42.768,-103.461,-30.033,56.448,40.138,43.512,-90.096,-49.384,46.267,57.749,50.048,-86.609,-1.711,101.983,87.663,80.263,-74.547,28.736,152.263,124.303,126.191],[-103.656,-68.358,20.585,52.546,49.592,-99.404,-75.84,1.898,55.689,43.317,-99.686,-91.656,-10.044,73.437,55.493,-104.265,-60.331,31.988,90.431,70.522,-100.789,-66.667,36.006,108.629,105.603,-96.162,-44.864,82.639,151.659,122.875],[-100.173,-95.738,-64.744,93.715,89.378,-103.237,-94.481,-48.266,52.539,90.532,-101.598,-91.237,-42.921,57.711,89.627,-106.413,-88.092,-34.178,68.56,90.594,-99.649,-93.214,4.746,98.737,122.978,-91.083,-97.701,-29.32,134.127,120.144],[-104.634,-110.944,-96.517,14.457,104.218,-104.062,-113.772,-88.111,21.829,82.654,-101.894,-98.677,-80.444,4.29,93.403,-99.451,-105.834,-91.688,24.699,99.491,-102.143,-122.667,-75.572,36.304,105.733,-95.655,-87.388,-79.038,50.356,202.945]],
"vp": [[0.001,0.001,0.001,0.001,0.001,0.005,0.005,0.005,0.005,0.005,0.01,0.01,0.01,0.01,0.01,0.05,0.05,0.05,0.05,0.05,0.1,0.1,0.1,0.1,0.1,0.2,0.2,0.2,0.2,0.2],[0.001,0.001,0.001,0.001,0.001,0.005,0.005,0.005,0.005,0.005,0.01,0.01,0.01,0.01,0.01,0.05,0.05,0.05,0.05,0.05,0.1,0.1,0.1,0.1,0.1,0.2,0.2,0.2,0.2,0.2],[0.001,0.001,0.001,0.001,0.001,0.005,0.005,0.005,0.005,0.005,0.01,0.01,0.01,0.01,0.01,0.05,0.05,0.05,0.05,0.05,0.1,0.1,0.1,0.1,0.1,0.2,0.2,0.2,0.2,0.2],[0.001,0.001,0.001,0.001,0.001,0.005,0.005,0.005,0.005,0.005,0.01,0.01,0.01,0.01,0.01,0.05,0.05,0.05,0.05,0.05,0.1,0.1,0.1,0.1,0.1,0.2,0.2,0.2,0.2,0.2],[0.001,0.001,0.001,0.001,0.001,0.005,0.005,0.005,0.005,0.005,0.01,0.01,0.01,0.01,0.01,0.05,0.05,0.05,0.05,0.05,0.1,0.1,0.1,0.1,0.1,0.2,0.2,0.2,0.2,0.2],[0.001,0.001,0.001,0.001,0.001,0.005,0.005,0.005,0.005,0.005,0.01,0.01,0.01,0.01,0.01,0.05,0.05,0.05,0.05,0.05,0.1,0.1,0.1,0.1,0.1,0.2,0.2,0.2,0.2,0.2]]
}