{
"KTrans": [[-28.269,29.903,26.873,23.944,19.3,18.21,39.481,28.783,22.046,24.464,7.676,44.101,23.674,35.502,34.883,93.691,122.237,96.248,103.743,84.181,331.316,257.402,237.571,195.16,174.999,809.361,666.276,542.562,450.888,401.767],[-79.16,55.081,59.937,28.757,18.551,-83.133,52.864,47.341,29.368,30.341,-79.908,39.145,50.164,45.312,38.233,-59.009,103.3,90.681,64.438,62.547,-63.266,225.015,165.277,133.366,96.476,80.526,418.444,375.916,242.825,202.49],[-100.638,-13.234,75.38,53.762,34.481,-90.737,-21.729,78.988,45.332,35.233,-104.564,-19.081,83.944,59.283,50.336,-105.305,10.269,111.828,99.471,69.63,-63.744,74.766,201.624,158.76,110.632,-101.913,210.416,364.711,234.716,167.039],[-101.794,-89.994,26.563,100.13,54.879,-98.51,-72.804,32.08,90.186,69.839,-96.883,-91.572,25.86,91.956,74.728,-106.776,-77.024,92.669,120.427,82.985,-98.266,-43.746,163.204,168.051,125.521,-108.577,12.329,266.161,306.464,240.642],[-104.019,-87.402,-53.835,88.737,105.78,-105.052,-122.127,-32.059,91.923,112.964,-100.953,-111.506,-7.37,120.397,114.917,-120.126,-96.095,-2.796,142.749,109.388,-105.13,-68.148,-26.76,197.614,155.378,-63.568,-65.925,51.354,363.132,270.435],[-100.08,-94.881,-87.914,27.291,88.459,-101.434,-107.506,-47.177,40.726,130.897,-101.324,-117.585,-76.92,34.163,171.616,-109.065,-122.622,-77.262,56.227,183.983,-96.785,-101.012,-37.825,101.108,218.357,-106.406,-125.09,-72.527,197.795,296.589]],
"ve": [[-143.951,15.141,-5.144,-72.004,-58.291,-9.206,-13.626,-6.907,12.412,-46.538,21.314,17.952,-111.297,-28.4,-31.604,46.283,21.56,9.105,-5.769,-8.924,106.582,40.073,10.634,-0.902,-13.824,209.481,82.643,38.844,13.254,-4.751],[21.369,5.119,3.436,2.859,1.885,-4.66,13.986,5.418,3.205,4.928,51.826,9.984,5.911,4.094,2.645,57.953,28.746,15.295,10.402,5.753,86.475,52.62,32.005,22.279,10.43,233.092,97.566,65.248,43.474,29.59],[2.397,4.718,3.231,2.337,1.25,10.413,6.906,5.563,2.562,2.237,17.52,-42.663,6.158,4.847,3.238,266.33,22.827,18.057,14.792,10.07,82.691,-2007.213,36.33,24.508,18.034,268.585,100.991,68.407,47.745,34.446],[4.151,-2.662,6.263,3.569,0.003,10.033,-7.048,5.25,4.253,3.063,13.232,17.618,5.871,3.283,3.905,58.694,21.014,56.361,14.234,9.422,104.365,61.383,34.57,25.788,20.906,198.667,102.991,68.867,51.854,42.15],[-25.876,1.053,7.106,1.285,3.36,10.508,3.239,3.297,7.015,4.199,2.456,0.738,-0.967,7.548,5.48,63.442,35.885,21.783,15.888,10.348,108.921,53.736,33.385,25.815,22.297,216.081,99.512,69.921,54.212,40.088],[-0.757,4.959,3.242,2.648,0.799,-6.647,28.901,5.691,4.451,4.557,14.227,6.24,5.641,0.831,4.978,69.492,28.791,17.473,18.758,12.945,107.054,52.144,37.068,26.371,23.066,197.722,97.612,66.055,52.71,39.783]],
"kep": [[-44.258,29.744,34.957,33.725,31.401,-0.189,34.742,28.757,20.317,30.256,-17.743,39.722,24.314,48.701,56.472,23.148,87.746,89.644,129.361,124.882,109.911,157.591,207.71,211.686,230.373,198.163,321.573,362.499,387.432,429.082],[-83.849,40.205,52.397,23.381,16.347,-84.669,34.163,37.966,24.349,25.747,-83.46,22.656,38.878,38.474,34.581,-72.773,52.941,60.674,44.792,51.162,-78.405,107.823,95.741,87.431,72.52,-40.409,156.57,184.108,133.999,129.889],[-101.835,-25.253,63.015,45.047,28.514,-93.292,-31.026,62.848,34.36,28.248,-104.317,-30.555,65.285,46.722,41.041,-102.424,-16.473,71.314,68.485,50.114,-81.777,7.902,115.094,99.877,72.008,-98.262,48.84,168.788,119.572,92.476],[-101.759,-90.401,13.462,84.654,46.556,-97.577,-75.337,17.666,74.178,58.082,-96.351,-91.816,10.825,75.214,60.336,-103.141,-80.832,50.59,84.291,59.628,-98.323,-62.998,86.197,104.405,80.095,-100.782,-45.083,108.434,157.548,133.527],[-103.645,-86.955,-57.411,72.709,89.276,-103.383,-116.68,-40.924,72.61,94.354,-101.579,-109.697,-19.317,95.786,94.519,-111.759,-96.411,-23.278,99.973,79.939,-102.733,-78.928,-46.964,121.701,100.492,-87.798,-83.438,-12.306,188.876,153.247],[-99.426,-94.41,-88.906,16.023,75.151,-101.229,-105.086,-50.487,27.481,107.962,-100.632,-113.319,-77.08,20.326,142.758,-105.523,-115.266,-81.265,25.493,138.639,-97.728,-98.133,-55.461,51.489,147.126,-101.283,-109.25,-80.256,87.389,168.993]],
"vp": [[0.001,0.001,0.001,0.001,0.001,0.005,0.005,0.005,0.005,0.005,0.01,0.01,0.01,0.01,0.01,0.05,0.05,0.05,0.05,0.05,0.1,0.1,0.1,0.1,0.1,0.2,0.2,0.2,0.2,0.2],[0.001,0.001,0.001,0.001,0.001,0.005,0.005,0.005,0.005,0.005,0.01,0.01,0.01,0.01,0.01,0.05,0.05,0.05,0.05,0.05,0.1,0.1,0.1,0.1,0.1,0.2,0.2,0.2,0.2,0.2],[0.001,0.001,0.001,0.001,0.001,0.005,0.005,0.005,0.005,0.005,0.01,0.01,0.01,0.01,0.01,0.05,0.05,0.05,0.05,0.05,0.1,0.1,0.1,0.1,0.1,0.2,0.2,0.2,0.2,0.2],[0.001,0.001,0.001,0.001,0.001,0.005,0.005,0.005,0.005,0.005,0.01,0.01,0.01,0.01,0.01,0.05,0.05,0.05,0.05,0.05,0.1,0.1,0.1,0.1,0.1,0.2,0.2,0.2,0.2,0.2],[0.001,0.001,0.001,0.001,0.001,0.005,0.005,0.005,0.005,0.005,0.01,0.01,0.01,0.01,0.01,0.05,0.05,0.05,0.05,0.05,0.1,0.1,0.1,0.1,0.1,0.2,0.2,0.2,0.2,0.2],[0.001,0.001,0.001,0.001,0.001,0.005,0.005,0.005,0.005,0.005,0.01,0.01,0.01,0.01,0.01,0.05,0.05,0.05,0.05,0.05,0.1,0.1,0.1,0.1,0.1,0.2,0.2,0.2,0.2,0.2]]
}