{
"KTrans": [[3.314,3.457,1.435,2.578,1.368,3.601,1.236,4.148,0.713,3.361,5.396,4.705,2.65,2.273,2.542,5.652,3.5,4.978,3.66,3.468,20.304,16.945,7.881,2.061,9.96,65.956,28.205,25.255,20.639,20.322],[-10.02,0.09,0.656,1.285,2.036,-19.175,-2.111,-0.137,1.205,1.247,-11.762,-0.58,-0.55,1.019,1.636,-2.053,-2.266,2.391,2.31,2.916,-1.567,-0.727,4.178,2.74,3.993,4.664,13.878,10.087,4.268,4.392],[-45.268,-8.789,-3.023,-1.314,-0.727,-44.984,-7.981,-1.886,-0.617,0.067,-44.781,-3.933,-3.092,-1.911,-0.081,-38.721,-8.342,0.954,-0.16,0.011,-33.611,-1.751,1.433,1.174,3.006,-36.554,-7.968,7.728,5.18,4.774],[-68.904,-13.854,-7.354,-4.16,-1.479,-69.535,-17.701,-6.434,-3.739,-1.798,-67.846,-15.05,-6.96,-2.845,-1.828,-68.984,-18.35,-7.125,-4.336,-0.893,-61.693,-15.323,-8.92,-1.077,-0.753,-52.832,-12.656,-10.363,0.347,1.096],[-80.33,-26.543,-10.518,-7.513,-2.732,-80.725,-25.448,-11.714,-6.448,-3.329,-79.059,-23.352,-10.156,-6.764,-3.691,-75.385,-21.564,-11.369,-7.603,-3.285,-75.922,-22.711,-11.778,-5.132,-3.768,-66.688,-19.435,-11.37,-4.523,-0.763],[-88.504,-28.791,-16.601,-9.937,-5.903,-87.891,-27.737,-15.807,-9.118,-6.336,-87.683,-26.222,-17.295,-9.225,-5.696,-85.343,-34.652,-18.037,-10.392,-6.183,-80.879,-32.847,-17.519,-6.555,-6.146,-82.402,-32.857,-16.565,-12.295,-6.167]],
"ve": [[1.64,0.328,2.699,3.611,5.939,1.495,1.134,1.707,5.691,3.581,2.268,1.579,2.957,3.726,4.07,3.353,3.725,4.186,7.136,9.901,12.378,8.358,14.137,25.209,43.69,39.528,35.387,-169.957,-42.876,-174.012],[-5.274,0.229,0.342,0.9,0.671,-7.768,-0.775,0.018,0.328,0.823,-4.732,-0.513,0.1,0.526,0.618,2.247,-0.67,1.609,1.318,1.199,3.418,0.065,2.248,1.299,1.86,11.15,8.388,5.668,3.035,3.715],[-25.029,-3.198,-1.391,-0.307,-0.296,-23.839,-3.018,-0.43,0.018,0.174,-22.689,-0.909,-1.002,-0.686,-0.004,-17.922,-2.186,1.238,0.099,-0.037,-9.88,2.639,1.917,1.525,1.631,-11.45,-1.918,6.5,3.695,2.558],[-41.98,-5.544,-2.843,-1.497,-0.613,-42.844,-7.054,-2.576,-1.363,-0.601,-42.637,-5.722,-2.596,-0.731,-0.804,-45.02,-8.181,-2.765,-1.596,-0.021,-32.159,-3.373,-3.146,0.592,-0.162,-15.303,-3.334,-4.072,1.325,1.235],[-56.831,-11.649,-4.128,-2.689,-1.059,-51.861,-11.176,-4.846,-2.344,-1.104,-51.424,-10.608,-4.084,-2.467,-1.348,-48.213,-8.022,-3.737,-2.623,-1.079,-44.93,-6.951,-3.127,-0.915,-0.864,-18.842,-4.064,-2.93,-0.196,1.119],[-63.038,-14.576,-6.972,-3.659,-2.362,-62.759,-13.773,-6.265,-3.497,-2.171,-62.777,-13.188,-7.226,-3.411,-2.195,-58.049,-18.369,-6.314,-2.97,-2.144,-47.467,-10.742,-6.628,-0.696,-1.806,-44.939,-8.472,-3.81,-5.726,-1.79]],
"kep": [[-3.067,-0.755,-4.522,-3.724,-5.992,-2.543,-3.686,-1.228,-7.469,-2.444,-1.613,-0.88,-3.94,-3.958,-4.037,-4.405,-4.193,-1.535,-3.529,-4.448,-5.444,3.431,-2.596,-8.741,3.755,-10.421,-2.718,3.807,2.496,6.326],[-11.456,-4.489,-3.883,-3.81,-2.861,-17.892,-5.704,-4.347,-3.345,-3.763,-13.858,-4.467,-4.858,-3.727,-3.195,-10.891,-6.349,-3.722,-3.383,-2.612,-19.414,-7.582,-3.676,-3.509,-2.519,-33.622,-8.636,-4.239,-5.386,-4.923],[-34.927,-10.225,-5.866,-5.181,-4.605,-35.676,-9.679,-5.654,-4.818,-4.301,-35.342,-7.751,-6.313,-5.402,-4.273,-35.719,-11.105,-4.864,-4.625,-4.241,-47.418,-10.162,-5.598,-5.017,-3.261,-56.139,-16.568,-6.061,-4.878,-3.727],[-55.941,-13.545,-8.856,-6.842,-5.047,-56.571,-16.317,-8.225,-6.566,-5.376,-56.35,-14.777,-8.642,-6.298,-5.217,-63.653,-15.881,-9.053,-7.055,-5.126,-66.512,-17.716,-10.612,-6.328,-5.128,-65.027,-21.611,-13.324,-7.504,-5.722],[-68.972,-21.72,-11,-9.037,-5.855,-68.912,-21.432,-11.52,-8.328,-6.386,-69.528,-19.235,-10.661,-8.495,-6.517,-72.935,-20.766,-12.427,-9.365,-6.418,-77.011,-22.459,-13.595,-8.771,-7.36,-74.422,-29.177,-15.326,-10.092,-7.239],[-79.521,-22.86,-14.634,-10.636,-7.712,-79.941,-22.124,-14.595,-9.915,-8.32,-79.212,-21.579,-15.213,-10.078,-7.681,-82.004,-26.942,-16.654,-11.811,-8.255,-82.377,-30.799,-16.233,-10.303,-8.692,-78.213,-46.953,-18.954,-12.666,-9.567]],
"vp": [[-156.925,-94.175,-10.055,-48.767,5.106,-20.609,11.854,-32.545,7.674,-39.776,-13.863,-13.026,-13.517,-6.834,-8.146,-0.065,0.833,-1.029,0.125,0.395,-5.305,-9.151,-0.83,6.407,-3.287,-10.537,-3.245,-3.991,-3.344,-3.518],[511.585,-109.068,-97.993,-193.253,-232.419,174.144,34.974,2.549,-11.769,-22.284,55.093,6.32,8.132,-13.194,-17.073,-0.766,7.633,-7.218,-4.691,-5.137,0.555,3.751,-1.747,-0.308,-3.074,-2.697,-4.901,-3.638,1.517,1.273],[2622.909,628.762,392.76,153.884,235.432,504.759,122.341,15.631,-7.169,-15.037,240.438,5.076,33.989,31.457,4.479,42.019,11.385,-8.327,3.417,4.614,14.215,-2.972,-3.782,-2.733,-5.016,10.076,6.213,-6.91,-4.098,-2.302],[4419.446,1125.783,806.239,537.102,172.059,899.947,287.376,138.562,112.45,42.388,446.075,121.548,76.225,26.354,37.931,100.161,37.755,19.899,15.698,2.848,36.966,9.717,14.506,-0.17,4.439,11.216,7.137,10.875,1.549,0.513],[5888.772,2375.477,1232.107,1011.031,353.896,1137.26,450.538,281.462,166.952,88.671,536.995,219.907,116.471,89.457,64.989,103.651,36.446,24.487,23.513,14.082,50,17.534,12.596,5.958,8.018,13.748,8.054,8.81,3.875,0.493],[6658.751,2894.662,2030.982,1432.184,983.995,1335.423,568.884,368.911,273.994,196.59,663.485,273.117,218.207,126.057,97.043,126.196,80.562,41.745,26.806,23.188,53.038,23.976,24.008,4.197,12.227,27.393,11.415,9.728,16.574,8.638]]
}