{
"KTrans": [[-0.765,0.039,0.166,-0.372,0.137,-1.818,-0.75,-1.192,-0.782,-0.129,-3.076,-1.046,-0.439,-1.406,-0.966,-15.432,-4.174,-6.876,-3.19,-6.383,-15.429,-13.964,-9.896,-7.661,-2.927,15.068,-13.475,8.027,-11.874,-1.44],[1.091,0.087,0.345,0.174,0.359,-1.725,-0.355,0.007,0.23,-0.01,-0.181,-1.54,-0.542,-0.342,-0.155,-16.126,-8.742,-4.362,-3.666,-1.787,-19.849,-8.757,-4.615,-8.125,-4.682,4.878,-11.861,-8.289,-12.221,-5.838],[0.162,1.45,1.192,0.603,0.344,-1.813,0.595,0.164,-0.144,0.294,-1.737,0.13,-0.254,-0.268,-0.365,-24.838,-6.403,-3.851,-4.415,-2.633,-30.472,-16.741,-11.597,-8.255,-6.466,45.516,-21.874,-18.525,-17.999,-5.475],[-5.077,2.581,1.609,1.033,0.715,-10.222,3.045,0.911,0.709,0.365,-11.156,2.588,0.621,0.386,-0.208,-36.289,-6.173,-4.286,-4.76,-2.106,-25.979,-16.164,-5.471,-3.9,-4.078,-36.575,-21.756,-12.882,-11.094,-12.888],[-19.164,6.718,3.595,1.723,1.135,-24.882,2.71,2.629,1.044,0.946,-23.012,3.272,1.198,0.512,0.727,-44.804,-10.391,-4.145,-2.501,-2.712,-54.094,-14.926,-13.764,-8.064,-6.231,-10.225,-19.312,-19.602,-12.039,-13.829],[-45.893,6.711,4.249,2.396,1.982,-49.277,6.12,4.006,1.702,1.172,-52.181,4.322,3.582,1.411,1.26,-56.987,2.265,-1.677,-1.379,-1.216,-43.024,-20.675,-10.126,-5.771,-4.737,-32.044,10.558,-20.706,-14.677,-13.829]],
"ve": [[-0.454,-0.179,-0.09,0.493,-0.037,-0.489,-0.061,0.167,0.67,0.163,-1.093,-0.243,0.363,0.758,1.193,-5.609,0.887,6.008,7.816,16.931,-15.59,25.879,131.563,730.926,716.47,-13.782,143.787,-33.975,-90.158,-71.267],[-0.37,-0.093,-0.15,-0.199,-0.213,-1.907,-0.504,-0.369,-0.181,-0.309,-1.783,-0.987,-0.357,-0.486,-0.267,-9.609,-4.47,-1.763,-1.223,-0.259,-12.007,-4.409,-1.553,-2.069,-0.405,-26.11,-4.772,-1.694,-1.084,2.237],[-1.087,0.088,-0.092,-0.075,-0.28,-2.637,-0.329,-0.504,-0.408,-0.183,-2.903,-0.487,-0.522,-0.362,-0.481,-16.214,-3.965,-2.17,-2.097,-1.162,-45.413,-9.915,-6.261,-3.856,-2.823,-76.667,-16.732,-10.687,-8.8,-1.849],[-4.638,0.191,0.02,-0.14,-0.177,-7.321,0.067,-0.292,-0.303,-0.279,-8.085,-0.224,-0.439,-0.326,-0.539,-29.853,-3.873,-2.835,-2.934,-1.229,-52.781,-9.732,-2.787,-1.985,-2.021,-69.689,-18.146,-7.098,-5.832,-6.558],[-12.648,1.425,0.685,0.23,-0.02,-15.413,0.08,0.421,-0.123,-0.144,-15.173,0.31,-0.148,-0.409,-0.229,-41.963,-7.681,-3.404,-1.789,-1.864,-63.561,-7.662,-8.626,-4.7,-3.513,-101.174,-50.482,-11.816,-6.863,-7.755],[-28.93,1.574,0.9,0.282,0.208,-33.2,1.363,0.711,0.116,-0.081,-37.597,0.171,0.434,-0.147,-0.054,-68.053,0.071,-1.549,-1.26,-1.243,-83.952,-15.11,-6.229,-3.569,-2.781,-110.81,-49.587,-13.369,-8.733,-8.093]],
"kep": [[-0.283,0.286,0.387,-0.696,0.417,-1.37,-0.635,-1.255,-1.196,0.029,-2.185,-0.77,-0.635,-1.927,-1.728,-13.925,-5.161,-10.393,-6.388,-14.345,-27.046,-22.261,-20.029,-20.053,-13.118,-48.677,-44.522,-15.596,-48.477,-32.31],[1.284,0.173,0.495,0.377,0.577,-0.056,0.132,0.369,0.414,0.301,1.38,-0.594,-0.202,0.134,0.114,-11.561,-5.511,-3.096,-2.69,-1.655,-28.843,-8.783,-4.803,-7.129,-4.785,-68.533,-19.764,-13.005,-14.378,-9.098],[0.816,1.332,1.286,0.678,0.625,0.479,0.892,0.661,0.263,0.475,0.701,0.575,0.237,0.081,0.11,-20.108,-3.55,-2.154,-2.568,-1.626,-78.167,-11.852,-7.509,-5.528,-4.514,-89.427,-32.675,-17.274,-14.219,-6.21],[-1.372,2.342,1.582,1.172,0.893,-4.325,2.902,1.198,1.01,0.642,-5.499,2.712,1.046,0.703,0.326,-44.019,-3.146,-1.898,-2.148,-1.044,-80.923,-11.635,-4.535,-2.872,-2.739,-69.908,-40.319,-13.628,-9.371,-9.629],[-10.424,5.116,2.872,1.483,1.153,-15.06,2.477,2.176,1.164,1.088,-15.998,2.769,1.315,0.911,0.95,-61.2,-4.157,-1.209,-0.932,-1.017,-83.08,-13,-7.421,-4.581,-3.4,-90.806,-88.625,-17.641,-9.723,-9.396],[-30.707,4.795,3.286,2.099,1.768,-34.523,4.481,3.222,1.575,1.249,-41.894,3.809,3.067,1.536,1.305,-86.251,1.009,-0.413,-0.367,-0.111,-94.444,-16.837,-5.879,-3.368,-2.639,-92.272,-96.319,-20.237,-10.734,-8.918]],
"vp": [[47.51,27.93,17.937,20.17,31.648,18.439,12.211,18.329,14.983,11.392,14.757,9.698,6.446,15.743,13.348,17.543,7.331,13.725,7.544,14.86,13.174,14.672,12.355,10.853,5.139,7.011,13.18,1.073,12.623,6.029],[37.017,20.086,17.996,22.429,5.845,42.219,19.404,13.386,9.21,14.181,18.251,20.384,10.127,16.054,12.102,19.415,19.295,12.476,13.593,6.845,13.715,9.978,6.536,15.268,9.68,11.958,8.826,8.065,13.681,7.697],[125.95,-22.502,-24.787,-17.04,60.306,52.508,13.03,20.197,26.64,6.623,27.378,8.232,12.764,8.633,21.822,32.593,15.873,13.185,19.067,13.167,45.773,20.408,20.257,17.519,16.868,36.657,17.934,18.206,21.603,7.038],[482.666,-64.216,-62.764,-9.565,19.263,145.097,-3.815,11.644,14.524,15.372,80.046,-0.056,10.884,8.419,22.96,59.203,14.774,16.482,24.325,12.507,50.896,19.4,7.706,7.525,11.002,30.301,17.728,10.723,12.404,18.776],[1282.794,-332.883,-235.396,-140.291,-68.072,310.059,-7.591,-37.639,3.203,2.871,150.058,-9.103,1.184,12.705,5.774,83.267,31.331,19.637,13.777,18.462,63.543,14.532,26.584,19.048,18.205,46.891,51.124,17.968,13.983,20.758],[2948.722,-391.039,-300.254,-152.158,-153.305,666.224,-62.588,-49.361,-22.045,-0.699,378.474,-5.779,-17.75,3.813,-4.519,136.065,-2.32,7.455,8.467,11.517,84.727,30.31,18.453,13.82,13.667,56.159,49.575,20.104,17.564,21.067]]
}