{
"KTrans": [[1.97,0.76,0.667,0.701,-0.196,11.901,6.808,6.227,4.642,4.421,26.018,15.87,12,10.086,9.834,168.572,95.607,73.137,64.735,59.627,423.681,225.341,176.509,153.059,140.746,1199.374,600.202,459.94,399.331,362.057],[2.856,2.658,0.794,0.406,-0.112,14.372,6.255,4.124,2.784,2.445,27.237,12.676,8.212,6.425,5.38,143.701,66.451,44.998,35.85,30.833,349.99,153.481,100.347,78.323,66.066,993.327,374.136,240.089,181.934,152.853],[2.36,2.886,1.408,1.205,0.542,12.917,7.322,4.738,3.1,2.673,25.419,13.677,8.273,6.107,4.815,141.98,65.43,41.811,32.254,26.188,346.274,144.907,92.62,69.075,55.961,983.997,360.227,214.774,157.279,125.806],[1.905,4.945,1.795,1.408,1.131,9.378,7.538,5.215,3.844,2.906,21.307,14.444,8.666,6.343,5.121,138.493,63.534,41.377,31.619,25.406,326.42,143.489,89.114,66.408,52.315,932.804,352.702,207.829,147.556,116.52],[-3.44,5.096,2.979,2.148,1.524,6.161,8.177,5.968,4.17,2.981,18.651,14.5,9.649,6.743,5.098,120.602,66.977,41.824,31.142,24.839,318.232,142.938,89.55,64.906,51.623,901.798,351.792,206.18,145.37,112.58],[-5.301,5.252,3.581,2.447,1.892,0.579,9.783,6.438,4.917,3.482,10.587,13.796,10.475,7.108,5.67,112.845,65.307,42.812,31.787,24.828,298.943,147.252,89.6,65.118,51.229,824.232,360.125,206.347,144.43,111.789]],
"ve": [[1.085,-0.117,-1.032,-2.27,-1.582,4.05,0.039,-1.72,-3.783,-5.623,8.866,1.11,-2.828,-5.385,-8.664,45.374,12.961,-1.617,-11.393,-19.158,93.742,33.273,7.77,-7.891,-18.923,192.395,78.97,34.991,10.064,-6.443],[1.44,0.786,0.33,0.131,-0.084,5.245,2.467,1.288,0.942,0.061,10.305,4.839,2.668,1.611,0.805,50.381,23.968,14.325,8.906,5.437,99.781,47.976,29.525,19.271,12.29,199.918,97.499,61.121,41.661,28.744],[2.046,0.755,0.435,0.366,0.145,5.589,2.622,1.633,1.342,0.832,10.968,5.183,3.467,2.238,1.642,50.457,24.655,16.113,11.394,8.534,100.781,49.621,32.271,23.165,17.445,200.762,99.549,64.888,46.922,35.893],[1.794,0.958,0.672,0.323,0.393,5.426,3.099,1.977,1.433,1.06,10.798,5.447,3.507,2.604,2.01,51.063,25.407,16.621,12.082,9.337,101.036,50.227,33.023,24.173,18.88,201.176,100.418,65.985,48.81,38.027],[1.666,0.943,0.635,0.483,0.367,5.541,2.902,1.874,1.576,1.242,10.68,5.459,3.604,2.632,2.169,50.853,25.447,16.641,12.388,9.794,101.38,50.339,33.322,24.808,19.417,201.653,100.571,66.534,49.539,38.991],[1.928,1.091,0.79,0.48,0.429,6.193,3.033,2.053,1.494,1.102,11.004,5.403,3.702,2.811,2.31,51.707,25.325,16.906,12.713,9.909,101.15,50.702,33.455,24.907,19.813,202.028,100.751,66.858,49.746,39.576]],
"kep": [[3.814,3.883,4.79,6.377,4.743,10.731,9.949,11.348,12.26,14.175,19.088,17.968,18.76,19.838,23.963,90.028,78.143,81.058,91.308,103.172,178.054,151.069,163.893,182.578,205.435,357.023,302.307,326.538,366.492,407.839],[4.347,4.752,3.313,3.111,2.797,11.755,6.635,5.702,4.703,5.273,18.634,10.522,8.389,7.692,7.497,66.642,38.062,30.41,28.265,27.591,131.64,76.128,59.036,53.726,52.064,274.871,146.846,117.024,104.63,101.928],[3.135,5,3.813,3.68,3.226,9.982,7.542,5.964,4.602,4.693,16.255,11.136,7.592,6.71,6.028,65.418,36.461,25.571,22.07,19.541,128.637,68.29,49.719,41.139,36.535,270.622,137.136,96.279,80.044,70.84],[2.984,6.88,3.968,3.931,3.57,6.695,7.258,6.08,5.263,4.693,12.615,11.609,7.945,6.561,5.953,62.406,34.079,24.647,20.737,17.928,118.12,66.669,46.174,37.785,31.731,252.58,132.246,90.682,71.041,61.286],[-2.37,7.063,5.211,4.518,4,3.492,8.089,6.948,5.44,4.58,10.282,11.638,8.821,6.933,5.763,50.379,36.864,25.019,19.971,16.903,113.588,66.145,46.176,35.846,30.542,241.481,131.59,89.027,68.704,57.249],[-4.51,7.044,5.664,4.83,4.312,-2.565,9.583,7.232,6.285,5.235,2.483,11.007,9.532,7.113,6.189,44.314,35.612,25.604,20.213,16.771,103.917,68.696,46.072,35.912,29.772,214.838,135.648,88.775,67.823,56.006]],
"vp": [[-20.121,-16.115,33.394,-56.847,54.232,-15.315,16.263,2.761,25.378,-12.416,3.501,6.565,7.143,3.429,12.653,0.086,0.536,1.094,0.22,-1.433,1.354,1.068,0.072,-0.769,-0.564,-0.077,-0.367,-0.285,-0.088,0.15],[467.155,183.584,-21.044,0.409,-41.511,118.586,5.482,11.95,-12.267,-10.416,65.937,12.144,-5.001,2.609,-8.951,8.709,1.576,-0.012,0.286,1.748,4.199,2.094,0.22,-0.543,0.174,1.27,0.819,0.21,0.265,-0.063],[1531.183,13.288,-33.732,-59.455,-6.005,298.92,20.033,4.534,19.15,0.081,161.664,19.92,9.45,-14.831,-9.351,27.648,1.795,-1.706,-0.416,-0.155,16.957,1.532,1.157,1.161,0.109,7.096,0.813,0.67,0.126,0.177],[3238.186,551.958,-146.611,-223.47,-7.238,623.266,23.927,-13.176,28.507,25.345,348.98,31.16,10.659,-13.758,-4.036,62.76,7.05,2.363,-2.573,2.865,30.402,3.746,-0.326,0.306,0.355,13.812,1.815,-0.952,0.19,0.138],[4597.383,864.673,152.208,22.592,46.633,912.442,92.869,29.171,21.818,13.467,495.187,52.662,11.626,-24.284,1.725,90.588,14.98,2.056,0.152,1.078,43.407,4.825,-0.189,0.131,-0.161,22.785,3.193,0.296,-0.221,-0.423],[5689.072,1299.775,388.251,-47.386,133.25,1121.103,308.802,32.213,-4.114,17.468,564.582,94.66,16.277,26.545,8.27,107.863,20.968,5.465,5.021,-0.541,56.403,12.224,1.673,-0.013,1.829,26.765,6.268,1.212,-0.581,0.005]]
}