{
"KTrans": [[2.667,3.035,2.178,1.95,2.136,13.906,8.909,7.417,6.387,5.506,25.916,18.874,13.619,12.216,11.473,169.21,95.259,79.942,67.34,64.014,143.348,216.539,180.877,151.312,145.208,-146.64,166.454,250.833,302.111,292.436],[6.241,3.812,2.392,2.008,1.498,16.209,7.72,6.226,4.595,4.143,30.797,14.783,9.725,8.149,7.121,129.428,79.2,50.497,39.399,34.22,-28.027,178.711,101.881,87.295,73.289,131.681,118.086,230.367,198.721,154.777],[6.552,2.228,3.386,2.641,2.22,17.962,9.182,5.921,4.891,4.223,48.25,14.141,10.146,7.412,6.719,-27.404,73.193,46.183,32.199,26.234,-24.196,223.208,114.766,80.727,61.824,-63.893,-61.443,172.973,175.282,139.152],[8.078,7.836,4.855,3.112,2.682,10.584,10.458,6.495,5.865,4.356,22.75,15.409,9.559,8.122,7.174,-9.217,101.974,54.162,32.797,28.623,-46.428,75.362,119.118,82.998,57.188,-69.071,70.657,-4.167,201.412,138.242],[-15.739,10.615,5.138,3.439,2.857,-13.62,11.978,7.913,5.9,4.85,-18.89,22.988,12.423,9.111,7.001,-56.695,115.631,43.99,36.122,26.047,-56.672,15.476,197.991,82.386,56.979,-63.175,-30.545,-35.987,184.01,135.176],[-51.703,19.372,6.843,4.06,4.217,-48.941,24.033,8.224,6.729,4.919,-50.38,28.559,12.346,9.787,7.783,-49.501,101.129,63.033,36.824,28.84,-66.457,-16.637,167.722,96.866,54.29,-71.243,-29.87,14.909,149.865,174.075]],
"ve": [[1.139,-0.274,-1.272,-1.133,-2.44,3.506,0.095,-1.911,-3.668,-4.915,8.219,0.793,-2.318,-5.461,-8.519,45.12,13.355,-1.567,-11.62,-18.757,96.807,35.499,9.807,-6.368,-17.384,197.79,77.333,57.912,2.276,-1.314],[0.826,0.282,0.058,-0.438,-0.389,4.441,2.004,0.924,0.408,-0.066,9.756,4.372,2.325,1.196,0.413,49.539,23.616,14.138,8.781,5.183,100.768,48.291,29.067,19.65,12.495,195.032,95.878,64.449,44.165,29.576],[1.084,0.142,-0.162,-0.07,-0.279,4.954,2.107,1.163,0.816,0.477,10.789,4.631,2.846,1.818,1.16,53.126,24.058,15.667,10.892,7.96,100.947,50.606,32.085,23.284,17.175,207.273,100.706,67.91,47.756,35.972],[1.633,0.281,0.059,-0.016,-0.065,4.624,2.144,1.045,0.868,0.533,10.663,4.544,2.765,1.987,1.513,48.671,24.296,16.276,11.48,8.958,101.739,48.96,32.548,24.335,18.382,199.642,96.607,64.818,49.544,38.085],[4.286,0.565,0.095,-0.106,-0.031,7.572,1.902,1.38,0.903,0.663,12.478,4.942,3.017,2.194,1.524,46.653,25.036,15.706,11.973,9.164,99.173,48.047,33.977,24.456,18.838,205.003,97.282,65.653,48.547,38.313],[-1.25,1.05,0.206,-0.055,0.035,3.921,3.067,1.199,1.033,0.661,9.192,5.308,2.939,2.279,1.578,51.43,26.083,16.606,11.967,9.498,107.005,50.125,33.08,24.798,18.967,193.421,122.91,64.289,49.349,39.733]],
"kep": [[1.62,3.452,3.706,3.441,5.173,10.201,8.932,9.688,10.736,11.286,16.414,18.098,16.555,19.009,22.236,83.705,72.112,83.04,89.815,102.694,27.816,132.892,155.033,168.413,196.88,-85.504,53.31,147.675,245.256,294.815],[5.368,3.53,2.344,2.471,1.909,11.144,5.617,5.269,4.182,4.221,18.886,9.967,7.244,6.891,6.693,51.098,44.358,31.7,28.121,27.617,-55.174,84.694,55.625,56.146,53.917,-13.784,17.344,99.996,105.144,95.408],[5.014,2.065,3.552,2.717,2.512,11.826,6.904,4.705,4.046,3.733,32.735,9.04,7.091,5.497,5.498,-47.62,38.389,26.108,19.11,16.897,-56.911,108.782,60.921,45.966,37.836,-79.44,-70.119,62.21,83.342,74.498],[5.315,7.402,4.786,3.129,2.752,4.703,8.008,5.365,4.951,3.804,10.026,10.224,6.581,6.007,5.574,-37.105,60.062,32.007,18.951,17.959,-68.663,17.95,62.985,46.409,32.437,-84.207,-9.791,-35.345,97.374,70.561],[-17.957,9.747,4.953,3.531,2.885,-18.95,9.6,6.374,4.933,4.153,-27.034,16.723,9.034,6.738,5.388,-68.189,68.915,23.862,21.329,15.358,-74.858,-20.168,117.061,45.385,31.601,-83.963,-59.019,-55.163,86.132,67.341],[-52.088,17.521,6.451,4.068,4.167,-51.039,19.619,6.767,5.583,4.205,-54.009,21.227,8.974,7.285,6.084,-64.391,56.777,38.705,21.861,17.462,-80.347,-40.948,95.487,55.974,29.118,-86.986,-60.332,-26.204,63.56,92.324]],
"vp": [[-32.564,48.132,-51.103,52.695,72.521,9.204,11.389,7.69,12.397,13.867,-5.194,32.891,7.793,2.781,24.357,-0.213,1.266,22.34,1.914,17.297,-2.866,2.551,14.114,2.144,14.476,42.277,-12.506,-5.682,5.481,9.961],[103.705,82.561,68.589,77.032,72.066,8.933,8.157,30.992,20.201,50.02,36.678,23.675,8.223,12.682,24.875,40.523,26.752,24.195,23.572,27.7,35.193,8.475,-4.521,21.765,23.698,5.259,-10.993,8.089,19.494,2.017],[1405.531,-197.416,-56.716,61.78,56.485,515.434,4.61,-3.552,50.5,30.273,403.744,-19.571,10.664,7.48,14.425,81.954,5.296,10.572,-5.043,-9.101,64.341,39.549,19.835,31.13,21.332,62.201,22.201,15.65,7.59,13.297],[7193.477,-724.011,-298.174,-77.471,61.272,1278.188,-112.698,-82.465,12.817,12.441,666.987,-61.96,-46.432,-15.256,22.994,86.747,37.041,37.582,1.889,28.114,71.43,18.417,17.782,36.783,14.335,42.317,3.622,-0.409,23.161,14.46],[8554.88,-2051.128,-817.118,-501.173,-255.983,1743.566,-169.932,-59.653,-38.674,-13.837,827.882,-83.679,-47.19,-14.499,-9.423,133.379,78.731,-11.253,19.057,4.023,74.291,35.331,92.35,27.709,13.395,59.713,47.52,30.598,-1.909,2.909],[8495.421,5123.649,-2014.86,-695.318,-366.394,1828.743,1265.282,-191.981,-91.591,-122.908,893.95,770.76,-184.549,-25.661,-18.524,181.579,169.623,52.275,16.734,18.723,139.4,53.907,43.998,41.381,-3.501,82.544,23.662,-3.977,20.203,34.219]]
}