{
"KTrans": [[6.342,2.547,0.584,0.911,-0.263,17.051,8.969,8.301,6.505,5.489,26.737,16.587,13.258,12.469,11.192,159.752,94.984,74.185,67.161,60.811,402.231,224.271,178.889,156.11,145.612,1114.812,598.163,458.588,393.444,363.607],[2.444,3.531,2.996,2.281,1.57,13.612,6.163,4.051,4.081,2.524,22.506,12.335,11.129,7.097,5.441,132.41,69.846,46.004,35.94,31.89,318.65,147.462,101.191,79.759,67.666,836.083,353.224,233.889,182.952,153.203],[-4.54,4.889,1.889,1.929,1.943,1.998,7.027,6.252,4.366,3.394,14.928,14.276,8.769,7.837,6.018,107.581,64.542,43.118,32.985,26.414,269.294,135.776,90.553,68.46,55.671,736.405,326.99,207.34,152.28,122.207],[-24.736,3.461,4.529,4.039,3.977,-7.573,8.563,2.899,5.258,3.718,-5.541,15.511,12.653,7.119,6.261,79.246,63.776,41.579,29.273,25.467,231.732,132.144,85.456,67.474,55.918,647.796,321.548,191.009,139.833,116.701],[-30.831,6.15,2.411,2.087,1.906,-28.388,7.098,5.012,3.334,4.284,-24.362,17.207,7.572,6.752,6.536,57.074,66.413,41.329,28.625,25.643,167.459,150.884,88.104,66.125,52.59,466.254,309.07,201.908,139.087,106.834],[-43.182,4.925,5.156,4.031,2.551,-37.425,2.799,8.066,7.11,2.444,-35.604,10.812,12.135,7.227,4.511,22.162,55.871,47.587,30.422,25.259,113.679,142.069,86.729,65.903,50.767,448.826,308.463,195.67,136.47,110.831]],
"ve": [[2.766,1.323,2.107,1.688,5.027,5.165,1.2,-1.645,-0.986,-1.802,10.413,2.833,-0.709,-5.376,-6.166,45.482,14.11,-1.641,-10.575,-18.481,92.623,33.282,7.492,-7.35,-18.235,192.408,79.107,36.026,9.609,-6.183],[3.068,1.311,0.545,0.512,0.139,6.07,2.904,1.223,1.097,0.446,10.684,4.866,3.258,1.648,0.653,50.092,23.794,14.61,8.951,5.161,99.64,47.987,29.842,19.825,12.252,199.408,96.505,61.146,41.64,28.806],[2.49,0.228,0.179,0.256,0.112,5.709,2.27,1.585,1.501,1.058,12.746,4.825,3.496,2.509,1.659,50.733,24.655,15.73,11.323,8.344,100.565,48.705,31.923,22.84,17.467,200.897,98.845,64.71,46.688,35.737],[2.756,0.686,0.45,0.402,0.565,6.892,2.748,1.072,1.16,0.848,24.676,5.374,3.474,2.469,1.869,50.857,24.89,16.231,11.963,9.103,100.99,49.601,32.8,24.107,18.816,201.466,99.327,65.27,47.793,37.843],[1.639,1.04,0.642,0.438,0.271,4.668,2.556,1.503,1.076,0.96,10.486,5.193,3.065,2.427,2.023,50.281,24.872,16.415,11.863,9.771,100.813,50.793,32.704,24.658,19.373,200.805,99.333,66.243,49.289,38.472],[3.348,0.795,0.812,0.256,0.074,7.875,2.508,1.669,1.218,0.865,13.299,4.91,3.611,2.337,1.648,51.04,24.538,17.056,12.458,9.596,97.811,49.851,33.086,24.8,19.714,199.626,99.71,66.14,49.304,39.354]],
"kep": [[4.228,2.018,-0.273,1.715,-2.434,11.751,8.376,11.184,9.055,9.932,15.195,13.97,15.347,20.098,20.919,78.811,71.226,77.553,87.599,98.207,161.168,143.55,159.687,176.706,201.038,315.857,289.982,310.738,350.475,394.543],[-0.59,2.13,2.436,1.798,1.497,7.026,3.122,2.784,2.953,2.09,10.634,7.086,7.574,5.381,4.766,54.996,37.177,27.372,24.732,25.44,109.735,67.154,54.902,49.978,49.335,212.773,130.524,107.124,99.71,96.529],[-6.985,4.523,1.613,1.605,1.772,-3.56,4.495,4.488,2.739,2.253,1.819,8.922,4.997,5.094,4.216,37.742,31.852,23.5,19.357,16.593,84.346,58.317,44.275,37.012,32.439,178.117,114.636,86.423,71.863,63.608],[-27.271,2.487,3.9,3.488,3.266,-13.606,5.454,1.623,3.922,2.736,-15.406,9.305,8.667,4.382,4.189,18.578,30.792,21.607,15.314,14.899,64.614,54.931,39.497,34.763,31.115,148.102,111.22,75.887,62.102,57.057],[-32.258,4.649,1.566,1.494,1.482,-31.729,4.031,3.233,1.995,3.144,-32.525,11.079,4.175,3.978,4.267,4.472,32.901,21.106,14.826,14.296,32.668,66.142,41.566,33.05,27.683,88.557,104.996,81.368,59.959,49.171],[-45.063,3.729,3.949,3.517,2.268,-41.526,0.086,5.958,5.591,1.364,-42.426,5.341,7.92,4.535,2.579,-19.577,24.814,25.709,15.718,14.103,6.402,61.278,39.985,32.704,25.756,82.024,104.19,77.679,58.126,51.103]],
"vp": [[0.001,0.001,0.001,0.001,0.001,0.005,0.005,0.005,0.005,0.005,0.01,0.01,0.01,0.01,0.01,0.05,0.05,0.05,0.05,0.05,0.1,0.1,0.1,0.1,0.1,0.2,0.2,0.2,0.2,0.2],[0.001,0.001,0.001,0.001,0.001,0.005,0.005,0.005,0.005,0.005,0.01,0.01,0.01,0.01,0.01,0.05,0.05,0.05,0.05,0.05,0.1,0.1,0.1,0.1,0.1,0.2,0.2,0.2,0.2,0.2],[0.001,0.001,0.001,0.001,0.001,0.005,0.005,0.005,0.005,0.005,0.01,0.01,0.01,0.01,0.01,0.05,0.05,0.05,0.05,0.05,0.1,0.1,0.1,0.1,0.1,0.2,0.2,0.2,0.2,0.2],[0.001,0.001,0.001,0.001,0.001,0.005,0.005,0.005,0.005,0.005,0.01,0.01,0.01,0.01,0.01,0.05,0.05,0.05,0.05,0.05,0.1,0.1,0.1,0.1,0.1,0.2,0.2,0.2,0.2,0.2],[0.001,0.001,0.001,0.001,0.001,0.005,0.005,0.005,0.005,0.005,0.01,0.01,0.01,0.01,0.01,0.05,0.05,0.05,0.05,0.05,0.1,0.1,0.1,0.1,0.1,0.2,0.2,0.2,0.2,0.2],[0.001,0.001,0.001,0.001,0.001,0.005,0.005,0.005,0.005,0.005,0.01,0.01,0.01,0.01,0.01,0.05,0.05,0.05,0.05,0.05,0.1,0.1,0.1,0.1,0.1,0.2,0.2,0.2,0.2,0.2]]
}