{
"KTrans": [[-30.377,8.126,6.706,0.73,8.541,-12.133,8.615,4.051,3.226,-0.441,-5.856,8.929,15.361,1.126,9.541,2.64,19.047,31.335,17.816,12.872,83.066,67.543,40.427,35.077,31.315,143.201,121.561,87.507,109.444,92.937],[-72.044,-10.456,2.491,2.518,5.148,-70.025,-11.527,-2.931,5.422,-2.107,-72.411,-7.765,7.17,3.517,-1.251,-61.821,8.134,9.198,12.618,7.569,-34.311,17.285,38.012,14.689,12.104,5.547,35.289,57.346,46.99,36.762],[-90.147,-36.523,-5.693,-1.117,5.016,-89.805,-31.818,-6.367,3.634,-1.82,-89.391,-40.54,-0.937,-3.255,-0.734,-79.343,-15.778,8.792,4.489,7.644,-61.844,-6.6,22.881,16.644,16.744,-30.337,25.582,44.292,40.524,36.256],[-91.078,-57.837,-13.192,-9.544,0.492,-92.045,-52.558,-11.814,1.69,-0.616,-95.399,-51.014,-14.534,-0.247,-1.176,-85.41,-43.544,3.031,3.245,5.417,-80.457,-30.454,19.409,15.177,8.222,-65.321,-11.516,23.16,35.818,34.721],[-94.942,-69.604,-30.662,-7.363,1.32,-92.102,-69.732,-32.494,-9.078,3.756,-95.032,-75.604,-29.52,-10.027,1.951,-91.014,-59.547,-20.972,1.93,3.784,-78.983,-51.311,-5.167,15.157,15.394,-82.111,-21.69,14.886,24.49,29.074],[-97.607,-80.791,-45.423,-18.731,-0.745,-96.326,-77.647,-38.07,-5.724,0.201,-94.514,-82.155,-43.158,-15.444,2.94,-95.469,-67.069,-32.716,-0.811,3.043,-86.609,-53.572,-27.863,2.024,11.595,-72.829,-51.962,-3.381,3.306,19.151]],
"ve": [[114.413,468.662,-11.535,-12.495,-17.05,-7.83,13.978,84.64,-1952.92,-14.415,16.451,-43.689,21.359,-36.831,-184.103,17.165,8.939,19.208,41.83,-64.542,44.496,5.732,-1477.945,-8.156,-735.574,83.96,13.923,-15.28,-9.721,-27.704],[531.523,-7.83,-2.955,0.145,-1.035,-33.549,-4.369,-0.813,-1.391,1.111,-16.1,-0.49,0.585,0.966,1.424,-29.605,-4.447,-1.617,-0.499,1.481,-8.143,7.073,8.567,9.114,-3.526,25.639,21.707,10.208,4.939,-3.932],[-60.019,-15.198,-2.524,-3.21,-0.301,-50.298,-20.354,-5.735,-2.437,-3.822,-85.991,-10.622,-5.976,-3.526,-0.673,-48.787,19.868,0.469,-0.146,-0.774,-33.687,-4.745,2.867,1.6,1.254,8.228,14.918,21.056,4.518,5.781],[-52.428,-40.897,-10.015,-6.42,-3.391,-59.514,-32.847,-10.662,-3.547,-4.117,-88.065,-35.316,-12.338,-5.697,-4.052,-110.402,-27.236,-6.956,-2.407,-1.798,-86.638,-20.877,1.174,-0.707,-1.862,-32.143,-17.158,-0.082,8.719,7.923],[-70.871,-42.8,-18.373,-7.609,-4.038,-77.923,-50.516,-19.154,-7.133,-2.927,-7118.285,-56.013,-18.319,-8.61,-5.842,-50.454,-43.197,-15.977,-5.392,-1.869,-54.104,-38.212,-8.688,2.373,0.308,-46.977,-21.743,0.739,5.281,4.057],[-74.047,-73.79,-34.669,-15.127,-4.859,-88.487,-43.544,-25.714,-10.396,-5.714,-27.157,-64.621,-32.819,-14.302,-3.448,-56.242,-46.004,-27.447,-7.393,-4.685,-68.925,-30.796,-21.206,-7.801,-0.944,-15.818,-44.063,-12.155,-6.376,-2.926]],
"kep": [[-47.272,3.434,-3.254,-7.388,6.129,-37.102,0.023,-5.484,-1.377,-15.068,-22.955,4.555,15.337,-1.596,11.862,-15.042,-0.9,27.946,7.078,7.255,20.253,29.678,21.664,24.229,20.393,46.021,88.63,57.979,101.809,103.514],[-74.697,-10.092,5.254,2.999,7.082,-75.474,-7.905,-2.166,7.72,-1.898,-73.739,-8.452,5.129,2.674,-1.273,-62.163,-0.989,5.182,8.873,7.098,-47.199,-4.208,22.64,4.403,8.052,-28.169,12.316,18.544,21.941,17.892],[-90.674,-28.703,-5.12,1.735,4.267,-90.988,-26.57,-2.685,5.608,1.736,-90.718,-34.327,2.462,-1.059,-0.326,-82.248,-15.732,4.504,2.851,7.448,-67.41,-17.098,6.888,8.229,12.08,-59.177,-15.785,2.16,20.354,15.655],[-91.6,-43.704,-6.504,-4.229,2.802,-91.961,-42.591,-5.938,3.661,2.729,-95.81,-46.692,-6.026,3.38,2.456,-83.294,-40.971,4.535,4.905,5.916,-80.188,-34.385,9.523,14.468,8.238,-70.011,-23.77,-0.036,16.704,13.378],[-94.067,-63.317,-18.588,-0.679,4.463,-90.444,-61.644,-22.043,-5.112,5.213,-94.828,-69.15,-19.385,-4.206,7.363,-89.281,-56.097,-15.468,4.384,4.76,-82.586,-49.423,-9.638,8.084,14.993,-82.285,-37.947,-8.198,3.776,7.598],[-97.287,-72.729,-29.99,-6.46,2.299,-94.285,-71.055,-25.636,0.913,4.125,-94.054,-73.57,-33.013,-5.532,5.113,-93.352,-58.55,-22.339,2.793,5.865,-87.349,-53.808,-21.214,1.273,8.885,-82.139,-50.245,-16.75,-10.007,6.74]],
"vp": [[1440.348,172.598,370.911,404.127,-65.974,166.514,99.934,76.459,139.409,124.096,106.946,0.695,-34.371,52.179,-21.366,14,-21.895,-30.847,-14.69,-9.583,-34.188,-30.773,-18.053,-20.497,-20.227,-41.696,-24.726,-21.718,-36.518,-30.675],[4204.785,1575.811,983.123,222.528,482.881,894.89,435.386,174.112,78.075,213.839,449.682,158.803,-8.146,20.182,63.641,71.098,20.05,11.794,-10.505,2.971,11.195,-0.756,-30.424,-2.525,0.471,-12.138,-17.267,-22.896,-22.72,-26.209],[7711.521,4648.976,1724.334,1241.411,263.133,1383.149,920.313,472.555,157.451,313.745,711.262,527.337,224.614,191.97,97.188,113.104,64.025,-2.078,18.099,-2.539,36.004,15.137,-9.874,-6.887,-11.614,4.958,-14.371,-38.647,-12.502,-20.568],[6904.373,8222.836,3412.986,2825.618,1615.741,1387.395,1469.238,720.756,293.498,396.353,840.919,831.245,365.123,206.928,204.387,122.383,122.482,49.945,25.912,17.884,63.431,39.432,-5.379,3.548,13.33,15.629,20.322,2.84,-18.444,-23.227],[7579.059,10356.323,6570.145,3201.32,1828.684,1399.083,2193.902,1373.699,614.584,243.801,768.373,1112.833,573.097,368.108,246.966,132.322,179.716,101.018,52.857,11.351,50.985,87.863,25.4,-13.553,-6.277,21.716,19.064,0.425,-13.346,-20.421],[8588.015,12571.12,11092.421,6442.159,2030.698,1636.474,2509.651,1709.361,833.032,568.928,737.272,1284.945,1039.082,603.335,162.688,159.187,191.016,170.651,60.074,50.433,58.519,83.108,63.902,36.968,7.325,3.344,49.065,19.983,14.139,8.967]]
}