{
"KTrans": [[-1.944,3.643,6.112,3.456,3.146,10.387,10.458,9.276,8.718,6.876,26.878,16.033,14.358,13.432,14.42,146.955,95.89,74.933,67.652,63.652,155.895,206.134,166.404,142.214,142.606,-102.276,149.477,218.954,291.87,293.912],[-8.009,-1.389,1.229,1.74,2.151,-2.125,2.824,4.869,2.268,4.683,10.101,8.294,9.42,6.694,7.419,66.522,61.989,51.961,37.712,31.302,-51.022,130.128,97.797,79.256,63.743,-75.865,-145.131,174.089,163.025,151.453],[-25.637,-5.449,0.517,-0.775,0.899,-18.348,-1.125,0.85,1.562,1.802,-13.961,8.096,6.3,3.973,4.981,8.983,64.814,39.422,32.011,23.822,-69.771,138.77,78.696,57.705,57.673,-42.301,76.311,144.525,156.236,118.774],[-46.088,-6.653,-3.013,-1.43,-0.57,-37.873,0.197,-1.545,-0.283,0.788,-30.69,3.291,0.341,3.666,3.834,-34.042,46.512,29.174,24.8,22.847,-71.881,81.554,66.197,56.192,48.275,-51.485,15.386,76.255,151.86,107.346],[-56.988,-12.309,-4.275,-3.665,-2.204,-51.369,-8.838,-1.965,-3.075,-0.629,-47.713,0.533,-2.458,1.922,0.987,-57.948,36.091,34.699,23.628,18.623,-52.148,39.941,87.44,53.398,44.354,-69.041,-5.323,-14.176,149.065,101.064],[-70.49,-13.829,-5.09,-4.519,-3.894,-65.627,-10.27,-3.866,-1.861,-1.548,-70.327,-0.182,0.051,0.135,0.284,-81.898,17.644,29.281,23.308,18.479,-75.181,-26.336,107.925,53.436,41.366,-52.631,-66.125,-59.031,141.336,115.375]],
"ve": [[4.73,4.597,2.828,11.817,12.696,6.491,4.492,4.654,6.842,11.714,10.472,8.056,3.734,7.703,1.905,47.632,16.272,0.875,-6.522,-15.293,94.507,38.171,13.128,-4.274,-15.48,191.999,79.567,21.907,12.405,-0.443],[2.486,0.072,1.091,1.209,0.827,6.261,2.246,1.772,2.031,1.439,12.493,4.442,3.412,2.821,2.277,47.894,23.662,14.809,9.486,6.407,98.51,47.516,29.844,19.669,13.411,195.757,97.412,62.437,45.329,31.625],[2.593,0.412,0.427,0.104,0.549,7.191,2.66,1.565,0.748,1.176,13.565,4.629,2.861,1.793,1.638,48.439,24.872,16.456,11.22,8.928,102.848,50.187,30.782,22.779,18.022,200.288,95.536,89.964,48.955,35.995],[1.537,0.209,0.163,-0.292,-0.057,6.27,2.055,0.976,0.93,0.575,11.677,4.112,1.868,1.76,1.343,49.928,24.088,15.486,11.182,8.448,99.951,48.934,31.612,22.996,18.386,206.047,98.758,65.967,49.232,38.043],[1.196,-0.355,-0.189,-0.663,-0.442,7.319,2.211,0.86,0.638,0.25,7.269,5.021,2.202,1.864,1.091,53.885,24.21,16.101,11.192,9.06,98.087,50.064,31.543,23.481,19.314,199.555,96.336,64.757,51.098,37.863],[0.452,-0.032,-0.36,-0.511,-0.412,4.924,2.314,0.946,0.418,0.308,12.081,4.93,2.22,1.692,1.02,38.351,25,16.031,11.667,9.031,98.178,45.78,33.952,23.32,18.942,195.639,101.836,65.888,49.523,39.392]],
"kep": [[-11.252,-6.429,-0.835,-8.365,-9.101,-2.303,0.678,-0.287,-0.195,-3.486,8.33,1.683,5.293,5.155,9.97,54.184,57.468,62.243,68.909,81.903,23.819,108.236,122.088,136.631,168.814,-77.139,33.34,106.722,210.633,271.346],[-17.019,-8.481,-7.053,-6.771,-5.976,-14.382,-6.696,-4.34,-7.028,-4.25,-9.127,-3.646,-1.801,-3.734,-2.565,2.975,21.107,22.482,16.606,14.423,-67.708,42.722,40.47,38.502,33.762,-81.008,-105.583,54.822,66.857,76.441],[-33.184,-12.718,-7.186,-8.16,-7.003,-29.185,-10.782,-7.956,-6.546,-6.76,-29.481,-4.089,-4.172,-5.335,-4.292,-31.66,21.708,10.693,9.826,5.272,-80.15,43.049,25.566,18.631,23.5,-77.216,-13.423,36.672,57.432,48.023],[-51.37,-13.686,-10.282,-8.42,-7.821,-45.829,-9.175,-9.664,-8.48,-7.18,-43.429,-8.024,-8.762,-5.621,-5.095,-59.519,8.503,3.289,3.848,4.867,-82.654,11.148,15.937,16.997,15.716,-80.723,-40.395,-1.64,53.8,37.787],[-61.487,-18.487,-11.221,-10.179,-9.023,-58.243,-17.317,-9.979,-10.795,-8.189,-56.973,-11.494,-11.636,-7.325,-7.481,-73.042,0.085,6.992,2.828,0.658,-76.062,-13.624,29.752,14.246,11.643,-86.213,-51.369,-46.376,50.877,33.593],[-74.181,-20.511,-11.9,-11.124,-10.627,-70.129,-19.059,-11.807,-9.532,-9.131,-76.085,-12.361,-9.467,-8.846,-8.081,-87.433,-13.817,2.489,1.967,0.476,-85.303,-52.13,40.858,14.159,9.409,-81.946,-78.589,-70.341,45.65,40.762]],
"vp": [[-318.195,46.692,232.892,497.863,-50.492,-63.693,-46.315,17.449,10.342,23.131,-7.777,-15.334,30.686,-8.204,7.412,-7.082,12.367,-19.488,-7.937,-0.695,-10.857,-7.266,5.898,-17.386,1.909,-8.142,-4.376,7.804,3.464,0.417],[1973.29,792.182,-181.158,12.293,-46.59,573.403,78.164,-80.788,-15.869,-36.648,179.719,68.651,8.79,-7.368,39.542,7.895,7.19,23.468,7.82,-8.107,-0.028,-18.701,-7.471,-4.154,-9.622,-7.043,-13.754,-21.049,12.119,12.364],[4093.374,1532.309,1164.174,457.233,-175.624,890.657,337.929,190.523,71.516,22.547,389.756,172.167,43.358,57.364,-36.539,56.583,39.715,14.88,9.318,-15.649,35.621,11.542,-10.55,-29.755,10.735,16.05,-32.985,-24.53,-1.929,-9.374],[5185.928,3529.968,1412.743,467.854,318.382,936.484,661.374,243.638,74.767,24.759,599.947,337.527,66.784,107.932,8.196,86.682,39.742,10.327,2.817,11.981,30.524,9.69,-13.444,-7.076,-8.258,10.595,-5.753,7.199,-8.162,-14.962],[5932.112,5087.238,1912.414,735.621,616.576,1157.974,929.121,292.955,217.069,156.741,599.615,519.033,124.521,80.068,109.178,99.711,76.763,34.591,3.214,0.195,31.698,43.493,10.672,-4.369,1.154,4.793,-18.53,-8.782,-2.51,-23.694],[7115.324,5727.682,2928.023,1415.442,739.912,1354.144,1328.785,433.195,311.64,82.617,726.332,726.996,326.875,102.247,74.676,120.35,109.432,68.575,23.916,-9.551,42.549,52.251,54.28,-6.865,0.641,1.209,11.165,-3.617,-8.814,3.106]]
}