{
"KTrans": [[-5.139,21.258,27.37,18.649,13.622,2.092,31.2,30.191,22.651,25.745,-4.527,39.884,46.555,33.403,37.691,85.155,104.691,113.649,94.073,101.843,283.026,306.927,220.195,194.668,191.461,883.634,703.057,534.305,440.188,395.551],[-92.705,22.49,43.829,43.377,33.417,-73.307,52.363,36.934,38.552,38.2,-66.99,31.695,52.458,28.323,34.528,-83.213,111.704,106.456,74.379,66.988,-66.282,182.673,169.162,124.36,111.706,139.154,406.583,369.019,273.488,209.866],[-94.643,-62.896,77.45,62.292,53.943,-98.329,-25.535,70.583,69.98,37.045,-102.207,-25.192,72.549,57.798,51.679,-93.062,-6.016,131.801,99.691,79.472,-63.515,78.68,185.015,146.917,109,-67.739,114.258,343.096,269.424,215.744],[-96.849,-82.938,29.023,83.798,69.618,-106.54,-78.887,38.013,88.434,67.243,-108.766,-66.706,61.382,116.601,62.988,-90.91,-68.238,75.951,114.249,114.46,-89.097,-39.414,58.971,179.003,164.72,-70.032,17.838,266.431,304.084,226.957],[-105.094,-113.5,-63.073,103.959,82.064,-99.486,-103.563,-61.973,100.031,95.394,-105.44,-112.581,-37.519,70.174,110.765,-99.185,-89.808,-9.094,137.785,124.214,-118.294,-122.207,30.609,164.609,197.508,-113.932,-78.909,88.717,292.686,268.224],[-105.296,-105.977,-86.117,-0.143,114.07,-100.756,-121.657,-95.233,38.7,135.721,-102.572,-116.394,-95.194,42.205,120.7,-106.414,-111.009,-93.418,58.934,156.184,-105.531,-127.581,-74.723,97.864,177.621,-99.844,-152.443,-15.575,199.422,338.848]],
"ve": [[28.391,29.235,108.79,51.181,-240.989,47.036,-2.859,-11.23,-13.637,0.589,22.667,2.58,11.71,13.215,-4.873,27.474,20.543,10.892,-2.632,-17.379,107.415,45.16,8.272,-135.764,-13.887,200.337,83.16,36.163,12.042,-5.079],[-149.445,9.629,3.996,4.081,3.672,2.276,10.783,3.071,3.505,4.057,3.047,10.902,6.561,3.378,2.779,39.141,29.563,17.911,12.89,7.793,117.266,57.478,30.799,23.192,14.287,194.753,102.604,66.286,43.677,29.532],[-18.923,4.903,9.569,3.782,4.372,13.002,4.581,3.183,3.689,1.579,18.673,11.955,5.783,2.96,4.073,212.098,26.197,17.858,14.03,10.815,791.351,56.203,31.341,24.423,20.174,115.738,99.372,65.935,48.818,39.984],[42.294,5.174,2.526,3.279,3.756,2.022,7.12,50.389,4.277,2.402,22.524,-12.578,-0.898,4.959,3.109,54.854,28.005,19.245,13.757,12.299,105.002,51.693,31.018,23.868,22.739,213.421,99.439,69.537,50.127,38.762],[-11.176,3.435,2.671,2.998,1.202,10.936,6.553,4.288,5.366,2.473,15.575,5.7,0.335,5.129,6.283,71.841,26.568,18.692,16.336,19.902,98.79,53.176,34.082,27.166,24.624,205.061,103.663,71.474,51.138,40.159],[3.617,0.427,2.85,5.049,2.506,12.619,5.554,2.685,4.8,4.512,26.446,12.174,-9.746,2.625,3.827,57.295,-282.119,10.605,14.778,11.776,123.501,43.929,38.153,26.024,21.953,206.731,92.931,67.809,47.817,42.766]],
"kep": [[-27.673,15.644,24.064,19.048,16.926,-20.978,22.584,29.523,19.096,37.583,-30.042,27.763,48.359,42.531,56.789,16.067,81.327,102.758,114.063,152.269,77.404,192.081,188.628,213.289,244.211,226.519,338.948,364.208,382.458,423.219],[-96.798,13.042,36.133,36.947,28.97,-80.614,36.708,28.528,32.07,33.79,-75.039,13.452,38.378,21.383,29.461,-92.813,60.595,72.27,51.809,53.127,-82.242,79.698,101.804,79.335,82.03,-20.071,147.375,177.244,154.838,134.161],[-96.035,-64.901,59.582,50.996,43.686,-100.809,-34.118,54.381,58.049,30.614,-101.62,-38.078,55.827,45.637,41.548,-95.6,-27.938,86.732,69.515,57.458,-82.189,12.107,102.725,92.553,69.135,-89.514,4.818,158.561,139.559,121.262],[-97.25,-84.509,17.791,69.638,57.078,-104.893,-79.75,21.642,73.893,55.862,-107.056,-71.466,42.022,95.895,51.25,-93.359,-75.76,41.498,79.988,83.847,-94.433,-62.534,12.229,112.094,109.686,-89.491,-41.966,108.926,159.718,126.518],[-104.791,-111.574,-68.318,85.088,69.702,-99.366,-102.98,-65.495,79.191,81.085,-104.301,-108.117,-43.153,53.471,88.956,-99.296,-91.837,-28.922,94.878,90.319,-107.782,-112.405,-9.119,97.089,131.001,-104.379,-89.535,8.83,149.039,150.948],[-104.538,-103.54,-88.425,-9.46,96.391,-100.338,-117.918,-95.652,24.748,112.235,-102.005,-112.755,-93.796,27.715,98.543,-103.001,-108.161,-92.251,28.106,113.272,-102.39,-113.934,-79.18,49.527,115.838,-98.748,-121.221,-51.809,86.029,195.368]],
"vp": [[0.001,0.001,0.001,0.001,0.001,0.005,0.005,0.005,0.005,0.005,0.01,0.01,0.01,0.01,0.01,0.05,0.05,0.05,0.05,0.05,0.1,0.1,0.1,0.1,0.1,0.2,0.2,0.2,0.2,0.2],[0.001,0.001,0.001,0.001,0.001,0.005,0.005,0.005,0.005,0.005,0.01,0.01,0.01,0.01,0.01,0.05,0.05,0.05,0.05,0.05,0.1,0.1,0.1,0.1,0.1,0.2,0.2,0.2,0.2,0.2],[0.001,0.001,0.001,0.001,0.001,0.005,0.005,0.005,0.005,0.005,0.01,0.01,0.01,0.01,0.01,0.05,0.05,0.05,0.05,0.05,0.1,0.1,0.1,0.1,0.1,0.2,0.2,0.2,0.2,0.2],[0.001,0.001,0.001,0.001,0.001,0.005,0.005,0.005,0.005,0.005,0.01,0.01,0.01,0.01,0.01,0.05,0.05,0.05,0.05,0.05,0.1,0.1,0.1,0.1,0.1,0.2,0.2,0.2,0.2,0.2],[0.001,0.001,0.001,0.001,0.001,0.005,0.005,0.005,0.005,0.005,0.01,0.01,0.01,0.01,0.01,0.05,0.05,0.05,0.05,0.05,0.1,0.1,0.1,0.1,0.1,0.2,0.2,0.2,0.2,0.2],[0.001,0.001,0.001,0.001,0.001,0.005,0.005,0.005,0.005,0.005,0.01,0.01,0.01,0.01,0.01,0.05,0.05,0.05,0.05,0.05,0.1,0.1,0.1,0.1,0.1,0.2,0.2,0.2,0.2,0.2]]
}