{
"KTrans": [[-0.019,0.587,0.593,0.501,0.519,-0.413,-0.186,0.375,1.259,0.507,5.449,2.879,0.517,0.576,1.754,19.524,9.56,12.067,3.767,5.009,-24.652,44.829,11,18.414,10.877,-303.403,94.912,62.7,48.679,60.813],[-0.968,-0.952,0.036,0.366,0.332,-4.533,-0.18,-0.008,0.066,0.372,0.169,1.131,0.017,0.693,0.719,-1.46,-4.166,-2.803,4.459,3.058,1.037,24.936,8.067,8.309,9.504,-21.57,-25.333,19.544,30.668,12.791],[-10.27,-3.742,-1.415,-0.462,-0.003,-17.261,-2.884,-0.022,-0.666,-0.063,-23.804,-3.27,-0.562,0.195,0.36,-14,6.104,4.927,1.189,3.297,-15.994,-2.122,1.942,7.405,4.908,-5.029,32.744,19.257,16.048,15.841],[-58.118,-2.246,-1.882,-1.474,-0.61,-62.011,-1.012,-1.419,-2.644,-0.457,-54.669,4.786,-1.615,-0.983,-0.785,-55.375,22.263,2.543,0.576,0.889,-54.345,-15.021,15.487,4.43,0.73,-56.845,-3.971,-4.647,13.943,17.876],[-73.019,27.464,-6.766,-3.165,-1.292,-69.466,5.336,-1.709,-2.286,-1.868,-74.565,7.248,-1.948,-2.798,-1.141,-55.971,-15.141,7.6,-3.472,1.045,-57.848,-18.537,30.614,3.552,-2.769,-50.792,3.694,16.346,-9.57,12.372],[-76.975,-39.166,-1.53,-4.085,-2.26,-79.822,-29.87,7.192,-4.389,-2.961,-78.248,-32.289,6.411,-2.113,-2.564,-79.411,-38.293,14.383,-2.116,1.948,-72.655,-24.026,-3.99,5.341,4.655,-83.072,-5.142,-1.847,18.679,4.052]],
"ve": [[-0.032,0.049,-0.165,-0.317,-0.531,-0.346,-0.069,-0.002,-0.649,-0.368,2.683,0.567,0.411,0.575,-0.801,-0.084,-156.765,3.206,1159.243,-22.7,3.663,-11.007,-46.096,-2.979,21.846,0.643,13.38,-10.357,-34.382,-26.977],[-0.964,-0.431,0.015,0.067,0.05,-3.045,0.174,-0.035,-0.045,0.063,-0.932,0.729,-0.049,0.21,0.135,5.112,-4.2,-2.019,1.868,0.983,35.293,12.224,27.88,6.23,6.858,15.055,20.257,4.096,-0.702,43.573],[-7.791,-1.216,-0.56,-0.161,-0.006,-8.979,-1.191,-0.191,-0.266,-0.049,-20.656,-1.913,-0.23,0.185,0.162,3.737,2.967,2.957,0.279,1.527,12.764,1.411,-0.631,3.352,2.133,24.512,30.402,15.113,-29.323,1.044],[-40.35,-1.362,-0.843,-0.574,-0.259,-42.089,-1.326,-0.479,-1.266,-0.13,-34.775,0.143,-0.559,-0.435,-0.372,-37.644,6.103,2.713,0.038,0.57,-15.736,-5.318,9.552,2.112,-0.654,-18.25,19.852,9.486,5.125,4.4],[-46.826,3.995,-1.916,-1.053,-0.492,-43.862,-1.617,-0.646,-1.415,-0.481,-48.619,0.031,-0.379,-0.906,-0.181,-30.943,-6.054,1.671,-1.59,0.975,-26.574,3.899,4.263,2.051,-2.974,-13.737,21.939,14.09,5.654,5.386],[-44.927,-24.622,-1.509,-1.287,-0.856,-52.467,-19.639,-0.096,-1.736,-1.21,-50.364,-23.069,2.052,-1.648,-0.847,-59.405,-26.677,0.055,-2.582,1.271,-39.158,-1.899,-5.456,2.655,3.523,-70.286,25.383,11.635,3.425,0.264]],
"kep": [[0.236,0.769,0.995,1.06,1.298,-0.061,0.075,0.66,2.219,1.282,2.542,2.458,0.594,0.842,3.447,-8.204,-1.36,7.92,-3.661,2.077,10.816,8.168,-29.315,-7.86,-19.837,46.562,26.663,-6.248,-25.654,28.923],[-0.142,-0.302,0.252,0.53,0.513,-2.178,-0.17,0.234,0.33,0.534,0.057,0.514,0.202,0.669,0.79,-19.852,-7.206,-3.76,1.703,1.806,-29.171,-4.59,-3.349,0.604,3.273,-26.871,-8.281,-30.775,-3.238,-12.854],[-6.16,-2.419,-0.636,-0.073,0.233,-15.69,-1.683,0.369,-0.189,0.209,-28.343,-1.583,-0.196,0.197,0.401,-36.964,-0.94,0.663,-0.013,1.406,-43.002,-8.151,-6.557,0.124,0.454,-38.935,-4.064,-0.935,-18.2,-4.152],[-54.875,-1.484,-0.86,-0.684,-0.123,-61.896,-0.554,-0.789,-1.209,-0.11,-54.655,3.335,-0.998,-0.391,-0.22,-59.831,-0.177,-1.26,-0.361,-0.218,-62.442,-36.956,-1.871,-2.458,-1.932,-61.723,-31.61,-4.41,-15.87,-1.785],[-69.895,17.844,-5.024,-1.947,-0.582,-66.321,2.347,-1.185,-0.738,-1.19,-72.686,3.69,-1.794,-1.814,-0.784,-58.935,-29.438,4.326,-2.991,-0.258,-65.405,-38.521,-1.697,-1.989,-3.105,-65.729,-35.716,-5.917,-4.677,-6.559],[-73.067,-37.258,-0.943,-2.759,-1.213,-75.689,-26.129,5.895,-2.691,-1.601,-75.928,-29.74,2.769,-0.499,-1.567,-76.437,-49.418,12.255,-1.035,0.239,-73.153,-44.382,-24.654,-1.783,-0.784,-74.839,-42.731,-31.894,-12.036,-11.83]],
"vp": [[3.961,-55.842,-26.316,-43.928,-58.794,9.366,10.821,-6.721,-27.27,-14.524,-33.341,-23.891,-3.434,-3.512,-19.471,-13.222,-8.364,-19.334,-0.951,-6.752,-9.061,-30.397,2.299,-10.199,-2.072,1.835,-30.791,-25.897,-21.04,-28.324],[117.377,103.32,-5.937,-41.479,-82.477,64.321,-9.688,2.604,2.342,-20.497,11.117,-16.184,2.098,-13.234,-14.656,-8.004,22.821,20.932,-15.445,-11.317,-38.068,-26.946,-4.5,-10.18,-17.726,-6.773,-25.364,-6.787,-21.801,-1.913],[794.451,220.197,185.456,75.395,3.035,175.145,48.726,22.883,23.57,5.913,211.214,41.718,8.985,-8.985,-10.385,-14.129,-12.242,-19.739,-1.568,-18.39,-13.775,-1.877,7.255,-13.01,-9.923,-14.12,-32.136,-24.732,-7.304,-12.514],[4123.243,255.375,287.331,254.182,162.651,871.146,53.739,32.394,109.908,15.43,318.881,4.8,18.114,20.633,21.798,76.017,-23.826,-19.174,0.512,-6.591,19.713,12.574,-29.88,-8.411,6.012,9.941,-28.297,-12.901,-11.091,-22.206],[4701.46,-656.858,451.826,401.994,278.288,866.288,64.933,37.551,131.713,40.293,478.212,-3.079,7.987,34.028,6.455,61.638,20.525,-8.129,12.406,-11.511,25.777,-7.539,-8.619,-8.988,18.086,6.269,-25.385,-21.994,-10.102,-12.21],[4331.464,4782.049,458.15,463.043,451.738,1056.23,786.8,35.789,133.077,124.026,480.329,468.082,-61.847,76.547,39.614,119.307,108.695,1.76,23.616,-13.189,38.697,8.824,17.839,-11.933,-19.881,38.14,-27.655,-14.29,-28.22,-0.453]]
}