{
"KTrans": [[0.968,3.236,0.438,3.134,2.748,3.785,13.144,12.119,11.56,10.426,1.735,26.391,23.153,21.825,23.159,8.136,67.546,87.108,93.517,93.181,-18.816,19.458,81.719,126.409,132.831,-207.321,-89.525,-72.65,13.786,51.963],[1.917,2.597,0.356,1.485,0.828,10.346,6.533,1.836,5.006,5.352,27.107,17.095,0.807,9.731,9.588,68.348,19.848,-5.844,24.312,37.241,-55.084,-39.661,-1.044,-2.057,44.583,121.598,46.701,32.012,-104.133,14.502],[-2.449,-1.002,1.153,1.29,0.297,7.476,7.437,4.243,4.575,0.741,27.519,11.609,10.125,8.29,0.086,33.165,58.629,67.28,1.012,-0.349,-8.099,192.054,-73.126,-49.177,-23.196,-205.463,-96.23,-24.651,-161.417,63.036],[-2.214,2.33,1.584,0.956,0.997,-3.057,3.901,3.381,4.37,3.209,13.617,10.228,7.342,6.625,7.237,20.647,64.644,56.232,39.096,37.668,-79.796,66.863,93.201,56.403,63.269,-60.21,35.744,-212.504,-67.868,-21.157],[-8.61,1.408,0.607,0.266,0.515,-3.945,3.924,4.116,3.438,2.831,3.53,13.394,8.85,7.538,5.555,-32.864,66.621,37.998,37.69,29.428,-45.504,6.73,119.197,77.299,68.009,-33.264,-48.173,-44.836,-33.082,-66.587],[-23.293,6.791,1.324,0.677,1.597,-17.428,12.065,3.143,4.137,2.12,-24.702,13.903,6.233,6.612,5.469,-28.493,63.248,50.653,35.719,32.529,-63.681,-48.253,95.34,89.421,59.01,-40.612,16.191,95.152,127.856,71.104]],
"ve": [[-0.586,4.607,0.984,4.028,9.519,4.885,27.095,13.274,18.413,21.573,7.525,-21.027,29.001,31.019,91.996,48.38,13.853,-360.745,-89.657,-90.385,98.626,30.401,-9.82,-36.81,-50.367,218.072,88.456,32.86,3.422,-15.638],[0.903,0.541,0.383,1.098,0.754,4.418,2.382,2.992,3.057,2.931,10.009,5.093,3.072,9.4,5.133,50.864,25.983,16.25,-166.707,-1232.219,100.635,51.6,39.52,18.575,5.322,194.078,98.219,63.508,44.98,26.201],[0.943,0.403,0.129,0.246,1.956,4.901,2.634,1.591,1.369,0.972,10.397,5.028,3.525,2.638,1.705,50.573,35.711,15.566,12.485,9.611,100.512,50.932,34.96,70.727,19.91,203.597,102.436,67.36,50.624,32.011],[1.079,0.434,0.352,0.373,0.347,3.887,2.284,1.364,1.383,1.078,9.793,4.822,3.273,2.505,2.258,46.442,23.801,16.917,12.523,10.637,100.469,49.154,34.954,23.796,12.566,198.065,98.333,67.134,52.501,41.746],[0.483,0.515,0.336,0.195,0.329,4.301,2.049,1.726,1.343,1.121,9.235,5.006,3.402,2.76,2.091,48.326,23.249,16.096,12.776,10.163,99.623,47.694,33.761,24.487,25.148,196.562,99.01,67.949,48.949,40.482],[-0.645,0.883,0.438,0.3,0.429,4.144,2.968,1.507,1.496,1.042,9.343,5.135,3.17,2.704,2.076,40.092,27.314,16.804,12.588,10.397,102.672,49.5,34.823,28.657,19.424,157.189,98.226,66.379,78.595,41.785]],
"kep": [[-130.725,-6.105,4.036,-7.588,-3.809,-135.662,-23.554,-17.33,-17.6,-17.362,-148.121,-51.306,-35.398,-30.963,-41.443,-41.307,-229.541,-206.771,-184.185,-204.636,-31.062,-393.261,-401.293,-369.975,-418.397,-33.894,-129.362,-629.03,-709.134,-785.755],[1.235,6.082,-118.791,-7.636,-2.623,4.95,7.903,-120.412,-17.057,-12.585,16.761,25.816,-149.318,-34.846,-19.994,-2.028,-24.348,-68.777,-181.282,-111.961,-69.014,-81.252,-14.086,-322.723,-216.764,-13.685,-16.16,46.667,-239.163,-336.734],[-5.121,-0.965,1.698,5.422,-124.533,0.869,7.775,5.49,15.649,-136.467,11.161,8.037,13.521,25.556,-155.422,-23.181,26.482,72.685,-47.41,-45.139,-52.795,90.822,-122.232,-121.158,-69.299,-110.933,-95.365,-53.232,-179.87,136.384],[-7.179,1.349,1.553,1.951,3.131,-11.607,0.686,2.591,6.27,7.402,-2.273,5.425,6.395,7.291,15.376,-27.462,27.119,38.878,37.806,53.973,-83.548,2.066,43.659,23.135,64.672,-83.263,-29.972,-162.225,-96.619,-71.274],[-15.838,-1.029,0.084,0.251,1.007,-15.332,1.104,3.076,3.754,3.698,-15.231,6.532,6.308,7.829,7,-58.759,25.384,19.328,28.455,28.737,-73.187,-36.921,52.644,44.502,55.368,-72.108,-66.658,-72.748,-62.499,-100.728],[-30.642,3.218,0.683,1.174,2.311,-29.639,6.505,1.893,4.421,1.974,-40.873,5.344,2.654,5.16,5.468,-57.397,19.605,27.384,23.749,28.144,-80.826,-66.286,37.18,51.837,40.031,-78.209,-43.459,10.029,36.902,14.383]],
"vp": [[-51.325,8.284,-24.802,-41.226,51.391,-20.671,-14.946,-13.689,-23.907,-9.546,-22.464,21.646,-13.296,-16.832,3.518,-12.513,-7.289,11.997,-13.188,9.691,-18.423,-2.23,11.996,-6.14,8.278,9.115,-4.161,1.425,9.228,13.314],[369.579,84.438,-9.961,-28.625,-129.53,45.513,15.269,-0.807,-8.576,13.55,36.129,11.761,-9.507,-13.885,2.386,5.334,1.481,-5.062,8.019,14.789,-13.599,-18.349,-30.808,13.096,11.258,-34.899,-35.345,-13.194,22.933,-3.575],[1059.385,258.372,146.284,8.153,-4.473,282.81,36.485,6.641,33.372,1.732,103.713,1.93,2.315,-16.705,-6.604,30.061,-14.179,-16.342,-24.647,-28.715,-2.59,-11.605,-4.51,-8.872,-8.48,14.259,-17.778,-14.057,-17.184,-15.85],[2503.175,669.546,388.887,147.598,157.692,419.684,160.092,21.942,44.208,18.179,253.309,32.214,-3.166,-0.238,7.238,24.071,5.117,16.277,-15.863,6.746,16.206,-22.328,-9.819,11.369,-9.675,-6.367,-40.888,-21.031,-11.364,-16.577],[3626.118,1010.974,614.697,322.7,126.921,795.708,216.615,163.688,87.037,56.352,404.967,93.918,51.588,24.728,13.611,48.878,9.139,-14.174,2.882,-10.428,2.252,-1.054,31.16,1.654,-7.983,3.771,-10.148,-8.593,-22.901,-18.742],[4869.845,1434.782,461.808,602.819,534.105,873.819,362.806,215.936,113.379,32.845,440.003,122.369,41.338,82.355,48.568,61.151,36.886,16.506,8.524,2.707,42.872,17.103,-3.743,6.124,-21.011,-0.28,-17.067,-35.584,-6.165,1.56]]
}