{
"KTrans": [[3.86,3.267,1.329,-1.351,1.496,3.38,11.773,10.075,14.603,7.625,13.834,26.916,23.386,18.784,22.634,-15.291,57.543,81.952,87.919,95.753,-69.653,-11.761,89.022,102.822,121.53,-548.163,-223.603,-20.263,-12.813,79.054],[-33.604,-9.386,0.269,2.661,3.506,-26.22,-8.767,1.249,6.394,6.834,-22.859,4.172,3.198,9.046,7.573,-16.87,24.01,14.291,25.661,34.528,-19.384,9.121,-3.66,11.939,47.735,-164.346,-124.638,29.404,-23.158,31.381],[-41.311,-15.71,-5.592,-4.571,0.496,-41.767,-4.082,-1.396,-2.715,0.752,-39.433,-3.774,1.214,-0.756,3.572,-25.363,40.83,17.934,6.491,7.563,-23.083,39.503,49.99,5.153,-10.421,-20.688,-1.754,8.424,0.025,-42.825],[-53.656,-13.345,-8.816,0.104,-0.877,-52.283,-7.312,-3.295,-0.76,-0.583,-48.024,-7.762,2.539,2.704,3.087,-29.719,21.962,30.284,31.39,22.437,-20.052,0.007,48.324,59.684,-8.222,-87.073,-100.377,-49.913,-27.504,-57.764],[-63.249,-15.481,-4.651,1.134,0.79,-59.111,-18.208,-2.303,1.966,0.929,-57.18,-14.269,0.417,4.752,4.223,-55.264,18.9,37.348,28.613,22.913,-58.92,-11.066,10.24,41.275,37.608,-112.026,-9.764,-9.642,-3.621,17.193],[-67.501,-21.906,-4.547,-4.004,-1.552,-67.434,-22.633,-4.66,-0.472,-0.124,-64.433,-11.208,0.291,5.29,2.277,-82.552,7.158,26.708,30.746,24.799,-65.851,-0.737,32.805,38.419,44.172,-4.375,-75.798,52.073,-31.259,52.936]],
"ve": [[23.367,-12.863,-19.764,-129.538,-3.438,14.792,30.346,-34.67,414.521,-170.383,19.978,49.364,17.522,-33.875,-34.206,82.403,12.1,9.723,-65.72,52.315,90.807,29.121,-5.648,-28.268,-152.29,200.781,83.389,17.298,1.648,-19.836],[-5.904,-1.588,6.405,18.367,-21.619,-1.471,-9.394,1.568,9.349,12.288,0.313,1.372,6.03,10.404,23.506,47.781,21.366,38.135,4.7,-9.465,94.641,46.867,15.763,21.902,41.437,201.806,108.347,63.386,43.237,25.499],[0.915,-7.364,-0.518,-67.982,5.77,-2.967,-1.434,-3.307,6.763,-0.457,-3.06,2.951,-0.66,0.353,-18.104,46.071,-139.886,16.24,9.613,9.524,96.591,53.136,33.754,25.105,16.712,195.563,95.525,67.82,51.794,38.705],[-3.813,-1.544,-1.89,-0.932,-1.394,4.367,0.392,-0.444,-0.083,-0.817,4.546,2.587,2.221,1.942,-0.207,55.657,22.044,22.786,11.371,7.884,93.546,49.236,35.493,28.479,17.274,192.172,99.515,69.021,52.177,41.391],[-5.479,-1.409,-1.052,-0.217,-0.181,2.925,1.028,0.114,0.312,0.285,7.134,1.651,1.951,1.476,1.005,32.716,22.103,15.078,12.364,8.599,100.682,46.672,32.637,23.758,20.875,200.606,98.477,70.319,52.492,41.469],[-1.42,-1.315,-0.437,-0.627,-0.77,-3.409,-9.675,1.06,0.27,0.023,-0.713,3.269,2.525,2.075,1.778,51.734,23.258,16.298,11.274,11.446,89.717,52.429,29.241,25.122,19.27,212.281,98.19,66.709,49.51,40.021]],
"kep": [[-106.832,-41.039,-12.128,-18.692,-4.297,-122.454,-67.893,-13.891,-34.758,-7.58,-133.988,-90.837,-51.086,-24.441,-52.127,-170.431,-227.054,-193.353,-185.33,-220.359,-152.96,-364.072,-362.736,-401.55,-431.433,-194.497,-325.659,-509.018,-682.023,-699.722],[-69.679,-67.271,-127.16,-49.893,-8.165,-64.44,-70.509,-121.683,-64.983,-27.291,-61.623,-46.96,-135.511,-69.348,-21.2,-71.702,-42.993,-126.582,-158.55,-116.29,-68.592,-64.949,-108.48,-255.53,-203.017,-102.073,-99.119,-4.147,-210.253,-290.384],[-66.113,-35.02,-28.839,-66.904,-114.6,-64.984,-19.491,-20.165,-55.501,-126.527,-66.864,-22.462,-21.046,-59.007,-109.198,-67.774,-5.464,-27.803,-65.872,-141.66,-71.484,-26.63,2.939,-58.183,-146.549,-66.516,-51.189,-39.448,-38.167,-90.699],[-72.438,-23.601,-19.082,-5.703,-13.747,-71.217,-19.632,-14.409,-12.293,-15.328,-69.631,-21.78,-3.697,-2.173,-10.988,-65.389,-18.008,4.671,21.888,0.484,-66.455,-49.523,3.204,18.128,-77.383,-86.592,-88.528,-74.23,-60.881,-101.664],[-77.424,-25.992,-11.617,-0.731,-1.784,-75.797,-29.012,-10.6,1.025,-4.643,-74.983,-27.835,-8.417,1.397,-0.059,-78.63,-19.204,11.905,17.034,9.394,-82.812,-44.628,-26.235,6.709,17.889,-93.905,-52.824,-48.859,-40.149,-30.866],[-79.802,-31.759,-9.614,-9.297,-5.389,-82.504,-34.131,-13.773,-4.32,-5.802,-81.742,-24.605,-6.635,2.566,-0.822,-93.524,-24.932,2.036,13.489,14.019,-83.2,-42.065,-9.594,1.636,20.708,-69.04,-81.779,-19.951,-59.106,0.085]],
"vp": [[-123.626,-48.179,-21.606,305.936,-68.626,-129.36,-113.233,32.953,-8.285,40.298,-3.418,14.029,28.25,44.565,41.718,13.834,-17.139,4.62,5.881,15.605,-8.564,2.598,-7.207,20.754,21.343,19.031,5.747,-1.57,22.418,-10.224],[2510.804,1192.703,-264.823,-212.282,185.523,473.884,234.766,-13.254,-64.343,37.749,233.06,89.684,-16.31,-18.519,-44.508,46.303,7.956,-24.363,-21.45,1.97,-17.436,-21.735,-12.947,0.459,-5.115,2.607,-19.772,-14.825,-11.005,-3.914],[4664.176,2435.942,1395.595,653.036,30.497,817.419,477.779,200.047,237.009,55.552,452.884,210.753,109.978,109.589,-26.787,74.627,50.413,22.678,-4.098,-20.886,28.274,20.351,-13.417,-12.925,-12.217,7.654,-20.389,-30.138,-9.037,-13.19],[6274.69,3562.583,1395.434,838.672,1272.837,1096.828,794.07,245.22,300.153,-23.554,581.968,393.289,164.993,99.354,52.913,71.282,86.486,15.394,1.102,12.071,24.905,33.58,-5.569,19.594,-1.877,5.411,-12.673,-6.158,-22.173,-6.97],[6723.288,5828.959,2783.218,1727.609,111.878,1346.594,1167.223,500.172,272.926,168.532,699.019,520.247,302.744,154.918,16.185,115.69,100.691,64.281,28.728,37.73,35.992,16.312,-2.078,-3.917,-24.133,27.973,-18.089,-15.806,-5.955,-9.008],[6998.649,7559.873,3085.23,2342.819,1235.614,1377.466,1586.64,850.427,331.554,237.415,670.883,734.418,419.442,208.503,32.294,145.573,116.168,98.728,46.445,18.173,41.167,50.405,23.741,16.91,-17.033,-25.276,11.979,-6.832,-13.525,-9.736]]
}