{
"KTrans": [[-29.82,21.92,16.72,8.09,12.29,-40.305,13.601,3.61,8.558,6.459,-11.841,-3.2,8.453,3.945,7.649,9.283,34.71,9.903,12.178,16.439,32.369,47.496,29.913,36.194,20.708,48.691,90.959,85.423,72.201,51.801],[-79.636,-14.318,2.374,0.013,5.587,-80.382,-5.761,5.129,-3.814,-3.703,-77.041,-24.386,-1.414,3.973,9.243,-69.115,-3.605,15.567,12.936,7.12,-78.701,-0.698,28.886,27.011,10.694,-9.669,54.723,38.257,34.489,18.784],[-92.627,-54.9,-6.935,3.059,3.618,-92.25,-54.776,-7.475,2.092,-0.249,-94.038,-52.161,-3.622,1.52,1.295,-89.518,-44.839,1.041,4.449,12.371,-92.337,-28.956,4.063,9.541,8.533,-99.92,-18.387,29.491,31.932,20.159],[-97.148,-78.526,-25.2,3.128,4.422,-96.881,-72.252,-30.4,-6.348,-2.767,-97.079,-65.059,-27.074,-0.545,0.319,-95.562,-72.805,-25.233,-1.396,6.438,-93.268,-58.412,-3.594,8.318,9.172,-81.921,-49.155,-2.034,30.888,11.864],[-97.889,-79.675,-41.904,-22.015,-1.446,-97.108,-86.921,-47.316,-5.618,-3.505,-97.339,-86.14,-46.08,-7.954,7.245,-96.959,-81.316,-38.162,-4.311,6.62,-94.401,-77.259,-21.19,12.741,7.205,-99.019,-51.179,-10.121,14.127,29.335],[-97.894,-90.425,-62.479,-23.651,-3.709,-97.607,-90.448,-57.901,-28.884,-11.41,-97.484,-88.191,-58.174,-16.341,-2.478,-98.401,-86.255,-59.114,-16.557,0.105,-96.091,-82.774,-52.191,-3.187,17.698,-91.902,-75.721,-39.521,0.14,38.856]],
"ve": [[58.874,4.135,-35.611,-254.165,-69.292,-24.886,-16.532,-134.585,-200.434,43.638,-111.228,81.081,12.8,32.073,16.34,14.392,-68.378,23.627,-42.177,-33.026,99.597,3.217,6.526,-86.59,13.865,18.071,28.178,0.273,-17.7,-7.108],[-51.94,-6.4,1.028,0.31,0.162,77.013,-8.078,5.959,2.36,2.598,-29.624,-11.121,-2.094,2.906,2.975,-41.485,-6.338,5.68,2.586,4.222,10.71,28.007,8.58,9.353,1.004,-118.52,17.707,9.648,20.089,-22.211],[-51.374,-30.654,-14.365,-1.948,-0.896,-62.794,-34.038,-4.86,-1.674,-1.914,-108.617,-29.048,-1.712,-3.547,-0.874,-164.641,-31.502,-3.973,3.04,1.325,-92.608,21.094,-4.704,-0.856,1.491,-118.709,-3.319,5.132,7.079,5.536],[-51.18,-74.729,-14.096,-0.546,-0.3,-86.881,-63.355,-16.265,-7.346,-3.457,87.106,-35.173,-15.324,-4.24,-0.878,59.832,-53.863,-14.723,-5.206,-1.491,-88.856,-38.841,-12.417,-2.334,0.735,-77.465,-128.387,-11.018,7.102,-0.47],[-88.991,-56.77,-25.646,-12.29,-3.125,-71.01,-66.985,-29.674,-6.695,-4.066,-81.367,-20.898,-27.146,-6.466,0.287,-86.514,-51.134,-27.086,-7.123,-0.733,-129.433,-62.956,-23.064,1.754,-1.743,-88.367,-27.448,-14.822,0.738,4.194],[-63.459,-71.26,-42.215,-16.432,-5.704,-82.44,-47.647,-32.701,-17.99,-7.416,-95.248,-52.84,-37.34,-15.213,-6.589,-123.14,-72.358,-41.125,-12.216,-4.528,-83.481,-72.543,-42.632,-4.566,1.217,-142.605,-53.959,-32.175,-1.387,10.381]],
"kep": [[-44.641,11.054,17.87,0.343,7.995,-58.747,1.305,-0.002,-3.879,-1.761,-38.182,-20.421,2.406,-0.585,2.744,-24.799,1.959,-4.285,2.303,13.939,-7.158,7.474,-4.033,23.816,7.137,34.54,63.959,55.815,63.079,28.129],[-84.666,-16.344,1.056,1.358,6.938,-87.016,-11.216,-1.485,-4.728,-4.256,-82.317,-25.07,0.39,1.542,7.782,-80.202,-19.796,6.876,9.288,3.845,-82.292,-14.672,11.081,14.955,4.691,-56.502,18.361,8.731,10.446,-1.419],[-98.169,-48.374,-4.708,3.406,3.869,-96.569,-51.422,-5.826,2.042,0.899,-96.409,-48.979,-4.117,4.333,1.669,-93.559,-39.44,2.474,-0.516,9.819,-88.621,-35.028,1.704,2.347,2.966,-73.399,-28.816,10.099,9.977,4.427],[-98.947,-74.397,-18.581,1.228,3.399,-97.585,-72.417,-22.271,-1.113,-0.407,-97.431,-63.4,-23.375,1.303,-0.107,-94.321,-69.925,-19.372,0.5,6.465,-90.176,-57.184,-6.115,9.757,5.859,-79.055,-50.837,-9.421,5.38,2.612],[-98.366,-71.941,-33.337,-14.355,0.526,-99.112,-84.199,-35.791,-1.826,-1.755,-97.987,-82.413,-34.843,-4.32,4.299,-96.626,-77.115,-29.12,-1.968,5.232,-93.711,-73.405,-23.01,7.597,5.33,-90.467,-57.675,-20.4,-0.387,19.03],[-98.717,-88.438,-53.343,-13.391,-0.325,-98.331,-90.778,-47.981,-18.784,-7.131,-97.873,-88.881,-49.192,-9.105,1.526,-97.54,-80.797,-53.702,-11.936,1.86,-95.327,-80.729,-47.891,-4.907,14.664,-86.167,-73.73,-39.7,-12.681,18.968]],
"vp": [[1729.285,-100.376,-157.159,448.784,-20.574,367.615,2.213,140.288,80.667,103.074,119.038,34.323,-11.377,20.809,-9.721,-7.225,-26.661,-10.697,-9.772,-4.551,5.661,-16.321,-18.526,-19.679,-10.99,-6.748,-16.516,-27.495,-21.03,-19.813],[5238.105,2348.98,496.094,1095.073,25.059,1102.723,339.218,-81.803,164.157,207.457,524.153,260.117,135.506,-25.866,-57.747,98.731,48.344,-13.639,-21.134,-24.724,55.714,9.435,-18.765,-32.099,-1.216,-9.363,-11.732,-7.028,-12.171,-0.377],[7895.907,7269.065,1670.095,1064.457,790.597,1474.189,1470.651,478.8,194.708,197.131,798.385,669.482,101.264,141.274,48.578,158.082,126.53,37.381,-12.823,-11.713,78.313,42.477,18.918,-7.481,-2.072,55.564,13.543,-5.453,-17.059,-17.207],[8779.276,12001.695,5591.283,642.997,135.504,1696.285,2274.887,1171.351,634.056,364.342,833.502,949.899,438.063,187.017,87.731,177.559,228.18,127.343,52.052,18.063,80.902,76.671,38.273,18.635,-9.151,44.575,36.713,18.839,-14.484,2.07],[8752.518,11445.356,8154.374,4853.952,1355.367,1615.986,2747.286,1826.225,618.054,393.895,832.856,1367.893,856.239,323.04,5.869,177.647,257.422,178.793,64.158,10.032,85.957,129.492,61.815,-7.291,12.236,44.274,26.594,12.758,-0.145,-6.207],[8600.354,14729.578,13476.911,6483.737,2463.426,1651.371,3104.96,2350.308,1489.64,872.474,862.771,1528.09,1247.72,573.914,322.154,192.401,271.417,244.467,126.56,52.398,75.38,148.068,142.218,24.406,-8.253,40.504,53.253,47.047,2.151,-28.167]]
}