{
"KTrans": [[17.445,7.443,9.47,3.731,5.195,28.229,15.675,14.94,11.595,17.586,50.327,24.442,24.633,17.355,19.767,187.327,101.478,94.318,67.05,70.829,451.971,240.034,198.689,170.656,149.772,1221.583,639.323,481.233,416.741,385.208],[-27.294,29.583,15.778,7.929,13.246,-35.644,28.802,26.349,10.517,16.024,-25.599,52.512,15.772,13.538,9.52,67.837,104.276,66.087,54.387,47.723,183.808,188.32,130.253,104.313,75.38,509.107,434.377,277.997,206.673,163.639],[-63.44,39.449,34.026,24.329,14.329,-68.564,33.515,34.596,18.785,18.904,-62.157,58.979,30.84,35.741,22.38,-10.221,114.277,97.399,70.827,39.156,33.624,164.944,143.044,96.654,81.583,163.852,421.614,313.801,177.748,161.878],[-82.515,-19.584,69.134,22.1,32.973,-92.051,-14.204,53.257,35.655,32.054,-80.905,-12.93,72.912,40.779,31.844,-52.725,4.788,110.381,61.789,50.595,-14.847,39.883,204.683,100.431,81.539,53.723,293.218,327.076,219.65,142.33],[-92.94,-65.104,86.915,55.394,32.572,-97.56,-55.232,66.923,58.182,39.617,-89.058,-52.248,58.267,66.956,39.667,-79.03,-16.753,80.672,109.996,66.746,-74.417,19.49,164.593,136.762,99.721,44.953,64.074,358.515,279.02,165.552],[-99.037,-68.203,4.505,66.619,63.21,-93.245,-92.687,4.796,65.486,40.326,-95.334,-87.435,21.915,90.672,50.724,-75.509,-64.84,54.793,121.214,83.116,-69.176,-35.954,148.929,178.807,113.45,6.34,30.087,144.607,271.404,234.29]],
"ve": [[8.992,10.861,7.885,32.103,14.064,8.817,4.806,5.022,6.773,0.632,13.409,5.717,2.505,2.785,7.608,50.911,15.074,0.08,-8.726,-17.284,95.336,34.048,8.921,-6.817,-17.715,191.536,80.945,35.367,11.069,-5.985],[3.665,1.289,1.517,0.903,1.687,65.266,3.093,3.332,0.701,0.516,3.571,8.119,3.473,2.008,1.314,53.33,23.178,15.46,10.636,6.109,101.109,48.147,30.208,21.076,11.885,195.674,97.729,61.972,42.025,28.764],[12.81,2.438,1.218,1.336,0.708,3.302,4.716,2.828,1.676,2.241,9.298,7.67,2.788,3.419,2.822,57.128,26.837,17.171,13.184,8.361,69.21,51.335,32.724,23.043,18.153,201.036,108.622,66.954,46.976,37.544],[3.167,0.987,2.54,-0.392,1.589,13.904,-11.278,2.543,2.306,2.684,15.048,4.663,5.794,3.829,3.143,49.563,25.873,18.208,10.249,10.184,99.192,49.343,35.278,23.793,18.784,203.527,100.119,66.629,49.396,37.32],[-1.049,3.071,3.319,1.04,0.889,12.823,1.546,2.865,2.268,2.378,13.365,6.15,4.355,4.212,1.63,50.834,25.955,17.316,13.438,10.829,103.825,51.579,34.585,25.373,19.852,202.037,99.316,66.832,50.649,39.524],[4.705,-17.867,0.647,1.396,0.916,5.272,-3.784,2.677,1.598,0.303,12.955,5.805,4.667,2.985,1.713,45.311,26.11,18.64,13.51,10.726,99.659,52.209,34.473,25.479,19.845,192.548,99.676,66.436,49.83,40.924]],
"kep": [[10.095,3.844,12.116,1.81,4.945,17.649,13.372,16.173,15.639,33.973,33.453,20.263,27.824,24.577,29.72,89.343,75.683,95.216,87.023,110.641,182.952,152.977,173.646,190.936,205.611,353.822,307.92,328.432,364.316,414.379],[-33.941,24.691,12.875,6.3,11.252,-42.371,22.143,20.584,8.75,15.232,-34,37.74,10.465,10.438,7.721,6.403,62.615,41.589,37.926,38.029,41.634,91.214,74.77,67.085,55.401,99.869,166.725,130.821,113.993,103.132],[-66.517,30.927,29.282,20.418,11.968,-70.52,24.119,27.528,14.367,14.361,-66.673,43.396,23.204,28.267,17.304,-41.911,64.552,64.348,48.56,26.615,-33.901,71.541,79.144,56.891,51.382,-10.108,156.308,143.941,86.293,87.907],[-83.156,-23.605,59.495,18.392,27.456,-91.888,-20.142,43.681,28.792,25.706,-83.648,-19.639,56.633,31.478,25.074,-67.2,-16.979,70.602,42.213,33.961,-57.049,-7.173,119.078,57.876,49.664,-47.373,92.215,149.68,108.861,72.992],[-92.199,-64.774,73.301,47.886,27.535,-96.597,-55.346,54.087,48.516,32.247,-90.261,-54.568,45.174,54.579,32.513,-84.613,-34.424,48.364,78.809,46.547,-86.963,-20.685,90.156,82.469,62.123,-51.161,-17.713,165.919,145.109,86.07],[-98.153,-66.933,-0.606,57.039,54.413,-92.636,-89.801,-1.435,55.498,33.916,-95.007,-84.885,13.549,75.588,42.045,-82.544,-69.62,26.042,87.375,59.979,-83.423,-55.538,79.251,112.622,71.373,-64.105,-33.769,44.441,139.224,130.443]],
"vp": [[0.001,0.001,0.001,0.001,0.001,0.005,0.005,0.005,0.005,0.005,0.01,0.01,0.01,0.01,0.01,0.05,0.05,0.05,0.05,0.05,0.1,0.1,0.1,0.1,0.1,0.2,0.2,0.2,0.2,0.2],[0.001,0.001,0.001,0.001,0.001,0.005,0.005,0.005,0.005,0.005,0.01,0.01,0.01,0.01,0.01,0.05,0.05,0.05,0.05,0.05,0.1,0.1,0.1,0.1,0.1,0.2,0.2,0.2,0.2,0.2],[0.001,0.001,0.001,0.001,0.001,0.005,0.005,0.005,0.005,0.005,0.01,0.01,0.01,0.01,0.01,0.05,0.05,0.05,0.05,0.05,0.1,0.1,0.1,0.1,0.1,0.2,0.2,0.2,0.2,0.2],[0.001,0.001,0.001,0.001,0.001,0.005,0.005,0.005,0.005,0.005,0.01,0.01,0.01,0.01,0.01,0.05,0.05,0.05,0.05,0.05,0.1,0.1,0.1,0.1,0.1,0.2,0.2,0.2,0.2,0.2],[0.001,0.001,0.001,0.001,0.001,0.005,0.005,0.005,0.005,0.005,0.01,0.01,0.01,0.01,0.01,0.05,0.05,0.05,0.05,0.05,0.1,0.1,0.1,0.1,0.1,0.2,0.2,0.2,0.2,0.2],[0.001,0.001,0.001,0.001,0.001,0.005,0.005,0.005,0.005,0.005,0.01,0.01,0.01,0.01,0.01,0.05,0.05,0.05,0.05,0.05,0.1,0.1,0.1,0.1,0.1,0.2,0.2,0.2,0.2,0.2]]
}