{
"KTrans": [[-3.625,1.686,2.436,3.287,1.493,12.747,9.055,9.323,6.39,6.369,22.772,19.53,13.881,11.221,13.381,153.318,88.862,77.55,65.176,61.398,19.628,182.821,169.177,146.229,136.127,-69.268,10.691,301.113,231.867,275.333],[-5.943,0.648,1.384,1.482,1.294,1.736,5.794,4.393,3.731,2.967,19.854,11.44,8.372,7.571,5.927,-1.661,57.8,49.783,35.432,32.228,-37.439,150.525,96.853,79.134,69.693,47.984,-28.176,169.487,157.024,144.774],[-15.033,-2.133,-1.879,1.142,0.914,-8.984,1.291,2.531,2.452,1.848,-0.933,8.297,7.61,5.171,4.748,-39.141,60.644,41.991,29.132,26.621,-66.814,122.258,91.897,67.516,57.407,-57.701,-140.626,122.144,165.947,127.746],[-30.357,-4.649,-0.701,-0.328,-0.133,-26.3,2.078,3.195,1.328,2.056,-28.506,8.531,7.336,4.237,4.249,-37.129,61.935,32.343,29.215,21.153,-64.685,-14.415,86.806,63.162,51.852,-41.537,21.813,-31.758,131.385,107.69],[-50.662,-9.373,-2.379,-1.883,-1.432,-50.243,4.079,-0.07,-0.233,0.597,-44.059,5.01,4.482,2.591,2.164,-44.418,44.449,40.451,27.477,22.152,-55.131,-18.997,92.912,55.762,43.976,-59.711,-73.588,-46.546,151.073,106.762],[-56.505,-0.987,-1.565,-1.282,-1.321,-62.716,7.289,1.242,0.122,0.46,-61.143,4.544,0.852,1.68,1.258,-68.732,46.78,35.512,24.621,22.158,-69.061,-18.141,112.038,71.468,47.705,-54.335,-14.076,-58.152,173.782,130.434]],
"ve": [[4.071,4.528,4.566,4.378,8.469,7.326,2.891,1.523,3.025,5.177,10.122,1.726,0.41,1.146,-0.648,47.604,15.412,0.454,-8.355,-16.68,90.783,34.941,12.046,-4.657,-14.12,155.28,78.837,42.8,2.539,91.424],[1.585,0.729,0.618,0.378,0.995,6.284,2.753,1.546,1.104,1.49,11.274,5.141,2.729,2.078,1.37,47.466,23.127,15.17,9.9,5.861,101.954,48.162,30.576,20.486,13.743,195.897,100.577,78.748,43.424,30.383],[1.234,-0.088,0.451,0.45,0.019,4.267,2.811,1.505,1.103,0.801,10.592,5,2.665,1.861,1.781,50.839,25.248,16.062,10.788,8.553,97.608,46.876,32.198,23.677,17.719,209.611,101.261,62.765,50.035,37.047],[1.145,0.209,-0.309,0.108,0.119,6.36,2.277,1.455,0.975,0.726,9.186,4.886,3.308,2.088,1.489,82.129,24.971,15.605,11.814,9.202,103.527,48.631,32.311,23.976,18.81,195.157,100.483,65.101,48.962,37.671],[43.724,-0.515,0.248,-0.546,-0.096,-29.249,2.565,1.452,1.111,0.558,10.463,4.727,2.728,2.175,1.815,43.462,24.784,16.445,12.269,9.17,101.896,47.903,32.165,23.581,18.978,203.89,101.484,65.822,52.007,38.386],[5.51,1.044,0.335,-0.263,-0.145,7.567,3.653,1.363,1.019,0.673,8.266,4.825,2.905,2.123,1.442,48.709,25.82,16.034,11.777,9.58,112.398,49.904,34.025,24.679,19.17,198.726,99.123,66.258,49.053,39.32]],
"kep": [[-9.762,-4.577,-3.595,-1.27,-4.623,2.229,3.282,5.934,2.236,2.317,8.191,14.162,10.718,8.388,15.051,64.752,57.847,71.758,75.157,88.115,-29.293,94.886,133.271,149.731,166.753,-64.915,-23.244,177.173,171.891,269.762],[-10.613,-3.622,-2.858,-2.511,-3.299,-7.719,-0.755,-0.9,-1.056,-2.171,3.983,2.163,1.665,1.572,0.705,-34.766,22.947,25.135,18.704,20.351,-61.832,60.307,44.458,42.91,43.625,-43.493,-52.837,56.517,71.952,79.825],[-19.375,-5.579,-5.889,-3.024,-2.826,-16.248,-5.043,-2.663,-2.395,-2.676,-14.135,-0.668,0.965,-0.537,-0.877,-58.418,22.701,17.489,12.173,12.3,-78.373,38.983,38.661,29.939,28.53,-80.272,-104.008,27.734,68.78,58.991],[-33.792,-8.358,-4.085,-4.104,-3.955,-33.93,-3.898,-2.05,-3.366,-2.424,-37.875,-0.55,0.011,-1.669,-1.069,-57.654,23.379,9.916,11.148,6.771,-79.514,-41.509,34.23,26.08,22.615,-76.605,-35.027,-52.781,47.851,43.823],[-54.071,-12.506,-6.221,-5.017,-4.987,-55.206,-2.616,-5.237,-5.001,-3.67,-52.422,-3.849,-2.143,-3.334,-3.394,-62.71,9.946,15.583,9.069,7.671,-75.763,-45.064,37.597,20.593,16.099,-83.306,-79.47,-61.417,56.744,41.789],[-59.569,-6.432,-5.614,-4.736,-4.866,-67.038,-0.873,-4.009,-4.58,-3.931,-65.763,-4.589,-5.734,-4.166,-3.891,-78.55,10.168,11.632,7.068,7.171,-82.665,-44.938,48.769,31.028,18.641,-82.264,-53.841,-69.499,69.726,55.715]],
"vp": [[138.321,-90.28,-202.506,-135.214,64.124,4.279,-14.142,-49.203,15.18,-9.384,-33.418,28.599,-16.468,-19.902,14.293,-10.609,-9.454,-5.315,5.489,4.236,-4.571,15.32,3.232,-11.261,9.426,-9.555,4.426,4.873,3.377,-8.69],[1825.417,598.283,268.52,-41.614,366.094,340.009,130.692,-60.381,-47.917,-21.584,175.384,49.981,-26.953,3.688,-16.081,23.118,-26.645,11.016,2.708,-1.719,3.311,-26.497,-14.283,11.146,18.661,-23.665,-6.04,0.201,-12.587,-4.658],[3740.064,1282.891,146.6,500.926,-171.761,738.506,285.316,79.117,32.827,-40.134,340.42,121.468,107.849,21.605,-29.236,31.972,19.93,0.044,-19.082,-2.694,20.891,1.776,-8.809,-7.839,-2.691,16.813,7.326,-27.488,-1.789,-16.272],[5277.203,2853.07,1006.639,677.973,239.354,953.634,451.457,88.383,57.922,88.468,511.212,292.519,85.813,7.41,-25.32,67.21,19.975,7.795,5.862,-15.49,28.977,0.109,-8.631,-8.508,-13.916,-0.462,-6.388,-5.812,-31.623,-34.979],[5562.923,3260.99,1549.081,748.042,-167.264,1248.476,770.151,207.966,20.015,118.775,556.635,398.89,146.012,5.057,59.845,78.827,44.97,10.775,-3.208,2.006,47.827,-1.886,-5.541,-25.417,-17.454,10.737,7.646,-19.334,-3.259,-25.292],[6629.482,5468.811,2377.36,939.764,755.025,1405.351,1046.646,476.601,167.33,113.875,638.369,563.598,157.141,33.216,53.861,111.422,93.192,32.601,6.422,17.555,49.449,34.171,33.276,11.211,-2.932,-1.583,-5.831,2.357,-22.718,-6.042]]
}