{
"KTrans": [[-0.893,2.129,4.167,5.452,3.712,4.516,13.153,13.173,12.416,11.698,10.166,25.919,23.575,23.565,24.761,58.549,81.517,97.282,100.393,99.235,75.231,40.757,134.978,154.531,160.769,-162.334,-398.758,19.636,123.413,170.255],[-8.801,-1.774,0.205,1.155,1.149,4.059,4.919,2.094,5.072,5.38,9.238,13.04,3.598,10,8.942,130.065,94.215,20.596,31.937,40.263,328.59,249.481,21.305,23.226,59.779,978.099,699.581,3.65,-123.733,37.957],[-15.185,0.477,-0.281,-0.841,-0.02,-5.734,3.678,4.813,2.426,1.017,3.28,12.597,8.435,6.5,2.814,94.215,73.849,57.378,52.38,12.663,260.663,177.756,143.125,143.125,-0.651,720.981,445.513,385.304,396.393,-8.012],[-22.589,-1.695,-0.185,0.338,0.342,-16.016,1.927,3.672,2.763,2.986,-2.942,8.952,7.516,6.078,6.155,73.485,60.817,49.344,41.403,37.351,205.76,155.344,112.097,95.532,89.491,583.002,366.954,285.618,237.372,232.663],[-26.437,-2.294,-0.486,-0.075,0.421,-19.453,0.457,3.471,3.86,2.911,-12.235,8.44,7.906,6.398,5.839,65.049,57.853,45.417,36.337,31.493,187.452,134.219,100.389,80.32,73.065,486.374,346.679,244.862,195.098,171.449],[-33.627,-3.432,-0.206,-0.068,-0.533,-30.013,-0.119,1.575,2.765,1.734,-20.851,5.637,6.923,5.377,4.916,46.187,53.796,41.775,34.341,29.79,149.2,128.32,93.99,74.286,63.811,454.192,319.084,221.017,175.62,149.117]],
"ve": [[23.343,34.723,66.185,70.593,22.997,-10.739,23.811,18.86,-108.725,32.856,-3.28,14.274,28.886,426.815,94.205,49.655,-4.157,-46.064,-66.865,-189.851,107.401,31.11,-6.843,-30.223,-45.402,197.834,83.441,33.331,3.893,-15.194],[-0.052,-1.554,1.089,2.021,1.963,4.179,1.022,26.818,27.873,4.579,7.531,3.572,-2.61,5.983,6.409,49.431,25.76,16.785,2.467,-117.664,100.145,50.594,33.619,18.876,0.212,199.513,101.232,67.303,45.15,27.25],[0.222,0.114,-0.23,-1.616,0.638,4.404,1.767,1.518,0.228,1.255,8.243,4.834,2.807,1.791,-1.321,49.021,25.286,17.631,12.871,10.21,99.159,51.069,34.715,25.76,13.079,199.466,101.776,68.146,51.11,38.063],[-1.827,-0.017,0.522,0.121,-0.058,3.923,1.902,1.26,0.665,0.761,9.994,5.491,3.262,2.36,2.032,48.387,25.173,17.092,13.17,10.667,99.788,50.821,34.53,26.299,21.225,199.909,100.021,68.143,51.719,41.772],[-0.478,0.491,0.065,0.092,0.077,3.511,1.941,1.742,1.537,1.053,8.735,5.396,3.238,2.761,2.023,48.842,25.048,16.806,13.089,10.589,98.877,49.821,33.452,25.955,21.106,198.019,100.253,67.735,51.121,41.428],[-0.748,-0.33,-0.052,0.08,-0.254,3.483,1.979,1.521,0.993,0.811,7.898,4.59,3.519,2.354,1.963,49.034,25.3,16.92,12.812,10.506,98.826,49.958,34,25.69,20.871,198.451,99.486,67.218,50.98,41.213]],
"kep": [[-122.024,-13.894,-16.054,-21.83,-9.895,-131.438,-30.09,-26.452,-19.324,-27.977,-130.432,-57.507,-39.682,-39.79,-49.174,-116.021,-230.964,-184.017,-189.143,-192.687,-158.849,-481.406,-368.125,-360.177,-385.324,-332.78,-968.044,-742.202,-738.583,-763.338],[-18.589,-16.094,-133.246,-9.949,-2.871,-6.146,-3.997,-128.118,-20.254,-13.151,-8.474,7.838,-130.36,-42.425,-17.738,55.983,107.154,-109.584,-180.556,-105.176,119.618,219.631,-173.069,-339.088,-204.73,271.113,428.893,-232.72,-680.052,-413.4],[-23.408,-1.417,-4.61,-14.106,-132.326,-17.066,-2.124,4.916,-3.702,-117.224,-11.031,8.877,6.572,7.542,-118.902,27.051,50.071,66.926,114.323,-114.273,80.057,106.411,141.056,256.584,-235.413,172.979,201.589,286.497,484.741,-263.148],[-28.736,-4.398,-2.503,-0.997,-2.125,-26.594,-2.452,1.235,1.884,3.552,-17.18,3.43,4.688,5.893,11.817,11.734,31.905,38.006,46.916,66.889,48.751,81.459,79.278,96.552,136.369,123.981,143.195,164.744,191.768,273.439],[-34.297,-4.199,-1.766,-1.207,-0.291,-28.79,-3.695,1.78,5.01,2.775,-25.811,1.721,5.186,5.74,7.599,6.736,27.94,30.623,30.521,34.754,38.914,58.477,60.369,61.856,76.68,89.323,129.598,123.648,127.105,146.426],[-38.427,-5.933,-1.115,-1.521,-1.329,-38.814,-4.219,-0.66,1.107,-0.16,-33.569,-0.049,4.846,3.642,5.148,-8.139,22.834,24.97,25.405,26.814,20.24,54.192,51.604,49.888,52.763,79.151,112.516,101.368,101.999,107.486]],
"vp": [[93.686,268.443,-331.711,172.198,-87.101,23.837,-28.2,8.316,14.772,8.209,-3.62,-16.308,-4.761,2.433,10.591,1.36,0,1.054,-1.337,-1.856,0.836,1.016,-2.859,1.157,-1.338,0.49,-0.712,0.389,-1.241,-0.739],[1358.311,393.273,79.792,-212.942,-175.293,247.577,53.716,-1.543,-13.933,3.554,123.997,14.168,8.265,11.177,10.622,17.35,0.617,1.743,-2.85,0.495,14.436,1.152,-0.317,-0.628,-1.58,5.812,-0.356,-0.402,-0.326,-1.018],[3197.257,555.498,305.548,170.142,-106.291,635.393,89.14,3.327,31.651,8.707,301.115,65.34,21.88,25.367,-8.271,55.995,7.724,-0.992,-0.634,-3.022,30.875,4.132,1.586,0.964,-0.324,12.255,0.951,-1.321,-0.17,-0.413],[4519.277,966.525,246.66,280.688,392.252,978.214,194.463,62.971,88.741,125.931,481.19,136.534,29.691,19.549,0.663,93.287,23.696,3.608,3.062,-0.244,48.878,5.791,-0.371,0.579,-1.344,20.187,3.777,2.337,-0.251,-0.889],[6615.654,2250.648,216.073,-102.45,326.562,1156.788,315.049,113.43,29.667,31.869,606.665,191.496,45.827,25.761,15.312,115.222,45.435,0.322,5.578,2.476,56.024,15.203,-0.147,2.399,0.383,30.183,8.546,1.175,-0.01,-2.385],[7011.972,3605.349,503.466,673.263,3.635,1392.713,503.517,160.513,27.562,15.665,665.455,338.632,65.646,24.813,-8.125,130.421,68.933,14.285,3.036,5.023,68.849,29.041,7.616,-1.214,2.171,32.747,15.655,4.672,-0.308,-3.225]]
}