{
"KTrans": [[3.352,7.707,4.017,6.412,4.017,25.717,13.361,11.578,9.616,10.4,37.82,24.309,15.036,18.009,12.538,96.68,85.981,82.686,68.906,68.862,3.294,52.651,86.82,138.944,112.173,211.077,140.969,200.343,142.421,118.831],[-12.191,14.418,8.038,6.427,3.672,0.257,13.828,10.112,7.406,8.369,0.743,21.304,18.083,11.857,10.832,18.255,72.495,57.776,49.174,38.86,29.98,-5.185,86.019,82.595,69.17,129.964,145.63,-26.409,61.417,120.487],[-42.943,11.114,9.162,6.974,6.409,-54.779,20.882,13.203,9.047,10.215,-42.555,32.45,17.359,13.497,12.142,-13.15,27.805,79.759,45.714,32.592,19.054,72.71,79.545,84.994,62.016,45.856,39.89,79.603,50.559,112.22],[-70.13,23.45,9.779,8.743,9.052,-73.203,28.438,20.012,11.797,9.709,-77.715,26.326,21.236,12.419,13.351,-62.529,-12.592,107.241,42.664,37.539,-18.988,10.817,39.245,89.553,67.732,24.816,50.689,51.686,117.265,27.507],[-85.315,-4.672,24.85,8.294,10.624,-80.835,13.638,26.42,17.99,12.445,-78.978,11.116,24.117,19.584,14.574,-69.866,-0.005,51.714,65.08,39.021,-57.309,4.746,13.295,24.849,75.256,-8.325,11.477,24.547,2.596,6.706],[-86.148,-25.719,18.535,13.582,9.618,-85.523,-11.843,29.501,18.257,14.536,-85.754,-11.763,23.859,27.257,20.117,-73.942,-17.461,42.245,60.315,54.469,-67.731,-13.544,1.101,35.091,71.721,-23.527,23.831,11.606,11.588,26.981]],
"ve": [[-12.843,2.459,5.727,-14.503,17.331,7.264,3.737,3.006,10.414,11.652,9.132,5.034,5.618,-3.706,-2.915,46.303,16.955,1.115,-7.27,-16.566,112.327,30.918,9.446,-33.095,-16.822,197.628,77.472,32.523,-28.991,-6.772],[4.552,-0.529,-1.193,-1.634,-0.576,9.836,2.529,-0.381,-0.109,-0.239,13.146,3.635,1.238,-0.277,-0.342,48.425,22.753,13.312,8.664,4.507,100.038,49.68,22.053,21.459,11.725,206.124,97.621,65.136,39.247,26.903],[4.048,0.278,-0.24,-0.575,-0.876,3.299,0.347,0.785,0.393,-0.716,20.758,3.148,1.358,1.882,0.426,21.714,7.893,16.042,10.71,7.718,99.441,37.426,30.978,22.794,16.17,205.315,101.105,64.863,49.826,35.849],[3.761,2.604,-0.053,-0.844,-1.045,-0.635,3.443,0.341,0.117,-0.272,11.855,4.597,2.252,0.955,0.829,51.346,26.631,16.674,10.803,7.902,102.553,47.927,32.547,24.059,17.51,201.112,99.479,64.621,51,38.404],[8.008,-0.046,0.036,-0.882,-0.726,3.135,2.696,1.402,0.341,-0.073,-10.122,6.972,3.077,1.577,1.051,42.843,23.478,16.054,11.575,9.226,102.485,50.108,32.468,24.191,18.399,193.543,104.623,64.159,49.1,38.323],[5.511,0.9,-0.67,-0.391,-0.802,7.769,7.086,1.398,0.644,0.74,9.59,2.588,2.781,1.483,1.365,48.944,25.202,16.016,11.276,9.583,107.327,47.591,32.109,25.029,18.244,205.373,99.432,65.267,48.596,39.859]],
"kep": [[1.811,9.954,6.597,11.928,11.595,23.646,14.521,15.981,15.577,23.032,32.194,26.664,19.72,29.703,23.268,41.779,59.87,82.589,88.069,109.755,-24.44,22.862,67.136,157.586,143.76,36.684,64.514,146.081,139.033,141.684],[-13.335,15.899,9.99,8.683,4.797,-6.791,11.488,11.025,7.915,9.108,-10.207,17.362,17.301,12.627,11.55,-16.459,38.233,39.311,37.269,33.019,-25.103,-27.77,40.926,51.278,51.032,-12.044,35.024,-37.87,20.05,73.676],[-48.201,10.997,9.541,7.761,7.585,-58.903,21.076,12.383,8.838,11.167,-49.398,28.262,16.037,11.601,11.803,-39.822,2.437,53.224,31.221,23.072,-35.838,19.049,37.109,48.788,38.927,-43.712,-18.649,17.76,7.903,56.29],[-72.385,19.906,9.924,9.838,10.311,-76.095,24.067,19.686,11.792,10.186,-79.59,20.422,18.587,11.556,12.571,-71.864,-27.523,74.345,28.211,27.28,-55.414,-20.254,8.383,50.619,41.741,-52.864,-15.323,-0.56,47.441,-1.843],[-85.012,-6.093,24.171,9.299,11.485,-81.932,9.877,24.604,17.513,12.563,-81.214,4.24,19.997,17.64,13.432,-77.762,-17.863,29.593,46.611,26.865,-75.498,-25.097,-10.554,2.69,45.824,-64.809,-37.225,-17.454,-21.394,-15.669],[-86.366,-27.863,18.326,13.784,10.468,-86.007,-16.903,26.379,17.303,13.673,-86.439,-17.746,19.91,25.146,18.418,-80.848,-32.828,21.162,41.792,39.931,-81.867,-37.887,-20.384,9.336,42.635,-70.55,-32.287,-25.969,-18.592,-3.095]],
"vp": [[607.476,184.04,-13.159,605.388,10.902,66.358,-0.604,64.127,4.254,-45.414,-9.129,33.483,-25.216,32.623,8.038,-27.405,-7.923,-2.478,-12.741,-2.768,-19.496,-33.754,-19.263,-37.792,-19.337,-27.056,-27.162,-44.577,-43.424,-36.981],[3693.426,1029.838,995.298,711.308,1097.575,702.201,217.213,199.444,139.761,124.228,345.883,48.67,43.848,41.852,87.371,22.001,-6.933,-9.685,17.647,11.132,3.54,-3.714,-3.839,-12.262,-28.815,-11.66,-29.567,-5.13,-18.656,-45.269],[5191.296,2971.25,986.939,1718.123,1521.188,1227.542,512.262,382.706,285.711,200.831,575.575,189.631,91.538,176.357,158.749,74.662,35.041,27.983,17.39,10.939,-3.031,-30.069,-18.202,-14.142,-25.239,-3.837,-18.144,-14.451,-4.175,-22.405],[6162.623,5808.597,1793.156,1243.732,1551.893,1439.405,1042.324,330.36,246.432,329.044,650.709,349.875,199.95,112.819,157.366,93.098,94.868,64.264,13.072,-0.342,29.052,10.545,2.833,-14.366,-8.85,4.958,-12.552,-30.949,-39.691,-0.781],[6885.61,6592.076,3747.151,2480.543,2000.795,1318.283,1470.338,702.218,471.576,466.836,694.993,605.947,237.264,214.464,230.018,87.197,103.457,42.101,8.451,26.51,37.466,23.865,22.191,14.774,-4.049,-24.431,14.67,-21.343,-4.706,-15.405],[6475.541,9983.748,4966.596,3920.782,2058.005,1499.798,1843.219,1209.401,539.936,516.569,564.998,826.917,325.018,316.717,239.124,115.914,136.846,64.525,31.897,64.491,70.513,44.772,37.398,38.219,-6.696,-4.527,-21.582,4.052,-23.326,-1.386]]
}