{
"KTrans": [[-7.683,2.408,1.684,4.982,2.49,13.681,10.563,10.531,13.558,4.776,21.913,18.505,16.614,11.682,13.397,148.023,102.209,74.201,66.999,62.738,348.151,233.241,189.005,153.74,144.138,1023.321,608.442,440.932,397.064,367.656],[-43.587,-0.609,2.275,2.463,1.025,-38.022,15.266,6.423,8.315,8.689,-37.74,13.622,14.978,11.814,13.293,27.556,78.851,48.925,39.447,29.942,140.403,147.296,104.225,83.394,70.101,473.827,356.705,235.004,188.183,154.665],[-68.263,4.674,6.686,6.016,3.328,-69.863,11.693,14.28,9.449,2.773,-58.241,26.819,17.874,17.912,7.617,-21.463,64.691,47.649,37.338,34.015,34.229,151.803,95.42,73.387,63.873,195.188,329.37,220.32,162.756,132.401],[-76.432,-6.968,21.927,9.506,4.371,-80.963,-9.5,18.432,11.206,8.848,-71.64,-4.48,14.532,19.033,15.607,-56.426,43.387,40.04,35.807,31.721,-11.111,99.682,92.547,66.032,65.839,87.83,264.023,216.574,152.129,121.957],[-85.663,-18.022,10.569,-1.286,8.327,-85.213,-18.859,12.259,15.494,16.611,-83.166,-14.227,5.673,17.025,20.722,-58.973,21.717,48.935,38.541,28.504,-28.122,69.572,101.769,76.522,60.573,4.71,195.638,211.992,155.957,117.434],[-89.681,-43.644,17.31,16.984,18.387,-88.934,-34.027,4.047,22.464,10.592,-84.253,-31.765,19.147,19.576,12.046,-73.193,-2.671,48.182,44.842,40.292,-51.362,36.024,95.473,69.03,56.545,-11.68,162.619,204.489,168.637,127.334]],
"ve": [[20.107,8.02,23.741,-99.399,51.942,21.786,10.245,19.486,4.678,3.494,17.313,14.351,13.484,12.02,16.554,54.659,16.542,3.333,-5.297,-15.392,101.278,33.162,10.242,-4.771,-15.784,197.625,79.742,37.458,12.241,-5.585],[5.112,1.993,2.558,1.082,1.76,27.824,4.183,2.51,2.841,2.058,24.374,5.304,5.075,2.868,3.183,47.925,27.489,16.344,9.194,6.111,102.96,48.891,29.936,20.075,13.139,169.836,97.31,61.988,41.983,28.825],[-14.148,2.294,1.65,0.908,0.915,0.379,3.279,2.498,1.519,1.88,15.402,8.14,3.032,3.337,1.298,50.217,26.779,16.664,11.253,9.898,107.366,51.699,32.951,23.375,17.128,205.549,100.582,65.053,47.126,36.122],[2.612,1.317,1.373,0.221,-0.015,7.616,5.835,2.441,0.914,1.946,17.307,3.041,3.743,3.774,2.55,48.058,26.054,17.232,11.662,9.628,109.941,54.391,33,23.464,19.72,229.857,98.68,65.849,48.292,38.236],[103.506,1.935,0.394,-0.64,0.569,8.421,13.607,2.37,1.858,2.074,7.239,8.654,2.881,3.32,2.401,71.434,25.606,17.85,12.312,9.086,105.393,40.347,33.593,24.787,18.877,78.771,103.024,65.643,48.851,38.493],[4.592,1.832,2.269,0.563,1.15,16.008,2.837,1.722,2.793,1.039,16.956,6.183,4.629,2.987,1.55,80.707,28.582,17.625,12.238,10.008,106.584,52.385,34.011,24.472,19.612,205.438,98.953,67.172,49.862,39.364]],
"kep": [[-13.857,0.976,-0.055,8.599,2.491,-2.054,5.857,11.27,21.548,3.809,3.435,13.421,20.471,17.242,21.55,65.783,77.177,74.181,85.608,100.653,125.329,153.005,165.929,169.855,194.974,279.901,295.57,294.953,344.992,397.484],[-48.617,-2.86,-0.087,1.643,-0.159,-45.095,10.548,4.023,5.703,7.361,-46.969,8.182,9.35,8.87,10.353,-17.804,40.481,27.942,27.828,22.664,18.613,65.825,57.027,52.486,50.346,88.287,131.129,106.964,102.933,97.531],[-71.203,1.502,4.366,4.661,2.149,-74.439,7.568,10.988,7.468,0.572,-66.506,16.323,13.909,13.681,5.922,-51.058,28.753,26.018,22.979,21.698,-36.013,64.478,46.709,40.135,39.595,-2.674,113.551,93.529,78.044,70.332],[-79.253,-8.803,19.047,8.35,3.913,-83.881,-14.469,13.784,9.211,6.207,-76.855,-12.309,9.233,13.716,12.094,-72.996,12.865,18.424,20.743,19.497,-57.535,30.398,43.943,33.475,37.818,-38.928,81.455,89.723,69.105,59.885],[-87.908,-20.344,8.808,-1.354,6.862,-87.457,-24.272,8.374,12.325,13.351,-86.296,-20.518,1.812,12.449,16.751,-74.428,-4.346,25.375,22.209,16.991,-65.427,11.203,49.896,40.102,34.205,-66.338,45.324,86.624,70.623,55.885],[-90.921,-44.81,12.391,14.989,15.95,-91.016,-37.442,1.384,18.105,8.451,-87.553,-36.867,12.205,14.71,9.296,-83.687,-24.41,24.799,27.711,26.217,-76.537,-9.975,44.18,34.527,29.755,-72.292,29.992,80.514,78.136,62.182]],
"vp": [[0.001,0.001,0.001,0.001,0.001,0.005,0.005,0.005,0.005,0.005,0.01,0.01,0.01,0.01,0.01,0.05,0.05,0.05,0.05,0.05,0.1,0.1,0.1,0.1,0.1,0.2,0.2,0.2,0.2,0.2],[0.001,0.001,0.001,0.001,0.001,0.005,0.005,0.005,0.005,0.005,0.01,0.01,0.01,0.01,0.01,0.05,0.05,0.05,0.05,0.05,0.1,0.1,0.1,0.1,0.1,0.2,0.2,0.2,0.2,0.2],[0.001,0.001,0.001,0.001,0.001,0.005,0.005,0.005,0.005,0.005,0.01,0.01,0.01,0.01,0.01,0.05,0.05,0.05,0.05,0.05,0.1,0.1,0.1,0.1,0.1,0.2,0.2,0.2,0.2,0.2],[0.001,0.001,0.001,0.001,0.001,0.005,0.005,0.005,0.005,0.005,0.01,0.01,0.01,0.01,0.01,0.05,0.05,0.05,0.05,0.05,0.1,0.1,0.1,0.1,0.1,0.2,0.2,0.2,0.2,0.2],[0.001,0.001,0.001,0.001,0.001,0.005,0.005,0.005,0.005,0.005,0.01,0.01,0.01,0.01,0.01,0.05,0.05,0.05,0.05,0.05,0.1,0.1,0.1,0.1,0.1,0.2,0.2,0.2,0.2,0.2],[0.001,0.001,0.001,0.001,0.001,0.005,0.005,0.005,0.005,0.005,0.01,0.01,0.01,0.01,0.01,0.05,0.05,0.05,0.05,0.05,0.1,0.1,0.1,0.1,0.1,0.2,0.2,0.2,0.2,0.2]]
}