{
"KTrans": [[-1.636,6.232,6.754,6.642,8.945,10.605,14.825,9.847,11.332,10.199,22.415,21.299,21.313,18.232,16.143,144.045,93.522,79.764,66.836,69.704,265.19,198.235,163.878,146.539,140.565,59.552,380.378,371.145,353.228,323.923],[-24.487,-7.927,-0.816,2.652,4.627,-20.584,0.906,4.857,5.333,7.559,-7.677,8.554,6.914,10.083,9.211,49.647,48.788,38.96,35.846,32.208,20.677,113.847,86.553,75.68,67.763,30.054,239.717,192.874,163.229,143.099],[-42.319,-7.211,-4.896,-2.261,2.329,-40.83,-8.969,-1.132,-1.152,2.587,-30.461,-5.6,0.219,2.589,4.484,-5.343,28.197,25.946,24.615,23.314,37.035,101.741,63.832,58.231,45.846,-53.088,116.542,145.169,125.98,109.107],[-56.196,-17.018,-9.146,-2.98,-2.323,-54.066,-16.04,-6.521,-2.984,0.796,-50.793,-10.135,-2.774,1.128,0.172,-27.072,19.946,18.801,17.72,17.036,-13.887,91.841,48.1,45.766,42.017,-93.49,85.484,119.941,118.237,84.73],[-66.978,-28.411,-13.206,-9.9,-5.252,-65.498,-19.846,-10.898,-8.472,-4.925,-57.199,-17.297,-7.962,-6.135,-2.523,-45.762,12.398,15.724,14.311,13.081,-70.884,36.501,43.397,36.044,36.377,-77.456,1.202,123.765,95.79,77.517],[-73.926,-28.047,-17.612,-14.3,-10.379,-74.988,-27.456,-16.034,-9.929,-8.278,-72.201,-21.271,-14.283,-9.393,-5.227,-55.115,0.007,5.532,8.202,8.862,-82.162,41.329,37.676,34.069,28.301,-76.318,-33.879,115.071,101.478,74.052]],
"ve": [[21.172,23.201,-7.212,39.031,23.715,64.133,18.473,91.561,-7.974,-33.383,-7049.14,-9.767,16.437,48.189,-137.957,47.941,18.698,5.011,5.34,-6.735,93.376,36.452,14.798,-0.481,-12.323,188.533,96.471,39.783,15.894,-0.79],[1.929,-1.683,2.513,1.556,4.281,5.393,2.894,2.109,2.839,3.748,13.844,4.106,4.518,4.582,5.308,50.766,22.73,13.699,11.032,9.4,94.102,46.879,29.746,20.837,14.945,191.194,91.281,60.22,42.701,30.737],[14.956,-1.278,0.156,-0.346,0.223,15.231,-1.252,0.455,0.14,1.464,12.139,3.202,2.129,1.829,2.319,48.788,22.622,14.64,10.995,8.444,106.078,48.852,30.044,22.587,16.756,192.018,628.012,61.124,44.937,35.914],[3.184,-0.523,-0.649,-1.167,-0.859,5.973,0.308,-0.862,-0.892,-0.307,9.662,2.829,0.55,1.551,1.056,50.597,19.457,13.758,10.563,8.066,88.127,48.952,30.235,22.454,16.804,193.895,94.565,61.457,46.869,35.682],[7.237,-1.832,-2.092,-1.655,-1.567,5.827,0.882,-0.408,-1.081,-0.655,12.552,3.594,0.509,0.702,-0.051,54.428,22.019,14.307,10.659,7.697,97.583,47.649,29.431,21.863,17.434,173.258,-4.096,62.572,46.114,34.992],[-2.29,-2.366,-2.501,-1.511,-2.114,9.89,0.303,-0.912,-1.204,-0.983,13.925,2.824,1.335,-0.216,0.454,54.191,23.156,13.196,9.675,7.878,95.253,48.964,29.308,21.608,16.868,193.914,94.682,63.252,47.305,36.853]],
"kep": [[-26.78,-22.626,-25.701,-29.216,-29.918,-18.325,-10.95,-22.001,-22.932,-27.027,-13.344,-8.747,-5.888,-14.447,-15.734,35.095,34.417,42.294,37.245,56.116,51.014,78.362,88.087,103.435,126.606,-43.31,107.437,167.928,216.663,250.238],[-39.449,-24.239,-21.86,-18.026,-18.738,-39.804,-20.59,-17.014,-17.263,-16.032,-33.963,-15.58,-17.226,-15.116,-16.148,-20.001,-2.196,-1.503,-1.21,-2.408,-48.778,16.482,15.418,17.022,17.619,-58.928,38.076,45.764,47.842,49.271],[-55.762,-24.032,-23.609,-21.093,-17.801,-55.424,-25.608,-20.722,-20.52,-18.561,-49.942,-26.438,-20.989,-18.851,-17.856,-49.939,-15.781,-11.581,-9.616,-8.532,-43.777,7.611,1.076,3.571,0.36,-82.731,-12.091,20.586,24.671,23.18],[-66.474,-32.883,-26.364,-20.999,-20.787,-65.57,-32.394,-24.095,-21.171,-18.645,-64.293,-29.368,-22.194,-19.865,-20.276,-61.172,-19.426,-16.072,-14.363,-12.975,-64.26,2.093,-8.956,-4.504,-2.463,-93.826,-24.11,7.466,18.139,8.876],[-75.257,-41.238,-28.627,-26.303,-22.606,-74.046,-36.144,-28.048,-25.586,-23.033,-70.105,-35.644,-26.291,-24.945,-21.585,-71.032,-25.766,-18.685,-17.066,-15.694,-86.863,-25.401,-11.582,-10.515,-6.818,-90.247,-57.149,8.546,6.592,5.026],[-80.274,-40.499,-31.947,-30.059,-26.434,-81.796,-41.822,-31.824,-26.699,-25.538,-80.615,-38.287,-31.958,-26.991,-24.165,-76.258,-35.056,-25.266,-20.78,-18.957,-90.716,-24.386,-15.067,-11.861,-12.078,-91.009,-70.084,3.582,8.088,1.407]],
"vp": [[-366.063,725.3,378.203,-149.435,522.62,8.202,57.859,-36.228,71.797,30.155,26.603,12.434,54.7,81.455,21.671,-3.333,-14.003,-10.552,6.991,12.378,-10.632,-8.498,-1.348,-14.174,-4.446,-5.18,2.561,11.318,-1.985,-9.483],[2508.372,905.845,150.107,-825.756,-198.068,593.985,190.568,1.033,-1.465,-28.912,277.537,112.336,-41.135,-53.088,-39.206,42.196,6.564,-13.129,-12.676,6.064,26.14,5.172,-3.34,2.296,2.759,-10.053,-16.862,-7.71,1.307,5.542],[4701.348,3189.907,2158.631,101.907,70.183,1018.244,425.837,347.061,75.111,19.615,477.315,263.179,174.108,22.752,-8.96,84.251,47.318,14.681,4.091,-10.701,27.115,41.437,11.476,2.097,-27.148,14.748,-5.764,-20.942,-5.182,0.433],[5672.047,5725.595,2916.161,1827.419,495.902,1124.451,1062.721,430.185,295.351,277.546,579.86,513.354,248.025,194.426,120.463,99.836,81.421,42.432,28.634,5.495,38.935,65.268,14.517,2.088,-3.23,22.384,0.477,-16.707,0.485,-22.272],[6972.188,6774.41,4235.685,2726.718,1624.848,1239.342,1520.589,538.531,218.202,275.236,727.921,699.39,471.21,195.972,193.741,133.357,126.617,62.838,59.529,13.204,59.1,42.858,24.917,10.774,29.052,14.862,19.672,5.095,-4.821,-20.14],[7653.058,8367.221,4811.369,2946.557,1763.683,1609.439,1674.495,1047.669,658.291,362.874,775.342,823.534,583.11,233.475,247.907,134.959,178.091,79.467,45.421,32.182,63.239,82.144,43.438,33.807,9.301,25.865,22.471,18.741,14.644,-0.579]]
}