{
"KTrans": [[1.522,0.595,0.909,1.035,1.685,12.966,9.437,6.035,5.493,5.839,31.194,16.542,13.2,10.877,10.305,168.711,96.57,75.118,67.593,59.909,402.555,225.604,176.743,155.404,142.637,1133.767,592.855,457.438,395.222,363.497],[0.13,1.402,1.262,1.405,0.682,5.393,6.894,3.937,3.072,2.527,20.061,12.022,8.461,7.149,5.357,131.873,65.901,45.793,36.389,31.079,320.671,147.315,98.986,77.353,66.806,890.114,361.304,233.414,180.723,152.148],[1.303,0.592,0.676,1.263,0.984,2.569,4.909,4.296,3.249,2.923,13.29,12.076,8.386,6.452,4.515,109.52,63.253,41.147,32.453,26.436,294.812,134.025,88.935,68.074,55.323,814.119,332.399,207.493,152.249,124.047],[-13.589,2.005,0.962,1.053,0.787,-3.567,4.505,4.159,3.73,2.837,1.331,10.853,6.649,6.36,5.003,104.479,61.222,38.372,31.279,24.662,257.853,136.312,83.901,62.855,51.49,714.577,327.544,197.816,142.914,113.825],[-24.078,1.27,1.332,1.176,0.831,-18.872,6.537,3.686,3.363,2.21,-6.335,12.256,7.59,5.511,5.094,78.18,59.192,37.585,29.957,23.713,206.264,130.981,86.279,62.836,49.345,633.746,326.107,196.899,138.89,107.958],[-30.079,-1.503,1.776,0.601,1.464,-25.584,6.23,5.173,3.26,3.058,-24.86,8.667,7.614,6.136,5.403,49.668,57.615,39.756,28.245,24.235,184.005,137.311,83.759,62.151,48.566,502.359,325.115,192.761,137.688,106.008]],
"ve": [[1.308,0.942,1.092,0.057,-0.742,4.747,0.939,0.266,-1.723,-2.162,9.584,2.167,-1.439,-2.898,-5.355,45.651,13.482,-1.402,-11.619,-18.138,93.605,32.809,8.168,-7.701,-18.905,190.579,79.233,35.296,9.977,-6.309],[1.508,0.352,0.137,0.33,-0.013,6.245,2.455,1.285,1.117,0.407,10.047,4.438,2.831,1.805,1.129,50.164,24.069,14.096,9.251,5.36,100.053,47.35,29.866,18.995,12.218,199.381,97.062,60.824,41.403,28.811],[1.019,0.355,0.214,0.144,0.102,5.603,2.702,1.535,1.042,0.7,11.202,5.275,3.256,2.382,1.594,50.94,24.461,15.698,11.112,8.288,100.658,49.321,31.907,23.098,17.375,199.291,99.23,64.624,46.796,35.599],[2.192,0.534,0.442,0.211,0.193,5.606,2.723,1.641,1.261,0.827,9.988,5.298,3.165,2.356,1.649,51.357,24.706,16.261,11.871,9.11,99.994,49.682,32.974,24.025,18.687,200.277,99.723,65.399,48.218,37.828],[-0.258,0.705,0.296,0.303,0.275,6.219,2.259,1.745,1.173,0.776,11.931,5.41,3.457,2.352,1.972,50.133,25.009,16.53,11.961,9.258,101.725,50.107,32.925,24.364,19.199,201.488,99.543,66.107,49.044,38.704],[1.272,0.653,0.433,0.277,0.169,6.293,2.826,1.563,1.188,0.843,13.186,5.364,3.38,2.286,1.923,50.917,25.426,16.388,12.117,9.537,101.049,49.758,32.842,24.499,19.451,200.771,100.03,66.327,49.383,39.293]],
"kep": [[0.614,0.26,0.698,2.073,4.186,8.405,9.137,6.554,8.598,9.963,20.175,14.506,15.655,15.272,17.869,84.964,73.647,78.006,90.33,95.942,159.83,145.417,156.2,177.051,199.669,324.924,286.744,312.194,350.476,394.926],[-1.239,1.163,1.165,1.122,0.761,-0.672,4.376,2.689,2.003,2.18,9.405,7.347,5.536,5.293,4.232,54.6,33.781,27.827,24.892,24.462,110.448,67.929,53.261,49.083,48.685,230.741,134.151,107.322,98.566,95.784],[0.405,0.255,0.507,1.13,0.904,-2.67,2.225,2.745,2.208,2.225,2.097,6.534,4.997,4.002,2.901,38.842,31.231,22.032,19.226,16.782,96.867,56.792,43.275,36.563,32.346,205.774,117.045,86.79,71.859,65.244],[-15.345,1.518,0.548,0.854,0.607,-8.572,1.778,2.507,2.447,2.003,-7.816,5.307,3.405,3.93,3.315,35.223,29.339,19.04,17.361,14.268,79.396,57.922,38.327,31.322,27.648,171.468,114.058,80.077,63.907,55.15],[-25.191,0.65,1.039,0.883,0.566,-23.435,4.259,1.929,2.183,1.431,-16.28,6.562,4.008,3.093,3.074,18.827,27.392,18.088,16.093,13.246,51.984,53.962,40.162,30.957,25.293,143.575,113.558,78.751,60.288,49.937],[-31.339,-2.129,1.368,0.324,1.305,-29.729,3.369,3.565,2.06,2.203,-32.888,3.201,4.116,3.769,3.43,-0.956,25.7,20.109,14.393,13.422,41.093,58.505,38.354,30.252,24.383,100.105,112.53,76.034,59.129,47.902]],
"vp": [[18.292,26.228,86.313,63.672,61.058,28.282,4.409,23.849,4.995,7.69,26.394,20.265,22.279,19.822,13.315,19.368,13.811,15.552,12.299,10.4,16.198,13.999,13.746,12.407,12.701,13.936,14.101,13.907,12.894,12.663],[706.994,-77.095,117.354,94.375,110.262,120.424,36.426,7.273,9.886,2.969,69.618,14.523,19.541,16.957,8.296,32.118,16.837,14.361,16.627,11.457,25.845,15.819,16.677,14.09,14.222,24.811,16.924,15.668,14.907,14.349],[1896.682,183.768,-9.948,4.486,81.019,351.158,62.493,17.086,7.872,-4.827,204.42,33.26,19.479,27.91,14.538,47.795,25.623,16.674,16.038,15.858,41.308,20.634,17.987,17.076,15.956,30.477,21.796,18.006,13.8,15.97],[3258.12,484.077,65.608,95.834,8.462,619.198,102.94,27.724,21.567,-13.347,330.458,44.651,22.052,28.188,19.914,84.705,27.356,18.364,17.202,14.531,52.698,24.629,19.707,17.413,15.318,36.411,23.22,20.049,17.268,15.503],[4235.853,615.625,265.969,-4.599,30.815,927.573,119.857,48.71,9.576,34.53,454.085,91.46,46.557,24.922,12.887,109.339,30.988,20.097,19.697,15.089,65.667,29.576,21.462,19.099,17.265,45.712,27.117,20.684,20.048,17.356],[5675.865,1172.379,253.702,158.305,30.063,1143.095,244.785,26.63,52.338,2.58,559.2,138.847,39.744,27.692,17.483,134.293,46.616,25.358,19.45,19.818,76.962,37.047,21.761,21.112,18.204,48.673,32.873,21.898,23.573,18.028]]
}