{
"KTrans": [[2.076,1.259,1.045,0.786,1.376,14.383,9.557,6.339,5.535,4.756,26.511,15.431,12.179,10.866,10.781,158.026,93.778,74.887,65.05,59.96,400.289,226.695,176.396,154.423,140.553,1117.537,588.377,454.094,393.048,362.186],[-0.218,1.233,1.248,0.572,0.784,10.391,6.072,4.011,3.697,3.237,20.972,12.164,7.401,7.356,5.605,135.073,64.306,46.154,36.185,30.741,314.331,146.179,97.904,78.279,65.754,834.833,357.435,231.768,180.265,150.736],[-5.49,0.028,0.721,0.373,0.305,4.93,5.292,4.099,2.27,2.64,13.434,10.091,7.247,5.823,4.961,106.604,61.415,41.467,31.415,25.696,277.631,133.283,88.286,66.893,55.052,784,324.852,203.004,151.422,122.089],[-10.54,0.637,0.232,0.628,0.606,-2.465,4.487,4.061,2.554,2.014,5.391,9.884,7.522,5.052,4.864,106.966,57.973,38.771,29.221,24.561,269.298,127.178,84.994,62.855,50.826,696.94,317.256,194.659,142.948,112.492],[-16.343,-0.252,1.668,0.715,0.258,-12.426,3.511,2.718,2.557,2.009,-1.143,9.46,6.999,5.818,4.938,83.427,56.459,38.492,28.898,23.641,231.139,132.448,82.868,61.206,48.661,625.339,316.443,187.697,136.497,108.08],[-28.01,-1.002,-0.534,0.551,0.662,-19.955,0.629,3.48,2.444,2.061,-11.323,8.761,7.338,5.508,4.361,51.877,53.357,36.699,27.866,22.033,205.869,124.089,81.161,60.64,47.806,575.418,301.441,183.711,134.057,105.881]],
"ve": [[1.349,0.433,0.855,0.912,-0.311,3.958,0.402,-0.861,-1.42,-2.202,8.163,2.22,-1.39,-4.199,-6.037,45.175,13.787,-1.118,-10.483,-18.017,93.423,32.877,7.999,-7.43,-18.449,191.908,79.022,34.955,10.306,-6.422],[1.474,0.636,0.467,0.397,-0.109,5.1,2.451,1.657,0.668,0.381,10.237,4.613,2.8,1.521,1.029,49.834,23.751,14.354,9.222,5.657,99.097,47.861,29.366,19.42,12.607,199.533,96.556,60.72,41.192,28.719],[2.021,0.272,0.114,0.285,0.14,5.372,2.174,1.711,1.145,0.913,10.339,5.241,3.054,2.402,1.553,50.123,24.394,15.819,11.502,8.342,100.194,49.569,32.023,23.099,17.324,200.146,98.685,64.687,46.726,35.672],[1.255,1.137,0.349,0.248,0.047,6.267,2.074,1.82,1,0.934,10.411,5.058,3.136,2.389,1.661,50.714,25.062,16.436,11.813,9.149,99.673,49.937,32.715,24.005,18.732,200.739,99.549,65.498,48.321,37.705],[1.702,0.723,0.662,0.448,0.218,6.307,2.104,2.058,1.165,0.959,11.833,4.971,3.354,2.478,1.781,50.426,25.085,16.755,12.038,9.611,101.026,49.894,33.014,24.315,19.111,199.385,99.631,66.172,49.2,38.663],[2.065,0.599,0.624,0.281,0.281,6.174,2.55,1.698,1.436,0.94,10.811,4.919,3.157,2.529,1.948,51.741,25.132,16.482,12.238,9.66,100.886,49.898,33.052,24.492,19.403,200.168,99.779,66.345,49.332,39.039]],
"kep": [[1.205,1.269,0.995,0.972,2.8,10.485,9.418,8.055,7.92,8.324,17.14,13.356,14.345,16.779,18.714,78.069,70.489,77.208,84.795,95.808,158.852,146.055,156.161,175.089,195.294,317.293,284.713,310.778,347.258,394.128],[-1.623,0.679,0.827,0.223,0.956,5.17,3.553,2.362,3.046,2.885,9.967,7.254,4.513,5.788,4.575,57.197,32.852,27.852,24.729,23.78,108.301,66.58,53.028,49.307,47.232,212.323,132.785,106.467,98.525,94.817],[-7.331,-0.198,0.634,0.112,0.185,-0.436,3.118,2.368,1.128,1.732,2.851,4.639,4.102,3.361,3.373,37.734,29.836,22.168,17.875,16.033,88.586,56.024,42.635,35.588,32.169,194.805,113.869,84.002,71.37,63.702],[-11.554,-0.456,-0.097,0.387,0.57,-8.122,2.393,2.216,1.55,1.077,-4.323,4.639,4.268,2.609,3.159,37.409,26.309,19.21,15.572,14.129,85.098,51.55,39.407,31.339,27.045,165.073,109.143,78.068,63.81,54.314],[-17.699,-0.887,1.033,0.284,0.048,-17.374,1.424,0.671,1.384,1.047,-11.307,4.337,3.552,3.269,3.107,21.992,25.112,18.64,15.052,12.805,64.944,55.1,37.5,29.686,24.815,141.975,108.636,73.137,58.517,50.067],[-29.418,-1.559,-1.141,0.273,0.388,-24.031,-1.881,1.768,1.002,1.121,-19.86,3.703,4.081,2.916,2.368,0.246,22.6,17.375,13.935,11.289,52.37,49.551,36.177,29.053,23.794,124.703,100.959,70.573,56.746,48.08]],
"vp": [[0.001,0.001,0.001,0.001,0.001,0.005,0.005,0.005,0.005,0.005,0.01,0.01,0.01,0.01,0.01,0.05,0.05,0.05,0.05,0.05,0.1,0.1,0.1,0.1,0.1,0.2,0.2,0.2,0.2,0.2],[0.001,0.001,0.001,0.001,0.001,0.005,0.005,0.005,0.005,0.005,0.01,0.01,0.01,0.01,0.01,0.05,0.05,0.05,0.05,0.05,0.1,0.1,0.1,0.1,0.1,0.2,0.2,0.2,0.2,0.2],[0.001,0.001,0.001,0.001,0.001,0.005,0.005,0.005,0.005,0.005,0.01,0.01,0.01,0.01,0.01,0.05,0.05,0.05,0.05,0.05,0.1,0.1,0.1,0.1,0.1,0.2,0.2,0.2,0.2,0.2],[0.001,0.001,0.001,0.001,0.001,0.005,0.005,0.005,0.005,0.005,0.01,0.01,0.01,0.01,0.01,0.05,0.05,0.05,0.05,0.05,0.1,0.1,0.1,0.1,0.1,0.2,0.2,0.2,0.2,0.2],[0.001,0.001,0.001,0.001,0.001,0.005,0.005,0.005,0.005,0.005,0.01,0.01,0.01,0.01,0.01,0.05,0.05,0.05,0.05,0.05,0.1,0.1,0.1,0.1,0.1,0.2,0.2,0.2,0.2,0.2],[0.001,0.001,0.001,0.001,0.001,0.005,0.005,0.005,0.005,0.005,0.01,0.01,0.01,0.01,0.01,0.05,0.05,0.05,0.05,0.05,0.1,0.1,0.1,0.1,0.1,0.2,0.2,0.2,0.2,0.2]]
}