{
"KTrans": [[-44.348,-54.122,-57.818,-58.964,-53.257,-20.935,-44.783,-42.108,-40.455,-35.089,8.936,-21.503,-21.596,-16.141,-18.987,69.804,-7.536,-10.017,-1.265,2.55,127.768,7.109,18.578,16.702,20.84,253.137,62.127,62.823,68.308,90.007],[-49.575,-47.692,-45.905,-48.545,-54.277,-41.272,-34.147,-20.764,-35.58,-32.656,-31.111,-17.965,-2.071,-20.008,-21.849,-17.286,0.681,25.327,-3.307,-2.184,-15.699,1.522,44.599,-3.68,-4.002,-11.182,7.894,97.986,1.1,-2.3],[-56.15,-46.185,-51.482,-50.282,-41.041,-55.839,-37.742,-32.688,-38.762,-25.45,-50.749,-27.109,-23.486,-21.971,-3.267,-42.496,0.837,0.181,1.271,15.546,-39.377,-0.421,-0.629,2.578,30.624,-41.406,-0.635,2.04,3.411,58.98],[-67.771,-45.914,-45.116,-56.105,-44.111,-66.827,-34.521,-41.031,-32.128,-42.621,-65.07,-20.747,-31.369,-15.815,-19.184,-65.166,-7.125,-1.129,-0.45,1.459,-64.263,-2.967,0.5,0.288,-0.491,-57.259,-2.737,-0.935,-0.24,0.673],[-80.196,-52.876,-40.491,-44.979,-39.647,-76.489,-39.982,-36.314,-35.398,-38.723,-78.404,-42.366,-32.139,-26.566,-21.287,-75.26,-11.219,-2.807,0.472,1.153,-75.276,-12.198,-0.914,0.138,0.088,-72.045,-14.347,0.718,0.276,-0.124],[-84.955,-53.154,-48.698,-47.63,-48.208,-83.41,-43.918,-43.827,-38.051,-36.719,-85.307,-39.731,-30.392,-32.484,-24.113,-83.421,-23.087,-2.769,0.85,0.815,-78.123,-23.278,-1.162,-0.146,-1.721,-79.309,-18.025,-3.697,-1.291,-0.459]],
"ve": [[-46.09,-129.585,-10.21,201.468,-17.659,-18.298,-16.159,35.648,-27.226,19.44,9.572,19.944,-94.958,5.295,43.383,71.669,-3.002,2.815,7.388,-48.216,125.138,2.079,21.449,1.182,11.237,250.277,71.975,15.388,77.442,82.914],[-102.358,-68.494,-47.479,-33.888,-31.327,-71.88,-48.056,-23.879,-22.888,-17.446,-40.76,-30.342,-1.399,-31.852,-11.143,-0.836,0.796,20.699,-2.293,0.056,3.283,4.432,44.824,5.132,-1.105,12.098,10.738,97.887,7.073,0.116],[-54.681,-113.673,-85.396,-63.786,-41.837,-64.048,-93.353,-54.535,-49.833,-24.578,-45.286,-65.866,-41.079,-28.54,-7.189,124.229,-3.603,0.234,-0.063,14.879,-0.602,0.364,0.174,1.792,29.247,0.312,0.481,1.72,4.204,58.582],[-67.777,-145.643,-104.806,-101.879,-61.28,-43.209,-96.767,-93.645,-55.373,-60.74,-42.479,-50.684,-68.456,-23.983,-26.933,-12.751,-2.903,-0.624,-0.301,0.362,-9.221,-1.656,0.062,-0.031,0.302,-2.481,0.466,0.114,1.032,1.021],[-22.136,-211.459,-112.929,-99.605,-71.248,-12.449,-133.569,-101.843,-76.803,-70.462,-27.355,-148.236,-89.271,-60.647,-38.949,-3.631,-10.372,-0.97,0.034,0.456,8.627,-5.402,0.566,0.074,0.241,8.481,-4.519,-0.308,0.416,0.595],[-18.952,-216.587,-166.674,-132.642,-105.947,-26.04,-147.656,-157.859,-103.259,-79.385,-81.484,-130.438,-100.771,-89.72,-52.375,-1.56,-17.176,-0.873,0.355,0.194,37.467,-9.15,-0.73,-0.077,-0.569,46.329,-7.144,-1.931,-0.461,-0.146]],
"kep": [[-138.996,8.596,-4.895,-2.874,-3.617,-131.879,5.919,-4.905,4.921,5.692,-142.132,3.474,5.825,-2.587,-8.118,-142.63,2.676,8.625,0.498,-3.835,-129.247,4.725,-3.487,-6.249,-7.075,-122.261,-13.882,-4.376,0.604,-16.247],[-20.031,-4.204,-136.309,-0.12,0.119,-22.993,-10.689,-121.42,-9.53,0.525,-23.519,-3.68,-130.484,5.904,-1.553,-25.356,-6.26,-149.215,-0.548,0.054,-24.157,-11.999,-130.662,-1.13,1.086,-23.058,-10.322,-144.48,-5.709,-2.164],[-44.44,-2.713,-1.799,-5.142,-139.113,-45.875,-1.151,-2.654,-12.23,-126.088,-41.604,-0.18,-0.237,0.427,-133.777,-43.341,0.599,-1.693,3.725,-155.179,-40.496,-1.596,-3.623,-9.991,-152.77,-41.487,-0.897,0.186,-1.568,-147.489],[-57.492,-4.188,-0.859,1.401,-2.803,-59.618,-8.006,-2.258,-2.642,1.507,-58.766,-6.48,-5.002,-5.043,0.752,-61.969,-6.343,-2.201,-1.91,2.817,-61.167,-1.928,0.724,0.554,-3.869,-60.682,-5.474,-2.055,-3.905,-3.127],[-79.178,-5.234,-3.752,-1.804,0.921,-73.623,-9.429,-2.886,-2.348,0.172,-75.13,-9.42,-2.332,-0.675,-0.437,-75.342,-10.09,-2.995,0.488,1.166,-76.735,-9.088,-1.829,-0.202,0.116,-71.063,-12.044,1.765,-0.269,-2.613],[-84.053,-11.616,-3.033,0.811,-0.097,-81.671,-14.218,-0.722,-0.802,-1.423,-84.025,-13.792,-2.947,0.007,-0.474,-84.562,-17.964,-2.755,1.005,0.566,-84.002,-18.291,-1.185,-0.031,-2.019,-84.449,-13.727,-2.267,-1.324,-0.558]],
"vp": [[-31.383,141.367,-57.991,75.222,62.271,-2.069,0.198,-36.772,-8.344,21.195,3.051,13.228,17.374,-1.261,-13.367,-1.225,1.489,-0.493,-0.426,-2.895,0.16,1.548,-0.532,0.895,-0.63,-0.026,0.643,0.089,0.366,-0.632],[922.757,91.874,-73.312,46.886,-17.553,189.594,48.686,5.789,-20.183,23.237,87.41,10.94,-1.013,-4.191,-0.414,16.799,3.206,-0.656,1.411,0.709,7.724,1.81,-0.655,-0.634,-0.721,3.224,0.62,-0.322,-0.755,-0.348],[2771.386,146.858,75.169,-10.563,36.138,468.237,8.088,-5.298,-6.587,-2.41,235.281,16.085,1.344,0.77,2.11,44.166,-4.701,-0.376,2.396,-0.379,20.117,2.386,2.141,0.154,-0.209,12.223,0.732,-0.436,0.091,-0.627],[3598.921,567.317,231.853,-225.291,41.371,780.213,129.023,23.46,14.346,-31.508,373.809,57.995,21.323,47.573,1.979,83.146,14.312,3.69,4.38,-4.045,40.24,4.864,0,0.922,2.188,19.687,1.532,1.199,0.761,0.982],[5941.728,768.295,412.774,123.524,199.418,1062.976,204.149,68.43,35.676,-17.444,539.397,90.053,44.994,6.992,-6.247,110.554,14.559,7.529,-0.382,-5.119,56.234,12.265,0.019,0.129,-1.008,24.757,6.491,0.573,-0.283,0.527],[6377.058,1466.191,466.288,34.858,45.35,1221.12,353.608,56.207,50.111,22.12,639.359,154.149,56.714,-9.732,16.199,127.523,39.39,5.839,-1.099,-0.567,62.416,20.724,2.173,0.5,3.985,32.924,8.626,3.431,1.573,0.891]]
}