{
"KTrans": [[-47.476,-69.144,-63.304,-63.215,-71.62,-35.536,-58.372,-50.149,-58.543,-54.887,-26.494,-57.386,-45.661,-51.224,-50.347,-17.278,18.404,9.263,17.282,11.15,-60.414,66.358,99.161,80.43,73.555,-3.984,109.408,106.395,169.03,209.579],[-50.818,-44.959,-58.065,-65.584,-63.176,-41.304,-41.282,-32.657,-55.135,-38.079,-47.908,-40.443,-27.571,-45.97,-42.076,-33.788,-28.295,-14.689,-15.396,-24.087,-5.93,-45.11,2.447,11.767,21.29,6.061,-37.449,-39.832,21.455,56.529],[-63.241,-38.601,-46.374,-48.628,-48.426,-57.57,-39.129,-40.195,-24.439,-36.043,-59.346,-37.606,-36.334,-38.755,-37.22,-35.48,-22.331,-4.348,-20.821,-9.899,-37.992,-28.157,-4.422,-31.557,-12.993,-41.95,-3.108,-5.876,-1.223,-1.069],[-74.841,-43.407,-47.825,-52.611,-51.884,-67.774,-58.702,-44.511,-37.277,-42.182,-68.439,-44.809,-48.459,-41.823,-42.195,-58.424,-22.313,-17.105,-17.672,-21.12,-70.811,-27.878,-3.523,2.128,-6.356,-43.338,-28.388,-1.574,-53.557,-69.096],[-80.707,-57.599,-47.783,-46.562,-52.878,-77.849,-54.077,-41.666,-39.212,-41.238,-74.625,-51.615,-48.094,-32.867,-38.518,-68.178,-31.241,-32.746,-25.198,-30.072,-76.041,-36.82,-6.86,4.608,8.821,-39.071,-49.297,-42.091,-6.02,-48.502],[-83.135,-58.313,-45.096,-47.456,-31.677,-82.803,-56.475,-48.772,-43.158,-39.668,-81.32,-53.917,-42.914,-42.498,-35.501,-82.208,-47.2,-27.079,-34.892,-29.891,-85.315,-51.206,-24.542,-2.979,-14.921,-89.641,-51.424,-58.341,5.473,-17.974]],
"ve": [[-48.477,-31.069,-79.432,-25.152,-19.744,-35.326,-2.279,46.728,-186.06,-44.605,-24.955,-83.967,23.171,226.646,-261.169,6.461,22.932,-85.283,-123.096,98.849,-2.146,0.403,106.237,49.955,88.006,56.797,115.678,19.607,4.55,-43.888],[-59.81,-55.27,-90.376,-40.286,-37.647,-37.344,-60.043,594.525,-37.132,-31.193,-59.928,-67.928,-22.625,-31.701,77.709,-39.293,-25.375,-3.653,-36.545,-15.015,84.48,2.158,1.099,14.325,13.264,57.864,-13.312,-6.23,42.379,-4.667],[-42.044,-80.787,-79.023,-71.43,-50.256,-51.658,-82.833,-65.959,-27.61,-46.837,-65.606,-78.206,-55.245,-199.946,-35.828,-6.314,-47.948,-20.415,-21.253,-7.548,-13.605,-31.211,-15.133,-15.429,5.855,-17.663,-82.625,-57.42,10.775,-8.514],[-46.206,-97.603,-101.879,-96.301,-75.58,-9.091,-148.584,-92.63,-60.865,-59.727,-23.592,-106.77,-116.601,-77.486,-58.919,36.617,-44.755,-45.482,-32.292,-33.437,-57.115,-79.619,20.697,-8.169,0.992,76.331,-144.251,-75.337,8.171,-4.269],[-29.23,-190.058,-121.251,-94.628,-96,-11.843,-111.907,-90.856,-76.57,-74.54,-21.063,-108.767,-121.003,-59.551,-64.715,-37.828,-76.777,-102.253,-58.552,-52.818,-46.71,-78.767,46.641,-25.55,1.571,78.454,-22.487,-47.68,24.943,0.28],[-5.04,-89.648,-126.872,-105.359,-59.82,-24.3,-109.291,-148.815,-112.782,-77.409,5.052,-108.29,-119.512,-112.145,-65.934,-52.552,-5.434,-84.935,-95.349,-72.442,-14.877,-25.157,21.791,21.312,-48.434,23.092,-196.213,-88.741,-7.013,-40.674]],
"kep": [[-141.45,-5.671,-4.048,-15.271,-10.061,-114.615,-5.289,-9.313,-7.849,-8.982,-113.559,-7.634,-16.457,-8.965,5.112,-54.402,-104.187,-56.809,-55.465,-29.064,-28.018,-167.248,-148.472,-129.606,-122.138,72.359,-230.667,-245.52,-274.985,-327.076],[-46.353,-23.642,-105.569,-1.978,-2.886,-40.035,-8.019,-117.955,-20.65,-1.881,-50.232,-1.447,-127.137,9.767,-7.828,-43.904,-22.373,-105.974,-69.244,-15.358,-52.631,-29.877,-1.072,-129.298,-75.335,-31.221,13.758,57.858,-133.341,-158.187],[-64.289,-11.329,-1.455,-23.468,-113.182,-61.044,-10.079,-2.839,-14.411,-117.34,-58.506,-10.015,-5.003,-8.807,-88.815,-49.755,-29.547,-8.946,-19.265,-72.085,-51.807,-24.62,-7.169,-16.317,-27.475,-49.538,-6.533,5.267,23.363,68.056],[-78.586,-17.905,-6.019,4.947,1.76,-79.389,-18.84,-4.767,-2.795,-5.739,-75.391,-18.348,-1.887,5.184,-5.909,-73.869,-31.272,-18.405,-16.432,-16.327,-69.978,-28.146,-34.282,-6.097,-18.784,-72.695,-23.734,-0.383,-27.234,-29.302],[-84.735,-22.684,-11.487,-6.457,1.432,-84.293,-33.161,-13.151,-7.74,2.562,-78.142,-30.945,-11.209,-9.404,-5.807,-76.427,-31.73,-16.868,-8.344,-13.106,-74.915,-37.267,-45.631,-2.381,-17.908,-72.084,-56.26,-30.351,-31.915,-29.795],[-90.296,-45.191,-12.866,-7.504,-4.601,-87.88,-41.808,-12.488,-3.237,-5.07,-90.113,-43.347,-13.151,-1.323,-6.583,-81.385,-58.922,-25.604,-9.738,-3.242,-80.085,-56.182,-47.658,-35.096,-13.533,-80.423,-45.859,-38.92,-17.886,-11.361]],
"vp": [[74.841,17.434,68.199,-114.21,-302.181,-3.162,-11.739,-9.657,-6.77,-11.134,-2.683,18.861,-14.198,-26.684,-2.722,-49.856,-32.545,-8.141,-19.049,-3.153,-13.597,-19.556,-6.687,-12.838,-14.925,-34.384,-30.3,4.378,-13.6,-16.64],[1228.926,485.308,-201.149,-280.834,-222.519,265.47,36.29,28.927,-49.281,12.806,175.777,5.687,-15.864,-14.981,-30.681,-9.75,-6.827,-32.701,-33.558,4.904,-43.416,-38.438,-49.175,-20.181,-38.316,-31.307,-21.713,-30.365,-28.696,-31.309],[3335.997,1116.406,303.713,266.68,-66.596,598.369,171.944,39.994,119.549,-5.76,254.222,105.428,78.233,-3.239,-18.92,-12.687,-17.474,-26.968,-47.567,-50.022,-9.569,-49.018,-63.249,-56.523,-34.444,-34.149,-65.605,-60.533,-23.444,-48.237],[4069.284,1669.702,833.297,-74.142,64.082,857.939,289.505,189.18,135.738,56.689,413.649,183.004,39.828,-5.34,54.984,13.986,-4.322,7.168,-21.056,-38.55,-14.74,-25.124,-48.046,-36.863,-48.878,-60.989,-45.45,-58.234,-42.95,-35.314],[5050.742,2409.583,1180.319,1076.589,309.888,1058.618,498.274,351.324,165.746,80.571,359.04,182.394,73.242,123.123,85.747,8.568,-20.799,13.559,0.695,13.257,-2.069,-30.196,-12.618,-34.082,-29.648,-60.915,-11.985,-29.782,-53.551,-47.052],[5531.27,4992.248,1710.407,1486.089,1229.433,1046.822,781.644,351.341,168.487,345.027,585.003,474.309,176.121,132.661,146.318,68.205,53.213,-0.259,9.819,-6.422,6.138,2.439,-47.002,-2.575,-40.957,-19.857,-58.112,-58.358,-61.776,-48.781]]
}