{
"KTrans": [[4.264,3.029,3.733,5.023,5.184,8.464,11.559,7.118,6.927,6.567,28.793,18.483,14.909,12.842,13.215,58.13,93.686,71.517,65.355,62.622,99.434,52.94,117.998,107.399,109.369,48.693,8.622,124.259,54.607,101.329],[-5.54,-0.197,0.949,1.946,2.333,-1.81,3.534,4.037,2.336,3.934,14.009,11.317,8.368,7.943,6.362,-12.518,69.34,41.522,36.817,31.775,42.32,-12.642,80.759,70.487,65.075,30.529,60.441,-36.439,46.247,89.339],[-24.989,-2.767,0.548,0.634,0.653,-22.304,-5.372,1.944,1.859,2.288,-11.262,7.503,8.433,4.778,3.64,-23.929,45.346,31.865,29.744,22.468,-20.554,15.694,60.589,63.339,45.463,-21.314,39.338,126.88,9.628,65.016],[-46.23,-5.231,-4.978,-1.791,-1.163,-53.636,-0.888,0.712,-0.544,0.874,-51.489,6.041,4.663,2.951,2.921,-53.296,-28.75,27.262,29.113,22.038,-43.647,-13.558,16.749,60.909,46.584,-29.321,-9.994,22.619,-96.529,43.629],[-66.391,7.695,-6.312,-2.596,-1.472,-75.003,2.285,-3.173,-0.201,1.388,-70.081,15.763,3.5,1.901,1.493,-61.346,-34.817,40.691,25.535,21.837,-47.239,-20.328,3.735,58.345,48.979,-25.917,-0.26,-10.195,-35.868,-45.944],[-79.495,-3.484,-2.69,-1.984,-3.692,-76.496,2.397,-4.553,-2.567,-0.597,-84.661,0.748,-2.075,2.333,0.918,-69.668,-36.552,33.238,25.87,19.619,-49.437,-27.177,-27.243,63.827,40.336,-33.996,-31.84,-24.783,9.709,69.124]],
"ve": [[3.924,3.911,9.743,7.717,7.838,8.609,2.73,7.051,9.775,11.18,11.181,5.87,3.913,1.967,5.205,36.696,16.043,4.48,-6.201,-13.376,91.162,41.535,-1.009,-12.775,-19.762,206.579,85.984,33.631,10.126,-9.436],[-0.094,0.354,0.305,0.518,0.986,6.782,2.634,1.891,1.99,1.915,11.474,4.375,3.192,2.309,2.507,51.414,24.578,14.304,9.858,6.513,99.967,50.688,32.157,20.501,13.71,207.314,98.732,60.912,43.028,55.096],[-22.531,1.235,0.123,-0.129,0.296,5.807,2.198,1.554,0.588,1.352,11.625,4.239,2.85,2.446,2.235,48.492,37.62,14.983,11.498,8.646,111.965,44.77,39.218,23.991,17.268,173.83,101.31,65.398,42.736,31.522],[-0.182,0.858,-0.638,-0.184,-0.269,4.341,2.269,1.148,0.822,0.67,12.71,4.601,2.768,1.602,1.762,50.298,25.305,15.297,12.145,9.284,103.038,46.479,32.062,24.822,18.478,206.068,100.47,64.642,50.338,36.392],[3.728,1.173,0.078,-0.074,-0.14,6.793,2.063,0.877,1.235,0.526,-43.987,5.382,2.763,1.632,1.469,51.739,23.137,16.481,11.927,9.233,98.04,48.244,33.269,23.619,19.152,195.221,99.76,63.337,48.312,38.248],[1.261,0.099,0.204,-0.168,-0.356,4.175,3.264,1.131,0.857,0.23,15.109,0.856,3.121,1.824,1.494,48.749,24.191,15.952,11.516,9.627,101.446,51.19,-164.443,25.802,19.397,201.101,100.334,68.036,48.558,38.082]],
"kep": [[-3.773,-4.468,-6.323,-2.537,-3.52,-4.224,3.782,-2.466,-3.262,-2.558,10.107,7.944,7.081,7.762,8.798,5.29,57.547,56.497,68.663,79.217,8.661,8.514,80.476,93.641,124.161,-21.471,-10.113,66.822,42.37,97.524],[-11.18,-6.564,-5.585,-4.876,-4.968,-13.545,-5.306,-4.165,-5.883,-4.344,-4.117,-0.015,-1.437,-1.032,-2.675,-41.766,26.215,15.752,16.798,15.901,-27.853,-39.081,28.977,32.03,35.853,-49.629,-12.914,-50.649,0.699,32.362],[-32.346,-10.013,-5.899,-5.577,-6.002,-31.37,-13.242,-5.924,-5.137,-5.468,-26.081,-3.517,-1.271,-4.234,-5.027,-49.338,6.268,6.926,8.685,5.566,-57.814,-24.055,12.732,22.439,15.817,-68.048,-26.113,29.946,-27.261,12.13],[-51.294,-12.166,-10.542,-7.822,-7.215,-58.804,-9.689,-6.794,-7.645,-6.18,-59.89,-5.67,-4.804,-5.141,-5.316,-67.947,-44.334,2.624,7.415,4.458,-69.985,-41.516,-16.006,19.403,15.111,-72.534,-50.382,-24.799,-83.334,-2.841],[-69.637,-1.413,-12.579,-8.78,-7.622,-77.548,-7.18,-10.232,-7.789,-5.617,-74.134,1.395,-5.958,-6.181,-6.394,-74.266,-47.569,11.417,4.438,4.162,-72.513,-46.464,-23.503,17.721,16.102,-73.538,-47.447,-43.394,-50.067,-55.42],[-80.205,-11.807,-9.478,-8.305,-9.578,-79.023,-9.24,-12.08,-9.657,-7.232,-86.006,-12.202,-11.457,-6.096,-6.96,-78.994,-50.049,5.801,4.757,1.886,-74.1,-51.38,-44.488,19.047,8.77,-76.495,-62.634,-50.998,-26.112,13.826]],
"vp": [[126.688,176.565,509.997,87.302,346.938,-21.596,-35.966,76.235,14.104,-97.988,31.984,-3.881,14.667,2.468,25.563,-12.092,-20.494,-9.091,-2.806,-12.986,-60.257,-2.372,-21.141,-18.883,-20.927,-2.973,-3.608,-26.729,-12.395,-28.985],[2366.365,762.363,120.06,83.045,-81.138,345.193,85.397,-33.729,-64.896,66.863,212.026,87.101,9.838,-33.262,-19.917,24.617,-10.216,-37.236,-16.823,-15.992,-38.187,-19.591,-43.11,-31.269,-18.554,-13.706,-31.84,-22.742,-34.689,-12.426],[3818.628,1392.495,201.026,403.745,-143.949,637.813,321.727,145.076,73.895,-13.356,367.804,151.716,101.228,34.482,-7.306,25.438,19.742,-40.236,-31.773,-28.377,2.282,-32.943,-48.673,-27.095,-54.197,-7.401,-24.04,-27.129,-18.547,-46.296],[4716.899,3183.494,884.824,633.202,180.112,897.647,558.864,229.695,3.494,41.382,464.607,253.048,127.741,24.902,33.323,69.088,41.218,-42.479,15.853,-22.738,14.918,-12.673,-25.912,-24.712,-42.238,-25.586,-41.927,-41.365,-39.68,-43.073],[5733.456,5028.668,2222.597,1317.557,878.549,1188.148,921.936,381.856,188.292,-0.205,573.551,502.633,172.403,62.528,81.171,66.282,35.122,25.084,11.478,4.752,24.58,-23.539,-4.28,-30.439,-29.058,-26.51,-22.126,-63.164,-42.619,-50.286],[6464.479,6011.377,3536.99,1988.91,731.395,1016.344,1193.089,676.091,355.775,186.825,568.803,634.626,196.681,153.247,107.413,65.381,42.314,14.438,29.573,-12.771,41.032,-2.167,7.729,11.998,-9.654,-7.596,-38.703,-26.465,-44.822,-58.021]]
}