{
"KTrans": [[0.791,4.165,6.617,-5.582,4.683,5.903,15.63,11.088,13.062,12.934,11.192,25.768,23.788,24.953,22.844,47.856,76.454,92.017,96.378,97.263,71.341,70.595,129.623,151.038,156.176,-383.328,-182.557,-24.937,99.546,152.625],[-30.439,-11.781,-0.039,3.142,0.063,-18.677,-7.118,3.051,7.853,4.251,-13.105,1.008,3.349,9.923,9.564,59.237,45.239,11.555,31.63,39.49,159.427,115.315,36.977,23.667,58.819,211.414,12.057,-14.499,-56.762,36.413],[-36.807,-9.02,-3.687,-2.631,0.517,-33.029,-5.922,1.936,-3.827,2.097,-28.594,1.507,3.606,1.802,2.252,30.433,47.515,49.143,30.162,10.727,84.442,127.825,108.542,58.488,14.795,227.845,324.42,278.486,175.688,-12.069],[-46.098,-11.901,-4.659,-1.414,-1.116,-46.3,-7.21,1.301,0.023,1.157,-43.007,-3.359,4.513,3.914,2.05,-6.341,41.29,41.962,40.485,28.98,46.802,106.381,108.381,81.865,72.467,52.616,267.549,236.907,221.205,164.857],[-56.75,-15.322,-3.301,0.903,-1.522,-53.483,-9.347,-1.273,1.46,1.358,-51.869,-1.429,3.2,3.749,3.773,-21.507,39.777,40.592,34.547,26.743,37.679,87.704,84.435,78.084,66.498,98.562,231.916,190.53,184.327,141.816],[-63.195,-16.472,-5.191,-2.329,-0.512,-61.145,-11.976,-2.533,2.52,1.253,-57.493,-9.192,2.446,4.381,3.547,-38.884,30.161,34.191,30.129,28.122,20.416,88.621,85.038,69.507,61.251,40.083,192.365,216.535,175.775,135.237]],
"ve": [[-81.045,-21.511,-76.522,280.443,5.126,6.213,-111.331,-47.155,-26.965,-60.652,-7.114,-21.167,121.159,-46.778,-60.498,49.19,2.458,-23.293,-102.359,-38.428,117.579,29.671,-9.77,-32.451,-46.998,199.305,80.105,33.267,3.853,-15.983],[-15.014,34.013,-0.05,8.54,5.39,-1.71,29.997,-10.681,-27.55,-2.868,19.306,7.254,2.73,-6.325,13.012,41.077,32.182,18.819,-2.839,-37.271,88.246,54.595,35.097,17.272,-3.277,187.808,88.085,65.952,44.937,27.308],[-5.366,-2.579,-2.741,-15.999,-1.595,-2.82,0.016,-0.712,-20.608,-0.32,3.455,1.458,0.723,-4.185,1.593,44.622,23.248,15.308,12.29,9.194,94.57,38.563,29.955,24.368,20.068,202.083,95.12,68.084,56.644,41.114],[-5.746,-1.432,-0.66,-1.086,-1.858,-3.366,0.144,0.086,0.255,-0.669,6.496,3.017,2.63,1.289,0.151,46.633,23.325,16.372,12.545,9.19,96.545,47.701,33.841,25.069,18.815,197.879,109.542,67.683,48.397,45.1],[-17.094,-1.377,-0.264,0.388,-1.17,-2.46,0.242,0.801,0.561,0.559,7.509,3.945,3.157,2.205,1.84,40.013,24.14,16.204,12.469,9.928,97.327,49.876,32.696,25.204,20.175,191.949,92.437,65.49,50.034,38.814],[-6.29,-0.639,-0.912,-0.223,-0.095,-0.699,1.35,0.702,1.082,0.83,4.368,2.983,3.12,2.018,1.578,43.623,24.57,16.148,12.37,10.136,108.974,43.47,33.251,25.379,20.633,195.173,94.323,65.873,50.298,39.759]],
"kep": [[-132.946,-43.404,-27.237,5.656,-4.358,-124.146,-66.97,-31.679,-18.842,-32.948,-129.769,-72.206,-42.563,-30.653,-50.708,-130.557,-234.577,-192.258,-194.516,-190.522,-147.536,-378.234,-352.186,-365.383,-376.054,-327.1,-627.33,-750.285,-731.703,-770.301],[-63.245,-67.184,-135.811,-35.761,-4.209,-49.217,-61.968,-134.895,-63.949,-13.72,-50.813,-43.59,-119.625,-63.149,-30.596,-13.579,-5.006,-151.385,-162.954,-107.201,9.021,27.851,-103.805,-302.665,-195.097,-29.483,-95.641,-176.124,-465.996,-387.28],[-55.039,-23.773,-20.154,-44.401,-122.423,-53.712,-19.612,-8.069,-55.019,-118.613,-52.633,-13.888,-10.204,-36.462,-132.265,-28.348,13.366,38.881,20.323,-127.006,-24.106,51.056,77.292,32.698,-130.974,-6.482,114.261,162.894,135.383,-195.622],[-61.244,-21.265,-12.209,-8.852,-14.779,-63.593,-18.24,-4.712,-6.266,-8.9,-60.476,-16.741,-2.342,-0.348,-8.843,-51.445,6.686,25.14,45.375,32.102,-40.327,30.518,70.559,70.408,85.846,-60.325,77.898,113.8,160.091,156.158],[-69.131,-24.784,-7.945,-0.94,-6.411,-68.071,-18.1,-7.791,-1.036,-1.948,-68.268,-14.117,-3.454,-1.778,1.957,-59.018,6.775,20.921,27.181,23.217,-42.26,20.287,39.991,58.158,59.22,-42.951,54.909,75.325,108.17,101.48],[-73.435,-24.919,-8.872,-5.281,-2.261,-72.057,-19.78,-7.145,0.036,0.45,-72.598,-20.059,-2.741,-0.253,1.157,-70.573,-0.886,16.134,16.425,22.64,-49.554,19.133,40.998,42.21,48.216,-61.298,36.044,87.776,95.265,86.535]],
"vp": [[84.705,264.227,-223.701,265.286,-353.352,41.73,27.048,112.609,-40.408,106.853,27.251,31.992,16.68,79.356,-4.812,-1.967,1.526,-7.088,1.909,-7.902,0.503,-5.601,-2.396,-5.244,-4.747,2.95,-2.677,2.846,2.846,-1.878],[2448.565,738.588,22.474,-328.572,-325.082,470.634,217.135,-35.003,-19.47,55.128,254.623,96.812,6.616,-22.417,-0.485,48.406,27.286,-8.698,-8.224,-8.777,18.043,10.787,-2.187,-3.627,-8.054,9.269,-2.313,-3.356,0.838,0.458],[4441.859,2015.995,615.412,790.726,-35.996,880.398,320.184,163.254,62.318,-55.493,401.562,156.196,107.544,93.877,-41.516,84.697,16.777,19.595,1.468,-9.207,45.217,21.293,0.27,5.939,-2.981,16.762,1.987,2.746,0.663,-2.079],[6140.401,3065.664,862.907,683.863,482.438,1219.663,545.477,307.188,55.598,119.352,611.014,372.9,178.032,25.435,-19.048,110.142,71.16,17.678,4.2,12.331,53.232,33.137,12.023,0.183,5.514,22.897,14.388,4.118,4.867,-2.986],[7120.66,4715.244,1966.823,963.004,980.846,1420.507,1046.276,319.243,133.448,81.189,671.794,580.513,251.683,121.354,-0.125,137.94,94.156,35.894,21.416,-2.616,57.126,38.557,12.152,-3.874,9.477,25.65,23.673,4.896,2.275,-1.164],[7203.762,7741.717,3067.992,1436.074,668.416,1453.863,1363.894,613.094,333.026,5.117,747.591,701.748,357.294,215.364,-6.352,144.985,137.684,54.865,34.045,31.237,73.548,70.663,19.161,12.743,-2.052,26.368,26.357,22.234,7.265,-1.846]]
}