{
"KTrans": [[9.448,8.675,0.045,-2.432,3.867,3.594,15.931,-1.772,10.579,19.004,5.741,22.044,22.973,21.01,14.431,26.745,59.285,75.22,85.491,72.432,-34.598,7.422,106.265,121.527,121.343,23.526,-182.077,-29.49,46.905,29.985],[-45.077,-9.219,1.887,7.66,7.948,-39.963,-9.963,0.693,7.326,1.387,-41.673,-13.242,2.655,9.672,14.997,-35.575,5.938,14.111,24.604,32.141,-14.573,23,12.22,18.587,43.409,21.333,-43.091,-110.742,-39.758,53.311],[-59.675,-31.253,-15.979,-6.164,1.566,-57.972,-27.789,-15.914,-6.338,1.119,-60.99,-26.712,-9.355,-3.679,0.414,-61.883,-8.84,7.97,6.546,9.533,-79.174,-23.01,-37.313,32.178,-9.31,-98.983,28.909,-82.135,-24.695,-50.576],[-67.601,-37.078,-18.227,-13.025,-5.133,-67.767,-32.231,-16.048,-8.423,-7.578,-67.6,-33.942,-12.14,-6.988,-6.346,-57.548,-16,0.373,13.467,3.338,-56.31,9.7,30.116,22.45,21.654,-105.179,-38.784,-29.913,-45.685,-14.954],[-72.512,-45.206,-26.013,-10.831,-9.902,-78.019,-37.682,-18.347,-8.583,-8.436,-69.821,-36.379,-16.165,-6.686,-7.333,-63.512,-27.909,-0.03,6.694,16.664,-68.203,-9.934,-21.535,37.748,31.737,-95.401,-7.291,8.426,-35.481,8.075],[-78.844,-48.796,-21.96,-17.35,-8.91,-76.697,-46.83,-22.633,-10.978,-2.881,-79.462,-46.99,-19.629,-9.824,-3.945,-73.155,-27.861,-3.072,9.337,13.705,-85.93,-32.074,-0.417,20.021,32.288,-73.041,-34.338,3.228,29.17,10.5]],
"ve": [[169.388,36.624,13.973,-90.731,-72.185,24.672,-24.256,-59.123,-77.287,-76.995,0.631,-6.835,-65.612,-22.007,-38.788,7.501,5.458,-27.273,-107.122,-48.589,149.588,21.273,-16.388,94.245,-38.864,211.9,36.576,35.599,-0.43,-16.153],[-44.905,-29.105,14.977,-3.238,-21.329,315.813,-56.08,-8.435,3.903,-16.589,99.248,-1.668,-1.967,7.168,6.149,142.96,7.288,22.742,-23.984,5.738,88.145,47.136,19.733,31.782,-7.366,177.15,79.699,47.94,42.222,45.109],[-10103.551,11.207,10.224,-0.066,-3.84,72.093,18.648,-9.304,-3.337,-2.196,33.489,-24.531,-40.378,-44.697,2.901,-297.435,15.779,-37.053,13.807,9.253,77.299,42.435,11.841,29.753,13.378,190.085,87.15,64.278,51.48,36.744],[3.264,-2.556,-14.899,-7.618,9.489,-5.838,-99.772,-61.955,-16.053,18.126,-20.402,-10.406,-7.434,3.085,18.34,35.565,14.043,11.846,5.991,-10.094,108.001,42.808,17.186,20.973,-146.152,173.863,151.786,66.301,48.813,41.436],[18.298,-12.958,19.569,-11.79,0.535,-382.142,-18.317,3.133,-4.47,-4.062,10.851,-4.739,-2.746,-2.321,-4.583,7.692,30.289,9.25,10.537,14.256,89.271,44.425,27.152,20.516,22.045,185.51,91.453,61.36,49.79,37.204],[239.532,-0.763,6.491,-17.714,-3.314,-44.671,-6.056,-2.703,42.84,3.4,-21.273,1891.545,-2.87,-1.763,-1.358,12.409,17.186,-3.009,8.203,17.771,79.779,54.371,27.284,18.627,16.966,66.783,96.786,69.615,49.738,38.538]],
"kep": [[-130.989,-120.539,-73.036,-33.704,-39.654,-130.611,-102.738,-46.358,-46.182,-100.97,-121.295,-124.737,-96.235,-97.239,-80.964,-147.095,-201.962,-206.351,-230.348,-204.029,-171.031,-296.111,-285.126,-345.238,-441.031,-111.005,-333.827,-438.133,-523.329,-786.246],[-97.837,-91.811,-127.984,-112.95,-70.122,-93.466,-94.216,-127.229,-97.155,-51.158,-92.563,-97.253,-124.733,-99.265,-90.465,-102.428,-96.205,-146.737,-172.287,-124.478,-87.565,-80.583,-134.817,-219.693,-187.809,-76.453,-105.197,-210.999,-247.266,-254.719],[-92.465,-75.696,-78.907,-94.201,-119.551,-90.175,-74.476,-75.28,-105.981,-116.492,-92.189,-75.485,-68.598,-100.979,-131.502,-99.535,-67.813,-58.911,-96.589,-130.003,-102.786,-79.289,-115.965,-59.084,-179.436,-94.609,-60.879,-116.616,-107.737,-181.532],[-91.295,-69.872,-48.066,-50.823,-59.04,-91.996,-64.607,-50.472,-45.703,-73.881,-93.254,-67.271,-44.34,-46.083,-66.475,-90.853,-58.794,-47.638,-32.99,-62.894,-93.648,-52.92,-26.695,-37.809,-39.714,-100.367,-76.584,-72.111,-99.432,-77.45],[-92.557,-70.556,-51.289,-33.915,-38.318,-96.585,-64.938,-43.134,-31.979,-38.569,-91.173,-62.778,-39.976,-28.049,-33.939,-91.696,-63.492,-37.905,-27.889,-8.102,-93.828,-59.395,-66.852,-8.444,-6.589,-98.768,-63.233,-46.037,-77.956,-42.956],[-95.393,-69.735,-39.876,-35.195,-25.78,-94.411,-69.81,-41.658,-28.115,-12.769,-95.331,-70.2,-41.575,-26.49,-17.528,-93.88,-61.941,-35.415,-15.23,-9.142,-99.101,-69.556,-45.164,-22.859,-2.695,-93.469,-71.243,-51.011,-31.657,-36.574]],
"vp": [[-9.532,-567.966,76.885,460.095,1183.437,53.113,33.56,-122.314,114.245,136.878,27.112,-30.452,-2.784,22.887,-53.624,16.993,-14.605,-9.421,3.494,16.589,-6.388,16.943,-3.105,-1.496,1.952,-28.122,12.046,-1.219,-7.28,9.046],[2757.812,650.474,-366.273,-635.4,350.843,361.52,45.468,33.87,85.739,-160.52,267.201,-1.341,-28.107,-16.416,16.633,55.541,5.071,-23.458,-24.073,-13.703,11.233,-22.79,-14.095,-21.969,-4.823,-5.24,5.354,-5.329,9.393,-24.496],[3774.65,3551.572,1607.892,1519.106,340.601,882.599,839.039,491.916,0.368,-211.889,591.436,334.731,178.379,-5.287,13.52,104.214,76.672,4.834,0.078,-5.524,38.436,26.652,22.51,-4.199,-9.062,7.894,-3.779,10.737,-1.09,-1.615],[7112.957,5995.377,3355.803,2746.102,1290.662,1286.793,1376.21,760.308,345.722,204.648,581.03,611.654,344.458,218.298,106.238,109.979,95.63,58.546,45.424,41.662,70.891,39.534,14.063,5.819,-3.225,14.265,2.399,6.23,10.317,-17.353],[6379.38,7461.58,6561.142,3691.183,2121.369,1298.597,1244.711,1106.696,995.819,484.562,569.346,883.131,589.137,371.176,148.929,165.817,160.886,96.874,99.794,49.907,59.926,67.23,58.633,41.021,14.749,22.572,9.407,17.031,0.515,-27.08],[6100.498,8223.728,7197.662,5544.073,3998.394,1477.462,2032.815,1660.468,1014.147,715.603,564.838,1006.481,821.388,488.895,380.138,146.734,146.523,148.02,107.377,46.915,71.302,92.758,52.528,38.854,2.496,21.618,31.403,40.63,9.065,-15.248]]
}