{
"KTrans": [[0.172,1.167,0.965,1.126,1.054,0.413,0.879,1.264,1.395,1.102,-0.725,2.676,2.1,2.063,0.386,40.226,11.84,14.853,6.551,9.913,-63.114,31.901,28.839,24.979,21.352,-271.099,-48.987,80.648,75.777,67.682],[-2.111,-1.651,0.09,0.602,0.866,0.069,-0.047,0.084,0.664,1.026,-2.864,-0.7,0.992,0.675,1.477,-8.145,5.427,7.786,2.077,6.206,12.325,23.906,14.386,17.435,9.842,24.879,-33.693,18.893,33.693,28.511],[-31.064,-3.851,-2.062,-0.629,-0.003,-18.473,-3.415,-2.16,-0.131,-0.068,-20.504,-4.537,-1.709,0.646,0.245,-24.197,2.496,1.934,-1.887,2.066,-18.432,-0.116,14.736,2.357,9.402,22.033,10.508,-57.266,31.899,27.495],[-52.841,12.111,-4.195,-2.149,-1.329,-60.437,-0.767,-3.324,-1.91,-1.097,-46.166,5.509,-2.192,-2.752,-0.643,-51.6,3.628,2.58,5.442,2.72,-38.927,7.043,-21.822,5.74,4.49,-43.802,-4.79,-21.086,-21.323,18.822],[-74.834,-6.366,-4.694,-3.588,-2.34,-71.984,-17.525,-4.634,-4.157,-2.525,-76.517,-13.501,-0.862,-4.474,-2.588,-60.721,-13.134,-0.285,-8.81,0.458,-60.345,-19.255,0.467,3.087,-2.301,-45.286,16.821,18.494,4.612,13.49],[-77.09,-42.013,2.69,-5.982,-3.553,-87.816,-40.514,-6.675,-4.947,-4.526,-80.738,-40.32,7.836,-2.546,-4.295,-71.943,-36.397,-2.603,2.647,-3.762,-72.452,-34.693,-4.81,6.985,-3.696,-59.349,-4.74,6.304,22.039,-15.353]],
"ve": [[0.067,0.132,-0.061,-0.282,-0.453,0.002,0.048,-0.111,-0.401,-0.259,-0.82,0.459,0.143,-0.016,1.945,18.482,-6.296,-21.667,-23.412,-39.144,6.012,-8.647,-15.239,-21.387,-38.487,-36.326,-11.624,6.234,-14.654,-24.931],[-1.867,-0.552,0.043,0.16,0.137,-1.664,0.355,-0.02,0.116,0.178,-1.667,-0.134,0.412,0.086,0.279,2.332,2.536,3.565,0.684,1.743,19.897,13.434,-1.513,5.983,14.564,44.878,32.677,11.525,6.287,-4.303],[-21.533,-2.065,-0.96,-0.171,-0.008,-16.947,-1.123,-1.086,0.025,-0.062,-11.175,-2.109,-0.842,0.509,0.057,4.323,0.499,1.394,-1.679,0.734,7.552,15.594,8.866,1.489,4.468,78.468,22.324,3.891,15.214,12.163],[-25.534,0.305,-2.472,-1.075,-0.387,-43.511,-1.46,-1.909,-0.902,-0.312,-25.552,0.843,-0.823,-0.927,-0.087,-19.152,0.594,1.278,3.959,1.689,-8.78,7.234,4.383,2.642,2.676,15.31,2.398,25.945,10.269,8.181],[-45.516,-5.923,-2.757,-2.034,-0.875,-44.159,-12.941,-1.868,-1.736,-1.03,-52.983,-9.122,-0.19,-1.788,-0.869,-33.39,-3.363,-1.255,-6.075,0.291,4.583,-11.468,6.231,0.161,-2.925,-3.031,16.967,24.212,7.579,9.991],[-42.168,-28.374,-0.463,-2.379,-1.73,-60.985,-27.249,-2.934,-2.275,-1.786,-41.741,-25.502,-1.967,-1.287,-1.57,-37.62,-21.344,-3.123,1.931,-1.912,-32.032,-18.68,6.829,-0.722,-2.939,-18.401,21.847,19.291,16.875,0.385]],
"kep": [[-0.098,0.838,0.835,1.225,1.337,-0.045,0.589,1.224,1.724,1.433,-1.363,1.884,2.002,2.588,0.005,2.83,-1.373,8.621,-1.349,9.332,16.781,-15.16,-0.114,-1.848,-4.786,61.708,49.683,19.045,44.19,36.9],[-1.08,-1.305,-0.147,0.247,0.534,0.122,-0.636,-0.116,0.34,0.646,-3.695,-1.057,0.291,0.325,0.971,-20.413,-2.539,1.758,-0.336,3.765,-16.747,-10.18,-3.946,6.191,1.617,-16.677,-1.583,-26.858,-8.443,2.221],[-31.969,-2.173,-1.32,-0.652,-0.189,-27.803,-2.708,-1.341,-0.364,-0.213,-29.447,-3.335,-1.238,-0.11,-0.049,-43.877,-5.642,-2.103,-2.46,0.272,-39.376,-16.57,-3.793,-5.994,1.782,-39.125,-7.964,-9.712,-5.206,3.395],[-52.307,9.386,-2.096,-1.291,-1.14,-62.841,-1.508,-1.797,-1.254,-1,-49.555,1.411,-1.809,-2.146,-0.785,-57.738,-18.649,-2.748,0.251,0.072,-54.286,-21.525,-33.059,-2.765,-2.623,-60.455,-19.006,-22.716,-25.649,-8.735],[-72.599,-5.461,-2.766,-1.838,-1.689,-70.662,-15.221,-3.701,-2.8,-1.739,-73.705,-13.084,-1.358,-3.227,-2.013,-68.859,-29.919,-2.511,-6.531,-1.056,-67.056,-34.028,-20.256,-9.107,-4.783,-65.813,-23.969,-16.268,-3.96,-11.692],[-73.763,-43.925,0.307,-4.195,-2.096,-83.35,-40.845,-6.706,-3.372,-3.054,-77.849,-44.39,4.665,-2.028,-3.127,-74.045,-47.296,-16.989,-1.107,-3.595,-75.237,-45.935,-25.171,-14.785,-7.83,-72.545,-42.577,-19.864,-4.284,17.002]],
"vp": [[-8.745,-63.195,-75.575,-65.171,-82.562,0.751,-2.614,-23.634,-22.6,-10.551,13.16,-17.894,-12.646,-17.095,1.789,-42.988,-8.425,-21.2,-2.253,-14.227,-9.482,-16.927,-18.133,-15.213,-12.431,4.58,-8.021,-32.984,-38.617,-34.346],[214.825,114.253,-16.56,-89.37,-103.33,43.213,-17.461,1.533,-12.514,-31.905,16.498,2.747,-15.408,-4.051,-24.862,-3.199,-7.408,-23.269,0.016,-25.913,-19.405,-28.736,-14.73,-31.775,-13.37,-21.914,-35.038,-22.316,-24.315,-23.746],[2172.672,457.223,334.486,69.697,4.989,353.813,45.988,76.801,-1.745,7.664,112.724,43.918,30.19,-24.498,-3.443,-6.687,-0.347,-9.068,18.313,-7.526,-5.65,-32.108,-26.572,6.027,-22.185,-42.196,-21.199,-10.273,-36.141,-34.382],[2574.132,144.862,841.476,512.963,189.083,892.087,60.963,131.946,86.619,31.371,256.03,-11.339,29.105,36.173,3.171,40.959,-2.627,-6.389,-35.419,-19.217,7.201,-12.156,-9.046,-7.228,-13.583,-8.912,0.458,-39.795,-24.448,-24.49],[4492.678,1158.486,882.374,945.71,476.144,906.525,543.623,108.623,147.368,112.391,540.559,178.417,8.926,73.148,44.236,67.929,11.137,7.593,54.261,-1.869,15.377,27.991,-19.049,-3.653,19.441,1.245,-17.23,-37.01,-14.423,-26.683],[4001.729,5649.595,114.934,909.655,968.746,1302.164,1084.396,147.946,185.054,179.877,501.475,519.673,78.298,57.292,77.816,82.263,92.378,23.136,-16.019,20.931,31.301,39.48,-17.575,9.005,17.801,9.529,-22.638,-30.194,-33.409,0.709]]
}