{
"KTrans": [[-50.267,-69.861,-61.23,-60.834,-67.218,-27.048,-59.198,-55.192,-50.726,-46.847,-22.816,-57.053,-47.502,-40.009,-39.181,-14.811,10.99,4.596,-11.22,25.639,50.89,42.86,67.534,48.904,74.317,-26.524,151.365,109.423,143.874,150.244],[-50.848,-58.808,-46.97,-55.168,-46.206,-45.946,-35.351,-31.282,-43.839,-47.316,-48.984,-28.521,-31.048,-40.032,-40.749,-10.525,8.361,-2.363,-24.429,-14.945,3.631,-12.967,6.423,15.63,9.628,-32.428,-59.121,-85.857,31.578,29.788],[-63.807,-38.912,-39.079,-44.618,-43.254,-62.865,-46.33,-37.99,-32.614,-29.264,-56.215,-36.517,-28.696,-32.645,-21.371,-34.41,-15.911,-18.855,-9.652,-7.473,-28.058,13.904,20.738,-4.634,-10.886,-7.136,-1.964,4.253,-13.906,-5.282],[-73.133,-42.174,-40.919,-48.675,-41.673,-75.157,-41.056,-42.376,-36.268,-38.675,-70.168,-36.171,-36.758,-46.358,-27.967,-59.737,-31.184,-30.334,-32.239,-10.398,-48.338,2.642,2.033,8.148,2.813,-39.552,-1.353,38.682,21.927,-14.408],[-81.662,-48.698,-35.86,-44.786,-41.485,-79.633,-48.359,-37.68,-36.626,-32.359,-77.796,-41.666,-26.804,-30.517,-43.239,-66.564,-38.656,-29.782,-25.368,-15.369,-58.199,-21.997,-15.41,-4.421,-9.557,-41.88,-35.764,36.127,17.896,11.075],[-85.731,-53.599,-42.391,-41.959,-42.474,-84.731,-50.728,-42.19,-43.203,-34.421,-82.837,-53.744,-36.107,-39.134,-26.503,-75.989,-47.639,-34.633,-36.134,-28.159,-66.213,-28.149,-9.754,-9.409,-12.821,-56.618,-16.321,29.406,31.487,54.826]],
"ve": [[-152.946,-67.603,125.435,17.697,1176.898,-8.493,-35.666,-8.656,133.152,-148.834,-22.363,-79.218,-10.638,-51.015,-137.609,24.282,21.228,14.733,-137.436,-2468.287,97.186,19.563,-8.568,92.754,56.833,28.918,81.239,47.338,-20.543,-27.127],[-66.549,-79.514,-43.955,-48.502,-25.6,-80.006,-43.836,-30.024,-29.371,-24.372,-79.149,-42.894,-46.327,-33.259,-30.394,3.931,5.994,5.286,-5.983,-91.542,118.295,30.927,6.246,5.387,24.719,108.219,88.294,19.579,29.023,5.956],[-211.349,-82.421,-60.436,-58.034,-44.142,-47.882,-106.814,-62.09,-41.652,-26.151,-64.073,-81.85,-44.617,-43.532,-22.443,20.277,-33.039,-34.724,-19.141,-3.633,75.994,9.293,18.184,-4.199,-3.016,245.394,53.074,19.288,50.357,1.313],[-37.535,-94.105,-98.148,-84.865,-59.851,-26.289,-91.802,-95.932,-61.318,-54.881,-63.742,-101.009,-76.953,-84.818,-39.624,28.853,-74.184,-62.302,-63.762,-14.266,61.031,39.66,-17.443,2.281,-8.827,154.649,110.028,47.647,21.773,60.705],[-38.533,-109.054,-96.16,-94.995,-72.704,-31.043,-110.116,-89.48,-74.269,-57.048,-39.336,-59.475,-60.591,-68.87,-78.904,55.962,-88.585,-83.508,-63.742,-27.935,64.651,-30.449,-62.944,-35.174,-3.695,280.462,54.672,126.346,83.265,70.466],[-4.238,-121.688,-126.529,-113.104,-88.508,-37.296,-98.356,-137.574,-106.243,-72.029,-44.495,-107.925,-110.029,-90.213,-48.507,-16.558,-111.298,-96.426,-106.771,-58.728,122.446,1.357,-44.036,-34.409,-41.066,164.853,24.589,187.985,86.031,88.983]],
"kep": [[-105.722,2.004,3.058,-5.315,-3.481,-126.318,-12.032,0.778,-8.245,0.115,-109.734,13.224,7.906,-15.306,-8.574,-78.013,-38.794,-6.927,-19.252,-26.295,-45.408,-92.046,-93.281,-55.661,-79.288,87.703,-167.521,-170.87,-154.627,-178.302],[-43.829,-13.394,-116.072,-10.839,7.706,-38.347,-15.717,-124.777,10.794,3.577,-35.823,-11.341,-110.561,7.228,-5.383,-46.81,-31.646,-83.527,-16.107,-5.177,-54.851,-38.457,-9.741,-106.747,-39.963,-47.907,-40.235,14.716,-138.694,-92.151],[-60.118,-5.928,-8.759,-7.891,-112.61,-57.871,-4.441,-4.337,-8.472,-105.773,-49.866,-5.625,-6.841,-5.151,-124.46,-59.332,-18.468,-11.29,-16.271,-72.501,-62.741,-18.507,-21.27,-4.176,-38.579,-67.661,-45.844,1.812,-31.764,12.748],[-71.652,-12.658,1.453,-0.078,-0.996,-78.118,-16.017,-3.233,-3.101,0.432,-67.144,-9.152,-5.005,1.544,-2.19,-78.077,-26.228,-10.905,1.481,-5.384,-66.321,-41.614,-11.763,-13.708,-5.604,-71.25,-48.759,-15.389,12.244,-40.632],[-82.528,-22.477,-3.567,-3.014,-1.454,-81.505,-23.466,-8.582,-4.294,-2.972,-78.231,-27.63,-7.176,-0.932,-0.007,-83.135,-31.547,-6.767,1.226,-1.335,-76.513,-43.4,-21.687,3.411,-12.419,-78.777,-52.029,-35.786,-33.008,-39.779],[-91.324,-30.121,-7.926,-0.552,-2.747,-86.592,-30.771,-5.587,-4.146,-2.9,-88.848,-33.978,-6.596,-7.649,-5.391,-79.442,-40.339,-11.817,-0.69,-3.067,-79.972,-50.142,-24.543,-12.193,-1.746,-79.483,-52.695,-53.306,-37.952,-18.932]],
"vp": [[73.006,-136.137,-29.234,-26.952,-84.436,12.457,-4.314,-24.526,4.594,18.853,-21.715,-0.88,-6.909,-17.922,5.125,-0.087,-8.585,-0.636,2.382,-26.373,-13.605,4.998,-13.847,5.2,-12.077,-24.368,-4.159,14.847,-9.193,-11.188],[1395.595,-8.014,114.86,23.921,174.584,236.428,45.714,3.708,-9.59,-7.934,136.955,45.597,-17.096,-17.018,-11.059,-7.366,-16,6.185,1.83,2.443,-10.809,-27.051,-31.408,-12.645,-9.315,-31.444,-23.126,-9.182,-2.384,-2.321],[3446.859,767.938,318.944,360.747,9.706,680.988,75.955,28.242,29.11,28.939,232.688,38.369,42.957,-0.947,-22.142,7.439,15.954,6.619,-16.061,-1.112,1.6,-20.887,-31.01,-29.399,-19.456,-37.46,-45.783,-33.43,-13.469,-25.375],[4330.559,1600.064,503.305,31.119,110.293,1087.835,298.162,56.204,76.02,14.947,337.278,112.663,58.759,-24.714,31.553,79.084,34.413,27.478,-19.536,-17.534,-0.618,-8.363,-25.33,-2.247,-30.416,-6.475,-31.368,-34.528,-25.288,-16.304],[5566.596,2871.704,797.529,423.83,436.644,1023.18,480.278,268.912,134.005,55.31,490.231,325.671,129.315,25.049,7.763,74.546,46.894,25.621,-7.564,-12.857,19.782,6.284,-13.422,-19.563,0.46,-19.779,-1.478,-32.239,-17.488,-23.392],[6800.926,3439.666,1459.86,591.406,773.537,1295.922,745.237,227.916,157.116,109.8,642.249,471.069,127.397,110.181,106.249,88.052,48.639,39.995,-8.095,27.025,11.865,18.442,15.873,-0.213,-16.408,2.647,-23.066,-6.92,-27.054,-32.777]]
}