{
"KTrans": [[2.754,1.715,1.398,1.246,1.156,12.839,7.988,6.485,5.769,5.333,26.388,16.178,13.081,11.645,10.733,161.924,94.361,75.096,66.081,61.411,403.771,225.152,176.398,154.441,141.834,1121.768,595.14,453.919,394.006,362.54],[3.124,1.589,1.117,0.896,0.774,11.988,6.214,4.408,3.551,3.078,23.518,12.056,8.607,6.936,5.986,136.632,65.523,45.485,36.281,31.046,333.568,146.415,99.548,78.121,66.845,939.773,359.793,233.889,180.95,151.81],[4.084,1.919,1.247,0.955,0.791,12.778,6.34,4.245,3.289,2.751,24.215,11.919,8.118,6.269,5.24,138.893,62.336,41.172,31.61,26.267,330.414,139.038,89.014,67.665,55.45,952.76,340.28,207.463,152.114,123.565],[4.749,2.265,1.461,1.079,0.868,13.656,6.588,4.408,3.35,2.73,25.15,12.247,8.111,6.154,5.05,135.985,60.885,40.364,30.284,24.612,330.525,135.109,85.175,64.232,51.912,1025.083,334.387,194.695,144.885,114.018],[5.309,2.703,1.738,1.267,0.998,14.753,7.034,4.602,3.446,2.758,26.403,12.608,8.304,6.213,5.059,140.021,61.009,39.706,29.611,23.974,342.103,136.047,85.472,62.992,49.606,959.03,321.556,195.577,139.54,109.695],[5.764,3.011,1.97,1.459,1.136,15.042,7.48,4.919,3.619,2.88,26.479,12.892,8.463,6.369,5.063,138.254,62.528,39.253,29.529,23.554,350.829,137.601,83.352,61.315,49.101,920.03,331.207,191.904,138.239,106.881]],
"ve": [[0.738,-0.022,-0.462,-0.823,-1.156,4.082,0.477,-1.495,-3.051,-4.406,8.361,1.296,-2.43,-5.316,-7.72,44.852,13.015,-1.673,-11.451,-18.989,92.909,33.117,7.804,-7.64,-18.601,191.148,78.634,34.944,10.28,-6.403],[0.903,0.387,0.19,0.071,-0.016,4.839,2.246,1.289,0.744,0.356,9.759,4.569,2.678,1.598,0.842,49.32,23.526,14.2,8.999,5.416,99.095,47.639,29.339,19.194,12.384,199.076,96.568,60.737,41.331,28.565],[0.923,0.415,0.238,0.143,0.08,4.892,2.367,1.492,1.034,0.738,9.86,4.805,3.069,2.152,1.567,49.739,24.42,15.765,11.231,8.361,99.551,49.118,31.837,22.868,17.179,199.682,98.781,64.406,46.654,35.509],[0.913,0.416,0.248,0.16,0.105,4.906,2.39,1.545,1.11,0.838,9.888,4.866,3.165,2.293,1.754,49.726,24.626,16.182,11.848,9.162,99.616,49.427,32.486,23.902,18.552,200.058,99.313,65.333,48.307,37.646],[0.906,0.419,0.253,0.169,0.115,4.929,2.404,1.562,1.136,0.873,9.918,4.888,3.203,2.348,1.829,49.827,24.726,16.325,12.07,9.472,99.759,49.63,32.842,24.309,19.108,199.861,99.334,65.885,48.929,38.601],[0.909,0.411,0.251,0.171,0.119,4.916,2.41,1.575,1.149,0.892,9.908,4.89,3.215,2.374,1.857,49.781,24.814,16.385,12.192,9.617,99.848,49.733,32.911,24.471,19.394,200.179,99.588,66.029,49.265,39.002]],
"kep": [[2.002,1.738,1.869,2.086,2.339,8.414,7.476,8.101,9.098,10.187,16.636,14.692,15.898,17.914,19.997,80.815,71.981,78.082,87.568,99.259,161.104,144.261,156.399,175.505,197.121,319.453,289.103,310.478,347.963,394.205],[2.201,1.197,0.926,0.824,0.79,6.819,3.881,3.08,2.786,2.712,12.535,7.159,5.775,5.254,5.101,58.451,33.995,27.395,25.03,24.314,117.684,66.892,54.279,49.438,48.46,247.198,133.86,107.71,98.784,95.862],[3.132,1.497,1.007,0.811,0.71,7.518,3.881,2.713,2.231,1.999,13.064,6.787,4.899,4.031,3.616,59.5,30.47,21.946,18.32,16.524,115.54,60.282,43.364,36.457,32.659,250.63,121.407,86.988,71.9,64.977],[3.801,1.842,1.21,0.917,0.762,8.339,4.1,2.82,2.216,1.876,13.886,7.038,4.795,3.775,3.239,57.563,29.088,20.813,16.482,14.152,115.475,57.315,39.762,32.547,28.138,273.952,117.839,78.214,65.107,55.476],[4.361,2.275,1.481,1.096,0.881,9.36,4.521,2.993,2.284,1.869,14.993,7.359,4.943,3.777,3.172,60.135,29.083,20.097,15.65,13.247,121.053,57.719,39.608,31.115,25.603,252.051,111.343,78.145,60.825,51.286],[4.807,2.589,1.715,1.286,1.016,9.646,4.95,3.292,2.441,1.97,15.07,7.627,5.085,3.902,3.147,58.982,30.205,19.645,15.452,12.714,125.252,58.638,37.939,29.595,24.879,238.802,115.872,75.764,59.587,48.823]],
"vp": [[13.808,14.037,13.789,13.999,16.677,13.936,13.047,12.632,14.369,12.528,17.339,13.224,12.816,15.097,12.567,13.34,13.736,12.863,11.421,16.681,13.699,14.439,12.939,13.839,13.6,12.984,12.997,11.048,13.228,13.279],[-22.124,5.439,13.544,13.33,15.829,13.664,18.714,14.635,13.541,17.126,16.525,14.293,15.538,14.38,15.563,19.773,17.796,15.627,15.636,13.851,21.707,15.516,15.894,12.583,14.969,24.254,14.825,14.164,13.852,12.571],[-111.604,-27.856,-6.578,2.644,11.29,2.073,13.509,10.458,12.161,13.267,9.803,16.505,17.252,13.638,15.584,25.029,18.595,16.389,13.819,15.348,26.732,20.367,16.079,16.129,15.022,31.887,21.064,16.887,14.722,14.989],[-248.478,-93.425,-42.145,-18.31,-3.86,-29.948,-0.003,9.389,12.402,15.341,1.221,7.371,15.752,13.056,15.556,24.951,17.815,18.902,18.282,16.603,29.628,18.855,15.306,18.079,17.371,47.194,22.794,15.057,19.585,16.01],[-451.089,-201.995,-102.335,-53.695,-30.286,-79.816,-14.154,2.164,2.881,5.145,-22.802,1.152,10.941,13.621,17.543,19.992,19.291,17.046,17.115,17.219,41.77,23.168,22.585,18.676,16.912,54.23,22.161,20.323,19.628,19.414],[-809.709,-325.671,-175.465,-113.465,-69.255,-127.617,-38.958,-17.966,-4.091,-0.393,-56.826,-3.446,1.936,7.278,6.761,26.759,22.231,15.945,19.386,15.445,66.238,25.996,20.726,16.175,19.883,64.031,28.37,20.002,21.373,18.221]]
}