{
"KTrans": [[0.239,10.985,10.641,16.468,10.762,6.73,15.509,13.442,16.738,19.093,17.502,21.663,25.928,21.621,24.684,38.198,89.987,83.736,74.672,71.311,-108.905,133.501,157.487,156.305,134.761,65.668,63.108,127.524,186.893,224.831],[-39.954,-4.999,2.235,5.292,5.649,-35.05,-4.795,4.671,7.303,8.579,-23.725,1.532,5.821,7.217,11.606,-6.386,50.408,36.769,32.215,34.104,-2.632,86.147,79.08,71.25,65.897,-12.62,28.473,133.083,137.787,129.921],[-54.126,-17.234,-7.294,-2.528,0.773,-53.18,-13.907,-4.868,-1.738,0.536,-52.093,-9.779,-2.457,3.074,4.698,-46.146,20.562,21.276,19.487,21.008,-47.416,45.32,51.689,51.179,47.926,-60.72,-58.147,43.197,92.122,94.748],[-64.149,-27.682,-12.764,-9.879,-3.686,-65.415,-22.08,-10.606,-7.446,-4.037,-61.683,-20.384,-12.072,-3.141,-0.278,-57.624,-0.921,12.22,13.676,12.568,-51.054,-48.421,34.446,37.288,31.6,-42.801,-20.94,28.978,68.082,76.247],[-72.903,-30.576,-17.623,-12.034,-7.363,-73.64,-28.732,-16.524,-10.946,-7.109,-68.209,-18.193,-11.545,-11.48,-5.707,-67.517,-10.681,3.792,5.848,10.094,-83.136,-33.305,25.778,38.198,30.791,-63.842,-22.005,-11.625,60.581,65.407],[-80.648,-40.886,-23.569,-17.563,-13.403,-85.376,-35.734,-21.146,-16.457,-12.181,-83.031,-35.916,-23.736,-12.394,-11.029,-76.063,-32.208,-4.296,0.331,4.556,-81.322,-28.246,7.405,15.211,17.465,-88.824,-68.163,9.042,25.831,52.454]],
"ve": [[37.742,98.514,1.341,8203.943,-118.519,34.184,143.374,21.059,-2.151,540.578,75.515,85.016,108.606,-55.363,26065.634,44.922,38.909,14.068,-21.251,748.657,106.43,42.008,253.33,40.123,-5.872,182.954,90.855,29.005,6.916,-11.386],[5.629,2.823,3.3,3.783,9.402,14.259,3.777,5.611,5.786,7.285,24.446,4.901,6.87,6.411,6.032,50.322,23.719,14.99,13.289,12.312,92.357,44.485,32.088,23.043,16.172,198.147,95.476,78.279,55.137,34.591],[5.789,-0.962,-2.602,-0.266,1.781,32.222,1.048,0.304,0.437,1.502,11.698,0.505,2.07,2.556,3.152,50.079,20.334,13.881,10.627,10.12,92.62,23.81,30.302,21.926,17.392,201.839,87.45,60.853,49.21,34.51],[25.32,-0.647,-2.598,-2.654,-2.228,5.229,0.228,-3.229,0.057,-1.102,1.201,2.018,0.431,-0.819,-0.479,46.457,21.046,12.663,9.499,7.578,85.223,46.074,29.944,21.293,16.129,189.87,68.226,57.442,49.384,37.803],[7.858,-2.1,-3.286,-2.639,-1.757,13.038,-2.32,-1.974,-2.309,-1.552,13.739,5.499,0.277,-0.129,-0.185,46.73,23.421,12.389,8.106,6.746,100.269,43.024,28.986,22.924,17.744,190.99,88.447,57.209,44.463,35.823],[1.426,-0.88,-3.257,-3.535,-3.065,3.396,1.514,-3.535,-1.988,-2.895,39.795,1.865,-0.92,-1.232,-1.426,24.081,20.896,13.196,7.641,6.183,43.434,47.903,29.104,19.655,16.132,198.514,94.352,39.407,45.676,36.9]],
"kep": [[-35.521,-26.728,-35.232,-30.901,-50.843,-34.63,-28.012,-35.707,-36.215,-27.373,-29.659,-24.666,-20.326,-29.555,-23.99,-38.903,13.423,22.306,23.985,26.562,-88.3,19.179,55.246,79.416,89.615,-37.835,-19.875,14.341,67.896,129.907],[-59.473,-32.939,-28.793,-26.942,-29.562,-56.978,-33.788,-28.867,-26.511,-27.061,-54.198,-29.745,-28.368,-27.184,-23.983,-55.106,-12.627,-14.584,-16.354,-14.151,-60.8,-9.547,-3.514,-1.045,1.823,-69.327,-45.112,0.716,16.006,22.191],[-69.617,-40.047,-32.072,-30.34,-29.345,-69.73,-38.651,-32.065,-30.148,-29.389,-69.94,-35.62,-31.707,-28.414,-27.692,-72.487,-28.86,-23.762,-23.257,-21.779,-76.544,-29.109,-17.583,-12.123,-10.647,-85.136,-75.497,-35.439,-7.588,2.129],[-76.586,-47.164,-36.061,-34.054,-29.956,-78.692,-44.043,-34.166,-34.188,-31.073,-76.69,-43.926,-37.344,-30.443,-28.725,-79.317,-41.763,-28.883,-26.458,-25.71,-77.866,-72.67,-27.034,-20.133,-19.778,-81.263,-66.076,-40.304,-18.275,-9.828],[-82.574,-49.205,-39.444,-35.698,-33.098,-83.486,-47.994,-39.364,-35.264,-32.912,-81.56,-44.759,-37.062,-36.874,-32.955,-84.121,-49.566,-34.682,-30.585,-26.897,-91.34,-65.475,-31.671,-21.014,-21.5,-88.426,-66.295,-55.713,-22.211,-14.519],[-88.043,-57.709,-43.831,-39.281,-36.617,-90.928,-55.058,-41.924,-39.474,-35.899,-89.741,-55.325,-45.107,-37.062,-35.843,-88.326,-61.742,-40.041,-33.951,-30.301,-92.226,-64.759,-41.138,-32.334,-28.649,-93.826,-83.215,-50.028,-37.815,-21.427]],
"vp": [[148.341,-169.229,-318.157,480.744,249.316,-37.305,168.852,121.66,-44.878,201.356,-23.526,-21.258,-5.075,-10.398,65.861,-22.295,-7.007,12.285,-36.098,-18.849,-6.439,-14.347,4.693,-5.174,-39.051,-25.187,-20.565,-1.435,-2.878,-24.979],[3028.295,749.252,616.46,-28.005,228.77,525.472,85.775,66.386,-253.945,73.389,372.837,127.118,32.543,-8.089,-26.51,34.107,18.49,-16.149,-20.756,-24.756,-6.856,12.573,-9.46,-15.754,-6.496,-9.026,-31.101,-31.712,-4.251,-11.813],[5367.539,3783.372,2480.439,796.868,595.293,776.958,536.326,152.624,258.093,26.078,347.705,463.93,96.733,104.402,-4.846,88.03,56.833,11.125,-11.409,-12.937,21.507,1.673,-3.187,-13.618,-16.719,23.877,-24.636,-17.096,-31.012,-35.289],[5470.412,5734.277,3699.669,1848.083,1659.097,992.379,1058.699,841.098,456.118,191.259,473.222,554.345,258.649,184.389,146.1,102.7,75.059,39.524,50.514,10.061,1.167,40.431,8.627,9.052,-24.06,-0.8,-24.844,-44.913,-19.794,-22.344],[6574.976,7515.008,5844.611,3676.906,1593.415,1457.313,1459.94,1539.411,634.689,437.493,640.494,919.232,635.937,398.565,216.182,68.078,142.232,107.154,-2.97,39.636,59.772,25.602,30.5,42.058,19.317,2.22,-19.313,-25.732,-30.891,-28.587],[6845.467,8451.454,6606.39,4769.114,3411.973,1275.613,1972.547,1445.047,1107.827,725.723,624.229,753.721,850.875,566.596,451.913,136.213,195.296,130.621,107.956,62.887,54.79,63.328,37.813,20.851,-7.457,26.153,15.665,-5.185,-31.171,-25.146]]
}