{
"KTrans": [[4.674,2.829,2.087,2.145,1.959,14.931,9.414,7.288,6.565,6.221,28.775,17.911,14.612,12.861,11.626,163.624,98.733,76.404,68.583,64.813,61.832,198.091,169.733,147.224,142.373,80.545,158.177,153.191,223.184,208.395],[4.684,3.807,2.748,2.355,1.921,17.446,8.423,5.975,5.061,4.257,30.968,15.779,10.632,8.387,7.275,-31.954,70.178,49.342,40.04,31.908,-54.008,169.596,107.574,80.649,65.841,-110.619,87.113,202.452,187.165,153.825],[13.974,3.602,3.567,2.911,2.44,21.367,10.251,6.375,5.39,4.282,37.232,19.175,10.262,8.492,7.208,-15.786,75.147,48.505,35.624,29.314,-60.836,44.191,116.414,74.145,61.507,-7.214,22.016,109.934,162.747,138.24],[13.997,6.289,5.6,3.844,3.061,24.366,12.037,6.946,6.011,4.63,21.662,20.775,11.371,9.323,7.139,-79.541,106.758,54.863,36.604,27.776,-74.164,26.74,131.493,78.156,58.655,-65.606,-8.088,-10.472,149.729,136.417],[-26.486,6.224,5.481,4.546,3.242,-29.529,18.902,10.53,7.312,5.487,-46.682,20.443,13.593,9.275,7.027,-56.463,85.118,49.589,35.314,27.007,-38.195,-7.656,151.327,97.757,58.891,-27.97,19.84,-24.886,104.753,134.532],[-52.296,9.111,6.173,6.34,4.11,-63.173,23.157,12.745,8.523,7.202,-75.003,23.455,14.856,11.026,8.282,-62.679,33.677,62.834,40.764,28.181,-68.529,-35.828,105.133,103.455,67.974,-39.261,-10.914,24.195,9.625,157.485]],
"ve": [[0.341,-0.673,-1.277,-1.971,-2.478,3.694,-0.159,-2.25,-4.012,-5.587,8,0.733,-3.259,-6.282,-8.711,45.659,13.452,-1.671,-11.395,-18.953,93.779,37.309,9.969,-6.152,-16.807,195.499,71.327,33.918,0.98,6.913],[0.386,0.055,-0.228,-0.422,-0.589,4.595,1.904,0.859,0.251,-0.217,9.524,4.319,2.276,1.115,0.287,52.03,22.989,13.977,8.704,5.117,102.219,48.798,29.432,19.158,12.244,208.31,95.394,61.769,43.918,29.279],[0.899,-0.056,-0.092,-0.217,-0.331,4.582,2.116,1.129,0.682,0.317,9.428,4.793,2.654,1.792,1.164,50.799,23.693,15.528,10.984,8.044,102.551,48.543,32.069,22.616,17.021,204.307,99.387,62.974,47.666,36.327],[1.475,0.123,0.098,-0.108,-0.221,6.129,2.22,1.198,0.808,0.462,11.362,4.828,2.859,2.049,1.387,51.943,24.439,16.208,11.644,8.824,100.363,49.054,32.496,23.655,18.314,200.158,98.917,69.704,48.593,37.775],[-2.862,-0.05,0.013,-0.075,-0.238,4.569,2.551,1.495,0.943,0.583,10.784,4.645,3.046,2.031,1.428,51.366,24.962,15.883,11.755,9.113,96.771,51.16,32.842,24.743,18.798,201.652,96.425,67.283,49.896,38.058],[0.236,0.05,-0.021,0.074,-0.154,4.152,2.502,1.555,1.022,0.764,9.106,4.58,3.034,2.191,1.57,51.581,23.013,16.315,12.127,9.277,49.478,50.591,32.925,24.58,19.465,200.048,100.578,86.703,49.748,39.191]],
"kep": [[4.317,3.526,3.413,4.213,4.578,10.825,9.595,9.772,11.044,12.545,19.184,17.075,18.516,20.485,22.35,78.717,74.806,79.457,90.524,103.82,-6.904,118.304,144.755,163.033,191.102,-14.378,52.436,80.96,175.256,201.507],[4.179,3.746,2.983,2.789,2.526,12.111,6.389,5.071,4.798,4.484,19.172,10.951,8.166,7.191,6.971,-48.708,37.644,30.831,28.767,25.484,-68.014,77.396,59.203,51.165,47.637,-90.577,2.845,82.586,97.91,95.285],[12.183,3.618,3.656,3.134,2.78,15.135,7.894,5.178,4.674,3.952,24.26,13.623,7.392,6.577,5.973,-40.518,40.036,28.135,22.068,19.629,-75.077,-0.909,61.834,41.265,37.671,-61.574,-29.81,30.291,75.598,72.917],[10.863,5.955,5.454,3.948,3.288,15.572,9.383,5.64,5.15,4.147,8.154,14.883,8.215,7.109,5.668,-81.979,62.75,32.602,22.103,17.322,-81.938,-12.354,71.168,42.84,33.572,-83.132,-46.169,-38.853,65.765,69.304],[-28.246,5.797,5.383,4.592,3.479,-32.79,15.38,8.772,6.277,4.862,-50.959,14.446,10.082,7.058,5.506,-68.271,45.422,28.282,20.778,16.266,-65.889,-34.958,84.17,56.647,33.03,-71.885,-34.743,-47.91,36.455,66.885],[-52.044,7.972,5.982,6.194,4.246,-63.492,18.967,10.738,7.33,6.359,-75.57,16.746,11.178,8.546,6.57,-72.75,6.899,38.622,25.048,17.1,-81.518,-52.834,51.353,60.721,39.607,-76.4,-50.759,-20.963,-22.633,81.152]],
"vp": [[54.221,32.099,27.713,50.09,31.275,17.793,22.66,8.37,16.129,12.653,12.972,20.835,23.297,19.565,9.434,-4.488,9.42,4.917,11.094,20.338,2.386,-2.264,2.495,-2.769,13.659,33.187,-13.662,-4.378,-1.485,6.969],[-320.488,-15.906,49.774,86.519,79.739,-17.872,2.657,11.31,31.367,32.544,-19.268,33.662,24.054,15.518,21.402,29.751,-3.405,12.348,21.812,0.59,56.859,3.33,3.296,1.178,-5.664,64.468,-12.997,8.268,12.184,1.552],[4993.113,-337.597,-75.994,41.435,77.593,727.953,-36.234,-14.872,25.479,10.474,314.951,38.22,13.272,25.547,34.03,144.746,-5.663,18.953,15.54,18.098,60.275,-4.127,18.779,4.291,15.492,70.082,25.956,-19.437,5.416,10.773],[10601.2,-1268.113,-399.784,-119.276,-6.299,1988.686,-266.617,-92.413,-4.081,-10.659,884.502,-90.822,-24.585,1.622,16.708,245.768,72.441,32.569,22.42,11.7,104.581,28.961,16.393,10.632,11.781,63.43,21.202,13.387,-4.545,8.319],[12464.548,-2610.407,-1051.689,-501.565,-212.837,2834.042,-372.477,-194.776,-53.446,-32.626,1087.538,157.138,-102.05,-22.304,-16.84,244.488,91.376,-3.654,1.018,-1.328,105.646,105.075,55.297,43.825,10.645,65.685,24.49,33.564,1.456,-1.627],[12359.601,11378.719,-2192.359,-1012.638,-557.828,2167.579,2562.555,-405.306,-209.459,-50.715,1169.674,949.701,-180.453,-80.014,-30.132,372.445,119.565,51.818,14.362,8.488,149.641,104.434,63.38,42.694,34.16,81.846,90.759,54.597,29.755,21.767]]
}