{
"KTrans": [[28.216,11.371,15.418,7.367,13.692,31.7,21.398,9.619,11.493,13.702,41.562,27.716,12.448,21.539,21.061,190.65,110.438,84.042,71.991,71.746,472.432,257.538,187.903,171.172,161.282,1235.309,645.249,474.097,427.312,372.795],[36.239,28.075,16.249,10.734,14.435,60.02,37.807,13.766,15.17,16.376,95.223,50.29,32.423,29.236,21.425,182.088,105.779,67.024,57.632,46.44,465.536,221.309,118.964,102.103,79.938,1133.351,481.299,285.099,199.898,168.722],[-84.294,112.866,46.238,17.993,20.04,-73.512,169.746,41.099,37.424,25.48,-70.013,114.72,49.308,16.62,18.08,-47.206,181.035,82.983,58.592,39.343,-42.797,292.558,150.592,101.569,79.985,115.357,697.768,359.932,192.829,157.676],[-91.055,46.355,101.076,28.046,33.729,-84.998,28.245,61.382,44.171,34.516,-97.075,61.783,83.21,48.767,29.418,-99.434,78.999,138.873,68.007,61.302,-74.766,174.135,176.976,121.142,99.187,89.597,481.884,402.087,235.502,156.63],[-96.287,-54.57,217.559,72.025,51.073,-96.141,-95.038,224.585,84.23,64.797,-97.542,-44.652,235.962,96.164,59.94,-68.804,-137.678,250.962,126.918,67.385,-81.729,-13.207,350.113,171.1,100.522,65.803,66.886,640.814,222.068,189.51],[-99.842,-77.906,-28.503,142.935,53.622,-105.849,-112.456,39.888,151.434,75.774,-98.364,-94.857,4.03,123.539,75.28,-85.919,-65.296,42.394,196.229,102.541,-62.1,-51.2,113.6,297.892,143.661,-144.677,-19.55,133.893,380.586,285.2]],
"ve": [[2.827,1.269,1.17,2.529,3.703,5.806,2.415,2.188,-0.863,2.688,8.916,2.092,-0.589,-3.364,-5.37,46.171,13.884,-1.817,-11.346,-18.315,94.491,34.865,7.866,-7.247,-18.296,190.645,80.356,34.326,10.748,-6.758],[0.036,0.297,0.802,0.305,0.97,17.752,2.94,0.811,0.983,1.241,11.787,5.829,4.167,2.988,1.621,48.95,24.12,14.92,10.434,6.064,98.921,48.387,28.934,19.796,12.249,197.768,98.605,62.102,40.734,28.685],[1.051,2.348,2.172,0.131,1.356,6.38,6.233,2.131,3.28,2.021,11.894,5.289,3.556,1.487,1.475,49.962,25.664,15.81,12.14,8.11,100.143,49.347,32.189,23.272,17.803,200.547,99.411,67.518,47.455,36.151],[0.12,0.06,2.406,-0.492,1.293,5.235,2.348,0.464,2.306,1.675,10.018,5.993,3.134,3.425,2.202,50.202,25.627,16.827,11.835,10.407,111.252,50.891,32.062,24.858,20.294,198.442,101.985,66.832,49.564,38.22],[1.04,0.281,1.861,0.852,1.69,5.235,3.79,4.512,2.872,3.134,11.23,4.56,5.157,4.116,3.52,49.49,25.658,17.869,13.723,9.531,99.759,50.722,32.894,25.568,19.175,199.242,100.643,66.561,46.959,40.127],[2.431,0.165,-0.406,1.463,0.25,6.474,7.25,14.05,2.678,1.806,7.848,5.191,3.574,2.507,3.375,49.532,24.34,14.787,12.337,10.224,100.672,51.17,32.564,25.839,20.916,202.331,100.975,67.467,50.115,42.37]],
"kep": [[22.584,10.094,17.042,9.098,20.265,22.558,18.316,9.645,16.619,20.428,27.628,24.586,14.611,30.017,33.886,96.299,83.115,86.417,93.495,110.67,191.702,162.939,165.304,190.667,217.978,356.271,311.234,324.65,373.794,404.641],[28.279,23.875,13.06,9.215,12.716,43.152,29.861,10.651,12.63,14.19,67.073,37.912,24.678,23.845,18.614,82.514,61.461,42.983,40.963,36.713,175.717,111.082,66.742,66.266,58.237,305.648,188.568,134.782,110.339,106.712],[-80.882,97.634,38.54,14.887,16.17,-72.151,141.67,33.62,30.423,20.726,-70.062,91.708,38.883,12.148,14,-62.365,114.713,52.704,38.193,26.468,-66.785,153.095,84.197,59.725,50.031,-24.363,287.867,168.923,95.209,86.141],[-86.801,37.438,87.123,23.457,28.098,-82.443,19.465,52.059,36.417,28.484,-92.825,45.312,67.957,39.143,23.079,-95.863,37.715,95.146,45.447,42.354,-82.547,77.968,101.188,72.112,61.987,-33.223,183.06,192.016,118.813,82.044],[-93.105,-52.169,191.271,62.143,43.806,-93.306,-89.186,193.254,71.549,54.112,-94.231,-46.018,199.281,80.101,49.212,-76.583,-121.654,181.375,91.564,47.103,-87.372,-38.783,219.182,107.783,62.468,-41.729,-12.638,324.268,111.177,101.594],[-97.264,-74.316,-28.733,124.993,46.049,-101.569,-106.533,30.22,130.372,64.304,-95.109,-90.047,-2.595,104.061,62.436,-88.017,-68.086,19.011,146.677,75.223,-78.014,-63.709,55.169,199.415,94.387,-111.776,-55.096,39.943,206.834,162.945]],
"vp": [[0.001,0.001,0.001,0.001,0.001,0.005,0.005,0.005,0.005,0.005,0.01,0.01,0.01,0.01,0.01,0.05,0.05,0.05,0.05,0.05,0.1,0.1,0.1,0.1,0.1,0.2,0.2,0.2,0.2,0.2],[0.001,0.001,0.001,0.001,0.001,0.005,0.005,0.005,0.005,0.005,0.01,0.01,0.01,0.01,0.01,0.05,0.05,0.05,0.05,0.05,0.1,0.1,0.1,0.1,0.1,0.2,0.2,0.2,0.2,0.2],[0.001,0.001,0.001,0.001,0.001,0.005,0.005,0.005,0.005,0.005,0.01,0.01,0.01,0.01,0.01,0.05,0.05,0.05,0.05,0.05,0.1,0.1,0.1,0.1,0.1,0.2,0.2,0.2,0.2,0.2],[0.001,0.001,0.001,0.001,0.001,0.005,0.005,0.005,0.005,0.005,0.01,0.01,0.01,0.01,0.01,0.05,0.05,0.05,0.05,0.05,0.1,0.1,0.1,0.1,0.1,0.2,0.2,0.2,0.2,0.2],[0.001,0.001,0.001,0.001,0.001,0.005,0.005,0.005,0.005,0.005,0.01,0.01,0.01,0.01,0.01,0.05,0.05,0.05,0.05,0.05,0.1,0.1,0.1,0.1,0.1,0.2,0.2,0.2,0.2,0.2],[0.001,0.001,0.001,0.001,0.001,0.005,0.005,0.005,0.005,0.005,0.01,0.01,0.01,0.01,0.01,0.05,0.05,0.05,0.05,0.05,0.1,0.1,0.1,0.1,0.1,0.2,0.2,0.2,0.2,0.2]]
}