{
"KTrans": [[-57.479,-76.743,-85.171,-72.619,-95.815,-50.615,-61.782,-81.474,-80.698,-88.839,-42.787,-58.009,-75.17,-83.013,-67.694,19.971,14.274,-31.413,-34.77,-26.115,84.748,36.53,14.845,-12.973,12.213,200.672,57.586,132.893,89.829,74.123],[-61.429,-44.705,-54.753,-62.948,-68.675,-58.962,-39.982,-49.076,-62.558,-52.989,-50.619,-40.635,-43.013,-60.048,-61.872,-31.895,-12.966,-8.488,-18.664,-30.412,-17.429,6.879,12.166,2.887,-37.95,24.976,37.498,54.63,43.671,3.873],[-72.866,-56.41,-47.347,-41.569,-53.527,-71.167,-48.172,-43.902,-42.864,-49.044,-69.287,-53.134,-39.69,-39.541,-47.637,-61.739,-35.595,-17.182,-10.269,-24.178,-47.142,-19.593,-11.157,2.65,-1.994,-22.078,3.536,31.179,31.565,27.732],[-79.588,-59.836,-48.468,-45.384,-44.678,-79.944,-61.249,-47.17,-48.061,-43.329,-77.782,-60.011,-43.379,-41.825,-46.435,-67.937,-51.657,-35.583,-26.434,-25.205,-60.799,-38.161,-23.442,-13.833,-12.517,-36.131,-20.746,12.618,18.453,-1.481],[-83.604,-65.294,-52.812,-50.127,-49.495,-82.967,-68.18,-57.81,-52.232,-48.008,-84.443,-66.467,-49.749,-46.754,-44.02,-76.267,-59.038,-42.592,-36.866,-28.218,-71.073,-48.038,-36.127,-28.632,-24.315,-55.036,-29.47,-22.095,-5.677,3.725],[-85.906,-71.601,-61.72,-43.893,-50.884,-86.112,-72.96,-57.518,-48.689,-48.116,-85.92,-69.196,-54.15,-46.384,-45.698,-81.316,-67.622,-51.798,-40.27,-37.835,-76.173,-55.223,-42.516,-34.048,-34.212,-66.214,-41.942,-27.957,-9.42,-8.652]],
"ve": [[-100.52,-33.123,-46.751,-101.967,-69.171,-55.855,-36.997,-25.064,310.694,-66.951,-87.171,-36.982,-71.056,-38.736,-61.984,25.736,-15.712,-80.601,-35.868,-11.63,63.869,12.5,-29.086,144.518,-84.74,246.583,28.896,28.695,-47.705,-45.595],[-136.028,-55.938,-46.276,-70.808,-66.489,17.52,-30.736,-91.708,-42.644,-23.769,32.443,-41.416,-44.102,-34.049,17.97,-663.827,23.689,-29.574,-27.852,-22.466,-51.734,15.553,192.131,-6.226,-16.807,329.184,70.976,47.285,52.851,-2.954],[-44.934,-62.75,-58.883,-40.273,-52.655,-18.096,-65.323,-51.553,-48.328,-52.54,-4.763,-76.896,-116.197,-37.471,-44.024,32.192,-20.695,4.545,14.415,-117.22,44.885,10.365,15.242,20.13,-0.739,185.557,44.735,42.771,44.37,10.981],[-3.779,-0.333,-105.905,-89.312,-57.574,5.331,-47.899,-64.092,-66.604,-64.081,-150.309,-36.64,-222.552,-52.69,-37.888,73.133,-28.036,-49.182,-27.965,-34.019,113.079,32.575,-12.192,-23.841,-14.016,280.542,70.928,34.564,34.727,-4.218],[35.82,-33.39,-34.372,-91.834,-79.734,8.012,-40.11,-79.729,-88.541,-75.358,16.269,-47.351,-53.878,-67.068,-63.564,97.677,-7.261,-35.739,-44.363,-47.448,100.795,11.841,-47.221,-45.707,-28.124,261.487,72.056,11.62,-2.245,0.693],[13.124,-15.165,-54.021,-59.395,-94.228,9.855,-32.151,-74.243,-76.908,-114.825,16.502,-48.281,-50.426,-70.558,-73.056,105.155,8.946,-41.215,-61.638,-63.313,76.681,49.817,-8.687,-43.778,-63.498,214.241,135.087,29.679,1.966,0.842]],
"kep": [[-122.473,-78.135,-6.997,-98.885,-27.161,-133.541,-88.299,-8.786,-65.63,-17.391,-128.299,-104.219,-70.244,16.058,-35.829,-120.743,-122.61,-69.4,-13.169,2.63,-108.979,-96.084,-64.185,-55.936,-91.454,-115.962,-72.224,-145.541,-72.551,-70.037],[-101.532,-99.557,-112.486,-101.188,-13.211,-100.843,-115.209,-101.465,-81.618,-26.452,-97.585,-99.138,-134.589,-100.294,-59.168,-102.103,-95.903,-121.432,-105.196,-46.978,-89.702,-81.498,-109.338,-106.194,-31.621,-84.007,-67.048,-79.727,-106.447,-87.38],[-100.203,-80.44,-64.405,-100.812,-121.692,-98.957,-74.884,-70.83,-106.917,-130.589,-99.971,-74.978,-61.433,-96.375,-112.362,-96.652,-71.12,-76.32,-92.371,-100.477,-93.464,-71.297,-72.793,-69.635,-100.918,-87.347,-74.386,-55.172,-67.054,-88.565],[-102.032,-83.981,-58.291,-37.166,-36.222,-100.139,-80.792,-50.612,-47.691,-63.879,-99.831,-82.096,-60.243,-46.611,-66.455,-100.051,-74.503,-49.03,-47.638,-62.388,-97.137,-83.716,-53.579,-46.388,-44.097,-95.3,-71.284,-44.682,-49.553,-54.177],[-100.351,-81.882,-59.984,-27.98,-27.369,-101.548,-86.251,-56.052,-33.374,-30.467,-100.033,-80.771,-53.339,-42.627,-34.319,-100.35,-81.619,-51.917,-40.38,-22.218,-97.995,-77.462,-47.534,-31.849,-33.111,-96.912,-76.269,-57.035,-37.764,-47.564],[-100.555,-89.557,-55.132,-36.245,-19.005,-100.663,-87.682,-52.591,-29.708,-27.237,-100.29,-89.44,-58.83,-32.947,-29.124,-101.362,-82.407,-58.412,-33.19,-23.692,-96.639,-84.391,-59.783,-40.734,-23.429,-95.99,-87.777,-68.656,-40.718,-33.077]],
"vp": [[-614.446,76.898,188.749,82.277,490.35,-33.863,28.116,100.338,-20.229,156.824,-49.522,-65.801,41.982,34.009,43.488,-3.602,-1.605,9.058,-2.233,14.049,3.743,14.42,-2.43,11.209,-22.016,-9.141,3.354,1.589,-0.432,-2.077],[3045.691,1416.951,-9.958,-486.375,-48.472,589.508,350.226,-40.546,-113.67,23.473,257.936,155.674,-15.816,-46.833,-56.789,63.399,23.384,6.526,-3.318,-6.84,16.038,-4.347,-2.972,-9.842,15.251,-0.539,-8.419,-13.276,-20.112,-10.021],[5473.247,3382.789,1471.222,1132.123,10.256,900.39,587.206,272.8,233.177,19.307,507.215,211.922,223.076,79.161,-21.155,103.998,66.185,57.515,19.342,5.736,44.241,24.626,27.974,0.356,1.822,23.355,16.786,-5.831,0.692,7.882],[6240.279,5509.297,4585.864,1465.666,1201.698,1494.393,1207.83,614.776,268.383,284.849,678.79,607.944,418.143,229.823,36.956,126.495,85.861,39.988,45.587,-2.929,52.011,65.032,31.994,23.109,-0.486,19.034,32.038,-9.222,10.015,14.747],[6658.674,7236.711,6456.492,1934.512,1852.26,1384.343,1630.531,1151.458,598.592,398.643,676.222,690.388,527.586,319.335,174.498,147.066,139.878,97.984,70.274,15.759,66.47,43.826,28.309,9.236,16.467,16.331,18.588,18.494,2.972,16.922],[7105.828,9356.211,5873.262,5201.35,1976.071,1615.683,1893.898,1214.944,793.886,617.216,740.292,945.835,597.144,408.399,372.248,134.052,159.839,117.525,70.237,57.867,51.318,82.659,67.896,46.372,4.964,25.966,46.57,32.995,20.98,0.714]]
}