{
"KTrans": [[-24.841,-36.427,-36.047,-38.472,-36.385,6.115,-1.265,-2.835,-0.875,-1.553,14.361,-1.132,-0.935,0.851,-1.209,68.403,-2.219,-0.866,-2.569,-2.16,132.93,4.143,1.49,2.931,9.072,240.923,27.394,41.062,45.142,57.307],[-41.966,-43.125,-22.759,-40.673,-29.89,-16.204,-12.678,2.587,-3.449,-3.389,-0.64,0.086,4.573,0.218,-0.073,-1.485,0.601,22.827,-0.177,0.78,-2.641,0.347,49.445,-1.284,0.038,-0.99,0.604,96.944,-1.086,-1.37],[-36.442,-39.787,-40.801,-43.596,-26.775,-23.318,-14.264,-6.312,-5.049,1.299,-9.637,-0.937,-0.273,0.071,2.956,-2.15,0.445,0.066,-0.154,14.166,-4.863,-0.339,-0.011,-0.066,28.059,-2.756,0.617,0.122,0.257,49.773],[-37.012,-37.608,-47.638,-39.729,-39.424,-23.989,-23.562,-11.339,-10.272,-11.214,-17.013,-2.348,-0.539,0.09,-0.068,-11.012,-0.343,-0.277,0.031,-0.283,-10.262,-0.871,-0.728,0.002,0.033,-7.385,-0.625,-0.027,0.14,-0.027],[-39.87,-42.541,-49.993,-46.473,-45.535,-36.241,-29.713,-14.74,-15.761,-7.003,-25.61,-4.805,-0.415,-1.04,-1.558,-26.029,-0.759,0.289,-0.212,-0.035,-23.027,0.047,-0.025,0.183,0.1,-23.082,0.336,0.287,-0.01,0.041],[-40.308,-39.036,-36.967,-36.893,-41.553,-45.725,-21.982,-25.154,-13.63,-12.103,-39.118,-14.066,-8.849,-3.122,-1.417,-35.2,-1.904,-0.47,0.142,-0.002,-36.979,-1.74,0.272,0.072,0.089,-33.396,-1.278,-0.648,0.033,-0.039]],
"ve": [[-29.468,-17.725,-11.741,-8.696,-7.27,5.255,0.132,-0.399,0.181,0.573,12.532,0.454,0.206,1.255,0.002,63.233,-0.539,0.903,0.45,1.222,131.694,2.618,0.793,0.97,4.004,240.986,14.074,13.985,11.27,11.564],[-126.666,-65.504,-22.757,-30.432,-17.797,-47.786,-19.51,2.586,-2.424,-1.905,-3.915,-0.019,4.646,0.248,-0.005,0.161,0.221,23.372,-0.005,0.421,-0.357,0.081,49.843,-0.603,0.139,0.354,1.181,97.847,-0.723,-0.669],[-158.359,-98.062,-68.001,-54.726,-26.779,-100.186,-36.989,-10.319,-6.54,1.43,-32.818,-2.676,-1.585,-0.032,2.431,-0.698,0.203,0.008,-0.116,14.203,-2.16,0.162,0.103,-0.369,27.953,-0.277,-0.021,-0.243,0.271,50.267],[-167.22,-130.001,-112.185,-69.397,-55.359,-77.268,-81.768,-26.77,-18.098,-15.911,-53.741,-8.09,-2.436,-0.008,-0.095,-5.362,-0.098,-0.025,0.081,-0.064,-4.097,-0.161,0.01,-0.028,0.048,-2.484,-0.462,-0.002,0.023,0.01],[-155.456,-186.746,-150.582,-105.101,-81.916,-149.004,-135.077,-44.489,-34.978,-13.028,-54.835,-15.605,-3.158,-2.428,-2.034,-12.469,-0.335,0.055,-0.125,-0.042,-10.882,-0.377,-0.12,-0.018,0.018,-11.471,0.039,0.002,-0.02,0.072],[-61.179,-207.295,-135.755,-100.667,-91.489,-81.538,-112.802,-92.012,-37.209,-27.053,-31.748,-69.113,-35.477,-8.683,-2.439,-18.415,-0.734,-0.063,0.042,-0.033,-18.685,-0.55,0.074,-0.039,-0.009,-17.053,-0.494,-0.047,0.04,-0.07]],
"kep": [[-129.111,-1.069,1.857,-0.469,2.029,-130.332,-1.687,0.38,1.06,0.559,-139.448,-0.693,1.095,-0.953,1.832,-137.538,-1.037,-1.946,-0.518,-0.945,-132.562,-2.224,0.985,1.638,-2.144,-120.104,-0.031,0.415,2.282,1.566],[0.4,1.871,-140.178,-2.984,0.219,0.009,-0.188,-153.033,0.575,0.735,0.401,-1.119,-136.068,-1.972,0.478,-2.636,0.392,-138.311,-0.068,-1.344,-3.122,0.495,-148.09,0.663,-0.539,-1.674,-1.442,-145.179,-0.002,0.078],[-3.62,-0.891,-0.036,-0.124,-141.157,-2.168,0.477,-1.033,0.73,-128.068,-3.089,0.391,1.878,0.206,-147.887,-2.319,0.491,0.3,-0.383,-142.95,-3.356,-0.881,-0.454,2.211,-140.097,-2.94,1.016,0.976,-0.383,-123.955],[-9.726,-0.656,0.913,-0.49,-0.129,-9.581,-0.533,0.298,0.161,0.108,-6.33,-0.118,0.621,0.473,-0.429,-6.949,-0.594,-0.227,0.185,-0.735,-7.6,-1.034,-1.397,0.252,-0.408,-5.949,-0.142,0,0.128,-0.079],[-16.131,-0.993,0.173,0.4,-0.201,-14.927,0.214,0.23,-0.319,0.671,-13.501,-1.377,0.843,0.025,-0.601,-17.944,-0.571,0.309,-0.09,-0.178,-15.335,0.656,0.194,0.278,0.276,-14.885,0.322,0.42,-0.11,-0.268],[-24.663,-0.878,0.004,-0.479,0.136,-27.724,-1.158,-0.209,0.066,0.161,-25.836,-1.167,0.868,0.017,-0.624,-23.74,-1.474,-0.551,0.069,0.013,-24.833,-1.564,0.241,-0.004,0.103,-22.025,-0.96,-0.888,-0.01,0.05]],
"vp": [[22.208,-39.846,28.33,17.735,-5.414,2.724,-1.952,0.793,1.864,0.255,0.198,0.548,0.63,-3.11,0.652,-0.474,-0.144,-0.357,-0.251,-0.256,0.301,-0.078,0.082,-0.04,-0.205,-0.011,-0.24,0.039,0.181,-0.017],[12.261,-28.5,38.176,-45.919,43.69,11.2,-2.988,1.525,5.854,-0.212,-0.879,0.7,-0.328,-1.197,-1.695,0.609,-0.575,-0.043,0.075,-0.796,1.216,-0.114,-0.051,0.512,0.161,0.182,0.178,-0.13,-0.061,0.145],[292.148,50.938,9.059,-13.609,18.085,46.81,-15.389,-2.383,-0.219,0.633,13.848,0.525,-5.881,-0.164,0.763,1.958,-0.97,0.214,1.114,-0.041,2.612,0.109,0.085,0.047,-0.005,0.363,-0.239,-0.071,0.146,-0.005],[661.798,42.805,-39.46,-26.274,-23.217,134.153,-7.377,-2.381,-1.242,-3.351,50.431,1.082,-4.917,0.237,2.431,11.127,0.612,0.712,-0.213,1.323,4.61,0.631,0.451,-0.102,0.085,1.488,0.499,0.047,0.063,-0.029],[1219.467,96.954,-66.945,-28.709,-12.525,194.15,-3.267,6.051,4.693,0.331,108.714,11.692,-4.871,0.333,8.364,26.107,1.603,-0.454,0.929,0.648,11.421,0.667,0.388,-0.081,-0.08,6.107,0.005,-0.086,0.128,-0.013],[1952.432,159.732,-11.949,54.875,-7.395,443.475,24.708,-1.672,5.101,-10.658,206.612,15.425,-8.318,0.145,5.162,37.604,3.161,0.61,-0.426,0.162,19.563,1.309,-0.306,0.203,0.015,8.883,0.573,0.275,-0.145,0.228]]
}