{
"KTrans": [[-42.5,-70.805,-67.276,-72.619,-65.078,-35.872,-62.272,-57.968,-59.388,-52.678,-21.924,-63.379,-44.825,-43.307,-49.674,63.79,6.537,-1.327,12.053,8.27,92.941,32.568,39.582,28.74,36.234,189.714,94.243,118.237,117.741,133.709],[-55.223,-38.563,-46.17,-55.324,-52.568,-54.863,-35.572,-39.237,-41.321,-45.996,-51.494,-29.103,-21.537,-31.83,-40.632,-29.393,-1.77,18.791,-4.813,-2.951,3.606,20.21,34.416,2.045,-5.694,60.427,85.062,60.589,7.124,19.357],[-66.755,-51.421,-47.526,-42.604,-48.938,-66.354,-40.636,-38.064,-32.94,-38.273,-63.25,-42.881,-32.714,-31.313,-28.716,-54.656,-15.13,-11.899,-2.319,13.171,-39.131,-1.983,5.984,14.272,18.989,12.792,21.715,27.834,47.29,17.373],[-77.033,-45.134,-47.153,-39.341,-47.814,-75.674,-52.437,-38.495,-45.098,-46.63,-76.077,-43.755,-32.603,-35.117,-36.091,-66.577,-28.762,-14.508,-3.638,-4.522,-57.409,-20.206,-7.771,-4.072,0.901,-28.268,-5.768,0.686,13.447,22.557],[-82.566,-52.82,-44.525,-45.88,-50.036,-82.032,-47.548,-39.687,-47.005,-46.34,-81.924,-47.622,-39.671,-46.88,-33.949,-75.724,-42.073,-15.823,-16.325,-4.129,-65.896,-30.726,-11.796,-2.486,-1.704,-52.036,-11.802,-7.322,6.616,6.126],[-85.614,-56.96,-47.605,-40.213,-46.269,-85.265,-52.516,-44.265,-46.775,-44.26,-85.273,-53.399,-41.827,-35.219,-35.855,-81.432,-45.694,-24.953,-11.485,-8.113,-71.792,-41.815,-14.361,-5.806,-5.259,-57.143,-22.03,-9.44,5.496,5.116]],
"ve": [[-24.039,-56.242,-140.246,4.443,-86.985,-44.255,-21.605,-49.329,-18.334,7.348,-42.613,-47.348,-18.319,5.673,42.428,57.887,-10.602,-14.561,-92.518,-14.275,136.878,11.943,-18.059,13.692,-12.02,164.079,39.848,-283.776,25.094,-38.501],[-96.292,-50.482,-46.38,-40.85,-19.95,-53.915,-47.767,-38.475,-36.572,-22.6,-61.922,-30.212,-19.069,-30.384,-21.422,-14.232,0.058,21.688,-1.327,4.385,94.18,35.308,36.109,1.42,7.371,207.218,97.637,56.09,7.877,17.804],[-23.267,-97.478,-77.787,-39.544,-47.958,-40.046,-76.884,-62.464,-39.953,-38.455,-14.841,-91.179,-57.355,-37.316,-23.542,-0.52,-13.77,-21.338,0.042,10.558,19.588,-6.747,5.63,12.503,20.889,176.053,22.986,33.009,49.503,15.29],[537.099,-87.147,-100.498,-63.089,-68.809,-14.218,-113.836,-81.862,-80.538,-72.274,-12.839,-76.759,-67.863,-63.701,-57.413,1.072,-28.302,-35.43,-5.637,-6.963,69.099,-2.486,-15.844,-9.598,-0.925,264.781,29.61,6.119,7.365,14.256],[-17.284,-89.02,-110.764,-98.892,-90.597,11.912,-57.129,-95.773,-105.764,-84.137,-3.797,-79.083,-99.092,-105.758,-62.069,8.404,-46.626,-34.898,-39.114,-5.095,109.638,-7.569,-16.728,-11.911,-6.228,187.425,-1.886,-8.899,4.171,3.494],[2.481,-68.85,-147.826,-95.263,-100.91,-0.49,-65.037,-126.482,-128.378,-96.615,5.212,-67.64,-111.42,-91.112,-79.969,33.28,-28.268,-54.786,-31.266,-19.249,98.583,-33.914,-6.228,-8.72,-15.367,176.878,22.192,-2.556,-1.902,0.013]],
"kep": [[-132.715,-22.85,-10.152,-12.31,7.252,-113.892,-13.569,-4.006,7.508,-9.656,-125.177,-18.391,-1.418,-12.377,-16.963,-124.439,-35.726,-2.403,-12.213,-5.08,-94.292,-41.905,-29.681,-13.035,-17.634,-22.44,-60.095,-50.309,-49.827,-66.11],[-57.771,-45.975,-146.785,-14.97,0.67,-57.735,-27.265,-115.31,-18.184,8.158,-60.185,-27.742,-129.626,-13.03,1.672,-53.144,-28.857,-120.619,-19.635,-10.3,-64.2,-39.724,-95.188,-40.269,-9.013,-58.364,-26.041,-50.077,-53.368,-36.306],[-79.27,-15.974,-9.599,-20.11,-128.172,-70.425,-19.398,-6.188,-34.472,-120.25,-75.107,-14.707,-4.34,-23.062,-107.088,-71.67,-15.998,-7.694,-21.115,-116.329,-63.823,-9.702,-5.02,-13.881,-91.191,-62.671,-13.515,-21.918,-38.789,-17.226],[-87.498,-24.07,-7.192,-11.117,-4.393,-85.922,-23.904,-6.815,-2.169,-6.638,-86.334,-27.281,-5.642,-1.609,-1.583,-82.339,-24.969,-2.295,-2.688,-11.427,-81.025,-30.144,-6.46,0.774,-3.38,-88.552,-31.89,-13.415,2.722,12.073],[-91.829,-30.214,-7.36,-4.353,-1.083,-93.712,-36.571,-9.065,-1.552,-0.397,-91.101,-30.721,-11.055,-2.541,-0.54,-85.766,-33.638,-6.211,-1.725,-4.274,-90.552,-33.889,-10.482,0.002,0.848,-88.151,-33.68,-8.062,-1.538,0.759],[-94.487,-42.248,-7.35,-6.959,0.724,-94.495,-41.274,-9.786,1.005,-1.667,-93.639,-40.457,-13.215,-3.637,2.188,-92.432,-42.73,-11.219,-0.617,2.451,-91.804,-40.074,-12.177,-5.003,1.627,-85.42,-44.442,-14.713,0.695,-0.05]],
"vp": [[340.49,-204.929,-256.849,-289.871,228.097,-13.647,27.584,35.947,28.574,-5.1,11.999,-31.738,15.996,2.907,-21.075,-8.368,-1.286,6.262,-7.63,-1.094,-1.829,-1.436,1.926,6.276,1.781,-5.902,2.589,-5.743,-0.991,-8.337],[1863.459,607.53,-89.376,-40.024,329.081,345.174,85.232,14.729,29.945,9.414,179.503,57.522,-14.182,22.284,-14.412,25.148,9.705,-4.402,-11.493,-8.637,8.929,1.723,3.474,-4.561,0.904,2.249,-6.446,-7.722,2.882,-6.738],[4366.392,703.626,458.74,314.905,-67.32,763.026,244.983,45.145,99.132,-17.85,407.711,58.153,8.333,-4.532,-23.458,66.255,21.175,1.614,-1.649,-7.308,20.479,-3.623,0.576,-10.565,-2.79,-1.194,-1.439,-3.36,-0.876,-5.19],[5428.134,1897.847,598.845,799.771,172.947,1094.648,354.063,167.776,20.025,11.302,563.513,205.958,42.343,-1.55,25.7,95.169,42.448,-4.613,2.711,3.401,44.093,13.849,-1.226,6.973,-3.481,27.423,12.275,8.156,-2.395,-12.185],[6189.084,4020.239,1137.28,520.552,96.075,1320.184,670.496,212.39,0.061,-26.455,624.357,323.69,62.98,-1.605,-4.131,104.674,70.151,15.481,-7.266,9.073,55.951,32.451,12.619,-6.587,-1.605,28.639,2.508,11.508,-2.882,-1.99],[7066.147,5267.916,1165.348,1185.793,545.232,1332.344,911.381,337.228,80.675,52.229,708.68,457.465,153.809,66.28,22.341,129.213,97.305,26.662,4.24,5.669,66.004,35.387,24.328,6.633,0.274,24.532,18.753,15.138,-1.421,-5.237]]
}