{
"KTrans": [[1.029,0.572,0.578,1.05,-0.013,2.028,-0.717,-1.796,-1.351,-1.328,-8.166,-0.654,-2.095,-2.332,0.25,-11.406,-8.716,-6.352,-4.167,-6.307,-23.668,-21.192,-8.973,-12.332,-4.89,-25.079,-32.624,-14.441,-18.919,-20.298],[-18.447,0.086,-1.168,-0.599,1.153,-20.992,-1.898,-0.957,-0.332,-0.224,-23.593,-1.082,-0.201,-0.666,-0.653,-31.923,-9.089,-5.575,-3.858,-3.741,-40.943,-16.726,-13.755,-6.906,-6.022,-41.615,-23.439,-20.532,-15.249,-13.637],[-52.514,0.71,-1.545,-0.031,0.719,-49.974,-3.944,1.273,1.045,0.47,-52.227,-2.446,-1.586,-0.625,0.151,-60.743,-11.202,-4.926,-4.343,-4.155,-67.741,-19.948,-10.465,-7.163,-5.276,-50.077,-31.788,-22.203,-16.478,-14.681],[-72.678,-9.352,-0.57,0.43,-0.621,-73.803,-7.6,-0.723,-1.121,-0.028,-74.374,-7.517,-1.421,-0.7,-0.501,-80.482,-19.341,-4.844,-4.837,-2.685,-79.934,-29.567,-10.999,-8.854,-6.917,-71.734,-46.876,-20.771,-19.398,-10.311],[-87.372,-7.072,0.468,1.372,1.35,-88.313,-11.985,-0.74,-0.384,-0.053,-87.889,-13.27,-0.331,-0.439,0.991,-90.066,-19.971,-8.429,-3.895,-2.587,-88.388,-33.49,-15.724,-9.999,-7.634,-83.401,-51.389,-20.358,-18.423,-12.231],[-92.93,-14.793,0.534,1.56,0.434,-93.132,-16.294,-2.402,0.028,0.761,-92.704,-19.646,-2.326,-0.126,0.103,-91.813,-33.608,-9.691,-4.747,-3.877,-89.29,-40.35,-17.543,-10.274,-6.893,-90.138,-54.674,-34.791,-18.898,-15.778]],
"ve": [[-0.137,1.113,1.832,1.585,5.587,1.442,1.622,2.721,5.92,8.95,-1.02,0.718,2.195,5.01,4.126,-3.592,2.706,5.994,10.723,31.771,-6.069,13.76,-28.163,22.175,76.942,-44.948,249.956,-191.158,-0.133,-366.239],[-8.211,-0.43,-0.455,0.033,-0.256,-10.251,-0.143,-0.768,0.038,0.195,-9.472,-0.67,-0.378,-0.42,-0.246,-16.377,-4.106,-2.214,-1.204,-0.651,-22.418,-7.788,-5.243,-2.259,-1.262,-43.24,-9.688,-7.123,-2.682,-0.201],[-27.76,-1.321,-0.212,-0.013,-0.197,-24.455,-1.867,0.072,0.028,0.089,-25.63,-1.93,-0.426,-0.307,-0.14,-34.98,-5.671,-2.22,-1.979,-1.484,-49.699,-10.15,-5.253,-2.779,-1.893,-59.273,-16.688,-10.967,-7.329,-5.491],[-44.064,-4.639,-0.052,-0.339,-0.097,-44.303,-3.49,-0.953,-0.623,-0.479,-45.547,-3.632,-1.21,-0.704,-0.186,-53.737,-9.651,-3.273,-2.723,-1.265,-62.811,-14.962,-6.078,-4.784,-2.808,-67.821,-29.773,-11.692,-10.556,-4.275],[-60.041,-4.637,-0.418,-0.076,0.046,-57.842,-6.871,-0.767,-0.545,0.006,-57.038,-7.42,-1.476,-0.826,-0.125,-44.161,-10.611,-4.957,-2.257,-1.441,-75.357,-19.307,-8.187,-5.252,-4.413,-77.352,-37.138,-10.213,-8.951,-5.979],[-70.704,-7.847,-0.459,0.024,0.115,-67.392,-9.667,-1.879,-0.186,-0.131,-69.217,-10.575,-1.826,-0.716,-0.581,-76.736,-18.033,-5.55,-2.607,-2.651,-70.584,-24.676,-10.47,-5.888,-3.559,-92.259,-45.254,-20.379,-10.639,-7.967]],
"kep": [[1.557,0.573,0.372,1.587,-0.828,0.427,-1.173,-2.247,-4.272,-3.714,-7.191,-0.406,-2.735,-4.174,0.582,-8.933,-10.098,-9.378,-8.593,-14.531,-23.489,-26.283,-15.156,-23.409,-13.162,-57.658,-54.491,-35.452,-49.011,-58.795],[-12.191,0.504,-0.684,-0.604,1.458,-12.726,-1.798,-0.176,-0.328,-0.351,-15.982,-0.514,0.21,-0.227,-0.333,-23.239,-5.659,-3.655,-2.774,-3.091,-35.92,-11.624,-9.751,-5.163,-4.974,-82.742,-22.355,-17.437,-14.443,-14.102],[-36.95,1.866,-1.371,-0.03,0.919,-36.154,-2.213,1.169,0.993,0.386,-37.839,-0.61,-1.222,-0.338,0.297,-47.818,-6.45,-3.035,-2.533,-2.792,-66.242,-12.642,-6.235,-4.966,-3.745,-86.885,-26.549,-15.721,-11.623,-10.995],[-56.018,-5.329,-0.62,0.733,-0.524,-57.445,-4.452,0.146,-0.528,0.445,-58.304,-4.363,-0.246,-0.015,-0.332,-69.128,-11.238,-1.935,-2.275,-1.511,-81.881,-19.125,-6.159,-4.773,-4.514,-86.933,-40.221,-14.436,-12.175,-7.519],[-75.198,-3.163,0.799,1.386,1.269,-75.973,-6.138,-0.148,0.142,-0.083,-75.948,-6.99,1.066,0.336,1.085,-83.216,-11.779,-3.976,-1.807,-1.26,-87.807,-20.686,-9.089,-5.48,-3.674,-88.322,-47.938,-14.66,-11.996,-7.761],[-83.578,-8.486,0.944,1.497,0.294,-84.309,-8.47,-0.693,0.126,0.868,-84.929,-11.135,-0.647,0.517,0.647,-88.667,-20.815,-4.616,-2.355,-1.361,-90.079,-26.721,-8.889,-5.143,-3.762,-90.391,-59.918,-22.394,-11.285,-9.814]],
"vp": [[22.351,37.6,29.868,-35.068,-8.645,22.165,17.35,13.603,27.635,25.218,20.089,15.712,23.783,20.822,3.616,11.908,12.559,10.164,7.974,13.174,15.025,17.034,10.524,13.833,6.964,14.928,17.611,8.965,13.388,14.915],[868.231,166.504,151.97,155.363,-101.417,212.017,20.426,44.236,22.461,14.296,110.09,22.474,8.771,19.856,17.266,35.63,17.972,15.359,12.992,14.444,22.876,17.89,20.048,13.098,13.402,24.616,12.184,15.831,14.008,14.698],[2801.368,247.807,135.771,53.035,-50.471,516.649,70.928,-5.469,13.641,-20.529,271.647,34.289,15.685,17.695,9.258,71.983,22.527,14.653,17.071,18.866,52.119,22.366,17.102,13.008,11.392,30.067,17.56,18.157,17.172,18.328],[4514.939,933.228,103.74,115.906,164.412,921.51,147.615,54.112,47.499,32.024,474.424,76.873,39.452,27.204,11.247,113.495,40.948,19.114,21.958,12.467,64.941,31.291,19.446,20.237,15.827,33.889,32.323,17.989,22.248,11.513],[6001.586,933.99,149.208,-46.14,-56.321,1237.764,277.092,60.602,46.349,11.734,630.015,153.34,43.163,29.213,0.839,139.622,44.083,31.03,20.426,14.963,75.013,38.791,24.949,21.996,22.85,39.452,38.005,15.453,18.696,15.733],[7200.893,1611.93,194.464,41.312,-15.555,1416.931,402.568,100.665,40.305,9.923,718.188,210.253,56.04,28.072,27.138,152.253,73.199,34.781,21.652,25.917,75.39,50.928,31.807,24.163,18.544,43.766,45.532,31.408,21.089,21.345]]
}