{
"KTrans": [[2.375,1.363,0.853,1.205,0.995,12.434,8.008,6.88,5.816,4.834,27.245,15.898,12.61,11.2,11.068,157.879,93.616,75.693,65.401,61.833,400.286,223.835,177.379,152.575,141.904,1140.358,591.22,456.294,394.856,359.61],[-0.963,0.325,0.767,0.606,0.643,9.711,6.235,4.33,3.122,2.6,19.746,10.877,8.841,6.821,5.94,130.539,63.695,44.469,35.634,30.349,316.429,148.395,100.037,77.999,66.786,857.767,358.918,233.688,180.615,151.245],[-1.596,0.661,0.578,0.677,1.076,8.329,5.774,3.47,3.317,2.67,14.445,9.711,8.306,5.656,5.107,123.721,61.414,39.901,30.985,26.118,286.275,136.581,87.436,66.835,55.443,816.494,327.698,205.33,151.774,122.519],[-6.087,0.537,0.8,0.574,0.153,-1.164,6.05,3.424,2.693,2.185,12.537,10.888,7.653,5.594,4.128,99.375,60.81,39.396,29.258,23.959,279.762,129.793,85.534,63.034,49.894,746.677,323.371,195.694,140.901,113.122],[-13.858,1.753,0.074,0.648,0.651,-7.369,4.957,2.9,2.726,2.204,2.708,10.343,7.196,5.583,4.801,88.537,57.485,38.968,28.478,23.786,256.514,135.029,82.715,62.552,49.68,671.258,306.535,191.739,137.65,107.768],[-22.382,-0.268,-0.281,0.441,0.217,-13.432,3.798,3.635,2.699,2.482,-3.021,10.622,6.262,5.229,4.926,78.833,55.232,37.363,27.477,22.602,218.804,126.581,81.104,60.933,48.392,633.323,307.689,191.328,134.212,105.443]],
"ve": [[1.866,1.262,0.149,0.463,1.186,4.875,0.886,-0.673,-2.252,-2.768,8.774,1.658,-2.254,-4.107,-7.209,44.934,13.003,-1.622,-10.509,-18.998,92.763,33.423,7.942,-7.284,-18.28,191.22,78.317,34.857,10.36,-6.026],[1.633,0.599,0.375,0.157,0.224,4.753,2.289,1.199,0.809,0.542,9.618,4.81,2.977,1.571,1.248,49.493,23.886,14.342,9.173,5.527,99.282,47.726,29.38,19.077,12.617,198.818,97.126,60.864,41.449,28.797],[1.65,0.492,0.298,0.188,-0.049,5.348,2.989,1.868,1.157,0.833,10.457,4.75,3.168,2.362,1.532,51.019,24.803,15.858,11.419,8.49,100.437,49.206,32.023,22.861,17.196,199.759,98.699,64.59,46.733,35.664],[1.595,0.721,0.391,0.389,0.295,5.534,2.63,1.476,1.108,0.9,10.069,4.862,3.175,2.497,1.875,49.841,24.829,16.182,12.004,9.357,99.834,49.969,32.433,23.924,18.691,200.407,99.134,65.629,48.302,37.599],[1.454,0.715,0.299,0.281,0.045,5.33,2.432,1.515,1.31,0.901,10.343,4.902,3.353,2.535,1.856,50.171,25.145,16.658,12.276,9.493,100.088,50.219,32.868,24.311,19.188,200.306,99.783,65.838,49.155,38.606],[1.651,0.643,0.093,0.302,0.247,5.883,2.591,1.803,1.247,0.953,10.86,5.093,3.224,2.549,1.89,50.831,24.942,16.45,12.216,9.628,100.522,50.037,33.006,24.579,19.509,200.513,99.844,66.132,49.462,39.088]],
"kep": [[0.767,0.418,1.188,1.512,0.775,7.536,7.33,8.101,8.832,8.755,17.221,14.211,15.598,16.465,20.657,78.078,71.481,78.842,85.094,100.297,159.794,142.862,157.092,172.645,196.275,326.098,287.79,312.643,348.595,389.228],[-2.473,-0.231,0.42,0.474,0.452,4.941,3.898,3.14,2.322,2.085,9.315,5.837,5.749,5.198,4.668,54.36,32.172,26.368,24.271,23.547,109.099,68.178,54.632,49.502,48.125,220.728,132.868,107.452,98.399,95.089],[-3.22,0.198,0.29,0.505,1.137,2.838,2.751,1.589,2.152,1.833,3.713,4.77,4.991,3.23,3.531,48.269,29.355,20.765,17.573,16.256,92.881,58.6,41.993,35.805,32.643,206.006,115.308,85.525,71.597,64.034],[-7.666,-0.17,0.419,0.19,-0.13,-6.24,3.381,1.932,1.576,1.281,2.363,5.768,4.343,3.027,2.22,33.126,28.846,19.997,15.417,13.356,89.974,53.251,40.1,31.566,26.297,182.023,112.614,78.545,62.451,54.893],[-15.008,1.064,-0.219,0.373,0.614,-11.987,2.507,1.384,1.406,1.295,-6.776,5.224,3.739,2.983,2.898,25.605,25.879,19.137,14.439,13.056,78.374,56.494,37.53,30.768,25.589,156.929,103.489,75.93,59.337,49.908],[-23.609,-0.872,-0.366,0.146,-0.026,-18.181,1.198,1.817,1.447,1.522,-12.469,5.296,2.974,2.619,2.987,18.665,24.25,17.975,13.605,11.842,59.038,51.05,36.178,29.185,24.175,144.31,104.061,75.38,56.712,47.713]],
"vp": [[112.867,-7.175,21.683,41.023,22.214,-4.202,1.036,8.633,-8.002,8.132,8.322,-3.963,1.669,1.929,14.065,4.768,4.08,4.676,5.036,4.467,4.952,4.852,4.183,4.214,4.422,5.187,4.854,4.406,4.258,4.285],[223.344,27.62,-5.67,-75.745,30.354,40.987,1.462,0.366,8.221,-6.71,29.13,11.49,4.176,1.134,6.614,10.884,6.1,4.062,4.209,3.756,8.537,5.682,5.579,4.593,4.679,7.342,5.655,5.067,4.857,4.852],[656.946,19.96,-46.263,-42.256,52.016,152.068,15.867,6.5,3.054,3.638,87.682,17.747,5.189,7.393,-0.388,23.392,6.988,5.333,5.386,5.243,14.055,6.543,4.941,5.482,4.973,9.807,5.808,5.568,5.255,5.145],[1466.024,212.137,105.981,6.998,13.916,245.723,48.25,9.777,4.657,6.718,144.074,21.978,5.911,8.633,6.071,33.409,11.636,6.342,4.872,7.188,19.739,8.3,5.593,5.371,5.171,14.073,7.21,5.804,5.662,5.176],[2269.285,290.084,77.801,1.596,40.633,427.074,73.235,26.271,9.921,2.625,226.38,36.467,3.781,13.65,6.826,46.366,12.943,7.73,4.414,6.025,28.088,8.548,7.31,6.01,5.869,17.788,8.25,6.44,5.765,5.95],[2981.401,504.318,73.211,86.739,35.599,586.379,94.462,27.116,10.385,5.76,305.033,41.385,12.059,5.138,9.554,67.362,15.096,8.998,4.838,5.049,36.885,10.836,8.281,6.208,5.568,22.776,9.466,6.917,6.085,5.642]]
}