{
"KTrans": [[23.406,23.997,21.724,33.141,21.07,34.461,48.544,39.067,27.948,24.819,28.578,56.77,40.768,42.775,34.062,127.383,113.172,117.87,88.933,97.327,425.325,310.854,245.5,197.965,195.827,1059.631,769.18,554.204,469.525,441.978],[-76.604,57.52,64.385,38.593,34.565,-76.246,57.444,43.793,41.574,42.587,-77.777,71.7,69.573,54.714,33.512,-79.319,174.797,83.244,90.592,77.129,-11.936,247.183,182.751,139.623,121.709,124.047,546.332,346.927,261.918,226.776],[-103.457,-6.122,102.937,60.396,46.438,-100.351,14.886,92.465,57.11,46.087,-103.238,9.36,99.581,71.006,50.874,-116.201,50.462,152.019,108.13,89.798,-121.927,81.886,191.884,149.072,117.331,-24.726,241.408,462.774,270.393,231.759],[-110.142,-101.847,47.875,81.727,79.313,-105.62,-77.772,92.739,107.183,80.512,-105.32,-90.33,124.649,111.721,65.684,-109.49,-49.588,119.632,170.882,108.038,-85.459,-90.458,202.24,223.887,164.884,-53.164,-41.696,362.096,335.761,261.197],[-110.077,-100.932,-6.071,165.177,131.587,-111.032,-129.399,22.146,158.192,128.011,-109.519,-121.705,-20.881,167.812,109.061,-107.408,-143.923,9.845,174.766,196.009,-121.747,-122.501,1.199,263.071,228.3,-113.907,-171.218,75.365,430.406,308.504],[-105.448,-131.225,-123.144,95.638,186.596,-109.796,-117.562,-95.401,57.629,156.127,-108.871,-116.198,-138.933,57.913,132.934,-105.74,-136.007,-102.306,94.699,255.896,-124.391,-187.499,-134.083,176.018,256.419,-62.584,-121.947,-99.398,225.99,449.587]],
"ve": [[15.44,-620.059,391.781,15.68,-19.674,-55.245,10.038,8.682,-119.587,106.911,-534.012,29.175,5.856,-45.884,-163.279,-34.528,16.311,2.036,-5.877,-11.836,122.164,38.822,11.566,-6.522,-16.184,201.936,81.62,36.76,11.346,-3.566],[-13.533,6.457,3.411,2.064,2.872,-137.885,4.351,1.886,2.145,2.455,14.065,8.25,4.891,4.766,1.02,49.197,29.198,14.413,10.328,7.87,146.814,50.254,31.957,21.469,14.998,197.605,101.902,63.924,42.205,31.3],[-24.305,4.12,3.794,1.73,1.121,14.948,-6.91,5.547,2.64,0.738,16.403,9.657,6.999,4.17,3.306,48.792,25.471,18.366,12.241,10.744,92.27,49.754,33.294,24.954,18.67,204.87,59.835,70.696,49.625,39.905],[4.087,2.711,4.589,1.829,3.027,35.542,4.922,4.482,5.445,3.218,11,5.684,6.466,4.719,1.898,54.52,31.945,23.755,15.879,10.885,98.784,50.23,38.858,27.217,20.535,200.038,103.755,65.162,50.714,41.442],[-2.425,4.532,2.941,4.812,3.289,-2.803,9.97,4.855,2.981,3.899,20.219,-369.244,4.068,6.004,3.415,37.812,24.979,12.21,12.725,15.252,99.94,50.936,31.673,25.236,23.441,185.842,97.982,67.021,50.696,39.922],[2.986,3.878,4.811,2.168,4.097,17.369,1.317,2.828,3.306,3.284,25.483,-3.532,127.725,7.589,3.758,48.485,23.883,22.312,14.155,14.483,109.193,52.508,35.455,26.653,21.981,195.434,97.452,67.255,52.399,44.58]],
"kep": [[10.99,20.468,22.451,43.26,29.732,17.857,46.98,40.804,29.284,37.373,5.946,48.592,43.915,53.854,52.873,47.494,83.726,116.926,110.578,142.4,159.65,197.921,210.71,218.019,256.726,283.696,377.881,378.138,409.463,460.661],[-81.698,39.63,54.664,33.392,30.812,-82.315,44.113,35.811,35.754,38.093,-81.783,51.648,57.086,45.454,30.197,-86.888,104.24,55.02,68.058,61.955,-57.124,123.867,109.032,93.373,88.695,-25.308,214.534,167.47,148.849,144.58],[-104.011,-15.467,86.299,50.285,39.08,-100.45,1.001,72.608,45.914,39.047,-103.736,-5.984,78.428,57.294,41.758,-111.562,9.741,103.128,76.357,65.379,-106.717,14.993,108.557,91.384,76.341,-74.364,64.511,220.815,139.749,131.395],[-108.529,-101.009,33.762,67.584,66.494,-104.751,-79.165,71.147,88.728,67.73,-102.95,-92.516,98.367,91.386,52.951,-105.616,-64.672,73.733,124.382,79.282,-91.032,-92.407,108.576,142.62,110.322,-82.249,-70.245,162.772,178.329,147.717],[-107.93,-99.834,-16.824,139.892,111.987,-109.549,-125.966,8.508,132.413,107.39,-107.3,-117.489,-31.123,136.408,89.983,-103.106,-129.875,-12.252,127.064,147.004,-108.223,-111.612,-28.123,171.685,155.075,-101.72,-132.397,1.714,233.112,178.264],[-104.493,-126.543,-118.809,74.806,159.065,-107.832,-112.582,-95.288,39.738,130.381,-105.767,-112.108,-131.019,37.382,109.71,-103.444,-124.06,-101.295,56.891,196.794,-111.472,-152.184,-121.068,103.753,175.621,-86.395,-107.492,-98.396,101.448,266.008]],
"vp": [[0.001,0.001,0.001,0.001,0.001,0.005,0.005,0.005,0.005,0.005,0.01,0.01,0.01,0.01,0.01,0.05,0.05,0.05,0.05,0.05,0.1,0.1,0.1,0.1,0.1,0.2,0.2,0.2,0.2,0.2],[0.001,0.001,0.001,0.001,0.001,0.005,0.005,0.005,0.005,0.005,0.01,0.01,0.01,0.01,0.01,0.05,0.05,0.05,0.05,0.05,0.1,0.1,0.1,0.1,0.1,0.2,0.2,0.2,0.2,0.2],[0.001,0.001,0.001,0.001,0.001,0.005,0.005,0.005,0.005,0.005,0.01,0.01,0.01,0.01,0.01,0.05,0.05,0.05,0.05,0.05,0.1,0.1,0.1,0.1,0.1,0.2,0.2,0.2,0.2,0.2],[0.001,0.001,0.001,0.001,0.001,0.005,0.005,0.005,0.005,0.005,0.01,0.01,0.01,0.01,0.01,0.05,0.05,0.05,0.05,0.05,0.1,0.1,0.1,0.1,0.1,0.2,0.2,0.2,0.2,0.2],[0.001,0.001,0.001,0.001,0.001,0.005,0.005,0.005,0.005,0.005,0.01,0.01,0.01,0.01,0.01,0.05,0.05,0.05,0.05,0.05,0.1,0.1,0.1,0.1,0.1,0.2,0.2,0.2,0.2,0.2],[0.001,0.001,0.001,0.001,0.001,0.005,0.005,0.005,0.005,0.005,0.01,0.01,0.01,0.01,0.01,0.05,0.05,0.05,0.05,0.05,0.1,0.1,0.1,0.1,0.1,0.2,0.2,0.2,0.2,0.2]]
}