{
"KTrans": [[33.43,23.951,19.574,24.897,24.959,29.781,25.564,25.873,26.24,26.328,20.845,24.955,20.64,23.227,17.059,52.913,47.586,37.049,44.131,41.795,98.799,97.644,73.347,60.887,56.633,144.129,131.88,140.113,127.314,95.114],[-54.163,-1.611,2.576,8.697,8.982,-53.281,-2.956,9.595,8.192,15.106,-49.518,-4.101,9.583,9.381,12.62,-34.231,0.445,16.435,12.729,17.033,-4.234,12.713,21.906,18.845,25.67,16.02,40.145,43.583,46.197,41.799],[-75.594,-30.969,-13.971,-4.701,2.72,-72.259,-33.244,-15.784,-2.427,-1.774,-70.574,-38.13,-14.154,-4.153,0.909,-60.272,-24.662,-9.54,3.536,5.571,-60.739,-18.859,-5.383,5.702,9.394,-39.989,-14.451,11.817,21.707,24.66],[-84.81,-50.723,-27.709,-17.664,-7.115,-83.963,-48.961,-36.866,-16.475,-6.863,-81.99,-50.311,-29.843,-20.201,-10.201,-78.135,-45.019,-35.263,-12.874,-9.601,-64.031,-45.436,-19.245,-13.81,-2.014,-65.332,-40.13,-13.781,0.041,9.929],[-87.884,-62.359,-42.662,-29.879,-18.896,-86.317,-65.481,-43.169,-30.962,-19.343,-87.821,-67.743,-39.85,-33.103,-22.075,-85.902,-60.804,-45.084,-29.732,-15.296,-79.302,-55.024,-34.026,-25.525,-13.804,-73.149,-48.064,-28.108,-14.414,-9.096],[-93.171,-73.077,-55.282,-41.483,-31.75,-93.187,-72.953,-59.473,-41.277,-30.8,-90.669,-72.041,-51.343,-38.969,-28.218,-88.945,-67.387,-51.297,-33.647,-26.186,-84.032,-65.778,-53.314,-38.362,-31.083,-92.908,-55.357,-46.844,-33.217,-23.946]],
"ve": [[30.352,-969.264,67.559,-10.445,-181.425,128.902,-9.517,-82.247,-16.019,-306.33,13.343,65.198,310.279,55.69,-68.925,25.655,25.413,-8.606,-92.372,-594.017,50.465,19.527,32.912,9.903,-556.776,103.163,29.326,3.375,31.745,4.516],[-29.184,2.221,6.085,5.949,14.762,-64.108,11.755,3.783,13.378,9.344,-11.611,0.601,4.371,6.884,18.079,10.387,-24.245,8.714,8.367,19.182,-14.981,13.025,57.426,18.929,32.114,76.03,45.628,26.709,56.664,13.482],[-451.815,-2.437,-3.2,-0.471,0.951,-46.257,-7.745,-4.8,-1.771,3.301,-3.412,-5.666,-2.517,-0.751,1.922,44.41,1.344,2.353,3.415,5.115,6.999,9.012,5.95,7.619,9.706,80.143,22.597,29.73,27.599,17.257],[-17.809,-11.95,-9.561,-5.722,-2.42,-23.73,-19.146,-9.752,-5.8,-3.218,-52.064,-11.025,-9.41,-6.197,-3.521,-10.214,-1.348,-5.222,-1.6,-0.006,13.283,-0.212,24.627,4.011,6.548,36.78,13.027,8.247,14.95,19.05],[-43.579,-31.136,-15.603,-10.207,-6.676,-43.673,-26.74,-15.368,-10.844,-6.767,-12.967,-21.996,-11.147,-9.828,-6.542,-5.093,-9.713,-9.532,-7.198,-3.133,11.996,-5.571,-2.947,1.058,3.408,60.312,17.691,3.798,21.134,9.65],[-62.944,-16.534,-21.898,-14.536,-11.738,68.551,-29.966,-20.653,-13.525,-11.308,704.101,-28.321,-16.917,-12.773,-9.867,-8.917,-13.693,-13.158,-7.522,-6.047,-23.897,-5.451,-6.086,-5.385,-4.764,66.183,14.195,3.156,6.608,6.805]],
"kep": [[-30.707,-39.742,-44.769,-46.887,-55.674,-38.925,-33.467,-42.338,-41.451,-50.609,-37.642,-35.458,-45.54,-48.298,-72.672,-39.1,-26.863,-39.225,-35.267,-37.641,-26.856,-12.919,-20.07,-26.874,-38.054,-24.155,-28.971,-13.609,-14.714,-33.051],[-72.796,-37.709,-37.861,-36.578,-36.182,-70.99,-41.46,-32.833,-37.381,-31.931,-70.634,-38.416,-33.341,-33.934,-37.107,-70.366,-42.988,-32.516,-35.94,-35.74,-68.608,-43.092,-36.592,-35.761,-33.864,-63.779,-51.91,-38.497,-34.281,-34.835],[-86.99,-53.505,-44.273,-39.877,-35.974,-85.223,-55.232,-44.567,-37.43,-39.978,-83.039,-58.569,-45.013,-39.134,-37.664,-80.631,-57.083,-45.202,-37.1,-36.879,-84.268,-60.147,-45.424,-39.311,-37.511,-81.958,-66.163,-49.885,-40.724,-36.009],[-90.359,-63.784,-50.755,-45.372,-40.312,-90.727,-62.392,-56.51,-44.542,-39.68,-89.988,-64.694,-51.605,-46.698,-41.807,-89.296,-64.91,-57.537,-44.779,-43.459,-84.072,-73.463,-54.132,-48.774,-43,-87.753,-74.887,-59.559,-49.089,-42.599],[-92.567,-70.242,-58.057,-51.447,-45.603,-92.366,-72.272,-58.388,-51.837,-45.983,-93.204,-75.095,-58.138,-53.686,-47.875,-93.251,-74.183,-62.249,-53.127,-45.54,-89.997,-75.424,-59.769,-54.888,-48.254,-89.489,-77.32,-66.259,-55.276,-49.499],[-97.019,-77.7,-64.749,-57.453,-51.749,-97.082,-78.068,-68.606,-57.745,-51.281,-95.354,-77.974,-64.32,-56.791,-50.337,-94.464,-78.572,-65.854,-55.867,-51.037,-93.454,-81.605,-69.582,-60.205,-55.329,-92.097,-81.134,-72.487,-63.685,-56.842]],
"vp": [[-265.124,-693.836,-812.946,-259.96,-826.092,-171.869,-140.944,-217.992,-232.8,-276.629,-42.498,-88.868,-27.273,-47.956,-12.464,-29.982,-24.018,0.265,-25.308,-17.676,-27.708,-35.669,0.839,-14.178,-6.124,-32.918,-18.198,-13.945,-19.787,1.556],[3656.394,308.743,-131.394,-259.048,45.966,605.429,-3.04,-171.953,-86.398,-181.004,336.201,66.073,-66.734,-48.182,-125.515,28.55,-3.212,-5.801,7.526,-21.823,-8.433,4.838,-7.219,6.947,-10.719,-18.022,-18.517,-7.104,-16.135,-2.906],[5205.562,2848.913,1110.005,391.635,-486.946,1068.99,631.409,408.513,43.614,86.248,506.257,334.159,177.749,50.694,12.144,60.092,49.772,19.778,3.697,2.139,35.784,16.002,25.158,4.604,5.814,-11.133,10.082,-5.681,-10.209,-6.334],[7203.217,4967.468,3083.921,2599.051,229.336,1151.697,1155.311,1004.334,524.803,136.605,596.14,509.586,411.759,316.957,169.663,108.501,77.947,112.264,46.261,53.533,17.212,49.313,11.394,15.17,-1.162,7.534,23.423,14.55,-7.868,-9.008],[6464.617,7426.514,5759.625,4689.996,3539.56,1300.073,1702.1,1270.455,1091.622,707.262,632.817,783.806,446.046,572.392,364.544,120.556,130.709,132.312,114.531,38.931,30.139,57.113,42.912,29.042,6.469,-3.188,16.699,10.126,-1.346,11.192],[7910.412,9573.277,8969.168,6607.238,6462.408,1608.346,1930.063,1843.535,1550.5,1279.834,740.026,781.091,732.544,641.684,517.672,150.001,146.003,145.596,112.24,88.315,47.13,66.107,104.981,59.984,78.648,24.036,21.422,38.285,33.98,33.731]]
}