{
"KTrans": [[-38.235,-67.27,-87.627,-79.461,-105.936,-43.212,-65.724,-79.766,-85.459,-96.086,-45.32,-92.001,-79.241,-71.715,-68.816,0.957,-39.352,-54.964,-41.533,-31.849,110.124,41.697,-8.786,16.306,29.413,99.376,116.632,89.057,235.762,111.197],[-62.918,-45.847,-57.712,-72.399,-63.763,-58.516,-45.097,-47.048,-64.549,-75.292,-54.102,-41.395,-44.72,-49.544,-67.891,-43.282,-17.357,-22.322,-39.805,-37.977,-23.669,-4.619,0.723,-15.742,-13.277,39.699,16.834,12.805,27.79,13.107],[-74.971,-53.828,-39.985,-42.867,-44.884,-72.143,-53.033,-46.848,-50.321,-43.763,-66.613,-50.19,-39.245,-39.388,-49.012,-55.32,-37.616,-24.16,-18.994,-20.473,-37.738,-14.878,-9.54,-13.69,0.051,-58.19,-24.614,-17.807,32.608,-9.405],[-79.306,-63.644,-46.566,-39.765,-47.542,-78.136,-60.946,-45.788,-39.077,-50.397,-81.237,-57.151,-49.753,-43.785,-34.35,-69.985,-49.278,-31.162,-27.319,-38.156,-57.792,-39.818,-22.624,-21.636,-6.649,-50.761,-17.229,-0.222,-2.21,-3.271],[-83.772,-71.622,-52.253,-46.197,-47.92,-83.934,-63.448,-53.341,-54.573,-49.315,-83.337,-65.424,-55.883,-50.262,-46.18,-74.958,-59.712,-45.461,-39.697,-32.066,-72.181,-49.117,-26.715,-26.056,-22.444,-62.313,-36.4,-3.056,-22.234,6.615],[-90.239,-72.149,-61.168,-49.459,-46.121,-87.613,-72.948,-57.339,-47.697,-43.312,-87.104,-68.726,-54.562,-49.344,-47.3,-80.856,-66.004,-51.476,-43.658,-34.067,-76.908,-52.461,-37.062,-33.633,-35.867,-74.354,-61.437,-23.494,-18.195,-3.556]],
"ve": [[11.297,-61.254,-198.147,-143.672,-51.722,171.211,-23.636,-25.533,-46.054,-68.696,-27.882,-106.454,-222.086,-26.809,-46.805,-20.684,-78.115,-28.714,-37.055,-28.612,118.631,41.121,-20.052,-47.877,-59.515,122.118,110.143,-143.439,18.078,-31.903],[-100.224,-67.847,-65.309,-58.726,-62.452,-44.565,-49.216,-54.956,-70.997,-61.363,5.996,-76.826,-53.632,-41.387,-38.064,50.376,-14.501,-33.157,45.466,-35.756,40.422,25.4,-1.177,255.303,3475.45,273.007,76.103,82.485,26.905,16.926],[-14.357,-22.938,-91.099,370.67,-39.257,-26.946,-42.703,-35.525,-40.473,-54.484,498.607,-26.317,-39.734,-44.264,-111.236,81.529,-8011.386,-20.864,-4.327,-18.54,168.805,36.004,-36.74,1.713,9.17,310.354,27.009,1.634,66.919,34.597],[427.977,-172.408,-46.997,-47.454,-88.554,18.508,-42.283,-27.864,-45.977,-59.442,-24.579,-23.399,-101.693,-84.827,-51.563,71.699,-31.352,-22.011,-30.433,-54.671,129.284,-21.292,-4.358,-45.034,0.069,231.183,37.383,107.758,25.37,-15.161],[-23.309,-6.866,-69.742,-48.908,-63.375,-159.764,-68.51,-184.74,-75.647,-66.353,-12.3,-85.716,-70.408,-72.755,-44.85,16.585,-13.023,-56.663,-60.155,-44.693,132.046,41.674,28.02,-32.495,-24.366,252.253,155.49,149.165,10.457,24.672],[-21.314,-13.001,-76.041,-60.696,-60.017,-3.774,-17.579,-56.528,-60.468,-58.58,-26.38,-13.894,-45.904,-71.589,-79.129,95.253,16.717,0.397,-47.511,-42.56,233.446,40.02,4.064,-43.08,-67.021,228.675,14.81,70.772,27.463,35.126]],
"kep": [[-111.142,-98.563,-51.535,-95.189,23.953,-100.803,-95.034,-55.289,-120.097,-36.028,-113.443,-80.783,-85.055,-50.605,13.804,-99.468,-107.807,-61.067,-37.591,-49.272,-128.173,-123.161,-104.504,-132.51,-131.848,-135.249,-181.651,-133.201,-335.514,-202.699],[-99.219,-100.047,-120.133,-93.094,-66.436,-100.58,-101.454,-112.982,-99.297,-70.486,-97.849,-100.989,-108.98,-98.527,-59.561,-94.862,-94.794,-105.371,-113.505,-27.435,-104.703,-117.262,-119.216,-96.11,-79.32,-96.228,-90.579,-78.562,-150.825,-114.233],[-101.746,-84.137,-83.92,-93.263,-123.416,-100.145,-84.17,-76.902,-96.416,-128.053,-99.862,-80.851,-87.531,-99.919,-117.041,-99.724,-75.883,-83.505,-99.874,-124.555,-102.239,-82.891,-76.204,-92.938,-137.478,-93.242,-65.63,-69.173,-97.453,-61.905],[-100.489,-85.309,-66.189,-65.018,-70.435,-97.898,-84.845,-73.705,-59.817,-71.037,-98.679,-90.018,-68.218,-57.453,-66.348,-101.704,-83.478,-71.343,-61.079,-59.412,-97.357,-74.626,-67.604,-50.564,-53.747,-91.864,-69.318,-77.108,-43.886,-47.627],[-99.439,-91.062,-55.777,-44.782,-45.987,-101.283,-83.656,-74.335,-46.818,-42.053,-98.798,-87.044,-62.493,-48.327,-42.606,-98.347,-89.79,-57.922,-43.815,-45.908,-100.182,-83.59,-76.78,-56.549,-38.121,-96.223,-81.707,-76.748,-48.966,-45.733],[-100.332,-93.23,-67.456,-49.132,-42.435,-99.403,-87.937,-69.006,-46.017,-40.504,-99.662,-88.264,-69.157,-49.634,-40.918,-100.307,-89.989,-69.636,-50.345,-38.147,-100.285,-87.473,-65.063,-46.383,-32.341,-95.726,-82.209,-65.72,-60.326,-58.06]],
"vp": [[-369.488,-285.831,1406.033,-218.498,514.331,117.746,123.464,87.361,-151.894,4.862,59.079,172.68,-38.044,108.574,73.114,-14.115,-17.993,3.199,-0.702,18.342,-14.95,-7.318,-0.441,4.713,-13.897,-23.607,-6.388,-4.702,-27.333,-13.942],[2589.888,1345.552,-653.162,-1351.274,-334.757,672.428,218.915,-27.836,-239.433,-190.231,311.639,100.905,-94.494,-0.131,-60.654,36.564,11.064,-13.956,-16.482,12.125,0.567,21.328,-23.669,5.07,1.759,-5.43,-25.298,-26.389,-13.877,6.255],[4859.149,3816.708,2044.916,1253.366,757.775,1052.196,676.797,395.215,-39.616,-19.58,433.347,376.096,210.511,2.269,-42.948,71.839,53.906,11.79,12.726,1.459,8.475,24.083,18.053,15.394,-17.987,11.541,-23.488,-10.392,-20.757,2.884],[6422.603,4922.227,3468.925,3891.104,1539.901,1241.642,1188.221,1047.718,576.673,178.751,522.299,679.716,362.089,193.237,166.625,127.241,90.068,71.616,89.948,-7.628,48.479,28.515,3.768,-13.688,-0.941,-16.606,-10.471,6.247,-26.344,-39.177],[7030.999,8257.885,5455.717,4425.394,3345.586,1277.125,1491.692,1280.747,589.983,428.731,486.662,709.26,598.645,337.681,191.666,95.136,107.523,78.02,33.683,57.393,47.214,69.865,34.078,9.96,-5.395,14.942,-2.538,-3.931,-11.76,-15.04],[7197.037,9804.39,7804.258,5916.937,4572.226,1604.358,1903.183,1450.025,1162.431,959.014,679.882,926.733,880.622,519.791,427.714,163.896,152.21,158.93,95.22,103.328,64.483,68.758,47.233,32.172,-5.013,9.256,16.151,14.112,16.931,-8.118]]
}