{
"KTrans": [[-3.445,-3.463,0.397,-2.658,-3.061,5.225,10.749,15.772,14.158,7.439,16.17,19.411,23.672,19.102,23.37,-35.933,50.148,79.249,73.755,81.141,31.538,77.969,78.917,99.075,132.689,168.696,-102.73,-36.34,-145.666,10.014],[-21.176,-3.909,0.779,1.833,-1.454,-12.556,0.868,3.211,4.157,4.032,-8.654,6.435,5.116,10.54,9.519,-0.221,64.328,7.518,12.346,30.012,10.333,-40.27,13.495,-9.586,26.496,-24.165,86.475,6.836,-91.018,22.491],[-29.295,-2.51,3.464,-2.264,0.611,-37.092,-0.303,1.957,0.217,1.211,-28.694,6.065,5.904,5.834,1.944,-1.333,18.651,28.732,-9.294,11.06,18.742,-37.446,-16.329,33.326,-6.164,-24.786,18.233,20.701,22.742,21.851],[-38.651,1.178,-0.738,1.692,-0.839,-42.745,0.055,4.739,3.529,2.128,-35.087,0.661,5.413,4.765,5.537,-42.236,-53.905,-4.393,7.848,24.456,-2.935,-5.896,3.405,28.723,8.808,-58.638,78.837,31.946,-25,-12.77],[-68.246,-7.608,-2.582,-1.316,0.139,-56.387,-7.819,2.017,1.654,0.807,-49.821,-7.722,10.192,5.951,5.477,-60.603,-12.924,16.237,34.882,9.793,-42.521,4.766,48.77,23.351,15.29,-44.893,-12.421,-28.97,-7.783,5.459],[-63.111,-18.238,4.424,1.005,-0.289,-62.543,-5.857,0.05,1.965,3.153,-60.676,-17.71,6.773,10.914,8.131,-67.921,-38.935,-1.306,31.211,18.41,-56.513,-27.065,50.895,-7.589,23.564,-75.86,2.192,-27.185,-42.677,-37.911]],
"ve": [[16.072,0.758,-40.873,-33.97,-4.991,1.274,-40.615,-23.116,-62.183,-13.545,17.302,1.227,-21.293,2.151,-26.578,51.456,-1.369,34.77,-37.979,-331.006,92.825,27.482,-7.165,-29.464,-60.086,209.972,77.173,31.521,2.437,-18.97],[-18.571,-1.89,0.2,-18.808,-8.911,-0.562,1.728,-7.096,-0.472,7.239,2.325,2.935,7.466,-21.257,-32.993,43.42,25.6,5.149,-7.274,-10.5,94.211,48.977,33.133,21.141,-2.13,200.639,97.522,65.162,27.864,22.408],[-4.162,-1.592,-0.57,0.019,-1.507,4.603,-2.074,-1.957,4.847,0.915,6.844,2.811,0.352,0.988,-10.455,54.945,29.996,15.327,11.813,10.379,94.846,50.101,35.965,27.045,17.183,195.343,99.09,65.926,49.868,40.329],[0.437,-0.352,-0.971,-0.061,-1.468,-1.613,-2.449,1.263,1.282,0.856,19.393,2.763,3.254,2.103,0.348,39.195,34.364,17.844,12.096,11.255,92.282,50.25,32.413,24.927,19.131,193.941,97.664,65.631,51.069,47.074],[-11.37,-1.335,-0.223,-0.364,-0.482,24.127,-4.792,0.847,0.584,0.22,4.873,2.011,3.982,1.96,1.088,44.863,24.924,11.166,13.926,12.135,98.238,49.927,32.354,27.408,19.324,196.008,103.47,67.81,51.223,2.872],[-3.118,-5.079,-0.699,0.003,-0.31,-8.122,0.551,1.574,0.881,0.892,11.491,2.884,2.305,2.095,2.199,39.333,24.279,16.529,12.552,8.851,94.479,48.566,32.36,24.433,18.903,192.223,93.936,71.353,52.471,41.678]],
"kep": [[-115.962,-1.687,-3.506,4.048,11.52,-119.398,-52.202,-44.578,-33.008,-9.109,-108.835,-39.896,-58.538,-43.59,-57.179,-124.462,-212.946,-164.65,-177.938,-202.02,-53.581,-242.828,-340.956,-316.211,-319.197,60.142,-15.68,-491.763,-637.917,-683.033],[-45.321,-37.381,-117.517,-31.083,9.874,-34.12,-27.25,-113.338,-19.264,-12.561,-42.595,-18.778,-121.345,-66.487,-22.612,-46.241,24.365,-100.219,-173.003,-113.484,-45.492,-47.951,-18.323,-245.686,-209.585,-47.426,16.04,26.141,-112.436,-280.129],[-49.419,-7.829,6.613,-32.56,-116.126,-58.839,-8.816,-9.833,-33.806,-113.301,-55.642,-8.101,-5.083,-11.848,-128.393,-44.23,-19.225,12.955,-62.382,-68.661,-47.527,-44.639,-39.535,28.734,-35.649,-61.706,-31.305,-16.881,-0.18,45.02],[-56.829,-5.165,-3.915,7.718,-4.098,-64.043,-9.594,0.666,4.934,1.246,-57.009,-12.581,2.438,4.666,3.35,-68.99,-65.393,-28.715,-19.576,15.22,-56.954,-40.667,-27.506,-4.105,-5.468,-73.727,-18.471,-17.401,-37.053,-12.789],[-81.534,-17.65,-6.46,-1.7,-0.75,-73.852,-20.487,-3.055,-1.637,-0.068,-69.576,-23.805,5.314,4.175,3.867,-79.173,-39.032,-8.983,19.439,-10.042,-73.582,-37.436,3.245,-3.071,-9.891,-75.08,-50.712,-42.928,-29.821,-24.578],[-78.963,-27.776,-1.387,0.058,-2.046,-78.256,-22.486,-8.173,-1.619,4.986,-78.378,-34.695,-3.892,7.183,10.069,-80.891,-57.78,-24.634,11.222,7.688,-76.775,-53.01,-2.119,-33.804,-6.607,-82.826,-47.559,-48.793,-50.998,-47.227]],
"vp": [[428.586,346.66,276.7,-34.974,-116.461,13.381,51.461,-24.998,71.873,-34.133,-1.013,-19.927,36.794,-15.072,6.684,-35.305,-23.295,-32.682,-14.229,-4.808,-36.002,-65.259,-37.506,-16.578,-41.12,-36.784,-28.676,-35.776,14.673,-18.973],[1977.286,915.438,-74.492,-116.488,-269.751,406.995,84.917,-38.302,8.779,14.746,232.951,80.506,-56.295,-5.681,1.578,-14.423,-47.345,-29.654,7.635,16.469,-23.581,-18.162,-27.519,-16.498,4.526,-32.385,-56.125,-44.364,0.149,-27.485],[4227.605,1157.82,370.681,449.962,-97.292,621.012,256.352,98.766,114.772,26.055,387.262,156.982,31.047,32.355,-20.948,30.784,-9.285,-40.246,-35.818,-40.587,-34.796,-27.82,-43.44,-46.479,-22.364,-31.398,-51.68,-57.783,-55.451,-43.421],[5660.432,2871.961,800.712,495.865,351.204,996.867,750.211,179.174,87.48,92.997,472.434,240.744,57.676,89.41,-4.157,58.498,36.135,14.274,-20.042,-15.328,-37.389,-8.278,-31.035,-23.212,-41.131,-28.785,-49.471,-68.376,-45.723,-42.831],[6017.564,3890.529,1883.079,803.275,778.169,1059.838,892.122,357.725,177.859,90.742,538.322,371.81,165.496,40.807,104.212,52.593,40.432,17.919,4.838,10.621,-0.4,-8.128,-52.047,-47.027,-53.383,-16.599,-28.195,-27.896,-45.752,-46.127],[6027.928,5305.47,3393.368,1537.631,1167.546,1114.63,1013.933,460.128,533.181,214.486,565.525,625.937,263.454,195.451,120.512,70.221,71.745,27.455,7.534,-42.943,-2.429,-13.241,-38.362,-30.274,-10.972,-9.988,-18.084,-23.418,-38.13,-69.076]]
}