{
"KTrans": [[2.481,1.546,1.247,1.111,1.04,12.556,7.808,6.336,5.632,5.218,25.902,15.971,12.929,11.467,10.604,161.454,94.122,74.97,66.019,60.822,403.203,224.081,175.858,153.832,141.213,1127.612,591.522,455.526,395.062,360.87],[2.249,1.188,0.841,0.675,0.592,10.936,5.752,4.108,3.316,2.865,22.293,11.603,8.285,6.705,5.784,133.571,64.549,44.916,35.868,30.722,323.33,145.691,98.722,77.836,66.175,871.155,357.439,233.098,180.156,151.382],[2.291,1.154,0.779,0.64,0.518,10.794,5.51,3.796,2.946,2.46,21.92,11.023,7.603,5.9,4.937,130.01,60.613,40.582,31.218,25.871,313.417,135.661,88.161,66.864,54.968,839.625,329.091,204.708,151.558,122.757],[2.368,1.168,0.798,0.584,0.498,10.784,5.481,3.646,2.817,2.321,21.833,10.837,7.389,5.66,4.649,128.824,59.331,39.053,29.615,24.133,309.851,132.255,84.575,63.039,50.952,828.223,319.378,195.143,141.765,112.763],[2.533,1.246,0.826,0.622,0.492,10.985,5.431,3.683,2.766,2.255,21.883,10.796,7.259,5.551,4.49,128.432,58.655,38.386,28.814,23.276,308.219,130.631,82.848,61.244,49.017,824.157,314.875,190.628,137.159,107.954],[2.651,1.331,0.83,0.595,0.502,11.021,5.451,3.658,2.767,2.246,22,10.794,7.203,5.474,4.448,128.147,58.283,38.006,28.361,22.794,307.583,129.757,81.913,60.139,47.906,820.238,312.004,187.922,134.512,105.226]],
"ve": [[0.814,0.084,-0.321,-0.646,-0.943,4.153,0.574,-1.368,-2.884,-4.219,8.434,1.4,-2.315,-5.138,-7.561,44.975,13.044,-1.646,-11.412,-18.819,93.051,33.131,7.88,-7.601,-18.524,191.403,78.771,35.018,10.138,-6.363],[0.975,0.456,0.264,0.155,0.079,4.908,2.31,1.363,0.824,0.449,9.831,4.637,2.751,1.681,0.935,49.429,23.584,14.28,9.082,5.53,99.169,47.747,29.396,19.293,12.508,198.91,96.771,60.829,41.411,28.673],[0.982,0.478,0.303,0.217,0.155,4.958,2.431,1.562,1.103,0.811,9.932,4.869,3.136,2.22,1.639,49.781,24.495,15.839,11.311,8.429,99.688,49.186,31.926,22.942,17.255,199.584,98.811,64.509,46.749,35.59],[0.982,0.482,0.315,0.225,0.174,4.969,2.464,1.605,1.173,0.904,9.956,4.927,3.234,2.363,1.823,49.878,24.742,16.247,11.914,9.227,99.828,49.578,32.621,23.967,18.627,199.771,99.378,65.56,48.34,37.747],[0.986,0.487,0.319,0.234,0.181,4.981,2.47,1.632,1.2,0.94,9.967,4.951,3.267,2.417,1.891,49.921,24.836,16.414,12.148,9.54,99.887,49.739,32.899,24.382,19.181,199.86,99.618,65.993,48.998,38.641],[0.986,0.49,0.318,0.231,0.184,4.979,2.475,1.638,1.215,0.959,9.974,4.963,3.284,2.441,1.928,49.938,24.883,16.496,12.262,9.693,99.92,49.822,33.041,24.579,19.454,199.892,99.732,66.205,49.325,39.089]],
"kep": [[1.653,1.461,1.573,1.769,2.002,8.068,7.193,7.811,8.769,9.853,16.109,14.369,15.605,17.505,19.651,80.345,71.723,77.899,87.405,98.104,160.657,143.431,155.709,174.713,196.054,321.277,286.821,311.448,349.492,392.188],[1.261,0.729,0.575,0.519,0.512,5.746,3.364,2.708,2.472,2.406,11.346,6.657,5.386,4.941,4.804,56.309,33.148,26.808,24.556,23.871,112.548,66.292,53.576,49.075,47.7,224.898,132.473,107.113,98.114,95.365],[1.295,0.673,0.474,0.422,0.362,5.56,3.006,2.199,1.822,1.635,10.905,5.869,4.332,3.6,3.245,53.564,29.011,21.359,17.885,16.086,107.031,57.965,42.627,35.726,32.163,213.643,115.829,85.223,71.42,64.287],[1.371,0.682,0.482,0.358,0.323,5.54,2.945,2.009,1.625,1.404,10.801,5.633,4.025,3.221,2.775,52.674,27.729,19.619,15.816,13.647,105.102,55.273,39.175,31.518,27.25,209.644,110.343,78.269,62.98,54.459],[1.531,0.755,0.505,0.387,0.311,5.719,2.889,2.019,1.547,1.303,10.835,5.569,3.866,3.06,2.551,52.368,27.091,18.874,14.861,12.54,104.225,54.022,37.584,29.636,25.034,208.196,107.834,75.084,59.169,49.995],[1.649,0.836,0.51,0.362,0.317,5.755,2.904,1.987,1.533,1.275,10.935,5.555,3.795,2.961,2.471,52.16,26.745,18.465,14.341,11.944,103.873,53.353,36.735,28.544,23.818,206.857,106.278,73.234,57.049,47.551]],
"vp": [[0.001,0.001,0.001,0.001,0.001,0.005,0.005,0.005,0.005,0.005,0.01,0.01,0.01,0.01,0.01,0.05,0.05,0.05,0.05,0.05,0.1,0.1,0.1,0.1,0.1,0.2,0.2,0.2,0.2,0.2],[0.001,0.001,0.001,0.001,0.001,0.005,0.005,0.005,0.005,0.005,0.01,0.01,0.01,0.01,0.01,0.05,0.05,0.05,0.05,0.05,0.1,0.1,0.1,0.1,0.1,0.2,0.2,0.2,0.2,0.2],[0.001,0.001,0.001,0.001,0.001,0.005,0.005,0.005,0.005,0.005,0.01,0.01,0.01,0.01,0.01,0.05,0.05,0.05,0.05,0.05,0.1,0.1,0.1,0.1,0.1,0.2,0.2,0.2,0.2,0.2],[0.001,0.001,0.001,0.001,0.001,0.005,0.005,0.005,0.005,0.005,0.01,0.01,0.01,0.01,0.01,0.05,0.05,0.05,0.05,0.05,0.1,0.1,0.1,0.1,0.1,0.2,0.2,0.2,0.2,0.2],[0.001,0.001,0.001,0.001,0.001,0.005,0.005,0.005,0.005,0.005,0.01,0.01,0.01,0.01,0.01,0.05,0.05,0.05,0.05,0.05,0.1,0.1,0.1,0.1,0.1,0.2,0.2,0.2,0.2,0.2],[0.001,0.001,0.001,0.001,0.001,0.005,0.005,0.005,0.005,0.005,0.01,0.01,0.01,0.01,0.01,0.05,0.05,0.05,0.05,0.05,0.1,0.1,0.1,0.1,0.1,0.2,0.2,0.2,0.2,0.2]]
}