{
"KTrans": [[-56.958,-67.797,-84.252,-89.223,-87.724,-49.177,-59.008,-83.985,-78.434,-84.749,-42.883,-56.358,-68.758,-74.208,-68.82,30.937,4.043,-30.304,-14.54,-32.266,59.243,38.381,-22.024,-13.333,25.615,161.103,115.805,83.841,87.785,76.845],[-52.621,-47.44,-41.393,-56.343,-70.014,-56.95,-40.629,-45.914,-54.822,-63.904,-51.377,-34.159,-43.276,-52.855,-54.043,-31.882,-21.438,-18.967,-12.162,-41.638,-1.408,22.195,15.72,-16.44,-16.825,21.403,42.873,43.282,18.927,7.808],[-71.223,-49.3,-41.896,-43.174,-60.221,-70.586,-51.965,-46.168,-39.891,-58.126,-67.683,-44.823,-32.213,-35.033,-39.743,-57.532,-41.696,-27.26,-10.635,-14.315,-42.599,-23.668,-10.775,-2.389,-5.292,-21.475,33.252,34.212,25.484,22.514],[-77.198,-58.198,-43.658,-49.13,-45.168,-75.759,-60.182,-47.953,-45.8,-39.469,-75.837,-54.499,-50.81,-41.318,-38.425,-70.447,-49.519,-38.244,-27.727,-21.094,-60.096,-34.509,-21.051,-19.485,-11.949,-45.994,-8.192,22.312,26.681,22.218],[-81.901,-63.949,-53.607,-48.145,-44.031,-81.822,-62.77,-55.828,-45.142,-45.663,-82.435,-63.011,-49.189,-43.027,-39.789,-73.516,-56.603,-42.429,-32.403,-36.19,-68.53,-45.141,-29.743,-17.494,-14.829,-45.492,-18.291,-0.222,11.553,8.864],[-86.253,-70.075,-53.278,-47.189,-51.868,-87.484,-69.854,-52.074,-48.549,-45.981,-86.389,-69.88,-57.653,-41.092,-42.085,-80.407,-65.567,-43.97,-33.323,-30.821,-76.522,-53.933,-42.241,-31.051,-20.936,-70.374,-42.352,-12.813,-9.108,-10.114]],
"ve": [[-100.452,-59.437,-28.653,-43.834,-46.088,-177.202,-39.144,-70.317,777.397,-20.596,-114.193,-15.857,-56.957,-84.896,-64.16,122.423,-10.982,-96.272,-44.332,-48.314,82.684,5.73,-14.807,-1.881,-106.62,210.906,53.9,-230.171,-16.776,-189.154],[-22.049,-41.303,49.146,28.707,-31.554,96.005,-29.697,-51.011,-38.902,-42.165,559.549,-46.723,-42.58,-39.678,-58.072,36.274,-16.072,-19.93,-24.995,-1.987,123.843,42.457,21.63,6.987,-56.613,132.421,57.313,51.754,25.299,2.738],[-17.118,-95.99,-66.358,-70.048,-59.153,-62.876,-55.525,-70.295,-46.174,-62.83,1.517,-66.616,-41.321,-27.914,-37.937,57.589,-45.869,-21.189,-20.294,-18.468,15.184,2.711,-32.655,-13.507,-1.121,169.581,97.696,45.894,7.049,234.053],[8.94,-72.902,-169.342,-69.226,-62.745,-34.912,-66.289,-77.612,-54.598,-52.001,5.914,-40.785,-76.842,-61.024,-59.29,137.196,-34.899,-41.76,-38.887,-22.776,132.238,336.683,-14.41,-30.742,-30.407,623.626,100.699,122.916,36.093,19.238],[9.653,-85.885,-85.616,-80.998,-65.443,-14.279,-31.035,-92.174,-76.385,-76.767,22.466,-28.489,-75.602,-75.633,-63.976,88.592,-29.657,-45.981,-58.105,-64.895,466.846,-13.592,-28.105,-13.211,-27.956,289.156,120.862,20.213,3.881,7.406],[7.798,-23.722,-65.13,-88.598,-98.346,-450.693,-27.55,-57.102,-89.413,-89.327,182.795,-38.268,-83.814,-76.976,-75.643,178.186,43.849,-37.281,-50.984,-52.288,38.3,2.553,-28.533,-52.811,-32.161,212.598,22.317,47.709,-11.749,-30.082]],
"kep": [[-104.654,-74.351,10.361,36.337,-12.482,-128.481,-92.841,-3.019,-4.786,-29.918,-104.783,-91.07,3.923,-18.313,0.72,-103.876,-104.156,-63.205,-47.183,-41.904,-98.258,-103.908,-45.391,1.536,-89.428,-53.588,-95.317,-94.614,-124.717,-75.576],[-93.842,-87.147,-130.746,-57.506,12.153,-89.697,-93.661,-110.52,-75.429,-23.477,-92.062,-90.149,-115.847,-49.335,-36.81,-90.142,-79.147,-108.326,-87.446,-17.233,-88.624,-86.453,-92.107,-58.582,-37.836,-66.376,-51.336,-78.438,-109.241,-83.03],[-95.587,-64.592,-47.539,-94.442,-114.972,-95.698,-66.478,-56.937,-89.529,-125.194,-93.162,-68.722,-60.12,-79.132,-131.75,-91.875,-63.882,-55.194,-75.899,-103.549,-89.409,-66.55,-47.998,-45.163,-93.105,-85.186,-50.21,-48.137,-60.973,-86.113],[-95.586,-62.438,-43.39,-37.157,-44.031,-93.79,-62.901,-36.074,-30.288,-38.002,-100.031,-66.001,-39.456,-32.76,-51.609,-96.544,-72.186,-44.592,-27.904,-54.114,-95.046,-70.298,-43.343,-35.968,-30.373,-86.78,-66.323,-36.7,-43.954,-36.617],[-98.815,-75.715,-41.083,-26.341,-16.754,-99.299,-73.919,-43.174,-23.941,-11.618,-97.225,-78.357,-39.082,-19.523,-20.969,-98.664,-72.081,-46.501,-22.475,-15.43,-96.623,-63.838,-41.583,-28.779,-17.359,-93.864,-74.71,-47.485,-20.341,-32.326],[-100.435,-82.255,-45.998,-23.562,-13.527,-100.32,-78.079,-47.923,-23.32,-10.694,-100.661,-80.55,-45.811,-19.504,-17.387,-100.947,-83.413,-46.271,-22.036,-13.927,-94.848,-76.504,-50.446,-23.503,-18.587,-94.345,-70.137,-58.994,-36.682,-18.287]],
"vp": [[104.161,-131.132,482.165,1086.392,-303.434,43.336,-13.522,120.373,19.699,-36.263,-70.253,-42.682,112.734,-41.613,3.36,-6.685,1,-6.855,2.234,-3.398,-7.408,12.069,18.46,11.906,7.114,-19.265,6.782,0.796,5.422,14.352],[2684.669,1222.452,399.184,-25.251,496.229,614.247,262.569,-7.708,2.119,39.376,227.333,85.453,7.26,-5.237,-37.147,34.152,6.545,-24.681,0.437,13.907,40.735,-1.997,-3.659,7.003,-19.319,-14.414,-6.588,-3.71,-10.16,3.524],[4521.285,3492.912,1296.575,1049.806,-463.26,889.634,536.051,260.362,125.099,-216.195,368.781,387.13,152.38,35.024,3.32,74.859,30.875,14.796,0.618,1.853,37.653,21.47,3.521,-13.718,-13.406,0.632,-10.789,-10.007,-6.642,-17.92],[5567.65,4323.726,3410.711,2031.458,700.219,1154.356,951.377,514.34,277.187,219.414,559.102,495.909,152.852,203.072,155.099,120.123,98.957,68.519,32.032,31.922,37.071,52.833,32.009,16.029,-15.048,8.3,22.76,-8.565,-20.779,-13.846],[6823.072,7222.401,3451.144,2319.907,1503.951,1386.011,1358.137,658.07,503.416,219.034,660.644,763.887,336.724,183.947,162.058,139.667,127.909,87.225,29.937,5.354,47.43,31.731,38.322,20.292,3.138,-11.878,33.08,0.4,-10.782,1.597],[7366.583,9032.049,6113.152,2966.814,1311.425,1364.94,1786.989,1076.899,637.935,322.611,787.612,858.503,573.279,280.427,204.223,158.557,182.279,125.629,81.178,38.687,58.248,57.885,66.516,23.026,18.027,35.75,14.055,31.819,-2.508,-7.719]]
}