{
"KTrans": [[1.684,10.176,3.854,0.753,0.604,2.308,19.826,11.072,11.178,14.491,7.818,21.923,18.861,16.443,19.258,28.993,65.709,89.099,91.167,93.044,-21.285,59.684,112.947,135.236,146.021,-359.526,-96.107,40.219,90.234,121.334],[-29.313,-10.05,1.029,3.967,1.482,-30.576,-8.7,2.925,7.68,4.812,-21.607,-2.381,3.601,10.87,9.898,20.133,26.936,9.686,27.057,38.488,69.002,77.208,-26.698,20.789,49.646,-7.921,84.155,0.632,-31.773,33.152],[-44.465,-14.028,-5.498,-4.899,0.243,-42.132,-10.275,-3.509,-1.421,1.706,-38.995,-3.517,2.731,-0.109,3.104,-8.815,36.557,37.102,22.566,7.811,-15.208,72.259,67.995,10.151,0.958,-83.876,6.024,59.604,18.919,-12.169],[-53.281,-15.972,-2.704,-4.06,-0.159,-53.965,-13.402,-1.566,0.866,1.472,-46.788,-9.067,3.895,3.734,4.004,-30.094,35.597,36.265,28.631,29.845,-14.001,90.523,76.343,76.577,48.619,-100.458,19.151,151.995,164.886,50.445],[-59.876,-15.863,-4.333,-2.322,-0.807,-62.581,-14.337,-2.735,0.665,1.715,-60.137,-11.503,2.356,2.958,1.896,-47.21,27.572,31.838,32.045,24.47,-46.576,52.51,82.416,71.208,65.052,-51.66,108.658,106.266,162.092,101.927],[-71.956,-26.402,-5.575,-3.601,-2.318,-67.428,-21.66,-6.245,-0.495,0.296,-66.696,-15.413,0.974,3.311,5.001,-59.648,15.573,28.767,30.897,26.859,-46.555,67.952,65.059,75.474,60.232,-89.582,29.056,94.219,113.013,149.916]],
"ve": [[-96.883,-20.334,33.486,6.679,-74.037,-3.065,3.426,-10.594,0.354,19.79,-2.565,29.36,-15.042,-79.624,-1.168,41.746,-7.388,-71.201,-60.414,-60.926,99.829,28.023,-14.053,-29.489,-83.529,196.285,85.31,26.603,2.882,-16.708],[-11.472,1.055,15.006,35.081,-63.787,7.016,-53.058,59.668,4.274,21.818,15.386,4.151,-1.996,7.929,47.114,-83.417,20.39,13.963,10.688,-17.559,96.363,52.335,34.77,12.593,10.536,203.952,99.564,65.723,43.861,25.776],[-25.501,-3.021,-4.15,15.323,4.995,-6.441,-4.104,-4.101,-3.246,-3.552,-432.416,1.592,10.446,12.666,11.273,45.105,20.497,-26.505,5.894,-5.121,95.257,49.341,34.381,19.092,18.76,194.757,97.764,68.564,52.044,39.444],[-7.695,-3.295,-0.8,-2.443,-0.497,-7.616,-0.663,0.178,-0.661,-1.377,-1.677,2.926,1.996,8.022,2.217,-121.262,22.122,14.685,9.46,8.812,98.986,47.004,32.135,26.689,29.21,200.001,112.324,68.603,56.339,10.119],[-4.851,-1.751,-0.898,-0.203,-0.582,-13.984,-1.128,0.539,0.253,0.15,11.668,-0.099,2.167,1.292,0.659,47.027,23.912,16.124,11.457,9.29,94.017,62.439,33.48,24.521,19.159,195.064,105.225,112.039,52.012,37.95],[-14.833,-2.249,-0.956,-0.51,-0.518,14.916,-0.067,-0.23,0.246,0.482,7.373,3.55,2.759,1.67,1.66,31.964,23.418,15.165,11.756,9.526,94.265,47.471,32.79,24.964,19.069,189.589,95.176,89.934,50.567,38.764]],
"kep": [[-127.529,-84.48,-35.59,-10.08,-15.888,-136.424,-78.723,-26.708,-13.227,-31.644,-119.712,-84.501,-57.261,-42.085,-39.055,-155.445,-231.735,-204.178,-179.825,-182.266,-172.668,-321.493,-366.82,-337.666,-396.397,-240.698,-366.001,-545.157,-640.638,-740.043],[-65.658,-70.26,-127.856,-50.626,-16.593,-67.129,-74.155,-122.724,-57.103,-18.971,-62.833,-53.647,-118.492,-71.342,-23.424,-54.546,-46.149,-152.157,-164.975,-104.67,-45.661,-19.416,-220.297,-253.468,-212.662,-93.402,-52.749,-112.242,-311.777,-341.791],[-68.996,-34.654,-25.442,-65.502,-121.868,-67.173,-32.454,-24.122,-46.796,-116.19,-64.589,-25.38,-17.687,-52.935,-120.743,-57.895,-7.042,6.274,-23.734,-133.134,-71.384,-0.779,11.199,-75.95,-157.195,-90.116,-66.73,-24.663,-63.994,-149.187],[-70.123,-30.582,-10.049,-17.73,-10.968,-73.114,-27.244,-8.507,-5.122,-9.194,-68.035,-24.32,-5.245,-9.433,-3.38,-70.376,-3.152,19.176,21.888,31.091,-68.882,11.896,27.569,51.116,21.214,-104.458,-60.823,36.709,84.936,-16.557],[-74.422,-27.85,-12.813,-6.365,-3.541,-77.78,-23.888,-9.36,-2.3,-1.984,-77.24,-26.043,-6.261,-0.946,-4.861,-77.053,-9.419,7.004,18.208,23.038,-83.964,-15.584,32.631,44.595,52.53,-90.985,-14.842,8.881,68.779,42.58],[-82.465,-37.223,-13.01,-7.364,-6.842,-80.773,-32.144,-14.822,-4.371,-0.813,-81.703,-28.676,-6.503,-1.311,1.932,-81.837,-20.783,7.777,17.306,16.761,-81.178,-3.291,17.838,44.994,38.911,-96.703,-51.265,-0.692,31.698,88.594]],
"vp": [[192.227,-23.831,354.678,535.693,139.55,-45.517,20.724,-150.485,84.937,-19.109,31.71,43.246,-0.161,-17.567,-25.357,-10.299,-12.909,-0.086,24.091,-0.807,-3.513,-6.97,-4.99,-9.717,-4.017,-8.178,1.335,-4.462,2.108,3.743],[3128.018,1376.766,-180.821,-227.407,-301.866,500.531,156.178,-44.678,-71.044,40.297,234.839,94.808,-13.915,-4.507,-4.989,47.567,1.267,-3.663,-11.479,-2.767,12.49,-3.31,0.224,-6.528,7.787,14.06,-2.638,-7.294,-0.405,-2.344],[5193.908,2225.578,173.643,1262.409,-395.79,1012.961,476.092,372.823,216.45,26.581,505.075,191.187,113.607,115.792,-35.985,75.889,38.182,23.949,0.639,-9.679,21.365,12.012,-5.676,-0.757,-13.243,0.192,2.016,-15.308,-3.733,0.845],[5809.9,4482.204,1548.789,842.899,196.631,1193.917,722.91,408.637,-11.368,149.683,591.375,406.147,188.608,52.331,86.983,118.643,63.932,-0.3,4.072,14.63,38.19,33.909,19.875,10.506,-1.887,40.818,19.811,-6.457,-8.137,6.316],[7142.165,5690.06,2735.984,837.155,680.161,1357.222,1084.927,425.204,175.855,66.991,664.366,648.942,337.122,75.895,27.485,129.73,135.105,43.898,15.603,-13.702,63.48,60.354,18.698,3.463,5.69,17.24,14.015,7.197,1.421,-8.739],[7063.066,8149.839,4847.507,2526.111,1024.183,1475.687,1582.165,788.643,238.894,-16.892,720.144,848.657,413.442,231.259,138.379,145.01,182.237,51.679,23.177,27.795,49.732,74.532,36.531,19.145,4.851,6.971,28.369,11.179,-2.572,-0.361]]
}