{
"KTrans": [[2.931,1.59,0.458,0.688,1.1,13.087,7.107,6.113,5.082,5.035,24.321,15.729,12.171,11.526,10.366,163.714,89.944,73.931,65.297,59.148,56.635,214.461,167.565,151.008,135.19,-256.16,150.552,276.66,286.79,289.277],[3.921,1.184,0.46,0.407,0.623,13.227,5.846,3.538,3.125,2.75,19.395,12.467,8.689,6.923,5.861,85.676,71.332,46.862,37.219,29.503,-15.878,163.901,97.109,79.621,65.456,-47.059,-134.354,241.482,161.549,146.704],[-2.91,2.16,1.605,0.535,0.637,14.704,5.529,4.025,2.9,2.387,22.468,10.412,7.488,5.824,4.945,-66.358,71.598,39.601,31.408,25.742,7.435,193.775,101.954,68.587,57.203,-27.855,22.53,194.729,155.567,126.421],[8.09,3.296,0.638,0.986,1.181,6.379,6.247,3.175,2.064,2.491,22.149,12.143,8.294,5.476,4.94,-68.713,85.794,45.336,31.95,23.765,-59.017,-83.032,94.897,71,55.51,-69.984,-79.438,113.65,194.157,137.038],[-8.347,5.138,1.173,0.515,0.669,-3.379,8.154,3.82,2.649,2.204,-0.877,15.569,6.776,5.87,4.296,-60.864,95.89,41.058,31.571,24.041,-62.414,-33.686,124.37,76.992,56.838,-29.367,45.987,6.795,212.534,123.412],[-23.86,1.959,1.308,1.349,0.742,-32.352,10.106,3.583,3.309,2.563,-46.026,10.714,5.558,6.555,5.221,-66.178,100.359,51.588,31.934,26.221,-58.339,-50.364,138.205,90.45,58.798,-69.303,-51.088,-48.887,233.547,140.464]],
"ve": [[1.085,0.4,0.401,-0.188,-1.575,4.493,0.577,-1.462,-2.225,-4.791,8.763,1.67,-1.898,-4.945,-7.665,46.27,14.018,-0.896,-10.747,-18.098,93.251,37.281,10.02,-5.091,-17.18,195.63,79.253,49.039,-9.109,15.082],[1.106,0.627,0.345,0.124,0.153,5.119,2.408,1.395,0.856,0.246,9.929,4.728,2.746,1.636,0.768,50.27,24.299,14.694,9.33,5.718,96.566,48.822,29.813,20.041,12.734,204.385,98.093,64.008,41.735,29.142],[0.956,0.659,0.461,0.348,0.137,5.654,2.504,1.62,1.108,0.897,9.984,4.973,3.29,2.254,1.741,50.988,25.128,15.747,11.591,8.538,100.175,49.69,32.591,23.368,17.706,203.258,100.153,65.397,47.268,36.583],[1.403,0.812,0.402,0.253,0.234,5.227,2.623,1.82,1.238,1.059,10.888,5.079,3.444,2.374,1.867,53.031,25.323,16.63,12.212,9.306,97.916,49.859,32.514,24.583,19.129,203.167,103.58,65.496,50.31,39.3],[1.536,0.881,0.372,0.244,0.296,6.423,2.834,1.684,1.281,0.951,14.867,5.247,3.397,2.474,1.959,53.411,25.26,16.485,12.402,9.759,101.728,50.635,33.711,24.989,19.803,195.679,106.025,67.325,50.247,39.261],[12.718,0.583,0.488,0.522,0.319,7.042,2.85,1.744,1.403,1.118,9.426,4.686,3.176,2.618,2.083,48.205,25.714,17.007,12.563,10.026,118.46,53.677,33.275,25.642,20.108,203.01,101.564,66.636,50.703,39.631]],
"kep": [[2.771,2.129,1.091,2.044,3.91,9.163,7.483,8.767,8.612,11.634,15.254,14.886,15.447,18.51,20.809,79.956,67.854,77.006,87.076,96.219,-12.998,130.104,144.822,166.69,186.532,-119.894,41.496,167.379,231.327,292.82],[3.601,1.385,0.936,1.105,1.294,8.501,4.199,2.952,3.089,3.341,9.372,8.259,6.653,6.062,5.918,23.64,38.39,28.903,26.497,23.487,-50.739,76.264,52.317,50.603,47.874,-71.362,-99.592,107.84,84.89,91.803],[-3.327,2.293,1.963,1.003,1.317,9.097,3.754,3.198,2.6,2.301,11.665,5.984,4.899,4.328,3.986,-73.062,37.282,21.385,18.62,16.747,-43.194,92.405,52.26,37.33,34.388,-68.714,-32.08,76.333,72.862,65.972],[6.225,3.195,1.041,1.545,1.762,1.024,4.267,2.135,1.631,2.239,9.877,7.424,5.506,3.86,3.851,-76.317,47.61,25.197,18.387,14.07,-75.068,-82.391,46.621,37.702,31.223,-85.159,-82.399,28.955,93.477,69.792],[-10.092,4.817,1.552,1.067,1.181,-8.912,5.818,2.88,2.157,2.058,-10.826,10.327,4.045,4.124,3.112,-71.293,54.772,21.538,17.807,13.831,-77.596,-52.327,66.427,41.657,31.524,-73.308,-23.256,-30.893,104.392,59.692],[-25.884,1.771,1.517,1.602,1.221,-36.012,7.338,2.522,2.661,2.238,-51.143,5.96,3.003,4.627,3.889,-75.035,57.042,29.732,17.851,15.513,-76.104,-63.559,75.887,51.284,32.595,-86.718,-71.096,-63.26,116.057,70.545]],
"vp": [[-9.606,20.795,22.926,-5.205,55.987,-4.033,-6.739,-4.355,-27.173,-4.904,-11.614,13.815,-16.325,6.632,-7.817,-6.607,-16.048,-0.893,-4.891,-6.278,-12.307,12.194,-1.353,12.557,-8.729,-2.961,-2.543,5.09,14.552,13.115],[500.119,18.692,-46.319,-17.623,-30.827,43.998,-2.96,-19.149,-0.445,-23.007,18.413,-7.762,-2.345,-2.134,-2.327,-10.102,-1.137,-2.14,9.05,-15.152,-0.604,-17.395,-20.429,2.59,-10.443,-14.527,-18.22,-15.031,-19.147,-14.266],[1276.491,189.129,106.712,83.982,50.909,245.418,59.344,21.693,-7.046,-7.921,79.739,19.658,14.124,-6.494,-3.14,28.483,5.206,-17.159,-9.208,-13.299,-22.04,-17.041,-2.606,-15.119,-7.347,-9.875,-21.325,-24.342,-30.083,-14.875],[2903.83,574.666,285.816,183.974,89.923,487.51,112.571,45.454,-4.793,41.987,245.73,22.363,24.301,5.753,24.876,66.656,10.605,5.89,8.403,-10.071,-4.295,2.809,-14.025,-3.869,1.616,-3.934,-1.237,-9.964,-2.141,-5.244],[3571.776,800.301,463.291,392.539,265.411,802.63,209.108,81.918,44.988,27.55,389.718,115.898,23.033,20.303,-4.927,50.048,17.551,0.187,4.194,0.591,17.487,6.63,-6.746,4.092,7.707,-19.642,-32.386,-15.728,0.894,-13.214],[5220.765,1521.065,735.324,524.801,356.914,972.798,259.294,137.583,132.193,62.449,535.786,131.497,65.048,33.547,40.919,63.944,21.4,23.483,2.313,17.443,29.854,36.438,-16.635,18.982,13.393,-0.712,-11.125,-9.39,-8.953,-5.281]]
}