{
"KTrans": [[0.168,2.157,1.894,1.534,0.968,-2.151,12.512,12.017,11.083,10.684,7.494,23.729,22.576,24.577,22.489,93.632,52.614,81.713,87.518,90.692,2.239,36.084,69.09,127.008,119.096,76.832,-10.881,-112.202,3.286,56.04],[1.812,2.477,0.159,0.761,0.464,13.851,6.806,1.126,4.781,4.097,25.407,16.608,4.099,9.464,8.497,28.732,-92.066,15.727,19.368,35.323,-63.418,-15.928,-22.877,10.626,43.767,38.035,112.252,110.005,40.574,-7.21],[9.675,2.572,1.368,1.148,0.337,4.717,5.407,4.188,4.211,-1.364,26.979,13.108,11.051,8.167,1.013,17.724,-26.169,62.319,-50.171,13.769,-36.956,51.213,89.513,-86.707,32.739,-65.997,-29.522,-66.69,-48.667,17.423],[2.989,4.695,1.357,0.843,1.364,-0.178,6.511,4.056,3.88,4.377,-16.558,12.683,9.886,8.639,7.489,-54.054,25.388,39.422,35.209,21.78,-57.793,1.273,100.64,-38.465,-30.465,-8.578,21.516,-0.241,31.836,92.396],[4.859,4.899,2.031,2.238,0.822,-45.816,7.71,4.334,4.489,2.998,-44.116,15.749,9.049,10.413,5.98,-75.684,52.086,28.133,33.178,28.74,-45.52,-56.538,15.269,42.838,18.552,-44.6,-41.587,63.251,-36.234,55.041],[-60.863,6.05,4.108,3.727,2.616,-45.932,5.471,2.268,4.791,2.389,-61.034,10.018,11.419,5.084,6.169,-49.946,14.436,16.089,32.076,22.464,-49.95,-36.415,-33.577,60.468,59.808,-41.94,-4.894,-7.832,74.96,-37.523]],
"ve": [[0.981,0.783,0.685,0.552,0.235,5.384,7.276,7.995,8.695,10.046,9.802,-16.983,70.432,82.954,79.1,49.662,-16.678,-476.04,111.891,-160.273,98.903,29.07,-10.7,-37.402,-52.846,199.465,82.849,33.964,3.062,-16.163],[0.903,0.733,0.353,0.265,0.119,5.037,2.598,1.599,2.072,1.641,9.524,5.159,3.299,94.424,4.101,53.396,28.218,16.175,-34.152,12.199,94.15,51.09,35.199,18.471,-29.014,197.351,99.819,69.937,44.667,26.469],[1.293,0.708,0.453,0.364,0.196,4.266,2.435,1.736,1.419,1.012,3.686,5.013,3.601,2.646,2.036,48.401,25.452,17.397,12.956,9.679,99.543,49.813,32.793,27.024,19.786,200.431,100.398,67.071,52.218,38.777],[0.435,0.793,0.414,0.317,0.373,4.256,2.498,1.712,1.407,1.296,11.117,4.899,3.568,2.823,2.292,44.902,25.264,16.099,14.686,10.834,98.469,50.662,32.856,25.194,20.403,197.015,101.549,68.269,155.392,40.735],[0.252,0.63,0.489,0.468,0.287,4.365,2.302,1.697,1.432,1.14,9.513,4.852,3.336,2.997,2.149,50.918,24.01,18.507,11.883,14.156,105.614,50.098,33.122,27.592,19.726,193.712,99.101,67.026,50.717,41.022],[2.55,0.486,0.627,0.589,0.488,4.136,2.365,1.501,1.478,1.032,9.846,4.537,3.542,2.384,2.224,51.179,22.408,16.096,10.63,9.214,94.744,49.857,35.176,23.201,20.864,126.646,98.622,68.257,91.585,43.429]],
"kep": [[40.217,-2.121,-1.183,-0.692,-0.03,18.774,-19.881,-16.035,-14.191,-14.316,119.363,-42.571,-31.813,-39.101,-35.578,151.9,-232.678,-185.628,-196.994,-188.12,66.291,-338.858,-377.645,-340.993,-395.8,88.501,94.172,-549.261,-632.84,-717.311],[1.272,5.564,68.997,-1.064,0.355,8.619,10.378,110.124,-14.25,-6.454,13.469,23.374,108.844,-32.988,-15.28,-20.354,-138.479,101.2,-171.176,-90.86,-63.791,-25.89,-8.555,-256.519,-182.982,-34.578,28.633,140.794,84.978,-328.916],[3.936,2.594,2.971,5.132,131.387,-4.629,4.224,5.681,13.275,-26.795,4.677,9.723,14.805,20.736,60.185,-29.393,-50.348,50.206,-127.329,116.952,-55.798,-2.575,61.623,-124.922,160.499,-71.77,-38.572,-60.919,-46.834,67.912],[-9.079,3.081,2.062,2.112,4.124,-13.391,3.244,3.856,5.693,10.796,-37.442,6.494,8.349,11.416,15.951,-68.712,-9.749,17.549,24.274,19.263,-70.184,-30.125,41.423,-68.581,-71.179,-61.422,-30.864,-31.459,-11.463,61.328],[-15.458,1.247,1.43,3.351,2.011,-57.1,2.169,2.867,5.116,4.23,-57.601,5.78,6.119,10.467,7.9,-78.096,10.012,2.245,20.432,24.261,-70.311,-67.893,-20.63,6,-8.472,-72.302,-61.416,-7.581,-41.475,12.156],[-70.097,0.349,2.078,3.999,3.892,-57.299,-2.818,-0.186,3.832,2.761,-71.31,-1.471,6.273,3.333,6.005,-68.967,-20.455,-9.676,13.968,11.434,-71.795,-55.519,-49.347,17.017,33.314,-76.655,-51.088,-48.325,7.379,-50.316]],
"vp": [[-38.054,-45.206,-56.186,-64.511,-62.835,-21.885,-15.47,-13.65,-24.246,-24.128,-24.213,-18.335,-21.061,24.48,-2.837,-36.744,0.043,-5.853,1.907,-14.327,-24.912,-21.412,-1.831,-17.261,-2.614,-30.823,-1.802,9.331,-1.518,-1.562],[292.688,68.206,-20.637,-59.121,-97.41,61.701,2.301,-45.541,-19.966,-34.49,11.415,7.033,-36.896,-6.128,-30.783,-32.453,-21.411,-40.507,1.201,-24.104,-29.153,-32.487,-44.022,-1.91,-17.724,-47.679,-53.918,-52.116,-18.999,0.63],[498.271,315.246,178.651,116.646,-58.152,96.376,47.339,14.272,-10.566,-12.886,48.221,22.512,22.093,-3.856,-22.884,-17.485,1.39,-5.199,-30.227,-44.719,-13.769,-38.04,-46.398,-21.472,-37.01,-9.821,-33.666,-33.328,-31.753,-30.083],[2175.672,651.708,563.803,293.259,134.668,287.825,170.213,84.639,33.929,45.385,239.015,56.333,40.012,20.303,32.466,7.507,-2.399,-11.178,7.828,-24.305,-36.905,-49.768,-34.048,-25.79,-30.549,-28.113,-19.07,-56.583,-31.726,-44.264],[4051.339,736.777,646.13,768.648,435.324,555.521,166.268,132.901,152.312,42.394,255.216,132.317,74.189,73.742,25.347,27.585,-23.468,13.207,-15.93,-13.014,12.731,-23.417,-36.724,-2.827,-13.797,-24.083,-34.775,-36.919,-52.828,-54.551],[4458.682,1481.052,786.176,1129.594,919.19,635.551,128.015,210.456,154.805,99.311,410.433,146.154,83.465,69.226,60.838,54.816,20.756,24.043,29.755,3.103,-40.642,-2.652,-20.641,0.676,-6.868,-30.476,-14.941,-38.504,-31.14,-23.734]]
}