{
"KTrans": [[-55.563,-69.327,-80.753,-70.548,-78.995,-45.65,-68.326,-65.315,-76.065,-67.695,-22.684,-46.486,-50.559,-55.674,-67.866,49.174,32.284,-24.071,-22.963,-11.402,128.605,53.046,27.503,26.098,36.079,195.839,98.651,121.433,66.643,168.418],[-60.053,-44.524,-44.026,-54.752,-70.25,-56.402,-42.191,-45.032,-62.817,-56.671,-49.487,-36.722,-22.498,-56.555,-60.698,-28.224,-1.359,7.327,-11.733,-25.023,-5.087,25.393,35.659,-5.313,-21.55,37.101,61.85,51.877,14.671,30.05],[-68.736,-47.609,-49.845,-40.936,-49.259,-67.451,-51.116,-46.759,-32.207,-39.31,-67.788,-52.382,-41.254,-35.704,-41.995,-56.268,-34.525,-17.564,-9.322,-5.89,-39.101,-19.149,-7.178,16.479,17.371,-12.209,26.339,31.906,43.392,4.348],[-78.901,-56.345,-58.177,-52.291,-46.565,-77.745,-53.977,-52.325,-38.671,-41.571,-74.812,-56.566,-47.197,-44.479,-36.982,-70.328,-43.635,-28.962,-18.832,-11.545,-58.187,-35.715,-22.996,-7.683,-0.869,-35.405,-8.103,13.288,19.827,25.277],[-82.646,-61.761,-46.156,-53.51,-50.647,-82.853,-61.828,-53.304,-40.745,-48.655,-82.078,-59.655,-46.326,-38.251,-34.05,-74.4,-55.219,-36.6,-28.917,-22.139,-68.386,-47.291,-23.384,-17.894,-15.154,-56.817,-15.279,-11.327,-1.726,-2.632],[-87.615,-69.793,-55.321,-51.764,-50.247,-86.288,-68.32,-52.277,-49.411,-45.049,-85.482,-68.856,-48.718,-46.642,-40.916,-79.427,-66.184,-40.119,-24.379,-29.178,-73.384,-49.347,-37.513,-25.56,-7.506,-65.639,-35.307,-25.449,-7.633,-16.526]],
"ve": [[-8.584,-27.803,-97.756,-49.59,-114.813,-59.203,-37.241,-47.663,-27.662,-24.874,-13.653,-28.388,-73.522,-314.279,-76.421,54.505,3.801,-302.837,206.706,-2.827,-310.371,-14.841,-5.978,-1790.796,-35.941,195.247,48.929,341.315,-22.452,-15.773],[95.109,-73.099,-46.889,-49.998,-30.741,-46.577,-50.755,-45.473,-45.235,-98.122,36.586,-30.136,-26.075,-78.672,-41.166,26.916,11.618,8.96,-10.346,-15.852,101.293,54.306,31.779,-7.663,-2.651,172.48,80.344,46.171,11.478,-412.716],[55.824,-45.684,-84.941,-42.382,-48.474,74.127,-83.06,-112.056,-28.995,-37.303,-4.517,-90.595,-52.893,-39.286,-41.513,61.067,-28.672,-23.972,-5.304,-5.79,114.167,39.945,1.186,31.352,17.092,172.859,64.722,45.466,53.683,14.152],[-14.284,-43.185,-107.645,-238.266,-63.799,11.332,-40.034,-96.412,-49.571,-55.068,15.931,-60.867,-80.177,-73.477,-67.577,-272.043,-17.927,-48.487,-25.33,-14.189,131.744,-15.941,-41.141,-29.521,31.517,227.453,57.817,25.577,14.661,27.184],[-26.039,-45.072,-83.422,-106.717,-86.697,8.095,-42.289,-91.812,-79.646,-81.028,15.209,-43.581,-75.175,-65.579,-54.096,86.183,-18.551,-33.461,-45.735,-40.967,118.844,-4.846,-30.105,-29.582,-30.173,185.13,92.161,2.763,-9.836,-1.776],[192.553,-30.945,-87.169,-113.679,-105.66,-15.075,-61.939,-74.741,-107.02,-90.328,-25.222,-26.525,-71.034,-102.547,-82.981,14.38,-9.628,-45.13,-46.917,-56.65,134.046,40.663,-50.45,-45.246,-17.507,126.961,69.423,-9.814,-30.117,-29.702]],
"kep": [[-120.049,-73.225,-34.456,-26.868,-4.07,-123.4,-62.96,-29.787,-6.763,-15.554,-127.868,-82.713,-30.494,-25.126,-1.435,-126.284,-107.403,4.468,-5.305,8.913,-126.903,-72.467,-44.062,-2.325,-21.129,-77.89,-67.342,-74.834,-15.938,-158.615],[-92.933,-73.663,-119.284,-67.482,-18.707,-89.106,-80.995,-133.746,-62.49,-9.439,-91.216,-85.626,-139.801,-43.286,-0.112,-90.194,-80.389,-115.275,-76.493,-10.822,-87.961,-77.678,-119.895,-42.242,-22.6,-71.1,-48.053,-70.945,-63.424,-79.626],[-95.637,-60.915,-29.138,-84.13,-102.408,-97.719,-47.533,-56.064,-89.426,-136.664,-95.772,-47.34,-44.743,-79.814,-124.57,-93.466,-56.539,-41.484,-73.609,-117.259,-90.839,-59.431,-43.503,-63,-101.755,-83.555,-59.176,-36.206,-56.595,-43.046],[-98.957,-60.942,-28.006,-20.321,-20.567,-99.448,-62.177,-29.746,-20.412,-26.823,-98.911,-63.809,-28.458,-16.455,-19.992,-94.793,-55.001,-21.455,-22.187,-27.294,-95.256,-58.357,-26.312,-22.334,-33.08,-87.963,-61.273,-29.274,-17.84,-28.565],[-101.04,-65.801,-26.193,-14.103,-13.625,-98.215,-64.957,-33.604,-14.25,-17.996,-98.14,-65.16,-33.443,-18.728,-8.046,-96.645,-64.198,-36.143,-20.555,-6.991,-96.901,-67.518,-31.049,-12.104,-2.476,-93.216,-68.583,-36.104,-15.777,-22.695],[-98.738,-76.32,-38.851,-16.887,-4.71,-99.32,-68.78,-38.073,-15.029,-6.099,-101.832,-74.966,-36.466,-14.702,-2.319,-99.571,-77.884,-36.04,-12.407,-8.929,-98.625,-73.602,-38.07,-19.086,-4.671,-93.998,-70.663,-43.409,-12.049,-20.226]],
"vp": [[-182.721,438.474,-153.78,-43.662,289.421,-15.944,7.98,2.005,6.886,163.05,-7.186,7.123,19.412,39.247,28.522,-1.834,2.723,0.757,4.377,-7.218,1.482,4.206,1.485,-7.51,-2.964,-5.368,-0.155,-3.996,8.583,-11.514],[2396.509,838.596,195.265,-14.112,-623.862,390.885,110.799,48.256,-67.791,55.8,296.802,112.998,-1.596,-36.645,-5.101,44.232,20.203,1.456,3.601,9.64,24.787,2.067,-6.286,-1.508,5.35,5.816,-5.286,-3.811,3.79,-7.406],[4864.385,2980.827,809.905,1295.824,454.414,1038.311,358.605,285.666,229.481,42.419,498.74,169.624,102.744,76.167,-13.981,71.723,35.432,34.751,7.725,-9.348,37.66,40.344,10.075,3.993,-5.289,16.85,10.276,-3.893,-6.032,1.558],[6285.473,4576.708,1230.877,1167.024,298.027,1131.24,934.123,250.657,268.794,62.029,559.071,466.903,152.851,56.641,81.326,113.734,71.921,12.943,28.717,18.26,53.509,30.947,16.33,7.112,6.183,16.856,12.392,-1.714,-12.874,0.965],[7569.285,7127.03,3204.107,1253.121,1139.5,1319.656,1352.354,613.264,345.941,193.424,712.636,655.91,357.378,188.661,183.792,117.484,134.365,83.987,17.173,1.371,63.039,57.776,22.333,12.071,17.842,39.078,25.863,16.448,-5.935,10.895],[7126.081,8459.855,5019.914,1599.95,323.367,1458.728,1423.98,1079.172,399.013,323.104,804.565,851.542,457.671,181.201,148.558,149.579,159.836,98.416,31.305,22.874,63.533,66.412,31.869,33.132,-6.746,40.288,22.552,25.225,-6.102,10.762]]
}