{
"KTrans": [[-49.866,-60.66,-58.223,-45.645,-59.933,-32.442,-39.005,-51.731,-35.094,-40.442,-23.078,-45.887,-32.207,-37.356,-41.918,-17.901,20.725,13.377,29.328,18.789,35.943,46.84,73.185,74.618,85.647,8.218,123.202,243.546,163.068,178.993],[-41.917,-43.036,-39.184,-55.851,-50.526,-44.874,-39.849,-24.882,-40.469,-44.433,-38.548,-28.371,-24.178,-31.169,-32.837,-13.442,-26.002,-12.246,-3.801,-7.751,-42.814,-18.638,-7.303,7.83,10.577,-45.492,-26.053,21.834,65.805,60.937],[-50.031,-41.048,-38.256,-39.747,-46.414,-40.93,-37.128,-24.589,-36.03,-28.203,-48.972,-42.305,-35.31,-22.584,-15.87,-38.138,-9.784,-2.363,-0.301,-16.254,-24.414,21.019,8.645,-14.441,-13.887,-34.099,-8.296,62.284,-42.041,-11.917],[-65.036,-35.538,-36.122,-32.644,-46.361,-58.368,-36.117,-35.587,-30.432,-33.719,-59.355,-42.407,-28.745,-34.957,-35.434,-56.479,-23.743,-23.308,-15.677,-8.32,-44.22,-17.71,15.901,32.558,13.765,-64.008,-9.992,-5.987,-8.231,25.16],[-75.023,-48.47,-32.989,-30.537,-40.864,-71.753,-42.872,-36.557,-30.029,-32.595,-67.27,-44.324,-39.613,-29.395,-33.913,-63.548,-21.512,-29.257,-22.089,-31.232,-58.769,-21.524,19.82,7.835,13.809,-54.701,-38.793,-18.443,6.897,-1.821],[-80.006,-55.058,-46.028,-38.839,-30.134,-75.892,-53.313,-36.697,-43.207,-34.541,-73.811,-45.982,-41.767,-36.061,-27.052,-66.063,-46.417,-29.713,-26.161,-19.055,-71.027,-39.778,-21.588,0.962,-0.88,-81.721,-36.273,-19.368,-11.232,3.439]],
"ve": [[-36.133,-21.186,-2.008,12.631,1.622,-31.678,-10.247,-10.005,4.658,98.091,-12.452,-14.02,8.127,2.035,31.075,27.854,21.031,48.649,26.694,-27.02,20.507,18.161,-32.934,-68.704,-34.03,46.788,49.89,40.846,35.102,-28.622],[-88.591,-68.717,-38.63,-44.248,-29.485,-103.303,-63.765,-25.626,-27.678,-25.64,-85.472,-42.823,-24.001,-20.758,-18.856,-15.984,-4.771,-5.074,0.447,2.777,62.97,11.708,-3.371,5.552,-26.71,78.072,72.924,17.118,50.363,102.754],[-92.713,-95.195,-61.001,-50.576,-46.592,-69.054,-82.742,-40.476,-47.251,-28.292,-95.892,-95.748,-58.273,-29.245,-14.89,-46.039,-59.657,-10.151,-3.498,-15.686,14.101,90.862,32.087,2.585,-5.224,-13.644,36.305,70.129,29.379,-2.292],[-125.642,-105.685,-81.921,-53.884,-66.13,-81.325,-100.067,-75.441,-52.241,-46.149,-156.37,-151.564,-65.77,-60.851,-50.242,-126.289,-82.489,-58.331,-10.618,-17.236,15.183,52.761,29.368,60.651,59.857,-100.052,-122.05,23.956,47.378,53.071],[-48.145,-159.346,-79.361,-63.358,-69.902,-59.307,-145.005,-98.099,-62.216,-53.58,-53.406,-146.019,-100.569,-57.922,-57.456,-4.872,-99.941,-83.298,-56.046,-59.421,-35.639,-18.023,23.527,14.779,5.332,-40.838,-44.281,26.474,-7.733,56.808],[-63.214,-181.714,-138.878,-95.313,-63.002,-40.982,-184.746,-115.017,-111.074,-69.781,-23.674,-124.689,-144.402,-86.009,-50.911,74.612,-133.641,-109.038,-60.054,-39.202,44.588,-60.182,-68.662,-34.938,-20.645,17.795,-51.013,-60.723,8.825,45.948]],
"kep": [[-141.065,-7.22,-0.192,2.209,-0.596,-126.098,10.974,-3.473,5.567,-1.931,-87.749,-5.463,-7.584,-1.76,3.74,-28.994,-40.332,-34.71,-29.621,-23.938,83.357,-143.765,-93.78,-81.388,-90.864,100.625,-223.149,-268.99,-201.796,-205.571],[-13.606,1.456,-116.515,-1.435,1.018,-11.013,1.12,-94.423,4.224,-1.909,-15.954,-1.08,-102.168,-9.39,-3.563,-27.266,-41.012,-56.042,-40.177,-13.993,-48.514,-10.685,91.796,-95.29,-43.729,-46.559,-20.679,84.536,-206.369,-137.795],[-30.37,-1.397,-2.801,1.056,-102.941,-27.284,-6.263,-0.286,2.744,-139.218,-34.272,-4.864,-1.509,0.195,-120.47,-46.467,-2.29,-16.777,-18.873,13.87,-48.24,-34.851,-26.263,-14.899,43.544,-52.775,-29.499,15.644,-15.331,109.031],[-51.428,-5.248,0.439,-1.801,2.115,-51.476,-8.688,-3.908,-2.379,-2.691,-58.422,-0.764,-0.057,0.212,1.347,-55.446,-21.974,-4.48,-0.056,-2.313,-61.477,-45.567,-23.079,-28.501,-64.553,-67.513,-21.592,-21.715,-26.392,-4.982],[-71.357,-12.14,-5.798,-1.475,-3.246,-69.505,-11.095,-4.429,-1.8,-4.454,-67.637,-14.661,-6.483,-5.005,-4.011,-73.655,-23.312,-11.253,0.174,-2.446,-66.793,-39.051,-16.394,-14.904,-1.393,-69.446,-45.396,-41.497,-12.141,-26.829],[-76.985,-21.735,-7.424,-3.732,-1.918,-75.916,-20.567,-4.743,-2.845,-2.668,-75.351,-21.132,-4.144,-4.847,-4.578,-77.948,-40.747,-9.516,-8.7,-6.252,-80.939,-50.702,-30.751,-4.764,-2.524,-79.297,-53.134,-28.059,-28.766,-29.364]],
"vp": [[-5.749,-37.51,-18.81,-11.173,-69.776,-33.472,12.967,-41.971,-6.378,-11.174,13.527,4.503,1.909,-27.135,-18.825,4.437,-0.263,3.016,-7.922,0.346,-42.76,5.427,3.294,-12.929,-15.231,-24.252,-11.714,-17.063,6.664,-2.135],[791.566,76.929,38.309,-124.917,-54.736,163.462,-23.389,-8.211,-13.371,-39.301,82.201,43.22,-26.315,-19.576,-21.397,-12.115,-44.333,-50.339,2.275,2.941,10.39,-33.348,-35.476,1.699,9.338,-16.517,-63.608,-44.693,-39.623,-9],[1716.154,412.026,252.575,171,0.815,306.321,76.603,53.717,-23.624,-15.585,164.185,30.915,14.349,17.759,10.148,10.103,-37.337,-18.137,-42.532,-49.232,-22.124,-39.354,-47.922,-37.91,-30.752,-30.917,-31.421,-68.523,-50.202,-16.482],[2939.83,1004.488,605.551,502.998,41.387,603.259,165.309,108.211,67.594,60.278,242.93,62.639,28.772,12.427,-8.62,22.015,-6.56,4.125,-21.754,-13.944,-22.746,-18.333,-28.835,-24.412,-33.818,-43.273,-27.995,-40.383,-68.826,-50.795],[3999.085,1647.129,1060.385,639.226,314.349,841.075,228.125,93.387,182.513,131.537,415.71,133.075,49.263,73.553,31.769,35.016,-3.746,16.176,8.579,8.599,-10.112,6.31,-25.568,-18.259,-29.314,-31.622,-9.935,-35.801,-41.99,-35.22],[5026.12,2740.489,1567.928,749.61,697.529,964.131,417.645,272.284,110.515,141.665,422.2,340.507,97.217,123.772,75.629,24.676,52.811,-0.473,41.186,6.154,-1.027,-27.447,-17.321,-32.264,-29.936,-1.321,-30.691,-23.448,-46.285,-51.519]]
}