{
"KTrans": [[-0.401,-0.418,-0.147,-0.105,0.251,2.334,0.053,0.949,0.394,0.408,3.629,3.717,1.317,1.701,0.339,54.285,24.575,15.301,11.374,19.782,108.579,65.936,52.848,35.589,33.653,-95.257,92.699,96.408,96.44,92.675],[7.762,-0.091,-0.458,-0.502,-0.69,14.238,1.363,-0.123,0.316,-0.273,34.235,2.999,0.748,0.119,0.116,41.484,17.952,9.311,8.218,1.639,8.979,32.103,33.129,14.072,15.232,-186.767,55.756,60.68,39.019,32.772],[0.799,5.224,0.708,-0.328,-0.55,-0.551,3.57,0.075,0.049,-0.345,-18.224,7.337,1.828,0.623,0.253,-1.162,27.572,11.82,7.329,2.597,18.9,48.379,20.046,15.37,12.791,-136.021,30.629,62.275,33.08,34.639],[-53.67,11.281,3.162,0.665,-0.286,-44.918,23.973,4.582,0.847,0.456,-52.635,30.069,4.298,2.24,0.7,-31.606,3.463,15.846,9.452,4.237,-54.221,27.922,28.255,27.092,15.104,-156.752,23.832,14.678,40.445,32.49],[-64.938,6.219,8.462,0.912,0.673,-60.566,11.149,8.312,2.437,2.69,-58.94,6.702,10.244,5.675,1.446,-52.584,6.408,25.697,17.963,7.49,-73.901,12.011,18.995,23.012,14.068,-96.085,-13.566,47.427,38.656,35.676],[-74.152,-21.588,15.242,5.325,1.658,-74.692,-33.719,13.879,5.498,4.591,-65.647,-26.387,20.519,10.357,5.948,-72.036,-13.838,16.101,20.575,6.63,-46.312,-26.8,12.106,22.42,30.181,-18.802,9.312,-10.983,28.983,36.022]],
"ve": [[-3.049,-2.093,-1.917,-1.805,-1.91,-2.14,-2.253,-2.143,-2.024,-2.121,-2.023,-1.67,-1.842,-2.163,-1.127,-19899.542,47.274,-15.784,-31.234,-22.133,31.539,8.619,-11.59,249.484,2205.952,60.742,-13.026,-9.165,-26.699,-23.875],[-4.467,-3.767,-3.009,-2.572,-2.364,-1.975,-2.963,-2.999,-2.345,-2.294,0.153,-2.311,-2.823,-2.544,-2.313,9.712,0.972,-0.364,-0.413,-2.413,12.603,0.29,12.923,7.873,10.745,52.055,24.197,13.509,-0.745,-29.957],[-16.479,-4.191,-3.823,-3.375,-3.041,-18.824,-4.047,-3.9,-3.37,-3.069,-21.371,-2.736,-3.293,-3.177,-2.868,-8.88,-0.353,0.177,-0.577,-3.117,22.618,9.167,-0.427,0.827,0.207,66.691,21.635,18.961,0.538,8.45],[-42.009,-4.391,-4.338,-3.959,-3.51,-35.434,-1.96,-3.945,-3.856,-3.439,-37.188,-0.643,-4.014,-3.452,-3.16,-14.874,-15.398,-4.584,-1.592,-2.534,6.617,3.415,-5.638,6.041,2.67,57.772,-8.672,0.457,10.043,9.386],[-48.787,-10.495,-4.103,-4.233,-3.944,-45.926,-10.772,-4.438,-3.94,-3.797,-49.173,-12.526,-3.364,-3.763,-3.375,-33.364,-11.198,-4.323,-1.869,-1.851,0.584,1.079,-4.554,-0.386,-0.487,62.714,41.475,27.575,8.246,9.951],[-49.193,-20.255,-5.337,-4.384,-4.448,-53.13,-34.252,-4.836,-4.001,-3.59,-40.072,-29.943,-3.546,-3.765,-4.15,-23.459,-34.607,-11.975,-1.681,-3.768,28.782,-27.798,-15.103,-2.103,3.849,47.767,-1.803,12.517,4.97,7.418]],
"kep": [[2.73,1.711,1.807,1.74,2.223,4.446,2.326,3.178,2.563,2.74,4.881,5.405,3.392,4.385,2.509,24.66,16.764,14.512,12.419,35.044,54.149,36.844,45.232,27.525,36.805,31.552,92.603,73.582,92.196,106.388],[12.057,3.829,2.628,2.122,1.712,15.271,4.448,2.952,2.723,2.066,33.201,5.388,3.622,2.693,2.466,10.518,13.88,7.684,7.589,3.292,-1.84,26.475,19.405,7.593,10.355,-12.586,27.898,26.952,13.991,12.709],[19.473,9.728,4.729,3.155,2.567,22.103,7.766,4.12,3.536,2.809,1.456,9.965,5.222,3.896,3.2,-18.927,24.077,10.1,6.937,5.138,-20.129,18.509,8.761,11.143,10.48,-37.764,7.913,27.656,16.348,16.224],[-34.464,14.586,7.808,4.832,3.349,-29.984,24.894,8.786,4.888,4.036,-38.527,28.454,8.492,5.843,3.976,-37.967,8.302,17.052,10.558,6.195,-45.204,3.546,27.758,19.521,9.732,-59.984,-1.448,-1.307,21.87,18.26],[-51.524,16.331,12.487,5.382,4.831,-47.883,22.71,12.532,6.603,6.75,-47.296,22.78,13.361,9.696,4.999,-53.295,3.47,37.052,19.138,9.336,-55.275,-7.848,10.951,22.357,13.374,-60.299,-24.516,5.475,13.98,14.946],[-62.578,-2.662,19.055,9.93,6.378,-64.746,-2.259,16.983,9.62,8.47,-57.107,-1.589,21.769,14.259,10.435,-68.047,-14.542,33.354,20.781,10.154,-57.201,-31.641,6.02,28.83,23.92,-59.973,-21.981,-17.387,7.055,21.796]],
"vp": [[219.101,211.492,232.543,218.642,232.131,19.636,51.161,23.924,46.216,36.93,9.449,-6.522,16.761,12.91,25.7,-48.019,-24.594,-15.842,-7.766,-36.141,-40.474,-38.322,-38.113,-20.892,-25.119,-30.374,-8.106,-23.652,-29.247,-31.497],[377.179,583.924,649.967,684.406,704.048,22.634,76.616,129.54,104.241,131.537,-6.532,23.057,55.95,64.579,63.73,-20.587,-7.802,-5.045,-10.585,20.47,-11.629,-1.599,-35.429,-6.467,-15.938,-25.028,-25.398,-28.054,-9.436,-14.191],[1667.106,719.898,924.819,1023.716,1102.225,385.09,125.511,179.466,200.759,222.065,210.151,35.891,71.12,91.588,97.992,16.175,-1.215,-8.674,-6.447,22.753,-26.08,-21.602,5.656,-6.665,-8.495,-35.61,-22.961,-35.621,-6.433,-27.253],[4221.129,712.118,1093.899,1272.431,1324.498,714.029,66.974,195.236,238.791,264.805,364.593,3.22,98.891,105.234,110.31,29.566,64.182,26.045,4.955,15.504,-7.158,-7.971,17.635,-31.213,-21.648,-29.156,9.324,0.825,-24.895,-26.183],[4926.529,1932.095,1014.698,1311.574,1556.283,929.055,411.231,226.139,243.633,323.231,510.028,240.052,75.662,127.264,118.519,68.904,44.247,22.221,12.465,8.155,-0.992,-5.394,11.918,-2.035,-2.608,-33.56,-44.776,-47.14,-17.42,-30.802],[4836.647,3806.553,1463.499,1476.248,1832.312,1055.66,1407.252,237.79,252.076,295.464,394.67,612.002,89.496,132.292,190.951,43.795,81.437,74.604,6.876,29.233,-34.269,56.808,49.762,4.951,-25.472,-27.84,1.398,-20.739,-12.572,-23.616]]
}