{
"KTrans": [[-1.781,-0.687,-1.571,0.719,1.184,-4.172,0.167,1.482,-0.634,-1.571,-4.204,-3.486,0.1,-2.53,-1.002,-2.247,-6.726,-6.427,-2.642,-2.957,-1.974,-3.819,-11.163,0.502,-4.38,29.819,13.481,-2.395,4.092,-1.358],[-15.441,-2.019,0.22,0.768,0.058,-14.411,1.223,0.128,0.221,-0.036,-14.666,-0.323,-0.539,-0.701,-0.155,-25.466,-6.001,-6.196,-1.821,-3.687,-25.812,-8.701,-5.384,-11.439,-5.854,-11.617,-7.435,-11.186,-5.148,-13.041],[-41.902,0.585,0.825,0.39,-0.715,-44.999,-0.239,0.408,0.459,0.3,-45.689,-1.961,-0.349,-0.157,-0.228,-51.886,-6.811,-2.164,-3.94,-1.486,-54.553,-19.996,-7.371,-4.482,-2.509,-42.609,-20.477,-12.575,-7.488,-7.582],[-67.781,-4.962,0.664,0.086,1.066,-70.264,-1.395,1.433,0.17,0.749,-74.257,-3.518,-0.286,-1.213,0.15,-68.2,-12.268,-5.638,-1.539,-1.829,-66.706,-30.31,-9.073,-5.208,-2.729,-53.859,-20.471,-14.513,-12.634,-4.029],[-86.147,-7.005,2.042,3.02,1.563,-87.044,-9.725,0.652,2.036,0.954,-84.396,-8.736,0.188,-0.22,1.058,-79.584,-16.246,-4.345,-3.444,-2.426,-75.147,-28.313,-14.212,-7.661,-4.894,-84.802,-15.282,-15.358,-11.637,-5.605],[-94.634,-11.215,1.246,1.848,2.753,-92.283,-11.855,-0.134,0.889,1.157,-93.973,-12.095,-0.069,1.493,0.031,-86.558,-23.905,-9.645,-2.301,-0.227,-85.173,-31.227,-16.634,-4.689,-4.365,-85.631,-7.62,-30.556,-11.773,-10.165]],
"ve": [[0.166,0.817,2.043,1.89,1.369,0.221,1.505,-0.291,2.585,5.638,-1.444,1.36,0.551,3.663,4.536,1.043,3.893,16.941,16.018,42.095,-56.161,132.416,-46.324,-211.757,-2.096,-16.581,-46.504,-63.23,2.978,-50.24],[-6.201,-0.665,-0.21,-0.268,-0.098,-6.484,-0.048,-0.404,-0.074,-0.466,-7.357,-0.296,-0.236,-0.387,-0.211,-14.322,-3.163,-2.759,-0.368,-0.636,-29.187,-5.031,-1.582,-3.622,-0.248,-40.777,-65.748,-2.059,1.855,2.25],[-21.454,-0.525,0.23,-0.041,-0.494,-24.661,-1.521,-0.383,-0.322,-0.437,-23.374,-1.984,-0.765,-0.767,-0.246,-32.148,-4.015,-1.369,-2.017,-0.56,-47.2,-11.314,-4.354,-2.269,-0.941,-44.311,-26.467,-7.077,-3.618,-2.973],[-41.184,-2.883,0.022,-0.411,-0.111,-41.692,-2.3,-0.437,-0.671,-0.337,-46.271,-2.445,-0.311,-0.853,-0.35,-53.059,-7.521,-3.958,-1.596,-1.372,-49.746,-20.13,-5.587,-3.115,-1.739,-57.636,-22.327,-10.416,-8.203,-1.802],[-60.97,-4.538,-0.325,0.247,0.15,-61.543,-5.136,-0.578,-0.015,-0.22,-60.262,-5.469,-0.609,-0.376,-0.275,-61.656,-9.948,-3.083,-2.253,-2.058,-61.132,-16.201,-8.57,-4.618,-2.926,-86.087,-26.502,-10.073,-6.741,-2.479],[-92.881,-6.275,-0.585,0.231,0.225,-76.399,-6.944,-1.089,-0.163,-0.204,-75.722,-8.344,-0.854,-0.126,-0.627,-58.23,-13.322,-5.956,-2.123,-0.729,-70.071,-25.933,-11.622,-3.116,-3.004,-88.98,-40.466,-21.6,-7.861,-6.37]],
"kep": [[-1.673,-0.892,-2.157,0.659,1.951,-4.341,-0.626,2.833,-0.875,-4.35,-2.874,-4.163,0.944,-4.068,-3.233,-7.419,-9.275,-11.616,-6.188,-8.321,-24.472,-14.687,-25.112,-8.651,-17.634,-46.796,-21.63,-41.264,-30.175,-45.766],[-10.38,-1.407,0.419,1.078,0.221,-8.915,1.14,0.525,0.337,0.469,-9.317,-0.041,-0.324,-0.312,0.112,-21.613,-4.791,-4.065,-1.708,-3.153,-51.095,-9.734,-6.204,-9.347,-6.105,-56.141,-24.98,-17.536,-10.788,-15.997],[-28.574,0.972,0.609,0.44,-0.214,-31.118,1.069,0.746,0.775,0.738,-33.094,-0.163,0.321,0.564,0.027,-46.843,-4.458,-1.395,-2.323,-1.139,-76.836,-16.42,-5.909,-3.84,-2.365,-57.484,-40.188,-15.049,-8.602,-8.098],[-51.437,-2.67,0.546,0.452,1.158,-54.6,0.598,1.797,0.813,1.083,-60.401,-1.571,-0.113,-0.393,0.471,-68.534,-7.054,-2.501,-0.35,-0.682,-78.708,-20.738,-6.034,-3.282,-1.971,-60.661,-51.58,-17.142,-10.581,-5.606],[-74.422,-3.2,2.248,2.719,1.38,-75.441,-5.61,1.092,2.014,1.169,-73.281,-3.965,0.644,0.088,1.306,-79.32,-10.461,-2.082,-1.526,-0.591,-79.195,-24.521,-8.88,-4.498,-2.923,-75.608,-60.489,-19.047,-11.27,-5.666],[-86.771,-6.21,1.604,1.565,2.491,-85.24,-6.893,0.693,0.979,1.318,-87.058,-5.627,0.474,1.523,0.626,-83.863,-16.418,-4.792,-0.63,0.292,-85.138,-35.114,-9.402,-2.976,-2.223,-78.113,-71.396,-28.437,-10.926,-8.191]],
"vp": [[155.924,96.546,116.685,22.806,-88.236,33.1,-8.744,-12.62,13.166,22.809,20.013,26.136,15.216,30.229,11.244,3.411,11.952,12.735,7.922,8.252,8.46,6.782,16.692,2.669,7.236,6.193,2.995,10.668,4.937,8.758],[677.303,219.412,85.253,37.595,57.385,128.295,-12.666,22.734,7.612,36.121,85.265,11.232,10.702,14.817,10.86,30.828,14.005,20.216,6.837,15.367,28.24,11.212,8.658,23.072,13.641,20.816,11.263,12.964,7.788,17.639],[2177.051,139.378,-67.768,25.819,274.184,504.628,62.505,16.122,7.362,16.789,241.672,39.114,18.747,17.056,11.882,65.822,14.938,9.007,16.078,6.376,51.899,23.498,14.388,10.445,6.108,23.319,22.194,12.454,9.28,11.068],[4267.246,608.711,81.485,174.049,-32.858,865.209,90.869,11.941,59.986,20.282,482.937,53.785,16.551,34.796,13.227,106.07,30.262,23.547,12.474,12.771,55.72,41.648,16.986,12.631,8.299,27.866,21.916,16.845,17.602,5.196],[6253.124,817.953,55.744,-290.188,-149.947,1278.137,219.904,24.902,-8.526,14.066,618.315,111.118,19.861,21.393,5.025,125.177,40.331,18.706,17.737,20.142,63.218,32.786,26.399,19.081,14.951,44.904,26.027,16.015,14.393,5.976],[7797.796,1256.205,238.332,-103.869,-137.396,1495.418,282.291,67.154,3.514,3.142,762.392,166.502,24.623,1.557,31.278,141.212,52.171,35.824,14.362,5.004,70.323,49.471,35.749,11.612,14.227,44.285,38.227,34.616,15.813,16.2]]
}