{
"KTrans": [[-2.435,4.357,2.885,6.575,2.267,10.252,9.883,6.556,6.1,4.068,23.959,19.092,12.853,12.85,11.8,150.143,96.622,84.275,68.603,59.131,304.986,216.14,183.912,153.164,148.446,377.352,526.838,438.549,379.607,345.36],[-27.339,0.239,-1.003,0.644,1.183,-22.368,9.804,4.553,3.079,5.121,-14.34,10.32,7.274,7.625,6.572,45.047,78.284,49.709,38.675,34.85,89.977,152.36,107.068,86.604,65.443,-56.055,384.43,244.748,205.029,156.582],[-48.215,-1.127,3.044,1.496,1.489,-46.004,4.363,5.941,3.923,3.355,-39.508,9.466,11.162,7.602,5.552,6.906,60.73,43.519,36.956,27.04,9.351,173.016,95.856,65.637,54.683,-5.839,194.264,234.595,168.869,132.177],[-61.726,-0.205,3.904,1.246,2.301,-60.634,-2.283,7.687,4.042,1.082,-54.476,8.727,7.397,5.643,5.882,-44.778,53.627,43.408,33.821,25.387,-42.09,123.646,97.049,64.067,53.048,-77.77,26.319,256.155,179.223,134.486],[-78.226,-3.575,1.871,-0.472,2.807,-71.894,-2.057,6.06,4.464,4.896,-69.094,-0.829,6.833,10.644,5.134,-60.736,51.743,42.435,29.818,24.739,-52.004,50.108,96.077,68.243,58.816,-55.4,11.058,187.947,180.706,129.131],[-81.652,-11.451,4.097,0.707,2.438,-82.885,-11.792,9.449,3.164,3.399,-84.609,-4.898,6.308,6.984,6.579,-76.635,28.645,44.252,32.867,25.657,-67.836,66.047,112.27,69.521,51.496,-98.811,-20.61,185.398,186.488,126.202]],
"ve": [[5.222,2.551,9.61,7.636,23.663,-682.228,9.09,7.732,-74.095,6.232,18.044,8.912,4.343,3.555,2.77,45.071,16.428,1.876,-7.394,-14.393,87.056,34,8.881,-6.105,-16.996,188.648,85.091,40.343,13.12,-4.042],[1.747,0.09,1.197,1.338,-0.084,10.927,2.616,2.245,1.887,0.692,15.134,5.885,4.161,1.384,1.988,57.5,24.097,14.541,8.992,5.454,101.203,48.645,30.414,20.407,12.597,201.722,108.373,62.336,42.903,29.505],[4.231,0.473,0.813,0.175,-0.284,10.427,3.812,1.717,1.152,1.215,13.285,6.028,2.866,2.087,0.734,51.629,23.792,15.974,11.026,8.343,101.33,50.957,31.47,22.721,16.749,195.131,106.444,64.822,46.868,35.508],[11.337,1.124,0.108,-0.037,0.396,7.331,3.997,2.577,0.537,0.533,18.015,5.496,3.656,2.664,1.579,61.574,25.118,16.161,12.129,9.482,142.487,53.094,32.508,23.897,18.323,199.973,101.935,65.631,49.361,38.349],[31.306,2.985,0.761,0.341,-0.032,10.869,3.369,1.765,0.965,1.107,16.49,6.471,3.312,1.995,2.155,53.739,27.028,17.365,11.881,9.567,99.588,48.825,33.321,24.176,19.355,203.221,101.878,65.155,49.509,39.027],[0.411,0.973,1.002,0.456,0.32,0.393,5.2,2.131,0.79,0.873,14.364,5.996,3.401,2.34,1.802,52.861,26.709,17.119,11.975,9.433,101.249,51.474,34.057,24.694,19.395,198.915,95.602,65.834,50.23,39.072]],
"kep": [[-2.146,7.98,1.869,12.087,3.712,3.742,8.742,6.001,9.194,7.608,8.27,15.068,15.231,18.672,23.799,66.065,71.915,84.489,88.435,92.853,104.013,136.773,163.61,173.77,203.489,68.352,241.075,289.067,325.228,366.519],[-30.099,0.714,-1.743,-0.205,1.831,-29.683,7.797,2.562,1.528,4.834,-24.628,4.429,3.425,6.546,5.009,-7.522,43.865,30.879,27.595,28.289,-4.546,69.216,58.973,55.103,47.261,-78.802,139.186,110.625,112.719,98.016],[-52.711,-1.128,2.47,1.457,1.959,-51.863,0.838,4.391,2.891,2.365,-48.665,3.552,8.246,5.542,4.931,-30.713,29.807,23.972,23.53,17.421,-45.71,80.136,48.569,34.965,32.552,-65.761,44.227,101.033,82.175,70.974],[-65.412,-0.944,3.99,1.315,2.01,-65.562,-6.003,5.343,3.584,0.642,-61.614,2.965,3.697,3.007,4.347,-65.432,22.734,23.511,19.449,14.584,-70.886,47.184,47.833,32.312,29.305,-89.228,-33.598,112.025,85.7,68.865],[-81.174,-6.304,1.071,-0.683,2.933,-76.679,-5.248,4.333,3.549,3.841,-74.49,-6.721,3.519,8.585,2.954,-74.924,19.288,21.363,16.134,13.842,-74.605,0.059,46.604,35.31,32.927,-82.381,-42.401,71.808,86.051,64.122],[-83.924,-12.515,3.068,0.279,2.198,-85.422,-15.042,7.167,2.435,2.551,-87.454,-9.603,2.883,4.579,4.73,-85.588,1.459,23.2,18.526,14.853,-83.538,8.871,57.281,35.595,26.705,-96.861,-58.122,69.373,88.215,61.657]],
"vp": [[449.632,-2.298,95.898,122.517,-156.527,47.02,2.237,-14.792,70.499,-16.574,63.234,34.195,10.547,20.053,8.654,24.83,5.468,26.053,8.542,9.633,8.729,-3.753,7.067,5.897,16.947,3.336,5.02,12.13,0.912,5.334],[3925.258,409.889,370.735,200.821,-40.763,725.008,118.338,11.574,67.386,-28.888,401.414,59.027,27.744,21.615,43.289,66.538,41.913,17.647,11.637,20.518,15.818,9.289,23.957,29.868,4.48,21.257,14.466,7.156,25.465,11.798],[6518.434,1809.936,841.307,353.573,-55.225,1251.623,424.679,95.293,-35.017,53.911,668.675,211.327,47.063,62.579,48.99,118.852,41.9,32.241,43.528,11.427,59.106,48.766,25.781,-0.924,-4.4,18.598,29.276,8.69,11.169,17.094],[7962.357,4279.332,419.075,106.731,21.566,1574.268,872.462,214.162,-42.598,33.099,785.581,434.777,109.166,19.822,22.279,167.638,104.212,36.851,45.532,27.755,80.435,59.003,20.659,3.491,16.321,53.273,27.529,19.222,30.258,25.485],[9039.902,8085.476,2206.321,573.003,463.788,1779.741,1486.964,577.449,172.318,127.984,898.098,684.672,226.934,51.5,56.175,175.96,167.367,74.328,29.618,21.468,70.296,70.871,40.085,14.401,28.328,50.144,35.805,11.94,33.416,25.002],[9176.447,9274.679,3896.975,1481.033,72.362,1865.565,2051.076,950.408,164.235,62.718,935.585,1049.762,342.375,112.302,94.652,193.39,193.595,87.82,34.982,38.514,89.065,101.188,71.299,33.038,10.437,59.389,43.579,25.881,36.844,16.28]]
}