{
"KTrans": [[-4.965,2.011,5.968,7.222,4.571,3.143,6.505,8.849,5.554,4.699,3.674,8.425,8.166,5.335,6.909,15.482,9.028,8.95,9.523,12.144,16.107,23.424,18.597,18.682,16.542,34.439,27.172,27.7,25.087,21.966],[-35.135,-5.218,1.63,1.133,3.484,-29.457,-6.443,1.853,3.034,1.72,-25.735,-3.074,0.696,4.427,4.245,-29.919,-2.798,2.466,4.065,6.696,-34.685,-1.225,4.901,6.996,8.124,-29.109,4.114,9.203,9.862,12.622],[-60.737,-15.152,-7.478,-2.106,-0.722,-56.526,-17.299,-6.659,-1.22,0.306,-64.503,-11.29,-9.916,-2.737,0.941,-55.559,-15.93,-5.054,-0.255,1.589,-57.02,-19.279,-6.335,-0.127,3.104,-58.866,-18.717,-1.785,1.783,5.724],[-81.908,-29.748,-13.95,-8.371,-4.314,-81.523,-29.615,-13.079,-7.254,-3.213,-79.328,-27.908,-14.324,-7.4,-3.98,-78.562,-33.268,-17.204,-6.677,-3.172,-76.51,-33.41,-13.573,-6.712,-1.588,-75.226,-36.424,-16.867,-3.343,-1.018],[-87.47,-40.939,-24.3,-14.525,-7.689,-87.578,-40.837,-25.348,-14.967,-9.783,-87.663,-42.135,-23.424,-16.404,-7.992,-87.749,-42.55,-26.339,-13.973,-9.328,-82.56,-44.317,-25.826,-14.139,-7.642,-85.87,-51.54,-27.682,-13.858,-8.195],[-94.183,-52.647,-34.437,-22.493,-13.545,-91.524,-51.627,-35.208,-21.503,-15.143,-92.104,-55.249,-35.284,-21.595,-13.535,-92.595,-55.88,-35.397,-19.992,-14.223,-89.572,-63.331,-38.246,-23.322,-14.409,-87.533,-60.806,-40.464,-24.223,-15.046]],
"ve": [[0.148,8.619,7.732,12.161,26.756,0.822,4.738,10.56,15.72,27.41,3.727,5.297,8.258,18.521,28.782,11.38,9.052,9.793,15.869,20.075,16.754,9.276,7.648,5.588,11.381,26.358,15.287,12.608,8.748,11.557],[-14.38,-1.02,0.389,1.534,1.846,-13.428,-2.242,0.7,1.284,2.415,-10.49,-0.669,0.437,1.546,2.237,-7.933,0.78,2.851,2.664,2.65,-3.756,4.612,4.925,4.402,3.977,10.563,10.891,8.895,7.958,6.375],[-31.037,-4.636,-2.503,-0.55,0.028,-28.426,-5.809,-1.519,-0.013,0.355,-35.302,-3.65,-2.534,-0.991,0.504,-21.018,-3.941,-0.164,0.384,1.219,-16.638,-1.687,1.177,2.499,2.998,-5.088,3.041,6.563,4.61,5.38],[-47.299,-11.251,-5.142,-2.576,-1.914,-50.344,-12.966,-5.306,-2.652,-0.852,-43.429,-10.215,-4.364,-2.312,-0.892,-32.524,-11.555,-5.134,-1.612,-0.466,-32.485,-7.452,-0.82,-0.006,1.089,-18.936,-4.683,0.714,3.698,3.317],[-55.76,-18.187,-8.686,-4.906,-2.557,-52.88,-17.951,-9.283,-5.24,-3.335,-40.938,-18.701,-8.448,-5.929,-2.467,-50.312,-15.176,-8.375,-3.619,-2.731,-37.277,-13.59,-7.158,-1.961,-0.683,-29.662,-12.836,-2.903,0.037,0.894],[-69.462,-24.917,-13.846,-8.019,-4.944,-78.14,-24.678,-13.619,-7.71,-4.951,-64.417,-26.073,-13.727,-7.882,-4.724,-56.739,-26.02,-12.229,-6.103,-4.011,-47.187,-25.897,-11.849,-6.114,-3.282,-31.544,-18.676,-8.887,-3.684,-1.515]],
"kep": [[-16.093,-15.952,-11.131,-11.333,-19.332,-11.306,-9.733,-9.55,-15.578,-21.73,-13.107,-8.313,-9.318,-16.967,-13.964,-10.247,-10.947,-11.162,-11.816,-7.34,-14,-0.073,-1.465,1.296,-1.761,-7.184,-2.867,1.22,4.024,1.163],[-37.48,-16.744,-11.589,-12.932,-11.102,-31.812,-16.902,-11.679,-11.09,-13.166,-31.395,-15.255,-12.515,-10.075,-10.801,-36.807,-16.378,-12.998,-11.421,-9.075,-42.729,-17.807,-12.749,-10.412,-9.093,-45.661,-18.272,-12.453,-11.085,-7.418],[-56.477,-23.064,-17.294,-14.05,-13.314,-54.199,-24.228,-17.477,-13.744,-12.7,-58.935,-20.633,-19.402,-14.243,-12.292,-55.603,-24.392,-17.136,-13.303,-12.367,-58.395,-28.821,-19.337,-14.935,-12.583,-63.783,-31.643,-19.647,-15.04,-12.371],[-75.39,-32.09,-21.091,-17.99,-14.853,-75.855,-31.5,-20.228,-16.903,-14.757,-71.658,-31.454,-22.038,-17.357,-15.408,-74.239,-35.255,-24.128,-17.326,-15.071,-73.035,-38.343,-24.222,-18.63,-15.01,-74.941,-42.414,-28.169,-18.682,-16.393],[-81.188,-39.089,-28.278,-21.73,-17.335,-81.543,-39.969,-28.84,-21.805,-18.564,-82.253,-40.155,-27.506,-22.565,-17.725,-82.177,-42.908,-30.398,-22.217,-18.621,-78.563,-45.348,-30.977,-23.626,-18.849,-84.045,-53.186,-35.479,-24.996,-20.59],[-89.966,-47.606,-34.485,-26.728,-20.711,-87.387,-47.149,-35.24,-25.966,-22.104,-86.911,-49.592,-35.333,-26.029,-20.891,-88.269,-51.295,-36.548,-25.849,-22.076,-85.534,-58.06,-39.449,-28.896,-22.811,-85.555,-59.359,-43.385,-31.479,-24.738]],
"vp": [[425.643,-4.969,-137.064,-188.119,-92.582,35.735,-22.079,-73.674,-24.781,-8.311,-2.974,-19.651,-14.412,-8.505,-13.079,-6.649,-2.625,0.849,-1.727,-5.923,-0.884,-4.384,-1.995,-1.428,-1.645,-0.064,-0.214,-1.415,0.414,0.405],[1720.36,175.516,-173.766,44.255,-100.14,329.704,111.56,-55.912,-38.712,15.046,144.482,31.876,-1.735,-30.392,-30.018,30.428,7.014,-1.52,-2.04,-6.01,18.042,2.485,-1.847,-2.427,-2.522,8.126,1.593,-0.44,-1.216,-1.808],[3743.495,830.485,687.615,54.708,248.937,684.312,258.347,89.331,-2.464,-23.861,410.289,75.801,88.009,49.234,-13.052,61.856,25.739,9.946,3.909,1.994,31.663,16.086,7.523,0.731,-1.555,16.616,9.206,1.647,2.405,-0.936],[5877.231,2359.462,1240.501,855.203,769.233,1168.898,551.845,268.711,160.803,64.096,539.423,228.532,122.956,77.117,48.59,102.085,59.66,40.223,20.299,11.637,52.542,28.07,13.098,10.79,4.554,24.983,17.298,10.722,3.535,2.654],[6602.447,3848.532,2665.448,1657.784,1024.311,1271.271,794.946,597.663,397.83,287.074,668.733,402.944,260.268,239.109,107.966,132.549,78.875,60.409,36.881,33.992,58.482,40.895,32.04,18.323,12.057,32.063,26.61,16.634,10.726,8.539],[7919.635,5452.174,4409.471,3244.834,2173.518,1485.554,1068.668,896.101,607.717,467.404,733.973,573.714,448.357,326.987,212.91,155.765,126.392,87.653,57.366,47.247,66.014,69.337,50.857,35.24,26.992,32.842,33.525,26.513,19.562,14.682]]
}