{
"KTrans": [[-53.366,-67.937,-65.107,-70.75,-70.058,-40.97,-59.087,-50.268,-53.648,-55.882,-23.188,-50.07,-56.303,-41.701,-39.451,13.035,12.342,3.279,6.593,5.729,-45.635,15.593,45.229,27.186,55.354,121.983,160.912,95.7,158.687,161.642],[-52.601,-47.264,-42.475,-54.681,-56.256,-50.734,-35.099,-38.421,-43.073,-38.059,-47.458,-26.949,-21.064,-47.966,-40.618,-15.934,6.766,5.181,-12.161,-19.808,16.013,11.335,-23.606,14.243,9.864,-1.849,-19.476,45.396,43.643,81.572],[-59.88,-44.089,-42.921,-36.575,-48.061,-66.464,-35.265,-43.128,-38.554,-42.255,-56.975,-41.476,-22.517,-30.186,-19.938,-36.706,-17.997,-12.204,-12.869,-15.935,-21.697,21.727,10.452,-12.762,-24.674,-24.923,10.278,-44.47,-8.2,-57.827],[-74.305,-39.779,-47.387,-54.074,-41.687,-73.13,-44.562,-42.011,-40.669,-38.363,-68.41,-44.446,-35.068,-41.719,-40.089,-52.399,-28.596,-27.97,-26.437,-10.694,-41.759,-6.22,10.601,-6.17,1.968,-36.957,-11.791,-5.09,-0.165,21.125],[-81.802,-45.488,-40.387,-52.385,-38.917,-79.144,-45.677,-44.32,-29.856,-44.463,-78.19,-43.655,-34.34,-34.666,-34.185,-66.254,-21.802,-34.09,-34.42,-24.709,-68.101,-15.525,-12.932,-5.965,-2.773,-65.75,-26.2,28.868,23.856,-5.134],[-82.099,-49.32,-46.24,-42.597,-35.807,-83.422,-52.655,-43.36,-26.191,-34.119,-79.994,-53.644,-48.335,-40.496,-32.452,-81.799,-35.785,-33.069,-32.823,-24.411,-77.536,-32.17,-3.687,-12.051,-12.173,-66.525,-41.576,-20.064,22.076,12.856]],
"ve": [[66.456,-129.682,9.357,78.383,-5.198,-33.463,-40.603,-89.108,-37.348,-147.188,-44.004,-67.579,1.642,-30.514,-69.511,-568.553,-3.134,-1144.979,1173.573,-102.984,38.168,3.145,-70.99,172.334,-132.731,84.622,95.906,16.844,0.704,-38.641],[-90.067,-72.831,-41.499,-46.701,-24.265,-79.037,-105.201,-33.881,-34.732,-18.35,-279.055,-31.797,-21.559,-28.899,-17.898,-12.808,-19.325,-2.983,-41.36,-20.033,-25.73,-6.566,-5.613,10.403,0.081,141.614,62.89,30.941,78.325,74.835],[-47.469,-94.365,-71.733,-45.142,-49.024,-90.802,-63.84,-74.184,-49.224,-40.374,-52.973,-92.905,-32.615,-40.989,-23.051,3.664,-50.033,-31.839,-14.392,-7.687,49.35,30.268,48.393,-4.876,-9.334,243.359,64.088,19.002,58.98,-4.118],[-43.216,-74.653,-102.015,-95.671,-59.636,-38.706,-109.325,-93.853,-69.755,-54.161,-15.32,-107.619,-76.787,-77.595,-58.688,46.413,-91.468,-80.108,-48.565,-21.737,67.868,31.902,31.273,-6.738,-15.26,92.229,100.868,28.495,43.065,24.212],[-40.914,-69.799,-91.801,-111.722,-68.955,-20.025,-89.993,-121.611,-58.261,-79.445,-23.478,-87.369,-82.017,-78.576,-61.565,72.863,-81.52,-106.179,-83.304,-40.688,110.407,47.046,-40.905,-18.683,-10.836,152.249,-21.585,139.479,8.173,35.858],[-23.879,-59.392,-137.349,-100.644,-70.342,-7.622,-81.436,-128.234,-58.281,-70.979,-6.298,-65.633,-137.724,-102.754,-64.662,19.56,-36.001,-79.536,-95.786,-51.771,89.823,20.609,-29.719,-44.348,-35.242,93.367,20.864,22.476,-15.675,51.236]],
"kep": [[-132.041,6.106,0.595,-1.662,-1.557,-121.162,16.152,1.658,-22.214,-9.53,-112.504,-20.775,9.316,-0.122,-10.9,-94.562,-71.52,-28.247,-25.343,-25.471,-2.454,-95.596,-78.124,-40.97,-50.09,84.497,-199.282,-196.975,-183.693,-203.262],[-34.044,-12.085,-120.105,4.245,-1.261,-40.835,-18.279,-111.861,10.453,-3.035,-42.43,-24.564,-112.167,15.955,0.704,-46.172,-55.776,-60.223,-46.766,-13.965,-25.096,-7.041,-1.579,-110.043,-41.143,-46.566,8.398,74.436,-186.027,-136.219],[-57.706,-8.845,-3.943,-3.315,-107.535,-56.492,-11.903,-0.178,0.604,-118.532,-57.353,-6.907,-4.877,-12.278,-117.856,-58.301,-20.442,-7.221,-30.511,-108.499,-59.654,-25.08,-34.365,-7.427,-33.583,-67.725,-29.462,-19.955,-21.537,38.049],[-76.85,-18.209,-3.28,-1.113,-6.638,-75.658,-12.545,-2.115,-2.611,-4.663,-72.75,-16.22,-2.774,4.34,0.144,-75.738,-20.164,-4.62,-8.42,-8.015,-70.483,-43.827,-36.51,-29.752,4.191,-68.502,-53.566,-31.98,-27.235,10.806],[-83.234,-27.852,-11.747,-3.866,0.546,-84.919,-24.225,-2.724,-5.574,-0.664,-83.119,-22.09,-6.941,2.266,1.93,-83.111,-27.934,-5.043,-2.951,-1.91,-82.063,-48.656,-27.162,-20.603,-14.887,-80.209,-44.86,-44.625,-0.406,-19.575],[-85.346,-36.08,-9.641,-6.369,-5.153,-88.495,-37.486,-9.858,-5.839,-0.121,-88.527,-43.107,-11.922,-4.71,-4.029,-84.542,-47.537,-21.079,-2.677,-3.859,-83.484,-52.941,-25.327,-15.342,-3.963,-78.655,-55.021,-41.159,-9.511,-30.284]],
"vp": [[-192.41,96.018,-30.767,-19.785,-119.587,-0.452,29.882,-1.006,-44.561,-26.556,-10.354,-3.476,-10.837,2.963,-12.161,-11.007,-12.69,-0.568,-8.919,-1.862,-34.773,23.38,2.626,22.399,-0.623,-47.857,-16.627,6.216,1.027,-1.674],[1046.036,101.082,124.081,-27.466,-14.72,286.39,85.391,12.092,27.792,-12.473,145.939,45.682,-10.996,-12.716,-7.538,-21.242,0.413,-29.383,-13.54,-8.51,-47.864,-40.283,-8.089,-4.553,-3.267,-27.923,-20.517,-38.683,-19.301,-38.254],[2879.336,928.532,467.736,263.349,-95.901,493.438,277.371,-5.377,40.248,-29.122,285.364,60.93,76.006,22.636,10.431,10.19,-29.445,-26.97,-20.016,-22.636,-16.334,-44.498,-30.037,-35.25,-8.748,-29.65,-34.052,-35.44,-43.287,-10.022],[4432.416,1852.829,619.466,17.868,214.828,922.498,292.725,108.703,66.329,40.568,414.622,121.361,89.782,1.108,13.51,49.903,-10.169,-33.734,-3.651,-19.525,-4.955,9.439,-11.48,-31.057,-37.746,-38.596,-50.711,-35.22,-63.124,-36.227],[5466.5,3107.698,1424.999,127.943,466.591,1109.858,633.912,184.954,180.346,64.825,466.869,281.414,141.593,51.619,42.722,49.975,38.102,12.773,12.278,-4.244,30.281,8.779,-36.368,-5.84,3.687,-22.618,-41.76,-37.836,-40.202,-37.608],[5810.797,5440.987,1581.133,1128.004,944.216,1301.945,957.315,223.142,303.216,155.444,575.926,509.308,159.424,111.388,114.215,97.714,49.89,52.813,-12.338,5.379,39.82,-3.349,-3.386,-14.113,-9.002,-12.318,-25.569,-34.874,-44.771,-38.101]]
}