{
"KTrans": [[-0.587,2.842,2.236,2.143,1.618,-2.142,12.704,12.475,10.65,10.931,-10.607,24.397,23.494,22.626,21.957,23.126,53.904,82.21,88.84,92.024,181.41,-12.456,80.092,110.859,133.29,28.367,-37.677,-12.206,-10.621,37.272],[-0.331,1.494,-0.03,0.975,0.696,20.423,7.964,-0.164,4.802,4.664,29.013,15.727,3.235,9.874,8.788,-38.41,-129.454,7.057,26.795,34.856,-20.724,-115.835,17.05,6.026,43.198,87.98,155.749,70.667,-66.009,-12.26],[6.24,0.664,1.534,0.904,0.142,8.776,7.528,6.35,4.184,1.235,25.242,17.083,11.193,8.676,0.03,-24.157,40.777,38.662,-14.33,2.422,-15.226,8.686,21.449,31.742,18.651,-62.482,32.995,-72.863,7.091,20.628],[5.393,2.083,2.415,1.466,0.466,22.938,4.857,6.861,4.804,3.359,4.615,11.784,8.123,7.883,6.995,-31.457,35.857,42.531,35.925,28.624,-14.333,-54.176,44.762,-23.91,9.367,-98.872,123.324,67.681,-44.72,29.636],[11.324,1.634,1.391,0.9,-0.083,-27.967,5.45,4.971,3.928,3.155,-46.974,7.388,10.58,6.222,6.936,-44.582,52.348,33.936,33.685,31.145,-36.317,-22.903,77.152,73.425,24.814,-57.441,28.013,60.577,35.341,79.563],[-57.003,6.439,2.749,2.045,0.914,-50.706,4.194,2.695,3.432,3.102,-47.953,17.886,10.362,5.463,5.637,-44.546,-8.086,45.113,34.322,27.263,-58.595,-16.752,24.566,80.755,20.197,-53.643,-31.255,-82.58,-19.301,-20.308]],
"ve": [[1.031,1.067,0.898,0.976,0.827,4.975,7.91,9.581,8.96,12.154,10.161,12.105,-154.474,71.277,273.634,47.808,-13.324,-31.625,613.311,-238.626,95.725,30.319,-10.937,-37.2,-53.236,202.885,82.982,33.99,2.413,-16.852],[0.764,0.58,0.347,0.327,0.197,5.667,2.734,1.708,2.176,1.971,10.121,5.199,3.223,16.024,4.514,50.497,25.918,16.32,6.271,26.615,100.652,52.782,32.753,18.473,-37.039,193.514,102.521,65.61,44.919,26.896],[0.998,0.488,0.487,0.328,0.204,4.762,2.697,2.015,1.43,0.997,9.649,5.475,3.664,2.72,1.971,49.13,22.369,19.54,14.162,9.891,99.068,48.793,33.44,26.116,19.229,205.665,99.026,67.073,51.684,40.885],[0.538,0.563,0.549,0.414,0.228,4.899,2.441,1.997,1.529,1.172,9.032,4.875,3.39,2.768,2.262,48.976,25.432,15.411,11.103,12.907,97.662,49.534,33.83,26.182,21.181,201.837,99.768,68.178,51.284,39.71],[-4.07,0.466,0.425,0.326,0.154,4.882,2.269,1.754,1.404,1.148,11.604,4.449,3.539,2.555,2.3,49.685,24.958,19.416,11.986,9.432,99.012,49.663,33.845,26.456,21.136,202.271,99.658,59.175,51.051,44.154],[0.085,0.745,0.427,0.435,0.296,4.965,2.035,1.557,1.336,1.123,8.624,4.87,3.53,2.488,2.139,51.347,26.624,14.816,12.402,9.808,96.509,50.148,32.954,27.215,20.22,220.264,95.949,67.503,49.905,40.518]],
"kep": [[-21.881,-3.351,-1.784,-1.604,-1.204,41.25,-20.996,-18.192,-14.542,-16.509,-25.879,-43.865,-35.265,-34.305,-35.307,75.915,-237.466,-181.462,-193.798,-218.996,159.801,-390.904,-364.18,-367.734,-373.049,48.656,-38.347,-529.936,-672.089,-718.187],[-1.079,3.651,50.42,-1.793,-0.213,15.669,13.659,19.797,-14.907,-8.559,16.301,22.665,105.807,-35.478,-17.465,-57.014,-186.903,93.259,-151.048,-99.638,-52.535,-118.321,59.122,-276.785,-186.469,-26.143,40.438,85.76,-88.239,-349.502],[2.452,0.839,3.168,4.077,74.316,0.112,6.604,10.043,13.204,121.309,8.04,14.326,15.554,25.294,19.664,-48.085,7.622,25.454,-64.663,51.796,-50.615,-25.488,-6.248,35.653,88.376,-67.831,-23.083,-73.276,-10.233,57.889],[-2.721,1.367,3.368,3.117,2.046,6.039,2.05,7.392,7.444,8.018,-12.284,6.351,6.81,10.369,14.869,-53.43,-1.711,20.779,27.131,36.296,-55.309,-63.992,3.607,-60.345,-27.895,-84.974,-0.066,-7.525,-62.619,8.693],[-4.138,-0.733,1.077,1.616,0.675,-39.803,1.579,3.938,4.355,4.728,-60.782,0.497,7.97,5.921,9.52,-63.545,9.779,10.048,20.754,26.52,-68.966,-47.078,23.683,34.596,-9.149,-78.254,-34.511,-4.893,-14.778,29.195],[-65.671,1.434,2.19,2.254,1.601,-63.269,-1.639,0.688,3.006,3.826,-59.526,6.851,5.861,3.911,5.79,-66.34,-34.455,19.365,19.367,19.363,-74.892,-46.07,-14.239,34.899,-9.139,-77.207,-58.426,-72.369,-43.433,-45.259]],
"vp": [[-24.428,-24.82,-43.065,-51.275,-48.86,-16.315,-11.647,0.239,-23.756,-20.57,-7.855,-18.192,-11.727,-6.187,-13.742,-45.679,-1.834,-15.259,-4.86,7.277,-47.179,0.478,-0.899,-10.075,-16.029,-30.137,5.373,-3.674,0.034,3.053],[178.146,73.869,-2.418,-47.371,-85.535,56.758,6.345,-9.78,-18.136,-19.169,35.776,-5.772,-33.05,8.747,-22.907,-49.777,-13.804,-31.81,-21.235,-11.714,-28.777,2.342,-33.191,0.035,-15.182,-46.207,-39.095,-40.862,17.456,8.496],[514.19,277.762,118.258,76.874,-42.975,7.019,76.634,28.479,-2.187,-44.129,32.598,4.38,22.974,-16.426,-17.058,5.617,-19.758,-31.5,-4.923,-18.014,-25.33,-38.378,-51.248,-38.317,-32.672,-22.448,-34.304,-42.535,-48.22,-32.539],[1482.575,553.735,564.156,317.616,135.819,351.444,97.709,81.367,89.412,16.973,55.186,51.759,6.906,5.478,31.908,-26.809,0.897,-0.888,0.324,-24.871,-7.124,-35.154,-16.244,-11.461,-15.351,-13.024,-37.726,-19.883,-22.838,-53.868],[3377.868,695.609,639.795,538.771,287.956,452.919,169.546,172.217,100.066,56.684,355.03,93.084,76.356,33.376,46.059,37.822,-12.171,10.442,8.792,13.741,3.105,-18.054,-26.917,8.851,18.372,-3.747,-11.378,-44.788,-36.946,-34.058],[4229.205,737.947,1396.126,874.823,530.135,919.271,221.255,189.74,140.815,164.171,318.059,95.917,88.854,52.732,21.163,60.428,20.765,-14.234,2.478,2.121,9.879,-38.48,-28.657,12.425,-3.52,-11.506,-35.984,-25.73,-44.191,-44.701]]
}