{
"KTrans": [[-8.715,18.591,28.521,25.344,18.874,11.02,20.725,17.627,24.386,28.14,13.221,21.643,34.676,22.478,23.286,44.919,34.137,36.502,36.292,35.717,62.318,60.667,56.478,58.602,50.573,119.782,99.295,95.309,88.793,98.165],[-46.366,-8.566,3.043,10.133,11.24,-48.08,-4.964,1.259,7.833,11.85,-49.298,-10.344,5.327,10.496,9.122,-44.641,0.494,9.615,13.98,20.347,-26.547,5.689,18.662,18.98,24.204,-3.212,27.903,29.376,36.525,37.613],[-72.44,-34.501,-15.447,-5.011,0.38,-70.879,-30.88,-14.42,-6.498,1.433,-74.811,-30.618,-19.168,-5.231,2.742,-68.9,-27.286,-12.316,-1.516,4.7,-59.893,-27.394,-9.509,2.878,6.313,-47.233,-22.029,-4.006,7.667,19.111],[-85.065,-46.99,-32.572,-18.999,-10.31,-84.916,-51.283,-32.098,-20.745,-10.742,-83.269,-51.89,-30.923,-18.077,-10.862,-81.554,-53.505,-30.435,-17.067,-5.786,-72.61,-45.211,-28.59,-12.363,-3.993,-66.573,-47.979,-23.98,-6.867,2.794],[-88.961,-66.836,-44.838,-29.416,-18.335,-88.933,-62.69,-50.345,-30.399,-19.262,-87.845,-63.21,-47.531,-33.7,-17.81,-81.95,-63.959,-45.479,-30.044,-19.904,-80.351,-58.617,-40.925,-25.766,-15.681,-75.471,-59.328,-44.124,-22.271,-12.506],[-92.88,-70.942,-58.157,-42.756,-31.091,-91.025,-75.916,-59.264,-39.005,-32.758,-90.663,-73.231,-52.893,-40.787,-29.792,-90.712,-71.835,-53.987,-40.382,-26.985,-84.792,-70.836,-55.126,-39.519,-27.813,-82.299,-67.039,-53.112,-35.428,-22.007]],
"ve": [[-23.367,20.038,-13.081,64.699,-84.572,-28.588,10.851,-59.186,-121.826,-35.709,-0.882,-23.665,-15.295,-39.356,15.764,-5.716,162.432,-52.113,120.98,-39.382,53.501,44.581,54.058,-6.293,79.623,-7.835,57.649,33.321,463.615,-5.511],[13.424,5.615,3.636,7.761,11.693,-17.975,-2.668,3.22,9.108,10.283,-7.765,-0.697,5.778,7.273,14.22,27.182,1.217,8.223,10.532,13.955,31.883,20.369,15.911,14.369,19.037,54.752,39.592,29.772,29.059,30.386],[-35.053,-10.949,-6.35,-1.388,1.676,-51.499,-10.079,-5.64,-1.388,1.339,-28.735,-8.219,-5.775,0.169,0.858,-16.667,-2.608,0.687,3.031,4.979,30.481,9.536,7.238,7.941,8.359,45.311,28.407,15.713,15.769,16.235],[-40.961,-15.483,-13.07,-6.597,-3.66,-12.758,-17.294,-12.057,-6.723,-4.146,-35.139,-16.496,-11.82,-5.414,-4.066,3.567,-11.464,-5.62,-2.545,0.84,2.19,3.617,-0.649,2.431,3.068,92.221,24.935,11.131,12.549,10.771],[-40.065,-26.015,-16.299,-10.019,-6.903,-37.314,-26.809,-16.264,-10.177,-6.664,-34.931,-21.394,-15.227,-10.271,-6.545,-23.529,-12.672,-10.287,-7.54,-2.606,14.719,-2.334,-3.908,0.058,0.656,38.605,17.779,4.406,8.811,6.948],[-177.125,-26.956,-22.46,-15.467,-10.952,-59.818,-38.171,-21.41,-13.939,-11.35,-30.582,-28.795,-20.233,-13.726,-9.511,-70.145,-20.706,-14.406,-11.483,-6.748,-0.587,-12.836,-11.214,-7.448,-4.315,79.053,7.994,-0.578,2.275,4.964]],
"kep": [[-53.406,-37.044,-31.838,-43.544,-60.993,-44.696,-39.942,-49.506,-42.998,-43.741,-39.112,-38.728,-24.734,-50.743,-58.383,-31.99,-32.771,-31.044,-35.258,-45.463,-34.268,-28.414,-23.353,-21.533,-32.169,-34.608,-18.399,-14.52,-16.767,0.987],[-66.519,-42.799,-38.306,-35.664,-36.391,-67.507,-39.571,-38.253,-37.273,-36.017,-68.884,-43.587,-37.695,-35.416,-39.677,-68.792,-42.987,-36.672,-34.74,-33.538,-66.215,-45.653,-36.523,-34.753,-34.207,-69.738,-45.138,-38.434,-33.988,-32.1],[-83.418,-55.374,-44.021,-40.198,-38.653,-80.683,-53.519,-43.818,-41.061,-37.646,-83.428,-53.391,-46.983,-41.221,-36.544,-81.674,-54.686,-46.062,-40.806,-38.091,-80.836,-59.865,-48.019,-41.01,-39.105,-82.281,-63.374,-49.54,-43.008,-36.769],[-90.445,-61.683,-52.174,-46.329,-42.221,-89.108,-64.179,-52.609,-47.587,-42.375,-89.625,-65.135,-51.735,-46.519,-42.436,-89.139,-68.537,-54.598,-47.46,-42.15,-86.429,-67.589,-56.251,-47.345,-42.45,-88.088,-73.501,-58.501,-49.474,-43.001],[-92.266,-73.876,-59.717,-51.679,-45.802,-91.827,-70.844,-63.485,-52.205,-46.575,-91.791,-71.341,-61.98,-54.487,-45.612,-89.712,-73.919,-62.603,-53.305,-49.244,-89.772,-75.018,-62.711,-54.33,-48.325,-91.759,-78.922,-67.619,-56.288,-49.776],[-94.038,-76.431,-67.129,-58.443,-52.229,-93.199,-79.913,-68.152,-56.175,-53.08,-93.523,-76.966,-63.977,-57.873,-52.09,-93.857,-79.123,-67.07,-58.446,-51.593,-91.827,-79.918,-69.144,-59.878,-53.491,-93.491,-82.374,-71.708,-61.387,-54.41]],
"vp": [[702.671,22.571,-809.695,-778.147,-702.829,-51.564,-137.441,-100.927,-74.428,-242.93,-8.783,-68.432,-106.888,-56.071,-110.285,-16.85,-6.937,-2.148,-4.218,-2.461,-10.522,-12.218,-3.739,-4.727,-2.061,-4.575,-4.06,-5.078,-0.467,-7.885],[3197.926,651.994,-684.21,-910.966,-818.3,475.742,150.438,27.83,-81.64,-165.239,287.014,119.822,-51.013,-125.041,-37.797,49.918,6.955,-5.899,-11.454,-26.831,12.7,2.314,-6.992,0.97,-13.484,-3.734,-6.167,0.664,-7.416,-6.082],[4465.463,3036.388,1873.557,738.946,-217.254,809.224,438.913,320.503,179.339,-36.008,547.123,239.245,294.113,31.965,-41.357,87.048,60.348,30.53,9.904,-4.217,36.857,24.639,17.794,2.245,7.269,12.421,12.211,15.514,12.754,-4.801],[6431.914,4553.043,3579.347,2519.441,1653.459,1281.915,970.582,841.529,614.385,374.742,556.473,528.641,409.168,203.295,229.665,126.691,122.46,78.689,49.87,20.057,55.209,44.889,39.705,28.398,19.333,18.474,32.808,25.039,5.379,7.946],[8127.086,8028.758,5498.019,3921.227,3354.126,1452.096,1431.891,1435.249,868.841,577.773,642.075,696.624,714.387,527.606,351.642,113.929,160.403,126.539,111.446,59.324,57.091,59.315,58.013,34.368,31.549,28.454,40.853,42.63,18.381,20.353],[8121.885,8501.122,9172.933,7289.623,6053.425,1442.276,1945.77,1841.877,1179.501,1276.019,806.439,927.383,815.25,686.213,560.365,152.448,173.063,165.871,147.393,100.71,66.849,95.567,90.857,73.255,58.382,33.593,47.118,50.608,35.058,19.746]]
}