{
"KTrans": [[3.305,3.888,6.496,2.205,6.207,8.019,13.346,8.1,10.011,9.919,9.775,17.45,18.681,16.036,23.693,-18.802,56.479,74.584,84.257,87.322,-30.03,28.794,84.616,118.336,121.781,200.365,63.915,-51.653,26.919,89.816],[-31.112,-6.351,0.672,2.485,-0.501,-24.826,-2.747,0.694,6.009,4.125,-17.815,0.451,0.331,5.364,7.915,14.722,18.546,-1.559,23.567,33.468,0.443,-29.124,-13.902,12.446,33.286,149.212,21.454,-12.264,20.401,-5.441],[-33.92,-1.994,-3,-1.167,0.736,-39.457,0.424,0.043,-2.987,1.231,-24.641,-0.211,2.931,2.74,1.191,-39.528,-5.657,10.587,25.319,-4.717,-33.291,47.156,-64.958,-16.015,-20.8,65.474,98.915,52.95,64.612,18.483],[-49.932,-5.819,-1.742,-0.264,-0.229,-54.637,-3.621,2.6,-0.37,1.526,-47.438,-3.124,7.766,5.289,3.097,-55.617,-1.996,33.321,14.549,19.019,18.951,-13.205,-17.921,32.515,-19.862,-33.622,35.892,-40.995,-7.049,-36.465],[-64.383,-13.061,-4.836,-2.272,0.527,-63.178,-9.299,-0.108,-0.734,1.185,-63.283,-7.097,3.482,3.48,6.792,-49.508,-13.532,15.146,24.237,16.082,-54.482,-7.481,17.84,8.333,39.952,34.58,11.113,-55.075,-3.434,2.191],[-62.886,-14.498,-4.886,-1.05,-1.669,-67.423,-14.581,0.29,0.906,0.336,-62.867,-13.307,-0.988,0.228,3.032,-61.298,-12.796,24.073,29.298,27.798,-54.578,-30.551,-18.535,2.406,61.244,-48.193,-16.417,21.362,-0.011,25.589]],
"ve": [[-10.273,-19.996,-34.84,-23.513,-19.222,7.631,34.105,-11.208,-55.962,-55.04,25.857,-35.166,-38.684,150.184,78.421,101.884,7.894,23.112,287.242,-49.792,5.008,31.942,-17.696,-46.123,-275.903,200.399,80.075,40.291,1.091,-19.844],[-56.779,-3.712,2.242,-6.735,244.784,0.463,-10.009,5.264,-3.163,4.895,-8.54,39.901,2.646,-10.048,10.783,49.454,18.28,17.292,7.429,-10.786,100.127,46.331,32.102,16.989,-47.384,216.015,102.037,67.34,39.773,57.264],[-59.338,-2.452,-12.221,16.829,0.348,-2.745,-0.925,-1.188,2.415,2.42,1.52,0.212,2.055,-9.066,-5.055,40.367,23.642,15.169,18.802,8.576,94.559,47.547,31.935,34.158,15.654,196.473,96.001,64.323,49.408,38.449],[-4.601,-0.052,-0.977,-0.56,4.983,1.654,0.49,-0.281,0.133,-2.537,12.043,2.734,3.654,0.443,0.705,61.071,22.203,17.347,12.467,8.83,97.553,49.162,32.038,26.257,20.791,200.833,129.852,65.331,49.297,41.013],[-5.156,-0.831,-1.049,0.365,3.966,3.84,1.12,0.017,0.185,0.375,1.049,2.681,2.292,2.13,1.372,27.462,22.729,4.477,12.422,9.73,89.207,47.585,34.741,25.701,20.398,191.113,96.84,66.462,51.789,39.028],[-2.661,-1.973,-0.487,-0.418,-0.86,-5.329,2.323,0.857,0.607,0.475,7.326,2.706,2.604,1.064,1.657,47.119,23.409,14.585,44.932,9.569,97.886,50.284,-19.652,23.645,21.627,195.721,96.927,65.282,44.951,40.775]],
"kep": [[-115.586,-50.962,-24.412,-12.518,-22.625,-122.716,-48.523,-24.867,-48.936,-17.066,-128.955,-61.326,-40.366,-16.168,-35.489,-133.493,-253.109,-179.727,-204.501,-186,-85.835,-280.042,-330.936,-338.301,-381.74,53.228,-81.03,-475.474,-600.647,-643.413],[-64.529,-52.071,-114.892,-35.41,4.958,-59.716,-49.42,-131.991,-44.945,-4.518,-51.18,-48.528,-162.261,-43.906,-27.573,-45.247,-35.809,-149.58,-157.061,-106.084,-55.568,-67.093,-104.65,-224.631,-218.964,-21.688,-27.641,-20.133,-48.563,-318.173],[-55.648,-13.335,-14.155,-32.595,-130.561,-62.087,-13.579,-15.583,-55.18,-126.738,-51.444,-18.203,-12.652,-35.585,-135.358,-69.726,-43.753,-29.133,14.431,-146.995,-65.582,-8.106,-92.871,-60.011,-128.739,-41.921,-2.573,9.084,21.288,19.693],[-68.279,-11.949,-6.43,-3.072,-10.884,-76.009,-16.681,1.35,-8.013,-4.662,-69.392,-17.102,5.626,3.884,-6.726,-80.118,-36.451,8.939,-7.038,5.803,-53.484,-43.38,-45.72,-0.557,-76.429,-74.475,-32.817,-62.764,-38.165,-55.387],[-78.131,-20.31,-9.389,-2.61,-1.899,-78.5,-21.671,-7.06,-5.497,-1.724,-79.621,-22.953,-3.443,-1.623,7.986,-75.908,-45.692,-13.118,9.161,1.101,-78.654,-44.372,-20.756,-26.927,18.027,-60.22,-40.776,-63.384,-37.441,-29.966],[-78.64,-26.165,-11.003,-2.336,-3.216,-80.751,-29.364,-5.84,-2.221,-4.904,-81.304,-30.33,-6.963,-4.414,0.033,-80.826,-40.414,-4.003,11.445,13.597,-78.684,-56.139,-48.545,-26.158,32.306,-77.31,-52.423,-32.183,-36.985,-10.588]],
"vp": [[36.401,169.792,-54.276,427.115,-279.467,53.399,30.815,24.325,11.859,19.632,13.937,19.628,5.441,-1.521,4.071,-11.099,-4.13,11.582,-1.204,-15.27,-8.421,-5.72,-14.306,-23.436,-14.639,-18.437,-24.649,10.968,-9.238,-12.225],[1770.082,797.272,-250.64,114.24,244.937,453.798,143.851,45.991,-5.057,83.769,257.593,48.84,36.187,-21.359,23.861,12.734,-10.853,-5.995,-15.3,-9.513,-19.762,-16.494,-5.011,-6.247,8.367,-21.591,-6.655,-26.788,-10.392,10.008],[4317.81,2102.995,866.329,680.877,-31.984,752.221,421.097,111.817,120.853,-63.978,426.12,155.395,34.147,25.787,15.004,66.187,15.186,-5.235,-7.903,-26.046,17.532,-28.568,-13.707,-30.415,-11.801,-24.983,-51.885,-43.943,-38.811,-20.995],[5459.276,3663.504,1626.223,380.473,621.975,1179.439,738.816,270.414,202.197,148.139,552.798,365.815,148.925,63.882,41.582,98.681,39.041,-5.175,2.829,-18.378,17.806,-16.918,-28.236,-28.915,-15.22,-5.863,-27.416,-45.49,-43.544,-37.324],[5438.195,5818.04,2948.303,790.125,1104.838,1173.36,902.005,561.048,229.546,115.623,544.344,400.315,204.28,109.382,62.678,93.828,106.258,71.05,0.05,-21.966,32.054,17.393,19.351,11.806,-8.458,-17.665,-18.696,-30.877,-15.492,-49.005],[6113.76,7477.503,3371.196,2023.867,1059.447,1146.152,1237.087,632.358,331.201,123.605,746.138,702.508,310.856,96.696,103.801,106.682,84.459,48.671,36.795,49.37,25.871,40.771,19.323,-0.36,0.173,-11.479,-19.067,-25.544,-29.757,-44.216]]
}