{
"KTrans": [[1.012,3.193,1.593,1.898,2.922,6.602,14.345,12.219,12.892,11.701,12.583,26.506,23.64,22.167,22.697,28.401,81.979,98.27,99.835,99.325,90.321,44.506,134.601,154.162,161.284,-1042.147,-331.518,13.403,123.705,170.759],[-0.915,0.435,-0.008,1.222,1.098,9.53,6.354,2.489,5.284,4.949,19.029,16.484,4.336,10.252,9.139,160.419,105.832,28.339,32.579,40.343,418.258,269.366,-52.593,22.209,60.573,1047.499,781.726,-517.547,-120.746,36.615],[-2.21,0.198,0.19,0.151,0.286,4.496,5.958,4.276,3.952,1.414,15.805,13.005,10.745,7.968,1.865,132.259,75.22,59.64,55.902,16.558,317.76,190.371,146.951,144.73,51.101,777.075,459.692,409.546,407.418,101.771],[-6.617,-0.943,0.815,0.254,0.616,1.066,4.891,3.571,4.133,3.077,10.365,10.603,8.831,7.505,6.92,112.289,67.617,50.069,41.992,37.948,260.234,157.267,112.688,94.697,93.838,631.7,377.364,281.568,233.846,242.483],[-7.005,-0.16,0.137,0.35,0.732,-1.963,4.294,3.689,2.991,2.767,7.935,11.429,8.016,6.433,6.012,94.855,64.063,44.664,37.395,32.388,244.216,147.218,103.841,85.135,71.021,599.878,357.339,250.569,202.023,170.038],[-12.541,0.794,-0.238,0.25,0.623,-6.779,3.683,4.242,2.823,2.477,2.656,8.967,7.482,6.134,5.212,85.321,59.187,43.307,34.018,29.558,215.66,140.857,94.847,77.363,65.095,542.414,326.045,226.578,177.346,151.615]],
"ve": [[-6.999,12.372,2.786,-7.59,-5.593,-17.097,5.624,15.524,25.146,21.882,8.787,33.078,32.513,51.035,22.247,53.792,-2.428,-50.049,-84.121,-100.379,91.84,31.171,-6.249,-30.075,-45.122,206.407,84.341,33.227,3.967,-15.273],[0.338,-0.09,2.182,1.401,0.845,4.85,2.345,5.211,4.343,2.416,10.372,5.007,4.28,6.551,4.81,50.664,25.748,11.191,1.153,-372.346,101.123,51.271,32.938,18.902,0.627,200.438,100.243,66.569,45.182,27.235],[0.648,0.373,0.214,-0.113,-0.761,4.393,2.382,1.594,1.231,1.243,9.972,4.963,3.893,2.634,2.549,50.426,25.548,17.758,13.392,8.566,99.678,51.175,34.827,26.07,19.557,198.255,101.375,68.584,50.632,40.361],[1.046,0.058,0.254,0.106,0.062,5.042,2.579,1.607,1.253,1.084,9.273,5.023,3.39,2.72,2.305,49.909,25.477,17.173,13.378,10.863,99.741,50.726,34.387,26.307,21.413,198.462,100.471,67.898,51.327,41.463],[0.917,0.398,0.168,0.263,0.292,4.531,2.451,1.674,1.337,1.132,9.594,5.132,3.325,2.638,2.171,50.022,25.507,16.931,13.103,10.737,100.35,50.669,34.141,26.072,21.046,198.42,100.455,67.661,51.383,41.376],[0.781,0.468,0.253,0.239,0.12,4.205,2.463,1.894,1.282,1.07,9.596,5.336,3.331,2.581,2.126,49.528,25.313,16.847,12.836,10.579,99.296,50.31,33.789,25.814,20.866,207.971,99.868,67.446,51.063,41.211]],
"kep": [[-124.829,-10.833,0.443,-3.753,-2.521,-121.145,-28.806,-19.222,-21.055,-18.303,-114.731,-53.483,-35.172,-35.047,-36.674,-170.125,-235.699,-186.925,-182.325,-188.243,-143.859,-482.474,-370.982,-361.102,-382.05,-725.554,-891.513,-754.104,-729.207,-756.692],[-3.949,-4.379,-123.068,-6.716,-2.169,3.269,7.567,-110.127,-20.966,-10.161,7.784,26.697,-110.844,-33.787,-18.626,85.493,128.042,-75.99,-176.768,-100.274,176.307,248.889,-384.314,-349.509,-201.955,291.331,485.807,-961.935,-677.247,-414.906],[-4.293,-1.513,0.201,-1.975,-119.223,-2.47,3.685,4.685,10.63,-113.171,3.5,10.049,17.07,22.732,-140.887,56.26,53.315,69.872,133.151,-72.404,111.087,118.104,147.351,261.499,34.134,190.609,210.839,309.565,497.422,35.897],[-10.203,-3.164,0.506,-0.468,0.879,-5.509,2.09,2.289,5.125,5.759,-0.855,6.249,8.43,10.138,16.213,39.949,40.472,40.062,50.385,69.705,78.316,80.409,79.509,95.736,150.43,139.593,149.364,162.816,185.387,288.64],[-9.752,-1.393,-0.63,0.079,0.474,-8.501,1.889,2.632,2.54,3.495,-3.776,6.385,5.523,5.674,8.114,28.094,33.858,30.123,32.738,38.403,68.35,68.891,63.839,67.957,73.144,127.207,133.673,127.352,133.556,144.443],[-15.729,-0.197,-1.174,-0.418,0.213,-12.619,0.638,2.897,1.918,2.895,-9.003,4.221,4.341,5.036,4.869,21.031,28.5,26.741,25.001,27.477,55.02,63.458,51.894,53.129,53.984,107.324,115.611,105.069,101.991,109.351]],
"vp": [[-24.979,-19.577,48.448,-59.383,-0.099,-22.33,-3.681,-1.358,26.508,-1.62,-7.898,-3.816,9.179,-9.938,-14.642,-3.631,0.873,0.63,-3.837,-3.347,0.106,0.018,1.04,-0.176,0.098,0.029,-0.491,0.513,0.434,-0.082],[442.05,90.846,44.936,-33.749,87.869,94.793,23.626,-0.256,27.749,1.8,42.166,12.802,3.243,6.199,-4.431,13.019,-1.02,-3.004,-0.363,-5.412,4.567,-1.557,-1.338,-1.069,-3.725,3.711,-1.435,-0.838,-1.203,0.325],[1600.245,116.691,-52.745,-51.925,46.927,342.567,21.114,-18.479,4.029,-7.091,158.857,15.629,7.313,10.411,5.849,30.518,0.874,-2.153,-2.533,-3.392,12.595,-1.008,-1.848,-1.885,-1.861,4.833,-2.019,-0.513,-2.567,-1.921],[3632.301,519.326,65.563,-90.054,8.733,633.845,96.256,45.043,19.71,-3.709,270.655,23.176,-3.407,-4.492,0.678,65.736,-0.107,0.474,-3.685,-0.426,25.748,0.755,-0.32,-0.343,-1.628,10.765,0.464,-3.236,-0.473,-1.185],[4406.187,707.699,-53.201,50.457,139.249,901.802,129.946,14.861,-3.234,-32.126,446.879,108.591,28.474,4.754,5.679,89.08,11.491,-2.137,3.356,-2.596,47.969,9.203,2.941,3.409,-0.817,18.098,3.373,0.129,-0.287,-1.853],[5591.52,1465.612,352.863,217.033,188.921,1071.628,249.354,58.046,44.27,15.163,589.356,127.306,48.74,19.201,13.85,112.117,15.168,0.836,2.789,1.307,54.079,13.999,2.385,2.199,4.165,26.743,0.7,0.432,0.458,-2.673]]
}