{
"KTrans": [[-48.586,-74.695,-66.625,-62.462,-73.219,-43.214,-74.588,-62.127,-64.069,-67.368,-24.728,-47.897,-50.431,-52.321,-46.533,1.739,-22.017,-6.771,-20.818,3.903,65.541,60.099,6.994,55.751,46.736,-15.228,186.389,69.541,80.366,100.55],[-57.403,-49.251,-38.966,-59.822,-60.867,-50.409,-38.265,-37.549,-48.792,-55.172,-45.934,-30.975,-25.915,-44.387,-43.422,-11.099,-1.061,-2.067,-24.334,-18.181,9.83,26.229,-13.24,-4.434,3.392,58.748,32.102,34.979,13.075,8.469],[-69.048,-50.676,-53.013,-45.752,-49.116,-66.272,-43.94,-43.182,-33.777,-34.717,-66.712,-39.101,-38.728,-39.654,-29.465,-46.808,-18.592,-23.866,-9.617,-5.286,-22.849,4.757,7.324,-3.307,3.122,-2.803,26.493,34.424,16.877,10.177],[-75.361,-46.786,-38.757,-39.691,-43.969,-75.503,-49.123,-41.679,-37.273,-49.792,-77.848,-35.587,-37.068,-35.844,-37.266,-61.018,-30.938,-31.281,-27.542,-14.939,-40.45,-23.389,-9.622,-10.575,5.203,-35.225,1.221,26.95,20.01,14.495],[-81.749,-56.479,-41.654,-42.862,-46.976,-80.382,-50.848,-42.809,-37.969,-43.062,-79.56,-46.309,-36.884,-37.618,-37.654,-69.963,-46.625,-28.243,-33.387,-21.168,-62.766,-18.605,-28.424,-13.022,-17.595,-36.459,19.974,19.143,37.873,22.781],[-84.473,-55.549,-41.824,-41.185,-48.564,-84.139,-58.097,-40.667,-35.946,-38.413,-83.866,-58.807,-36.506,-35.966,-43.895,-78.507,-50.77,-38.666,-33.812,-31.108,-66.284,-39.818,-23.027,-19.82,-13.774,-55.881,-7.899,-7.408,30.505,11.331]],
"ve": [[-55.057,-59.249,-1431.714,-36.795,-29.67,-30.403,-17.851,-35.841,-44.788,-69.362,-0.541,-65.089,-5.266,5.665,-15.844,4.952,21.573,-170.294,-50.973,-9.331,78.41,15.051,-9.964,36.441,-28.501,114.367,203.283,19.223,-26.093,-25.684],[-78.259,-71.18,-31.464,-49.287,-34.435,-54.816,-54.646,-35.107,-44.492,-34.169,-45.407,-20.729,-29.247,-34.715,-20.194,6.978,-10,2.265,-18.556,13.625,52.202,19.344,1.712,-469.749,-15.053,310.265,73.169,52.963,19.962,-20.697],[-50.686,-117.579,-90.926,-51.858,-43.347,-43.694,-74.552,-74.611,-41.565,-35.229,-47.86,-79.266,-62.41,-51.188,15.696,24.261,-47.599,-50.261,-16.918,-2.157,82.503,9.591,-7.409,-5.762,4.409,100.31,57.593,49.881,9.978,11.135],[-15.983,-83.733,-80.388,-70.164,-62.868,-766.186,-96.404,-91.48,-60.658,-72.247,-38.849,-53.971,-72.286,-64.696,-53.938,67.944,-37.008,-73.04,-49.151,-23.633,115.58,-39.52,-38.534,-27.581,3.12,190.807,-25.362,11.575,49.591,30.397],[-10.472,-99.949,-99.706,-90.49,-85.339,-29.88,-64.526,-106.744,-81.077,-78.239,1.93,-65.982,-84.162,-81.128,-66.896,45.16,-55.889,-74.393,-65.394,-39.362,137.348,37.273,-99.647,-35.741,-39.01,252.375,191.353,39.712,69.465,3.383],[-5.921,-49.856,-111.908,-99.288,-101.729,-30.814,-65.714,-110.953,-93.448,-78.369,11.099,-72.095,-75.352,-86.2,-101.613,53,-81.892,-77.006,-74.936,-75.112,123.72,-57.964,-69.883,-46.392,-32.94,42.295,161.728,-1.618,62.886,-9.779]],
"kep": [[-116.767,-10.04,-4.405,-9.761,-0.091,-104.655,-3.77,8.876,-37.574,11.043,-117.634,-3.527,8.772,7.137,-21.499,-61.988,-40.744,-23.381,-6.084,-20.643,-45.048,-104.75,-26.269,-71.493,-31.031,1.811,-163.19,-118.628,-105.305,-106.025],[-57.35,-29.683,-111.96,-14.971,-4.04,-55.162,-29.726,-116.851,-3.166,-2.468,-62.631,-38.731,-112.653,10.593,5.953,-49.075,-40.111,-105.661,-27.015,-9.081,-51.956,-25.697,-41.345,-61.232,-32.548,-57.676,1.062,-19.656,-100.806,-71.18],[-74.198,-13.871,0.074,-24.243,-126.879,-71.722,-24.158,-5.083,-24.593,-121.936,-73.594,-15.636,-10.565,-19.635,-107.927,-74.572,-12.788,-10.628,-34.703,-107.876,-64.882,-29.929,-18.172,-20.593,-61.573,-51.617,-11.132,-9.929,23.638,14.07],[-84.804,-28.838,-8.204,-6.805,-9.708,-83.718,-25.141,-4.87,-7.764,-2.312,-84.776,-24.292,-11.112,0.368,-6.452,-82.692,-31.893,-9.188,-4.065,-7.041,-75.798,-41.587,-11.558,-12.033,-18.878,-72.889,-27.61,-9.823,-28.366,-10.823],[-89.122,-37.712,-12.362,-4.491,-0.589,-87.162,-40.658,-8.862,-2.458,-2.239,-88.173,-32.679,-11.047,-5.927,-3.63,-85.411,-47.44,-8.53,-6.413,1.54,-86.221,-53.135,-8.647,-9.082,-3.832,-82.561,-56.944,-30.77,-25.724,-3.874],[-92.395,-45.719,-12.914,-5.342,-3.866,-91.575,-43.89,-10.935,-1.626,-4.229,-92.616,-46.719,-14.498,-2.714,5.035,-90.636,-45.898,-23.653,-9.557,1.334,-85.61,-48.466,-23.122,-10.635,-5.458,-80.229,-57.826,-42.141,-28.944,-9.457]],
"vp": [[56.89,140.484,363.074,53.913,-34.32,-48.603,-35.931,24.237,-56.369,-18.337,7.693,19.118,10.905,-6.085,-25.33,-2.925,-15.184,0.388,-9.317,-12.741,-12.212,1.442,20.21,-10.302,0.978,1.332,-10.973,17.937,13.299,11.474],[1624.989,368.568,164.026,-213.35,-138.489,349.87,60.22,18.081,-29.635,-9.661,165.804,33.202,-7.541,11.219,18.119,11.159,-7.664,-3.16,1.208,-9.216,-3.666,-28.744,16.576,16.809,2.933,-32.463,-25.941,-25.516,9.468,8.856],[3896.119,586.901,9.36,177.081,120.615,743.696,287.949,53.367,62.091,23.702,362.517,84.326,63.081,-15.943,18.572,64.058,-11.958,-28.273,-7.662,-13.746,11.072,-14.301,-25.486,-16.508,-4.524,-24.753,-14.665,-27.749,-43.945,-23.079],[5105.781,2611.95,617.256,659.82,126.258,1006.043,516.903,191.683,177.846,-54.116,478.876,209.778,93.752,29.621,8.56,71.593,41.647,-3.609,2.769,1.622,9.279,-9.192,-12.131,-6.087,-3.346,1.753,-20.684,-28.179,-25.396,-24.224],[6330.358,3580.783,1357.883,604.4,122.293,1134.611,733.259,341.742,101.4,36.412,571.813,327.049,129.113,54.812,7.836,93.86,97.769,24.589,33.801,11.669,44.411,32.501,-9.952,-2.586,-14.93,-6.812,-19.446,-18.336,-18.418,-29.364],[6741.442,5663.787,1701.744,1287.32,578.178,1207.981,1211.248,366.484,218.191,161.103,659.639,516.478,243.004,139.095,-16.859,125.362,74.358,79.3,16.145,-16.467,19.764,21.103,3.183,17.983,4.307,-12.249,-4.337,-6.229,-24.141,-30.064]]
}