{
"KTrans": [[24.644,7.041,11.424,12.033,14.092,15.183,11.023,11.831,14.761,16.25,13.341,17.465,15.316,15.996,12.151,21.933,19.201,19.52,24.5,21.693,29.901,42.258,32.823,34.674,29.511,49.075,59.686,65.094,52.457,45.603],[-39.599,-2.541,3.105,4.371,5.445,-41.278,-8.434,1.241,7.084,5.447,-40.571,-9.54,0.404,6.309,9.047,-27.602,0.604,3.828,9.796,10.353,-15.932,2.436,11.487,14.051,15.207,-23.094,9.373,12.431,22.832,20.062],[-71.476,-26.961,-13.325,-3.437,-0.687,-66.652,-29.893,-13.15,-3.81,2.434,-72.262,-23.872,-13.478,-5.546,-0.57,-67.43,-26.931,-10.734,-1.882,2.543,-57.53,-24.866,-4.426,2.779,6.552,-61.27,-22.84,-1.829,7.434,8.633],[-85.984,-41.86,-26.074,-15.274,-7.746,-82.457,-46.727,-21.308,-13.979,-6.637,-86.527,-45.799,-21.507,-13.133,-6.449,-81.62,-45.904,-27.649,-13.319,-5.246,-76.74,-49.046,-24.594,-11.522,-3.752,-73.356,-43.947,-16.77,-7.026,0.894],[-89.6,-56.769,-35.352,-25.487,-14.552,-90.885,-56.06,-36.624,-24.919,-15.159,-89.932,-60.435,-33.557,-23.654,-14.301,-88.665,-55.658,-36.888,-24.241,-15.453,-79.808,-54.652,-37.287,-21.242,-13.579,-80.877,-56.482,-37.677,-16.706,-8.934],[-94.211,-72.016,-48.353,-32.345,-23.162,-92.731,-63.991,-44.91,-36.037,-25.086,-92.911,-70.02,-50.135,-31.991,-23.408,-91.264,-66.236,-48.682,-32.632,-21.046,-89.557,-70.293,-48.264,-32.471,-21.467,-87.975,-67.625,-46.336,-33.557,-21.384]],
"ve": [[19.873,14.787,55.621,20.704,-43.157,-17.875,17.667,62.56,427.234,81.311,4.524,18.644,33.926,76.138,75.997,-4.571,47.381,33.277,125.766,-38.972,26.992,37.384,46.314,28.173,271.477,52.386,36.459,39.862,-492.29,-185.571],[-5.882,-0.678,1.915,2.214,5.446,-23.008,-4.419,0.13,3.614,6.283,-24.209,-2.244,0.436,3.578,6.119,3.742,3.937,4.482,5.891,6.721,-30.621,10.399,9.063,8.83,10.384,28.96,21.414,15.082,15.129,13.639],[-29.113,-9.141,-5.532,-1.283,0.353,-32.023,-9.608,-4.462,-1.301,1.084,-267.982,-7.359,-3.903,-0.949,0.643,-22.591,-6.629,-0.717,1.367,3.468,-13.539,-0.629,4.737,5.459,5.483,90.803,11.542,11.571,9.783,9.412],[-46.287,-15.709,-8.175,-4.71,-2.866,-35.859,-17.789,-7.13,-4.777,-2.282,-64.363,-17.665,-7.708,-4.351,-2.022,-35.083,-16.588,-7.556,-2.471,-0.239,-18.138,-12.179,-1.662,0.143,2.961,2.734,0.735,8.034,7.488,8.312],[-52.428,-24.916,-13.47,-8.99,-4.935,-57.705,-23.253,-14.834,-8.737,-5.081,-51.193,-23.427,-11.503,-8.203,-4.941,-45.771,-20.009,-9.948,-5.934,-3.865,-24.391,-12.209,-7.806,-2.432,-0.662,38.513,-4.116,-1.593,3.471,3.401],[-50.854,-33.234,-19.988,-11.831,-8.566,-42.791,-26.403,-17.224,-13.531,-8.634,-54.028,-32.318,-20.642,-11.5,-8.386,-44.946,-23.404,-16.176,-9.618,-5.852,-28.669,-22.334,-12.992,-7.527,-3.913,-11.471,-6.52,-3.402,-3.411,0.311]],
"kep": [[-11.964,-27.564,-26.274,-30.151,-29.923,-19.879,-23.347,-27.648,-25.99,-26.381,-20.082,-17.741,-19.255,-23.927,-34.839,-23.359,-21.312,-20.738,-15.385,-24.212,-23.714,-10.801,-12.515,-7.387,-16.16,-30.023,-7.289,3.38,-1.086,-3.579],[-51.605,-25.924,-22.855,-21.886,-23.282,-49.827,-27.515,-22.831,-20.94,-23.82,-50.865,-29.87,-23.664,-21.432,-21.232,-51.85,-26.802,-24.207,-20.662,-20.813,-49.831,-29.909,-22.136,-19.696,-20.189,-58.711,-32.882,-26.119,-18.76,-19.234],[-73.331,-39.916,-30.311,-25.444,-24.418,-70.186,-42.151,-31.064,-25.712,-22.656,-72.792,-38.778,-31.572,-27.339,-24.586,-74.025,-41.439,-31.665,-26.216,-24.358,-69.404,-43.119,-30.903,-25.738,-22.96,-76.883,-49.165,-33.97,-25.813,-24.53],[-85.004,-49.09,-38.845,-32.224,-27.576,-82.131,-52.036,-35.798,-31.211,-27.132,-85.577,-51.171,-35.583,-30.843,-27.181,-82.766,-51.97,-40.52,-32.36,-27.623,-81.668,-56.411,-42.125,-32.847,-28.856,-84.917,-59.234,-42.409,-34.675,-29.37],[-88.991,-58.241,-43.73,-37.714,-31.489,-90.178,-58.014,-44.117,-37.425,-31.89,-89.979,-62.721,-43.179,-36.912,-31.331,-89.021,-59.331,-47.243,-38.814,-32.977,-85.226,-62.509,-48.852,-38.68,-33.813,-89.12,-66.984,-52.9,-39.117,-33.13],[-94.294,-69.456,-51.593,-41.783,-36.002,-92.491,-64.939,-50.095,-43.799,-37.606,-91.901,-67.52,-52.863,-41.8,-36.385,-91.192,-67.553,-54.048,-43.568,-36.223,-91.31,-72.144,-55.181,-44.821,-37.818,-92.484,-74.49,-58.857,-48.172,-40.548]],
"vp": [[-648.664,-179.903,-238.772,-356.045,-478.992,-79.32,-106.882,-37.17,-125.366,-122.198,-31.045,-56.405,-25.087,-27.204,-26.314,1.319,-2.872,-3.373,-5.586,-7.509,-0.509,-13.101,-1.927,-3.169,-0.815,4.155,-3.289,-6.749,0.115,4.728],[1912.272,-100.937,-325.23,-264.16,-212.142,523.281,174.825,36.51,-136.335,-40.801,208.559,87.11,28.165,-54.584,-110.407,26.87,-0.95,6.887,-8.424,-9.912,4.266,2.835,-2.318,-4.879,-8.708,10.968,2.013,5.948,-2.208,0.412],[4157.401,2096.36,1205.182,516.382,-9.795,732.705,473.763,300.665,123.624,-90.942,490.192,195.136,135.906,76.818,32.824,87.37,55.566,28.747,8.892,-8.044,35.616,29.052,6.295,-1.508,-2.673,26.75,12.9,4.286,1.15,3.948],[6385.065,3721.336,2707.016,2210.763,975.435,1139.029,917.829,395.366,381.719,158.024,673.018,434.089,254.522,166.977,74.208,115.146,100.614,73.463,35.019,19.406,53.868,58.355,29.673,18.944,4.002,31.477,27.393,9.573,8.094,0.822],[7176.517,6189.392,4364.049,3634.173,1982.306,1461.863,1145.467,978.906,734.242,482.14,740.338,633.07,392.834,340.492,235.523,141.719,122.222,90.979,68.763,51.539,47.909,56.625,51.303,31.366,25.556,33.831,30.867,29.291,13.025,12.209],[8142.467,8488.964,6689.078,4716.346,3964.003,1501.755,1450.208,1178.599,1226.206,937.059,750.775,852.28,732.604,494.677,436.35,154.528,140.618,142.742,104.516,79.92,68.638,84.417,70.109,56.343,41.267,39.866,41.729,31.105,32.301,21.447]]
}