{
"KTrans": [[41.197,27.431,26.551,16.448,24.16,68.937,41.036,31.359,24.543,27.062,75.229,46.306,41.329,37.297,33.185,252.24,129.432,95.791,79.45,84.364,573.86,276.243,201.121,196.15,177.567,1426.158,699.069,532.744,461.518,438.302],[-11.026,60.829,38.205,36.696,25.051,9.922,75.811,37.132,31.067,35.42,-3.086,77.826,55.972,44.886,30.225,145.805,176.207,104.696,79.912,63.16,199.327,285.212,174.172,123.262,96.143,605.37,597.728,320.027,255.055,193.19],[-141.409,216.234,85.87,59.213,43.919,-145.699,187.639,78.854,63.704,45.838,-152.817,157.177,103.843,48.799,50.61,-83.239,327.934,136.663,96.581,74.503,-221.217,544.915,205.241,126.491,102.705,-378.74,952.492,369.762,259.751,189.688],[-135.283,12.857,199.708,85.512,63.56,-122.233,-15.143,204.657,101.79,69.438,-133.71,-99.951,181.343,86.747,75.402,-155.742,39.567,275.77,153.716,90.409,-237.295,-92.227,410.871,188.581,134.823,-302.079,-88.19,667.331,334.96,212.167],[-125.802,-187.866,94.811,222.187,98.729,-136.949,-127.55,114.368,177.445,93.007,-134.978,-134.036,116.477,192.758,91.655,-161.293,-212.7,222.962,231.249,123.193,-106.885,-255.648,58.332,299.86,160.608,-309.254,-238.111,600.78,493.442,256.64],[-114.511,-158.457,-129.954,294.831,154.029,-121.105,-179.29,-30.165,393.591,157.827,-114.87,-173.049,-55.104,347.674,145.157,-145.712,-181.52,8.392,526.697,200.759,-132.68,-267.434,-80.089,504.307,303.83,-160.28,-213.366,-35.363,892.274,375.803]],
"ve": [[3.443,2.275,1.152,11.058,-22.593,7.046,2.586,1.228,5.716,10.088,10.496,2.758,-1.291,-2.553,0.903,46.856,12.834,-2.693,-12.336,-20.167,94.874,34.135,6.945,-7.746,-18.866,192.706,81.226,36.364,10.906,-4.412],[0.921,0.637,0.89,1.576,0.66,7.757,4.102,2.204,1.361,1.632,5.258,6.406,4.267,3.578,1.565,68.63,26.567,16.276,10.851,5.932,101.215,49.1,31.518,19.64,12.253,200.374,97.722,61.274,42.991,28.146],[4.303,3.627,1.716,2.841,1.856,10.09,3.956,3.009,3.503,2.279,6.4,6.808,6.13,2.662,3.287,52.103,27.469,15.89,13.366,9.877,98.191,52.189,31.384,22.295,17.277,200.165,100.305,62.548,48.154,35.9],[3.338,8.434,1.864,0.58,1.67,4.802,5.928,3.846,3.968,3.109,14.028,7.948,4.528,3.274,3.867,49.774,24.465,16.493,14.899,10.875,99.924,50.477,34.657,25.35,20.49,204.729,102.589,66.491,50.453,38.05],[7.592,2.037,3.129,2.961,2.594,8.973,2.249,3.364,5.437,1.719,34.076,4.503,3.327,5.19,2.12,52.304,26.471,19.076,13.873,9.629,100.639,52.443,31.462,25.522,18.918,201.458,99.987,69.353,50.941,39.8],[6.209,4.407,5.581,1.661,1.534,9.49,5.417,3.394,5.196,3.098,10.533,-3.643,2.456,1.949,1.335,50.653,24.246,16.763,14.244,11.21,104.624,48.382,33.816,26.443,22.263,198.572,101.329,66.933,51.637,38.346]],
"kep": [[32.772,25.536,30.221,23.399,35.636,53.998,37.644,36.143,32.385,43.501,53.202,41.791,47.258,50.505,50.934,134.272,99.042,98.158,102.852,130.711,238.996,176.048,177.003,216.484,238.54,416.186,337.174,359.78,401.07,459.496],[-18.942,51.566,32.408,31.866,22.785,-2.69,61.475,29.908,26.553,31.966,-17.381,59.924,44.925,37.376,26.343,54.961,110.73,71.037,58.358,50.524,47.184,148.739,103.027,81.53,70.86,131.83,243.621,154.306,143.187,123.738],[-135.606,186.587,72.344,49.28,36.767,-136.207,157.599,64.33,52.034,37.778,-140.549,125.037,83.598,38.807,41.213,-87.644,218.879,93.188,67.17,53.736,-152.476,304.447,120.018,77.617,66.746,-183.88,403.998,175.642,135.388,106.722],[-129.435,3.591,173.382,73.082,53.506,-115.889,-22.564,173.853,85.271,57.486,-125.235,-95.807,149.994,70.455,61.607,-130.89,7.331,200.089,111.413,65.308,-161.318,-88.337,258.646,120.064,87.295,-161.595,-89.614,338.557,178.733,117.523],[-121.378,-174,79.863,191.929,84.08,-129.501,-119.319,93.808,150.45,78.153,-126.715,-123.759,92.549,161.089,75.691,-136.188,-177.063,156.411,172.655,91.117,-100.129,-191.565,14.481,199.787,106.614,-164.484,-159.408,298.05,274.91,144.165],[-111.892,-148.68,-120.595,256.36,132.131,-116.86,-165.967,-33.297,337.45,134.24,-110.623,-160.057,-53.571,294.998,121.986,-126.61,-154.909,-8.051,406.88,154.125,-113.273,-199.757,-78.691,347.669,212.322,-116.127,-148.348,-56.589,515.875,221.768]],
"vp": [[0.001,0.001,0.001,0.001,0.001,0.005,0.005,0.005,0.005,0.005,0.01,0.01,0.01,0.01,0.01,0.05,0.05,0.05,0.05,0.05,0.1,0.1,0.1,0.1,0.1,0.2,0.2,0.2,0.2,0.2],[0.001,0.001,0.001,0.001,0.001,0.005,0.005,0.005,0.005,0.005,0.01,0.01,0.01,0.01,0.01,0.05,0.05,0.05,0.05,0.05,0.1,0.1,0.1,0.1,0.1,0.2,0.2,0.2,0.2,0.2],[0.001,0.001,0.001,0.001,0.001,0.005,0.005,0.005,0.005,0.005,0.01,0.01,0.01,0.01,0.01,0.05,0.05,0.05,0.05,0.05,0.1,0.1,0.1,0.1,0.1,0.2,0.2,0.2,0.2,0.2],[0.001,0.001,0.001,0.001,0.001,0.005,0.005,0.005,0.005,0.005,0.01,0.01,0.01,0.01,0.01,0.05,0.05,0.05,0.05,0.05,0.1,0.1,0.1,0.1,0.1,0.2,0.2,0.2,0.2,0.2],[0.001,0.001,0.001,0.001,0.001,0.005,0.005,0.005,0.005,0.005,0.01,0.01,0.01,0.01,0.01,0.05,0.05,0.05,0.05,0.05,0.1,0.1,0.1,0.1,0.1,0.2,0.2,0.2,0.2,0.2],[0.001,0.001,0.001,0.001,0.001,0.005,0.005,0.005,0.005,0.005,0.01,0.01,0.01,0.01,0.01,0.05,0.05,0.05,0.05,0.05,0.1,0.1,0.1,0.1,0.1,0.2,0.2,0.2,0.2,0.2]]
}