{
"KTrans": [[-32.647,-55.099,-61.54,-56.437,-51.426,-25.087,-43.834,-36.446,-43.301,-41.033,-12.945,-39.349,-41.015,-29.985,-29.834,10.96,25.055,19.109,17.871,16.113,65.072,109.98,80.294,66.816,92.05,13.117,178.83,193.928,202.388,79.031],[-36.11,-43.242,-47.986,-47.451,-49.218,-32.068,-38.502,-25.137,-42.751,-32.786,-43.412,-29.361,-21.131,-36.323,-26.382,-5.824,-1.226,-21.083,-8.571,-4.976,-2.224,-7.163,-32.578,20.078,27.005,8.328,-13.325,-51.229,25.329,52.28],[-47.329,-43.163,-33.935,-38.069,-43.135,-42.307,-33.315,-28.085,-32.848,-31.544,-48.676,-40.059,-33.073,-29.662,-22.724,-40.591,-1.592,-8.086,4.54,-13.455,-47.914,18.706,-4.656,-25.813,9.044,-60.023,2.736,18.011,42.718,1.56],[-65.206,-53.106,-38.664,-35.081,-47.449,-59.065,-36.493,-37.537,-38.268,-35.346,-55.62,-42.44,-29.001,-32.418,-24.373,-55.755,-16.446,-19.932,-9.549,-9.258,-50.557,-7.029,30.655,39.76,9.257,-51.995,-34.724,27.938,9.355,-31.419],[-70.996,-49.787,-37.106,-31.721,-26.13,-71.219,-46.643,-47.204,-35.635,-29.322,-74.389,-53.112,-22.013,-27.856,-24.554,-58.675,-29.286,-24.073,-20.755,-22.386,-53.143,-40.089,19.184,0.035,4.478,-44.989,-31.803,13.237,-16.338,-14.214],[-77.305,-52.397,-47.947,-27.65,-34.183,-75.239,-44.306,-38.04,-30.031,-19.142,-75.422,-40.344,-39.986,-30.609,-30.368,-70.771,-42.434,-26.875,-20.838,-19.011,-70.867,-38.274,1.468,-1.959,-0.235,-60.31,-30.598,-15.403,21.647,52.742]],
"ve": [[-30.469,-19.896,-12.352,12.051,6.145,-25.058,-40.761,8.203,3.156,54.485,-14.403,-20.996,18.18,-9.551,11.694,22.954,25.889,-72.53,124.657,28.086,76.66,17.151,-0.214,-365.201,423.557,98.552,91.612,23.507,-8.921,-44.889],[-85.642,-67.875,-48.227,-33.544,-28.87,-76.46,-60.234,-24.146,-30.211,-18.927,-106.838,-45.53,-25.939,-24.041,-15.012,47.89,-22.287,-8.523,-14.845,1.907,-40.84,46.439,-9.885,-19.722,6.791,-17.602,87.653,-8.361,38.231,263.679],[-76.681,-102.445,-55.59,-47.931,-43.49,-71.658,-75.262,-46.319,-42.394,-40.12,-125.925,-92.565,-53.877,-37.761,-22.774,-60.235,-19.19,-22.038,8.752,-9.124,-87.504,145.185,30.634,-2.081,6.11,-7.39,92.326,55.582,36.192,11.543],[-114.97,-174.29,-80.767,-59.363,-66.212,-58.277,-107.375,-80.178,-64.622,-49.879,-55.614,-124.034,-64.225,-54.467,-35.011,-58.021,-45.867,-46.044,-26.196,-15.619,-72.195,-14.534,63.09,64.577,15.8,121.806,-2.375,68.619,41.678,41.439],[-75.836,-155.309,-94.219,-63.002,-45.247,-87.453,-168.973,-132.536,-72.104,-52.104,-54.95,-218.188,-49.583,-58.81,-40.688,-31.51,-88.064,-65.69,-52.629,-43.884,-19.119,-106.479,69.153,-5.867,-9.584,-66.774,-16.967,28.51,32.5,55.868],[-35.775,-177.968,-152.391,-64.621,-69.127,-43.674,-179.327,-110.922,-64.849,-34.456,-35.214,-131.694,-129.474,-72.181,-58.811,24.782,-98.361,-82.644,-63.702,-42.947,76.498,-132.045,-11.309,-13.012,-8.435,67.979,19.249,49.736,60.732,80.967]],
"kep": [[-111.887,9.205,4.686,0.05,1.702,-121.84,2.7,0.971,-3.113,3.421,-103.364,-21.725,-9.986,4.307,-5.396,-27.907,-59.662,-33.84,-22.692,-18.171,55.17,-173.402,-91.976,-80.505,-102.633,66.997,-254.808,-242.227,-235.747,-125.203],[-8.301,1.052,-117.841,1.013,0.029,-8.892,1.578,-132.549,0.681,1.675,-11.355,0.135,-121.607,-10.484,-3.97,-43.174,-5.139,-16.951,-32.896,-16.254,-25.412,-19.372,71.767,-98.603,-50.024,-23.072,-12.189,58.961,-147.562,-118.366],[-31.028,-1.68,-0.674,-3.015,-110.565,-30.196,-5.252,0.667,2.457,-122.124,-31.901,-6.344,-0.204,-4.801,-88.477,-46.029,-18.347,-9.65,-43.516,-21.799,-47.473,-60.257,-21.708,-17.821,56.069,-57.47,-28.104,10.906,48.267,63.558],[-50.661,-3.591,-4.8,-1.383,-0.775,-52.934,-6.019,-4.372,-0.571,0.796,-54.325,-8.164,-2.232,-2.135,3.064,-60.291,-24.999,-7.756,-8.713,-10.609,-56.893,-28.346,-20.801,-34.921,-17.963,-75.207,-47.756,-22.918,-17.321,-41.309],[-66.282,-12.841,-4.756,-3.662,-0.741,-65.093,-9.495,-2.233,-3.401,-0.21,-72.465,-9.08,-5.831,-1.232,-2.933,-65.367,-37.434,-9.917,-1.622,-1.39,-65.231,-38.567,-38.068,-22.335,-4.604,-65.663,-49.744,-20.747,-35.459,-38.128],[-75.605,-18.364,-5.874,-3.761,-2.702,-75.334,-14.771,-7.747,-6.361,-3.896,-76.706,-19.689,-5.173,-5.272,-3.851,-79.316,-45.851,-13.089,-2.235,-2.656,-80.403,-40.883,-27.73,-16.317,-9.313,-75.498,-55.205,-51.459,-25.09,-11.251]],
"vp": [[109.04,73.768,-57.402,-134.296,-72.951,-15.08,-7.58,-10.005,-13.191,-5.726,-15.696,-40.131,-17.853,12.798,10.313,-30.244,-7.719,-2.609,4.916,10.685,-52.645,-25.714,-18.112,-0.702,-27.51,-18.899,-6.548,-20.953,-27.85,23.91],[594.91,-0.176,-31.104,-23.045,-67.339,74.931,4.262,-4.951,-22.08,-6.31,43.663,-6.447,-29.744,-18.986,-23.687,-24.402,-29.489,-25.919,9.138,-10.073,-28.429,-45.779,-23.955,-12.548,-32.874,-39.132,-51.273,-25.152,12.682,-3.833],[1632.671,451.627,284.067,105.066,-17.461,366.525,104.821,52.734,6.543,-12.226,142.6,29.823,18.343,8.193,7.506,-15.965,-3.571,-15.699,-8.404,4.269,-15.945,-19.539,-39.491,-48.352,-43.584,-2.667,-9.58,-27.318,-58.974,-30.409],[2998.824,413.024,381.753,208.192,47.27,559.486,187.874,97.305,58.664,5.149,280.649,74.429,42.362,14.526,30.898,30.53,-14.454,17.103,14.072,0.309,-27.164,-2.678,-6.118,3.178,-32.168,-21.411,-52.46,-34.544,-49.162,-49.085],[4340.802,1419.303,950.975,725.204,488.122,751.973,342.681,125.083,128.346,71.772,402.116,22.38,90.43,91.323,55.088,10.326,40.585,-3.268,-12.916,-14.758,-13.354,4.932,-8.855,-7.119,-27.563,-46.226,-28.882,-22.147,-58.14,-37.11],[4569.882,2215.558,989.592,1204.97,735.832,858.356,425.744,250.893,178.291,174.253,515.87,242.867,77.752,70.997,123.999,47.504,27.495,0.442,-5.429,-8.028,19.93,-3.481,-45.287,5.436,18.391,2.626,-7.932,-30.589,-40.579,-38.479]]
}