{
"KTrans": [[-62.836,-81.413,-95.974,-80.754,-99.189,-50.685,-71.682,-92.573,-81.001,-95.076,-45.566,-59.223,-77.822,-84.054,-82.422,19.539,15.52,-33.865,-44.137,-25.515,58.835,37.915,-18.971,27.427,-32.989,144.44,47.251,147.354,150.609,120.823],[-58.976,-49.455,-46.414,-65.676,-66.916,-62.213,-49.987,-49.826,-56.146,-63.333,-57.976,-36.768,-45.761,-55.923,-63.835,-44.388,-13.641,-20.354,-42.282,-33.849,-41.736,6.775,1.387,-13.446,-26.653,-7.003,32.753,-13.358,-15.687,61.572],[-70.196,-51.701,-48.412,-46.829,-45.616,-68.928,-50.997,-43.148,-35.509,-43.64,-70.16,-49.259,-36.604,-41.346,-31.489,-60.745,-32.701,-27.088,-22.56,-26.982,-43.096,-6.808,5.817,-25.149,-3.107,-33.001,-1.578,20.445,14.241,-3.206],[-80.641,-60.604,-50.674,-49.863,-44.517,-76.533,-60.308,-50.108,-49.395,-52.293,-77.24,-61.166,-44.691,-41.173,-42.524,-71.01,-50.251,-34.88,-29.745,-23.039,-64.143,-34.712,-25.505,-11.721,-18.041,-56.758,-13.583,-8.521,20.133,4.772],[-84.719,-68.71,-52.898,-46.643,-50.195,-82.391,-70.607,-51.896,-49.765,-46.569,-80.826,-65.164,-48.879,-47.975,-42.015,-77.592,-55.726,-43.986,-41.098,-27.836,-64.057,-54.514,-30.396,-26.683,-24.386,-59.008,-35.274,-12.037,-1.206,5.082],[-86.638,-70.12,-57.982,-46.754,-44.57,-86.978,-70.755,-56.148,-46.953,-49.366,-86.152,-71.028,-53.921,-46.264,-39.326,-80.915,-66.731,-49.274,-38.096,-46.37,-78.225,-58.156,-35.871,-31.011,-23.144,-76.727,-43.966,-7.159,-20.09,-2.87]],
"ve": [[-108.445,-25.837,-63.036,-66.63,-24.05,-32.855,-41.93,-41.802,-95.624,-45.486,57.373,110.703,137.72,-39.27,-59.2,-16.704,-4.882,61.842,-95.737,-80.808,95.791,6.83,-21.645,-10.215,-47.652,297.572,22.695,35.827,42.172,-21.213],[-42.287,-40.716,-43.164,-10.168,-19.534,-47.379,-50.992,-41.118,-41.822,-36.221,31.942,-34.682,-20.139,-61.084,-39.252,-17.044,-27.599,-23.165,-30.207,-32.214,58.689,29.47,6.194,-2.251,-20.54,133.081,79.211,6.69,-12.166,6.484],[-20.837,-64.651,-97.789,-40.977,-38.913,26.098,-43.849,-17.224,-42.224,-41.574,-21.011,12.042,-35.701,-36.878,4.55,49.923,-9.306,-43.831,-47.956,-27.472,117.535,60.874,34.498,-2.458,-13.081,264.613,26.223,77.512,-22.749,-9.867],[-48.446,-31.867,-76.636,-62.431,-45.613,165.998,-54.993,-123.384,-55.401,-63.816,-50.139,-81.749,-57.217,-50.387,-51.903,14.865,-15.997,-47.731,-39.951,-23.734,134.632,35.853,-12.938,-17.895,-19.593,279.266,98.203,28.857,62.77,43.299],[-48.932,-19.67,-63.058,-64.199,-68.56,2.072,-48.88,-61.885,-80.212,-62.454,34.546,-29.218,-53.441,-118.04,-64.307,43.102,-12.949,-42.946,-62.999,-46.14,224.963,21.25,-10.344,-3.141,-34.513,326.412,114.52,57.052,19.21,24.209],[-15.54,4.954,-89.101,-87.384,-78.975,-9.707,20.745,-28.027,-39.828,-95.756,677.062,-14.819,-42.887,-27.049,-60.405,54.388,306.058,-51.212,-49.076,-96.498,136.212,33.793,-7.028,-70.396,-50.721,122.602,96.845,135.961,-1.186,-11.049]],
"kep": [[-103.488,-85.759,-28.32,-24.522,12.341,-109.778,-100.112,-38.905,-12.51,-9.619,-106.273,-91.523,-2.457,3.116,-78.196,-115.394,-125.672,-97.68,-36.338,-92.728,-126.756,-135.211,-78.087,-133.023,-78.207,-112.641,-152.987,-232.758,-191.26,-258.177],[-101.953,-103.25,-117.674,-84.882,-36.092,-95.317,-95.471,-113.198,-75.886,-32.028,-99.736,-97.166,-118.208,-68.873,-39.32,-90.293,-88.641,-105.924,-93.596,-80.731,-90.351,-86.309,-97.065,-96.248,-70.631,-78.924,-66.789,-62.893,-120.715,-176.229],[-99.561,-82.394,-60.944,-98.948,-119.282,-100.403,-78.728,-83.379,-95.173,-128.274,-96.899,-80.42,-73.924,-86.813,-114.532,-94.399,-82.894,-58.291,-94.785,-110.306,-94.268,-85.248,-82.36,-100.949,-112.508,-83.93,-49.627,-51.658,-71.677,-81.236],[-97.678,-80.322,-48.849,-45.788,-78.171,-100.14,-78.3,-49.646,-56.497,-58.183,-99.161,-82.098,-54.022,-48.948,-65.856,-98.979,-77.7,-63.116,-46.038,-72.983,-97.7,-80.39,-61.745,-51.745,-55.964,-96.012,-73.917,-45.168,-65.418,-72.187],[-99.386,-87.645,-57.042,-38.716,-31.488,-98.517,-89.447,-58.262,-36.752,-34.814,-99.458,-82.799,-56.033,-36.074,-34.282,-97.464,-79.569,-55.411,-39.08,-27.029,-102.39,-82.273,-61.16,-40.949,-46.757,-98.751,-82.832,-50.092,-47.961,-44.39],[-99.317,-86.272,-60.408,-37.8,-17.733,-100.997,-89.877,-60.277,-39.748,-28.178,-100.767,-86.505,-64.783,-37.362,-26.741,-100.149,-86.675,-56.719,-38.355,-22.094,-97.816,-87.184,-58.979,-41.591,-22.161,-93.013,-81.356,-72.12,-47.666,-29.187]],
"vp": [[-774.973,-379.845,571.677,633.192,709.894,-109.024,-133.67,60.78,82.893,7.257,-2.426,24.182,124.997,71.003,73.028,-21.423,8.183,17.488,3.968,-38.058,-9.439,9.394,4.135,12.114,-6.721,-9.883,-3.046,6.929,-19.429,12.095],[3398.923,583.064,623.184,-89.774,-76.758,543.267,109.499,-22.449,-24.126,27.729,243.009,164.843,-4.441,-71.756,-16.227,37.804,7.901,-1.334,16.936,-7.157,30.175,-21.443,-9.99,-1.087,3.237,-8.773,-18.253,-12.5,13.883,-23.457],[5181.095,3970.943,1305.599,1523.35,504.819,943.892,662.809,523.795,310.043,45.85,408.019,352.01,164.164,44.311,96.465,85.008,57.086,16.077,1.72,1.18,5.872,13.082,11.957,-11.37,-31.386,-5.124,-13.415,-9.76,-49.086,-26.946],[5411.975,6536.133,3025.122,1692.038,1774.033,1219.908,846.624,584.718,485.858,150.597,526.147,590.144,328.218,195.656,128.405,108.385,99.236,79.415,16.339,31.882,44.307,21.699,23.158,14.242,12.424,30.561,-20.618,-27.809,-33.193,-12.923],[6159.672,7319.23,5800.724,3544.584,1665.367,1367.063,1614.848,1150.135,506.037,428.546,593.834,842.167,571.001,215.305,210.116,107.154,105.532,87.155,59.032,46.315,60.827,72.013,42.575,12.589,7.929,10.51,-7.502,10.176,-15.895,-7.847],[6025.445,9482.657,6922.274,5042.206,2905.694,1207.143,1875.696,1525.555,871.456,733.222,626.139,925.153,816.656,498.617,248.092,109.316,168.758,108.979,56.392,5.668,40.62,49.263,53.112,22.626,2.176,21.853,6.11,1.605,20.739,-29.096]]
}