{
"KTrans": [[-0.734,5.46,8.756,5.818,10.692,9.777,13.809,13.302,9.243,8.71,16.977,21.764,15.738,14.114,16,151.625,98.894,81.227,71.092,69.391,316.194,214.599,168.184,158.323,151.122,766.825,566.029,435.25,372.355,359.582],[-23.828,-0.888,0.701,2.301,5.181,-18.83,1.251,6.244,6.539,6.42,-10.657,6.119,6.887,9.293,8.665,57.157,52.84,38.853,36.941,31.81,182.709,108.178,86.523,72.9,68.94,427.652,266.099,202.501,167.074,144.759],[-44.574,-10.181,-3.542,-1.503,-0.091,-39.668,-7.229,0.46,-0.353,2.167,-32.359,-4.073,1.682,3.53,3.591,14.612,31.081,29.285,25.352,24.986,101.372,91.918,69.262,53.89,48.516,259.011,211.101,151.17,127.296,110.938],[-55.99,-19.143,-9.215,-2.913,-1.781,-54.116,-12.208,-6.608,-3.429,-0.237,-48.551,-12.254,-3.664,-0.664,0.348,-9.055,24.1,22.762,22.126,17.61,51.926,71.365,56.734,46.518,39.933,202.048,167.81,136.114,108.872,91.464],[-63.825,-18.403,-10.049,-8.489,-5.429,-64.865,-18.798,-12.535,-6.271,-4.468,-61.162,-16.849,-6.703,-4.296,-1.125,-29.948,15.285,11.935,15.174,13.926,18.669,58.541,47.874,39.513,36.802,130.651,146.778,110.774,94.847,82.239],[-70.323,-26.088,-15.501,-12.138,-7.442,-65.928,-22.846,-10.953,-9.725,-5.089,-64.572,-19.376,-10.287,-6.416,-4.918,-40.919,3.098,8.792,9.979,11.448,-5.814,37.447,40.318,33.432,31.677,68.237,139.894,106.25,83.284,73.419]],
"ve": [[11.573,23.467,-43.903,45.621,-126.042,10.312,11.771,22.118,43.404,36.195,11.311,8.607,30.799,14.976,34.083,44.483,15.236,2.112,-3.546,-10.71,95.913,33.571,10.5,-4.378,-14.761,190.957,80.179,36.733,11.789,-5.331],[27.296,0.532,0.664,1.997,2.384,6.786,3.156,1.957,2.112,2.653,9.731,3.897,4.026,2.982,3.917,49.38,22.516,14.089,10.01,7.087,98.695,45.256,29.465,20.631,13.475,194.467,94.933,59.443,41.223,28.858],[3.193,-1.577,-0.376,0.16,0.239,5.716,1.292,1.565,0.342,1.514,12.611,2.576,2.533,1.823,1.471,50.33,22.683,14.426,11.205,8.434,96.574,46.438,30.039,21.291,17.617,202.518,95.976,62.219,44.967,34.251],[4.655,-0.418,-1.454,-0.708,-0.643,5.495,0.363,0.912,0.13,-0.053,14.435,2.475,1.447,1.209,0.614,39.058,21.218,14.879,10.492,7.946,98.522,46.986,30.331,22.257,16.94,202.12,95.687,63.164,45.788,35.883],[5.099,-1.038,-1.037,-1.611,-0.98,5.321,0.705,-0.65,-0.129,-0.113,11.569,2.903,2.324,1.196,1.135,48.538,23.33,14.64,9.725,7.893,98.884,47.203,31.024,22.228,16.9,197.169,96.998,62.99,46.139,36.806],[-3.987,-1.134,-2.15,-1.609,-1.277,7.891,0.9,0.462,-0.672,-0.269,11.1,4.921,0.943,0.649,0.916,38.841,22.635,13.881,9.965,7.597,98.127,46.357,30.731,21.453,17.696,195.764,94.776,63.336,45.906,36.441]],
"kep": [[-21.355,-14.92,-14.619,-22.09,-17.61,-16.495,-7.979,-10.447,-18.505,-20.436,-8.934,-1.414,-9.582,-12.91,-10.368,47.685,47.095,52.549,53.674,67.628,80.06,98.346,105.519,129.613,150.647,150.126,210.609,229.437,255.46,308.673],[-39.274,-16.823,-15.792,-15.601,-13.493,-35.764,-17.467,-12.387,-12.206,-12.732,-31.817,-13.839,-13.606,-10.774,-11.997,-11.703,4.85,2.132,4.626,3.453,19.651,20.363,20.793,20.251,24.966,50.248,57.366,58.94,58.461,59.179],[-55.118,-23.522,-18.764,-17.503,-16.366,-52.071,-22.969,-16.945,-16.713,-15.616,-50.117,-21.476,-16.887,-14.717,-14.353,-36.695,-10.19,-5.237,-5.531,-3.362,-12.613,9.766,9.082,6.277,5.791,1.393,32.68,29.613,31.36,31.639],[-65.339,-31.793,-22.65,-18.061,-17.143,-64.308,-26.483,-22.308,-19.153,-16.336,-61.636,-27.948,-20.323,-17.713,-16.443,-48.427,-14.174,-10.433,-7.388,-8.718,-36.866,-2.247,0.692,0.422,0.233,-15.416,14.542,21.077,19.926,17.97],[-70.951,-30.633,-23.792,-21.983,-19.979,-72.251,-32.159,-26.132,-21.335,-19.851,-70.581,-32.171,-23.636,-20.774,-18.113,-61.01,-21.471,-18.142,-12.071,-11.567,-50.229,-9.696,-5.472,-4.373,-1.975,-34.235,4.827,8.278,11.569,11.478],[-76.447,-37.228,-27.612,-25.172,-21.427,-73.931,-35.814,-25.571,-23.773,-20.258,-73.731,-35.351,-25.499,-22.112,-21.059,-67.465,-29.331,-19.852,-16.22,-13.28,-60.329,-21.084,-10.04,-8.006,-6.315,-52.616,3.185,5.671,5.135,6.394]],
"vp": [[306.344,657.069,271.206,145.537,154.652,-22.283,-8.849,137.171,5.859,45.201,-28.543,1.958,-1.4,20.799,-1.464,5.538,-4.412,-13.142,9.026,-0.032,-2.461,-10.542,-4.874,3.467,-2.92,-4.506,3.782,6.611,-3.412,-1.589],[3061.68,1120.172,-709.732,-771.232,602.259,572.707,275.687,15.172,-52.192,32.663,294.729,93.008,-26.327,-15.969,13.762,49.985,16.231,-3.572,3.907,3.19,26.481,6.817,-4.608,-9.064,5.77,8.868,2.617,-1.746,0.164,1.377],[4836.12,3183.653,1637.343,1160.05,247.287,1005.839,523.272,274.819,114.293,-3.814,493.783,291.414,169.1,61.432,-0.562,91.238,63.983,33.102,15.197,1.76,42.495,23.285,11.538,5.551,-10.724,21.375,6.551,0.371,1.959,-2.164],[6430.99,4797.617,2698.04,1968.915,510.557,1184.939,1123.416,502.62,217.416,246.476,575.75,462.422,128.578,176.228,12.974,112.364,94.658,51.331,31.225,27.012,67.633,40.54,22.065,11.876,5.673,31.837,21.458,12.483,3.06,1.658],[7218.157,7303.594,4456.649,1585.127,284.471,1285.685,1362.098,462.289,232.295,364.264,712.137,773.111,357.424,311.587,74.08,143.094,146.951,58.089,14.731,18.217,66.85,70.89,30.922,24.197,3.058,33.31,30.788,14.634,4.068,4.27],[7989.246,8807.559,5683.479,1892.121,1080.855,1593.514,1854.647,1241.664,574.276,378.513,788.571,919.332,457.89,252.383,75.791,144.323,162.024,115.215,36.757,21.192,70.368,74.59,53.655,21.174,7.622,39.21,40.572,26.73,4.352,1.852]]
}