{
"KTrans": [[2.046,1.844,1.542,0.952,1.36,13.629,7.685,6.746,5.512,5.59,27.513,16.073,12.206,12.012,10.82,160.445,94.663,75.537,66.309,59.923,403.302,223.26,175.253,153.857,142.219,1117.025,590.274,454.573,395.323,358.451],[4.403,1.472,0.509,0.211,1.118,9.12,5.845,4.646,3.157,2.989,21.861,11.466,8.629,6.569,5.771,132.62,63.983,45.746,35.999,30.797,325.117,146.259,98.302,77.665,66.265,853.083,354.667,232.763,181.237,151.862],[0.207,0.765,1.026,0.853,0.424,6.393,5.633,4.75,3.068,2.508,17.605,10.626,7.527,5.943,4.888,116.2,61.186,39.98,30.604,25.73,306.914,135.64,87.992,66.86,54.552,786.651,325.499,205.114,152.348,123.498],[-5.917,0.561,0.629,0.369,0.627,1.483,5.835,2.885,3.005,2.611,10.369,10.218,7.084,5.351,4.772,108.764,58.707,38.389,29.595,24.344,276.405,129.716,84.706,63.583,50.905,730.653,321.81,194.169,140.449,112.436],[-13.707,0.517,1.278,0.088,0.343,-2.019,4.612,3.766,2.892,2.169,4.079,8.942,7.12,5.201,4.439,93.182,56.459,38.228,28.586,23.297,239.684,129.989,83.044,60.847,48.956,676.291,308.558,191.533,137.339,107.217],[-15.523,-0.017,-0.08,0.194,0.108,-12.034,3.338,4.547,2.664,2.648,-3.573,8.183,7.169,5.191,4.675,85.482,54.915,37.527,28.467,22.148,220.928,124.19,82.598,59.21,48.058,624.511,314.032,185.245,134.329,104.53]],
"ve": [[1.811,0.573,0.327,0.038,-0.823,4.555,1.17,-1.384,-1.917,-4.321,8.327,1.424,-1.722,-4.335,-7.828,45.226,13.222,-1.339,-10.703,-18.544,93.72,33.667,7.836,-7.617,-18.62,191.993,78.787,34.848,10.275,-6.255],[0.403,0.368,0.162,0.226,0.168,5.721,2.422,1.455,0.839,0.376,9.949,4.741,2.533,1.689,0.731,49.21,23.596,14.455,9.223,5.443,98.861,47.758,29.467,19.429,12.61,199.129,96.656,60.915,41.242,28.548],[1.324,0.596,0.211,0.143,0.315,5.106,2.387,1.536,1.076,0.699,10.315,4.98,3.352,2.273,1.642,50.1,24.167,15.812,11.455,8.38,100.319,49.367,31.996,22.906,17.355,200.044,98.786,64.611,46.75,35.501],[1.544,0.587,0.302,0.171,-0.037,5.001,2.554,1.632,1.269,1.013,10.238,4.891,3.115,2.408,1.764,50.554,24.86,16.318,11.971,9.335,99.992,49.439,32.676,23.92,18.695,200.441,99.163,65.692,48.355,37.67],[1.237,0.636,0.31,0.249,0.194,5.805,2.612,1.751,1.157,0.982,9.921,4.774,3.327,2.486,1.934,50.346,24.986,16.686,12.167,9.511,100.456,49.743,32.921,24.49,19.353,200.964,99.339,65.904,49.055,38.789],[1.459,0.584,0.385,0.251,0.259,6.032,2.448,1.574,1.16,1.066,10.634,4.961,3.294,2.581,1.925,50.71,24.52,16.571,12.306,9.78,100.509,49.987,33.127,24.53,19.513,200.73,99.789,66.158,49.351,39.078]],
"kep": [[0.517,1.65,1.682,1.53,2.899,8.985,6.781,8.682,8.232,11.024,17.949,14.685,14.584,17.75,20.87,79.502,72.137,78.145,86.619,96.697,159.962,141.924,155.45,174.995,197.872,316.961,286.163,311.394,349.324,389.229],[4.146,1.138,0.371,0.008,0.982,3.3,3.369,3.19,2.333,2.628,10.818,6.453,5.969,4.831,5.022,56.055,32.738,27.361,24.54,24.07,113.976,66.689,53.182,48.782,47.669,218.81,131.23,106.808,99.129,95.949],[-1.076,0.19,0.825,0.718,0.119,1.307,3.207,3.183,1.984,1.807,6.64,5.412,4.049,3.596,3.204,44.164,29.834,20.883,17.192,16.021,103.288,57.792,42.441,35.771,31.706,195.619,114.07,85.368,71.97,64.953],[-7.251,0.001,0.334,0.209,0.671,-3.309,3.222,1.237,1.722,1.587,0.165,5.133,3.861,2.88,2.961,38.725,27.138,18.991,15.736,13.735,88.352,53.738,39.222,32.015,27.141,176.555,111.821,77.555,62.086,54.314],[-14.741,-0.113,0.985,-0.154,0.152,-7.392,1.984,2.007,1.722,1.184,-5.267,3.994,3.667,2.655,2.462,28.506,25.199,18.473,14.644,12.595,69.446,53.616,37.718,29.212,24.806,158.032,104.978,75.732,59.24,49.311],[-16.622,-0.554,-0.465,-0.053,-0.151,-17.013,0.903,2.952,1.49,1.572,-12.769,3.078,3.754,2.551,2.702,23.25,24.449,17.99,14.398,11.269,60.206,49.47,37.176,27.852,23.889,141.048,107.249,71.686,56.908,47.064]],
"vp": [[-19.795,-15.34,-49.634,-0.217,-4.531,-3.246,-1.184,8.085,2.703,-1.146,3.369,1.392,1.16,3.47,1.371,2.603,1.003,0.889,0.257,0.327,1.666,0.743,0.544,0.379,0.501,0.762,0.616,0.695,0.634,0.685],[124.674,-6.122,-28.896,12.145,8.1,21.655,11.156,14.65,-6.24,-6.163,18.357,6.796,-3.773,-0.699,0.796,4.555,0.74,0.688,1.244,-0.065,2.402,1.092,0.484,1.291,0.342,1.611,0.611,0.689,0.739,0.713],[586.777,78.004,43.245,-11.103,-8.689,108.879,8.101,4.325,-10.391,6.73,63.997,5.049,3.028,5.652,-7.244,12.182,3.162,-0.027,0.816,1.63,6.545,1.07,0.461,0.203,0.755,3.381,1.315,0.789,0.814,0.532],[1196.497,125.012,93.419,-18.308,-49.424,225.317,23.253,8.217,8.584,16.473,123.643,7.725,-1.898,0.411,1.924,22.731,4.115,2.106,1.435,0.835,12.543,2.08,1.53,0.626,0.782,6.926,1.485,1.037,0.779,0.346],[1822.327,253.088,92.965,49.814,3.221,386.369,36.085,5.914,13.271,0.716,181.092,21.288,8.462,-2.204,2.433,39.515,3.419,2.804,1.439,1.423,18.063,2.494,0.999,1.146,0.665,9.623,1.103,0.867,1.055,0.694],[2534.729,407.755,94.016,58.551,10.248,518.303,64.649,16.383,-1.757,4.527,249.84,36.162,10.017,1.297,1.592,50.092,8.17,2.1,0.829,0.723,26.446,5.265,1.474,1.033,1.097,13.412,2.872,1.03,0.977,0.915]]
}