{
"KTrans": [[11.55,8.408,5.278,4.774,1.883,4.209,5.351,6.268,7.366,5.995,6.577,4.843,5.799,5.693,6.757,10.374,9.913,11.771,11.498,9.399,11.896,16.601,13.37,15.303,13.391,31.962,27.096,24.085,22.324,22.274],[-27.271,-5.018,-0.496,2.312,4.236,-31.436,-4.965,-0.729,1.554,3.29,-22.294,-7.08,0.696,3.362,4.419,-27.599,-1.641,0.474,5.713,5.127,-28.493,1.742,5.28,6.509,7.242,-19.67,5.758,7.872,10.425,10.972],[-64.108,-15.232,-7.488,-2.829,0.109,-61.921,-20.174,-5.349,-1.387,-0.112,-64.992,-16.521,-6.713,-1.976,0.322,-61.49,-16.941,-3.688,-1.165,0.558,-59.099,-15.951,-4.471,-0.289,3.908,-57.307,-17.501,-4.932,2.366,4.093],[-77.666,-30.817,-16.818,-8.944,-3.298,-78.354,-33.416,-15.476,-9.059,-4.31,-80.005,-29.288,-14.417,-7.6,-3.494,-79.11,-32.122,-17.079,-7.287,-3.074,-76.098,-33.055,-17.18,-6.759,-1.966,-75.651,-37.405,-16.192,-5.22,-0.783],[-85.623,-43.059,-22.627,-12.561,-9.506,-89.461,-41.587,-23.361,-14.274,-8.458,-87.901,-44.419,-23.951,-14.393,-6.778,-84.542,-42.41,-24.792,-15.509,-9.164,-83.792,-50.079,-24.81,-14.013,-9.708,-82.449,-50.387,-27.757,-14.458,-6.844],[-93.846,-55.599,-31.198,-22.611,-13.389,-92.143,-54.498,-33.014,-22.185,-14.395,-93.19,-49.918,-34.772,-20.354,-13.559,-91.083,-56.111,-33.954,-21.161,-13.484,-89.853,-58.158,-36.022,-20.891,-14.43,-89.917,-62.078,-41.768,-21.972,-14.87]],
"ve": [[4.562,5.068,9.086,14.788,44.186,3.758,3.938,9.988,11.599,16.169,3.789,4.069,11.998,16.394,23.953,8.337,7.844,7.579,10.106,23.552,14.749,9.763,8.801,9.683,8.909,26.854,14.597,10.657,11.617,8.218],[-10.93,-0.34,0.365,1.124,2.065,-13.432,-1.815,-0.207,1.047,2.29,-9.264,-2.046,1.192,1.612,1.968,-5.46,3.03,2.255,2.862,3.533,-2.265,4.875,4.599,4.173,4.102,12.727,10.102,7.86,6.934,6.464],[-33.785,-6.014,-2.837,-0.922,-0.04,-32.221,-7.38,-1.729,-0.328,0.326,-33.196,-5.806,-1.984,-0.86,0.391,-24.369,-3.738,-0.199,0.558,1.032,-19.424,-0.151,1.66,1.78,2.757,-4.824,4.116,4.309,5.192,4.465],[-44.984,-12.284,-6.066,-2.927,-1.086,-45.891,-14.106,-5.71,-3.263,-1.322,-43.151,-11.394,-4.813,-2.53,-1.185,-40.054,-11.455,-4.428,-1.218,-0.42,-31.761,-8.792,-3.99,0.002,1.301,-21.997,-5.591,0.923,3.27,2.742],[85.988,-19.751,-8.181,-4.391,-3.361,-49.675,-18.194,-9.036,-5.078,-2.813,-54.689,-19.011,-9.321,-5.358,-2.137,-47.97,-15.976,-8.121,-4.187,-2.415,-39.635,-18.171,-6.37,-2.065,-1.811,-27.847,-13.785,-4.568,0.276,1.16],[-63.988,-26.755,-12.904,-8.651,-5.082,-67.369,-25.893,-13.455,-7.802,-5.155,-66.252,-22.73,-13.64,-7.419,-4.378,-58.625,-23.932,-11.924,-6.281,-3.189,-49.849,-22.552,-11.493,-5.051,-3.042,-36.439,-20.327,-10.537,-3.013,-1.389]],
"kep": [[-7.258,-7.748,-12.097,-14.661,-23.742,-12.455,-9.854,-11.087,-10.816,-14.537,-10.157,-10.044,-12.384,-15.424,-13.097,-11.103,-8.611,-5.757,-6.572,-11.698,-14.682,-5.714,-5.54,-3.715,-7.935,-8.751,-1.511,0.54,0.664,4.533],[-32.278,-16.436,-12.744,-10.838,-10.001,-34.334,-15.068,-12.552,-11.458,-10.988,-28.007,-16.951,-12.426,-10.402,-9.771,-36.102,-16.314,-13.575,-9.496,-10.515,-38.523,-15.029,-11.361,-9.939,-9.189,-38.709,-15.779,-11.972,-9.05,-8.16],[-56.024,-21.597,-16.273,-13.701,-11.863,-57.766,-25.362,-15.4,-12.921,-12.335,-57.788,-22.764,-16.417,-13.004,-12.036,-59.546,-24.71,-15.202,-13.524,-12.367,-58.144,-26.708,-17.44,-13.853,-10.953,-62.78,-30.892,-19.914,-14.384,-12.264],[-71.67,-32.208,-22.391,-17.509,-13.943,-71.702,-32.747,-21.547,-17.353,-14.634,-72.861,-31.44,-21.363,-16.648,-14.055,-73.663,-33.987,-24.075,-17.466,-14.343,-72.458,-37.063,-24.328,-18.017,-14.838,-74.004,-42.403,-27.165,-19.303,-15.013],[-80.912,-40.159,-26.298,-19.704,-17.611,-84.077,-39.863,-26.454,-20.7,-17.112,-82.807,-41.136,-26.711,-20.549,-16.226,-78.358,-41.898,-28.389,-22.497,-18.142,-79.474,-48.788,-29.822,-22.83,-19.129,-79.923,-50.282,-33.713,-25.102,-19.005],[-89.222,-48.905,-31.565,-25.751,-19.792,-87.211,-48.089,-32.77,-26.055,-20.651,-89.005,-45.198,-34.186,-24.581,-20.549,-86.596,-51.685,-34.614,-26.093,-21.42,-85.163,-54.244,-37.019,-26.929,-22.398,-86.663,-59.883,-42.986,-29.432,-24.105]],
"vp": [[-357.085,-417.644,-62.582,65,117.501,10.369,-12.627,-45.403,-65.743,-16.382,-9.877,1.765,-22.714,-12.9,-2.892,-0.542,-0.861,-3.234,-4.107,-1.141,0.024,-1.588,1.413,-0.546,-0.059,-1.103,-1.327,-0.778,0.135,0.385],[1234.377,131.684,63.9,-89.078,-410.769,320.459,79.349,52.718,15.626,-26.368,111.503,61.642,2.498,-30.802,-34.185,25.113,-1.377,3.945,-5.651,-5.342,16.335,1.66,-1.24,-3.142,-2.481,5.375,0.297,0.316,-0.615,-1.267],[3948.513,1213.659,726.327,359.332,-48.594,757.343,320.964,77.679,26.292,14.636,393.047,120.505,60.135,28.37,-3.85,70.369,24.839,8.933,5.235,4.708,34.989,10.188,4.154,3.212,-2.52,15.746,7.412,4.62,0.901,1.045],[5232.024,2632.912,1793.989,1128.918,335.788,1086.262,605.23,327.544,237.065,111.43,541.701,242.716,134.544,102.991,41.875,108.378,60.33,38.351,17.663,11.468,49.175,30.579,22.432,9.274,3.734,25.749,18.427,9.676,4.344,3.542],[6067.929,4386.992,2428.275,1540.758,1413.492,1398.916,817.463,541.719,387.136,238.033,659.474,426.489,279.588,208.548,70.958,122.115,81.1,59.024,42.594,31.224,58.625,53.389,30.213,18.768,17.892,28.99,26.605,18.009,10.78,7.375],[7606.452,5813.353,3994.36,3327.716,2180.926,1421.769,1136.094,825.479,622.298,487.64,758.65,500.902,434.847,281.778,207.965,144.93,116.658,84.804,59.817,38.833,70.264,61.429,47.559,29.507,24.483,34.941,35.124,29.063,16.75,13.984]]
}