{
"KTrans": [[0.678,6.502,-3.698,3.212,3.169,6.449,16.144,10.905,10.336,7.831,11.811,25.05,23.31,22.334,15.783,-3.667,57.686,86.783,93.374,93.276,-98.158,0.689,100.539,123.634,140.324,-19.675,-181.478,-47.884,35.762,83.399],[-22.645,-5.466,0.026,1.216,-0.049,-15.815,-1.826,2.291,4.772,2.782,-6.454,5.116,4.927,9.061,9.111,-24.728,24.199,-5.321,25.239,34.169,-1.306,-1.887,-55.744,13.766,44.054,-34.683,29.535,-95.221,-18.777,14.23],[-31.538,-5.594,-1.695,-2.995,-0.107,-30.1,-0.144,1.867,-2.038,1.476,-30.298,-0.102,5.612,2.606,1.524,-4.132,37.915,39.315,15.567,3.599,-23.234,31.539,9.538,14.168,-28.553,-7.977,-96.714,-34.687,-4.601,-27.502],[-44.286,-6.122,-2.294,-1.484,-1.81,-45.073,0.392,1.338,2.257,0.884,-35.447,1.956,7.876,5.414,4.005,-26.329,34.181,39.05,35.189,24.325,-39.532,24.016,30.221,34.629,-28.089,-43.151,-122.718,6.4,-99.191,-147.657],[-49.896,-9.754,-1.705,-1.75,0.17,-53.278,-7.237,1.875,3.131,3.658,-53.497,-3.643,3.607,4.475,5.057,-46.823,36.505,39.333,35.999,24.293,-59.787,-14.552,35.057,59.005,54.777,-44.914,-25.051,45.372,-50.003,-96.302],[-64.743,-10.95,-4.377,1.33,-0.357,-60.415,-9.074,-0.68,0.768,1.406,-56.538,-3.634,4.833,5.153,4.762,-44.337,5.743,36.356,32.682,29.661,-77.81,3.03,61.632,64.277,44.087,-90.922,-4.946,35.72,48.418,-16.067]],
"ve": [[-503.596,-35.769,-11.414,-26.551,-60.985,-8.536,-2.75,-34.614,-59.86,-106.246,-44.229,21.117,160.34,107.419,-29.442,42.402,21.057,-14.622,-47.224,-58.43,90.387,32.897,-12.022,-29.456,-66.68,197.789,90.226,32.304,0.737,-16.552],[-2.945,-2.887,3.032,6.318,19.49,-8.201,-9.842,-4.179,16.557,-1.406,8.108,39.031,3.391,2.428,3.546,47.328,28.119,17.382,-0.315,45.719,92.633,50.409,33.795,19.64,-3.27,204.883,95.204,66.575,41.496,26.589],[0.071,-0.567,-1.191,-3.53,4.814,-1.204,0.453,-1.362,16.334,2.444,0.724,2.198,0.874,1.539,-5.146,46.663,26.506,13.355,-1.363,7.787,91.999,45.964,33.2,24.22,19.362,195.697,102.061,70.3,49.702,39.38],[-3.754,-0.361,-0.598,-1.19,-1.833,-6.813,1.781,0.887,0.489,0.13,10.153,3.199,3.129,1.703,0.893,47.847,29.758,15.675,11.815,9.281,96.414,49.971,35.974,24.888,21.313,195.089,101.035,66.529,50.626,43.712],[-4.387,-1.717,-0.495,-0.574,-0.189,-3.821,0.982,1.087,0.906,0.445,6.959,3.113,2.657,2.21,1.617,46.696,22.685,15.601,12.459,9.188,71.561,49.544,40.386,29.082,22.483,194.045,97.783,68.224,48.934,42.563],[-71.874,-0.576,-0.386,-0.237,-0.036,3.412,1.397,0.7,0.489,0.635,7.737,3.813,2.884,1.356,1.967,39.664,23.33,15.46,12.866,9.726,94.14,48.607,27.958,23.834,19.645,191.077,99.037,68.38,49.798,39.936]],
"kep": [[-120.106,-41.715,6.433,-17.093,-6.682,-126.995,-66.196,-20.573,-23.06,-5.096,-126.727,-90.956,-57.19,-42.449,-25.646,-163.829,-243.558,-197.535,-199.861,-188.597,-163.738,-369.464,-365.973,-365.916,-374.754,-41.834,-285.921,-572.853,-684.19,-741.188],[-51.857,-45.731,-127.743,-32.318,-7.433,-43.017,-39.671,-127.578,-33.625,-9.402,-39.356,-32.408,-108.458,-55.449,-28.668,-75.932,-38.065,-180.189,-173.236,-93.12,-64.293,-61.194,-217.774,-259.977,-206.76,-72.714,-21.108,-137.679,-194.851,-341.565],[-49.939,-15.368,-13.018,-44.885,-119.761,-50.586,-9.074,-9.825,-48.117,-123.553,-53.793,-12.776,-5.871,-30.182,-125.975,-46.631,-1.998,23.272,-23.453,-137.866,-63.856,-24.253,-41.3,-31.412,-186.306,-65.908,-94.649,-69.169,-69.956,-77.384],[-60.112,-13.147,-7.362,-8.349,-13.569,-62.118,-6.898,-4.596,-1.256,-5.162,-54.641,-8.421,4.057,2.617,-1.551,-63.838,-3.294,16.942,27.149,16.889,-73.083,-28.81,-16.118,4.363,-107.574,-74.221,-100.339,-41.408,-117.713,-222.583],[-65.777,-18.02,-5.136,-4.213,-3.754,-68.635,-15.297,-1.476,1.069,4.127,-70.535,-15.185,-1.719,2.257,4.533,-72.872,-3.151,19.182,25.084,18.497,-81.18,-52.687,-10.012,23.997,35.166,-77.764,-58.277,-19.203,-74.718,-135.386],[-76.12,-17.253,-7.27,1.255,-3.651,-72.322,-18.051,-5.88,-2.062,1.158,-72.61,-14.873,-2.136,0.337,4.654,-71.211,-23.527,11.261,19.88,23.084,-87.786,-40.612,10.592,28.166,21.823,-91.704,-55.265,-31.997,-10.187,-53]],
"vp": [[91.711,221.543,175.699,697.141,120.594,-12.144,62.724,-3.285,80.693,65.434,-33.638,2.076,23.679,13.665,12.087,-9.946,-10.143,9.861,0.233,-0.362,-9.055,5.275,6.126,-3.697,-12.984,-22.699,8.991,4.779,-2.061,2.879],[2370.103,334.055,327.272,-425.404,182.021,434.694,79.374,-5.646,-5.118,16.474,193.932,73.891,-5.269,-48.725,-17.645,36.101,10.465,3.473,-8.058,-12.805,13.455,-12.816,6.434,-10.325,8.593,-1.086,-24.88,0.558,2.665,2.146],[3888.148,1348.514,601.553,375.655,36.48,863.266,311.937,203.635,112.941,21.368,416.063,158.829,34.725,9.306,13.575,43.782,22.995,-19.481,-0.979,-8.25,11.603,-23.644,-7.002,-20.271,1.128,-8.779,-3.066,-7.331,-30.3,1.461],[5280.033,3056.564,874.371,673.335,684.325,1111.471,655.463,423.077,104.161,102.816,530.837,312.92,120.421,39.604,21.228,95.374,39.739,14.624,27.424,-5.973,13.853,17.185,9.898,-23.157,13.688,1.402,-5.554,-8.402,-21.541,-3.52],[6632.655,4747.091,1997.996,352.542,555.817,1289.764,835.053,518.033,63.387,109.512,628.773,466.095,139.037,53.503,34.748,95.476,105.191,28.008,9.603,-5.715,36.218,29.184,5.028,4.375,6.016,5.164,-12.025,-1.173,-22.179,-0.85],[6346.069,7013.675,3011.386,1249.283,842.667,1283.319,1131.576,544.179,226.682,25.503,696.393,623.951,318.058,105.631,25.396,120.973,109.082,70.528,19.907,6.82,45.698,43.494,29.351,0.238,-27.788,21.896,12.07,10.514,-14.228,-13.057]]
}