{
"KTrans": [[0.788,33.622,25.406,33.696,30.627,12.365,47.611,27.189,34.793,42.145,21.384,41.015,52.31,38.431,38.469,143.619,171.165,123.821,115.454,106.81,386.153,250.937,231.739,179.784,193.929,752.19,727.923,585.543,528.984,450.262],[-77.808,47.939,74.817,41.678,36.927,-77.957,62.617,63.059,58.261,50.58,-71.179,11.044,60.198,69.741,43.39,-97.903,163.964,136.632,103.877,81.851,-23.424,235.538,197.053,163.557,125.704,72.511,539.954,400.762,275.237,244.793],[-112.821,-61.77,84.436,85.092,58.414,-96.683,-22.324,123.474,96.142,74.537,-107.311,-26.52,114.624,88.529,57.658,-119.863,-11.959,154.521,121.017,93.386,-128.108,22.487,211.027,187.653,148.467,-145.301,124.834,365.688,341.512,249.954],[-108.459,-98.84,14.237,111.332,109.307,-109.52,-80.609,9.449,141.096,105.393,-112.644,-120.901,58.466,152.683,117.554,-112.749,-110.868,103.598,167.253,152.34,-109.281,-24.307,135.576,202.774,164.823,-138.486,-98.419,267.815,359.845,298.806],[-105.324,-118.118,-49.63,87.641,137.477,-106.137,-128.868,-33.906,74.417,138.356,-108.623,-132.089,-46.017,107.458,120.792,-115.04,-129.221,-16.094,144.874,208.489,-117.087,-141.811,-42.869,204.999,185.681,-78.681,-194.768,74.667,349.87,331.444],[-108.462,-117.901,-120.244,-30.317,144.107,-107.484,-142.728,-126.91,-1.114,123.197,-102.287,-115.852,-60.501,-39.808,128.073,-115.809,-130.026,-108.026,8.283,177.011,-114.142,-126.427,-136.362,62.133,279.772,-155.096,-192.359,-158.475,170.665,405.755]],
"ve": [[22.129,-107.764,-382.874,303.18,-245.748,32.049,13.09,8.333,65.474,-155.304,28.797,15.594,195.926,69.109,319.233,70.715,25.983,5.612,-3.503,-8.984,104.973,42.088,13.437,-8.05,-17.123,199.24,87.698,38.566,14.275,-5.063],[28.404,7.27,4.509,1.593,4.122,24.118,10.081,3.767,4.523,4.318,8.574,7.393,7.076,6.451,2.575,41.244,31.365,17.287,13.347,7.048,112.131,56.717,34.954,24.273,12.13,184.28,103.504,64.293,43.764,31.674],[3.64,1.798,5.581,1.879,2.968,24.748,5.379,8.465,6.575,3.38,19.952,15.19,7.853,3.604,1.797,44.662,39.466,19.044,12.336,8.587,100.483,51.482,35.022,25.259,20.412,196.027,110.294,67.824,50.937,40.307],[15.602,3.024,8.569,5.199,3.949,8.346,9.022,1.367,5.072,4.954,8.554,16.317,8.803,7.472,5.039,46.5,35.417,17.5,13.64,13.575,97.417,55.715,36.127,25.255,18.384,223.674,103.857,71.043,50.774,42.104],[11.273,-4.428,13.251,0.656,-0.048,10.174,4.493,7.337,5.239,5.102,15.654,10.655,10.236,7.806,10.104,79.483,37.418,17.622,17.014,15.037,67.36,50.65,35.05,29.847,18.704,196.704,106.556,76.538,52.526,40.812],[-20.46,-24.289,9.844,0.223,4.762,11.169,-10.698,5.502,3.734,3.773,22.217,10.163,7.561,3.854,4.095,13.693,43.654,20.383,13.001,14.566,94.98,51.75,38.841,27.107,23.239,223.799,116.529,71.114,55.99,42.924]],
"kep": [[-18.284,28.933,21.157,40.21,47.515,-12.42,42.863,29.837,37.326,70.1,-11.3,32.511,58.851,45.983,53.654,47.819,119.879,124.477,140.585,149.063,130.421,152.601,196.807,206.802,259.259,184.008,341.675,396.088,454.743,481.734],[-84.076,30.018,62.508,35.355,32.183,-86.788,40.532,52.117,48.978,45.409,-78.796,-1.305,43.262,57.645,38.555,-103.175,94.451,98.964,76.544,65.188,-65.479,112.75,115.872,108.654,95.19,-44.423,211.073,199.167,155.362,156.778],[-111.44,-67.518,66.826,72.724,47.795,-100.253,-35.029,97.905,78.348,62.426,-107.346,-36.186,88.412,72.208,47.794,-112.026,-36.618,101.874,84.713,69.058,-114.004,-21.055,120.734,117.773,99.448,-112.066,1.411,170.365,185.376,142.491],[-108.567,-98.737,0.51,91.098,92.235,-109.175,-86.226,-3.523,115.872,87.282,-109.711,-119.672,36.873,122.807,97.301,-108.504,-107.65,60.455,120.784,113.123,-103.593,-55.424,63.477,127.744,109.591,-112.355,-99.579,106.871,193.42,172.27],[-105.221,-115.556,-56.914,69.702,113.812,-106.161,-125.607,-43.707,55.264,114.149,-106.765,-127.349,-53.471,81.295,94.71,-109.471,-121.218,-32.277,98.813,158,-108.321,-124.188,-58.504,126.028,124.02,-90.967,-145.508,-2.516,182.9,190.724],[-108.648,-115.052,-117.898,-37.125,119.695,-106.571,-136.485,-125.937,-13.904,98.936,-102.265,-113.698,-67.818,-48.414,101.94,-110.015,-122.071,-104.862,-10.07,130.057,-106.145,-113.487,-124.392,19.661,191.642,-117.926,-143.047,-132.98,66.968,238.391]],
"vp": [[0.001,0.001,0.001,0.001,0.001,0.005,0.005,0.005,0.005,0.005,0.01,0.01,0.01,0.01,0.01,0.05,0.05,0.05,0.05,0.05,0.1,0.1,0.1,0.1,0.1,0.2,0.2,0.2,0.2,0.2],[0.001,0.001,0.001,0.001,0.001,0.005,0.005,0.005,0.005,0.005,0.01,0.01,0.01,0.01,0.01,0.05,0.05,0.05,0.05,0.05,0.1,0.1,0.1,0.1,0.1,0.2,0.2,0.2,0.2,0.2],[0.001,0.001,0.001,0.001,0.001,0.005,0.005,0.005,0.005,0.005,0.01,0.01,0.01,0.01,0.01,0.05,0.05,0.05,0.05,0.05,0.1,0.1,0.1,0.1,0.1,0.2,0.2,0.2,0.2,0.2],[0.001,0.001,0.001,0.001,0.001,0.005,0.005,0.005,0.005,0.005,0.01,0.01,0.01,0.01,0.01,0.05,0.05,0.05,0.05,0.05,0.1,0.1,0.1,0.1,0.1,0.2,0.2,0.2,0.2,0.2],[0.001,0.001,0.001,0.001,0.001,0.005,0.005,0.005,0.005,0.005,0.01,0.01,0.01,0.01,0.01,0.05,0.05,0.05,0.05,0.05,0.1,0.1,0.1,0.1,0.1,0.2,0.2,0.2,0.2,0.2],[0.001,0.001,0.001,0.001,0.001,0.005,0.005,0.005,0.005,0.005,0.01,0.01,0.01,0.01,0.01,0.05,0.05,0.05,0.05,0.05,0.1,0.1,0.1,0.1,0.1,0.2,0.2,0.2,0.2,0.2]]
}