{
"KTrans": [[2.515,0.451,1.766,0.648,1.336,10.157,7.248,6.926,6.537,4.845,26.234,16.664,13.458,10.995,10.655,75.082,85.106,73.641,65.81,59.587,53.594,37.226,132.215,123.602,113.422,165.086,-61.474,89.005,74.692,82.944],[0.666,0.456,1.182,0.657,0.757,10.122,5.448,4.218,3.694,3.086,20.114,11.779,7.959,7.223,6.176,0.361,77.564,44.623,37.161,31.448,43.913,-25.127,98.737,73.715,65.536,94.309,18.07,17.325,53.405,108.116],[8.632,1.239,0.716,0.555,0.517,22.731,5.429,3.399,2.775,2.607,7.939,13.044,7.206,5.705,4.713,-34.552,67.986,39.035,31.132,26.828,-6.698,-46.901,60.566,70.102,54.909,54.157,-8.864,54.206,15.675,89.161],[-21.747,3.475,1.944,0.28,-0.522,-42.968,6.226,5.876,3.036,2.058,-46.368,15.012,6.193,5.248,4.891,-33.679,4.265,55.902,31.76,22.841,-5.393,-24.083,16.944,70.697,54.72,-14.995,27.395,21.894,-39.953,58.778],[-69.785,11.956,-0.386,0.705,1.162,-54.347,15.639,1.816,2.963,1.075,-62.4,14.828,8.038,5.933,2.872,-45.121,-30.683,51.892,32.625,23.012,-33.595,-23.395,-4.331,75.917,63.834,-22.647,-4.047,-15.069,-15.733,-118.783],[-74.237,2.047,-3.103,1.238,-0.96,-83.91,2.006,4.54,1.144,1.085,-75.221,22.772,13.208,7.01,5.246,-71.631,-28.057,77.139,43.922,23.931,-59.916,-17.051,20.044,57.296,62.194,-49.81,-10.107,0.084,13.575,46.101]],
"ve": [[0.916,0.944,0.229,1.157,0.828,4.854,1.38,-0.911,-2.247,-2.802,8.378,2.11,-1.608,-3.809,-6.168,45.612,15.467,0.32,-9.63,-16.894,95.454,41.977,7.894,120.052,-31.257,191.744,82.29,33.805,18.966,-11.056],[1.749,0.459,0.41,0.123,0.316,5.499,2.181,1.537,0.991,0.608,9.671,4.518,2.819,1.674,0.886,49.473,25.027,14.917,9.815,5.908,97.354,50.299,32.944,20.162,13.952,191.865,99.745,64.758,45.109,50.034],[1.681,0.352,0.094,0.098,0.075,5.882,2.618,1.38,1.173,0.757,10.014,5.246,3.099,2.141,1.722,51.531,25.383,15.807,11.524,8.733,100.182,49.797,28.81,23.92,17.696,197.957,101.14,66.453,49.381,39.616],[1.736,0.675,0.566,0.138,0.11,0.641,2.611,1.793,1.266,0.91,9.272,5.123,3.184,2.273,1.838,49.633,24.714,17.272,12.244,9.304,100.347,51.861,33.818,24.613,19.88,207.957,99.72,65.713,49.608,37.588],[3.639,1.219,0.418,0.37,0.29,7.599,3.046,1.613,1.329,0.811,11.6,4.814,3.313,2.595,1.794,49.666,26.01,16.75,12.424,9.625,95.046,50.427,32.361,29.758,20.337,202.966,99.283,68.922,49.099,41.436],[-0.228,0.166,-0.139,0.23,0.102,7.669,2.063,1.519,1.106,0.856,12.139,5.245,3.547,2.707,2.106,48.187,26.222,17.607,13.155,9.803,71.051,51.19,33.635,24.37,20.164,208.041,101.258,68.792,50.104,38.775]],
"kep": [[1.408,-0.609,1.579,-0.426,0.845,4.849,5.69,7.804,9.121,8.16,16.261,14.068,15.179,15.451,17.908,20.725,60.054,72.982,83.751,92.314,-6.198,1.025,106.398,127.811,147.388,14.989,-35.774,53.847,68.467,96.038],[-1.633,-0.334,0.434,0.201,0.112,3.699,2.851,2.296,2.332,2.126,8.646,6.56,4.635,5.106,4.887,-28.994,39.613,25.061,24.336,23.666,-21.111,-39.698,49.207,43.586,44.499,-26.73,-25.791,-17.887,8.854,57.336],[4.619,0.406,0.262,0.104,0.092,13.547,2.231,1.612,1.234,1.483,-4.07,6.857,3.585,3.12,2.575,-51.961,30.917,19.029,16.88,16.098,-48.414,-55.008,19.763,35.555,30.553,-42.938,-42.92,0.663,-15.99,36.238],[-24.604,1.906,0.917,-0.238,-0.986,-46.562,2.704,3.543,1.363,0.77,-50.738,8.399,2.414,2.507,2.624,-54.121,-15.671,30.949,16.559,11.832,-49.792,-44.229,-10.164,34.566,27.67,-66.675,-30.002,-20.891,-47.954,14.988],[-69.639,8.83,-1.424,-0.09,0.481,-56.873,10.312,-0.442,1.154,-0.124,-64.81,7.481,3.911,2.774,0.667,-61.597,-42.074,27.595,16.827,11.553,-64.501,-44.647,-24.085,37.137,34.122,-70.684,-46.187,-42.237,-36.195,-99.398],[-73.69,-0.663,-3.879,0.422,-1.489,-83.571,-2.498,1.763,-0.595,-0.217,-76.245,13.28,8.243,3.59,2.616,-78.781,-41.57,46.383,25.522,12.048,-77.7,-42.817,-9.53,22.937,32.657,-80.11,-50.035,-33.764,-19.521,6.3]],
"vp": [[-27.035,-13.272,17.804,-27.252,-187.79,-44.524,-4.518,-11.344,22.961,-33.923,-21.486,-26.98,-5.496,-28.565,-8.999,-41.547,-21.427,-2.21,-2.395,-3.9,-49.983,-0.529,-16.9,7.267,-7.177,-54.22,7.364,-9.452,-14.456,-9.948],[563.188,89.928,82.252,-103.964,-99.662,75.157,37.042,-20.196,4.078,-26.005,15.442,-12.739,-11.828,-5.702,-7.659,-15.253,-35.544,-42.118,0.844,-7.85,-46.949,-34.442,-18.898,-32.74,-5.909,-35.794,-31.069,-50.414,-1.882,-18.071],[1784.366,435.715,93.172,51.687,61.067,402.434,66.517,11.131,5.317,-3.52,138.629,32.99,36.796,-30.496,-17.277,-0.097,-24.705,-38.256,-33.655,-16.363,-34.601,-46.659,-46.738,-32.608,-38.968,-39.695,-23.097,-39.037,-33.531,-25.425],[3610.448,944.543,333.215,188.756,53.492,572.776,225.942,105.043,78.619,2.74,239.862,101.061,28.254,17.913,4.988,-11.913,-5.731,23.516,-5.328,-27.124,-27.772,-19.504,-33.745,-33.424,-35.158,-21.168,-40.372,-53.625,-24.38,-40.575],[4057.629,1602.609,601.933,586.79,620.277,693.561,189.621,78.741,170.746,95.499,262.27,29.286,87.359,105.656,13.856,7.285,14.921,1.523,4.984,-6.29,-38.015,-6.195,-46.177,-15.156,1.072,-27.595,-39.577,-44.67,-49.133,-31.385],[4421.265,2098.385,1068.214,1376.275,612.71,1128.785,462.746,272.568,195.364,158.25,357.136,216.613,191.379,139.542,93.429,73.124,22.168,11.551,23.933,16.819,-9.714,-5.3,-31.836,-15.074,-6.674,-37.879,-40.107,-13.456,-54.058,-43.331]]
}