{
"KTrans": [[0.955,20.26,17.23,13.915,16.386,15.692,11.966,27.742,18.912,13.35,27.051,32.388,18.346,26.154,28.504,93.006,97.799,73.41,77.588,79.54,66.277,156.435,167.769,143.261,147.305,207.184,239.701,242.676,266.337,232.996],[-37.109,-3.013,-0.578,8.132,5.051,-36.677,0.819,3.218,8.492,9.635,-31.16,4.68,7.176,11.327,11.854,-14.549,32.769,32.594,36.199,33.959,55.695,84.151,77.424,71.618,71.333,-1.305,-0.637,139.115,142.698,126.117],[-56.153,-15.625,-10.865,-3.567,1.512,-49.441,-19.704,-8.825,-2.013,3.491,-49.698,-12.227,-4.754,0.986,6.756,-34.101,9.556,26.908,21.878,18.707,-64.148,34.695,57.572,49.235,51.152,-23.384,-29.032,76.418,91.849,96.168],[-66.396,-31.704,-18.624,-9.098,-6.058,-66.594,-26.417,-14.905,-9.467,-4.799,-67.287,-23.678,-10.305,-5.631,-3.126,-48.445,-0.435,10.697,8.517,10.846,-37.532,9.216,25.549,28.496,39.445,-50.821,27.11,48.998,72.398,85.039],[-77.613,-34.773,-21.526,-16.011,-10.886,-73.886,-34.009,-19.442,-15.255,-7.542,-72.133,-26.427,-20.995,-12.042,-8.794,-60.348,-13.598,-1.415,4.695,8.897,-63.616,-8.943,22.498,23.37,21.576,-59.13,-37.388,8.531,60.584,57.49],[-81.056,-45.298,-26.265,-20.892,-16.682,-76.08,-32.561,-25.715,-20.185,-11.739,-81.738,-39.031,-25.145,-17.551,-10.867,-68.155,-24.275,-4.717,-5.76,-0.349,-78.026,-13.781,18.018,13.323,17.651,-65.129,-63.251,-27.024,44.144,52.974]],
"ve": [[36.506,18.933,120.549,-220.424,-217.653,12.629,33.969,1.408,510.99,21.855,40.929,6.465,-41.229,-78.198,12.881,2824.444,38.625,42.829,102.72,17.714,121.187,63.554,7.066,105.905,3.683,171.793,76.854,30.335,11.393,-2.545],[-22.665,1.233,3.243,6.436,11.699,20.834,3.928,6.011,6.724,12.54,34.765,5.145,2.645,7.111,9.897,32.807,21.489,15.516,13.257,13.004,87.553,48.958,30.703,22.64,15.117,185.084,90.594,-480.884,45.854,33.708],[11.568,-3,-1.942,-0.153,0.523,12.613,0.883,-0.172,-0.909,1.485,14.933,3.672,1.879,-0.204,1.918,50.641,20.529,12.794,9.47,8.808,93.571,48.257,31.08,21.135,17.596,181.527,92.114,62.498,65.187,36.496],[6.646,-2.742,-2.653,-4.325,-0.907,11.613,0.585,-0.381,-0.536,-0.998,19.585,0.238,-0.034,-0.415,0.302,51.473,23.699,11.058,8.286,7.028,91.298,42.199,28.28,21.036,17.114,185.706,87.904,61.189,44.91,38.056],[3.639,-3.673,-4.267,-3.582,-2.708,12.887,0.02,-2.857,-2.72,-2.33,11.961,1.384,-2.258,-1.987,-0.914,49.836,19.944,11.502,7.47,6.721,93.1,43.888,27.028,19.702,16.182,185.962,93.239,58.605,42.068,34.098],[-2.9,-5.528,-3.817,-3.933,-4.049,20.527,0.215,-2.626,-3.298,-1.563,26.84,3.228,-1.773,-2.945,-1.998,42.502,20.366,11.736,5.784,5.471,82.991,43.331,28.058,19.788,15.249,183.831,88.129,44.066,42.412,33.593]],
"kep": [[-41.709,-25.505,-33.983,-47.555,-47.312,-31.794,-37.843,-21.932,-37.59,-56.834,-24.859,-21.64,-38.863,-37.442,-31.934,-13.872,13.618,-1.476,12.345,24.918,-43.291,20.658,56.199,53.519,81.114,-18.426,24.219,64.204,106.883,110.154],[-60.088,-33.673,-33.708,-30.748,-35.187,-59.441,-33.701,-34.029,-30.762,-31.885,-60.527,-32.141,-29.101,-29.499,-30.393,-62.441,-26.459,-22.652,-18.759,-19.556,-44.409,-16.424,-9.411,-5.926,-0.12,-69.023,-58.887,-1.378,10.451,13.281],[-73.781,-40.098,-38.997,-35.058,-32.133,-69.491,-45.77,-38.561,-33.764,-31.612,-70.391,-42.513,-37.191,-32.033,-29.782,-70.479,-38.714,-24.592,-25.623,-27.143,-83.605,-39.212,-20.357,-18.053,-14.391,-78.283,-69.952,-26.638,-11.729,-4.975],[-79.273,-52.411,-43.813,-36.239,-36.646,-80.036,-50.575,-42.544,-39.076,-35.629,-81.303,-48.691,-39.941,-36.503,-35.529,-76.825,-46.08,-33.519,-33.257,-30.986,-76.517,-48.882,-35.024,-29.297,-20.879,-84.98,-53.789,-37.71,-21.164,-11.51],[-86.575,-54.379,-45.202,-41.741,-38.9,-85.113,-55.165,-44.245,-41.863,-36.822,-84.325,-51.362,-45.883,-40.132,-38.465,-81.771,-51.687,-40.987,-35.136,-32.089,-85.59,-56.847,-36.203,-31.508,-30.424,-87.824,-74.576,-52.905,-26.213,-22.651],[-89.296,-61.189,-48.818,-45.053,-42.097,-86.78,-54.915,-49.034,-44.829,-40.295,-89.819,-60.267,-48.919,-43.237,-39.413,-85.165,-58.56,-43.38,-40.741,-37.151,-90.433,-61.025,-39.276,-37.235,-32.264,-89.456,-82.653,-66.845,-33.661,-24.912]],
"vp": [[-94.948,-333.259,914.054,682.738,-436.469,-0.876,-85.625,-59.835,-30.854,129.798,-8.878,45.253,53.195,108.065,109.369,-6.325,5.716,27.435,-1.573,1.545,-10.086,-13.91,-14.725,-10.782,-15.542,-21.753,-1.795,-12.639,-16.395,15.693],[2647.636,1071.573,-101.45,521.615,-400.846,501.352,118.871,208.279,-187.393,54.112,280.625,153.558,-43.192,76.396,-58.137,49.492,-0.248,-35.535,-17.43,-2.781,-7.332,-13.041,-9.89,-11.557,-11.799,-16.067,-25.422,-7.449,8.87,-12.853],[3941.254,3868.028,1851.584,1520.544,-140.667,916.561,525.231,390.992,267.633,1.478,442.597,399.472,179.166,65.245,-84.22,71.525,24.437,49.284,-6.01,-13.75,35.567,13.675,25.215,-11.885,31.359,-1.551,-3.088,-13.087,-18.982,-4.173],[6419.815,5478.389,3879.799,1984.891,1788.531,1032.429,1320.194,747.11,490.129,230.058,430.989,564.811,376.786,295.266,106.723,92.441,129.231,45.015,-4.56,23.623,22.587,29.186,0.259,9.102,17.933,-6.091,-0.881,-3.616,-27.77,-1.677],[6190.627,6485.52,6154.763,3929.843,2983.096,1429.5,1468.709,844.19,787.332,262.338,592.912,862.886,505.544,289.206,203.747,103.938,148.977,110.729,83.21,66.539,23.533,49.273,16.842,8.647,41.844,-0.229,17.744,-20.49,-9.249,-22.189],[7178.972,8715.03,6445.938,4987.201,2940.592,1313.315,1987.702,1619.444,733.182,868.868,660.684,833.35,710.572,532.87,274.939,108.856,165.189,176.288,84.715,93.863,56.624,82.23,64.663,31.622,17.863,11.071,1.151,-4.853,-2.487,-19.917]]
}