{
"KTrans": [[-17.186,0.459,3.086,7.791,11.794,-26.995,9.407,1.133,11.321,4.885,-9.604,19.501,2.791,13.977,10.033,8.135,9.372,12.505,3.42,9.158,71.104,46.631,22.821,16.561,11.226,60.637,88.196,70.896,51.392,53.019],[-77.149,-11.166,-4.147,9.505,1.911,-85.154,-8.414,7.237,0.776,0.348,-81.284,-13.753,11.434,4.606,-0.982,-70.075,3.001,9.631,2.117,5.787,-67.017,21.439,20.617,12.336,15.402,-46.516,41.861,35.95,29.288,25.829],[-92.731,-44.441,-5.397,0.55,1.1,-91.305,-43.36,0.841,5.212,2.612,-90.05,-28.718,1.098,-0.838,0.486,-93.449,-29.899,-2.175,5.308,4.178,-89.967,-10.369,16.481,13.114,7.825,-87.353,3.483,22.83,27.832,18.17],[-94.951,-66.158,-13.535,-4.285,-0.98,-97.677,-59.283,-14.726,1.556,4.407,-97.209,-70.318,-20.545,-0.326,1.711,-97.094,-61.172,-5.313,0.05,3.787,-91.981,-43.076,21.082,16.181,4.082,-92.871,-49.766,31.572,33.679,28.888],[-97.286,-81.075,-39.063,1.248,-0.563,-97.356,-80.159,-30.767,-5.897,2.201,-98.059,-81.232,-29.501,-3.567,-0.296,-94.829,-79.574,-21.189,1.524,2.097,-96.563,-71.068,1.104,13.565,11.657,-91.799,-65.551,7.541,37.309,25.5],[-98.43,-89.809,-53.265,-13.202,-3.57,-97.356,-89.41,-47.9,-11.144,3.505,-99.38,-87.876,-52.66,-3.669,0.457,-97.788,-87.373,-53.955,-0.033,9.045,-97.407,-81.578,-28.096,16.806,15.899,-92.467,-76.827,-22.604,21.626,29.713]],
"ve": [[-12.49,23.587,-24.905,-10.986,1726.195,-16.85,-1.209,110.67,-71.252,35.557,-2.675,9.083,-43.734,-2855.639,36.907,28.782,-95.747,-8.744,1.619,-124.026,33.223,-1.654,4.906,-65.686,-43.805,32.591,21.894,11.855,-17.941,-22.658],[-48.544,-3.783,-2.091,0.401,1.243,-32.059,-5.972,0.869,-0.489,-0.516,-62.176,-7.47,1.68,0.92,0.131,-54.04,2.25,2.731,1.411,3.533,-37.032,17.428,3.473,8.508,8.099,-37.052,6.186,9.229,-7.261,-4.382],[-78.974,-18.573,-4.974,0.816,-0.145,-51.711,-23.98,-2.295,0.325,-0.273,-70.474,-18.007,-2.551,-1.257,-0.74,-64.338,-13.903,-4.108,0.895,0.635,-93.309,-11.754,6.472,3.041,1.531,-82.682,-10.402,-5.584,-32.32,10.465],[-72.749,-48.999,-9.428,-3.064,-1.472,-54.917,-47.671,-12.085,-0.55,-0.863,-99.63,-45.557,-12.18,-1.474,-2.97,-233.881,-34.511,-6.473,-3.262,0.191,-88.788,-45.787,6.716,4.68,-2.083,-73.946,-39.332,9.74,7.102,9.801],[-34.517,-61.445,-24.73,-4.857,-2.452,-97.644,-55.648,-18.743,-4.908,-0.74,-68.323,-61.922,-20.931,-5.262,-3.42,-82.136,-67.769,-13.413,-5.379,-2.209,-60.073,-65.047,-9.649,1.812,0.129,-51.23,-57.273,-4.216,6.128,8.934],[-110.135,-68.353,-33.581,-9.737,-3.782,191.353,-87.774,-30.574,-9.922,-2.193,-63.998,-72.327,-37.223,-5.346,-1.784,-96.466,-75.747,-38.39,-4.98,-1.302,-97.83,-60.761,-20.746,-1.728,0.73,-71.698,-60.983,-21.946,9.281,4.715]],
"kep": [[-28.161,-4.084,-5.788,4.567,13.899,-40.407,-1.89,-2.243,11.158,1.533,-32.986,11.246,-2.652,19.927,17.203,-17.488,-6.706,3.799,-9.541,10.549,12.897,17.658,-2.189,-0.295,-5.34,41.079,62.31,42.432,27.103,40.493],[-78.526,-10.047,-2.356,8.994,1.632,-85.368,-5.619,5.82,1.703,1.824,-84.563,-9.211,9.137,3.742,-0.362,-73.453,-2.606,4.619,0.268,4.643,-63.203,2.073,10.706,6.861,8.657,-39.074,19.861,7.736,9.893,7.877],[-94.729,-36.769,-2.608,-1.199,0.902,-92.961,-36.844,-0.231,3.901,2.525,-91.343,-24.464,1,-0.047,0.811,-91.368,-27.791,-2.316,2.592,2.629,-80.119,-14.399,2.581,4.895,4.244,-71.581,-12.78,4.109,3.606,4.313],[-97.636,-60.935,-9.586,-2.925,-0.136,-100.216,-58.776,-6.542,-0.151,4.249,-98.126,-62.227,-14.171,-1.281,4.391,-98.014,-52.481,-4.333,-0.201,2.895,-94.492,-43.489,7.404,5.288,3.329,-84.02,-37.055,6.69,13.704,12.713],[-97.696,-74.3,-27.605,3.565,0.691,-99.199,-74.448,-19.32,-3.51,2.278,-99.689,-74.185,-20.044,-1.082,2.091,-94.883,-70.265,-16.389,3.406,3.156,-95.311,-64.117,2.85,4.722,9.564,-88.472,-59.062,-8.798,20.548,8.961],[-99.983,-83.324,-39.042,-6.777,-1.059,-99.256,-89.658,-33.736,-5.062,3.392,-99.359,-86.615,-43.736,-3.617,0.159,-97.774,-87.3,-39.615,1.001,7.325,-94.275,-78.179,-23.405,12.134,12.242,-86.818,-70.332,-26.161,0.338,17.332]],
"vp": [[1104.822,305.932,135.111,-212.856,-310.459,254.244,-132.256,44.208,-55.692,6.911,84.828,-51.535,6.762,-42.38,-28.114,3.898,3.114,-12.988,5.646,0.651,-23.306,-21.89,-5.458,-8.381,-1.09,-5.371,-23.485,-20.661,-14.36,-17.95],[5252.517,1804.28,887.303,-771.603,203.453,1259.788,313.099,-7.479,83.925,166.92,620.522,205.034,-63.177,-5.913,65.212,88.795,1.261,-1.876,1.198,-10.867,51.137,-9.012,-10.091,-8.771,-26.436,16.109,6.927,-14.5,-16.694,-19.121],[8220.651,5161.767,1796.79,259.01,246.332,1470.244,1124.41,161.056,11.905,58.508,708.01,413.127,88.167,112.073,85.672,151.39,83.167,31.873,0.58,-11.447,81.147,26.928,-22.029,-9.22,-6.448,42.618,12.717,3.829,-13.023,-13.536],[8641.323,9653.934,3053.518,1502.265,1001.749,1888.542,1789.772,731.912,83.529,63.55,944.564,1021.343,381.205,78.633,123.55,188.818,166.539,43.164,23.471,-1.558,94.276,65.199,-12.115,-23.181,8.042,36.916,43.988,-13.953,-13.956,-29.639],[9376.567,12939.095,7697.318,1942.086,1588.566,1754.25,2541.431,1204.885,454.046,148.272,919.269,1248.028,631.545,191.155,153.22,168.69,256.004,85.668,42.981,19.202,97.978,122.077,28.563,-6.394,-2.098,31.747,57.832,7.485,-10.741,-20.326],[9314.895,15077.855,11094.607,3847.426,2295.725,1868.34,3254.584,1944.278,840.555,186.092,954.246,1501.401,1156.215,236.881,105.275,176.25,311.851,252.502,47.542,7.66,94.796,136.073,67.211,5.881,-2.596,38.109,63.185,36.356,-16.514,-13.414]]
}