{
"KTrans": [[-20.243,54.252,34.675,35.781,20.663,-45.054,33.91,16.722,15.929,28.126,-20.634,50.92,56.859,41.811,35.739,75.54,122.946,101.083,108.058,100.2,164.303,307.045,200.001,195.678,174.733,485.667,557.767,523.385,487.518,415.96],[-91.76,-13.214,48.921,53.49,40.337,-96.381,11.814,69.413,52.825,36.854,-92.685,4.639,79.271,62.496,45.776,-82.891,74.55,120.265,112.409,70.879,-49.461,118.347,164.57,131.031,116.634,31.198,323.815,363.878,270.72,242.777],[-99.718,-63.285,36.926,79.674,62.21,-94.74,-40.595,28.731,67.635,59.187,-98.231,-51.322,34.331,48.784,47.074,-97.157,-35.798,85.509,112.827,81.063,-69.454,7.932,187.879,150.05,116.616,-47.169,97.615,310.451,268.808,215.965],[-108.498,-98.144,-44.684,51.295,75.58,-102.245,-94.926,8.543,95.796,100.138,-106.466,-88.692,-14.613,74.281,89.76,-93.783,-101.025,9.015,109.935,106.888,-104.08,-83.992,94.303,186.715,132.331,-94.51,-93.957,181.647,283.976,235.89],[-103.259,-106.768,-76.226,63.735,91.506,-104.093,-115.008,-62.852,25.702,67.908,-106.719,-113.749,-63.87,36.584,126.039,-111.163,-98.546,-63.089,58.338,124.942,-105.224,-94.673,-23.329,145.52,210.608,-112.688,-72.681,19.102,222.853,338.01],[-102.393,-117.576,-113.976,-38.281,101.331,-102.141,-113.031,-78.617,-50.73,88.1,-101.43,-117.588,-71.677,-43.305,84.246,-102.105,-102.302,-72.391,-17.761,85.848,-90.242,-132.756,-132.807,39.877,158.37,-130.136,-113.378,-100.274,44.605,225.24]],
"ve": [[103.586,49.48,-53.108,11.914,18.827,18.136,70.108,-63.409,238.46,2.875,35.695,4.817,4.502,46.969,-68.336,-19.878,-102.006,22.363,1.218,790.438,93.034,61.701,17.355,-0.145,-7.474,223.38,88.307,33.126,18.232,-0.791],[14.257,13.27,2.202,3.056,11.798,0.493,16.424,11.066,3.692,6.404,17.584,23.597,9.017,6.469,7.322,54.53,29.89,19.392,14.563,7.138,212.349,49.597,34.59,20.72,14.27,202.623,128.014,62.823,45.666,32.485],[-19.019,6.707,3.867,5.5,3.774,12.289,12.17,9.893,6.634,5.832,24.272,2.54,8.002,3.41,3.352,59.501,43.867,14.908,15.794,9.422,112.668,53.888,38.402,22.789,20.272,360.225,104.291,71.522,48.069,36.961],[-7.458,12.538,0.931,6.431,6.097,22.924,20.395,9.046,6.798,3.904,17.717,2.637,5.776,7.235,5.026,47.618,25.49,17.633,18.215,13.136,107.973,56.499,37.016,66.68,19.472,203.656,86.081,67.815,-68.797,40.309],[38.523,-3.303,-27.909,7.345,4.028,-4.094,-7.505,-455.941,5.771,6.482,-12.465,6.155,48.764,8.942,5.883,-18.843,39.522,20.204,18.342,11.763,101.312,61.501,34.54,25.261,24.965,206.545,107.407,87.066,50.681,13.707],[13.721,2.279,40.074,6.383,5.722,22.113,-4.554,9.473,11.121,7.138,7.253,4.662,9.536,1.414,2.706,85.955,27.924,16.454,37.254,10.408,91.678,51.356,46.801,25.729,23.568,200.412,104.351,70.46,46.208,55.152]],
"kep": [[-48.316,45.003,34.252,36.885,21.356,-65.629,16.674,8.294,8.929,34.807,-52.745,45.222,66.757,45.634,36.216,-3.1,84.925,87.703,122.234,136.112,18.665,181.329,161.37,207.364,228.353,89.154,246.028,346.792,409.881,431.742],[-97.939,-28.491,38.46,48.053,33.053,-100.061,-4.983,51.081,47.411,31.845,-93.838,-11.166,62.433,52.58,37.483,-90.97,27.448,81.14,82.853,56.866,-79.075,38.237,93.435,87.336,86.495,-59.419,96.999,175.703,151.596,156.995],[-100.178,-68.015,24.706,65.974,52.337,-97.817,-54.362,12.553,53.846,46.615,-99.81,-61.71,18.413,37.295,36.793,-98.011,-53.639,47.764,77.764,59.058,-85.411,-34.509,100.195,93.78,73.911,-83.512,-6.755,134.397,139.535,122.861],[-107.951,-97.98,-49.608,36.325,59.258,-104.166,-98.618,-7.995,75.765,84.697,-106.543,-92.119,-27.85,55.565,72.832,-97.879,-101.209,-15.451,71.219,75.33,-102.762,-89.119,30.952,112.483,84.64,-96.854,-94.371,57.4,146.247,129.59],[-103.84,-108.827,-83.418,42.8,75.265,-103.169,-111.9,-68.495,13.375,50.921,-105.178,-111.567,-69.59,18.778,102.426,-105.866,-98.364,-71.172,26.23,89.238,-101.995,-95.979,-46.276,78.434,138.698,-103.382,-84.942,-33.005,104.765,195.37],[-102.63,-116.296,-112.34,-44.022,79.079,-101.754,-111.513,-83.04,-58.211,68.517,-102.478,-114.634,-75.497,-51.003,62.432,-101.305,-103.314,-80.075,-31.553,56.203,-95.959,-119.308,-122.81,1.288,96.466,-110.226,-103.978,-98.081,-7.096,115.188]],
"vp": [[0.001,0.001,0.001,0.001,0.001,0.005,0.005,0.005,0.005,0.005,0.01,0.01,0.01,0.01,0.01,0.05,0.05,0.05,0.05,0.05,0.1,0.1,0.1,0.1,0.1,0.2,0.2,0.2,0.2,0.2],[0.001,0.001,0.001,0.001,0.001,0.005,0.005,0.005,0.005,0.005,0.01,0.01,0.01,0.01,0.01,0.05,0.05,0.05,0.05,0.05,0.1,0.1,0.1,0.1,0.1,0.2,0.2,0.2,0.2,0.2],[0.001,0.001,0.001,0.001,0.001,0.005,0.005,0.005,0.005,0.005,0.01,0.01,0.01,0.01,0.01,0.05,0.05,0.05,0.05,0.05,0.1,0.1,0.1,0.1,0.1,0.2,0.2,0.2,0.2,0.2],[0.001,0.001,0.001,0.001,0.001,0.005,0.005,0.005,0.005,0.005,0.01,0.01,0.01,0.01,0.01,0.05,0.05,0.05,0.05,0.05,0.1,0.1,0.1,0.1,0.1,0.2,0.2,0.2,0.2,0.2],[0.001,0.001,0.001,0.001,0.001,0.005,0.005,0.005,0.005,0.005,0.01,0.01,0.01,0.01,0.01,0.05,0.05,0.05,0.05,0.05,0.1,0.1,0.1,0.1,0.1,0.2,0.2,0.2,0.2,0.2],[0.001,0.001,0.001,0.001,0.001,0.005,0.005,0.005,0.005,0.005,0.01,0.01,0.01,0.01,0.01,0.05,0.05,0.05,0.05,0.05,0.1,0.1,0.1,0.1,0.1,0.2,0.2,0.2,0.2,0.2]]
}