{
"KTrans": [[0.453,1.093,1.193,1.394,0.982,0.678,1.162,2.674,1.612,1.455,0.59,1.79,1.343,1.872,0.277,32.73,13.912,19.609,18.693,10.686,-140.784,27.948,41.677,29.079,22.589,-192.012,-101.052,-16.433,57.327,48.94],[-0.419,-2.553,0.062,0.674,1.2,-6.488,-0.333,0.446,1.102,0.903,-3.046,-3.183,-1.312,1.949,2.015,19.446,6.939,0.125,5.081,2.602,27.575,1.62,6.802,11.055,8.037,-34.181,-65.628,0.966,22.769,26.766],[-33.015,-6.887,-3.104,-0.75,0.01,-37.668,-6.412,-2.999,-0.792,-0.165,-21.495,-2.491,-2.75,0.23,0.229,1.708,21.495,0.593,0.595,1.692,0.404,5.149,11.425,8.429,3.039,-32.82,13.801,-23.682,24.72,14.367],[-54.933,2.917,-6.895,-2.085,-1.672,-64.278,0.915,-5.881,-2.821,-1.867,-54.996,11.463,-3.117,-1.066,-2.005,-58.236,-0.784,2.476,0.849,-1.32,-32.833,2.419,6.252,7.914,9.329,-7.754,-10.24,4.754,19.783,17.116],[-72.898,-14.974,-7.864,-4.506,-3.989,-71.828,-18.592,-7.551,-5.244,-3.743,-79.565,-18.167,-7.873,-5.434,-4.19,-67.927,-10.371,22.344,-1.082,-2.032,-58.289,-17.619,-18.913,5.647,6.173,-22.902,6.819,-21.535,-6.885,6.085],[-77.782,-45.773,8.645,-6.52,-4.586,-81.111,-46.677,11.865,-4.416,-4.704,-80.58,-44.404,-0.663,-6.874,-2.028,-76.16,-24.742,5.981,2.55,-8.364,-61.66,-28.065,9.475,-5.016,6.959,-56.47,-18.323,0.161,5.06,-10.578]],
"ve": [[0.213,0.207,0.018,-0.221,-0.245,0.191,0.131,-0.217,-0.341,-0.247,-0.218,0.387,0.668,0.624,2.629,12.845,-27.839,6.343,-9.401,-20.243,27.419,4.038,3.72,-42.073,-25.823,20.214,16.511,42.272,-12.49,-30.361],[-1.579,-1.083,0.018,0.191,0.207,-3.047,0.091,0.185,0.305,0.166,-1.389,-1.569,-0.826,0.637,0.431,23.202,0.786,-0.44,1.909,1.558,74.859,8.311,-4.99,-1.754,6.45,9.848,-2.299,18.085,5.32,-0.378],[-19.602,-2.996,-1.04,-0.176,-0,-26.71,-3.744,-1.526,-0.258,-0.138,-14.792,-0.732,-1.009,0.183,0.055,15.421,7.646,0.295,-0.023,0.515,24.43,18.674,3.685,-0.414,2.523,3.689,34.824,23.459,14.386,-0.323],[-32.849,-2.235,-2.639,-1.052,-0.527,-40.439,-1.445,-2.298,-0.983,-0.784,-37.605,-0.189,-0.824,0.028,-0.855,-24.073,-0.182,3.195,1.481,-0.93,13.277,13.503,2.777,-8.463,5.35,1219.74,12.886,13.658,19.953,8.758],[-45.564,-14.138,-3.134,-1.137,-1.448,-19.033,-10.987,-4.421,-2.83,-1.28,-51.368,-15.938,-3.662,-2.286,-1.728,-31.682,-0.048,-0.439,-1.206,-0.255,3.478,5.084,6.201,0.879,3.667,31.026,45.21,5.62,14.139,14.482],[-48.391,-23.165,-0.553,-3.236,-1.924,-58.255,-27.478,0.547,-2.276,-2.402,-53.541,-24.809,-0.513,-2.568,-0.932,-50.019,-11.68,3.518,1.764,-5.167,-16.531,-2.068,7.771,-2.115,5.526,36.511,11.467,16.539,23.128,5.76]],
"kep": [[-0.185,0.466,0.76,1.211,0.832,-0.255,0.557,2.505,1.654,1.569,-0.986,0.809,0.666,1.809,-0.787,-4.773,-1.126,15.837,21.08,10.308,13.256,-24.834,13.608,-1.542,-2.751,40.759,36.519,-20.867,7.997,13.42],[-0.01,-1.914,-0.373,0.065,0.573,-5.408,-0.871,-0.181,0.365,0.309,-4.314,-2.495,-1.103,0.845,1.133,-14.014,-4.265,-3.845,1.231,-0.174,-17.808,11.788,-16.844,-1.622,-0.796,-22.551,27.679,-24.01,-20.128,-8.796],[-33.191,-4.609,-2.513,-0.989,-0.406,-42.183,-3.674,-2.01,-0.974,-0.456,-29.176,-2.644,-2.39,-0.42,-0.283,-30.864,10.615,-3.788,-2.024,-0.538,-39.631,-8.495,-14.076,-2.669,-4.486,-47.82,-7.663,-2.254,-9.646,-19.534],[-57.327,1.855,-4.87,-1.462,-1.564,-67.193,-1.314,-4.342,-2.297,-1.531,-58.875,7.013,-3.149,-1.585,-1.656,-58.558,-18.314,-5.392,-2.846,-2.163,-57.264,-22.253,-0.844,-4.026,-0.366,-53.064,-30.67,-5.979,-3.952,-15.589],[-71.263,-16.73,-6.029,-3.876,-3,-71.01,-22.573,-4.775,-3.075,-2.955,-75.607,-23.723,-6.138,-3.843,-3.05,-70.412,-32.501,10.847,-2.736,-3.497,-69.631,-42.015,-31.634,-9.548,-2.432,-61.278,-33.721,-27.489,-14.063,-9.366],[-74.154,-46.328,4.937,-4.058,-3.178,-77.772,-48.084,6.398,-3.012,-2.903,-77.889,-47.199,-4.291,-5.34,-1.622,-72.897,-40.349,-11.96,-0.631,-6.651,-74.512,-44.687,-15.768,-30.662,-2.278,-74.013,-43.688,-23.608,-17.366,-3.881]],
"vp": [[-26.894,-86.191,-90.807,-103.435,-131.881,-3.58,-8.841,-37.733,-28.219,-14.781,6.245,-4.021,-1.392,-11.649,9.133,-34.309,-10.254,-32.805,-34.801,-16.53,-30.263,-23.673,-34.075,-19.772,-14.002,-9.592,-34.844,-32.171,-28.025,-33.588],[204.161,237.098,-7.071,-101.82,-120.79,57.579,-3.333,-13.92,-33.305,-26.723,12.45,35.194,32.481,-37.043,-36.986,-48.392,-10.083,12.966,-12.646,-1.214,-46.765,-18.297,8.28,-10.359,-5.868,-1.252,4.957,-29.734,-14.424,-18.047],[1978.855,611.674,307.687,63.853,-0.066,556.75,166.916,105.212,22.01,17.749,163.328,16.719,31.659,-7.756,-3.337,-32.079,-31.43,-0.092,2.898,-3.182,-27.887,-38.704,-11.517,-9.401,4.941,0.137,-30.926,-31.78,-36.907,-6.739],[3272.54,511.99,772.561,517.351,261.624,833.013,53.196,139.591,80.937,87.645,269.481,19.429,25.185,-2.156,47.008,46.24,-0.747,-21.067,-14.047,12.223,-13.498,-29.076,-9.247,-15.974,-27.411,-10.996,-8.843,-21.383,-42.771,-23.641],[4386.775,3189.674,884.19,397.537,725.642,786.515,433.615,275.755,255.899,125.944,483.033,334.232,106.608,95.621,90.12,62.908,-11.757,13.88,13.418,1.234,-1.717,-15.846,-18.573,-1.203,-17.593,-14.524,-29.376,-5.88,-27.391,-39.883],[5169.417,4558.837,241.541,1358.723,1023.588,951.022,1115.042,4.376,197.714,270.001,533.908,459.49,2.906,96.058,60.293,103.751,48.291,-23.601,-13.79,57.704,15.954,2.163,-23.528,12.425,-29.428,-20.091,-9.446,-22.937,-47.327,-12.197]]
}