{
"KTrans": [[-7.038,2.262,1.012,-3.589,0.101,-4.781,4.576,6.638,3.334,-1.474,8.337,4.088,1.5,7.333,5.003,23.742,22.872,17.159,19.607,14.959,101.526,51.465,49.864,41.758,52.784,-95.588,131.801,91.299,105.475,111.34],[-50.1,-1.707,2.078,0.308,0.808,-53.328,-4.301,-0.402,-0.969,0.417,-48.571,0.246,-2.921,-1.256,0.145,-28.419,18.249,8.736,6.707,7.785,-2.235,43.747,33.492,27.124,12.805,43.744,65.283,71.886,53.501,29.641],[-75.973,-16.919,-1.489,-2.266,-0.476,-76.386,-8.25,-0.724,1.871,0.363,-74.337,-15.786,1.768,-0.542,2.957,-54.379,9.668,9.656,2.642,6.06,-30.286,21.788,20.731,23.313,9.168,3.076,40.565,38.212,38.601,34.44],[-84.643,-30.127,-1.396,-3.508,0.279,-85.22,-23.248,1.233,-2.035,-1.264,-79.672,-23.128,-1.493,1.108,-0.779,-74.455,-12.677,11.304,7.259,6.811,-48.995,6.65,23.027,25.25,13.504,-55.185,24.461,35.309,29.358,35.828],[-91.934,-47.187,-1.548,2.599,-0.178,-89.662,-50.507,-2.269,3.844,-3.378,-85.684,-49.567,-1.878,1.96,-2.211,-76.038,-23.033,1.51,24.156,9.418,-61.292,-6.717,8.132,10.842,9.77,-61.622,-10.792,39.824,35.86,32.774],[-92.019,-64.175,-19.528,2.598,0.2,-93.199,-51.538,-10.773,-2.772,1.367,-88.935,-56.385,-5.533,9.801,1.722,-85.865,-46.683,-2.263,9.938,10.142,-78.255,-32.515,-2.293,19.865,26.745,-105.316,-23.727,-5.623,45.911,48.661]],
"ve": [[14.283,5.946,16.178,27.631,82.624,3.502,-5.932,27.055,9.719,33.11,4.552,5.691,-32.576,5.117,172.266,-18.046,-17.619,34.165,-27.682,-15.497,27.41,2.464,-7.493,-29.233,-14.676,11.926,11.441,2.504,-18.248,-35.075],[-34.133,-4.965,-2.563,-2.248,-2.013,-28.413,-6.23,-3.983,-1.079,-1.802,-19.03,-6.34,-4.122,-3.154,-1.994,-12.882,1.268,-13.099,-0.166,-1.759,0.312,9.569,8.982,7.632,-13.29,64.511,40.403,17.739,4.831,-13.679],[-55.841,-13.455,-5.699,-4.956,-3.478,-57.752,-11.668,-4.014,-3.107,-3.274,-47.204,-15.741,-5.384,-3.486,-2.594,-29.812,-6.09,-4.899,-3.765,-1.592,-13.006,3.502,-1.339,6.005,-0.387,6.199,30.811,16.359,4.678,3.868],[-63.339,-25.492,-7.119,-6.561,-4.042,-65.898,-20.429,-8.05,-5.946,-3.756,-48.487,-21.197,-7.861,-4.508,-4.22,-41.565,-18.334,-4.706,-3.143,-1.756,53.429,-4.248,1.224,2.408,0.856,9.754,12.008,10.929,0.181,8.441],[-30.501,-33.326,-9.871,-5.53,-4.815,-66.927,-39.901,-12.117,-5.62,-6.488,-74.482,-39.075,-9.811,-4.616,-5.437,-38.27,-21.28,-9.483,-2.639,-1.371,-18.649,-2.951,-12.583,-5.224,-0.201,-40.893,3.074,9.184,2.775,0.401],[-53.28,-42.936,-18.437,-8.169,-6.73,-81.663,-14.851,-16.373,-7.695,-5.988,-54.973,-39.492,-19.282,-6.256,-4.847,-57.241,-30.683,-13.198,-5.701,-5.667,-21.641,-10.406,-10.997,0.477,-5.012,0.593,-5.909,-10.07,2.158,13.205]],
"kep": [[-11.806,-0.097,-2.009,-11.297,0.877,-10.379,1.106,4.676,5.826,-3.011,2.484,3.62,0.261,10.19,11.264,-3.483,10.332,10.118,22.579,21.227,49.531,19.951,37.461,35.423,74.856,53.931,82.12,66.984,103.236,122.723],[-42.887,-0.322,4.411,2.724,3.433,-46.974,1.845,3.668,0.306,2.61,-40.732,5.207,0.846,2.021,2.632,-33.201,10.434,8.306,6.181,9.449,-24.608,18.287,15.625,16.863,7.955,-7.659,18.888,33.725,22.769,5.565],[-66.126,-7.911,3.283,2.654,2.921,-62.877,0.504,2.231,4.822,3.641,-65.606,-5.628,6.641,2.773,5.573,-52.982,13.16,11.468,5.136,6.785,-43.605,2.107,10.029,14.176,6.217,-39.935,7.515,18.654,16.511,16.806],[-79.163,-18.67,4.663,2.626,4.326,-75.582,-13.231,7.627,3.444,2.435,-71.328,-10.009,5.204,5.337,3.383,-69.604,-10.857,14.038,9.04,7.278,-55.541,-8.47,13.973,20.573,9.817,-59.138,-10.658,11.641,13.116,11.957],[-86.319,-26.624,8.335,7.534,4.499,-83.158,-35.293,9.134,8.702,2.698,-81.298,-30.365,6.263,5.788,3.133,-74.981,-21.98,5.24,25.667,9.814,-66.66,-18.898,6.707,10.631,6.035,-66.029,-32.059,7.205,18.586,23.538],[-86.325,-48.2,-4.304,9.673,6.846,-88.221,-37.975,0.858,3.883,7.227,-85.85,-41.986,9.116,15.871,6.534,-80.511,-38.897,3.593,11.387,14.492,-77.661,-37.556,-10.821,14.098,32.879,-77.85,-34.084,-13.201,26.219,20.534]],
"vp": [[601.658,186.2,168.097,224.306,425.892,113.561,-15.587,12.147,43.295,94.116,39.168,18.643,49.908,-21.795,2.28,-6.703,-16.105,-14.532,-25.84,-15.052,-20.804,-21.54,-33.383,-23.067,-43.791,-4.835,-35.003,-24.368,-31.244,-42.916],[3621.86,1348.327,581.731,697.398,840.516,698.035,246.565,167.859,165.643,185.327,302.977,118.61,121.405,104.724,77.728,32.29,-16.038,11.822,-4.01,-5.588,-2.757,-22.192,-35.958,-34.492,-7.968,-36.231,-46.097,-35.255,-34.945,-8.274],[5565.961,2763.612,1441.268,1723.815,1232.937,1127.253,442.707,256.645,220.352,241.315,474.88,320.587,125.792,139.655,84.073,57.349,16.486,25.148,25.879,3.325,11.589,-8.415,0.243,-28.398,3.134,-1.523,-33.397,-29.454,-18.32,-19.502],[6075.508,5034.159,2037.412,2443.681,1621.983,1279.119,861.185,468.412,421.58,345.937,540.755,447.977,252.133,167.059,166.859,78.627,74.752,30.144,16.642,7.772,27.859,11.175,-4.628,-16.037,-12.506,-2.586,-12.491,-15.512,-0.654,-32.233],[7476.151,7745.436,2888.46,2066.942,1933.259,1335.39,1625.674,744.949,445.831,585.44,529.565,813.3,272.661,170.575,260.393,86.431,85.362,53.104,16.48,4.941,18.037,1.88,38.691,23.445,-7.561,24.041,-2.128,-15.343,-6.467,-2.289],[6752.263,8692.492,5662.605,2852.97,2650.927,1558.673,1529.128,1014.838,611.179,496.02,609.219,824.38,569.113,210.775,216.878,104.463,114.026,73.759,40.32,52.803,18.455,16.306,36.249,-12.118,25.903,8.3,5.784,17.284,-4.174,-41.138]]
}