{
"KTrans": [[-16.31,-0.682,2.135,10.239,12.39,-16.711,2.739,13.019,15.067,3.807,-21.123,4.484,6.268,12.945,11.954,18.535,36.057,28.713,27.043,22.288,58.019,75.473,54.924,41.367,45.524,-107.253,211.955,112.947,87.505,83.373],[-79.376,-16.718,1.832,-2.243,5.41,-73.124,-21.085,-0.937,0.033,3.633,-71.242,-23.533,-1.178,1.353,1.808,-53.538,6.215,19.926,16.154,8.061,-71.454,24.721,27.267,22.636,16.073,3.846,76.161,56.504,51.414,45.296],[-90.531,-45.963,-10.227,4.371,0.228,-85.682,-44.219,-7.908,-4.777,5.628,-91.631,-43.375,-8.038,6.607,3.487,-78.295,-21.78,1.538,8.792,4.781,-77.224,-21.022,21.798,18.393,7.149,-47.269,8.424,48.772,54.112,37.405],[-93.591,-59.447,-20.468,-0.328,-2.821,-93.423,-57.317,-18.672,-6.732,3.433,-93.316,-62.9,-20.409,-4.392,0.114,-85.315,-47.246,-0.579,7.85,8.88,-73.269,-30.49,-2.553,11.314,11.028,-55.061,-15.188,22.048,28.615,40.698],[-93.711,-72.876,-23.9,-15.315,-0.355,-96.005,-77.836,-38.443,-6.015,3.158,-94.383,-72.563,-31.725,-10.226,-3.033,-90.413,-67.902,-28.064,-7.07,8.393,-87.229,-48.828,-3.939,4.957,17.279,-76.298,-22.805,11.802,15.53,13.775],[-95.582,-82.429,-50.534,-19.337,-0.798,-95.147,-81.185,-37.356,-16.325,-9.546,-95.041,-80.899,-44.23,-17.747,-7.932,-93.94,-69.46,-31.952,-6.473,6.676,-89.136,-60.871,-27.624,1.05,6.906,-72.261,-53.524,-24.922,19.38,18.34]],
"ve": [[-5.102,-21.932,-39.079,-72.186,3.079,41.757,-105.097,-39.542,-20.966,17.617,-54.438,-9.703,-20.362,-10.137,13.307,2.29,20.115,-9.758,-52.252,-14.514,30.013,16.368,-0.865,109.322,-3.469,52.878,43.416,-20.728,-12.605,53.358],[-40.342,-1.91,1.087,2.141,0.289,-161.074,-0.626,0.265,12.794,0.541,-41.325,-59.14,0.362,-0.935,0.784,-16.079,3.16,5.039,1.372,2.473,-33.112,-10.975,-0.319,6.114,0.886,27.016,28.604,-646.406,8.322,-3.903],[-70.524,-29.101,-7.979,-2.049,-1.575,1415.261,20.671,-10.365,-5.576,-1.175,-129.05,-23.173,-5.51,-0.611,-1.539,-78.06,-24.024,-5.77,0.88,-1.219,-4.237,-7.827,4.204,0.536,-5.008,-34.188,-5.553,6.121,12.959,13.757],[-42.229,-37.685,-15.167,-4.519,-4.472,-50.658,-33.753,-13.861,-8.034,-2.684,-74.384,-57.12,-18.938,-7.681,-4.247,-57.055,-29.757,-3.843,-3.743,-1.236,-39.29,-15.413,-9.524,0.783,-3.353,10.756,-2.084,-8.364,-1.423,10.472],[-84.452,-42.606,-19.224,-12.895,-5.664,-61.889,-49.175,-35.325,-8.575,-2.632,-73.436,-47.831,-23.506,-10.376,-5.868,-81.114,-49.031,-19.312,-7.908,-3.395,-59.69,-14.71,-7.131,-3.53,2.795,-64.588,1.018,-3.616,-3.372,-3.311],[-60.055,-62.386,-33.481,-15.73,-6.613,-68.382,-58.298,-22.591,-15.062,-9.676,-57.752,-59.542,-34.046,-13.107,-9.887,-58.923,-30.086,-21.649,-9.988,-3.57,-59.154,-37.099,-22.03,-5.775,-6.161,-5.572,-29.935,-11.283,-3.668,0.063]],
"kep": [[-41.354,-12.622,-5.981,8.39,15.985,-47.987,-1.106,8.494,5.92,-2.127,-43.043,-6.589,-1.627,6.266,7.488,-14.973,13.373,8.804,32.598,23.844,9.206,30.813,30.848,24.445,47.362,22.527,109.493,69.977,79.339,83.229],[-80.415,-15.338,1.078,-1.648,7.134,-76.537,-15.865,-1.015,0.412,4.31,-73.801,-22.02,-0.464,3.926,2.82,-63.401,-1.443,12.658,15.052,7.229,-61.357,7.156,13.917,10.043,9.401,-29.778,14.645,18.542,19.781,24.989],[-90.575,-37.218,-4.631,6.12,1.808,-86.017,-35.763,-0.481,0.309,6.996,-91.557,-35.232,-5.146,6.574,5,-80.587,-35.235,-1.169,4.956,5.766,-77.089,-29.25,9.195,12.392,3.745,-60.292,-11.52,16.934,20.041,15.619],[-95.298,-48.044,-14.114,3.287,1.054,-93.289,-48.074,-8.77,-0.828,4.953,-93.406,-52.623,-12.887,1.594,3.686,-84.819,-47.035,-1.879,10.791,10.361,-76.785,-34.331,-4.225,2.95,10.199,-68.482,-31.631,-2.449,7.736,20.169],[-92.434,-62.506,-10.495,-3.871,4.345,-95.018,-68.792,-27.881,0.335,5.04,-93.32,-64.798,-19.479,-2.426,0.903,-89.572,-59.533,-24.66,-1.273,10.098,-87.412,-48.357,-11.041,2.506,10.314,-74.812,-43.559,-6.605,-0.172,5.225],[-94.934,-74.349,-36.4,-7.736,5.194,-95.244,-75.162,-27.47,-4.272,-2.454,-93.925,-72.917,-29.292,-8.311,0.711,-93.005,-64.311,-25.683,1.402,8.431,-88.134,-57.774,-26.757,-0.792,10.098,-79.766,-56.884,-29.421,6.144,9.836]],
"vp": [[1328.481,916.444,291.794,-194.748,113.074,161.401,185.544,10.002,34.606,57.185,131.413,38.568,32.303,-24.927,-32.005,-15.957,-5.582,-19.147,-30.508,-24.283,-30.418,-40.637,-31.717,-17.953,-26.685,-22.295,-50.306,-32.757,-25.982,-26.954],[5267.277,2156.811,971.764,883.168,549.232,860.778,636.263,192.823,180.293,101.994,476.309,426.384,94.511,125.318,85.414,58.957,12.347,-18.603,-21.916,-0.324,37.827,-2.3,-16.407,-34.578,-9.092,-17.634,-32.864,-27.388,-36.222,-26.486],[7309.905,6197.765,3172.769,525.211,1079.224,1246.683,1164.586,649.329,451.327,132.212,701.318,558.839,240.764,-27.728,88.711,87.049,102.722,24.123,1.203,15.581,47.71,40.419,-16.201,4.102,12.302,19.25,6.242,-9.812,-38.246,-27.668],[7042.704,8610.697,4207.063,2077.441,2314.81,1377.136,1374.064,930.716,748.516,279.952,770.387,820.887,513.493,305.424,238.325,117.127,120.235,39.301,28.788,15.401,43.755,32.577,30.055,-7.162,23.059,-6.163,1.677,1.438,1.992,-34.016],[7410.165,9600.083,6607.779,5216.303,2849.559,1692.782,2153.528,1695.843,747.365,272.478,725.972,1017.018,733.377,477.8,321.119,127.786,189.368,130.482,62.476,22.754,50.509,39.084,25.171,16.794,-12.744,39.832,2.631,5.368,8.259,8.261],[7213.781,12619.373,10223.072,6538.944,3388.699,1490.951,2509.012,1640.707,1140.3,932.758,681.161,1177.812,1002.556,604.893,456.574,150.75,170.082,123.096,87.552,32.105,58.929,70.439,72.007,26.917,31.12,3.47,29.416,19.053,10.96,-3.435]]
}