{
"KTrans": [[-12.819,2.561,0.467,2.638,3.177,-18.921,3.489,4.373,-0.082,0.327,-11.741,-1.355,-5.169,-4.477,3.372,-23.836,-10.314,-4.899,-3.16,-4.752,-21.151,-20.25,-12.757,-14.329,-9.468,-38.852,-18.025,-25.014,-12.254,-22.647],[-60.848,-11.469,-1.665,0.503,0.133,-60.894,-5.949,-1.115,2.267,0.75,-65.312,-9.938,-5.288,-3.559,-0.704,-67.65,-10.072,-7.885,-4.321,-2.978,-64.916,-21.188,-11.401,-5.665,-5.538,-66.349,-34.017,-19.403,-16.617,-14.498],[-82.934,-14.537,-0.786,-0.941,-0.971,-86.059,-19.707,-2.755,-1.538,-0.357,-83.95,-17.199,-5.546,-3.805,0.451,-87.771,-24.753,-10.467,-7.391,-3.128,-85.682,-27.608,-15.72,-8.373,-7.399,-87.353,-51.268,-23.089,-11.28,-13.672],[-93.945,-36.048,-5.912,-2.303,1.676,-94.564,-32.014,-6.158,-1.043,-1.328,-92.74,-39.238,-6.716,-1.446,-0.32,-93.821,-37.883,-13.246,-2.707,-3.134,-92.516,-44.929,-17.963,-10.581,-6.284,-88.946,-58.777,-23.587,-15.71,-14.089],[-96.928,-51.829,-9.998,-4.692,-1.237,-97.079,-49.76,-8.831,-2.783,-0.092,-96.536,-50.782,-10.549,-2.973,-1.611,-96.541,-55.009,-15.98,-5.285,-2.655,-95.364,-60.431,-19.356,-13.647,-5.08,-93.753,-65.129,-22.526,-20.241,-17.088],[-98.171,-64.205,-19.64,-5.273,-1.18,-98.144,-64.399,-18.896,-4.198,0.583,-98.646,-64.712,-15.697,-4.848,-2.484,-98.435,-67.409,-26.237,-10.517,-2.611,-98.456,-75.506,-29.626,-10.042,-7.276,-96.608,-74.893,-41.09,-24.389,-14.744]],
"ve": [[0.924,14.104,9.858,14.32,-4.662,22.776,7.474,-36.884,34.495,84.14,8.493,10.943,17.476,16.239,-6.525,-1.95,8.174,61.455,71.623,8.487,-22.723,4.124,-4.073,-37.163,49.417,4.329,-30.508,520.197,-98.54,-62.814],[13.304,-2.078,-0.268,0.134,-0.227,-27.414,-1.096,1.325,-0.012,0.792,-26.885,-2.641,0.332,0.152,0.079,-36.075,-3.482,-3.388,-1.67,0.91,-24.699,-8.957,-4.621,-2.011,-0.345,-33.869,-13.219,-6.842,-3.241,1.408],[-43.899,-6.981,-0.27,-0.576,-0.117,-67.921,-9.024,-1.561,-0.313,0.348,-66.159,-8.191,-2.512,-1.214,-0.112,-51.394,-12.295,-4.167,-2.027,-1.246,-46.482,-12.726,-7.148,-4.477,-2.482,-99.13,-27.924,-11.038,-5.115,-4.868],[-60.641,-13.101,-1.4,-0.511,0.585,-55.681,-14.903,-4.698,0.211,-0.684,-49.001,-15.877,-2.472,-1.488,-0.445,-61.083,-16.878,-6.328,-2.454,-2.056,-77.215,-25.27,-9.344,-5.904,-3.827,-76.087,-36.46,-13.367,-6.309,-6.429],[-67.484,-25.134,-4.151,-1.666,-0.548,-64,-23.692,-5.162,-0.925,-1.139,-70.308,-26.609,-5.24,-1.459,-0.03,-69.912,-29.307,-7.559,-3.205,-0.929,-187.441,-34.548,-11.09,-6.99,-2.835,-94.541,-44.886,-11.377,-10.373,-8.464],[-79.101,-34.616,-9.167,-2.289,-1.038,-64.813,-32.208,-8.872,-2.803,-1.163,-74.723,-33.845,-6.728,-2.377,-1.302,-101.327,-37.509,-13.264,-4.695,-1.661,-90.645,-47.826,-14.345,-5.63,-4.157,-88.539,-52.566,-23.755,-14.158,-7.763]],
"kep": [[-14.756,-1.255,-3.016,4.621,6.773,-21.384,2.318,6.179,0.882,-1.168,-16.177,-5.404,-14.217,-12.569,7.485,-25.217,-15.257,-11.511,-7.31,-15.884,-29.089,-25.931,-23.43,-29.79,-23.66,-73.845,-39.93,-51.619,-41.445,-64.052],[-54.091,-9.687,-1.355,0.714,0.784,-53.653,-5.111,-2.2,2.613,0.235,-58.072,-7.81,-5.36,-3.345,-0.392,-62.204,-7.535,-4.576,-2.591,-3.446,-60.863,-15.102,-7.798,-3.916,-4.895,-81.523,-30.598,-16.395,-15.172,-15.567],[-77.754,-9.11,-0.74,-0.38,-0.85,-80.854,-12.657,-1.342,-1.317,-0.643,-78.382,-9.747,-3.315,-2.715,0.562,-82.171,-15.28,-6.755,-5.605,-1.977,-84.286,-19.544,-10.641,-4.519,-5.242,-92.712,-44.112,-17.077,-8.7,-10.532],[-91.364,-26.382,-4.872,-1.828,1.042,-91.248,-21.052,-1.553,-1.404,-0.724,-89.026,-29.105,-4.554,-0.071,0.071,-91.049,-26.904,-7.855,-0.406,-1.18,-91.665,-32.07,-10.587,-5.636,-2.89,-92.612,-53.644,-16.911,-12.05,-9.32],[-95.396,-38.578,-6.434,-3.244,-0.811,-95.803,-37.271,-4.201,-1.895,1,-94.679,-36.809,-6.113,-1.916,-1.639,-95.875,-39.602,-9.743,-2.35,-1.825,-97.019,-45.478,-10.935,-7.571,-2.713,-96.419,-61.868,-17.264,-13.036,-10.916],[-97.386,-49.27,-12.264,-3.248,-0.293,-97.411,-51.779,-11.297,-1.615,1.601,-98.417,-51.378,-10.046,-2.792,-1.31,-98.677,-52.834,-15.941,-6.447,-1.288,-98.116,-61.05,-19.326,-5.128,-3.597,-95.721,-71.551,-28.234,-14.323,-8.69]],
"vp": [[535.308,-119.984,73.58,-7.438,-169.136,128.579,-32.261,8.365,42.66,23.145,54.429,22.808,27.707,22.543,14.529,22.98,16.635,6.646,12.94,7.389,12.297,17.404,14.118,13.786,13.936,18.877,8.424,17.035,10.654,16.722],[2888.473,687.023,295.228,77.658,195.987,648.697,90.908,13.964,17.592,-17.23,322.481,104.78,43.631,53.189,38.633,74.957,16.376,26.273,15.01,10.046,38.232,20.286,20.931,13.15,12.475,25.778,20.577,16.41,16.052,15.455],[4871.185,1581.856,255.052,228.568,95.691,1026.912,337.344,140.155,46.179,31.747,508.036,176.485,96.929,57.384,-18.074,121.667,56.236,35.237,21.016,13.602,57.273,28.918,26.114,20.003,17.805,39.935,32.109,19.807,10.706,16.84],[6602.237,3409.095,766.233,257.017,-166.524,1367.018,614.37,247.637,24.75,66.005,674.927,365.106,107.832,72.027,40.837,141.458,67.774,39.521,20.187,23.155,71.847,51.822,30.896,24.819,20.391,40.499,40.352,21.566,14.741,17.049],[7483.343,5353.455,1394.274,802.301,335.557,1560.659,1039.265,318.118,90.731,94.652,751.383,567.625,175.444,68.906,22.269,159.63,123.615,50.182,31.365,13.243,82.531,71.764,33.991,30.967,14.869,46.393,45.267,17.559,22.836,22.301],[8125.897,7265.66,2854.649,823.568,322.784,1644.021,1424.59,571.922,223.172,109.706,834.567,710.435,203.184,103.44,81.958,175.537,159.093,83.327,36.371,20.148,88.124,99.363,46.769,25.413,21.163,48.578,52.855,37.085,29.204,20.327]]
}