{
"KTrans": [[24.399,17.927,23.536,18.691,25.167,22.672,19.104,16.765,15.444,24.481,30.355,37.878,35.902,21.775,23.644,57.403,50.27,49.561,43.388,37.365,107.114,77.11,45.04,63.987,51.244,12.48,156.375,121.692,126.604,90.519],[-56.25,2.535,4.124,10.547,11.977,-47.089,-11.637,3.529,7.443,14.538,-50.322,-5.074,1.024,8.169,14.111,-37.273,10.323,15.045,13.558,17.661,9.793,16.902,23.253,27.3,30.66,-26.777,18.987,47.68,42,53.927],[-76.592,-29.531,-11.174,-4.913,4.492,-75.169,-31.404,-12.003,-4.502,3.544,-71.39,-27.368,-14.186,-4.353,3.03,-65.87,-21.077,-7.851,0.975,4.558,-52.192,-18.879,2.209,8.178,2.555,-86.26,-5.868,2.451,27.87,20.164],[-85.905,-45.869,-23.581,-20.263,-11.565,-84.363,-50.43,-37.146,-16.997,-8.65,-84.005,-51.852,-28.217,-14.908,-8.717,-78.634,-42.083,-24.868,-15.345,-3.294,-69.754,-29.778,-24.17,-15.842,-2.966,-78.403,-34.588,-19.966,-4.251,4.335],[-91.179,-61.913,-40.407,-27.757,-18.005,-89.914,-63.229,-44.066,-28.545,-20.037,-85.078,-62.431,-42.088,-28.726,-19.453,-80.701,-58.107,-40.296,-30.626,-15.555,-88.028,-48.773,-34.87,-22.175,-15.067,-84.807,-54.293,-21.99,-16.912,-1.962],[-92.592,-68.829,-54.15,-40.589,-29.037,-91.834,-69.068,-53.11,-37.417,-28.518,-92.258,-69.673,-51.708,-35.598,-29.522,-84.508,-69.241,-51.547,-38.046,-31.613,-88.592,-63.596,-49.52,-36.75,-25.203,-90.098,-82.933,-43.16,-31.422,-17.699]],
"ve": [[-43.865,68.626,98.158,28.228,85.865,-34.458,56.998,-296.935,-113.536,47.53,-61.323,-9.022,-31.683,551.332,-365.17,0.184,15.28,19.22,-23.171,142.83,46.979,-316.776,-17.065,56.356,21.094,75.14,41.226,-20.224,-36.664,-25.424],[-14.388,0.379,4.695,7.553,13.527,-15.155,2.919,6.117,6.188,9.659,32.983,-3.89,4.841,10.632,9.9,22.615,9.418,8.238,12.556,12.776,47.012,14.696,15.803,18.943,22.706,79.064,21.558,20.117,27.252,19.595],[21.808,-7.638,-2.702,-2.015,-0.433,-42.891,-10.486,-2.176,-0.65,1.18,-22.033,-5.346,-0.745,-0.205,2.239,-12.16,1.037,0.54,3.987,4.429,19.726,2.81,10.764,8.46,9.406,57.391,24.36,16.133,15.127,-17.031],[-49.572,-18.206,-9.299,-5.839,-3.739,-27.581,-13.021,-10.95,-5.062,-3.629,-33.101,-14.518,-9.424,-4.166,-3.675,-17.285,-2.345,-5.841,-2.487,0.503,13.93,4.387,-0.83,57.151,3.882,34.214,27.204,15.194,448.905,10.438],[-68.71,-23.347,-14.611,-8.93,-7.248,-37.16,-18.409,-15.445,-11.098,-6.411,-91.705,-22.404,-13.063,-10.047,-7.554,73.274,-14.844,-7.849,-9.15,-3.535,0.549,3.553,-0.906,-1.194,-0.833,37.87,19.746,18.976,10.045,21.121],[-131.025,-34.568,-21.841,-13.646,-9.481,-34.787,-29.818,-20.428,-12.889,-9.95,-61.158,-24.187,-20.657,-10.463,-9.876,-29.965,-19.849,-14.083,-10.431,-8.904,-5.205,-12.549,-24.457,-4.839,-3.905,43.382,16.302,-7.561,2.317,7.9]],
"kep": [[-29.422,-33.884,-35.387,-45.424,-39.624,-34.599,-32.942,-48.236,-48.984,-41.914,-23.095,-15.446,-19.765,-38.865,-44.596,-28.309,-18.07,-16.127,-17.752,-30.231,-32.476,-23.271,-43.306,-12.982,-29.188,-9.8,-3.596,-12.05,-0.252,-42.921],[-68.842,-31.548,-31.725,-29.685,-31.157,-66.521,-41.544,-32.109,-30.267,-28.136,-68.748,-36.921,-34.365,-32.503,-28.689,-66.653,-35.338,-28.602,-30.688,-29.112,-57.751,-39.203,-29.819,-27.251,-24.677,-68.369,-58.253,-37.464,-31.367,-17.277],[-83.743,-49.417,-38.9,-34.876,-29.529,-82.757,-51.378,-40.03,-35.699,-31.239,-81.754,-48.335,-42.394,-35.75,-32.259,-81.893,-49.563,-39.344,-35.167,-32.82,-80.937,-57.135,-40.477,-34.22,-37.301,-82.039,-61.941,-54.036,-34.511,-36.299],[-90.759,-56.951,-44.368,-43.407,-38.463,-91.541,-61.524,-53.266,-41.467,-36.578,-89.692,-63.013,-47.643,-40.667,-36.56,-88.046,-61.175,-47.998,-42.622,-35.958,-85.694,-62.889,-51.699,-46.146,-38.725,-85.105,-62.957,-65.432,-49.485,-39.859],[-93.601,-67.83,-54.268,-47.13,-41.048,-92.867,-70.484,-56.353,-46.536,-42.981,-90.857,-69.842,-56.268,-47.272,-41.805,-90.557,-71.076,-57.52,-49.725,-42.024,-91.805,-70.21,-57.724,-49.472,-43.956,-86.724,-73.783,-61.927,-54.374,-44.38],[-95.7,-72.708,-61.652,-54.065,-47.611,-95.004,-74.838,-61.693,-52.411,-47.117,-95.318,-75.94,-61.178,-52.213,-47.974,-91.762,-77.749,-63.262,-54.144,-50.12,-92.537,-79.632,-66.481,-57.195,-49.133,-89.77,-84.06,-70.601,-61.819,-51.193]],
"vp": [[-502.843,-354.754,-1187.231,27.823,-1110.87,-115.613,-66.722,-181.624,-29.664,-159.617,-37.553,-93.188,-121.317,-17.046,-106.037,-16.775,-34.223,-24.706,-14.518,-13.04,-26.46,-18.489,15.947,-24.403,6.569,-16.394,-38.627,-17.624,-23.258,0.994],[3882.54,-31.462,-450.421,-1163.434,-941.341,539.681,134.18,17.534,-74.419,-265.047,363.878,47.882,38.457,-15.771,-109.804,45.267,-21.892,-10.836,-3.073,-37.243,-29.259,-2.666,-11.08,-23.421,-37.396,-13.759,-3.775,-13.965,-7.212,-26.015],[5532.301,2307.822,1262.306,915.041,-257.173,1148.486,605.996,208.369,142.296,-85.143,560.294,208.684,100.193,121.496,-26.532,80.185,36.328,24.254,-10.682,6.495,23.936,17.926,-9.676,-8.825,23.382,-5.097,3.237,18.529,-21.236,-1.786],[6342.69,5083.638,3124.115,3241.54,1946.365,1371.82,964.492,966.044,383.61,437.06,590.289,636.186,396.22,211.644,187.131,120.812,87.199,68.198,55.298,9.088,33.355,17.041,36.157,39.228,9.138,19.413,-2.683,32.183,12.472,9.665],[7170.36,6645.593,5977.821,3958.581,3572.198,1307.25,1504.19,1188.428,963.417,750.202,587.473,726.997,540.908,443.09,368.231,75.098,139.788,114.846,131.884,55.745,35.729,32.569,52.351,40.428,42.025,26.407,10.014,-6.002,8.682,-8.424],[7603.324,7787.246,8619.429,6798.227,5232.829,1510.832,1579.117,1603.285,1244.066,1070.544,867.373,883.255,835.178,488.428,603.827,98.945,157.92,163.057,117.758,161.439,27.058,71.469,68.869,67.436,59.294,13.519,16.646,27.885,27.644,20.753]]
}