{
"KTrans": [[5.608,2.471,1.662,2.491,1.76,13.983,8.241,7.886,6.426,5.796,26.643,16.225,13.852,11.615,11.536,176.046,93.907,77.089,68.667,62.253,399.166,233.248,179.567,155.885,139.552,214.457,513.298,437.259,359.545,354.529],[4.131,3.223,1.706,1.468,1.261,16.647,6.91,4.843,4.053,3.386,27.468,13.3,8.63,7.741,6.036,206.063,67.399,48.88,37.049,31.625,-29.252,170.482,102.079,80.988,67.535,-67.003,411.159,232.678,180.128,164.85],[3.165,3.123,3.145,2.026,1.223,18.045,7.536,5.349,3.634,3.612,28.202,11.594,10.482,7.667,5.9,111.893,76.002,44.825,34.449,27.968,-20.534,206.151,89.724,71.066,60.406,-83.698,155.058,261.731,150.487,126.982],[-2.765,3.898,2.872,2.219,2.027,9.496,9.218,6.859,4.035,4.021,18.171,15.337,9.992,7.078,5.851,30.412,73.743,45.709,31.29,26.551,-46.448,210.267,102.057,68.591,57.4,-70.469,11.17,282.73,187.172,117.362],[-9.143,5.652,2.453,2.696,1.715,-12.614,8.212,6.622,4.391,3.342,5.755,16.844,7.991,7.33,6.26,-23.663,90.632,48.144,32.852,26.105,-46.03,188.075,99.398,71.1,55.032,-101.712,-45.028,295.015,181.352,120.511],[-31.29,7.806,4.658,3.42,2.605,-26.501,12.424,7.391,5.197,4.578,-35.819,14.654,10.669,7.41,6.701,-44.799,91.891,47.844,38.446,27.317,-64.88,109.236,122.562,67.102,50.553,-96.498,-61.393,209.369,212.512,126.683]],
"ve": [[0.769,0.258,-0.475,-0.83,-0.932,4.816,0.562,-1.66,-2.733,-2.564,8.33,2.01,-2.456,-4.863,-7.278,45.667,13.235,-0.973,-11.197,-18.863,95.862,33.964,8.892,-6.983,-17.814,189.796,83.806,38.096,12.36,-4.744],[2.334,0.285,0.035,-0.265,0.081,4.441,2.568,1.102,0.449,0.063,9.892,4.313,2.579,1.44,0.574,49.991,23.598,14.084,9.065,5.333,100.577,47.425,29.44,19.367,12.417,202.076,97.918,61.049,41.494,29.437],[1.361,0.559,-0.075,-0.233,-0.225,5.024,2.298,1.612,0.883,0.63,10.131,4.487,2.893,1.849,1.21,51.623,24.724,15.673,11.117,8.234,99.753,49.6,31.436,22.918,17.277,197.013,98.493,65.004,46.054,35.602],[0.889,0.36,0.094,-0.107,0.013,5.438,2.642,1.533,0.851,0.618,10.856,4.777,3.189,2.292,1.552,50.227,24.503,16.231,11.723,9.136,100.443,48.929,32.726,24.032,18.586,202.408,87.831,65.963,49.115,37.516],[1.856,0.393,0.03,-0.136,-0.028,4.836,2.646,1.467,1.136,0.822,4.99,5.13,3.226,2.219,1.638,54.887,24.821,16.513,11.904,9.35,103.422,50.75,32.494,24.501,19.048,202.532,98.35,65.98,49.079,38.444],[3.888,0.586,0.301,0.241,0.114,7.785,2.626,1.441,0.963,0.6,10.179,4.687,2.965,2.246,1.696,55.282,25.328,16.426,12.209,9.601,99.582,48.16,33.122,24.199,19.065,204.837,100.434,68.48,49.645,39.028]],
"kep": [[5.198,2.652,2.645,4.393,3.738,9.004,8.064,10.102,10.205,9.826,17.174,14.308,17.288,18.011,21.067,88.508,71.363,79.176,90.437,100.507,151.903,147.981,156.658,175.205,191.706,19.09,236.265,288.596,308.256,376.589],[1.916,2.947,1.71,1.785,1.208,11.732,4.292,3.743,3.616,3.354,16.059,8.616,5.926,6.251,5.472,100.693,35.145,30.452,25.677,24.998,-58.804,81.851,55.742,51.483,49.018,-80.55,153.72,104.688,97.017,104.172],[1.808,2.588,3.245,2.281,1.467,12.296,5.174,3.693,2.744,2.979,16.396,6.814,7.393,5.725,4.657,39.049,40.598,25.049,20.942,18.222,-56.402,101.544,43.764,38.911,36.664,-87.617,30.026,115.535,70.526,66.797],[-3.954,3.539,2.777,2.342,2.017,3.517,6.396,5.247,3.154,3.39,6.276,10,6.595,4.689,4.242,-13.362,38.632,25.193,17.439,15.929,-69.835,103.635,51.374,35.635,32.536,-85.617,-39.853,125.813,90.729,57.319],[-11.303,5.202,2.429,2.838,1.747,-17.126,5.36,5.064,3.219,2.499,-5.407,11.026,4.587,5.002,4.55,-48.307,51.657,26.891,18.633,15.278,-69.996,87.691,49.54,36.905,30.006,-96.537,-67.773,132.126,86.42,58.263],[-32.55,7.044,4.311,3.166,2.49,-31.539,9.386,5.849,4.198,3.957,-42.109,9.256,7.447,5.033,4.919,-62.126,51.5,26.576,23.197,16.088,-79.619,37.859,65.307,33.978,26.175,-95.743,-75.995,81.809,105.286,61.581]],
"vp": [[120.75,11.045,78.98,132.493,37.627,-0.247,0.366,5.915,21.213,11.532,9.809,8.338,7.219,7.087,19.164,10.639,-3.138,14.305,15.744,6.956,2.15,11.244,12.395,7.997,3.661,-4.902,-3.228,6.808,-3.376,8.155],[346.745,69.672,49.836,-19.416,-70.183,108.789,22.056,-13.104,10.983,12.084,73.535,20.68,7.566,25.721,3.317,49.626,6.117,22.343,11.081,11.873,22.104,13.319,8.175,14.171,7.427,27.286,5.288,-4.486,-0.549,22.724],[2184.31,-98.715,-185.318,127.643,58.256,504.723,44.142,33.492,3.88,-0.464,296.357,-2.55,32.144,27.263,12.951,58.244,29.645,13.202,17.185,21.048,30.096,27.714,-2.944,12.515,20.868,21.717,13.113,13.791,-6.984,5.336],[4798.422,-44.347,-71.47,-126.686,74.708,1148.03,-0.928,-11.228,-2.679,10.985,643.589,61.27,7.875,13.942,28.822,106.859,26.645,24.47,12.569,22.074,56.516,21.503,26.268,13.997,24.506,40.508,18.169,16.202,31.131,3.43],[7442.401,362.676,-415.864,-195.655,-208.031,1504.895,91.608,-9.209,11.131,-8.032,802.126,69.417,-45.65,-7.888,-15.16,114.253,61.89,30.652,7.183,15.185,82.028,49.17,10.656,19.266,21.366,54.191,11.384,16.369,18.439,10.551],[8368.51,732.4,-608.717,-320.241,-200.439,1683.785,389.322,-83.372,-101.682,3.702,796.297,181.238,28.03,-22.816,-23.165,149.712,123.43,14.303,38.042,29.216,79.305,34.319,32.167,-0.913,-1.087,75.949,45.939,25.152,34.718,12.259]]
}