{
"KTrans": [[22.861,11.412,10.168,19.538,13.014,10.458,4.318,17.062,15.481,18.277,18.051,19.511,13.682,12.541,13.001,37.22,30.856,25.99,24.366,25.515,72.634,51.467,46.393,50.287,41.27,30.107,106.334,118.685,93.725,101.536],[-51.508,-3.156,2.821,6.715,9.878,-42.207,0.096,0.712,5.405,9.531,-40.891,-7.184,1.129,9.934,9.568,-27.468,2.924,7.505,9.394,9.124,-11.764,12.921,15.312,19.032,18.8,-34.667,40.691,39.13,37.963,34.905],[-73.978,-22.818,-10.1,-6.907,3.108,-71.425,-26.48,-8.325,-1.216,-0.983,-69.666,-25.565,-9.336,-1.372,2.663,-58.656,-30.799,-5.813,-1.667,4.842,-62.245,-18.681,-5.71,6.178,12.61,-78.236,-30.478,8.514,22.204,15.834],[-80.944,-47.287,-26.166,-16.769,-8.223,-83.393,-40.369,-25.487,-15.178,-6.614,-82.179,-43.457,-22.596,-14.652,-7.232,-73.112,-36.769,-21.053,-13.251,-5.301,-93.471,-36.135,-17.926,-4.409,2.308,-96.153,-32.03,-10.954,0.335,11.071],[-89.301,-59.916,-34.327,-24.158,-15.799,-89.339,-59.024,-36.313,-25.322,-14.375,-89.002,-56.738,-35.004,-24.338,-13.878,-85.049,-48.742,-35.346,-21.717,-13.409,-75.158,-46.633,-31.125,-19.822,-10.435,-97.355,-70.343,-37.992,-7.765,-7.031],[-92.141,-67.062,-44.933,-33.664,-23.624,-90.472,-68.939,-47.694,-34.027,-27.238,-93.082,-69.885,-46.22,-34.521,-25.608,-87.412,-67.14,-49.255,-32.823,-21.28,-86.562,-60.666,-40.145,-31.88,-20.843,-90.546,-71.933,-33.686,-23.068,-13.76]],
"ve": [[9.243,11.761,23.425,53.946,-21.766,-1.567,33.057,78.759,-80.987,21.109,23.308,-15.236,-59.399,-138.106,-102.345,-4.481,1.405,0.532,-41.019,-47.131,-21.379,3.383,46.406,35.095,-44.421,77.452,16.215,-4.66,-21.091,-24.964],[-4.118,-2.166,0.781,2.429,5.088,1.213,0.985,1.118,4.587,4.972,17.358,1.188,2.159,3.288,7.473,11.409,7.824,4.629,7.742,8.204,9.623,8.492,-2.718,16.13,14.258,54.83,36.399,24.332,5.109,2.149],[-27.626,-8.625,-3.492,0.026,1.278,-35.664,-11.251,-3.541,-0.745,0.804,-34.396,-8.627,-1.979,-0.323,1.213,-23.409,-0.803,2.813,1.593,3.356,0.529,44.485,3.632,6.914,6.91,41.948,27.125,16.673,54.838,9.75],[-37.452,-20.852,-9.202,-5.193,-2.874,-36.157,-17.842,-7.075,-4.651,-1.763,-39.072,-18.867,-8.31,-4.748,-2.572,-25.731,-8.991,-6.114,-1.593,-0.112,-17.338,1.83,2.217,3.28,4.427,17.873,10.682,18.579,9.041,24.805],[-55.74,-25.744,-13.397,-9.303,-6.202,-47.962,-24.531,-12.961,-9.042,-5.688,-74.516,-21.206,-12.507,-8.756,-4.397,-30.481,-17.559,-10.438,-5.647,-4.106,-1.09,-4.051,-1.91,-1.886,-0.022,4.81,-2.895,11.895,9.972,-8.353],[-80.255,-30.149,-18.123,-12.325,-8.598,-47.617,-30.419,-19.223,-12.639,-10.238,-49.324,-34.604,-17.284,-12.109,-9.291,-33.797,-28.316,-18.547,-9.612,-5.677,-28.67,-11.579,-7.867,-8.862,-4.085,55.169,-6.569,13.749,1.682,9.442]],
"kep": [[-15.835,-22.356,-28.622,-20.839,-33.195,-27.185,-30.78,-22.088,-24.871,-25.487,-24.195,-16.786,-26.664,-31.313,-36.364,-25.845,-18.658,-19.691,-22.833,-22.847,-32.083,-19.334,-19.788,-7.386,-13.584,-27.367,-29.53,15.258,-17.97,14.007],[-60.171,-24.325,-22.313,-19.762,-19.444,-54.212,-24.654,-24.152,-22.859,-19.672,-54.425,-30.479,-24.413,-18.452,-21.263,-54.731,-29.21,-22.516,-22.4,-22.452,-51.55,-35.002,-24.54,-20.206,-17.976,-51.463,-31.156,-30.146,-24.8,-19.65],[-77.024,-37.078,-29.059,-29.126,-22.311,-75.62,-38.294,-27.994,-24.126,-25.048,-75.396,-39.598,-29.952,-24.648,-22.592,-74.971,-47.84,-31.19,-26.821,-22.932,-73.239,-50.286,-33.439,-25.766,-20.634,-72.033,-53.851,-42.233,-26.817,-27.696],[-82.849,-51.662,-38.786,-33.137,-28.076,-84.683,-47.03,-39.289,-32.452,-27.592,-84.274,-48.606,-36.264,-31.944,-27.423,-83.739,-52.244,-37.442,-33.301,-28.053,-85.373,-62.442,-43.026,-31.81,-26.564,-83.655,-63.892,-52.103,-38.479,-29.35],[-90.981,-61.096,-43.21,-36.647,-31.774,-90.789,-61.092,-45.126,-37.747,-31.083,-90.671,-58.987,-44.4,-37.327,-31.638,-89.82,-61.143,-47.257,-37.484,-31.999,-83.232,-67.571,-50.098,-40.035,-33.091,-83.57,-68.615,-64.137,-43.308,-37.739],[-93.02,-67.584,-50.63,-42.608,-36.546,-92.197,-68.405,-51.697,-42.929,-38.449,-94.143,-68.459,-51.242,-43.69,-37.695,-89.506,-73.268,-55.998,-44.379,-36.944,-86.741,-72.64,-55.862,-45.882,-39.02,-89.644,-70.397,-59.699,-52.257,-42.477]],
"vp": [[-488.462,-67.372,-283.273,-650.287,-477.275,-47.542,-1.691,-132.993,-98.067,-220.411,-29.498,-52.335,-43.339,-53.687,-40.661,-3.396,-14.08,-12,-4.55,-12.504,-27.595,1.965,-5.898,-12.947,-8.229,-35.12,-20.023,-29.093,-18.767,-23.752],[2715.367,496.22,-103.931,-239.667,-560.959,547.44,54.444,71.045,-127.424,-170.54,244.948,49.395,18.649,-51.123,-116.089,9.32,-2.411,8.456,-1.993,1.903,15.945,-8.383,-10.759,-15.112,-5.842,-11.307,-22.023,-14.74,-9.245,-9.631],[5276.791,1824.17,991.311,444.489,-562.729,1057.886,496.519,169.662,-57.862,48.44,489.79,235.28,85.667,14.139,-30.105,68.203,49.892,4.895,18.514,-0.397,29.585,22.737,22.079,-7.872,-17.852,2.264,-10.26,-6.989,-17.557,2.142],[5136.988,5446.624,2965.409,2314.388,1493.097,1014.982,940.963,548.73,378.468,150.213,558.923,467.09,280.429,218.12,103.98,85.86,69.404,62.318,32.477,26.252,61.124,18.962,10.584,4.468,-7.209,22.776,11.392,-7.717,6.039,-12.602],[6698.864,6844.141,4289.337,3770.873,2902.393,1369.997,1297.058,938.615,749.111,518.993,646.385,617.093,424.338,376.796,234.756,118.092,110.614,96.894,63.836,66.184,26.121,34.961,35.32,32.864,22.687,28.308,32.099,18.908,-5.728,10.277],[7074.565,8277.862,6504.383,5014.611,4205.518,1342.96,1520.716,1398.047,1091.029,1101.045,814.588,944.458,593.943,536.756,463.133,109.09,178.963,154.681,106.166,76.454,59.826,52.108,52.809,72.342,42.89,-11.782,36.079,-8.243,8.378,4.535]]
}