{
"KTrans": [[4.439,29.453,28.859,19.465,24.521,33.078,44.937,20.855,27.085,37.971,34.732,43.677,33.198,21.231,32.683,169.925,125.786,113.605,101.885,81.908,397.575,279.451,203.591,211.221,167.75,1223.902,705.004,501.395,464.336,429.149],[-65.56,46.154,52.59,35.327,26.121,-65.303,56.179,40.007,32.018,43.016,-59.624,72.3,40.482,33.317,39.235,-22.899,156.254,90.063,68.79,58.062,8.96,236.954,149.713,132.124,103.933,251.4,541.281,343.676,240.654,202.153],[-94.766,23.055,55.892,57.009,36.649,-97.185,4.617,87.098,49.479,44.335,-99.178,17.577,99.251,51.165,53.82,-73.639,68.746,152.569,99.146,78.45,-86.09,115.271,195.497,157.239,106.402,-25.953,315.703,433.519,281.372,198.472],[-107.424,-56.98,106.877,67.932,80.84,-107.338,-82.755,105.092,106.956,65.807,-106.578,-96.14,89.196,70.368,50.57,-104.42,-47.213,118.897,144.52,87.762,-94.518,-54.486,167.976,173.843,159.483,-6.745,-0.917,363.02,351.737,228.809],[-104.424,-110.661,-4.504,139.472,107.201,-109.305,-106.721,46.187,148.336,99.463,-107.423,-115.321,-8.357,118.582,96.489,-108.541,-124.782,36.935,201.863,166.685,-111.229,-99.079,60.032,236.824,184.234,-92.346,-119.49,249.71,382.865,276.123],[-110,-136.352,-109.151,88.568,148.672,-105.425,-130.345,-127.336,83,173.74,-106.86,-101.41,-99.76,56.336,187.246,-108.335,-126.418,-59.999,70.999,217.084,-104.404,-147.467,-66.657,178.273,254.688,-108.436,-111.771,-62.002,297.24,346.164]],
"ve": [[12.228,38.114,27.446,97.194,12.586,14.666,17.482,17.134,9.842,8.015,15.342,5.051,2.913,37.587,7.826,-25.492,17.503,-0.254,-9.597,-15.915,96.938,34.978,7.461,-7.388,-17.981,175.996,81.061,37.231,11.522,-5.934],[-7.282,9.319,4.005,1.846,1.72,11.328,-0.976,2.137,2.714,3.454,40.187,6.11,3.313,3.764,3.427,101.595,28.094,15.427,9.386,5.248,116.995,49.274,29.977,21.581,13.086,206.742,104.053,63.838,42.934,28.908],[12.34,2.582,1.041,2.194,0.882,8.245,7.252,4.081,2.41,3.231,17.598,11.214,6.065,2.217,4.315,122.372,28.016,16.582,13.743,11.478,94.398,53.116,31.732,26.055,17.971,197.104,99.464,66.349,51.134,36.475],[1.148,5.336,3.58,1.35,3.527,5.886,-0.628,11.726,3.798,2.507,-4.692,6.692,4.339,1.774,2.137,61.073,29.678,18.17,14.306,9.837,107.295,50.746,30.999,25.274,21.216,189.305,99.454,65.156,52.038,40.802],[-0.815,5.375,0.978,2.4,2.965,7.766,-3.002,4.319,4.21,3.754,20.105,6.063,5.604,3.919,2.382,52.049,26.787,22.264,14.346,12.56,115.596,51.57,37.284,25.504,21.747,138.907,100.717,68.563,50.892,39.564],[5.024,-8.697,4.567,1.542,1.014,4.263,32.074,5.656,-5.334,3.929,12.753,2.927,8.603,3.177,4.473,1184.479,24.947,17.034,13.024,11.518,92.035,49.869,34.76,26.285,22.353,198.49,99.751,60.372,49.567,40.763]],
"kep": [[-3.223,23.567,30.704,22.03,36.632,14.918,41.388,20.316,30.482,62.108,11.135,38.546,38.696,26.715,49.353,74.875,92.948,114.625,128.291,123.587,148.111,178.459,180.479,235.774,227.68,349.948,341.948,335.813,403.66,460.097],[-69.325,38.659,42.783,30.731,23.794,-70.932,42.635,33.441,25.87,37.928,-67.986,54.209,31.606,26.127,32.996,-51.822,94.809,60.185,50.649,47.19,-46.585,118.091,85.986,86.718,76.727,16.892,212.592,166.812,133.919,129.914],[-92.754,11.816,45.002,47.731,30.67,-98.203,-8.294,71.685,40.245,35.324,-99.014,-0.328,77.966,40.067,43.583,-82.498,26.696,106.082,69.166,56.057,-90.677,36.241,112.445,98.574,69.334,-75.44,100.939,210.424,146.662,112.398],[-105.285,-60.14,88.995,56.172,68.987,-104.007,-86.672,84.595,88.082,54.785,-105.403,-95.138,68.713,57.037,40.723,-101.438,-60.539,74.366,103.254,63.028,-95.878,-68.13,90.753,108.691,105.671,-66.827,-51.884,166.044,186.638,126.44],[-103.272,-107.903,-10.508,117.813,91.075,-107.318,-104.169,32.864,125.128,83.391,-105.01,-110.197,-20.284,98.414,80.212,-103.647,-114.502,9.027,147.671,126.829,-104.848,-95.831,11.502,153.771,123.015,-96.49,-104.343,100.711,204.87,157.287],[-108.124,-130.482,-106.79,72.322,128.745,-103.14,-124.241,-122.064,64.14,146.7,-104.249,-99.536,-98.244,39.905,157.453,-104.387,-118.208,-66.163,42.365,166.737,-100.728,-126.968,-72.787,107.23,175.153,-100.941,-102.96,-73.556,151.722,201.116]],
"vp": [[0.001,0.001,0.001,0.001,0.001,0.005,0.005,0.005,0.005,0.005,0.01,0.01,0.01,0.01,0.01,0.05,0.05,0.05,0.05,0.05,0.1,0.1,0.1,0.1,0.1,0.2,0.2,0.2,0.2,0.2],[0.001,0.001,0.001,0.001,0.001,0.005,0.005,0.005,0.005,0.005,0.01,0.01,0.01,0.01,0.01,0.05,0.05,0.05,0.05,0.05,0.1,0.1,0.1,0.1,0.1,0.2,0.2,0.2,0.2,0.2],[0.001,0.001,0.001,0.001,0.001,0.005,0.005,0.005,0.005,0.005,0.01,0.01,0.01,0.01,0.01,0.05,0.05,0.05,0.05,0.05,0.1,0.1,0.1,0.1,0.1,0.2,0.2,0.2,0.2,0.2],[0.001,0.001,0.001,0.001,0.001,0.005,0.005,0.005,0.005,0.005,0.01,0.01,0.01,0.01,0.01,0.05,0.05,0.05,0.05,0.05,0.1,0.1,0.1,0.1,0.1,0.2,0.2,0.2,0.2,0.2],[0.001,0.001,0.001,0.001,0.001,0.005,0.005,0.005,0.005,0.005,0.01,0.01,0.01,0.01,0.01,0.05,0.05,0.05,0.05,0.05,0.1,0.1,0.1,0.1,0.1,0.2,0.2,0.2,0.2,0.2],[0.001,0.001,0.001,0.001,0.001,0.005,0.005,0.005,0.005,0.005,0.01,0.01,0.01,0.01,0.01,0.05,0.05,0.05,0.05,0.05,0.1,0.1,0.1,0.1,0.1,0.2,0.2,0.2,0.2,0.2]]
}