{
"KTrans": [[-0.254,9.507,7.331,10.181,9.763,1.372,16.649,20.725,17.795,17.757,14.232,20.397,23.486,23.648,23.226,143.494,90.783,74.868,73.532,69.728,266.367,205.788,171.835,161.77,143.19,660.735,499.82,421.154,343.463,340.84],[-29.498,-6.436,3.477,1.777,4.275,-25.187,-2.535,1.612,4.498,6.366,-26.223,3.945,7.048,9.463,8.938,46.123,49.075,40.406,33.876,32.736,135.421,101.699,86.63,70.432,68.1,280.214,237.598,190.7,158.726,140.241],[-54.466,-12.945,-7.702,-2.641,0.12,-47.71,-14.318,-2.596,1.327,1.947,-37.873,-5.352,-1.307,3.755,4.556,-9.448,31.637,27.168,24.137,24.989,43.896,79.509,57.772,52.981,48.487,168.733,169.581,149.024,112.176,105.203],[-65.124,-14.292,-12.995,-5.259,-2.492,-63.601,-21.266,-10.908,-3.364,-3.182,-60.813,-15.411,-6.918,-2.571,-0.97,-22.988,9.706,14.969,14.188,17.039,17.248,50.054,47.402,41.343,36.276,87.782,123.514,108.102,95.536,79.175],[-67.247,-31.165,-18.607,-9.865,-7.445,-66.061,-26.293,-14.492,-8.658,-6.438,-64.114,-24.076,-15.488,-8.867,-5.489,-43.049,3.502,6.234,7.628,10.032,-2.384,38.562,28.752,28.21,27.034,24.615,107.009,88.94,81.864,70.239],[-74.131,-37.962,-23.547,-16.052,-10.103,-74.415,-34.738,-22.712,-15.034,-8.812,-73.186,-32.15,-20.156,-13.787,-8.134,-51.691,-9.079,2.974,5.102,5.213,-31.734,22.795,21.304,24.583,24.226,2.144,90.966,85.191,69.595,63.237]],
"ve": [[7.573,43.717,19.673,-3.672,-2964.052,45.615,65.214,29.559,52.347,211.953,25.807,24.358,24.426,-33.267,110.256,51.866,21.389,12.405,9.349,-1.724,92.755,35.842,14.556,-1.025,-8.971,163.128,79.605,36.795,13.014,-3.903],[4.165,1.449,1.397,4.014,5.776,8.685,1.503,3.351,3.907,5.51,29.376,2.351,4.436,5.119,6.981,49.819,21.242,12.963,11.49,9.102,104.396,45.156,27.586,20.422,15.259,194.473,93.539,59.846,41.25,29.409],[-1.838,-0.486,-1.952,-1.138,1.313,1.617,1.801,0.144,0.022,0.768,14.201,4.089,1.592,1.078,1.946,641.085,21.479,13.329,10.22,7.804,95.249,46.969,29.87,20.994,17.352,194.813,93.796,61.599,43.966,35.025],[19.743,-1.681,-2.615,-0.845,-0.985,11.342,1.071,-1.259,-0.722,-0.663,13.71,2.887,0.802,0.979,0.359,50.857,20.61,12.407,9.244,7.476,95.319,44.729,29.717,20.542,15.55,196.602,91.613,60.802,45.162,34.848],[6.506,-3.335,-2.217,-2.518,-2.117,44.926,-0.279,-1.068,-0.703,-1.011,16.34,1.834,0.116,0.168,0.051,51.386,22.981,12.833,8.461,6.684,98.631,46.105,27.934,21.407,16.688,194.868,93.356,60.781,45.532,34.596],[3.066,-3.386,-2.012,-2.172,-2.295,5.728,-0.096,-1.414,-1.753,-2.18,2.822,-0.195,0.265,-0.557,-0.232,48.704,20.743,13.226,8.744,6.375,94.664,46.587,28.681,20.759,16.17,187.954,92.732,61.315,44.52,35.982]],
"kep": [[-27.955,-25.472,-29.848,-31.88,-39.142,-32.531,-16.96,-16.353,-20.3,-22.362,-23.772,-16.122,-11.976,-16.165,-16.797,24.408,23.682,25.652,33.438,42.813,44.585,72.457,82.385,104.891,111.491,97.763,154.094,190.769,198.107,249.081],[-47.749,-29.823,-22.487,-25.604,-25.018,-47.486,-26.759,-25.023,-23.415,-23.367,-50.776,-22.95,-22.092,-20.922,-22.532,-25.761,-7,-6.006,-8.921,-7.704,-10.027,4.976,10.348,6.996,10.416,-2.9,31.233,36.929,38.265,40.065],[-66.6,-33.494,-28.874,-25.532,-25.217,-62.711,-35.908,-26.212,-23.457,-23.516,-58.636,-30.935,-26.577,-22.423,-22.497,-53.706,-17.803,-15.289,-14.888,-12.481,-44.246,-7.59,-8.259,-4.593,-4.553,-30.86,4.329,16.067,10.957,14.516],[-74.288,-33.798,-32.336,-27.875,-25.64,-74.624,-40.78,-31.816,-26.519,-26.462,-73.575,-37.496,-30.296,-27.148,-25.514,-61.351,-31.262,-22.771,-21.091,-17.868,-55.12,-21.822,-14.267,-11.615,-11.092,-51.823,-12.572,-2.615,1.249,0.143],[-76.43,-46.007,-37.071,-30.174,-28.657,-75.857,-44.107,-34.632,-30.523,-28.652,-76.534,-43.534,-36.176,-31.363,-28.717,-71.512,-36.465,-28.969,-25.238,-22.176,-62.667,-28.205,-24.094,-20.324,-17.948,-68.699,-19.582,-11.712,-5.88,-4.842],[-81.455,-51.493,-40.998,-35.195,-30.584,-82.122,-50.54,-40.749,-34.7,-29.66,-82.201,-48.361,-39.776,-34.612,-30.527,-75.22,-42.827,-31.146,-27.15,-25.408,-74.184,-36.723,-29.044,-22.27,-19.403,-73.627,-25.843,-13.624,-11.729,-9.577]],
"vp": [[124.688,119.251,760.049,251.235,-182.93,-5.947,-21.08,118.205,-22.514,34.784,14.87,-32.088,23.442,-17.735,12.203,7.876,10.404,-3.83,11.941,-20.181,-5.672,-8.009,3.457,-2.989,-9.159,-1.154,2.933,3.339,-4.972,8.919],[3027.316,1433.161,-98.727,69.59,-520.865,568.538,167.754,-81.091,-54.291,-11.333,264.802,101.465,31.507,-60.54,27.183,60.396,21.98,-5.735,-16.537,17.81,23.53,3.927,-8.828,-12.106,0.392,10.287,2.246,4.375,-6.686,-0.401],[4558.583,3494.393,1494.957,707.129,68.965,1031.486,719.767,392.044,172.805,-47.224,493.39,377.32,150.605,135.101,32.725,84.579,64.103,24.333,6.916,9.036,36.928,43.799,16.41,-0.212,14.628,14.997,6.139,10.035,-4.868,3.23],[6109.71,6452.069,3160.433,2085.927,859.895,1177.486,1012.916,515.149,377.974,290.32,610.86,613.897,347.89,216.12,91.565,124.559,98.814,46.299,30.647,16.423,66.123,50.619,37.656,3.059,-9.8,25.419,13.974,5.265,2.778,-10.661],[7079.523,6519.026,4643.308,3355.33,1889.281,1386.909,1482.009,940.177,461.743,395.146,755.932,812.112,430.197,244.922,185.161,144.403,155.457,94.962,52.396,21.717,64.838,75.247,26.186,28.833,15.068,25.1,29.945,18.221,21.559,-4.618],[7943.634,9816.265,7581.898,4379.965,3373.898,1386.763,2031.99,1297.326,798.605,419.989,821.92,906.227,722.895,379.432,253.759,152.435,178.284,115.525,72.041,41.534,73.568,94.893,50.153,43.595,17.986,18.13,31.665,35.025,21.137,16.623]]
}