{
"KTrans": [[-2.979,12.568,8.57,8.027,-17.098,9.252,19.788,6.586,4.483,8.127,7.029,14.659,21.495,17.984,19.31,28.626,54.225,79.001,80.075,83.667,-13.758,41.811,50.07,94.991,103.876,-110.346,-27.495,-14.309,20.795,0.617],[-42.997,-12.063,2.132,10.393,3.683,-36.933,-13.318,0.746,8.055,7.914,-35.091,-7.592,4.381,12.101,10.068,-12.399,12.991,14.341,23.253,36.409,-111.156,-15.949,-71.77,1.816,39.569,-25.293,48.699,-36.513,26.445,17.342],[-55.639,-22.095,-11.396,-6.297,-0.818,-51.125,-18.886,-5.902,-1.915,0.801,-47.043,-16.145,-1.436,-5.893,3.87,-50.294,4.362,16.719,2.348,-0.846,-45.625,11.9,-17.145,-46.582,-22.102,-20.681,34.3,5.147,-38.542,0.274],[-65.377,-25.046,-13.239,-7.66,-3.664,-67.141,-25.406,-7.104,-5.645,-1.336,-63.446,-23.901,-5.405,0.784,-0.969,-72.125,-4.4,18.181,13.229,10.571,-59.556,-14.038,2.754,53.852,25.195,-61.11,-77.405,-13.686,10.147,50.48],[-69.304,-25.568,-7.276,-3.804,-2.646,-72.663,-27.225,-12.068,-4.287,-2.322,-70.421,-25.092,-5.748,2.126,-0.251,-59.052,-12.954,17.821,19.746,17.77,-69.683,-23.354,0.266,35.215,41.27,-70.079,-53.237,-0.747,-23.978,26.806],[-77.631,-36.809,-16.334,-6.651,-4.054,-79.06,-31.937,-14.14,-5.415,-1.811,-71.055,-32.567,-11.383,5.228,1.938,-77.73,-24.298,13.568,31.893,14.326,-70.264,-20.141,-5.377,7.876,60.875,-38.39,-38.232,1.779,35.008,-42.024]],
"ve": [[-101.486,28.912,109.513,-4.46,132.805,25.619,-10.192,-21.334,-25.517,-67.177,-88.074,50.769,-14.754,215.772,51.759,2,-1.858,-60.321,-23.336,-47.829,93.508,20.671,-17.089,-30.699,-19.032,194.384,71.403,30.852,-2.485,-19.848],[101.707,30.079,-3.171,-10.389,-15.958,-34.106,-8.084,24.888,-3.659,7.179,-14.812,1.358,20.495,-2.894,-103.332,30.15,23.413,25.84,-3.358,-2.035,96.25,48.75,32.847,-6.815,3.014,193.31,90.744,74.694,40.007,24.796],[-53.404,-21.56,-4.325,24.639,5.585,-16.135,-8.761,-7.72,-6.625,-70.124,9.908,10.014,6.83,1.579,57.825,67.682,17.581,-1.385,14.39,9.659,88.374,73.175,27.396,26.534,63.285,189.806,94.325,66.042,51.469,36.444],[6.318,-7.55,-4.517,-8.24,248.211,-10.149,-4.614,-3.297,40.183,-4.955,11.913,0.489,-1.55,-0.068,-0.831,36.019,17.233,13.339,11.926,6.025,98.829,61.296,31.028,24.506,19.271,119.799,106.556,67.496,49.949,58.028],[-6.147,-6.383,-3.014,-5.91,-1.85,14.769,-19.572,-2.233,-1.208,-2.885,-73.61,0.977,1.491,1.396,-0.585,38.225,20.449,17.505,10.33,15.011,85.032,42.792,31.411,24.393,19.293,190.87,97.546,64.534,54.769,38.742],[4.014,-5.191,-2.895,-0.938,-1.677,35.839,-5.498,-0.451,-0.401,-1.485,-4.112,4.737,0.234,1.57,0.644,67.819,21.623,23.82,12.332,8.511,97.473,51.905,33.124,32.716,19.261,200.639,97.782,64.17,48.172,39.789]],
"kep": [[-136.944,-87.719,-52.912,-69.796,30.541,-132.109,-112.422,-43.092,-41.801,-42.016,-122.818,-101.961,-76.822,-59.528,-75.234,-132.102,-238.478,-215.095,-190.283,-203.615,-148.552,-254.001,-394.64,-363.175,-422.489,-88.111,-205.91,-429.895,-582.119,-752.103],[-88.593,-91.508,-116.069,-101.776,-34.002,-85.262,-92.097,-137.55,-90.827,-33.484,-86.993,-85.418,-135.386,-89.698,-47.203,-75.52,-72.447,-125.657,-171.43,-127.463,-116.119,-89.592,-244.727,-250.134,-205.279,-65.251,-35.369,-98.759,-163.482,-276.652],[-83.206,-52.454,-58.31,-81.917,-137.034,-81.692,-53.522,-46.316,-72.963,-116.953,-80.481,-51.541,-35.359,-94.101,-117.203,-83.988,-46.647,-32.322,-88.212,-174.016,-85.697,-44.565,-76.175,-140.252,-200.354,-75.926,-40.248,-45.714,-88.067,-66.333],[-87.698,-48.529,-32.296,-29.078,-36.639,-88.044,-49.908,-28.796,-22.444,-38.19,-87.186,-48.77,-24.154,-16.754,-37.884,-96.49,-46.738,-15.488,-21.227,-35.73,-85.253,-56.586,-46.439,14.962,-27.529,-82.109,-83.765,-57.934,-34.364,1.712],[-88.344,-43.478,-19.248,-10.636,-13.934,-90.459,-44.879,-27.717,-13.171,-15.301,-89.57,-47.28,-22.512,-7.168,-12.282,-85.881,-48.725,-13.167,0.323,0.007,-91.13,-60.879,-39.883,-6.768,16.311,-89.115,-77.157,-54.289,-61.907,-27.575],[-92.265,-51.462,-26.303,-15.102,-9.66,-94.117,-50.568,-24.437,-12.22,-9.06,-88.644,-50.738,-23.411,-4.155,-4.039,-94.161,-55.291,-20.232,8.483,-3.645,-91.41,-54.371,-46.967,-29.142,33.602,-82.978,-71.089,-44.21,-16.931,-62.691]],
"vp": [[-60.873,-59.116,-98.519,962.291,-396.532,48.553,-54.513,22.82,102.666,69.004,21.452,-31.735,51.396,23.676,60.09,15.807,-0.674,13.278,-5.324,8.284,-17.007,-3.66,-9.954,7.053,-2.662,-14.383,-22.093,-2.27,3.799,5.941],[2758.825,943.521,231.29,-126.109,833.592,451.948,258.552,-69.468,-239.984,-70.757,290.465,77.601,-32.949,-11.331,10.807,8.058,4.752,-16.312,3.077,2.218,31.249,-7.912,10.69,7.325,-2.717,-6.105,-36.703,-24.946,-31.967,-7.67],[4391.696,2739.5,1427.959,1055.674,66.845,909.25,607.114,329.532,278.501,-20.814,518.724,276.837,113.782,116.853,-5.118,57.696,57.485,24.884,-11.12,-3.899,18.04,14.443,0.077,14.309,-0.37,12.17,-15.797,-17.886,-4.554,-14.917],[6292.203,5769.526,2496.043,937.281,452.488,1030.586,1203.263,689.556,241.033,271.149,523.821,547.336,184.423,126.784,24.146,111.174,94.352,44.827,14.566,7.165,49.184,30.943,22.778,-9.343,-13.58,9.24,12.817,-2.84,-12.816,-26.573],[6109.883,7351.415,5309.134,2364.725,2149.987,1130.232,1297.749,1064.708,550.509,312.14,669.488,721.892,370.973,262.394,112.599,137.23,126.04,90.386,-1.95,35.531,35.968,25.77,23.244,-0.979,0.302,-7.862,23.51,12.405,0.149,-20.067],[7775.407,8120.111,5585.834,3884.377,1810.655,1420.405,1761.881,1133.328,437.556,429.091,615.739,818.654,666.068,451.063,183.557,132.704,137.192,144.435,100.19,-0.23,77.303,68.998,61.739,42.511,14.688,-1.613,36.344,-15.455,-13.06,-12.385]]
}